// Created by Crowbar 0.34.0.0

$ModelName "weapons/tfa_cso/w_guitar.mdl"

$BodyGroup "studio"
{
	studio "v_guitar_NEXON_CSO_REF_Guitar"
}

$collisionmodel "v_guitar_NEXON_CSO_REF_Guitar.smd"
{
	$mass 9
}

$CDMaterials "models\weapons\tfa_cso\guitar"

$attachment "0" "root" -0.30 -19.50 0.60 rotate -0 0 0

$Sequence "idle" {
	"anims\idle.smd"
	fps 30
}