// Created by Crowbar 0.62
====== File Size ======
	34,796
====== File Seek Log ======
--- Summary ---
	0 - 34,796
------------------------
--- Each Section or Loop ---
	0 - 243 MDL File Header; MDL File Header
	244 - 1,587 theMdlFileData.theBones 12
	1,588 - 1,619 aHitboxSet.theHitboxes 1
	1,620 - 1,631 anAnimation
	1,632 - 1,643 anAnimation
	1,644 - 1,655 anAnimation
	1,656 - 1,667 anAnimation
	1,668 - 1,679 anAnimation
	1,680 - 1,691 anAnimation
	1,692 - 1,703 anAnimation
	1,704 - 1,715 anAnimation
	1,716 - 1,727 anAnimation
	1,728 - 1,739 anAnimation
	1,740 - 1,751 anAnimation
	1,752 - 1,763 anAnimation
	1,764 - 1,767 anAnimation.theAnimationValues
	1,768 - 1,771 anAnimation.theAnimationValues
	1,772 - 1,775 anAnimation.theAnimationValues
	1,776 - 1,951 aSequence [idle]
	1,952 - 2,055 theMdlFileData.theSequenceGroups 1
	2,056 - 2,131 aBodyPart [studio]
	2,132 - 2,243 aModel [p_scar_Limit]
	2,244 - 2,622 aModel.theVertexBoneInfos 379
	2,623 - 2,623 aModel.theVertexBoneInfos alignment [ 00 ]
	2,624 - 2,802 aModel.theNormalBoneInfos 179
	2,803 - 2,803 aModel.theNormalBoneInfos alignment [ 00 ]
	2,804 - 7,351 aModel.theVertexes 379
	7,352 - 9,499 aModel.theNormals 179
	9,500 - 9,519 aMesh
	9,520 - 17,559 aMesh.theFaces 187
	17,560 - 17,639 aTexture [CSO_Scar.bmp]
	17,640 - 17,641 theMdlFileData.theSkinFamilies 1
	17,642 - 17,643 theMdlFileData.theSkinFamilies alignment [ 00 00 ]
	17,644 - 34,795 aTexture.theData
	34,796 - 34,796 END OF FILE + 1 (File size)
========================
