version 1
nodes
  0 "sm_root" -1
  1 "roll" 0
  2 "bone01" 0
  3 "roll_side" 0
  4 "bone02" 0
  5 "missile_up" 0
  6 "missile01" 5
  7 "missile002" 5
  8 "missile003" 5
  9 "triger" 0
  10 "open" 0
  11 "cover" 0
  12 "attach_bone" 11
  13 "megazine" 0
  14 "cover_bone13" 11
  15 "cover_bone01" 11
  16 "cover_bone02" 11
  17 "cover_bone03" 11
  18 "cover_bone16" 11
  19 "cover_bone04" 11
  20 "cover_bone05" 11
  21 "cover_bone06" 11
  22 "cover_bone07" 11
  23 "cover_bone08" 11
  24 "cover_bone09" 11
  25 "cover_bone10" 11
  26 "cover_bone11" 11
  27 "cover_bone12" 11
  28 "cover_bone14" 11
  29 "cover_bone15" 11
  30 "fx_root01" 0
  31 "ball_bone30" 30
  32 "ball_bone01" 31
  33 "ball_bone02" 31
  34 "ball_bone03" 31
  35 "ball_bone04" 31
  36 "ball_bone05" 30
  37 "ball_bone06" 36
  38 "ball_bone07" 36
  39 "ball_bone08" 36
  40 "ball_bone09" 36
  41 "ball_bone10" 30
  42 "ball_bone11" 41
  43 "ball_bone12" 41
  44 "ball_bone13" 41
  45 "ball_bone14" 41
  46 "ball_bone15" 30
  47 "ball_bone16" 46
  48 "ball_bone17" 46
  49 "ball_bone18" 46
  50 "ball_bone19" 46
  51 "ball_bone20" 30
  52 "ball_bone21" 51
  53 "ball_bone22" 51
  54 "ball_bone23" 51
  55 "ball_bone24" 51
  56 "ball_bone25" 30
  57 "ball_bone26" 56
  58 "ball_bone27" 56
  59 "ball_bone28" 56
  60 "ball_bone29" 56
  61 "fx_bone15" 30
  62 "fx_bone16" 61
  63 "fx_bone019" 62
  64 "fx_bone17" 61
  65 "fx_bone020" 64
  66 "fx_bone018" 30
  67 "fx_bone021" 30
  68 "fx_root02" 0
  69 "fx_bone14" 68
  70 "fx_bone01" 69
  71 "fx_bone02" 69
  72 "fx_bone03" 68
  73 "fx_bone04" 72
  74 "fx_line_bone01" 68
  75 "fx_line_bone02" 74
  76 "fx_line_bone04" 68
  77 "fx_line_bone05" 76
  78 "fx_line_bone06" 68
  79 "fx_line_bone03" 78
  80 "fx_bone05" 68
  81 "fx_bone06" 80
  82 "fx_bone07" 80
  83 "root" -1
  84 "Bone01" 83
  85 "Bone_L_Upper" 84
  86 "Bone_Lefthand" 84
  87 "Bone13" 86
  88 "Bone14" 87
  89 "Bone15" 88
  90 "Bone17" 86
  91 "Bone18" 90
  92 "Bone19" 91
  93 "Bone21" 86
  94 "Bone22" 93
  95 "Bone23" 94
  96 "Bone09" 86
  97 "Bone10" 96
  98 "Bone11" 97
  99 "Bone05" 86
  100 "Bone06" 99
  101 "Bone07" 100
  102 "Bone_Se_Hand-L" 86
  103 "Bone04" 83
  104 "Bone_Righthand" 103
  105 "Bone39" 104
  106 "Bone40" 105
  107 "Bone41" 106
  108 "Bone35" 104
  109 "Bone36" 108
  110 "Bone37" 109
  111 "Bone31" 104
  112 "Bone32" 111
  113 "Bone33" 112
  114 "Bone43" 104
  115 "Bone44" 114
  116 "Bone45" 115
  117 "Bone27" 104
  118 "Bone28" 117
  119 "Bone29" 118
  120 "Bone_Se_Hand-R" 104
  121 "Bone_R_Upper" 103
  122 "cover_light" 11
end
skeleton
  time 0
    0 3.924576 -29.255671 -4.850994 0.530720 -1.540751 -2.101312
    1 0.238163 -0.057413 18.177240 0.000016 1.570796 0.000000
    2 1.836297 0.803117 21.047106 0.000000 -3.141592 1.570780
    3 0.673975 -0.057419 21.796457 0.000000 0.000000 -1.570813
    4 1.840612 -0.919910 21.047106 0.000000 0.000000 -1.570813
    5 2.107199 -0.057442 20.712797 0.000016 1.570451 0.000000
    6 0.083709 0.555699 0.037486 0.000000 0.000000 0.000000
    7 0.083708 0.006766 0.037495 0.000000 0.000000 0.000000
    8 0.083709 -0.545521 0.037503 0.000000 0.000000 0.000000
    9 -1.365405 -0.057386 21.653496 -1.570795 0.000000 3.141576
    10 1.224929 -0.067710 11.514008 0.000016 1.570451 0.000000
    11 1.252390 -0.050097 12.633186 0.000001 -0.000001 -1.570796
    12 0.004044 -0.981453 -12.436363 -1.586836 1.544882 1.569961
    13 -2.649347 -0.057366 19.084705 1.570813 1.570796 0.000000
    14 0.001464 -0.008032 -3.949587 0.000000 0.000001 1.570780
    15 -1.330173 -0.008011 -10.064907 0.000000 0.000001 1.570780
    16 0.001833 -0.008035 -10.064911 0.000000 0.000001 1.570780
    17 1.349731 -0.008057 -10.064911 0.000000 0.000001 1.570780
    18 -0.670584 -0.008022 -8.496895 0.000000 0.000001 1.570780
    19 0.680651 -0.008045 -8.496899 0.000000 0.000001 1.570780
    20 -1.325763 -0.008010 -6.978777 0.000000 0.000001 1.570780
    21 0.005652 -0.008029 -7.018564 0.000000 0.000001 1.570780
    22 1.328758 -0.008050 -6.998678 0.000000 0.000001 1.570780
    23 -0.632762 -0.008024 -5.504686 0.000000 0.000001 1.570780
    24 0.635415 -0.008042 -5.504688 0.000000 0.000001 1.570780
    25 -0.535695 -0.008019 -2.522734 0.000000 0.000001 1.570780
    26 0.541483 -0.008039 -2.522738 0.000000 0.000001 1.570780
    27 0.001465 -0.008029 -1.084686 0.000000 0.000001 1.570780
    28 -0.729452 -0.008023 -11.645773 0.000000 0.000001 1.570780
    29 0.732391 -0.008047 -11.645771 0.000000 0.000001 1.570780
    30 1.634125 -0.048500 21.505922 -1.499092 -1.605370 -0.056752
    31 -0.076288 0.726000 0.081052 -1.337039 0.000000 -3.141592
    32 -0.000001 0.120436 -0.119866 -0.000001 -3.141591 -0.000001
    33 0.000000 0.120436 0.117207 -0.000001 -3.141591 -0.000001
    34 0.000000 -0.117229 -0.119866 -0.000001 -3.141591 -0.000001
    35 0.000000 -0.117228 0.117207 -0.000001 -3.141591 -0.000001
    36 0.046140 0.360976 -0.150484 1.337351 -3.141592 0.000000
    37 0.000000 0.065934 -0.086090 0.000000 -3.141592 0.000000
    38 0.000000 0.065935 0.064183 0.000000 -3.141592 0.000000
    39 0.000000 -0.083938 -0.086090 0.000000 -3.141592 0.000000
    40 0.000000 -0.083937 0.064183 0.000000 -3.141592 0.000000
    41 -0.066790 0.496563 -0.234283 1.498584 -3.141592 0.000000
    42 0.000000 0.108656 -0.108143 0.000000 -3.141592 0.000000
    43 0.000000 0.108657 0.105743 0.000000 -3.141592 0.000000
    44 0.000000 -0.105762 -0.108142 0.000000 -3.141592 0.000000
    45 0.000000 -0.105762 0.105743 0.000000 -3.141592 0.000000
    46 -0.001470 0.407440 0.007516 0.000000 3.141592 0.000000
    47 0.000000 0.000000 0.000000 0.000000 -3.141592 0.000000
    48 0.000000 0.000000 0.000000 0.000000 -3.141592 0.000000
    49 0.000000 0.000000 0.000000 0.000000 -3.141592 0.000000
    50 0.000000 0.000000 0.000000 0.000000 -3.141592 0.000000
    51 -0.027858 0.287042 0.080125 1.103280 3.141592 0.000000
    52 0.000000 0.045899 -0.059930 0.000000 -3.141592 0.000000
    53 0.000000 0.045899 0.044680 0.000000 -3.141592 0.000000
    54 0.000000 -0.058432 -0.059930 0.000000 -3.141592 0.000000
    55 0.000001 -0.058432 0.044680 0.000000 -3.141592 0.000000
    56 -0.006434 0.581911 -0.097885 0.000000 3.141592 0.000000
    57 0.000000 0.000000 0.000000 0.000000 -3.141592 -0.000001
    58 0.000000 0.000000 0.000000 0.000000 -3.141592 -0.000001
    59 0.000000 0.000000 0.000000 0.000000 -3.141592 -0.000001
    60 0.000000 0.000000 0.000000 0.000000 -3.141592 -0.000001
    61 -0.019860 0.236434 -0.009666 0.000006 0.000000 1.570796
    62 -0.042626 -0.005437 -0.000087 -1.544876 1.562220 -3.117754
    63 0.000923 0.260566 0.001115 0.000000 0.000000 0.000000
    64 -0.112480 0.000000 -0.000001 3.141591 1.570796 0.000000
    65 -0.000151 -0.000001 -0.328592 0.000000 0.000000 0.000000
    66 1.079672 -0.300923 0.000278 1.570557 -0.002082 0.964619
    67 1.079672 -0.300923 0.000278 1.570557 -0.002082 0.964619
    68 -22.073315 -0.000118 57.409061 0.000002 0.000000 0.000000
    69 2.240593 -0.068182 13.053486 -0.015962 1.544884 -0.000736
    70 0.000000 3.000000 0.000000 0.000000 0.000000 0.000000
    71 0.000000 3.000000 0.000000 0.000000 0.000000 0.000000
    72 2.090170 -0.108375 24.988319 3.141197 -0.025911 0.015212
    73 0.000000 0.000000 0.000000 0.000000 0.000000 0.000000
    74 1.788576 3.208700 13.194458 -3.085985 -0.015872 0.000640
    75 0.000000 -0.000002 0.000000 0.000000 0.000000 0.000000
    76 1.760014 1.818453 13.783264 3.086962 0.028278 -0.004157
    77 0.000000 0.000000 0.000000 0.000000 0.000000 0.000000
    78 1.798309 2.527424 15.295757 0.000028 0.005191 0.015211
    79 0.000000 0.000000 0.000000 0.000000 0.000000 0.000000
    80 2.145487 -0.046321 20.754459 0.528317 1.544406 -2.597312
    81 0.000000 -1.238660 0.021181 0.000000 0.000000 0.000000
    82 0.000000 -1.238660 0.021181 0.000000 0.000000 0.000000
    83 0.001265 -0.569176 -20.601572 0.000000 0.000000 0.000000
    84 9.310103 -5.299614 -12.557959 3.138909 -0.000224 -1.566807
    85 1.257180 8.762585 -0.153713 -1.570562 0.002683 -1.566807
    86 -0.071921 -8.498736 -0.104134 -0.025046 0.287591 0.014898
    87 -0.488518 -2.755602 -0.228260 0.106454 0.010332 -0.264490
    88 0.039887 -1.479790 0.029854 -0.055395 0.000000 0.000001
    89 0.028786 -1.075731 -0.023109 0.002099 0.000000 0.000000
    90 0.250027 -2.820665 -0.238396 0.041826 -0.002921 0.008443
    91 -0.049759 -1.680544 0.100479 0.019826 0.000000 -0.000002
    92 -0.034142 -1.148312 0.084782 -0.040115 0.000000 0.000000
    93 0.957766 -2.746780 -0.090302 -0.017221 -0.162277 0.191558
    94 -0.033420 -1.397129 -0.011257 0.013931 0.000000 -0.000001
    95 -0.022360 -0.957436 0.018784 0.003845 0.000000 0.000000
    96 -1.180681 -2.507217 -0.193859 0.082999 0.013294 -0.477915
    97 -0.024967 -1.123934 0.017597 -0.018065 0.000000 0.000001
    98 -0.020057 -0.890968 0.010090 -0.060797 0.000000 0.000000
    99 0.583510 -1.197277 0.185379 0.158049 -0.404973 -0.364290
    100 1.535927 0.010246 0.005009 -0.002964 -0.012979 0.000887
    101 1.100771 0.004527 -0.010679 -0.002796 0.015973 0.003458
    102 0.120153 -0.050270 -0.054489 0.287569 3.110905 1.561085
    103 -9.310107 -5.231260 -12.513384 0.004984 -3.131565 -1.566847
    104 0.096944 -8.450418 -0.009365 -0.032965 -0.297907 -0.004663
    105 0.447953 -2.798986 -0.200443 0.106456 -0.010396 0.265094
    106 -0.032909 -1.480204 0.004940 -0.055403 0.000000 0.000002
    107 -0.027022 -1.076920 -0.020210 0.002094 0.000000 0.000000
    108 -0.249534 -2.846964 -0.174213 0.041903 -0.000125 -0.008396
    109 0.043235 -1.683941 0.096012 0.019757 0.002823 -0.000167
    110 0.031729 -1.160830 0.058838 -0.040181 0.000642 0.008372
    111 -0.963866 -2.785145 -0.085350 -0.017227 0.162276 -0.191556
    112 0.028479 -1.403067 0.006271 0.013941 0.000000 0.000000
    113 0.021413 -0.957781 0.020046 0.003851 0.000000 0.000000
    114 1.164475 -2.543940 -0.170330 0.083003 -0.013294 0.477915
    115 0.024032 -1.129042 0.017807 -0.018074 0.000000 0.000001
    116 0.014898 -0.883989 -0.019848 -0.060801 0.000000 0.000000
    117 -0.586770 -1.264477 0.200161 -0.152092 -0.410513 -2.814816
    118 1.522835 0.058681 0.016848 0.001410 0.008985 -0.046880
    119 1.117947 0.048424 -0.005766 -0.000243 -0.025198 0.065422
    120 -0.139399 -0.111698 0.014397 0.285382 -0.030687 1.580508
    121 -1.393470 8.839177 -0.239433 1.580804 -0.005023 -1.566847
    122 0.001467 -0.034320 -0.008593 0.000017 1.570451 0.000000
end
triangles
$0b_sgmissilem_fx02.bmp
  81 1.778478 49.429518 -22.763630 -0.002198 -0.999998 -0.000237 0.000000 0.499022
  82 1.808476 49.429132 -22.763668 -0.002198 -0.999998 -0.000237 0.000000 0.000000
  81 6.518082 49.368514 -22.769548 -0.002198 -0.999998 -0.000237 0.499022 0.499022
$0b_sgmissilem_fx02.bmp
  81 6.518082 49.368514 -22.769548 -0.002198 -0.999998 -0.000237 0.499022 0.499022
  82 1.808476 49.429132 -22.763668 -0.002198 -0.999998 -0.000237 0.000000 0.000000
  82 6.488084 49.368900 -22.769511 -0.002198 -0.999998 -0.000237 0.499022 0.000000
$0b_sgmissilem_fx01.bmp
  122 2.469869 -21.614748 -3.456436 -0.015200 -0.025909 0.999549 0.643836 0.135029
  122 3.849708 -21.605220 -3.435183 -0.015200 -0.025909 0.999549 0.643836 0.105675
  122 3.169765 -21.205123 -3.435162 -0.015200 -0.025909 0.999549 0.651663 0.119374
$0b_sgmissilem_fx01.bmp
  122 3.169765 -21.205123 -3.435162 -0.015200 -0.025909 0.999549 0.651663 0.119374
  122 3.849708 -21.605220 -3.435183 -0.015200 -0.025909 0.999549 0.643836 0.105675
  122 3.849686 -21.205354 -3.424818 -0.015200 -0.025909 0.999549 0.651663 0.105675
$0b_sgmissilem_fx01.bmp
  122 3.849708 -21.605220 -3.435183 -0.015200 -0.025909 0.999549 0.643836 0.105675
  122 4.499611 -21.205575 -3.414929 -0.015200 -0.025909 0.999549 0.651663 0.119374
  122 3.849686 -21.205354 -3.424818 -0.015200 -0.025909 0.999549 0.651663 0.105675
$0b_sgmissilem_fx01.bmp
  122 3.849686 -21.205354 -3.424818 -0.015200 -0.025909 0.999549 0.651663 0.105675
  122 4.499611 -21.205575 -3.414929 -0.015200 -0.025909 0.999549 0.651663 0.119374
  122 3.849622 -20.035747 -3.394500 -0.015200 -0.025909 0.999549 0.675147 0.105675
$0b_sgmissilem_fx01.bmp
  122 4.499611 -21.205575 -3.414929 -0.015200 -0.025909 0.999549 0.651663 0.119374
  122 4.499547 -20.035967 -3.384611 -0.015200 -0.025909 0.999549 0.675147 0.119374
  122 3.849622 -20.035747 -3.394500 -0.015200 -0.025909 0.999549 0.675147 0.105675
$0b_sgmissilem_fx01.bmp
  122 3.849622 -20.035747 -3.394500 -0.015200 -0.025909 0.999549 0.675147 0.105675
  122 4.499547 -20.035967 -3.384611 -0.015200 -0.025909 0.999549 0.675147 0.119374
  122 3.849605 -19.725851 -3.386467 -0.015200 -0.025909 0.999549 0.681018 0.105675
$0b_sgmissilem_fx01.bmp
  122 4.499547 -20.035967 -3.384611 -0.015200 -0.025909 0.999549 0.675147 0.119374
  122 4.979474 -19.726234 -3.369276 -0.015200 -0.025909 0.999549 0.681018 0.129159
  122 3.849605 -19.725851 -3.386467 -0.015200 -0.025909 0.999549 0.681018 0.105675
$0b_sgmissilem_fx01.bmp
  122 3.849605 -19.725851 -3.386467 -0.015200 -0.025909 0.999549 0.681018 0.105675
  122 4.979474 -19.726234 -3.369276 -0.015200 -0.025909 0.999549 0.681018 0.129159
  122 3.849543 -18.596230 -3.357185 -0.015200 -0.025909 0.999549 0.702544 0.105675
$0b_sgmissilem_fx01.bmp
  122 4.979474 -19.726234 -3.369276 -0.015200 -0.025909 0.999549 0.681018 0.129159
  122 4.969413 -18.596610 -3.340147 -0.015200 -0.025909 0.999549 0.702544 0.129159
  122 3.849543 -18.596230 -3.357185 -0.015200 -0.025909 0.999549 0.702544 0.105675
$0b_sgmissilem_fx01.bmp
  122 3.849543 -18.596230 -3.357185 -0.015200 -0.025909 0.999549 0.702544 0.105675
  122 4.969413 -18.596610 -3.340147 -0.015200 -0.025909 0.999549 0.702544 0.129159
  122 4.389459 -18.206545 -3.338864 -0.015200 -0.025909 0.999549 0.708415 0.117417
$0b_sgmissilem_fx01.bmp
  122 1.770198 -26.122996 -3.583951 -0.015200 -0.025909 0.999549 0.555773 0.148728
  122 3.849957 -26.123702 -3.552308 -0.015200 -0.025909 0.999549 0.555773 0.105675
  122 2.410099 -25.673365 -3.562554 -0.015200 -0.025909 0.999549 0.563601 0.135029
$0b_sgmissilem_fx01.bmp
  122 2.410099 -25.673365 -3.562554 -0.015200 -0.025909 0.999549 0.563601 0.135029
  122 3.849957 -26.123702 -3.552308 -0.015200 -0.025909 0.999549 0.555773 0.105675
  122 3.849932 -25.663856 -3.540388 -0.015200 -0.025909 0.999549 0.563601 0.105675
$0b_sgmissilem_fx01.bmp
  122 3.849957 -26.123702 -3.552308 -0.015200 -0.025909 0.999549 0.555773 0.105675
  122 5.299764 -25.664348 -3.518330 -0.015200 -0.025909 0.999549 0.563601 0.135029
  122 3.849932 -25.663856 -3.540388 -0.015200 -0.025909 0.999549 0.563601 0.105675
$0b_sgmissilem_fx01.bmp
  122 3.849932 -25.663856 -3.540388 -0.015200 -0.025909 0.999549 0.563601 0.105675
  122 5.299764 -25.664348 -3.518330 -0.015200 -0.025909 0.999549 0.563601 0.135029
  122 3.849871 -24.554229 -3.511625 -0.015200 -0.025909 0.999549 0.585127 0.105675
$0b_sgmissilem_fx01.bmp
  122 5.299764 -25.664348 -3.518330 -0.015200 -0.025909 0.999549 0.563601 0.135029
  122 5.299703 -24.554721 -3.489566 -0.015200 -0.025909 0.999549 0.585127 0.135029
  122 3.849871 -24.554229 -3.511625 -0.015200 -0.025909 0.999549 0.585127 0.105675
$0b_sgmissilem_fx01.bmp
  122 3.849871 -24.554229 -3.511625 -0.015200 -0.025909 0.999549 0.585127 0.105675
  122 5.299703 -24.554721 -3.489566 -0.015200 -0.025909 0.999549 0.585127 0.135029
  122 3.849852 -24.204347 -3.502556 -0.015200 -0.025909 0.999549 0.590998 0.105675
$0b_sgmissilem_fx01.bmp
  122 5.299703 -24.554721 -3.489566 -0.015200 -0.025909 0.999549 0.585127 0.135029
  122 5.899614 -24.205042 -3.471369 -0.015200 -0.025909 0.999549 0.590998 0.148728
  122 3.849852 -24.204347 -3.502556 -0.015200 -0.025909 0.999549 0.590998 0.105675
$0b_sgmissilem_fx01.bmp
  122 3.849852 -24.204347 -3.502556 -0.015200 -0.025909 0.999549 0.590998 0.105675
  122 5.899614 -24.205042 -3.471369 -0.015200 -0.025909 0.999549 0.590998 0.148728
  122 3.849788 -23.054733 -3.472756 -0.015200 -0.025909 0.999549 0.616438 0.105675
$0b_sgmissilem_fx01.bmp
  122 5.899614 -24.205042 -3.471369 -0.015200 -0.025909 0.999549 0.590998 0.148728
  122 5.899551 -23.055428 -3.441570 -0.015200 -0.025909 0.999549 0.616438 0.148728
  122 3.849788 -23.054733 -3.472756 -0.015200 -0.025909 0.999549 0.616438 0.105675
$0b_sgmissilem_fx01.bmp
  122 3.849788 -23.054733 -3.472756 -0.015200 -0.025909 0.999549 0.616438 0.105675
  122 5.899551 -23.055428 -3.441570 -0.015200 -0.025909 0.999549 0.616438 0.148728
  122 5.209607 -22.625339 -3.440924 -0.015200 -0.025909 0.999549 0.624266 0.135029
$0b_sgmissilem_fx01.bmp
  122 3.849686 -21.205354 -3.424818 -0.015200 -0.025909 0.999549 0.651663 0.105675
  122 3.849622 -20.035747 -3.394500 -0.015200 -0.025909 0.999549 0.675147 0.105675
  122 3.169765 -21.205123 -3.435162 -0.015200 -0.025909 0.999549 0.651663 0.119374
$0b_sgmissilem_fx01.bmp
  122 3.169765 -21.205123 -3.435162 -0.015200 -0.025909 0.999549 0.651663 0.119374
  122 3.849622 -20.035747 -3.394500 -0.015200 -0.025909 0.999549 0.675147 0.105675
  122 3.169701 -20.035516 -3.404844 -0.015200 -0.025909 0.999549 0.675147 0.121331
$0b_sgmissilem_fx01.bmp
  122 3.849622 -20.035747 -3.394500 -0.015200 -0.025909 0.999549 0.675147 0.105675
  122 3.849605 -19.725851 -3.386467 -0.015200 -0.025909 0.999549 0.681018 0.105675
  122 3.169701 -20.035516 -3.404844 -0.015200 -0.025909 0.999549 0.675147 0.121331
$0b_sgmissilem_fx01.bmp
  122 3.169701 -20.035516 -3.404844 -0.015200 -0.025909 0.999549 0.675147 0.121331
  122 3.849605 -19.725851 -3.386467 -0.015200 -0.025909 0.999549 0.681018 0.105675
  122 2.709737 -19.725464 -3.403810 -0.015200 -0.025909 0.999549 0.681018 0.129159
$0b_sgmissilem_fx01.bmp
  122 3.849605 -19.725851 -3.386467 -0.015200 -0.025909 0.999549 0.681018 0.105675
  122 3.849543 -18.596230 -3.357185 -0.015200 -0.025909 0.999549 0.702544 0.105675
  122 2.709737 -19.725464 -3.403810 -0.015200 -0.025909 0.999549 0.681018 0.129159
$0b_sgmissilem_fx01.bmp
  122 2.709737 -19.725464 -3.403810 -0.015200 -0.025909 0.999549 0.681018 0.129159
  122 3.849543 -18.596230 -3.357185 -0.015200 -0.025909 0.999549 0.702544 0.105675
  122 2.709675 -18.595844 -3.374528 -0.015200 -0.025909 0.999549 0.702544 0.129159
$0b_sgmissilem_fx01.bmp
  122 3.849543 -18.596230 -3.357185 -0.015200 -0.025909 0.999549 0.702544 0.105675
  122 3.309584 -18.206178 -3.355294 -0.015200 -0.025909 0.999549 0.708415 0.117417
  122 2.709675 -18.595844 -3.374528 -0.015200 -0.025909 0.999549 0.702544 0.129159
$0b_sgmissilem_fx01.bmp
  122 3.849932 -25.663856 -3.540388 -0.015200 -0.025909 0.999549 0.563601 0.105675
  122 3.849871 -24.554229 -3.511625 -0.015200 -0.025909 0.999549 0.585127 0.105675
  122 2.410099 -25.673365 -3.562554 -0.015200 -0.025909 0.999549 0.563601 0.135029
$0b_sgmissilem_fx01.bmp
  122 2.410099 -25.673365 -3.562554 -0.015200 -0.025909 0.999549 0.563601 0.135029
  122 3.849871 -24.554229 -3.511625 -0.015200 -0.025909 0.999549 0.585127 0.105675
  122 2.410038 -24.553741 -3.533532 -0.015200 -0.025909 0.999549 0.585127 0.135029
$0b_sgmissilem_fx01.bmp
  122 3.849871 -24.554229 -3.511625 -0.015200 -0.025909 0.999549 0.585127 0.105675
  122 3.849852 -24.204347 -3.502556 -0.015200 -0.025909 0.999549 0.590998 0.105675
  122 2.410038 -24.553741 -3.533532 -0.015200 -0.025909 0.999549 0.585127 0.135029
$0b_sgmissilem_fx01.bmp
  122 2.410038 -24.553741 -3.533532 -0.015200 -0.025909 0.999549 0.585127 0.135029
  122 3.849852 -24.204347 -3.502556 -0.015200 -0.025909 0.999549 0.590998 0.105675
  122 1.800089 -24.203651 -3.533743 -0.015200 -0.025909 0.999549 0.590998 0.148728
$0b_sgmissilem_fx01.bmp
  122 3.849852 -24.204347 -3.502556 -0.015200 -0.025909 0.999549 0.590998 0.105675
  122 3.849788 -23.054733 -3.472756 -0.015200 -0.025909 0.999549 0.616438 0.105675
  122 1.800089 -24.203651 -3.533743 -0.015200 -0.025909 0.999549 0.590998 0.148728
$0b_sgmissilem_fx01.bmp
  122 1.800089 -24.203651 -3.533743 -0.015200 -0.025909 0.999549 0.590998 0.148728
  122 3.849788 -23.054733 -3.472756 -0.015200 -0.025909 0.999549 0.616438 0.105675
  122 1.800026 -23.054037 -3.503943 -0.015200 -0.025909 0.999549 0.616438 0.148728
$0b_sgmissilem_fx01.bmp
  122 3.849788 -23.054733 -3.472756 -0.015200 -0.025909 0.999549 0.616438 0.105675
  122 2.469924 -22.624409 -3.482608 -0.015200 -0.025909 0.999549 0.624266 0.135029
  122 1.800026 -23.054037 -3.503943 -0.015200 -0.025909 0.999549 0.616438 0.148728
$0b_sgmissilem_fx01.bmp
  122 5.299764 -25.664348 -3.518330 -0.015200 -0.025909 0.999549 0.563601 0.135029
  122 3.849957 -26.123702 -3.552308 -0.015200 -0.025909 0.999549 0.555773 0.105675
  122 5.939715 -26.124411 -3.520513 -0.015200 -0.025909 0.999549 0.555773 0.148728
$0b_sgmissilem_fx01.bmp
  122 5.939715 -26.124411 -3.520513 -0.015200 -0.025909 0.999549 0.555773 0.148728
  122 3.849957 -26.123702 -3.552308 -0.015200 -0.025909 0.999549 0.555773 0.105675
  122 5.939782 -27.334005 -3.551868 -0.015200 -0.025909 0.999549 0.530333 0.148728
$0b_sgmissilem_fx01.bmp
  122 3.849957 -26.123702 -3.552308 -0.015200 -0.025909 0.999549 0.555773 0.105675
  122 3.850024 -27.333296 -3.583663 -0.015200 -0.025909 0.999549 0.530333 0.105675
  122 5.939782 -27.334005 -3.551868 -0.015200 -0.025909 0.999549 0.530333 0.148728
$0b_sgmissilem_fx01.bmp
  122 5.939782 -27.334005 -3.551868 -0.015200 -0.025909 0.999549 0.530333 0.148728
  122 3.850024 -27.333296 -3.583663 -0.015200 -0.025909 0.999549 0.530333 0.105675
  122 5.419861 -27.673714 -3.568589 -0.015200 -0.025909 0.999549 0.522505 0.138943
$0b_sgmissilem_fx01.bmp
  122 3.850024 -27.333296 -3.583663 -0.015200 -0.025909 0.999549 0.530333 0.105675
  122 3.850043 -27.673182 -3.592473 -0.015200 -0.025909 0.999549 0.522505 0.105675
  122 5.419861 -27.673714 -3.568589 -0.015200 -0.025909 0.999549 0.522505 0.138943
$0b_sgmissilem_fx01.bmp
  122 5.419861 -27.673714 -3.568589 -0.015200 -0.025909 0.999549 0.522505 0.138943
  122 3.850043 -27.673182 -3.592473 -0.015200 -0.025909 0.999549 0.522505 0.105675
  122 5.419923 -28.803335 -3.597870 -0.015200 -0.025909 0.999549 0.499022 0.138943
$0b_sgmissilem_fx01.bmp
  122 3.850043 -27.673182 -3.592473 -0.015200 -0.025909 0.999549 0.522505 0.105675
  122 3.850105 -28.802802 -3.621755 -0.015200 -0.025909 0.999549 0.499022 0.105675
  122 5.419923 -28.803335 -3.597870 -0.015200 -0.025909 0.999549 0.499022 0.138943
$0b_sgmissilem_fx01.bmp
  122 1.770198 -26.122996 -3.583951 -0.015200 -0.025909 0.999549 0.555773 0.148728
  122 1.770265 -27.332590 -3.615306 -0.015200 -0.025909 0.999549 0.530333 0.148728
  122 3.849957 -26.123702 -3.552308 -0.015200 -0.025909 0.999549 0.555773 0.105675
$0b_sgmissilem_fx01.bmp
  122 3.849957 -26.123702 -3.552308 -0.015200 -0.025909 0.999549 0.555773 0.105675
  122 1.770265 -27.332590 -3.615306 -0.015200 -0.025909 0.999549 0.530333 0.148728
  122 3.850024 -27.333296 -3.583663 -0.015200 -0.025909 0.999549 0.530333 0.105675
$0b_sgmissilem_fx01.bmp
  122 1.770265 -27.332590 -3.615306 -0.015200 -0.025909 0.999549 0.530333 0.148728
  122 2.290223 -27.672653 -3.616205 -0.015200 -0.025909 0.999549 0.522505 0.138943
  122 3.850024 -27.333296 -3.583663 -0.015200 -0.025909 0.999549 0.530333 0.105675
$0b_sgmissilem_fx01.bmp
  122 3.850024 -27.333296 -3.583663 -0.015200 -0.025909 0.999549 0.530333 0.105675
  122 2.290223 -27.672653 -3.616205 -0.015200 -0.025909 0.999549 0.522505 0.138943
  122 3.850043 -27.673182 -3.592473 -0.015200 -0.025909 0.999549 0.522505 0.105675
$0b_sgmissilem_fx01.bmp
  122 2.290223 -27.672653 -3.616205 -0.015200 -0.025909 0.999549 0.522505 0.138943
  122 2.290286 -28.802273 -3.645487 -0.015200 -0.025909 0.999549 0.499022 0.138943
  122 3.850043 -27.673182 -3.592473 -0.015200 -0.025909 0.999549 0.522505 0.105675
$0b_sgmissilem_fx01.bmp
  122 3.850043 -27.673182 -3.592473 -0.015200 -0.025909 0.999549 0.522505 0.105675
  122 2.290286 -28.802273 -3.645487 -0.015200 -0.025909 0.999549 0.499022 0.138943
  122 3.850105 -28.802802 -3.621755 -0.015200 -0.025909 0.999549 0.499022 0.105675
$0b_sgmissilem_fx01.bmp
  122 3.849543 -18.596230 -3.357185 -0.015200 -0.025909 0.999549 0.702544 0.105675
  122 3.849521 -18.206361 -3.347079 -0.015200 -0.025909 0.999549 0.708415 0.105675
  122 3.309584 -18.206178 -3.355294 -0.015200 -0.025909 0.999549 0.708415 0.117417
$0b_sgmissilem_fx01.bmp
  122 3.309584 -18.206178 -3.355294 -0.015200 -0.025909 0.999549 0.708415 0.117417
  122 3.849521 -18.206361 -3.347079 -0.015200 -0.025909 0.999549 0.708415 0.105675
  122 3.849440 -16.726858 -3.308728 -0.015200 -0.025909 0.999549 0.733855 0.105675
$0b_sgmissilem_fx01.bmp
  122 3.849521 -18.206361 -3.347079 -0.015200 -0.025909 0.999549 0.708415 0.105675
  122 4.389459 -18.206545 -3.338864 -0.015200 -0.025909 0.999549 0.708415 0.117417
  122 3.849440 -16.726858 -3.308728 -0.015200 -0.025909 0.999549 0.733855 0.105675
$0b_sgmissilem_fx01.bmp
  122 3.849440 -16.726858 -3.308728 -0.015200 -0.025909 0.999549 0.733855 0.105675
  122 4.389459 -18.206545 -3.338864 -0.015200 -0.025909 0.999549 0.708415 0.117417
  122 4.379398 -17.076921 -3.309735 -0.015200 -0.025909 0.999549 0.727984 0.117417
$0b_sgmissilem_fx01.bmp
  122 4.499611 -21.205575 -3.414929 -0.015200 -0.025909 0.999549 0.651663 0.119374
  122 3.849708 -21.605220 -3.435183 -0.015200 -0.025909 0.999549 0.643836 0.105675
  122 5.209551 -21.605681 -3.414493 -0.015200 -0.025909 0.999549 0.643836 0.135029
$0b_sgmissilem_fx01.bmp
  122 5.209551 -21.605681 -3.414493 -0.015200 -0.025909 0.999549 0.643836 0.135029
  122 3.849708 -21.605220 -3.435183 -0.015200 -0.025909 0.999549 0.643836 0.105675
  122 5.209607 -22.625339 -3.440924 -0.015200 -0.025909 0.999549 0.624266 0.135029
$0b_sgmissilem_fx01.bmp
  122 3.849708 -21.605220 -3.435183 -0.015200 -0.025909 0.999549 0.643836 0.105675
  122 3.849765 -22.624877 -3.461614 -0.015200 -0.025909 0.999549 0.624266 0.105675
  122 5.209607 -22.625339 -3.440924 -0.015200 -0.025909 0.999549 0.624266 0.135029
$0b_sgmissilem_fx01.bmp
  122 5.209607 -22.625339 -3.440924 -0.015200 -0.025909 0.999549 0.624266 0.135029
  122 3.849765 -22.624877 -3.461614 -0.015200 -0.025909 0.999549 0.624266 0.105675
  122 3.849788 -23.054733 -3.472756 -0.015200 -0.025909 0.999549 0.616438 0.105675
$0b_sgmissilem_fx01.bmp
  122 2.469869 -21.614748 -3.456436 -0.015200 -0.025909 0.999549 0.643836 0.135029
  122 2.469924 -22.624409 -3.482608 -0.015200 -0.025909 0.999549 0.624266 0.135029
  122 3.849708 -21.605220 -3.435183 -0.015200 -0.025909 0.999549 0.643836 0.105675
$0b_sgmissilem_fx01.bmp
  122 3.849708 -21.605220 -3.435183 -0.015200 -0.025909 0.999549 0.643836 0.105675
  122 2.469924 -22.624409 -3.482608 -0.015200 -0.025909 0.999549 0.624266 0.135029
  122 3.849765 -22.624877 -3.461614 -0.015200 -0.025909 0.999549 0.624266 0.105675
$0b_sgmissilem_fx01.bmp
  122 2.469924 -22.624409 -3.482608 -0.015200 -0.025909 0.999549 0.624266 0.135029
  122 3.849788 -23.054733 -3.472756 -0.015200 -0.025909 0.999549 0.616438 0.105675
  122 3.849765 -22.624877 -3.461614 -0.015200 -0.025909 0.999549 0.624266 0.105675
$0b_sgmissilem_fx01.bmp
  122 3.849543 -18.596230 -3.357185 -0.015200 -0.025909 0.999549 0.702544 0.105675
  122 4.389459 -18.206545 -3.338864 -0.015200 -0.025909 0.999549 0.708415 0.117417
  122 3.849521 -18.206361 -3.347079 -0.015200 -0.025909 0.999549 0.708415 0.105675
$0b_sgmissilem_fx01.bmp
  122 3.309584 -18.206178 -3.355294 -0.015200 -0.025909 0.999549 0.708415 0.117417
  122 3.849440 -16.726858 -3.308728 -0.015200 -0.025909 0.999549 0.733855 0.105675
  122 3.299523 -17.076554 -3.326165 -0.015200 -0.025909 0.999549 0.727984 0.117417
end
