// Created by Crowbar 0.58

$modelname "weapons/tfa_cso/w_tritacknife.mdl"

$bodygroup "studio"
{
	studio "w_tknifeex2"
}

$collisionmodel "w_tknifeex2.smd"
{
	$mass 9
}

$CDMaterials "models\weapons\tfa_cso\tknifeex2"

$sequence "idle" {
	"w_tknifeex2_anims\idle"
	fps 30
}
