version 1
nodes
  0 "Bone01" -1
  1 "Bone_Lefthand" 0
  2 "Bone02" 1
  3 "Bone03" 2
  4 "Bone48" 3
  5 "Bone54" 3
  6 "Bone50" 3
  7 "Bone52" 3
  8 "Bone25" 3
  9 "Bone 04" 1
  10 "Bone13" 9
  11 "Bone14" 10
  12 "Bone15" 11
  13 "Bone17" 9
  14 "Bone18" 13
  15 "Bone19" 14
  16 "Bone21" 9
  17 "Bone22" 16
  18 "Bone23" 17
  19 "Bone05" 9
  20 "Bone06" 19
  21 "Bone07" 20
  22 "Bone09" 9
  23 "Bone10" 22
  24 "Bone11" 23
  25 "Bone04" -1
  26 "Bone_Righthand" 25
  27 "Bone26" 26
  28 "Bone35" 27
  29 "Bone36" 28
  30 "Bone37" 29
  31 "Bone31" 27
  32 "Bone32" 31
  33 "Bone33" 32
  34 "Bone39" 27
  35 "Bone40" 34
  36 "Bone41" 35
  37 "Bone43" 27
  38 "Bone44" 37
  39 "Bone45" 38
  40 "Bone27" 27
  41 "Bone28" 40
  42 "Bone29" 41
end
skeleton
  time 0
    0 7.106536 3.915679 -7.194028 -0.774330 -1.331369 0.567249
    1 0.000000 -8.563282 -0.000002 0.347509 -0.125220 -0.169570
    2 -0.617038 -3.048496 0.595564 -1.247037 1.437608 -1.233844
    3 0.000000 1.876117 0.890361 0.000000 0.000000 0.000000
    4 0.000001 -4.992343 2.835746 0.000000 0.000000 0.000000
    5 -0.460900 -1.864593 1.374185 0.000000 0.000000 0.000000
    6 0.000001 -2.440687 1.118145 0.314128 0.000000 0.000000
    7 0.000001 -3.720883 0.606066 0.000000 0.000000 0.000000
    8 0.000001 -4.928777 1.621725 0.000000 0.000000 0.000000
    9 -0.003480 -0.404829 0.000000 0.000000 0.000000 0.000000
    10 -0.519309 -2.501155 -0.278957 -1.003564 0.000000 -0.122173
    11 -0.010598 -1.208185 0.000000 -1.279325 0.000000 0.000000
    12 0.000000 -0.763066 0.000000 -1.139709 0.000000 0.000000
    13 0.105981 -2.607134 -0.278957 -0.890118 0.000000 -0.148353
    14 0.000000 -1.250579 0.000000 -1.364837 0.000000 0.000000
    15 0.000000 -0.932634 0.000000 -1.342160 0.000000 0.000000
    16 0.763064 -2.490557 -0.278957 -0.589908 0.000000 0.130900
    17 -0.012322 -1.280917 -0.000002 -1.129219 0.000000 0.000000
    18 -0.001697 -0.749371 0.000000 0.160533 0.000000 0.000000
    19 0.354567 0.016267 0.318133 0.342077 -0.443527 -1.083976
    20 1.887165 0.012878 0.000000 -0.304774 -0.020446 -0.466347
    21 1.001874 -0.000270 -0.000001 0.000000 0.000000 -0.724309
    22 -1.123359 -2.195093 -0.278957 -0.933751 0.000000 -0.087266
    23 0.010772 -0.963791 0.000001 -1.034980 0.000000 0.000000
    24 -0.010412 -0.631916 0.000001 -1.213004 0.000000 0.000000
    25 -1.175330 -7.521475 -9.139246 -0.542859 0.255025 0.648634
    26 0.089929 -8.543163 -0.000001 0.411086 -0.098249 0.195895
    27 0.000000 -0.359713 0.000000 0.000000 0.000000 0.000000
    28 -0.170479 -2.636147 -0.277655 -1.692969 0.000000 0.000000
    29 0.010599 -1.261177 0.000001 -0.253073 0.000000 0.000000
    30 -0.000001 -0.943233 -0.000001 -0.532326 0.000000 0.000000
    31 -0.827563 -2.508972 -0.277656 -1.396263 0.000000 0.000000
    32 0.000000 -1.292971 0.000001 -0.445059 0.000000 0.000000
    33 0.000000 -0.752466 -0.000001 -0.445059 0.000000 0.000000
    34 0.444213 -2.561960 -0.277655 -1.727307 -0.046226 -0.024599
    35 0.021022 -1.208186 0.000000 -0.427606 0.000000 0.000000
    36 0.010597 -0.741867 -0.000001 -0.453786 0.000000 0.000000
    37 1.047445 -2.222821 -0.277655 -1.508123 -0.078971 -0.038609
    38 0.000000 -0.996223 0.000000 -0.863938 0.000000 0.000000
    39 -0.000001 -0.614690 0.000000 -0.523599 0.000000 0.000000
    40 -0.308254 -0.007813 0.307166 -0.001726 -0.233854 -2.629401
    41 1.978378 0.019543 0.000000 -0.102806 -0.019953 0.358794
    42 0.982428 0.003186 -0.000001 0.000000 0.000000 0.111710
  time 1
    0 7.540143 4.892271 -7.983115 -1.135883 -1.216898 0.841253
    1 0.000000 -8.563282 -0.000002 0.458615 -0.099705 -0.319462
    2 -0.617038 -3.048496 0.595564 -1.247037 1.437608 -1.233844
    3 0.000000 1.876117 0.890361 0.000000 0.000000 0.000000
    4 0.000001 -4.992343 2.835746 0.000000 0.000000 0.000000
    5 -0.460900 -1.864593 1.374185 0.000000 0.000000 0.000000
    6 0.000001 -2.440687 1.118145 0.321511 0.000000 0.000000
    7 0.000001 -3.720883 0.606066 0.000000 0.000000 0.000000
    8 0.000001 -4.928777 1.621725 0.000000 0.000000 0.000000
    9 -0.003480 -0.404829 0.000000 0.000000 0.000000 0.000000
    10 -0.519309 -2.501155 -0.278957 -1.003564 0.000000 -0.122173
    11 -0.010598 -1.208185 0.000000 -1.279325 0.000000 0.000000
    12 0.000000 -0.763066 0.000000 -1.139709 0.000000 0.000000
    13 0.105981 -2.607134 -0.278957 -0.890118 0.000000 -0.148353
    14 0.000000 -1.250579 0.000000 -1.364837 0.000000 0.000000
    15 0.000000 -0.932634 0.000000 -1.342160 0.000000 0.000000
    16 0.763064 -2.490557 -0.278957 -0.592305 0.000000 0.130900
    17 -0.012322 -1.280917 -0.000002 -1.139449 0.000000 0.000000
    18 -0.001697 -0.749371 0.000000 0.176278 0.000000 0.000000
    19 0.354567 0.016267 0.318133 0.342077 -0.443527 -1.083976
    20 1.887165 0.012878 0.000000 -0.304774 -0.020446 -0.466347
    21 1.001874 -0.000270 -0.000001 0.000000 0.000000 -0.724309
    22 -1.123359 -2.195093 -0.278957 -0.933751 0.000000 -0.087266
    23 0.010772 -0.963791 0.000001 -1.034980 0.000000 0.000000
    24 -0.010412 -0.631916 0.000001 -1.213004 0.000000 0.000000
    25 -1.175330 -6.845673 -9.088464 -0.600292 0.297392 0.709007
    26 0.089929 -8.543163 -0.000001 0.472580 -0.044022 0.038564
    27 0.000000 -0.359713 0.000000 0.000000 0.000000 0.000000
    28 -0.170479 -2.636147 -0.277655 -1.692969 0.000000 0.000000
    29 0.010599 -1.261177 0.000001 -0.253073 0.000000 0.000000
    30 -0.000001 -0.943233 -0.000001 -0.532326 0.000000 0.000000
    31 -0.827563 -2.508972 -0.277656 -1.396263 0.000000 0.000000
    32 0.000000 -1.292971 0.000001 -0.445059 0.000000 0.000000
    33 0.000000 -0.752466 -0.000001 -0.445059 0.000000 0.000000
    34 0.444213 -2.561960 -0.277655 -1.727307 -0.046226 -0.024599
    35 0.021022 -1.208186 0.000000 -0.427606 0.000000 0.000000
    36 0.010597 -0.741867 -0.000001 -0.453786 0.000000 0.000000
    37 1.047445 -2.222821 -0.277655 -1.508123 -0.078971 -0.038609
    38 0.000000 -0.996223 0.000000 -0.863938 0.000000 0.000000
    39 -0.000001 -0.614690 0.000000 -0.523599 0.000000 0.000000
    40 -0.308254 -0.007813 0.307166 -0.001726 -0.233854 -2.629401
    41 1.978378 0.019543 0.000000 -0.102806 -0.019953 0.358794
    42 0.982428 0.003186 -0.000001 0.000000 0.000000 0.111710
  time 2
    0 7.856559 5.419631 -8.412816 -1.245149 -1.161586 0.901615
    1 0.000000 -8.563282 -0.000002 0.512384 -0.084868 -0.380696
    2 -0.617038 -3.048496 0.595564 -1.247037 1.437608 -1.233844
    3 0.000000 1.876117 0.890361 0.000000 0.000000 0.000000
    4 0.007814 -3.695428 2.843559 0.000000 0.000000 0.000000
    5 -0.460900 -1.864593 1.374185 0.000000 0.000000 0.000000
    6 0.000001 -2.440687 1.118145 0.333783 0.000000 0.000000
    7 0.000001 -3.720883 0.606066 0.000000 0.000000 0.000000
    8 0.000001 -4.928777 1.621725 0.000000 0.000000 0.000000
    9 -0.003480 -0.404829 0.000000 0.000000 0.000000 0.000000
    10 -0.519309 -2.501155 -0.278957 -1.003564 0.000000 -0.122173
    11 -0.010598 -1.208185 0.000000 -1.279325 0.000000 0.000000
    12 0.000000 -0.763066 0.000000 -1.139709 0.000000 0.000000
    13 0.105981 -2.607134 -0.278957 -0.890118 0.000000 -0.148353
    14 0.000000 -1.250579 0.000000 -1.364837 0.000000 0.000000
    15 0.000000 -0.932634 0.000000 -1.342160 0.000000 0.000000
    16 0.763064 -2.490557 -0.278957 -0.596308 0.000000 0.130900
    17 -0.012322 -1.280917 -0.000002 -1.156542 0.000000 0.000000
    18 -0.001697 -0.749371 0.000000 0.202438 0.000000 0.000000
    19 0.354567 0.016267 0.318133 0.342077 -0.443527 -1.083976
    20 1.887165 0.012878 0.000000 -0.304774 -0.020446 -0.466347
    21 1.001874 -0.000270 -0.000001 0.000000 0.000000 -0.724309
    22 -1.123359 -2.195093 -0.278957 -0.933751 0.000000 -0.087266
    23 0.010772 -0.963791 0.000001 -1.034980 0.000000 0.000000
    24 -0.010412 -0.631916 0.000001 -1.213004 0.000000 0.000000
    25 -1.175330 -6.486287 -9.201748 -0.635724 0.324710 0.744332
    26 0.089929 -8.543163 -0.000001 0.503582 -0.010385 -0.054568
    27 0.000000 -0.359713 0.000000 0.000000 0.000000 0.000000
    28 -0.170479 -2.636147 -0.277655 -1.692969 0.000000 0.000000
    29 0.010599 -1.261177 0.000001 -0.253073 0.000000 0.000000
    30 -0.000001 -0.943233 -0.000001 -0.532326 0.000000 0.000000
    31 -0.827563 -2.508972 -0.277656 -1.396263 0.000000 0.000000
    32 0.000000 -1.292971 0.000001 -0.445059 0.000000 0.000000
    33 0.000000 -0.752466 -0.000001 -0.445059 0.000000 0.000000
    34 0.444213 -2.561960 -0.277655 -1.727307 -0.046226 -0.024599
    35 0.021022 -1.208186 0.000000 -0.427606 0.000000 0.000000
    36 0.010597 -0.741867 -0.000001 -0.453786 0.000000 0.000000
    37 1.047445 -2.222821 -0.277655 -1.508123 -0.078971 -0.038609
    38 0.000000 -0.996223 0.000000 -0.863938 0.000000 0.000000
    39 -0.000001 -0.614690 0.000000 -0.523599 0.000000 0.000000
    40 -0.308254 -0.007813 0.307166 -0.001726 -0.233854 -2.629401
    41 1.978378 0.019543 0.000000 -0.102806 -0.019953 0.358794
    42 0.982428 0.003186 -0.000001 0.000000 0.000000 0.111710
  time 3
    0 8.008907 5.310253 -8.330782 -1.230385 -1.191690 0.875193
    1 0.000000 -8.563282 -0.000002 0.516495 -0.095282 -0.350533
    2 -0.617038 -3.048496 0.595564 -1.247037 1.437608 -1.233844
    3 0.000000 1.876117 0.890361 0.000000 0.000000 0.000000
    4 0.031252 -2.402420 2.851372 0.000000 0.000000 0.000000
    5 -0.460900 -1.864593 1.374185 0.000000 0.000000 0.000000
    6 0.000001 -2.440687 1.118145 0.336240 0.000000 0.000000
    7 0.000001 -3.720883 0.606066 0.000000 0.000000 0.000000
    8 0.000001 -4.928777 1.621725 0.000000 0.000000 0.000000
    9 -0.003480 -0.404829 0.000000 0.000000 0.000000 0.000000
    10 -0.519309 -2.501155 -0.278957 -1.003564 0.000000 -0.122173
    11 -0.010598 -1.208185 0.000000 -1.279325 0.000000 0.000000
    12 0.000000 -0.763066 0.000000 -1.139709 0.000000 0.000000
    13 0.105981 -2.607134 -0.278957 -0.890118 0.000000 -0.148353
    14 0.000000 -1.250579 0.000000 -1.364837 0.000000 0.000000
    15 0.000000 -0.932634 0.000000 -1.342160 0.000000 0.000000
    16 0.763064 -2.490557 -0.278957 -0.597099 0.000000 0.130900
    17 -0.012322 -1.280917 -0.000002 -1.159989 0.000000 0.000000
    18 -0.001697 -0.749371 0.000000 0.207694 0.000000 0.000000
    19 0.354567 0.016267 0.318133 0.342077 -0.443527 -1.083976
    20 1.887165 0.012878 0.000000 -0.304774 -0.020446 -0.466347
    21 1.001874 -0.000270 -0.000001 0.000000 0.000000 -0.724309
    22 -1.123359 -2.195093 -0.278957 -0.933751 0.000000 -0.087266
    23 0.010772 -0.963791 0.000001 -1.034980 0.000000 0.000000
    24 -0.010412 -0.631916 0.000001 -1.213004 0.000000 0.000000
    25 -1.175330 -6.736295 -9.322846 -0.633025 0.318384 0.735881
    26 0.089929 -8.543163 -0.000001 0.490615 -0.029591 -0.034820
    27 0.000000 -0.359713 0.000000 0.000000 0.000000 0.000000
    28 -0.170479 -2.636147 -0.277655 -1.692969 0.000000 0.000000
    29 0.010599 -1.261177 0.000001 -0.253073 0.000000 0.000000
    30 -0.000001 -0.943233 -0.000001 -0.532326 0.000000 0.000000
    31 -0.827563 -2.508972 -0.277656 -1.396263 0.000000 0.000000
    32 0.000000 -1.292971 0.000001 -0.445059 0.000000 0.000000
    33 0.000000 -0.752466 -0.000001 -0.445059 0.000000 0.000000
    34 0.444213 -2.561960 -0.277655 -1.727307 -0.046226 -0.024599
    35 0.021022 -1.208186 0.000000 -0.427606 0.000000 0.000000
    36 0.010597 -0.741867 -0.000001 -0.453786 0.000000 0.000000
    37 1.047445 -2.222821 -0.277655 -1.508123 -0.078971 -0.038609
    38 0.000000 -0.996223 0.000000 -0.863938 0.000000 0.000000
    39 -0.000001 -0.614690 0.000000 -0.523599 0.000000 0.000000
    40 -0.308254 -0.007813 0.307166 -0.001726 -0.233854 -2.629401
    41 1.978378 0.019543 0.000000 -0.102806 -0.019953 0.358794
    42 0.982428 0.003186 -0.000001 0.000000 0.000000 0.111710
  time 4
    0 8.040158 4.755548 -7.897175 -1.121900 -1.261757 0.786656
    1 0.000000 -8.563282 -0.000002 0.481745 -0.116867 -0.273009
    2 -0.617038 -3.048496 0.595564 -1.247037 1.437608 -1.233844
    3 0.000000 1.876117 0.890361 0.000000 0.000000 0.000000
    4 0.007814 -3.695428 2.843559 0.000000 0.000000 0.000000
    5 -0.460900 -1.864593 1.374185 0.000000 0.000000 0.000000
    6 0.000001 -2.440687 1.118145 0.314128 0.000000 0.000000
    7 0.000001 -3.720883 0.606066 0.000000 0.000000 0.000000
    8 0.000001 -4.928777 1.621725 0.000000 0.000000 0.000000
    9 -0.003480 -0.404829 0.000000 0.000000 0.000000 0.000000
    10 -0.519309 -2.501155 -0.278957 -1.003564 0.000000 -0.122173
    11 -0.010598 -1.208185 0.000000 -1.279325 0.000000 0.000000
    12 0.000000 -0.763066 0.000000 -1.139709 0.000000 0.000000
    13 0.105981 -2.607134 -0.278957 -0.890118 0.000000 -0.148353
    14 0.000000 -1.250579 0.000000 -1.364837 0.000000 0.000000
    15 0.000000 -0.932634 0.000000 -1.342160 0.000000 0.000000
    16 0.763064 -2.490557 -0.278957 -0.589908 0.000000 0.130900
    17 -0.012322 -1.280917 -0.000002 -1.129219 0.000000 0.000000
    18 -0.001697 -0.749371 0.000000 0.160533 0.000000 0.000000
    19 0.354567 0.016267 0.318133 0.342077 -0.443527 -1.083976
    20 1.887165 0.012878 0.000000 -0.304774 -0.020446 -0.466347
    21 1.001874 -0.000270 -0.000001 0.000000 0.000000 -0.724309
    22 -1.123359 -2.195093 -0.278957 -0.933751 0.000000 -0.087266
    23 0.010772 -0.963791 0.000001 -1.034980 0.000000 0.000000
    24 -0.010412 -0.631916 0.000001 -1.213004 0.000000 0.000000
    25 -1.175330 -7.150370 -9.404879 -0.619594 0.302952 0.715478
    26 0.089929 -8.543163 -0.000001 0.463778 -0.063505 0.016568
    27 0.000000 -0.359713 0.000000 0.000000 0.000000 0.000000
    28 -0.170479 -2.636147 -0.277655 -1.692969 0.000000 0.000000
    29 0.010599 -1.261177 0.000001 -0.253073 0.000000 0.000000
    30 -0.000001 -0.943233 -0.000001 -0.532326 0.000000 0.000000
    31 -0.827563 -2.508972 -0.277656 -1.396263 0.000000 0.000000
    32 0.000000 -1.292971 0.000001 -0.445059 0.000000 0.000000
    33 0.000000 -0.752466 -0.000001 -0.445059 0.000000 0.000000
    34 0.444213 -2.561960 -0.277655 -1.727307 -0.046226 -0.024599
    35 0.021022 -1.208186 0.000000 -0.427606 0.000000 0.000000
    36 0.010597 -0.741867 -0.000001 -0.453786 0.000000 0.000000
    37 1.047445 -2.222821 -0.277655 -1.508123 -0.078971 -0.038609
    38 0.000000 -0.996223 0.000000 -0.863938 0.000000 0.000000
    39 -0.000001 -0.614690 0.000000 -0.523599 0.000000 0.000000
    40 -0.308254 -0.007813 0.307166 -0.001726 -0.233854 -2.629401
    41 1.978378 0.019543 0.000000 -0.102806 -0.019953 0.358794
    42 0.982428 0.003186 -0.000001 0.000000 0.000000 0.111710
  time 5
    0 8.051877 4.290690 -7.514351 -1.009122 -1.309062 0.691186
    1 0.000000 -8.563282 -0.000002 0.452357 -0.129978 -0.215115
    2 -0.617038 -3.048496 0.595564 -1.247037 1.437608 -1.233844
    3 0.000000 1.876117 0.890361 0.000000 0.000000 0.000000
    4 0.000001 -4.992343 2.835746 0.000000 0.000000 0.000000
    5 -0.460900 -1.864593 1.374185 0.000000 0.000000 0.000000
    6 0.000001 -2.440687 1.118145 0.257705 0.000000 0.000000
    7 0.000001 -3.720883 0.606066 0.000000 0.000000 0.000000
    8 0.000001 -4.928777 1.621725 0.000000 0.000000 0.000000
    9 -0.003480 -0.404829 0.000000 0.000000 0.000000 0.000000
    10 -0.519309 -2.501155 -0.278957 -1.003564 0.000000 -0.122173
    11 -0.010598 -1.208185 0.000000 -1.279325 0.000000 0.000000
    12 0.000000 -0.763066 0.000000 -1.139709 0.000000 0.000000
    13 0.105981 -2.607134 -0.278957 -0.890118 0.000000 -0.148353
    14 0.000000 -1.250579 0.000000 -1.364837 0.000000 0.000000
    15 0.000000 -0.932634 0.000000 -1.342160 0.000000 0.000000
    16 0.763064 -2.490557 -0.278957 -0.573405 0.000000 0.130900
    17 -0.012322 -1.280917 -0.000002 -1.058758 0.000000 0.000000
    18 -0.001697 -0.749371 0.000000 0.052666 0.000000 0.000000
    19 0.354567 0.016267 0.318133 0.342077 -0.443527 -1.083976
    20 1.887165 0.012878 0.000000 -0.304774 -0.020446 -0.466347
    21 1.001874 -0.000270 -0.000001 0.000000 0.000000 -0.724309
    22 -1.123359 -2.195093 -0.278957 -0.933751 0.000000 -0.087266
    23 0.010772 -0.963791 0.000001 -1.034980 0.000000 0.000000
    24 -0.010412 -0.631916 0.000001 -1.213004 0.000000 0.000000
    25 -1.175330 -7.302718 -9.354097 -0.601170 0.283973 0.689517
    26 0.089929 -8.543163 -0.000001 0.429711 -0.101035 0.083257
    27 0.000000 -0.359713 0.000000 0.000000 0.000000 0.000000
    28 -0.170479 -2.636147 -0.277655 -1.692969 0.000000 0.000000
    29 0.010599 -1.261177 0.000001 -0.253073 0.000000 0.000000
    30 -0.000001 -0.943233 -0.000001 -0.532326 0.000000 0.000000
    31 -0.827563 -2.508972 -0.277656 -1.396263 0.000000 0.000000
    32 0.000000 -1.292971 0.000001 -0.445059 0.000000 0.000000
    33 0.000000 -0.752466 -0.000001 -0.445059 0.000000 0.000000
    34 0.444213 -2.561960 -0.277655 -1.727307 -0.046226 -0.024599
    35 0.021022 -1.208186 0.000000 -0.427606 0.000000 0.000000
    36 0.010597 -0.741867 -0.000001 -0.453786 0.000000 0.000000
    37 1.047445 -2.222821 -0.277655 -1.508123 -0.078971 -0.038609
    38 0.000000 -0.996223 0.000000 -0.863938 0.000000 0.000000
    39 -0.000001 -0.614690 0.000000 -0.523599 0.000000 0.000000
    40 -0.308254 -0.007813 0.307166 -0.001726 -0.233854 -2.629401
    41 1.978378 0.019543 0.000000 -0.102806 -0.019953 0.358794
    42 0.982428 0.003186 -0.000001 0.000000 0.000000 0.111710
  time 6
    0 8.083128 4.114904 -7.350283 -0.977643 -1.320460 0.662501
    1 0.000000 -8.563282 -0.000002 0.445519 -0.132638 -0.198737
    2 -0.617038 -3.048496 0.595564 -1.247037 1.437608 -1.233844
    3 0.000000 1.876117 0.890361 0.000000 0.000000 0.000000
    4 0.000001 -4.992343 2.835746 0.000000 0.000000 0.000000
    5 -0.460900 -1.864593 1.374185 0.000000 0.000000 0.000000
    6 0.000001 -2.440687 1.118145 0.176713 0.000000 0.000000
    7 0.000001 -3.720883 0.606066 0.000000 0.000000 0.000000
    8 0.000001 -4.928777 1.621725 0.000000 0.000000 0.000000
    9 -0.003480 -0.404829 0.000000 0.000000 0.000000 0.000000
    10 -0.519309 -2.501155 -0.278957 -1.003564 0.000000 -0.122173
    11 -0.010598 -1.208185 0.000000 -1.279325 0.000000 0.000000
    12 0.000000 -0.763066 0.000000 -1.139709 0.000000 0.000000
    13 0.105981 -2.607134 -0.278957 -0.890118 0.000000 -0.148353
    14 0.000000 -1.250579 0.000000 -1.364837 0.000000 0.000000
    15 0.000000 -0.932634 0.000000 -1.342160 0.000000 0.000000
    16 0.763064 -2.490557 -0.278957 -0.551198 0.000000 0.130900
    17 -0.012322 -1.280917 -0.000002 -0.963814 0.000000 0.000000
    18 -0.001697 -0.749371 0.000000 -0.092803 0.000000 0.000000
    19 0.354567 0.016267 0.318133 0.342077 -0.443527 -1.083976
    20 1.887165 0.012878 0.000000 -0.304774 -0.020446 -0.466347
    21 1.001874 -0.000270 -0.000001 0.000000 0.000000 -0.724309
    22 -1.123359 -2.195093 -0.278957 -0.933751 0.000000 -0.087266
    23 0.010772 -0.963791 0.000001 -1.034980 0.000000 0.000000
    24 -0.010412 -0.631916 0.000001 -1.213004 0.000000 0.000000
    25 -1.175330 -7.333969 -9.221280 -0.584027 0.266240 0.664927
    26 0.089929 -8.543163 -0.000001 0.397255 -0.132855 0.147770
    27 0.000000 -0.359713 0.000000 0.000000 0.000000 0.000000
    28 -0.170479 -2.636147 -0.277655 -1.692969 0.000000 0.000000
    29 0.010599 -1.261177 0.000001 -0.253073 0.000000 0.000000
    30 -0.000001 -0.943233 -0.000001 -0.532326 0.000000 0.000000
    31 -0.827563 -2.508972 -0.277656 -1.396263 0.000000 0.000000
    32 0.000000 -1.292971 0.000001 -0.445059 0.000000 0.000000
    33 0.000000 -0.752466 -0.000001 -0.445059 0.000000 0.000000
    34 0.444213 -2.561960 -0.277655 -1.727307 -0.046226 -0.024599
    35 0.021022 -1.208186 0.000000 -0.427606 0.000000 0.000000
    36 0.010597 -0.741867 -0.000001 -0.453786 0.000000 0.000000
    37 1.047445 -2.222821 -0.277655 -1.508123 -0.078971 -0.038609
    38 0.000000 -0.996223 0.000000 -0.863938 0.000000 0.000000
    39 -0.000001 -0.614690 0.000000 -0.523599 0.000000 0.000000
    40 -0.308254 -0.007813 0.307166 -0.001726 -0.233854 -2.629401
    41 1.978378 0.019543 0.000000 -0.102806 -0.019953 0.358794
    42 0.982428 0.003186 -0.000001 0.000000 0.000000 0.111710
  time 7
    0 8.083128 4.083653 -7.283875 -0.978358 -1.320845 0.662719
    1 0.000000 -8.563282 -0.000002 0.445108 -0.132075 -0.196613
    2 -0.617038 -3.048496 0.595564 -1.247037 1.437608 -1.233844
    3 0.000000 1.876117 0.890361 0.000000 0.000000 0.000000
    4 0.000001 -4.992343 2.835746 0.000000 0.000000 0.000000
    5 -0.460900 -1.864593 1.374185 0.000000 0.000000 0.000000
    6 0.000001 -2.440687 1.118145 0.085894 0.000000 0.000000
    7 0.000001 -3.720883 0.606066 0.000000 0.000000 0.000000
    8 0.000001 -4.928777 1.621725 0.000000 0.000000 0.000000
    9 -0.003480 -0.404829 0.000000 0.000000 0.000000 0.000000
    10 -0.519309 -2.501155 -0.278957 -1.003564 0.000000 -0.122173
    11 -0.010598 -1.208185 0.000000 -1.279325 0.000000 0.000000
    12 0.000000 -0.763066 0.000000 -1.139709 0.000000 0.000000
    13 0.105981 -2.607134 -0.278957 -0.890118 0.000000 -0.148353
    14 0.000000 -1.250579 0.000000 -1.364837 0.000000 0.000000
    15 0.000000 -0.932634 0.000000 -1.342160 0.000000 0.000000
    16 0.763064 -2.490557 -0.278957 -0.525694 0.000000 0.130900
    17 -0.012322 -1.280917 -0.000002 -0.854891 0.000000 0.000000
    18 -0.001697 -0.749371 0.000000 -0.259689 0.000000 0.000000
    19 0.354567 0.016267 0.318133 0.342077 -0.443527 -1.083976
    20 1.887165 0.012878 0.000000 -0.304774 -0.020446 -0.466347
    21 1.001874 -0.000270 -0.000001 0.000000 0.000000 -0.724309
    22 -1.123359 -2.195093 -0.278957 -0.933751 0.000000 -0.087266
    23 0.010772 -0.963791 0.000001 -1.034980 0.000000 0.000000
    24 -0.010412 -0.631916 0.000001 -1.213004 0.000000 0.000000
    25 -1.175330 -7.244123 -8.994711 -0.574241 0.255025 0.648634
    26 0.089929 -8.543163 -0.000001 0.377058 -0.151819 0.191278
    27 0.000000 -0.359713 0.000000 0.000000 0.000000 0.000000
    28 -0.170479 -2.636147 -0.277655 -1.692969 0.000000 0.000000
    29 0.010599 -1.261177 0.000001 -0.253073 0.000000 0.000000
    30 -0.000001 -0.943233 -0.000001 -0.532326 0.000000 0.000000
    31 -0.827563 -2.508972 -0.277656 -1.396263 0.000000 0.000000
    32 0.000000 -1.292971 0.000001 -0.445059 0.000000 0.000000
    33 0.000000 -0.752466 -0.000001 -0.445059 0.000000 0.000000
    34 0.444213 -2.561960 -0.277655 -1.727307 -0.046226 -0.024599
    35 0.021022 -1.208186 0.000000 -0.427606 0.000000 0.000000
    36 0.010597 -0.741867 -0.000001 -0.453786 0.000000 0.000000
    37 1.047445 -2.222821 -0.277655 -1.508123 -0.078971 -0.038609
    38 0.000000 -0.996223 0.000000 -0.863938 0.000000 0.000000
    39 -0.000001 -0.614690 0.000000 -0.523599 0.000000 0.000000
    40 -0.308254 -0.007813 0.307166 -0.001726 -0.233854 -2.629401
    41 1.978378 0.019543 0.000000 -0.102806 -0.019953 0.358794
    42 0.982428 0.003186 -0.000001 0.000000 0.000000 0.111710
  time 8
    0 8.075315 4.165686 -7.295594 -1.000732 -1.313538 0.682865
    1 0.000000 -8.563282 -0.000002 0.448770 -0.129331 -0.204289
    2 -0.617038 -3.048496 0.595564 -1.247037 1.437608 -1.233844
    3 0.000000 1.876117 0.890361 0.000000 0.000000 0.000000
    4 0.000001 -4.992343 2.835746 0.000000 0.000000 0.000000
    5 -0.460900 -1.864593 1.374185 0.000000 0.000000 0.000000
    6 0.000001 -2.440687 1.118145 0.000000 0.000000 0.000000
    7 0.000001 -3.720883 0.606066 0.000000 0.000000 0.000000
    8 0.000001 -4.928777 1.621725 0.000000 0.000000 0.000000
    9 -0.003480 -0.404829 0.000000 0.000000 0.000000 0.000000
    10 -0.519309 -2.501155 -0.278957 -1.003564 0.000000 -0.122173
    11 -0.010598 -1.208185 0.000000 -1.279325 0.000000 0.000000
    12 0.000000 -0.763066 0.000000 -1.139709 0.000000 0.000000
    13 0.105981 -2.607134 -0.278957 -0.890118 0.000000 -0.148353
    14 0.000000 -1.250579 0.000000 -1.364837 0.000000 0.000000
    15 0.000000 -0.932634 0.000000 -1.342160 0.000000 0.000000
    16 0.763064 -2.490557 -0.278957 -0.499376 0.000000 0.130900
    17 -0.012322 -1.280917 -0.000002 -0.742472 0.000000 0.000000
    18 -0.001697 -0.749371 0.000000 -0.431929 0.000000 0.000000
    19 0.354567 0.016267 0.318133 0.342077 -0.443527 -1.083976
    20 1.887165 0.012878 0.000000 -0.304774 -0.020446 -0.466347
    21 1.001874 -0.000270 -0.000001 0.000000 0.000000 -0.724309
    22 -1.123359 -2.195093 -0.278957 -0.933751 0.000000 -0.087266
    23 0.010772 -0.963791 0.000001 -1.034980 0.000000 0.000000
    24 -0.010412 -0.631916 0.000001 -1.213004 0.000000 0.000000
    25 -1.175330 -7.126932 -8.916583 -0.574646 0.250807 0.642392
    26 0.089929 -8.543163 -0.000001 0.375290 -0.156923 0.209044
    27 0.000000 -0.359713 0.000000 0.000000 0.000000 0.000000
    28 -0.170479 -2.636147 -0.277655 -1.692969 0.000000 0.000000
    29 0.010599 -1.261177 0.000001 -0.253073 0.000000 0.000000
    30 -0.000001 -0.943233 -0.000001 -0.532326 0.000000 0.000000
    31 -0.827563 -2.508972 -0.277656 -1.396263 0.000000 0.000000
    32 0.000000 -1.292971 0.000001 -0.445059 0.000000 0.000000
    33 0.000000 -0.752466 -0.000001 -0.445059 0.000000 0.000000
    34 0.444213 -2.561960 -0.277655 -1.727307 -0.046226 -0.024599
    35 0.021022 -1.208186 0.000000 -0.427606 0.000000 0.000000
    36 0.010597 -0.741867 -0.000001 -0.453786 0.000000 0.000000
    37 1.047445 -2.222821 -0.277655 -1.508123 -0.078971 -0.038609
    38 0.000000 -0.996223 0.000000 -0.863938 0.000000 0.000000
    39 -0.000001 -0.614690 0.000000 -0.523599 0.000000 0.000000
    40 -0.308254 -0.007813 0.307166 -0.001726 -0.233854 -2.629401
    41 1.978378 0.019543 0.000000 -0.102806 -0.019953 0.358794
    42 0.982428 0.003186 -0.000001 0.000000 0.000000 0.111710
  time 9
    0 8.044064 4.310222 -7.350283 -1.031495 -1.301965 0.711112
    1 0.000000 -8.563282 -0.000002 0.454057 -0.125304 -0.217239
    2 -0.617038 -3.048496 0.595564 -1.247037 1.437608 -1.233844
    3 0.000000 1.876117 0.890361 0.000000 0.000000 0.000000
    4 0.000001 -4.992343 2.835746 0.000000 0.000000 0.000000
    5 -0.460900 -1.864593 1.374185 0.000000 0.000000 0.000000
    6 0.000001 -2.440687 1.118145 0.000000 0.000000 0.000000
    7 0.000001 -3.720883 0.606066 0.000000 0.000000 0.000000
    8 0.000001 -4.928777 1.621725 0.000000 0.000000 0.000000
    9 -0.003480 -0.404829 0.000000 0.000000 0.000000 0.000000
    10 -0.519309 -2.501155 -0.278957 -1.003564 0.000000 -0.122173
    11 -0.010598 -1.208185 0.000000 -1.279325 0.000000 0.000000
    12 0.000000 -0.763066 0.000000 -1.139709 0.000000 0.000000
    13 0.105981 -2.607134 -0.278957 -0.890118 0.000000 -0.148353
    14 0.000000 -1.250579 0.000000 -1.364837 0.000000 0.000000
    15 0.000000 -0.932634 0.000000 -1.342160 0.000000 0.000000
    16 0.763064 -2.490557 -0.278957 -0.474724 0.000000 0.130900
    17 -0.012322 -1.280917 -0.000002 -0.637027 0.000000 0.000000
    18 -0.001697 -0.749371 0.000000 -0.593412 0.000000 0.000000
    19 0.354567 0.016267 0.318133 0.342077 -0.443527 -1.083976
    20 1.887165 0.012878 0.000000 -0.304774 -0.020446 -0.466347
    21 1.001874 -0.000270 -0.000001 0.000000 0.000000 -0.724309
    22 -1.123359 -2.195093 -0.278957 -0.933751 0.000000 -0.087266
    23 0.010772 -0.963791 0.000001 -1.034980 0.000000 0.000000
    24 -0.010412 -0.631916 0.000001 -1.213004 0.000000 0.000000
    25 -1.175330 -7.001928 -8.928302 -0.581395 0.250232 0.641630
    26 0.089929 -8.543163 -0.000001 0.385349 -0.153843 0.213153
    27 0.000000 -0.359713 0.000000 0.000000 0.000000 0.000000
    28 -0.170479 -2.636147 -0.277655 -1.692969 0.000000 0.000000
    29 0.010599 -1.261177 0.000001 -0.253073 0.000000 0.000000
    30 -0.000001 -0.943233 -0.000001 -0.532326 0.000000 0.000000
    31 -0.827563 -2.508972 -0.277656 -1.396263 0.000000 0.000000
    32 0.000000 -1.292971 0.000001 -0.445059 0.000000 0.000000
    33 0.000000 -0.752466 -0.000001 -0.445059 0.000000 0.000000
    34 0.444213 -2.561960 -0.277655 -1.727307 -0.046226 -0.024599
    35 0.021022 -1.208186 0.000000 -0.427606 0.000000 0.000000
    36 0.010597 -0.741867 -0.000001 -0.453786 0.000000 0.000000
    37 1.047445 -2.222821 -0.277655 -1.508123 -0.078971 -0.038609
    38 0.000000 -0.996223 0.000000 -0.863938 0.000000 0.000000
    39 -0.000001 -0.614690 0.000000 -0.523599 0.000000 0.000000
    40 -0.308254 -0.007813 0.307166 -0.001726 -0.233854 -2.629401
    41 1.978378 0.019543 0.000000 -0.102806 -0.019953 0.358794
    42 0.982428 0.003186 -0.000001 0.000000 0.000000 0.111710
  time 10
    0 8.008907 4.493821 -7.440130 -1.059332 -1.289657 0.737607
    1 0.000000 -8.563282 -0.000002 0.458541 -0.121037 -0.231068
    2 -0.617038 -3.048496 0.595564 -1.247037 1.437608 -1.233844
    3 0.000000 1.876117 0.890361 0.000000 0.000000 0.000000
    4 0.000001 -4.992343 2.835746 0.000000 0.000000 0.000000
    5 -0.460900 -1.864593 1.374185 0.000000 0.000000 0.000000
    6 0.000001 -2.440687 1.118145 0.000000 0.000000 0.000000
    7 0.000001 -3.720883 0.606066 0.000000 0.000000 0.000000
    8 0.000001 -4.928777 1.621725 0.000000 0.000000 0.000000
    9 -0.003480 -0.404829 0.000000 0.000000 0.000000 0.000000
    10 -0.519309 -2.501155 -0.278957 -1.003564 0.000000 -0.122173
    11 -0.010598 -1.208185 0.000000 -1.279325 0.000000 0.000000
    12 0.000000 -0.763066 0.000000 -1.139709 0.000000 0.000000
    13 0.105981 -2.607134 -0.278957 -0.890118 0.000000 -0.148353
    14 0.000000 -1.250579 0.000000 -1.364837 0.000000 0.000000
    15 0.000000 -0.932634 0.000000 -1.342160 0.000000 0.000000
    16 0.763064 -2.490557 -0.278957 -0.474724 0.000000 0.130900
    17 -0.012322 -1.280917 -0.000002 -0.637027 0.000000 0.000000
    18 -0.001697 -0.749371 0.000000 -0.593412 0.000000 0.000000
    19 0.354567 0.016267 0.318133 0.342077 -0.443527 -1.083976
    20 1.887165 0.012878 0.000000 -0.304774 -0.020446 -0.466347
    21 1.001874 -0.000270 -0.000001 0.000000 0.000000 -0.724309
    22 -1.123359 -2.195093 -0.278957 -0.933751 0.000000 -0.087266
    23 0.010772 -0.963791 0.000001 -1.034980 0.000000 0.000000
    24 -0.010412 -0.631916 0.000001 -1.213004 0.000000 0.000000
    25 -1.175330 -6.853486 -8.959553 -0.590169 0.251862 0.643990
    26 0.089929 -8.543163 -0.000001 0.401066 -0.146282 0.209286
    27 0.000000 -0.359713 0.000000 0.000000 0.000000 0.000000
    28 -0.170479 -2.636147 -0.277655 -1.692969 0.000000 0.000000
    29 0.010599 -1.261177 0.000001 -0.253073 0.000000 0.000000
    30 -0.000001 -0.943233 -0.000001 -0.532326 0.000000 0.000000
    31 -0.827563 -2.508972 -0.277656 -1.396263 0.000000 0.000000
    32 0.000000 -1.292971 0.000001 -0.445059 0.000000 0.000000
    33 0.000000 -0.752466 -0.000001 -0.445059 0.000000 0.000000
    34 0.444213 -2.561960 -0.277655 -1.727307 -0.046226 -0.024599
    35 0.021022 -1.208186 0.000000 -0.427606 0.000000 0.000000
    36 0.010597 -0.741867 -0.000001 -0.453786 0.000000 0.000000
    37 1.047445 -2.222821 -0.277655 -1.508123 -0.078971 -0.038609
    38 0.000000 -0.996223 0.000000 -0.863938 0.000000 0.000000
    39 -0.000001 -0.614690 0.000000 -0.523599 0.000000 0.000000
    40 -0.308254 -0.007813 0.307166 -0.001726 -0.233854 -2.629401
    41 1.978378 0.019543 0.000000 -0.102806 -0.019953 0.358794
    42 0.982428 0.003186 -0.000001 0.000000 0.000000 0.111710
  time 11
    0 7.965937 4.673514 -7.529976 -1.075852 -1.280147 0.755344
    1 0.000000 -8.563282 -0.000002 0.459904 -0.117646 -0.241337
    2 -0.617038 -3.048496 0.595564 -1.247037 1.437608 -1.233844
    3 0.000000 1.876117 0.890361 0.000000 0.000000 0.000000
    4 0.000001 -4.992343 2.835746 0.000000 0.000000 0.000000
    5 -0.460900 -1.864593 1.374185 0.000000 0.000000 0.000000
    6 0.000001 -2.440687 1.118145 0.000000 0.000000 0.000000
    7 0.000001 -3.720883 0.606066 0.000000 0.000000 0.000000
    8 0.000001 -4.928777 1.621725 0.000000 0.000000 0.000000
    9 -0.003480 -0.404829 0.000000 0.000000 0.000000 0.000000
    10 -0.519309 -2.501155 -0.278957 -1.003564 0.000000 -0.122173
    11 -0.010598 -1.208185 0.000000 -1.279325 0.000000 0.000000
    12 0.000000 -0.763066 0.000000 -1.139709 0.000000 0.000000
    13 0.105981 -2.607134 -0.278957 -0.890118 0.000000 -0.148353
    14 0.000000 -1.250579 0.000000 -1.364837 0.000000 0.000000
    15 0.000000 -0.932634 0.000000 -1.342160 0.000000 0.000000
    16 0.763064 -2.490557 -0.278957 -0.474724 0.000000 0.130900
    17 -0.012322 -1.280917 -0.000002 -0.637027 0.000000 0.000000
    18 -0.001697 -0.749371 0.000000 -0.593412 0.000000 0.000000
    19 0.354567 0.016267 0.318133 0.342077 -0.443527 -1.083976
    20 1.887165 0.012878 0.000000 -0.304774 -0.020446 -0.466347
    21 1.001874 -0.000270 -0.000001 0.000000 0.000000 -0.724309
    22 -1.123359 -2.195093 -0.278957 -0.933751 0.000000 -0.087266
    23 0.010772 -0.963791 0.000001 -1.034980 0.000000 0.000000
    24 -0.010412 -0.631916 0.000001 -1.213004 0.000000 0.000000
    25 -1.175330 -6.708950 -9.018149 -0.597795 0.253970 0.647112
    26 0.089929 -8.543163 -0.000001 0.415644 -0.137942 0.203050
    27 0.000000 -0.359713 0.000000 0.000000 0.000000 0.000000
    28 -0.170479 -2.636147 -0.277655 -1.692969 0.000000 0.000000
    29 0.010599 -1.261177 0.000001 -0.253073 0.000000 0.000000
    30 -0.000001 -0.943233 -0.000001 -0.532326 0.000000 0.000000
    31 -0.827563 -2.508972 -0.277656 -1.396263 0.000000 0.000000
    32 0.000000 -1.292971 0.000001 -0.445059 0.000000 0.000000
    33 0.000000 -0.752466 -0.000001 -0.445059 0.000000 0.000000
    34 0.444213 -2.561960 -0.277655 -1.727307 -0.046226 -0.024599
    35 0.021022 -1.208186 0.000000 -0.427606 0.000000 0.000000
    36 0.010597 -0.741867 -0.000001 -0.453786 0.000000 0.000000
    37 1.047445 -2.222821 -0.277655 -1.508123 -0.078971 -0.038609
    38 0.000000 -0.996223 0.000000 -0.863938 0.000000 0.000000
    39 -0.000001 -0.614690 0.000000 -0.523599 0.000000 0.000000
    40 -0.308254 -0.007813 0.307166 -0.001726 -0.233854 -2.629401
    41 1.978378 0.019543 0.000000 -0.102806 -0.019953 0.358794
    42 0.982428 0.003186 -0.000001 0.000000 0.000000 0.111710
  time 12
    0 7.926873 4.821956 -7.600291 -1.074096 -1.277455 0.758628
    1 0.000000 -8.563282 -0.000002 0.455850 -0.116232 -0.243564
    2 -0.617038 -3.048496 0.595564 -1.247037 1.437608 -1.233844
    3 0.000000 1.876117 0.890361 0.000000 0.000000 0.000000
    4 0.000001 -4.992343 2.835746 0.000000 0.000000 0.000000
    5 -0.460900 -1.864593 1.374185 0.000000 0.000000 0.000000
    6 0.000001 -2.440687 1.118145 0.000000 0.000000 0.000000
    7 0.000001 -3.720883 0.606066 0.000000 0.000000 0.000000
    8 0.000001 -4.928777 1.621725 0.000000 0.000000 0.000000
    9 -0.003480 -0.404829 0.000000 0.000000 0.000000 0.000000
    10 -0.519309 -2.501155 -0.278957 -1.003564 0.000000 -0.122173
    11 -0.010598 -1.208185 0.000000 -1.279325 0.000000 0.000000
    12 0.000000 -0.763066 0.000000 -1.139709 0.000000 0.000000
    13 0.105981 -2.607134 -0.278957 -0.890118 0.000000 -0.148353
    14 0.000000 -1.250579 0.000000 -1.364837 0.000000 0.000000
    15 0.000000 -0.932634 0.000000 -1.342160 0.000000 0.000000
    16 0.763064 -2.490557 -0.278957 -0.474724 0.000000 0.130900
    17 -0.012322 -1.280917 -0.000002 -0.637027 0.000000 0.000000
    18 -0.001697 -0.749371 0.000000 -0.593412 0.000000 0.000000
    19 0.354567 0.016267 0.318133 0.342077 -0.443527 -1.083976
    20 1.887165 0.012878 0.000000 -0.304774 -0.020446 -0.466347
    21 1.001874 -0.000270 -0.000001 0.000000 0.000000 -0.724309
    22 -1.123359 -2.195093 -0.278957 -0.933751 0.000000 -0.087266
    23 0.010772 -0.963791 0.000001 -1.034980 0.000000 0.000000
    24 -0.010412 -0.631916 0.000001 -1.213004 0.000000 0.000000
    25 -1.175330 -6.591759 -9.072838 -0.600292 0.255025 0.648634
    26 0.089929 -8.543163 -0.000001 0.422952 -0.132699 0.199956
    27 0.000000 -0.359713 0.000000 0.000000 0.000000 0.000000
    28 -0.170479 -2.636147 -0.277655 -1.692969 0.000000 0.000000
    29 0.010599 -1.261177 0.000001 -0.253073 0.000000 0.000000
    30 -0.000001 -0.943233 -0.000001 -0.532326 0.000000 0.000000
    31 -0.827563 -2.508972 -0.277656 -1.396263 0.000000 0.000000
    32 0.000000 -1.292971 0.000001 -0.445059 0.000000 0.000000
    33 0.000000 -0.752466 -0.000001 -0.445059 0.000000 0.000000
    34 0.444213 -2.561960 -0.277655 -1.727307 -0.046226 -0.024599
    35 0.021022 -1.208186 0.000000 -0.427606 0.000000 0.000000
    36 0.010597 -0.741867 -0.000001 -0.453786 0.000000 0.000000
    37 1.047445 -2.222821 -0.277655 -1.508123 -0.078971 -0.038609
    38 0.000000 -0.996223 0.000000 -0.863938 0.000000 0.000000
    39 -0.000001 -0.614690 0.000000 -0.523599 0.000000 0.000000
    40 -0.308254 -0.007813 0.307166 -0.001726 -0.233854 -2.629401
    41 1.978378 0.019543 0.000000 -0.102806 -0.019953 0.358794
    42 0.982428 0.003186 -0.000001 0.000000 0.000000 0.111710
  time 13
    0 7.891716 4.903990 -7.627635 -1.061023 -1.279448 0.752935
    1 0.000000 -8.563282 -0.000002 0.448751 -0.116208 -0.240414
    2 -0.617038 -3.048496 0.595564 -1.247037 1.437608 -1.233844
    3 0.000000 1.876117 0.890361 0.000000 0.000000 0.000000
    4 0.000001 -4.992343 2.835746 0.000000 0.000000 0.000000
    5 -0.460900 -1.864593 1.374185 0.000000 0.000000 0.000000
    6 0.000001 -2.440687 1.118145 0.000000 0.000000 0.000000
    7 0.000001 -3.720883 0.606066 0.000000 0.000000 0.000000
    8 0.000001 -4.928777 1.621725 0.000000 0.000000 0.000000
    9 -0.003480 -0.404829 0.000000 0.000000 0.000000 0.000000
    10 -0.519309 -2.501155 -0.278957 -1.003564 0.000000 -0.122173
    11 -0.010598 -1.208185 0.000000 -1.279325 0.000000 0.000000
    12 0.000000 -0.763066 0.000000 -1.139709 0.000000 0.000000
    13 0.105981 -2.607134 -0.278957 -0.890118 0.000000 -0.148353
    14 0.000000 -1.250579 0.000000 -1.364837 0.000000 0.000000
    15 0.000000 -0.932634 0.000000 -1.342160 0.000000 0.000000
    16 0.763064 -2.490557 -0.278957 -0.474724 0.000000 0.130900
    17 -0.012322 -1.280917 -0.000002 -0.637027 0.000000 0.000000
    18 -0.001697 -0.749371 0.000000 -0.593412 0.000000 0.000000
    19 0.354567 0.016267 0.318133 0.342077 -0.443527 -1.083976
    20 1.887165 0.012878 0.000000 -0.304774 -0.020446 -0.466347
    21 1.001874 -0.000270 -0.000001 0.000000 0.000000 -0.724309
    22 -1.123359 -2.195093 -0.278957 -0.933751 0.000000 -0.087266
    23 0.010772 -0.963791 0.000001 -1.034980 0.000000 0.000000
    24 -0.010412 -0.631916 0.000001 -1.213004 0.000000 0.000000
    25 -1.175330 -6.525351 -9.115808 -0.598673 0.255025 0.648634
    26 0.089929 -8.543163 -0.000001 0.424171 -0.130450 0.200125
    27 0.000000 -0.359713 0.000000 0.000000 0.000000 0.000000
    28 -0.170479 -2.636147 -0.277655 -1.692969 0.000000 0.000000
    29 0.010599 -1.261177 0.000001 -0.253073 0.000000 0.000000
    30 -0.000001 -0.943233 -0.000001 -0.532326 0.000000 0.000000
    31 -0.827563 -2.508972 -0.277656 -1.396263 0.000000 0.000000
    32 0.000000 -1.292971 0.000001 -0.445059 0.000000 0.000000
    33 0.000000 -0.752466 -0.000001 -0.445059 0.000000 0.000000
    34 0.444213 -2.561960 -0.277655 -1.727307 -0.046226 -0.024599
    35 0.021022 -1.208186 0.000000 -0.427606 0.000000 0.000000
    36 0.010597 -0.741867 -0.000001 -0.453786 0.000000 0.000000
    37 1.047445 -2.222821 -0.277655 -1.508123 -0.078971 -0.038609
    38 0.000000 -0.996223 0.000000 -0.863938 0.000000 0.000000
    39 -0.000001 -0.614690 0.000000 -0.523599 0.000000 0.000000
    40 -0.308254 -0.007813 0.307166 -0.001726 -0.233854 -2.629401
    41 1.978378 0.019543 0.000000 -0.102806 -0.019953 0.358794
    42 0.982428 0.003186 -0.000001 0.000000 0.000000 0.111710
  time 14
    0 7.860465 4.927428 -7.627635 -1.048666 -1.281441 0.747096
    1 0.000000 -8.563282 -0.000002 0.442399 -0.116279 -0.237382
    2 -0.617038 -3.048496 0.595564 -1.247037 1.437608 -1.233844
    3 0.000000 1.876117 0.890361 0.000000 0.000000 0.000000
    4 0.000001 -4.992343 2.835746 0.000000 0.000000 0.000000
    5 -0.460900 -1.864593 1.374185 0.000000 0.000000 0.000000
    6 0.000001 -2.440687 1.118145 0.000000 0.000000 0.000000
    7 0.000001 -3.720883 0.606066 0.000000 0.000000 0.000000
    8 0.000001 -4.928777 1.621725 0.000000 0.000000 0.000000
    9 -0.003480 -0.404829 0.000000 0.000000 0.000000 0.000000
    10 -0.519309 -2.501155 -0.278957 -1.003564 0.000000 -0.122173
    11 -0.010598 -1.208185 0.000000 -1.279325 0.000000 0.000000
    12 0.000000 -0.763066 0.000000 -1.139709 0.000000 0.000000
    13 0.105981 -2.607134 -0.278957 -0.890118 0.000000 -0.148353
    14 0.000000 -1.250579 0.000000 -1.364837 0.000000 0.000000
    15 0.000000 -0.932634 0.000000 -1.342160 0.000000 0.000000
    16 0.763064 -2.490557 -0.278957 -0.474724 0.000000 0.130900
    17 -0.012322 -1.280917 -0.000002 -0.637027 0.000000 0.000000
    18 -0.001697 -0.749371 0.000000 -0.593412 0.000000 0.000000
    19 0.354567 0.016267 0.318133 0.342077 -0.443527 -1.083976
    20 1.887165 0.012878 0.000000 -0.304774 -0.020446 -0.466347
    21 1.001874 -0.000270 -0.000001 0.000000 0.000000 -0.724309
    22 -1.123359 -2.195093 -0.278957 -0.933751 0.000000 -0.087266
    23 0.010772 -0.963791 0.000001 -1.034980 0.000000 0.000000
    24 -0.010412 -0.631916 0.000001 -1.213004 0.000000 0.000000
    25 -1.175330 -6.486287 -9.154872 -0.596783 0.255025 0.648634
    26 0.089929 -8.543163 -0.000001 0.424917 -0.128235 0.200222
    27 0.000000 -0.359713 0.000000 0.000000 0.000000 0.000000
    28 -0.170479 -2.636147 -0.277655 -1.692969 0.000000 0.000000
    29 0.010599 -1.261177 0.000001 -0.253073 0.000000 0.000000
    30 -0.000001 -0.943233 -0.000001 -0.532326 0.000000 0.000000
    31 -0.827563 -2.508972 -0.277656 -1.396263 0.000000 0.000000
    32 0.000000 -1.292971 0.000001 -0.445059 0.000000 0.000000
    33 0.000000 -0.752466 -0.000001 -0.445059 0.000000 0.000000
    34 0.444213 -2.561960 -0.277655 -1.727307 -0.046226 -0.024599
    35 0.021022 -1.208186 0.000000 -0.427606 0.000000 0.000000
    36 0.010597 -0.741867 -0.000001 -0.453786 0.000000 0.000000
    37 1.047445 -2.222821 -0.277655 -1.508123 -0.078971 -0.038609
    38 0.000000 -0.996223 0.000000 -0.863938 0.000000 0.000000
    39 -0.000001 -0.614690 0.000000 -0.523599 0.000000 0.000000
    40 -0.308254 -0.007813 0.307166 -0.001726 -0.233854 -2.629401
    41 1.978378 0.019543 0.000000 -0.102806 -0.019953 0.358794
    42 0.982428 0.003186 -0.000001 0.000000 0.000000 0.111710
  time 15
    0 7.829214 4.950867 -7.627635 -1.036829 -1.283574 0.741184
    1 0.000000 -8.563282 -0.000002 0.436682 -0.116411 -0.234408
    2 -0.617038 -3.048496 0.595564 -1.247037 1.437608 -1.233844
    3 0.000000 1.876117 0.890361 0.000000 0.000000 0.000000
    4 0.000001 -4.992343 2.835746 0.000000 0.000000 0.000000
    5 -0.460900 -1.864593 1.374185 0.000000 0.000000 0.000000
    6 0.000001 -2.440687 1.118145 0.000000 0.000000 0.000000
    7 0.000001 -3.720883 0.606066 0.000000 0.000000 0.000000
    8 0.000001 -4.928777 1.621725 0.000000 0.000000 0.000000
    9 -0.003480 -0.404829 0.000000 0.000000 0.000000 0.000000
    10 -0.519309 -2.501155 -0.278957 -1.003564 0.000000 -0.122173
    11 -0.010598 -1.208185 0.000000 -1.279325 0.000000 0.000000
    12 0.000000 -0.763066 0.000000 -1.139709 0.000000 0.000000
    13 0.105981 -2.607134 -0.278957 -0.890118 0.000000 -0.148353
    14 0.000000 -1.250579 0.000000 -1.364837 0.000000 0.000000
    15 0.000000 -0.932634 0.000000 -1.342160 0.000000 0.000000
    16 0.763064 -2.490557 -0.278957 -0.474724 0.000000 0.130900
    17 -0.012322 -1.280917 -0.000002 -0.637027 0.000000 0.000000
    18 -0.001697 -0.749371 0.000000 -0.593412 0.000000 0.000000
    19 0.354567 0.016267 0.318133 0.342077 -0.443527 -1.083976
    20 1.887165 0.012878 0.000000 -0.304774 -0.020446 -0.466347
    21 1.001874 -0.000270 -0.000001 0.000000 0.000000 -0.724309
    22 -1.123359 -2.195093 -0.278957 -0.933751 0.000000 -0.087266
    23 0.010772 -0.963791 0.000001 -1.034980 0.000000 0.000000
    24 -0.010412 -0.631916 0.000001 -1.213004 0.000000 0.000000
    25 -1.175330 -6.470662 -9.182216 -0.594556 0.255025 0.648634
    26 0.089929 -8.543163 -0.000001 0.425389 -0.126124 0.200246
    27 0.000000 -0.359713 0.000000 0.000000 0.000000 0.000000
    28 -0.170479 -2.636147 -0.277655 -1.692969 0.000000 0.000000
    29 0.010599 -1.261177 0.000001 -0.253073 0.000000 0.000000
    30 -0.000001 -0.943233 -0.000001 -0.532326 0.000000 0.000000
    31 -0.827563 -2.508972 -0.277656 -1.396263 0.000000 0.000000
    32 0.000000 -1.292971 0.000001 -0.445059 0.000000 0.000000
    33 0.000000 -0.752466 -0.000001 -0.445059 0.000000 0.000000
    34 0.444213 -2.561960 -0.277655 -1.727307 -0.046226 -0.024599
    35 0.021022 -1.208186 0.000000 -0.427606 0.000000 0.000000
    36 0.010597 -0.741867 -0.000001 -0.453786 0.000000 0.000000
    37 1.047445 -2.222821 -0.277655 -1.508123 -0.078971 -0.038609
    38 0.000000 -0.996223 0.000000 -0.863938 0.000000 0.000000
    39 -0.000001 -0.614690 0.000000 -0.523599 0.000000 0.000000
    40 -0.308254 -0.007813 0.307166 -0.001726 -0.233854 -2.629401
    41 1.978378 0.019543 0.000000 -0.102806 -0.019953 0.358794
    42 0.982428 0.003186 -0.000001 0.000000 0.000000 0.111710
  time 16
    0 7.797963 4.950867 -7.627635 -1.025317 -1.285742 0.734980
    1 0.000000 -8.563282 -0.000002 0.431488 -0.116651 -0.231537
    2 -0.617038 -3.048496 0.595564 -1.247037 1.437608 -1.233844
    3 0.000000 1.876117 0.890361 0.000000 0.000000 0.000000
    4 0.000001 -4.992343 2.835746 0.000000 0.000000 0.000000
    5 -0.460900 -1.864593 1.374185 0.000000 0.000000 0.000000
    6 0.000001 -2.440687 1.118145 0.000000 0.000000 0.000000
    7 0.000001 -3.720883 0.606066 0.000000 0.000000 0.000000
    8 0.000001 -4.928777 1.621725 0.000000 0.000000 0.000000
    9 -0.003480 -0.404829 0.000000 0.000000 0.000000 0.000000
    10 -0.519309 -2.501155 -0.278957 -1.003564 0.000000 -0.122173
    11 -0.010598 -1.208185 0.000000 -1.279325 0.000000 0.000000
    12 0.000000 -0.763066 0.000000 -1.139709 0.000000 0.000000
    13 0.105981 -2.607134 -0.278957 -0.890118 0.000000 -0.148353
    14 0.000000 -1.250579 0.000000 -1.364837 0.000000 0.000000
    15 0.000000 -0.932634 0.000000 -1.342160 0.000000 0.000000
    16 0.763064 -2.490557 -0.278957 -0.474724 0.000000 0.130900
    17 -0.012322 -1.280917 -0.000002 -0.637027 0.000000 0.000000
    18 -0.001697 -0.749371 0.000000 -0.593412 0.000000 0.000000
    19 0.354567 0.016267 0.318133 0.342077 -0.443527 -1.083976
    20 1.887165 0.012878 0.000000 -0.304774 -0.020446 -0.466347
    21 1.001874 -0.000270 -0.000001 0.000000 0.000000 -0.724309
    22 -1.123359 -2.195093 -0.278957 -0.933751 0.000000 -0.087266
    23 0.010772 -0.963791 0.000001 -1.034980 0.000000 0.000000
    24 -0.010412 -0.631916 0.000001 -1.213004 0.000000 0.000000
    25 -1.175330 -6.455036 -9.197842 -0.591924 0.255025 0.648634
    26 0.089929 -8.543163 -0.000001 0.425428 -0.124065 0.200149
    27 0.000000 -0.359713 0.000000 0.000000 0.000000 0.000000
    28 -0.170479 -2.636147 -0.277655 -1.692969 0.000000 0.000000
    29 0.010599 -1.261177 0.000001 -0.253073 0.000000 0.000000
    30 -0.000001 -0.943233 -0.000001 -0.532326 0.000000 0.000000
    31 -0.827563 -2.508972 -0.277656 -1.396263 0.000000 0.000000
    32 0.000000 -1.292971 0.000001 -0.445059 0.000000 0.000000
    33 0.000000 -0.752466 -0.000001 -0.445059 0.000000 0.000000
    34 0.444213 -2.561960 -0.277655 -1.727307 -0.046226 -0.024599
    35 0.021022 -1.208186 0.000000 -0.427606 0.000000 0.000000
    36 0.010597 -0.741867 -0.000001 -0.453786 0.000000 0.000000
    37 1.047445 -2.222821 -0.277655 -1.508123 -0.078971 -0.038609
    38 0.000000 -0.996223 0.000000 -0.863938 0.000000 0.000000
    39 -0.000001 -0.614690 0.000000 -0.523599 0.000000 0.000000
    40 -0.308254 -0.007813 0.307166 -0.001726 -0.233854 -2.629401
    41 1.978378 0.019543 0.000000 -0.102806 -0.019953 0.358794
    42 0.982428 0.003186 -0.000001 0.000000 0.000000 0.111710
  time 17
    0 7.762806 4.950867 -7.612010 -1.013935 -1.287944 0.728556
    1 0.000000 -8.563282 -0.000002 0.426687 -0.116999 -0.228636
    2 -0.617038 -3.048496 0.595564 -1.247037 1.437608 -1.233844
    3 0.000000 1.876117 0.890361 0.000000 0.000000 0.000000
    4 0.000001 -4.992343 2.835746 0.000000 0.000000 0.000000
    5 -0.460900 -1.864593 1.374185 0.000000 0.000000 0.000000
    6 0.000001 -2.440687 1.118145 0.000000 0.000000 0.000000
    7 0.000001 -3.720883 0.606066 0.000000 0.000000 0.000000
    8 0.000001 -4.928777 1.621725 0.000000 0.000000 0.000000
    9 -0.003480 -0.404829 0.000000 0.000000 0.000000 0.000000
    10 -0.519309 -2.501155 -0.278957 -1.003564 0.000000 -0.122173
    11 -0.010598 -1.208185 0.000000 -1.279325 0.000000 0.000000
    12 0.000000 -0.763066 0.000000 -1.139709 0.000000 0.000000
    13 0.105981 -2.607134 -0.278957 -0.890118 0.000000 -0.148353
    14 0.000000 -1.250579 0.000000 -1.364837 0.000000 0.000000
    15 0.000000 -0.932634 0.000000 -1.342160 0.000000 0.000000
    16 0.763064 -2.490557 -0.278957 -0.474724 0.000000 0.130900
    17 -0.012322 -1.280917 -0.000002 -0.637027 0.000000 0.000000
    18 -0.001697 -0.749371 0.000000 -0.593412 0.000000 0.000000
    19 0.354567 0.016267 0.318133 0.342077 -0.443527 -1.083976
    20 1.887165 0.012878 0.000000 -0.304774 -0.020446 -0.466347
    21 1.001874 -0.000270 -0.000001 0.000000 0.000000 -0.724309
    22 -1.123359 -2.195093 -0.278957 -0.933751 0.000000 -0.087266
    23 0.010772 -0.963791 0.000001 -1.034980 0.000000 0.000000
    24 -0.010412 -0.631916 0.000001 -1.213004 0.000000 0.000000
    25 -1.175330 -6.455036 -9.205655 -0.589022 0.255025 0.648634
    26 0.089929 -8.543163 -0.000001 0.425192 -0.122075 0.200004
    27 0.000000 -0.359713 0.000000 0.000000 0.000000 0.000000
    28 -0.170479 -2.636147 -0.277655 -1.692969 0.000000 0.000000
    29 0.010599 -1.261177 0.000001 -0.253073 0.000000 0.000000
    30 -0.000001 -0.943233 -0.000001 -0.532326 0.000000 0.000000
    31 -0.827563 -2.508972 -0.277656 -1.396263 0.000000 0.000000
    32 0.000000 -1.292971 0.000001 -0.445059 0.000000 0.000000
    33 0.000000 -0.752466 -0.000001 -0.445059 0.000000 0.000000
    34 0.444213 -2.561960 -0.277655 -1.727307 -0.046226 -0.024599
    35 0.021022 -1.208186 0.000000 -0.427606 0.000000 0.000000
    36 0.010597 -0.741867 -0.000001 -0.453786 0.000000 0.000000
    37 1.047445 -2.222821 -0.277655 -1.508123 -0.078971 -0.038609
    38 0.000000 -0.996223 0.000000 -0.863938 0.000000 0.000000
    39 -0.000001 -0.614690 0.000000 -0.523599 0.000000 0.000000
    40 -0.308254 -0.007813 0.307166 -0.001726 -0.233854 -2.629401
    41 1.978378 0.019543 0.000000 -0.102806 -0.019953 0.358794
    42 0.982428 0.003186 -0.000001 0.000000 0.000000 0.111710
  time 18
    0 7.723742 4.935241 -7.600291 -1.002423 -1.290357 0.721768
    1 0.000000 -8.563282 -0.000002 0.422184 -0.117382 -0.225633
    2 -0.617038 -3.048496 0.595564 -1.247037 1.437608 -1.233844
    3 0.000000 1.876117 0.890361 0.000000 0.000000 0.000000
    4 0.000001 -4.992343 2.835746 0.000000 0.000000 0.000000
    5 -0.460900 -1.864593 1.374185 0.000000 0.000000 0.000000
    6 0.000001 -2.440687 1.118145 0.000000 0.000000 0.000000
    7 0.000001 -3.720883 0.606066 0.000000 0.000000 0.000000
    8 0.000001 -4.928777 1.621725 0.000000 0.000000 0.000000
    9 -0.003480 -0.404829 0.000000 0.000000 0.000000 0.000000
    10 -0.519309 -2.501155 -0.278957 -1.003564 0.000000 -0.122173
    11 -0.010598 -1.208185 0.000000 -1.279325 0.000000 0.000000
    12 0.000000 -0.763066 0.000000 -1.139709 0.000000 0.000000
    13 0.105981 -2.607134 -0.278957 -0.890118 0.000000 -0.148353
    14 0.000000 -1.250579 0.000000 -1.364837 0.000000 0.000000
    15 0.000000 -0.932634 0.000000 -1.342160 0.000000 0.000000
    16 0.763064 -2.490557 -0.278957 -0.474724 0.000000 0.130900
    17 -0.012322 -1.280917 -0.000002 -0.637027 0.000000 0.000000
    18 -0.001697 -0.749371 0.000000 -0.593412 0.000000 0.000000
    19 0.354567 0.016267 0.318133 0.342077 -0.443527 -1.083976
    20 1.887165 0.012878 0.000000 -0.304774 -0.020446 -0.466347
    21 1.001874 -0.000270 -0.000001 0.000000 0.000000 -0.724309
    22 -1.123359 -2.195093 -0.278957 -0.933751 0.000000 -0.087266
    23 0.010772 -0.963791 0.000001 -1.034980 0.000000 0.000000
    24 -0.010412 -0.631916 0.000001 -1.213004 0.000000 0.000000
    25 -1.175330 -6.462849 -9.213467 -0.586052 0.255025 0.648634
    26 0.089929 -8.543163 -0.000001 0.424642 -0.120120 0.199835
    27 0.000000 -0.359713 0.000000 0.000000 0.000000 0.000000
    28 -0.170479 -2.636147 -0.277655 -1.692969 0.000000 0.000000
    29 0.010599 -1.261177 0.000001 -0.253073 0.000000 0.000000
    30 -0.000001 -0.943233 -0.000001 -0.532326 0.000000 0.000000
    31 -0.827563 -2.508972 -0.277656 -1.396263 0.000000 0.000000
    32 0.000000 -1.292971 0.000001 -0.445059 0.000000 0.000000
    33 0.000000 -0.752466 -0.000001 -0.445059 0.000000 0.000000
    34 0.444213 -2.561960 -0.277655 -1.727307 -0.046226 -0.024599
    35 0.021022 -1.208186 0.000000 -0.427606 0.000000 0.000000
    36 0.010597 -0.741867 -0.000001 -0.453786 0.000000 0.000000
    37 1.047445 -2.222821 -0.277655 -1.508123 -0.078971 -0.038609
    38 0.000000 -0.996223 0.000000 -0.863938 0.000000 0.000000
    39 -0.000001 -0.614690 0.000000 -0.523599 0.000000 0.000000
    40 -0.308254 -0.007813 0.307166 -0.001726 -0.233854 -2.629401
    41 1.978378 0.019543 0.000000 -0.102806 -0.019953 0.358794
    42 0.982428 0.003186 -0.000001 0.000000 0.000000 0.111710
  time 19
    0 7.680772 4.907897 -7.580759 -0.990781 -1.292839 0.714542
    1 0.000000 -8.563282 -0.000002 0.417831 -0.117849 -0.222586
    2 -0.617038 -3.048496 0.595564 -1.247037 1.437608 -1.233844
    3 0.000000 1.876117 0.890361 0.000000 0.000000 0.000000
    4 0.000001 -4.992343 2.835746 0.000000 0.000000 0.000000
    5 -0.460900 -1.864593 1.374185 0.000000 0.000000 0.000000
    6 0.000001 -2.440687 1.118145 0.000000 0.000000 0.000000
    7 0.000001 -3.720883 0.606066 0.000000 0.000000 0.000000
    8 0.000001 -4.928777 1.621725 0.000000 0.000000 0.000000
    9 -0.003480 -0.404829 0.000000 0.000000 0.000000 0.000000
    10 -0.519309 -2.501155 -0.278957 -1.003564 0.000000 -0.122173
    11 -0.010598 -1.208185 0.000000 -1.279325 0.000000 0.000000
    12 0.000000 -0.763066 0.000000 -1.139709 0.000000 0.000000
    13 0.105981 -2.607134 -0.278957 -0.890118 0.000000 -0.148353
    14 0.000000 -1.250579 0.000000 -1.364837 0.000000 0.000000
    15 0.000000 -0.932634 0.000000 -1.342160 0.000000 0.000000
    16 0.763064 -2.490557 -0.278957 -0.474724 0.000000 0.130900
    17 -0.012322 -1.280917 -0.000002 -0.637027 0.000000 0.000000
    18 -0.001697 -0.749371 0.000000 -0.593412 0.000000 0.000000
    19 0.354567 0.016267 0.318133 0.342077 -0.443527 -1.083976
    20 1.887165 0.012878 0.000000 -0.304774 -0.020446 -0.466347
    21 1.001874 -0.000270 -0.000001 0.000000 0.000000 -0.724309
    22 -1.123359 -2.195093 -0.278957 -0.933751 0.000000 -0.087266
    23 0.010772 -0.963791 0.000001 -1.034980 0.000000 0.000000
    24 -0.010412 -0.631916 0.000001 -1.213004 0.000000 0.000000
    25 -1.175330 -6.494100 -9.201748 -0.582745 0.255025 0.648634
    26 0.089929 -8.543163 -0.000001 0.423896 -0.118234 0.199569
    27 0.000000 -0.359713 0.000000 0.000000 0.000000 0.000000
    28 -0.170479 -2.636147 -0.277655 -1.692969 0.000000 0.000000
    29 0.010599 -1.261177 0.000001 -0.253073 0.000000 0.000000
    30 -0.000001 -0.943233 -0.000001 -0.532326 0.000000 0.000000
    31 -0.827563 -2.508972 -0.277656 -1.396263 0.000000 0.000000
    32 0.000000 -1.292971 0.000001 -0.445059 0.000000 0.000000
    33 0.000000 -0.752466 -0.000001 -0.445059 0.000000 0.000000
    34 0.444213 -2.561960 -0.277655 -1.727307 -0.046226 -0.024599
    35 0.021022 -1.208186 0.000000 -0.427606 0.000000 0.000000
    36 0.010597 -0.741867 -0.000001 -0.453786 0.000000 0.000000
    37 1.047445 -2.222821 -0.277655 -1.508123 -0.078971 -0.038609
    38 0.000000 -0.996223 0.000000 -0.863938 0.000000 0.000000
    39 -0.000001 -0.614690 0.000000 -0.523599 0.000000 0.000000
    40 -0.308254 -0.007813 0.307166 -0.001726 -0.233854 -2.629401
    41 1.978378 0.019543 0.000000 -0.102806 -0.019953 0.358794
    42 0.982428 0.003186 -0.000001 0.000000 0.000000 0.111710
  time 20
    0 7.637802 4.872739 -7.561227 -0.978488 -1.295461 0.706878
    1 0.000000 -8.563282 -0.000002 0.413553 -0.118425 -0.219407
    2 -0.617038 -3.048496 0.595564 -1.247037 1.437608 -1.233844
    3 0.000000 1.876117 0.890361 0.000000 0.000000 0.000000
    4 0.000001 -4.992343 2.835746 0.000000 0.000000 0.000000
    5 -0.460900 -1.864593 1.374185 0.000000 0.000000 0.000000
    6 0.000001 -2.440687 1.118145 0.000000 0.000000 0.000000
    7 0.000001 -3.720883 0.606066 0.000000 0.000000 0.000000
    8 0.000001 -4.928777 1.621725 0.000000 0.000000 0.000000
    9 -0.003480 -0.404829 0.000000 0.000000 0.000000 0.000000
    10 -0.519309 -2.501155 -0.278957 -1.003564 0.000000 -0.122173
    11 -0.010598 -1.208185 0.000000 -1.279325 0.000000 0.000000
    12 0.000000 -0.763066 0.000000 -1.139709 0.000000 0.000000
    13 0.105981 -2.607134 -0.278957 -0.890118 0.000000 -0.148353
    14 0.000000 -1.250579 0.000000 -1.364837 0.000000 0.000000
    15 0.000000 -0.932634 0.000000 -1.342160 0.000000 0.000000
    16 0.763064 -2.490557 -0.278957 -0.474724 0.000000 0.130900
    17 -0.012322 -1.280917 -0.000002 -0.637027 0.000000 0.000000
    18 -0.001697 -0.749371 0.000000 -0.593412 0.000000 0.000000
    19 0.354567 0.016267 0.318133 0.342077 -0.443527 -1.083976
    20 1.887165 0.012878 0.000000 -0.304774 -0.020446 -0.466347
    21 1.001874 -0.000270 -0.000001 0.000000 0.000000 -0.724309
    22 -1.123359 -2.195093 -0.278957 -0.933751 0.000000 -0.087266
    23 0.010772 -0.963791 0.000001 -1.034980 0.000000 0.000000
    24 -0.010412 -0.631916 0.000001 -1.213004 0.000000 0.000000
    25 -1.175330 -6.537070 -9.186123 -0.579303 0.255025 0.648634
    26 0.089929 -8.543163 -0.000001 0.422952 -0.116365 0.199303
    27 0.000000 -0.359713 0.000000 0.000000 0.000000 0.000000
    28 -0.170479 -2.636147 -0.277655 -1.692969 0.000000 0.000000
    29 0.010599 -1.261177 0.000001 -0.253073 0.000000 0.000000
    30 -0.000001 -0.943233 -0.000001 -0.532326 0.000000 0.000000
    31 -0.827563 -2.508972 -0.277656 -1.396263 0.000000 0.000000
    32 0.000000 -1.292971 0.000001 -0.445059 0.000000 0.000000
    33 0.000000 -0.752466 -0.000001 -0.445059 0.000000 0.000000
    34 0.444213 -2.561960 -0.277655 -1.727307 -0.046226 -0.024599
    35 0.021022 -1.208186 0.000000 -0.427606 0.000000 0.000000
    36 0.010597 -0.741867 -0.000001 -0.453786 0.000000 0.000000
    37 1.047445 -2.222821 -0.277655 -1.508123 -0.078971 -0.038609
    38 0.000000 -0.996223 0.000000 -0.863938 0.000000 0.000000
    39 -0.000001 -0.614690 0.000000 -0.523599 0.000000 0.000000
    40 -0.308254 -0.007813 0.307166 -0.001726 -0.233854 -2.629401
    41 1.978378 0.019543 0.000000 -0.102806 -0.019953 0.358794
    42 0.982428 0.003186 -0.000001 0.000000 0.000000 0.111710
  time 21
    0 7.598738 4.821956 -7.537789 -0.965611 -1.298293 0.698485
    1 0.000000 -8.563282 -0.000002 0.409181 -0.119024 -0.216023
    2 -0.617038 -3.048496 0.595564 -1.247037 1.437608 -1.233844
    3 0.000000 1.876117 0.890361 0.000000 0.000000 0.000000
    4 0.000001 -4.992343 2.835746 0.000000 0.000000 0.000000
    5 -0.460900 -1.864593 1.374185 0.000000 0.000000 0.000000
    6 0.000001 -2.440687 1.118145 0.000000 0.000000 0.000000
    7 0.000001 -3.720883 0.606066 0.000000 0.000000 0.000000
    8 0.000001 -4.928777 1.621725 0.000000 0.000000 0.000000
    9 -0.003480 -0.404829 0.000000 0.000000 0.000000 0.000000
    10 -0.519309 -2.501155 -0.278957 -1.003564 0.000000 -0.122173
    11 -0.010598 -1.208185 0.000000 -1.279325 0.000000 0.000000
    12 0.000000 -0.763066 0.000000 -1.139709 0.000000 0.000000
    13 0.105981 -2.607134 -0.278957 -0.890118 0.000000 -0.148353
    14 0.000000 -1.250579 0.000000 -1.364837 0.000000 0.000000
    15 0.000000 -0.932634 0.000000 -1.342160 0.000000 0.000000
    16 0.763064 -2.490557 -0.278957 -0.474724 0.000000 0.130900
    17 -0.012322 -1.280917 -0.000002 -0.637027 0.000000 0.000000
    18 -0.001697 -0.749371 0.000000 -0.593412 0.000000 0.000000
    19 0.354567 0.016267 0.318133 0.342077 -0.443527 -1.083976
    20 1.887165 0.012878 0.000000 -0.304774 -0.020446 -0.466347
    21 1.001874 -0.000270 -0.000001 0.000000 0.000000 -0.724309
    22 -1.123359 -2.195093 -0.278957 -0.933751 0.000000 -0.087266
    23 0.010772 -0.963791 0.000001 -1.034980 0.000000 0.000000
    24 -0.010412 -0.631916 0.000001 -1.213004 0.000000 0.000000
    25 -1.175330 -6.599572 -9.162685 -0.575726 0.255025 0.648634
    26 0.089929 -8.543163 -0.000001 0.421813 -0.114566 0.198989
    27 0.000000 -0.359713 0.000000 0.000000 0.000000 0.000000
    28 -0.170479 -2.636147 -0.277655 -1.692969 0.000000 0.000000
    29 0.010599 -1.261177 0.000001 -0.253073 0.000000 0.000000
    30 -0.000001 -0.943233 -0.000001 -0.532326 0.000000 0.000000
    31 -0.827563 -2.508972 -0.277656 -1.396263 0.000000 0.000000
    32 0.000000 -1.292971 0.000001 -0.445059 0.000000 0.000000
    33 0.000000 -0.752466 -0.000001 -0.445059 0.000000 0.000000
    34 0.444213 -2.561960 -0.277655 -1.727307 -0.046226 -0.024599
    35 0.021022 -1.208186 0.000000 -0.427606 0.000000 0.000000
    36 0.010597 -0.741867 -0.000001 -0.453786 0.000000 0.000000
    37 1.047445 -2.222821 -0.277655 -1.508123 -0.078971 -0.038609
    38 0.000000 -0.996223 0.000000 -0.863938 0.000000 0.000000
    39 -0.000001 -0.614690 0.000000 -0.523599 0.000000 0.000000
    40 -0.308254 -0.007813 0.307166 -0.001726 -0.233854 -2.629401
    41 1.978378 0.019543 0.000000 -0.102806 -0.019953 0.358794
    42 0.982428 0.003186 -0.000001 0.000000 0.000000 0.111710
  time 22
    0 7.551862 4.767267 -7.518257 -0.951822 -1.301195 0.689288
    1 0.000000 -8.563282 -0.000002 0.404641 -0.119659 -0.212405
    2 -0.617038 -3.048496 0.595564 -1.247037 1.437608 -1.233844
    3 0.000000 1.876117 0.890361 0.000000 0.000000 0.000000
    4 0.000001 -4.992343 2.835746 0.000000 0.000000 0.000000
    5 -0.460900 -1.864593 1.374185 0.000000 0.000000 0.000000
    6 0.000001 -2.440687 1.118145 0.000000 0.000000 0.000000
    7 0.000001 -3.720883 0.606066 0.000000 0.000000 0.000000
    8 0.000001 -4.928777 1.621725 0.000000 0.000000 0.000000
    9 -0.003480 -0.404829 0.000000 0.000000 0.000000 0.000000
    10 -0.519309 -2.501155 -0.278957 -1.003564 0.000000 -0.122173
    11 -0.010598 -1.208185 0.000000 -1.279325 0.000000 0.000000
    12 0.000000 -0.763066 0.000000 -1.139709 0.000000 0.000000
    13 0.105981 -2.607134 -0.278957 -0.890118 0.000000 -0.148353
    14 0.000000 -1.250579 0.000000 -1.364837 0.000000 0.000000
    15 0.000000 -0.932634 0.000000 -1.342160 0.000000 0.000000
    16 0.763064 -2.490557 -0.278957 -0.474724 0.000000 0.130900
    17 -0.012322 -1.280917 -0.000002 -0.637027 0.000000 0.000000
    18 -0.001697 -0.749371 0.000000 -0.593412 0.000000 0.000000
    19 0.354567 0.016267 0.318133 0.342077 -0.443527 -1.083976
    20 1.887165 0.012878 0.000000 -0.304774 -0.020446 -0.466347
    21 1.001874 -0.000270 -0.000001 0.000000 0.000000 -0.724309
    22 -1.123359 -2.195093 -0.278957 -0.933751 0.000000 -0.087266
    23 0.010772 -0.963791 0.000001 -1.034980 0.000000 0.000000
    24 -0.010412 -0.631916 0.000001 -1.213004 0.000000 0.000000
    25 -1.175330 -6.662074 -9.154872 -0.572014 0.255025 0.648634
    26 0.089929 -8.543163 -0.000001 0.420556 -0.112749 0.198651
    27 0.000000 -0.359713 0.000000 0.000000 0.000000 0.000000
    28 -0.170479 -2.636147 -0.277655 -1.692969 0.000000 0.000000
    29 0.010599 -1.261177 0.000001 -0.253073 0.000000 0.000000
    30 -0.000001 -0.943233 -0.000001 -0.532326 0.000000 0.000000
    31 -0.827563 -2.508972 -0.277656 -1.396263 0.000000 0.000000
    32 0.000000 -1.292971 0.000001 -0.445059 0.000000 0.000000
    33 0.000000 -0.752466 -0.000001 -0.445059 0.000000 0.000000
    34 0.444213 -2.561960 -0.277655 -1.727307 -0.046226 -0.024599
    35 0.021022 -1.208186 0.000000 -0.427606 0.000000 0.000000
    36 0.010597 -0.741867 -0.000001 -0.453786 0.000000 0.000000
    37 1.047445 -2.222821 -0.277655 -1.508123 -0.078971 -0.038609
    38 0.000000 -0.996223 0.000000 -0.863938 0.000000 0.000000
    39 -0.000001 -0.614690 0.000000 -0.523599 0.000000 0.000000
    40 -0.308254 -0.007813 0.307166 -0.001726 -0.233854 -2.629401
    41 1.978378 0.019543 0.000000 -0.102806 -0.019953 0.358794
    42 0.982428 0.003186 -0.000001 0.000000 0.000000 0.111710
  time 23
    0 7.501079 4.700859 -7.487006 -0.936863 -1.304342 0.679142
    1 0.000000 -8.563282 -0.000002 0.399783 -0.120354 -0.208508
    2 -0.617038 -3.048496 0.595564 -1.247037 1.437608 -1.233844
    3 0.000000 1.876117 0.890361 0.000000 0.000000 0.000000
    4 0.000001 -4.992343 2.835746 0.000000 0.000000 0.000000
    5 -0.460900 -1.864593 1.374185 0.000000 0.000000 0.000000
    6 0.000001 -2.440687 1.118145 0.000000 0.000000 0.000000
    7 0.000001 -3.720883 0.606066 0.000000 0.000000 0.000000
    8 0.000001 -4.928777 1.621725 0.000000 0.000000 0.000000
    9 -0.003480 -0.404829 0.000000 0.000000 0.000000 0.000000
    10 -0.519309 -2.501155 -0.278957 -1.003564 0.000000 -0.122173
    11 -0.010598 -1.208185 0.000000 -1.279325 0.000000 0.000000
    12 0.000000 -0.763066 0.000000 -1.139709 0.000000 0.000000
    13 0.105981 -2.607134 -0.278957 -0.890118 0.000000 -0.148353
    14 0.000000 -1.250579 0.000000 -1.364837 0.000000 0.000000
    15 0.000000 -0.932634 0.000000 -1.342160 0.000000 0.000000
    16 0.763064 -2.490557 -0.278957 -0.474724 0.000000 0.130900
    17 -0.012322 -1.280917 -0.000002 -0.637027 0.000000 0.000000
    18 -0.001697 -0.749371 0.000000 -0.593412 0.000000 0.000000
    19 0.354567 0.016267 0.318133 0.342077 -0.443527 -1.083976
    20 1.887165 0.012878 0.000000 -0.304774 -0.020446 -0.466347
    21 1.001874 -0.000270 -0.000001 0.000000 0.000000 -0.724309
    22 -1.123359 -2.195093 -0.278957 -0.933751 0.000000 -0.087266
    23 0.010772 -0.963791 0.000001 -1.034980 0.000000 0.000000
    24 -0.010412 -0.631916 0.000001 -1.213004 0.000000 0.000000
    25 -1.175330 -6.740201 -9.150965 -0.568167 0.255025 0.648634
    26 0.089929 -8.543163 -0.000001 0.419259 -0.110967 0.198288
    27 0.000000 -0.359713 0.000000 0.000000 0.000000 0.000000
    28 -0.170479 -2.636147 -0.277655 -1.692969 0.000000 0.000000
    29 0.010599 -1.261177 0.000001 -0.253073 0.000000 0.000000
    30 -0.000001 -0.943233 -0.000001 -0.532326 0.000000 0.000000
    31 -0.827563 -2.508972 -0.277656 -1.396263 0.000000 0.000000
    32 0.000000 -1.292971 0.000001 -0.445059 0.000000 0.000000
    33 0.000000 -0.752466 -0.000001 -0.445059 0.000000 0.000000
    34 0.444213 -2.561960 -0.277655 -1.727307 -0.046226 -0.024599
    35 0.021022 -1.208186 0.000000 -0.427606 0.000000 0.000000
    36 0.010597 -0.741867 -0.000001 -0.453786 0.000000 0.000000
    37 1.047445 -2.222821 -0.277655 -1.508123 -0.078971 -0.038609
    38 0.000000 -0.996223 0.000000 -0.863938 0.000000 0.000000
    39 -0.000001 -0.614690 0.000000 -0.523599 0.000000 0.000000
    40 -0.308254 -0.007813 0.307166 -0.001726 -0.233854 -2.629401
    41 1.978378 0.019543 0.000000 -0.102806 -0.019953 0.358794
    42 0.982428 0.003186 -0.000001 0.000000 0.000000 0.111710
  time 24
    0 7.454203 4.614919 -7.455755 -0.920408 -1.307734 0.667975
    1 0.000000 -8.563282 -0.000002 0.394515 -0.121085 -0.204289
    2 -0.617038 -3.048496 0.595564 -1.247037 1.437608 -1.233844
    3 0.000000 1.876117 0.890361 0.000000 0.000000 0.000000
    4 0.000001 -4.992343 2.835746 0.000000 0.000000 0.000000
    5 -0.460900 -1.864593 1.374185 0.000000 0.000000 0.000000
    6 0.000001 -2.440687 1.118145 0.000000 0.000000 0.000000
    7 0.000001 -3.720883 0.606066 0.000000 0.000000 0.000000
    8 0.000001 -4.928777 1.621725 0.000000 0.000000 0.000000
    9 -0.003480 -0.404829 0.000000 0.000000 0.000000 0.000000
    10 -0.519309 -2.501155 -0.278957 -1.003564 0.000000 -0.122173
    11 -0.010598 -1.208185 0.000000 -1.279325 0.000000 0.000000
    12 0.000000 -0.763066 0.000000 -1.139709 0.000000 0.000000
    13 0.105981 -2.607134 -0.278957 -0.890118 0.000000 -0.148353
    14 0.000000 -1.250579 0.000000 -1.364837 0.000000 0.000000
    15 0.000000 -0.932634 0.000000 -1.342160 0.000000 0.000000
    16 0.763064 -2.490557 -0.278957 -0.474724 0.000000 0.130900
    17 -0.012322 -1.280917 -0.000002 -0.637027 0.000000 0.000000
    18 -0.001697 -0.749371 0.000000 -0.593412 0.000000 0.000000
    19 0.354567 0.016267 0.318133 0.342077 -0.443527 -1.083976
    20 1.887165 0.012878 0.000000 -0.304774 -0.020446 -0.466347
    21 1.001874 -0.000270 -0.000001 0.000000 0.000000 -0.724309
    22 -1.123359 -2.195093 -0.278957 -0.933751 0.000000 -0.087266
    23 0.010772 -0.963791 0.000001 -1.034980 0.000000 0.000000
    24 -0.010412 -0.631916 0.000001 -1.213004 0.000000 0.000000
    25 -1.175330 -6.822235 -9.154872 -0.564388 0.255025 0.648634
    26 0.089929 -8.543163 -0.000001 0.417884 -0.109167 0.197901
    27 0.000000 -0.359713 0.000000 0.000000 0.000000 0.000000
    28 -0.170479 -2.636147 -0.277655 -1.692969 0.000000 0.000000
    29 0.010599 -1.261177 0.000001 -0.253073 0.000000 0.000000
    30 -0.000001 -0.943233 -0.000001 -0.532326 0.000000 0.000000
    31 -0.827563 -2.508972 -0.277656 -1.396263 0.000000 0.000000
    32 0.000000 -1.292971 0.000001 -0.445059 0.000000 0.000000
    33 0.000000 -0.752466 -0.000001 -0.445059 0.000000 0.000000
    34 0.444213 -2.561960 -0.277655 -1.727307 -0.046226 -0.024599
    35 0.021022 -1.208186 0.000000 -0.427606 0.000000 0.000000
    36 0.010597 -0.741867 -0.000001 -0.453786 0.000000 0.000000
    37 1.047445 -2.222821 -0.277655 -1.508123 -0.078971 -0.038609
    38 0.000000 -0.996223 0.000000 -0.863938 0.000000 0.000000
    39 -0.000001 -0.614690 0.000000 -0.523599 0.000000 0.000000
    40 -0.308254 -0.007813 0.307166 -0.001726 -0.233854 -2.629401
    41 1.978378 0.019543 0.000000 -0.102806 -0.019953 0.358794
    42 0.982428 0.003186 -0.000001 0.000000 0.000000 0.111710
  time 25
    0 7.395607 4.525072 -7.420598 -0.902262 -1.311195 0.655421
    1 0.000000 -8.563282 -0.000002 0.388742 -0.121840 -0.199689
    2 -0.617038 -3.048496 0.595564 -1.247037 1.437608 -1.233844
    3 0.000000 1.876117 0.890361 0.000000 0.000000 0.000000
    4 0.000001 -4.992343 2.835746 0.000000 0.000000 0.000000
    5 -0.460900 -1.864593 1.374185 0.000000 0.000000 0.000000
    6 0.000001 -2.440687 1.118145 0.000000 0.000000 0.000000
    7 0.000001 -3.720883 0.606066 0.000000 0.000000 0.000000
    8 0.000001 -4.928777 1.621725 0.000000 0.000000 0.000000
    9 -0.003480 -0.404829 0.000000 0.000000 0.000000 0.000000
    10 -0.519309 -2.501155 -0.278957 -1.003564 0.000000 -0.122173
    11 -0.010598 -1.208185 0.000000 -1.279325 0.000000 0.000000
    12 0.000000 -0.763066 0.000000 -1.139709 0.000000 0.000000
    13 0.105981 -2.607134 -0.278957 -0.890118 0.000000 -0.148353
    14 0.000000 -1.250579 0.000000 -1.364837 0.000000 0.000000
    15 0.000000 -0.932634 0.000000 -1.342160 0.000000 0.000000
    16 0.763064 -2.490557 -0.278957 -0.474724 0.000000 0.130900
    17 -0.012322 -1.280917 -0.000002 -0.637027 0.000000 0.000000
    18 -0.001697 -0.749371 0.000000 -0.593412 0.000000 0.000000
    19 0.354567 0.016267 0.318133 0.342077 -0.443527 -1.083976
    20 1.887165 0.012878 0.000000 -0.304774 -0.020446 -0.466347
    21 1.001874 -0.000270 -0.000001 0.000000 0.000000 -0.724309
    22 -1.123359 -2.195093 -0.278957 -0.933751 0.000000 -0.087266
    23 0.010772 -0.963791 0.000001 -1.034980 0.000000 0.000000
    24 -0.010412 -0.631916 0.000001 -1.213004 0.000000 0.000000
    25 -1.175330 -6.919894 -9.154872 -0.560609 0.255025 0.648634
    26 0.089929 -8.543163 -0.000001 0.416548 -0.107385 0.197514
    27 0.000000 -0.359713 0.000000 0.000000 0.000000 0.000000
    28 -0.170479 -2.636147 -0.277655 -1.692969 0.000000 0.000000
    29 0.010599 -1.261177 0.000001 -0.253073 0.000000 0.000000
    30 -0.000001 -0.943233 -0.000001 -0.532326 0.000000 0.000000
    31 -0.827563 -2.508972 -0.277656 -1.396263 0.000000 0.000000
    32 0.000000 -1.292971 0.000001 -0.445059 0.000000 0.000000
    33 0.000000 -0.752466 -0.000001 -0.445059 0.000000 0.000000
    34 0.444213 -2.561960 -0.277655 -1.727307 -0.046226 -0.024599
    35 0.021022 -1.208186 0.000000 -0.427606 0.000000 0.000000
    36 0.010597 -0.741867 -0.000001 -0.453786 0.000000 0.000000
    37 1.047445 -2.222821 -0.277655 -1.508123 -0.078971 -0.038609
    38 0.000000 -0.996223 0.000000 -0.863938 0.000000 0.000000
    39 -0.000001 -0.614690 0.000000 -0.523599 0.000000 0.000000
    40 -0.308254 -0.007813 0.307166 -0.001726 -0.233854 -2.629401
    41 1.978378 0.019543 0.000000 -0.102806 -0.019953 0.358794
    42 0.982428 0.003186 -0.000001 0.000000 0.000000 0.111710
  time 26
    0 7.340918 4.427413 -7.381534 -0.882035 -1.314901 0.641552
    1 0.000000 -8.563282 -0.000002 0.382278 -0.122583 -0.194679
    2 -0.617038 -3.048496 0.595564 -1.247037 1.437608 -1.233844
    3 0.000000 1.876117 0.890361 0.000000 0.000000 0.000000
    4 0.000001 -4.992343 2.835746 0.000000 0.000000 0.000000
    5 -0.460900 -1.864593 1.374185 0.000000 0.000000 0.000000
    6 0.000001 -2.440687 1.118145 0.000000 0.000000 0.000000
    7 0.000001 -3.720883 0.606066 0.000000 0.000000 0.000000
    8 0.000001 -4.928777 1.621725 0.000000 0.000000 0.000000
    9 -0.003480 -0.404829 0.000000 0.000000 0.000000 0.000000
    10 -0.519309 -2.501155 -0.278957 -1.003564 0.000000 -0.122173
    11 -0.010598 -1.208185 0.000000 -1.279325 0.000000 0.000000
    12 0.000000 -0.763066 0.000000 -1.139709 0.000000 0.000000
    13 0.105981 -2.607134 -0.278957 -0.890118 0.000000 -0.148353
    14 0.000000 -1.250579 0.000000 -1.364837 0.000000 0.000000
    15 0.000000 -0.932634 0.000000 -1.342160 0.000000 0.000000
    16 0.763064 -2.490557 -0.278957 -0.474724 0.000000 0.130900
    17 -0.012322 -1.280917 -0.000002 -0.637027 0.000000 0.000000
    18 -0.001697 -0.749371 0.000000 -0.593412 0.000000 0.000000
    19 0.354567 0.016267 0.318133 0.342077 -0.443527 -1.083976
    20 1.887165 0.012878 0.000000 -0.304774 -0.020446 -0.466347
    21 1.001874 -0.000270 -0.000001 0.000000 0.000000 -0.724309
    22 -1.123359 -2.195093 -0.278957 -0.933751 0.000000 -0.087266
    23 0.010772 -0.963791 0.000001 -1.034980 0.000000 0.000000
    24 -0.010412 -0.631916 0.000001 -1.213004 0.000000 0.000000
    25 -1.175330 -7.021460 -9.154872 -0.556829 0.255025 0.648634
    26 0.089929 -8.543163 -0.000001 0.415133 -0.105603 0.197152
    27 0.000000 -0.359713 0.000000 0.000000 0.000000 0.000000
    28 -0.170479 -2.636147 -0.277655 -1.692969 0.000000 0.000000
    29 0.010599 -1.261177 0.000001 -0.253073 0.000000 0.000000
    30 -0.000001 -0.943233 -0.000001 -0.532326 0.000000 0.000000
    31 -0.827563 -2.508972 -0.277656 -1.396263 0.000000 0.000000
    32 0.000000 -1.292971 0.000001 -0.445059 0.000000 0.000000
    33 0.000000 -0.752466 -0.000001 -0.445059 0.000000 0.000000
    34 0.444213 -2.561960 -0.277655 -1.727307 -0.046226 -0.024599
    35 0.021022 -1.208186 0.000000 -0.427606 0.000000 0.000000
    36 0.010597 -0.741867 -0.000001 -0.453786 0.000000 0.000000
    37 1.047445 -2.222821 -0.277655 -1.508123 -0.078971 -0.038609
    38 0.000000 -0.996223 0.000000 -0.863938 0.000000 0.000000
    39 -0.000001 -0.614690 0.000000 -0.523599 0.000000 0.000000
    40 -0.308254 -0.007813 0.307166 -0.001726 -0.233854 -2.629401
    41 1.978378 0.019543 0.000000 -0.102806 -0.019953 0.358794
    42 0.982428 0.003186 -0.000001 0.000000 0.000000 0.111710
  time 27
    0 7.286229 4.314128 -7.338564 -0.859531 -1.318782 0.626079
    1 0.000000 -8.563282 -0.000002 0.375029 -0.123326 -0.189215
    2 -0.617038 -3.048496 0.595564 -1.247037 1.437608 -1.233844
    3 0.000000 1.876117 0.890361 0.000000 0.000000 0.000000
    4 0.000001 -4.992343 2.835746 0.000000 0.000000 0.000000
    5 -0.460900 -1.864593 1.374185 0.000000 0.000000 0.000000
    6 0.000001 -2.440687 1.118145 0.000000 0.000000 0.000000
    7 0.000001 -3.720883 0.606066 0.000000 0.000000 0.000000
    8 0.000001 -4.928777 1.621725 0.000000 0.000000 0.000000
    9 -0.003480 -0.404829 0.000000 0.000000 0.000000 0.000000
    10 -0.519309 -2.501155 -0.278957 -1.003564 0.000000 -0.122173
    11 -0.010598 -1.208185 0.000000 -1.279325 0.000000 0.000000
    12 0.000000 -0.763066 0.000000 -1.139709 0.000000 0.000000
    13 0.105981 -2.607134 -0.278957 -0.890118 0.000000 -0.148353
    14 0.000000 -1.250579 0.000000 -1.364837 0.000000 0.000000
    15 0.000000 -0.932634 0.000000 -1.342160 0.000000 0.000000
    16 0.763064 -2.490557 -0.278957 -0.474724 0.000000 0.130900
    17 -0.012322 -1.280917 -0.000002 -0.637027 0.000000 0.000000
    18 -0.001697 -0.749371 0.000000 -0.593412 0.000000 0.000000
    19 0.354567 0.016267 0.318133 0.342077 -0.443527 -1.083976
    20 1.887165 0.012878 0.000000 -0.304774 -0.020446 -0.466347
    21 1.001874 -0.000270 -0.000001 0.000000 0.000000 -0.724309
    22 -1.123359 -2.195093 -0.278957 -0.933751 0.000000 -0.087266
    23 0.010772 -0.963791 0.000001 -1.034980 0.000000 0.000000
    24 -0.010412 -0.631916 0.000001 -1.213004 0.000000 0.000000
    25 -1.175330 -7.130838 -9.154872 -0.553185 0.255025 0.648634
    26 0.089929 -8.543163 -0.000001 0.413915 -0.103821 0.196765
    27 0.000000 -0.359713 0.000000 0.000000 0.000000 0.000000
    28 -0.170479 -2.636147 -0.277655 -1.692969 0.000000 0.000000
    29 0.010599 -1.261177 0.000001 -0.253073 0.000000 0.000000
    30 -0.000001 -0.943233 -0.000001 -0.532326 0.000000 0.000000
    31 -0.827563 -2.508972 -0.277656 -1.396263 0.000000 0.000000
    32 0.000000 -1.292971 0.000001 -0.445059 0.000000 0.000000
    33 0.000000 -0.752466 -0.000001 -0.445059 0.000000 0.000000
    34 0.444213 -2.561960 -0.277655 -1.727307 -0.046226 -0.024599
    35 0.021022 -1.208186 0.000000 -0.427606 0.000000 0.000000
    36 0.010597 -0.741867 -0.000001 -0.453786 0.000000 0.000000
    37 1.047445 -2.222821 -0.277655 -1.508123 -0.078971 -0.038609
    38 0.000000 -0.996223 0.000000 -0.863938 0.000000 0.000000
    39 -0.000001 -0.614690 0.000000 -0.523599 0.000000 0.000000
    40 -0.308254 -0.007813 0.307166 -0.001726 -0.233854 -2.629401
    41 1.978378 0.019543 0.000000 -0.102806 -0.019953 0.358794
    42 0.982428 0.003186 -0.000001 0.000000 0.000000 0.111710
  time 28
    0 7.223727 4.189125 -7.299500 -0.834296 -1.322873 0.608780
    1 0.000000 -8.563282 -0.000002 0.366902 -0.124046 -0.183194
    2 -0.617038 -3.048496 0.595564 -1.247037 1.437608 -1.233844
    3 0.000000 1.876117 0.890361 0.000000 0.000000 0.000000
    4 0.000001 -4.992343 2.835746 0.000000 0.000000 0.000000
    5 -0.460900 -1.864593 1.374185 0.000000 0.000000 0.000000
    6 0.000001 -2.440687 1.118145 0.000000 0.000000 0.000000
    7 0.000001 -3.720883 0.606066 0.000000 0.000000 0.000000
    8 0.000001 -4.928777 1.621725 0.000000 0.000000 0.000000
    9 -0.003480 -0.404829 0.000000 0.000000 0.000000 0.000000
    10 -0.519309 -2.501155 -0.278957 -1.003564 0.000000 -0.122173
    11 -0.010598 -1.208185 0.000000 -1.279325 0.000000 0.000000
    12 0.000000 -0.763066 0.000000 -1.139709 0.000000 0.000000
    13 0.105981 -2.607134 -0.278957 -0.890118 0.000000 -0.148353
    14 0.000000 -1.250579 0.000000 -1.364837 0.000000 0.000000
    15 0.000000 -0.932634 0.000000 -1.342160 0.000000 0.000000
    16 0.763064 -2.490557 -0.278957 -0.474724 0.000000 0.130900
    17 -0.012322 -1.280917 -0.000002 -0.637027 0.000000 0.000000
    18 -0.001697 -0.749371 0.000000 -0.593412 0.000000 0.000000
    19 0.354567 0.016267 0.318133 0.342077 -0.443527 -1.083976
    20 1.887165 0.012878 0.000000 -0.304774 -0.020446 -0.466347
    21 1.001874 -0.000270 -0.000001 0.000000 0.000000 -0.724309
    22 -1.123359 -2.195093 -0.278957 -0.933751 0.000000 -0.087266
    23 0.010772 -0.963791 0.000001 -1.034980 0.000000 0.000000
    24 -0.010412 -0.631916 0.000001 -1.213004 0.000000 0.000000
    25 -1.175330 -7.255842 -9.150965 -0.549608 0.255025 0.648634
    26 0.089929 -8.543163 -0.000001 0.412815 -0.101969 0.196451
    27 0.000000 -0.359713 0.000000 0.000000 0.000000 0.000000
    28 -0.170479 -2.636147 -0.277655 -1.692969 0.000000 0.000000
    29 0.010599 -1.261177 0.000001 -0.253073 0.000000 0.000000
    30 -0.000001 -0.943233 -0.000001 -0.532326 0.000000 0.000000
    31 -0.827563 -2.508972 -0.277656 -1.396263 0.000000 0.000000
    32 0.000000 -1.292971 0.000001 -0.445059 0.000000 0.000000
    33 0.000000 -0.752466 -0.000001 -0.445059 0.000000 0.000000
    34 0.444213 -2.561960 -0.277655 -1.727307 -0.046226 -0.024599
    35 0.021022 -1.208186 0.000000 -0.427606 0.000000 0.000000
    36 0.010597 -0.741867 -0.000001 -0.453786 0.000000 0.000000
    37 1.047445 -2.222821 -0.277655 -1.508123 -0.078971 -0.038609
    38 0.000000 -0.996223 0.000000 -0.863938 0.000000 0.000000
    39 -0.000001 -0.614690 0.000000 -0.523599 0.000000 0.000000
    40 -0.308254 -0.007813 0.307166 -0.001726 -0.233854 -2.629401
    41 1.978378 0.019543 0.000000 -0.102806 -0.019953 0.358794
    42 0.982428 0.003186 -0.000001 0.000000 0.000000 0.111710
  time 29
    0 7.169038 4.060214 -7.244811 -0.806069 -1.327068 0.589146
    1 0.000000 -8.563282 -0.000002 0.357766 -0.124693 -0.176690
    2 -0.617038 -3.048496 0.595564 -1.247037 1.437608 -1.233844
    3 0.000000 1.876117 0.890361 0.000000 0.000000 0.000000
    4 0.000001 -4.992343 2.835746 0.000000 0.000000 0.000000
    5 -0.460900 -1.864593 1.374185 0.000000 0.000000 0.000000
    6 0.000001 -2.440687 1.118145 0.000000 0.000000 0.000000
    7 0.000001 -3.720883 0.606066 0.000000 0.000000 0.000000
    8 0.000001 -4.928777 1.621725 0.000000 0.000000 0.000000
    9 -0.003480 -0.404829 0.000000 0.000000 0.000000 0.000000
    10 -0.519309 -2.501155 -0.278957 -1.003564 0.000000 -0.122173
    11 -0.010598 -1.208185 0.000000 -1.279325 0.000000 0.000000
    12 0.000000 -0.763066 0.000000 -1.139709 0.000000 0.000000
    13 0.105981 -2.607134 -0.278957 -0.890118 0.000000 -0.148353
    14 0.000000 -1.250579 0.000000 -1.364837 0.000000 0.000000
    15 0.000000 -0.932634 0.000000 -1.342160 0.000000 0.000000
    16 0.763064 -2.490557 -0.278957 -0.474724 0.000000 0.130900
    17 -0.012322 -1.280917 -0.000002 -0.637027 0.000000 0.000000
    18 -0.001697 -0.749371 0.000000 -0.593412 0.000000 0.000000
    19 0.354567 0.016267 0.318133 0.342077 -0.443527 -1.083976
    20 1.887165 0.012878 0.000000 -0.304774 -0.020446 -0.466347
    21 1.001874 -0.000270 -0.000001 0.000000 0.000000 -0.724309
    22 -1.123359 -2.195093 -0.278957 -0.933751 0.000000 -0.087266
    23 0.010772 -0.963791 0.000001 -1.034980 0.000000 0.000000
    24 -0.010412 -0.631916 0.000001 -1.213004 0.000000 0.000000
    25 -1.175330 -7.380846 -9.143153 -0.546098 0.255025 0.648634
    26 0.089929 -8.543163 -0.000001 0.411833 -0.100118 0.196161
    27 0.000000 -0.359713 0.000000 0.000000 0.000000 0.000000
    28 -0.170479 -2.636147 -0.277655 -1.692969 0.000000 0.000000
    29 0.010599 -1.261177 0.000001 -0.253073 0.000000 0.000000
    30 -0.000001 -0.943233 -0.000001 -0.532326 0.000000 0.000000
    31 -0.827563 -2.508972 -0.277656 -1.396263 0.000000 0.000000
    32 0.000000 -1.292971 0.000001 -0.445059 0.000000 0.000000
    33 0.000000 -0.752466 -0.000001 -0.445059 0.000000 0.000000
    34 0.444213 -2.561960 -0.277655 -1.727307 -0.046226 -0.024599
    35 0.021022 -1.208186 0.000000 -0.427606 0.000000 0.000000
    36 0.010597 -0.741867 -0.000001 -0.453786 0.000000 0.000000
    37 1.047445 -2.222821 -0.277655 -1.508123 -0.078971 -0.038609
    38 0.000000 -0.996223 0.000000 -0.863938 0.000000 0.000000
    39 -0.000001 -0.614690 0.000000 -0.523599 0.000000 0.000000
    40 -0.308254 -0.007813 0.307166 -0.001726 -0.233854 -2.629401
    41 1.978378 0.019543 0.000000 -0.102806 -0.019953 0.358794
    42 0.982428 0.003186 -0.000001 0.000000 0.000000 0.111710
  time 30
    0 7.106536 3.915679 -7.194028 -0.774330 -1.331369 0.567249
    1 0.000000 -8.563282 -0.000002 0.347509 -0.125220 -0.169570
    2 -0.617038 -3.048496 0.595564 -1.247037 1.437608 -1.233844
    3 0.000000 1.876117 0.890361 0.000000 0.000000 0.000000
    4 0.000001 -4.992343 2.835746 0.000000 0.000000 0.000000
    5 -0.460900 -1.864593 1.374185 0.000000 0.000000 0.000000
    6 0.000001 -2.440687 1.118145 0.000000 0.000000 0.000000
    7 0.000001 -3.720883 0.606066 0.000000 0.000000 0.000000
    8 0.000001 -4.928777 1.621725 0.000000 0.000000 0.000000
    9 -0.003480 -0.404829 0.000000 0.000000 0.000000 0.000000
    10 -0.519309 -2.501155 -0.278957 -1.003564 0.000000 -0.122173
    11 -0.010598 -1.208185 0.000000 -1.279325 0.000000 0.000000
    12 0.000000 -0.763066 0.000000 -1.139709 0.000000 0.000000
    13 0.105981 -2.607134 -0.278957 -0.890118 0.000000 -0.148353
    14 0.000000 -1.250579 0.000000 -1.364837 0.000000 0.000000
    15 0.000000 -0.932634 0.000000 -1.342160 0.000000 0.000000
    16 0.763064 -2.490557 -0.278957 -0.474724 0.000000 0.130900
    17 -0.012322 -1.280917 -0.000002 -0.637027 0.000000 0.000000
    18 -0.001697 -0.749371 0.000000 -0.593412 0.000000 0.000000
    19 0.354567 0.016267 0.318133 0.342077 -0.443527 -1.083976
    20 1.887165 0.012878 0.000000 -0.304774 -0.020446 -0.466347
    21 1.001874 -0.000270 -0.000001 0.000000 0.000000 -0.724309
    22 -1.123359 -2.195093 -0.278957 -0.933751 0.000000 -0.087266
    23 0.010772 -0.963791 0.000001 -1.034980 0.000000 0.000000
    24 -0.010412 -0.631916 0.000001 -1.213004 0.000000 0.000000
    25 -1.175330 -7.521475 -9.139246 -0.542859 0.255025 0.648634
    26 0.089929 -8.543163 -0.000001 0.411086 -0.098249 0.195895
    27 0.000000 -0.359713 0.000000 0.000000 0.000000 0.000000
    28 -0.170479 -2.636147 -0.277655 -1.692969 0.000000 0.000000
    29 0.010599 -1.261177 0.000001 -0.253073 0.000000 0.000000
    30 -0.000001 -0.943233 -0.000001 -0.532326 0.000000 0.000000
    31 -0.827563 -2.508972 -0.277656 -1.396263 0.000000 0.000000
    32 0.000000 -1.292971 0.000001 -0.445059 0.000000 0.000000
    33 0.000000 -0.752466 -0.000001 -0.445059 0.000000 0.000000
    34 0.444213 -2.561960 -0.277655 -1.727307 -0.046226 -0.024599
    35 0.021022 -1.208186 0.000000 -0.427606 0.000000 0.000000
    36 0.010597 -0.741867 -0.000001 -0.453786 0.000000 0.000000
    37 1.047445 -2.222821 -0.277655 -1.508123 -0.078971 -0.038609
    38 0.000000 -0.996223 0.000000 -0.863938 0.000000 0.000000
    39 -0.000001 -0.614690 0.000000 -0.523599 0.000000 0.000000
    40 -0.308254 -0.007813 0.307166 -0.001726 -0.233854 -2.629401
    41 1.978378 0.019543 0.000000 -0.102806 -0.019953 0.358794
    42 0.982428 0.003186 -0.000001 0.000000 0.000000 0.111710
end
