version 1
nodes
  0 "Bone01" -1
  1 "Bone_Lefthand" 0
  2 "Bone02" 1
  3 "Bone 04" 1
  4 "Bone13" 3
  5 "Bone14" 4
  6 "Bone15" 5
  7 "Bone17" 3
  8 "Bone18" 7
  9 "Bone19" 8
  10 "Bone21" 3
  11 "Bone22" 10
  12 "Bone23" 11
  13 "Bone05" 3
  14 "Bone06" 13
  15 "Bone07" 14
  16 "Bone09" 3
  17 "Bone10" 16
  18 "Bone11" 17
  19 "Bone04" -1
  20 "Bone_Righthand" 19
  21 "Bone26" 20
  22 "Bone35" 21
  23 "Bone36" 22
  24 "Bone37" 23
  25 "Bone31" 21
  26 "Bone32" 25
  27 "Bone33" 26
  28 "Bone39" 21
  29 "Bone40" 28
  30 "Bone41" 29
  31 "Bone43" 21
  32 "Bone44" 31
  33 "Bone45" 32
  34 "Bone27" 21
  35 "Bone28" 34
  36 "Bone29" 35
end
skeleton
  time 0
    0 7.608109 1.168854 -6.193997 -1.114697 -2.489266 0.379730
    1 0.000001 -8.563280 0.000000 0.011360 0.045153 -0.172443
    2 2.360136 -3.245876 1.423021 -1.205423 1.106299 -1.376897
    3 -0.003480 -0.404830 0.000000 0.000000 0.000000 0.000000
    4 -0.519309 -2.501153 -0.278956 -0.390529 0.037668 -0.005934
    5 -0.010598 -1.208185 0.000000 -1.055925 0.000000 0.000000
    6 0.000000 -0.763066 -0.000001 -0.602148 0.000000 0.000000
    7 0.105981 -2.607132 -0.278957 -0.537311 0.054194 -0.010195
    8 0.000000 -1.250579 0.000000 -0.776700 0.000000 0.000000
    9 -0.000001 -0.932634 0.000000 -1.230488 0.000000 0.000000
    10 0.763064 -2.490553 -0.278957 -0.349065 0.000000 0.130900
    11 -0.012322 -1.280917 0.000000 -0.750491 0.000000 0.000000
    12 -0.001697 -0.749371 -0.000001 -0.907564 0.000000 0.000000
    13 0.354567 0.016268 0.318133 0.743986 -0.762896 -1.122494
    14 1.887164 0.012878 0.000000 -0.040082 -0.219749 -0.583100
    15 1.001874 -0.000270 0.000000 0.000000 0.000000 -0.532315
    16 -1.123359 -2.195091 -0.278957 -0.156516 0.013626 -0.001073
    17 0.010771 -0.963790 0.000000 -0.698121 0.000000 0.000000
    18 -0.010411 -0.631916 0.000000 -0.907581 0.000000 0.000000
    19 -4.904685 2.359935 -8.100151 0.790237 1.318993 0.567425
    20 0.089928 -8.543162 0.000000 0.079760 -0.284688 0.455199
    21 0.000000 -0.359714 0.000001 0.000000 0.000000 0.000000
    22 -0.170480 -2.636147 -0.277655 -0.820310 0.000000 0.000000
    23 0.010599 -1.261177 0.000001 -0.584663 0.000000 0.000000
    24 -0.000001 -0.943232 0.000001 -0.532326 0.000000 0.000000
    25 -0.827563 -2.508973 -0.277656 -0.942498 0.000000 0.000000
    26 0.000000 -1.292970 0.000000 -0.287990 0.000000 0.000000
    27 0.000000 -0.752466 0.000001 -0.445059 0.000000 0.000000
    28 0.444212 -2.561960 -0.277654 -1.081537 -0.046226 -0.024599
    29 0.021022 -1.208186 -0.000001 -0.427606 0.000000 0.000000
    30 0.010597 -0.741867 -0.000002 -0.453786 0.000000 0.000000
    31 1.047444 -2.222821 -0.277654 -1.019678 -0.066950 -0.041090
    32 0.000000 -0.996222 -0.000001 -0.584686 0.000000 0.000000
    33 -0.000001 -0.614690 0.000000 -0.523599 0.000000 0.000000
    34 -0.308254 -0.007814 0.307167 -0.318048 -0.539825 -2.424633
    35 1.978377 0.019543 0.000001 -0.000002 -0.000010 0.549774
    36 0.982426 0.003186 0.000000 0.000000 0.000000 0.593405
end
triangles
CSO_FlashBang.BMP
  2 2.274251 -5.045126 -13.542389 -0.278392 0.951271 0.132596 0.403922 0.821429
  2 2.204944 -5.066492 -13.317578 -0.383907 0.908817 0.163303 0.364706 0.849206
  2 2.322864 -5.045919 -13.536374 0.202990 0.978851 -0.025399 0.403922 0.813492
CSO_FlashBang.BMP
  2 2.322864 -5.045919 -13.536374 0.202990 0.978851 -0.025399 0.403922 0.813492
  2 2.204944 -5.066492 -13.317578 -0.383907 0.908817 0.163303 0.364706 0.849206
  2 2.258745 -5.087053 -13.289602 0.044799 0.959682 0.277495 0.360784 0.845238
CSO_FlashBang.BMP
  2 2.204944 -5.066492 -13.317578 -0.383907 0.908817 0.163303 0.364706 0.849206
  2 2.036831 -5.162616 -13.168588 -0.166898 0.815891 0.553594 0.352941 0.900794
  2 2.258745 -5.087053 -13.289602 0.044799 0.959682 0.277495 0.360784 0.845238
CSO_FlashBang.BMP
  2 2.258745 -5.087053 -13.289602 0.044799 0.959682 0.277495 0.360784 0.845238
  2 2.036831 -5.162616 -13.168588 -0.166898 0.815891 0.553594 0.352941 0.900794
  2 2.056626 -5.176212 -13.130861 -0.166898 0.815891 0.553594 0.341176 0.900794
CSO_FlashBang.BMP
  2 2.036831 -5.162616 -13.168588 -0.166898 0.815891 0.553594 0.352941 0.900794
  2 1.805441 -5.241060 -13.170870 -0.480200 0.702099 0.525799 0.364706 0.944444
  2 2.056626 -5.176212 -13.130861 -0.166898 0.815891 0.553594 0.341176 0.900794
CSO_FlashBang.BMP
  2 2.056626 -5.176212 -13.130861 -0.166898 0.815891 0.553594 0.341176 0.900794
  2 1.805441 -5.241060 -13.170870 -0.480200 0.702099 0.525799 0.364706 0.944444
  2 1.811842 -5.271421 -13.126855 -0.480200 0.702099 0.525799 0.360784 0.952381
CSO_FlashBang.BMP
  2 1.805441 -5.241060 -13.170870 -0.480200 0.702099 0.525799 0.364706 0.944444
  2 1.635548 -5.335128 -13.306471 -0.765301 0.550901 0.332900 0.403922 0.976190
  2 1.811842 -5.271421 -13.126855 -0.480200 0.702099 0.525799 0.360784 0.952381
CSO_FlashBang.BMP
  2 1.811842 -5.271421 -13.126855 -0.480200 0.702099 0.525799 0.360784 0.952381
  2 1.635548 -5.335128 -13.306471 -0.765301 0.550901 0.332900 0.403922 0.976190
  2 1.614682 -5.366280 -13.274941 -0.765301 0.550901 0.332900 0.403922 0.984127
CSO_FlashBang.BMP
  2 1.635548 -5.335128 -13.306471 -0.765301 0.550901 0.332900 0.403922 0.976190
  2 1.564487 -5.363659 -13.533927 -0.581812 0.801616 0.137503 0.454902 0.976190
  2 1.614682 -5.366280 -13.274941 -0.765301 0.550901 0.332900 0.403922 0.984127
CSO_FlashBang.BMP
  2 1.614682 -5.366280 -13.274941 -0.765301 0.550901 0.332900 0.403922 0.984127
  2 1.564487 -5.363659 -13.533927 -0.581812 0.801616 0.137503 0.454902 0.976190
  2 1.541675 -5.406365 -13.521443 -0.865608 0.500705 -0.004100 0.454902 0.984127
CSO_FlashBang.BMP
  2 1.564487 -5.363659 -13.533927 -0.581812 0.801616 0.137503 0.454902 0.976190
  2 1.633794 -5.342293 -13.758738 -0.164997 0.968980 0.183996 0.490196 0.944444
  2 1.541675 -5.406365 -13.521443 -0.865608 0.500705 -0.004100 0.454902 0.984127
CSO_FlashBang.BMP
  2 1.541675 -5.406365 -13.521443 -0.865608 0.500705 -0.004100 0.454902 0.984127
  2 1.633794 -5.342293 -13.758738 -0.164997 0.968980 0.183996 0.490196 0.944444
  2 1.619469 -5.380975 -13.781065 -0.749322 0.563016 -0.348610 0.498039 0.952381
CSO_FlashBang.BMP
  2 1.633794 -5.342293 -13.758738 -0.164997 0.968980 0.183996 0.490196 0.944444
  2 1.793222 -5.249964 -13.904539 -0.304185 0.922355 0.238188 0.501961 0.900794
  2 1.619469 -5.380975 -13.781065 -0.749322 0.563016 -0.348610 0.498039 0.952381
CSO_FlashBang.BMP
  2 1.619469 -5.380975 -13.781065 -0.749322 0.563016 -0.348610 0.498039 0.952381
  2 1.793222 -5.249964 -13.904539 -0.304185 0.922355 0.238188 0.501961 0.900794
  2 1.812903 -5.295611 -13.936617 -0.491297 0.651396 -0.578196 0.513725 0.900794
CSO_FlashBang.BMP
  2 1.793222 -5.249964 -13.904539 -0.304185 0.922355 0.238188 0.501961 0.900794
  2 2.037273 -5.176900 -13.905538 -0.490297 0.815395 0.307798 0.490196 0.849206
  2 1.812903 -5.295611 -13.936617 -0.491297 0.651396 -0.578196 0.513725 0.900794
CSO_FlashBang.BMP
  2 1.812903 -5.295611 -13.936617 -0.491297 0.651396 -0.578196 0.513725 0.900794
  2 2.037273 -5.176900 -13.905538 -0.490297 0.815395 0.307798 0.490196 0.849206
  2 2.058421 -5.178257 -13.943629 -0.202711 0.834646 -0.512128 0.498039 0.845238
CSO_FlashBang.BMP
  2 2.037273 -5.176900 -13.905538 -0.490297 0.815395 0.307798 0.490196 0.849206
  2 2.207166 -5.082833 -13.769937 -0.581812 0.801616 0.137503 0.454902 0.821429
  2 2.058421 -5.178257 -13.943629 -0.202711 0.834646 -0.512128 0.498039 0.845238
CSO_FlashBang.BMP
  2 2.058421 -5.178257 -13.943629 -0.202711 0.834646 -0.512128 0.498039 0.845238
  2 2.207166 -5.082833 -13.769937 -0.581812 0.801616 0.137503 0.454902 0.821429
  2 2.257808 -5.104354 -13.783058 0.113295 0.928058 -0.354784 0.454902 0.813492
CSO_FlashBang.BMP
  2 2.207166 -5.082833 -13.769937 -0.581812 0.801616 0.137503 0.454902 0.821429
  2 2.274251 -5.045126 -13.542389 -0.278392 0.951271 0.132596 0.403922 0.821429
  2 2.257808 -5.104354 -13.783058 0.113295 0.928058 -0.354784 0.454902 0.813492
CSO_FlashBang.BMP
  2 2.257808 -5.104354 -13.783058 0.113295 0.928058 -0.354784 0.454902 0.813492
  2 2.274251 -5.045126 -13.542389 -0.278392 0.951271 0.132596 0.403922 0.821429
  2 2.322864 -5.045919 -13.536374 0.202990 0.978851 -0.025399 0.403922 0.813492
CSO_FlashBang.BMP
  2 4.631710 -4.356745 -16.211757 -0.939508 -0.177902 -0.292703 0.180392 0.674603
  2 4.540297 -4.081381 -16.101672 -0.966067 -0.087297 -0.243092 0.231373 0.694444
  2 4.561501 -4.027626 -16.199452 -0.966067 -0.087297 -0.243092 0.235294 0.678571
CSO_FlashBang.BMP
  2 4.561501 -4.027626 -16.199452 -0.966067 -0.087297 -0.243092 0.235294 0.678571
  2 4.540297 -4.081381 -16.101672 -0.966067 -0.087297 -0.243092 0.231373 0.694444
  2 4.520310 -3.764104 -15.998057 -0.990503 0.077300 -0.113700 0.282353 0.718254
CSO_FlashBang.BMP
  2 4.540297 -4.081381 -16.101672 -0.966067 -0.087297 -0.243092 0.231373 0.694444
  2 4.521748 -3.862318 -15.922878 -0.990503 0.077300 -0.113700 0.270588 0.726190
  2 4.520310 -3.764104 -15.998057 -0.990503 0.077300 -0.113700 0.282353 0.718254
CSO_FlashBang.BMP
  2 4.520310 -3.764104 -15.998057 -0.990503 0.077300 -0.113700 0.282353 0.718254
  2 4.521748 -3.862318 -15.922878 -0.990503 0.077300 -0.113700 0.270588 0.726190
  2 4.550515 -3.601175 -15.721938 -0.774280 0.622084 -0.116197 0.309804 0.765873
CSO_FlashBang.BMP
  2 4.521748 -3.862318 -15.922878 -0.990503 0.077300 -0.113700 0.270588 0.726190
  2 4.531143 -3.675430 -15.674917 -0.976640 0.210309 0.044102 0.298039 0.773810
  2 4.550515 -3.601175 -15.721938 -0.774280 0.622084 -0.116197 0.309804 0.765873
CSO_FlashBang.BMP
  2 4.550515 -3.601175 -15.721938 -0.774280 0.622084 -0.116197 0.309804 0.765873
  2 4.531143 -3.675430 -15.674917 -0.976640 0.210309 0.044102 0.298039 0.773810
  2 4.594677 -3.486500 -15.465229 -0.369389 0.929272 -0.002200 0.321569 0.825397
CSO_FlashBang.BMP
  2 4.531143 -3.675430 -15.674917 -0.976640 0.210309 0.044102 0.298039 0.773810
  2 4.581310 -3.590658 -15.437437 -0.932106 0.255202 0.257002 0.305882 0.825397
  2 4.594677 -3.486500 -15.465229 -0.369389 0.929272 -0.002200 0.321569 0.825397
CSO_FlashBang.BMP
  2 4.594677 -3.486500 -15.465229 -0.369389 0.929272 -0.002200 0.321569 0.825397
  2 4.581310 -3.590658 -15.437437 -0.932106 0.255202 0.257002 0.305882 0.825397
  2 4.723177 -3.510307 -15.143638 -0.272291 0.902871 0.332689 0.309804 0.880952
CSO_FlashBang.BMP
  2 4.581310 -3.590658 -15.437437 -0.932106 0.255202 0.257002 0.305882 0.825397
  2 4.690015 -3.600870 -15.153572 -0.856316 0.246905 0.453609 0.298039 0.876984
  2 4.723177 -3.510307 -15.143638 -0.272291 0.902871 0.332689 0.309804 0.880952
CSO_FlashBang.BMP
  2 4.723177 -3.510307 -15.143638 -0.272291 0.902871 0.332689 0.309804 0.880952
  2 4.690015 -3.600870 -15.153572 -0.856316 0.246905 0.453609 0.298039 0.876984
  2 4.861008 -3.627619 -14.876542 -0.114197 0.779280 0.616184 0.282353 0.932540
CSO_FlashBang.BMP
  2 4.690015 -3.600870 -15.153572 -0.856316 0.246905 0.453609 0.298039 0.876984
  2 4.823673 -3.708778 -14.918006 -0.760503 0.172501 0.626002 0.270588 0.924603
  2 4.861008 -3.627619 -14.876542 -0.114197 0.779280 0.616184 0.282353 0.932540
CSO_FlashBang.BMP
  2 4.861008 -3.627619 -14.876542 -0.114197 0.779280 0.616184 0.282353 0.932540
  2 4.823673 -3.708778 -14.918006 -0.760503 0.172501 0.626002 0.270588 0.924603
  2 5.032280 -3.838604 -14.692555 0.057602 0.561716 0.825323 0.239216 0.972222
CSO_FlashBang.BMP
  2 4.823673 -3.708778 -14.918006 -0.760503 0.172501 0.626002 0.270588 0.924603
  2 4.974333 -3.896033 -14.730557 -0.656189 0.040899 0.753487 0.231373 0.956349
  2 5.032280 -3.838604 -14.692555 0.057602 0.561716 0.825323 0.239216 0.972222
CSO_FlashBang.BMP
  2 5.032280 -3.838604 -14.692555 0.057602 0.561716 0.825323 0.239216 0.972222
  2 4.974333 -3.896033 -14.730557 -0.656189 0.040899 0.753487 0.231373 0.956349
  2 5.191059 -4.108771 -14.581653 -0.168399 0.151599 0.973992 0.184314 0.992063
CSO_FlashBang.BMP
  2 4.974333 -3.896033 -14.730557 -0.656189 0.040899 0.753487 0.231373 0.956349
  2 5.115263 -4.141051 -14.638336 -0.555908 -0.131902 0.820712 0.180392 0.976190
  2 5.191059 -4.108771 -14.581653 -0.168399 0.151599 0.973992 0.184314 0.992063
CSO_FlashBang.BMP
  2 5.191059 -4.108771 -14.581653 -0.168399 0.151599 0.973992 0.184314 0.992063
  2 5.115263 -4.141051 -14.638336 -0.555908 -0.131902 0.820712 0.180392 0.976190
  2 5.309317 -4.373664 -14.574820 -0.471917 -0.325312 0.819430 0.125490 0.992063
CSO_FlashBang.BMP
  2 5.115263 -4.141051 -14.638336 -0.555908 -0.131902 0.820712 0.180392 0.976190
  2 5.226585 -4.397958 -14.640889 -0.471917 -0.325312 0.819430 0.129412 0.976190
  2 5.309317 -4.373664 -14.574820 -0.471917 -0.325312 0.819430 0.125490 0.992063
CSO_FlashBang.BMP
  2 5.309317 -4.373664 -14.574820 -0.471917 -0.325312 0.819430 0.125490 0.992063
  2 5.226585 -4.397958 -14.640889 -0.471917 -0.325312 0.819430 0.129412 0.976190
  2 5.399996 -4.671174 -14.681897 -0.432924 -0.421823 0.796644 0.070588 0.972222
CSO_FlashBang.BMP
  2 5.226585 -4.397958 -14.640889 -0.471917 -0.325312 0.819430 0.129412 0.976190
  2 5.304321 -4.657578 -14.738124 -0.432924 -0.421823 0.796644 0.078431 0.960317
  2 5.399996 -4.671174 -14.681897 -0.432924 -0.421823 0.796644 0.070588 0.972222
CSO_FlashBang.BMP
  2 2.392692 -5.452741 -14.520102 -0.875830 -0.369213 0.310811 0.156863 0.825397
  2 2.001688 -4.786482 -14.164975 -0.783087 -0.576090 0.234296 0.298039 0.876984
  2 1.896959 -4.785445 -14.448930 -0.754381 -0.579485 0.308392 0.305882 0.821429
CSO_FlashBang.BMP
  2 2.392692 -5.452741 -14.520102 -0.875830 -0.369213 0.310811 0.156863 0.825397
  2 2.133598 -4.906172 -13.916834 -0.819286 -0.547791 0.169397 0.274510 0.920635
  2 2.001688 -4.786482 -14.164975 -0.783087 -0.576090 0.234296 0.298039 0.876984
CSO_FlashBang.BMP
  2 2.392692 -5.452741 -14.520102 -0.875830 -0.369213 0.310811 0.156863 0.825397
  2 2.289982 -5.090820 -13.742050 -0.858617 -0.498010 0.121502 0.231373 0.956349
  2 2.133598 -4.906172 -13.916834 -0.819286 -0.547791 0.169397 0.274510 0.920635
CSO_FlashBang.BMP
  2 2.392692 -5.452741 -14.520102 -0.875830 -0.369213 0.310811 0.156863 0.825397
  2 2.430912 -5.335838 -13.649830 -0.896375 -0.432688 0.096397 0.184314 0.976190
  2 2.289982 -5.090820 -13.742050 -0.858617 -0.498010 0.121502 0.231373 0.956349
CSO_FlashBang.BMP
  2 2.392692 -5.452741 -14.520102 -0.875830 -0.369213 0.310811 0.156863 0.825397
  2 2.530306 -5.565219 -13.652109 -0.927993 -0.359697 0.097199 0.129412 0.976190
  2 2.430912 -5.335838 -13.649830 -0.896375 -0.432688 0.096397 0.184314 0.976190
CSO_FlashBang.BMP
  2 2.392692 -5.452741 -14.520102 -0.875830 -0.369213 0.310811 0.156863 0.825397
  2 2.612019 -5.834014 -13.749435 -0.949618 -0.288006 0.123602 0.082353 0.960317
  2 2.530306 -5.565219 -13.652109 -0.927993 -0.359697 0.097199 0.129412 0.976190
CSO_FlashBang.BMP
  2 2.392692 -5.452741 -14.520102 -0.875830 -0.369213 0.310811 0.156863 0.825397
  2 2.651180 -6.076807 -13.931693 -0.958713 -0.226003 0.172602 0.039216 0.924603
  2 2.612019 -5.834014 -13.749435 -0.949618 -0.288006 0.123602 0.082353 0.960317
CSO_FlashBang.BMP
  2 2.392692 -5.452741 -14.520102 -0.875830 -0.369213 0.310811 0.156863 0.825397
  2 2.625883 -6.226995 -14.179289 -0.954123 -0.181404 0.238206 0.011765 0.880952
  2 2.651180 -6.076807 -13.931693 -0.958713 -0.226003 0.172602 0.039216 0.924603
CSO_FlashBang.BMP
  2 2.392692 -5.452741 -14.520102 -0.875830 -0.369213 0.310811 0.156863 0.825397
  2 2.568862 -6.336061 -14.464339 -0.936442 -0.159407 0.312514 0.003922 0.829365
  2 2.625883 -6.226995 -14.179289 -0.954123 -0.181404 0.238206 0.011765 0.880952
CSO_FlashBang.BMP
  2 2.392692 -5.452741 -14.520102 -0.875830 -0.369213 0.310811 0.156863 0.825397
  2 2.467010 -6.301555 -14.700634 -0.907786 -0.162697 0.386594 0.011765 0.773810
  2 2.568862 -6.336061 -14.464339 -0.936442 -0.159407 0.312514 0.003922 0.829365
CSO_FlashBang.BMP
  2 2.392692 -5.452741 -14.520102 -0.875830 -0.369213 0.310811 0.156863 0.825397
  2 2.334367 -6.204010 -14.945768 -0.871591 -0.190998 0.451496 0.035294 0.730159
  2 2.467010 -6.301555 -14.700634 -0.907786 -0.162697 0.386594 0.011765 0.773810
CSO_FlashBang.BMP
  2 2.392692 -5.452741 -14.520102 -0.875830 -0.369213 0.310811 0.156863 0.825397
  2 2.186668 -6.015567 -15.123741 -0.832224 -0.240807 0.499415 0.078431 0.694444
  2 2.334367 -6.204010 -14.945768 -0.871591 -0.190998 0.451496 0.035294 0.730159
CSO_FlashBang.BMP
  2 2.392692 -5.452741 -14.520102 -0.875830 -0.369213 0.310811 0.156863 0.825397
  2 2.038801 -5.762562 -15.225347 -0.794489 -0.306096 0.524493 0.125490 0.674603
  2 2.186668 -6.015567 -15.123741 -0.832224 -0.240807 0.499415 0.078431 0.694444
CSO_FlashBang.BMP
  2 2.392692 -5.452741 -14.520102 -0.875830 -0.369213 0.310811 0.156863 0.825397
  2 1.931456 -5.514831 -15.222886 -0.763408 -0.354404 0.540006 0.180392 0.674603
  2 2.038801 -5.762562 -15.225347 -0.794489 -0.306096 0.524493 0.125490 0.674603
CSO_FlashBang.BMP
  2 2.392692 -5.452741 -14.520102 -0.875830 -0.369213 0.310811 0.156863 0.825397
  2 1.860656 -5.263198 -15.116265 -0.741202 -0.450901 0.497301 0.227451 0.690476
  2 1.931456 -5.514831 -15.222886 -0.763408 -0.354404 0.540006 0.180392 0.674603
CSO_FlashBang.BMP
  2 2.392692 -5.452741 -14.520102 -0.875830 -0.369213 0.310811 0.156863 0.825397
  2 1.821494 -5.020404 -14.934007 -0.732134 -0.512824 0.448321 0.270588 0.726190
  2 1.860656 -5.263198 -15.116265 -0.741202 -0.450901 0.497301 0.227451 0.690476
CSO_FlashBang.BMP
  2 2.392692 -5.452741 -14.520102 -0.875830 -0.369213 0.310811 0.156863 0.825397
  2 1.838840 -4.851867 -14.686229 -0.736703 -0.557502 0.382702 0.298039 0.769841
  2 1.821494 -5.020404 -14.934007 -0.732134 -0.512824 0.448321 0.270588 0.726190
CSO_FlashBang.BMP
  2 2.392692 -5.452741 -14.520102 -0.875830 -0.369213 0.310811 0.156863 0.825397
  2 1.896959 -4.785445 -14.448930 -0.754381 -0.579485 0.308392 0.305882 0.821429
  2 1.838840 -4.851867 -14.686229 -0.736703 -0.557502 0.382702 0.298039 0.769841
CSO_FlashBang.BMP
  2 5.348172 -4.344829 -14.685539 0.360587 -0.042298 0.931766 0.886275 0.000000
  2 5.233890 -4.089111 -14.692464 0.206697 0.264097 0.942088 0.835294 0.000000
  2 2.530306 -5.565219 -13.652109 0.360587 -0.042298 0.931766 0.886275 0.642857
CSO_FlashBang.BMP
  2 2.530306 -5.565219 -13.652109 0.360587 -0.042298 0.931766 0.886275 0.642857
  2 5.233890 -4.089111 -14.692464 0.206697 0.264097 0.942088 0.835294 0.000000
  2 2.430912 -5.335838 -13.649830 0.206697 0.264097 0.942088 0.835294 0.642857
CSO_FlashBang.BMP
  2 5.233890 -4.089111 -14.692464 0.206697 0.264097 0.942088 0.835294 0.000000
  2 5.082527 -3.859668 -14.768920 0.057602 0.561716 0.825323 0.788235 0.000000
  2 2.430912 -5.335838 -13.649830 0.206697 0.264097 0.942088 0.835294 0.642857
CSO_FlashBang.BMP
  2 2.430912 -5.335838 -13.649830 0.206697 0.264097 0.942088 0.835294 0.642857
  2 5.082527 -3.859668 -14.768920 0.057602 0.561716 0.825323 0.788235 0.000000
  2 2.289982 -5.090820 -13.742050 0.057602 0.561716 0.825323 0.788235 0.642857
CSO_FlashBang.BMP
  2 5.082527 -3.859668 -14.768920 0.057602 0.561716 0.825323 0.788235 0.000000
  2 4.931867 -3.672414 -14.956369 -0.114197 0.779280 0.616184 0.737255 0.000000
  2 2.289982 -5.090820 -13.742050 0.057602 0.561716 0.825323 0.788235 0.642857
CSO_FlashBang.BMP
  2 2.289982 -5.090820 -13.742050 0.057602 0.561716 0.825323 0.788235 0.642857
  2 4.931867 -3.672414 -14.956369 -0.114197 0.779280 0.616184 0.737255 0.000000
  2 2.133598 -4.906172 -13.916834 -0.114197 0.779280 0.616184 0.737255 0.642857
CSO_FlashBang.BMP
  2 4.931867 -3.672414 -14.956369 -0.114197 0.779280 0.616184 0.737255 0.000000
  2 4.814845 -3.579062 -15.195307 -0.272291 0.902871 0.332689 0.686275 0.000000
  2 2.133598 -4.906172 -13.916834 -0.114197 0.779280 0.616184 0.737255 0.642857
CSO_FlashBang.BMP
  2 2.133598 -4.906172 -13.916834 -0.114197 0.779280 0.616184 0.737255 0.642857
  2 4.814845 -3.579062 -15.195307 -0.272291 0.902871 0.332689 0.686275 0.000000
  2 2.001688 -4.786482 -14.164975 -0.272291 0.902871 0.332689 0.686275 0.642857
CSO_FlashBang.BMP
  2 4.814845 -3.579062 -15.195307 -0.272291 0.902871 0.332689 0.686275 0.000000
  2 4.706140 -3.568850 -15.479171 -0.369389 0.929272 -0.002200 0.639216 0.000000
  2 2.001688 -4.786482 -14.164975 -0.272291 0.902871 0.332689 0.686275 0.642857
CSO_FlashBang.BMP
  2 2.001688 -4.786482 -14.164975 -0.272291 0.902871 0.332689 0.686275 0.642857
  2 4.706140 -3.568850 -15.479171 -0.369389 0.929272 -0.002200 0.639216 0.000000
  2 1.896959 -4.785445 -14.448930 -0.369389 0.929272 -0.002200 0.639216 0.642857
CSO_FlashBang.BMP
  2 4.706140 -3.568850 -15.479171 -0.369389 0.929272 -0.002200 0.639216 0.000000
  2 4.648021 -3.635271 -15.716469 -0.474901 0.821502 -0.315601 0.588235 0.000000
  2 1.896959 -4.785445 -14.448930 -0.369389 0.929272 -0.002200 0.639216 0.642857
CSO_FlashBang.BMP
  2 1.896959 -4.785445 -14.448930 -0.369389 0.929272 -0.002200 0.639216 0.642857
  2 4.648021 -3.635271 -15.716469 -0.474901 0.821502 -0.315601 0.588235 0.000000
  2 1.838840 -4.851867 -14.686229 -0.474901 0.821502 -0.315601 0.588235 0.642857
CSO_FlashBang.BMP
  2 4.648021 -3.635271 -15.716469 -0.474901 0.821502 -0.315601 0.588235 0.000000
  2 4.619029 -3.808793 -15.970536 -0.491297 0.651396 -0.578196 0.541176 0.000000
  2 1.838840 -4.851867 -14.686229 -0.474901 0.821502 -0.315601 0.588235 0.642857
CSO_FlashBang.BMP
  2 1.838840 -4.851867 -14.686229 -0.474901 0.821502 -0.315601 0.588235 0.642857
  2 4.619029 -3.808793 -15.970536 -0.491297 0.651396 -0.578196 0.541176 0.000000
  2 1.821494 -5.020404 -14.934007 -0.491297 0.651396 -0.578196 0.541176 0.642857
CSO_FlashBang.BMP
  2 4.619029 -3.808793 -15.970536 -0.491297 0.651396 -0.578196 0.541176 0.000000
  2 4.669837 -4.046602 -16.146505 -0.482411 0.498711 -0.720116 0.490196 0.000000
  2 1.821494 -5.020404 -14.934007 -0.491297 0.651396 -0.578196 0.541176 0.642857
CSO_FlashBang.BMP
  2 1.821494 -5.020404 -14.934007 -0.491297 0.651396 -0.578196 0.541176 0.642857
  2 4.669837 -4.046602 -16.146505 -0.482411 0.498711 -0.720116 0.490196 0.000000
  2 1.860656 -5.263198 -15.116265 -0.482411 0.498711 -0.720116 0.490196 0.642857
CSO_FlashBang.BMP
  2 2.625700 -5.546306 -13.589321 0.284809 0.144505 0.947630 0.125490 0.992063
  2 2.497742 -5.274844 -13.583396 0.206697 0.264097 0.942088 0.184314 0.992063
  2 2.418985 -5.308313 -13.649556 -0.555908 -0.131902 0.820712 0.180392 0.976190
CSO_FlashBang.BMP
  2 2.418985 -5.308313 -13.649556 -0.555908 -0.131902 0.820712 0.180392 0.976190
  2 2.497742 -5.274844 -13.583396 0.206697 0.264097 0.942088 0.184314 0.992063
  2 2.289982 -5.090820 -13.742050 -0.656189 0.040899 0.753487 0.231373 0.956349
CSO_FlashBang.BMP
  2 2.497742 -5.274844 -13.583396 0.206697 0.264097 0.942088 0.184314 0.992063
  2 2.326302 -4.999297 -13.691017 0.057602 0.561716 0.825323 0.239216 0.972222
  2 2.289982 -5.090820 -13.742050 -0.656189 0.040899 0.753487 0.231373 0.956349
CSO_FlashBang.BMP
  2 2.289982 -5.090820 -13.742050 -0.656189 0.040899 0.753487 0.231373 0.956349
  2 2.326302 -4.999297 -13.691017 0.057602 0.561716 0.825323 0.239216 0.972222
  2 2.138308 -4.893201 -13.919932 -0.760503 0.172501 0.626002 0.270588 0.924603
CSO_FlashBang.BMP
  2 2.326302 -4.999297 -13.691017 0.057602 0.561716 0.825323 0.239216 0.972222
  2 2.181366 -4.809436 -13.891134 -0.114197 0.779280 0.616184 0.282353 0.932540
  2 2.138308 -4.893201 -13.919932 -0.760503 0.172501 0.626002 0.270588 0.924603
CSO_FlashBang.BMP
  2 2.138308 -4.893201 -13.919932 -0.760503 0.172501 0.626002 0.270588 0.924603
  2 2.181366 -4.809436 -13.891134 -0.114197 0.779280 0.616184 0.282353 0.932540
  2 1.993737 -4.768131 -14.164793 -0.856316 0.246905 0.453609 0.298039 0.876984
CSO_FlashBang.BMP
  2 2.181366 -4.809436 -13.891134 -0.114197 0.779280 0.616184 0.282353 0.932540
  2 2.018213 -4.681364 -14.151669 -0.272291 0.902871 0.332689 0.309804 0.880952
  2 1.993737 -4.768131 -14.164793 -0.856316 0.246905 0.453609 0.298039 0.876984
CSO_FlashBang.BMP
  2 1.993737 -4.768131 -14.164793 -0.856316 0.246905 0.453609 0.298039 0.876984
  2 2.018213 -4.681364 -14.151669 -0.272291 0.902871 0.332689 0.309804 0.880952
  2 1.885032 -4.757920 -14.448657 -0.932106 0.255202 0.257002 0.305882 0.825397
CSO_FlashBang.BMP
  2 2.018213 -4.681364 -14.151669 -0.272291 0.902871 0.332689 0.309804 0.880952
  2 1.917262 -4.689274 -14.467337 -0.369389 0.929272 -0.002200 0.321569 0.825397
  2 1.885032 -4.757920 -14.448657 -0.932106 0.255202 0.257002 0.305882 0.825397
CSO_FlashBang.BMP
  2 1.885032 -4.757920 -14.448657 -0.932106 0.255202 0.257002 0.305882 0.825397
  2 1.917262 -4.689274 -14.467337 -0.369389 0.929272 -0.002200 0.321569 0.825397
  2 1.838840 -4.851867 -14.686229 -0.976640 0.210309 0.044102 0.298039 0.773810
CSO_FlashBang.BMP
  2 1.917262 -4.689274 -14.467337 -0.369389 0.929272 -0.002200 0.321569 0.825397
  2 1.854236 -4.768437 -14.733158 -0.474901 0.821502 -0.315601 0.309804 0.765873
  2 1.838840 -4.851867 -14.686229 -0.976640 0.210309 0.044102 0.298039 0.773810
CSO_FlashBang.BMP
  2 1.838840 -4.851867 -14.686229 -0.976640 0.210309 0.044102 0.298039 0.773810
  2 1.854236 -4.768437 -14.733158 -0.474901 0.821502 -0.315601 0.309804 0.765873
  2 1.821494 -5.020404 -14.934007 -0.990503 0.077300 -0.113700 0.270588 0.726190
CSO_FlashBang.BMP
  2 1.854236 -4.768437 -14.733158 -0.474901 0.821502 -0.315601 0.309804 0.765873
  2 1.831983 -4.949716 -15.009460 -0.801301 0.456401 -0.386801 0.282353 0.718254
  2 1.821494 -5.020404 -14.934007 -0.990503 0.077300 -0.113700 0.270588 0.726190
CSO_FlashBang.BMP
  2 1.821494 -5.020404 -14.934007 -0.990503 0.077300 -0.113700 0.270588 0.726190
  2 1.831983 -4.949716 -15.009460 -0.801301 0.456401 -0.386801 0.282353 0.718254
  2 1.860656 -5.263198 -15.116265 -0.981638 0.004200 -0.190707 0.231373 0.694444
CSO_FlashBang.BMP
  2 1.831983 -4.949716 -15.009460 -0.801301 0.456401 -0.386801 0.282353 0.718254
  2 1.865223 -5.194887 -15.210672 -0.981638 0.004200 -0.190707 0.235294 0.678571
  2 1.860656 -5.263198 -15.116265 -0.981638 0.004200 -0.190707 0.231373 0.694444
CSO_FlashBang.BMP
  2 2.639234 -5.506710 -13.693479 0.868108 0.391303 0.305403 0.129412 0.976190
  2 2.539840 -5.277329 -13.691200 0.824312 0.471207 0.313805 0.180392 0.976190
  2 2.497742 -5.274844 -13.583396 0.206697 0.264097 0.942088 0.184314 0.992063
CSO_FlashBang.BMP
  2 2.497742 -5.274844 -13.583396 0.206697 0.264097 0.942088 0.184314 0.992063
  2 2.539840 -5.277329 -13.691200 0.824312 0.471207 0.313805 0.180392 0.976190
  2 2.326302 -4.999297 -13.691017 0.057602 0.561716 0.825323 0.239216 0.972222
CSO_FlashBang.BMP
  2 2.539840 -5.277329 -13.691200 0.824312 0.471207 0.313805 0.180392 0.976190
  2 2.390958 -5.013960 -13.783238 0.724101 0.644101 0.246600 0.231373 0.956349
  2 2.326302 -4.999297 -13.691017 0.057602 0.561716 0.825323 0.239216 0.972222
CSO_FlashBang.BMP
  2 2.326302 -4.999297 -13.691017 0.057602 0.561716 0.825323 0.239216 0.972222
  2 2.390958 -5.013960 -13.783238 0.724101 0.644101 0.246600 0.231373 0.956349
  2 2.181366 -4.809436 -13.891134 -0.114197 0.779280 0.616184 0.282353 0.932540
CSO_FlashBang.BMP
  2 2.390958 -5.013960 -13.783238 0.724101 0.644101 0.246600 0.231373 0.956349
  2 2.247235 -4.834692 -13.961302 0.619785 0.775682 0.119097 0.270588 0.924603
  2 2.181366 -4.809436 -13.891134 -0.114197 0.779280 0.616184 0.282353 0.932540
CSO_FlashBang.BMP
  2 2.181366 -4.809436 -13.891134 -0.114197 0.779280 0.616184 0.282353 0.932540
  2 2.247235 -4.834692 -13.961302 0.619785 0.775682 0.119097 0.270588 0.924603
  2 2.018213 -4.681364 -14.151669 -0.272291 0.902871 0.332689 0.309804 0.880952
CSO_FlashBang.BMP
  2 2.247235 -4.834692 -13.961302 0.619785 0.775682 0.119097 0.270588 0.924603
  2 2.114591 -4.737148 -14.206436 0.523977 0.850063 -0.053298 0.298039 0.876984
  2 2.018213 -4.681364 -14.151669 -0.272291 0.902871 0.332689 0.309804 0.880952
CSO_FlashBang.BMP
  2 2.018213 -4.681364 -14.151669 -0.272291 0.902871 0.332689 0.309804 0.880952
  2 2.114591 -4.737148 -14.206436 0.523977 0.850063 -0.053298 0.298039 0.876984
  2 1.917262 -4.689274 -14.467337 -0.369389 0.929272 -0.002200 0.321569 0.825397
CSO_FlashBang.BMP
  2 2.114591 -4.737148 -14.206436 0.523977 0.850063 -0.053298 0.298039 0.876984
  2 2.005886 -4.726936 -14.490300 0.448197 0.858295 -0.249899 0.305882 0.825397
  2 1.917262 -4.689274 -14.467337 -0.369389 0.929272 -0.002200 0.321569 0.825397
CSO_FlashBang.BMP
  2 1.917262 -4.689274 -14.467337 -0.369389 0.929272 -0.002200 0.321569 0.825397
  2 2.005886 -4.726936 -14.490300 0.448197 0.858295 -0.249899 0.305882 0.825397
  2 1.854236 -4.768437 -14.733158 -0.474901 0.821502 -0.315601 0.309804 0.765873
CSO_FlashBang.BMP
  2 2.005886 -4.726936 -14.490300 0.448197 0.858295 -0.249899 0.305882 0.825397
  2 1.950531 -4.791940 -14.749743 0.401591 0.799383 -0.446891 0.298039 0.773810
  2 1.854236 -4.768437 -14.733158 -0.474901 0.821502 -0.315601 0.309804 0.765873
CSO_FlashBang.BMP
  2 1.854236 -4.768437 -14.733158 -0.474901 0.821502 -0.315601 0.309804 0.765873
  2 1.950531 -4.791940 -14.749743 0.401591 0.799383 -0.446891 0.298039 0.773810
  2 1.831983 -4.949716 -15.009460 -0.801301 0.456401 -0.386801 0.282353 0.718254
CSO_FlashBang.BMP
  2 1.950531 -4.791940 -14.749743 0.401591 0.799383 -0.446891 0.298039 0.773810
  2 1.934397 -4.971070 -14.975468 0.384304 0.749307 -0.539305 0.270588 0.726190
  2 1.831983 -4.949716 -15.009460 -0.801301 0.456401 -0.386801 0.282353 0.718254
CSO_FlashBang.BMP
  2 1.583351 -5.399171 -13.524814 0.868108 0.391303 0.305403 0.454902 0.976190
  2 1.651925 -5.399950 -13.746618 0.744617 0.341508 0.573513 0.490196 0.944444
  2 1.564487 -5.363659 -13.533927 -0.581812 0.801616 0.137503 0.454902 0.976190
CSO_FlashBang.BMP
  2 1.564487 -5.363659 -13.533927 -0.581812 0.801616 0.137503 0.454902 0.976190
  2 1.651925 -5.399950 -13.746618 0.744617 0.341508 0.573513 0.490196 0.944444
  2 1.633794 -5.342293 -13.758738 -0.164997 0.968980 0.183996 0.490196 0.944444
CSO_FlashBang.BMP
  2 1.651925 -5.399950 -13.746618 0.744617 0.341508 0.573513 0.490196 0.944444
  2 1.850068 -5.301617 -13.905268 0.284809 0.144505 0.947630 0.501961 0.900794
  2 1.633794 -5.342293 -13.758738 -0.164997 0.968980 0.183996 0.490196 0.944444
CSO_FlashBang.BMP
  2 1.633794 -5.342293 -13.758738 -0.164997 0.968980 0.183996 0.490196 0.944444
  2 1.850068 -5.301617 -13.905268 0.284809 0.144505 0.947630 0.501961 0.900794
  2 1.793222 -5.249964 -13.904539 -0.304185 0.922355 0.238188 0.501961 0.900794
CSO_FlashBang.BMP
  2 1.850068 -5.301617 -13.905268 0.284809 0.144505 0.947630 0.501961 0.900794
  2 2.047452 -5.216207 -13.893236 -0.273509 -0.128604 0.953233 0.490196 0.849206
  2 1.793222 -5.249964 -13.904539 -0.304185 0.922355 0.238188 0.501961 0.900794
CSO_FlashBang.BMP
  2 1.793222 -5.249964 -13.904539 -0.304185 0.922355 0.238188 0.501961 0.900794
  2 2.047452 -5.216207 -13.893236 -0.273509 -0.128604 0.953233 0.490196 0.849206
  2 2.037273 -5.176900 -13.905538 -0.490297 0.815395 0.307798 0.490196 0.849206
CSO_FlashBang.BMP
  2 2.047452 -5.216207 -13.893236 -0.273509 -0.128604 0.953233 0.490196 0.849206
  2 2.226030 -5.118345 -13.760824 -0.736143 -0.315419 0.598835 0.454902 0.821429
  2 2.037273 -5.176900 -13.905538 -0.490297 0.815395 0.307798 0.490196 0.849206
CSO_FlashBang.BMP
  2 2.037273 -5.176900 -13.905538 -0.490297 0.815395 0.307798 0.490196 0.849206
  2 2.226030 -5.118345 -13.760824 -0.736143 -0.315419 0.598835 0.454902 0.821429
  2 2.207166 -5.082833 -13.769937 -0.581812 0.801616 0.137503 0.454902 0.821429
CSO_FlashBang.BMP
  2 2.226030 -5.118345 -13.760824 -0.736143 -0.315419 0.598835 0.454902 0.821429
  2 2.305042 -5.108164 -13.533550 -0.875830 -0.369213 0.310811 0.403922 0.821429
  2 2.207166 -5.082833 -13.769937 -0.581812 0.801616 0.137503 0.454902 0.821429
CSO_FlashBang.BMP
  2 2.207166 -5.082833 -13.769937 -0.581812 0.801616 0.137503 0.454902 0.821429
  2 2.305042 -5.108164 -13.533550 -0.875830 -0.369213 0.310811 0.403922 0.821429
  2 2.274251 -5.045126 -13.542389 -0.278392 0.951271 0.132596 0.403922 0.821429
CSO_FlashBang.BMP
  2 5.227433 -4.113862 -14.676790 0.772408 0.562406 0.295103 0.180392 0.976190
  2 5.082527 -3.859668 -14.768920 0.724101 0.644101 0.246600 0.231373 0.956349
  2 5.032280 -3.838604 -14.692555 0.057602 0.561716 0.825323 0.239216 0.972222
CSO_FlashBang.BMP
  2 5.032280 -3.838604 -14.692555 0.057602 0.561716 0.825323 0.239216 0.972222
  2 5.082527 -3.859668 -14.768920 0.724101 0.644101 0.246600 0.231373 0.956349
  2 4.861008 -3.627619 -14.876542 -0.114197 0.779280 0.616184 0.282353 0.932540
CSO_FlashBang.BMP
  2 5.082527 -3.859668 -14.768920 0.724101 0.644101 0.246600 0.231373 0.956349
  2 4.927892 -3.663239 -14.956278 0.619785 0.775682 0.119097 0.270588 0.924603
  2 4.861008 -3.627619 -14.876542 -0.114197 0.779280 0.616184 0.282353 0.932540
CSO_FlashBang.BMP
  2 4.861008 -3.627619 -14.876542 -0.114197 0.779280 0.616184 0.282353 0.932540
  2 4.927892 -3.663239 -14.956278 0.619785 0.775682 0.119097 0.270588 0.924603
  2 4.723177 -3.510307 -15.143638 -0.272291 0.902871 0.332689 0.309804 0.880952
CSO_FlashBang.BMP
  2 4.927892 -3.663239 -14.956278 0.619785 0.775682 0.119097 0.270588 0.924603
  2 4.798942 -3.542361 -15.194942 0.523977 0.850063 -0.053298 0.298039 0.876984
  2 4.723177 -3.510307 -15.143638 -0.272291 0.902871 0.332689 0.309804 0.880952
CSO_FlashBang.BMP
  2 4.723177 -3.510307 -15.143638 -0.272291 0.902871 0.332689 0.309804 0.880952
  2 4.798942 -3.542361 -15.194942 0.523977 0.850063 -0.053298 0.298039 0.876984
  2 4.594677 -3.486500 -15.465229 -0.369389 0.929272 -0.002200 0.321569 0.825397
CSO_FlashBang.BMP
  2 4.798942 -3.542361 -15.194942 0.523977 0.850063 -0.053298 0.298039 0.876984
  2 4.699204 -3.560863 -15.488557 0.448197 0.858295 -0.249899 0.305882 0.825397
  2 4.594677 -3.486500 -15.465229 -0.369389 0.929272 -0.002200 0.321569 0.825397
CSO_FlashBang.BMP
  2 4.594677 -3.486500 -15.465229 -0.369389 0.929272 -0.002200 0.321569 0.825397
  2 4.699204 -3.560863 -15.488557 0.448197 0.858295 -0.249899 0.305882 0.825397
  2 4.550515 -3.601175 -15.721938 -0.774280 0.622084 -0.116197 0.309804 0.765873
CSO_FlashBang.BMP
  2 4.699204 -3.560863 -15.488557 0.448197 0.858295 -0.249899 0.305882 0.825397
  2 4.648021 -3.635271 -15.716469 0.414280 0.840460 -0.349283 0.298039 0.773810
  2 4.550515 -3.601175 -15.721938 -0.774280 0.622084 -0.116197 0.309804 0.765873
CSO_FlashBang.BMP
  2 2.391550 -6.233061 -15.012747 -0.564973 -0.824060 -0.041598 0.027451 0.718254
  2 2.546018 -6.364929 -14.749022 -0.523977 -0.850063 0.053298 0.000000 0.769841
  2 2.467010 -6.301555 -14.700634 -0.523977 -0.850063 0.053298 0.011765 0.773810
CSO_FlashBang.BMP
  2 2.467010 -6.301555 -14.700634 -0.523977 -0.850063 0.053298 0.011765 0.773810
  2 2.546018 -6.364929 -14.749022 -0.523977 -0.850063 0.053298 0.000000 0.769841
  2 2.572557 -6.312727 -14.457868 -0.448197 -0.858295 0.249899 0.003922 0.825397
CSO_FlashBang.BMP
  2 2.546018 -6.364929 -14.749022 -0.523977 -0.850063 0.053298 0.000000 0.769841
  2 2.647787 -6.367154 -14.474544 -0.448197 -0.858295 0.249899 0.000000 0.825397
  2 2.572557 -6.312727 -14.457868 -0.448197 -0.858295 0.249899 0.003922 0.825397
CSO_FlashBang.BMP
  2 2.572557 -6.312727 -14.457868 -0.448197 -0.858295 0.249899 0.003922 0.825397
  2 2.647787 -6.367154 -14.474544 -0.448197 -0.858295 0.249899 0.000000 0.825397
  2 2.625883 -6.226995 -14.179289 -0.401591 -0.799383 0.446891 0.011765 0.876984
CSO_FlashBang.BMP
  2 2.647787 -6.367154 -14.474544 -0.448197 -0.858295 0.249899 0.000000 0.825397
  2 2.722656 -6.283236 -14.170813 -0.401591 -0.799383 0.446891 0.000000 0.884921
  2 2.625883 -6.226995 -14.179289 -0.401591 -0.799383 0.446891 0.011765 0.876984
CSO_FlashBang.BMP
  2 2.625883 -6.226995 -14.179289 -0.401591 -0.799383 0.446891 0.011765 0.876984
  2 2.722656 -6.283236 -14.170813 -0.401591 -0.799383 0.446891 0.000000 0.884921
  2 2.647205 -6.067632 -13.931602 -0.389791 -0.680485 0.620486 0.039216 0.924603
CSO_FlashBang.BMP
  2 2.722656 -6.283236 -14.170813 -0.401591 -0.799383 0.446891 0.000000 0.884921
  2 2.740934 -6.092781 -13.894421 -0.389791 -0.680485 0.620486 0.027451 0.932540
  2 2.647205 -6.067632 -13.931602 -0.389791 -0.680485 0.620486 0.039216 0.924603
CSO_FlashBang.BMP
  2 2.647205 -6.067632 -13.931602 -0.389791 -0.680485 0.620486 0.039216 0.924603
  2 2.740934 -6.092781 -13.894421 -0.389791 -0.680485 0.620486 0.027451 0.932540
  2 2.605082 -5.826028 -13.758822 -0.390794 -0.603891 0.694691 0.078431 0.960317
CSO_FlashBang.BMP
  2 2.740934 -6.092781 -13.894421 -0.389791 -0.680485 0.620486 0.027451 0.932540
  2 2.695033 -5.842230 -13.689928 -0.390794 -0.603891 0.694691 0.070588 0.972222
  2 2.605082 -5.826028 -13.758822 -0.390794 -0.603891 0.694691 0.078431 0.960317
CSO_FlashBang.BMP
  2 1.750307 -5.467241 -13.652847 -0.795186 0.043699 0.604789 0.803922 0.861111
  2 1.763617 -5.418195 -13.620952 -0.613902 0.396801 0.682402 0.807843 0.853175
  2 1.499647 -5.578654 -14.467990 -0.714957 0.687959 0.124692 0.662745 0.861111
CSO_FlashBang.BMP
  2 1.499647 -5.578654 -14.467990 -0.714957 0.687959 0.124692 0.662745 0.861111
  2 1.763617 -5.418195 -13.620952 -0.613902 0.396801 0.682402 0.807843 0.853175
  2 1.508388 -5.519747 -14.530867 -0.629111 0.771214 0.097202 0.658824 0.853175
CSO_FlashBang.BMP
  2 1.763617 -5.418195 -13.620952 -0.613902 0.396801 0.682402 0.807843 0.853175
  2 1.820914 -5.415193 -13.618126 -0.020601 0.839532 0.542920 0.811765 0.841270
  2 1.508388 -5.519747 -14.530867 -0.629111 0.771214 0.097202 0.658824 0.853175
CSO_FlashBang.BMP
  2 1.508388 -5.519747 -14.530867 -0.629111 0.771214 0.097202 0.658824 0.853175
  2 1.820914 -5.415193 -13.618126 -0.020601 0.839532 0.542920 0.811765 0.841270
  2 1.534443 -5.508362 -14.540435 -0.174706 0.982833 -0.059302 0.658824 0.841270
CSO_FlashBang.BMP
  2 1.820914 -5.415193 -13.618126 -0.020601 0.839532 0.542920 0.811765 0.841270
  2 1.850409 -5.435357 -13.593157 -0.320520 0.506031 0.800749 0.815686 0.825397
  2 1.534443 -5.508362 -14.540435 -0.174706 0.982833 -0.059302 0.658824 0.841270
CSO_FlashBang.BMP
  2 1.534443 -5.508362 -14.540435 -0.174706 0.982833 -0.059302 0.658824 0.841270
  2 1.850409 -5.435357 -13.593157 -0.320520 0.506031 0.800749 0.815686 0.825397
  2 1.587229 -5.518559 -14.502890 0.194596 0.965881 -0.170897 0.662745 0.837302
CSO_FlashBang.BMP
  2 1.940410 -5.929798 -13.654217 -0.551913 -0.541212 0.634415 0.823529 0.861111
  2 1.985526 -5.954154 -13.623051 -0.327113 -0.315012 0.890935 0.819608 0.857143
  2 1.750307 -5.467241 -13.652847 -0.795186 0.043699 0.604789 0.976471 0.861111
CSO_FlashBang.BMP
  2 1.750307 -5.467241 -13.652847 -0.795186 0.043699 0.604789 0.976471 0.861111
  2 1.985526 -5.954154 -13.623051 -0.327113 -0.315012 0.890935 0.819608 0.857143
  2 1.763617 -5.418195 -13.620952 -0.613902 0.396801 0.682402 0.980392 0.853175
CSO_FlashBang.BMP
  2 1.985526 -5.954154 -13.623051 -0.327113 -0.315012 0.890935 0.819608 0.857143
  2 2.043557 -5.929006 -13.623232 -0.273509 -0.128604 0.953233 0.823529 0.845238
  2 1.763617 -5.418195 -13.620952 -0.613902 0.396801 0.682402 0.980392 0.853175
CSO_FlashBang.BMP
  2 1.763617 -5.418195 -13.620952 -0.613902 0.396801 0.682402 0.980392 0.853175
  2 2.043557 -5.929006 -13.623232 -0.273509 -0.128604 0.953233 0.823529 0.845238
  2 1.820914 -5.415193 -13.618126 -0.020601 0.839532 0.542920 0.980392 0.845238
CSO_FlashBang.BMP
  2 2.043557 -5.929006 -13.623232 -0.273509 -0.128604 0.953233 0.823529 0.845238
  2 2.057882 -5.890324 -13.600905 -0.386707 -0.177203 0.905017 0.827451 0.837302
  2 1.820914 -5.415193 -13.618126 -0.020601 0.839532 0.542920 0.980392 0.845238
CSO_FlashBang.BMP
  2 1.820914 -5.415193 -13.618126 -0.020601 0.839532 0.542920 0.980392 0.845238
  2 2.057882 -5.890324 -13.600905 -0.386707 -0.177203 0.905017 0.827451 0.837302
  2 1.850409 -5.435357 -13.593157 -0.320520 0.506031 0.800749 0.968627 0.837302
CSO_FlashBang.BMP
  2 1.393493 -5.566808 -13.708259 -0.837694 0.350897 0.418497 0.976471 0.388889
  2 1.651750 -6.098637 -13.637819 -0.386707 -0.177203 0.905017 0.898039 0.373016
  2 1.421156 -5.566473 -13.632531 -0.541979 0.494681 0.679374 0.976471 0.373016
CSO_FlashBang.BMP
  2 1.421156 -5.566473 -13.632531 -0.541979 0.494681 0.679374 0.976471 0.373016
  2 1.651750 -6.098637 -13.637819 -0.386707 -0.177203 0.905017 0.898039 0.373016
  2 1.763081 -5.440569 -13.586324 -0.593682 0.578183 0.559683 0.976471 0.313492
CSO_FlashBang.BMP
  2 1.651750 -6.098637 -13.637819 -0.386707 -0.177203 0.905017 0.898039 0.373016
  2 1.984990 -5.976527 -13.588422 -0.432515 -0.184106 0.882630 0.898039 0.313492
  2 1.763081 -5.440569 -13.586324 -0.593682 0.578183 0.559683 0.976471 0.313492
CSO_FlashBang.BMP
  2 1.763081 -5.440569 -13.586324 -0.593682 0.578183 0.559683 0.976471 0.313492
  2 1.984990 -5.976527 -13.588422 -0.432515 -0.184106 0.882630 0.898039 0.313492
  2 1.899447 -5.372274 -13.415912 -0.613421 0.363512 0.701123 0.976471 0.277778
CSO_FlashBang.BMP
  2 1.984990 -5.976527 -13.588422 -0.432515 -0.184106 0.882630 0.898039 0.313492
  2 2.121357 -5.908233 -13.418011 -0.522397 -0.215599 0.824996 0.898039 0.277778
  2 1.899447 -5.372274 -13.415912 -0.613421 0.363512 0.701123 0.976471 0.277778
CSO_FlashBang.BMP
  2 1.899447 -5.372274 -13.415912 -0.613421 0.363512 0.701123 0.976471 0.277778
  2 2.121357 -5.908233 -13.418011 -0.522397 -0.215599 0.824996 0.898039 0.277778
  2 2.172649 -5.875327 -13.395957 -0.005800 0.010600 0.999927 0.898039 0.265873
CSO_FlashBang.BMP
  2 2.462119 -5.403938 -14.210266 0.284809 0.144505 0.947630 0.325490 0.662698
  2 2.386747 -5.294171 -14.284899 -0.085501 0.748407 0.657706 0.345098 0.662698
  2 1.562420 -5.632546 -13.984921 -0.085501 0.748407 0.657706 0.345098 0.789683
CSO_FlashBang.BMP
  2 1.562420 -5.632546 -13.984921 -0.085501 0.748407 0.657706 0.345098 0.789683
  2 2.386747 -5.294171 -14.284899 -0.085501 0.748407 0.657706 0.345098 0.662698
  2 1.481294 -5.589718 -14.154875 -0.405715 0.913834 -0.017401 0.368627 0.789683
CSO_FlashBang.BMP
  2 2.386747 -5.294171 -14.284899 -0.085501 0.748407 0.657706 0.345098 0.662698
  2 2.305621 -5.251342 -14.454853 -0.405715 0.913834 -0.017401 0.368627 0.662698
  2 1.481294 -5.589718 -14.154875 -0.405715 0.913834 -0.017401 0.368627 0.789683
CSO_FlashBang.BMP
  2 1.481294 -5.589718 -14.154875 -0.405715 0.913834 -0.017401 0.368627 0.789683
  2 2.305621 -5.251342 -14.454853 -0.405715 0.913834 -0.017401 0.368627 0.662698
  2 1.451318 -5.688542 -14.291386 -0.483801 0.789001 -0.378701 0.388235 0.789683
CSO_FlashBang.BMP
  2 2.305621 -5.251342 -14.454853 -0.405715 0.913834 -0.017401 0.368627 0.662698
  2 2.293014 -5.342577 -14.597743 -0.483801 0.789001 -0.378701 0.388235 0.662698
  2 1.451318 -5.688542 -14.291386 -0.483801 0.789001 -0.378701 0.388235 0.789683
CSO_FlashBang.BMP
  2 1.570773 -5.347901 -13.748897 -0.976640 0.210309 0.044102 0.713725 0.956349
  2 1.601396 -5.346377 -13.663692 -0.593077 0.330087 0.734372 0.713725 0.972222
  2 1.575680 -5.335159 -13.720374 -0.840154 0.530634 0.112107 0.709804 0.964286
CSO_FlashBang.BMP
  2 1.570773 -5.347901 -13.748897 -0.976640 0.210309 0.044102 0.713725 0.956349
  2 1.620260 -5.381889 -13.654580 -0.348409 -0.129003 0.928423 0.721569 0.976190
  2 1.601396 -5.346377 -13.663692 -0.593077 0.330087 0.734372 0.713725 0.972222
CSO_FlashBang.BMP
  2 1.570773 -5.347901 -13.748897 -0.976640 0.210309 0.044102 0.713725 0.956349
  2 1.641154 -5.438129 -13.664604 -0.399813 -0.278609 0.873228 0.729412 0.972222
  2 1.620260 -5.381889 -13.654580 -0.348409 -0.129003 0.928423 0.721569 0.976190
CSO_FlashBang.BMP
  2 1.570773 -5.347901 -13.748897 -0.976640 0.210309 0.044102 0.713725 0.956349
  2 1.612674 -5.428329 -13.699142 -0.763408 -0.354404 0.540006 0.725490 0.964286
  2 1.641154 -5.438129 -13.664604 -0.399813 -0.278609 0.873228 0.729412 0.972222
CSO_FlashBang.BMP
  2 1.570773 -5.347901 -13.748897 -0.976640 0.210309 0.044102 0.713725 0.956349
  2 1.584730 -5.396155 -13.768308 -0.875830 -0.369213 0.310811 0.721569 0.952381
  2 1.612674 -5.428329 -13.699142 -0.763408 -0.354404 0.540006 0.725490 0.964286
CSO_FlashBang.BMP
  2 1.672651 -5.391629 -13.680277 0.346810 -0.004100 0.937926 0.960784 0.932540
  2 1.659709 -5.353739 -13.670435 0.284809 0.144505 0.947630 0.964706 0.932540
  2 1.620260 -5.381889 -13.654580 -0.348409 -0.129003 0.928423 0.964706 0.948413
CSO_FlashBang.BMP
  2 1.620260 -5.381889 -13.654580 -0.348409 -0.129003 0.928423 0.964706 0.948413
  2 1.659709 -5.353739 -13.670435 0.284809 0.144505 0.947630 0.964706 0.932540
  2 1.601396 -5.346377 -13.663692 -0.593077 0.330087 0.734372 0.972549 0.948413
CSO_FlashBang.BMP
  2 1.659709 -5.353739 -13.670435 0.284809 0.144505 0.947630 0.964706 0.932540
  2 1.640845 -5.318227 -13.679548 -0.048202 0.768426 0.638121 0.972549 0.932540
  2 1.601396 -5.346377 -13.663692 -0.593077 0.330087 0.734372 0.972549 0.948413
CSO_FlashBang.BMP
  2 1.601396 -5.346377 -13.663692 -0.593077 0.330087 0.734372 0.972549 0.948413
  2 1.640845 -5.318227 -13.679548 -0.048202 0.768426 0.638121 0.972549 0.932540
  2 1.575680 -5.335159 -13.720374 -0.840154 0.530634 0.112107 0.976471 0.948413
CSO_FlashBang.BMP
  2 1.640845 -5.318227 -13.679548 -0.048202 0.768426 0.638121 0.972549 0.932540
  2 1.625026 -5.313807 -13.717366 -0.239412 0.964847 -0.108405 0.976471 0.932540
  2 1.575680 -5.335159 -13.720374 -0.840154 0.530634 0.112107 0.976471 0.948413
CSO_FlashBang.BMP
  2 2.000835 -6.220067 -13.615581 -0.603582 -0.049298 0.795776 0.901961 0.984127
  2 1.903836 -6.076204 -13.677183 -0.501891 -0.130798 0.854984 0.866667 0.972222
  2 2.004894 -6.261523 -13.653855 -0.842066 -0.422183 0.335687 0.905882 0.976190
CSO_FlashBang.BMP
  2 2.004894 -6.261523 -13.653855 -0.842066 -0.422183 0.335687 0.905882 0.976190
  2 1.903836 -6.076204 -13.677183 -0.501891 -0.130798 0.854984 0.866667 0.972222
  2 1.888016 -6.071784 -13.715001 -0.875830 -0.369213 0.310811 0.866667 0.964286
CSO_FlashBang.BMP
  2 1.903836 -6.076204 -13.677183 -0.501891 -0.130798 0.854984 0.866667 0.972222
  2 1.641154 -5.438129 -13.664604 -0.399813 -0.278609 0.873228 0.729412 0.972222
  2 1.888016 -6.071784 -13.715001 -0.875830 -0.369213 0.310811 0.866667 0.964286
CSO_FlashBang.BMP
  2 1.888016 -6.071784 -13.715001 -0.875830 -0.369213 0.310811 0.866667 0.964286
  2 1.641154 -5.438129 -13.664604 -0.399813 -0.278609 0.873228 0.729412 0.972222
  2 1.612674 -5.428329 -13.699142 -0.875830 -0.369213 0.310811 0.729412 0.964286
CSO_FlashBang.BMP
  2 1.641154 -5.438129 -13.664604 -0.399813 -0.278609 0.873228 0.729412 0.972222
  2 1.612674 -5.428329 -13.699142 -0.763408 -0.354404 0.540006 0.725490 0.964286
  2 1.612674 -5.428329 -13.699142 -0.875830 -0.369213 0.310811 0.729412 0.964286
CSO_FlashBang.BMP
  2 1.435393 -5.569065 -13.847684 -0.369389 0.929272 -0.002200 0.803922 0.753968
  2 1.763081 -5.440569 -13.586324 -0.593682 0.578183 0.559683 0.909804 0.686508
  2 1.648538 -5.465015 -13.927326 -0.421094 0.906387 0.033799 0.803922 0.686508
CSO_FlashBang.BMP
  2 1.435393 -5.569065 -13.847684 -0.369389 0.929272 -0.002200 0.803922 0.753968
  2 1.421156 -5.566473 -13.632531 -0.541979 0.494681 0.679374 0.862745 0.769841
  2 1.763081 -5.440569 -13.586324 -0.593682 0.578183 0.559683 0.909804 0.686508
CSO_FlashBang.BMP
  2 1.435393 -5.569065 -13.847684 -0.369389 0.929272 -0.002200 0.803922 0.753968
  2 1.393493 -5.566808 -13.708259 -0.837694 0.350897 0.418497 0.847059 0.785714
  2 1.421156 -5.566473 -13.632531 -0.541979 0.494681 0.679374 0.862745 0.769841
CSO_FlashBang.BMP
  2 1.435393 -5.569065 -13.847684 -0.369389 0.929272 -0.002200 0.803922 0.753968
  2 1.208057 -5.684348 -14.353083 -0.897087 0.383594 0.219297 0.631373 0.785714
  2 1.393493 -5.566808 -13.708259 -0.837694 0.350897 0.418497 0.847059 0.785714
CSO_FlashBang.BMP
  2 1.435393 -5.569065 -13.847684 -0.369389 0.929272 -0.002200 0.803922 0.753968
  2 1.274293 -5.622668 -14.381513 -0.421094 0.906387 0.033799 0.631373 0.753968
  2 1.208057 -5.684348 -14.353083 -0.897087 0.383594 0.219297 0.631373 0.785714
CSO_FlashBang.BMP
  2 1.641154 -5.438129 -13.664604 -0.399813 -0.278609 0.873228 0.956863 0.948413
  2 1.903836 -6.076204 -13.677183 -0.501891 -0.130798 0.854984 0.874510 0.948413
  2 1.672651 -5.391629 -13.680277 0.346810 -0.004100 0.937926 0.956863 0.932540
CSO_FlashBang.BMP
  2 1.672651 -5.391629 -13.680277 0.346810 -0.004100 0.937926 0.956863 0.932540
  2 1.903836 -6.076204 -13.677183 -0.501891 -0.130798 0.854984 0.874510 0.948413
  2 1.960654 -6.040464 -13.699417 0.206697 0.264097 0.942088 0.874510 0.932540
CSO_FlashBang.BMP
  2 1.903836 -6.076204 -13.677183 -0.501891 -0.130798 0.854984 0.874510 0.948413
  2 2.000835 -6.220067 -13.615581 -0.603582 -0.049298 0.795776 0.843137 0.948413
  2 1.960654 -6.040464 -13.699417 0.206697 0.264097 0.942088 0.874510 0.932540
CSO_FlashBang.BMP
  2 1.960654 -6.040464 -13.699417 0.206697 0.264097 0.942088 0.874510 0.932540
  2 2.000835 -6.220067 -13.615581 -0.603582 -0.049298 0.795776 0.843137 0.948413
  2 2.047220 -6.199903 -13.622050 -0.118002 0.361405 0.924912 0.843137 0.932540
CSO_FlashBang.BMP
  2 1.921571 -6.133405 -13.728306 -0.386707 -0.177203 0.905017 0.878431 0.960317
  2 1.612674 -5.428329 -13.699142 -0.360003 -0.223002 0.905907 0.729412 0.964286
  2 1.900761 -6.109446 -13.756465 -0.875830 -0.369213 0.310811 0.878431 0.956349
CSO_FlashBang.BMP
  2 1.900761 -6.109446 -13.756465 -0.875830 -0.369213 0.310811 0.878431 0.956349
  2 1.612674 -5.428329 -13.699142 -0.360003 -0.223002 0.905907 0.729412 0.964286
  2 1.610530 -5.439653 -13.749809 -0.875830 -0.369213 0.310811 0.729412 0.956349
CSO_FlashBang.BMP
  2 1.612674 -5.428329 -13.699142 -0.360003 -0.223002 0.905907 0.729412 0.964286
  2 1.612674 -5.428329 -13.699142 -0.763408 -0.354404 0.540006 0.725490 0.964286
  2 1.610530 -5.439653 -13.749809 -0.875830 -0.369213 0.310811 0.729412 0.956349
CSO_FlashBang.BMP
  2 1.610530 -5.439653 -13.749809 -0.875830 -0.369213 0.310811 0.729412 0.956349
  2 1.612674 -5.428329 -13.699142 -0.763408 -0.354404 0.540006 0.725490 0.964286
  2 1.584730 -5.396155 -13.768308 -0.875830 -0.369213 0.310811 0.721569 0.952381
CSO_FlashBang.BMP
  2 1.922541 -5.362078 -13.434958 -0.453111 0.877322 0.158104 0.937255 0.642857
  2 1.955730 -5.358908 -13.403518 -0.196889 0.604668 0.771759 0.976471 0.650794
  2 3.841554 -4.545995 -14.073547 0.284809 0.144505 0.947630 0.968627 0.503968
CSO_FlashBang.BMP
  2 1.922541 -5.362078 -13.434958 -0.453111 0.877322 0.158104 0.937255 0.642857
  2 1.899447 -5.372274 -13.415912 -0.613421 0.363512 0.701123 0.968627 0.666667
  2 1.955730 -5.358908 -13.403518 -0.196889 0.604668 0.771759 0.976471 0.650794
CSO_FlashBang.BMP
  2 1.922541 -5.362078 -13.434958 -0.453111 0.877322 0.158104 0.937255 0.642857
  2 1.763081 -5.440569 -13.586324 -0.593682 0.578183 0.559683 0.909804 0.686508
  2 1.899447 -5.372274 -13.415912 -0.613421 0.363512 0.701123 0.968627 0.666667
CSO_FlashBang.BMP
  2 1.922541 -5.362078 -13.434958 -0.453111 0.877322 0.158104 0.937255 0.642857
  2 1.648538 -5.465015 -13.927326 -0.421094 0.906387 0.033799 0.803922 0.686508
  2 1.763081 -5.440569 -13.586324 -0.593682 0.578183 0.559683 0.909804 0.686508
CSO_FlashBang.BMP
  2 2.530306 -5.565219 -13.652109 0.360587 -0.042298 0.931766 0.000000 0.642857
  2 2.612019 -5.834014 -13.749435 0.455204 -0.355803 0.816207 0.047059 0.642857
  2 5.348172 -4.344829 -14.685539 0.360587 -0.042298 0.931766 0.000000 0.000000
CSO_FlashBang.BMP
  2 5.348172 -4.344829 -14.685539 0.360587 -0.042298 0.931766 0.000000 0.000000
  2 2.612019 -5.834014 -13.749435 0.455204 -0.355803 0.816207 0.047059 0.642857
  2 5.408540 -4.612038 -14.776396 0.455204 -0.355803 0.816207 0.047059 0.000000
CSO_FlashBang.BMP
  2 2.612019 -5.834014 -13.749435 0.455204 -0.355803 0.816207 0.047059 0.642857
  2 2.651180 -6.076807 -13.931693 0.482411 -0.498711 0.720116 0.094118 0.642857
  2 5.408540 -4.612038 -14.776396 0.455204 -0.355803 0.816207 0.047059 0.000000
CSO_FlashBang.BMP
  2 5.408540 -4.612038 -14.776396 0.455204 -0.355803 0.816207 0.047059 0.000000
  2 2.651180 -6.076807 -13.931693 0.482411 -0.498711 0.720116 0.094118 0.642857
  2 5.456386 -4.851037 -14.961843 0.482411 -0.498711 0.720116 0.094118 0.000000
CSO_FlashBang.BMP
  2 2.491467 -5.672215 -14.449570 0.483801 -0.789001 0.378701 0.450980 0.662698
  2 2.516933 -5.586589 -14.278340 0.488290 -0.543988 0.682386 0.474510 0.662698
  2 1.679212 -5.941730 -13.972074 0.488290 -0.543988 0.682386 0.474510 0.789683
CSO_FlashBang.BMP
  2 1.679212 -5.941730 -13.972074 0.488290 -0.543988 0.682386 0.474510 0.789683
  2 2.516933 -5.586589 -14.278340 0.488290 -0.543988 0.682386 0.474510 0.662698
  2 1.616728 -5.773238 -13.910379 0.284809 0.144505 0.947630 0.494118 0.789683
CSO_FlashBang.BMP
  2 2.516933 -5.586589 -14.278340 0.488290 -0.543988 0.682386 0.474510 0.662698
  2 2.462119 -5.403938 -14.210266 0.284809 0.144505 0.947630 0.494118 0.662698
  2 1.616728 -5.773238 -13.910379 0.284809 0.144505 0.947630 0.494118 0.789683
CSO_FlashBang.BMP
  2 1.651750 -6.098637 -13.637819 -0.386707 -0.177203 0.905017 0.898039 0.373016
  2 1.393493 -5.566808 -13.708259 -0.837694 0.350897 0.418497 0.976471 0.388889
  2 1.613654 -6.114548 -13.697782 -0.770184 -0.303494 0.560988 0.898039 0.388889
CSO_FlashBang.BMP
  2 1.613654 -6.114548 -13.697782 -0.770184 -0.303494 0.560988 0.898039 0.388889
  2 1.393493 -5.566808 -13.708259 -0.837694 0.350897 0.418497 0.976471 0.388889
  2 1.413329 -6.205752 -14.351810 -0.875830 -0.369213 0.310811 0.898039 0.480159
CSO_FlashBang.BMP
  2 1.393493 -5.566808 -13.708259 -0.837694 0.350897 0.418497 0.976471 0.388889
  2 1.208057 -5.684348 -14.353083 -0.897087 0.383594 0.219297 0.976471 0.480159
  2 1.413329 -6.205752 -14.351810 -0.875830 -0.369213 0.310811 0.898039 0.480159
CSO_FlashBang.BMP
  2 3.841554 -4.545995 -14.073547 0.284809 0.144505 0.947630 0.976471 0.000000
  2 1.955730 -5.358908 -13.403518 -0.196889 0.604668 0.771759 0.976471 0.265873
  2 4.063463 -5.081954 -14.075646 0.284809 0.144505 0.947630 0.898039 0.000000
CSO_FlashBang.BMP
  2 4.063463 -5.081954 -14.075646 0.284809 0.144505 0.947630 0.898039 0.000000
  2 1.955730 -5.358908 -13.403518 -0.196889 0.604668 0.771759 0.976471 0.265873
  2 2.172649 -5.875327 -13.395957 -0.005800 0.010600 0.999927 0.898039 0.265873
CSO_FlashBang.BMP
  2 1.955730 -5.358908 -13.403518 -0.196889 0.604668 0.771759 0.976471 0.265873
  2 1.899447 -5.372274 -13.415912 -0.613421 0.363512 0.701123 0.976471 0.277778
  2 2.172649 -5.875327 -13.395957 -0.005800 0.010600 0.999927 0.898039 0.265873
CSO_FlashBang.BMP
  2 1.985526 -5.954154 -13.623051 -0.327113 -0.315012 0.890935 0.807843 0.853175
  2 1.940410 -5.929798 -13.654217 -0.551913 -0.541212 0.634415 0.803922 0.861111
  2 1.735288 -6.075245 -14.542625 -0.153809 -0.973155 0.171210 0.658824 0.853175
CSO_FlashBang.BMP
  2 1.735288 -6.075245 -14.542625 -0.153809 -0.973155 0.171210 0.658824 0.853175
  2 1.940410 -5.929798 -13.654217 -0.551913 -0.541212 0.634415 0.803922 0.861111
  2 1.707401 -6.066131 -14.482299 -0.153809 -0.973155 0.171210 0.662745 0.861111
CSO_FlashBang.BMP
  2 2.134641 -5.311998 -13.613018 -0.196889 0.604668 0.771759 0.521569 0.924603
  2 1.865821 -5.430087 -14.548267 -0.369389 0.929272 -0.002200 0.678431 0.924603
  2 1.850409 -5.435357 -13.593157 -0.320520 0.506031 0.800749 0.525490 0.996032
CSO_FlashBang.BMP
  2 1.850409 -5.435357 -13.593157 -0.320520 0.506031 0.800749 0.525490 0.996032
  2 1.865821 -5.430087 -14.548267 -0.369389 0.929272 -0.002200 0.678431 0.924603
  2 1.587229 -5.518559 -14.502890 0.194596 0.965881 -0.170897 0.678431 0.996032
CSO_FlashBang.BMP
  2 1.850409 -5.435357 -13.593157 -0.320520 0.506031 0.800749 0.623529 0.722222
  2 2.057882 -5.890324 -13.600905 -0.386707 -0.177203 0.905017 0.501961 0.722222
  2 2.134641 -5.311998 -13.613018 -0.196889 0.604668 0.771759 0.623529 0.654762
CSO_FlashBang.BMP
  2 2.134641 -5.311998 -13.613018 -0.196889 0.604668 0.771759 0.623529 0.654762
  2 2.057882 -5.890324 -13.600905 -0.386707 -0.177203 0.905017 0.501961 0.722222
  2 2.350066 -5.785315 -13.620948 0.060698 0.019399 0.997968 0.501961 0.654762
CSO_FlashBang.BMP
  2 1.282526 -5.673528 -14.388257 -0.897087 0.383594 0.219297 0.392157 0.865079
  2 1.469668 -6.137274 -14.399103 -0.875830 -0.369213 0.310811 0.458824 0.865079
  2 1.443542 -5.587644 -13.816245 -0.785534 0.355915 0.506222 0.392157 0.936508
CSO_FlashBang.BMP
  2 1.443542 -5.587644 -13.816245 -0.785534 0.355915 0.506222 0.392157 0.936508
  2 1.469668 -6.137274 -14.399103 -0.875830 -0.369213 0.310811 0.458824 0.865079
  2 1.653242 -6.063567 -13.811508 -0.690608 -0.290303 0.662408 0.458824 0.936508
CSO_FlashBang.BMP
  2 1.940410 -5.929798 -13.654217 -0.551913 -0.541212 0.634415 0.768627 0.873016
  2 1.750307 -5.467241 -13.652847 -0.795186 0.043699 0.604789 0.843137 0.873016
  2 1.653242 -6.063567 -13.811508 -0.690608 -0.290303 0.662408 0.768627 0.924603
CSO_FlashBang.BMP
  2 1.653242 -6.063567 -13.811508 -0.690608 -0.290303 0.662408 0.768627 0.924603
  2 1.750307 -5.467241 -13.652847 -0.795186 0.043699 0.604789 0.843137 0.873016
  2 1.443542 -5.587644 -13.816245 -0.785534 0.355915 0.506222 0.843137 0.924603
CSO_FlashBang.BMP
  2 1.750307 -5.467241 -13.652847 -0.795186 0.043699 0.604789 0.886275 0.686508
  2 1.499647 -5.578654 -14.467990 -0.714957 0.687959 0.124692 0.627451 0.694444
  2 1.443542 -5.587644 -13.816245 -0.785534 0.355915 0.506222 0.819608 0.753968
CSO_FlashBang.BMP
  2 1.443542 -5.587644 -13.816245 -0.785534 0.355915 0.506222 0.819608 0.753968
  2 1.499647 -5.578654 -14.467990 -0.714957 0.687959 0.124692 0.627451 0.694444
  2 1.282526 -5.673528 -14.388257 -0.897087 0.383594 0.219297 0.627451 0.753968
CSO_FlashBang.BMP
  2 1.622149 -5.347276 -13.765026 -0.307398 0.888193 -0.341497 0.831373 0.932540
  2 1.570773 -5.347901 -13.748897 -0.976640 0.210309 0.044102 0.831373 0.948413
  2 1.625026 -5.313807 -13.717366 -0.239412 0.964847 -0.108405 0.835294 0.932540
CSO_FlashBang.BMP
  2 1.625026 -5.313807 -13.717366 -0.239412 0.964847 -0.108405 0.835294 0.932540
  2 1.570773 -5.347901 -13.748897 -0.976640 0.210309 0.044102 0.831373 0.948413
  2 1.575680 -5.335159 -13.720374 -0.840154 0.530634 0.112107 0.835294 0.948413
CSO_FlashBang.BMP
  2 1.612674 -5.428329 -13.699142 -0.763408 -0.354404 0.540006 0.921569 0.900794
  2 1.612674 -5.428329 -13.699142 -0.360003 -0.223002 0.905907 0.945098 0.900794
  2 1.656832 -5.387209 -13.718095 0.445191 -0.068898 0.892781 0.921569 0.873016
CSO_FlashBang.BMP
  2 1.656832 -5.387209 -13.718095 0.445191 -0.068898 0.892781 0.921569 0.873016
  2 1.612674 -5.428329 -13.699142 -0.360003 -0.223002 0.905907 0.945098 0.900794
  2 1.661822 -5.406748 -13.727755 0.439297 0.009400 0.898293 0.945098 0.873016
CSO_FlashBang.BMP
  2 1.612674 -5.428329 -13.699142 -0.360003 -0.223002 0.905907 0.745098 1.000000
  2 1.921571 -6.133405 -13.728306 -0.386707 -0.177203 0.905017 0.823529 1.000000
  2 1.661822 -5.406748 -13.727755 0.439297 0.009400 0.898293 0.745098 0.988095
CSO_FlashBang.BMP
  2 1.661822 -5.406748 -13.727755 0.439297 0.009400 0.898293 0.745098 0.988095
  2 1.921571 -6.133405 -13.728306 -0.386707 -0.177203 0.905017 0.823529 1.000000
  2 1.952334 -6.109050 -13.740972 0.818725 0.336410 0.465314 0.823529 0.988095
CSO_FlashBang.BMP
  2 2.204944 -5.066492 -13.317578 -0.383907 0.908817 0.163303 0.364706 0.849206
  2 2.274251 -5.045126 -13.542389 -0.278392 0.951271 0.132596 0.403922 0.821429
  2 2.239711 -5.138706 -13.308830 -0.868108 -0.391303 -0.305403 0.364706 0.849206
CSO_FlashBang.BMP
  2 2.491467 -5.672215 -14.449570 0.483801 -0.789001 0.378701 0.450980 0.662698
  2 1.679212 -5.941730 -13.972074 0.488290 -0.543988 0.682386 0.474510 0.789683
  2 1.657722 -6.036531 -14.143395 0.483801 -0.789001 0.378701 0.450980 0.789683
CSO_FlashBang.BMP
  2 2.462119 -5.403938 -14.210266 0.284809 0.144505 0.947630 0.325490 0.662698
  2 1.562420 -5.632546 -13.984921 -0.085501 0.748407 0.657706 0.345098 0.789683
  2 1.616728 -5.773238 -13.910379 0.284809 0.144505 0.947630 0.325490 0.789683
CSO_FlashBang.BMP
  2 1.672651 -5.391629 -13.680277 0.346810 -0.004100 0.937926 0.960784 0.932540
  2 1.620260 -5.381889 -13.654580 -0.348409 -0.129003 0.928423 0.964706 0.948413
  2 1.641154 -5.438129 -13.664604 -0.399813 -0.278609 0.873228 0.960784 0.948413
CSO_FlashBang.BMP
  2 1.948161 -6.099646 -13.772502 0.866461 0.382883 -0.320385 0.878431 0.956349
  2 1.657930 -5.429854 -13.765847 0.866461 0.382883 -0.320385 0.729412 0.956349
  2 1.952334 -6.109050 -13.740972 0.818725 0.336410 0.465314 0.878431 0.960317
CSO_FlashBang.BMP
  2 5.191059 -4.108771 -14.581653 -0.168399 0.151599 0.973992 0.184314 0.992063
  2 5.227433 -4.113862 -14.676790 0.772408 0.562406 0.295103 0.180392 0.976190
  2 5.032280 -3.838604 -14.692555 0.057602 0.561716 0.825323 0.239216 0.972222
CSO_FlashBang.BMP
  2 4.652180 -4.325135 -16.306529 -0.939508 -0.177902 -0.292703 0.184314 0.658730
  2 4.631710 -4.356745 -16.211757 -0.939508 -0.177902 -0.292703 0.180392 0.674603
  2 4.561501 -4.027626 -16.199452 -0.966067 -0.087297 -0.243092 0.235294 0.678571
CSO_FlashBang.BMP
  2 2.526331 -5.556044 -13.652018 -0.522397 -0.215599 0.824996 0.129412 0.976190
  2 2.625700 -5.546306 -13.589321 0.284809 0.144505 0.947630 0.125490 0.992063
  2 2.418985 -5.308313 -13.649556 -0.555908 -0.131902 0.820712 0.180392 0.976190
CSO_FlashBang.BMP
  2 2.625700 -5.546306 -13.589321 0.284809 0.144505 0.947630 0.125490 0.992063
  2 2.639234 -5.506710 -13.693479 0.868108 0.391303 0.305403 0.129412 0.976190
  2 2.497742 -5.274844 -13.583396 0.206697 0.264097 0.942088 0.184314 0.992063
CSO_FlashBang.BMP
  2 2.334367 -6.204010 -14.945768 -0.564973 -0.824060 -0.041598 0.039216 0.726190
  2 2.391550 -6.233061 -15.012747 -0.564973 -0.824060 -0.041598 0.027451 0.718254
  2 2.467010 -6.301555 -14.700634 -0.523977 -0.850063 0.053298 0.011765 0.773810
end
