version 1
nodes
  0 "root" -1
  1 "Bone01" 0
  2 "Bone_Lefthand" 1
  3 "Bone02" 2
  4 "Bone24" 3
  5 "Bone34" 3
  6 "Bone26" 3
  7 "Bone42" 3
  8 "Bone16" 3
  9 "Bone49" 8
  10 "Bone08" 8
  11 "Bone20" 8
  12 "Bone03" 3
  13 "Bone47" 3
  14 "Bone_L_Upper" 1
  15 "Bone13" 2
  16 "Bone14" 15
  17 "Bone15" 16
  18 "Bone17" 2
  19 "Bone18" 18
  20 "Bone19" 19
  21 "Bone21" 2
  22 "Bone22" 21
  23 "Bone23" 22
  24 "Bone09" 2
  25 "Bone10" 24
  26 "Bone11" 25
  27 "Bone05" 2
  28 "Bone06" 27
  29 "Bone07" 28
  30 "Bone_Se_Hand-L" 2
  31 "Bone04" 0
  32 "Bone_Righthand" 31
  33 "Bone39" 32
  34 "Bone40" 33
  35 "Bone41" 34
  36 "Bone35" 32
  37 "Bone36" 36
  38 "Bone37" 37
  39 "Bone31" 32
  40 "Bone32" 39
  41 "Bone33" 40
  42 "Bone43" 32
  43 "Bone44" 42
  44 "Bone45" 43
  45 "Bone27" 32
  46 "Bone28" 45
  47 "Bone29" 46
  48 "Bone_Se_Hand-R" 32
  49 "Bone_R_Upper" 31
end
skeleton
  time 0
    0 -0.349399 1.166145 0.203512 0.000000 0.000000 0.000000
    1 22.683284 -7.757596 -13.167940 -0.729068 -1.819316 -0.307644
    2 -0.071918 -8.498730 -0.104136 -0.045385 0.067921 -0.376239
    3 2.558050 -2.903893 0.678143 0.083503 0.128137 -1.585662
    4 5.085894 -0.169122 4.438836 0.000000 0.000000 -4.084012
    5 9.251545 -0.169108 4.438835 0.000000 0.000000 -4.084012
    6 5.085894 -0.169122 -4.328613 0.000000 0.000000 -4.084012
    7 9.251545 -0.169108 -4.328613 0.000000 0.000000 -4.084012
    8 3.030026 4.195034 0.000000 0.000000 0.000000 0.087260
    9 -0.883102 0.191146 0.000000 0.000000 0.000000 0.000000
    10 18.744316 0.287796 0.000000 0.000000 0.000000 1.570796
    11 5.130177 -0.816431 2.191659 -1.323985 3.141592 -6.034110
    12 4.769700 2.625547 2.191659 -1.817580 0.000000 0.336290
    13 2.586279 3.199157 3.863884 0.000000 0.000000 1.570796
    14 1.257180 8.762585 -0.153713 -1.570562 0.002683 -1.566807
    15 -0.488518 -2.755602 -0.228260 -0.518305 -0.074854 -0.310571
    16 0.039887 -1.479790 0.029854 -2.289231 0.000000 0.000001
    17 0.028786 -1.075731 -0.023109 -0.271941 0.000000 0.000000
    18 0.250027 -2.820665 -0.238396 -0.350825 -0.052441 -0.187301
    19 -0.049759 -1.680544 0.100479 -2.246572 0.000000 -0.000002
    20 -0.034142 -1.148312 0.084782 -0.535851 0.000000 0.000000
    21 0.957766 -2.746780 -0.090302 0.329289 -0.172344 0.119866
    22 -0.033420 -1.397129 -0.011257 -1.115580 0.000000 -0.000001
    23 -0.022360 -0.957436 0.018784 -1.148807 0.000000 0.000000
    24 -1.180681 -2.507217 -0.193859 -0.309305 0.033033 -0.314313
    25 -0.024967 -1.123934 0.017597 -2.040737 0.000000 0.000001
    26 -0.020057 -0.890968 0.010090 -0.646720 0.000000 0.000000
    27 0.583510 -1.197277 0.185379 0.371183 -0.693166 -0.903076
    28 1.535927 0.010246 0.005009 -0.002964 -0.012979 -0.682290
    29 1.100771 0.004527 -0.010679 -0.016147 -0.001453 -1.484153
    30 0.120153 -0.050270 -0.054489 0.287569 3.110905 1.561085
    31 12.143672 -7.489141 -22.439468 -0.822145 -5.289122 -1.115755
    32 0.096944 -8.450418 -0.009365 0.075477 -1.267951 0.356836
    33 0.447953 -2.798986 -0.200443 -0.761409 0.042804 0.170619
    34 -0.032909 -1.480204 0.004940 -1.480158 0.000000 0.000002
    35 -0.027022 -1.076920 -0.020210 -0.375139 0.000000 0.000000
    36 -0.249534 -2.846964 -0.174213 -0.318570 0.002631 0.073861
    37 0.043235 -1.683941 0.096012 -1.876275 0.002823 -0.000167
    38 0.031729 -1.160830 0.058838 -0.099721 0.000642 0.008372
    39 -0.963866 -2.785145 -0.085350 0.076869 0.070929 0.053157
    40 0.028479 -1.403067 0.006271 -1.337876 0.000000 0.000000
    41 0.021413 -0.957781 0.020046 -1.052178 0.000000 0.000000
    42 1.164475 -2.543940 -0.170330 -1.221966 -0.015463 0.162804
    43 0.024032 -1.129042 0.017807 -0.900867 0.000000 0.000001
    44 0.014898 -0.883989 -0.019848 -0.928571 0.000000 0.000000
    45 -0.586770 -1.264477 0.200161 0.150002 0.013438 -2.613223
    46 1.522835 0.058681 0.016848 0.001410 0.008985 0.624694
    47 1.117947 0.048424 -0.005766 -0.002568 -0.011344 -0.141990
    48 -0.139399 -0.111698 0.014397 0.668541 0.088632 1.606227
    49 -6.260806 6.983652 -0.294122 1.580804 -0.005023 -0.912799
  time 1
    0 -0.349399 1.166145 0.203512 0.000000 0.000000 0.000000
    1 22.487965 -7.538840 -12.175722 -0.717092 -1.813180 -0.298435
    2 -0.071918 -8.498730 -0.104136 -0.045385 0.067921 -0.376239
    3 2.558050 -2.903893 0.678143 0.083503 0.128137 -1.585662
    4 5.085894 -0.169122 4.438836 0.000000 0.000000 -4.209706
    5 9.251545 -0.169108 4.438835 0.000000 0.000000 -4.209706
    6 5.085894 -0.169122 -4.328613 0.000000 0.000000 -4.209706
    7 9.251545 -0.169108 -4.328613 0.000000 0.000000 -4.209706
    8 3.030026 4.195034 0.000000 0.000000 0.000000 0.087260
    9 -0.883102 0.191146 0.000000 0.000000 0.000000 0.000000
    10 18.744316 0.287796 0.000000 0.000000 0.000000 1.570796
    11 5.130177 -0.816431 2.191659 -1.327340 3.141592 -6.034110
    12 4.769700 2.625547 2.191659 -1.814220 0.000000 0.336290
    13 2.586279 3.199157 3.863884 0.000000 0.000000 1.570796
    14 1.257180 8.762585 -0.153713 -1.570562 0.002683 -1.566807
    15 -0.488518 -2.755602 -0.228260 -0.518305 -0.074854 -0.310571
    16 0.039887 -1.479790 0.029854 -2.289231 0.000000 0.000001
    17 0.028786 -1.075731 -0.023109 -0.271941 0.000000 0.000000
    18 0.250027 -2.820665 -0.238396 -0.350825 -0.052441 -0.187301
    19 -0.049759 -1.680544 0.100479 -2.246572 0.000000 -0.000002
    20 -0.034142 -1.148312 0.084782 -0.535851 0.000000 0.000000
    21 0.957766 -2.746780 -0.090302 0.329289 -0.172344 0.119866
    22 -0.033420 -1.397129 -0.011257 -1.115580 0.000000 -0.000001
    23 -0.022360 -0.957436 0.018784 -1.148807 0.000000 0.000000
    24 -1.180681 -2.507217 -0.193859 -0.309305 0.033033 -0.314313
    25 -0.024967 -1.123934 0.017597 -2.040737 0.000000 0.000001
    26 -0.020057 -0.890968 0.010090 -0.646720 0.000000 0.000000
    27 0.583510 -1.197277 0.185379 0.371183 -0.693166 -0.903076
    28 1.535927 0.010246 0.005009 -0.002964 -0.012979 -0.682290
    29 1.100771 0.004527 -0.010679 -0.016147 -0.001453 -1.484153
    30 0.120153 -0.050270 -0.054489 0.287569 3.110905 1.561085
    31 11.881946 -7.496954 -21.373029 -0.833971 -5.286971 -1.104888
    32 0.096944 -8.450418 -0.009365 0.075477 -1.267951 0.356836
    33 0.447953 -2.798986 -0.200443 -0.761409 0.042804 0.170619
    34 -0.032909 -1.480204 0.004940 -1.480158 0.000000 0.000002
    35 -0.027022 -1.076920 -0.020210 -0.375139 0.000000 0.000000
    36 -0.249534 -2.846964 -0.174213 -0.318570 0.002631 0.073861
    37 0.043235 -1.683941 0.096012 -1.876275 0.002823 -0.000167
    38 0.031729 -1.160830 0.058838 -0.099721 0.000642 0.008372
    39 -0.963866 -2.785145 -0.085350 0.076869 0.070929 0.053157
    40 0.028479 -1.403067 0.006271 -1.337876 0.000000 0.000000
    41 0.021413 -0.957781 0.020046 -1.052178 0.000000 0.000000
    42 1.164475 -2.543940 -0.170330 -1.221966 -0.015463 0.162804
    43 0.024032 -1.129042 0.017807 -0.900867 0.000000 0.000001
    44 0.014898 -0.883989 -0.019848 -0.928571 0.000000 0.000000
    45 -0.586770 -1.264477 0.200161 0.150002 0.013438 -2.613223
    46 1.522835 0.058681 0.016848 0.001410 0.008985 0.624694
    47 1.117947 0.048424 -0.005766 -0.002568 -0.011344 -0.141990
    48 -0.139399 -0.111698 0.014397 0.668541 0.088632 1.606227
    49 -6.260806 6.983652 -0.294122 1.580804 -0.005023 -0.912799
  time 2
    0 -0.349399 1.166145 0.203512 0.000000 0.000000 0.000000
    1 22.292647 -7.316177 -11.195224 -0.705691 -1.807433 -0.288371
    2 -0.071918 -8.498730 -0.104136 -0.045385 0.067921 -0.376239
    3 2.558050 -2.903893 0.678143 0.083503 0.128137 -1.585662
    4 5.085894 -0.169122 4.438836 0.000000 0.000000 -4.335305
    5 9.251545 -0.169108 4.438835 0.000000 0.000000 -4.335305
    6 5.085894 -0.169122 -4.328613 0.000000 0.000000 -4.335305
    7 9.251545 -0.169108 -4.328613 0.000000 0.000000 -4.335305
    8 3.030026 4.195034 0.000000 0.000000 0.000000 0.087260
    9 -0.883102 0.191146 0.000000 0.000000 0.000000 0.000000
    10 18.744316 0.287796 0.000000 0.000000 0.000000 1.570796
    11 5.130177 -0.816431 2.191659 -1.330504 -3.141592 -6.034110
    12 4.769700 2.625547 2.191659 -1.811002 0.000000 0.336290
    13 2.586279 3.199157 3.863884 0.000000 0.000000 1.570796
    14 1.257180 8.762585 -0.153713 -1.570562 0.002683 -1.566807
    15 -0.488518 -2.755602 -0.228260 -0.518305 -0.074854 -0.310571
    16 0.039887 -1.479790 0.029854 -2.289231 0.000000 0.000001
    17 0.028786 -1.075731 -0.023109 -0.271941 0.000000 0.000000
    18 0.250027 -2.820665 -0.238396 -0.350825 -0.052441 -0.187301
    19 -0.049759 -1.680544 0.100479 -2.246572 0.000000 -0.000002
    20 -0.034142 -1.148312 0.084782 -0.535851 0.000000 0.000000
    21 0.957766 -2.746780 -0.090302 0.329289 -0.172344 0.119866
    22 -0.033420 -1.397129 -0.011257 -1.115580 0.000000 -0.000001
    23 -0.022360 -0.957436 0.018784 -1.148807 0.000000 0.000000
    24 -1.180681 -2.507217 -0.193859 -0.309305 0.033033 -0.314313
    25 -0.024967 -1.123934 0.017597 -2.040737 0.000000 0.000001
    26 -0.020057 -0.890968 0.010090 -0.646720 0.000000 0.000000
    27 0.583510 -1.197277 0.185379 0.371183 -0.693166 -0.903076
    28 1.535927 0.010246 0.005009 -0.002964 -0.012979 -0.682290
    29 1.100771 0.004527 -0.010679 -0.016147 -0.001453 -1.484153
    30 0.120153 -0.050270 -0.054489 0.287569 3.110905 1.561085
    31 11.631938 -7.508673 -20.330029 -0.845081 -5.284955 -1.093067
    32 0.096944 -8.450418 -0.009365 0.075477 -1.267951 0.356836
    33 0.447953 -2.798986 -0.200443 -0.761409 0.042804 0.170619
    34 -0.032909 -1.480204 0.004940 -1.480158 0.000000 0.000002
    35 -0.027022 -1.076920 -0.020210 -0.375139 0.000000 0.000000
    36 -0.249534 -2.846964 -0.174213 -0.318570 0.002631 0.073861
    37 0.043235 -1.683941 0.096012 -1.876275 0.002823 -0.000167
    38 0.031729 -1.160830 0.058838 -0.099721 0.000642 0.008372
    39 -0.963866 -2.785145 -0.085350 0.076869 0.070929 0.053157
    40 0.028479 -1.403067 0.006271 -1.337876 0.000000 0.000000
    41 0.021413 -0.957781 0.020046 -1.052178 0.000000 0.000000
    42 1.164475 -2.543940 -0.170330 -1.221966 -0.015463 0.162804
    43 0.024032 -1.129042 0.017807 -0.900867 0.000000 0.000001
    44 0.014898 -0.883989 -0.019848 -0.928571 0.000000 0.000000
    45 -0.586770 -1.264477 0.200161 0.150002 0.013438 -2.613223
    46 1.522835 0.058681 0.016848 0.001410 0.008985 0.624694
    47 1.117947 0.048424 -0.005766 -0.002568 -0.011344 -0.141990
    48 -0.139399 -0.111698 0.014397 0.668541 0.088632 1.606227
    49 -6.260806 6.983652 -0.294122 1.580804 -0.005023 -0.912799
  time 3
    0 -0.349399 1.166145 0.203512 0.000000 0.000000 0.000000
    1 22.093422 -7.097420 -10.249882 -0.694673 -1.801882 -0.277833
    2 -0.071918 -8.498730 -0.104136 -0.045385 0.067921 -0.376239
    3 2.558050 -2.903893 0.678143 0.083503 0.128137 -1.585662
    4 5.085894 -0.169122 4.438836 0.000000 0.000000 -4.460999
    5 9.251545 -0.169108 4.438835 0.000000 0.000000 -4.460999
    6 5.085894 -0.169122 -4.328613 0.000000 0.000000 -4.460999
    7 9.251545 -0.169108 -4.328613 0.000000 0.000000 -4.460999
    8 3.030026 4.195034 0.000000 0.000000 0.000000 0.087260
    9 -0.883102 0.191146 0.000000 0.000000 0.000000 0.000000
    10 18.744316 0.287796 0.000000 0.000000 0.000000 1.570796
    11 5.130177 -0.816431 2.191659 -1.333668 3.141592 -6.034110
    12 4.769700 2.625547 2.191659 -1.807855 0.000000 0.336290
    13 2.586279 3.199157 3.863884 0.000000 0.000000 1.570796
    14 1.257180 8.762585 -0.153713 -1.570562 0.002683 -1.566807
    15 -0.488518 -2.755602 -0.228260 -0.518305 -0.074854 -0.310571
    16 0.039887 -1.479790 0.029854 -2.289231 0.000000 0.000001
    17 0.028786 -1.075731 -0.023109 -0.271941 0.000000 0.000000
    18 0.250027 -2.820665 -0.238396 -0.350825 -0.052441 -0.187301
    19 -0.049759 -1.680544 0.100479 -2.246572 0.000000 -0.000002
    20 -0.034142 -1.148312 0.084782 -0.535851 0.000000 0.000000
    21 0.957766 -2.746780 -0.090302 0.329289 -0.172344 0.119866
    22 -0.033420 -1.397129 -0.011257 -1.115580 0.000000 -0.000001
    23 -0.022360 -0.957436 0.018784 -1.148807 0.000000 0.000000
    24 -1.180681 -2.507217 -0.193859 -0.309305 0.033033 -0.314313
    25 -0.024967 -1.123934 0.017597 -2.040737 0.000000 0.000001
    26 -0.020057 -0.890968 0.010090 -0.646720 0.000000 0.000000
    27 0.583510 -1.197277 0.185379 0.371183 -0.693166 -0.903076
    28 1.535927 0.010246 0.005009 -0.002964 -0.012979 -0.682290
    29 1.100771 0.004527 -0.010679 -0.016147 -0.001453 -1.484153
    30 0.120153 -0.050270 -0.054489 0.287569 3.110905 1.561085
    31 11.385837 -7.524299 -19.314373 -0.855697 -5.282939 -1.080675
    32 0.096944 -8.450418 -0.009365 0.075477 -1.267951 0.356836
    33 0.447953 -2.798986 -0.200443 -0.761409 0.042804 0.170619
    34 -0.032909 -1.480204 0.004940 -1.480158 0.000000 0.000002
    35 -0.027022 -1.076920 -0.020210 -0.375139 0.000000 0.000000
    36 -0.249534 -2.846964 -0.174213 -0.318570 0.002631 0.073861
    37 0.043235 -1.683941 0.096012 -1.876275 0.002823 -0.000167
    38 0.031729 -1.160830 0.058838 -0.099721 0.000642 0.008372
    39 -0.963866 -2.785145 -0.085350 0.076869 0.070929 0.053157
    40 0.028479 -1.403067 0.006271 -1.337876 0.000000 0.000000
    41 0.021413 -0.957781 0.020046 -1.052178 0.000000 0.000000
    42 1.164475 -2.543940 -0.170330 -1.221966 -0.015463 0.162804
    43 0.024032 -1.129042 0.017807 -0.900867 0.000000 0.000001
    44 0.014898 -0.883989 -0.019848 -0.928571 0.000000 0.000000
    45 -0.586770 -1.264477 0.200161 0.150002 0.013438 -2.613223
    46 1.522835 0.058681 0.016848 0.001410 0.008985 0.624694
    47 1.117947 0.048424 -0.005766 -0.002568 -0.011344 -0.141990
    48 -0.139399 -0.111698 0.014397 0.668541 0.088632 1.606227
    49 -6.260806 6.983652 -0.294122 1.580804 -0.005023 -0.912799
  time 4
    0 -0.349399 1.166145 0.203512 0.000000 0.000000 0.000000
    1 21.898103 -6.874757 -9.347511 -0.683655 -1.796379 -0.267199
    2 -0.071918 -8.498730 -0.104136 -0.045385 0.067921 -0.376239
    3 2.558050 -2.903893 0.678143 0.083503 0.128137 -1.585662
    4 5.085894 -0.169122 4.438836 0.000000 0.000000 -4.586694
    5 9.251545 -0.169108 4.438835 0.000000 0.000000 -4.586694
    6 5.085894 -0.169122 -4.328613 0.000000 0.000000 -4.586694
    7 9.251545 -0.169108 -4.328613 0.000000 0.000000 -4.586694
    8 3.030026 4.195034 0.000000 0.000000 0.000000 0.087260
    9 -0.883102 0.191146 0.000000 0.000000 0.000000 0.000000
    10 18.744316 0.287796 0.000000 0.000000 0.000000 1.570796
    11 5.130177 -0.816431 2.191659 -1.336927 3.141592 -6.034110
    12 4.769700 2.625547 2.191659 -1.804614 0.000000 0.336290
    13 2.586279 3.199157 3.863884 0.000000 0.000000 1.570796
    14 1.257180 8.762585 -0.153713 -1.570562 0.002683 -1.566807
    15 -0.488518 -2.755602 -0.228260 -0.518305 -0.074854 -0.310571
    16 0.039887 -1.479790 0.029854 -2.289231 0.000000 0.000001
    17 0.028786 -1.075731 -0.023109 -0.271941 0.000000 0.000000
    18 0.250027 -2.820665 -0.238396 -0.350825 -0.052441 -0.187301
    19 -0.049759 -1.680544 0.100479 -2.246572 0.000000 -0.000002
    20 -0.034142 -1.148312 0.084782 -0.535851 0.000000 0.000000
    21 0.957766 -2.746780 -0.090302 0.329289 -0.172344 0.119866
    22 -0.033420 -1.397129 -0.011257 -1.115580 0.000000 -0.000001
    23 -0.022360 -0.957436 0.018784 -1.148807 0.000000 0.000000
    24 -1.180681 -2.507217 -0.193859 -0.309305 0.033033 -0.314313
    25 -0.024967 -1.123934 0.017597 -2.040737 0.000000 0.000001
    26 -0.020057 -0.890968 0.010090 -0.646720 0.000000 0.000000
    27 0.583510 -1.197277 0.185379 0.371183 -0.693166 -0.903076
    28 1.535927 0.010246 0.005009 -0.002964 -0.012979 -0.682290
    29 1.100771 0.004527 -0.010679 -0.016147 -0.001453 -1.484153
    30 0.120153 -0.050270 -0.054489 0.287569 3.110905 1.561085
    31 11.147548 -7.539924 -18.349499 -0.866257 -5.280922 -1.068187
    32 0.096944 -8.450418 -0.009365 0.075477 -1.267951 0.356836
    33 0.447953 -2.798986 -0.200443 -0.761409 0.042804 0.170619
    34 -0.032909 -1.480204 0.004940 -1.480158 0.000000 0.000002
    35 -0.027022 -1.076920 -0.020210 -0.375139 0.000000 0.000000
    36 -0.249534 -2.846964 -0.174213 -0.318570 0.002631 0.073861
    37 0.043235 -1.683941 0.096012 -1.876275 0.002823 -0.000167
    38 0.031729 -1.160830 0.058838 -0.099721 0.000642 0.008372
    39 -0.963866 -2.785145 -0.085350 0.076869 0.070929 0.053157
    40 0.028479 -1.403067 0.006271 -1.337876 0.000000 0.000000
    41 0.021413 -0.957781 0.020046 -1.052178 0.000000 0.000000
    42 1.164475 -2.543940 -0.170330 -1.221966 -0.015463 0.162804
    43 0.024032 -1.129042 0.017807 -0.900867 0.000000 0.000001
    44 0.014898 -0.883989 -0.019848 -0.928571 0.000000 0.000000
    45 -0.586770 -1.264477 0.200161 0.150002 0.013438 -2.613223
    46 1.522835 0.058681 0.016848 0.001410 0.008985 0.624694
    47 1.117947 0.048424 -0.005766 -0.002568 -0.011344 -0.141990
    48 -0.139399 -0.111698 0.014397 0.668541 0.088632 1.606227
    49 -6.260806 6.983652 -0.294122 1.580804 -0.005023 -0.912799
  time 5
    0 -0.349399 1.166145 0.203512 0.000000 0.000000 0.000000
    1 21.698879 -6.652094 -8.507642 -0.672541 -1.790730 -0.256756
    2 -0.071918 -8.498730 -0.104136 -0.045385 0.067921 -0.376239
    3 2.558050 -2.903893 0.678143 0.083503 0.128137 -1.585662
    4 5.085894 -0.169122 4.438836 0.000000 0.000000 1.570796
    5 9.251545 -0.169108 4.438835 0.000000 0.000000 1.570796
    6 5.085894 -0.169122 -4.328613 0.000000 0.000000 1.570796
    7 9.251545 -0.169108 -4.328613 0.000000 0.000000 1.570796
    8 3.030026 4.195034 0.000000 0.000000 0.000000 0.087260
    9 -0.883102 0.191146 0.000000 0.000000 0.000000 0.000000
    10 18.744316 0.287796 0.000000 0.000000 0.000000 1.570796
    11 5.130177 -0.816431 2.191659 -1.340283 3.141592 -6.034110
    12 4.769700 2.625547 2.191659 -1.801207 0.000000 0.336290
    13 2.586279 3.199157 3.863884 0.000000 0.000000 1.570796
    14 1.257180 8.762585 -0.153713 -1.570562 0.002683 -1.566807
    15 -0.488518 -2.755602 -0.228260 -0.518305 -0.074854 -0.310571
    16 0.039887 -1.479790 0.029854 -2.289231 0.000000 0.000001
    17 0.028786 -1.075731 -0.023109 -0.271941 0.000000 0.000000
    18 0.250027 -2.820665 -0.238396 -0.350825 -0.052441 -0.187301
    19 -0.049759 -1.680544 0.100479 -2.246572 0.000000 -0.000002
    20 -0.034142 -1.148312 0.084782 -0.535851 0.000000 0.000000
    21 0.957766 -2.746780 -0.090302 0.329289 -0.172344 0.119866
    22 -0.033420 -1.397129 -0.011257 -1.115580 0.000000 -0.000001
    23 -0.022360 -0.957436 0.018784 -1.148807 0.000000 0.000000
    24 -1.180681 -2.507217 -0.193859 -0.309305 0.033033 -0.314313
    25 -0.024967 -1.123934 0.017597 -2.040737 0.000000 0.000001
    26 -0.020057 -0.890968 0.010090 -0.646720 0.000000 0.000000
    27 0.583510 -1.197277 0.185379 0.371183 -0.693166 -0.903076
    28 1.535927 0.010246 0.005009 -0.002964 -0.012979 -0.682290
    29 1.100771 0.004527 -0.010679 -0.016147 -0.001453 -1.484153
    30 0.120153 -0.050270 -0.054489 0.287569 3.110905 1.561085
    31 10.909260 -7.555550 -17.443222 -0.876983 -5.278704 -1.055985
    32 0.096944 -8.450418 -0.009365 0.075477 -1.267951 0.356836
    33 0.447953 -2.798986 -0.200443 -0.761409 0.042804 0.170619
    34 -0.032909 -1.480204 0.004940 -1.480158 0.000000 0.000002
    35 -0.027022 -1.076920 -0.020210 -0.375139 0.000000 0.000000
    36 -0.249534 -2.846964 -0.174213 -0.318570 0.002631 0.073861
    37 0.043235 -1.683941 0.096012 -1.876275 0.002823 -0.000167
    38 0.031729 -1.160830 0.058838 -0.099721 0.000642 0.008372
    39 -0.963866 -2.785145 -0.085350 0.076869 0.070929 0.053157
    40 0.028479 -1.403067 0.006271 -1.337876 0.000000 0.000000
    41 0.021413 -0.957781 0.020046 -1.052178 0.000000 0.000000
    42 1.164475 -2.543940 -0.170330 -1.221966 -0.015463 0.162804
    43 0.024032 -1.129042 0.017807 -0.900867 0.000000 0.000001
    44 0.014898 -0.883989 -0.019848 -0.928571 0.000000 0.000000
    45 -0.586770 -1.264477 0.200161 0.150002 0.013438 -2.613223
    46 1.522835 0.058681 0.016848 0.001410 0.008985 0.624694
    47 1.117947 0.048424 -0.005766 -0.002568 -0.011344 -0.141990
    48 -0.139399 -0.111698 0.014397 0.668541 0.088632 1.606227
    49 -6.260806 6.983652 -0.294122 1.580804 -0.005023 -0.912799
  time 6
    0 -0.349399 1.166145 0.203512 0.000000 0.000000 0.000000
    1 21.499654 -6.425524 -7.741993 -0.660853 -1.784764 -0.247166
    2 -0.071918 -8.498730 -0.104136 -0.045385 0.067921 -0.376239
    3 2.558050 -2.903893 0.678143 0.083503 0.128137 -1.585662
    4 5.085894 -0.169122 4.438836 0.000000 0.000000 1.445102
    5 9.251545 -0.169108 4.438835 0.000000 0.000000 1.445102
    6 5.085894 -0.169122 -4.328613 0.000000 0.000000 1.445102
    7 9.251545 -0.169108 -4.328613 0.000000 0.000000 1.445102
    8 3.030026 4.195034 0.000000 0.000000 0.000000 0.087260
    9 -0.883102 0.191146 0.000000 0.000000 0.000000 0.000000
    10 18.744316 0.287796 0.000000 0.000000 0.000000 1.570796
    11 5.130177 -0.816431 2.191659 -1.344022 3.141592 -6.034110
    12 4.769700 2.625547 2.191659 -1.797492 0.000000 0.336290
    13 2.586279 3.199157 3.863884 0.000000 0.000000 1.570796
    14 1.257180 8.762585 -0.153713 -1.570562 0.002683 -1.566807
    15 -0.488518 -2.755602 -0.228260 -0.518305 -0.074854 -0.310571
    16 0.039887 -1.479790 0.029854 -2.289231 0.000000 0.000001
    17 0.028786 -1.075731 -0.023109 -0.271941 0.000000 0.000000
    18 0.250027 -2.820665 -0.238396 -0.350825 -0.052441 -0.187301
    19 -0.049759 -1.680544 0.100479 -2.246572 0.000000 -0.000002
    20 -0.034142 -1.148312 0.084782 -0.535851 0.000000 0.000000
    21 0.957766 -2.746780 -0.090302 0.329289 -0.172344 0.119866
    22 -0.033420 -1.397129 -0.011257 -1.115580 0.000000 -0.000001
    23 -0.022360 -0.957436 0.018784 -1.148807 0.000000 0.000000
    24 -1.180681 -2.507217 -0.193859 -0.309305 0.033033 -0.314313
    25 -0.024967 -1.123934 0.017597 -2.040737 0.000000 0.000001
    26 -0.020057 -0.890968 0.010090 -0.646720 0.000000 0.000000
    27 0.583510 -1.197277 0.185379 0.371183 -0.693166 -0.903076
    28 1.535927 0.010246 0.005009 -0.002964 -0.012979 -0.682290
    29 1.100771 0.004527 -0.010679 -0.016147 -0.001453 -1.484153
    30 0.120153 -0.050270 -0.054489 0.287569 3.110905 1.561085
    31 10.674878 -7.567269 -16.607259 -0.888258 -5.276352 -1.044450
    32 0.096944 -8.450418 -0.009365 0.075477 -1.267951 0.356836
    33 0.447953 -2.798986 -0.200443 -0.761409 0.042804 0.170619
    34 -0.032909 -1.480204 0.004940 -1.480158 0.000000 0.000002
    35 -0.027022 -1.076920 -0.020210 -0.375139 0.000000 0.000000
    36 -0.249534 -2.846964 -0.174213 -0.318570 0.002631 0.073861
    37 0.043235 -1.683941 0.096012 -1.876275 0.002823 -0.000167
    38 0.031729 -1.160830 0.058838 -0.099721 0.000642 0.008372
    39 -0.963866 -2.785145 -0.085350 0.076869 0.070929 0.053157
    40 0.028479 -1.403067 0.006271 -1.337876 0.000000 0.000000
    41 0.021413 -0.957781 0.020046 -1.052178 0.000000 0.000000
    42 1.164475 -2.543940 -0.170330 -1.221966 -0.015463 0.162804
    43 0.024032 -1.129042 0.017807 -0.900867 0.000000 0.000001
    44 0.014898 -0.883989 -0.019848 -0.928571 0.000000 0.000000
    45 -0.586770 -1.264477 0.200161 0.150002 0.013438 -2.613223
    46 1.522835 0.058681 0.016848 0.001410 0.008985 0.624694
    47 1.117947 0.048424 -0.005766 -0.002568 -0.011344 -0.141990
    48 -0.139399 -0.111698 0.014397 0.668541 0.088632 1.606227
    49 -6.260806 6.983652 -0.294122 1.580804 -0.005023 -0.912799
  time 7
    0 -0.349399 1.166145 0.203512 0.000000 0.000000 0.000000
    1 21.296523 -6.198955 -7.070098 -0.648302 -1.778288 -0.238812
    2 -0.071918 -8.498730 -0.104136 -0.045385 0.067921 -0.376239
    3 2.558050 -2.903893 0.678143 0.083503 0.128137 -1.585662
    4 5.085894 -0.169122 4.438836 0.000000 0.000000 1.319407
    5 9.251545 -0.169108 4.438835 0.000000 0.000000 1.319407
    6 5.085894 -0.169122 -4.328613 0.000000 0.000000 1.319407
    7 9.251545 -0.169108 -4.328613 0.000000 0.000000 1.319407
    8 3.030026 4.195034 0.000000 0.000000 0.000000 0.087260
    9 -0.883102 0.191146 0.000000 0.000000 0.000000 0.000000
    10 18.744316 0.287796 0.000000 0.000000 0.000000 1.570796
    11 5.130177 -0.816431 2.191659 -1.348145 3.141592 -6.034110
    12 4.769700 2.625547 2.191659 -1.793351 0.000000 0.336290
    13 2.586279 3.199157 3.863884 0.000000 0.000000 1.570796
    14 1.257180 8.762585 -0.153713 -1.570562 0.002683 -1.566807
    15 -0.488518 -2.755602 -0.228260 -0.518305 -0.074854 -0.310571
    16 0.039887 -1.479790 0.029854 -2.289231 0.000000 0.000001
    17 0.028786 -1.075731 -0.023109 -0.271941 0.000000 0.000000
    18 0.250027 -2.820665 -0.238396 -0.350825 -0.052441 -0.187301
    19 -0.049759 -1.680544 0.100479 -2.246572 0.000000 -0.000002
    20 -0.034142 -1.148312 0.084782 -0.535851 0.000000 0.000000
    21 0.957766 -2.746780 -0.090302 0.329289 -0.172344 0.119866
    22 -0.033420 -1.397129 -0.011257 -1.115580 0.000000 -0.000001
    23 -0.022360 -0.957436 0.018784 -1.148807 0.000000 0.000000
    24 -1.180681 -2.507217 -0.193859 -0.309305 0.033033 -0.314313
    25 -0.024967 -1.123934 0.017597 -2.040737 0.000000 0.000001
    26 -0.020057 -0.890968 0.010090 -0.646720 0.000000 0.000000
    27 0.583510 -1.197277 0.185379 0.371183 -0.693166 -0.903076
    28 1.535927 0.010246 0.005009 -0.002964 -0.012979 -0.682290
    29 1.100771 0.004527 -0.010679 -0.016147 -0.001453 -1.484153
    30 0.120153 -0.050270 -0.054489 0.287569 3.110905 1.561085
    31 10.436589 -7.571175 -15.857236 -0.900359 -5.273731 -1.034059
    32 0.096944 -8.450418 -0.009365 0.075477 -1.267951 0.356836
    33 0.447953 -2.798986 -0.200443 -0.761409 0.042804 0.170619
    34 -0.032909 -1.480204 0.004940 -1.480158 0.000000 0.000002
    35 -0.027022 -1.076920 -0.020210 -0.375139 0.000000 0.000000
    36 -0.249534 -2.846964 -0.174213 -0.318570 0.002631 0.073861
    37 0.043235 -1.683941 0.096012 -1.876275 0.002823 -0.000167
    38 0.031729 -1.160830 0.058838 -0.099721 0.000642 0.008372
    39 -0.963866 -2.785145 -0.085350 0.076869 0.070929 0.053157
    40 0.028479 -1.403067 0.006271 -1.337876 0.000000 0.000000
    41 0.021413 -0.957781 0.020046 -1.052178 0.000000 0.000000
    42 1.164475 -2.543940 -0.170330 -1.221966 -0.015463 0.162804
    43 0.024032 -1.129042 0.017807 -0.900867 0.000000 0.000001
    44 0.014898 -0.883989 -0.019848 -0.928571 0.000000 0.000000
    45 -0.586770 -1.264477 0.200161 0.150002 0.013438 -2.613223
    46 1.522835 0.058681 0.016848 0.001410 0.008985 0.624694
    47 1.117947 0.048424 -0.005766 -0.002568 -0.011344 -0.141990
    48 -0.139399 -0.111698 0.014397 0.668541 0.088632 1.606227
    49 -6.260806 6.983652 -0.294122 1.580804 -0.005023 -0.912799
  time 8
    0 -0.349399 1.166145 0.203512 0.000000 0.000000 0.000000
    1 21.093391 -5.972386 -6.503674 -0.634410 -1.771153 -0.232356
    2 -0.071918 -8.498730 -0.104136 -0.045385 0.067921 -0.376239
    3 2.558050 -2.903893 0.678143 0.083503 0.128137 -1.585662
    4 5.085894 -0.169122 4.438836 0.000000 0.000000 1.193713
    5 9.251545 -0.169108 4.438835 0.000000 0.000000 1.193713
    6 5.085894 -0.169122 -4.328613 0.000000 0.000000 1.193713
    7 9.251545 -0.169108 -4.328613 0.000000 0.000000 1.193713
    8 3.030026 4.195034 0.000000 0.000000 0.000000 0.087260
    9 -0.883102 0.191146 0.000000 0.000000 0.000000 0.000000
    10 18.744316 0.287796 0.000000 0.000000 0.000000 1.570796
    11 5.130177 -0.816431 2.191659 -1.352842 -3.141592 -6.034110
    12 4.769700 2.625547 2.191659 -1.788666 0.000000 0.336290
    13 2.586279 3.199157 3.863884 0.000000 0.000000 1.570796
    14 1.257180 8.762585 -0.153713 -1.570562 0.002683 -1.566807
    15 -0.488518 -2.755602 -0.228260 -0.518305 -0.074854 -0.310571
    16 0.039887 -1.479790 0.029854 -2.289231 0.000000 0.000001
    17 0.028786 -1.075731 -0.023109 -0.271941 0.000000 0.000000
    18 0.250027 -2.820665 -0.238396 -0.350825 -0.052441 -0.187301
    19 -0.049759 -1.680544 0.100479 -2.246572 0.000000 -0.000002
    20 -0.034142 -1.148312 0.084782 -0.535851 0.000000 0.000000
    21 0.957766 -2.746780 -0.090302 0.329289 -0.172344 0.119866
    22 -0.033420 -1.397129 -0.011257 -1.115580 0.000000 -0.000001
    23 -0.022360 -0.957436 0.018784 -1.148807 0.000000 0.000000
    24 -1.180681 -2.507217 -0.193859 -0.309305 0.033033 -0.314313
    25 -0.024967 -1.123934 0.017597 -2.040737 0.000000 0.000001
    26 -0.020057 -0.890968 0.010090 -0.646720 0.000000 0.000000
    27 0.583510 -1.197277 0.185379 0.371183 -0.693166 -0.903076
    28 1.535927 0.010246 0.005009 -0.002964 -0.012979 -0.682290
    29 1.100771 0.004527 -0.010679 -0.016147 -0.001453 -1.484153
    30 0.120153 -0.050270 -0.054489 0.287569 3.110905 1.561085
    31 10.194394 -7.571175 -15.204872 -0.913669 -5.270706 -1.025289
    32 0.096944 -8.450418 -0.009365 0.075477 -1.267951 0.356836
    33 0.447953 -2.798986 -0.200443 -0.761409 0.042804 0.170619
    34 -0.032909 -1.480204 0.004940 -1.480158 0.000000 0.000002
    35 -0.027022 -1.076920 -0.020210 -0.375139 0.000000 0.000000
    36 -0.249534 -2.846964 -0.174213 -0.318570 0.002631 0.073861
    37 0.043235 -1.683941 0.096012 -1.876275 0.002823 -0.000167
    38 0.031729 -1.160830 0.058838 -0.099721 0.000642 0.008372
    39 -0.963866 -2.785145 -0.085350 0.076869 0.070929 0.053157
    40 0.028479 -1.403067 0.006271 -1.337876 0.000000 0.000000
    41 0.021413 -0.957781 0.020046 -1.052178 0.000000 0.000000
    42 1.164475 -2.543940 -0.170330 -1.221966 -0.015463 0.162804
    43 0.024032 -1.129042 0.017807 -0.900867 0.000000 0.000001
    44 0.014898 -0.883989 -0.019848 -0.928571 0.000000 0.000000
    45 -0.586770 -1.264477 0.200161 0.150002 0.013438 -2.613223
    46 1.522835 0.058681 0.016848 0.001410 0.008985 0.624694
    47 1.117947 0.048424 -0.005766 -0.002568 -0.011344 -0.141990
    48 -0.139399 -0.111698 0.014397 0.668541 0.088632 1.606227
    49 -6.260806 6.983652 -0.294122 1.580804 -0.005023 -0.912799
  time 9
    0 -0.349399 1.166145 0.203512 0.000000 0.000000 0.000000
    1 20.886354 -5.741910 -6.058348 -0.618602 -1.763167 -0.228463
    2 -0.071918 -8.498730 -0.104136 -0.045385 0.067921 -0.376239
    3 2.558050 -2.903893 0.678143 0.083503 0.128137 -1.585662
    4 5.085894 -0.169122 4.438836 0.000000 0.000000 1.068114
    5 9.251545 -0.169108 4.438835 0.000000 0.000000 1.068114
    6 5.085894 -0.169122 -4.328613 0.000000 0.000000 1.068114
    7 9.251545 -0.169108 -4.328613 0.000000 0.000000 1.068114
    8 3.030026 4.195034 0.000000 0.000000 0.000000 0.087260
    9 -0.883102 0.191146 0.000000 0.000000 0.000000 0.000000
    10 18.744316 0.287796 0.000000 0.000000 0.000000 1.570796
    11 5.130177 -0.816431 2.191659 -1.358211 -3.141592 -6.034110
    12 4.769700 2.625547 2.191659 -1.783295 0.000000 0.336290
    13 2.586279 3.199157 3.863884 0.000000 0.000000 1.570796
    14 1.257180 8.762585 -0.153713 -1.570562 0.002683 -1.566807
    15 -0.488518 -2.755602 -0.228260 -0.518305 -0.074854 -0.310571
    16 0.039887 -1.479790 0.029854 -2.289231 0.000000 0.000001
    17 0.028786 -1.075731 -0.023109 -0.271941 0.000000 0.000000
    18 0.250027 -2.820665 -0.238396 -0.350825 -0.052441 -0.187301
    19 -0.049759 -1.680544 0.100479 -2.246572 0.000000 -0.000002
    20 -0.034142 -1.148312 0.084782 -0.535851 0.000000 0.000000
    21 0.957766 -2.746780 -0.090302 0.329289 -0.172344 0.119866
    22 -0.033420 -1.397129 -0.011257 -1.115580 0.000000 -0.000001
    23 -0.022360 -0.957436 0.018784 -1.148807 0.000000 0.000000
    24 -1.180681 -2.507217 -0.193859 -0.309305 0.033033 -0.314313
    25 -0.024967 -1.123934 0.017597 -2.040737 0.000000 0.000001
    26 -0.020057 -0.890968 0.010090 -0.646720 0.000000 0.000000
    27 0.583510 -1.197277 0.185379 0.371183 -0.693166 -0.903076
    28 1.535927 0.010246 0.005009 -0.002964 -0.012979 -0.682290
    29 1.100771 0.004527 -0.010679 -0.016147 -0.001453 -1.484153
    30 0.120153 -0.050270 -0.054489 0.287569 3.110905 1.561085
    31 9.948293 -7.559456 -14.665793 -0.928520 -5.267279 -1.018521
    32 0.096944 -8.450418 -0.009365 0.075477 -1.267951 0.356836
    33 0.447953 -2.798986 -0.200443 -0.761409 0.042804 0.170619
    34 -0.032909 -1.480204 0.004940 -1.480158 0.000000 0.000002
    35 -0.027022 -1.076920 -0.020210 -0.375139 0.000000 0.000000
    36 -0.249534 -2.846964 -0.174213 -0.318570 0.002631 0.073861
    37 0.043235 -1.683941 0.096012 -1.876275 0.002823 -0.000167
    38 0.031729 -1.160830 0.058838 -0.099721 0.000642 0.008372
    39 -0.963866 -2.785145 -0.085350 0.076869 0.070929 0.053157
    40 0.028479 -1.403067 0.006271 -1.337876 0.000000 0.000000
    41 0.021413 -0.957781 0.020046 -1.052178 0.000000 0.000000
    42 1.164475 -2.543940 -0.170330 -1.221966 -0.015463 0.162804
    43 0.024032 -1.129042 0.017807 -0.900867 0.000000 0.000001
    44 0.014898 -0.883989 -0.019848 -0.928571 0.000000 0.000000
    45 -0.586770 -1.264477 0.200161 0.150002 0.013438 -2.613223
    46 1.522835 0.058681 0.016848 0.001410 0.008985 0.624694
    47 1.117947 0.048424 -0.005766 -0.002568 -0.011344 -0.141990
    48 -0.139399 -0.111698 0.014397 0.668541 0.088632 1.606227
    49 -6.260806 6.983652 -0.294122 1.580804 -0.005023 -0.912799
  time 10
    0 -0.349399 1.166145 0.203512 0.000000 0.000000 0.000000
    1 20.675410 -5.507528 -5.749745 -0.600207 -1.754158 -0.227988
    2 -0.071918 -8.498730 -0.104136 -0.045385 0.067921 -0.376239
    3 2.558050 -2.903893 0.678143 0.083503 0.128137 -1.585662
    4 5.085894 -0.169122 4.438836 0.000000 0.000000 0.942420
    5 9.251545 -0.169108 4.438835 0.000000 0.000000 0.942420
    6 5.085894 -0.169122 -4.328613 0.000000 0.000000 0.942420
    7 9.251545 -0.169108 -4.328613 0.000000 0.000000 0.942420
    8 3.030026 4.195034 0.000000 0.000000 0.000000 0.087260
    9 -0.883102 0.191146 0.000000 0.000000 0.000000 0.000000
    10 18.744316 0.287796 0.000000 0.000000 0.000000 1.570796
    11 5.130177 -0.816431 2.191659 -1.364443 3.141592 -6.034110
    12 4.769700 2.625547 2.191659 -1.777120 0.000000 0.336290
    13 2.586279 3.199157 3.863884 0.000000 0.000000 1.570796
    14 1.257180 8.762585 -0.153713 -1.570562 0.002683 -1.566807
    15 -0.488518 -2.755602 -0.228260 -0.518305 -0.074854 -0.310571
    16 0.039887 -1.479790 0.029854 -2.289231 0.000000 0.000001
    17 0.028786 -1.075731 -0.023109 -0.271941 0.000000 0.000000
    18 0.250027 -2.820665 -0.238396 -0.350825 -0.052441 -0.187301
    19 -0.049759 -1.680544 0.100479 -2.246572 0.000000 -0.000002
    20 -0.034142 -1.148312 0.084782 -0.535851 0.000000 0.000000
    21 0.957766 -2.746780 -0.090302 0.329289 -0.172344 0.119866
    22 -0.033420 -1.397129 -0.011257 -1.115580 0.000000 -0.000001
    23 -0.022360 -0.957436 0.018784 -1.148807 0.000000 0.000000
    24 -1.180681 -2.507217 -0.193859 -0.309305 0.033033 -0.314313
    25 -0.024967 -1.123934 0.017597 -2.040737 0.000000 0.000001
    26 -0.020057 -0.890968 0.010090 -0.646720 0.000000 0.000000
    27 0.583510 -1.197277 0.185379 0.371183 -0.693166 -0.903076
    28 1.535927 0.010246 0.005009 -0.002964 -0.012979 -0.682290
    29 1.100771 0.004527 -0.010679 -0.016147 -0.001453 -1.484153
    30 0.120153 -0.050270 -0.054489 0.287569 3.110905 1.561085
    31 9.694379 -7.539924 -14.251718 -0.945296 -5.263381 -1.014326
    32 0.096944 -8.450418 -0.009365 0.075477 -1.267951 0.356836
    33 0.447953 -2.798986 -0.200443 -0.761409 0.042804 0.170619
    34 -0.032909 -1.480204 0.004940 -1.480158 0.000000 0.000002
    35 -0.027022 -1.076920 -0.020210 -0.375139 0.000000 0.000000
    36 -0.249534 -2.846964 -0.174213 -0.318570 0.002631 0.073861
    37 0.043235 -1.683941 0.096012 -1.876275 0.002823 -0.000167
    38 0.031729 -1.160830 0.058838 -0.099721 0.000642 0.008372
    39 -0.963866 -2.785145 -0.085350 0.076869 0.070929 0.053157
    40 0.028479 -1.403067 0.006271 -1.337876 0.000000 0.000000
    41 0.021413 -0.957781 0.020046 -1.052178 0.000000 0.000000
    42 1.164475 -2.543940 -0.170330 -1.221966 -0.015463 0.162804
    43 0.024032 -1.129042 0.017807 -0.900867 0.000000 0.000001
    44 0.014898 -0.883989 -0.019848 -0.928571 0.000000 0.000000
    45 -0.586770 -1.264477 0.200161 0.150002 0.013438 -2.613223
    46 1.522835 0.058681 0.016848 0.001410 0.008985 0.624694
    47 1.117947 0.048424 -0.005766 -0.002568 -0.011344 -0.141990
    48 -0.139399 -0.111698 0.014397 0.668541 0.088632 1.606227
    49 -6.260806 6.983652 -0.294122 1.580804 -0.005023 -0.912799
  time 11
    0 -0.349399 1.166145 0.203512 0.000000 0.000000 0.000000
    1 20.460560 -5.265333 -5.577865 -0.578459 -1.743882 -0.231216
    2 -0.071918 -8.498730 -0.104136 -0.045385 0.067921 -0.376239
    3 2.558050 -2.903893 0.678143 0.083503 0.128137 -1.585662
    4 5.085894 -0.169122 4.438836 0.000000 0.000000 0.816726
    5 9.251545 -0.169108 4.438835 0.000000 0.000000 0.816726
    6 5.085894 -0.169122 -4.328613 0.000000 0.000000 0.816726
    7 9.251545 -0.169108 -4.328613 0.000000 0.000000 0.816726
    8 3.030026 4.195034 0.000000 0.000000 0.000000 0.087260
    9 -0.883102 0.191146 0.000000 0.000000 0.000000 0.000000
    10 18.744316 0.287796 0.000000 0.000000 0.000000 1.570796
    11 5.130177 -0.816431 2.191659 -1.371633 -3.141592 -6.034110
    12 4.769700 2.625547 2.191659 -1.769879 0.000000 0.336290
    13 2.586279 3.199157 3.863884 0.000000 0.000000 1.570796
    14 1.257180 8.762585 -0.153713 -1.570562 0.002683 -1.566807
    15 -0.488518 -2.755602 -0.228260 -0.518305 -0.074854 -0.310571
    16 0.039887 -1.479790 0.029854 -2.289231 0.000000 0.000001
    17 0.028786 -1.075731 -0.023109 -0.271941 0.000000 0.000000
    18 0.250027 -2.820665 -0.238396 -0.350825 -0.052441 -0.187301
    19 -0.049759 -1.680544 0.100479 -2.246572 0.000000 -0.000002
    20 -0.034142 -1.148312 0.084782 -0.535851 0.000000 0.000000
    21 0.957766 -2.746780 -0.090302 0.329289 -0.172344 0.119866
    22 -0.033420 -1.397129 -0.011257 -1.115580 0.000000 -0.000001
    23 -0.022360 -0.957436 0.018784 -1.148807 0.000000 0.000000
    24 -1.180681 -2.507217 -0.193859 -0.309305 0.033033 -0.314313
    25 -0.024967 -1.123934 0.017597 -2.040737 0.000000 0.000001
    26 -0.020057 -0.890968 0.010090 -0.646720 0.000000 0.000000
    27 0.583510 -1.197277 0.185379 0.371183 -0.693166 -0.903076
    28 1.535927 0.010246 0.005009 -0.002964 -0.012979 -0.682290
    29 1.100771 0.004527 -0.010679 -0.016147 -0.001453 -1.484153
    30 0.120153 -0.050270 -0.054489 0.287569 3.110905 1.561085
    31 9.424839 -7.512579 -13.954834 -0.964437 -5.258810 -1.012420
    32 0.096944 -8.450418 -0.009365 0.075477 -1.267951 0.356836
    33 0.447953 -2.798986 -0.200443 -0.761409 0.042804 0.170619
    34 -0.032909 -1.480204 0.004940 -1.480158 0.000000 0.000002
    35 -0.027022 -1.076920 -0.020210 -0.375139 0.000000 0.000000
    36 -0.249534 -2.846964 -0.174213 -0.318570 0.002631 0.073861
    37 0.043235 -1.683941 0.096012 -1.876275 0.002823 -0.000167
    38 0.031729 -1.160830 0.058838 -0.099721 0.000642 0.008372
    39 -0.963866 -2.785145 -0.085350 0.076869 0.070929 0.053157
    40 0.028479 -1.403067 0.006271 -1.337876 0.000000 0.000000
    41 0.021413 -0.957781 0.020046 -1.052178 0.000000 0.000000
    42 1.164475 -2.543940 -0.170330 -1.221966 -0.015463 0.162804
    43 0.024032 -1.129042 0.017807 -0.900867 0.000000 0.000001
    44 0.014898 -0.883989 -0.019848 -0.928571 0.000000 0.000000
    45 -0.586770 -1.264477 0.200161 0.150002 0.013438 -2.613223
    46 1.522835 0.058681 0.016848 0.001410 0.008985 0.624694
    47 1.117947 0.048424 -0.005766 -0.002568 -0.011344 -0.141990
    48 -0.139399 -0.111698 0.014397 0.668541 0.088632 1.606227
    49 -6.260806 6.983652 -0.294122 1.580804 -0.005023 -0.912799
  time 12
    0 -0.349399 1.166145 0.203512 0.000000 0.000000 0.000000
    1 20.230084 -5.011419 -5.515363 -0.552782 -1.732341 -0.238147
    2 -0.071918 -8.498730 -0.104136 -0.045385 0.067921 -0.376239
    3 2.558050 -2.903893 0.678143 0.083503 0.128137 -1.585662
    4 5.085894 -0.169122 4.438836 0.000000 0.000000 0.691127
    5 9.251545 -0.169108 4.438835 0.000000 0.000000 0.691127
    6 5.085894 -0.169122 -4.328613 0.000000 0.000000 0.691127
    7 9.251545 -0.169108 -4.328613 0.000000 0.000000 0.691127
    8 3.030026 4.195034 0.000000 0.000000 0.000000 0.087260
    9 -0.883102 0.191146 0.000000 0.000000 0.000000 0.000000
    10 18.744316 0.287796 0.000000 0.000000 0.000000 1.570796
    11 5.130177 -0.816431 2.191659 -1.379974 -3.141592 -6.034110
    12 4.769700 2.625547 2.191659 -1.761527 0.000000 0.336290
    13 2.586279 3.199157 3.863884 0.000000 0.000000 1.570796
    14 1.257180 8.762585 -0.153713 -1.570562 0.002683 -1.566807
    15 -0.488518 -2.755602 -0.228260 -0.518305 -0.074854 -0.310571
    16 0.039887 -1.479790 0.029854 -2.289231 0.000000 0.000001
    17 0.028786 -1.075731 -0.023109 -0.271941 0.000000 0.000000
    18 0.250027 -2.820665 -0.238396 -0.350825 -0.052441 -0.187301
    19 -0.049759 -1.680544 0.100479 -2.246572 0.000000 -0.000002
    20 -0.034142 -1.148312 0.084782 -0.535851 0.000000 0.000000
    21 0.957766 -2.746780 -0.090302 0.329289 -0.172344 0.119866
    22 -0.033420 -1.397129 -0.011257 -1.115580 0.000000 -0.000001
    23 -0.022360 -0.957436 0.018784 -1.148807 0.000000 0.000000
    24 -1.180681 -2.507217 -0.193859 -0.309305 0.033033 -0.314313
    25 -0.024967 -1.123934 0.017597 -2.040737 0.000000 0.000001
    26 -0.020057 -0.890968 0.010090 -0.646720 0.000000 0.000000
    27 0.583510 -1.197277 0.185379 0.371183 -0.693166 -0.903076
    28 1.535927 0.010246 0.005009 -0.002964 -0.012979 -0.682290
    29 1.100771 0.004527 -0.010679 -0.016147 -0.001453 -1.484153
    30 0.120153 -0.050270 -0.054489 0.287569 3.110905 1.561085
    31 9.139675 -7.473516 -13.755609 -0.985998 -5.253568 -1.012515
    32 0.096944 -8.450418 -0.009365 0.075477 -1.267951 0.356836
    33 0.447953 -2.798986 -0.200443 -0.761409 0.042804 0.170619
    34 -0.032909 -1.480204 0.004940 -1.480158 0.000000 0.000002
    35 -0.027022 -1.076920 -0.020210 -0.375139 0.000000 0.000000
    36 -0.249534 -2.846964 -0.174213 -0.318570 0.002631 0.073861
    37 0.043235 -1.683941 0.096012 -1.876275 0.002823 -0.000167
    38 0.031729 -1.160830 0.058838 -0.099721 0.000642 0.008372
    39 -0.963866 -2.785145 -0.085350 0.076869 0.070929 0.053157
    40 0.028479 -1.403067 0.006271 -1.337876 0.000000 0.000000
    41 0.021413 -0.957781 0.020046 -1.052178 0.000000 0.000000
    42 1.164475 -2.543940 -0.170330 -1.221966 -0.015463 0.162804
    43 0.024032 -1.129042 0.017807 -0.900867 0.000000 0.000001
    44 0.014898 -0.883989 -0.019848 -0.928571 0.000000 0.000000
    45 -0.586770 -1.264477 0.200161 0.150002 0.013438 -2.613223
    46 1.522835 0.058681 0.016848 0.001410 0.008985 0.624694
    47 1.117947 0.048424 -0.005766 -0.002568 -0.011344 -0.141990
    48 -0.139399 -0.111698 0.014397 0.668541 0.088632 1.606227
    49 -6.260806 6.983652 -0.294122 1.580804 -0.005023 -0.912799
  time 13
    0 -0.349399 1.166145 0.203512 0.000000 0.000000 0.000000
    1 19.995702 -4.745786 -5.554426 -0.522603 -1.719826 -0.249730
    2 -0.071918 -8.498730 -0.104136 -0.045385 0.067921 -0.376239
    3 2.558050 -2.903893 0.678143 0.083503 0.128137 -1.585662
    4 5.085894 -0.169122 4.438836 0.000000 0.000000 0.565433
    5 9.251545 -0.169108 4.438835 0.000000 0.000000 0.565433
    6 5.085894 -0.169122 -4.328613 0.000000 0.000000 0.565433
    7 9.251545 -0.169108 -4.328613 0.000000 0.000000 0.565433
    8 3.030026 4.195034 0.000000 0.000000 0.000000 0.087260
    9 -0.883102 0.191146 0.000000 0.000000 0.000000 0.000000
    10 18.744316 0.287796 0.000000 0.000000 0.000000 1.570796
    11 5.130177 -0.816431 2.191659 -1.389274 3.141592 -6.034110
    12 4.769700 2.625547 2.191659 -1.752252 0.000000 0.336290
    13 2.586279 3.199157 3.863884 0.000000 0.000000 1.570796
    14 1.257180 8.762585 -0.153713 -1.570562 0.002683 -1.566807
    15 -0.488518 -2.755602 -0.228260 -0.518305 -0.074854 -0.310571
    16 0.039887 -1.479790 0.029854 -2.289231 0.000000 0.000001
    17 0.028786 -1.075731 -0.023109 -0.271941 0.000000 0.000000
    18 0.250027 -2.820665 -0.238396 -0.350825 -0.052441 -0.187301
    19 -0.049759 -1.680544 0.100479 -2.246572 0.000000 -0.000002
    20 -0.034142 -1.148312 0.084782 -0.535851 0.000000 0.000000
    21 0.957766 -2.746780 -0.090302 0.329289 -0.172344 0.119866
    22 -0.033420 -1.397129 -0.011257 -1.115580 0.000000 -0.000001
    23 -0.022360 -0.957436 0.018784 -1.148807 0.000000 0.000000
    24 -1.180681 -2.507217 -0.193859 -0.309305 0.033033 -0.314313
    25 -0.024967 -1.123934 0.017597 -2.040737 0.000000 0.000001
    26 -0.020057 -0.890968 0.010090 -0.646720 0.000000 0.000000
    27 0.583510 -1.197277 0.185379 0.371183 -0.693166 -0.903076
    28 1.535927 0.010246 0.005009 -0.002964 -0.012979 -0.682290
    29 1.100771 0.004527 -0.010679 -0.016147 -0.001453 -1.484153
    30 0.120153 -0.050270 -0.054489 0.287569 3.110905 1.561085
    31 8.842790 -7.426639 -13.642325 -1.009484 -5.247855 -1.014422
    32 0.096944 -8.450418 -0.009365 0.075477 -1.267951 0.356836
    33 0.447953 -2.798986 -0.200443 -0.761409 0.042804 0.170619
    34 -0.032909 -1.480204 0.004940 -1.480158 0.000000 0.000002
    35 -0.027022 -1.076920 -0.020210 -0.375139 0.000000 0.000000
    36 -0.249534 -2.846964 -0.174213 -0.318570 0.002631 0.073861
    37 0.043235 -1.683941 0.096012 -1.876275 0.002823 -0.000167
    38 0.031729 -1.160830 0.058838 -0.099721 0.000642 0.008372
    39 -0.963866 -2.785145 -0.085350 0.076869 0.070929 0.053157
    40 0.028479 -1.403067 0.006271 -1.337876 0.000000 0.000000
    41 0.021413 -0.957781 0.020046 -1.052178 0.000000 0.000000
    42 1.164475 -2.543940 -0.170330 -1.221966 -0.015463 0.162804
    43 0.024032 -1.129042 0.017807 -0.900867 0.000000 0.000001
    44 0.014898 -0.883989 -0.019848 -0.928571 0.000000 0.000000
    45 -0.586770 -1.264477 0.200161 0.150002 0.013438 -2.613223
    46 1.522835 0.058681 0.016848 0.001410 0.008985 0.624694
    47 1.117947 0.048424 -0.005766 -0.002568 -0.011344 -0.141990
    48 -0.139399 -0.111698 0.014397 0.668541 0.088632 1.606227
    49 -6.260806 6.983652 -0.294122 1.580804 -0.005023 -0.912799
  time 14
    0 -0.349399 1.166145 0.203512 0.000000 0.000000 0.000000
    1 19.757413 -4.476246 -5.671618 -0.486484 -1.706701 -0.267199
    2 -0.071918 -8.498730 -0.104136 -0.045385 0.067921 -0.376239
    3 2.558050 -2.903893 0.678143 0.083503 0.128137 -1.585662
    4 5.085894 -0.169122 4.438836 0.000000 0.000000 0.439738
    5 9.251545 -0.169108 4.438835 0.000000 0.000000 0.439738
    6 5.085894 -0.169122 -4.328613 0.000000 0.000000 0.439738
    7 9.251545 -0.169108 -4.328613 0.000000 0.000000 0.439738
    8 3.030026 4.195034 0.000000 0.000000 0.000000 0.087260
    9 -0.883102 0.191146 0.000000 0.000000 0.000000 0.000000
    10 18.744316 0.287796 0.000000 0.000000 0.000000 1.570796
    11 5.130177 -0.816431 2.191659 -1.399245 -3.141592 -6.034110
    12 4.769700 2.625547 2.191659 -1.742291 0.000000 0.336290
    13 2.586279 3.199157 3.863884 0.000000 0.000000 1.570796
    14 1.257180 8.762585 -0.153713 -1.570562 0.002683 -1.566807
    15 -0.488518 -2.755602 -0.228260 -0.518305 -0.074854 -0.310571
    16 0.039887 -1.479790 0.029854 -2.289231 0.000000 0.000001
    17 0.028786 -1.075731 -0.023109 -0.271941 0.000000 0.000000
    18 0.250027 -2.820665 -0.238396 -0.350825 -0.052441 -0.187301
    19 -0.049759 -1.680544 0.100479 -2.246572 0.000000 -0.000002
    20 -0.034142 -1.148312 0.084782 -0.535851 0.000000 0.000000
    21 0.957766 -2.746780 -0.090302 0.329289 -0.172344 0.119866
    22 -0.033420 -1.397129 -0.011257 -1.115580 0.000000 -0.000001
    23 -0.022360 -0.957436 0.018784 -1.148807 0.000000 0.000000
    24 -1.180681 -2.507217 -0.193859 -0.309305 0.033033 -0.314313
    25 -0.024967 -1.123934 0.017597 -2.040737 0.000000 0.000001
    26 -0.020057 -0.890968 0.010090 -0.646720 0.000000 0.000000
    27 0.583510 -1.197277 0.185379 0.371183 -0.693166 -0.903076
    28 1.535927 0.010246 0.005009 -0.002964 -0.012979 -0.682290
    29 1.100771 0.004527 -0.010679 -0.016147 -0.001453 -1.484153
    30 0.120153 -0.050270 -0.054489 0.287569 3.110905 1.561085
    31 8.542000 -7.371950 -13.599355 -1.034565 -5.241874 -1.017758
    32 0.096944 -8.450418 -0.009365 0.075477 -1.267951 0.356836
    33 0.447953 -2.798986 -0.200443 -0.761409 0.042804 0.170619
    34 -0.032909 -1.480204 0.004940 -1.480158 0.000000 0.000002
    35 -0.027022 -1.076920 -0.020210 -0.375139 0.000000 0.000000
    36 -0.249534 -2.846964 -0.174213 -0.318570 0.002631 0.073861
    37 0.043235 -1.683941 0.096012 -1.876275 0.002823 -0.000167
    38 0.031729 -1.160830 0.058838 -0.099721 0.000642 0.008372
    39 -0.963866 -2.785145 -0.085350 0.076869 0.070929 0.053157
    40 0.028479 -1.403067 0.006271 -1.337876 0.000000 0.000000
    41 0.021413 -0.957781 0.020046 -1.052178 0.000000 0.000000
    42 1.164475 -2.543940 -0.170330 -1.221966 -0.015463 0.162804
    43 0.024032 -1.129042 0.017807 -0.900867 0.000000 0.000001
    44 0.014898 -0.883989 -0.019848 -0.928571 0.000000 0.000000
    45 -0.586770 -1.264477 0.200161 0.150002 0.013438 -2.613223
    46 1.522835 0.058681 0.016848 0.001410 0.008985 0.624694
    47 1.117947 0.048424 -0.005766 -0.002568 -0.011344 -0.141990
    48 -0.139399 -0.111698 0.014397 0.668541 0.088632 1.606227
    49 -6.260806 6.983652 -0.294122 1.580804 -0.005023 -0.912799
  time 15
    0 -0.349399 1.166145 0.203512 0.000000 0.000000 0.000000
    1 19.515218 -4.206707 -5.855217 -0.443083 -1.693261 -0.292264
    2 -0.071918 -8.498730 -0.104136 -0.045385 0.067921 -0.376239
    3 2.558050 -2.903893 0.678143 0.083503 0.128137 -1.585662
    4 5.085894 -0.169122 4.438836 0.000000 0.000000 0.314140
    5 9.251545 -0.169108 4.438835 0.000000 0.000000 0.314140
    6 5.085894 -0.169122 -4.328613 0.000000 0.000000 0.314140
    7 9.251545 -0.169108 -4.328613 0.000000 0.000000 0.314140
    8 3.030026 4.195034 0.000000 0.000000 0.000000 0.087260
    9 -0.883102 0.191146 0.000000 0.000000 0.000000 0.000000
    10 18.744316 0.287796 0.000000 0.000000 0.000000 1.570796
    11 5.130177 -0.816431 2.191659 -1.409695 3.141496 -6.034110
    12 4.769700 2.625547 2.191659 -1.731856 0.000000 0.336290
    13 2.586279 3.199157 3.863884 0.000000 0.000000 1.570796
    14 1.257180 8.762585 -0.153713 -1.570562 0.002683 -1.566807
    15 -0.488518 -2.755602 -0.228260 -0.518305 -0.074854 -0.310571
    16 0.039887 -1.479790 0.029854 -2.289231 0.000000 0.000001
    17 0.028786 -1.075731 -0.023109 -0.271941 0.000000 0.000000
    18 0.250027 -2.820665 -0.238396 -0.350825 -0.052441 -0.187301
    19 -0.049759 -1.680544 0.100479 -2.246572 0.000000 -0.000002
    20 -0.034142 -1.148312 0.084782 -0.535851 0.000000 0.000000
    21 0.957766 -2.746780 -0.090302 0.329289 -0.172344 0.119866
    22 -0.033420 -1.397129 -0.011257 -1.115580 0.000000 -0.000001
    23 -0.022360 -0.957436 0.018784 -1.148807 0.000000 0.000000
    24 -1.180681 -2.507217 -0.193859 -0.309305 0.033033 -0.314313
    25 -0.024967 -1.123934 0.017597 -2.040737 0.000000 0.000001
    26 -0.020057 -0.890968 0.010090 -0.646720 0.000000 0.000000
    27 0.583510 -1.197277 0.185379 0.371183 -0.693166 -0.903076
    28 1.535927 0.010246 0.005009 -0.002964 -0.012979 -0.682290
    29 1.100771 0.004527 -0.010679 -0.016147 -0.001453 -1.484153
    30 0.120153 -0.050270 -0.054489 0.287569 3.110905 1.561085
    31 8.241210 -7.317261 -13.614980 -1.060856 -5.235690 -1.022525
    32 0.096944 -8.450418 -0.009365 0.075477 -1.267951 0.356836
    33 0.447953 -2.798986 -0.200443 -0.761409 0.042804 0.170619
    34 -0.032909 -1.480204 0.004940 -1.480158 0.000000 0.000002
    35 -0.027022 -1.076920 -0.020210 -0.375139 0.000000 0.000000
    36 -0.249534 -2.846964 -0.174213 -0.318570 0.002631 0.073861
    37 0.043235 -1.683941 0.096012 -1.876275 0.002823 -0.000167
    38 0.031729 -1.160830 0.058838 -0.099721 0.000642 0.008372
    39 -0.963866 -2.785145 -0.085350 0.076869 0.070929 0.053157
    40 0.028479 -1.403067 0.006271 -1.337876 0.000000 0.000000
    41 0.021413 -0.957781 0.020046 -1.052178 0.000000 0.000000
    42 1.164475 -2.543940 -0.170330 -1.221966 -0.015463 0.162804
    43 0.024032 -1.129042 0.017807 -0.900867 0.000000 0.000001
    44 0.014898 -0.883989 -0.019848 -0.928571 0.000000 0.000000
    45 -0.586770 -1.264477 0.200161 0.150002 0.013438 -2.613223
    46 1.522835 0.058681 0.016848 0.001410 0.008985 0.624694
    47 1.117947 0.048424 -0.005766 -0.002568 -0.011344 -0.141990
    48 -0.139399 -0.111698 0.014397 0.668541 0.088632 1.606227
    49 -6.260806 6.983652 -0.294122 1.580804 -0.005023 -0.912799
  time 16
    0 -0.349399 1.166145 0.203512 0.000000 0.000000 0.000000
    1 19.273023 -3.937167 -6.085693 -0.390006 -1.679845 -0.327392
    2 -0.071918 -8.498730 -0.104136 -0.045385 0.067921 -0.376239
    3 2.558050 -2.903893 0.678143 0.083503 0.128137 -1.585662
    4 5.085894 -0.169122 4.438836 0.000000 0.000000 0.188446
    5 9.251545 -0.169108 4.438835 0.000000 0.000000 0.188446
    6 5.085894 -0.169122 -4.328613 0.000000 0.000000 0.188446
    7 9.251545 -0.169108 -4.328613 0.000000 0.000000 0.188446
    8 3.030026 4.195034 0.000000 0.000000 0.000000 0.087260
    9 -0.883102 0.191146 0.000000 0.000000 0.000000 0.000000
    10 18.744316 0.287796 0.000000 0.000000 0.000000 1.570796
    11 5.130177 -0.816431 2.191659 -1.420337 3.141496 -6.034110
    12 4.769700 2.625547 2.191659 -1.721161 0.000000 0.336290
    13 2.586279 3.199157 3.863884 0.000000 0.000000 1.570796
    14 1.257180 8.762585 -0.153713 -1.570562 0.002683 -1.566807
    15 -0.488518 -2.755602 -0.228260 -0.518305 -0.074854 -0.310571
    16 0.039887 -1.479790 0.029854 -2.289231 0.000000 0.000001
    17 0.028786 -1.075731 -0.023109 -0.271941 0.000000 0.000000
    18 0.250027 -2.820665 -0.238396 -0.350825 -0.052441 -0.187301
    19 -0.049759 -1.680544 0.100479 -2.246572 0.000000 -0.000002
    20 -0.034142 -1.148312 0.084782 -0.535851 0.000000 0.000000
    21 0.957766 -2.746780 -0.090302 0.329289 -0.172344 0.119866
    22 -0.033420 -1.397129 -0.011257 -1.115580 0.000000 -0.000001
    23 -0.022360 -0.957436 0.018784 -1.148807 0.000000 0.000000
    24 -1.180681 -2.507217 -0.193859 -0.309305 0.033033 -0.314313
    25 -0.024967 -1.123934 0.017597 -2.040737 0.000000 0.000001
    26 -0.020057 -0.890968 0.010090 -0.646720 0.000000 0.000000
    27 0.583510 -1.197277 0.185379 0.371183 -0.693166 -0.903076
    28 1.535927 0.010246 0.005009 -0.002964 -0.012979 -0.682290
    29 1.100771 0.004527 -0.010679 -0.016147 -0.001453 -1.484153
    30 0.120153 -0.050270 -0.054489 0.287569 3.110905 1.561085
    31 7.944326 -7.258665 -13.673576 -1.087863 -5.229574 -1.028340
    32 0.096944 -8.450418 -0.009365 0.075477 -1.267951 0.356836
    33 0.447953 -2.798986 -0.200443 -0.761409 0.042804 0.170619
    34 -0.032909 -1.480204 0.004940 -1.480158 0.000000 0.000002
    35 -0.027022 -1.076920 -0.020210 -0.375139 0.000000 0.000000
    36 -0.249534 -2.846964 -0.174213 -0.318570 0.002631 0.073861
    37 0.043235 -1.683941 0.096012 -1.876275 0.002823 -0.000167
    38 0.031729 -1.160830 0.058838 -0.099721 0.000642 0.008372
    39 -0.963866 -2.785145 -0.085350 0.076869 0.070929 0.053157
    40 0.028479 -1.403067 0.006271 -1.337876 0.000000 0.000000
    41 0.021413 -0.957781 0.020046 -1.052178 0.000000 0.000000
    42 1.164475 -2.543940 -0.170330 -1.221966 -0.015463 0.162804
    43 0.024032 -1.129042 0.017807 -0.900867 0.000000 0.000001
    44 0.014898 -0.883989 -0.019848 -0.928571 0.000000 0.000000
    45 -0.586770 -1.264477 0.200161 0.150002 0.013438 -2.613223
    46 1.522835 0.058681 0.016848 0.001410 0.008985 0.624694
    47 1.117947 0.048424 -0.005766 -0.002568 -0.011344 -0.141990
    48 -0.139399 -0.111698 0.014397 0.668541 0.088632 1.606227
    49 -6.260806 6.983652 -0.294122 1.580804 -0.005023 -0.912799
  time 17
    0 -0.349399 1.166145 0.203512 0.000000 0.000000 0.000000
    1 19.038641 -3.671534 -6.355232 -0.324473 -1.666818 -0.375622
    2 -0.071918 -8.498730 -0.104136 -0.045385 0.067921 -0.376239
    3 2.558050 -2.903893 0.678143 0.083503 0.128137 -1.585662
    4 5.085894 -0.169122 4.438836 0.000000 0.000000 0.062751
    5 9.251545 -0.169108 4.438835 0.000000 0.000000 0.062751
    6 5.085894 -0.169122 -4.328613 0.000000 0.000000 0.062751
    7 9.251545 -0.169108 -4.328613 0.000000 0.000000 0.062751
    8 3.030026 4.195034 0.000000 0.000000 0.000000 0.087260
    9 -0.883102 0.191146 0.000000 0.000000 0.000000 0.000000
    10 18.744316 0.287796 0.000000 0.000000 0.000000 1.570796
    11 5.130177 -0.816431 2.191659 -1.431074 3.141496 -6.034110
    12 4.769700 2.625547 2.191659 -1.710467 0.000000 0.336290
    13 2.586279 3.199157 3.863884 0.000000 0.000000 1.570796
    14 1.257180 8.762585 -0.153713 -1.570562 0.002683 -1.566807
    15 -0.488518 -2.755602 -0.228260 -0.518305 -0.074854 -0.310571
    16 0.039887 -1.479790 0.029854 -2.289231 0.000000 0.000001
    17 0.028786 -1.075731 -0.023109 -0.271941 0.000000 0.000000
    18 0.250027 -2.820665 -0.238396 -0.350825 -0.052441 -0.187301
    19 -0.049759 -1.680544 0.100479 -2.246572 0.000000 -0.000002
    20 -0.034142 -1.148312 0.084782 -0.535851 0.000000 0.000000
    21 0.957766 -2.746780 -0.090302 0.329289 -0.172344 0.119866
    22 -0.033420 -1.397129 -0.011257 -1.115580 0.000000 -0.000001
    23 -0.022360 -0.957436 0.018784 -1.148807 0.000000 0.000000
    24 -1.180681 -2.507217 -0.193859 -0.309305 0.033033 -0.314313
    25 -0.024967 -1.123934 0.017597 -2.040737 0.000000 0.000001
    26 -0.020057 -0.890968 0.010090 -0.646720 0.000000 0.000000
    27 0.583510 -1.197277 0.185379 0.371183 -0.693166 -0.903076
    28 1.535927 0.010246 0.005009 -0.002964 -0.012979 -0.682290
    29 1.100771 0.004527 -0.010679 -0.016147 -0.001453 -1.484153
    30 0.120153 -0.050270 -0.054489 0.287569 3.110905 1.561085
    31 7.655254 -7.200070 -13.771235 -1.115089 -5.223727 -1.035012
    32 0.096944 -8.450418 -0.009365 0.075477 -1.267951 0.356836
    33 0.447953 -2.798986 -0.200443 -0.761409 0.042804 0.170619
    34 -0.032909 -1.480204 0.004940 -1.480158 0.000000 0.000002
    35 -0.027022 -1.076920 -0.020210 -0.375139 0.000000 0.000000
    36 -0.249534 -2.846964 -0.174213 -0.318570 0.002631 0.073861
    37 0.043235 -1.683941 0.096012 -1.876275 0.002823 -0.000167
    38 0.031729 -1.160830 0.058838 -0.099721 0.000642 0.008372
    39 -0.963866 -2.785145 -0.085350 0.076869 0.070929 0.053157
    40 0.028479 -1.403067 0.006271 -1.337876 0.000000 0.000000
    41 0.021413 -0.957781 0.020046 -1.052178 0.000000 0.000000
    42 1.164475 -2.543940 -0.170330 -1.221966 -0.015463 0.162804
    43 0.024032 -1.129042 0.017807 -0.900867 0.000000 0.000001
    44 0.014898 -0.883989 -0.019848 -0.928571 0.000000 0.000000
    45 -0.586770 -1.264477 0.200161 0.150002 0.013438 -2.613223
    46 1.522835 0.058681 0.016848 0.001410 0.008985 0.624694
    47 1.117947 0.048424 -0.005766 -0.002568 -0.011344 -0.141990
    48 -0.139399 -0.111698 0.014397 0.668541 0.088632 1.606227
    49 -6.260806 6.983652 -0.294122 1.580804 -0.005023 -0.912799
  time 18
    0 -0.349399 1.166145 0.203512 0.000000 0.000000 0.000000
    1 18.804259 -3.413714 -6.636491 -0.242558 -1.654595 -0.440657
    2 -0.071918 -8.498730 -0.104136 -0.045385 0.067921 -0.376239
    3 2.558050 -2.903893 0.678143 0.083503 0.128137 -1.585662
    4 5.085894 -0.169122 4.438836 0.000000 0.000000 -0.062847
    5 9.251545 -0.169108 4.438835 0.000000 0.000000 -0.062847
    6 5.085894 -0.169122 -4.328613 0.000000 0.000000 -0.062847
    7 9.251545 -0.169108 -4.328613 0.000000 0.000000 -0.062847
    8 3.030026 4.195034 0.000000 0.000000 0.000000 0.087260
    9 -0.883102 0.191146 0.000000 0.000000 0.000000 0.000000
    10 18.744316 0.287796 0.000000 0.000000 0.000000 1.570796
    11 5.130177 -0.816431 2.191659 -1.441525 3.141496 -6.034110
    12 4.769700 2.625547 2.191659 -1.699985 0.000000 0.336290
    13 2.586279 3.199157 3.863884 0.000000 0.000000 1.570796
    14 1.257180 8.762585 -0.153713 -1.570562 0.002683 -1.566807
    15 -0.488518 -2.755602 -0.228260 -0.518305 -0.074854 -0.310571
    16 0.039887 -1.479790 0.029854 -2.289231 0.000000 0.000001
    17 0.028786 -1.075731 -0.023109 -0.271941 0.000000 0.000000
    18 0.250027 -2.820665 -0.238396 -0.350825 -0.052441 -0.187301
    19 -0.049759 -1.680544 0.100479 -2.246572 0.000000 -0.000002
    20 -0.034142 -1.148312 0.084782 -0.535851 0.000000 0.000000
    21 0.957766 -2.746780 -0.090302 0.329289 -0.172344 0.119866
    22 -0.033420 -1.397129 -0.011257 -1.115580 0.000000 -0.000001
    23 -0.022360 -0.957436 0.018784 -1.148807 0.000000 0.000000
    24 -1.180681 -2.507217 -0.193859 -0.309305 0.033033 -0.314313
    25 -0.024967 -1.123934 0.017597 -2.040737 0.000000 0.000001
    26 -0.020057 -0.890968 0.010090 -0.646720 0.000000 0.000000
    27 0.583510 -1.197277 0.185379 0.371183 -0.693166 -0.903076
    28 1.535927 0.010246 0.005009 -0.002964 -0.012979 -0.682290
    29 1.100771 0.004527 -0.010679 -0.016147 -0.001453 -1.484153
    30 0.120153 -0.050270 -0.054489 0.287569 3.110905 1.561085
    31 7.377902 -7.145381 -13.888426 -1.142095 -5.218149 -1.042162
    32 0.096944 -8.450418 -0.009365 0.075477 -1.267951 0.356836
    33 0.447953 -2.798986 -0.200443 -0.761409 0.042804 0.170619
    34 -0.032909 -1.480204 0.004940 -1.480158 0.000000 0.000002
    35 -0.027022 -1.076920 -0.020210 -0.375139 0.000000 0.000000
    36 -0.249534 -2.846964 -0.174213 -0.318570 0.002631 0.073861
    37 0.043235 -1.683941 0.096012 -1.876275 0.002823 -0.000167
    38 0.031729 -1.160830 0.058838 -0.099721 0.000642 0.008372
    39 -0.963866 -2.785145 -0.085350 0.076869 0.070929 0.053157
    40 0.028479 -1.403067 0.006271 -1.337876 0.000000 0.000000
    41 0.021413 -0.957781 0.020046 -1.052178 0.000000 0.000000
    42 1.164475 -2.543940 -0.170330 -1.221966 -0.015463 0.162804
    43 0.024032 -1.129042 0.017807 -0.900867 0.000000 0.000001
    44 0.014898 -0.883989 -0.019848 -0.928571 0.000000 0.000000
    45 -0.586770 -1.264477 0.200161 0.150002 0.013438 -2.613223
    46 1.522835 0.058681 0.016848 0.001410 0.008985 0.624694
    47 1.117947 0.048424 -0.005766 -0.002568 -0.011344 -0.141990
    48 -0.139399 -0.111698 0.014397 0.668541 0.088632 1.606227
    49 -6.260806 6.983652 -0.294122 1.580804 -0.005023 -0.912799
  time 19
    0 -0.349399 1.166145 0.203512 0.000000 0.000000 0.000000
    1 18.581596 -3.163706 -6.925562 -0.140428 -1.643613 -0.526864
    2 -0.071918 -8.498730 -0.104136 -0.045385 0.067921 -0.376239
    3 2.558050 -2.903893 0.678143 0.083503 0.128137 -1.585662
    4 5.085894 -0.169122 4.438836 0.000000 0.000000 -0.188542
    5 9.251545 -0.169108 4.438835 0.000000 0.000000 -0.188542
    6 5.085894 -0.169122 -4.328613 0.000000 0.000000 -0.188542
    7 9.251545 -0.169108 -4.328613 0.000000 0.000000 -0.188542
    8 3.030026 4.195034 0.000000 0.000000 0.000000 0.087260
    9 -0.883102 0.191146 0.000000 0.000000 0.000000 0.000000
    10 18.744316 0.287796 0.000000 0.000000 0.000000 1.570796
    11 5.130177 -0.816431 2.191659 -1.451591 3.141496 -6.034110
    12 4.769700 2.625547 2.191659 -1.689953 0.000000 0.336290
    13 2.586279 3.199157 3.863884 0.000000 0.000000 1.570796
    14 1.257180 8.762585 -0.153713 -1.570562 0.002683 -1.566807
    15 -0.488518 -2.755602 -0.228260 -0.518305 -0.074854 -0.310571
    16 0.039887 -1.479790 0.029854 -2.289231 0.000000 0.000001
    17 0.028786 -1.075731 -0.023109 -0.271941 0.000000 0.000000
    18 0.250027 -2.820665 -0.238396 -0.350825 -0.052441 -0.187301
    19 -0.049759 -1.680544 0.100479 -2.246572 0.000000 -0.000002
    20 -0.034142 -1.148312 0.084782 -0.535851 0.000000 0.000000
    21 0.957766 -2.746780 -0.090302 0.329289 -0.172344 0.119866
    22 -0.033420 -1.397129 -0.011257 -1.115580 0.000000 -0.000001
    23 -0.022360 -0.957436 0.018784 -1.148807 0.000000 0.000000
    24 -1.180681 -2.507217 -0.193859 -0.309305 0.033033 -0.314313
    25 -0.024967 -1.123934 0.017597 -2.040737 0.000000 0.000001
    26 -0.020057 -0.890968 0.010090 -0.646720 0.000000 0.000000
    27 0.583510 -1.197277 0.185379 0.371183 -0.693166 -0.903076
    28 1.535927 0.010246 0.005009 -0.002964 -0.012979 -0.682290
    29 1.100771 0.004527 -0.010679 -0.016147 -0.001453 -1.484153
    30 0.120153 -0.050270 -0.054489 0.287569 3.110905 1.561085
    31 7.120082 -7.090692 -14.013430 -1.168221 -5.213108 -1.049407
    32 0.096944 -8.450418 -0.009365 0.075477 -1.267951 0.356836
    33 0.447953 -2.798986 -0.200443 -0.761409 0.042804 0.170619
    34 -0.032909 -1.480204 0.004940 -1.480158 0.000000 0.000002
    35 -0.027022 -1.076920 -0.020210 -0.375139 0.000000 0.000000
    36 -0.249534 -2.846964 -0.174213 -0.318570 0.002631 0.073861
    37 0.043235 -1.683941 0.096012 -1.876275 0.002823 -0.000167
    38 0.031729 -1.160830 0.058838 -0.099721 0.000642 0.008372
    39 -0.963866 -2.785145 -0.085350 0.076869 0.070929 0.053157
    40 0.028479 -1.403067 0.006271 -1.337876 0.000000 0.000000
    41 0.021413 -0.957781 0.020046 -1.052178 0.000000 0.000000
    42 1.164475 -2.543940 -0.170330 -1.221966 -0.015463 0.162804
    43 0.024032 -1.129042 0.017807 -0.900867 0.000000 0.000001
    44 0.014898 -0.883989 -0.019848 -0.928571 0.000000 0.000000
    45 -0.586770 -1.264477 0.200161 0.150002 0.013438 -2.613223
    46 1.522835 0.058681 0.016848 0.001410 0.008985 0.624694
    47 1.117947 0.048424 -0.005766 -0.002568 -0.011344 -0.141990
    48 -0.139399 -0.111698 0.014397 0.668541 0.088632 1.606227
    49 -6.260806 6.983652 -0.294122 1.580804 -0.005023 -0.912799
  time 20
    0 -0.349399 1.166145 0.203512 0.000000 0.000000 0.000000
    1 18.370652 -2.933230 -7.199008 -0.015016 -1.634312 -0.637280
    2 -0.071918 -8.498730 -0.104136 -0.045385 0.067921 -0.376239
    3 2.558050 -2.903893 0.678143 0.083503 0.128137 -1.585662
    4 5.085894 -0.169122 4.438836 0.000000 0.000000 -0.314236
    5 9.251545 -0.169108 4.438835 0.000000 0.000000 -0.314236
    6 5.085894 -0.169122 -4.328613 0.000000 0.000000 -0.314236
    7 9.251545 -0.169108 -4.328613 0.000000 0.000000 -0.314236
    8 3.030026 4.195034 0.000000 0.000000 0.000000 0.087260
    9 -0.883102 0.191146 0.000000 0.000000 0.000000 0.000000
    10 18.744316 0.287796 0.000000 0.000000 0.000000 1.570796
    11 5.130177 -0.816431 2.191659 -1.460891 3.141496 -6.034110
    12 4.769700 2.625547 2.191659 -1.680678 0.000000 0.336290
    13 2.586279 3.199157 3.863884 0.000000 0.000000 1.570796
    14 1.257180 8.762585 -0.153713 -1.570562 0.002683 -1.566807
    15 -0.488518 -2.755602 -0.228260 -0.518305 -0.074854 -0.310571
    16 0.039887 -1.479790 0.029854 -2.289231 0.000000 0.000001
    17 0.028786 -1.075731 -0.023109 -0.271941 0.000000 0.000000
    18 0.250027 -2.820665 -0.238396 -0.350825 -0.052441 -0.187301
    19 -0.049759 -1.680544 0.100479 -2.246572 0.000000 -0.000002
    20 -0.034142 -1.148312 0.084782 -0.535851 0.000000 0.000000
    21 0.957766 -2.746780 -0.090302 0.329289 -0.172344 0.119866
    22 -0.033420 -1.397129 -0.011257 -1.115580 0.000000 -0.000001
    23 -0.022360 -0.957436 0.018784 -1.148807 0.000000 0.000000
    24 -1.180681 -2.507217 -0.193859 -0.309305 0.033033 -0.314313
    25 -0.024967 -1.123934 0.017597 -2.040737 0.000000 0.000001
    26 -0.020057 -0.890968 0.010090 -0.646720 0.000000 0.000000
    27 0.583510 -1.197277 0.185379 0.371183 -0.693166 -0.903076
    28 1.535927 0.010246 0.005009 -0.002964 -0.012979 -0.682290
    29 1.100771 0.004527 -0.010679 -0.016147 -0.001453 -1.484153
    30 0.120153 -0.050270 -0.054489 0.287569 3.110905 1.561085
    31 6.877887 -7.039909 -14.134527 -1.192918 -5.208739 -1.056366
    32 0.096944 -8.450418 -0.009365 0.075477 -1.267951 0.356836
    33 0.447953 -2.798986 -0.200443 -0.761409 0.042804 0.170619
    34 -0.032909 -1.480204 0.004940 -1.480158 0.000000 0.000002
    35 -0.027022 -1.076920 -0.020210 -0.375139 0.000000 0.000000
    36 -0.249534 -2.846964 -0.174213 -0.318570 0.002631 0.073861
    37 0.043235 -1.683941 0.096012 -1.876275 0.002823 -0.000167
    38 0.031729 -1.160830 0.058838 -0.099721 0.000642 0.008372
    39 -0.963866 -2.785145 -0.085350 0.076869 0.070929 0.053157
    40 0.028479 -1.403067 0.006271 -1.337876 0.000000 0.000000
    41 0.021413 -0.957781 0.020046 -1.052178 0.000000 0.000000
    42 1.164475 -2.543940 -0.170330 -1.221966 -0.015463 0.162804
    43 0.024032 -1.129042 0.017807 -0.900867 0.000000 0.000001
    44 0.014898 -0.883989 -0.019848 -0.928571 0.000000 0.000000
    45 -0.586770 -1.264477 0.200161 0.150002 0.013438 -2.613223
    46 1.522835 0.058681 0.016848 0.001410 0.008985 0.624694
    47 1.117947 0.048424 -0.005766 -0.002568 -0.011344 -0.141990
    48 -0.139399 -0.111698 0.014397 0.668541 0.088632 1.606227
    49 -6.260806 6.983652 -0.294122 1.580804 -0.005023 -0.912799
  time 21
    0 -0.349399 1.166145 0.203512 0.000000 0.000000 0.000000
    1 18.175334 -2.714474 -7.441203 0.132431 -1.627105 -0.770768
    2 -0.071918 -8.498730 -0.104136 -0.045385 0.067921 -0.376239
    3 2.558050 -2.903893 0.678143 0.083503 0.128137 -1.585662
    4 5.085894 -0.169122 4.438836 0.000000 0.000000 -0.439834
    5 9.251545 -0.169108 4.438835 0.000000 0.000000 -0.439834
    6 5.085894 -0.169122 -4.328613 0.000000 0.000000 -0.439834
    7 9.251545 -0.169108 -4.328613 0.000000 0.000000 -0.439834
    8 3.030026 4.195034 0.000000 0.000000 0.000000 0.087260
    9 -0.883102 0.191146 0.000000 0.000000 0.000000 0.000000
    10 18.744316 0.287796 0.000000 0.000000 0.000000 1.570796
    11 5.130177 -0.816431 2.191659 -1.469136 -3.141592 -6.034110
    12 4.769700 2.625547 2.191659 -1.672373 0.000000 0.336290
    13 2.586279 3.199157 3.863884 0.000000 0.000000 1.570796
    14 1.257180 8.762585 -0.153713 -1.570562 0.002683 -1.566807
    15 -0.488518 -2.755602 -0.228260 -0.518305 -0.074854 -0.310571
    16 0.039887 -1.479790 0.029854 -2.289231 0.000000 0.000001
    17 0.028786 -1.075731 -0.023109 -0.271941 0.000000 0.000000
    18 0.250027 -2.820665 -0.238396 -0.350825 -0.052441 -0.187301
    19 -0.049759 -1.680544 0.100479 -2.246572 0.000000 -0.000002
    20 -0.034142 -1.148312 0.084782 -0.535851 0.000000 0.000000
    21 0.957766 -2.746780 -0.090302 0.329289 -0.172344 0.119866
    22 -0.033420 -1.397129 -0.011257 -1.115580 0.000000 -0.000001
    23 -0.022360 -0.957436 0.018784 -1.148807 0.000000 0.000000
    24 -1.180681 -2.507217 -0.193859 -0.309305 0.033033 -0.314313
    25 -0.024967 -1.123934 0.017597 -2.040737 0.000000 0.000001
    26 -0.020057 -0.890968 0.010090 -0.646720 0.000000 0.000000
    27 0.583510 -1.197277 0.185379 0.371183 -0.693166 -0.903076
    28 1.535927 0.010246 0.005009 -0.002964 -0.012979 -0.682290
    29 1.100771 0.004527 -0.010679 -0.016147 -0.001453 -1.484153
    30 0.120153 -0.050270 -0.054489 0.287569 3.110905 1.561085
    31 6.663036 -6.996939 -14.239999 -1.215634 -5.205043 -1.062658
    32 0.096944 -8.450418 -0.009365 0.075477 -1.267951 0.356836
    33 0.447953 -2.798986 -0.200443 -0.761409 0.042804 0.170619
    34 -0.032909 -1.480204 0.004940 -1.480158 0.000000 0.000002
    35 -0.027022 -1.076920 -0.020210 -0.375139 0.000000 0.000000
    36 -0.249534 -2.846964 -0.174213 -0.318570 0.002631 0.073861
    37 0.043235 -1.683941 0.096012 -1.876275 0.002823 -0.000167
    38 0.031729 -1.160830 0.058838 -0.099721 0.000642 0.008372
    39 -0.963866 -2.785145 -0.085350 0.076869 0.070929 0.053157
    40 0.028479 -1.403067 0.006271 -1.337876 0.000000 0.000000
    41 0.021413 -0.957781 0.020046 -1.052178 0.000000 0.000000
    42 1.164475 -2.543940 -0.170330 -1.221966 -0.015463 0.162804
    43 0.024032 -1.129042 0.017807 -0.900867 0.000000 0.000001
    44 0.014898 -0.883989 -0.019848 -0.928571 0.000000 0.000000
    45 -0.586770 -1.264477 0.200161 0.150002 0.013438 -2.613223
    46 1.522835 0.058681 0.016848 0.001410 0.008985 0.624694
    47 1.117947 0.048424 -0.005766 -0.002568 -0.011344 -0.141990
    48 -0.139399 -0.111698 0.014397 0.668541 0.088632 1.606227
    49 -6.260806 6.983652 -0.294122 1.580804 -0.005023 -0.912799
  time 22
    0 -0.349399 1.166145 0.203512 0.000000 0.000000 0.000000
    1 17.991734 -2.519155 -7.640428 0.292142 -1.622259 -0.917737
    2 -0.071918 -8.498730 -0.104136 -0.045385 0.067921 -0.376239
    3 2.558050 -2.903893 0.678143 0.083503 0.128137 -1.585662
    4 5.085894 -0.169122 4.438836 0.000000 0.000000 -0.565529
    5 9.251545 -0.169108 4.438835 0.000000 0.000000 -0.565529
    6 5.085894 -0.169122 -4.328613 0.000000 0.000000 -0.565529
    7 9.251545 -0.169108 -4.328613 0.000000 0.000000 -0.565529
    8 3.030026 4.195034 0.000000 0.000000 0.000000 0.087260
    9 -0.883102 0.191146 0.000000 0.000000 0.000000 0.000000
    10 18.744316 0.287796 0.000000 0.000000 0.000000 1.570796
    11 5.130177 -0.816431 2.191659 -1.476230 3.141496 -6.034110
    12 4.769700 2.625547 2.191659 -1.665298 0.000000 0.336290
    13 2.586279 3.199157 3.863884 0.000000 0.000000 1.570796
    14 1.257180 8.762585 -0.153713 -1.570562 0.002683 -1.566807
    15 -0.488518 -2.755602 -0.228260 -0.518305 -0.074854 -0.310571
    16 0.039887 -1.479790 0.029854 -2.289231 0.000000 0.000001
    17 0.028786 -1.075731 -0.023109 -0.271941 0.000000 0.000000
    18 0.250027 -2.820665 -0.238396 -0.350825 -0.052441 -0.187301
    19 -0.049759 -1.680544 0.100479 -2.246572 0.000000 -0.000002
    20 -0.034142 -1.148312 0.084782 -0.535851 0.000000 0.000000
    21 0.957766 -2.746780 -0.090302 0.329289 -0.172344 0.119866
    22 -0.033420 -1.397129 -0.011257 -1.115580 0.000000 -0.000001
    23 -0.022360 -0.957436 0.018784 -1.148807 0.000000 0.000000
    24 -1.180681 -2.507217 -0.193859 -0.309305 0.033033 -0.314313
    25 -0.024967 -1.123934 0.017597 -2.040737 0.000000 0.000001
    26 -0.020057 -0.890968 0.010090 -0.646720 0.000000 0.000000
    27 0.583510 -1.197277 0.185379 0.371183 -0.693166 -0.903076
    28 1.535927 0.010246 0.005009 -0.002964 -0.012979 -0.682290
    29 1.100771 0.004527 -0.010679 -0.016147 -0.001453 -1.484153
    30 0.120153 -0.050270 -0.054489 0.287569 3.110905 1.561085
    31 6.471624 -6.957875 -14.318126 -1.235655 -5.202220 -1.067805
    32 0.096944 -8.450418 -0.009365 0.075477 -1.267951 0.356836
    33 0.447953 -2.798986 -0.200443 -0.761409 0.042804 0.170619
    34 -0.032909 -1.480204 0.004940 -1.480158 0.000000 0.000002
    35 -0.027022 -1.076920 -0.020210 -0.375139 0.000000 0.000000
    36 -0.249534 -2.846964 -0.174213 -0.318570 0.002631 0.073861
    37 0.043235 -1.683941 0.096012 -1.876275 0.002823 -0.000167
    38 0.031729 -1.160830 0.058838 -0.099721 0.000642 0.008372
    39 -0.963866 -2.785145 -0.085350 0.076869 0.070929 0.053157
    40 0.028479 -1.403067 0.006271 -1.337876 0.000000 0.000000
    41 0.021413 -0.957781 0.020046 -1.052178 0.000000 0.000000
    42 1.164475 -2.543940 -0.170330 -1.221966 -0.015463 0.162804
    43 0.024032 -1.129042 0.017807 -0.900867 0.000000 0.000001
    44 0.014898 -0.883989 -0.019848 -0.928571 0.000000 0.000000
    45 -0.586770 -1.264477 0.200161 0.150002 0.013438 -2.613223
    46 1.522835 0.058681 0.016848 0.001410 0.008985 0.624694
    47 1.117947 0.048424 -0.005766 -0.002568 -0.011344 -0.141990
    48 -0.139399 -0.111698 0.014397 0.668541 0.088632 1.606227
    49 -6.260806 6.983652 -0.294122 1.580804 -0.005023 -0.912799
  time 23
    0 -0.349399 1.166145 0.203512 0.000000 0.000000 0.000000
    1 17.831573 -2.351181 -7.777151 0.444955 -1.619751 -1.059105
    2 -0.071918 -8.498730 -0.104136 -0.045385 0.067921 -0.376239
    3 2.558050 -2.903893 0.678143 0.083503 0.128137 -1.585662
    4 5.085894 -0.169122 4.438836 0.000000 0.000000 -0.691223
    5 9.251545 -0.169108 4.438835 0.000000 0.000000 -0.691223
    6 5.085894 -0.169122 -4.328613 0.000000 0.000000 -0.691223
    7 9.251545 -0.169108 -4.328613 0.000000 0.000000 -0.691223
    8 3.030026 4.195034 0.000000 0.000000 0.000000 0.087260
    9 -0.883102 0.191146 0.000000 0.000000 0.000000 0.000000
    10 18.744316 0.287796 0.000000 0.000000 0.000000 1.570796
    11 5.130177 -0.816431 2.191659 -1.481791 3.141496 -6.034110
    12 4.769700 2.625547 2.191659 -1.659761 0.000000 0.336290
    13 2.586279 3.199157 3.863884 0.000000 0.000000 1.570796
    14 1.257180 8.762585 -0.153713 -1.570562 0.002683 -1.566807
    15 -0.488518 -2.755602 -0.228260 -0.518305 -0.074854 -0.310571
    16 0.039887 -1.479790 0.029854 -2.289231 0.000000 0.000001
    17 0.028786 -1.075731 -0.023109 -0.271941 0.000000 0.000000
    18 0.250027 -2.820665 -0.238396 -0.350825 -0.052441 -0.187301
    19 -0.049759 -1.680544 0.100479 -2.246572 0.000000 -0.000002
    20 -0.034142 -1.148312 0.084782 -0.535851 0.000000 0.000000
    21 0.957766 -2.746780 -0.090302 0.329289 -0.172344 0.119866
    22 -0.033420 -1.397129 -0.011257 -1.115580 0.000000 -0.000001
    23 -0.022360 -0.957436 0.018784 -1.148807 0.000000 0.000000
    24 -1.180681 -2.507217 -0.193859 -0.309305 0.033033 -0.314313
    25 -0.024967 -1.123934 0.017597 -2.040737 0.000000 0.000001
    26 -0.020057 -0.890968 0.010090 -0.646720 0.000000 0.000000
    27 0.583510 -1.197277 0.185379 0.371183 -0.693166 -0.903076
    28 1.535927 0.010246 0.005009 -0.002964 -0.012979 -0.682290
    29 1.100771 0.004527 -0.010679 -0.016147 -0.001453 -1.484153
    30 0.120153 -0.050270 -0.054489 0.287569 3.110905 1.561085
    31 6.311463 -6.930530 -14.357190 -1.252320 -5.200338 -1.071332
    32 0.096944 -8.450418 -0.009365 0.075477 -1.267951 0.356836
    33 0.447953 -2.798986 -0.200443 -0.761409 0.042804 0.170619
    34 -0.032909 -1.480204 0.004940 -1.480158 0.000000 0.000002
    35 -0.027022 -1.076920 -0.020210 -0.375139 0.000000 0.000000
    36 -0.249534 -2.846964 -0.174213 -0.318570 0.002631 0.073861
    37 0.043235 -1.683941 0.096012 -1.876275 0.002823 -0.000167
    38 0.031729 -1.160830 0.058838 -0.099721 0.000642 0.008372
    39 -0.963866 -2.785145 -0.085350 0.076869 0.070929 0.053157
    40 0.028479 -1.403067 0.006271 -1.337876 0.000000 0.000000
    41 0.021413 -0.957781 0.020046 -1.052178 0.000000 0.000000
    42 1.164475 -2.543940 -0.170330 -1.221966 -0.015463 0.162804
    43 0.024032 -1.129042 0.017807 -0.900867 0.000000 0.000001
    44 0.014898 -0.883989 -0.019848 -0.928571 0.000000 0.000000
    45 -0.586770 -1.264477 0.200161 0.150002 0.013438 -2.613223
    46 1.522835 0.058681 0.016848 0.001410 0.008985 0.624694
    47 1.117947 0.048424 -0.005766 -0.002568 -0.011344 -0.141990
    48 -0.139399 -0.111698 0.014397 0.668541 0.088632 1.606227
    49 -6.260806 6.983652 -0.294122 1.580804 -0.005023 -0.912799
  time 24
    0 -0.349399 1.166145 0.203512 0.000000 0.000000 0.000000
    1 17.714382 -2.233990 -7.851372 0.534439 -1.620238 -1.140849
    2 -0.071918 -8.498730 -0.104136 -0.045385 0.067921 -0.376239
    3 2.558050 -2.903893 0.678143 0.083503 0.128137 -1.585662
    4 5.085894 -0.169122 4.438836 0.000000 0.000000 -0.816822
    5 9.251545 -0.169108 4.438835 0.000000 0.000000 -0.816822
    6 5.085894 -0.169122 -4.328613 0.000000 0.000000 -0.816822
    7 9.251545 -0.169108 -4.328613 0.000000 0.000000 -0.816822
    8 3.030026 4.195034 0.000000 0.000000 0.000000 0.087260
    9 -0.883102 0.191146 0.000000 0.000000 0.000000 0.000000
    10 18.744316 0.287796 0.000000 0.000000 0.000000 1.570796
    11 5.130177 -0.816431 2.191659 -1.483709 -3.141592 -6.034110
    12 4.769700 2.625547 2.191659 -1.657821 0.000000 0.336290
    13 2.586279 3.199157 3.863884 0.000000 0.000000 1.570796
    14 1.257180 8.762585 -0.153713 -1.570562 0.002683 -1.566807
    15 -0.488518 -2.755602 -0.228260 -0.518305 -0.074854 -0.310571
    16 0.039887 -1.479790 0.029854 -2.289231 0.000000 0.000001
    17 0.028786 -1.075731 -0.023109 -0.271941 0.000000 0.000000
    18 0.250027 -2.820665 -0.238396 -0.350825 -0.052441 -0.187301
    19 -0.049759 -1.680544 0.100479 -2.246572 0.000000 -0.000002
    20 -0.034142 -1.148312 0.084782 -0.535851 0.000000 0.000000
    21 0.957766 -2.746780 -0.090302 0.329289 -0.172344 0.119866
    22 -0.033420 -1.397129 -0.011257 -1.115580 0.000000 -0.000001
    23 -0.022360 -0.957436 0.018784 -1.148807 0.000000 0.000000
    24 -1.180681 -2.507217 -0.193859 -0.309305 0.033033 -0.314313
    25 -0.024967 -1.123934 0.017597 -2.040737 0.000000 0.000001
    26 -0.020057 -0.890968 0.010090 -0.646720 0.000000 0.000000
    27 0.583510 -1.197277 0.185379 0.371183 -0.693166 -0.903076
    28 1.535927 0.010246 0.005009 -0.002964 -0.012979 -0.682290
    29 1.100771 0.004527 -0.010679 -0.016147 -0.001453 -1.484153
    30 0.120153 -0.050270 -0.054489 0.287569 3.110905 1.561085
    31 6.202085 -6.918811 -14.376722 -1.261781 -5.200741 -1.071904
    32 0.096944 -8.450418 -0.009365 0.075477 -1.267951 0.356836
    33 0.447953 -2.798986 -0.200443 -0.761409 0.042804 0.170619
    34 -0.032909 -1.480204 0.004940 -1.480158 0.000000 0.000002
    35 -0.027022 -1.076920 -0.020210 -0.375139 0.000000 0.000000
    36 -0.249534 -2.846964 -0.174213 -0.318570 0.002631 0.073861
    37 0.043235 -1.683941 0.096012 -1.876275 0.002823 -0.000167
    38 0.031729 -1.160830 0.058838 -0.099721 0.000642 0.008372
    39 -0.963866 -2.785145 -0.085350 0.076869 0.070929 0.053157
    40 0.028479 -1.403067 0.006271 -1.337876 0.000000 0.000000
    41 0.021413 -0.957781 0.020046 -1.052178 0.000000 0.000000
    42 1.164475 -2.543940 -0.170330 -1.221966 -0.015463 0.162804
    43 0.024032 -1.129042 0.017807 -0.900867 0.000000 0.000001
    44 0.014898 -0.883989 -0.019848 -0.928571 0.000000 0.000000
    45 -0.586770 -1.264477 0.200161 0.150002 0.013438 -2.613223
    46 1.522835 0.058681 0.016848 0.001410 0.008985 0.624694
    47 1.117947 0.048424 -0.005766 -0.002568 -0.011344 -0.141990
    48 -0.139399 -0.111698 0.014397 0.668541 0.088632 1.606227
    49 -6.260806 6.983652 -0.294122 1.580804 -0.005023 -0.912799
  time 25
    0 -0.349399 1.166145 0.203512 0.000000 0.000000 0.000000
    1 17.651880 -2.187114 -7.874810 0.533289 -1.623452 -1.136482
    2 -0.071918 -8.498730 -0.104136 -0.045385 0.067921 -0.376239
    3 2.558050 -2.903893 0.678143 0.083503 0.128137 -1.585662
    4 5.085894 -0.169122 4.438836 0.000000 0.000000 -0.942516
    5 9.251545 -0.169108 4.438835 0.000000 0.000000 -0.942516
    6 5.085894 -0.169122 -4.328613 0.000000 0.000000 -0.942516
    7 9.251545 -0.169108 -4.328613 0.000000 0.000000 -0.942516
    8 3.030026 4.195034 0.000000 0.000000 0.000000 0.087260
    9 -0.883102 0.191146 0.000000 0.000000 0.000000 0.000000
    10 18.744316 0.287796 0.000000 0.000000 0.000000 1.570796
    11 5.130177 -0.816431 2.191659 -1.481024 -3.141592 -6.034110
    12 4.769700 2.625547 2.191659 -1.660495 0.000000 0.336290
    13 2.586279 3.199157 3.863884 0.000000 0.000000 1.570796
    14 1.257180 8.762585 -0.153713 -1.570562 0.002683 -1.566807
    15 -0.488518 -2.755602 -0.228260 -0.518305 -0.074854 -0.310571
    16 0.039887 -1.479790 0.029854 -2.289231 0.000000 0.000001
    17 0.028786 -1.075731 -0.023109 -0.271941 0.000000 0.000000
    18 0.250027 -2.820665 -0.238396 -0.350825 -0.052441 -0.187301
    19 -0.049759 -1.680544 0.100479 -2.246572 0.000000 -0.000002
    20 -0.034142 -1.148312 0.084782 -0.535851 0.000000 0.000000
    21 0.957766 -2.746780 -0.090302 0.329289 -0.172344 0.119866
    22 -0.033420 -1.397129 -0.011257 -1.115580 0.000000 -0.000001
    23 -0.022360 -0.957436 0.018784 -1.148807 0.000000 0.000000
    24 -1.180681 -2.507217 -0.193859 -0.309305 0.033033 -0.314313
    25 -0.024967 -1.123934 0.017597 -2.040737 0.000000 0.000001
    26 -0.020057 -0.890968 0.010090 -0.646720 0.000000 0.000000
    27 0.583510 -1.197277 0.185379 0.371183 -0.693166 -0.903076
    28 1.535927 0.010246 0.005009 -0.002964 -0.012979 -0.682290
    29 1.100771 0.004527 -0.010679 -0.016147 -0.001453 -1.484153
    30 0.120153 -0.050270 -0.054489 0.287569 3.110905 1.561085
    31 6.163021 -6.930530 -14.404067 -1.262111 -5.203967 -1.069140
    32 0.096944 -8.450418 -0.009365 0.075477 -1.267951 0.356836
    33 0.447953 -2.798986 -0.200443 -0.761409 0.042804 0.170619
    34 -0.032909 -1.480204 0.004940 -1.480158 0.000000 0.000002
    35 -0.027022 -1.076920 -0.020210 -0.375139 0.000000 0.000000
    36 -0.249534 -2.846964 -0.174213 -0.318570 0.002631 0.073861
    37 0.043235 -1.683941 0.096012 -1.876275 0.002823 -0.000167
    38 0.031729 -1.160830 0.058838 -0.099721 0.000642 0.008372
    39 -0.963866 -2.785145 -0.085350 0.076869 0.070929 0.053157
    40 0.028479 -1.403067 0.006271 -1.337876 0.000000 0.000000
    41 0.021413 -0.957781 0.020046 -1.052178 0.000000 0.000000
    42 1.164475 -2.543940 -0.170330 -1.221966 -0.015463 0.162804
    43 0.024032 -1.129042 0.017807 -0.900867 0.000000 0.000001
    44 0.014898 -0.883989 -0.019848 -0.928571 0.000000 0.000000
    45 -0.586770 -1.264477 0.200161 0.150002 0.013438 -2.613223
    46 1.522835 0.058681 0.016848 0.001410 0.008985 0.624694
    47 1.117947 0.048424 -0.005766 -0.002568 -0.011344 -0.141990
    48 -0.139399 -0.111698 0.014397 0.668541 0.088632 1.606227
    49 -6.260806 6.983652 -0.294122 1.580804 -0.005023 -0.912799
  time 26
    0 -0.349399 1.166145 0.203512 0.000000 0.000000 0.000000
    1 17.628442 -2.194927 -7.870903 0.477721 -1.628517 -1.081321
    2 -0.071918 -8.498730 -0.104136 -0.045385 0.067921 -0.376239
    3 2.558050 -2.903893 0.678143 0.083503 0.128137 -1.585662
    4 5.085894 -0.169122 4.438836 0.000000 0.000000 -1.068210
    5 9.251545 -0.169108 4.438835 0.000000 0.000000 -1.068210
    6 5.085894 -0.169122 -4.328613 0.000000 0.000000 -1.068210
    7 9.251545 -0.169108 -4.328613 0.000000 0.000000 -1.068210
    8 3.030026 4.195034 0.000000 0.000000 0.000000 0.087260
    9 -0.883102 0.191146 0.000000 0.000000 0.000000 0.000000
    10 18.744316 0.287796 0.000000 0.000000 0.000000 1.570796
    11 5.130177 -0.816431 2.191659 -1.475176 -3.141592 -6.034110
    12 4.769700 2.625547 2.191659 -1.666386 0.000000 0.336290
    13 2.586279 3.199157 3.863884 0.000000 0.000000 1.570796
    14 1.257180 8.762585 -0.153713 -1.570562 0.002683 -1.566807
    15 -0.488518 -2.755602 -0.228260 -0.518305 -0.074854 -0.310571
    16 0.039887 -1.479790 0.029854 -2.289231 0.000000 0.000001
    17 0.028786 -1.075731 -0.023109 -0.271941 0.000000 0.000000
    18 0.250027 -2.820665 -0.238396 -0.350825 -0.052441 -0.187301
    19 -0.049759 -1.680544 0.100479 -2.246572 0.000000 -0.000002
    20 -0.034142 -1.148312 0.084782 -0.535851 0.000000 0.000000
    21 0.957766 -2.746780 -0.090302 0.329289 -0.172344 0.119866
    22 -0.033420 -1.397129 -0.011257 -1.115580 0.000000 -0.000001
    23 -0.022360 -0.957436 0.018784 -1.148807 0.000000 0.000000
    24 -1.180681 -2.507217 -0.193859 -0.309305 0.033033 -0.314313
    25 -0.024967 -1.123934 0.017597 -2.040737 0.000000 0.000001
    26 -0.020057 -0.890968 0.010090 -0.646720 0.000000 0.000000
    27 0.583510 -1.197277 0.185379 0.371183 -0.693166 -0.903076
    28 1.535927 0.010246 0.005009 -0.002964 -0.012979 -0.682290
    29 1.100771 0.004527 -0.010679 -0.016147 -0.001453 -1.484153
    30 0.120153 -0.050270 -0.054489 0.287569 3.110905 1.561085
    31 6.170834 -6.953969 -14.439224 -1.256115 -5.209143 -1.064087
    32 0.096944 -8.450418 -0.009365 0.075477 -1.267951 0.356836
    33 0.447953 -2.798986 -0.200443 -0.761409 0.042804 0.170619
    34 -0.032909 -1.480204 0.004940 -1.480158 0.000000 0.000002
    35 -0.027022 -1.076920 -0.020210 -0.375139 0.000000 0.000000
    36 -0.249534 -2.846964 -0.174213 -0.318570 0.002631 0.073861
    37 0.043235 -1.683941 0.096012 -1.876275 0.002823 -0.000167
    38 0.031729 -1.160830 0.058838 -0.099721 0.000642 0.008372
    39 -0.963866 -2.785145 -0.085350 0.076869 0.070929 0.053157
    40 0.028479 -1.403067 0.006271 -1.337876 0.000000 0.000000
    41 0.021413 -0.957781 0.020046 -1.052178 0.000000 0.000000
    42 1.164475 -2.543940 -0.170330 -1.221966 -0.015463 0.162804
    43 0.024032 -1.129042 0.017807 -0.900867 0.000000 0.000001
    44 0.014898 -0.883989 -0.019848 -0.928571 0.000000 0.000000
    45 -0.586770 -1.264477 0.200161 0.150002 0.013438 -2.613223
    46 1.522835 0.058681 0.016848 0.001410 0.008985 0.624694
    47 1.117947 0.048424 -0.005766 -0.002568 -0.011344 -0.141990
    48 -0.139399 -0.111698 0.014397 0.668541 0.088632 1.606227
    49 -6.260806 6.983652 -0.294122 1.580804 -0.005023 -0.912799
  time 27
    0 -0.349399 1.166145 0.203512 0.000000 0.000000 0.000000
    1 17.632348 -2.233990 -7.843559 0.403758 -1.634799 -1.009925
    2 -0.071918 -8.498730 -0.104136 -0.045385 0.067921 -0.376239
    3 2.558050 -2.903893 0.678143 0.083503 0.128137 -1.585662
    4 5.085894 -0.169122 4.438836 0.000000 0.000000 -1.193809
    5 9.251545 -0.169108 4.438835 0.000000 0.000000 -1.193809
    6 5.085894 -0.169122 -4.328613 0.000000 0.000000 -1.193809
    7 9.251545 -0.169108 -4.328613 0.000000 0.000000 -1.193809
    8 3.030026 4.195034 0.000000 0.000000 0.000000 0.087260
    9 -0.883102 0.191146 0.000000 0.000000 0.000000 0.000000
    10 18.744316 0.287796 0.000000 0.000000 0.000000 1.570796
    11 5.130177 -0.816431 2.191659 -1.467410 3.141496 -6.034110
    12 4.769700 2.625547 2.191659 -1.674076 0.000000 0.336290
    13 2.586279 3.199157 3.863884 0.000000 0.000000 1.570796
    14 1.257180 8.762585 -0.153713 -1.570562 0.002683 -1.566807
    15 -0.488518 -2.755602 -0.228260 -0.518305 -0.074854 -0.310571
    16 0.039887 -1.479790 0.029854 -2.289231 0.000000 0.000001
    17 0.028786 -1.075731 -0.023109 -0.271941 0.000000 0.000000
    18 0.250027 -2.820665 -0.238396 -0.350825 -0.052441 -0.187301
    19 -0.049759 -1.680544 0.100479 -2.246572 0.000000 -0.000002
    20 -0.034142 -1.148312 0.084782 -0.535851 0.000000 0.000000
    21 0.957766 -2.746780 -0.090302 0.329289 -0.172344 0.119866
    22 -0.033420 -1.397129 -0.011257 -1.115580 0.000000 -0.000001
    23 -0.022360 -0.957436 0.018784 -1.148807 0.000000 0.000000
    24 -1.180681 -2.507217 -0.193859 -0.309305 0.033033 -0.314313
    25 -0.024967 -1.123934 0.017597 -2.040737 0.000000 0.000001
    26 -0.020057 -0.890968 0.010090 -0.646720 0.000000 0.000000
    27 0.583510 -1.197277 0.185379 0.371183 -0.693166 -0.903076
    28 1.535927 0.010246 0.005009 -0.002964 -0.012979 -0.682290
    29 1.100771 0.004527 -0.010679 -0.016147 -0.001453 -1.484153
    30 0.120153 -0.050270 -0.054489 0.287569 3.110905 1.561085
    31 6.209898 -6.985220 -14.478288 -1.246490 -5.215326 -1.058082
    32 0.096944 -8.450418 -0.009365 0.075477 -1.267951 0.356836
    33 0.447953 -2.798986 -0.200443 -0.761409 0.042804 0.170619
    34 -0.032909 -1.480204 0.004940 -1.480158 0.000000 0.000002
    35 -0.027022 -1.076920 -0.020210 -0.375139 0.000000 0.000000
    36 -0.249534 -2.846964 -0.174213 -0.318570 0.002631 0.073861
    37 0.043235 -1.683941 0.096012 -1.876275 0.002823 -0.000167
    38 0.031729 -1.160830 0.058838 -0.099721 0.000642 0.008372
    39 -0.963866 -2.785145 -0.085350 0.076869 0.070929 0.053157
    40 0.028479 -1.403067 0.006271 -1.337876 0.000000 0.000000
    41 0.021413 -0.957781 0.020046 -1.052178 0.000000 0.000000
    42 1.164475 -2.543940 -0.170330 -1.221966 -0.015463 0.162804
    43 0.024032 -1.129042 0.017807 -0.900867 0.000000 0.000001
    44 0.014898 -0.883989 -0.019848 -0.928571 0.000000 0.000000
    45 -0.586770 -1.264477 0.200161 0.150002 0.013438 -2.613223
    46 1.522835 0.058681 0.016848 0.001410 0.008985 0.624694
    47 1.117947 0.048424 -0.005766 -0.002568 -0.011344 -0.141990
    48 -0.139399 -0.111698 0.014397 0.668541 0.088632 1.606227
    49 -6.260806 6.983652 -0.294122 1.580804 -0.005023 -0.912799
  time 28
    0 -0.349399 1.166145 0.203512 0.000000 0.000000 0.000000
    1 17.647974 -2.284773 -7.808401 0.335543 -1.641544 -0.945175
    2 -0.071918 -8.498730 -0.104136 -0.045385 0.067921 -0.376239
    3 2.558050 -2.903893 0.678143 0.083503 0.128137 -1.585662
    4 5.085894 -0.169122 4.438836 0.000000 0.000000 -1.319503
    5 9.251545 -0.169108 4.438835 0.000000 0.000000 -1.319503
    6 5.085894 -0.169122 -4.328613 0.000000 0.000000 -1.319503
    7 9.251545 -0.169108 -4.328613 0.000000 0.000000 -1.319503
    8 3.030026 4.195034 0.000000 0.000000 0.000000 0.087260
    9 -0.883102 0.191146 0.000000 0.000000 0.000000 0.000000
    10 18.744316 0.287796 0.000000 0.000000 0.000000 1.570796
    11 5.130177 -0.816431 2.191659 -1.459357 -3.141592 -6.034110
    12 4.769700 2.625547 2.191659 -1.682145 0.000000 0.336290
    13 2.586279 3.199157 3.863884 0.000000 0.000000 1.570796
    14 1.257180 8.762585 -0.153713 -1.570562 0.002683 -1.566807
    15 -0.488518 -2.755602 -0.228260 -0.518305 -0.074854 -0.310571
    16 0.039887 -1.479790 0.029854 -2.289231 0.000000 0.000001
    17 0.028786 -1.075731 -0.023109 -0.271941 0.000000 0.000000
    18 0.250027 -2.820665 -0.238396 -0.350825 -0.052441 -0.187301
    19 -0.049759 -1.680544 0.100479 -2.246572 0.000000 -0.000002
    20 -0.034142 -1.148312 0.084782 -0.535851 0.000000 0.000000
    21 0.957766 -2.746780 -0.090302 0.329289 -0.172344 0.119866
    22 -0.033420 -1.397129 -0.011257 -1.115580 0.000000 -0.000001
    23 -0.022360 -0.957436 0.018784 -1.148807 0.000000 0.000000
    24 -1.180681 -2.507217 -0.193859 -0.309305 0.033033 -0.314313
    25 -0.024967 -1.123934 0.017597 -2.040737 0.000000 0.000001
    26 -0.020057 -0.890968 0.010090 -0.646720 0.000000 0.000000
    27 0.583510 -1.197277 0.185379 0.371183 -0.693166 -0.903076
    28 1.535927 0.010246 0.005009 -0.002964 -0.012979 -0.682290
    29 1.100771 0.004527 -0.010679 -0.016147 -0.001453 -1.484153
    30 0.120153 -0.050270 -0.054489 0.287569 3.110905 1.561085
    31 6.264587 -7.020377 -14.517351 -1.235985 -5.221711 -1.052172
    32 0.096944 -8.450418 -0.009365 0.075477 -1.267951 0.356836
    33 0.447953 -2.798986 -0.200443 -0.761409 0.042804 0.170619
    34 -0.032909 -1.480204 0.004940 -1.480158 0.000000 0.000002
    35 -0.027022 -1.076920 -0.020210 -0.375139 0.000000 0.000000
    36 -0.249534 -2.846964 -0.174213 -0.318570 0.002631 0.073861
    37 0.043235 -1.683941 0.096012 -1.876275 0.002823 -0.000167
    38 0.031729 -1.160830 0.058838 -0.099721 0.000642 0.008372
    39 -0.963866 -2.785145 -0.085350 0.076869 0.070929 0.053157
    40 0.028479 -1.403067 0.006271 -1.337876 0.000000 0.000000
    41 0.021413 -0.957781 0.020046 -1.052178 0.000000 0.000000
    42 1.164475 -2.543940 -0.170330 -1.221966 -0.015463 0.162804
    43 0.024032 -1.129042 0.017807 -0.900867 0.000000 0.000001
    44 0.014898 -0.883989 -0.019848 -0.928571 0.000000 0.000000
    45 -0.586770 -1.264477 0.200161 0.150002 0.013438 -2.613223
    46 1.522835 0.058681 0.016848 0.001410 0.008985 0.624694
    47 1.117947 0.048424 -0.005766 -0.002568 -0.011344 -0.141990
    48 -0.139399 -0.111698 0.014397 0.668541 0.088632 1.606227
    49 -6.260806 6.983652 -0.294122 1.580804 -0.005023 -0.912799
  time 29
    0 -0.349399 1.166145 0.203512 0.000000 0.000000 0.000000
    1 17.667506 -2.331649 -7.781057 0.286298 -1.647631 -0.898939
    2 -0.071918 -8.498730 -0.104136 -0.045385 0.067921 -0.376239
    3 2.558050 -2.903893 0.678143 0.083503 0.128137 -1.585662
    4 5.085894 -0.169122 4.438836 0.000000 0.000000 -1.445198
    5 9.251545 -0.169108 4.438835 0.000000 0.000000 -1.445198
    6 5.085894 -0.169122 -4.328613 0.000000 0.000000 -1.445198
    7 9.251545 -0.169108 -4.328613 0.000000 0.000000 -1.445198
    8 3.030026 4.195034 0.000000 0.000000 0.000000 0.087260
    9 -0.883102 0.191146 0.000000 0.000000 0.000000 0.000000
    10 18.744316 0.287796 0.000000 0.000000 0.000000 1.570796
    11 5.130177 -0.816431 2.191659 -1.452358 -3.141592 -6.034110
    12 4.769700 2.625547 2.191659 -1.689148 0.000000 0.336290
    13 2.586279 3.199157 3.863884 0.000000 0.000000 1.570796
    14 1.257180 8.762585 -0.153713 -1.570562 0.002683 -1.566807
    15 -0.488518 -2.755602 -0.228260 -0.518305 -0.074854 -0.310571
    16 0.039887 -1.479790 0.029854 -2.289231 0.000000 0.000001
    17 0.028786 -1.075731 -0.023109 -0.271941 0.000000 0.000000
    18 0.250027 -2.820665 -0.238396 -0.350825 -0.052441 -0.187301
    19 -0.049759 -1.680544 0.100479 -2.246572 0.000000 -0.000002
    20 -0.034142 -1.148312 0.084782 -0.535851 0.000000 0.000000
    21 0.957766 -2.746780 -0.090302 0.329289 -0.172344 0.119866
    22 -0.033420 -1.397129 -0.011257 -1.115580 0.000000 -0.000001
    23 -0.022360 -0.957436 0.018784 -1.148807 0.000000 0.000000
    24 -1.180681 -2.507217 -0.193859 -0.309305 0.033033 -0.314313
    25 -0.024967 -1.123934 0.017597 -2.040737 0.000000 0.000001
    26 -0.020057 -0.890968 0.010090 -0.646720 0.000000 0.000000
    27 0.583510 -1.197277 0.185379 0.371183 -0.693166 -0.903076
    28 1.535927 0.010246 0.005009 -0.002964 -0.012979 -0.682269
    29 1.100771 0.004527 -0.010679 -0.016147 -0.001453 -1.484153
    30 0.120153 -0.050270 -0.054489 0.287569 3.110905 1.561085
    31 6.315370 -7.051628 -14.552509 -1.227074 -5.227289 -1.047214
    32 0.096944 -8.450418 -0.009365 0.075477 -1.267951 0.356836
    33 0.447953 -2.798986 -0.200443 -0.761409 0.042804 0.170619
    34 -0.032909 -1.480204 0.004940 -1.480158 0.000000 0.000002
    35 -0.027022 -1.076920 -0.020210 -0.375139 0.000000 0.000000
    36 -0.249534 -2.846964 -0.174213 -0.318570 0.002631 0.073861
    37 0.043235 -1.683941 0.096012 -1.876275 0.002823 -0.000167
    38 0.031729 -1.160830 0.058838 -0.099721 0.000642 0.008372
    39 -0.963866 -2.785145 -0.085350 0.076869 0.070929 0.053157
    40 0.028479 -1.403067 0.006271 -1.337876 0.000000 0.000000
    41 0.021413 -0.957781 0.020046 -1.052178 0.000000 0.000000
    42 1.164475 -2.543940 -0.170330 -1.221966 -0.015463 0.162804
    43 0.024032 -1.129042 0.017807 -0.900867 0.000000 0.000001
    44 0.014898 -0.883989 -0.019848 -0.928571 0.000000 0.000000
    45 -0.586770 -1.264477 0.200161 0.150002 0.013438 -2.613223
    46 1.522835 0.058681 0.016848 0.001410 0.008985 0.624694
    47 1.117947 0.048424 -0.005766 -0.002568 -0.011344 -0.141990
    48 -0.139399 -0.111698 0.014397 0.668541 0.088632 1.606227
    49 -6.260806 6.983652 -0.294122 1.580804 -0.005023 -0.912799
  time 30
    0 -0.349399 1.166145 0.203512 0.000000 0.000000 0.000000
    1 17.675318 -2.351181 -7.777151 0.263400 -1.651794 -0.877197
    2 -0.071918 -8.498730 -0.104136 -0.045385 0.067921 -0.376239
    3 2.558050 -2.903893 0.678143 0.083503 0.128137 -1.585662
    4 5.085894 -0.169122 4.438836 0.000000 0.000000 -1.570796
    5 9.251545 -0.169108 4.438835 0.000000 0.000000 -1.570796
    6 5.085894 -0.169122 -4.328613 0.000000 0.000000 -1.570796
    7 9.251545 -0.169108 -4.328613 0.000000 0.000000 -1.570796
    8 3.030026 4.195034 0.000000 0.000000 0.000000 0.087260
    9 -0.883102 0.191146 0.000000 0.000000 0.000000 0.000000
    10 18.744316 0.287796 0.000000 0.000000 0.000000 1.570796
    11 5.130177 -0.816431 2.191659 -1.447852 3.141496 -6.034110
    12 4.769700 2.625547 2.191659 -1.693691 0.000000 0.336290
    13 2.586279 3.199157 3.863884 0.000000 0.000000 1.570796
    14 1.257180 8.762585 -0.153713 -1.570562 0.002683 -1.566807
    15 -0.488518 -2.755602 -0.228260 -0.518305 -0.074854 -0.310571
    16 0.039887 -1.479790 0.029854 -2.289231 0.000000 0.000001
    17 0.028786 -1.075731 -0.023109 -0.271941 0.000000 0.000000
    18 0.250027 -2.820665 -0.238396 -0.350825 -0.052441 -0.187301
    19 -0.049759 -1.680544 0.100479 -2.246572 0.000000 -0.000002
    20 -0.034142 -1.148312 0.084782 -0.535851 0.000000 0.000000
    21 0.957766 -2.746780 -0.090302 0.329289 -0.172344 0.119866
    22 -0.033420 -1.397129 -0.011257 -1.115580 0.000000 -0.000001
    23 -0.022360 -0.957436 0.018784 -1.148807 0.000000 0.000000
    24 -1.180681 -2.507217 -0.193859 -0.309305 0.033033 -0.314313
    25 -0.024967 -1.123934 0.017597 -2.040737 0.000000 0.000001
    26 -0.020057 -0.890968 0.010090 -0.646720 0.000000 0.000000
    27 0.583510 -1.197277 0.185379 0.371183 -0.693166 -0.903076
    28 1.535927 0.010246 0.005009 -0.002964 -0.012979 -0.682290
    29 1.100771 0.004527 -0.010679 -0.016147 -0.001453 -1.484153
    30 0.120153 -0.050270 -0.054489 0.287569 3.110905 1.561085
    31 6.342714 -7.071160 -14.583760 -1.222124 -5.231120 -1.044164
    32 0.096944 -8.450418 -0.009365 0.075477 -1.267951 0.356836
    33 0.447953 -2.798986 -0.200443 -0.761409 0.042804 0.170619
    34 -0.032909 -1.480204 0.004940 -1.480158 0.000000 0.000002
    35 -0.027022 -1.076920 -0.020210 -0.375139 0.000000 0.000000
    36 -0.249534 -2.846964 -0.174213 -0.318570 0.002631 0.073861
    37 0.043235 -1.683941 0.096012 -1.876275 0.002823 -0.000167
    38 0.031729 -1.160830 0.058838 -0.099721 0.000642 0.008372
    39 -0.963866 -2.785145 -0.085350 0.076869 0.070929 0.053157
    40 0.028479 -1.403067 0.006271 -1.337876 0.000000 0.000000
    41 0.021413 -0.957781 0.020046 -1.052178 0.000000 0.000000
    42 1.164475 -2.543940 -0.170330 -1.221966 -0.015463 0.162804
    43 0.024032 -1.129042 0.017807 -0.900867 0.000000 0.000001
    44 0.014898 -0.883989 -0.019848 -0.928571 0.000000 0.000000
    45 -0.586770 -1.264477 0.200161 0.150002 0.013438 -2.613223
    46 1.522835 0.058681 0.016848 0.001410 0.008985 0.624694
    47 1.117947 0.048424 -0.005766 -0.002568 -0.011344 -0.141990
    48 -0.139399 -0.111698 0.014397 0.668541 0.088632 1.606227
    49 -6.260806 6.983652 -0.294122 1.580804 -0.005023 -0.912799
end
