// Created by Crowbar 0.34.0.0

$ModelName "weapons/tfa_cso/w_m32.mdl"

$BodyGroup "studio"
{
	studio "v_m32_v_ref_partB"
}

$collisionmodel "v_m32_v_ref_partB.smd"
{
	$mass 9
}

$CDMaterials "models\weapons\tfa_cso\m32\"

$attachment "0" "root" 9.80 -0.40 0.00 rotate -0 0 0

$Sequence "idle" {
	"anims\idle.smd"
	fps 30
}