version 1
nodes
  0 "Bone_Root" -1
  1 "Bone01" 0
  2 "Bone_Lefthand" 1
  3 "Axe_Root" 2
  4 "storm_giant2" 3
  5 "ruby" 3
  6 "storm_giant1" 3
  7 "Point_glow" 3
  8 "glow_sg" 7
  9 "p_blade02" -1
  10 "ef_blade3" 9
  11 "ef_blade4" 9
  12 "Point_ef21" -1
  13 "ef_21" 12
  14 "Point_ef22" -1
  15 "ef_22" 14
  16 "Point_ef23" -1
  17 "ef_23" 16
  18 "Point_ef24" -1
  19 "ef_24" 18
  20 "Point_ef11" -1
  21 "ef_11" 20
  22 "Point_ef12" -1
  23 "ef_12" 22
  24 "Point_ef13" -1
  25 "ef_13" 24
  26 "Point_ef14" -1
  27 "ef_14" 26
  28 "p_blade01" -1
  29 "ef_blade2" 28
  30 "ef_blade1" 28
  31 "ef_sg2" 3
  32 "Bone13" 2
  33 "Bone14" 32
  34 "Bone15" 33
  35 "Bone17" 2
  36 "Bone18" 35
  37 "Bone19" 36
  38 "Bone21" 2
  39 "Bone22" 38
  40 "Bone23" 39
  41 "Bone09" 2
  42 "Bone10" 41
  43 "Bone11" 42
  44 "Bone05" 2
  45 "Bone06" 44
  46 "Bone07" 45
  47 "Bone_Se_Hand-L" 2
  48 "Bone_L_Upper" 1
  49 "Bone04" 0
  50 "Bone_Righthand" 49
  51 "Bone39" 50
  52 "Bone40" 51
  53 "Bone41" 52
  54 "Bone35" 50
  55 "Bone36" 54
  56 "Bone37" 55
  57 "Bone31" 50
  58 "Bone32" 57
  59 "Bone33" 58
  60 "Bone43" 50
  61 "Bone44" 60
  62 "Bone45" 61
  63 "Bone27" 50
  64 "Bone28" 63
  65 "Bone29" 64
  66 "Bone_Se_Hand-R" 50
  67 "Bone_R_Upper" 49
end
skeleton
  time 0
    0 3.066500 -2.200603 -1.918442 0.000000 0.000000 0.000000
    1 -2.602661 -4.410105 -8.686384 0.091738 -3.354324 -0.520330
    2 -0.071918 -8.498728 -0.104138 0.418476 0.281205 0.066061
    3 5.428935 -2.742991 2.081221 1.701317 -0.175189 -0.077178
    4 0.434196 -0.023741 -0.000005 1.570797 0.000000 1.570796
    5 0.434196 -0.023741 -0.000005 1.570797 0.000000 1.570796
    6 0.434196 -0.023742 -0.000005 1.570797 0.000000 1.570796
    7 15.961483 -3.765536 -0.615457 -1.570796 -0.000002 0.007959
    8 0.000000 0.000000 0.000001 0.000000 0.000000 0.000000
    9 -49.997620 0.002380 -118.792725 0.000000 0.000000 0.000000
    10 -20.015503 -0.619970 -0.031143 -3.141592 -1.570796 0.000000
    11 19.849365 -0.727911 0.034821 -3.141592 -1.570796 0.000000
    12 -0.003332 -19.996704 815.310364 1.570796 0.000000 -3.141640
    13 0.000000 0.000000 0.000000 0.000000 0.000000 0.000000
    14 -49.997045 -19.998230 815.310364 1.570796 0.000000 -3.141640
    15 0.000000 0.000000 0.000000 0.000000 0.000000 0.000000
    16 -99.998571 -19.999756 815.310364 1.570796 0.000000 -3.141640
    17 0.000000 0.000000 0.000000 0.000000 0.000000 0.000000
    18 -149.996038 -19.994857 815.310364 1.570796 0.000000 -3.141640
    19 0.000000 0.000000 0.000000 0.000000 0.000000 0.000000
    20 -178.552612 -3.494458 0.000000 1.570796 0.000000 -3.141592
    21 0.000000 0.000000 0.000000 0.000000 0.000000 0.000000
    22 -183.020752 -3.494322 0.000000 1.570796 0.000000 -3.141655
    23 0.000000 0.000000 0.000000 0.000000 0.000000 0.000000
    24 -187.558501 -3.499998 0.000000 1.570796 0.000000 -3.141640
    25 0.000000 0.000000 0.000000 0.000000 0.000000 0.000000
    26 -191.976623 -3.500001 0.000000 1.570796 0.000000 -3.141608
    27 0.000000 0.000000 0.000000 0.000000 0.000000 0.000000
    28 -44.752238 17.523545 -36.366337 0.909822 0.539335 2.573391
    29 19.998592 -0.028402 -0.021359 -3.141592 -1.570796 0.000000
    30 -19.865417 -0.019396 -0.021363 -3.141592 -1.570796 0.000000
    31 17.833788 -0.023750 -0.000008 1.570796 0.000000 1.570796
    32 -0.488517 -2.755600 -0.228261 -0.877476 -0.263816 -0.213064
    33 0.039887 -1.479790 0.029853 -1.267878 0.000000 0.000000
    34 0.028785 -1.075733 -0.023111 -0.783299 0.000000 0.000000
    35 0.250028 -2.820663 -0.238396 -0.842273 -0.277021 -0.076516
    36 -0.049759 -1.680546 0.100480 -1.360762 0.000000 -0.000002
    37 -0.034141 -1.148310 0.084779 -1.087312 0.000000 0.000000
    38 0.957766 -2.746775 -0.090300 -0.872296 -0.346648 -0.000831
    39 -0.033419 -1.397129 -0.011255 -1.057871 0.000000 -0.000001
    40 -0.022360 -0.957434 0.018783 -0.781553 0.000000 0.000000
    41 -1.180680 -2.507215 -0.193861 -0.644287 -0.205689 -0.121170
    42 -0.024966 -1.123932 0.017594 -1.190463 0.000000 0.000001
    43 -0.020058 -0.890965 0.010091 -0.846171 0.000000 0.000000
    44 0.583510 -1.197275 0.185377 -0.481120 -1.148612 0.275251
    45 1.535926 0.010246 0.005008 -0.002964 -0.012979 -0.925299
    46 1.100770 0.004526 -0.010676 -0.013271 0.009322 -0.781956
    47 0.120152 -0.050266 -0.054488 0.287568 3.110905 1.561085
    48 4.351023 7.336754 -0.153718 -1.570562 0.002683 -2.003139
    49 -16.228287 -2.622949 -10.929850 -0.267131 -5.783009 0.314857
    50 0.096944 -8.450419 -0.009364 -0.120227 -0.297907 -0.004663
    51 0.447952 -2.798983 -0.200442 -0.536563 -0.105218 -0.215525
    52 -0.032909 -1.480204 0.004936 -1.713459 0.000000 0.000002
    53 -0.027022 -1.076920 -0.020212 -1.394127 0.000000 0.000000
    54 -0.249534 -2.846960 -0.174215 -0.474573 -0.103780 -0.196962
    55 0.043235 -1.683941 0.096014 -1.812837 0.002823 -0.000167
    56 0.031729 -1.160830 0.058836 -1.436444 0.000642 0.008372
    57 -0.963867 -2.785143 -0.085346 -0.680231 0.037013 -0.315824
    58 0.028479 -1.403067 0.006271 -1.469564 0.000000 0.000000
    59 0.021414 -0.957779 0.020047 -1.130578 0.000000 0.000000
    60 1.164475 -2.543938 -0.170328 -0.006953 -0.117380 -0.352066
    61 0.024033 -1.129042 0.017806 -1.500170 -0.079721 -0.035509
    62 0.014896 -0.883989 -0.019845 -1.282532 0.000000 0.000000
    63 -0.586770 -1.264477 0.200164 0.019915 -1.031383 -2.983168
    64 1.522835 0.058681 0.016850 0.001410 0.008985 1.087565
    65 1.117948 0.048424 -0.005764 -0.014648 -0.020512 0.676414
    66 -0.139399 -0.111698 0.014397 0.285382 -0.030687 1.580508
    67 -1.393470 8.839177 -0.239434 1.580804 -0.005023 -1.566847
  time 1
    0 3.066500 -2.200603 -1.918442 0.000000 0.000000 0.000000
    1 -2.145615 -3.496014 -8.596537 0.150741 -3.298758 -0.468256
    2 -0.071918 -8.498728 -0.104138 0.469520 0.246124 0.044677
    3 5.428935 -2.742991 2.081221 1.706776 -0.175189 -0.077178
    4 0.434196 -0.023741 -0.000005 1.570797 0.000000 1.570796
    5 0.434196 -0.023741 -0.000005 1.570797 0.000000 1.570796
    6 0.434196 -0.023742 -0.000005 1.570797 0.000000 1.570796
    7 15.961483 -3.765536 -0.615457 -1.570796 -0.000002 0.007959
    8 0.000000 0.000000 0.000001 0.000000 0.000000 0.000000
    9 -49.997620 0.002380 -118.792725 0.000000 0.000000 0.000000
    10 -20.015503 -0.619970 -0.031143 -3.141592 -1.570796 0.000000
    11 19.849365 -0.727911 0.034821 -3.141592 -1.570796 0.000000
    12 -0.003332 -19.996704 815.310364 1.570796 0.000000 -3.141640
    13 0.000000 0.000000 0.000000 0.000000 0.000000 0.000000
    14 -49.997045 -19.998230 815.310364 1.570796 0.000000 -3.141640
    15 0.000000 0.000000 0.000000 0.000000 0.000000 0.000000
    16 -99.998571 -19.999756 815.310364 1.570796 0.000000 -3.141640
    17 0.000000 0.000000 0.000000 0.000000 0.000000 0.000000
    18 -149.996038 -19.994857 815.310364 1.570796 0.000000 -3.141640
    19 0.000000 0.000000 0.000000 0.000000 0.000000 0.000000
    20 -178.552612 -3.494458 0.000000 1.570796 0.000000 -3.141592
    21 0.000000 0.000000 0.000000 0.000000 0.000000 0.000000
    22 -183.020752 -3.494322 0.000000 1.570796 0.000000 -3.141655
    23 0.000000 0.000000 0.000000 0.000000 0.000000 0.000000
    24 -187.558501 -3.499998 0.000000 1.570796 0.000000 -3.141640
    25 0.000000 0.000000 0.000000 0.000000 0.000000 0.000000
    26 -191.976623 -3.500001 0.000000 1.570796 0.000000 -3.141608
    27 0.000000 0.000000 0.000000 0.000000 0.000000 0.000000
    28 -44.041279 16.113346 -34.670459 0.909822 0.539335 2.573391
    29 19.998592 -0.028402 -0.021359 -3.141592 -1.570796 0.000000
    30 -19.865417 -0.019396 -0.021363 -3.141592 -1.570796 0.000000
    31 17.833788 -0.023750 -0.000008 1.570796 0.000000 1.570796
    32 -0.488517 -2.755600 -0.228261 -0.877476 -0.263816 -0.213064
    33 0.039887 -1.479790 0.029853 -1.267878 0.000000 0.000000
    34 0.028785 -1.075733 -0.023111 -0.783299 0.000000 0.000000
    35 0.250028 -2.820663 -0.238396 -0.842273 -0.277021 -0.076516
    36 -0.049759 -1.680546 0.100480 -1.360762 0.000000 -0.000002
    37 -0.034141 -1.148310 0.084779 -1.087312 0.000000 0.000000
    38 0.957766 -2.746775 -0.090300 -0.872296 -0.346648 -0.000831
    39 -0.033419 -1.397129 -0.011255 -1.057871 0.000000 -0.000001
    40 -0.022360 -0.957434 0.018783 -0.781553 0.000000 0.000000
    41 -1.180680 -2.507215 -0.193861 -0.644287 -0.205689 -0.121170
    42 -0.024966 -1.123932 0.017594 -1.190463 0.000000 0.000001
    43 -0.020058 -0.890965 0.010091 -0.846171 0.000000 0.000000
    44 0.583510 -1.197275 0.185377 -0.481120 -1.148612 0.275251
    45 1.535926 0.010246 0.005008 -0.002964 -0.012979 -0.925299
    46 1.100770 0.004526 -0.010676 -0.013271 0.009322 -0.781956
    47 0.120152 -0.050266 -0.054488 0.287568 3.110905 1.561085
    48 4.339304 7.340661 -0.153718 -1.570562 0.002683 -2.001501
    49 -13.071941 -2.189342 -11.894723 -0.303469 -5.836571 0.284489
    50 0.096944 -8.450419 -0.009364 -0.120227 -0.297907 -0.004663
    51 0.447952 -2.798983 -0.200442 -0.536563 -0.105218 -0.215525
    52 -0.032909 -1.480204 0.004936 -1.713459 0.000000 0.000002
    53 -0.027022 -1.076920 -0.020212 -1.394127 0.000000 0.000000
    54 -0.249534 -2.846960 -0.174215 -0.474573 -0.103780 -0.196962
    55 0.043235 -1.683941 0.096014 -1.812837 0.002823 -0.000167
    56 0.031729 -1.160830 0.058836 -1.436444 0.000642 0.008372
    57 -0.963867 -2.785143 -0.085346 -0.680231 0.037013 -0.315824
    58 0.028479 -1.403067 0.006271 -1.469564 0.000000 0.000000
    59 0.021414 -0.957779 0.020047 -1.130578 0.000000 0.000000
    60 1.164475 -2.543938 -0.170328 -0.006953 -0.117380 -0.352066
    61 0.024033 -1.129042 0.017806 -1.500170 -0.079721 -0.035509
    62 0.014896 -0.883989 -0.019845 -1.282495 0.000000 0.000000
    63 -0.586770 -1.264477 0.200164 0.019915 -1.031383 -2.983168
    64 1.522835 0.058681 0.016850 0.001410 0.008985 1.087565
    65 1.117948 0.048424 -0.005764 -0.014648 -0.020512 0.676414
    66 -0.139399 -0.111698 0.014397 0.285382 -0.030687 1.580508
    67 -1.393470 8.839177 -0.239434 1.580804 -0.005023 -1.566847
  time 2
    0 3.066500 -2.200603 -1.918442 0.000000 0.000000 0.000000
    1 -0.848701 -1.515485 -8.424657 0.212724 -3.160718 -0.333594
    2 -0.071918 -8.498728 -0.104138 0.497231 0.168978 -0.002359
    3 5.428935 -2.742991 2.081221 1.723142 -0.175189 -0.077178
    4 0.434196 -0.023741 -0.000005 1.570797 0.000000 1.570796
    5 0.434196 -0.023741 -0.000005 1.570797 0.000000 1.570796
    6 0.434196 -0.023742 -0.000005 1.570797 0.000000 1.570796
    7 15.961483 -3.765536 -0.615457 -1.570796 -0.000002 0.007959
    8 0.000000 0.000000 0.000001 0.000000 0.000000 0.000000
    9 -49.997620 0.002380 -118.792725 0.000000 0.000000 0.000000
    10 -20.015503 -0.619970 -0.031143 -3.141592 -1.570796 0.000000
    11 19.849365 -0.727911 0.034821 -3.141592 -1.570796 0.000000
    12 -0.003332 -19.996704 815.310364 1.570796 0.000000 -3.141640
    13 0.000000 0.000000 0.000000 0.000000 0.000000 0.000000
    14 -49.997045 -19.998230 815.310364 1.570796 0.000000 -3.141640
    15 0.000000 0.000000 0.000000 0.000000 0.000000 0.000000
    16 -99.998571 -19.999756 815.310364 1.570796 0.000000 -3.141640
    17 0.000000 0.000000 0.000000 0.000000 0.000000 0.000000
    18 -149.996038 -19.994857 815.310364 1.570796 0.000000 -3.141640
    19 0.000000 0.000000 0.000000 0.000000 0.000000 0.000000
    20 -178.552612 -3.494458 0.000000 1.570796 0.000000 -3.141592
    21 0.000000 0.000000 0.000000 0.000000 0.000000 0.000000
    22 -183.020752 -3.494322 0.000000 1.570796 0.000000 -3.141655
    23 0.000000 0.000000 0.000000 0.000000 0.000000 0.000000
    24 -187.558501 -3.499998 0.000000 1.570796 0.000000 -3.141640
    25 0.000000 0.000000 0.000000 0.000000 0.000000 0.000000
    26 -191.976623 -3.500001 0.000000 1.570796 0.000000 -3.141608
    27 0.000000 0.000000 0.000000 0.000000 0.000000 0.000000
    28 -41.623236 12.621052 -30.275585 0.909822 0.539335 2.573391
    29 19.998592 -0.028402 -0.021359 -3.141592 -1.570796 0.000000
    30 -19.865417 -0.019396 -0.021363 -3.141592 -1.570796 0.000000
    31 17.833788 -0.023750 -0.000008 1.570796 0.000000 1.570796
    32 -0.488517 -2.755600 -0.228261 -0.877476 -0.263816 -0.213064
    33 0.039887 -1.479790 0.029853 -1.267878 0.000000 0.000000
    34 0.028785 -1.075733 -0.023111 -0.783299 0.000000 0.000000
    35 0.250028 -2.820663 -0.238396 -0.842273 -0.277021 -0.076516
    36 -0.049759 -1.680546 0.100480 -1.360762 0.000000 -0.000002
    37 -0.034141 -1.148310 0.084779 -1.087312 0.000000 0.000000
    38 0.957766 -2.746775 -0.090300 -0.872296 -0.346648 -0.000831
    39 -0.033419 -1.397129 -0.011255 -1.057871 0.000000 -0.000001
    40 -0.022360 -0.957434 0.018783 -0.781553 0.000000 0.000000
    41 -1.180680 -2.507215 -0.193861 -0.644287 -0.205689 -0.121170
    42 -0.024966 -1.123932 0.017594 -1.190463 0.000000 0.000001
    43 -0.020058 -0.890965 0.010091 -0.846171 0.000000 0.000000
    44 0.583510 -1.197275 0.185377 -0.481120 -1.148612 0.275251
    45 1.535926 0.010246 0.005008 -0.002964 -0.012979 -0.925299
    46 1.100770 0.004526 -0.010676 -0.013271 0.009322 -0.781956
    47 0.120152 -0.050266 -0.054488 0.287568 3.110905 1.561085
    48 4.304147 7.356286 -0.153718 -1.570562 0.002683 -1.996774
    49 -6.481896 -1.384630 -12.363488 -0.381635 -5.936167 0.227940
    50 0.096944 -8.450419 -0.009364 -0.120227 -0.297907 -0.004663
    51 0.447952 -2.798983 -0.200442 -0.536563 -0.105218 -0.215525
    52 -0.032909 -1.480204 0.004936 -1.713459 0.000000 0.000002
    53 -0.027022 -1.076920 -0.020212 -1.394127 0.000000 0.000000
    54 -0.249534 -2.846960 -0.174215 -0.474573 -0.103780 -0.196962
    55 0.043235 -1.683941 0.096014 -1.812837 0.002823 -0.000167
    56 0.031729 -1.160830 0.058836 -1.436444 0.000642 0.008372
    57 -0.963867 -2.785143 -0.085346 -0.680231 0.037013 -0.315824
    58 0.028479 -1.403067 0.006271 -1.469564 0.000000 0.000000
    59 0.021414 -0.957779 0.020047 -1.130578 0.000000 0.000000
    60 1.164475 -2.543938 -0.170328 -0.006953 -0.117380 -0.352066
    61 0.024033 -1.129042 0.017806 -1.500170 -0.079721 -0.035509
    62 0.014896 -0.883989 -0.019845 -1.282495 0.000000 0.000000
    63 -0.586770 -1.264477 0.200164 0.019915 -1.031383 -2.983168
    64 1.522835 0.058681 0.016850 0.001410 0.008985 1.087565
    65 1.117948 0.048424 -0.005764 -0.014648 -0.020512 0.676414
    66 -0.139399 -0.111698 0.014397 0.285382 -0.030687 1.580508
    67 -1.393470 8.839177 -0.239434 1.580804 -0.005023 -1.566847
  time 3
    0 3.066500 -2.200603 -1.918442 0.000000 0.000000 0.000000
    1 1.194330 0.383010 -8.330904 0.268396 -2.983238 -0.148834
    2 -0.071918 -8.498728 -0.104138 0.513683 0.091777 -0.049396
    3 5.428935 -2.742991 2.081221 1.750412 -0.175189 -0.077178
    4 0.434196 -0.023741 -0.000005 1.570797 0.000000 1.570796
    5 0.434196 -0.023741 -0.000005 1.570797 0.000000 1.570796
    6 0.434196 -0.023742 -0.000005 1.570797 0.000000 1.570796
    7 15.961483 -3.765536 -0.615457 -1.570796 -0.000002 0.007959
    8 0.000000 0.000000 0.000001 0.000000 0.000000 0.000000
    9 -49.997620 0.002380 -118.792725 0.000000 0.000000 0.000000
    10 -20.015503 -0.619970 -0.031143 -3.141592 -1.570796 0.000000
    11 19.849365 -0.727911 0.034821 -3.141592 -1.570796 0.000000
    12 -0.003332 -19.996704 815.310364 1.570796 0.000000 -3.141640
    13 0.000000 0.000000 0.000000 0.000000 0.000000 0.000000
    14 -49.997045 -19.998230 815.310364 1.570796 0.000000 -3.141640
    15 0.000000 0.000000 0.000000 0.000000 0.000000 0.000000
    16 -99.998571 -19.999756 815.310364 1.570796 0.000000 -3.141640
    17 0.000000 0.000000 0.000000 0.000000 0.000000 0.000000
    18 -149.996038 -19.994857 815.310364 1.570796 0.000000 -3.141640
    19 0.000000 0.000000 0.000000 0.000000 0.000000 0.000000
    20 -178.552612 -3.494458 0.000000 1.570796 0.000000 -3.141592
    21 0.000000 0.000000 0.000000 0.000000 0.000000 0.000000
    22 -183.020752 -3.494322 0.000000 1.570796 0.000000 -3.141655
    23 0.000000 0.000000 0.000000 0.000000 0.000000 0.000000
    24 -187.558501 -3.499998 0.000000 1.570796 0.000000 -3.141640
    25 0.000000 0.000000 0.000000 0.000000 0.000000 0.000000
    26 -191.976623 -3.500001 0.000000 1.570796 0.000000 -3.141608
    27 0.000000 0.000000 0.000000 0.000000 0.000000 0.000000
    28 -37.060597 8.163884 -24.256881 0.909822 0.539335 2.573391
    29 19.998592 -0.028402 -0.021359 -3.141592 -1.570796 0.000000
    30 -19.865417 -0.019396 -0.021363 -3.141592 -1.570796 0.000000
    31 17.833788 -0.023750 -0.000008 1.570796 0.000000 1.570796
    32 -0.488517 -2.755600 -0.228261 -0.877476 -0.263816 -0.213064
    33 0.039887 -1.479790 0.029853 -1.267878 0.000000 0.000000
    34 0.028785 -1.075733 -0.023111 -0.783299 0.000000 0.000000
    35 0.250028 -2.820663 -0.238396 -0.842273 -0.277021 -0.076516
    36 -0.049759 -1.680546 0.100480 -1.360762 0.000000 -0.000002
    37 -0.034141 -1.148310 0.084779 -1.087312 0.000000 0.000000
    38 0.957766 -2.746775 -0.090300 -0.872296 -0.346648 -0.000831
    39 -0.033419 -1.397129 -0.011255 -1.057871 0.000000 -0.000001
    40 -0.022360 -0.957434 0.018783 -0.781553 0.000000 0.000000
    41 -1.180680 -2.507215 -0.193861 -0.644287 -0.205689 -0.121170
    42 -0.024966 -1.123932 0.017594 -1.190463 0.000000 0.000001
    43 -0.020058 -0.890965 0.010091 -0.846171 0.000000 0.000000
    44 0.583510 -1.197275 0.185377 -0.481120 -1.148612 0.275251
    45 1.535926 0.010246 0.005008 -0.002964 -0.012979 -0.925299
    46 1.100770 0.004526 -0.010676 -0.013271 0.009322 -0.781956
    47 0.120152 -0.050266 -0.054488 0.287568 3.110905 1.561085
    48 4.253364 7.383631 -0.153718 -1.570562 0.002683 -1.989184
    49 -0.743440 -0.951023 -12.488491 -0.455137 -5.989730 0.197477
    50 0.096944 -8.450419 -0.009364 -0.120227 -0.297907 -0.004663
    51 0.447952 -2.798983 -0.200442 -0.536563 -0.105218 -0.215525
    52 -0.032909 -1.480204 0.004936 -1.713459 0.000000 0.000002
    53 -0.027022 -1.076920 -0.020212 -1.394127 0.000000 0.000000
    54 -0.249534 -2.846960 -0.174215 -0.474573 -0.103780 -0.196962
    55 0.043235 -1.683941 0.096014 -1.812837 0.002823 -0.000167
    56 0.031729 -1.160830 0.058836 -1.436444 0.000642 0.008372
    57 -0.963867 -2.785143 -0.085346 -0.680231 0.037013 -0.315824
    58 0.028479 -1.403067 0.006271 -1.469564 0.000000 0.000000
    59 0.021414 -0.957779 0.020047 -1.130578 0.000000 0.000000
    60 1.164475 -2.543938 -0.170328 -0.006953 -0.117380 -0.352066
    61 0.024033 -1.129042 0.017806 -1.500170 -0.079721 -0.035509
    62 0.014896 -0.883989 -0.019845 -1.282495 0.000000 0.000000
    63 -0.586770 -1.264477 0.200164 0.019915 -1.031383 -2.983168
    64 1.522835 0.058681 0.016850 0.001410 0.008985 1.087565
    65 1.117948 0.048424 -0.005764 -0.014648 -0.020512 0.676414
    66 -0.139399 -0.111698 0.014397 0.285382 -0.030687 1.580508
    67 -1.393470 8.839177 -0.239434 1.580804 -0.005023 -1.566847
  time 4
    0 3.066500 -2.200603 -1.918442 0.000000 0.000000 0.000000
    1 4.495212 2.054936 -10.178617 0.308549 -2.809259 0.053406
    2 -0.071918 -8.498728 -0.104138 0.531031 0.056696 -0.070780
    3 5.428935 -2.742991 2.081221 1.788589 -0.175189 -0.077178
    4 0.434196 -0.023741 -0.000005 1.570797 0.000000 1.570796
    5 0.434196 -0.023741 -0.000005 1.570797 0.000000 1.570796
    6 0.434196 -0.023742 -0.000005 1.570797 0.000000 1.570796
    7 15.961483 -3.765536 -0.615457 -1.570796 -0.000002 0.007959
    8 0.000000 0.000000 0.000001 0.000000 0.000000 0.000000
    9 -49.997620 0.002380 -118.792725 0.000000 0.000000 0.000000
    10 -20.015503 -0.619970 -0.031143 -3.141592 -1.570796 0.000000
    11 19.849365 -0.727911 0.034821 -3.141592 -1.570796 0.000000
    12 -0.003332 -19.996704 815.310364 1.570796 0.000000 -3.141640
    13 0.000000 0.000000 0.000000 0.000000 0.000000 0.000000
    14 -49.997045 -19.998230 815.310364 1.570796 0.000000 -3.141640
    15 0.000000 0.000000 0.000000 0.000000 0.000000 0.000000
    16 -99.998571 -19.999756 815.310364 1.570796 0.000000 -3.141640
    17 0.000000 0.000000 0.000000 0.000000 0.000000 0.000000
    18 -149.996038 -19.994857 815.310364 1.570796 0.000000 -3.141640
    19 0.000000 0.000000 0.000000 0.000000 0.000000 0.000000
    20 -178.552612 -3.494458 0.000000 1.570796 0.000000 -3.141592
    21 0.000000 0.000000 0.000000 0.000000 0.000000 0.000000
    22 -183.020752 -3.494322 0.000000 1.570796 0.000000 -3.141655
    23 0.000000 0.000000 0.000000 0.000000 0.000000 0.000000
    24 -187.558501 -3.499998 0.000000 1.570796 0.000000 -3.141640
    25 0.000000 0.000000 0.000000 0.000000 0.000000 0.000000
    26 -191.976623 -3.500001 0.000000 1.570796 0.000000 -3.141608
    27 0.000000 0.000000 0.000000 0.000000 0.000000 0.000000
    28 -29.923661 3.847346 -17.667342 0.909822 0.539335 2.573391
    29 19.998592 -0.028402 -0.021359 -3.141592 -1.570796 0.000000
    30 -19.865417 -0.019396 -0.021363 -3.141592 -1.570796 0.000000
    31 17.833788 -0.023750 -0.000008 1.570796 0.000000 1.570796
    32 -0.488517 -2.755600 -0.228261 -0.877476 -0.263816 -0.213064
    33 0.039887 -1.479790 0.029853 -1.267878 0.000000 0.000000
    34 0.028785 -1.075733 -0.023111 -0.783299 0.000000 0.000000
    35 0.250028 -2.820663 -0.238396 -0.842273 -0.277021 -0.076516
    36 -0.049759 -1.680546 0.100480 -1.360762 0.000000 -0.000002
    37 -0.034141 -1.148310 0.084779 -1.087312 0.000000 0.000000
    38 0.957766 -2.746775 -0.090300 -0.872296 -0.346648 -0.000831
    39 -0.033419 -1.397129 -0.011255 -1.057871 0.000000 -0.000001
    40 -0.022360 -0.957434 0.018783 -0.781553 0.000000 0.000000
    41 -1.180680 -2.507215 -0.193861 -0.644287 -0.205689 -0.121170
    42 -0.024966 -1.123932 0.017594 -1.190463 0.000000 0.000001
    43 -0.020058 -0.890965 0.010091 -0.846171 0.000000 0.000000
    44 0.583510 -1.197275 0.185377 -0.481120 -1.148612 0.275251
    45 1.535926 0.010246 0.005008 -0.002964 -0.012979 -0.925299
    46 1.100770 0.004526 -0.010676 -0.013271 0.009322 -0.781956
    47 0.120152 -0.050266 -0.054488 0.287568 3.110905 1.561085
    48 4.179143 7.414882 -0.153718 -1.570562 0.002683 -1.978958
    49 1.115992 -1.572136 -12.297079 -0.514420 -5.970192 0.334563
    50 0.096944 -8.450419 -0.009364 -0.120227 -0.297907 -0.004663
    51 0.447952 -2.798983 -0.200442 -0.536563 -0.105218 -0.215525
    52 -0.032909 -1.480204 0.004936 -1.713459 0.000000 0.000002
    53 -0.027022 -1.076920 -0.020212 -1.394127 0.000000 0.000000
    54 -0.249534 -2.846960 -0.174215 -0.474573 -0.103780 -0.196962
    55 0.043235 -1.683941 0.096014 -1.812837 0.002823 -0.000167
    56 0.031729 -1.160830 0.058836 -1.436444 0.000642 0.008372
    57 -0.963867 -2.785143 -0.085346 -0.680231 0.037013 -0.315824
    58 0.028479 -1.403067 0.006271 -1.469564 0.000000 0.000000
    59 0.021414 -0.957779 0.020047 -1.130578 0.000000 0.000000
    60 1.164475 -2.543938 -0.170328 -0.006953 -0.117380 -0.352066
    61 0.024033 -1.129042 0.017806 -1.500170 -0.079721 -0.035509
    62 0.014896 -0.883989 -0.019845 -1.282532 0.000000 0.000000
    63 -0.586770 -1.264477 0.200164 0.019915 -1.031383 -2.983168
    64 1.522835 0.058681 0.016850 0.001410 0.008985 1.087565
    65 1.117948 0.048424 -0.005764 -0.014648 -0.020512 0.676414
    66 -0.139399 -0.111698 0.014397 0.285382 -0.030687 1.580508
    67 -1.393470 8.839177 -0.239434 1.580804 -0.005023 -1.566847
  time 5
    0 3.066500 -2.200603 -1.918442 0.000000 0.000000 0.000000
    1 9.327391 2.988559 -12.022423 0.323979 -2.681724 0.240822
    2 -0.071918 -8.498728 -0.104138 0.552987 0.086180 -0.051263
    3 5.428935 -2.742991 2.081221 1.844741 -0.175189 -0.077178
    4 0.434196 -0.023741 -0.000005 1.570797 0.000000 1.570796
    5 0.434196 -0.023741 -0.000005 1.570797 0.000000 1.570796
    6 0.434196 -0.023742 -0.000005 1.570797 0.000000 1.570796
    7 15.961483 -3.765536 -0.615457 -1.570796 -0.000002 0.007959
    8 0.000000 0.000000 0.000001 0.000000 0.000000 0.000000
    9 -49.997620 0.002380 -118.792725 0.000000 0.000000 0.000000
    10 -20.015503 -0.619970 -0.031143 -3.141592 -1.570796 0.000000
    11 19.849365 -0.727911 0.034821 -3.141592 -1.570796 0.000000
    12 -0.003332 -19.996704 815.310364 1.570796 0.000000 -3.141640
    13 0.000000 0.000000 0.000000 0.000000 0.000000 0.000000
    14 -49.997045 -19.998230 815.310364 1.570796 0.000000 -3.141640
    15 0.000000 0.000000 0.000000 0.000000 0.000000 0.000000
    16 -99.998571 -19.999756 815.310364 1.570796 0.000000 -3.141640
    17 0.000000 0.000000 0.000000 0.000000 0.000000 0.000000
    18 -149.996038 -19.994857 815.310364 1.570796 0.000000 -3.141640
    19 0.000000 0.000000 0.000000 0.000000 0.000000 0.000000
    20 -178.552612 -3.494458 0.000000 1.570796 0.000000 -3.141592
    21 0.000000 0.000000 0.000000 0.000000 0.000000 0.000000
    22 -183.020752 -3.494322 0.000000 1.570796 0.000000 -3.141655
    23 0.000000 0.000000 0.000000 0.000000 0.000000 0.000000
    24 -187.558501 -3.499998 0.000000 1.570796 0.000000 -3.141640
    25 0.000000 0.000000 0.000000 0.000000 0.000000 0.000000
    26 -191.976623 -3.500001 0.000000 1.570796 0.000000 -3.141608
    27 0.000000 0.000000 0.000000 0.000000 0.000000 0.000000
    28 -20.001483 -0.094180 -10.651062 0.935031 0.543392 2.614393
    29 19.998592 -0.028402 -0.021359 -3.141592 -1.570796 0.000000
    30 -19.865417 -0.019396 -0.021363 -3.141592 -1.570796 0.000000
    31 17.833788 -0.023750 -0.000008 1.570796 0.000000 1.570796
    32 -0.488517 -2.755600 -0.228261 -0.877476 -0.263816 -0.213064
    33 0.039887 -1.479790 0.029853 -1.267878 0.000000 0.000000
    34 0.028785 -1.075733 -0.023111 -0.783299 0.000000 0.000000
    35 0.250028 -2.820663 -0.238396 -0.842273 -0.277021 -0.076516
    36 -0.049759 -1.680546 0.100480 -1.360762 0.000000 -0.000002
    37 -0.034141 -1.148310 0.084779 -1.087312 0.000000 0.000000
    38 0.957766 -2.746775 -0.090300 -0.872296 -0.346648 -0.000831
    39 -0.033419 -1.397129 -0.011255 -1.057871 0.000000 -0.000001
    40 -0.022360 -0.957434 0.018783 -0.781553 0.000000 0.000000
    41 -1.180680 -2.507215 -0.193861 -0.644287 -0.205689 -0.121170
    42 -0.024966 -1.123932 0.017594 -1.190463 0.000000 0.000001
    43 -0.020058 -0.890965 0.010091 -0.846171 0.000000 0.000000
    44 0.583510 -1.197275 0.185377 -0.481120 -1.148612 0.275251
    45 1.535926 0.010246 0.005008 -0.002964 -0.012979 -0.925299
    46 1.100770 0.004526 -0.010676 -0.013271 0.009322 -0.781956
    47 0.120152 -0.050266 -0.054488 0.287568 3.110905 1.561085
    48 4.089297 7.457852 -0.153718 -1.570562 0.002683 -1.966361
    49 3.123866 -2.482320 -11.371270 -0.545792 -5.940933 0.529721
    50 0.096944 -8.450419 -0.009364 -0.120227 -0.297907 -0.004663
    51 0.447952 -2.798983 -0.200442 -0.536563 -0.105218 -0.215525
    52 -0.032909 -1.480204 0.004936 -1.713459 0.000000 0.000002
    53 -0.027022 -1.076920 -0.020212 -1.394127 0.000000 0.000000
    54 -0.249534 -2.846960 -0.174215 -0.474573 -0.103780 -0.196962
    55 0.043235 -1.683941 0.096014 -1.812837 0.002823 -0.000167
    56 0.031729 -1.160830 0.058836 -1.436444 0.000642 0.008372
    57 -0.963867 -2.785143 -0.085346 -0.680231 0.037013 -0.315824
    58 0.028479 -1.403067 0.006271 -1.469564 0.000000 0.000000
    59 0.021414 -0.957779 0.020047 -1.130578 0.000000 0.000000
    60 1.164475 -2.543938 -0.170328 -0.006953 -0.117380 -0.352066
    61 0.024033 -1.129042 0.017806 -1.500170 -0.079721 -0.035509
    62 0.014896 -0.883989 -0.019845 -1.282532 0.000000 0.000000
    63 -0.586770 -1.264477 0.200164 0.019915 -1.031383 -2.983168
    64 1.522835 0.058681 0.016850 0.001410 0.008985 1.087565
    65 1.117948 0.048424 -0.005764 -0.014648 -0.020512 0.676414
    66 -0.139399 -0.111698 0.014397 0.285382 -0.030687 1.580508
    67 -1.393470 8.839177 -0.239434 1.580804 -0.005023 -1.566847
  time 6
    0 3.066500 -2.200603 -1.918442 0.000000 0.000000 0.000000
    1 15.483829 2.371352 -9.514534 0.269711 -2.603213 0.445719
    2 -0.071918 -8.498728 -0.104138 0.572942 0.154015 -0.007383
    3 5.428935 -2.742991 2.081221 1.917872 -0.175189 -0.077178
    4 0.434196 -0.023741 -0.000005 1.570797 0.000000 1.570796
    5 0.434196 -0.023741 -0.000005 1.570797 0.000000 1.570796
    6 0.434196 -0.023742 -0.000005 1.570797 0.000000 1.570796
    7 15.961483 -3.765536 -0.615457 -1.570796 -0.000002 0.007959
    8 0.000000 0.000000 0.000001 0.000000 0.000000 0.000000
    9 -49.997620 0.002380 -118.792725 0.000000 0.000000 0.000000
    10 -20.015503 -0.619970 -0.031143 -3.141592 -1.570796 0.000000
    11 19.849365 -0.727911 0.034821 -3.141592 -1.570796 0.000000
    12 -0.003332 -19.996704 815.310364 1.570796 0.000000 -3.141640
    13 0.000000 0.000000 0.000000 0.000000 0.000000 0.000000
    14 -49.997045 -19.998230 815.310364 1.570796 0.000000 -3.141640
    15 0.000000 0.000000 0.000000 0.000000 0.000000 0.000000
    16 -99.998571 -19.999756 815.310364 1.570796 0.000000 -3.141640
    17 0.000000 0.000000 0.000000 0.000000 0.000000 0.000000
    18 -149.996038 -19.994857 815.310364 1.570796 0.000000 -3.141640
    19 0.000000 0.000000 0.000000 0.000000 0.000000 0.000000
    20 -178.552612 -3.494458 0.000000 1.570796 0.000000 -3.141592
    21 0.000000 0.000000 0.000000 0.000000 0.000000 0.000000
    22 -183.020752 -3.494322 0.000000 1.570796 0.000000 -3.141655
    23 0.000000 0.000000 0.000000 0.000000 0.000000 0.000000
    24 -187.558501 -3.499998 0.000000 1.570796 0.000000 -3.141640
    25 0.000000 0.000000 0.000000 0.000000 0.000000 0.000000
    26 -191.976623 -3.500001 0.000000 1.570796 0.000000 -3.141608
    27 0.000000 0.000000 0.000000 0.000000 0.000000 0.000000
    28 -8.028461 -4.164617 -2.858891 0.998242 0.553567 2.716780
    29 19.998592 -0.028402 -0.021359 -3.141592 -1.570796 0.000000
    30 -19.865417 -0.019396 -0.021363 -3.141592 -1.570796 0.000000
    31 17.833788 -0.023750 -0.000008 1.570796 0.000000 1.570796
    32 -0.488517 -2.755600 -0.228261 -0.877476 -0.263816 -0.213064
    33 0.039887 -1.479790 0.029853 -1.267878 0.000000 0.000000
    34 0.028785 -1.075733 -0.023111 -0.783299 0.000000 0.000000
    35 0.250028 -2.820663 -0.238396 -0.842273 -0.277021 -0.076516
    36 -0.049759 -1.680546 0.100480 -1.360762 0.000000 -0.000002
    37 -0.034141 -1.148310 0.084779 -1.087312 0.000000 0.000000
    38 0.957766 -2.746775 -0.090300 -0.872296 -0.346648 -0.000831
    39 -0.033419 -1.397129 -0.011255 -1.057871 0.000000 -0.000001
    40 -0.022360 -0.957434 0.018783 -0.781553 0.000000 0.000000
    41 -1.180680 -2.507215 -0.193861 -0.644287 -0.205689 -0.121170
    42 -0.024966 -1.123932 0.017594 -1.190463 0.000000 0.000001
    43 -0.020058 -0.890965 0.010091 -0.846171 0.000000 0.000000
    44 0.583510 -1.197275 0.185377 -0.481120 -1.148612 0.275251
    45 1.535926 0.010246 0.005008 -0.002964 -0.012979 -0.925299
    46 1.100770 0.004526 -0.010676 -0.013271 0.009322 -0.781956
    47 0.120152 -0.050266 -0.054488 0.287568 3.110905 1.561085
    48 3.983825 7.504728 -0.153718 -1.570562 0.002683 -1.951607
    49 7.799790 -2.931552 -8.855568 -0.506446 -5.921871 0.654242
    50 0.096944 -8.450419 -0.009364 -0.120227 -0.297907 -0.004663
    51 0.447952 -2.798983 -0.200442 -0.536563 -0.105218 -0.215525
    52 -0.032909 -1.480204 0.004936 -1.713459 0.000000 0.000002
    53 -0.027022 -1.076920 -0.020212 -1.394127 0.000000 0.000000
    54 -0.249534 -2.846960 -0.174215 -0.474573 -0.103780 -0.196962
    55 0.043235 -1.683941 0.096014 -1.812837 0.002823 -0.000167
    56 0.031729 -1.160830 0.058836 -1.436444 0.000642 0.008372
    57 -0.963867 -2.785143 -0.085346 -0.680231 0.037013 -0.315824
    58 0.028479 -1.403067 0.006271 -1.469564 0.000000 0.000000
    59 0.021414 -0.957779 0.020047 -1.130578 0.000000 0.000000
    60 1.164475 -2.543938 -0.170328 -0.006953 -0.117380 -0.352066
    61 0.024033 -1.129042 0.017806 -1.500170 -0.079721 -0.035509
    62 0.014896 -0.883989 -0.019845 -1.282532 0.000000 0.000000
    63 -0.586770 -1.264477 0.200164 0.019915 -1.031383 -2.983168
    64 1.522835 0.058681 0.016850 0.001410 0.008985 1.087565
    65 1.117948 0.048424 -0.005764 -0.014648 -0.020512 0.676414
    66 -0.139399 -0.111698 0.014397 0.285382 -0.030687 1.580508
    67 -1.393470 8.839177 -0.239434 1.580804 -0.005023 -1.566847
  time 7
    0 3.066500 -2.200603 -1.918442 0.000000 0.000000 0.000000
    1 22.448885 0.859587 -3.533883 0.140308 -2.544974 0.689903
    2 -0.071918 -8.498728 -0.104138 0.587412 0.229331 0.039031
    3 5.428935 -2.742991 2.081221 1.995849 -0.175189 -0.077178
    4 0.434196 -0.023741 -0.000005 1.570797 0.000000 1.570796
    5 0.434196 -0.023741 -0.000005 1.570797 0.000000 1.570796
    6 0.434196 -0.023742 -0.000005 1.570797 0.000000 1.570796
    7 15.961483 -3.765536 -0.615457 -1.570796 -0.000002 0.007959
    8 0.000000 0.000000 0.000001 0.000000 0.000000 0.000000
    9 -49.997620 0.002380 -118.792725 0.000000 0.000000 0.000000
    10 -20.015503 -0.619970 -0.031143 -3.141592 -1.570796 0.000000
    11 19.849365 -0.727911 0.034821 -3.141592 -1.570796 0.000000
    12 2.274081 -19.996704 1.617284 -1.570796 0.959918 -6.283137
    13 0.000000 0.000000 0.000000 0.000000 0.000000 0.000000
    14 -49.997045 -19.998230 815.310364 1.570796 0.000000 -3.141640
    15 0.000000 0.000000 0.000000 0.000000 0.000000 0.000000
    16 -99.998571 -19.999756 815.310364 1.570796 0.000000 -3.141640
    17 0.000000 0.000000 0.000000 0.000000 0.000000 0.000000
    18 -149.996038 -19.994857 815.310364 1.570796 0.000000 -3.141640
    19 0.000000 0.000000 0.000000 0.000000 0.000000 0.000000
    20 -178.552612 -3.494458 0.000000 1.570796 0.000000 -3.141592
    21 0.000000 0.000000 0.000000 0.000000 0.000000 0.000000
    22 -183.020752 -3.494322 0.000000 1.570796 0.000000 -3.141655
    23 0.000000 0.000000 0.000000 0.000000 0.000000 0.000000
    24 -187.558501 -3.499998 0.000000 1.570796 0.000000 -3.141640
    25 0.000000 0.000000 0.000000 0.000000 0.000000 0.000000
    26 -191.976623 -3.500001 0.000000 1.570796 0.000000 -3.141608
    27 0.000000 0.000000 0.000000 0.000000 0.000000 0.000000
    28 5.022718 -8.332713 5.337853 1.080455 0.566832 2.849898
    29 19.998592 -0.028402 -0.021359 -3.141592 -1.570796 0.000000
    30 -19.865417 -0.019396 -0.021363 -3.141592 -1.570796 0.000000
    31 17.833788 -0.023750 -0.000008 1.570796 0.000000 1.570796
    32 -0.488517 -2.755600 -0.228261 -0.877476 -0.263816 -0.213064
    33 0.039887 -1.479790 0.029853 -1.267878 0.000000 0.000000
    34 0.028785 -1.075733 -0.023111 -0.783299 0.000000 0.000000
    35 0.250028 -2.820663 -0.238396 -0.842273 -0.277021 -0.076516
    36 -0.049759 -1.680546 0.100480 -1.360762 0.000000 -0.000002
    37 -0.034141 -1.148310 0.084779 -1.087312 0.000000 0.000000
    38 0.957766 -2.746775 -0.090300 -0.872296 -0.346648 -0.000831
    39 -0.033419 -1.397129 -0.011255 -1.057871 0.000000 -0.000001
    40 -0.022360 -0.957434 0.018783 -0.781553 0.000000 0.000000
    41 -1.180680 -2.507215 -0.193861 -0.644287 -0.205689 -0.121170
    42 -0.024966 -1.123932 0.017594 -1.190463 0.000000 0.000001
    43 -0.020058 -0.890965 0.010091 -0.846171 0.000000 0.000000
    44 0.583510 -1.197275 0.185377 -0.481120 -1.148612 0.275251
    45 1.535926 0.010246 0.005008 -0.002964 -0.012979 -0.925299
    46 1.100770 0.004526 -0.010676 -0.013271 0.009322 -0.781956
    47 0.120152 -0.050266 -0.054488 0.287568 3.110905 1.561085
    48 3.866634 7.559417 -0.153718 -1.570562 0.002683 -1.934962
    49 13.163235 -3.236249 -4.992169 -0.404882 -5.903096 0.788853
    50 0.096944 -8.450419 -0.009364 -0.120227 -0.297907 -0.004663
    51 0.447952 -2.798983 -0.200442 -0.536563 -0.105218 -0.215525
    52 -0.032909 -1.480204 0.004936 -1.713459 0.000000 0.000002
    53 -0.027022 -1.076920 -0.020212 -1.394127 0.000000 0.000000
    54 -0.249534 -2.846960 -0.174215 -0.474573 -0.103780 -0.196962
    55 0.043235 -1.683941 0.096014 -1.812837 0.002823 -0.000167
    56 0.031729 -1.160830 0.058836 -1.436444 0.000642 0.008372
    57 -0.963867 -2.785143 -0.085346 -0.680231 0.037013 -0.315824
    58 0.028479 -1.403067 0.006271 -1.469564 0.000000 0.000000
    59 0.021414 -0.957779 0.020047 -1.130578 0.000000 0.000000
    60 1.164475 -2.543938 -0.170328 -0.006953 -0.117380 -0.352066
    61 0.024033 -1.129042 0.017806 -1.500170 -0.079721 -0.035509
    62 0.014896 -0.883989 -0.019845 -1.282495 0.000000 0.000000
    63 -0.586770 -1.264477 0.200164 0.019915 -1.031383 -2.983168
    64 1.522835 0.058681 0.016850 0.001410 0.008985 1.087565
    65 1.117948 0.048424 -0.005764 -0.014648 -0.020512 0.676414
    66 -0.139399 -0.111698 0.014397 0.285382 -0.030687 1.580508
    67 -1.393470 8.839177 -0.239434 1.580804 -0.005023 -1.566847
  time 8
    0 3.066500 -2.200603 -1.918442 0.000000 0.000000 0.000000
    1 29.339720 -1.050627 3.606960 -0.013994 -2.503230 0.924574
    2 -0.071918 -8.498728 -0.104138 0.593021 0.281205 0.066061
    3 5.428935 -2.742991 2.081221 2.066556 -0.175189 -0.077178
    4 0.434196 -0.023741 -0.000005 1.570797 0.000000 1.570796
    5 0.434196 -0.023741 -0.000005 1.570797 0.000000 1.570796
    6 0.434196 -0.023742 -0.000005 1.570797 0.000000 1.570796
    7 15.961483 -3.765536 -0.615457 -1.570796 -0.000002 0.007959
    8 0.000000 0.000000 0.000001 0.000000 0.000000 0.000000
    9 -49.997620 0.002380 -118.792725 0.000000 0.000000 0.000000
    10 -20.015503 -0.619970 -0.031143 -3.141592 -1.570796 0.000000
    11 19.849365 -0.727911 0.034821 -3.141592 -1.570796 0.000000
    12 2.274081 -19.996704 1.617284 -1.570796 0.959918 -6.283137
    13 0.000000 0.000000 0.000000 0.000000 0.000000 0.000000
    14 2.309238 -19.998230 1.642166 -1.570796 0.959918 -6.283137
    15 0.000000 0.000000 0.000000 0.000000 0.000000 0.000000
    16 -99.998571 -19.999756 815.310364 1.570796 0.000000 -3.141640
    17 0.000000 0.000000 0.000000 0.000000 0.000000 0.000000
    18 -149.996038 -19.994857 815.310364 1.570796 0.000000 -3.141640
    19 0.000000 0.000000 0.000000 0.000000 0.000000 0.000000
    20 -178.552612 -3.494458 0.000000 1.570796 0.000000 -3.141592
    21 0.000000 0.000000 0.000000 0.000000 0.000000 0.000000
    22 -183.020752 -3.494322 0.000000 1.570796 0.000000 -3.141655
    23 0.000000 0.000000 0.000000 0.000000 0.000000 0.000000
    24 -187.558501 -3.499998 0.000000 1.570796 0.000000 -3.141640
    25 0.000000 0.000000 0.000000 0.000000 0.000000 0.000000
    26 -191.976623 -3.500001 0.000000 1.570796 0.000000 -3.141608
    27 0.000000 0.000000 0.000000 0.000000 0.000000 0.000000
    28 18.179370 -12.575030 13.584476 1.162592 0.580098 2.983015
    29 19.998592 -0.028402 -0.021359 -3.141592 -1.570796 0.000000
    30 -19.865417 -0.019396 -0.021363 -3.141592 -1.570796 0.000000
    31 17.833788 -0.023750 -0.000008 1.570796 0.000000 1.570796
    32 -0.488517 -2.755600 -0.228261 -0.877476 -0.263816 -0.213064
    33 0.039887 -1.479790 0.029853 -1.267878 0.000000 0.000000
    34 0.028785 -1.075733 -0.023111 -0.783299 0.000000 0.000000
    35 0.250028 -2.820663 -0.238396 -0.842273 -0.277021 -0.076516
    36 -0.049759 -1.680546 0.100480 -1.360762 0.000000 -0.000002
    37 -0.034141 -1.148310 0.084779 -1.087312 0.000000 0.000000
    38 0.957766 -2.746775 -0.090300 -0.872296 -0.346648 -0.000831
    39 -0.033419 -1.397129 -0.011255 -1.057871 0.000000 -0.000001
    40 -0.022360 -0.957434 0.018783 -0.781553 0.000000 0.000000
    41 -1.180680 -2.507215 -0.193861 -0.644287 -0.205689 -0.121170
    42 -0.024966 -1.123932 0.017594 -1.190463 0.000000 0.000001
    43 -0.020058 -0.890965 0.010091 -0.846171 0.000000 0.000000
    44 0.583510 -1.197275 0.185377 -0.481120 -1.148612 0.275251
    45 1.535926 0.010246 0.005008 -0.002964 -0.012979 -0.925299
    46 1.100770 0.004526 -0.010676 -0.013271 0.009322 -0.781956
    47 0.120152 -0.050266 -0.054488 0.287568 3.110905 1.561085
    48 3.737723 7.618013 -0.153718 -1.570562 0.002683 -1.916626
    49 18.718092 -3.568291 -0.851418 -0.266153 -5.884701 0.922989
    50 0.096944 -8.450419 -0.009364 -0.120227 -0.297907 -0.004663
    51 0.447952 -2.798983 -0.200442 -0.536563 -0.105218 -0.215525
    52 -0.032909 -1.480204 0.004936 -1.713459 0.000000 0.000002
    53 -0.027022 -1.076920 -0.020212 -1.394127 0.000000 0.000000
    54 -0.249534 -2.846960 -0.174215 -0.474573 -0.103780 -0.196962
    55 0.043235 -1.683941 0.096014 -1.812837 0.002823 -0.000167
    56 0.031729 -1.160830 0.058836 -1.436444 0.000642 0.008372
    57 -0.963867 -2.785143 -0.085346 -0.680231 0.037013 -0.315824
    58 0.028479 -1.403067 0.006271 -1.469564 0.000000 0.000000
    59 0.021414 -0.957779 0.020047 -1.130578 0.000000 0.000000
    60 1.164475 -2.543938 -0.170328 -0.006953 -0.117380 -0.352066
    61 0.024033 -1.129042 0.017806 -1.500170 -0.079721 -0.035509
    62 0.014896 -0.883989 -0.019845 -1.282532 0.000000 0.000000
    63 -0.586770 -1.264477 0.200164 0.019915 -1.031383 -2.983168
    64 1.522835 0.058681 0.016850 0.001410 0.008985 1.087565
    65 1.117948 0.048424 -0.005764 -0.014648 -0.020512 0.676414
    66 -0.139399 -0.111698 0.014397 0.285382 -0.030687 1.580508
    67 -1.393470 8.839177 -0.239434 1.580804 -0.005023 -1.566847
  time 9
    0 3.066500 -2.200603 -1.918442 0.000000 0.000000 0.000000
    1 35.285214 -2.863183 9.587611 -0.143396 -2.474388 1.101117
    2 -0.071918 -8.498728 -0.104138 0.590248 0.311686 0.075353
    3 5.428935 -2.742991 2.081221 2.117862 -0.175189 -0.077178
    4 0.434196 -0.023741 -0.000005 1.570797 0.000000 1.570796
    5 0.434196 -0.023741 -0.000005 1.570797 0.000000 1.570796
    6 0.434196 -0.023742 -0.000005 1.570797 0.000000 1.570796
    7 15.961483 -3.765536 -0.615457 -1.570796 -0.000002 0.007959
    8 0.000000 0.000000 0.000001 0.000000 0.000000 0.000000
    9 -49.997620 0.002380 -118.792725 0.000000 0.000000 0.000000
    10 -20.015503 -0.619970 -0.031143 -3.141592 -1.570796 0.000000
    11 19.849365 -0.727911 0.034821 -3.141592 -1.570796 0.000000
    12 -0.003332 -19.996704 815.310364 1.570796 0.000000 -3.141640
    13 0.000000 0.000000 0.000000 0.000000 0.000000 0.000000
    14 2.309238 -19.998230 1.642166 -1.570796 0.959918 -6.283137
    15 0.000000 0.000000 0.000000 0.000000 0.000000 0.000000
    16 2.160796 -19.999756 1.517759 -1.570796 0.959918 -6.283137
    17 0.000000 0.000000 0.000000 0.000000 0.000000 0.000000
    18 -149.996038 -19.994857 815.310364 1.570796 0.000000 -3.141640
    19 0.000000 0.000000 0.000000 0.000000 0.000000 0.000000
    20 -178.552612 -3.494458 0.000000 1.570796 0.000000 -3.141592
    21 0.000000 0.000000 0.000000 0.000000 0.000000 0.000000
    22 -183.020752 -3.494322 0.000000 1.570796 0.000000 -3.141655
    23 0.000000 0.000000 0.000000 0.000000 0.000000 0.000000
    24 -187.558501 -3.499998 0.000000 1.570796 0.000000 -3.141640
    25 0.000000 0.000000 0.000000 0.000000 0.000000 0.000000
    26 -191.976623 -3.500001 0.000000 1.570796 0.000000 -3.141608
    27 0.000000 0.000000 0.000000 0.000000 0.000000 0.000000
    28 30.472714 -16.872036 21.515199 1.225804 0.590272 3.085402
    29 19.998592 -0.028402 -0.021359 -3.141592 -1.570796 0.000000
    30 -19.865417 -0.019396 -0.021363 -3.141592 -1.570796 0.000000
    31 17.833788 -0.023750 -0.000008 1.570796 0.000000 1.570796
    32 -0.488517 -2.755600 -0.228261 -0.877476 -0.263816 -0.213064
    33 0.039887 -1.479790 0.029853 -1.267878 0.000000 0.000000
    34 0.028785 -1.075733 -0.023111 -0.783299 0.000000 0.000000
    35 0.250028 -2.820663 -0.238396 -0.842273 -0.277021 -0.076516
    36 -0.049759 -1.680546 0.100480 -1.360762 0.000000 -0.000002
    37 -0.034141 -1.148310 0.084779 -1.087312 0.000000 0.000000
    38 0.957766 -2.746775 -0.090300 -0.872296 -0.346648 -0.000831
    39 -0.033419 -1.397129 -0.011255 -1.057871 0.000000 -0.000001
    40 -0.022360 -0.957434 0.018783 -0.781553 0.000000 0.000000
    41 -1.180680 -2.507215 -0.193861 -0.644287 -0.205689 -0.121170
    42 -0.024966 -1.123932 0.017594 -1.190463 0.000000 0.000001
    43 -0.020058 -0.890965 0.010091 -0.846171 0.000000 0.000000
    44 0.583510 -1.197275 0.185377 -0.481120 -1.148612 0.275251
    45 1.535926 0.010246 0.005008 -0.002964 -0.012979 -0.925299
    46 1.100770 0.004526 -0.010676 -0.013271 0.009322 -0.781956
    47 0.120152 -0.050266 -0.054488 0.287568 3.110905 1.561085
    48 3.597094 7.684421 -0.153718 -1.570562 0.002683 -1.896866
    49 23.960439 -4.095650 2.472903 -0.114936 -5.866879 1.045891
    50 0.096944 -8.450419 -0.009364 -0.120227 -0.297907 -0.004663
    51 0.447952 -2.798983 -0.200442 -0.536563 -0.105218 -0.215525
    52 -0.032909 -1.480204 0.004936 -1.713459 0.000000 0.000002
    53 -0.027022 -1.076920 -0.020212 -1.394127 0.000000 0.000000
    54 -0.249534 -2.846960 -0.174215 -0.474573 -0.103780 -0.196962
    55 0.043235 -1.683941 0.096014 -1.812837 0.002823 -0.000167
    56 0.031729 -1.160830 0.058836 -1.436444 0.000642 0.008372
    57 -0.963867 -2.785143 -0.085346 -0.680231 0.037013 -0.315824
    58 0.028479 -1.403067 0.006271 -1.469564 0.000000 0.000000
    59 0.021414 -0.957779 0.020047 -1.130578 0.000000 0.000000
    60 1.164475 -2.543938 -0.170328 -0.006953 -0.117380 -0.352066
    61 0.024033 -1.129042 0.017806 -1.500170 -0.079721 -0.035509
    62 0.014896 -0.883989 -0.019845 -1.282532 0.000000 0.000000
    63 -0.586770 -1.264477 0.200164 0.019915 -1.031383 -2.983168
    64 1.522835 0.058681 0.016850 0.001410 0.008985 1.087565
    65 1.117948 0.048424 -0.005764 -0.014648 -0.020512 0.676414
    66 -0.139399 -0.111698 0.014397 0.285382 -0.030687 1.580508
    67 -1.393470 8.839177 -0.239434 1.580804 -0.005023 -1.566847
  time 10
    0 3.066500 -2.200603 -1.918442 0.000000 0.000000 0.000000
    1 39.390808 -4.081970 12.095500 -0.197665 -2.454668 1.170734
    2 -0.071918 -8.498728 -0.104138 0.582325 0.343387 0.083311
    3 5.428935 -2.742991 2.081221 2.137649 -0.175189 -0.077178
    4 0.434196 -0.023741 -0.000005 1.570797 0.000000 1.570796
    5 0.434196 -0.023741 -0.000005 1.570797 0.000000 1.570796
    6 0.434196 -0.023742 -0.000005 1.570797 0.000000 1.570796
    7 15.961483 -3.765536 -0.615457 -1.570796 -0.000002 0.007959
    8 0.000000 0.000000 0.000001 0.000000 0.000000 0.000000
    9 -49.997620 0.002380 -118.792725 0.000000 0.000000 0.000000
    10 -20.015503 -0.619970 -0.031143 -3.141592 -1.570796 0.000000
    11 19.849365 -0.727911 0.034821 -3.141592 -1.570796 0.000000
    12 -0.003332 -19.996704 815.310364 1.570796 0.000000 -3.141640
    13 0.000000 0.000000 0.000000 0.000000 0.000000 0.000000
    14 -49.997045 -19.998230 815.310364 1.570796 0.000000 -3.141640
    15 0.000000 0.000000 0.000000 0.000000 0.000000 0.000000
    16 2.160796 -19.999756 1.517759 -1.570796 0.959918 -6.283137
    17 0.000000 0.000000 0.000000 0.000000 0.000000 0.000000
    18 2.117573 -19.994857 1.492878 -1.570796 0.959888 -6.283137
    19 0.000000 0.000000 0.000000 0.000000 0.000000 0.000000
    20 -178.552612 -3.494458 0.000000 1.570796 0.000000 -3.141592
    21 0.000000 0.000000 0.000000 0.000000 0.000000 0.000000
    22 -183.020752 -3.494322 0.000000 1.570796 0.000000 -3.141655
    23 0.000000 0.000000 0.000000 0.000000 0.000000 0.000000
    24 -187.558501 -3.499998 0.000000 1.570796 0.000000 -3.141640
    25 0.000000 0.000000 0.000000 0.000000 0.000000 0.000000
    26 -191.976623 -3.500001 0.000000 1.570796 0.000000 -3.141608
    27 0.000000 0.000000 0.000000 0.000000 0.000000 0.000000
    28 40.926158 -21.188574 28.780873 1.251089 0.594329 3.126404
    29 19.998592 -0.028402 -0.021359 -3.141592 -1.570796 0.000000
    30 -19.865417 -0.019396 -0.021363 -3.141592 -1.570796 0.000000
    31 17.833788 -0.023750 -0.000008 1.570796 0.000000 1.570796
    32 -0.488517 -2.755600 -0.228261 -0.877476 -0.263816 -0.213064
    33 0.039887 -1.479790 0.029853 -1.267878 0.000000 0.000000
    34 0.028785 -1.075733 -0.023111 -0.783299 0.000000 0.000000
    35 0.250028 -2.820663 -0.238396 -0.842273 -0.277021 -0.076516
    36 -0.049759 -1.680546 0.100480 -1.360762 0.000000 -0.000002
    37 -0.034141 -1.148310 0.084779 -1.087312 0.000000 0.000000
    38 0.957766 -2.746775 -0.090300 -0.872296 -0.346648 -0.000831
    39 -0.033419 -1.397129 -0.011255 -1.057871 0.000000 -0.000001
    40 -0.022360 -0.957434 0.018783 -0.781553 0.000000 0.000000
    41 -1.180680 -2.507215 -0.193861 -0.644287 -0.205689 -0.121170
    42 -0.024966 -1.123932 0.017594 -1.190463 0.000000 0.000001
    43 -0.020058 -0.890965 0.010091 -0.846171 0.000000 0.000000
    44 0.583510 -1.197275 0.185377 -0.481120 -1.148612 0.275251
    45 1.535926 0.010246 0.005008 -0.002964 -0.012979 -0.925299
    46 1.100770 0.004526 -0.010676 -0.013271 0.009322 -0.781956
    47 0.120152 -0.050266 -0.054488 0.287568 3.110905 1.561085
    48 3.448652 7.750829 -0.153718 -1.570562 0.002683 -1.875920
    49 28.386356 -4.994115 3.914353 0.023792 -5.849533 1.146897
    50 0.096944 -8.450419 -0.009364 -0.120227 -0.297907 -0.004663
    51 0.447952 -2.798983 -0.200442 -0.536563 -0.105218 -0.215525
    52 -0.032909 -1.480204 0.004936 -1.713459 0.000000 0.000002
    53 -0.027022 -1.076920 -0.020212 -1.394127 0.000000 0.000000
    54 -0.249534 -2.846960 -0.174215 -0.474573 -0.103780 -0.196962
    55 0.043235 -1.683941 0.096014 -1.812837 0.002823 -0.000167
    56 0.031729 -1.160830 0.058836 -1.436444 0.000642 0.008372
    57 -0.963867 -2.785143 -0.085346 -0.680231 0.037013 -0.315824
    58 0.028479 -1.403067 0.006271 -1.469564 0.000000 0.000000
    59 0.021414 -0.957779 0.020047 -1.130578 0.000000 0.000000
    60 1.164475 -2.543938 -0.170328 -0.006953 -0.117380 -0.352066
    61 0.024033 -1.129042 0.017806 -1.500170 -0.079721 -0.035509
    62 0.014896 -0.883989 -0.019845 -1.282532 0.000000 0.000000
    63 -0.586770 -1.264477 0.200164 0.019915 -1.031383 -2.983168
    64 1.522835 0.058681 0.016850 0.001410 0.008985 1.087565
    65 1.117948 0.048424 -0.005764 -0.014648 -0.020512 0.676414
    66 -0.139399 -0.111698 0.014397 0.285382 -0.030687 1.580508
    67 -1.393470 8.839177 -0.239434 1.580804 -0.005023 -1.566847
  time 11
    0 3.066500 -2.200603 -1.918442 0.000000 0.000000 0.000000
    1 42.043233 -4.796835 11.853305 -0.191353 -2.438449 1.155600
    2 -0.071918 -8.498728 -0.104138 0.569814 0.375863 0.090024
    3 5.428935 -2.742991 2.081221 2.137649 -0.175189 -0.077178
    4 0.434196 -0.023741 -0.000005 1.570797 0.000000 1.570796
    5 0.434196 -0.023741 -0.000005 1.570797 0.000000 1.570796
    6 0.434196 -0.023742 -0.000005 1.570797 0.000000 1.570796
    7 15.961483 -3.765536 -0.615457 -1.570796 -0.000002 0.007959
    8 0.000000 0.000000 0.000001 0.000000 0.000000 0.000000
    9 -49.997620 0.002380 -118.792725 0.000000 0.000000 0.000000
    10 -20.015503 -0.619970 -0.031143 -3.141592 -1.570796 0.000000
    11 19.849365 -0.727911 0.034821 -3.141592 -1.570796 0.000000
    12 -0.003332 -19.996704 815.310364 1.570796 0.000000 -3.141640
    13 0.000000 0.000000 0.000000 0.000000 0.000000 0.000000
    14 -49.997045 -19.998230 815.310364 1.570796 0.000000 -3.141640
    15 0.000000 0.000000 0.000000 0.000000 0.000000 0.000000
    16 -99.998571 -19.999756 815.310364 1.570796 0.000000 -3.141640
    17 0.000000 0.000000 0.000000 0.000000 0.000000 0.000000
    18 2.117573 -19.994857 1.492878 -1.570796 0.959888 -6.283137
    19 0.000000 0.000000 0.000000 0.000000 0.000000 0.000000
    20 -178.552612 -3.494458 0.000000 1.570796 0.000000 -3.141592
    21 0.000000 0.000000 0.000000 0.000000 0.000000 0.000000
    22 -183.020752 -3.494322 0.000000 1.570796 0.000000 -3.141655
    23 0.000000 0.000000 0.000000 0.000000 0.000000 0.000000
    24 -187.558501 -3.499998 0.000000 1.570796 0.000000 -3.141640
    25 0.000000 0.000000 0.000000 0.000000 0.000000 0.000000
    26 -191.976623 -3.500001 0.000000 1.570796 0.000000 -3.141608
    27 0.000000 0.000000 0.000000 0.000000 0.000000 0.000000
    28 49.988934 -26.294199 34.849456 1.215130 0.566768 3.086516
    29 19.998592 -0.028402 -0.021359 -3.141592 -1.570796 0.000000
    30 -19.865417 -0.019396 -0.021363 -3.141592 -1.570796 0.000000
    31 17.833788 -0.023750 -0.000008 1.570796 0.000000 1.570796
    32 -0.488517 -2.755600 -0.228261 -0.877476 -0.263816 -0.213064
    33 0.039887 -1.479790 0.029853 -1.267878 0.000000 0.000000
    34 0.028785 -1.075733 -0.023111 -0.783299 0.000000 0.000000
    35 0.250028 -2.820663 -0.238396 -0.842273 -0.277021 -0.076516
    36 -0.049759 -1.680546 0.100480 -1.360762 0.000000 -0.000002
    37 -0.034141 -1.148310 0.084779 -1.087312 0.000000 0.000000
    38 0.957766 -2.746775 -0.090300 -0.872296 -0.346648 -0.000831
    39 -0.033419 -1.397129 -0.011255 -1.057871 0.000000 -0.000001
    40 -0.022360 -0.957434 0.018783 -0.781553 0.000000 0.000000
    41 -1.180680 -2.507215 -0.193861 -0.644287 -0.205689 -0.121170
    42 -0.024966 -1.123932 0.017594 -1.190463 0.000000 0.000001
    43 -0.020058 -0.890965 0.010091 -0.846171 0.000000 0.000000
    44 0.583510 -1.197275 0.185377 -0.481120 -1.148612 0.275251
    45 1.535926 0.010246 0.005008 -0.002964 -0.012979 -0.925299
    46 1.100770 0.004526 -0.010676 -0.013271 0.009322 -0.781956
    47 0.120152 -0.050266 -0.054488 0.287568 3.110905 1.561085
    48 3.292397 7.825050 -0.153718 -1.570562 0.002683 -1.854015
    49 30.749709 -8.002020 4.000293 0.125281 -5.832950 1.215345
    50 0.096944 -8.450419 -0.009364 -0.120227 -0.297907 -0.004663
    51 0.447952 -2.798983 -0.200442 -0.536563 -0.105218 -0.215525
    52 -0.032909 -1.480204 0.004936 -1.713459 0.000000 0.000002
    53 -0.027022 -1.076920 -0.020212 -1.394127 0.000000 0.000000
    54 -0.249534 -2.846960 -0.174215 -0.474573 -0.103780 -0.196962
    55 0.043235 -1.683941 0.096014 -1.812837 0.002823 -0.000167
    56 0.031729 -1.160830 0.058836 -1.436444 0.000642 0.008372
    57 -0.963867 -2.785143 -0.085346 -0.680231 0.037013 -0.315824
    58 0.028479 -1.403067 0.006271 -1.469564 0.000000 0.000000
    59 0.021414 -0.957779 0.020047 -1.130578 0.000000 0.000000
    60 1.164475 -2.543938 -0.170328 -0.006953 -0.117380 -0.352066
    61 0.024033 -1.129042 0.017806 -1.500170 -0.079721 -0.035509
    62 0.014896 -0.883989 -0.019845 -1.282532 0.000000 0.000000
    63 -0.586770 -1.264477 0.200164 0.019915 -1.031383 -2.983168
    64 1.522835 0.058681 0.016850 0.001410 0.008985 1.087565
    65 1.117948 0.048424 -0.005764 -0.014648 -0.020512 0.676414
    66 -0.139399 -0.111698 0.014397 0.285382 -0.030687 1.580508
    67 -1.393470 8.839177 -0.239434 1.580804 -0.005023 -1.566847
  time 12
    0 3.066500 -2.200603 -1.918442 0.000000 0.000000 0.000000
    1 44.226894 -5.429667 11.197035 -0.173292 -2.422692 1.112174
    2 -0.071918 -8.498728 -0.104138 0.553300 0.408894 0.095714
    3 5.428935 -2.742991 2.081221 2.137649 -0.175189 -0.077178
    4 0.434196 -0.023741 -0.000005 1.570797 0.000000 1.570796
    5 0.434196 -0.023741 -0.000005 1.570797 0.000000 1.570796
    6 0.434196 -0.023742 -0.000005 1.570797 0.000000 1.570796
    7 15.961483 -3.765536 -0.615457 -1.570796 -0.000002 0.007959
    8 0.000000 0.000000 0.000001 0.000000 0.000000 0.000000
    9 -49.997620 0.002380 -118.792725 0.000000 0.000000 0.000000
    10 -20.015503 -0.619970 -0.031143 -3.141592 -1.570796 0.000000
    11 19.849365 -0.727911 0.034821 -3.141592 -1.570796 0.000000
    12 -0.003332 -19.996704 815.310364 1.570796 0.000000 -3.141640
    13 0.000000 0.000000 0.000000 0.000000 0.000000 0.000000
    14 -49.997045 -19.998230 815.310364 1.570796 0.000000 -3.141640
    15 0.000000 0.000000 0.000000 0.000000 0.000000 0.000000
    16 -99.998571 -19.999756 815.310364 1.570796 0.000000 -3.141640
    17 0.000000 0.000000 0.000000 0.000000 0.000000 0.000000
    18 -149.996038 -19.994857 815.310364 1.570796 0.000000 -3.141640
    19 0.000000 0.000000 0.000000 0.000000 0.000000 0.000000
    20 -178.552612 -3.494458 0.000000 1.570796 0.000000 -3.141592
    21 0.000000 0.000000 0.000000 0.000000 0.000000 0.000000
    22 -183.020752 -3.494322 0.000000 1.570796 0.000000 -3.141655
    23 0.000000 0.000000 0.000000 0.000000 0.000000 0.000000
    24 -187.558501 -3.499998 0.000000 1.570796 0.000000 -3.141640
    25 0.000000 0.000000 0.000000 0.000000 0.000000 0.000000
    26 -191.976623 -3.500001 0.000000 1.570796 0.000000 -3.141608
    27 0.000000 0.000000 0.000000 0.000000 0.000000 0.000000
    28 58.274343 -32.220161 39.953716 1.113992 0.489170 2.974417
    29 19.998592 -0.028402 -0.021359 -3.141592 -1.570796 0.000000
    30 -19.865417 -0.019396 -0.021363 -3.141592 -1.570796 0.000000
    31 17.833788 -0.023750 -0.000008 1.570796 0.000000 1.570796
    32 -0.488517 -2.755600 -0.228261 -0.877476 -0.263816 -0.213064
    33 0.039887 -1.479790 0.029853 -1.267878 0.000000 0.000000
    34 0.028785 -1.075733 -0.023111 -0.783299 0.000000 0.000000
    35 0.250028 -2.820663 -0.238396 -0.842273 -0.277021 -0.076516
    36 -0.049759 -1.680546 0.100480 -1.360762 0.000000 -0.000002
    37 -0.034141 -1.148310 0.084779 -1.087312 0.000000 0.000000
    38 0.957766 -2.746775 -0.090300 -0.872296 -0.346648 -0.000831
    39 -0.033419 -1.397129 -0.011255 -1.057871 0.000000 -0.000001
    40 -0.022360 -0.957434 0.018783 -0.781553 0.000000 0.000000
    41 -1.180680 -2.507215 -0.193861 -0.644287 -0.205689 -0.121170
    42 -0.024966 -1.123932 0.017594 -1.190463 0.000000 0.000001
    43 -0.020058 -0.890965 0.010091 -0.846171 0.000000 0.000000
    44 0.583510 -1.197275 0.185377 -0.481120 -1.148612 0.275251
    45 1.535926 0.010246 0.005008 -0.002964 -0.012979 -0.925299
    46 1.100770 0.004526 -0.010676 -0.013271 0.009322 -0.781956
    47 0.120152 -0.050266 -0.054488 0.287568 3.110905 1.561085
    48 3.132236 7.899271 -0.153718 -1.570562 0.002683 -1.831392
    49 31.191129 -10.443500 4.019825 0.164627 -5.817224 1.240573
    50 0.096944 -8.450419 -0.009364 -0.120227 -0.297907 -0.004663
    51 0.447952 -2.798983 -0.200442 -0.536563 -0.105218 -0.215525
    52 -0.032909 -1.480204 0.004936 -1.713459 0.000000 0.000002
    53 -0.027022 -1.076920 -0.020212 -1.394127 0.000000 0.000000
    54 -0.249534 -2.846960 -0.174215 -0.474573 -0.103780 -0.196962
    55 0.043235 -1.683941 0.096014 -1.812837 0.002823 -0.000167
    56 0.031729 -1.160830 0.058836 -1.436444 0.000642 0.008372
    57 -0.963867 -2.785143 -0.085346 -0.680231 0.037013 -0.315824
    58 0.028479 -1.403067 0.006271 -1.469564 0.000000 0.000000
    59 0.021414 -0.957779 0.020047 -1.130578 0.000000 0.000000
    60 1.164475 -2.543938 -0.170328 -0.006953 -0.117380 -0.352066
    61 0.024033 -1.129042 0.017806 -1.500170 -0.079721 -0.035509
    62 0.014896 -0.883989 -0.019845 -1.282532 0.000000 0.000000
    63 -0.586770 -1.264477 0.200164 0.019915 -1.031383 -2.983168
    64 1.522835 0.058681 0.016850 0.001410 0.008985 1.087565
    65 1.117948 0.048424 -0.005764 -0.014648 -0.020512 0.676414
    66 -0.139399 -0.111698 0.014397 0.285382 -0.030687 1.580508
    67 -1.393470 8.839177 -0.239434 1.580804 -0.005023 -1.566847
  time 13
    0 3.066500 -2.200603 -1.918442 0.000000 0.000000 0.000000
    1 45.984760 -5.980465 10.224349 -0.144536 -2.407395 1.043422
    2 -0.071918 -8.498728 -0.104138 0.533345 0.442147 0.100471
    3 5.428935 -2.742991 2.081221 2.137649 -0.175189 -0.077178
    4 0.434196 -0.023741 -0.000005 1.570797 0.000000 1.570796
    5 0.434196 -0.023741 -0.000005 1.570797 0.000000 1.570796
    6 0.434196 -0.023742 -0.000005 1.570797 0.000000 1.570796
    7 15.961483 -3.765536 -0.615457 -1.570796 -0.000002 0.007959
    8 0.000000 0.000000 0.000001 0.000000 0.000000 0.000000
    9 -49.997620 0.002380 -118.792725 0.000000 0.000000 0.000000
    10 -20.015503 -0.619970 -0.031143 -3.141592 -1.570796 0.000000
    11 19.849365 -0.727911 0.034821 -3.141592 -1.570796 0.000000
    12 -0.003332 -19.996704 815.310364 1.570796 0.000000 -3.141640
    13 0.000000 0.000000 0.000000 0.000000 0.000000 0.000000
    14 -49.997045 -19.998230 815.310364 1.570796 0.000000 -3.141640
    15 0.000000 0.000000 0.000000 0.000000 0.000000 0.000000
    16 -99.998571 -19.999756 815.310364 1.570796 0.000000 -3.141640
    17 0.000000 0.000000 0.000000 0.000000 0.000000 0.000000
    18 -149.996038 -19.994857 815.310364 1.570796 0.000000 -3.141640
    19 0.000000 0.000000 0.000000 0.000000 0.000000 0.000000
    20 -178.552612 -3.494458 0.000000 1.570796 0.000000 -3.141592
    21 0.000000 0.000000 0.000000 0.000000 0.000000 0.000000
    22 -183.020752 -3.494322 0.000000 1.570796 0.000000 -3.141655
    23 0.000000 0.000000 0.000000 0.000000 0.000000 0.000000
    24 -187.558501 -3.499998 0.000000 1.570796 0.000000 -3.141640
    25 0.000000 0.000000 0.000000 0.000000 0.000000 0.000000
    26 -191.976623 -3.500001 0.000000 1.570796 0.000000 -3.141608
    27 0.000000 0.000000 0.000000 0.000000 0.000000 0.000000
    28 65.075332 -37.841426 44.869546 0.957590 0.369201 2.801252
    29 19.998592 -0.028402 -0.021359 -3.141592 -1.570796 0.000000
    30 -19.865417 -0.019396 -0.021363 -3.141592 -1.570796 0.000000
    31 17.833788 -0.023750 -0.000008 1.570796 0.000000 1.570796
    32 -0.488517 -2.755600 -0.228261 -0.877476 -0.263816 -0.213064
    33 0.039887 -1.479790 0.029853 -1.267878 0.000000 0.000000
    34 0.028785 -1.075733 -0.023111 -0.783299 0.000000 0.000000
    35 0.250028 -2.820663 -0.238396 -0.842273 -0.277021 -0.076516
    36 -0.049759 -1.680546 0.100480 -1.360762 0.000000 -0.000002
    37 -0.034141 -1.148310 0.084779 -1.087312 0.000000 0.000000
    38 0.957766 -2.746775 -0.090300 -0.872296 -0.346648 -0.000831
    39 -0.033419 -1.397129 -0.011255 -1.057871 0.000000 -0.000001
    40 -0.022360 -0.957434 0.018783 -0.781553 0.000000 0.000000
    41 -1.180680 -2.507215 -0.193861 -0.644287 -0.205689 -0.121170
    42 -0.024966 -1.123932 0.017594 -1.190463 0.000000 0.000001
    43 -0.020058 -0.890965 0.010091 -0.846171 0.000000 0.000000
    44 0.583510 -1.197275 0.185377 -0.481120 -1.148612 0.275251
    45 1.535926 0.010246 0.005008 -0.002964 -0.012979 -0.925299
    46 1.100770 0.004526 -0.010676 -0.013271 0.009322 -0.781956
    47 0.120152 -0.050266 -0.054488 0.287568 3.110905 1.561085
    48 2.968169 7.973492 -0.153718 -1.570562 0.002683 -1.808302
    49 30.538765 -10.173961 2.496341 0.154922 -5.801212 1.202303
    50 0.096944 -8.450419 -0.009364 -0.120227 -0.297907 -0.004663
    51 0.447952 -2.798983 -0.200442 -0.536563 -0.105218 -0.215525
    52 -0.032909 -1.480204 0.004936 -1.713459 0.000000 0.000002
    53 -0.027022 -1.076920 -0.020212 -1.394127 0.000000 0.000000
    54 -0.249534 -2.846960 -0.174215 -0.474573 -0.103780 -0.196962
    55 0.043235 -1.683941 0.096014 -1.812837 0.002823 -0.000167
    56 0.031729 -1.160830 0.058836 -1.436444 0.000642 0.008372
    57 -0.963867 -2.785143 -0.085346 -0.680231 0.037013 -0.315824
    58 0.028479 -1.403067 0.006271 -1.469564 0.000000 0.000000
    59 0.021414 -0.957779 0.020047 -1.130578 0.000000 0.000000
    60 1.164475 -2.543938 -0.170328 -0.006953 -0.117380 -0.352066
    61 0.024033 -1.129042 0.017806 -1.500170 -0.079721 -0.035509
    62 0.014896 -0.883989 -0.019845 -1.282495 0.000000 0.000000
    63 -0.586770 -1.264477 0.200164 0.019915 -1.031383 -2.983168
    64 1.522835 0.058681 0.016850 0.001410 0.008985 1.087565
    65 1.117948 0.048424 -0.005764 -0.014648 -0.020512 0.676414
    66 -0.139399 -0.111698 0.014397 0.285382 -0.030687 1.580508
    67 -1.393470 8.839177 -0.239434 1.580804 -0.005023 -1.566847
  time 14
    0 3.066500 -2.200603 -1.918442 0.000000 0.000000 0.000000
    1 47.355895 -6.453136 9.032907 -0.106574 -2.392651 0.952309
    2 -0.071918 -8.498728 -0.104138 0.510534 0.475399 0.104472
    3 5.428935 -2.742991 2.081221 2.137649 -0.175189 -0.077178
    4 0.434196 -0.023741 -0.000005 1.570797 0.000000 1.570796
    5 0.434196 -0.023741 -0.000005 1.570797 0.000000 1.570796
    6 0.434196 -0.023742 -0.000005 1.570797 0.000000 1.570796
    7 15.961483 -3.765536 -0.615457 -1.570796 -0.000002 0.007959
    8 0.000000 0.000000 0.000001 0.000000 0.000000 0.000000
    9 -49.997620 0.002380 -118.792725 0.000000 0.000000 0.000000
    10 -20.015503 -0.619970 -0.031143 -3.141592 -1.570796 0.000000
    11 19.849365 -0.727911 0.034821 -3.141592 -1.570796 0.000000
    12 -0.003332 -19.996704 815.310364 1.570796 0.000000 -3.141640
    13 0.000000 0.000000 0.000000 0.000000 0.000000 0.000000
    14 -49.997045 -19.998230 815.310364 1.570796 0.000000 -3.141640
    15 0.000000 0.000000 0.000000 0.000000 0.000000 0.000000
    16 -99.998571 -19.999756 815.310364 1.570796 0.000000 -3.141640
    17 0.000000 0.000000 0.000000 0.000000 0.000000 0.000000
    18 -149.996038 -19.994857 815.310364 1.570796 0.000000 -3.141640
    19 0.000000 0.000000 0.000000 0.000000 0.000000 0.000000
    20 -178.552612 -3.494458 0.000000 1.570796 0.000000 -3.141592
    21 0.000000 0.000000 0.000000 0.000000 0.000000 0.000000
    22 -183.020752 -3.494322 0.000000 1.570796 0.000000 -3.141655
    23 0.000000 0.000000 0.000000 0.000000 0.000000 0.000000
    24 -187.558501 -3.499998 0.000000 1.570796 0.000000 -3.141640
    25 0.000000 0.000000 0.000000 0.000000 0.000000 0.000000
    26 -191.976623 -3.500001 0.000000 1.570796 0.000000 -3.141608
    27 0.000000 0.000000 0.000000 0.000000 0.000000 0.000000
    28 69.677035 -42.040773 50.356210 0.756222 0.214586 2.578009
    29 19.998592 -0.028402 -0.021359 -3.141592 -1.570796 0.000000
    30 -19.865417 -0.019396 -0.021363 -3.141592 -1.570796 0.000000
    31 17.833788 -0.023750 -0.000008 1.570796 0.000000 1.570796
    32 -0.488517 -2.755600 -0.228261 -0.877476 -0.263816 -0.213064
    33 0.039887 -1.479790 0.029853 -1.267878 0.000000 0.000000
    34 0.028785 -1.075733 -0.023111 -0.783299 0.000000 0.000000
    35 0.250028 -2.820663 -0.238396 -0.842273 -0.277021 -0.076516
    36 -0.049759 -1.680546 0.100480 -1.360762 0.000000 -0.000002
    37 -0.034141 -1.148310 0.084779 -1.087312 0.000000 0.000000
    38 0.957766 -2.746775 -0.090300 -0.872296 -0.346648 -0.000831
    39 -0.033419 -1.397129 -0.011255 -1.057871 0.000000 -0.000001
    40 -0.022360 -0.957434 0.018783 -0.781553 0.000000 0.000000
    41 -1.180680 -2.507215 -0.193861 -0.644287 -0.205689 -0.121170
    42 -0.024966 -1.123932 0.017594 -1.190463 0.000000 0.000001
    43 -0.020058 -0.890965 0.010091 -0.846171 0.000000 0.000000
    44 0.583510 -1.197275 0.185377 -0.481120 -1.148612 0.275251
    45 1.535926 0.010246 0.005008 -0.002964 -0.012979 -0.925299
    46 1.100770 0.004526 -0.010676 -0.013271 0.009322 -0.781956
    47 0.120152 -0.050266 -0.054488 0.287568 3.110905 1.561085
    48 2.804101 8.051620 -0.153718 -1.570562 0.002683 -1.784973
    49 28.651989 -9.447376 -1.421747 0.126710 -5.784057 1.094347
    50 0.096944 -8.450419 -0.009364 -0.120227 -0.297907 -0.004663
    51 0.447952 -2.798983 -0.200442 -0.536563 -0.105218 -0.215525
    52 -0.032909 -1.480204 0.004936 -1.713459 0.000000 0.000002
    53 -0.027022 -1.076920 -0.020212 -1.394127 0.000000 0.000000
    54 -0.249534 -2.846960 -0.174215 -0.474573 -0.103780 -0.196962
    55 0.043235 -1.683941 0.096014 -1.812837 0.002823 -0.000167
    56 0.031729 -1.160830 0.058836 -1.436444 0.000642 0.008372
    57 -0.963867 -2.785143 -0.085346 -0.680231 0.037013 -0.315824
    58 0.028479 -1.403067 0.006271 -1.469564 0.000000 0.000000
    59 0.021414 -0.957779 0.020047 -1.130578 0.000000 0.000000
    60 1.164475 -2.543938 -0.170328 -0.006953 -0.117380 -0.352066
    61 0.024033 -1.129042 0.017806 -1.500170 -0.079721 -0.035509
    62 0.014896 -0.883989 -0.019845 -1.282532 0.000000 0.000000
    63 -0.586770 -1.264477 0.200164 0.019915 -1.031383 -2.983168
    64 1.522835 0.058681 0.016850 0.001410 0.008985 1.087565
    65 1.117948 0.048424 -0.005764 -0.014648 -0.020512 0.676414
    66 -0.139399 -0.111698 0.014397 0.285382 -0.030687 1.580508
    67 -1.393470 8.839177 -0.239434 1.580804 -0.005023 -1.566847
  time 15
    0 3.066500 -2.200603 -1.918442 0.000000 0.000000 0.000000
    1 48.387177 -6.843773 7.728179 -0.060459 -2.378368 0.841861
    2 -0.071918 -8.498728 -0.104138 0.485409 0.508263 0.107896
    3 5.428935 -2.742991 2.081221 2.137649 -0.175189 -0.077178
    4 0.434196 -0.023741 -0.000005 1.570797 0.000000 1.570796
    5 0.434196 -0.023741 -0.000005 1.570797 0.000000 1.570796
    6 0.434196 -0.023742 -0.000005 1.570797 0.000000 1.570796
    7 15.961483 -3.765536 -0.615457 -1.570796 -0.000002 0.007959
    8 0.000000 0.000000 0.000001 0.000000 0.000000 0.000000
    9 -49.997620 0.002380 -118.792725 0.000000 0.000000 0.000000
    10 -20.015503 -0.619970 -0.031143 -3.141592 -1.570796 0.000000
    11 19.849365 -0.727911 0.034821 -3.141592 -1.570796 0.000000
    12 -0.003332 -19.996704 815.310364 1.570796 0.000000 -3.141640
    13 0.000000 0.000000 0.000000 0.000000 0.000000 0.000000
    14 -49.997045 -19.998230 815.310364 1.570796 0.000000 -3.141640
    15 0.000000 0.000000 0.000000 0.000000 0.000000 0.000000
    16 -99.998571 -19.999756 815.310364 1.570796 0.000000 -3.141640
    17 0.000000 0.000000 0.000000 0.000000 0.000000 0.000000
    18 -149.996038 -19.994857 815.310364 1.570796 0.000000 -3.141640
    19 0.000000 0.000000 0.000000 0.000000 0.000000 0.000000
    20 -178.552612 -3.494458 0.000000 1.570796 0.000000 -3.141592
    21 0.000000 0.000000 0.000000 0.000000 0.000000 0.000000
    22 -183.020752 -3.494322 0.000000 1.570796 0.000000 -3.141655
    23 0.000000 0.000000 0.000000 0.000000 0.000000 0.000000
    24 -187.558501 -3.499998 0.000000 1.570796 0.000000 -3.141640
    25 0.000000 0.000000 0.000000 0.000000 0.000000 0.000000
    26 -191.976623 -3.500001 0.000000 1.570796 0.000000 -3.141608
    27 0.000000 0.000000 0.000000 0.000000 0.000000 0.000000
    28 71.372399 -43.689261 57.189601 0.519576 0.033053 2.315834
    29 19.998592 -0.028402 -0.021359 -3.141592 -1.570796 0.000000
    30 -19.865417 -0.019396 -0.021363 -3.141592 -1.570796 0.000000
    31 17.833788 -0.023750 -0.000008 1.570796 0.000000 1.570796
    32 -0.488517 -2.755600 -0.228261 -0.877476 -0.263816 -0.213064
    33 0.039887 -1.479790 0.029853 -1.267878 0.000000 0.000000
    34 0.028785 -1.075733 -0.023111 -0.783299 0.000000 0.000000
    35 0.250028 -2.820663 -0.238396 -0.842273 -0.277021 -0.076516
    36 -0.049759 -1.680546 0.100480 -1.360762 0.000000 -0.000002
    37 -0.034141 -1.148310 0.084779 -1.087312 0.000000 0.000000
    38 0.957766 -2.746775 -0.090300 -0.872296 -0.346648 -0.000831
    39 -0.033419 -1.397129 -0.011255 -1.057871 0.000000 -0.000001
    40 -0.022360 -0.957434 0.018783 -0.781553 0.000000 0.000000
    41 -1.180680 -2.507215 -0.193861 -0.644287 -0.205689 -0.121170
    42 -0.024966 -1.123932 0.017594 -1.190463 0.000000 0.000001
    43 -0.020058 -0.890965 0.010091 -0.846171 0.000000 0.000000
    44 0.583510 -1.197275 0.185377 -0.481120 -1.148612 0.275251
    45 1.535926 0.010246 0.005008 -0.002964 -0.012979 -0.925299
    46 1.100770 0.004526 -0.010676 -0.013271 0.009322 -0.781956
    47 0.120152 -0.050266 -0.054488 0.287568 3.110905 1.561085
    48 2.636127 8.125841 -0.153718 -1.570562 0.002683 -1.761630
    49 25.655804 -8.408282 -6.789099 0.081571 -5.765854 0.926416
    50 0.096944 -8.450419 -0.009364 -0.120227 -0.297907 -0.004663
    51 0.447952 -2.798983 -0.200442 -0.536563 -0.105218 -0.215525
    52 -0.032909 -1.480204 0.004936 -1.713459 0.000000 0.000002
    53 -0.027022 -1.076920 -0.020212 -1.394127 0.000000 0.000000
    54 -0.249534 -2.846960 -0.174215 -0.474573 -0.103780 -0.196962
    55 0.043235 -1.683941 0.096014 -1.812837 0.002823 -0.000167
    56 0.031729 -1.160830 0.058836 -1.436444 0.000642 0.008372
    57 -0.963867 -2.785143 -0.085346 -0.680231 0.037013 -0.315824
    58 0.028479 -1.403067 0.006271 -1.469564 0.000000 0.000000
    59 0.021414 -0.957779 0.020047 -1.130578 0.000000 0.000000
    60 1.164475 -2.543938 -0.170328 -0.006953 -0.117380 -0.352066
    61 0.024033 -1.129042 0.017806 -1.500170 -0.079721 -0.035509
    62 0.014896 -0.883989 -0.019845 -1.282532 0.000000 0.000000
    63 -0.586770 -1.264477 0.200164 0.019915 -1.031383 -2.983168
    64 1.522835 0.058681 0.016850 0.001410 0.008985 1.087565
    65 1.117948 0.048424 -0.005764 -0.014648 -0.020512 0.676414
    66 -0.139399 -0.111698 0.014397 0.285382 -0.030687 1.580508
    67 -1.393470 8.839177 -0.239434 1.580804 -0.005023 -1.566847
end
