// Created by Crowbar 0.72

// Stored modelname (without quotes): "kevlar_vest/w_kevlar.mdl"
$modelname "tfa_cso/entities/kevlar_vest.mdl"

$CDMaterials "models\tfa_cso\entities\kevlar\"

$scale 1.0

$bodygroup "studio"
{
	studio "kevlar_template.smd"
}

$hbox 0 "Kevlar vest" -13.52 -15.97 0 14.2 17.24 4.1

$surfaceprop "item"

$collisionmodel "kevlar_template.smd"
{
	$mass 7
}

$sequence "idle" {
	"w_kevlar_anims\idle"
	fps 30
}
