"UnlitGeneric"
{
	"$baseTexture" "sprites/ef_revivegun_idle2"
	"$translucent" 1
	"$additive" 1
	"$nocull" 0
	"Proxies"
	{
	"AnimatedTexture"
		{
		"animatedTextureVar" "$basetexture"
		"animatedTextureFrameNumVar" "$frame"
		"animatedTextureFrameRate" "41"
		}
	}
}