"UnlitGeneric"
{
	"$baseTexture" "sprites/ef_y20s2scar"
	"$translucent" 1
	"$additive" 1
	"$nocull" 1
	"Proxies"
	{
	"AnimatedTexture"
		{
		"animatedTextureVar" "$basetexture"
		"animatedTextureFrameNumVar" "$frame"
		"animatedTextureFrameRate" "28"
		}
	}
}