// Created by Crowbar 0.49.0.0

$modelname "v_skull2.mdl"
$cd "."
$cdtexture "."
$cliptotextures
$scale 1.0

$bodygroup "weapon"
{
	studio "v_skull2"
}
$bodygroup "weapon"
{
	studio "v_skull2r"
}
$bodygroup "hands"
{
	studio "v_skull2_CSO_Hand_Male_L_2009"
	studio "v_skull2_CSO_Hand_Female_L_2009"
}

$flags 0

$texturegroup "skinfamilies"
{
	{ "skull_2_v.bmp" "#512512CSO_HighQ_Hand__Long_512.BMP" "#512512CSO_Girl_Hand_long.bmp" }
}


$attachment 0 "skull2_root" 2.405 0 6.655
$attachment 1 "skull2_root" 1.455 -0.516 1.333
$attachment 2 "skull_rootR" 2.405 0 6.655
$attachment 3 "skull_rootR" 1.455 0.516 1.333

$cbox 0 0 0 0 0 0

$bbox 0 0 0 0 0 0

$hbox 0 "skull2_root" -1.78 -0.9 -3.73 3.08 0.9 2.05
$hbox 0 "hearer" -0.36 -0.53 -2.73 2.88 0.55 4.82
$hbox 0 "megazine" -3.998293 -0.87 -0.87 1.6 0.88 0.87
$hbox 0 "megazine01" -1 -0.72 -0.72 0.53 0.73 0.75
$hbox 0 "bulletA" 0 -0.66 -0.62 1.46 0.66 0.68
$hbox 0 "skull_rootR" -1.76 -0.9 -3.74 3.11 0.9 2.04
$hbox 0 "headerR" -0.35 -0.53 -6.432054 2.89 0.55 4.82
$hbox 0 "megazineR" -0.01 -0.87 -0.87 1.6 0.88 0.87
$hbox 0 "megazineR01" -1.12 -0.72 -0.72 0.402201 0.73 0.75
$hbox 0 "megazineRA" -0.01 -0.66 -0.62 1.35 0.66 0.68
$hbox 0 "root" -9.310107 -5.299614 -12.557959 9.310103 0 0
$hbox 0 "Bone01" -1.36 -8.498736 -1.73 1.62 8.762585 1.24
$hbox 0 "Bone_L_Upper" 0 -1.69 -2.69 8.98 1.68 1.69
$hbox 0 "Bone_Lefthand" -1.6 -3.09 -0.83 1.38 0 0.92
$hbox 0 "Bone05" 0 -0.83 -0.75 1.535927 0.87 0.73
$hbox 0 "Bone06" 0 -0.66 -0.61 1.2 0.54 0.49
$hbox 0 "Bone04" -1.72 -8.450418 -1.67 1.31 8.839177 1.3
$hbox 0 "Bone_Righthand" -1.4 -3.14 -0.81 1.58 0 0.94
$hbox 0 "Bone27" 0 -0.87 -0.75 1.522835 0.85 0.73
$hbox 0 "Bone28" 0 -0.56 -0.61 1.23 0.63 0.48
$hbox 0 "Bone_R_Upper" 0 -1.63 -2.69 9.07 1.74 1.69

$sequence "idle1" {
	"v_skull2_anims\idle1"
	fps 30
	loop
}
$sequence "reload1" {
	"v_skull2_anims\reload1"
	{ event 5004 11 "weapons/skull2_clipout.wav" }
	{ event 5004 31 "weapons/skull2_clipin.wav" }
	fps 30
}
$sequence "draw" {
	"v_skull2_anims\draw"
	{ event 5004 3 "weapons/skull2_draw.wav" }
	fps 30
}
$sequence "shoot1" {
	"v_skull2_anims\shoot1"
	{ event 5001 0 "21" }
	fps 30
}
$sequence "shoot_empty" {
	"v_skull2_anims\shoot_empty"
	fps 30
}
$sequence "idle2" {
	"v_skull2_anims\idle2"
	fps 30
	loop
}
$sequence "idle_leftempty" {
	"v_skull2_anims\idle_leftempty"
	fps 30
	loop
}
$sequence "shoot_left1" {
	"v_skull2_anims\shoot_left1"
	{ event 5001 0 "31" }
	{ event 5001 0 "21" }
	fps 30
}
$sequence "shoot_left2" {
	"v_skull2_anims\shoot_left2"
	{ event 5001 0 "21" }
	{ event 5001 0 "11" }
	fps 30
}
$sequence "shoot_leftlast" {
	"v_skull2_anims\shoot_leftlast"
	{ event 5001 0 "31" }
	{ event 5001 0 "21" }
	fps 30
}
$sequence "shoot_right1" {
	"v_skull2_anims\shoot_right1"
	{ event 5021 0 "31" }
	{ event 5021 0 "21" }
	fps 30
}
$sequence "shoot_right2" {
	"v_skull2_anims\shoot_right2"
	{ event 5021 0 "21" }
	{ event 5021 0 "11" }
	fps 30
}
$sequence "shoot_rightlast" {
	"v_skull2_anims\shoot_rightlast"
	{ event 5021 0 "31" }
	{ event 5021 0 "21" }
	fps 30
}
$sequence "reload2" {
	"v_skull2_anims\reload2"
	{ event 5004 13 "weapons/skull2_reload2_1.wav" }
	{ event 5004 55 "weapons/skull2_reload2_2.wav" }
	fps 30
}
$sequence "draw2" {
	"v_skull2_anims\draw2"
	{ event 5004 6 "weapons/skull2_draw2.wav" }
	fps 30
}
$sequence "draw3" {
	"v_skull2_anims\draw3"
	{ event 5004 44 "weapons/skull2_draw3.wav" }
	fps 30
}
$sequence "draw4" {
	"v_skull2_anims\draw4"
	{ event 5004 57 "weapons/skull2_draw4.wav" }
	fps 30
}
