version 1
nodes
  0 "root" -1
  1 "Bone01" 0
  2 "Bone_L_Upper" 1
  3 "Bone_Lefthand" 1
  4 "Bone13" 3
  5 "Bone14" 4
  6 "Bone15" 5
  7 "Bone17" 3
  8 "Bone18" 7
  9 "Bone19" 8
  10 "Bone21" 3
  11 "Bone22" 10
  12 "Bone23" 11
  13 "Bone09" 3
  14 "Bone10" 13
  15 "Bone11" 14
  16 "Bone05" 3
  17 "Bone06" 16
  18 "Bone07" 17
  19 "Bone_Se_Hand-L" 3
  20 "Bone04" 0
  21 "Bone_Righthand" 20
  22 "Bone39" 21
  23 "Bone40" 22
  24 "Bone41" 23
  25 "Bone35" 21
  26 "Bone36" 25
  27 "Bone37" 26
  28 "Bone31" 21
  29 "Bone32" 28
  30 "Bone33" 29
  31 "Bone43" 21
  32 "Bone44" 31
  33 "Bone45" 32
  34 "Bone27" 21
  35 "Bone28" 34
  36 "Bone29" 35
  37 "Bone_Se_Hand-R" 21
  38 "Bone_R_Upper" 20
  39 "Dummy03" 3
  40 "Bone24" 39
  41 "Dummy02" 40
  42 "Bone08" 41
  43 "Dummy04" 40
  44 "Bone16" 43
  45 "Bone02" 40
  46 "Bone25" 40
  47 "Dummy05" 40
  48 "Bone52" 47
  49 "Dummy07" 48
  50 "Bone48" 49
  51 "Dummy01" 40
  52 "Bone38" 51
  53 "Dummy06" 52
  54 "Bone56" 53
  55 "Bone20" 40
  56 "Bone03" 55
  57 "Bone30" 56
  58 "Bone50" 56
  59 "Bone12" 56
  60 "Bone46" 56
  61 "Bone49" 40
  62 "Bone51" 40
  63 "Bone53" 40
  64 "Bone55" 40
  65 "Bone26" 40
  66 "Bone34" 40
  67 "Bone42" 40
  68 "Bone47" 40
end
skeleton
  time 0
    0 -0.002752 1.330807 0.977211 0.000000 0.000000 0.000000
    1 9.536673 -7.084825 -12.577490 4.626118 -0.616106 1.113095
    2 1.257180 8.762585 -0.153713 -1.570562 0.002683 -1.566807
    3 -0.071921 -8.498736 -0.104134 0.346596 0.123570 0.113507
    4 -0.488518 -2.755602 -0.228260 -0.443730 0.002734 -0.069764
    5 0.039887 -1.479790 0.029854 -1.427606 0.000000 0.000001
    6 0.028786 -1.075731 -0.023109 -1.452341 0.000000 0.000000
    7 0.250027 -2.820665 -0.238396 -0.328116 -0.002921 0.008443
    8 -0.049759 -1.680544 0.100479 -1.480637 0.000000 -0.000002
    9 -0.034142 -1.148312 0.084782 -1.616076 0.000000 0.000000
    10 0.957766 -2.637402 -0.090302 0.152565 -0.162277 0.191558
    11 -0.033420 -1.397129 -0.011257 -0.301650 0.000000 -0.000001
    12 -0.022360 -0.957436 0.018784 -0.284823 0.000000 0.000000
    13 -1.180681 -2.507217 -0.193859 -0.187182 0.067153 -0.032044
    14 -0.024967 -1.123934 0.017597 -1.307442 0.000000 0.000001
    15 -0.020057 -0.890968 0.010090 -1.137970 0.000000 0.000000
    16 0.583510 -1.197277 0.185379 -0.189900 -0.736011 -0.901072
    17 1.535927 0.010246 0.005009 -0.002964 -0.012979 -0.709846
    18 1.100771 0.004527 -0.010679 -0.016075 -0.002100 -1.524341
    19 0.120153 -0.050270 -0.054489 3.362742 6.119188 -1.416259
    20 -0.294207 -5.535957 -19.298747 0.956936 -2.867394 0.707956
    21 0.096944 -8.450418 -0.009365 0.640299 -0.723598 -0.349334
    22 0.447953 -2.798986 -0.200443 -0.889582 0.013789 0.139424
    23 -0.032909 -1.480204 0.004940 -0.505548 0.062919 0.014467
    24 -0.027022 -1.076920 -0.020210 -1.246298 0.000000 0.000000
    25 -0.249534 -2.846964 -0.174213 -0.878261 0.013094 0.103588
    26 0.043235 -1.683941 0.096012 -0.629537 0.002823 -0.000167
    27 0.031729 -1.160830 0.058838 -0.338870 0.000642 0.008372
    28 -0.963866 -2.785145 -0.085350 -0.577807 -0.047358 -0.104512
    29 0.028479 -1.403067 0.006271 -0.678210 0.000000 0.000000
    30 0.021413 -0.957781 0.020046 -0.682583 0.000000 0.000000
    31 1.164475 -2.543940 -0.170330 -0.894306 -0.112179 0.129175
    32 0.024032 -1.129042 0.017807 -1.524141 0.000000 0.000001
    33 0.014898 -0.883989 -0.019848 -0.394942 0.000000 0.000000
    34 -0.586770 -1.264477 0.200161 -0.026427 -0.437547 -2.286061
    35 1.522835 0.058681 0.016848 0.001410 0.008985 0.320174
    36 1.117947 0.048424 -0.005766 -0.006751 -0.024275 0.327454
    37 -0.139399 -0.111698 0.014397 0.033993 0.270156 1.413203
    38 -1.393470 8.839177 -0.239433 1.580804 -0.005023 -1.566847
    39 4.037619 0.364868 0.785872 3.139127 0.026522 -1.569892
    40 0.000119 0.001900 -0.000166 0.000000 -0.000007 -0.000006
    41 -0.212026 1.198041 -0.003298 0.000000 0.000000 0.000000
    42 -4.199347 1.921934 0.460952 0.000001 0.000000 -0.305860
    43 12.989372 2.173249 0.000001 0.000000 0.000000 1.570796
    44 0.000000 0.000000 0.000000 0.000000 0.000000 0.000000
    45 5.334665 2.269274 0.000000 0.000000 0.000000 1.570796
    46 6.511800 -2.014933 0.032135 -3.141592 -0.000001 -1.570796
    47 8.101400 -1.025815 0.419536 0.000000 -0.000001 -1.570796
    48 0.000000 7.996339 0.000000 0.000000 0.000000 -1.308965
    49 0.008023 -0.002687 0.285647 3.141592 -1.570796 0.000000
    50 0.000000 0.000000 0.000000 -0.087260 -1.570796 0.000000
    51 8.108366 -1.025815 -0.425124 0.000000 -0.000001 -1.570796
    52 0.000000 7.996338 0.000000 0.000000 0.000000 -1.308965
    53 0.008023 0.007038 -0.288511 0.000000 1.570796 0.000000
    54 0.000000 0.000000 0.000000 0.087260 -1.570796 0.000000
    55 5.084954 0.806697 0.023011 3.141592 0.000000 0.000000
    56 -0.003555 0.001832 0.000000 0.000000 0.000000 0.000000
    57 -0.549192 -0.548297 0.167251 0.000000 0.000000 -0.959943
    58 0.547373 -0.548296 0.167251 0.000000 0.000000 0.610853
    59 0.547373 0.548269 0.167251 0.000000 0.000000 2.181649
    60 -0.549192 0.548269 0.167251 0.000000 0.000000 3.752446
    61 -251.966359 0.499901 0.023015 -3.141592 -0.000001 -1.570796
    62 -249.485694 0.499901 0.023015 -3.141592 -0.000001 -1.570796
    63 -247.251868 0.499902 0.023015 -3.141592 -0.000001 -1.570796
    64 -245.251898 0.499901 0.023015 -3.141592 -0.000001 -1.570796
    65 9.007061 -0.625440 0.023009 -3.141592 -0.000001 -1.570796
    66 11.487696 -0.625439 0.023009 -3.141592 -0.000001 -1.570796
    67 13.721521 -0.625439 0.023008 -3.141592 -0.000001 -1.570796
    68 15.721521 -0.625439 0.023008 -3.141592 -0.000001 -1.570796
  time 1
    0 -0.002752 1.330807 0.977211 0.000000 0.000000 0.000000
    1 9.564017 -7.416866 -12.796247 4.622886 -0.585874 1.109747
    2 1.257180 8.762585 -0.153713 -1.570562 0.002683 -1.566807
    3 -0.071921 -8.498736 -0.104134 0.345589 0.130665 0.111506
    4 -0.488518 -2.755602 -0.228260 -0.449942 0.002734 -0.069764
    5 0.039887 -1.479790 0.029854 -1.418142 0.000000 0.000001
    6 0.028786 -1.075731 -0.023109 -1.489290 0.000000 0.000000
    7 0.250027 -2.820665 -0.238396 -0.336124 -0.002921 0.008443
    8 -0.049759 -1.680544 0.100479 -1.466854 0.000000 -0.000002
    9 -0.034142 -1.148312 0.084782 -1.650689 0.000000 0.000000
    10 0.957766 -2.637402 -0.090302 0.152565 -0.162277 0.191558
    11 -0.033420 -1.397129 -0.011257 -0.301650 0.000000 -0.000001
    12 -0.022360 -0.957436 0.018784 -0.284823 0.000000 0.000000
    13 -1.180681 -2.507217 -0.193859 -0.187182 0.067153 -0.032044
    14 -0.024967 -1.123934 0.017597 -1.307442 0.000000 0.000001
    15 -0.020057 -0.890968 0.010090 -1.180521 0.000000 0.000000
    16 0.583510 -1.197277 0.185379 -0.199343 -0.733794 -0.886951
    17 1.535927 0.010246 0.005009 -0.002964 -0.012979 -0.726987
    18 1.100771 0.004527 -0.010679 -0.016099 -0.001812 -1.506437
    19 0.120153 -0.050270 -0.054489 3.362742 6.119188 -1.416259
    20 -0.430930 -7.946186 -15.829891 0.979533 -2.830510 0.685184
    21 0.096944 -8.450418 -0.009365 0.612314 -0.653937 -0.296694
    22 0.447953 -2.798986 -0.200443 -0.928148 0.013789 0.139424
    23 -0.032909 -1.480204 0.004940 -0.580970 0.062919 0.014467
    24 -0.027022 -1.076920 -0.020210 -1.313143 0.000000 0.000000
    25 -0.249534 -2.846964 -0.174213 -0.930007 0.013094 0.103588
    26 0.043235 -1.683941 0.096012 -0.707754 0.002823 -0.000167
    27 0.031729 -1.160830 0.058838 -0.392157 0.000642 0.008372
    28 -0.963866 -2.785145 -0.085350 -0.560651 -0.063274 -0.134665
    29 0.028479 -1.403067 0.006271 -0.971321 0.000000 0.000000
    30 0.021413 -0.957781 0.020046 -0.819230 0.000000 0.000000
    31 1.164475 -2.543940 -0.170330 -0.921648 -0.112179 0.129175
    32 0.024032 -1.129042 0.017807 -1.557915 0.000000 0.000001
    33 0.014898 -0.883989 -0.019848 -0.465143 0.000000 0.000000
    34 -0.586770 -1.264477 0.200161 -0.027988 -0.544111 -2.282780
    35 1.522835 0.058681 0.016848 0.001410 0.008985 0.320174
    36 1.117947 0.048424 -0.005766 0.010076 -0.023077 -0.355871
    37 -0.139399 -0.111698 0.014397 0.033993 0.270156 1.413203
    38 -1.393470 8.839177 -0.239433 1.580804 -0.005023 -1.566847
    39 4.037619 0.364868 0.785872 3.139127 0.026522 -1.569892
    40 0.000119 0.001900 -0.000166 0.000000 -0.000007 -0.000006
    41 -0.212026 1.198041 -0.003298 0.000000 0.000000 0.000000
    42 -1.238319 1.562548 -0.078127 0.000001 0.000000 -0.376932
    43 12.989372 2.173249 0.000001 0.000000 0.000000 1.570796
    44 0.000000 0.000000 0.000000 0.000000 0.000000 0.000000
    45 5.334665 2.269274 0.000000 0.000000 0.000000 1.570796
    46 6.511800 -2.014933 0.032135 -3.141592 -0.000001 -1.570796
    47 8.101400 -1.025815 0.419536 0.000000 -0.000001 -1.570796
    48 0.000000 7.996339 0.000000 0.000000 0.000000 -1.308965
    49 0.008023 -0.002687 0.285647 3.141592 -1.570796 0.000000
    50 0.000000 0.000000 0.000000 -0.087260 -1.570796 0.000000
    51 8.108366 -1.025815 -0.425124 0.000000 -0.000001 -1.570796
    52 0.000000 7.996338 0.000000 0.000000 0.000000 -1.308965
    53 0.008023 0.007038 -0.288511 0.000000 1.570796 0.000000
    54 0.000000 0.000000 0.000000 0.087260 -1.570796 0.000000
    55 5.084954 0.806697 0.023011 3.141592 0.000000 0.000000
    56 -0.003555 0.001832 0.000000 0.000000 0.000000 0.000000
    57 -0.549192 -0.548297 0.167251 0.000000 0.000000 -0.959943
    58 0.547373 -0.548296 0.167251 0.000000 0.000000 0.610853
    59 0.547373 0.548269 0.167251 0.000000 0.000000 2.181649
    60 -0.549192 0.548269 0.167251 0.000000 0.000000 3.752446
    61 -251.966359 0.499901 0.023015 -3.141592 -0.000001 -1.570796
    62 -249.493658 0.499901 0.023015 -3.141592 -0.000001 -1.570796
    63 -247.251868 0.499902 0.023015 -3.141592 -0.000001 -1.570796
    64 -245.251898 0.499901 0.023015 -3.141592 -0.000001 -1.570796
    65 9.007061 -0.625440 0.023009 -3.141592 -0.000001 -1.570796
    66 11.487696 -0.625439 0.023009 -3.141592 -0.000001 -1.570796
    67 13.721521 -0.625439 0.023008 -3.141592 -0.000001 -1.570796
    68 15.721521 -0.625439 0.023008 -3.141592 -0.000001 -1.570796
  time 2
    0 -0.002752 1.330807 0.977211 0.000000 0.000000 0.000000
    1 9.646051 -7.588746 -13.046255 4.619144 -0.566962 1.111947
    2 1.257180 8.762585 -0.153713 -1.570562 0.002683 -1.566807
    3 -0.071921 -8.498736 -0.104134 0.343049 0.140324 0.106113
    4 -0.488518 -2.755602 -0.228260 -0.463645 0.002734 -0.069764
    5 0.039887 -1.479790 0.029854 -1.397371 0.000000 0.000001
    6 0.028786 -1.075731 -0.023109 -1.570620 0.000000 0.000000
    7 0.250027 -2.820665 -0.238396 -0.353747 -0.002921 0.008443
    8 -0.049759 -1.680544 0.100479 -1.436540 0.000000 -0.000002
    9 -0.034142 -1.148312 0.084782 -1.726826 0.000000 0.000000
    10 0.957766 -2.637402 -0.090302 0.152565 -0.162277 0.191558
    11 -0.033420 -1.397129 -0.011257 -0.301650 0.000000 -0.000001
    12 -0.022360 -0.957436 0.018784 -0.284823 0.000000 0.000000
    13 -1.180681 -2.507217 -0.193859 -0.187182 0.067153 -0.032044
    14 -0.024967 -1.123934 0.017597 -1.307442 0.000000 0.000001
    15 -0.020057 -0.890968 0.010090 -1.203645 0.000000 0.000000
    16 0.583510 -1.197277 0.185379 -0.216889 -0.729672 -0.860691
    17 1.535927 0.010246 0.005009 -0.002964 -0.012979 -0.758826
    18 1.100771 0.004527 -0.010679 -0.016147 -0.001273 -1.473146
    19 0.120153 -0.050270 -0.054489 3.362742 6.119188 -1.416259
    20 -0.239518 -8.391513 -15.193153 1.000649 -2.810127 0.668631
    21 0.096944 -8.450418 -0.009365 0.551308 -0.520921 -0.182227
    22 0.447953 -2.798986 -0.200443 -0.977294 0.013789 0.139424
    23 -0.032909 -1.480204 0.004940 -0.726422 0.062919 0.014467
    24 -0.027022 -1.076920 -0.020210 -1.381834 0.000000 0.000000
    25 -0.249534 -2.846964 -0.174213 -0.988984 0.013094 0.103588
    26 0.043235 -1.683941 0.096012 -0.856535 0.002823 -0.000167
    27 0.031729 -1.160830 0.058838 -0.509081 0.000642 0.008372
    28 -0.963866 -2.785145 -0.085350 -0.543496 -0.076385 -0.158790
    29 0.028479 -1.403067 0.006271 -1.239812 0.000000 0.000000
    30 0.021413 -0.957781 0.020046 -0.945670 0.000000 0.000000
    31 1.164475 -2.543940 -0.170330 -0.953240 -0.112179 0.129175
    32 0.024032 -1.129042 0.017807 -1.581956 0.000000 0.000001
    33 0.014898 -0.883989 -0.019848 -0.605292 0.000000 0.000000
    34 -0.586770 -1.264477 0.200161 -0.047949 -0.521663 -2.241190
    35 1.522835 0.058681 0.016848 0.001410 0.008985 0.320174
    36 1.117947 0.048424 -0.005766 0.009309 -0.023292 -0.321015
    37 -0.139399 -0.111698 0.014397 0.033993 0.270156 1.413203
    38 -1.393470 8.839177 -0.239433 1.580804 -0.005023 -1.566847
    39 4.037619 0.364868 0.785872 3.139127 0.026522 -1.569892
    40 0.000119 0.001900 -0.000166 0.000000 -0.000007 -0.000006
    41 -0.212026 1.198041 -0.003298 0.000000 0.000000 0.000000
    42 -0.589862 1.171911 -0.019532 0.000001 0.000000 -0.413143
    43 12.989372 2.173249 0.000001 0.000000 0.000000 1.570796
    44 0.000000 0.000000 0.000000 0.000000 0.000000 0.000000
    45 5.334665 2.269274 0.000000 0.000000 0.000000 1.570796
    46 6.511800 -2.014933 0.032135 -3.141592 -0.000001 -1.570796
    47 8.101400 -1.025815 0.419536 0.000000 -0.000001 -1.570796
    48 0.000000 7.996339 0.000000 0.000000 0.000000 -1.308965
    49 0.008023 -0.002687 0.285647 3.141592 -1.570796 0.000000
    50 0.000000 0.000000 0.000000 -0.087260 -1.570796 0.000000
    51 8.108366 -1.025815 -0.425124 0.000000 -0.000001 -1.570796
    52 0.000000 7.996338 0.000000 0.000000 0.000000 -1.308965
    53 0.008023 0.007038 -0.288511 0.000000 1.570796 0.000000
    54 0.000000 0.000000 0.000000 0.087260 -1.570796 0.000000
    55 5.084954 0.806697 0.023011 3.141592 0.000000 0.000000
    56 -0.003555 0.001832 0.000000 0.000000 0.000000 0.000000
    57 -0.549192 -0.548297 0.167251 0.000000 0.000000 -0.959943
    58 0.547373 -0.548296 0.167251 0.000000 0.000000 0.610853
    59 0.547373 0.548269 0.167251 0.000000 0.000000 2.181649
    60 -0.549192 0.548269 0.167251 0.000000 0.000000 3.752446
    61 -251.966359 0.499901 0.023015 -3.141592 -0.000001 -1.570796
    62 -249.485694 0.499901 0.023015 -3.141592 -0.000001 -1.570796
    63 -247.251868 0.499902 0.023015 -3.141592 -0.000001 -1.570796
    64 -245.251898 0.499901 0.023015 -3.141592 -0.000001 -1.570796
    65 9.007061 -0.625440 0.023009 -3.141592 -0.000001 -1.570796
    66 11.487696 -0.625439 0.023009 -3.141592 -0.000001 -1.570796
    67 13.721521 -0.625439 0.023008 -3.141592 -0.000001 -1.570796
    68 15.721521 -0.625439 0.023008 -3.141592 -0.000001 -1.570796
  time 3
    0 -0.002752 1.330807 0.977211 0.000000 0.000000 0.000000
    1 9.747617 -7.662967 -13.292356 4.615062 -0.556205 1.118261
    2 1.257180 8.762585 -0.153713 -1.570562 0.002683 -1.566807
    3 -0.071921 -8.498736 -0.104134 0.339705 0.148845 0.098311
    4 -0.488518 -2.755602 -0.228260 -0.477348 0.002734 -0.069764
    5 0.039887 -1.479790 0.029854 -1.376558 0.000000 0.000001
    6 0.028786 -1.075731 -0.023109 -1.651898 0.000000 0.000000
    7 0.250027 -2.820665 -0.238396 -0.371356 -0.002921 0.008443
    8 -0.049759 -1.680544 0.100479 -1.406225 0.000000 -0.000002
    9 -0.034142 -1.148312 0.084782 -1.802964 0.000000 0.000000
    10 0.957766 -2.637402 -0.090302 0.152565 -0.162277 0.191558
    11 -0.033420 -1.397129 -0.011257 -0.301650 0.000000 -0.000001
    12 -0.022360 -0.957436 0.018784 -0.284823 0.000000 0.000000
    13 -1.180681 -2.507217 -0.193859 -0.187182 0.067153 -0.032044
    14 -0.024967 -1.123934 0.017597 -1.307442 0.000000 0.000001
    15 -0.020057 -0.890968 0.010090 -1.202180 0.000000 0.000000
    16 0.583510 -1.197277 0.185379 -0.226333 -0.727442 -0.846553
    17 1.535927 0.010246 0.005009 -0.002964 -0.012979 -0.775967
    18 1.100771 0.004527 -0.010679 -0.016183 -0.000985 -1.455241
    19 0.120153 -0.050270 -0.054489 3.362742 6.119188 -1.416259
    20 0.030022 -8.590737 -14.884550 1.021064 -2.802200 0.659255
    21 0.096944 -8.450418 -0.009365 0.491802 -0.438421 -0.071034
    22 0.447953 -2.798986 -0.200443 -1.029178 0.013789 0.139424
    23 -0.032909 -1.480204 0.004940 -0.904583 0.062919 0.014467
    24 -0.027022 -1.076920 -0.020210 -1.446168 0.000000 0.000000
    25 -0.249534 -2.846964 -0.174213 -1.047780 0.013094 0.103588
    26 0.043235 -1.683941 0.096012 -1.038049 0.002823 -0.000167
    27 0.031729 -1.160830 0.058838 -0.656939 0.000642 0.008372
    28 -0.963866 -2.785145 -0.085350 -0.619797 -0.077979 -0.144936
    29 0.028479 -1.403067 0.006271 -1.233330 0.000000 0.000000
    30 0.021413 -0.957781 0.020046 -0.970441 0.000000 0.000000
    31 1.164475 -2.543940 -0.170330 -0.984934 -0.112179 0.129175
    32 0.024032 -1.129042 0.017807 -1.597821 0.000000 0.000001
    33 0.014898 -0.883989 -0.019848 -0.778533 0.000000 0.000000
    34 -0.586770 -1.264477 0.200161 -0.065806 -0.499200 -2.204000
    35 1.522835 0.058681 0.016848 0.001410 0.008985 0.320174
    36 1.117947 0.048424 -0.005766 0.007427 -0.023796 -0.237911
    37 -0.139399 -0.111698 0.014397 0.033993 0.270156 1.413203
    38 -1.393470 8.839177 -0.239433 1.580804 -0.005023 -1.566847
    39 4.037619 0.364868 0.785872 3.139127 0.026522 -1.569892
    40 0.000119 0.001900 -0.000166 0.000000 -0.000007 -0.000006
    41 -0.212026 1.198041 -0.003298 0.000000 0.000000 0.000000
    42 0.000000 0.000000 0.000000 0.000001 0.000000 0.000000
    43 12.989372 2.173249 0.000001 0.000000 0.000000 1.570796
    44 0.000000 0.000000 0.000000 0.000000 0.000000 0.000000
    45 5.334665 2.269274 0.000000 0.000000 0.000000 1.570796
    46 6.511800 -2.014933 0.032135 -3.141592 -0.000001 -1.570796
    47 8.101400 -1.025815 0.419536 0.000000 -0.000001 -1.570796
    48 0.000000 7.996339 0.000000 0.000000 0.000000 -1.308965
    49 0.008023 -0.002687 0.285647 3.141592 -1.570796 0.000000
    50 0.000000 0.000000 0.000000 -0.087260 -1.570796 0.000000
    51 8.108366 -1.025815 -0.425124 0.000000 -0.000001 -1.570796
    52 0.000000 7.996338 0.000000 0.000000 0.000000 -1.308965
    53 0.008023 0.007038 -0.288511 0.000000 1.570796 0.000000
    54 0.000000 0.000000 0.000000 0.087260 -1.570796 0.000000
    55 5.084954 0.806697 0.023011 3.141592 0.000000 0.000000
    56 -0.003555 0.001832 0.000000 0.000000 0.000000 0.000000
    57 -0.549192 -0.548297 0.167251 0.000000 0.000000 -0.959943
    58 0.547373 -0.548296 0.167251 0.000000 0.000000 0.610853
    59 0.547373 0.548269 0.167251 0.000000 0.000000 2.181649
    60 -0.549192 0.548269 0.167251 0.000000 0.000000 3.752446
    61 -251.966359 0.499901 0.023015 -3.141592 -0.000001 -1.570796
    62 -249.485694 0.499901 0.023015 -3.141592 -0.000001 -1.570796
    63 -247.251868 0.499902 0.023015 -3.141592 -0.000001 -1.570796
    64 -245.251898 0.499901 0.023015 -3.141592 -0.000001 -1.570796
    65 9.007061 -0.625440 0.023009 -3.141592 -0.000001 -1.570796
    66 11.487696 -0.625439 0.023009 -3.141592 -0.000001 -1.570796
    67 13.721521 -0.625439 0.023008 -3.141592 -0.000001 -1.570796
    68 15.721521 -0.625439 0.023008 -3.141592 -0.000001 -1.570796
  time 4
    0 -0.002752 1.330807 0.977211 0.000000 0.000000 0.000000
    1 9.853089 -7.698125 -13.503300 4.610724 -0.550440 1.127348
    2 1.257180 8.762585 -0.153713 -1.570562 0.002683 -1.566807
    3 -0.071921 -8.498736 -0.104134 0.336301 0.152513 0.089047
    4 -0.488518 -2.755602 -0.228260 -0.483578 0.002734 -0.069764
    5 0.039887 -1.479790 0.029854 -1.367136 0.000000 0.000001
    6 0.028786 -1.075731 -0.023109 -1.688847 0.000000 0.000000
    7 0.250027 -2.820665 -0.238396 -0.379351 -0.002921 0.008443
    8 -0.049759 -1.680544 0.100479 -1.392442 0.000000 -0.000002
    9 -0.034142 -1.148312 0.084782 -1.837577 0.000000 0.000000
    10 0.957766 -2.637402 -0.090302 0.152565 -0.162277 0.191558
    11 -0.033420 -1.397129 -0.011257 -0.301650 0.000000 -0.000001
    12 -0.022360 -0.957436 0.018784 -0.284823 0.000000 0.000000
    13 -1.180681 -2.507217 -0.193859 -0.187182 0.067153 -0.032044
    14 -0.024967 -1.123934 0.017597 -1.307442 0.000000 0.000001
    15 -0.020057 -0.890968 0.010090 -1.198309 0.000000 0.000000
    16 0.583510 -1.197277 0.185379 -0.225242 -0.727706 -0.848191
    17 1.535927 0.010246 0.005009 -0.002964 -0.012979 -0.773976
    18 1.100771 0.004527 -0.010679 -0.016171 -0.001021 -1.457340
    19 0.120153 -0.050270 -0.054489 3.362742 6.119188 -1.416259
    20 0.322999 -8.692303 -14.759546 1.041791 -2.802685 0.657245
    21 0.096944 -8.450418 -0.009365 0.450398 -0.426835 0.003651
    22 0.447953 -2.798986 -0.200443 -1.075960 0.013789 0.139424
    23 -0.032909 -1.480204 0.004940 -1.078078 0.062919 0.014467
    24 -0.027022 -1.076920 -0.020210 -1.499795 0.000000 0.000000
    25 -0.249534 -2.846964 -0.174213 -1.098981 0.013094 0.103588
    26 0.043235 -1.683941 0.096012 -1.214522 0.002823 -0.000167
    27 0.031729 -1.160830 0.058838 -0.803058 0.000642 0.008372
    28 -0.963866 -2.785145 -0.085350 -0.787695 -0.078974 -0.111271
    29 0.028479 -1.403067 0.006271 -1.219001 0.000000 0.000000
    30 0.021413 -0.957781 0.020046 -0.985339 0.000000 0.000000
    31 1.164475 -2.543940 -0.170330 -1.012653 -0.112179 0.129175
    32 0.024032 -1.129042 0.017807 -1.607214 0.000000 0.000001
    33 0.014898 -0.883989 -0.019848 -0.947928 0.000000 0.000000
    34 -0.586770 -1.264477 0.200161 -0.018031 -0.511294 -2.282612
    35 1.522835 0.058681 0.016848 0.001410 0.008985 0.320174
    36 1.117947 0.048424 -0.005766 0.005126 -0.024407 -0.138739
    37 -0.139399 -0.111698 0.014397 0.033993 0.270156 1.413203
    38 -1.393470 8.839177 -0.239433 1.580804 -0.005023 -1.566847
    39 4.037619 0.364868 0.785872 3.139127 0.026522 -1.569892
    40 0.000119 0.001900 -0.000166 0.000000 -0.000007 -0.000006
    41 -0.212026 1.198041 -0.003298 0.000000 0.000000 0.000000
    42 0.000000 0.000000 0.000000 0.000001 0.000000 0.000000
    43 12.989372 2.173249 0.000001 0.000000 0.000000 1.570796
    44 0.000000 0.000000 0.000000 0.000000 0.000000 0.000000
    45 5.334665 2.269274 0.000000 0.000000 0.000000 1.570796
    46 6.511800 -2.014933 0.032135 -3.141592 -0.000001 -1.570796
    47 8.101400 -1.025815 0.419536 0.000000 -0.000001 -1.570796
    48 0.000000 7.996339 0.000000 0.000000 0.000000 -1.308965
    49 0.008023 -0.002687 0.285647 3.141592 -1.570796 0.000000
    50 0.000000 0.000000 0.000000 -0.087260 -1.570796 0.000000
    51 8.108366 -1.025815 -0.425124 0.000000 -0.000001 -1.570796
    52 0.000000 7.996338 0.000000 0.000000 0.000000 -1.308965
    53 0.008023 0.007038 -0.288511 0.000000 1.570796 0.000000
    54 0.000000 0.000000 0.000000 0.087260 -1.570796 0.000000
    55 5.084954 0.806697 0.023011 3.141592 0.000000 0.000000
    56 -0.003555 0.001832 0.000000 0.000000 0.000000 0.000000
    57 -0.549192 -0.548297 0.167251 0.000000 0.000000 -0.959943
    58 0.547373 -0.548296 0.167251 0.000000 0.000000 0.610853
    59 0.547373 0.548269 0.167251 0.000000 0.000000 2.181649
    60 -0.549192 0.548269 0.167251 0.000000 0.000000 3.752446
    61 -251.966359 0.499901 0.023015 -3.141592 -0.000001 -1.570796
    62 -249.485694 0.499901 0.023015 -3.141592 -0.000001 -1.570796
    63 -247.251868 0.499902 0.023015 -3.141592 -0.000001 -1.570796
    64 -245.251898 0.499901 0.023015 -3.141592 -0.000001 -1.570796
    65 9.007061 -0.625440 0.023009 -3.141592 -0.000001 -1.570796
    66 11.487696 -0.625439 0.023009 -3.141592 -0.000001 -1.570796
    67 13.721521 -0.625439 0.023008 -3.141592 -0.000001 -1.570796
    68 15.721521 -0.625439 0.023008 -3.141592 -0.000001 -1.570796
  time 5
    0 -0.002752 1.330807 0.977211 0.000000 0.000000 0.000000
    1 9.927310 -7.756720 -13.640023 4.606217 -0.546432 1.137584
    2 1.257180 8.762585 -0.153713 -1.570562 0.002683 -1.566807
    3 -0.071921 -8.498736 -0.104134 0.332502 0.145765 0.076283
    4 -0.488518 -2.755602 -0.228260 -0.482228 0.002734 -0.069764
    5 0.039887 -1.479790 0.029854 -1.369188 0.000000 0.000001
    6 0.028786 -1.075731 -0.023109 -1.673934 0.000000 0.000000
    7 0.250027 -2.820665 -0.238396 -0.377629 -0.002921 0.008443
    8 -0.049759 -1.680544 0.100479 -1.395419 0.000000 -0.000002
    9 -0.034142 -1.148312 0.084782 -1.829294 0.000000 0.000000
    10 0.957766 -2.637402 -0.090302 0.152565 -0.162277 0.191558
    11 -0.033420 -1.397129 -0.011257 -0.301650 0.000000 -0.000001
    12 -0.022360 -0.957436 0.018784 -0.284823 0.000000 0.000000
    13 -1.180681 -2.507217 -0.193859 -0.187182 0.067153 -0.032044
    14 -0.024967 -1.123934 0.017597 -1.307442 0.000000 0.000001
    15 -0.020057 -0.890968 0.010090 -1.192973 0.000000 0.000000
    16 0.583510 -1.197277 0.185379 -0.222510 -0.728341 -0.852270
    17 1.535927 0.010246 0.005009 -0.002964 -0.012979 -0.769021
    18 1.100771 0.004527 -0.010679 -0.016171 -0.001105 -1.462515
    19 0.120153 -0.050270 -0.054489 3.362742 6.119188 -1.416259
    20 0.615977 -8.821213 -14.685325 1.064856 -2.811097 0.664134
    21 0.096944 -8.450418 -0.009365 0.410474 -0.423383 0.075061
    22 0.447953 -2.798986 -0.200443 -1.109799 0.013789 0.139424
    23 -0.032909 -1.480204 0.004940 -1.209535 0.062919 0.014467
    24 -0.027022 -1.076920 -0.020210 -1.536557 0.000000 0.000000
    25 -0.249534 -2.846964 -0.174213 -1.135137 0.013094 0.103588
    26 0.043235 -1.683941 0.096012 -1.348182 0.002823 -0.000167
    27 0.031729 -1.160830 0.058838 -0.914681 0.000642 0.008372
    28 -0.963866 -2.785145 -0.085350 -0.955593 -0.079501 -0.069577
    29 0.028479 -1.403067 0.006271 -1.204729 0.000000 0.000000
    30 0.021413 -0.957781 0.020046 -0.992591 0.000000 0.000000
    31 1.164475 -2.543940 -0.170330 -1.032286 -0.112179 0.129175
    32 0.024032 -1.129042 0.017807 -1.611643 0.000000 0.000001
    33 0.014898 -0.883989 -0.019848 -1.076623 0.000000 0.000000
    34 -0.586770 -1.264477 0.200161 0.096414 -0.540737 -2.470913
    35 1.522835 0.058681 0.016848 0.001410 0.008985 0.347536
    36 1.117947 0.048424 -0.005766 0.003065 -0.024922 -0.055635
    37 -0.139399 -0.111698 0.014397 0.033993 0.270156 1.413203
    38 -1.393470 8.839177 -0.239433 1.580804 -0.005023 -1.566847
    39 4.037619 0.364868 0.785872 3.139127 0.026522 -1.569892
    40 0.000119 0.001900 -0.000166 0.000000 -0.000007 -0.000006
    41 -0.212026 1.198041 -0.003298 0.000000 0.000000 0.000000
    42 0.000000 0.000000 0.000000 0.000001 0.000000 0.000000
    43 12.989372 2.173249 0.000001 0.000000 0.000000 1.570796
    44 0.000000 0.000000 0.000000 0.000000 0.000000 0.000000
    45 5.334665 2.269274 0.000000 0.000000 0.000000 1.570796
    46 6.511800 -2.014933 0.032135 -3.141592 -0.000001 -1.570796
    47 8.101400 -1.025815 0.419536 0.000000 -0.000001 -1.570796
    48 0.000000 7.996339 0.000000 0.000000 0.000000 -1.308965
    49 0.008023 -0.002687 0.285647 3.141592 -1.570796 0.000000
    50 0.000000 0.000000 0.000000 -0.087260 -1.570796 0.000000
    51 8.108366 -1.025815 -0.425124 0.000000 -0.000001 -1.570796
    52 0.000000 7.996338 0.000000 0.000000 0.000000 -1.308965
    53 0.008023 0.007038 -0.288511 0.000000 1.570796 0.000000
    54 0.000000 0.000000 0.000000 0.087260 -1.570796 0.000000
    55 5.084954 0.806697 0.023011 3.141592 0.000000 0.000000
    56 -0.003555 0.001832 0.000000 0.000000 0.000000 0.000000
    57 -0.549192 -0.548297 0.167251 0.000000 0.000000 -0.959943
    58 0.547373 -0.548296 0.167251 0.000000 0.000000 0.610853
    59 0.547373 0.548269 0.167251 0.000000 0.000000 2.181649
    60 -0.549192 0.548269 0.167251 0.000000 0.000000 3.752446
    61 -251.966359 0.499901 0.023015 -3.141592 -0.000001 -1.570796
    62 -249.485694 0.499901 0.023015 -3.141592 -0.000001 -1.570796
    63 -247.251868 0.499902 0.023015 -3.141592 -0.000001 -1.570796
    64 -245.251898 0.499901 0.023015 -3.141592 -0.000001 -1.570796
    65 9.007061 -0.625440 0.023009 -3.141592 -0.000001 -1.570796
    66 11.487696 -0.625439 0.023009 -3.141592 -0.000001 -1.570796
    67 13.721521 -0.625439 0.023008 -3.141592 -0.000001 -1.570796
    68 15.721521 -0.625439 0.023008 -3.141592 -0.000001 -1.570796
  time 6
    0 -0.002752 1.330807 0.977211 0.000000 0.000000 0.000000
    1 9.939029 -7.795784 -13.448611 4.601879 -0.541019 1.147437
    2 1.257180 8.762585 -0.153713 -1.570562 0.002683 -1.566807
    3 -0.071921 -8.498736 -0.104134 0.328164 0.131276 0.060356
    4 -0.488518 -2.755602 -0.228260 -0.478968 0.002734 -0.069764
    5 0.039887 -1.479790 0.029854 -1.374130 0.000000 0.000001
    6 0.028786 -1.075731 -0.023109 -1.640287 0.000000 0.000000
    7 0.250027 -2.820665 -0.238396 -0.373438 -0.002921 0.008443
    8 -0.049759 -1.680544 0.100479 -1.402654 0.000000 -0.000002
    9 -0.034142 -1.148312 0.084782 -1.810205 0.000000 0.000000
    10 0.957766 -2.637402 -0.090302 0.152565 -0.162277 0.191558
    11 -0.033420 -1.397129 -0.011257 -0.301650 0.000000 -0.000001
    12 -0.022360 -0.957436 0.018784 -0.284823 0.000000 0.000000
    13 -1.180681 -2.507217 -0.193859 -0.187182 0.067153 -0.032044
    14 -0.024967 -1.123934 0.017597 -1.307442 0.000000 0.000001
    15 -0.020057 -0.890968 0.010090 -1.187148 0.000000 0.000000
    16 0.583510 -1.197277 0.185379 -0.218950 -0.729180 -0.857594
    17 1.535927 0.010246 0.005009 -0.002964 -0.012979 -0.762572
    18 1.100771 0.004527 -0.010679 -0.016159 -0.001213 -1.469229
    19 0.120153 -0.050270 -0.054489 3.362742 6.119188 -1.416259
    20 0.869891 -8.926685 -14.279063 1.089323 -2.823635 0.674659
    21 0.096944 -8.450418 -0.009365 0.356680 -0.417179 0.177623
    22 0.447953 -2.798986 -0.200443 -1.122817 0.013789 0.139424
    23 -0.032909 -1.480204 0.004940 -1.261682 0.062919 0.014467
    24 -0.027022 -1.076920 -0.020210 -1.550201 0.000000 0.000000
    25 -0.249534 -2.846964 -0.174213 -1.148801 0.013094 0.103588
    26 0.043235 -1.683941 0.096012 -1.401136 0.002823 -0.000167
    27 0.031729 -1.160830 0.058838 -0.959162 0.000642 0.008372
    28 -0.963866 -2.785145 -0.085350 -1.031925 -0.079657 -0.031670
    29 0.028479 -1.403067 0.006271 -1.198247 0.000000 0.000000
    30 0.021413 -0.957781 0.020046 -0.994510 0.000000 0.000000
    31 1.164475 -2.543940 -0.170330 -1.039722 -0.112179 0.129175
    32 0.024032 -1.129042 0.017807 -1.612762 0.000000 0.000001
    33 0.014898 -0.883989 -0.019848 -1.127720 0.000000 0.000000
    34 -0.586770 -1.264477 0.200161 0.234190 -0.577378 -2.697578
    35 1.522835 0.058681 0.016848 0.001410 0.008985 0.413282
    36 1.117947 0.048424 -0.005766 0.001926 -0.025126 -0.020820
    37 -0.139399 -0.111698 0.014397 0.033993 0.270156 1.413203
    38 -1.393470 8.839177 -0.239433 1.580804 -0.005023 -1.566847
    39 4.037619 0.364868 0.785872 3.139127 0.026522 -1.569892
    40 0.000119 0.001900 -0.000166 0.000000 -0.000007 -0.000006
    41 -0.212026 1.198041 -0.003298 0.000000 0.000000 0.000000
    42 0.000000 0.000000 0.000000 0.000001 0.000000 0.000000
    43 12.989372 2.173249 0.000001 0.000000 0.000000 1.570796
    44 0.000000 0.000000 0.000000 0.000000 0.000000 0.000000
    45 5.334665 2.269274 0.000000 0.000000 0.000000 1.570796
    46 6.511800 -2.014933 0.032135 -3.141592 -0.000001 -1.570796
    47 8.101400 -1.025815 0.419536 0.000000 -0.000001 -1.570796
    48 0.000000 7.996339 0.000000 0.000000 0.000000 -1.308965
    49 0.008023 -0.002687 0.285647 3.141592 -1.570796 0.000000
    50 0.000000 0.000000 0.000000 -0.087260 -1.570796 0.000000
    51 8.108366 -1.025815 -0.425124 0.000000 -0.000001 -1.570796
    52 0.000000 7.996338 0.000000 0.000000 0.000000 -1.308965
    53 0.008023 0.007038 -0.288511 0.000000 1.570796 0.000000
    54 0.000000 0.000000 0.000000 0.087260 -1.570796 0.000000
    55 5.084954 0.806697 0.023011 3.141592 0.000000 0.000000
    56 -0.003555 0.001832 0.000000 0.000000 0.000000 0.000000
    57 -0.549192 -0.548297 0.167251 0.000000 0.000000 -0.959943
    58 0.547373 -0.548296 0.167251 0.000000 0.000000 0.610853
    59 0.547373 0.548269 0.167251 0.000000 0.000000 2.181649
    60 -0.549192 0.548269 0.167251 0.000000 0.000000 3.752446
    61 -251.966359 0.499901 0.023015 -3.141592 -0.000001 -1.570796
    62 -249.485694 0.499901 0.023015 -3.141592 -0.000001 -1.570796
    63 -247.251868 0.499902 0.023015 -3.141592 -0.000001 -1.570796
    64 -245.251898 0.499901 0.023015 -3.141592 -0.000001 -1.570796
    65 9.007061 -0.625440 0.023009 -3.141592 -0.000001 -1.570796
    66 11.487696 -0.625439 0.023009 -3.141592 -0.000001 -1.570796
    67 13.721521 -0.625439 0.023008 -3.141592 -0.000001 -1.570796
    68 15.721521 -0.625439 0.023008 -3.141592 -0.000001 -1.570796
  time 7
    0 -0.002752 1.330807 0.977211 0.000000 0.000000 0.000000
    1 9.899965 -7.748907 -13.143914 4.598052 -0.531035 1.155281
    2 1.257180 8.762585 -0.153713 -1.570562 0.002683 -1.566807
    3 -0.071921 -8.498736 -0.104134 0.324245 0.117650 0.045830
    4 -0.488518 -2.755602 -0.228260 -0.474971 0.002734 -0.069764
    5 0.039887 -1.479790 0.029854 -1.380202 0.000000 0.000001
    6 0.028786 -1.075731 -0.023109 -1.604473 0.000000 0.000000
    7 0.250027 -2.820665 -0.238396 -0.368297 -0.002921 0.008443
    8 -0.049759 -1.680544 0.100479 -1.411491 0.000000 -0.000002
    9 -0.034142 -1.148312 0.084782 -1.788647 0.000000 0.000000
    10 0.957766 -2.637402 -0.090302 0.152565 -0.162277 0.191558
    11 -0.033420 -1.397129 -0.011257 -0.301650 0.000000 -0.000001
    12 -0.022360 -0.957436 0.018784 -0.284823 0.000000 0.000000
    13 -1.180681 -2.507217 -0.193859 -0.187182 0.067153 -0.032044
    14 -0.024967 -1.123934 0.017597 -1.307442 0.000000 0.000001
    15 -0.020057 -0.890968 0.010090 -1.181707 0.000000 0.000000
    16 0.583510 -1.197277 0.185379 -0.215379 -0.730019 -0.862935
    17 1.535927 0.010246 0.005009 -0.002964 -0.012979 -0.756100
    18 1.100771 0.004527 -0.010679 -0.016147 -0.001321 -1.476037
    19 0.120153 -0.050270 -0.054489 3.362742 6.119188 -1.416259
    20 1.155056 -8.192288 -14.243905 1.101400 -2.861085 0.670641
    21 0.096944 -8.450418 -0.009365 0.228483 -0.393493 0.447372
    22 0.447953 -2.798986 -0.200443 -1.120453 0.013789 0.139424
    23 -0.032909 -1.480204 0.004940 -1.238563 0.062919 0.014467
    24 -0.027022 -1.076920 -0.020210 -1.545937 0.000000 0.000000
    25 -0.249534 -2.846964 -0.174213 -1.145458 0.013094 0.103588
    26 0.043235 -1.683941 0.096012 -1.367129 0.002823 -0.000167
    27 0.031729 -1.160830 0.058838 -0.925198 0.000642 0.008372
    28 -0.963866 -2.785145 -0.085350 -0.953271 -0.045717 0.001612
    29 0.028479 -1.403067 0.006271 -1.216272 0.000000 0.000000
    30 0.021413 -0.957781 0.020046 -0.960965 0.000000 0.000000
    31 1.164475 -2.543940 -0.170330 -1.037906 -0.112179 0.129175
    32 0.024032 -1.129042 0.017807 -1.611107 0.000000 0.000001
    33 0.014898 -0.883989 -0.019848 -1.106631 0.000000 0.000000
    34 -0.586770 -1.264477 0.200161 0.351904 -0.610987 -2.891229
    35 1.522835 0.058681 0.016848 0.001410 0.008985 0.492869
    36 1.117947 0.048424 -0.005766 0.001687 -0.024419 -0.021615
    37 -0.139399 -0.111698 0.014397 0.033993 0.270156 1.413203
    38 -1.393470 8.839177 -0.239433 1.580804 -0.005023 -1.566847
    39 4.037619 0.364868 0.785872 3.139127 0.026522 -1.569892
    40 0.000119 0.001900 -0.000166 0.000000 -0.000007 -0.000006
    41 -0.212026 1.198041 -0.003298 0.000000 0.000000 0.000000
    42 0.000000 0.000000 0.000000 0.000001 0.000000 0.000000
    43 12.989372 2.173249 0.000001 0.000000 0.000000 1.570796
    44 0.000000 0.000000 0.000000 0.000000 0.000000 0.000000
    45 5.334665 2.269274 0.000000 0.000000 0.000000 1.570796
    46 6.511800 -2.014933 0.032135 -3.141592 -0.000001 -1.570796
    47 8.101400 -1.025815 0.419536 0.000000 -0.000001 -1.570796
    48 0.000000 7.996339 0.000000 0.000000 0.000000 -1.308965
    49 0.008023 -0.002687 0.285647 3.141592 -1.570796 0.000000
    50 0.000000 0.000000 0.000000 -0.087260 -1.570796 0.000000
    51 8.108366 -1.025815 -0.425124 0.000000 -0.000001 -1.570796
    52 0.000000 7.996338 0.000000 0.000000 0.000000 -1.308965
    53 0.008023 0.007038 -0.288511 0.000000 1.570796 0.000000
    54 0.000000 0.000000 0.000000 0.087260 -1.570796 0.000000
    55 5.084954 0.806697 0.023011 3.141592 0.000000 0.000000
    56 -0.003555 0.001832 0.000000 0.000000 0.000000 0.000000
    57 -0.549192 -0.548297 0.167251 0.000000 0.000000 -0.959943
    58 0.547373 -0.548296 0.167251 0.000000 0.000000 0.610853
    59 0.547373 0.548269 0.167251 0.000000 0.000000 2.181649
    60 -0.549192 0.548269 0.167251 0.000000 0.000000 3.752446
    61 -251.966359 0.499901 0.023015 -3.141592 -0.000001 -1.570796
    62 -249.485694 0.499901 0.023015 -3.141592 -0.000001 -1.570796
    63 -247.251868 0.499902 0.023015 -3.141592 -0.000001 -1.570796
    64 -245.251898 0.499901 0.023015 -3.141592 -0.000001 -1.570796
    65 9.007061 -0.625440 0.023009 -3.141592 -0.000001 -1.570796
    66 11.487696 -0.625439 0.023009 -3.141592 -0.000001 -1.570796
    67 13.721521 -0.625439 0.023008 -3.141592 -0.000001 -1.570796
    68 15.721521 -0.625439 0.023008 -3.141592 -0.000001 -1.570796
  time 8
    0 -0.002752 1.330807 0.977211 0.000000 0.000000 0.000000
    1 9.849182 -7.674686 -13.015004 4.597287 -0.530895 1.157768
    2 1.257180 8.762585 -0.153713 -1.570562 0.002683 -1.566807
    3 -0.071921 -8.498736 -0.104134 0.322675 0.111202 0.039874
    4 -0.488518 -2.755602 -0.228260 -0.470307 0.002734 -0.069764
    5 0.039887 -1.479790 0.029854 -1.387237 0.000000 0.000001
    6 0.028786 -1.075731 -0.023109 -1.566027 0.000000 0.000000
    7 0.250027 -2.820665 -0.238396 -0.362307 -0.002921 0.008443
    8 -0.049759 -1.680544 0.100479 -1.421795 0.000000 -0.000002
    9 -0.034142 -1.148312 0.084782 -1.764237 0.000000 0.000000
    10 0.957766 -2.637402 -0.090302 0.152565 -0.162277 0.191558
    11 -0.033420 -1.397129 -0.011257 -0.301650 0.000000 -0.000001
    12 -0.022360 -0.957436 0.018784 -0.284823 0.000000 0.000000
    13 -1.180681 -2.507217 -0.193859 -0.187182 0.067153 -0.032044
    14 -0.024967 -1.123934 0.017597 -1.307442 0.000000 0.000001
    15 -0.020057 -0.890968 0.010090 -1.175847 0.000000 0.000000
    16 0.583510 -1.197277 0.185379 -0.211532 -0.730930 -0.868701
    17 1.535927 0.010246 0.005009 -0.002964 -0.012979 -0.749106
    18 1.100771 0.004527 -0.010679 -0.016135 -0.001441 -1.483310
    19 0.120153 -0.050270 -0.054489 3.362742 6.119188 -1.416259
    20 1.283966 -7.289916 -14.829861 1.093297 -2.897483 0.665570
    21 0.096944 -8.450418 -0.009365 0.135875 -0.376052 0.645492
    22 0.447953 -2.798986 -0.200443 -1.114376 0.013789 0.139424
    23 -0.032909 -1.480204 0.004940 -1.182269 0.062919 0.014467
    24 -0.027022 -1.076920 -0.020210 -1.535989 0.000000 0.000000
    25 -0.249534 -2.846964 -0.174213 -1.137681 0.013094 0.103588
    26 0.043235 -1.683941 0.096012 -1.274702 0.002823 -0.000167
    27 0.031729 -1.160830 0.058838 -0.833067 0.000642 0.008372
    28 -0.963866 -2.785145 -0.085350 -0.800639 0.013667 0.030518
    29 0.028479 -1.403067 0.006271 -1.247772 0.000000 0.000000
    30 0.021413 -0.957781 0.020046 -0.879556 0.000000 0.000000
    31 1.164475 -2.543940 -0.170330 -1.033691 -0.112179 0.129175
    32 0.024032 -1.129042 0.017807 -1.607165 0.000000 0.000001
    33 0.014898 -0.883989 -0.019848 -1.055280 0.000000 0.000000
    34 -0.586770 -1.264477 0.200161 0.400372 -0.642746 -2.970997
    35 1.522835 0.058681 0.016848 0.001410 0.008985 0.582022
    36 1.117947 0.048424 -0.005766 0.001447 -0.023137 -0.022452
    37 -0.139399 -0.111698 0.014397 0.033993 0.270156 1.413203
    38 -1.393470 8.839177 -0.239433 1.580804 -0.005023 -1.566847
    39 4.037619 0.364868 0.785872 3.139127 0.026522 -1.569892
    40 0.000119 0.001900 -0.000166 0.000000 -0.000007 -0.000006
    41 -0.212026 1.198041 -0.003298 0.000000 0.000000 0.000000
    42 0.000000 0.000000 0.000000 0.000001 0.000000 0.000000
    43 12.989372 2.173249 0.000001 0.000000 0.000000 1.570796
    44 0.000000 0.000000 0.000000 0.000000 0.000000 0.000000
    45 5.334665 2.269274 0.000000 0.000000 0.000000 1.570796
    46 6.511800 -2.014933 0.032135 -3.141592 -0.000001 -1.570796
    47 8.101400 -1.025815 0.419536 0.000000 -0.000001 -1.570796
    48 0.000000 7.996339 0.000000 0.000000 0.000000 -1.308965
    49 0.008023 -0.002687 0.285647 3.141592 -1.570796 0.000000
    50 0.000000 0.000000 0.000000 -0.087260 -1.570796 0.000000
    51 8.108366 -1.025815 -0.425124 0.000000 -0.000001 -1.570796
    52 0.000000 7.996338 0.000000 0.000000 0.000000 -1.308965
    53 0.008023 0.007038 -0.288511 0.000000 1.570796 0.000000
    54 0.000000 0.000000 0.000000 0.087260 -1.570796 0.000000
    55 5.084954 0.806697 0.023011 3.141592 0.000000 0.000000
    56 -0.003555 0.001832 0.000000 0.000000 0.000000 0.000000
    57 -0.549192 -0.548297 0.167251 0.000000 0.000000 -0.959943
    58 0.547373 -0.548296 0.167251 0.000000 0.000000 0.610853
    59 0.547373 0.548269 0.167251 0.000000 0.000000 2.181649
    60 -0.549192 0.548269 0.167251 0.000000 0.000000 3.752446
    61 -251.966359 0.499901 0.023015 -3.141592 -0.000001 -1.570796
    62 -249.485694 0.499901 0.023015 -3.141592 -0.000001 -1.570796
    63 -247.251868 0.499902 0.023015 -3.141592 -0.000001 -1.570796
    64 -245.251898 0.499901 0.023015 -3.141592 -0.000001 -1.570796
    65 9.007061 -0.625440 0.023009 -3.141592 -0.000001 -1.570796
    66 11.487696 -0.625439 0.023009 -3.141592 -0.000001 -1.570796
    67 13.721521 -0.625439 0.023008 -3.141592 -0.000001 -1.570796
    68 15.721521 -0.625439 0.023008 -3.141592 -0.000001 -1.570796
  time 9
    0 -0.002752 1.330807 0.977211 0.000000 0.000000 0.000000
    1 9.790587 -7.600465 -12.905625 4.602220 -0.546573 1.149350
    2 1.257180 8.762585 -0.153713 -1.570562 0.002683 -1.566807
    3 -0.071921 -8.498736 -0.104134 0.324449 0.112113 0.045327
    4 -0.488518 -2.755602 -0.228260 -0.464707 0.002734 -0.069764
    5 0.039887 -1.479790 0.029854 -1.395738 0.000000 0.000001
    6 0.028786 -1.075731 -0.023109 -1.532329 0.000000 0.000000
    7 0.250027 -2.820665 -0.238396 -0.355096 -0.002921 0.008443
    8 -0.049759 -1.680544 0.100479 -1.434204 0.000000 -0.000002
    9 -0.034142 -1.148312 0.084782 -1.737468 0.000000 0.000000
    10 0.957766 -2.637402 -0.090302 0.152565 -0.162277 0.191558
    11 -0.033420 -1.397129 -0.011257 -0.301650 0.000000 -0.000001
    12 -0.022360 -0.957436 0.018784 -0.284823 0.000000 0.000000
    13 -1.180681 -2.507217 -0.193859 -0.187182 0.067153 -0.032044
    14 -0.024967 -1.123934 0.017597 -1.307442 0.000000 0.000001
    15 -0.020057 -0.890968 0.010090 -1.169325 0.000000 0.000000
    16 0.583510 -1.197277 0.185379 -0.206954 -0.732009 -0.875565
    17 1.535927 0.010246 0.005009 -0.002964 -0.012979 -0.740785
    18 1.100771 0.004527 -0.010679 -0.016123 -0.001584 -1.492029
    19 0.120153 -0.050270 -0.054489 3.362742 6.119188 -1.416259
    20 1.108179 -6.864122 -15.775202 1.069843 -2.898292 0.670832
    21 0.096944 -8.450418 -0.009365 0.173231 -0.401793 0.571800
    22 0.447953 -2.798986 -0.200443 -1.102371 0.013789 0.139424
    23 -0.032909 -1.480204 0.004940 -1.093526 0.062919 0.014467
    24 -0.027022 -1.076920 -0.020210 -1.518223 0.000000 0.000000
    25 -0.249534 -2.846964 -0.174213 -1.123400 0.013094 0.103588
    26 0.043235 -1.683941 0.096012 -1.160717 0.002823 -0.000167
    27 0.031729 -1.160830 0.058838 -0.722426 0.000642 0.008372
    28 -0.963866 -2.785145 -0.085350 -0.679871 0.051251 0.046410
    29 0.028479 -1.403067 0.006271 -1.267730 0.000000 0.000000
    30 0.021413 -0.957781 0.020046 -0.784284 0.000000 0.000000
    31 1.164475 -2.543940 -0.170330 -1.025948 -0.112179 0.129175
    32 0.024032 -1.129042 0.017807 -1.600644 0.000000 0.000001
    33 0.014898 -0.883989 -0.019848 -0.973625 0.000000 0.000000
    34 -0.586770 -1.264477 0.200161 0.319782 -0.668987 -2.838230
    35 1.522835 0.058681 0.016848 0.001410 0.008985 0.685017
    36 1.117947 0.048424 -0.005766 -0.006439 -0.021543 0.311135
    37 -0.139399 -0.111698 0.014397 0.033993 0.270156 1.413203
    38 -1.393470 8.839177 -0.239433 1.580804 -0.005023 -1.566847
    39 4.037619 0.364868 0.785872 3.139127 0.026522 -1.569892
    40 0.000119 0.001900 -0.000166 0.000000 -0.000007 -0.000006
    41 -0.212026 1.198041 -0.003298 0.000000 0.000000 0.000000
    42 0.000000 0.000000 0.000000 0.000001 0.000000 0.000000
    43 12.989372 2.173249 0.000001 0.000000 0.000000 1.570796
    44 0.000000 0.000000 0.000000 0.000000 0.000000 0.000000
    45 5.334665 2.269274 0.000000 0.000000 0.000000 1.570796
    46 6.511800 -2.014933 0.032135 -3.141592 -0.000001 -1.570796
    47 8.101400 -1.025815 0.419536 0.000000 -0.000001 -1.570796
    48 0.000000 7.996339 0.000000 0.000000 0.000000 -1.308965
    49 0.008023 -0.002687 0.285647 3.141592 -1.570796 0.000000
    50 0.000000 0.000000 0.000000 -0.087260 -1.570796 0.000000
    51 8.108366 -1.025815 -0.425124 0.000000 -0.000001 -1.570796
    52 0.000000 7.996338 0.000000 0.000000 0.000000 -1.308965
    53 0.008023 0.007038 -0.288511 0.000000 1.570796 0.000000
    54 0.000000 0.000000 0.000000 0.087260 -1.570796 0.000000
    55 5.084954 0.806697 0.023011 3.141592 0.000000 0.000000
    56 -0.003555 0.001832 0.000000 0.000000 0.000000 0.000000
    57 -0.549192 -0.548297 0.167251 0.000000 0.000000 -0.959943
    58 0.547373 -0.548296 0.167251 0.000000 0.000000 0.610853
    59 0.547373 0.548269 0.167251 0.000000 0.000000 2.181649
    60 -0.549192 0.548269 0.167251 0.000000 0.000000 3.752446
    61 -251.966359 0.499901 0.023015 -3.141592 -0.000001 -1.570796
    62 -249.485694 0.499901 0.023015 -3.141592 -0.000001 -1.570796
    63 -247.251868 0.499902 0.023015 -3.141592 -0.000001 -1.570796
    64 -245.251898 0.499901 0.023015 -3.141592 -0.000001 -1.570796
    65 9.007061 -0.625440 0.023009 -3.141592 -0.000001 -1.570796
    66 11.487696 -0.625439 0.023009 -3.141592 -0.000001 -1.570796
    67 13.721521 -0.625439 0.023008 -3.141592 -0.000001 -1.570796
    68 15.721521 -0.625439 0.023008 -3.141592 -0.000001 -1.570796
  time 10
    0 -0.002752 1.330807 0.977211 0.000000 0.000000 0.000000
    1 9.728085 -7.526244 -12.811873 4.607492 -0.562251 1.140071
    2 1.257180 8.762585 -0.153713 -1.570562 0.002683 -1.566807
    3 -0.071921 -8.498736 -0.104134 0.328871 0.114402 0.058965
    4 -0.488518 -2.755602 -0.228260 -0.458765 0.002734 -0.069764
    5 0.039887 -1.479790 0.029854 -1.404783 0.000000 0.000001
    6 0.028786 -1.075731 -0.023109 -1.510087 0.000000 0.000000
    7 0.250027 -2.820665 -0.238396 -0.347461 -0.002921 0.008443
    8 -0.049759 -1.680544 0.100479 -1.447347 0.000000 -0.000002
    9 -0.034142 -1.148312 0.084782 -1.709054 0.000000 0.000000
    10 0.957766 -2.637402 -0.090302 0.152565 -0.162277 0.191558
    11 -0.033420 -1.397129 -0.011257 -0.301650 0.000000 -0.000001
    12 -0.022360 -0.957436 0.018784 -0.284823 0.000000 0.000000
    13 -1.180681 -2.507217 -0.193859 -0.187182 0.067153 -0.032044
    14 -0.024967 -1.123934 0.017597 -1.307442 0.000000 0.000001
    15 -0.020057 -0.890968 0.010090 -1.162071 0.000000 0.000000
    16 0.583510 -1.197277 0.185379 -0.202112 -0.733147 -0.882806
    17 1.535927 0.010246 0.005009 -0.002964 -0.012979 -0.732013
    18 1.100771 0.004527 -0.010679 -0.016111 -0.001728 -1.501215
    19 0.120153 -0.050270 -0.054489 3.362742 6.119188 -1.416259
    20 0.830827 -6.426609 -17.001802 1.046544 -2.882843 0.678104
    21 0.096944 -8.450418 -0.009365 0.266661 -0.466154 0.387569
    22 0.447953 -2.798986 -0.200443 -1.082637 0.013789 0.139424
    23 -0.032909 -1.480204 0.004940 -0.982130 0.062919 0.014467
    24 -0.027022 -1.076920 -0.020210 -1.490794 0.000000 0.000000
    25 -0.249534 -2.846964 -0.174213 -1.100434 0.013094 0.103588
    26 0.043235 -1.683941 0.096012 -1.039628 0.002823 -0.000167
    27 0.031729 -1.160830 0.058838 -0.610158 0.000642 0.008372
    28 -0.963866 -2.785145 -0.085350 -0.642928 0.040992 0.030722
    29 0.028479 -1.403067 0.006271 -1.110740 0.000000 0.000000
    30 0.021413 -0.957781 0.020046 -0.705160 0.000000 0.000000
    31 1.164475 -2.543940 -0.170330 -1.013544 -0.112179 0.129175
    32 0.024032 -1.129042 0.017807 -1.591300 0.000000 0.000001
    33 0.014898 -0.883989 -0.019848 -0.869739 0.000000 0.000000
    34 -0.586770 -1.264477 0.200161 0.203578 -0.683211 -2.648401
    35 1.522835 0.058681 0.016848 0.001410 0.008985 0.789989
    36 1.117947 0.048424 -0.005766 -0.014025 -0.020596 0.644805
    37 -0.139399 -0.111698 0.014397 0.033993 0.270156 1.413203
    38 -1.393470 8.839177 -0.239433 1.580804 -0.005023 -1.566847
    39 4.037619 0.364868 0.785872 3.139127 0.026522 -1.569892
    40 0.000119 0.001900 -0.000166 0.000000 -0.000007 -0.000006
    41 -0.212026 1.198041 -0.003298 0.000000 0.000000 0.000000
    42 0.000000 0.000000 0.000000 0.000001 0.000000 0.000000
    43 12.989372 2.173249 0.000001 0.000000 0.000000 1.570796
    44 0.000000 0.000000 0.000000 0.000000 0.000000 0.000000
    45 5.334665 2.269274 0.000000 0.000000 0.000000 1.570796
    46 6.511800 -2.014933 0.032135 -3.141592 -0.000001 -1.570796
    47 8.101400 -1.025815 0.419536 0.000000 -0.000001 -1.570796
    48 0.000000 7.996339 0.000000 0.000000 0.000000 -1.308965
    49 0.008023 -0.002687 0.285647 3.141592 -1.570796 0.000000
    50 0.000000 0.000000 0.000000 -0.087260 -1.570796 0.000000
    51 8.108366 -1.025815 -0.425124 0.000000 -0.000001 -1.570796
    52 0.000000 7.996338 0.000000 0.000000 0.000000 -1.308965
    53 0.008023 0.007038 -0.288511 0.000000 1.570796 0.000000
    54 0.000000 0.000000 0.000000 0.087260 -1.570796 0.000000
    55 5.084954 0.806697 0.023011 3.141592 0.000000 0.000000
    56 -0.003555 0.001832 0.000000 0.000000 0.000000 0.000000
    57 -0.549192 -0.548297 0.167251 0.000000 0.000000 -0.959943
    58 0.547373 -0.548296 0.167251 0.000000 0.000000 0.610853
    59 0.547373 0.548269 0.167251 0.000000 0.000000 2.181649
    60 -0.549192 0.548269 0.167251 0.000000 0.000000 3.752446
    61 -251.966359 0.499901 0.023015 -3.141592 -0.000001 -1.570796
    62 -249.485694 0.499901 0.023015 -3.141592 -0.000001 -1.570796
    63 -247.251868 0.499902 0.023015 -3.141592 -0.000001 -1.570796
    64 -245.251898 0.499901 0.023015 -3.141592 -0.000001 -1.570796
    65 9.007061 -0.625440 0.023009 -3.141592 -0.000001 -1.570796
    66 11.487696 -0.625439 0.023009 -3.141592 -0.000001 -1.570796
    67 13.721521 -0.625439 0.023008 -3.141592 -0.000001 -1.570796
    68 15.721521 -0.625439 0.023008 -3.141592 -0.000001 -1.570796
  time 11
    0 -0.002752 1.330807 0.977211 0.000000 0.000000 0.000000
    1 9.669489 -7.440304 -12.733745 4.612765 -0.577367 1.130888
    2 1.257180 8.762585 -0.153713 -1.570562 0.002683 -1.566807
    3 -0.071921 -8.498736 -0.104134 0.334636 0.117386 0.076691
    4 -0.488518 -2.755602 -0.228260 -0.453093 0.002734 -0.069764
    5 0.039887 -1.479790 0.029854 -1.413368 0.000000 0.000001
    6 0.028786 -1.075731 -0.023109 -1.488516 0.000000 0.000000
    7 0.250027 -2.820665 -0.238396 -0.340173 -0.002921 0.008443
    8 -0.049759 -1.680544 0.100479 -1.459939 0.000000 -0.000002
    9 -0.034142 -1.148312 0.084782 -1.676964 0.000000 0.000000
    10 0.957766 -2.637402 -0.090302 0.152565 -0.162277 0.191558
    11 -0.033420 -1.397129 -0.011257 -0.301650 0.000000 -0.000001
    12 -0.022360 -0.957436 0.018784 -0.284823 0.000000 0.000000
    13 -1.180681 -2.507217 -0.193859 -0.187182 0.067153 -0.032044
    14 -0.024967 -1.123934 0.017597 -1.307442 0.000000 0.000001
    15 -0.020057 -0.890968 0.010090 -1.153804 0.000000 0.000000
    16 0.583510 -1.197277 0.185379 -0.197498 -0.734226 -0.889703
    17 1.535927 0.010246 0.005009 -0.002964 -0.012979 -0.723644
    18 1.100771 0.004527 -0.010679 -0.016099 -0.001872 -1.509934
    19 0.120153 -0.050270 -0.054489 3.362742 6.119188 -1.416259
    20 0.487067 -6.024253 -18.240121 1.023090 -2.861732 0.687002
    21 0.096944 -8.450418 -0.009365 0.388098 -0.549825 0.148059
    22 0.447953 -2.798986 -0.200443 -1.053338 0.013789 0.139424
    23 -0.032909 -1.480204 0.004940 -0.857878 0.062919 0.014467
    24 -0.027022 -1.076920 -0.020210 -1.451758 0.000000 0.000000
    25 -0.249534 -2.846964 -0.174213 -1.066603 0.013094 0.103588
    26 0.043235 -1.683941 0.096012 -0.925825 0.002823 -0.000167
    27 0.031729 -1.160830 0.058838 -0.513148 0.000642 0.008372
    28 -0.963866 -2.785145 -0.085350 -0.629272 0.016531 -0.006706
    29 0.028479 -1.403067 0.006271 -0.894902 0.000000 0.000000
    30 0.021413 -0.957781 0.020046 -0.672102 0.000000 0.000000
    31 1.164475 -2.543940 -0.170330 -0.995350 -0.112179 0.129175
    32 0.024032 -1.129042 0.017807 -1.579085 0.000000 0.000001
    33 0.014898 -0.883989 -0.019848 -0.751822 0.000000 0.000000
    34 -0.586770 -1.264477 0.200161 0.127645 -0.644814 -2.527584
    35 1.522835 0.058681 0.016848 0.001410 0.008985 0.900864
    36 1.117947 0.048424 -0.005766 -0.012887 -0.021171 0.595219
    37 -0.139399 -0.111698 0.014397 0.033993 0.270156 1.413203
    38 -1.393470 8.839177 -0.239433 1.580804 -0.005023 -1.566847
    39 4.037619 0.364868 0.785872 3.139127 0.026522 -1.569892
    40 0.000119 0.001900 -0.000166 0.000000 -0.000007 -0.000006
    41 -0.212026 1.198041 -0.003298 0.000000 0.000000 0.000000
    42 0.000000 0.000000 0.000000 0.000001 0.000000 0.000000
    43 12.989372 2.173249 0.000001 0.000000 0.000000 1.570796
    44 0.000000 0.000000 0.000000 0.000000 0.000000 0.000000
    45 5.334665 2.269274 0.000000 0.000000 0.000000 1.570796
    46 6.511800 -2.014933 0.032135 -3.141592 -0.000001 -1.570796
    47 8.101400 -1.025815 0.419536 0.000000 -0.000001 -1.570796
    48 0.000000 7.996339 0.000000 0.000000 0.000000 -1.308965
    49 0.008023 -0.002687 0.285647 3.141592 -1.570796 0.000000
    50 0.000000 0.000000 0.000000 -0.087260 -1.570796 0.000000
    51 8.108366 -1.025815 -0.425124 0.000000 -0.000001 -1.570796
    52 0.000000 7.996338 0.000000 0.000000 0.000000 -1.308965
    53 0.008023 0.007038 -0.288511 0.000000 1.570796 0.000000
    54 0.000000 0.000000 0.000000 0.087260 -1.570796 0.000000
    55 5.084954 0.806697 0.023011 3.141592 0.000000 0.000000
    56 -0.003555 0.001832 0.000000 0.000000 0.000000 0.000000
    57 -0.549192 -0.548297 0.167251 0.000000 0.000000 -0.959943
    58 0.547373 -0.548296 0.167251 0.000000 0.000000 0.610853
    59 0.547373 0.548269 0.167251 0.000000 0.000000 2.181649
    60 -0.549192 0.548269 0.167251 0.000000 0.000000 3.752446
    61 -251.966359 0.499901 0.023015 -3.141592 -0.000001 -1.570796
    62 -249.485694 0.499901 0.023015 -3.141592 -0.000001 -1.570796
    63 -247.251868 0.499902 0.023015 -3.141592 -0.000001 -1.570796
    64 -245.251898 0.499901 0.023015 -3.141592 -0.000001 -1.570796
    65 9.007061 -0.625440 0.023009 -3.141592 -0.000001 -1.570796
    66 11.487696 -0.625439 0.023009 -3.141592 -0.000001 -1.570796
    67 13.721521 -0.625439 0.023008 -3.141592 -0.000001 -1.570796
    68 15.721521 -0.625439 0.023008 -3.141592 -0.000001 -1.570796
  time 12
    0 -0.002752 1.330807 0.977211 0.000000 0.000000 0.000000
    1 9.618707 -7.342645 -12.671243 4.617868 -0.591709 1.122661
    2 1.257180 8.762585 -0.153713 -1.570562 0.002683 -1.566807
    3 -0.071921 -8.498736 -0.104134 0.340388 0.120358 0.094416
    4 -0.488518 -2.755602 -0.228260 -0.448286 0.002734 -0.069764
    5 0.039887 -1.479790 0.029854 -1.420654 0.000000 0.000001
    6 0.028786 -1.075731 -0.023109 -1.470042 0.000000 0.000000
    7 0.250027 -2.820665 -0.238396 -0.333990 -0.002921 0.008443
    8 -0.049759 -1.680544 0.100479 -1.470563 0.000000 -0.000002
    9 -0.034142 -1.148312 0.084782 -1.646959 0.000000 0.000000
    10 0.957766 -2.637402 -0.090302 0.152565 -0.162277 0.191558
    11 -0.033420 -1.397129 -0.011257 -0.301650 0.000000 -0.000001
    12 -0.022360 -0.957436 0.018784 -0.284823 0.000000 0.000000
    13 -1.180681 -2.507217 -0.193859 -0.187182 0.067153 -0.032044
    14 -0.024967 -1.123934 0.017597 -1.307442 0.000000 0.000001
    15 -0.020057 -0.890968 0.010090 -1.146027 0.000000 0.000000
    16 0.583510 -1.197277 0.185379 -0.193591 -0.735148 -0.895535
    17 1.535927 0.010246 0.005009 -0.002964 -0.012979 -0.716555
    18 1.100771 0.004527 -0.010679 -0.016087 -0.001992 -1.517347
    19 0.120153 -0.050270 -0.054489 3.362742 6.119188 -1.416259
    20 0.131587 -5.711743 -19.212807 0.999636 -2.845312 0.696283
    21 0.096944 -8.450418 -0.009365 0.509534 -0.633497 -0.091411
    22 0.447953 -2.798986 -0.200443 -1.012596 0.013789 0.139424
    23 -0.032909 -1.480204 0.004940 -0.730465 0.062919 0.014467
    24 -0.027022 -1.076920 -0.020210 -1.399268 0.000000 0.000000
    25 -0.249534 -2.846964 -0.174213 -1.019763 0.013094 0.103588
    26 0.043235 -1.683941 0.096012 -0.825686 0.002823 -0.000167
    27 0.031729 -1.160830 0.058838 -0.451783 0.000642 0.008372
    28 -0.963866 -2.785145 -0.085350 -0.623915 -0.012651 -0.051384
    29 0.028479 -1.403067 0.006271 -0.815128 0.000000 0.000000
    30 0.021413 -0.957781 0.020046 -0.674814 0.000000 0.000000
    31 1.164475 -2.543940 -0.170330 -0.970166 -0.112179 0.129175
    32 0.024032 -1.129042 0.017807 -1.563901 0.000000 0.000001
    33 0.014898 -0.883989 -0.019848 -0.627988 0.000000 0.000000
    34 -0.586770 -1.264477 0.200161 0.052999 -0.560371 -2.410159
    35 1.522835 0.058681 0.016848 0.001410 0.008985 0.750298
    36 1.117947 0.048424 -0.005766 -0.010394 -0.022442 0.486129
    37 -0.139399 -0.111698 0.014397 0.033993 0.270156 1.413203
    38 -1.393470 8.839177 -0.239433 1.580804 -0.005023 -1.566847
    39 4.037619 0.364868 0.785872 3.139127 0.026522 -1.569892
    40 0.000119 0.001900 -0.000166 0.000000 -0.000007 -0.000006
    41 -0.212026 1.198041 -0.003298 0.000000 0.000000 0.000000
    42 0.000000 0.000000 0.000000 0.000001 0.000000 0.000000
    43 12.989372 2.173249 0.000001 0.000000 0.000000 1.570796
    44 0.000000 0.000000 0.000000 0.000000 0.000000 0.000000
    45 5.334665 2.269274 0.000000 0.000000 0.000000 1.570796
    46 6.511800 -2.014933 0.032135 -3.141592 -0.000001 -1.570796
    47 8.101400 -1.025815 0.419536 0.000000 -0.000001 -1.570796
    48 0.000000 7.996339 0.000000 0.000000 0.000000 -1.308965
    49 0.008023 -0.002687 0.285647 3.141592 -1.570796 0.000000
    50 0.000000 0.000000 0.000000 -0.087260 -1.570796 0.000000
    51 8.108366 -1.025815 -0.425124 0.000000 -0.000001 -1.570796
    52 0.000000 7.996338 0.000000 0.000000 0.000000 -1.308965
    53 0.008023 0.007038 -0.288511 0.000000 1.570796 0.000000
    54 0.000000 0.000000 0.000000 0.087260 -1.570796 0.000000
    55 5.084954 0.806697 0.023011 3.141592 0.000000 0.000000
    56 -0.003555 0.001832 0.000000 0.000000 0.000000 0.000000
    57 -0.549192 -0.548297 0.167251 0.000000 0.000000 -0.959943
    58 0.547373 -0.548296 0.167251 0.000000 0.000000 0.610853
    59 0.547373 0.548269 0.167251 0.000000 0.000000 2.181649
    60 -0.549192 0.548269 0.167251 0.000000 0.000000 3.752446
    61 -251.966359 0.499901 0.023015 -3.141592 -0.000001 -1.570796
    62 -249.485694 0.499901 0.023015 -3.141592 -0.000001 -1.570796
    63 -247.251868 0.499902 0.023015 -3.141592 -0.000001 -1.570796
    64 -245.251898 0.499901 0.023015 -3.141592 -0.000001 -1.570796
    65 9.007061 -0.625440 0.023009 -3.141592 -0.000001 -1.570796
    66 11.487696 -0.625439 0.023009 -3.141592 -0.000001 -1.570796
    67 13.721521 -0.625439 0.023008 -3.141592 -0.000001 -1.570796
    68 15.721521 -0.625439 0.023008 -3.141592 -0.000001 -1.570796
  time 13
    0 -0.002752 1.330807 0.977211 0.000000 0.000000 0.000000
    1 9.571830 -7.225454 -12.620461 4.622461 -0.604716 1.116347
    2 1.257180 8.762585 -0.153713 -1.570562 0.002683 -1.566807
    3 -0.071921 -8.498736 -0.104134 0.344822 0.122647 0.108054
    4 -0.488518 -2.755602 -0.228260 -0.444972 0.002734 -0.069764
    5 0.039887 -1.479790 0.029854 -1.425680 0.000000 0.000001
    6 0.028786 -1.075731 -0.023109 -1.457192 0.000000 0.000000
    7 0.250027 -2.820665 -0.238396 -0.329723 -0.002921 0.008443
    8 -0.049759 -1.680544 0.100479 -1.477890 0.000000 -0.000002
    9 -0.034142 -1.148312 0.084782 -1.624743 0.000000 0.000000
    10 0.957766 -2.637402 -0.090302 0.152565 -0.162277 0.191558
    11 -0.033420 -1.397129 -0.011257 -0.301650 0.000000 -0.000001
    12 -0.022360 -0.957436 0.018784 -0.284823 0.000000 0.000000
    13 -1.180681 -2.507217 -0.193859 -0.187182 0.067153 -0.032044
    14 -0.024967 -1.123934 0.017597 -1.307442 0.000000 0.000001
    15 -0.020057 -0.890968 0.010090 -1.140237 0.000000 0.000000
    16 0.583510 -1.197277 0.185379 -0.190906 -0.735784 -0.899581
    17 1.535927 0.010246 0.005009 -0.002964 -0.012979 -0.711672
    18 1.100771 0.004527 -0.010679 -0.016075 -0.002076 -1.522476
    19 0.120153 -0.050270 -0.054489 3.362742 6.119188 -1.416259
    20 -0.157484 -5.532050 -19.654227 0.977195 -2.843856 0.704033
    21 0.096944 -8.450418 -0.009365 0.602944 -0.697837 -0.275642
    22 0.447953 -2.798986 -0.200443 -0.958648 0.013789 0.139424
    23 -0.032909 -1.480204 0.004940 -0.609791 0.062919 0.014467
    24 -0.027022 -1.076920 -0.020210 -1.331429 0.000000 0.000000
    25 -0.249534 -2.846964 -0.174213 -0.957696 0.013094 0.103588
    26 0.043235 -1.683941 0.096012 -0.729858 0.002823 -0.000167
    27 0.031729 -1.160830 0.058838 -0.407527 0.000642 0.008372
    28 -0.963866 -2.785145 -0.085350 -0.611777 -0.037112 -0.088812
    29 0.028479 -1.403067 0.006271 -0.765831 0.000000 0.000000
    30 0.021413 -0.957781 0.020046 -0.679872 0.000000 0.000000
    31 1.164475 -2.543940 -0.170330 -0.936862 -0.112179 0.129175
    32 0.024032 -1.129042 0.017807 -1.545603 0.000000 0.000001
    33 0.014898 -0.883989 -0.019848 -0.506309 0.000000 0.000000
    34 -0.586770 -1.264477 0.200161 -0.003840 -0.475928 -2.321275
    35 1.522835 0.058681 0.016848 0.001410 0.008985 0.470711
    36 1.117947 0.048424 -0.005766 -0.007889 -0.023712 0.377040
    37 -0.139399 -0.111698 0.014397 0.033993 0.270156 1.413203
    38 -1.393470 8.839177 -0.239433 1.580804 -0.005023 -1.566847
    39 4.037619 0.364868 0.785872 3.139127 0.026522 -1.569892
    40 0.000119 0.001900 -0.000166 0.000000 -0.000007 -0.000006
    41 -0.212026 1.198041 -0.003298 0.000000 0.000000 0.000000
    42 0.000000 0.000000 0.000000 0.000001 0.000000 0.000000
    43 12.989372 2.173249 0.000001 0.000000 0.000000 1.570796
    44 0.000000 0.000000 0.000000 0.000000 0.000000 0.000000
    45 5.334665 2.269274 0.000000 0.000000 0.000000 1.570796
    46 6.511800 -2.014933 0.032135 -3.141592 -0.000001 -1.570796
    47 8.101400 -1.025815 0.419536 0.000000 -0.000001 -1.570796
    48 0.000000 7.996339 0.000000 0.000000 0.000000 -1.308965
    49 0.008023 -0.002687 0.285647 3.141592 -1.570796 0.000000
    50 0.000000 0.000000 0.000000 -0.087260 -1.570796 0.000000
    51 8.108366 -1.025815 -0.425124 0.000000 -0.000001 -1.570796
    52 0.000000 7.996338 0.000000 0.000000 0.000000 -1.308965
    53 0.008023 0.007038 -0.288511 0.000000 1.570796 0.000000
    54 0.000000 0.000000 0.000000 0.087260 -1.570796 0.000000
    55 5.084954 0.806697 0.023011 3.141592 0.000000 0.000000
    56 -0.003555 0.001832 0.000000 0.000000 0.000000 0.000000
    57 -0.549192 -0.548297 0.167251 0.000000 0.000000 -0.959943
    58 0.547373 -0.548296 0.167251 0.000000 0.000000 0.610853
    59 0.547373 0.548269 0.167251 0.000000 0.000000 2.181649
    60 -0.549192 0.548269 0.167251 0.000000 0.000000 3.752446
    61 -251.966359 0.499901 0.023015 -3.141592 -0.000001 -1.570796
    62 -249.485694 0.499901 0.023015 -3.141592 -0.000001 -1.570796
    63 -247.251868 0.499902 0.023015 -3.141592 -0.000001 -1.570796
    64 -245.251898 0.499901 0.023015 -3.141592 -0.000001 -1.570796
    65 9.007061 -0.625440 0.023009 -3.141592 -0.000001 -1.570796
    66 11.487696 -0.625439 0.023009 -3.141592 -0.000001 -1.570796
    67 13.721521 -0.625439 0.023008 -3.141592 -0.000001 -1.570796
    68 15.721521 -0.625439 0.023008 -3.141592 -0.000001 -1.570796
  time 14
    0 -0.002752 1.330807 0.977211 0.000000 0.000000 0.000000
    1 9.536673 -7.084825 -12.577490 4.626118 -0.616106 1.113095
    2 1.257180 8.762585 -0.153713 -1.570562 0.002683 -1.566807
    3 -0.071921 -8.498736 -0.104134 0.346596 0.123570 0.113507
    4 -0.488518 -2.755602 -0.228260 -0.443730 0.002734 -0.069764
    5 0.039887 -1.479790 0.029854 -1.427606 0.000000 0.000001
    6 0.028786 -1.075731 -0.023109 -1.452341 0.000000 0.000000
    7 0.250027 -2.820665 -0.238396 -0.328116 -0.002921 0.008443
    8 -0.049759 -1.680544 0.100479 -1.480637 0.000000 -0.000002
    9 -0.034142 -1.148312 0.084782 -1.616076 0.000000 0.000000
    10 0.957766 -2.637402 -0.090302 0.152565 -0.162277 0.191558
    11 -0.033420 -1.397129 -0.011257 -0.301650 0.000000 -0.000001
    12 -0.022360 -0.957436 0.018784 -0.284823 0.000000 0.000000
    13 -1.180681 -2.507217 -0.193859 -0.187182 0.067153 -0.032044
    14 -0.024967 -1.123934 0.017597 -1.307442 0.000000 0.000001
    15 -0.020057 -0.890968 0.010090 -1.137970 0.000000 0.000000
    16 0.583510 -1.197277 0.185379 -0.189900 -0.736011 -0.901072
    17 1.535927 0.010246 0.005009 -0.002964 -0.012979 -0.709846
    18 1.100771 0.004527 -0.010679 -0.016075 -0.002100 -1.524341
    19 0.120153 -0.050270 -0.054489 3.362742 6.119188 -1.416259
    20 -0.294207 -5.535957 -19.298747 0.956936 -2.867394 0.707956
    21 0.096944 -8.450418 -0.009365 0.640299 -0.723598 -0.349334
    22 0.447953 -2.798986 -0.200443 -0.889582 0.013789 0.139424
    23 -0.032909 -1.480204 0.004940 -0.505548 0.062919 0.014467
    24 -0.027022 -1.076920 -0.020210 -1.246298 0.000000 0.000000
    25 -0.249534 -2.846964 -0.174213 -0.878261 0.013094 0.103588
    26 0.043235 -1.683941 0.096012 -0.629537 0.002823 -0.000167
    27 0.031729 -1.160830 0.058838 -0.338870 0.000642 0.008372
    28 -0.963866 -2.785145 -0.085350 -0.577807 -0.047358 -0.104512
    29 0.028479 -1.403067 0.006271 -0.678210 0.000000 0.000000
    30 0.021413 -0.957781 0.020046 -0.682583 0.000000 0.000000
    31 1.164475 -2.543940 -0.170330 -0.894306 -0.112179 0.129175
    32 0.024032 -1.129042 0.017807 -1.524141 0.000000 0.000001
    33 0.014898 -0.883989 -0.019848 -0.394942 0.000000 0.000000
    34 -0.586770 -1.264477 0.200161 -0.026427 -0.437547 -2.286061
    35 1.522835 0.058681 0.016848 0.001410 0.008985 0.320174
    36 1.117947 0.048424 -0.005766 -0.006751 -0.024275 0.327454
    37 -0.139399 -0.111698 0.014397 0.033993 0.270156 1.413203
    38 -1.393470 8.839177 -0.239433 1.580804 -0.005023 -1.566847
    39 4.037619 0.364868 0.785872 3.139127 0.026522 -1.569892
    40 0.000119 0.001900 -0.000166 0.000000 -0.000007 -0.000006
    41 -0.212026 1.198041 -0.003298 0.000000 0.000000 0.000000
    42 -4.199347 1.921934 0.460952 0.000001 0.000000 -0.305860
    43 12.989372 2.173249 0.000001 0.000000 0.000000 1.570796
    44 0.000000 0.000000 0.000000 0.000000 0.000000 0.000000
    45 5.334665 2.269274 0.000000 0.000000 0.000000 1.570796
    46 6.511800 -2.014933 0.032135 -3.141592 -0.000001 -1.570796
    47 8.101400 -1.025815 0.419536 0.000000 -0.000001 -1.570796
    48 0.000000 7.996339 0.000000 0.000000 0.000000 -1.308965
    49 0.008023 -0.002687 0.285647 3.141592 -1.570796 0.000000
    50 0.000000 0.000000 0.000000 -0.087260 -1.570796 0.000000
    51 8.108366 -1.025815 -0.425124 0.000000 -0.000001 -1.570796
    52 0.000000 7.996338 0.000000 0.000000 0.000000 -1.308965
    53 0.008023 0.007038 -0.288511 0.000000 1.570796 0.000000
    54 0.000000 0.000000 0.000000 0.087260 -1.570796 0.000000
    55 5.084954 0.806697 0.023011 3.141592 0.000000 0.000000
    56 -0.003555 0.001832 0.000000 0.000000 0.000000 0.000000
    57 -0.549192 -0.548297 0.167251 0.000000 0.000000 -0.959943
    58 0.547373 -0.548296 0.167251 0.000000 0.000000 0.610853
    59 0.547373 0.548269 0.167251 0.000000 0.000000 2.181649
    60 -0.549192 0.548269 0.167251 0.000000 0.000000 3.752446
    61 -251.966359 0.499901 0.023015 -3.141592 -0.000001 -1.570796
    62 -249.485694 0.499901 0.023015 -3.141592 -0.000001 -1.570796
    63 -247.251868 0.499902 0.023015 -3.141592 -0.000001 -1.570796
    64 -245.251898 0.499901 0.023015 -3.141592 -0.000001 -1.570796
    65 9.007061 -0.625440 0.023009 -3.141592 -0.000001 -1.570796
    66 11.487696 -0.625439 0.023009 -3.141592 -0.000001 -1.570796
    67 13.721521 -0.625439 0.023008 -3.141592 -0.000001 -1.570796
    68 15.721521 -0.625439 0.023008 -3.141592 -0.000001 -1.570796
end
