version 1
nodes
  0 "Bone01" -1
  1 "Bone_Lefthand" 0
  2 "Bone_Scar" 1
  3 "Bone_FireBody_H" 2
  4 "Bone_FireBody_Trans_L" 3
  5 "Bone_Bipod" 4
  6 "Bone_Bullet_Point" 2
  7 "Bone_Norishe" 2
  8 "Bone_Null" 2
  9 "Bone_FirePin" 8
  10 "Bone_Magazine" 8
  11 "Bone_Magazine_Lite" 8
  12 "Bone4" 1
  13 "Bone13" 12
  14 "Bone14" 13
  15 "Bone15" 14
  16 "Bone17" 12
  17 "Bone18" 16
  18 "Bone19" 17
  19 "Bone21" 12
  20 "Bone22" 19
  21 "Bone23" 20
  22 "Bone05" 12
  23 "Bone06" 22
  24 "Bone07" 23
  25 "Bone09" 12
  26 "Bone10" 25
  27 "Bone11" 26
  28 "Bone04" -1
  29 "Bone_Righthand" 28
  30 "Bone26" 29
  31 "Bone35" 30
  32 "Bone36" 31
  33 "Bone37" 32
  34 "Bone31" 30
  35 "Bone32" 34
  36 "Bone33" 35
  37 "Bone39" 30
  38 "Bone40" 37
  39 "Bone41" 38
  40 "Bone43" 30
  41 "Bone44" 40
  42 "Bone45" 41
  43 "Bone27" 30
  44 "Bone28" 43
  45 "Bone29" 44
end
skeleton
  time 0
    0 9.486894 1.914496 -7.668103 0.005838 -1.481035 -0.138529
    1 -0.021280 -8.563255 -0.000751 0.227867 -0.070856 -0.007364
    2 0.130659 -2.124660 0.560144 0.930310 1.695867 0.941617
    3 0.020044 -12.116384 2.673301 0.000000 0.000000 0.000000
    4 -0.019949 6.033916 0.667370 0.000000 0.000000 0.000000
    5 -0.149971 20.671434 -1.460096 1.587326 0.000000 0.000000
    6 0.033347 -2.674108 2.782817 0.000000 0.000000 0.000000
    7 0.000513 -7.537987 3.585761 0.000000 0.000000 0.000000
    8 -0.294703 -6.287284 2.026899 0.000000 0.000000 0.000000
    9 1.007304 3.926682 -0.773263 0.000000 0.000000 0.000000
    10 0.292910 17.791421 -15.773270 0.000041 0.000000 0.000006
    11 0.295215 1.713771 0.618519 -0.000001 0.000000 0.000001
    12 -0.003480 -0.404828 0.000000 -0.000001 0.000000 0.000000
    13 -0.519309 -2.501154 -0.278957 -1.107351 -0.060906 -0.152578
    14 -0.010598 -1.208185 -0.000001 -1.179841 0.000000 0.000000
    15 0.000000 -0.763066 -0.000001 -1.228719 0.000000 0.000000
    16 0.105981 -2.607133 -0.278958 -0.873867 -0.036146 -0.178590
    17 0.000000 -1.250579 0.000000 -1.223467 0.000000 0.000000
    18 -0.000001 -0.932634 0.000000 -1.567302 0.000000 0.000000
    19 0.763064 -2.490556 -0.278957 -0.095237 -0.000820 0.086904
    20 -0.012322 -1.280917 0.000000 -0.337134 0.000000 0.000000
    21 -0.001695 -0.738090 0.129481 -0.687768 0.000000 0.000000
    22 0.354567 0.016267 0.318132 0.458016 -0.443922 -1.167629
    23 1.887165 0.012877 0.000000 -0.294573 -0.081938 -0.664933
    24 1.001875 -0.000270 0.000001 0.000000 0.000000 -0.391564
    25 -1.123358 -2.195093 -0.278957 -1.174569 -0.118731 -0.146518
    26 0.010772 -0.963791 0.000000 -0.977378 0.000000 0.000000
    27 -0.010413 -0.631916 0.000000 -1.034985 0.000000 0.000000
    28 2.465700 -8.811385 -9.041135 -0.500234 0.739755 0.234915
    29 0.089929 -8.543165 0.000003 0.308034 -0.342948 0.247451
    30 0.000000 -0.359713 0.000000 0.000000 0.000000 0.000000
    31 -0.170479 -2.636147 -0.277654 -1.254477 -0.052707 0.090280
    32 0.010598 -1.261176 0.000001 -0.473462 0.000000 0.000000
    33 -0.000001 -0.943233 0.000000 -0.944945 0.000000 0.000000
    34 -0.827562 -2.508970 -0.277656 -0.821506 -0.046328 0.035347
    35 0.000001 -1.292972 -0.000001 -0.708426 0.000000 0.000000
    36 -0.000001 -0.752465 -0.000001 -0.777556 -0.248777 0.191914
    37 0.444214 -2.561960 -0.277654 -1.660626 0.037900 0.168005
    38 0.021023 -1.208187 0.000000 -0.304120 0.000000 0.000000
    39 0.010596 -0.741867 -0.000002 -0.721161 0.000000 0.000000
    40 1.047445 -2.222821 -0.277654 -1.372249 0.033616 0.229366
    41 0.000000 -0.996224 -0.000001 -0.809238 0.000000 0.000000
    42 0.000000 -0.614690 0.000000 -1.031474 0.000000 0.000000
    43 -0.308256 -0.007812 0.307165 -0.303907 -0.293316 -2.410361
    44 1.978378 0.019543 0.000000 0.050665 -0.095313 0.312257
    45 0.980612 0.058421 -0.012628 0.135543 -0.037979 0.358606
  time 1
    0 9.486894 1.914496 -7.668103 0.005838 -1.481035 -0.138529
    1 -0.021280 -8.563255 -0.000751 0.227867 -0.070856 -0.007364
    2 0.130659 -2.124660 0.560144 0.930310 1.695867 0.941617
    3 0.020044 -12.116384 2.673301 0.000000 0.000000 0.000000
    4 -0.019949 6.033916 0.667370 0.000000 0.000000 0.000000
    5 -0.149971 20.671434 -1.460096 1.587326 0.000000 0.000000
    6 0.033347 -2.674108 2.782817 0.000000 0.000000 0.000000
    7 0.000513 -7.537987 3.585761 0.000000 0.000000 0.000000
    8 -0.294703 -6.287284 2.026899 0.000000 0.000000 0.000000
    9 1.007304 3.926682 -0.773263 0.000000 0.000000 0.000000
    10 0.292910 17.791421 -15.773270 0.000041 0.000000 0.000006
    11 0.295215 1.713771 0.618519 -0.000001 0.000000 0.000001
    12 -0.003480 -0.404828 0.000000 -0.000001 0.000000 0.000000
    13 -0.519309 -2.501154 -0.278957 -1.107351 -0.060906 -0.152578
    14 -0.010598 -1.208185 -0.000001 -1.179841 0.000000 0.000000
    15 0.000000 -0.763066 -0.000001 -1.228719 0.000000 0.000000
    16 0.105981 -2.607133 -0.278958 -0.873867 -0.036146 -0.178590
    17 0.000000 -1.250579 0.000000 -1.223467 0.000000 0.000000
    18 -0.000001 -0.932634 0.000000 -1.567302 0.000000 0.000000
    19 0.763064 -2.490556 -0.278957 -0.095237 -0.000820 0.086904
    20 -0.012322 -1.280917 0.000000 -0.337134 0.000000 0.000000
    21 -0.001695 -0.738090 0.129481 -0.687768 0.000000 0.000000
    22 0.354567 0.016267 0.318132 0.458016 -0.443922 -1.167629
    23 1.887165 0.012877 0.000000 -0.294573 -0.081938 -0.664933
    24 1.001875 -0.000270 0.000001 0.000000 0.000000 -0.391564
    25 -1.123358 -2.195093 -0.278957 -1.174569 -0.118731 -0.146518
    26 0.010772 -0.963791 0.000000 -0.977378 0.000000 0.000000
    27 -0.010413 -0.631916 0.000000 -1.034985 0.000000 0.000000
    28 2.465700 -8.811385 -9.041135 -0.500234 0.739755 0.234915
    29 0.089929 -8.543165 0.000003 0.308034 -0.342948 0.247451
    30 0.000000 -0.359713 0.000000 0.000000 0.000000 0.000000
    31 -0.170479 -2.636147 -0.277654 -1.254477 -0.052707 0.090280
    32 0.010598 -1.261176 0.000001 -0.473462 0.000000 0.000000
    33 -0.000001 -0.943233 0.000000 -0.944945 0.000000 0.000000
    34 -0.827562 -2.508970 -0.277656 -0.821506 -0.046328 0.035347
    35 0.000001 -1.292972 -0.000001 -0.708426 0.000000 0.000000
    36 -0.000001 -0.752465 -0.000001 -0.777556 -0.248777 0.191914
    37 0.444214 -2.561960 -0.277654 -1.660626 0.037900 0.168005
    38 0.021023 -1.208187 0.000000 -0.304120 0.000000 0.000000
    39 0.010596 -0.741867 -0.000002 -0.721161 0.000000 0.000000
    40 1.047445 -2.222821 -0.277654 -1.372249 0.033616 0.229366
    41 0.000000 -0.996224 -0.000001 -0.809238 0.000000 0.000000
    42 0.000000 -0.614690 0.000000 -1.031474 0.000000 0.000000
    43 -0.308256 -0.007812 0.307165 -0.303907 -0.293316 -2.410361
    44 1.978378 0.019543 0.000000 0.050665 -0.095313 0.312257
    45 0.980612 0.058421 -0.012628 0.135543 -0.037979 0.358606
end
