version 1
nodes
  0 "halogun_root" -1
  1 "halogun_underwingR" 0
  2 "halogun_underwingL" 0
  3 "halogun_up" 0
  4 "halogun_small_upperwingL" 3
  5 "halogun_small_upperwingR" 3
  6 "halogun_stonering03" 0
  7 "halogun_stonering02" 0
  8 "halogun_stonering01" 0
  9 "halogun_stone" 0
  10 "halogun_stone001" 9
  11 "halogun_big_wingR" 0
  12 "halogun_big_wingR02" 11
  13 "halogun_big_wingL" 0
  14 "halogun_big_wingL02" 13
  15 "halogun_wingR02" 0
  16 "halogun_wingR01" 0
  17 "halogun_wingL02" 0
  18 "halogun_wingL01" 0
  19 "halogun_upperwingR" 3
  20 "halogun_upperwingL" 3
  21 "ef_Point003" 6
  22 "halogun_ef_bone009" 21
  23 "halogun_ef_bone010" 21
  24 "halogun_ef_bone011" 21
  25 "halogun_ef_bone012" 21
  26 "ef_Point002" 7
  27 "halogun_ef_bone005" 26
  28 "halogun_ef_bone006" 26
  29 "halogun_ef_bone007" 26
  30 "halogun_ef_bone008" 26
  31 "ef_Point001" 8
  32 "halogun_ef_bone003" 31
  33 "halogun_ef_bone004" 31
  34 "halogun_ef_bone001" 31
  35 "halogun_ef_bone002" 31
  36 "sprite_attach01" 0
  37 "attach_mesh01" 36
  38 "muzzle_attach" 0
  39 "muzzle_attach_mesh" 38
  40 "sprite_attach02" 0
  41 "attach_mesh02" 40
  42 "sprite_attach03" 0
  43 "attach_mesh03" 42
  44 "sprite_attach04" 0
  45 "attach_mesh004" 44
  46 "laser_root" 0
  47 "laser_bone001" 46
  48 "laser_bone002" 47
  49 "laser_bone003" 46
  50 "laser_bone004" 49
  51 "laser_light_root007" 46
  52 "laser_light_Bone007" 51
  53 "laser_light_root006" 46
  54 "laser_light_Bone006" 53
  55 "laser_light_root005" 46
  56 "laser_light_Bone005" 55
  57 "laser_light_root004" 46
  58 "laser_light_Bone004" 57
  59 "laser_light_root003" 46
  60 "laser_light_Bone003" 59
  61 "laser_light_root002" 46
  62 "laser_light_bone002" 61
  63 "laser_light_root001" 46
  64 "laser_light_bone001" 63
  65 "laser_light_root008" 46
  66 "laser_light_bone008" 65
  67 "laser_light_root009" 46
  68 "laser_light_bone009" 67
  69 "laser_light_root010" 46
  70 "laser_light_Bone008" 69
  71 "laser_light_root011" 46
  72 "laser_light_bone010" 71
  73 "laser_light_root012" 46
  74 "laser_light_bone011" 73
  75 "laser_light_root013" 46
  76 "laser_light_bone012" 75
  77 "laser_light_root014" 46
  78 "laser_light_bone013" 77
  79 "laser_light_root015" 46
  80 "laser_light_Bone009" 79
  81 "laser_light_root016" 46
  82 "laser_light_Bone010" 81
  83 "Point001" -1
  84 "muzzle_bone001" 83
  85 "muzzle_bone002" 83
  86 "muzzle_bone003" 83
  87 "muzzle_bone004" 83
  88 "root" -1
  89 "Bone01" 88
  90 "Bone_L_Upper" 89
  91 "Bone_Lefthand" 89
  92 "Bone13" 91
  93 "Bone14" 92
  94 "Bone15" 93
  95 "Bone17" 91
  96 "Bone18" 95
  97 "Bone19" 96
  98 "Bone21" 91
  99 "Bone22" 98
  100 "Bone23" 99
  101 "Bone09" 91
  102 "Bone10" 101
  103 "Bone11" 102
  104 "Bone05" 91
  105 "Bone06" 104
  106 "Bone07" 105
  107 "Bone_Se_Hand-L" 91
  108 "Bone04" 88
  109 "Bone_Righthand" 108
  110 "Bone39" 109
  111 "Bone40" 110
  112 "Bone41" 111
  113 "Bone35" 109
  114 "Bone36" 113
  115 "Bone37" 114
  116 "Bone31" 109
  117 "Bone32" 116
  118 "Bone33" 117
  119 "Bone43" 109
  120 "Bone44" 119
  121 "Bone45" 120
  122 "Bone27" 109
  123 "Bone28" 122
  124 "Bone29" 123
  125 "Bone_Se_Hand-R" 109
  126 "Bone_R_Upper" 108
end
skeleton
  time 0
    0 7.287956 -1.181213 -4.790211 0.000000 0.000000 0.000000
    1 -2.530707 -37.013657 -4.633173 0.000000 0.000000 1.570796
    2 2.465136 -37.013657 -4.633174 -3.141592 0.000000 1.570796
    3 0.000045 -31.946564 2.513517 1.570796 0.000000 1.570796
    4 16.092197 1.863620 1.742489 0.000000 0.000000 0.000000
    5 16.092197 1.863620 -1.742691 0.000000 0.000000 0.000000
    6 0.000000 -11.953413 -0.023077 1.570796 0.000000 1.570796
    7 0.000001 -14.505253 -0.023077 1.570796 0.000000 1.570796
    8 0.000000 -16.894951 -0.023077 1.570796 0.000000 1.570796
    9 0.000000 -14.653282 0.910954 0.000000 0.000000 0.000000
    10 0.000000 0.000001 0.000000 0.000000 0.000000 0.000000
    11 -2.611548 -17.587868 1.131518 0.000000 0.000000 0.000000
    12 0.000000 0.000000 0.000000 0.000000 0.000000 1.941227
    13 2.584089 -17.587868 1.131517 0.000000 0.000000 0.000000
    14 0.000000 0.000000 0.000000 -3.141591 0.000000 1.200366
    15 -2.123834 -12.013450 0.312914 0.000000 0.000000 1.570796
    16 -0.375793 -10.232826 1.256682 0.000000 0.000000 1.570796
    17 2.111277 -12.013449 0.312914 -3.141592 0.000000 1.570796
    18 0.365245 -10.232826 1.256682 -3.141592 0.000000 1.570796
    19 13.536526 1.160947 -2.363838 -1.727664 0.008188 0.051717
    20 13.536522 1.160948 2.290533 1.727665 -0.008187 0.051717
    21 0.346744 0.963062 -0.000001 0.000000 1.570796 0.000000
    22 -1.591836 1.591837 -0.000001 0.000000 -1.570796 0.000000
    23 1.591837 1.591837 0.000000 0.000000 -1.570796 0.000000
    24 1.591837 -1.591837 -0.000001 0.000000 -1.570796 0.000000
    25 -1.591836 -1.591836 0.000000 0.000000 -1.570796 0.000000
    26 0.358301 0.963062 -0.000001 0.000000 1.570796 0.000000
    27 -1.095975 1.095976 -0.000002 0.000000 -1.570796 0.000000
    28 1.095975 1.095975 -0.000002 0.000000 -1.570796 0.000000
    29 1.095975 -1.095975 0.000000 0.000000 -1.570796 0.000000
    30 -1.095975 -1.095975 0.000000 0.000000 -1.570796 0.000000
    31 0.423000 0.963062 -0.000001 0.000000 1.570796 0.000000
    32 -1.620427 1.620426 -0.000002 0.000000 -1.570796 0.000000
    33 1.620425 1.620425 0.000000 0.000000 -1.570796 0.000000
    34 1.620426 -1.620427 -0.000002 0.000000 -1.570796 0.000000
    35 -1.620426 -1.620426 -0.000002 0.000000 -1.570796 0.000000
    36 0.010092 156.027252 0.946424 -0.000002 -0.000001 0.000000
    37 0.000014 49.921204 0.000008 1.570796 0.000000 0.000000
    38 0.000002 -20.426018 0.910984 0.000002 0.000000 0.000000
    39 0.000022 49.921196 0.000010 1.570796 0.000000 0.000000
    40 13.378785 -16.587204 1.252049 -0.000002 -0.000001 0.000000
    41 0.000013 49.921204 0.000004 1.570796 0.000000 0.000000
    42 -17.903759 -16.931923 -9.400675 -0.000002 -0.000001 0.000000
    43 0.000011 49.921204 0.000004 1.570796 0.000000 0.000000
    44 15.288230 120.063126 2.181510 -0.000002 -0.000001 0.000000
    45 0.000002 49.921204 0.000000 1.570796 0.000000 0.000000
    46 -0.486548 1289.726685 -98.612938 1.570767 -3.141592 -0.000003
    47 0.000000 0.000008 0.000000 -2.882416 -1.570796 0.000000
    48 283.424072 -0.042358 -0.006575 3.141480 -1.570796 0.000000
    49 0.000000 0.000008 0.000000 -2.727906 -1.570796 0.000000
    50 294.855286 -0.018349 -0.000137 -1.571568 -1.568167 -1.570138
    51 4.102399 24.305878 145.735352 0.000000 0.000001 -0.142905
    52 0.000000 -0.000008 -75.324219 -1.570796 3.141592 1.570796
    53 54.283676 32.604477 217.364380 0.000000 0.000000 2.844243
    54 0.000000 0.000000 -132.331787 -1.570796 3.141592 1.570796
    55 -53.328850 13.006157 -50.317017 0.000000 0.000000 -1.960423
    56 0.000000 0.000000 -11.775269 -1.570796 3.141592 1.570796
    57 14.294905 3.637268 -76.384033 0.000000 -0.000001 2.847527
    58 0.000000 0.000000 0.000000 -1.570796 3.141592 1.570796
    59 9.250495 -1.998672 -125.939331 0.000000 -0.000001 0.886923
    60 0.000000 0.000000 -35.570068 -1.570796 3.141592 1.570796
    61 -24.710672 4.955582 -68.051758 0.000000 -0.000001 1.099223
    62 0.000000 0.000008 -18.656250 1.570796 0.000000 -1.570797
    63 0.000000 0.000008 0.000000 0.000000 0.000000 -1.960060
    64 0.000000 0.000000 192.205444 1.570796 0.000000 -1.570796
    65 2.202257 -1.235764 0.000000 0.000000 0.000000 -3.114742
    66 0.000000 0.000000 285.812317 1.570796 0.000000 -1.570796
    67 -1.802198 -1.662598 0.000000 0.000000 0.000000 -2.792527
    68 0.000002 -0.000008 204.637695 1.570796 0.000000 -1.570797
    69 35.469585 22.510017 -23.458496 0.000000 -0.000001 2.119792
    70 0.000999 -0.000740 -26.666992 -1.570796 3.141592 1.570796
    71 19.341774 4.955086 -90.813965 0.000000 -0.000001 2.226349
    72 -0.000008 0.000000 -18.656250 1.570796 0.000000 -1.570796
    73 -1.872714 10.347298 -90.813721 0.000000 -0.000001 -2.476699
    74 0.000000 0.000000 -18.656250 1.570796 0.000000 -1.570796
    75 -28.918413 2.841713 -62.143433 0.000000 -0.000001 -2.168472
    76 0.000000 0.000008 -18.656250 1.570796 0.000000 -1.570797
    77 10.169847 -0.577286 -90.821045 0.000000 -0.000001 2.998130
    78 -0.000004 0.000008 -18.656250 1.570796 0.000000 -1.570796
    79 36.999947 -1.995758 -1.656250 0.000000 -0.000001 0.886923
    80 0.000008 0.000000 -35.570068 -1.570796 3.141592 1.570796
    81 -32.276566 -1.995033 31.259155 0.000000 -0.000001 0.886923
    82 0.000008 0.000015 -35.570068 -1.570796 3.141592 1.570796
    83 9.623947 -24.029865 -4.524507 0.000000 0.000000 0.000000
    84 11.529881 0.000031 0.000033 -0.000001 0.000000 1.570797
    85 -16.422277 0.000004 0.000000 -0.000001 0.000000 1.570797
    86 -16.422276 0.000000 0.000000 -0.000001 0.000000 1.570797
    87 11.529881 0.000027 0.000032 -0.000001 0.000000 1.570797
    88 0.001265 -0.569176 -20.601572 0.000000 0.000000 0.000000
    89 9.310103 -5.299614 -12.557959 3.138909 -0.000224 -1.566807
    90 1.257180 8.762585 -0.153713 -1.570562 0.002683 -1.566807
    91 -0.071921 -8.498736 -0.104134 -0.025046 0.287591 0.014898
    92 -0.488518 -2.755602 -0.228260 0.106454 0.010332 -0.264490
    93 0.039887 -1.479790 0.029854 -0.055395 0.000000 0.000001
    94 0.028786 -1.075731 -0.023109 0.002099 0.000000 0.000000
    95 0.250027 -2.820665 -0.238396 0.041826 -0.002921 0.008443
    96 -0.049759 -1.680544 0.100479 0.019826 0.000000 -0.000002
    97 -0.034142 -1.148312 0.084782 -0.040115 0.000000 0.000000
    98 0.957766 -2.746780 -0.090302 -0.017221 -0.162277 0.191558
    99 -0.033420 -1.397129 -0.011257 0.013931 0.000000 -0.000001
    100 -0.022360 -0.957436 0.018784 0.003845 0.000000 0.000000
    101 -1.180681 -2.507217 -0.193859 0.082999 0.013294 -0.477915
    102 -0.024967 -1.123934 0.017597 -0.018065 0.000000 0.000001
    103 -0.020057 -0.890968 0.010090 -0.060797 0.000000 0.000000
    104 0.583510 -1.197277 0.185379 0.158049 -0.404973 -0.364290
    105 1.535927 0.010246 0.005009 -0.002964 -0.012979 0.000887
    106 1.100771 0.004527 -0.010679 -0.002796 0.015973 0.003458
    107 0.120153 -0.050270 -0.054489 0.287569 3.110905 1.561085
    108 -9.310107 -5.231260 -12.513384 0.004984 -3.131565 -1.566847
    109 0.096944 -8.450418 -0.009365 -0.032965 -0.297907 -0.004663
    110 0.447953 -2.798986 -0.200443 0.106456 -0.010396 0.265094
    111 -0.032909 -1.480204 0.004940 -0.055403 0.000000 0.000002
    112 -0.027022 -1.076920 -0.020210 0.002094 0.000000 0.000000
    113 -0.249534 -2.846964 -0.174213 0.041903 -0.000125 -0.008396
    114 0.043235 -1.683941 0.096012 0.019757 0.002823 -0.000167
    115 0.031729 -1.160830 0.058838 -0.040181 0.000642 0.008372
    116 -0.963866 -2.785145 -0.085350 -0.017227 0.162276 -0.191556
    117 0.028479 -1.403067 0.006271 0.013941 0.000000 0.000000
    118 0.021413 -0.957781 0.020046 0.003851 0.000000 0.000000
    119 1.164475 -2.543940 -0.170330 0.083003 -0.013294 0.477915
    120 0.024032 -1.129042 0.017807 -0.018074 0.000000 0.000001
    121 0.014898 -0.883989 -0.019848 -0.060801 0.000000 0.000000
    122 -0.586770 -1.264477 0.200161 -0.152092 -0.410513 -2.814816
    123 1.522835 0.058681 0.016848 0.001410 0.008985 -0.046880
    124 1.117947 0.048424 -0.005766 -0.000243 -0.025198 0.065422
    125 -0.139399 -0.111698 0.014397 0.285382 -0.030687 1.580508
    126 -1.393470 8.839177 -0.239433 1.580804 -0.005023 -1.566847
end
triangles
$20@004halogun_01
  17 11.489235 -8.294662 -4.337298 0.706188 0.630290 0.322542 0.029354 0.062622
  17 10.169235 -9.324662 -4.477298 0.519668 0.792403 0.319441 0.099804 0.007828
  17 10.259235 -9.384662 -4.337298 0.519668 0.792403 0.319441 0.103718 0.019569
$20@004halogun_01
  17 10.259235 -9.384662 -4.337298 0.519668 0.792403 0.319441 0.103718 0.019569
  17 10.169235 -9.324662 -4.477298 0.519668 0.792403 0.319441 0.099804 0.007828
  17 9.289234 -12.294662 -4.337297 0.109937 0.946576 0.303162 0.264188 0.017613
$20@004halogun_01
  17 10.169235 -9.324662 -4.477298 0.519668 0.792403 0.319441 0.099804 0.007828
  17 9.189234 -12.284662 -4.477297 0.109937 0.946576 0.303162 0.266145 0.005871
  17 9.289234 -12.294662 -4.337297 0.109937 0.946576 0.303162 0.264188 0.017613
$20@004halogun_01
  17 9.289234 -12.294662 -4.337297 0.109937 0.946576 0.303162 0.264188 0.017613
  17 9.189234 -12.284662 -4.477297 0.109937 0.946576 0.303162 0.266145 0.005871
  17 9.379233 -13.314662 -4.337297 -0.089047 0.950709 0.297023 0.313112 0.039139
$20@004halogun_01
  17 9.189234 -12.284662 -4.477297 0.109937 0.946576 0.303162 0.266145 0.005871
  17 9.309233 -13.554662 -4.477297 -0.089047 0.950709 0.297023 0.330724 0.031311
  17 9.379233 -13.314662 -4.337297 -0.089047 0.950709 0.297023 0.313112 0.039139
$20@004halogun_01
  17 9.309233 -13.554662 -4.477297 -0.089047 0.950709 -0.297023 0.839530 0.767123
  17 9.189234 -12.284662 -4.477297 0.109961 0.946574 -0.303161 0.839530 0.726027
  17 9.379233 -13.314662 -4.607297 -0.089047 0.950709 -0.297023 0.847358 0.759295
$20@004halogun_01
  17 9.379233 -13.314662 -4.607297 -0.089047 0.950709 -0.297023 0.847358 0.759295
  17 9.189234 -12.284662 -4.477297 0.109961 0.946574 -0.303161 0.839530 0.726027
  17 9.289234 -12.294662 -4.607297 0.109961 0.946574 -0.303161 0.847358 0.727984
$20@004halogun_01
  17 9.189234 -12.284662 -4.477297 0.109961 0.946574 -0.303161 0.839530 0.726027
  17 10.169235 -9.324662 -4.477298 0.519668 0.792403 -0.319441 0.878669 0.634051
  17 9.289234 -12.294662 -4.607297 0.109961 0.946574 -0.303161 0.847358 0.727984
$20@004halogun_01
  17 9.289234 -12.294662 -4.607297 0.109961 0.946574 -0.303161 0.847358 0.727984
  17 10.169235 -9.324662 -4.477298 0.519668 0.792403 -0.319441 0.878669 0.634051
  17 10.259234 -9.384662 -4.607298 0.519668 0.792403 -0.319441 0.884540 0.637965
$20@004halogun_01
  17 10.169235 -9.324662 -4.477298 0.519668 0.792403 -0.319441 0.878669 0.634051
  17 11.489235 -8.294662 -4.607298 0.706165 0.630269 -0.322633 0.923679 0.606654
  17 10.259234 -9.384662 -4.607298 0.519668 0.792403 -0.319441 0.884540 0.637965
$20@004halogun_01
  18 9.823203 -5.854040 -3.453531 0.709017 0.561014 0.427269 0.021526 0.162427
  18 8.583203 -6.704040 -3.543530 0.514163 0.734821 0.442351 0.080235 0.107632
  18 8.673203 -6.764039 -3.453530 0.514163 0.734821 0.442351 0.084149 0.117417
$20@004halogun_01
  18 8.673203 -6.764039 -3.453530 0.514163 0.734821 0.442351 0.084149 0.117417
  18 8.583203 -6.704040 -3.543530 0.514163 0.734821 0.442351 0.080235 0.107632
  18 7.603202 -10.004039 -3.453529 0.119827 0.893147 0.433509 0.262231 0.107632
$20@004halogun_01
  18 8.583203 -6.704040 -3.543530 0.514163 0.734821 0.442351 0.080235 0.107632
  18 7.503202 -9.994039 -3.543529 0.119827 0.893147 0.433509 0.264188 0.097847
  18 7.603202 -10.004039 -3.453529 0.119827 0.893147 0.433509 0.262231 0.107632
$20@004halogun_01
  18 7.603202 -10.004039 -3.453529 0.119827 0.893147 0.433509 0.262231 0.107632
  18 7.503202 -9.994039 -3.543529 0.119827 0.893147 0.433509 0.264188 0.097847
  18 7.663201 -11.244039 -3.453529 -0.047895 0.902789 0.427409 0.324853 0.127202
$20@004halogun_01
  18 7.503202 -9.994039 -3.543529 0.119827 0.893147 0.433509 0.264188 0.097847
  18 7.583201 -11.494039 -3.543529 -0.047895 0.902789 0.427409 0.340509 0.123288
  18 7.663201 -11.244039 -3.453529 -0.047895 0.902789 0.427409 0.324853 0.127202
$20@004halogun_01
  18 7.583201 -11.494039 -3.543529 -0.047895 0.902789 -0.427408 0.520548 0.794521
  18 7.503202 -9.994039 -3.543529 0.119859 0.893184 -0.433423 0.567515 0.784736
  18 7.663201 -11.244039 -3.643529 -0.047895 0.902789 -0.427408 0.530333 0.798434
$20@004halogun_01
  18 7.663201 -11.244039 -3.643529 -0.047895 0.902789 -0.427408 0.530333 0.798434
  18 7.503202 -9.994039 -3.543529 0.119859 0.893184 -0.433423 0.567515 0.784736
  18 7.603202 -10.004039 -3.643529 0.119859 0.893184 -0.433423 0.567515 0.790607
$20@004halogun_01
  18 7.503202 -9.994039 -3.543529 0.119859 0.893184 -0.433423 0.567515 0.784736
  18 8.583203 -6.704040 -3.543530 0.514242 0.734766 -0.442351 0.677104 0.804305
  18 7.603202 -10.004039 -3.643529 0.119859 0.893184 -0.433423 0.567515 0.790607
$20@004halogun_01
  18 7.603202 -10.004039 -3.643529 0.119859 0.893184 -0.433423 0.567515 0.790607
  18 8.583203 -6.704040 -3.543530 0.514242 0.734766 -0.442351 0.677104 0.804305
  18 8.673203 -6.764039 -3.643530 0.514242 0.734766 -0.442351 0.675147 0.810176
$20@004halogun_01
  18 8.583203 -6.704040 -3.543530 0.514242 0.734766 -0.442351 0.677104 0.804305
  18 9.823203 -5.854040 -3.643531 0.709049 0.561040 -0.427182 0.708415 0.841487
  18 8.673203 -6.764039 -3.643530 0.514242 0.734766 -0.442351 0.675147 0.810176
$20@004halogun_01
  15 5.274122 -13.554663 -4.477297 -0.089047 0.950709 0.297023 0.330724 0.031311
  15 5.394123 -12.284663 -4.477297 0.109965 0.946603 0.303070 0.266145 0.005871
  15 5.194122 -13.314663 -4.337297 -0.089047 0.950709 0.297023 0.313112 0.039139
$20@004halogun_01
  15 5.194122 -13.314663 -4.337297 -0.089047 0.950709 0.297023 0.313112 0.039139
  15 5.394123 -12.284663 -4.477297 0.109965 0.946603 0.303070 0.266145 0.005871
  15 5.294123 -12.294663 -4.337297 0.109965 0.946603 0.303070 0.264188 0.017613
$20@004halogun_01
  15 5.394123 -12.284663 -4.477297 0.109965 0.946603 0.303070 0.266145 0.005871
  15 4.404124 -9.324663 -4.477297 0.519668 0.792403 0.319441 0.099804 0.007828
  15 5.294123 -12.294663 -4.337297 0.109965 0.946603 0.303070 0.264188 0.017613
$20@004halogun_01
  15 5.294123 -12.294663 -4.337297 0.109965 0.946603 0.303070 0.264188 0.017613
  15 4.404124 -9.324663 -4.477297 0.519668 0.792403 0.319441 0.099804 0.007828
  15 4.314124 -9.384662 -4.337297 0.519668 0.792403 0.319441 0.103718 0.019569
$20@004halogun_01
  15 4.404124 -9.324663 -4.477297 0.519668 0.792403 0.319441 0.099804 0.007828
  15 3.084124 -8.294662 -4.337297 0.706188 0.630290 0.322542 0.029354 0.062622
  15 4.314124 -9.384662 -4.337297 0.519668 0.792403 0.319441 0.103718 0.019569
$20@004halogun_01
  15 3.084124 -8.294662 -4.607297 0.706188 0.630290 -0.322542 0.923679 0.606654
  15 4.404124 -9.324663 -4.477297 0.519668 0.792403 -0.319441 0.878669 0.634051
  15 4.314124 -9.384662 -4.607297 0.519668 0.792403 -0.319441 0.884540 0.637965
$20@004halogun_01
  15 4.314124 -9.384662 -4.607297 0.519668 0.792403 -0.319441 0.884540 0.637965
  15 4.404124 -9.324663 -4.477297 0.519668 0.792403 -0.319441 0.878669 0.634051
  15 5.294123 -12.294663 -4.607297 0.109961 0.946574 -0.303161 0.847358 0.727984
$20@004halogun_01
  15 4.404124 -9.324663 -4.477297 0.519668 0.792403 -0.319441 0.878669 0.634051
  15 5.394123 -12.284663 -4.477297 0.109961 0.946574 -0.303161 0.839530 0.726027
  15 5.294123 -12.294663 -4.607297 0.109961 0.946574 -0.303161 0.847358 0.727984
$20@004halogun_01
  15 5.294123 -12.294663 -4.607297 0.109961 0.946574 -0.303161 0.847358 0.727984
  15 5.394123 -12.284663 -4.477297 0.109961 0.946574 -0.303161 0.839530 0.726027
  15 5.194122 -13.314663 -4.607297 -0.089047 0.950709 -0.297023 0.847358 0.759295
$20@004halogun_01
  15 5.394123 -12.284663 -4.477297 0.109961 0.946574 -0.303161 0.839530 0.726027
  15 5.274122 -13.554663 -4.477297 -0.089047 0.950709 -0.297023 0.839530 0.767123
  15 5.194122 -13.314663 -4.607297 -0.089047 0.950709 -0.297023 0.847358 0.759295
$20@004halogun_01
  18 7.003201 -11.494039 -3.543529 -0.047895 0.902789 0.427409 0.340509 0.123288
  16 7.072164 -9.994039 -3.543529 0.119853 0.893143 0.433509 0.264188 0.097847
  18 6.913201 -11.244039 -3.453529 -0.047895 0.902789 0.427409 0.324853 0.127202
$20@004halogun_01
  18 6.913201 -11.244039 -3.453529 -0.047895 0.902789 0.427409 0.324853 0.127202
  16 7.072164 -9.994039 -3.543529 0.119853 0.893143 0.433509 0.264188 0.097847
  16 6.972164 -10.004039 -3.453529 0.119853 0.893143 0.433509 0.262231 0.107632
$20@004halogun_01
  16 7.072164 -9.994039 -3.543529 0.119853 0.893143 0.433509 0.264188 0.097847
  16 5.992165 -6.704039 -3.543529 0.514247 0.734760 0.442355 0.080235 0.107632
  16 6.972164 -10.004039 -3.453529 0.119853 0.893143 0.433509 0.262231 0.107632
$20@004halogun_01
  16 6.972164 -10.004039 -3.453529 0.119853 0.893143 0.433509 0.262231 0.107632
  16 5.992165 -6.704039 -3.543529 0.514247 0.734760 0.442355 0.080235 0.107632
  16 5.902165 -6.764039 -3.453529 0.514247 0.734760 0.442355 0.084149 0.117417
$20@004halogun_01
  16 5.992165 -6.704039 -3.543529 0.514247 0.734760 0.442355 0.080235 0.107632
  16 4.752165 -5.854039 -3.453529 0.709017 0.561014 0.427269 0.021526 0.162427
  16 5.902165 -6.764039 -3.453529 0.514247 0.734760 0.442355 0.084149 0.117417
$20@004halogun_01
  16 4.752165 -5.854039 -3.643529 0.709017 0.561014 -0.427269 0.708415 0.841487
  16 5.992165 -6.704039 -3.543529 0.514242 0.734766 -0.442351 0.677104 0.804305
  16 5.902165 -6.764039 -3.643529 0.514242 0.734766 -0.442351 0.675147 0.810176
$20@004halogun_01
  16 5.902165 -6.764039 -3.643529 0.514242 0.734766 -0.442351 0.675147 0.810176
  16 5.992165 -6.704039 -3.543529 0.514242 0.734766 -0.442351 0.677104 0.804305
  16 6.972164 -10.004039 -3.643529 0.119859 0.893184 -0.433423 0.567515 0.790607
$20@004halogun_01
  16 5.992165 -6.704039 -3.543529 0.514242 0.734766 -0.442351 0.677104 0.804305
  16 7.072164 -9.994039 -3.543529 0.119859 0.893184 -0.433423 0.567515 0.784736
  16 6.972164 -10.004039 -3.643529 0.119859 0.893184 -0.433423 0.567515 0.790607
$20@004halogun_01
  16 6.972164 -10.004039 -3.643529 0.119859 0.893184 -0.433423 0.567515 0.790607
  16 7.072164 -9.994039 -3.543529 0.119859 0.893184 -0.433423 0.567515 0.784736
  18 6.913201 -11.244039 -3.643529 -0.047895 0.902789 -0.427408 0.530333 0.798434
$20@004halogun_01
  16 7.072164 -9.994039 -3.543529 0.119859 0.893184 -0.433423 0.567515 0.784736
  18 7.003201 -11.494039 -3.543529 -0.047895 0.902789 -0.427408 0.520548 0.794521
  18 6.913201 -11.244039 -3.643529 -0.047895 0.902789 -0.427408 0.530333 0.798434
$20@004halogun_01
  17 10.989234 -11.234662 -4.477298 -0.386051 -0.873723 0.295927 0.183953 0.091977
  17 9.379233 -13.314662 -4.337297 -0.562260 -0.780248 0.274001 0.313112 0.039139
  17 9.309233 -13.554662 -4.477297 -0.562260 -0.780248 0.274001 0.328767 0.046967
$20@004halogun_01
  17 10.989234 -11.234662 -4.477298 -0.386051 -0.873723 0.295927 0.183953 0.091977
  17 10.889234 -11.194662 -4.337298 -0.386051 -0.873723 0.295927 0.183953 0.080235
  17 9.379233 -13.314662 -4.337297 -0.562260 -0.780248 0.274001 0.313112 0.039139
$20@004halogun_01
  17 10.989234 -11.234662 -4.477298 -0.386051 -0.873723 0.295927 0.183953 0.091977
  17 11.489235 -8.294662 -4.337298 -0.192329 -0.932378 0.306074 0.029354 0.062622
  17 10.889234 -11.194662 -4.337298 -0.386051 -0.873723 0.295927 0.183953 0.080235
$20@004halogun_01
  17 10.989234 -11.234662 -4.477298 -0.386051 -0.873723 0.295927 0.183953 0.091977
  17 11.659235 -7.984662 -4.477299 -0.192329 -0.932378 0.306074 0.009785 0.072407
  17 11.489235 -8.294662 -4.337298 -0.192329 -0.932378 0.306074 0.029354 0.062622
$20@004halogun_01
  17 10.989234 -11.234662 -4.477298 -0.385980 -0.873726 -0.296011 0.906067 0.700587
  17 11.489235 -8.294662 -4.607298 -0.192329 -0.932378 -0.306074 0.923679 0.606654
  17 11.659235 -7.984662 -4.477299 -0.192329 -0.932378 -0.306074 0.935421 0.598826
$20@004halogun_01
  17 10.989234 -11.234662 -4.477298 -0.385980 -0.873726 -0.296011 0.906067 0.700587
  17 10.889234 -11.194662 -4.607298 -0.385980 -0.873726 -0.296011 0.900196 0.696673
  17 11.489235 -8.294662 -4.607298 -0.192329 -0.932378 -0.306074 0.923679 0.606654
$20@004halogun_01
  17 10.989234 -11.234662 -4.477298 -0.385980 -0.873726 -0.296011 0.906067 0.700587
  17 9.379233 -13.314662 -4.607297 -0.562244 -0.780227 -0.274093 0.847358 0.759295
  17 10.889234 -11.194662 -4.607298 -0.385980 -0.873726 -0.296011 0.900196 0.696673
$20@004halogun_01
  17 10.989234 -11.234662 -4.477298 -0.385980 -0.873726 -0.296011 0.906067 0.700587
  17 9.309233 -13.554662 -4.477297 -0.562244 -0.780227 -0.274093 0.849315 0.771037
  17 9.379233 -13.314662 -4.607297 -0.562244 -0.780227 -0.274093 0.847358 0.759295
$20@004halogun_01
  18 9.403202 -9.424040 -3.543530 -0.377171 -0.813822 0.442081 0.209393 0.195695
  18 7.663201 -11.244039 -3.453529 -0.597602 -0.678466 0.427266 0.324853 0.127202
  18 7.583201 -11.494039 -3.543529 -0.597602 -0.678466 0.427266 0.340509 0.131115
$20@004halogun_01
  18 9.403202 -9.424040 -3.543530 -0.377171 -0.813822 0.442081 0.209393 0.195695
  18 9.303202 -9.374040 -3.453530 -0.377171 -0.813822 0.442081 0.207436 0.185910
  18 7.663201 -11.244039 -3.453529 -0.597602 -0.678466 0.427266 0.324853 0.127202
$20@004halogun_01
  18 9.403202 -9.424040 -3.543530 -0.377171 -0.813822 0.442081 0.209393 0.195695
  18 9.823203 -5.854040 -3.453531 -0.131295 -0.894535 0.427281 0.021526 0.162427
  18 9.303202 -9.374040 -3.453530 -0.377171 -0.813822 0.442081 0.207436 0.185910
$20@004halogun_01
  18 9.403202 -9.424040 -3.543530 -0.377171 -0.813822 0.442081 0.209393 0.195695
  18 9.973203 -5.604040 -3.543531 -0.131295 -0.894535 0.427281 0.007828 0.170254
  18 9.823203 -5.854040 -3.453531 -0.131295 -0.894535 0.427281 0.021526 0.162427
$20@004halogun_01
  18 9.403202 -9.424040 -3.543530 -0.377061 -0.813873 -0.442080 0.592955 0.845401
  18 9.823203 -5.854040 -3.643531 -0.131295 -0.894535 -0.427281 0.708415 0.841487
  18 9.973203 -5.604040 -3.543531 -0.131295 -0.894535 -0.427281 0.716243 0.847358
$20@004halogun_01
  18 9.403202 -9.424040 -3.543530 -0.377061 -0.813873 -0.442080 0.592955 0.845401
  18 9.303202 -9.374040 -3.643530 -0.377061 -0.813873 -0.442080 0.594912 0.841487
  18 9.823203 -5.854040 -3.643531 -0.131295 -0.894535 -0.427281 0.708415 0.841487
$20@004halogun_01
  18 9.403202 -9.424040 -3.543530 -0.377061 -0.813873 -0.442080 0.592955 0.845401
  18 7.663201 -11.244039 -3.643529 -0.597629 -0.678497 -0.427179 0.530333 0.798434
  18 9.303202 -9.374040 -3.643530 -0.377061 -0.813873 -0.442080 0.594912 0.841487
$20@004halogun_01
  18 9.403202 -9.424040 -3.543530 -0.377061 -0.813873 -0.442080 0.592955 0.845401
  18 7.583201 -11.494039 -3.543529 -0.597629 -0.678497 -0.427179 0.520548 0.798434
  18 7.663201 -11.244039 -3.643529 -0.597629 -0.678497 -0.427179 0.530333 0.798434
$20@004halogun_01
  15 3.594123 -11.234662 -4.477297 -0.385991 -0.873752 0.295920 0.183953 0.091977
  15 3.084124 -8.294662 -4.337297 -0.192329 -0.932378 0.306074 0.029354 0.062622
  15 2.914124 -7.984662 -4.477297 -0.192329 -0.932378 0.306074 0.009785 0.072407
$20@004halogun_01
  15 3.594123 -11.234662 -4.477297 -0.385991 -0.873752 0.295920 0.183953 0.091977
  15 3.684123 -11.194662 -4.337297 -0.385991 -0.873752 0.295920 0.183953 0.080235
  15 3.084124 -8.294662 -4.337297 -0.192329 -0.932378 0.306074 0.029354 0.062622
$20@004halogun_01
  15 3.594123 -11.234662 -4.477297 -0.385991 -0.873752 0.295920 0.183953 0.091977
  15 5.194122 -13.314663 -4.337297 -0.562260 -0.780248 0.274001 0.313112 0.039139
  15 3.684123 -11.194662 -4.337297 -0.385991 -0.873752 0.295920 0.183953 0.080235
$20@004halogun_01
  15 3.594123 -11.234662 -4.477297 -0.385991 -0.873752 0.295920 0.183953 0.091977
  15 5.274122 -13.554663 -4.477297 -0.562260 -0.780248 0.274001 0.328767 0.046967
  15 5.194122 -13.314663 -4.337297 -0.562260 -0.780248 0.274001 0.313112 0.039139
$20@004halogun_01
  15 3.594123 -11.234662 -4.477297 -0.385980 -0.873726 -0.296011 0.906067 0.700587
  15 5.194122 -13.314663 -4.607297 -0.562260 -0.780248 -0.274001 0.847358 0.759295
  15 5.274122 -13.554663 -4.477297 -0.562260 -0.780248 -0.274001 0.849315 0.771037
$20@004halogun_01
  15 3.594123 -11.234662 -4.477297 -0.385980 -0.873726 -0.296011 0.906067 0.700587
  15 3.684123 -11.194662 -4.607297 -0.385980 -0.873726 -0.296011 0.900196 0.696673
  15 5.194122 -13.314663 -4.607297 -0.562260 -0.780248 -0.274001 0.847358 0.759295
$20@004halogun_01
  15 3.594123 -11.234662 -4.477297 -0.385980 -0.873726 -0.296011 0.906067 0.700587
  15 3.084124 -8.294662 -4.607297 -0.192329 -0.932378 -0.306074 0.923679 0.606654
  15 3.684123 -11.194662 -4.607297 -0.385980 -0.873726 -0.296011 0.900196 0.696673
$20@004halogun_01
  15 3.594123 -11.234662 -4.477297 -0.385980 -0.873726 -0.296011 0.906067 0.700587
  15 2.914124 -7.984662 -4.477297 -0.192329 -0.932378 -0.306074 0.935421 0.598826
  15 3.084124 -8.294662 -4.607297 -0.192329 -0.932378 -0.306074 0.923679 0.606654
$20@004halogun_01
  16 5.172164 -9.424039 -3.543529 -0.377067 -0.813871 0.442079 0.209393 0.195695
  16 4.752165 -5.854039 -3.453529 -0.131295 -0.894535 0.427281 0.021526 0.162427
  16 4.612165 -5.604039 -3.543529 -0.131295 -0.894535 0.427281 0.007828 0.170254
$20@004halogun_01
  16 5.172164 -9.424039 -3.543529 -0.377067 -0.813871 0.442079 0.209393 0.195695
  16 5.272164 -9.374039 -3.453529 -0.377067 -0.813871 0.442079 0.207436 0.185910
  16 4.752165 -5.854039 -3.453529 -0.131295 -0.894535 0.427281 0.021526 0.162427
$20@004halogun_01
  16 5.172164 -9.424039 -3.543529 -0.377067 -0.813871 0.442079 0.209393 0.195695
  18 6.913201 -11.244039 -3.453529 -0.597602 -0.678466 0.427266 0.324853 0.127202
  16 5.272164 -9.374039 -3.453529 -0.377067 -0.813871 0.442079 0.207436 0.185910
$20@004halogun_01
  16 5.172164 -9.424039 -3.543529 -0.377067 -0.813871 0.442079 0.209393 0.195695
  18 7.003201 -11.494039 -3.543529 -0.597602 -0.678466 0.427266 0.340509 0.131115
  18 6.913201 -11.244039 -3.453529 -0.597602 -0.678466 0.427266 0.324853 0.127202
$20@004halogun_01
  16 5.172164 -9.424039 -3.543529 -0.377067 -0.813871 -0.442079 0.592955 0.845401
  18 6.913201 -11.244039 -3.643529 -0.597629 -0.678497 -0.427179 0.530333 0.798434
  18 7.003201 -11.494039 -3.543529 -0.597629 -0.678497 -0.427179 0.520548 0.798434
$20@004halogun_01
  16 5.172164 -9.424039 -3.543529 -0.377067 -0.813871 -0.442079 0.592955 0.845401
  16 5.272164 -9.374039 -3.643529 -0.377067 -0.813871 -0.442079 0.594912 0.841487
  18 6.913201 -11.244039 -3.643529 -0.597629 -0.678497 -0.427179 0.530333 0.798434
$20@004halogun_01
  16 5.172164 -9.424039 -3.543529 -0.377067 -0.813871 -0.442079 0.592955 0.845401
  16 4.752165 -5.854039 -3.643529 -0.131269 -0.894538 -0.427283 0.708415 0.841487
  16 5.272164 -9.374039 -3.643529 -0.377067 -0.813871 -0.442079 0.594912 0.841487
$20@004halogun_01
  16 5.172164 -9.424039 -3.543529 -0.377067 -0.813871 -0.442079 0.592955 0.845401
  16 4.612165 -5.604039 -3.543529 -0.131269 -0.894538 -0.427283 0.716243 0.847358
  16 4.752165 -5.854039 -3.643529 -0.131269 -0.894538 -0.427283 0.708415 0.841487
$20@004halogun_01
  17 9.379233 -13.314662 -4.337297 0.000000 0.000000 1.000000 0.313112 0.039139
  17 10.889234 -11.194662 -4.337298 0.000000 0.000000 1.000000 0.183953 0.080235
  17 9.289234 -12.294662 -4.337297 0.000000 0.000000 1.000000 0.264188 0.017613
$20@004halogun_01
  17 9.289234 -12.294662 -4.337297 0.000000 0.000000 1.000000 0.264188 0.017613
  17 10.889234 -11.194662 -4.337298 0.000000 0.000000 1.000000 0.183953 0.080235
  17 10.259235 -9.384662 -4.337298 0.000000 0.000000 1.000000 0.103718 0.019569
$20@004halogun_01
  17 10.889234 -11.194662 -4.337298 0.000000 0.000000 1.000000 0.183953 0.080235
  17 11.489235 -8.294662 -4.337298 0.000000 0.000000 1.000000 0.029354 0.062622
  17 10.259235 -9.384662 -4.337298 0.000000 0.000000 1.000000 0.103718 0.019569
$20@004halogun_01
  17 11.489235 -8.294662 -4.607298 0.000000 0.000000 -1.000000 0.923679 0.606654
  17 10.889234 -11.194662 -4.607298 0.000000 0.000000 -1.000000 0.900196 0.696673
  17 10.259234 -9.384662 -4.607298 0.000000 0.000000 -1.000000 0.884540 0.637965
$20@004halogun_01
  17 10.259234 -9.384662 -4.607298 0.000000 0.000000 -1.000000 0.884540 0.637965
  17 10.889234 -11.194662 -4.607298 0.000000 0.000000 -1.000000 0.900196 0.696673
  17 9.289234 -12.294662 -4.607297 0.000000 0.000000 -1.000000 0.847358 0.727984
$20@004halogun_01
  17 10.889234 -11.194662 -4.607298 0.000000 0.000000 -1.000000 0.900196 0.696673
  17 9.379233 -13.314662 -4.607297 0.000000 0.000000 -1.000000 0.847358 0.759295
  17 9.289234 -12.294662 -4.607297 0.000000 0.000000 -1.000000 0.847358 0.727984
$20@004halogun_01
  18 7.663201 -11.244039 -3.453529 0.000000 0.000000 1.000000 0.324853 0.127202
  18 9.303202 -9.374040 -3.453530 0.000000 0.000000 1.000000 0.207436 0.185910
  18 7.603202 -10.004039 -3.453529 0.000000 0.000000 1.000000 0.262231 0.107632
$20@004halogun_01
  18 7.603202 -10.004039 -3.453529 0.000000 0.000000 1.000000 0.262231 0.107632
  18 9.303202 -9.374040 -3.453530 0.000000 0.000000 1.000000 0.207436 0.185910
  18 8.673203 -6.764039 -3.453530 0.000000 0.000000 1.000000 0.084149 0.117417
$20@004halogun_01
  18 9.303202 -9.374040 -3.453530 0.000000 0.000000 1.000000 0.207436 0.185910
  18 9.823203 -5.854040 -3.453531 0.000000 0.000000 1.000000 0.021526 0.162427
  18 8.673203 -6.764039 -3.453530 0.000000 0.000000 1.000000 0.084149 0.117417
$20@004halogun_01
  18 9.823203 -5.854040 -3.643531 0.000000 0.000000 -1.000000 0.708415 0.841487
  18 9.303202 -9.374040 -3.643530 0.000000 0.000000 -1.000000 0.594912 0.841487
  18 8.673203 -6.764039 -3.643530 0.000000 0.000000 -1.000000 0.675147 0.810176
$20@004halogun_01
  18 8.673203 -6.764039 -3.643530 0.000000 0.000000 -1.000000 0.675147 0.810176
  18 9.303202 -9.374040 -3.643530 0.000000 0.000000 -1.000000 0.594912 0.841487
  18 7.603202 -10.004039 -3.643529 0.000000 0.000000 -1.000000 0.567515 0.790607
$20@004halogun_01
  18 9.303202 -9.374040 -3.643530 0.000000 0.000000 -1.000000 0.594912 0.841487
  18 7.663201 -11.244039 -3.643529 0.000000 0.000000 -1.000000 0.530333 0.798434
  18 7.603202 -10.004039 -3.643529 0.000000 0.000000 -1.000000 0.567515 0.790607
$20@004halogun_01
  15 3.084124 -8.294662 -4.337297 0.000000 0.000000 1.000000 0.029354 0.062622
  15 3.684123 -11.194662 -4.337297 0.000000 0.000000 1.000000 0.183953 0.080235
  15 4.314124 -9.384662 -4.337297 0.000000 0.000000 1.000000 0.103718 0.019569
$20@004halogun_01
  15 4.314124 -9.384662 -4.337297 0.000000 0.000000 1.000000 0.103718 0.019569
  15 3.684123 -11.194662 -4.337297 0.000000 0.000000 1.000000 0.183953 0.080235
  15 5.294123 -12.294663 -4.337297 0.000000 0.000000 1.000000 0.264188 0.017613
$20@004halogun_01
  15 3.684123 -11.194662 -4.337297 0.000000 0.000000 1.000000 0.183953 0.080235
  15 5.194122 -13.314663 -4.337297 0.000000 0.000000 1.000000 0.313112 0.039139
  15 5.294123 -12.294663 -4.337297 0.000000 0.000000 1.000000 0.264188 0.017613
$20@004halogun_01
  15 5.194122 -13.314663 -4.607297 0.000000 0.000000 -1.000000 0.847358 0.759295
  15 3.684123 -11.194662 -4.607297 0.000000 0.000000 -1.000000 0.900196 0.696673
  15 5.294123 -12.294663 -4.607297 0.000000 0.000000 -1.000000 0.847358 0.727984
$20@004halogun_01
  15 5.294123 -12.294663 -4.607297 0.000000 0.000000 -1.000000 0.847358 0.727984
  15 3.684123 -11.194662 -4.607297 0.000000 0.000000 -1.000000 0.900196 0.696673
  15 4.314124 -9.384662 -4.607297 0.000000 0.000000 -1.000000 0.884540 0.637965
$20@004halogun_01
  15 3.684123 -11.194662 -4.607297 0.000000 0.000000 -1.000000 0.900196 0.696673
  15 3.084124 -8.294662 -4.607297 0.000000 0.000000 -1.000000 0.923679 0.606654
  15 4.314124 -9.384662 -4.607297 0.000000 0.000000 -1.000000 0.884540 0.637965
$20@004halogun_01
  16 4.752165 -5.854039 -3.453529 0.000000 0.000000 1.000000 0.021526 0.162427
  16 5.272164 -9.374039 -3.453529 0.000000 0.000000 1.000000 0.207436 0.185910
  16 5.902165 -6.764039 -3.453529 0.000000 0.000000 1.000000 0.084149 0.117417
$20@004halogun_01
  16 5.902165 -6.764039 -3.453529 0.000000 0.000000 1.000000 0.084149 0.117417
  16 5.272164 -9.374039 -3.453529 0.000000 0.000000 1.000000 0.207436 0.185910
  16 6.972164 -10.004039 -3.453529 0.000000 0.000000 1.000000 0.262231 0.107632
$20@004halogun_01
  16 5.272164 -9.374039 -3.453529 0.000000 0.000000 1.000000 0.207436 0.185910
  18 6.913201 -11.244039 -3.453529 0.000000 0.000000 1.000000 0.324853 0.127202
  16 6.972164 -10.004039 -3.453529 0.000000 0.000000 1.000000 0.262231 0.107632
$20@004halogun_01
  18 6.913201 -11.244039 -3.643529 0.000000 0.000000 -1.000000 0.530333 0.798434
  16 5.272164 -9.374039 -3.643529 0.000000 0.000000 -1.000000 0.594912 0.841487
  16 6.972164 -10.004039 -3.643529 0.000000 0.000000 -1.000000 0.567515 0.790607
$20@004halogun_01
  16 6.972164 -10.004039 -3.643529 0.000000 0.000000 -1.000000 0.567515 0.790607
  16 5.272164 -9.374039 -3.643529 0.000000 0.000000 -1.000000 0.594912 0.841487
  16 5.902165 -6.764039 -3.643529 0.000000 0.000000 -1.000000 0.675147 0.810176
$20@004halogun_01
  16 5.272164 -9.374039 -3.643529 0.000000 0.000000 -1.000000 0.594912 0.841487
  16 4.752165 -5.854039 -3.643529 0.000000 0.000000 -1.000000 0.708415 0.841487
  16 5.902165 -6.764039 -3.643529 0.000000 0.000000 -1.000000 0.675147 0.810176
$20@004halogun_01
  17 10.169235 -9.324662 -4.477298 0.519668 0.792403 0.319441 0.099804 0.007828
  17 11.489235 -8.294662 -4.337298 0.706188 0.630290 0.322542 0.029354 0.062622
  17 11.659235 -7.984662 -4.477299 0.706188 0.630290 0.322542 0.007828 0.058708
$20@004halogun_01
  17 11.489235 -8.294662 -4.607298 0.706165 0.630269 -0.322633 0.923679 0.606654
  17 10.169235 -9.324662 -4.477298 0.519668 0.792403 -0.319441 0.878669 0.634051
  17 11.659235 -7.984662 -4.477299 0.706165 0.630269 -0.322633 0.927593 0.592955
$20@004halogun_01
  18 8.583203 -6.704040 -3.543530 0.514163 0.734821 0.442351 0.080235 0.107632
  18 9.823203 -5.854040 -3.453531 0.709017 0.561014 0.427269 0.021526 0.162427
  18 9.973203 -5.604040 -3.543531 0.709017 0.561014 0.427269 0.005871 0.162427
$20@004halogun_01
  18 9.823203 -5.854040 -3.643531 0.709049 0.561040 -0.427182 0.708415 0.841487
  18 8.583203 -6.704040 -3.543530 0.514242 0.734766 -0.442351 0.677104 0.804305
  18 9.973203 -5.604040 -3.543531 0.709049 0.561040 -0.427182 0.718200 0.841487
$20@004halogun_01
  15 3.084124 -8.294662 -4.337297 0.706188 0.630290 0.322542 0.029354 0.062622
  15 4.404124 -9.324663 -4.477297 0.519668 0.792403 0.319441 0.099804 0.007828
  15 2.914124 -7.984662 -4.477297 0.706188 0.630290 0.322542 0.007828 0.058708
$20@004halogun_01
  15 4.404124 -9.324663 -4.477297 0.519668 0.792403 -0.319441 0.878669 0.634051
  15 3.084124 -8.294662 -4.607297 0.706188 0.630290 -0.322542 0.923679 0.606654
  15 2.914124 -7.984662 -4.477297 0.706188 0.630290 -0.322542 0.927593 0.592955
$20@004halogun_01
  16 4.752165 -5.854039 -3.453529 0.709017 0.561014 0.427269 0.021526 0.162427
  16 5.992165 -6.704039 -3.543529 0.514247 0.734760 0.442355 0.080235 0.107632
  16 4.612165 -5.604039 -3.543529 0.709017 0.561014 0.427269 0.005871 0.162427
$20@004halogun_01
  16 5.992165 -6.704039 -3.543529 0.514242 0.734766 -0.442351 0.677104 0.804305
  16 4.752165 -5.854039 -3.643529 0.709017 0.561014 -0.427269 0.708415 0.841487
  16 4.612165 -5.604039 -3.543529 0.709017 0.561014 -0.427269 0.718200 0.841487
$20@004halogun_02
  19 3.512446 -8.789177 -0.512703 -0.034570 0.209879 0.977116 0.508806 0.673190
  19 2.906737 -8.837016 -0.651730 -0.032471 0.244773 0.969037 0.506849 0.643836
  19 4.366564 -12.669617 -0.471802 -0.032471 0.244773 0.969037 0.336595 0.710372
$20@004halogun_02
  19 4.366564 -12.669617 -0.471802 -0.032471 0.244773 0.969037 0.336595 0.710372
  19 2.906737 -8.837016 -0.651730 -0.032471 0.244773 0.969037 0.506849 0.643836
  19 3.959192 -13.388107 -0.584587 -0.068230 0.232945 0.970093 0.305284 0.692759
$20@004halogun_02
  19 2.906737 -8.837016 -0.651730 -0.032471 0.244773 0.969037 0.506849 0.643836
  19 1.451312 -15.884724 -1.306903 -0.068230 0.232945 0.970093 0.191781 0.579256
  19 3.959192 -13.388107 -0.584587 -0.068230 0.232945 0.970093 0.305284 0.692759
$20@004halogun_02
  19 3.959192 -13.388107 -0.584587 -0.068230 0.232945 0.970093 0.305284 0.692759
  19 1.451312 -15.884724 -1.306903 -0.068230 0.232945 0.970093 0.191781 0.579256
  19 3.927702 -14.557027 -0.641460 -0.068230 0.232945 0.970093 0.250489 0.692759
$20@004halogun_02
  19 1.451312 -15.884724 -1.306903 -0.068230 0.232945 0.970093 0.191781 0.579256
  19 3.405346 -16.970046 -0.923202 -0.068230 0.232945 0.970093 0.144814 0.667319
  19 3.927702 -14.557027 -0.641460 -0.068230 0.232945 0.970093 0.250489 0.692759
$20@004halogun_02
  19 3.927702 -14.557027 -0.641460 -0.068230 0.232945 0.970093 0.250489 0.692759
  19 3.405346 -16.970046 -0.923202 -0.068230 0.232945 0.970093 0.144814 0.667319
  19 4.545158 -15.119399 -0.512674 -0.068230 0.232945 0.970093 0.225049 0.724070
$20@004halogun_02
  19 3.405346 -16.970046 -0.923202 -0.068230 0.232945 0.970093 0.144814 0.667319
  19 4.590815 -19.159662 -0.800934 -0.068230 0.232945 0.970093 0.050881 0.724070
  19 4.545158 -15.119399 -0.512674 -0.068230 0.232945 0.970093 0.225049 0.724070
$20@004halogun_02
  19 4.580834 -19.156648 -1.441084 0.082135 -0.282943 -0.955613 0.634051 0.199609
  19 3.422759 -17.134707 -1.608464 0.058464 -0.235201 -0.970187 0.702544 0.240705
  19 4.546615 -15.115863 -1.161123 0.058464 -0.235201 -0.970187 0.771037 0.199609
$20@004halogun_02
  19 4.546615 -15.115863 -1.161123 0.058464 -0.235201 -0.970187 0.771037 0.199609
  19 3.422759 -17.134707 -1.608464 0.058464 -0.235201 -0.970187 0.702544 0.240705
  19 3.927598 -14.554013 -1.280046 0.058464 -0.235201 -0.970187 0.790607 0.221135
$20@004halogun_02
  19 3.422759 -17.134707 -1.608464 0.058464 -0.235201 -0.970187 0.702544 0.240705
  19 0.901561 -15.730346 -2.054928 0.036101 -0.207778 -0.977510 0.747554 0.326810
  19 3.927598 -14.554013 -1.280046 0.058464 -0.235201 -0.970187 0.790607 0.221135
$20@004halogun_02
  19 3.927598 -14.554013 -1.280046 0.058464 -0.235201 -0.970187 0.790607 0.221135
  19 0.901561 -15.730346 -2.054928 0.036101 -0.207778 -0.977510 0.747554 0.326810
  19 3.949211 -13.385094 -1.224736 0.036101 -0.207778 -0.977510 0.829746 0.221135
$20@004halogun_02
  19 0.901561 -15.730346 -2.054928 0.036101 -0.207778 -0.977510 0.747554 0.326810
  19 2.355423 -8.683162 -1.389892 0.036101 -0.207778 -0.977510 0.990215 0.275930
  19 3.949211 -13.385094 -1.224736 0.036101 -0.207778 -0.977510 0.829746 0.221135
$20@004halogun_02
  19 3.949211 -13.385094 -1.224736 0.036101 -0.207778 -0.977510 0.829746 0.221135
  19 2.355423 -8.683162 -1.389892 0.036101 -0.207778 -0.977510 0.990215 0.275930
  19 4.366460 -12.666603 -1.110387 0.036101 -0.207778 -0.977510 0.855186 0.207436
$20@004halogun_02
  19 2.355423 -8.683162 -1.389892 0.036101 -0.207778 -0.977510 0.990215 0.275930
  19 3.472758 -8.585915 -1.157070 0.036101 -0.207778 -0.977510 0.994129 0.238748
  19 4.366460 -12.666603 -1.110387 0.036101 -0.207778 -0.977510 0.855186 0.207436
$20@004halogun_02
  20 9.992467 -19.160190 -0.803583 -0.068230 -0.232945 0.970093 0.050881 0.724070
  20 11.169703 -16.961112 -0.913907 -0.068230 -0.232945 0.970093 0.144814 0.667319
  20 10.028246 -15.119927 -0.513759 -0.068230 -0.232945 0.970093 0.225049 0.724070
$20@004halogun_02
  20 10.028246 -15.119927 -0.513759 -0.068230 -0.232945 0.970093 0.225049 0.724070
  20 11.169703 -16.961112 -0.913907 -0.068230 -0.232945 0.970093 0.144814 0.667319
  20 10.645702 -14.557555 -0.642545 -0.068230 -0.232945 0.970093 0.250489 0.692759
$20@004halogun_02
  20 11.169703 -16.961112 -0.913907 -0.068230 -0.232945 0.970093 0.144814 0.667319
  20 13.122092 -15.885251 -1.307989 -0.068230 -0.232945 0.970093 0.191781 0.579256
  20 10.645702 -14.557555 -0.642545 -0.068230 -0.232945 0.970093 0.250489 0.692759
$20@004halogun_02
  20 10.645702 -14.557555 -0.642545 -0.068230 -0.232945 0.970093 0.250489 0.692759
  20 13.122092 -15.885251 -1.307989 -0.068230 -0.232945 0.970093 0.191781 0.579256
  20 10.624088 -13.388635 -0.587236 -0.068230 -0.232945 0.970093 0.305284 0.692759
$20@004halogun_02
  20 13.122092 -15.885251 -1.307989 -0.068230 -0.232945 0.970093 0.191781 0.579256
  20 11.668227 -8.838067 -0.642952 -0.032470 -0.244773 0.969037 0.506849 0.643836
  20 10.624088 -13.388635 -0.587236 -0.068230 -0.232945 0.970093 0.305284 0.692759
$20@004halogun_02
  20 10.624088 -13.388635 -0.587236 -0.068230 -0.232945 0.970093 0.305284 0.692759
  20 11.668227 -8.838067 -0.642952 -0.032470 -0.244773 0.969037 0.506849 0.643836
  20 10.206921 -12.660159 -0.472370 -0.032470 -0.244773 0.969037 0.336595 0.710372
$20@004halogun_02
  20 11.668227 -8.838067 -0.642952 -0.032470 -0.244773 0.969037 0.506849 0.643836
  20 11.060956 -8.789706 -0.513788 -0.034570 -0.209881 0.977116 0.508806 0.673190
  20 10.206921 -12.660159 -0.472370 -0.032470 -0.244773 0.969037 0.336595 0.710372
$20@004halogun_02
  20 11.100643 -8.586443 -1.158155 0.036101 0.207778 -0.977510 0.994129 0.238748
  20 12.217978 -8.683689 -1.390977 0.036101 0.207778 -0.977510 0.990215 0.275930
  20 10.206943 -12.667132 -1.111472 0.036101 0.207778 -0.977510 0.855186 0.207436
$20@004halogun_02
  20 10.206943 -12.667132 -1.111472 0.036101 0.207778 -0.977510 0.855186 0.207436
  20 12.217978 -8.683689 -1.390977 0.036101 0.207778 -0.977510 0.990215 0.275930
  20 10.624192 -13.385622 -1.225821 0.036101 0.207778 -0.977510 0.829746 0.221135
$20@004halogun_02
  20 12.217978 -8.683689 -1.390977 0.036101 0.207778 -0.977510 0.990215 0.275930
  20 13.673405 -15.731397 -2.046150 0.036101 0.207778 -0.977510 0.747554 0.326810
  20 10.624192 -13.385622 -1.225821 0.036101 0.207778 -0.977510 0.829746 0.221135
$20@004halogun_02
  20 10.624192 -13.385622 -1.225821 0.036101 0.207778 -0.977510 0.829746 0.221135
  20 13.673405 -15.731397 -2.046150 0.036101 0.207778 -0.977510 0.747554 0.326810
  20 10.655683 -14.554541 -1.282695 0.058464 0.235201 -0.970187 0.790607 0.221135
$20@004halogun_02
  20 13.673405 -15.731397 -2.046150 0.036101 0.207778 -0.977510 0.747554 0.326810
  20 11.160522 -17.135235 -1.611114 0.058464 0.235201 -0.970187 0.702544 0.240705
  20 10.655683 -14.554541 -1.282695 0.058464 0.235201 -0.970187 0.790607 0.221135
$20@004halogun_02
  20 10.655683 -14.554541 -1.282695 0.058464 0.235201 -0.970187 0.790607 0.221135
  20 11.160522 -17.135235 -1.611114 0.058464 0.235201 -0.970187 0.702544 0.240705
  20 10.028351 -15.116915 -1.152344 0.058464 0.235201 -0.970187 0.771037 0.199609
$20@004halogun_02
  20 11.160522 -17.135235 -1.611114 0.058464 0.235201 -0.970187 0.702544 0.240705
  20 9.992572 -19.157177 -1.442169 0.082135 0.282943 -0.955613 0.634051 0.199609
  20 10.028351 -15.116915 -1.152344 0.058464 0.235201 -0.970187 0.771037 0.199609
$20@004halogun_02
  19 4.221209 -19.675413 -1.535708 0.082135 -0.282943 -0.955613 0.088063 0.295499
  19 4.569898 -19.160312 -1.372040 0.082135 -0.282943 -0.955613 0.101761 0.303327
  19 5.001141 -20.339741 -1.346044 0.082135 -0.282943 -0.955613 0.074364 0.315068
$20@004halogun_02
  19 5.001141 -20.339741 -1.346044 0.082135 -0.282943 -0.955613 0.074364 0.315068
  19 4.569898 -19.160312 -1.372040 0.082135 -0.282943 -0.955613 0.101761 0.303327
  19 5.387946 -19.654874 -1.167331 0.082135 -0.282943 -0.955613 0.090020 0.326810
$20@004halogun_02
  19 4.569898 -19.160312 -1.372040 0.082135 -0.282943 -0.955613 0.101761 0.303327
  19 4.525885 -15.129512 -1.094161 0.036101 -0.207778 -0.977510 0.193738 0.303327
  19 5.387946 -19.654874 -1.167331 0.082135 -0.282943 -0.955613 0.090020 0.326810
$20@004halogun_02
  19 5.387946 -19.654874 -1.167331 0.082135 -0.282943 -0.955613 0.090020 0.326810
  19 4.525885 -15.129512 -1.094161 0.036101 -0.207778 -0.977510 0.193738 0.303327
  19 5.416401 -12.665514 -0.771680 0.036101 -0.207778 -0.977510 0.254403 0.326810
$20@004halogun_02
  19 4.525885 -15.129512 -1.094161 0.036101 -0.207778 -0.977510 0.193738 0.303327
  19 3.906785 -14.557677 -1.212566 0.036101 -0.207778 -0.977510 0.209393 0.289628
  19 5.416401 -12.665514 -0.771680 0.036101 -0.207778 -0.977510 0.254403 0.326810
$20@004halogun_02
  19 5.416401 -12.665514 -0.771680 0.036101 -0.207778 -0.977510 0.254403 0.326810
  19 3.906785 -14.557677 -1.212566 0.036101 -0.207778 -0.977510 0.209393 0.289628
  19 3.938276 -13.388757 -1.155693 0.036101 -0.207778 -0.977510 0.236791 0.289628
$20@004halogun_02
  20 10.353225 -19.699535 -1.274605 -0.092003 -0.267783 0.959077 0.088063 0.295499
  20 9.991697 -19.163415 -1.128066 -0.068230 -0.232945 0.970093 0.101761 0.303327
  20 9.577084 -20.341798 -1.124925 -0.092003 -0.267783 0.959077 0.074364 0.315068
$20@004halogun_02
  20 9.577084 -20.341798 -1.124925 -0.092003 -0.267783 0.959077 0.074364 0.315068
  20 9.991697 -19.163415 -1.128066 -0.068230 -0.232945 0.970093 0.101761 0.303327
  20 9.178840 -19.656407 -0.954511 -0.068230 -0.232945 0.970093 0.090020 0.326810
$20@004halogun_02
  20 9.991697 -19.163415 -1.128066 -0.068230 -0.232945 0.970093 0.101761 0.303327
  20 10.027476 -15.123152 -0.838242 -0.068230 -0.232945 0.970093 0.193738 0.303327
  20 9.178840 -19.656407 -0.954511 -0.068230 -0.232945 0.970093 0.090020 0.326810
$20@004halogun_02
  20 9.178840 -19.656407 -0.954511 -0.068230 -0.232945 0.970093 0.090020 0.326810
  20 10.027476 -15.123152 -0.838242 -0.068230 -0.232945 0.970093 0.193738 0.303327
  20 9.166509 -12.669141 -0.520971 -0.068230 -0.232945 0.970093 0.254403 0.326810
$20@004halogun_02
  20 10.027476 -15.123152 -0.838242 -0.068230 -0.232945 0.970093 0.193738 0.303327
  20 10.645013 -14.550793 -0.966511 -0.068230 -0.232945 0.970093 0.209393 0.289628
  20 9.166509 -12.669141 -0.520971 -0.068230 -0.232945 0.970093 0.254403 0.326810
$20@004halogun_02
  20 9.166509 -12.669141 -0.520971 -0.068230 -0.232945 0.970093 0.254403 0.326810
  20 10.645013 -14.550793 -0.966511 -0.068230 -0.232945 0.970093 0.209393 0.289628
  20 10.623318 -13.391860 -0.911718 -0.032470 -0.244773 0.969037 0.236791 0.289628
$20@004halogun_02
  19 4.996322 -20.341269 -1.123840 -0.092003 0.267782 0.959077 0.074364 0.315068
  19 5.394566 -19.655878 -0.953427 -0.068230 0.232945 0.970093 0.090020 0.326810
  19 4.581708 -19.162886 -1.126981 -0.068230 0.232945 0.970093 0.101761 0.303327
$20@004halogun_02
  19 4.581708 -19.162886 -1.126981 -0.068230 0.232945 0.970093 0.101761 0.303327
  19 5.394566 -19.655878 -0.953427 -0.068230 0.232945 0.970093 0.090020 0.326810
  19 4.545927 -15.122624 -0.837157 -0.068230 0.232945 0.970093 0.193738 0.303327
$20@004halogun_02
  19 5.394566 -19.655878 -0.953427 -0.068230 0.232945 0.970093 0.090020 0.326810
  19 5.406894 -12.668612 -0.519886 -0.068230 0.232945 0.970093 0.254403 0.326810
  19 4.545927 -15.122624 -0.837157 -0.068230 0.232945 0.970093 0.193738 0.303327
$20@004halogun_02
  19 4.545927 -15.122624 -0.837157 -0.068230 0.232945 0.970093 0.193738 0.303327
  19 5.406894 -12.668612 -0.519886 -0.068230 0.232945 0.970093 0.254403 0.326810
  19 3.928472 -14.560251 -0.965943 -0.068230 0.232945 0.970093 0.209393 0.289628
$20@004halogun_02
  19 5.406894 -12.668612 -0.519886 -0.068230 0.232945 0.970093 0.254403 0.326810
  19 3.950085 -13.391331 -0.910634 -0.032471 0.244773 0.969037 0.236791 0.289628
  19 3.928472 -14.560251 -0.965943 -0.068230 0.232945 0.970093 0.209393 0.289628
$20@004halogun_02
  20 9.572265 -20.340270 -1.347128 0.082135 0.282943 -0.955613 0.074364 0.315068
  20 9.185459 -19.655403 -1.168416 0.082135 0.282943 -0.955613 0.090020 0.326810
  20 10.003507 -19.160840 -1.373125 0.082135 0.282943 -0.955613 0.101761 0.303327
$20@004halogun_02
  20 10.003507 -19.160840 -1.373125 0.082135 0.282943 -0.955613 0.101761 0.303327
  20 9.185459 -19.655403 -1.168416 0.082135 0.282943 -0.955613 0.090020 0.326810
  20 10.049163 -15.120578 -1.084865 0.036101 0.207778 -0.977510 0.193738 0.303327
$20@004halogun_02
  20 9.185459 -19.655403 -1.168416 0.082135 0.282943 -0.955613 0.090020 0.326810
  20 9.166879 -12.666043 -0.774329 0.036101 0.207778 -0.977510 0.254403 0.326810
  20 10.049163 -15.120578 -1.084865 0.036101 0.207778 -0.977510 0.193738 0.303327
$20@004halogun_02
  20 10.049163 -15.120578 -1.084865 0.036101 0.207778 -0.977510 0.193738 0.303327
  20 9.166879 -12.666043 -0.774329 0.036101 0.207778 -0.977510 0.254403 0.326810
  20 10.666618 -14.558205 -1.213651 0.036101 0.207778 -0.977510 0.209393 0.289628
$20@004halogun_02
  20 9.166879 -12.666043 -0.774329 0.036101 0.207778 -0.977510 0.254403 0.326810
  20 10.635127 -13.389285 -1.156777 0.036101 0.207778 -0.977510 0.236791 0.289628
  20 10.666618 -14.558205 -1.213651 0.036101 0.207778 -0.977510 0.209393 0.289628
$20@004halogun_02
  19 4.366564 -12.669617 -0.471802 -0.494448 -0.869207 0.000000 0.338552 0.726027
  19 3.959192 -13.388107 -0.584587 -0.281499 -0.959561 0.000000 0.303327 0.727984
  19 4.367252 -12.662855 -0.795768 -0.494448 -0.869207 0.000000 0.336595 0.737769
$20@004halogun_02
  19 4.367252 -12.662855 -0.795768 -0.494448 -0.869207 0.000000 0.336595 0.737769
  19 3.959192 -13.388107 -0.584587 -0.281499 -0.959561 0.000000 0.303327 0.727984
  19 3.950085 -13.391331 -0.910634 -0.281499 -0.959561 0.000000 0.303327 0.741683
$20@004halogun_02
  19 3.959192 -13.388107 -0.584587 -0.281499 -0.959561 0.000000 0.303327 0.727984
  19 3.927702 -14.557027 -0.641460 -0.024661 -0.999696 0.000000 0.254403 0.727984
  19 3.950085 -13.391331 -0.910634 -0.281499 -0.959561 0.000000 0.303327 0.741683
$20@004halogun_02
  19 3.950085 -13.391331 -0.910634 -0.281499 -0.959561 0.000000 0.303327 0.741683
  19 3.927702 -14.557027 -0.641460 -0.024661 -0.999696 0.000000 0.254403 0.727984
  19 3.928472 -14.560251 -0.965943 -0.024661 -0.999696 0.000000 0.254403 0.741683
$20@004halogun_02
  19 5.387946 -19.654874 -1.167331 -0.281499 -0.959561 0.000000 0.086106 0.332681
  19 4.996322 -20.341269 -1.123840 -0.494448 -0.869207 0.000000 0.074364 0.315068
  19 5.001141 -20.339741 -1.346044 -0.494448 -0.869207 0.000000 0.068493 0.320939
$20@004halogun_02
  19 5.387946 -19.654874 -1.167331 -0.281499 -0.959561 0.000000 0.086106 0.332681
  19 5.394566 -19.655878 -0.953427 -0.234985 -0.971999 0.000000 0.090020 0.326810
  19 4.996322 -20.341269 -1.123840 -0.494448 -0.869207 0.000000 0.074364 0.315068
$20@004halogun_02
  19 5.387946 -19.654874 -1.167331 -0.281499 -0.959561 0.000000 0.086106 0.332681
  19 5.406894 -12.668612 -0.519886 -0.024661 -0.999696 0.000000 0.254403 0.326810
  19 5.394566 -19.655878 -0.953427 -0.234985 -0.971999 0.000000 0.090020 0.326810
$20@004halogun_02
  19 5.387946 -19.654874 -1.167331 -0.281499 -0.959561 0.000000 0.086106 0.332681
  19 5.416401 -12.665514 -0.771680 -0.024661 -0.999696 0.000000 0.252446 0.332681
  19 5.406894 -12.668612 -0.519886 -0.024661 -0.999696 0.000000 0.254403 0.326810
$20@004halogun_02
  19 3.938276 -13.388757 -1.155693 -0.276219 -0.938209 0.208487 0.829746 0.219178
  19 4.366460 -12.666603 -1.110387 -0.494448 -0.869207 0.000000 0.855186 0.207436
  19 4.365401 -12.670267 -1.039780 -0.494448 -0.869207 0.000000 0.853229 0.203523
$20@004halogun_02
  19 3.938276 -13.388757 -1.155693 -0.276219 -0.938209 0.208487 0.829746 0.219178
  19 3.949211 -13.385094 -1.224736 -0.276219 -0.938209 0.208487 0.829746 0.221135
  19 4.366460 -12.666603 -1.110387 -0.494448 -0.869207 0.000000 0.855186 0.207436
$20@004halogun_02
  19 3.938276 -13.388757 -1.155693 -0.276219 -0.938209 0.208487 0.829746 0.219178
  19 3.927598 -14.554013 -1.280046 -0.034620 -0.971241 0.235569 0.790607 0.221135
  19 3.949211 -13.385094 -1.224736 -0.276219 -0.938209 0.208487 0.829746 0.221135
$20@004halogun_02
  19 3.938276 -13.388757 -1.155693 -0.276219 -0.938209 0.208487 0.829746 0.219178
  19 3.906785 -14.557677 -1.212566 -0.034620 -0.971241 0.235569 0.790607 0.219178
  19 3.927598 -14.554013 -1.280046 -0.034620 -0.971241 0.235569 0.790607 0.221135
$20@004halogun_02
  20 10.362577 -19.672801 -1.599102 -0.298715 -0.953936 -0.027838 0.021526 0.677104
  20 11.160522 -17.135235 -1.611114 -0.289809 -0.956033 0.044843 0.123288 0.645793
  20 10.353759 -19.676464 -1.526929 -0.298715 -0.953936 -0.027838 0.021526 0.679061
$20@004halogun_02
  20 10.353759 -19.676464 -1.526929 -0.298715 -0.953936 -0.027838 0.021526 0.679061
  20 11.160522 -17.135235 -1.611114 -0.289809 -0.956033 0.044843 0.123288 0.645793
  20 10.353225 -19.699535 -1.274605 -0.298715 -0.953936 -0.027838 0.025440 0.690802
$20@004halogun_02
  20 11.160522 -17.135235 -1.611114 -0.289809 -0.956033 0.044843 0.123288 0.645793
  20 11.169703 -16.961112 -0.913907 -0.289809 -0.956033 0.044843 0.144814 0.667319
  20 10.353225 -19.699535 -1.274605 -0.298715 -0.953936 -0.027838 0.025440 0.690802
$20@004halogun_02
  20 10.353225 -19.699535 -1.274605 -0.298715 -0.953936 -0.027838 0.025440 0.690802
  20 11.169703 -16.961112 -0.913907 -0.289809 -0.956033 0.044843 0.144814 0.667319
  20 10.352187 -19.725745 -0.961537 -0.298715 -0.953936 -0.027838 0.027397 0.704501
$20@004halogun_02
  20 9.185459 -19.655403 -1.168416 -0.281499 0.959561 0.000001 0.086106 0.332681
  20 9.166509 -12.669141 -0.520971 -0.024661 0.999696 0.000001 0.254403 0.326810
  20 9.166879 -12.666043 -0.774329 -0.024661 0.999696 0.000001 0.252446 0.332681
$20@004halogun_02
  20 9.185459 -19.655403 -1.168416 -0.281499 0.959561 0.000001 0.086106 0.332681
  20 9.178840 -19.656407 -0.954511 -0.234984 0.971999 0.000000 0.090020 0.326810
  20 9.166509 -12.669141 -0.520971 -0.024661 0.999696 0.000001 0.254403 0.326810
$20@004halogun_02
  20 9.185459 -19.655403 -1.168416 -0.281499 0.959561 0.000001 0.086106 0.332681
  20 9.577084 -20.341798 -1.124925 -0.494448 0.869207 0.000001 0.074364 0.315068
  20 9.178840 -19.656407 -0.954511 -0.234984 0.971999 0.000000 0.090020 0.326810
$20@004halogun_02
  20 9.185459 -19.655403 -1.168416 -0.281499 0.959561 0.000001 0.086106 0.332681
  20 9.572265 -20.340270 -1.347128 -0.494448 0.869207 0.000001 0.068493 0.320939
  20 9.577084 -20.341798 -1.124925 -0.494448 0.869207 0.000001 0.074364 0.315068
$20@004halogun_02
  20 10.635127 -13.389285 -1.156777 -0.284400 0.934898 0.212328 0.829746 0.219178
  20 10.655683 -14.554541 -1.282695 -0.034620 0.971241 0.235569 0.790607 0.221135
  20 10.666618 -14.558205 -1.213651 -0.034620 0.971241 0.235569 0.790607 0.219178
$20@004halogun_02
  20 10.635127 -13.389285 -1.156777 -0.284400 0.934898 0.212328 0.829746 0.219178
  20 10.624192 -13.385622 -1.225821 -0.284400 0.934898 0.212328 0.829746 0.221135
  20 10.655683 -14.554541 -1.282695 -0.034620 0.971241 0.235569 0.790607 0.221135
$20@004halogun_02
  20 10.635127 -13.389285 -1.156777 -0.284400 0.934898 0.212328 0.829746 0.219178
  20 10.206943 -12.667132 -1.111472 -0.494448 0.869207 0.000001 0.855186 0.207436
  20 10.624192 -13.385622 -1.225821 -0.284400 0.934898 0.212328 0.829746 0.221135
$20@004halogun_02
  20 10.635127 -13.389285 -1.156777 -0.284400 0.934898 0.212328 0.829746 0.219178
  20 10.208083 -12.660809 -1.040347 -0.494448 0.869207 0.000001 0.853229 0.203523
  20 10.206943 -12.667132 -1.111472 -0.494448 0.869207 0.000001 0.855186 0.207436
$20@004halogun_02
  20 10.206921 -12.660159 -0.472370 0.213887 0.976858 -0.000002 0.336595 0.710372
  20 11.060956 -8.789706 -0.513788 0.213887 0.976858 -0.000002 0.508806 0.673190
  20 10.206151 -12.663384 -0.796853 0.213887 0.976858 -0.000002 0.340509 0.726027
$20@004halogun_02
  20 10.206151 -12.663384 -0.796853 0.213887 0.976858 -0.000002 0.340509 0.726027
  20 11.060956 -8.789706 -0.513788 0.213887 0.976858 -0.000002 0.508806 0.673190
  20 10.208083 -12.660809 -1.040347 0.213887 0.976858 -0.000002 0.342466 0.735812
$20@004halogun_02
  20 11.060956 -8.789706 -0.513788 0.213887 0.976858 -0.000002 0.508806 0.673190
  20 11.100643 -8.586443 -1.158155 0.213887 0.976858 -0.000002 0.524462 0.698630
  20 10.208083 -12.660809 -1.040347 0.213887 0.976858 -0.000002 0.342466 0.735812
$20@004halogun_02
  20 10.208083 -12.660809 -1.040347 0.213887 0.976858 -0.000002 0.342466 0.735812
  20 11.100643 -8.586443 -1.158155 0.213887 0.976858 -0.000002 0.524462 0.698630
  20 10.206943 -12.667132 -1.111472 0.213887 0.976858 -0.000002 0.342466 0.739726
$20@004halogun_02
  19 4.221209 -19.675413 -1.535708 -0.298715 0.953936 -0.027838 0.021526 0.679061
  19 4.220181 -19.699006 -1.273521 -0.298715 0.953936 -0.027838 0.025440 0.690802
  19 3.422759 -17.134707 -1.608464 -0.289809 0.956033 0.044843 0.123288 0.645793
$20@004halogun_02
  19 3.422759 -17.134707 -1.608464 -0.289809 0.956033 0.044843 0.123288 0.645793
  19 4.220181 -19.699006 -1.273521 -0.298715 0.953936 -0.027838 0.025440 0.690802
  19 3.405346 -16.970046 -0.923202 -0.289809 0.956033 0.044843 0.144814 0.667319
$20@004halogun_02
  19 4.220181 -19.699006 -1.273521 -0.298715 0.953936 -0.027838 0.025440 0.690802
  19 4.221219 -19.725217 -0.960452 -0.298715 0.953936 -0.027838 0.027397 0.704501
  19 3.405346 -16.970046 -0.923202 -0.289809 0.956033 0.044843 0.144814 0.667319
$20@004halogun_02
  19 3.472758 -8.585915 -1.157070 0.213886 -0.976859 -0.000002 0.524462 0.698630
  19 3.512446 -8.789177 -0.512703 0.213886 -0.976859 -0.000002 0.508806 0.673190
  19 4.365401 -12.670267 -1.039780 0.213886 -0.976859 -0.000002 0.342466 0.735812
$20@004halogun_02
  19 4.365401 -12.670267 -1.039780 0.213886 -0.976859 -0.000002 0.342466 0.735812
  19 3.512446 -8.789177 -0.512703 0.213886 -0.976859 -0.000002 0.508806 0.673190
  19 4.367252 -12.662855 -0.795768 0.213886 -0.976859 -0.000002 0.340509 0.726027
$20@004halogun_02
  19 3.512446 -8.789177 -0.512703 0.213886 -0.976859 -0.000002 0.508806 0.673190
  19 4.366564 -12.669617 -0.471802 0.213886 -0.976859 -0.000002 0.336595 0.710372
  19 4.367252 -12.662855 -0.795768 0.213886 -0.976859 -0.000002 0.340509 0.726027
$20@004halogun_02
  20 10.206151 -12.663384 -0.796853 -0.494448 0.869207 0.000001 0.336595 0.737769
  20 10.623318 -13.391860 -0.911718 -0.281499 0.959561 0.000001 0.303327 0.741683
  20 10.624088 -13.388635 -0.587236 -0.281499 0.959561 0.000001 0.303327 0.727984
$20@004halogun_02
  20 10.624088 -13.388635 -0.587236 -0.281499 0.959561 0.000001 0.303327 0.727984
  20 10.623318 -13.391860 -0.911718 -0.281499 0.959561 0.000001 0.303327 0.741683
  20 10.645702 -14.557555 -0.642545 -0.024661 0.999696 0.000001 0.254403 0.727984
$20@004halogun_02
  20 10.623318 -13.391860 -0.911718 -0.281499 0.959561 0.000001 0.303327 0.741683
  20 10.645013 -14.550793 -0.966511 -0.024661 0.999696 0.000001 0.254403 0.741683
  20 10.645702 -14.557555 -0.642545 -0.024661 0.999696 0.000001 0.254403 0.727984
$20@004halogun_02
  19 0.901561 -15.730346 -2.054928 -0.843314 0.501891 0.192163 0.180039 0.538160
  19 3.422759 -17.134707 -1.608464 -0.843314 0.501891 0.192163 0.123288 0.645793
  19 1.451312 -15.884724 -1.306903 -0.843314 0.501891 0.192163 0.191781 0.579256
$20@004halogun_02
  19 1.451312 -15.884724 -1.306903 -0.843314 0.501891 0.192163 0.191781 0.579256
  19 3.422759 -17.134707 -1.608464 -0.843314 0.501891 0.192163 0.123288 0.645793
  19 3.405346 -16.970046 -0.923202 -0.843314 0.501891 0.192163 0.144814 0.667319
$20@004halogun_02
  19 4.545158 -15.119399 -0.512674 0.739196 -0.673490 0.000000 0.225049 0.724070
  19 4.545927 -15.122624 -0.837157 0.739196 -0.673490 0.000000 0.221135 0.735812
  19 3.927702 -14.557027 -0.641460 0.739196 -0.673490 0.000000 0.254403 0.727984
$20@004halogun_02
  19 3.927702 -14.557027 -0.641460 0.739196 -0.673490 0.000000 0.254403 0.727984
  19 4.545927 -15.122624 -0.837157 0.739196 -0.673490 0.000000 0.221135 0.735812
  19 3.928472 -14.560251 -0.965943 0.739196 -0.673490 0.000000 0.254403 0.741683
$20@004halogun_02
  19 4.220181 -19.699006 -1.273521 -0.543184 -0.839197 -0.026458 0.025440 0.735812
  19 4.581708 -19.162886 -1.126981 -0.543184 -0.839197 -0.026458 0.052838 0.735812
  19 4.221219 -19.725217 -0.960452 -0.543184 -0.839197 -0.026458 0.025440 0.724070
$20@004halogun_02
  19 4.221219 -19.725217 -0.960452 -0.543184 -0.839197 -0.026458 0.025440 0.724070
  19 4.581708 -19.162886 -1.126981 -0.543184 -0.839197 -0.026458 0.052838 0.735812
  19 4.590815 -19.159662 -0.800934 -0.543184 -0.839197 -0.026458 0.050881 0.724070
$20@004halogun_02
  19 4.581708 -19.162886 -1.126981 -0.024661 -0.999696 0.000000 0.052838 0.735812
  19 4.545927 -15.122624 -0.837157 -0.024661 -0.999696 0.000000 0.221135 0.735812
  19 4.590815 -19.159662 -0.800934 -0.024661 -0.999696 0.000000 0.050881 0.724070
$20@004halogun_02
  19 4.590815 -19.159662 -0.800934 -0.024661 -0.999696 0.000000 0.050881 0.724070
  19 4.545927 -15.122624 -0.837157 -0.024661 -0.999696 0.000000 0.221135 0.735812
  19 4.545158 -15.119399 -0.512674 -0.024661 -0.999696 0.000000 0.225049 0.724070
$20@004halogun_02
  19 5.406894 -12.668612 -0.519886 0.999990 -0.003988 -0.002086 0.254403 0.326810
  19 5.416401 -12.665514 -0.771680 0.999990 -0.003988 -0.002086 0.260274 0.322896
  19 4.367252 -12.662855 -0.795768 0.999990 -0.003988 -0.002086 0.254403 0.299413
$20@004halogun_02
  19 4.367252 -12.662855 -0.795768 0.999990 -0.003988 -0.002086 0.254403 0.299413
  19 5.416401 -12.665514 -0.771680 0.999990 -0.003988 -0.002086 0.260274 0.322896
  19 4.365401 -12.670267 -1.039780 0.999990 -0.003988 -0.002086 0.258317 0.297456
$20@004halogun_02
  19 3.927598 -14.554013 -1.280046 0.743754 -0.636915 0.202902 0.790607 0.221135
  19 3.906785 -14.557677 -1.212566 0.743754 -0.636915 0.202902 0.790607 0.219178
  19 4.546615 -15.115863 -1.161123 0.743754 -0.636915 0.202902 0.771037 0.199609
$20@004halogun_02
  19 4.546615 -15.115863 -1.161123 0.743754 -0.636915 0.202902 0.771037 0.199609
  19 3.906785 -14.557677 -1.212566 0.743754 -0.636915 0.202902 0.790607 0.219178
  19 4.525885 -15.129512 -1.094161 0.743754 -0.636915 0.202902 0.772994 0.197652
$20@004halogun_02
  19 4.546615 -15.115863 -1.161123 -0.034620 -0.971241 0.235569 0.771037 0.199609
  19 4.525885 -15.129512 -1.094161 -0.034620 -0.971241 0.235569 0.771037 0.197652
  19 4.580834 -19.156648 -1.441084 -0.034620 -0.971241 0.235569 0.634051 0.199609
$20@004halogun_02
  19 4.580834 -19.156648 -1.441084 -0.034620 -0.971241 0.235569 0.634051 0.199609
  19 4.525885 -15.129512 -1.094161 -0.034620 -0.971241 0.235569 0.771037 0.197652
  19 4.569898 -19.160312 -1.372040 -0.034620 -0.971241 0.235569 0.632094 0.197652
$20@004halogun_02
  19 4.569898 -19.160312 -1.372040 -0.580278 -0.801047 0.146975 0.632094 0.195695
  19 4.221209 -19.675413 -1.535708 -0.543184 -0.839197 -0.026458 0.614481 0.209393
  19 4.580834 -19.156648 -1.441084 -0.580278 -0.801047 0.146975 0.634051 0.199609
$20@004halogun_02
  19 4.580834 -19.156648 -1.441084 -0.580278 -0.801047 0.146975 0.634051 0.199609
  19 4.221209 -19.675413 -1.535708 -0.543184 -0.839197 -0.026458 0.614481 0.209393
  19 4.220705 -19.672272 -1.596452 -0.562888 -0.824866 -0.052465 0.614481 0.211350
$20@004halogun_02
  19 4.996322 -20.341269 -1.123840 -0.778865 0.627016 -0.014833 0.074364 0.315068
  19 4.220181 -19.699006 -1.273521 -0.775181 0.628511 -0.063779 0.088063 0.295499
  19 5.001141 -20.339741 -1.346044 -0.778865 0.627016 -0.014833 0.070450 0.311155
$20@004halogun_02
  19 5.001141 -20.339741 -1.346044 -0.778865 0.627016 -0.014833 0.070450 0.311155
  19 4.220181 -19.699006 -1.273521 -0.775181 0.628511 -0.063779 0.088063 0.295499
  19 4.221209 -19.675413 -1.535708 -0.775181 0.628511 -0.063779 0.084149 0.291585
$20@004halogun_02
  19 0.901561 -15.730346 -2.054928 0.107141 0.792442 0.600464 0.199609 0.538160
  19 1.451312 -15.884724 -1.306903 0.107141 0.792442 0.600464 0.191781 0.579256
  19 2.355423 -8.683162 -1.389892 0.107141 0.792442 0.600464 0.514677 0.602740
$20@004halogun_02
  19 2.355423 -8.683162 -1.389892 0.107141 0.792442 0.600464 0.514677 0.602740
  19 1.451312 -15.884724 -1.306903 0.107141 0.792442 0.600464 0.191781 0.579256
  19 2.906737 -8.837016 -0.651730 0.107141 0.792442 0.600464 0.506849 0.643836
$20@004halogun_02
  19 3.512446 -8.789177 -0.512703 0.942545 0.147493 0.299759 0.005871 0.643836
  19 3.472758 -8.585915 -1.157070 0.942545 0.147493 0.299759 0.023483 0.569472
  19 2.906737 -8.837016 -0.651730 0.942545 0.147493 0.299759 0.076321 0.643836
$20@004halogun_02
  19 2.906737 -8.837016 -0.651730 0.942545 0.147493 0.299759 0.076321 0.643836
  19 3.472758 -8.585915 -1.157070 0.942545 0.147493 0.299759 0.023483 0.569472
  19 2.355423 -8.683162 -1.389892 0.942545 0.147493 0.299759 0.152642 0.569472
$20@004halogun_02
  20 11.169703 -16.961112 -0.913907 -0.843314 -0.501891 0.192162 0.144814 0.667319
  20 11.160522 -17.135235 -1.611114 -0.843314 -0.501891 0.192162 0.123288 0.645793
  20 13.122092 -15.885251 -1.307989 -0.843314 -0.501891 0.192162 0.191781 0.579256
$20@004halogun_02
  20 13.122092 -15.885251 -1.307989 -0.843314 -0.501891 0.192162 0.191781 0.579256
  20 11.160522 -17.135235 -1.611114 -0.843314 -0.501891 0.192162 0.123288 0.645793
  20 13.673405 -15.731397 -2.046150 -0.843314 -0.501891 0.192162 0.180039 0.538160
$20@004halogun_02
  20 10.645013 -14.550793 -0.966511 0.739196 0.673490 0.000000 0.254403 0.741683
  20 10.027476 -15.123152 -0.838242 0.739196 0.673490 0.000000 0.221135 0.735812
  20 10.645702 -14.557555 -0.642545 0.739196 0.673490 0.000000 0.254403 0.727984
$20@004halogun_02
  20 10.645702 -14.557555 -0.642545 0.739196 0.673490 0.000000 0.254403 0.727984
  20 10.027476 -15.123152 -0.838242 0.739196 0.673490 0.000000 0.221135 0.735812
  20 10.028246 -15.119927 -0.513759 0.739196 0.673490 0.000000 0.225049 0.724070
$20@004halogun_02
  20 9.992467 -19.160190 -0.803583 -0.543184 0.839197 -0.026458 0.050881 0.724070
  20 9.991697 -19.163415 -1.128066 -0.543184 0.839197 -0.026458 0.052838 0.735812
  20 10.352187 -19.725745 -0.961537 -0.543184 0.839197 -0.026458 0.025440 0.724070
$20@004halogun_02
  20 10.352187 -19.725745 -0.961537 -0.543184 0.839197 -0.026458 0.025440 0.724070
  20 9.991697 -19.163415 -1.128066 -0.543184 0.839197 -0.026458 0.052838 0.735812
  20 10.353225 -19.699535 -1.274605 -0.543184 0.839197 -0.026458 0.025440 0.735812
$20@004halogun_02
  20 10.028246 -15.119927 -0.513759 -0.024661 0.999696 0.000001 0.225049 0.724070
  20 10.027476 -15.123152 -0.838242 -0.024661 0.999696 0.000001 0.221135 0.735812
  20 9.992467 -19.160190 -0.803583 -0.024661 0.999696 0.000001 0.050881 0.724070
$20@004halogun_02
  20 9.992467 -19.160190 -0.803583 -0.024661 0.999696 0.000001 0.050881 0.724070
  20 10.027476 -15.123152 -0.838242 -0.024661 0.999696 0.000001 0.221135 0.735812
  20 9.991697 -19.163415 -1.128066 -0.024661 0.999696 0.000001 0.052838 0.735812
$20@004halogun_02
  20 10.208083 -12.660809 -1.040347 0.999990 0.003988 -0.002086 0.258317 0.297456
  20 9.166879 -12.666043 -0.774329 0.999990 0.003988 -0.002086 0.260274 0.322896
  20 10.206151 -12.663384 -0.796853 0.999990 0.003988 -0.002086 0.254403 0.299413
$20@004halogun_02
  20 10.206151 -12.663384 -0.796853 0.999990 0.003988 -0.002086 0.254403 0.299413
  20 9.166879 -12.666043 -0.774329 0.999990 0.003988 -0.002086 0.260274 0.322896
  20 9.166509 -12.669141 -0.520971 0.999990 0.003988 -0.002086 0.254403 0.326810
$20@004halogun_02
  20 10.049163 -15.120578 -1.084865 0.743754 0.636915 0.202902 0.772994 0.197652
  20 10.666618 -14.558205 -1.213651 0.743754 0.636915 0.202902 0.790607 0.219178
  20 10.028351 -15.116915 -1.152344 0.743754 0.636915 0.202902 0.771037 0.199609
$20@004halogun_02
  20 10.028351 -15.116915 -1.152344 0.743754 0.636915 0.202902 0.771037 0.199609
  20 10.666618 -14.558205 -1.213651 0.743754 0.636915 0.202902 0.790607 0.219178
  20 10.655683 -14.554541 -1.282695 0.743754 0.636915 0.202902 0.790607 0.221135
$20@004halogun_02
  20 10.003507 -19.160840 -1.373125 -0.034620 0.971241 0.235569 0.632094 0.197652
  20 10.049163 -15.120578 -1.084865 -0.034620 0.971241 0.235569 0.771037 0.197652
  20 9.992572 -19.157177 -1.442169 -0.034620 0.971241 0.235569 0.634051 0.199609
$20@004halogun_02
  20 9.992572 -19.157177 -1.442169 -0.034620 0.971241 0.235569 0.634051 0.199609
  20 10.049163 -15.120578 -1.084865 -0.034620 0.971241 0.235569 0.771037 0.197652
  20 10.028351 -15.116915 -1.152344 -0.034620 0.971241 0.235569 0.771037 0.199609
$20@004halogun_02
  20 10.362577 -19.672801 -1.599102 -0.562888 0.824867 -0.052465 0.614481 0.211350
  20 10.353759 -19.676464 -1.526929 -0.543184 0.839197 -0.026458 0.614481 0.209393
  20 9.992572 -19.157177 -1.442169 -0.580277 0.801047 0.146975 0.634051 0.199609
$20@004halogun_02
  20 9.992572 -19.157177 -1.442169 -0.580277 0.801047 0.146975 0.634051 0.199609
  20 10.353759 -19.676464 -1.526929 -0.543184 0.839197 -0.026458 0.614481 0.209393
  20 10.003507 -19.160840 -1.373125 -0.580277 0.801047 0.146975 0.632094 0.195695
$20@004halogun_02
  20 10.353759 -19.676464 -1.526929 -0.774361 -0.628616 -0.072157 0.084149 0.291585
  20 10.353225 -19.699535 -1.274605 -0.774361 -0.628616 -0.072157 0.088063 0.295499
  20 9.572265 -20.340270 -1.347128 -0.778865 -0.627017 -0.014834 0.070450 0.311155
$20@004halogun_02
  20 9.572265 -20.340270 -1.347128 -0.778865 -0.627017 -0.014834 0.070450 0.311155
  20 10.353225 -19.699535 -1.274605 -0.774361 -0.628616 -0.072157 0.088063 0.295499
  20 9.577084 -20.341798 -1.124925 -0.778865 -0.627017 -0.014834 0.074364 0.315068
$20@004halogun_02
  20 11.668227 -8.838067 -0.642952 0.107140 -0.792442 0.600464 0.506849 0.643836
  20 13.122092 -15.885251 -1.307989 0.107140 -0.792442 0.600464 0.191781 0.579256
  20 12.217978 -8.683689 -1.390977 0.107140 -0.792442 0.600464 0.514677 0.602740
$20@004halogun_02
  20 12.217978 -8.683689 -1.390977 0.107140 -0.792442 0.600464 0.514677 0.602740
  20 13.122092 -15.885251 -1.307989 0.107140 -0.792442 0.600464 0.191781 0.579256
  20 13.673405 -15.731397 -2.046150 0.107140 -0.792442 0.600464 0.199609 0.538160
$20@004halogun_02
  20 12.217978 -8.683689 -1.390977 0.942544 -0.147494 0.299759 0.152642 0.569472
  20 11.100643 -8.586443 -1.158155 0.942544 -0.147494 0.299759 0.023483 0.569472
  20 11.668227 -8.838067 -0.642952 0.942544 -0.147494 0.299759 0.076321 0.643836
$20@004halogun_02
  20 11.668227 -8.838067 -0.642952 0.942544 -0.147494 0.299759 0.076321 0.643836
  20 11.100643 -8.586443 -1.158155 0.942544 -0.147494 0.299759 0.023483 0.569472
  20 11.060956 -8.789706 -0.513788 0.942544 -0.147494 0.299759 0.005871 0.643836
$20@004halogun_02
  19 4.590815 -19.159662 -0.800934 -0.068230 0.232945 0.970093 0.050881 0.724070
  19 3.405346 -16.970046 -0.923202 -0.068230 0.232945 0.970093 0.144814 0.667319
  19 4.221219 -19.725217 -0.960452 -0.092003 0.267782 0.959077 0.027397 0.704501
$20@004halogun_02
  19 4.220705 -19.672272 -1.596452 -0.298715 0.953936 -0.027838 0.021526 0.677104
  19 4.221209 -19.675413 -1.535708 -0.298715 0.953936 -0.027838 0.021526 0.679061
  19 3.422759 -17.134707 -1.608464 -0.289809 0.956033 0.044843 0.123288 0.645793
$20@004halogun_02
  19 4.996322 -20.341269 -1.123840 -0.092003 0.267782 0.959077 0.074364 0.315068
  19 4.581708 -19.162886 -1.126981 -0.068230 0.232945 0.970093 0.101761 0.303327
  19 4.220181 -19.699006 -1.273521 -0.092003 0.267782 0.959077 0.088063 0.295499
$20@004halogun_02
  19 4.220705 -19.672272 -1.596452 0.082135 -0.282943 -0.955613 0.614481 0.211350
  19 3.422759 -17.134707 -1.608464 0.058464 -0.235201 -0.970187 0.702544 0.240705
  19 4.580834 -19.156648 -1.441084 0.082135 -0.282943 -0.955613 0.634051 0.199609
$20@004halogun_02
  19 4.366460 -12.666603 -1.110387 0.213886 -0.976859 -0.000002 0.342466 0.739726
  19 3.472758 -8.585915 -1.157070 0.213886 -0.976859 -0.000002 0.524462 0.698630
  19 4.365401 -12.670267 -1.039780 0.213886 -0.976859 -0.000002 0.342466 0.735812
$20@004halogun_02
  19 4.367252 -12.662855 -0.795768 -0.032471 0.244773 0.969037 0.254403 0.299413
  19 3.950085 -13.391331 -0.910634 -0.032471 0.244773 0.969037 0.236791 0.289628
  19 5.406894 -12.668612 -0.519886 -0.068230 0.232945 0.970093 0.254403 0.326810
$20@004halogun_02
  19 5.416401 -12.665514 -0.771680 0.036101 -0.207778 -0.977510 0.254403 0.326810
  19 3.938276 -13.388757 -1.155693 0.036101 -0.207778 -0.977510 0.236791 0.289628
  19 4.365401 -12.670267 -1.039780 0.019777 -0.245061 -0.969306 0.254403 0.299413
$20@004halogun_02
  20 11.169703 -16.961112 -0.913907 -0.068230 -0.232945 0.970093 0.144814 0.667319
  20 9.992467 -19.160190 -0.803583 -0.068230 -0.232945 0.970093 0.050881 0.724070
  20 10.352187 -19.725745 -0.961537 -0.092003 -0.267783 0.959077 0.027397 0.704501
$20@004halogun_02
  20 10.206151 -12.663384 -0.796853 -0.494448 0.869207 0.000001 0.336595 0.737769
  20 10.624088 -13.388635 -0.587236 -0.281499 0.959561 0.000001 0.303327 0.727984
  20 10.206921 -12.660159 -0.472370 -0.494448 0.869207 0.000001 0.338552 0.726027
$20@004halogun_02
  20 9.992572 -19.157177 -1.442169 0.082135 0.282943 -0.955613 0.634051 0.199609
  20 11.160522 -17.135235 -1.611114 0.058464 0.235201 -0.970187 0.702544 0.240705
  20 10.362577 -19.672801 -1.599102 0.082135 0.282943 -0.955613 0.614481 0.211350
$20@004halogun_02
  20 9.166509 -12.669141 -0.520971 -0.068230 -0.232945 0.970093 0.254403 0.326810
  20 10.623318 -13.391860 -0.911718 -0.032470 -0.244773 0.969037 0.236791 0.289628
  20 10.206151 -12.663384 -0.796853 -0.032470 -0.244773 0.969037 0.254403 0.299413
$20@004halogun_02
  20 9.572265 -20.340270 -1.347128 0.082135 0.282943 -0.955613 0.074364 0.315068
  20 10.003507 -19.160840 -1.373125 0.082135 0.282943 -0.955613 0.101761 0.303327
  20 10.353759 -19.676464 -1.526929 0.082135 0.282943 -0.955613 0.088063 0.295499
$20@004halogun_02
  20 10.208083 -12.660809 -1.040347 0.019778 0.245059 -0.969306 0.254403 0.299413
  20 10.635127 -13.389285 -1.156777 0.036101 0.207778 -0.977510 0.236791 0.289628
  20 9.166879 -12.666043 -0.774329 0.036101 0.207778 -0.977510 0.254403 0.326810
end
