// Created by Crowbar 0.68

$modelname "weapons/tfa_cso/w_lightzg.mdl"

$bodygroup "studio"
{
	studio "w_lightzg"
}

$collisionmodel "w_lightzg.smd"
{
	$mass 9
}

$CDMaterials "models\weapons\tfa_cso\lightzg\"

$attachment "0" "root" -0.05 -18.00 -0.30 rotate -0 -90 0

$sequence "idle" {
	"w_lightzg_anims\idle"
	fps 30
}
