version 1
nodes
  0 "root" -1
  1 "Bone01" 0
  2 "Bone_L_Upper" 1
  3 "Bone_Lefthand" 1
  4 "Bone13" 3
  5 "Bone14" 4
  6 "Bone15" 5
  7 "Bone17" 3
  8 "Bone18" 7
  9 "Bone19" 8
  10 "Bone21" 3
  11 "Bone22" 10
  12 "Bone23" 11
  13 "Bone09" 3
  14 "Bone10" 13
  15 "Bone11" 14
  16 "Bone05" 3
  17 "Bone06" 16
  18 "Bone07" 17
  19 "Bone_Se_Hand-L" 3
  20 "Bone04" 0
  21 "Bone_Righthand" 20
  22 "Bone39" 21
  23 "Bone40" 22
  24 "Bone41" 23
  25 "Bone35" 21
  26 "Bone36" 25
  27 "Bone37" 26
  28 "Bone31" 21
  29 "Bone32" 28
  30 "Bone33" 29
  31 "Bone43" 21
  32 "Bone44" 31
  33 "Bone45" 32
  34 "Bone27" 21
  35 "Bone28" 34
  36 "Bone29" 35
  37 "Bone_Se_Hand-R" 21
  38 "Bone_R_Upper" 20
  39 "root_swordbombard" -1
  40 "bombardfx" -1
  41 "bombardfx2" -1
  42 "bombardfx3" -1
  43 "bombardfx004" -1
end
skeleton
  time 0
    0 -0.002752 -0.001265 -3.839342 0.000000 0.000000 -0.000015
    1 11.587517 1.016985 -3.702220 5.614728 -2.996242 0.697248
    2 7.640187 3.367889 -0.329500 1.566125 -3.122748 0.497284
    3 -0.060202 -8.565145 -0.104134 0.522416 0.302352 0.156407
    4 -0.488518 -2.755602 -0.228260 -0.039094 0.050720 -0.189646
    5 0.039887 -1.487603 0.018135 -0.449978 -0.008030 0.006784
    6 0.028786 -1.075731 -0.030922 -0.056782 -0.001402 0.000719
    7 0.250027 -2.820665 -0.238396 0.131105 -0.004946 0.010109
    8 -0.049759 -1.653199 0.100479 -0.360829 0.006328 -0.009158
    9 -0.034142 -1.148312 0.084782 0.023106 -0.001342 0.001282
    10 0.957766 -2.746780 -0.090302 0.285517 -0.172380 0.203255
    11 -0.033420 -1.397129 -0.011257 -0.211943 0.005177 -0.010140
    12 -0.022360 -0.957436 0.018784 0.093935 -0.002625 0.003703
    13 -1.180681 -2.507217 -0.193859 -0.246765 0.089264 -0.264392
    14 -0.024967 -1.123934 0.017597 -0.243551 0.004650 -0.009155
    15 -0.020057 -0.894874 0.010090 -0.252883 0.004231 -0.007658
    16 0.587416 -1.197277 0.185379 0.271783 -0.662817 -0.585510
    17 1.528114 -0.126477 0.040166 0.007223 -0.133484 -0.434578
    18 1.089052 -0.085319 0.012759 0.001195 -0.104508 -0.431514
    19 0.120153 -0.050270 -0.054489 0.287569 3.110905 1.561085
    20 -7.169417 -4.758589 -3.778742 -0.518044 -3.811943 -0.475298
    21 -0.008528 -8.344947 -0.009365 -0.429444 -0.492170 0.588760
    22 0.447953 -2.798986 -0.200443 -1.437671 0.003027 0.293030
    23 -0.032909 -1.499736 0.036191 -1.663827 0.022675 -0.034202
    24 -0.027022 -1.115984 -0.028023 -0.955112 0.021596 -0.014909
    25 -0.249534 -2.846964 -0.174213 -1.315699 -0.011151 0.193389
    26 0.043235 -1.656596 0.060855 -1.633055 -0.023927 0.011278
    27 0.031729 -1.137392 0.051025 -1.379910 -0.015393 0.007797
    28 -0.963866 -2.785145 -0.085350 -1.215142 0.077078 0.073963
    29 0.028479 -1.410880 -0.024980 -1.261697 -0.038099 -0.038099
    30 0.021413 -0.938249 0.008327 -1.238153 -0.037128 -0.037344
    31 1.164475 -2.543940 -0.170330 -1.388423 -0.165474 0.386544
    32 0.024032 -1.156387 -0.009538 -1.546019 0.036217 0.068888
    33 0.014898 -0.899614 -0.015942 -0.835374 0.003775 0.042306
    34 -0.586770 -1.264477 0.200161 0.225602 -0.724749 -2.571001
    35 1.557992 0.035243 0.016848 -0.014158 -0.005588 0.721699
    36 1.110134 0.040611 -0.005766 -0.035526 -0.032389 1.254745
    37 -0.139399 -0.111698 0.014397 0.285382 -0.030687 1.580508
    38 -0.487192 8.940743 -0.215995 4.721367 -3.139335 1.463895
    39 -7.480697 -14.131529 -12.544129 1.280142 -0.243560 -1.400054
    40 0.000000 -1.287387 -234.001968 1.570797 -1.570796 -1.570796
    41 -0.207573 -3.659299 39.775547 1.570796 0.000000 0.000000
    42 7.338997 0.000000 -251.347931 -1.570796 0.000000 -1.570796
    43 -1.534737 -1.287387 -234.001968 1.570797 -1.570796 -1.570796
  time 1
    0 -0.002752 -0.001265 -3.839342 0.000000 0.000000 -0.000015
    1 11.302352 1.388090 -4.061606 5.523877 -3.008746 0.823312
    2 7.397992 3.989002 -0.317781 1.565646 -3.124378 0.579066
    3 -0.060202 -8.557332 -0.104134 0.481457 0.309721 0.149952
    4 -0.488518 -2.755602 -0.228260 -0.022979 0.051092 -0.189862
    5 0.039887 -1.487603 0.018135 -0.435260 -0.007778 0.006485
    6 0.028786 -1.075731 -0.030922 -0.056782 -0.001402 0.000719
    7 0.250027 -2.820665 -0.238396 0.147227 -0.005330 0.010396
    8 -0.049759 -1.653199 0.100479 -0.347097 0.006160 -0.008787
    9 -0.034142 -1.148312 0.084782 0.023106 -0.001342 0.001282
    10 0.957766 -2.746780 -0.090302 0.301539 -0.173003 0.203782
    11 -0.033420 -1.397129 -0.011257 -0.195959 0.004890 -0.009385
    12 -0.022360 -0.957436 0.018784 0.093935 -0.002625 0.003703
    13 -1.180681 -2.507217 -0.193859 -0.230579 0.089025 -0.263706
    14 -0.024967 -1.123934 0.017597 -0.227467 0.004386 -0.008460
    15 -0.020057 -0.894874 0.010090 -0.252883 0.004231 -0.007658
    16 0.587416 -1.197277 0.185379 0.271783 -0.662817 -0.585510
    17 1.528114 -0.126477 0.040166 0.007223 -0.133484 -0.434578
    18 1.089052 -0.085319 0.012759 0.001195 -0.104508 -0.431514
    19 0.120153 -0.050270 -0.054489 0.287569 3.110905 1.561085
    20 -7.169417 -4.758589 -3.778742 -0.518137 -3.811943 -0.475298
    21 -0.008528 -8.344947 -0.009365 -0.429444 -0.492205 0.588859
    22 0.447953 -2.798986 -0.200443 -1.437671 0.003027 0.293030
    23 -0.032909 -1.499736 0.036191 -1.663827 0.022675 -0.034202
    24 -0.027022 -1.115984 -0.028023 -0.955112 0.021596 -0.014909
    25 -0.249534 -2.846964 -0.174213 -1.315699 -0.011151 0.193389
    26 0.043235 -1.656596 0.060855 -1.633055 -0.023927 0.011278
    27 0.031729 -1.137392 0.051025 -1.379910 -0.015393 0.007797
    28 -0.963866 -2.785145 -0.085350 -1.215142 0.077078 0.073963
    29 0.028479 -1.410880 -0.024980 -1.261697 -0.038099 -0.038099
    30 0.021413 -0.938249 0.008327 -1.238153 -0.037128 -0.037344
    31 1.164475 -2.543940 -0.170330 -1.388378 -0.165474 0.386544
    32 0.024032 -1.156387 -0.009538 -1.546019 0.036217 0.068888
    33 0.014898 -0.899614 -0.015942 -0.835374 0.003775 0.042306
    34 -0.586770 -1.264477 0.200161 0.225602 -0.724749 -2.571001
    35 1.557992 0.035243 0.016848 -0.014158 -0.005588 0.721699
    36 1.110134 0.040611 -0.005766 -0.035526 -0.032389 1.254745
    37 -0.139399 -0.111698 0.014397 0.285382 -0.030687 1.580508
    38 -0.487192 8.940743 -0.215995 4.721367 -3.139335 1.463707
    39 -7.480697 -14.131529 -12.544129 1.280237 -0.243490 -1.400150
    40 0.000000 -1.287387 -234.001968 1.570797 -1.570796 -1.570796
    41 -0.207573 -3.659299 39.775547 1.570796 0.000000 0.000000
    42 7.338997 0.000000 -251.347931 -1.570796 0.000000 -1.570796
    43 -1.534737 -1.287387 -234.001968 1.570797 -1.570796 -1.570796
  time 2
    0 -0.002752 -0.001265 -3.839342 0.000000 0.000000 -0.000015
    1 10.946872 1.735757 -4.420992 5.423567 -3.030817 0.938902
    2 7.108921 4.586676 -0.306061 1.565263 -3.126103 0.660374
    3 -0.060202 -8.545613 -0.100228 0.416455 0.317700 0.137357
    4 -0.488518 -2.755602 -0.228260 -0.015203 0.051271 -0.189970
    5 0.039887 -1.487603 0.018135 -0.428116 -0.007658 0.006329
    6 0.028786 -1.075731 -0.030922 -0.056782 -0.001402 0.000719
    7 0.250027 -2.820665 -0.238396 0.155033 -0.005510 0.010528
    8 -0.049759 -1.653199 0.100479 -0.340483 0.006076 -0.008619
    9 -0.034142 -1.148312 0.084782 0.023106 -0.001342 0.001282
    10 0.957766 -2.746780 -0.090302 0.309286 -0.173315 0.204034
    11 -0.033420 -1.397129 -0.011257 -0.188181 0.004746 -0.009025
    12 -0.022360 -0.957436 0.018784 0.093935 -0.002625 0.003703
    13 -1.180681 -2.507217 -0.193859 -0.222772 0.088893 -0.263363
    14 -0.024967 -1.123934 0.017597 -0.219656 0.004255 -0.008137
    15 -0.020057 -0.894874 0.010090 -0.252883 0.004231 -0.007658
    16 0.587416 -1.197277 0.185379 0.271783 -0.662817 -0.585510
    17 1.528114 -0.126477 0.040166 0.007223 -0.133484 -0.434578
    18 1.089052 -0.085319 0.012759 0.001195 -0.104508 -0.431514
    19 0.120153 -0.050270 -0.054489 0.287569 3.110905 1.561085
    20 -7.169417 -4.758589 -3.778742 -0.518231 -3.811943 -0.475392
    21 -0.008528 -8.344947 -0.009365 -0.429491 -0.492240 0.588959
    22 0.447953 -2.798986 -0.200443 -1.437671 0.003027 0.293030
    23 -0.032909 -1.499736 0.036191 -1.663827 0.022675 -0.034202
    24 -0.027022 -1.115984 -0.028023 -0.955112 0.021596 -0.014909
    25 -0.249534 -2.846964 -0.174213 -1.315699 -0.011151 0.193389
    26 0.043235 -1.656596 0.060855 -1.633055 -0.023927 0.011278
    27 0.031729 -1.137392 0.051025 -1.379910 -0.015393 0.007797
    28 -0.963866 -2.785145 -0.085350 -1.215142 0.077078 0.073963
    29 0.028479 -1.410880 -0.024980 -1.261697 -0.038099 -0.038099
    30 0.021413 -0.938249 0.008327 -1.238153 -0.037128 -0.037344
    31 1.164475 -2.543940 -0.170330 -1.388423 -0.165474 0.386544
    32 0.024032 -1.156387 -0.009538 -1.546066 0.036217 0.068888
    33 0.014898 -0.899614 -0.015942 -0.835374 0.003775 0.042306
    34 -0.586770 -1.264477 0.200161 0.225602 -0.724749 -2.571001
    35 1.557992 0.035243 0.016848 -0.014158 -0.005588 0.721699
    36 1.110134 0.040611 -0.005766 -0.035526 -0.032389 1.254745
    37 -0.139399 -0.111698 0.014397 0.285382 -0.030687 1.580508
    38 -0.487192 8.940743 -0.215995 4.721367 -3.139335 1.463519
    39 -7.476791 -14.131529 -12.544129 1.280332 -0.243351 -1.400245
    40 0.000000 -1.287387 -234.001968 1.570797 -1.570796 -1.570796
    41 -0.207573 -3.659299 39.775547 1.570796 0.000000 0.000000
    42 7.338997 0.000000 -251.347931 -1.570796 0.000000 -1.570796
    43 -1.534737 -1.287387 -234.001968 1.570797 -1.570796 -1.570796
  time 3
    0 -0.002752 -0.001265 -3.839342 0.000000 0.000000 -0.000015
    1 10.540610 2.024828 -4.780378 5.320775 -3.058855 1.037602
    2 6.780786 5.141380 -0.290436 1.565071 -3.127829 0.739973
    3 -0.060202 -8.529987 -0.100228 0.333594 0.325538 0.119948
    4 -0.488518 -2.755602 -0.228260 -0.014166 0.051295 -0.189982
    5 0.039887 -1.487603 0.018135 -0.427187 -0.007646 0.006317
    6 0.028786 -1.075731 -0.030922 -0.056782 -0.001402 0.000719
    7 0.250027 -2.820665 -0.238396 0.156080 -0.005534 0.010540
    8 -0.049759 -1.653199 0.100479 -0.339601 0.006064 -0.008595
    9 -0.034142 -1.148312 0.084782 0.023106 -0.001342 0.001282
    10 0.957766 -2.746780 -0.090302 0.310309 -0.173351 0.204070
    11 -0.033420 -1.397129 -0.011257 -0.187162 0.004722 -0.008977
    12 -0.022360 -0.957436 0.018784 0.093935 -0.002625 0.003703
    13 -1.180681 -2.507217 -0.193859 -0.221724 0.088881 -0.263326
    14 -0.024967 -1.123934 0.017597 -0.218629 0.004231 -0.008089
    15 -0.020057 -0.894874 0.010090 -0.252883 0.004231 -0.007658
    16 0.587416 -1.197277 0.185379 0.271783 -0.662817 -0.585510
    17 1.528114 -0.126477 0.040166 0.007223 -0.133484 -0.434578
    18 1.089052 -0.085319 0.012759 0.001195 -0.104508 -0.431514
    19 0.120153 -0.050270 -0.054489 0.287569 3.110905 1.561085
    20 -7.169417 -4.758589 -3.778742 -0.518418 -3.811943 -0.475581
    21 -0.008528 -8.344947 -0.009365 -0.429491 -0.492310 0.589009
    22 0.447953 -2.798986 -0.200443 -1.437671 0.003027 0.293030
    23 -0.032909 -1.499736 0.036191 -1.663827 0.022675 -0.034202
    24 -0.027022 -1.115984 -0.028023 -0.955112 0.021596 -0.014909
    25 -0.249534 -2.846964 -0.174213 -1.315699 -0.011151 0.193389
    26 0.043235 -1.656596 0.060855 -1.633055 -0.023927 0.011278
    27 0.031729 -1.137392 0.051025 -1.379910 -0.015393 0.007797
    28 -0.963866 -2.785145 -0.085350 -1.215142 0.077078 0.073963
    29 0.028479 -1.410880 -0.024980 -1.261697 -0.038099 -0.038099
    30 0.021413 -0.938249 0.008327 -1.238153 -0.037128 -0.037344
    31 1.164475 -2.543940 -0.170330 -1.388423 -0.165474 0.386544
    32 0.024032 -1.156387 -0.009538 -1.546019 0.036217 0.068888
    33 0.014898 -0.899614 -0.015942 -0.835374 0.003775 0.042306
    34 -0.586770 -1.264477 0.200161 0.225602 -0.724749 -2.571001
    35 1.557992 0.035243 0.016848 -0.014158 -0.005588 0.721699
    36 1.110134 0.040611 -0.005766 -0.035526 -0.032389 1.254745
    37 -0.139399 -0.111698 0.014397 0.285382 -0.030687 1.580508
    38 -0.487192 8.940743 -0.215995 4.721367 -3.139335 1.463519
    39 -7.476791 -14.131529 -12.548036 1.280426 -0.243211 -1.400341
    40 0.000000 -1.287387 -234.001968 1.570797 -1.570796 -1.570796
    41 -0.207573 -3.659299 39.775547 1.570796 0.000000 0.000000
    42 7.338997 0.000000 -251.347931 -1.570796 0.000000 -1.570796
    43 -1.534737 -1.287387 -234.001968 1.570797 -1.570796 -1.570796
  time 4
    0 -0.002752 -0.001265 -3.839342 0.000000 0.000000 -0.000015
    1 10.103096 2.227960 -5.128044 5.221516 -3.086135 1.115071
    2 6.421400 5.653115 -0.278717 1.565071 -3.129459 0.816442
    3 -0.060202 -8.514362 -0.100228 0.239142 0.332508 0.099154
    4 -0.488518 -2.755602 -0.228260 -0.018313 0.051199 -0.189934
    5 0.039887 -1.487603 0.018135 -0.430974 -0.007706 0.006389
    6 0.028786 -1.075731 -0.030922 -0.056782 -0.001402 0.000719
    7 0.250027 -2.820665 -0.238396 0.151922 -0.005438 0.010468
    8 -0.049759 -1.653199 0.100479 -0.343129 0.006112 -0.008691
    9 -0.034142 -1.148312 0.084782 0.023106 -0.001342 0.001282
    10 0.957766 -2.746780 -0.090302 0.306187 -0.173195 0.203926
    11 -0.033420 -1.397129 -0.011257 -0.191292 0.004806 -0.009169
    12 -0.022360 -0.957436 0.018784 0.093935 -0.002625 0.003703
    13 -1.180681 -2.507217 -0.193859 -0.225913 0.088941 -0.263498
    14 -0.024967 -1.123934 0.017597 -0.222791 0.004302 -0.008268
    15 -0.020057 -0.894874 0.010090 -0.252883 0.004231 -0.007658
    16 0.587416 -1.197277 0.185379 0.271783 -0.662817 -0.585510
    17 1.528114 -0.126477 0.040166 0.007223 -0.133484 -0.434578
    18 1.089052 -0.085319 0.012759 0.001195 -0.104508 -0.431514
    19 0.120153 -0.050270 -0.054489 0.287569 3.110905 1.561085
    20 -7.169417 -4.754683 -3.778742 -0.518699 -3.811850 -0.475675
    21 -0.008528 -8.344947 -0.009365 -0.429538 -0.492345 0.589009
    22 0.447953 -2.798986 -0.200443 -1.437671 0.003027 0.293030
    23 -0.032909 -1.499736 0.036191 -1.663827 0.022675 -0.034202
    24 -0.027022 -1.115984 -0.028023 -0.955112 0.021596 -0.014909
    25 -0.249534 -2.846964 -0.174213 -1.315699 -0.011151 0.193389
    26 0.043235 -1.656596 0.060855 -1.633055 -0.023927 0.011278
    27 0.031729 -1.137392 0.051025 -1.379910 -0.015393 0.007797
    28 -0.963866 -2.785145 -0.085350 -1.215142 0.077078 0.073963
    29 0.028479 -1.410880 -0.024980 -1.261697 -0.038099 -0.038099
    30 0.021413 -0.938249 0.008327 -1.238153 -0.037128 -0.037344
    31 1.164475 -2.543940 -0.170330 -1.388423 -0.165474 0.386544
    32 0.024032 -1.156387 -0.009538 -1.546019 0.036217 0.068888
    33 0.014898 -0.899614 -0.015942 -0.835374 0.003775 0.042306
    34 -0.586770 -1.264477 0.200161 0.225602 -0.724749 -2.571001
    35 1.557992 0.035243 0.016848 -0.014158 -0.005588 0.721699
    36 1.110134 0.040611 -0.005766 -0.035526 -0.032389 1.254745
    37 -0.139399 -0.111698 0.014397 0.285382 -0.030687 1.580508
    38 -0.487192 8.940743 -0.215995 4.721367 -3.139335 1.463519
    39 -7.480697 -14.131529 -12.551942 1.280521 -0.243072 -1.400437
    40 0.000000 -1.287387 -234.001968 1.570797 -1.570796 -1.570796
    41 -0.207573 -3.659299 39.775547 1.570796 0.000000 0.000000
    42 7.338997 0.000000 -251.347931 -1.570796 0.000000 -1.570796
    43 -1.534737 -1.287387 -234.001968 1.570797 -1.570796 -1.570796
  time 5
    0 -0.002752 -0.001265 -3.839342 0.000000 0.000000 -0.000015
    1 9.673396 2.309993 -5.483524 5.130665 -3.104133 1.169705
    2 6.050295 6.106254 -0.266998 1.565071 -3.130993 0.888547
    3 -0.064108 -8.498736 -0.100228 0.139365 0.338351 0.076512
    4 -0.488518 -2.755602 -0.228260 -0.026090 0.051020 -0.189826
    5 0.039887 -1.487603 0.018135 -0.438118 -0.007826 0.006533
    6 0.028786 -1.075731 -0.030922 -0.056782 -0.001402 0.000719
    7 0.250027 -2.820665 -0.238396 0.144116 -0.005246 0.010337
    8 -0.049759 -1.653199 0.100479 -0.349743 0.006196 -0.008859
    9 -0.034142 -1.148312 0.084782 0.023106 -0.001342 0.001282
    10 0.957766 -2.746780 -0.090302 0.298440 -0.172883 0.203674
    11 -0.033420 -1.397129 -0.011257 -0.199070 0.004950 -0.009529
    12 -0.022360 -0.957436 0.018784 0.093935 -0.002625 0.003703
    13 -1.180681 -2.507217 -0.193859 -0.233721 0.089073 -0.263841
    14 -0.024967 -1.123934 0.017597 -0.230550 0.004434 -0.008592
    15 -0.020057 -0.894874 0.010090 -0.252883 0.004231 -0.007658
    16 0.587416 -1.197277 0.185379 0.271783 -0.662817 -0.585510
    17 1.528114 -0.126477 0.040166 0.007223 -0.133484 -0.434578
    18 1.089052 -0.085319 0.012759 0.001195 -0.104508 -0.431514
    19 0.120153 -0.050270 -0.054489 0.287569 3.110905 1.561085
    20 -7.169417 -4.754683 -3.778742 -0.518792 -3.811850 -0.475864
    21 -0.008528 -8.344947 -0.009365 -0.429538 -0.492345 0.588959
    22 0.447953 -2.798986 -0.200443 -1.437671 0.003027 0.293030
    23 -0.032909 -1.499736 0.036191 -1.663827 0.022675 -0.034202
    24 -0.027022 -1.115984 -0.028023 -0.955112 0.021596 -0.014909
    25 -0.249534 -2.846964 -0.174213 -1.315699 -0.011151 0.193389
    26 0.043235 -1.656596 0.060855 -1.633055 -0.023927 0.011278
    27 0.031729 -1.137392 0.051025 -1.379910 -0.015393 0.007797
    28 -0.963866 -2.785145 -0.085350 -1.215142 0.077078 0.073963
    29 0.028479 -1.410880 -0.024980 -1.261697 -0.038099 -0.038099
    30 0.021413 -0.938249 0.008327 -1.238153 -0.037128 -0.037344
    31 1.164475 -2.543940 -0.170330 -1.388378 -0.165474 0.386544
    32 0.024032 -1.156387 -0.009538 -1.546019 0.036217 0.068888
    33 0.014898 -0.899614 -0.015942 -0.835374 0.003775 0.042306
    34 -0.586770 -1.264477 0.200161 0.225602 -0.724749 -2.571001
    35 1.557992 0.035243 0.016848 -0.014158 -0.005588 0.721699
    36 1.110134 0.040611 -0.005766 -0.035526 -0.032389 1.254745
    37 -0.139399 -0.111698 0.014397 0.285382 -0.030687 1.580508
    38 -0.487192 8.940743 -0.215995 4.721367 -3.139335 1.463519
    39 -7.480697 -14.127623 -12.551942 1.280616 -0.243002 -1.400532
    40 0.000000 -1.287387 -234.001968 1.570797 -1.570796 -1.570796
    41 -0.207573 -3.659299 39.775547 1.570796 0.000000 0.000000
    42 7.338997 0.000000 -251.347931 -1.570796 0.000000 -1.570796
    43 -1.534737 -1.287387 -234.001968 1.570797 -1.570796 -1.570796
  time 6
    0 -0.002752 -0.001265 -3.839342 0.000000 0.000000 -0.000015
    1 9.271040 2.239679 -5.858535 5.052806 -3.103470 1.202448
    2 5.679190 6.500797 -0.255279 1.565263 -3.132431 0.954959
    3 -0.064108 -8.479205 -0.100228 0.040735 0.343303 0.053799
    4 -0.488518 -2.755602 -0.228260 -0.035983 0.050792 -0.189682
    5 0.039887 -1.487603 0.018135 -0.447120 -0.007982 0.006724
    6 0.028786 -1.075731 -0.030922 -0.056782 -0.001402 0.000719
    7 0.250027 -2.820665 -0.238396 0.134216 -0.005018 0.010169
    8 -0.049759 -1.653199 0.100479 -0.358184 0.006292 -0.009086
    9 -0.034142 -1.148312 0.084782 0.023106 -0.001342 0.001282
    10 0.957766 -2.746780 -0.090302 0.288616 -0.172500 0.203351
    11 -0.033420 -1.397129 -0.011257 -0.208832 0.005117 -0.009996
    12 -0.022360 -0.957436 0.018784 0.093935 -0.002625 0.003703
    13 -1.180681 -2.507217 -0.193859 -0.243623 0.089216 -0.264257
    14 -0.024967 -1.123934 0.017597 -0.240468 0.004602 -0.009023
    15 -0.020057 -0.894874 0.010090 -0.252883 0.004231 -0.007658
    16 0.587416 -1.197277 0.185379 0.271783 -0.662817 -0.585510
    17 1.528114 -0.126477 0.040166 0.007223 -0.133484 -0.434578
    18 1.089052 -0.085319 0.012759 0.001195 -0.104508 -0.431514
    19 0.120153 -0.050270 -0.054489 0.287569 3.110905 1.561085
    20 -7.169417 -4.754683 -3.782649 -0.518886 -3.811756 -0.475958
    21 -0.008528 -8.344947 -0.009365 -0.429538 -0.492345 0.588909
    22 0.447953 -2.798986 -0.200443 -1.437671 0.003027 0.293030
    23 -0.032909 -1.499736 0.036191 -1.663827 0.022675 -0.034202
    24 -0.027022 -1.115984 -0.028023 -0.955112 0.021596 -0.014909
    25 -0.249534 -2.846964 -0.174213 -1.315699 -0.011151 0.193389
    26 0.043235 -1.656596 0.060855 -1.633055 -0.023927 0.011278
    27 0.031729 -1.137392 0.051025 -1.379910 -0.015393 0.007797
    28 -0.963866 -2.785145 -0.085350 -1.215142 0.077078 0.073963
    29 0.028479 -1.410880 -0.024980 -1.261697 -0.038099 -0.038099
    30 0.021413 -0.938249 0.008327 -1.238153 -0.037128 -0.037344
    31 1.164475 -2.543940 -0.170330 -1.388378 -0.165474 0.386544
    32 0.024032 -1.156387 -0.009538 -1.546019 0.036217 0.068888
    33 0.014898 -0.899614 -0.015942 -0.835374 0.003775 0.042306
    34 -0.586770 -1.264477 0.200161 0.225602 -0.724749 -2.571001
    35 1.557992 0.035243 0.016848 -0.014158 -0.005588 0.721699
    36 1.110134 0.040611 -0.005766 -0.035526 -0.032389 1.254745
    37 -0.139399 -0.111698 0.014397 0.285382 -0.030687 1.580508
    38 -0.487192 8.940743 -0.215995 4.721367 -3.139335 1.463613
    39 -7.480697 -14.127623 -12.555848 1.280616 -0.243002 -1.400532
    40 0.000000 -1.287387 -234.001968 1.570797 -1.570796 -1.570796
    41 -0.207573 -3.659299 39.775547 1.570796 0.000000 0.000000
    42 7.338997 0.000000 -251.347931 -1.570796 0.000000 -1.570796
    43 -1.534737 -1.287387 -234.001968 1.570797 -1.570796 -1.570796
  time 7
    0 -0.002752 -0.001265 -3.839342 0.000000 0.000000 -0.000015
    1 8.915560 1.977952 -6.253079 4.993385 -3.075810 1.215564
    2 5.327617 6.832838 -0.243559 1.565454 -3.133677 1.014351
    3 -0.064108 -8.463579 -0.104134 -0.050400 0.348160 0.032621
    4 -0.488518 -2.755602 -0.228260 -0.046395 0.050552 -0.189538
    5 0.039887 -1.487603 0.018135 -0.456622 -0.008138 0.006928
    6 0.028786 -1.075731 -0.030922 -0.056782 -0.001402 0.000719
    7 0.250027 -2.820665 -0.238396 0.123808 -0.004767 0.009977
    8 -0.049759 -1.653199 0.100479 -0.367065 0.006400 -0.009326
    9 -0.034142 -1.148312 0.084782 0.023106 -0.001342 0.001282
    10 0.957766 -2.746780 -0.090302 0.278267 -0.172104 0.203015
    11 -0.033420 -1.397129 -0.015163 -0.219185 0.005309 -0.010476
    12 -0.022360 -0.957436 0.018784 0.093935 -0.002625 0.003703
    13 -1.180681 -2.507217 -0.193859 -0.254096 0.089372 -0.264710
    14 -0.024967 -1.123934 0.017597 -0.250848 0.004758 -0.009467
    15 -0.020057 -0.894874 0.010090 -0.252883 0.004231 -0.007658
    16 0.587416 -1.197277 0.185379 0.271783 -0.662817 -0.585510
    17 1.528114 -0.126477 0.040166 0.007223 -0.133484 -0.434578
    18 1.089052 -0.085319 0.012759 0.001195 -0.104508 -0.431514
    19 0.120153 -0.050270 -0.054489 0.287569 3.110905 1.561085
    20 -7.169417 -4.754683 -3.782649 -0.518886 -3.811756 -0.475958
    21 -0.008528 -8.344947 -0.009365 -0.429538 -0.492310 0.588809
    22 0.447953 -2.798986 -0.200443 -1.437671 0.003027 0.293030
    23 -0.032909 -1.499736 0.036191 -1.663827 0.022675 -0.034202
    24 -0.027022 -1.115984 -0.028023 -0.955112 0.021596 -0.014909
    25 -0.249534 -2.846964 -0.174213 -1.315699 -0.011151 0.193389
    26 0.043235 -1.656596 0.060855 -1.633055 -0.023927 0.011278
    27 0.031729 -1.137392 0.051025 -1.379910 -0.015393 0.007797
    28 -0.963866 -2.785145 -0.085350 -1.215142 0.077078 0.073963
    29 0.028479 -1.410880 -0.024980 -1.261697 -0.038099 -0.038099
    30 0.021413 -0.938249 0.008327 -1.238153 -0.037128 -0.037344
    31 1.164475 -2.543940 -0.170330 -1.388423 -0.165474 0.386544
    32 0.024032 -1.156387 -0.009538 -1.546019 0.036217 0.068888
    33 0.014898 -0.899614 -0.015942 -0.835374 0.003775 0.042306
    34 -0.586770 -1.264477 0.200161 0.225602 -0.724749 -2.571001
    35 1.557992 0.035243 0.016848 -0.014158 -0.005588 0.721699
    36 1.110134 0.040611 -0.005766 -0.035526 -0.032389 1.254745
    37 -0.139399 -0.111698 0.014397 0.285382 -0.030687 1.580508
    38 -0.487192 8.940743 -0.215995 4.721367 -3.139335 1.463801
    39 -7.480697 -14.127623 -12.555848 1.280616 -0.243072 -1.400437
    40 0.000000 -1.287387 -234.001968 1.570797 -1.570796 -1.570796
    41 -0.207573 -3.659299 39.775547 1.570796 0.000000 0.000000
    42 7.338997 0.000000 -251.347931 -1.570796 0.000000 -1.570796
    43 -1.534737 -1.287387 -234.001968 1.570797 -1.570796 -1.570796
  time 8
    0 -0.002752 -0.001265 -3.839342 0.000000 0.000000 -0.000015
    1 8.626489 1.485749 -6.659341 4.958802 -3.014050 1.210940
    2 5.007294 7.098471 -0.235747 1.565742 -3.134732 1.065393
    3 -0.064108 -8.451860 -0.104134 -0.127813 0.354144 0.014549
    4 -0.488518 -2.755602 -0.228260 -0.055726 0.050337 -0.189407
    5 0.039887 -1.491509 0.018135 -0.465195 -0.008281 0.007108
    6 0.028786 -1.075731 -0.030922 -0.056782 -0.001402 0.000719
    7 0.250027 -2.820665 -0.238396 0.114446 -0.004551 0.009809
    8 -0.049759 -1.653199 0.100479 -0.375002 0.006484 -0.009542
    9 -0.034142 -1.148312 0.084782 0.023106 -0.001342 0.001282
    10 0.957766 -2.746780 -0.090302 0.268970 -0.171745 0.202704
    11 -0.033420 -1.397129 -0.015163 -0.228464 0.005465 -0.010919
    12 -0.022360 -0.957436 0.018784 0.093935 -0.002625 0.003703
    13 -1.180681 -2.507217 -0.193859 -0.263474 0.089516 -0.265115
    14 -0.024967 -1.123934 0.017597 -0.260201 0.004902 -0.009862
    15 -0.020057 -0.894874 0.010090 -0.252883 0.004231 -0.007658
    16 0.587416 -1.197277 0.185379 0.271783 -0.662817 -0.585510
    17 1.528114 -0.126477 0.040166 0.007223 -0.133484 -0.434578
    18 1.089052 -0.085319 0.012759 0.001195 -0.104508 -0.431514
    19 0.120153 -0.050270 -0.054489 0.287569 3.110905 1.561085
    20 -7.169417 -4.754683 -3.782649 -0.518605 -3.811756 -0.475864
    21 -0.008528 -8.344947 -0.009365 -0.429491 -0.492240 0.588710
    22 0.447953 -2.798986 -0.200443 -1.437671 0.003027 0.293030
    23 -0.032909 -1.499736 0.036191 -1.663827 0.022675 -0.034202
    24 -0.027022 -1.115984 -0.028023 -0.955112 0.021596 -0.014909
    25 -0.249534 -2.846964 -0.174213 -1.315699 -0.011151 0.193389
    26 0.043235 -1.656596 0.060855 -1.633055 -0.023927 0.011278
    27 0.031729 -1.137392 0.051025 -1.379910 -0.015393 0.007797
    28 -0.963866 -2.785145 -0.085350 -1.215142 0.077078 0.073963
    29 0.028479 -1.410880 -0.024980 -1.261697 -0.038099 -0.038099
    30 0.021413 -0.938249 0.008327 -1.238153 -0.037128 -0.037344
    31 1.164475 -2.543940 -0.170330 -1.388423 -0.165474 0.386544
    32 0.024032 -1.156387 -0.009538 -1.546019 0.036217 0.068888
    33 0.014898 -0.899614 -0.015942 -0.835374 0.003775 0.042306
    34 -0.586770 -1.264477 0.200161 0.225602 -0.724749 -2.571001
    35 1.557992 0.035243 0.016848 -0.014158 -0.005588 0.721699
    36 1.110134 0.040611 -0.005766 -0.035526 -0.032389 1.254745
    37 -0.139399 -0.111698 0.014397 0.285382 -0.030687 1.580508
    38 -0.491099 8.940743 -0.215995 4.721367 -3.139335 1.463989
    39 -7.484603 -14.127623 -12.551942 1.280426 -0.243281 -1.400341
    40 0.000000 -1.287387 -234.001968 1.570797 -1.570796 -1.570796
    41 -0.207573 -3.659299 39.775547 1.570796 0.000000 0.000000
    42 7.338997 0.000000 -251.347931 -1.570796 0.000000 -1.570796
    43 -1.534737 -1.287387 -234.001968 1.570797 -1.570796 -1.570796
  time 9
    0 -0.002752 -0.001265 -3.839342 0.000000 0.000000 -0.000015
    1 11.587517 1.016985 -3.702220 5.614728 -2.996242 0.697248
    2 7.640187 3.367889 -0.329500 1.566125 -3.122748 0.497284
    3 -0.060202 -8.565145 -0.104134 0.522416 0.302352 0.156407
    4 -0.488518 -2.755602 -0.228260 -0.039094 0.050720 -0.189646
    5 0.039887 -1.487603 0.018135 -0.449978 -0.008030 0.006784
    6 0.028786 -1.075731 -0.030922 -0.056782 -0.001402 0.000719
    7 0.250027 -2.820665 -0.238396 0.131105 -0.004946 0.010109
    8 -0.049759 -1.653199 0.100479 -0.360829 0.006328 -0.009158
    9 -0.034142 -1.148312 0.084782 0.023106 -0.001342 0.001282
    10 0.957766 -2.746780 -0.090302 0.285517 -0.172380 0.203255
    11 -0.033420 -1.397129 -0.011257 -0.211943 0.005177 -0.010140
    12 -0.022360 -0.957436 0.018784 0.093935 -0.002625 0.003703
    13 -1.180681 -2.507217 -0.193859 -0.246765 0.089264 -0.264392
    14 -0.024967 -1.123934 0.017597 -0.243551 0.004650 -0.009155
    15 -0.020057 -0.894874 0.010090 -0.252883 0.004231 -0.007658
    16 0.587416 -1.197277 0.185379 0.271783 -0.662817 -0.585510
    17 1.528114 -0.126477 0.040166 0.007223 -0.133484 -0.434578
    18 1.089052 -0.085319 0.012759 0.001195 -0.104508 -0.431514
    19 0.120153 -0.050270 -0.054489 0.287569 3.110905 1.561085
    20 -7.169417 -4.758589 -3.778742 -0.518044 -3.811943 -0.475298
    21 -0.008528 -8.344947 -0.009365 -0.429444 -0.492170 0.588760
    22 0.447953 -2.798986 -0.200443 -1.437671 0.003027 0.293030
    23 -0.032909 -1.499736 0.036191 -1.663827 0.022675 -0.034202
    24 -0.027022 -1.115984 -0.028023 -0.955112 0.021596 -0.014909
    25 -0.249534 -2.846964 -0.174213 -1.315699 -0.011151 0.193389
    26 0.043235 -1.656596 0.060855 -1.633055 -0.023927 0.011278
    27 0.031729 -1.137392 0.051025 -1.379910 -0.015393 0.007797
    28 -0.963866 -2.785145 -0.085350 -1.215142 0.077078 0.073963
    29 0.028479 -1.410880 -0.024980 -1.261697 -0.038099 -0.038099
    30 0.021413 -0.938249 0.008327 -1.238153 -0.037128 -0.037344
    31 1.164475 -2.543940 -0.170330 -1.388423 -0.165474 0.386544
    32 0.024032 -1.156387 -0.009538 -1.546019 0.036217 0.068888
    33 0.014898 -0.899614 -0.015942 -0.835374 0.003775 0.042306
    34 -0.586770 -1.264477 0.200161 0.225602 -0.724749 -2.571001
    35 1.557992 0.035243 0.016848 -0.014158 -0.005588 0.721699
    36 1.110134 0.040611 -0.005766 -0.035526 -0.032389 1.254745
    37 -0.139399 -0.111698 0.014397 0.285382 -0.030687 1.580508
    38 -0.487192 8.940743 -0.215995 4.721367 -3.139335 1.463895
    39 -7.480697 -14.131529 -12.544129 1.280142 -0.243560 -1.400054
    40 0.000000 -1.287387 -234.001968 1.570797 -1.570796 -1.570796
    41 -0.207573 -3.659299 39.775547 1.570796 0.000000 0.000000
    42 7.338997 0.000000 -251.347931 -1.570796 0.000000 -1.570796
    43 -1.534737 -1.287387 -234.001968 1.570797 -1.570796 -1.570796
end
