version 1
nodes
  0 "root" -1
  1 "Bone01" 0
  2 "Bone_L_Upper" 1
  3 "Bone_Lefthand" 1
  4 "Bone13" 3
  5 "Bone14" 4
  6 "Bone15" 5
  7 "Bone17" 3
  8 "Bone18" 7
  9 "Bone19" 8
  10 "Bone21" 3
  11 "Bone22" 10
  12 "Bone23" 11
  13 "Bone09" 3
  14 "Bone10" 13
  15 "Bone11" 14
  16 "Bone05" 3
  17 "Bone06" 16
  18 "Bone07" 17
  19 "Bone_Se_Hand-L" 3
  20 "Bone04" 0
  21 "Bone_Righthand" 20
  22 "Bone39" 21
  23 "Bone40" 22
  24 "Bone41" 23
  25 "Bone35" 21
  26 "Bone36" 25
  27 "Bone37" 26
  28 "Bone31" 21
  29 "Bone32" 28
  30 "Bone33" 29
  31 "Bone43" 21
  32 "Bone44" 31
  33 "Bone45" 32
  34 "Bone27" 21
  35 "Bone28" 34
  36 "Bone29" 35
  37 "Bone_Se_Hand-R" 21
  38 "Bone_R_Upper" 20
  39 "root_swordbombard" -1
  40 "bombardfx" -1
  41 "bombardfx2" -1
  42 "bombardfx3" -1
  43 "bombardfx004" -1
end
skeleton
  time 0
    0 -0.002752 -0.001265 -3.839342 0.000000 0.000000 -0.000015
    1 7.149881 -4.830850 -5.964007 5.501713 -2.678160 -0.684737
    2 6.534685 5.500766 -0.282623 1.565071 -3.128979 0.793103
    3 -0.071921 -8.498736 -0.104134 0.156691 0.281208 0.066045
    4 -0.488518 -2.755602 -0.228260 0.106454 0.010332 -0.264490
    5 0.039887 -1.479790 0.029854 -0.055395 0.000000 0.000001
    6 0.028786 -1.075731 -0.023109 0.002099 0.000000 0.000000
    7 0.250027 -2.820665 -0.238396 0.041826 -0.002921 0.008443
    8 -0.049759 -1.680544 0.100479 0.019826 0.000000 -0.000002
    9 -0.034142 -1.148312 0.084782 -0.040115 0.000000 0.000000
    10 0.957766 -2.746780 -0.090302 -0.017221 -0.162277 0.191558
    11 -0.033420 -1.397129 -0.011257 0.013931 0.000000 -0.000001
    12 -0.022360 -0.957436 0.018784 0.003845 0.000000 0.000000
    13 -1.180681 -2.507217 -0.193859 0.082999 0.013294 -0.477915
    14 -0.024967 -1.123934 0.017597 -0.018065 0.000000 0.000001
    15 -0.020057 -0.890968 0.010090 -0.060797 0.000000 0.000000
    16 0.583510 -1.197277 0.185379 0.158049 -0.404973 -0.364290
    17 1.535927 0.010246 0.005009 -0.002964 -0.012979 0.000887
    18 1.100771 0.004527 -0.010679 -0.002796 0.015973 0.003458
    19 0.120153 -0.050270 -0.054489 0.287569 3.110905 1.561085
    20 -7.567867 -1.813187 -6.263193 -0.826808 -4.294961 -0.943212
    21 0.030536 -8.458231 0.033605 -0.212448 -0.765827 -0.371690
    22 0.447953 -2.798986 -0.200443 -1.437671 0.003027 0.293030
    23 -0.032909 -1.499736 0.036191 -1.663827 0.022675 -0.034202
    24 -0.027022 -1.115984 -0.028023 -0.955112 0.021596 -0.014909
    25 -0.249534 -2.846964 -0.174213 -1.315699 -0.011151 0.193389
    26 0.043235 -1.656596 0.060855 -1.633055 -0.023927 0.011278
    27 0.031729 -1.137392 0.051025 -1.379910 -0.015393 0.007797
    28 -0.963866 -2.785145 -0.085350 -1.215142 0.077078 0.073963
    29 0.028479 -1.410880 -0.024980 -1.261697 -0.038099 -0.038099
    30 0.021413 -0.938249 0.008327 -1.238153 -0.037128 -0.037344
    31 1.164475 -2.543940 -0.170330 -1.388378 -0.165474 0.386544
    32 0.024032 -1.156387 -0.009538 -1.546019 0.036217 0.068888
    33 0.014898 -0.899614 -0.015942 -0.835374 0.003775 0.042306
    34 -0.586770 -1.264477 0.200161 0.225602 -0.724749 -2.571001
    35 1.557992 0.035243 0.016848 -0.014158 -0.005588 0.721699
    36 1.110134 0.040611 -0.005766 -0.035526 -0.032389 1.254745
    37 -0.139399 -0.111698 0.014397 0.285382 -0.030687 1.580508
    38 -6.124083 6.233629 -0.380062 1.579749 -0.022445 -0.898546
    39 -7.980712 -11.877554 -11.481597 -0.586323 -1.991175 0.728101
    40 0.000000 -1.287387 -234.001968 1.570797 -1.570796 -1.570796
    41 14.038956 0.208007 -222.576553 1.570796 0.000000 -1.570796
    42 7.338997 0.000000 -251.347931 -1.570796 0.000000 -1.570796
    43 -1.534737 -1.287387 -234.001968 1.570797 -1.570796 -1.570796
  time 1
    0 -0.002752 -0.001265 -3.839342 0.000000 0.000000 -0.000015
    1 9.118691 -5.408992 -3.967853 6.022269 -2.753371 -0.791929
    2 7.976135 2.024098 -0.356844 1.567467 -3.119392 0.327174
    3 -0.071921 -8.447954 -0.111947 -0.138708 0.281513 -0.002058
    4 -0.488518 -2.755602 -0.228260 -0.267675 0.021418 -0.213376
    5 0.039887 -1.491509 0.018135 -0.547355 -0.009552 0.008906
    6 0.028786 -1.075731 -0.027015 -0.031759 -0.000803 0.000407
    7 0.250027 -2.820665 -0.238396 -0.197210 0.001681 0.003158
    8 -0.049759 -1.645387 0.096573 -0.446308 0.007239 -0.011507
    9 -0.034142 -1.148312 0.084782 -0.003781 -0.000755 0.000743
    10 0.957766 -2.746780 -0.090302 -0.131329 -0.159437 0.186441
    11 -0.033420 -1.397129 -0.015163 -0.404239 0.007706 -0.019500
    12 -0.022360 -0.957436 0.018784 0.055648 -0.001462 0.002157
    13 -1.180681 -2.507217 -0.193859 -0.399579 0.038402 -0.359947
    14 -0.024967 -1.123934 0.017597 -0.438000 0.006927 -0.017712
    15 -0.020057 -0.890968 0.010090 -0.171229 0.002613 -0.004302
    16 0.587416 -1.197277 0.185379 0.213046 -0.555894 -0.483003
    17 1.535927 -0.067881 0.024541 -0.003563 -0.082873 -0.248832
    18 1.100771 -0.046256 0.001040 -0.006931 -0.053586 -0.246257
    19 0.120153 -0.050270 -0.054489 0.287569 3.110905 1.561085
    20 -8.950721 2.925239 -5.774897 -0.850480 -3.729538 -1.131453
    21 0.069599 -8.438699 0.006260 -0.358507 -0.583097 -0.196125
    22 0.447953 -2.798986 -0.200443 -1.437671 0.003027 0.293030
    23 -0.032909 -1.499736 0.036191 -1.663827 0.022675 -0.034202
    24 -0.027022 -1.115984 -0.028023 -0.955112 0.021596 -0.014909
    25 -0.249534 -2.846964 -0.174213 -1.315699 -0.011151 0.193389
    26 0.043235 -1.656596 0.060855 -1.633055 -0.023927 0.011278
    27 0.031729 -1.137392 0.051025 -1.379910 -0.015393 0.007797
    28 -0.963866 -2.785145 -0.085350 -1.215142 0.077078 0.073963
    29 0.028479 -1.410880 -0.024980 -1.261697 -0.038099 -0.038099
    30 0.021413 -0.938249 0.008327 -1.238153 -0.037128 -0.037344
    31 1.164475 -2.543940 -0.170330 -1.388378 -0.165474 0.386544
    32 0.024032 -1.156387 -0.009538 -1.546019 0.036217 0.068888
    33 0.014898 -0.899614 -0.015942 -0.835374 0.003775 0.042306
    34 -0.586770 -1.264477 0.200161 0.225602 -0.724749 -2.571001
    35 1.557992 0.035243 0.016848 -0.014158 -0.005588 0.721699
    36 1.110134 0.040611 -0.005766 -0.035526 -0.032389 1.254745
    37 -0.139399 -0.111698 0.014397 0.285382 -0.030687 1.580508
    38 -7.463968 4.214036 -0.426939 1.575627 -0.029242 -0.603217
    39 -11.668325 -4.881247 -15.618442 1.492423 -0.668052 -1.574720
    40 0.000000 -1.287387 -234.001968 1.570797 -1.570796 -1.570796
    41 14.038956 0.208007 -222.576553 1.570796 0.000000 -1.570796
    42 7.338997 0.000000 -251.347931 -1.570796 0.000000 -1.570796
    43 -1.534737 -1.287387 -234.001968 1.570797 -1.570796 -1.570796
  time 2
    0 -0.002752 -0.001265 -3.839342 0.000000 0.000000 -0.000015
    1 10.751554 -4.338647 -2.721721 0.008502 -2.929367 -0.741824
    2 7.987854 -0.487698 -0.392002 -1.570179 -0.027421 -3.124078
    3 -0.071921 -8.420609 -0.123666 -0.286039 0.277969 -0.036179
    4 -0.488518 -2.755602 -0.228260 -0.505459 0.041875 -0.180933
    5 0.039887 -1.507135 0.010322 -0.876067 -0.013051 0.016959
    6 0.028786 -1.075731 -0.030922 -0.056782 -0.001402 0.000719
    7 0.250027 -2.820665 -0.238396 -0.335570 0.003742 -0.000354
    8 -0.049759 -1.625855 0.084854 -0.758303 0.008809 -0.020508
    9 -0.034142 -1.148312 0.084782 0.023106 -0.001342 0.001282
    10 0.957766 -2.746780 -0.090302 -0.177668 -0.158454 0.184259
    11 -0.033420 -1.393223 -0.022976 -0.675331 0.008138 -0.033150
    12 -0.022360 -0.957436 0.018784 0.093935 -0.002625 0.003703
    13 -1.180681 -2.507217 -0.193859 -0.715108 0.091410 -0.285470
    14 -0.024967 -1.123934 0.017597 -0.710145 0.007251 -0.030092
    15 -0.020057 -0.894874 0.010090 -0.252883 0.004231 -0.007658
    16 0.587416 -1.197277 0.185379 0.271783 -0.662817 -0.585510
    17 1.528114 -0.126477 0.040166 0.007223 -0.133484 -0.434578
    18 1.089052 -0.085319 0.012759 0.001195 -0.104508 -0.431514
    19 0.120153 -0.050270 -0.054489 0.287569 3.110905 1.561085
    20 -9.317920 4.909675 -3.841244 -0.836164 -3.345762 -1.155301
    21 0.089131 -8.411355 -0.017178 -0.431372 -0.442079 -0.043234
    22 0.447953 -2.798986 -0.200443 -1.437671 0.003027 0.293030
    23 -0.032909 -1.499736 0.036191 -1.663827 0.022675 -0.034202
    24 -0.027022 -1.115984 -0.028023 -0.955112 0.021596 -0.014909
    25 -0.249534 -2.846964 -0.174213 -1.315699 -0.011151 0.193389
    26 0.043235 -1.656596 0.060855 -1.633055 -0.023927 0.011278
    27 0.031729 -1.137392 0.051025 -1.379910 -0.015393 0.007797
    28 -0.963866 -2.785145 -0.085350 -1.215142 0.077078 0.073963
    29 0.028479 -1.410880 -0.024980 -1.261697 -0.038099 -0.038099
    30 0.021413 -0.938249 0.008327 -1.238153 -0.037128 -0.037344
    31 1.164475 -2.543940 -0.170330 -1.388378 -0.165474 0.386544
    32 0.024032 -1.156387 -0.009538 -1.546066 0.036217 0.068888
    33 0.014898 -0.899614 -0.015942 -0.835374 0.003775 0.042306
    34 -0.586770 -1.264477 0.200161 0.225602 -0.724749 -2.571001
    35 1.557992 0.035243 0.016848 -0.014158 -0.005588 0.721699
    36 1.110134 0.040611 -0.005766 -0.035526 -0.032389 1.254745
    37 -0.139399 -0.111698 0.014397 0.285382 -0.030687 1.580508
    38 -7.815541 3.335103 -0.442564 1.573518 -0.031444 -0.488305
    39 -13.430097 -0.045162 -15.696569 1.283648 -0.130883 -1.470112
    40 0.000000 -1.287387 -234.001968 1.570797 -1.570796 -1.570796
    41 14.038956 0.208007 -222.576553 1.570796 0.000000 -1.570796
    42 7.338997 0.000000 -251.347931 -1.570796 0.000000 -1.570796
    43 -1.534737 -1.287387 -234.001968 1.570797 -1.570796 -1.570796
  time 3
    0 -0.002752 -0.001265 -3.839342 0.000000 0.000000 -0.000015
    1 11.696895 -2.529998 -2.897508 6.172828 -2.896214 -0.311641
    2 8.042543 -0.065810 -0.388095 1.570727 -3.114886 0.069590
    3 -0.071921 -8.463579 -0.104134 -0.042904 0.300099 0.017584
    4 -0.488518 -2.755602 -0.228260 -0.413396 0.048886 -0.177518
    5 0.039887 -1.503228 0.014229 -0.815340 -0.012608 0.015389
    6 0.028786 -1.075731 -0.030922 -0.062009 -0.001522 0.000791
    7 0.250027 -2.820665 -0.238396 -0.222692 0.002101 0.002535
    8 -0.049759 -1.629761 0.088760 -0.702745 0.008737 -0.018878
    9 -0.034142 -1.148312 0.084782 0.028728 -0.001462 0.001390
    10 0.957766 -2.746780 -0.090302 -0.046691 -0.161498 0.190276
    11 -0.033420 -1.393223 -0.019070 -0.591225 0.008401 -0.028908
    12 -0.022360 -0.957436 0.018784 0.101939 -0.002876 0.004027
    13 -1.180681 -2.507217 -0.193859 -0.638273 0.105120 -0.264502
    14 -0.024967 -1.123934 0.017597 -0.625254 0.007514 -0.026221
    15 -0.020057 -0.894874 0.010090 -0.269954 0.004530 -0.008377
    16 0.591323 -1.197277 0.185379 0.286452 -0.684493 -0.609039
    17 1.524208 -0.138196 0.044073 0.010686 -0.143767 -0.473632
    18 1.085145 -0.093132 0.016666 0.004095 -0.114923 -0.470461
    19 0.120153 -0.050270 -0.054489 0.287569 3.110905 1.561085
    20 -10.396078 2.042400 -5.138159 -0.772260 -3.429195 -0.955278
    21 0.061787 -8.376197 -0.021084 -0.435274 -0.426446 0.196566
    22 0.447953 -2.798986 -0.200443 -1.437671 0.003027 0.293030
    23 -0.032909 -1.499736 0.036191 -1.663827 0.022675 -0.034202
    24 -0.027022 -1.115984 -0.028023 -0.955112 0.021596 -0.014909
    25 -0.249534 -2.846964 -0.174213 -1.315699 -0.011151 0.193389
    26 0.043235 -1.656596 0.060855 -1.633055 -0.023927 0.011278
    27 0.031729 -1.137392 0.051025 -1.379910 -0.015393 0.007797
    28 -0.963866 -2.785145 -0.085350 -1.215142 0.077078 0.073963
    29 0.028479 -1.410880 -0.024980 -1.261697 -0.038099 -0.038099
    30 0.021413 -0.938249 0.008327 -1.238153 -0.037128 -0.037344
    31 1.164475 -2.543940 -0.170330 -1.388378 -0.165474 0.386544
    32 0.024032 -1.156387 -0.009538 -1.546019 0.036217 0.068888
    33 0.014898 -0.899614 -0.015942 -0.835374 0.003775 0.042306
    34 -0.586770 -1.264477 0.200161 0.225602 -0.724749 -2.571001
    35 1.557992 0.035243 0.016848 -0.014158 -0.005588 0.721699
    36 1.110134 0.040611 -0.005766 -0.035526 -0.032389 1.254745
    37 -0.139399 -0.111698 0.014397 0.285382 -0.030687 1.580508
    38 -6.303776 6.030498 -0.383969 1.579366 -0.023307 -0.865888
    39 -13.883236 -4.154662 -16.634098 1.227356 -0.047141 -1.428958
    40 0.000000 -1.287387 -234.001968 1.570797 -1.570796 -1.570796
    41 14.038956 0.208007 -222.576553 1.570796 0.000000 -1.570796
    42 7.338997 0.000000 -251.347931 -1.570796 0.000000 -1.570796
    43 -1.534737 -1.287387 -234.001968 1.570797 -1.570796 -1.570796
  time 4
    0 -0.002752 -0.001265 -3.839342 0.000000 0.000000 -0.000015
    1 11.970341 -0.490873 -3.174860 5.877347 -2.915917 0.243569
    2 8.042543 1.488925 -0.364657 1.568234 -3.118146 0.260762
    3 -0.068015 -8.529987 -0.104134 0.334700 0.304300 0.107493
    4 -0.488518 -2.755602 -0.228260 -0.200799 0.049725 -0.184061
    5 0.039887 -1.495415 0.014229 -0.609368 -0.010415 0.010332
    6 0.028786 -1.075731 -0.030922 -0.059379 -0.001462 0.000755
    7 0.250027 -2.820665 -0.238396 -0.020296 -0.001603 0.007185
    8 -0.049759 -1.641480 0.096573 -0.510118 0.007790 -0.013305
    9 -0.034142 -1.148312 0.084782 0.025936 -0.001402 0.001342
    10 0.957766 -2.746780 -0.090302 0.144629 -0.167239 0.198197
    11 -0.033420 -1.397129 -0.015163 -0.376293 0.007454 -0.018122
    12 -0.022360 -0.957436 0.018784 0.097937 -0.002756 0.003871
    13 -1.180681 -2.507217 -0.193859 -0.416859 0.096934 -0.262371
    14 -0.024967 -1.123934 0.017597 -0.408966 0.006687 -0.016406
    15 -0.020057 -0.894874 0.010090 -0.261419 0.004386 -0.008018
    16 0.587416 -1.197277 0.185379 0.279009 -0.673683 -0.597176
    17 1.524208 -0.130383 0.044073 0.008901 -0.138637 -0.454095
    18 1.085145 -0.089226 0.012759 0.002597 -0.109721 -0.450967
    19 0.120153 -0.050270 -0.054489 0.287569 3.110905 1.561085
    20 -8.950721 -2.985098 -5.071751 -0.622930 -3.676036 -0.656092
    21 0.014910 -8.352759 -0.013271 -0.428833 -0.464373 0.461434
    22 0.447953 -2.798986 -0.200443 -1.437671 0.003027 0.293030
    23 -0.032909 -1.499736 0.036191 -1.663827 0.022675 -0.034202
    24 -0.027022 -1.115984 -0.028023 -0.955112 0.021596 -0.014909
    25 -0.249534 -2.846964 -0.174213 -1.315699 -0.011151 0.193389
    26 0.043235 -1.656596 0.060855 -1.633055 -0.023927 0.011278
    27 0.031729 -1.137392 0.051025 -1.379910 -0.015393 0.007797
    28 -0.963866 -2.785145 -0.085350 -1.215142 0.077078 0.073963
    29 0.028479 -1.410880 -0.024980 -1.261697 -0.038099 -0.038099
    30 0.021413 -0.938249 0.008327 -1.238153 -0.037128 -0.037344
    31 1.164475 -2.543940 -0.170330 -1.388378 -0.165474 0.386544
    32 0.024032 -1.156387 -0.009538 -1.546019 0.036217 0.068888
    33 0.014898 -0.899614 -0.015942 -0.835374 0.003775 0.042306
    34 -0.586770 -1.264477 0.200161 0.225602 -0.724749 -2.571001
    35 1.557992 0.035243 0.016848 -0.014158 -0.005588 0.721699
    36 1.110134 0.040611 -0.005766 -0.035526 -0.032389 1.254745
    37 -0.139399 -0.111698 0.014397 0.285382 -0.030687 1.580508
    38 -2.690385 8.507136 -0.274590 1.581571 -0.009235 -1.403748
    39 -10.547197 -11.502542 -14.962172 1.233990 -0.163305 -1.405414
    40 0.000000 -1.287387 -234.001968 1.570797 -1.570796 -1.570796
    41 14.038956 0.208007 -222.576553 1.570796 0.000000 -1.570796
    42 7.338997 0.000000 -251.347931 -1.570796 0.000000 -1.570796
    43 -1.534737 -1.287387 -234.001968 1.570797 -1.570796 -1.570796
  time 5
    0 -0.002752 -0.001265 -3.839342 0.000000 0.000000 -0.000015
    1 11.794554 0.661505 -3.362365 5.688192 -2.992927 0.568825
    2 7.827693 2.738963 -0.345125 1.566701 -3.121118 0.416451
    3 -0.064108 -8.565145 -0.104134 0.533230 0.296274 0.155569
    4 -0.488518 -2.755602 -0.228260 -0.065101 0.050133 -0.189275
    5 0.039887 -1.491509 0.018135 -0.473769 -0.008425 0.007288
    6 0.028786 -1.075731 -0.030922 -0.056782 -0.001402 0.000719
    7 0.250027 -2.820665 -0.238396 0.105084 -0.004335 0.009641
    8 -0.049759 -1.653199 0.100479 -0.383002 0.006580 -0.009757
    9 -0.034142 -1.148312 0.084782 0.023106 -0.001342 0.001282
    10 0.957766 -2.746780 -0.090302 0.259673 -0.171385 0.202380
    11 -0.033420 -1.397129 -0.015163 -0.237797 0.005621 -0.011362
    12 -0.022360 -0.957436 0.018784 0.093935 -0.002625 0.003703
    13 -1.180681 -2.507217 -0.193859 -0.272853 0.089648 -0.265531
    14 -0.024967 -1.123934 0.017597 -0.269604 0.005046 -0.010270
    15 -0.020057 -0.894874 0.010090 -0.252883 0.004231 -0.007658
    16 0.587416 -1.197277 0.185379 0.271783 -0.662817 -0.585510
    17 1.528114 -0.126477 0.040166 0.007223 -0.133484 -0.434578
    18 1.089052 -0.085319 0.012759 0.001195 -0.104508 -0.431514
    19 0.120153 -0.050270 -0.054489 0.287569 3.110905 1.561085
    20 -7.173323 -4.754683 -3.778742 -0.518137 -3.811850 -0.475487
    21 -0.008528 -8.344947 -0.009365 -0.429397 -0.492135 0.588560
    22 0.447953 -2.798986 -0.200443 -1.437671 0.003027 0.293030
    23 -0.032909 -1.499736 0.036191 -1.663827 0.022675 -0.034202
    24 -0.027022 -1.115984 -0.028023 -0.955112 0.021596 -0.014909
    25 -0.249534 -2.846964 -0.174213 -1.315699 -0.011151 0.193389
    26 0.043235 -1.656596 0.060855 -1.633055 -0.023927 0.011278
    27 0.031729 -1.137392 0.051025 -1.379910 -0.015393 0.007797
    28 -0.963866 -2.785145 -0.085350 -1.215142 0.077078 0.073963
    29 0.028479 -1.410880 -0.024980 -1.261697 -0.038099 -0.038099
    30 0.021413 -0.938249 0.008327 -1.238153 -0.037128 -0.037344
    31 1.164475 -2.543940 -0.170330 -1.388423 -0.165474 0.386544
    32 0.024032 -1.156387 -0.009538 -1.546019 0.036217 0.068888
    33 0.014898 -0.899614 -0.015942 -0.835374 0.003775 0.042306
    34 -0.586770 -1.264477 0.200161 0.225602 -0.724749 -2.571001
    35 1.557992 0.035243 0.016848 -0.014158 -0.005588 0.721699
    36 1.110134 0.040611 -0.005766 -0.035526 -0.032389 1.254745
    37 -0.139399 -0.111698 0.014397 0.285382 -0.030687 1.580508
    38 -0.491099 8.940743 -0.215995 4.721367 -3.139335 1.464177
    39 -7.484603 -14.131529 -12.548036 1.280142 -0.243630 -1.400054
    40 0.000000 -1.287387 -234.001968 1.570797 -1.570796 -1.570796
    41 14.038956 0.208007 -222.576553 1.570796 0.000000 -1.570796
    42 7.338997 0.000000 -251.347931 -1.570796 0.000000 -1.570796
    43 -1.534737 -1.287387 -234.001968 1.570797 -1.570796 -1.570796
end
