version 1
nodes
  0 "y21s4janus_root" -1
  1 "magazine" 0
  2 "lever" 0
  3 "trigger" 0
  4 "root" -1
  5 "Bone01" 4
  6 "Bone_L_Upper" 5
  7 "Bone_Lefthand" 5
  8 "Bone13" 7
  9 "Bone14" 8
  10 "Bone15" 9
  11 "Bone17" 7
  12 "Bone18" 11
  13 "Bone19" 12
  14 "Bone21" 7
  15 "Bone22" 14
  16 "Bone23" 15
  17 "Bone09" 7
  18 "Bone10" 17
  19 "Bone11" 18
  20 "Bone05" 7
  21 "Bone06" 20
  22 "Bone07" 21
  23 "Bone_Se_Hand-L" 7
  24 "Bone04" 4
  25 "Bone_Righthand" 24
  26 "Bone39" 25
  27 "Bone40" 26
  28 "Bone41" 27
  29 "Bone35" 25
  30 "Bone36" 29
  31 "Bone37" 30
  32 "Bone31" 25
  33 "Bone32" 32
  34 "Bone33" 33
  35 "Bone43" 25
  36 "Bone44" 35
  37 "Bone45" 36
  38 "Bone27" 25
  39 "Bone28" 38
  40 "Bone29" 39
  41 "Bone_Se_Hand-R" 25
  42 "Bone_R_Upper" 24
end
skeleton
  time 0
    0 6.490785 -5.707495 -4.035547 -4.712388 0.000000 -1.570742
    1 5.535558 -1.455844 0.000000 0.000000 0.000000 -1.364276
    2 1.733054 1.075926 0.000000 -1.570795 -3.141592 0.000000
    3 3.221660 -1.673593 0.000000 -0.000002 0.000000 -1.705118
    4 1.696518 -2.696660 0.414694 0.000000 0.000000 0.000000
    5 6.212353 6.231988 -8.885972 5.014740 -1.423837 1.240120
    6 8.073794 1.039693 -0.372470 1.568901 -3.117143 0.205648
    7 -0.110985 -8.416703 -0.162730 -0.174544 -0.005252 -0.135699
    8 -0.488518 -2.755602 -0.228260 -0.979340 -0.113948 -0.305501
    9 0.047700 -1.534479 0.018135 -1.658243 -0.123753 0.207670
    10 0.028786 -1.126514 -0.105143 -0.742955 -0.013303 0.014298
    11 0.250027 -2.820665 -0.238396 -0.805142 -0.121532 -0.168378
    12 -0.057572 -1.598510 0.030164 -1.580137 -0.056699 0.100860
    13 -0.034142 -1.160031 0.053531 -0.902405 0.008281 -0.023154
    14 0.957766 -2.746780 -0.090302 0.020734 -0.102881 0.097095
    15 -0.033420 -1.397129 -0.026882 -0.836247 0.006651 -0.041132
    16 -0.022360 -0.957436 0.010971 -0.272886 0.005848 -0.012644
    17 -1.180681 -2.507217 -0.193859 -0.888172 -0.120370 -0.218688
    18 -0.024967 -1.127840 0.017597 -1.327008 0.102085 0.052302
    19 -0.020057 -0.902687 0.025715 -0.805420 0.007514 -0.032334
    20 0.583510 -1.208996 0.197098 -0.016291 -1.086293 -0.690834
    21 1.446081 -0.251481 -0.034055 -0.018832 0.116251 -0.910908
    22 1.049988 -0.167353 -0.034117 -0.069634 0.117099 -0.854838
    23 0.120153 -0.050270 -0.054489 0.287569 3.110905 1.561085
    24 -0.141859 -6.688336 -11.923522 -1.804243 -5.226771 -1.302667
    25 0.139914 -8.466044 -0.052335 0.420044 0.009247 0.211200
    26 0.447953 -2.798986 -0.200443 -1.083117 -0.024754 0.321985
    27 -0.032909 -1.499736 0.028378 -1.405034 0.023334 -0.026879
    28 -0.027022 -1.115984 -0.028023 -0.967262 0.021752 -0.015208
    29 -0.249534 -2.846964 -0.174213 -0.927162 -0.009006 0.151859
    30 0.043235 -1.656596 0.072574 -1.315107 -0.020930 0.005777
    31 0.031729 -1.137392 0.051025 -1.375095 -0.015333 0.007761
    32 -0.963866 -2.785145 -0.085350 -0.990962 0.136737 -0.225412
    33 0.028479 -1.403067 -0.017167 -0.965983 -0.135474 0.127432
    34 0.021413 -0.942156 0.012233 -0.964428 -0.025335 -0.033641
    35 1.164475 -2.543940 -0.170330 -1.202163 -0.161088 0.388810
    36 0.024032 -1.140761 -0.005631 -0.986063 0.010594 0.051247
    37 0.014898 -0.903521 -0.015942 -1.028799 0.009660 0.051438
    38 -0.586770 -1.264477 0.200161 0.221925 -1.275425 -2.979253
    39 1.569711 0.035243 0.016848 -0.019647 -0.007086 0.922323
    40 1.114041 0.040611 -0.005766 -0.028766 -0.034354 1.035390
    41 -0.045646 -0.072634 0.010491 -0.011230 0.241184 1.355861
    42 -5.924858 6.448479 -0.372250 1.580049 -0.021646 -0.934261
  time 1
    0 6.490785 -3.164449 -4.641034 -4.712388 -0.025887 -1.570742
    1 5.535558 -1.455844 0.000000 0.000000 0.000000 -1.364276
    2 1.733054 1.075926 0.000000 -1.570795 -3.141592 0.000000
    3 3.221660 -1.673593 0.000000 -0.000002 0.000000 -1.705118
    4 1.696518 -2.696660 0.414694 0.000000 0.000000 0.000000
    5 6.267042 8.778941 -8.737530 5.464737 -1.504734 0.785852
    6 7.663625 -1.843208 -0.407627 -1.567303 -0.029819 -3.295397
    7 -0.118797 -8.440141 -0.162730 -0.173291 -0.007632 -0.017704
    8 -0.488518 -2.755602 -0.228260 -0.979340 -0.113948 -0.305501
    9 0.047700 -1.534479 0.018135 -1.658243 -0.123753 0.207670
    10 0.028786 -1.126514 -0.105143 -0.742955 -0.013303 0.014298
    11 0.250027 -2.820665 -0.238396 -0.805142 -0.121532 -0.168378
    12 -0.057572 -1.598510 0.030164 -1.580137 -0.056699 0.100860
    13 -0.034142 -1.160031 0.053531 -0.902405 0.008281 -0.023154
    14 0.957766 -2.746780 -0.090302 0.020734 -0.102881 0.097095
    15 -0.033420 -1.397129 -0.026882 -0.836247 0.006651 -0.041132
    16 -0.022360 -0.957436 0.010971 -0.272886 0.005848 -0.012644
    17 -1.180681 -2.507217 -0.193859 -0.888172 -0.120370 -0.218688
    18 -0.024967 -1.127840 0.017597 -1.327008 0.102085 0.052302
    19 -0.020057 -0.902687 0.025715 -0.805420 0.007514 -0.032334
    20 0.583510 -1.208996 0.197098 -0.016291 -1.086293 -0.690834
    21 1.446081 -0.251481 -0.034055 -0.018832 0.116251 -0.910908
    22 1.049988 -0.167353 -0.034117 -0.069634 0.117099 -0.854838
    23 0.120153 -0.050270 -0.054489 0.287569 3.110905 1.561085
    24 -0.434836 -5.551582 -13.630605 -1.774281 -5.424253 -1.159669
    25 0.136008 -8.442606 -0.056241 0.513335 0.031964 0.401239
    26 0.447953 -2.798986 -0.200443 -1.083117 -0.024754 0.321985
    27 -0.032909 -1.499736 0.028378 -1.405034 0.023334 -0.026879
    28 -0.027022 -1.115984 -0.028023 -0.967262 0.021752 -0.015208
    29 -0.249534 -2.846964 -0.174213 -0.927162 -0.009006 0.151859
    30 0.043235 -1.656596 0.072574 -1.315107 -0.020930 0.005777
    31 0.031729 -1.137392 0.051025 -1.375095 -0.015333 0.007761
    32 -0.963866 -2.785145 -0.085350 -0.990962 0.136737 -0.225412
    33 0.028479 -1.403067 -0.017167 -0.965983 -0.135474 0.127432
    34 0.021413 -0.942156 0.012233 -0.964428 -0.025335 -0.033641
    35 1.164475 -2.543940 -0.170330 -1.202163 -0.161088 0.388810
    36 0.024032 -1.140761 -0.005631 -0.986063 0.010594 0.051247
    37 0.014898 -0.903521 -0.015942 -1.028799 0.009660 0.051438
    38 -0.586770 -1.264477 0.200161 0.221925 -1.275425 -2.979253
    39 1.569711 0.035243 0.016848 -0.019647 -0.007086 0.922323
    40 1.114041 0.040611 -0.005766 -0.028766 -0.034354 1.035390
    41 -0.045646 -0.072634 0.010491 -0.011230 0.241184 1.355861
    42 -8.081174 2.335072 -0.458190 1.570941 -0.033654 -0.362793
  time 2
    0 6.494691 -3.558992 -4.652753 1.570509 -0.013998 -1.570857
    1 5.535558 -1.455844 0.000000 0.000000 0.000000 -1.364276
    2 1.733054 1.075926 0.000000 -1.570795 -3.141592 0.000000
    3 3.221660 -1.673593 0.000000 -0.000002 0.000000 -1.705118
    4 1.696518 -2.696660 0.414694 0.000000 0.000000 0.000000
    5 6.255323 8.411742 -8.831282 5.360258 -1.496878 0.891297
    6 7.796442 -1.409601 -0.403721 -1.568261 -0.029052 -3.239885
    7 -0.118797 -8.432328 -0.162730 -0.173693 -0.006442 -0.040320
    8 -0.488518 -2.755602 -0.228260 -0.979340 -0.113948 -0.305501
    9 0.047700 -1.534479 0.018135 -1.658243 -0.123753 0.207670
    10 0.028786 -1.126514 -0.105143 -0.742955 -0.013303 0.014298
    11 0.250027 -2.820665 -0.238396 -0.805142 -0.121532 -0.168378
    12 -0.057572 -1.598510 0.030164 -1.580137 -0.056699 0.100860
    13 -0.034142 -1.160031 0.053531 -0.902405 0.008281 -0.023154
    14 0.957766 -2.746780 -0.090302 0.020734 -0.102881 0.097095
    15 -0.033420 -1.397129 -0.026882 -0.836247 0.006651 -0.041132
    16 -0.022360 -0.957436 0.010971 -0.272886 0.005848 -0.012644
    17 -1.180681 -2.507217 -0.193859 -0.888172 -0.120370 -0.218688
    18 -0.024967 -1.127840 0.017597 -1.327008 0.102085 0.052302
    19 -0.020057 -0.902687 0.025715 -0.805420 0.007514 -0.032334
    20 0.583510 -1.208996 0.197098 -0.016291 -1.086293 -0.690834
    21 1.446081 -0.251481 -0.034055 -0.018832 0.116251 -0.910908
    22 1.049988 -0.167353 -0.034117 -0.069634 0.117099 -0.854838
    23 0.120153 -0.050270 -0.054489 0.287569 3.110905 1.561085
    24 -0.419211 -5.664867 -13.540759 -1.776516 -5.389343 -1.179866
    25 0.136008 -8.446512 -0.056241 0.499543 0.025663 0.374119
    26 0.447953 -2.798986 -0.200443 -1.083117 -0.024754 0.321985
    27 -0.032909 -1.499736 0.028378 -1.405034 0.023334 -0.026879
    28 -0.027022 -1.115984 -0.028023 -0.967262 0.021752 -0.015208
    29 -0.249534 -2.846964 -0.174213 -0.927162 -0.009006 0.151859
    30 0.043235 -1.656596 0.072574 -1.315107 -0.020930 0.005777
    31 0.031729 -1.137392 0.051025 -1.375095 -0.015333 0.007761
    32 -0.963866 -2.785145 -0.085350 -0.990962 0.136737 -0.225412
    33 0.028479 -1.403067 -0.017167 -0.965983 -0.135474 0.127432
    34 0.021413 -0.942156 0.012233 -0.964428 -0.025335 -0.033641
    35 1.164475 -2.543940 -0.170330 -1.202163 -0.161088 0.388810
    36 0.024032 -1.140761 -0.005631 -0.986063 0.010594 0.051247
    37 0.014898 -0.903521 -0.015942 -1.028799 0.009660 0.051438
    38 -0.586770 -1.264477 0.200161 0.221925 -1.275425 -2.979253
    39 1.569711 0.035243 0.016848 -0.019647 -0.007086 0.922323
    40 1.114041 0.040611 -0.005766 -0.028766 -0.034354 1.035390
    41 -0.045646 -0.072634 0.010491 -0.011230 0.241184 1.355861
    42 -7.967889 2.819462 -0.450377 1.572211 -0.032659 -0.423046
  time 3
    0 6.490785 -4.285577 -4.570719 -4.712388 0.000000 -1.570742
    1 5.535558 -1.455844 0.000000 0.000000 0.000000 -1.364276
    2 1.733054 1.075926 0.000000 -1.570795 -3.141592 0.000000
    3 3.221660 -1.673593 0.000000 -0.000002 0.000000 -1.705118
    4 1.696518 -2.696660 0.414694 0.000000 0.000000 0.000000
    5 6.235791 7.716408 -8.944567 5.198512 -1.476686 1.054689
    6 7.968322 -0.612701 -0.395908 -1.569891 -0.027710 -3.139756
    7 -0.114891 -8.428422 -0.162730 -0.174064 -0.005576 -0.078607
    8 -0.488518 -2.755602 -0.228260 -0.979340 -0.113948 -0.305501
    9 0.047700 -1.534479 0.018135 -1.658243 -0.123753 0.207670
    10 0.028786 -1.126514 -0.105143 -0.742955 -0.013303 0.014298
    11 0.250027 -2.820665 -0.238396 -0.805142 -0.121532 -0.168378
    12 -0.057572 -1.598510 0.030164 -1.580137 -0.056699 0.100860
    13 -0.034142 -1.160031 0.053531 -0.902405 0.008281 -0.023154
    14 0.957766 -2.746780 -0.090302 0.020734 -0.102881 0.097095
    15 -0.033420 -1.397129 -0.026882 -0.836247 0.006651 -0.041132
    16 -0.022360 -0.957436 0.010971 -0.272886 0.005848 -0.012644
    17 -1.180681 -2.507217 -0.193859 -0.888172 -0.120370 -0.218688
    18 -0.024967 -1.127840 0.017597 -1.327008 0.102085 0.052302
    19 -0.020057 -0.902687 0.025715 -0.805420 0.007514 -0.032334
    20 0.583510 -1.208996 0.197098 -0.016291 -1.086314 -0.690834
    21 1.446081 -0.251481 -0.034055 -0.018832 0.116251 -0.910908
    22 1.049988 -0.167353 -0.034117 -0.069634 0.117099 -0.854838
    23 0.120153 -0.050270 -0.054489 0.287569 3.110905 1.561085
    24 -0.348896 -5.957844 -13.224343 -1.782806 -5.333525 -1.218736
    25 0.136008 -8.450418 -0.052335 0.473160 0.015903 0.325852
    26 0.447953 -2.798986 -0.200443 -1.083117 -0.024754 0.321985
    27 -0.032909 -1.499736 0.028378 -1.405034 0.023334 -0.026879
    28 -0.027022 -1.115984 -0.028023 -0.967262 0.021752 -0.015208
    29 -0.249534 -2.846964 -0.174213 -0.927162 -0.009006 0.151859
    30 0.043235 -1.656596 0.072574 -1.315107 -0.020930 0.005777
    31 0.031729 -1.137392 0.051025 -1.375095 -0.015333 0.007761
    32 -0.963866 -2.785145 -0.085350 -0.990962 0.136737 -0.225412
    33 0.028479 -1.403067 -0.017167 -0.965983 -0.135474 0.127432
    34 0.021413 -0.942156 0.012233 -0.964428 -0.025335 -0.033641
    35 1.164475 -2.543940 -0.170330 -1.202163 -0.161088 0.388810
    36 0.024032 -1.140761 -0.005631 -0.986063 0.010594 0.051247
    37 0.014898 -0.903521 -0.015942 -1.028799 0.009660 0.051438
    38 -0.586770 -1.264477 0.200161 0.221925 -1.275425 -2.979253
    39 1.569711 0.035243 0.016848 -0.019647 -0.007086 0.922323
    40 1.114041 0.040611 -0.005766 -0.028766 -0.034354 1.035390
    41 -0.045646 -0.072634 0.010491 -0.011230 0.241184 1.355861
    42 -7.620223 3.858556 -0.434751 1.574776 -0.030203 -0.556028
  time 4
    0 6.490785 -4.469176 -4.555094 -4.711334 -6.279062 -1.570340
    1 5.535558 -1.455844 0.000000 0.000000 0.000000 -1.364276
    2 1.733054 1.075926 0.000000 -1.570795 -3.141592 0.000000
    3 3.221660 -1.673593 0.000000 -0.000002 0.000000 -1.705118
    4 1.696518 -2.696660 0.414694 0.000000 0.000000 0.000000
    5 6.235791 7.544528 -8.960193 5.177540 -1.473115 1.075968
    6 7.999573 -0.405664 -0.392002 -1.570274 -0.027326 -3.113737
    7 -0.114891 -8.424515 -0.162730 -0.173709 -0.006269 -0.086719
    8 -0.488518 -2.755602 -0.228260 -0.979340 -0.113948 -0.305501
    9 0.047700 -1.534479 0.018135 -1.658243 -0.123753 0.207670
    10 0.028786 -1.126514 -0.105143 -0.742955 -0.013303 0.014298
    11 0.250027 -2.820665 -0.238396 -0.805142 -0.121532 -0.168378
    12 -0.057572 -1.598510 0.030164 -1.580137 -0.056699 0.100860
    13 -0.034142 -1.160031 0.053531 -0.902405 0.008281 -0.023154
    14 0.957766 -2.746780 -0.090302 0.020734 -0.102881 0.097095
    15 -0.033420 -1.397129 -0.026882 -0.836247 0.006651 -0.041132
    16 -0.022360 -0.957436 0.010971 -0.272886 0.005848 -0.012644
    17 -1.180681 -2.507217 -0.193859 -0.888172 -0.120370 -0.218688
    18 -0.024967 -1.127840 0.017597 -1.327008 0.102085 0.052302
    19 -0.020057 -0.902687 0.025715 -0.805420 0.007514 -0.032334
    20 0.583510 -1.208996 0.197098 -0.016291 -1.086293 -0.690834
    21 1.446081 -0.251481 -0.034055 -0.018832 0.116251 -0.910908
    22 1.049988 -0.167353 -0.034117 -0.069634 0.117099 -0.854838
    23 0.120153 -0.050270 -0.054489 0.287569 3.110905 1.561085
    24 -0.333271 -6.028159 -13.142309 -1.785703 -5.317775 -1.228739
    25 0.136008 -8.450418 -0.052335 0.467426 0.012413 0.312135
    26 0.447953 -2.798986 -0.200443 -1.083117 -0.024754 0.321985
    27 -0.032909 -1.499736 0.028378 -1.405034 0.023334 -0.026879
    28 -0.027022 -1.115984 -0.028023 -0.967262 0.021752 -0.015208
    29 -0.249534 -2.846964 -0.174213 -0.927162 -0.009006 0.151859
    30 0.043235 -1.656596 0.072574 -1.315107 -0.020930 0.005777
    31 0.031729 -1.137392 0.051025 -1.375095 -0.015333 0.007761
    32 -0.963866 -2.785145 -0.085350 -0.990962 0.136737 -0.225412
    33 0.028479 -1.403067 -0.017167 -0.965983 -0.135474 0.127432
    34 0.021413 -0.942156 0.012233 -0.964428 -0.025335 -0.033641
    35 1.164475 -2.543940 -0.170330 -1.202163 -0.161088 0.388810
    36 0.024032 -1.140761 -0.005631 -0.986063 0.010594 0.051247
    37 0.014898 -0.903521 -0.015942 -1.028799 0.009660 0.051438
    38 -0.586770 -1.264477 0.200161 0.221925 -1.275425 -2.979253
    39 1.569711 0.035243 0.016848 -0.019647 -0.007086 0.922323
    40 1.114041 0.040611 -0.005766 -0.028766 -0.034354 1.035390
    41 -0.045646 -0.072634 0.010491 -0.011230 0.241184 1.355861
    42 -7.506938 4.124189 -0.430845 1.575399 -0.029496 -0.591255
  time 5
    0 6.486878 -4.637150 -4.543375 -4.710183 -6.275131 -1.569880
    1 5.535558 -1.455844 0.000000 0.000000 0.000000 -1.364276
    2 1.733054 1.075926 0.000000 -1.570795 -3.141592 0.000000
    3 3.221660 -1.673593 0.000000 -0.000002 0.000000 -1.705118
    4 1.696518 -2.696660 0.414694 0.000000 0.000000 0.000000
    5 6.231884 7.384367 -8.968005 5.161547 -1.470258 1.092307
    6 8.026918 -0.202533 -0.388095 -1.570562 -0.026943 -3.088752
    7 -0.114891 -8.424515 -0.162730 -0.173260 -0.007156 -0.093971
    8 -0.488518 -2.755602 -0.228260 -0.979340 -0.113948 -0.305501
    9 0.047700 -1.534479 0.018135 -1.658243 -0.123753 0.207670
    10 0.028786 -1.126514 -0.105143 -0.742955 -0.013303 0.014298
    11 0.250027 -2.820665 -0.238396 -0.805142 -0.121532 -0.168378
    12 -0.057572 -1.598510 0.030164 -1.580137 -0.056699 0.100860
    13 -0.034142 -1.160031 0.053531 -0.902405 0.008281 -0.023154
    14 0.957766 -2.746780 -0.090302 0.020734 -0.102881 0.097095
    15 -0.033420 -1.397129 -0.026882 -0.836247 0.006651 -0.041132
    16 -0.022360 -0.957436 0.010971 -0.272886 0.005848 -0.012644
    17 -1.180681 -2.507217 -0.193859 -0.888172 -0.120370 -0.218688
    18 -0.024967 -1.127840 0.017597 -1.327008 0.102085 0.052302
    19 -0.020057 -0.902687 0.025715 -0.805420 0.007514 -0.032334
    20 0.583510 -1.208996 0.197098 -0.016291 -1.086293 -0.690834
    21 1.446081 -0.251481 -0.034055 -0.018832 0.116251 -0.910908
    22 1.049988 -0.167353 -0.034117 -0.069634 0.117099 -0.854838
    23 0.120153 -0.050270 -0.054489 0.287569 3.110905 1.561085
    24 -0.317645 -6.090661 -13.060276 -1.788848 -5.302392 -1.238457
    25 0.136008 -8.454325 -0.052335 0.462196 0.008859 0.298614
    26 0.447953 -2.798986 -0.200443 -1.083117 -0.024754 0.321985
    27 -0.032909 -1.499736 0.028378 -1.405034 0.023334 -0.026879
    28 -0.027022 -1.115984 -0.028023 -0.967262 0.021752 -0.015208
    29 -0.249534 -2.846964 -0.174213 -0.927162 -0.009006 0.151859
    30 0.043235 -1.656596 0.072574 -1.315107 -0.020930 0.005777
    31 0.031729 -1.137392 0.051025 -1.375095 -0.015333 0.007761
    32 -0.963866 -2.785145 -0.085350 -0.990962 0.136737 -0.225412
    33 0.028479 -1.403067 -0.017167 -0.965983 -0.135474 0.127432
    34 0.021413 -0.942156 0.012233 -0.964428 -0.025335 -0.033641
    35 1.164475 -2.543940 -0.170330 -1.202163 -0.161088 0.388810
    36 0.024032 -1.140761 -0.005631 -0.986063 0.010594 0.051247
    37 0.014898 -0.903521 -0.015942 -1.028799 0.009660 0.051438
    38 -0.586770 -1.264477 0.200161 0.221925 -1.275425 -2.979253
    39 1.569711 0.035243 0.016848 -0.019647 -0.007086 0.922323
    40 1.114041 0.040611 -0.005766 -0.028766 -0.034354 1.035390
    41 -0.045646 -0.072634 0.010491 -0.011230 0.241184 1.355861
    42 -7.385840 4.378103 -0.423032 1.575986 -0.028788 -0.625540
  time 6
    0 6.482972 -4.801217 -4.531656 -4.708841 -6.271392 -1.569363
    1 5.535558 -1.455844 0.000000 0.000000 0.000000 -1.364276
    2 1.733054 1.075926 0.000000 -1.570795 -3.141592 0.000000
    3 3.221660 -1.673593 0.000000 -0.000002 0.000000 -1.705118
    4 1.696518 -2.696660 0.414694 0.000000 0.000000 0.000000
    5 6.227978 7.232018 -8.975818 5.149289 -1.467986 1.104752
    6 8.046450 -0.011121 -0.388095 1.570530 -3.114938 0.076589
    7 -0.114891 -8.424515 -0.162730 -0.172750 -0.008195 -0.100362
    8 -0.488518 -2.755602 -0.228260 -0.979340 -0.113948 -0.305501
    9 0.047700 -1.534479 0.018135 -1.658243 -0.123753 0.207670
    10 0.028786 -1.126514 -0.105143 -0.742955 -0.013303 0.014298
    11 0.250027 -2.820665 -0.238396 -0.805142 -0.121532 -0.168378
    12 -0.057572 -1.598510 0.030164 -1.580137 -0.056699 0.100860
    13 -0.034142 -1.160031 0.053531 -0.902405 0.008281 -0.023154
    14 0.957766 -2.746780 -0.090302 0.020734 -0.102881 0.097095
    15 -0.033420 -1.397129 -0.026882 -0.836247 0.006651 -0.041132
    16 -0.022360 -0.957436 0.010971 -0.272886 0.005848 -0.012644
    17 -1.180681 -2.507217 -0.193859 -0.888172 -0.120370 -0.218688
    18 -0.024967 -1.127840 0.017597 -1.327008 0.102085 0.052302
    19 -0.020057 -0.902687 0.025715 -0.805420 0.007514 -0.032334
    20 0.583510 -1.208996 0.197098 -0.016291 -1.086293 -0.690834
    21 1.446081 -0.251481 -0.034055 -0.018832 0.116251 -0.910908
    22 1.049988 -0.167353 -0.034117 -0.069634 0.117099 -0.854838
    23 0.120153 -0.050270 -0.054489 0.287569 3.110905 1.561085
    24 -0.302020 -6.153163 -12.982148 -1.792324 -5.287379 -1.247888
    25 0.136008 -8.458231 -0.052335 0.457508 0.005304 0.285368
    26 0.447953 -2.798986 -0.200443 -1.083117 -0.024754 0.321985
    27 -0.032909 -1.499736 0.028378 -1.405034 0.023334 -0.026879
    28 -0.027022 -1.115984 -0.028023 -0.967262 0.021752 -0.015208
    29 -0.249534 -2.846964 -0.174213 -0.927162 -0.009006 0.151859
    30 0.043235 -1.656596 0.072574 -1.315107 -0.020930 0.005777
    31 0.031729 -1.137392 0.051025 -1.375095 -0.015333 0.007761
    32 -0.963866 -2.785145 -0.085350 -0.990962 0.136737 -0.225412
    33 0.028479 -1.403067 -0.017167 -0.965983 -0.135474 0.127432
    34 0.021413 -0.942156 0.012233 -0.964428 -0.025335 -0.033641
    35 1.164475 -2.543940 -0.170330 -1.202163 -0.161088 0.388810
    36 0.024032 -1.140761 -0.005631 -0.986063 0.010594 0.051247
    37 0.014898 -0.903521 -0.015942 -1.028799 0.009660 0.051438
    38 -0.586770 -1.264477 0.200161 0.221925 -1.275425 -2.979253
    39 1.569711 0.035243 0.016848 -0.019647 -0.007086 0.922323
    40 1.114041 0.040611 -0.005766 -0.028766 -0.034354 1.035390
    41 -0.045646 -0.072634 0.010491 -0.011230 0.241184 1.355861
    42 -7.256930 4.624205 -0.419126 1.576525 -0.028081 -0.658883
  time 7
    0 6.479066 -4.949659 -4.523843 -4.707499 -6.267844 -1.568788
    1 5.535558 -1.455844 0.000000 0.000000 0.000000 -1.364276
    2 1.733054 1.075926 0.000000 -1.570795 -3.141592 0.000000
    3 3.221660 -1.673593 0.000000 -0.000002 0.000000 -1.705118
    4 1.696518 -2.696660 0.414694 0.000000 0.000000 0.000000
    5 6.227978 7.091389 -8.975818 5.139809 -1.466168 1.114346
    6 8.062075 0.176385 -0.384189 1.570243 -3.115322 0.099226
    7 -0.114891 -8.420609 -0.166636 -0.172178 -0.009320 -0.106016
    8 -0.488518 -2.755602 -0.228260 -0.979340 -0.113948 -0.305501
    9 0.047700 -1.534479 0.018135 -1.658243 -0.123753 0.207670
    10 0.028786 -1.126514 -0.105143 -0.742955 -0.013303 0.014298
    11 0.250027 -2.820665 -0.238396 -0.805142 -0.121532 -0.168378
    12 -0.057572 -1.598510 0.030164 -1.580137 -0.056699 0.100860
    13 -0.034142 -1.160031 0.053531 -0.902405 0.008281 -0.023154
    14 0.957766 -2.746780 -0.090302 0.020734 -0.102881 0.097095
    15 -0.033420 -1.397129 -0.026882 -0.836247 0.006651 -0.041132
    16 -0.022360 -0.957436 0.010971 -0.272886 0.005848 -0.012644
    17 -1.180681 -2.507217 -0.193859 -0.888172 -0.120370 -0.218688
    18 -0.024967 -1.127840 0.017597 -1.327008 0.102085 0.052302
    19 -0.020057 -0.902687 0.025715 -0.805420 0.007514 -0.032334
    20 0.583510 -1.208996 0.197098 -0.016291 -1.086293 -0.690834
    21 1.446081 -0.251481 -0.034055 -0.018832 0.116251 -0.910908
    22 1.049988 -0.167353 -0.034117 -0.069634 0.117099 -0.854838
    23 0.120153 -0.050270 -0.054489 0.287569 3.110905 1.561085
    24 -0.290301 -6.211758 -12.904021 -1.796049 -5.272918 -1.257034
    25 0.136008 -8.458231 -0.052335 0.453208 0.001782 0.272555
    26 0.447953 -2.798986 -0.200443 -1.083117 -0.024754 0.321985
    27 -0.032909 -1.499736 0.028378 -1.405034 0.023334 -0.026879
    28 -0.027022 -1.115984 -0.028023 -0.967262 0.021752 -0.015208
    29 -0.249534 -2.846964 -0.174213 -0.927162 -0.009006 0.151859
    30 0.043235 -1.656596 0.072574 -1.315107 -0.020930 0.005777
    31 0.031729 -1.137392 0.051025 -1.375095 -0.015333 0.007761
    32 -0.963866 -2.785145 -0.085350 -0.990962 0.136737 -0.225412
    33 0.028479 -1.403067 -0.017167 -0.965983 -0.135474 0.127432
    34 0.021413 -0.942156 0.012233 -0.964428 -0.025335 -0.033641
    35 1.164475 -2.543940 -0.170330 -1.202163 -0.161088 0.388810
    36 0.024032 -1.140761 -0.005631 -0.986063 0.010594 0.051247
    37 0.014898 -0.903521 -0.015942 -1.028799 0.009660 0.051438
    38 -0.586770 -1.264477 0.200161 0.221925 -1.275425 -2.979253
    39 1.569711 0.035243 0.016848 -0.019647 -0.007086 0.922323
    40 1.114041 0.040611 -0.005766 -0.028766 -0.034354 1.035390
    41 -0.045646 -0.072634 0.010491 -0.011230 0.241184 1.355861
    42 -7.128020 4.854681 -0.415220 1.577029 -0.027374 -0.691128
  time 8
    0 6.475159 -5.090289 -4.512124 -4.706061 -6.264489 -1.568155
    1 5.535558 -1.455844 0.000000 0.000000 0.000000 -1.364276
    2 1.733054 1.075926 0.000000 -1.570795 -3.141592 0.000000
    3 3.221660 -1.673593 0.000000 -0.000002 0.000000 -1.705118
    4 1.696518 -2.696660 0.414694 0.000000 0.000000 0.000000
    5 6.224072 6.958573 -8.975818 5.132531 -1.464740 1.121851
    6 8.069888 0.348265 -0.384189 1.569955 -3.115705 0.120548
    7 -0.114891 -8.420609 -0.166636 -0.171590 -0.010467 -0.110963
    8 -0.488518 -2.755602 -0.228260 -0.979340 -0.113948 -0.305501
    9 0.047700 -1.534479 0.018135 -1.658243 -0.123753 0.207670
    10 0.028786 -1.126514 -0.105143 -0.742955 -0.013303 0.014298
    11 0.250027 -2.820665 -0.238396 -0.805142 -0.121532 -0.168378
    12 -0.057572 -1.598510 0.030164 -1.580137 -0.056699 0.100860
    13 -0.034142 -1.160031 0.053531 -0.902405 0.008281 -0.023154
    14 0.957766 -2.746780 -0.090302 0.020734 -0.102881 0.097095
    15 -0.033420 -1.397129 -0.026882 -0.836247 0.006651 -0.041132
    16 -0.022360 -0.957436 0.010971 -0.272886 0.005848 -0.012644
    17 -1.180681 -2.507217 -0.193859 -0.888172 -0.120370 -0.218688
    18 -0.024967 -1.127840 0.017597 -1.327008 0.102085 0.052302
    19 -0.020057 -0.902687 0.025715 -0.805420 0.007514 -0.032334
    20 0.583510 -1.208996 0.197098 -0.016291 -1.086293 -0.690834
    21 1.446081 -0.251481 -0.034055 -0.018832 0.116251 -0.910908
    22 1.049988 -0.167353 -0.034117 -0.069634 0.117099 -0.854838
    23 0.120153 -0.050270 -0.054489 0.287569 3.110905 1.561085
    24 -0.274675 -6.266448 -12.829800 -1.799939 -5.259101 -1.265894
    25 0.136008 -8.462138 -0.048429 0.449333 -0.001579 0.260213
    26 0.447953 -2.798986 -0.200443 -1.083117 -0.024754 0.321985
    27 -0.032909 -1.499736 0.028378 -1.405034 0.023334 -0.026879
    28 -0.027022 -1.115984 -0.028023 -0.967262 0.021752 -0.015208
    29 -0.249534 -2.846964 -0.174213 -0.927162 -0.009006 0.151859
    30 0.043235 -1.656596 0.072574 -1.315107 -0.020930 0.005777
    31 0.031729 -1.137392 0.051025 -1.375095 -0.015333 0.007761
    32 -0.963866 -2.785145 -0.085350 -0.990962 0.136737 -0.225412
    33 0.028479 -1.403067 -0.017167 -0.965983 -0.135474 0.127432
    34 0.021413 -0.942156 0.012233 -0.964428 -0.025335 -0.033641
    35 1.164475 -2.543940 -0.170330 -1.202163 -0.161088 0.388810
    36 0.024032 -1.140761 -0.005631 -0.986063 0.010594 0.051247
    37 0.014898 -0.903521 -0.015942 -1.028799 0.009660 0.051438
    38 -0.586770 -1.264477 0.200161 0.221925 -1.275425 -2.979253
    39 1.569711 0.035243 0.016848 -0.019647 -0.007086 0.922323
    40 1.114041 0.040611 -0.005766 -0.028766 -0.034354 1.035390
    41 -0.045646 -0.072634 0.010491 -0.011230 0.241184 1.355861
    42 -6.999110 5.073437 -0.407407 1.577484 -0.026691 -0.722118
  time 9
    0 6.471253 -5.219199 -4.504311 -4.704718 -6.261420 -1.567580
    1 5.535558 -1.455844 0.000000 0.000000 0.000000 -1.364276
    2 1.733054 1.075926 0.000000 -1.570795 -3.141592 0.000000
    3 3.221660 -1.673593 0.000000 -0.000002 0.000000 -1.705118
    4 1.696518 -2.696660 0.414694 0.000000 0.000000 0.000000
    5 6.224072 6.837475 -8.971912 5.126785 -1.463636 1.127741
    6 8.077701 0.512333 -0.380282 1.569667 -3.115993 0.140461
    7 -0.110985 -8.420609 -0.166636 -0.171003 -0.011635 -0.115296
    8 -0.488518 -2.755602 -0.228260 -0.979340 -0.113948 -0.305501
    9 0.047700 -1.534479 0.018135 -1.658243 -0.123753 0.207670
    10 0.028786 -1.126514 -0.105143 -0.742955 -0.013303 0.014298
    11 0.250027 -2.820665 -0.238396 -0.805142 -0.121532 -0.168378
    12 -0.057572 -1.598510 0.030164 -1.580137 -0.056699 0.100860
    13 -0.034142 -1.160031 0.053531 -0.902405 0.008281 -0.023154
    14 0.957766 -2.746780 -0.090302 0.020734 -0.102881 0.097095
    15 -0.033420 -1.397129 -0.026882 -0.836247 0.006651 -0.041132
    16 -0.022360 -0.957436 0.010971 -0.272886 0.005848 -0.012644
    17 -1.180681 -2.507217 -0.193859 -0.888172 -0.120370 -0.218688
    18 -0.024967 -1.127840 0.017597 -1.327008 0.102085 0.052302
    19 -0.020057 -0.902687 0.025715 -0.805420 0.007514 -0.032334
    20 0.583510 -1.208996 0.197098 -0.016291 -1.086293 -0.690834
    21 1.446081 -0.251481 -0.034055 -0.018832 0.116251 -0.910908
    22 1.049988 -0.167353 -0.034117 -0.069634 0.117099 -0.854838
    23 0.120153 -0.050270 -0.054489 0.287569 3.110905 1.561085
    24 -0.262956 -6.313324 -12.755579 -1.803912 -5.246114 -1.274277
    25 0.136008 -8.462138 -0.048429 0.445847 -0.004746 0.248500
    26 0.447953 -2.798986 -0.200443 -1.083117 -0.024754 0.321985
    27 -0.032909 -1.499736 0.028378 -1.405034 0.023334 -0.026879
    28 -0.027022 -1.115984 -0.028023 -0.967262 0.021752 -0.015208
    29 -0.249534 -2.846964 -0.174213 -0.927162 -0.009006 0.151859
    30 0.043235 -1.656596 0.072574 -1.315107 -0.020930 0.005777
    31 0.031729 -1.137392 0.051025 -1.375095 -0.015333 0.007761
    32 -0.963866 -2.785145 -0.085350 -0.990962 0.136737 -0.225412
    33 0.028479 -1.403067 -0.017167 -0.965983 -0.135474 0.127432
    34 0.021413 -0.942156 0.012233 -0.964428 -0.025335 -0.033641
    35 1.164475 -2.543940 -0.170330 -1.202163 -0.161088 0.388810
    36 0.024032 -1.140761 -0.005631 -0.986063 0.010594 0.051247
    37 0.014898 -0.903521 -0.015942 -1.028799 0.009660 0.051438
    38 -0.586770 -1.264477 0.200161 0.221925 -1.275425 -2.979253
    39 1.569711 0.035243 0.016848 -0.019647 -0.007086 0.922323
    40 1.114041 0.040611 -0.005766 -0.028766 -0.034354 1.035390
    41 -0.045646 -0.072634 0.010491 -0.011230 0.241184 1.355861
    42 -6.866293 5.276568 -0.403501 1.577904 -0.026020 -0.751696
  time 10
    0 6.467347 -5.340296 -4.492592 -4.703376 -6.258736 -1.567063
    1 5.535558 -1.455844 0.000000 0.000000 0.000000 -1.364276
    2 1.733054 1.075926 0.000000 -1.570795 -3.141592 0.000000
    3 3.221660 -1.673593 0.000000 -0.000002 0.000000 -1.705118
    4 1.696518 -2.696660 0.414694 0.000000 0.000000 0.000000
    5 6.224072 6.728097 -8.964099 5.122092 -1.462727 1.132490
    6 8.081607 0.660775 -0.376376 1.569476 -3.116280 0.158871
    7 -0.110985 -8.420609 -0.166636 -0.170430 -0.012739 -0.119075
    8 -0.488518 -2.755602 -0.228260 -0.979340 -0.113948 -0.305501
    9 0.047700 -1.534479 0.018135 -1.658243 -0.123753 0.207670
    10 0.028786 -1.126514 -0.105143 -0.742955 -0.013303 0.014298
    11 0.250027 -2.820665 -0.238396 -0.805142 -0.121532 -0.168378
    12 -0.057572 -1.598510 0.030164 -1.580137 -0.056699 0.100860
    13 -0.034142 -1.160031 0.053531 -0.902405 0.008281 -0.023154
    14 0.957766 -2.746780 -0.090302 0.020734 -0.102881 0.097095
    15 -0.033420 -1.397129 -0.026882 -0.836247 0.006651 -0.041132
    16 -0.022360 -0.957436 0.010971 -0.272886 0.005848 -0.012644
    17 -1.180681 -2.507217 -0.193859 -0.888172 -0.120370 -0.218688
    18 -0.024967 -1.127840 0.017597 -1.327008 0.102085 0.052302
    19 -0.020057 -0.902687 0.025715 -0.805420 0.007514 -0.032334
    20 0.583510 -1.208996 0.197098 -0.016291 -1.086293 -0.690834
    21 1.446081 -0.251481 -0.034055 -0.018832 0.116251 -0.910908
    22 1.049988 -0.167353 -0.034117 -0.069634 0.117099 -0.854838
    23 0.120153 -0.050270 -0.054489 0.287569 3.110905 1.561085
    24 -0.251237 -6.360201 -12.685264 -1.807885 -5.234048 -1.282280
    25 0.136008 -8.466044 -0.048429 0.442670 -0.007654 0.237534
    26 0.447953 -2.798986 -0.200443 -1.083117 -0.024754 0.321985
    27 -0.032909 -1.499736 0.028378 -1.405034 0.023334 -0.026879
    28 -0.027022 -1.115984 -0.028023 -0.967262 0.021752 -0.015208
    29 -0.249534 -2.846964 -0.174213 -0.927162 -0.009006 0.151859
    30 0.043235 -1.656596 0.072574 -1.315107 -0.020930 0.005777
    31 0.031729 -1.137392 0.051025 -1.375095 -0.015333 0.007761
    32 -0.963866 -2.785145 -0.085350 -0.990962 0.136737 -0.225412
    33 0.028479 -1.403067 -0.017167 -0.965983 -0.135474 0.127432
    34 0.021413 -0.942156 0.012233 -0.964428 -0.025335 -0.033641
    35 1.164475 -2.543940 -0.170330 -1.202163 -0.161088 0.388810
    36 0.024032 -1.140761 -0.005631 -0.986063 0.010594 0.051247
    37 0.014898 -0.903521 -0.015942 -1.028799 0.009660 0.051438
    38 -0.586770 -1.264477 0.200161 0.221925 -1.275425 -2.979253
    39 1.569711 0.035243 0.016848 -0.019647 -0.007086 0.922323
    40 1.114041 0.040611 -0.005766 -0.028766 -0.034354 1.035390
    41 -0.045646 -0.072634 0.010491 -0.011230 0.241184 1.355861
    42 -6.737383 5.467981 -0.399594 1.578287 -0.025373 -0.779704
  time 11
    0 6.463440 -5.445768 -4.480873 -4.702226 -6.256435 -1.566545
    1 5.535558 -1.455844 0.000000 0.000000 0.000000 -1.364276
    2 1.733054 1.075926 0.000000 -1.570795 -3.141592 0.000000
    3 3.221660 -1.673593 0.000000 -0.000002 0.000000 -1.705118
    4 1.696518 -2.696660 0.414694 0.000000 0.000000 0.000000
    5 6.220165 6.626531 -8.960193 5.118070 -1.461883 1.136670
    6 8.081607 0.797498 -0.376376 1.569188 -3.116568 0.175591
    7 -0.110985 -8.420609 -0.166636 -0.169920 -0.013755 -0.122333
    8 -0.488518 -2.755602 -0.228260 -0.979340 -0.113948 -0.305501
    9 0.047700 -1.534479 0.018135 -1.658243 -0.123753 0.207670
    10 0.028786 -1.126514 -0.105143 -0.742955 -0.013303 0.014298
    11 0.250027 -2.820665 -0.238396 -0.805142 -0.121532 -0.168378
    12 -0.057572 -1.598510 0.030164 -1.580137 -0.056699 0.100860
    13 -0.034142 -1.160031 0.053531 -0.902405 0.008281 -0.023154
    14 0.957766 -2.746780 -0.090302 0.020734 -0.102881 0.097095
    15 -0.033420 -1.397129 -0.026882 -0.836247 0.006651 -0.041132
    16 -0.022360 -0.957436 0.010971 -0.272886 0.005848 -0.012644
    17 -1.180681 -2.507217 -0.193859 -0.888172 -0.120370 -0.218688
    18 -0.024967 -1.127840 0.017597 -1.327008 0.102085 0.052302
    19 -0.020057 -0.902687 0.025715 -0.805420 0.007514 -0.032334
    20 0.583510 -1.208996 0.197098 -0.016291 -1.086293 -0.690834
    21 1.446081 -0.251481 -0.034055 -0.018832 0.116251 -0.910908
    22 1.049988 -0.167353 -0.034117 -0.069634 0.117099 -0.854838
    23 0.120153 -0.050270 -0.054489 0.287569 3.110905 1.561085
    24 -0.239518 -6.403171 -12.618856 -1.811775 -5.222994 -1.289806
    25 0.136008 -8.466044 -0.048429 0.439842 -0.010207 0.227354
    26 0.447953 -2.798986 -0.200443 -1.083117 -0.024754 0.321985
    27 -0.032909 -1.499736 0.028378 -1.405034 0.023334 -0.026879
    28 -0.027022 -1.115984 -0.028023 -0.967262 0.021752 -0.015208
    29 -0.249534 -2.846964 -0.174213 -0.927162 -0.009006 0.151859
    30 0.043235 -1.656596 0.072574 -1.315107 -0.020930 0.005777
    31 0.031729 -1.137392 0.051025 -1.375095 -0.015333 0.007761
    32 -0.963866 -2.785145 -0.085350 -0.990962 0.136737 -0.225412
    33 0.028479 -1.403067 -0.017167 -0.965983 -0.135474 0.127432
    34 0.021413 -0.942156 0.012233 -0.964428 -0.025335 -0.033641
    35 1.164475 -2.543940 -0.170330 -1.202163 -0.161088 0.388810
    36 0.024032 -1.140761 -0.005631 -0.986063 0.010594 0.051247
    37 0.014898 -0.903521 -0.015942 -1.028799 0.009660 0.051438
    38 -0.586770 -1.264477 0.200161 0.221925 -1.275425 -2.979253
    39 1.569711 0.035243 0.016848 -0.019647 -0.007086 0.922323
    40 1.114041 0.040611 -0.005766 -0.028766 -0.034354 1.035390
    41 -0.045646 -0.072634 0.010491 -0.011230 0.241184 1.355861
    42 -6.608473 5.643767 -0.395688 1.578623 -0.024762 -0.805987
  time 12
    0 6.463440 -5.543428 -4.469154 -4.701171 -6.254517 -1.566086
    1 5.535558 -1.455844 0.000000 0.000000 0.000000 -1.364276
    2 1.733054 1.075926 0.000000 -1.570795 -3.141592 0.000000
    3 3.221660 -1.673593 0.000000 -0.000002 0.000000 -1.705118
    4 1.696518 -2.696660 0.414694 0.000000 0.000000 0.000000
    5 6.220165 6.536685 -8.952380 5.114335 -1.461104 1.140470
    6 8.077701 0.918595 -0.372470 1.568996 -3.116856 0.190620
    7 -0.110985 -8.416703 -0.166636 -0.169472 -0.014643 -0.125129
    8 -0.488518 -2.755602 -0.228260 -0.979340 -0.113948 -0.305501
    9 0.047700 -1.534479 0.018135 -1.658243 -0.123753 0.207670
    10 0.028786 -1.126514 -0.105143 -0.742955 -0.013303 0.014298
    11 0.250027 -2.820665 -0.238396 -0.805142 -0.121532 -0.168378
    12 -0.057572 -1.598510 0.030164 -1.580137 -0.056699 0.100860
    13 -0.034142 -1.160031 0.053531 -0.902405 0.008281 -0.023154
    14 0.957766 -2.746780 -0.090302 0.020734 -0.102881 0.097095
    15 -0.033420 -1.397129 -0.026882 -0.836247 0.006651 -0.041132
    16 -0.022360 -0.957436 0.010971 -0.272886 0.005848 -0.012644
    17 -1.180681 -2.507217 -0.193859 -0.888172 -0.120370 -0.218688
    18 -0.024967 -1.127840 0.017597 -1.327008 0.102085 0.052302
    19 -0.020057 -0.902687 0.025715 -0.805420 0.007514 -0.032334
    20 0.583510 -1.208996 0.197098 -0.016291 -1.086293 -0.690834
    21 1.446081 -0.251481 -0.034055 -0.018832 0.116251 -0.910908
    22 1.049988 -0.167353 -0.034117 -0.069634 0.117099 -0.854838
    23 0.120153 -0.050270 -0.054489 0.287569 3.110905 1.561085
    24 -0.227799 -6.442234 -12.552448 -1.815417 -5.213139 -1.296666
    25 0.136008 -8.469950 -0.048429 0.437246 -0.012372 0.218157
    26 0.447953 -2.798986 -0.200443 -1.083117 -0.024754 0.321985
    27 -0.032909 -1.499736 0.028378 -1.405034 0.023334 -0.026879
    28 -0.027022 -1.115984 -0.028023 -0.967262 0.021752 -0.015208
    29 -0.249534 -2.846964 -0.174213 -0.927162 -0.009006 0.151859
    30 0.043235 -1.656596 0.072574 -1.315107 -0.020930 0.005777
    31 0.031729 -1.137392 0.051025 -1.375095 -0.015333 0.007761
    32 -0.963866 -2.785145 -0.085350 -0.990962 0.136737 -0.225412
    33 0.028479 -1.403067 -0.017167 -0.965983 -0.135474 0.127432
    34 0.021413 -0.942156 0.012233 -0.964428 -0.025335 -0.033641
    35 1.164475 -2.543940 -0.170330 -1.202163 -0.161088 0.388822
    36 0.024032 -1.140761 -0.005631 -0.986063 0.010594 0.051247
    37 0.014898 -0.903521 -0.015942 -1.028799 0.009660 0.051438
    38 -0.586770 -1.264477 0.200161 0.221925 -1.275425 -2.979253
    39 1.569711 0.035243 0.016848 -0.019647 -0.007086 0.922323
    40 1.114041 0.040611 -0.005766 -0.028766 -0.034354 1.035390
    41 -0.045646 -0.072634 0.010491 -0.011230 0.241184 1.355861
    42 -6.487375 5.803928 -0.391781 1.578922 -0.024186 -0.830308
  time 13
    0 6.459534 -5.629368 -4.457435 -4.700404 -6.253175 -1.565741
    1 5.535558 -1.455844 0.000000 0.000000 0.000000 -1.364276
    2 1.733054 1.075926 0.000000 -1.570795 -3.141592 0.000000
    3 3.221660 -1.673593 0.000000 -0.000002 0.000000 -1.705118
    4 1.696518 -2.696660 0.414694 0.000000 0.000000 0.000000
    5 6.220165 6.454651 -8.944567 5.110601 -1.460260 1.144270
    6 8.073794 1.024067 -0.372470 1.568901 -3.117143 0.203770
    7 -0.110985 -8.416703 -0.166636 -0.169116 -0.015313 -0.127495
    8 -0.488518 -2.755602 -0.228260 -0.979340 -0.113948 -0.305501
    9 0.047700 -1.534479 0.018135 -1.658243 -0.123753 0.207670
    10 0.028786 -1.126514 -0.105143 -0.742955 -0.013303 0.014298
    11 0.250027 -2.820665 -0.238396 -0.805142 -0.121532 -0.168378
    12 -0.057572 -1.598510 0.030164 -1.580137 -0.056699 0.100860
    13 -0.034142 -1.160031 0.053531 -0.902405 0.008281 -0.023154
    14 0.957766 -2.746780 -0.090302 0.020734 -0.102881 0.097095
    15 -0.033420 -1.397129 -0.026882 -0.836247 0.006651 -0.041132
    16 -0.022360 -0.957436 0.010971 -0.272886 0.005848 -0.012644
    17 -1.180681 -2.507217 -0.193859 -0.888172 -0.120370 -0.218688
    18 -0.024967 -1.127840 0.017597 -1.327008 0.102085 0.052302
    19 -0.020057 -0.902687 0.025715 -0.805420 0.007514 -0.032334
    20 0.583510 -1.208996 0.197098 -0.016291 -1.086293 -0.690834
    21 1.446081 -0.251481 -0.034055 -0.018832 0.116251 -0.910908
    22 1.049988 -0.167353 -0.034117 -0.069634 0.117099 -0.854838
    23 0.120153 -0.050270 -0.054489 0.287569 3.110905 1.561085
    24 -0.219986 -6.477392 -12.489946 -1.818728 -5.204573 -1.302858
    25 0.136008 -8.469950 -0.048429 0.434921 -0.014085 0.210021
    26 0.447953 -2.798986 -0.200443 -1.083117 -0.024754 0.321985
    27 -0.032909 -1.499736 0.028378 -1.405034 0.023334 -0.026879
    28 -0.027022 -1.115984 -0.028023 -0.967262 0.021752 -0.015208
    29 -0.249534 -2.846964 -0.174213 -0.927162 -0.009006 0.151859
    30 0.043235 -1.656596 0.072574 -1.315107 -0.020930 0.005777
    31 0.031729 -1.137392 0.051025 -1.375095 -0.015333 0.007761
    32 -0.963866 -2.785145 -0.085350 -0.990962 0.136737 -0.225412
    33 0.028479 -1.403067 -0.017167 -0.965983 -0.135474 0.127432
    34 0.021413 -0.942156 0.012233 -0.964428 -0.025335 -0.033641
    35 1.164475 -2.543940 -0.170330 -1.202163 -0.161088 0.388810
    36 0.024032 -1.140761 -0.005631 -0.986063 0.010594 0.051247
    37 0.014898 -0.903521 -0.015942 -1.028799 0.009660 0.051438
    38 -0.586770 -1.264477 0.200161 0.221925 -1.275425 -2.979253
    39 1.569711 0.035243 0.016848 -0.019647 -0.007086 0.922323
    40 1.114041 0.040611 -0.005766 -0.028766 -0.034354 1.035390
    41 -0.045646 -0.072634 0.010491 -0.011230 0.241184 1.355861
    42 -6.374091 5.944558 -0.387875 1.579186 -0.023647 -0.852511
  time 14
    0 6.459534 -5.699682 -4.441809 -4.699925 -6.252312 -1.565568
    1 5.535558 -1.455844 0.000000 0.000000 0.000000 -1.364276
    2 1.733054 1.075926 0.000000 -1.570795 -3.141592 0.000000
    3 3.221660 -1.673593 0.000000 -0.000002 0.000000 -1.705118
    4 1.696518 -2.696660 0.414694 0.000000 0.000000 0.000000
    5 6.220165 6.388243 -8.936754 5.106578 -1.459286 1.148355
    6 8.069888 1.117820 -0.372470 1.568709 -3.117335 0.214947
    7 -0.110985 -8.416703 -0.166636 -0.168900 -0.015746 -0.129461
    8 -0.488518 -2.755602 -0.228260 -0.979340 -0.113948 -0.305501
    9 0.047700 -1.534479 0.018135 -1.658243 -0.123753 0.207670
    10 0.028786 -1.126514 -0.105143 -0.742955 -0.013303 0.014298
    11 0.250027 -2.820665 -0.238396 -0.805142 -0.121532 -0.168378
    12 -0.057572 -1.598510 0.030164 -1.580137 -0.056699 0.100860
    13 -0.034142 -1.160031 0.053531 -0.902405 0.008281 -0.023154
    14 0.957766 -2.746780 -0.090302 0.020734 -0.102881 0.097095
    15 -0.033420 -1.397129 -0.026882 -0.836247 0.006651 -0.041132
    16 -0.022360 -0.957436 0.010971 -0.272886 0.005848 -0.012644
    17 -1.180681 -2.507217 -0.193859 -0.888172 -0.120370 -0.218688
    18 -0.024967 -1.127840 0.017597 -1.327008 0.102085 0.052302
    19 -0.020057 -0.902687 0.025715 -0.805420 0.007514 -0.032334
    20 0.583510 -1.208996 0.197098 -0.016291 -1.086293 -0.690834
    21 1.446081 -0.251481 -0.034055 -0.018832 0.116251 -0.910908
    22 1.049988 -0.167353 -0.034117 -0.069634 0.117099 -0.854838
    23 0.120153 -0.050270 -0.054489 0.287569 3.110905 1.561085
    24 -0.208267 -6.512549 -12.431350 -1.821459 -5.197480 -1.308288
    25 0.136008 -8.469950 -0.048429 0.432829 -0.015280 0.203064
    26 0.447953 -2.798986 -0.200443 -1.083117 -0.024754 0.321985
    27 -0.032909 -1.499736 0.028378 -1.405034 0.023334 -0.026879
    28 -0.027022 -1.115984 -0.028023 -0.967262 0.021752 -0.015208
    29 -0.249534 -2.846964 -0.174213 -0.927162 -0.009006 0.151859
    30 0.043235 -1.656596 0.072574 -1.315107 -0.020930 0.005777
    31 0.031729 -1.137392 0.051025 -1.375095 -0.015333 0.007761
    32 -0.963866 -2.785145 -0.085350 -0.990962 0.136737 -0.225412
    33 0.028479 -1.403067 -0.017167 -0.965983 -0.135474 0.127432
    34 0.021413 -0.942156 0.012233 -0.964428 -0.025335 -0.033641
    35 1.164475 -2.543940 -0.170330 -1.202163 -0.161088 0.388810
    36 0.024032 -1.140761 -0.005631 -0.986063 0.010594 0.051247
    37 0.014898 -0.903521 -0.015942 -1.028799 0.009660 0.051438
    38 -0.586770 -1.264477 0.200161 0.221925 -1.275425 -2.979253
    39 1.569711 0.035243 0.016848 -0.019647 -0.007086 0.922323
    40 1.114041 0.040611 -0.005766 -0.028766 -0.034354 1.035390
    41 -0.045646 -0.072634 0.010491 -0.011230 0.241184 1.355861
    42 -6.268619 6.069561 -0.383969 1.579414 -0.023168 -0.872360
  time 15
    0 6.459534 -5.758278 -4.422277 -4.699733 -6.251929 -1.565453
    1 5.535558 -1.455844 0.000000 0.000000 0.000000 -1.364276
    2 1.733054 1.075926 0.000000 -1.570795 -3.141592 0.000000
    3 3.221660 -1.673593 0.000000 -0.000002 0.000000 -1.705118
    4 1.696518 -2.696660 0.414694 0.000000 0.000000 0.000000
    5 6.220165 6.325741 -8.925035 5.102078 -1.458052 1.152820
    6 8.065982 1.192041 -0.368563 1.568613 -3.117431 0.224059
    7 -0.110985 -8.416703 -0.166636 -0.168822 -0.015919 -0.131090
    8 -0.488518 -2.755602 -0.228260 -0.979340 -0.113948 -0.305501
    9 0.047700 -1.534479 0.018135 -1.658243 -0.123753 0.207670
    10 0.028786 -1.126514 -0.105143 -0.742955 -0.013303 0.014298
    11 0.250027 -2.820665 -0.238396 -0.805142 -0.121532 -0.168378
    12 -0.057572 -1.598510 0.030164 -1.580137 -0.056699 0.100860
    13 -0.034142 -1.160031 0.053531 -0.902405 0.008281 -0.023154
    14 0.957766 -2.746780 -0.090302 0.020734 -0.102881 0.097095
    15 -0.033420 -1.397129 -0.026882 -0.836247 0.006651 -0.041132
    16 -0.022360 -0.957436 0.010971 -0.272886 0.005848 -0.012644
    17 -1.180681 -2.507217 -0.193859 -0.888172 -0.120370 -0.218688
    18 -0.024967 -1.127840 0.017597 -1.327008 0.102085 0.052302
    19 -0.020057 -0.902687 0.025715 -0.805420 0.007514 -0.032334
    20 0.583510 -1.208996 0.197098 -0.016291 -1.086293 -0.690834
    21 1.446081 -0.251481 -0.034055 -0.018832 0.116251 -0.910908
    22 1.049988 -0.167353 -0.034117 -0.069634 0.117099 -0.854838
    23 0.120153 -0.050270 -0.054489 0.287569 3.110905 1.561085
    24 -0.200454 -6.539894 -12.372755 -1.823694 -5.192046 -1.312671
    25 0.136008 -8.469950 -0.048429 0.430931 -0.015830 0.197443
    26 0.447953 -2.798986 -0.200443 -1.083117 -0.024754 0.321985
    27 -0.032909 -1.499736 0.028378 -1.405034 0.023334 -0.026879
    28 -0.027022 -1.115984 -0.028023 -0.967262 0.021752 -0.015208
    29 -0.249534 -2.846964 -0.174213 -0.927162 -0.009006 0.151859
    30 0.043235 -1.656596 0.072574 -1.315107 -0.020930 0.005777
    31 0.031729 -1.137392 0.051025 -1.375095 -0.015333 0.007761
    32 -0.963866 -2.785145 -0.085350 -0.990962 0.136737 -0.225412
    33 0.028479 -1.403067 -0.017167 -0.965983 -0.135474 0.127432
    34 0.021413 -0.942156 0.012233 -0.964428 -0.025335 -0.033641
    35 1.164475 -2.543940 -0.170330 -1.202163 -0.161088 0.388810
    36 0.024032 -1.140761 -0.005631 -0.986063 0.010594 0.051247
    37 0.014898 -0.903521 -0.015942 -1.028799 0.009660 0.051438
    38 -0.586770 -1.264477 0.200161 0.221925 -1.275425 -2.979253
    39 1.569711 0.035243 0.016848 -0.019647 -0.007086 0.922323
    40 1.114041 0.040611 -0.005766 -0.028766 -0.034354 1.035390
    41 -0.045646 -0.072634 0.010491 -0.011230 0.241184 1.355861
    42 -6.174866 6.178940 -0.380062 1.579594 -0.022748 -0.889699
  time 16
    0 6.459534 -5.812967 -4.394933 -4.699925 -6.252600 -1.565568
    1 5.535558 -1.455844 0.000000 0.000000 0.000000 -1.364276
    2 1.733054 1.075926 0.000000 -1.570795 -3.141592 0.000000
    3 3.221660 -1.673593 0.000000 -0.000002 0.000000 -1.705118
    4 1.696518 -2.696660 0.414694 0.000000 0.000000 0.000000
    5 6.220165 6.271052 -8.917222 5.095182 -1.456105 1.159754
    6 8.062075 1.254543 -0.368563 1.568517 -3.117623 0.232137
    7 -0.110985 -8.416703 -0.166636 -0.168946 -0.015724 -0.132626
    8 -0.488518 -2.755602 -0.228260 -0.979340 -0.113948 -0.305501
    9 0.047700 -1.534479 0.018135 -1.658243 -0.123753 0.207670
    10 0.028786 -1.126514 -0.105143 -0.742955 -0.013303 0.014298
    11 0.250027 -2.820665 -0.238396 -0.805142 -0.121532 -0.168378
    12 -0.057572 -1.598510 0.030164 -1.580137 -0.056699 0.100860
    13 -0.034142 -1.160031 0.053531 -0.902405 0.008281 -0.023154
    14 0.957766 -2.746780 -0.090302 0.020734 -0.102881 0.097095
    15 -0.033420 -1.397129 -0.026882 -0.836247 0.006651 -0.041132
    16 -0.022360 -0.957436 0.010971 -0.272886 0.005848 -0.012644
    17 -1.180681 -2.507217 -0.193859 -0.888172 -0.120370 -0.218688
    18 -0.024967 -1.127840 0.017597 -1.327008 0.102085 0.052302
    19 -0.020057 -0.902687 0.025715 -0.805420 0.007514 -0.032334
    20 0.583510 -1.208996 0.197098 -0.016291 -1.086293 -0.690834
    21 1.446081 -0.251481 -0.034055 -0.018832 0.116251 -0.910908
    22 1.049988 -0.167353 -0.034117 -0.069634 0.117099 -0.854838
    23 0.120153 -0.050270 -0.054489 0.287569 3.110905 1.561085
    24 -0.192641 -6.571144 -12.306346 -1.825183 -5.187809 -1.316577
    25 0.136008 -8.473857 -0.048429 0.428916 -0.015636 0.192569
    26 0.447953 -2.798986 -0.200443 -1.083117 -0.024754 0.321985
    27 -0.032909 -1.499736 0.028378 -1.405034 0.023334 -0.026879
    28 -0.027022 -1.115984 -0.028023 -0.967262 0.021752 -0.015208
    29 -0.249534 -2.846964 -0.174213 -0.927162 -0.009006 0.151859
    30 0.043235 -1.656596 0.072574 -1.315107 -0.020930 0.005777
    31 0.031729 -1.137392 0.051025 -1.375095 -0.015333 0.007761
    32 -0.963866 -2.785145 -0.085350 -0.990962 0.136737 -0.225412
    33 0.028479 -1.403067 -0.017167 -0.965983 -0.135474 0.127432
    34 0.021413 -0.942156 0.012233 -0.964428 -0.025335 -0.033641
    35 1.164475 -2.543940 -0.170330 -1.202163 -0.161088 0.388810
    36 0.024032 -1.140761 -0.005631 -0.986063 0.010594 0.051247
    37 0.014898 -0.903521 -0.015942 -1.028799 0.009660 0.051438
    38 -0.586770 -1.264477 0.200161 0.221925 -1.275425 -2.979253
    39 1.569711 0.035243 0.016848 -0.019647 -0.007086 0.922323
    40 1.114041 0.040611 -0.005766 -0.028766 -0.034354 1.035390
    41 -0.045646 -0.072634 0.010491 -0.011230 0.241184 1.355861
    42 -6.077207 6.284412 -0.376156 1.579773 -0.022317 -0.907116
  time 17
    0 6.459534 -5.844218 -4.359775 -4.700596 -6.254230 -1.565856
    1 5.535558 -1.455844 0.000000 0.000000 0.000000 -1.364276
    2 1.733054 1.075926 0.000000 -1.570795 -3.141592 0.000000
    3 3.221660 -1.673593 0.000000 -0.000002 0.000000 -1.705118
    4 1.696518 -2.696660 0.414694 0.000000 0.000000 0.000000
    5 6.216259 6.228082 -8.909410 5.086659 -1.453443 1.168304
    6 8.062075 1.293607 -0.368563 1.568517 -3.117719 0.236739
    7 -0.110985 -8.416703 -0.166636 -0.169255 -0.015162 -0.133794
    8 -0.488518 -2.755602 -0.228260 -0.979340 -0.113948 -0.305501
    9 0.047700 -1.534479 0.018135 -1.658243 -0.123753 0.207670
    10 0.028786 -1.126514 -0.105143 -0.742955 -0.013303 0.014298
    11 0.250027 -2.820665 -0.238396 -0.805142 -0.121532 -0.168378
    12 -0.057572 -1.598510 0.030164 -1.580137 -0.056699 0.100860
    13 -0.034142 -1.160031 0.053531 -0.902405 0.008281 -0.023154
    14 0.957766 -2.746780 -0.090302 0.020734 -0.102881 0.097095
    15 -0.033420 -1.397129 -0.026882 -0.836247 0.006651 -0.041132
    16 -0.022360 -0.957436 0.010971 -0.272886 0.005848 -0.012644
    17 -1.180681 -2.507217 -0.193859 -0.888172 -0.120370 -0.218688
    18 -0.024967 -1.127840 0.017597 -1.327008 0.102085 0.052302
    19 -0.020057 -0.902687 0.025715 -0.805420 0.007514 -0.032334
    20 0.583510 -1.208996 0.197098 -0.016291 -1.086293 -0.690834
    21 1.446081 -0.251481 -0.034055 -0.018832 0.116251 -0.910908
    22 1.049988 -0.167353 -0.034117 -0.069634 0.117099 -0.854838
    23 0.120153 -0.050270 -0.054489 0.287569 3.110905 1.561085
    24 -0.184829 -6.598489 -12.243844 -1.825349 -5.186427 -1.318768
    25 0.136008 -8.473857 -0.048429 0.427134 -0.014505 0.189857
    26 0.447953 -2.798986 -0.200443 -1.083117 -0.024754 0.321985
    27 -0.032909 -1.499736 0.028378 -1.405034 0.023334 -0.026879
    28 -0.027022 -1.115984 -0.028023 -0.967262 0.021752 -0.015208
    29 -0.249534 -2.846964 -0.174213 -0.927162 -0.009006 0.151859
    30 0.043235 -1.656596 0.072574 -1.315107 -0.020930 0.005777
    31 0.031729 -1.137392 0.051025 -1.375095 -0.015333 0.007761
    32 -0.963866 -2.785145 -0.085350 -0.990962 0.136737 -0.225412
    33 0.028479 -1.403067 -0.017167 -0.965983 -0.135474 0.127432
    34 0.021413 -0.942156 0.012233 -0.964428 -0.025335 -0.033641
    35 1.164475 -2.543940 -0.170330 -1.202163 -0.161088 0.388810
    36 0.024032 -1.140761 -0.005631 -0.986063 0.010594 0.051247
    37 0.014898 -0.903521 -0.015942 -1.028799 0.009660 0.051438
    38 -0.586770 -1.264477 0.200161 0.221925 -1.275425 -2.979253
    39 1.569711 0.035243 0.016848 -0.019647 -0.007086 0.922323
    40 1.114041 0.040611 -0.005766 -0.028766 -0.034354 1.035390
    41 -0.045646 -0.072634 0.010491 -0.011230 0.241184 1.355861
    42 -6.002986 6.366445 -0.372250 1.579917 -0.021981 -0.920453
  time 18
    0 6.463440 -5.859843 -4.320712 -4.701650 -6.256627 -1.566315
    1 5.535558 -1.455844 0.000000 0.000000 0.000000 -1.364276
    2 1.733054 1.075926 0.000000 -1.570795 -3.141592 0.000000
    3 3.221660 -1.673593 0.000000 -0.000002 0.000000 -1.705118
    4 1.696518 -2.696660 0.414694 0.000000 0.000000 0.000000
    5 6.216259 6.200737 -8.905503 5.077083 -1.450326 1.177898
    6 8.058169 1.305326 -0.368563 1.568421 -3.117719 0.238336
    7 -0.110985 -8.416703 -0.166636 -0.169719 -0.014340 -0.134654
    8 -0.488518 -2.755602 -0.228260 -0.979340 -0.113948 -0.305501
    9 0.047700 -1.534479 0.018135 -1.658243 -0.123753 0.207670
    10 0.028786 -1.126514 -0.105143 -0.742955 -0.013303 0.014298
    11 0.250027 -2.820665 -0.238396 -0.805142 -0.121532 -0.168378
    12 -0.057572 -1.598510 0.030164 -1.580137 -0.056699 0.100860
    13 -0.034142 -1.160031 0.053531 -0.902405 0.008281 -0.023154
    14 0.957766 -2.746780 -0.090302 0.020734 -0.102881 0.097095
    15 -0.033420 -1.397129 -0.026882 -0.836247 0.006651 -0.041132
    16 -0.022360 -0.957436 0.010971 -0.272886 0.005848 -0.012644
    17 -1.180681 -2.507217 -0.193859 -0.888172 -0.120370 -0.218688
    18 -0.024967 -1.127840 0.017597 -1.327008 0.102085 0.052302
    19 -0.020057 -0.902687 0.025715 -0.805420 0.007514 -0.032334
    20 0.583510 -1.208996 0.197098 -0.016291 -1.086314 -0.690834
    21 1.446081 -0.251481 -0.034055 -0.018832 0.116251 -0.910908
    22 1.049988 -0.167353 -0.034117 -0.069634 0.117099 -0.854838
    23 0.120153 -0.050270 -0.054489 0.287569 3.110905 1.561085
    24 -0.177016 -6.618021 -12.189155 -1.824439 -5.187348 -1.319435
    25 0.136008 -8.473857 -0.048429 0.425585 -0.012631 0.189032
    26 0.447953 -2.798986 -0.200443 -1.083117 -0.024754 0.321985
    27 -0.032909 -1.499736 0.028378 -1.405034 0.023334 -0.026879
    28 -0.027022 -1.115984 -0.028023 -0.967262 0.021752 -0.015208
    29 -0.249534 -2.846964 -0.174213 -0.927162 -0.009006 0.151859
    30 0.043235 -1.656596 0.072574 -1.315107 -0.020930 0.005777
    31 0.031729 -1.137392 0.051025 -1.375095 -0.015333 0.007761
    32 -0.963866 -2.785145 -0.085350 -0.990962 0.136737 -0.225412
    33 0.028479 -1.403067 -0.017167 -0.965983 -0.135474 0.127432
    34 0.021413 -0.942156 0.012233 -0.964428 -0.025335 -0.033641
    35 1.164475 -2.543940 -0.170330 -1.202163 -0.161088 0.388822
    36 0.024032 -1.140761 -0.005631 -0.986063 0.010594 0.051247
    37 0.014898 -0.903521 -0.015942 -1.028799 0.009660 0.051438
    38 -0.586770 -1.264477 0.200161 0.221925 -1.275425 -2.979253
    39 1.569711 0.035243 0.016848 -0.019647 -0.007086 0.922323
    40 1.114041 0.040611 -0.005766 -0.028766 -0.034354 1.035390
    41 -0.045646 -0.072634 0.010491 -0.011230 0.241184 1.355861
    42 -5.948297 6.425041 -0.372250 1.580001 -0.021742 -0.930103
  time 19
    0 6.467347 -5.863750 -4.281648 -4.702897 -6.259695 -1.566833
    1 5.535558 -1.455844 0.000000 0.000000 0.000000 -1.364276
    2 1.733054 1.075926 0.000000 -1.570795 -3.141592 0.000000
    3 3.221660 -1.673593 0.000000 -0.000002 0.000000 -1.705118
    4 1.696518 -2.696660 0.414694 0.000000 0.000000 0.000000
    5 6.216259 6.185112 -8.897691 5.067028 -1.446820 1.187968
    6 8.058169 1.301419 -0.368563 1.568517 -3.117719 0.237491
    7 -0.110985 -8.416703 -0.166636 -0.170307 -0.013279 -0.135269
    8 -0.488518 -2.755602 -0.228260 -0.979340 -0.113948 -0.305501
    9 0.047700 -1.534479 0.018135 -1.658243 -0.123753 0.207670
    10 0.028786 -1.126514 -0.105143 -0.742955 -0.013303 0.014298
    11 0.250027 -2.820665 -0.238396 -0.805142 -0.121532 -0.168378
    12 -0.057572 -1.598510 0.030164 -1.580137 -0.056699 0.100860
    13 -0.034142 -1.160031 0.053531 -0.902405 0.008281 -0.023154
    14 0.957766 -2.746780 -0.090302 0.020734 -0.102881 0.097095
    15 -0.033420 -1.397129 -0.026882 -0.836247 0.006651 -0.041132
    16 -0.022360 -0.957436 0.010971 -0.272886 0.005848 -0.012644
    17 -1.180681 -2.507217 -0.193859 -0.888172 -0.120370 -0.218688
    18 -0.024967 -1.127840 0.017597 -1.327008 0.102085 0.052302
    19 -0.020057 -0.902687 0.025715 -0.805420 0.007514 -0.032334
    20 0.583510 -1.208996 0.197098 -0.016291 -1.086293 -0.690834
    21 1.446081 -0.251481 -0.034055 -0.018832 0.116251 -0.910908
    22 1.049988 -0.167353 -0.034117 -0.069634 0.117099 -0.854838
    23 0.120153 -0.050270 -0.054489 0.287569 3.110905 1.561085
    24 -0.169203 -6.637553 -12.138372 -1.822535 -5.190204 -1.318768
    25 0.136008 -8.473857 -0.048429 0.424306 -0.010142 0.189779
    26 0.447953 -2.798986 -0.200443 -1.083117 -0.024754 0.321985
    27 -0.032909 -1.499736 0.028378 -1.405034 0.023334 -0.026879
    28 -0.027022 -1.115984 -0.028023 -0.967262 0.021752 -0.015208
    29 -0.249534 -2.846964 -0.174213 -0.927162 -0.009006 0.151859
    30 0.043235 -1.656596 0.072574 -1.315107 -0.020930 0.005777
    31 0.031729 -1.137392 0.051025 -1.375095 -0.015333 0.007761
    32 -0.963866 -2.785145 -0.085350 -0.990962 0.136737 -0.225412
    33 0.028479 -1.403067 -0.017167 -0.965983 -0.135474 0.127432
    34 0.021413 -0.942156 0.012233 -0.964428 -0.025335 -0.033641
    35 1.164475 -2.543940 -0.170330 -1.202163 -0.161088 0.388810
    36 0.024032 -1.140761 -0.005631 -0.986063 0.010594 0.051247
    37 0.014898 -0.903521 -0.015942 -1.028799 0.009660 0.051438
    38 -0.586770 -1.264477 0.200161 0.221925 -1.275425 -2.979253
    39 1.569711 0.035243 0.016848 -0.019647 -0.007086 0.922323
    40 1.114041 0.040611 -0.005766 -0.028766 -0.034354 1.035390
    41 -0.045646 -0.072634 0.010491 -0.011230 0.241184 1.355861
    42 -5.913139 6.460198 -0.372250 1.580073 -0.021586 -0.936537
  time 20
    0 6.471253 -5.852031 -4.238678 -4.704335 -6.263242 -1.567465
    1 5.535558 -1.455844 0.000000 0.000000 0.000000 -1.364276
    2 1.733054 1.075926 0.000000 -1.570795 -3.141592 0.000000
    3 3.221660 -1.673593 0.000000 -0.000002 0.000000 -1.705118
    4 1.696518 -2.696660 0.414694 0.000000 0.000000 0.000000
    5 6.216259 6.177299 -8.893784 5.057068 -1.443055 1.197942
    6 8.062075 1.277981 -0.368563 1.568517 -3.117623 0.234767
    7 -0.110985 -8.416703 -0.166636 -0.170956 -0.012068 -0.135668
    8 -0.488518 -2.755602 -0.228260 -0.979340 -0.113948 -0.305501
    9 0.047700 -1.534479 0.018135 -1.658243 -0.123753 0.207670
    10 0.028786 -1.126514 -0.105143 -0.742955 -0.013303 0.014298
    11 0.250027 -2.820665 -0.238396 -0.805142 -0.121532 -0.168378
    12 -0.057572 -1.598510 0.030164 -1.580137 -0.056699 0.100860
    13 -0.034142 -1.160031 0.053531 -0.902405 0.008281 -0.023154
    14 0.957766 -2.746780 -0.090302 0.020734 -0.102881 0.097095
    15 -0.033420 -1.397129 -0.026882 -0.836247 0.006651 -0.041132
    16 -0.022360 -0.957436 0.010971 -0.272886 0.005848 -0.012644
    17 -1.180681 -2.507217 -0.193859 -0.888172 -0.120370 -0.218688
    18 -0.024967 -1.127840 0.017597 -1.327008 0.102085 0.052302
    19 -0.020057 -0.902687 0.025715 -0.805420 0.007514 -0.032334
    20 0.583510 -1.208996 0.197098 -0.016291 -1.086293 -0.690834
    21 1.446081 -0.251481 -0.034055 -0.018832 0.116251 -0.910908
    22 1.049988 -0.167353 -0.034117 -0.069634 0.117099 -0.854838
    23 0.120153 -0.050270 -0.054489 0.287569 3.110905 1.561085
    24 -0.165297 -6.653178 -12.091496 -1.820135 -5.194441 -1.317244
    25 0.136008 -8.469950 -0.048429 0.423183 -0.007299 0.191704
    26 0.447953 -2.798986 -0.200443 -1.083117 -0.024754 0.321985
    27 -0.032909 -1.499736 0.028378 -1.405034 0.023334 -0.026879
    28 -0.027022 -1.115984 -0.028023 -0.967262 0.021752 -0.015208
    29 -0.249534 -2.846964 -0.174213 -0.927162 -0.009006 0.151859
    30 0.043235 -1.656596 0.072574 -1.315107 -0.020930 0.005777
    31 0.031729 -1.137392 0.051025 -1.375095 -0.015333 0.007761
    32 -0.963866 -2.785145 -0.085350 -0.990962 0.136737 -0.225412
    33 0.028479 -1.403067 -0.017167 -0.965983 -0.135474 0.127432
    34 0.021413 -0.942156 0.012233 -0.964428 -0.025335 -0.033641
    35 1.164475 -2.543940 -0.170330 -1.202163 -0.161088 0.388810
    36 0.024032 -1.140761 -0.005631 -0.986063 0.010594 0.051247
    37 0.014898 -0.903521 -0.015942 -1.028799 0.009660 0.051438
    38 -0.586770 -1.264477 0.200161 0.221925 -1.275425 -2.979253
    39 1.569711 0.035243 0.016848 -0.019647 -0.007086 0.922323
    40 1.114041 0.040611 -0.005766 -0.028766 -0.034354 1.035390
    41 -0.045646 -0.072634 0.010491 -0.011230 0.241184 1.355861
    42 -5.889701 6.483636 -0.372250 1.580097 -0.021490 -0.940302
  time 21
    0 6.475159 -5.836405 -4.195708 -4.705869 -6.266981 -1.568098
    1 5.535558 -1.455844 0.000000 0.000000 0.000000 -1.364276
    2 1.733054 1.075926 0.000000 -1.570795 -3.141592 0.000000
    3 3.221660 -1.673593 0.000000 -0.000002 0.000000 -1.705118
    4 1.696518 -2.696660 0.414694 0.000000 0.000000 0.000000
    5 6.212353 6.181205 -8.889878 5.047492 -1.439224 1.207537
    6 8.062075 1.242824 -0.368563 1.568517 -3.117623 0.230634
    7 -0.110985 -8.416703 -0.166636 -0.171652 -0.010769 -0.135884
    8 -0.488518 -2.755602 -0.228260 -0.979340 -0.113948 -0.305501
    9 0.047700 -1.534479 0.018135 -1.658243 -0.123753 0.207670
    10 0.028786 -1.126514 -0.105143 -0.742955 -0.013303 0.014298
    11 0.250027 -2.820665 -0.238396 -0.805142 -0.121532 -0.168378
    12 -0.057572 -1.598510 0.030164 -1.580137 -0.056699 0.100860
    13 -0.034142 -1.160031 0.053531 -0.902405 0.008281 -0.023154
    14 0.957766 -2.746780 -0.090302 0.020734 -0.102881 0.097095
    15 -0.033420 -1.397129 -0.026882 -0.836247 0.006651 -0.041132
    16 -0.022360 -0.957436 0.010971 -0.272886 0.005848 -0.012644
    17 -1.180681 -2.507217 -0.193859 -0.888172 -0.120370 -0.218688
    18 -0.024967 -1.127840 0.017597 -1.327008 0.102085 0.052302
    19 -0.020057 -0.902687 0.025715 -0.805420 0.007514 -0.032334
    20 0.583510 -1.208996 0.197098 -0.016291 -1.086293 -0.690834
    21 1.446081 -0.251481 -0.034055 -0.018832 0.116251 -0.910908
    22 1.049988 -0.167353 -0.034117 -0.069634 0.117099 -0.854838
    23 0.120153 -0.050270 -0.054489 0.287569 3.110905 1.561085
    24 -0.157484 -6.664897 -12.048526 -1.817238 -5.199783 -1.314957
    25 0.139914 -8.469950 -0.048429 0.422291 -0.004229 0.194534
    26 0.447953 -2.798986 -0.200443 -1.083117 -0.024754 0.321985
    27 -0.032909 -1.499736 0.028378 -1.405034 0.023334 -0.026879
    28 -0.027022 -1.115984 -0.028023 -0.967262 0.021752 -0.015208
    29 -0.249534 -2.846964 -0.174213 -0.927162 -0.009006 0.151859
    30 0.043235 -1.656596 0.072574 -1.315107 -0.020930 0.005777
    31 0.031729 -1.137392 0.051025 -1.375095 -0.015333 0.007761
    32 -0.963866 -2.785145 -0.085350 -0.990962 0.136737 -0.225412
    33 0.028479 -1.403067 -0.017167 -0.965983 -0.135474 0.127432
    34 0.021413 -0.942156 0.012233 -0.964428 -0.025335 -0.033641
    35 1.164475 -2.543940 -0.170330 -1.202163 -0.161088 0.388810
    36 0.024032 -1.140761 -0.005631 -0.986063 0.010594 0.051247
    37 0.014898 -0.903521 -0.015942 -1.028799 0.009660 0.051438
    38 -0.586770 -1.264477 0.200161 0.221925 -1.275425 -2.979253
    39 1.569711 0.035243 0.016848 -0.019647 -0.007086 0.922323
    40 1.114041 0.040611 -0.005766 -0.028766 -0.034354 1.035390
    41 -0.045646 -0.072634 0.010491 -0.011230 0.241184 1.355861
    42 -5.881888 6.495356 -0.368343 1.580121 -0.021454 -0.941872
  time 22
    0 6.479066 -5.809061 -4.156644 -4.707403 -6.270816 -1.568730
    1 5.535558 -1.455844 0.000000 0.000000 0.000000 -1.364276
    2 1.733054 1.075926 0.000000 -1.570795 -3.141592 0.000000
    3 3.221660 -1.673593 0.000000 -0.000002 0.000000 -1.705118
    4 1.696518 -2.696660 0.414694 0.000000 0.000000 0.000000
    5 6.212353 6.185112 -8.889878 5.038777 -1.435458 1.216277
    6 8.065982 1.203760 -0.368563 1.568613 -3.117527 0.225655
    7 -0.110985 -8.416703 -0.166636 -0.172348 -0.009493 -0.136006
    8 -0.488518 -2.755602 -0.228260 -0.979340 -0.113948 -0.305501
    9 0.047700 -1.534479 0.018135 -1.658243 -0.123753 0.207670
    10 0.028786 -1.126514 -0.105143 -0.742955 -0.013303 0.014298
    11 0.250027 -2.820665 -0.238396 -0.805142 -0.121532 -0.168378
    12 -0.057572 -1.598510 0.030164 -1.580137 -0.056699 0.100860
    13 -0.034142 -1.160031 0.053531 -0.902405 0.008281 -0.023154
    14 0.957766 -2.746780 -0.090302 0.020734 -0.102881 0.097095
    15 -0.033420 -1.397129 -0.026882 -0.836247 0.006651 -0.041132
    16 -0.022360 -0.957436 0.010971 -0.272886 0.005848 -0.012644
    17 -1.180681 -2.507217 -0.193859 -0.888172 -0.120370 -0.218688
    18 -0.024967 -1.127840 0.017597 -1.327008 0.102085 0.052302
    19 -0.020057 -0.902687 0.025715 -0.805420 0.007514 -0.032334
    20 0.583510 -1.208996 0.197098 -0.016291 -1.086293 -0.690834
    21 1.446081 -0.251481 -0.034055 -0.018832 0.116251 -0.910908
    22 1.049988 -0.167353 -0.034117 -0.069634 0.117099 -0.854838
    23 0.120153 -0.050270 -0.054489 0.287569 3.110905 1.561085
    24 -0.153578 -6.672710 -12.013369 -1.814258 -5.205586 -1.312385
    25 0.139914 -8.469950 -0.048429 0.421555 -0.001094 0.197875
    26 0.447953 -2.798986 -0.200443 -1.083117 -0.024754 0.321985
    27 -0.032909 -1.499736 0.028378 -1.405034 0.023334 -0.026879
    28 -0.027022 -1.115984 -0.028023 -0.967262 0.021752 -0.015208
    29 -0.249534 -2.846964 -0.174213 -0.927162 -0.009006 0.151859
    30 0.043235 -1.656596 0.072574 -1.315107 -0.020930 0.005777
    31 0.031729 -1.137392 0.051025 -1.375095 -0.015333 0.007761
    32 -0.963866 -2.785145 -0.085350 -0.990962 0.136737 -0.225412
    33 0.028479 -1.403067 -0.017167 -0.965983 -0.135474 0.127432
    34 0.021413 -0.942156 0.012233 -0.964428 -0.025335 -0.033641
    35 1.164475 -2.543940 -0.170330 -1.202163 -0.161088 0.388810
    36 0.024032 -1.140761 -0.005631 -0.986063 0.010594 0.051247
    37 0.014898 -0.903521 -0.015942 -1.028799 0.009660 0.051438
    38 -0.586770 -1.264477 0.200161 0.221925 -1.275425 -2.979253
    39 1.569711 0.035243 0.016848 -0.019647 -0.007086 0.922323
    40 1.114041 0.040611 -0.005766 -0.028766 -0.034354 1.035390
    41 -0.045646 -0.072634 0.010491 -0.011230 0.241184 1.355861
    42 -5.881888 6.491449 -0.368343 1.580121 -0.021454 -0.941793
  time 23
    0 6.482972 -5.785622 -4.117581 -4.708841 -6.274460 -1.569305
    1 5.535558 -1.455844 0.000000 0.000000 0.000000 -1.364276
    2 1.733054 1.075926 0.000000 -1.570795 -3.141592 0.000000
    3 3.221660 -1.673593 0.000000 -0.000002 0.000000 -1.705118
    4 1.696518 -2.696660 0.414694 0.000000 0.000000 0.000000
    5 6.212353 6.196831 -8.889878 5.031116 -1.432017 1.223876
    6 8.069888 1.160790 -0.368563 1.568709 -3.117431 0.220395
    7 -0.110985 -8.416703 -0.162730 -0.172997 -0.008238 -0.136006
    8 -0.488518 -2.755602 -0.228260 -0.979340 -0.113948 -0.305501
    9 0.047700 -1.534479 0.018135 -1.658243 -0.123753 0.207670
    10 0.028786 -1.126514 -0.105143 -0.742955 -0.013303 0.014298
    11 0.250027 -2.820665 -0.238396 -0.805142 -0.121532 -0.168378
    12 -0.057572 -1.598510 0.030164 -1.580137 -0.056699 0.100860
    13 -0.034142 -1.160031 0.053531 -0.902405 0.008281 -0.023154
    14 0.957766 -2.746780 -0.090302 0.020734 -0.102881 0.097095
    15 -0.033420 -1.397129 -0.026882 -0.836247 0.006651 -0.041132
    16 -0.022360 -0.957436 0.010971 -0.272886 0.005848 -0.012644
    17 -1.180681 -2.507217 -0.193859 -0.888172 -0.120370 -0.218688
    18 -0.024967 -1.127840 0.017597 -1.327008 0.102085 0.052302
    19 -0.020057 -0.902687 0.025715 -0.805420 0.007514 -0.032334
    20 0.583510 -1.208996 0.197098 -0.016291 -1.086293 -0.690834
    21 1.446081 -0.251481 -0.034055 -0.018832 0.116251 -0.910908
    22 1.049988 -0.167353 -0.034117 -0.069634 0.117099 -0.854838
    23 0.120153 -0.050270 -0.054489 0.287569 3.110905 1.561085
    24 -0.149671 -6.680523 -11.982118 -1.811361 -5.211481 -1.309717
    25 0.139914 -8.469950 -0.048429 0.421013 0.001911 0.201452
    26 0.447953 -2.798986 -0.200443 -1.083117 -0.024754 0.321985
    27 -0.032909 -1.499736 0.028378 -1.405034 0.023334 -0.026879
    28 -0.027022 -1.115984 -0.028023 -0.967262 0.021752 -0.015208
    29 -0.249534 -2.846964 -0.174213 -0.927162 -0.009006 0.151859
    30 0.043235 -1.656596 0.072574 -1.315107 -0.020930 0.005777
    31 0.031729 -1.137392 0.051025 -1.375095 -0.015333 0.007761
    32 -0.963866 -2.785145 -0.085350 -0.990962 0.136737 -0.225412
    33 0.028479 -1.403067 -0.017167 -0.965983 -0.135474 0.127432
    34 0.021413 -0.942156 0.012233 -0.964428 -0.025335 -0.033641
    35 1.164475 -2.543940 -0.170330 -1.202163 -0.161088 0.388822
    36 0.024032 -1.140761 -0.005631 -0.986063 0.010594 0.051247
    37 0.014898 -0.903521 -0.015942 -1.028799 0.009660 0.051438
    38 -0.586770 -1.264477 0.200161 0.221925 -1.275425 -2.979253
    39 1.569711 0.035243 0.016848 -0.019647 -0.007086 0.922323
    40 1.114041 0.040611 -0.005766 -0.028766 -0.034354 1.035390
    41 -0.045646 -0.072634 0.010491 -0.011230 0.241184 1.355861
    42 -5.889701 6.487543 -0.372250 1.580109 -0.021478 -0.940616
  time 24
    0 6.486878 -5.758278 -4.086330 -4.710087 -6.277624 -1.569880
    1 5.535558 -1.455844 0.000000 0.000000 0.000000 -1.364276
    2 1.733054 1.075926 0.000000 -1.570795 -3.141592 0.000000
    3 3.221660 -1.673593 0.000000 -0.000002 0.000000 -1.705118
    4 1.696518 -2.696660 0.414694 0.000000 0.000000 0.000000
    5 6.212353 6.208550 -8.885972 5.024796 -1.428966 1.230146
    6 8.069888 1.117820 -0.372470 1.568709 -3.117335 0.215323
    7 -0.110985 -8.416703 -0.162730 -0.173569 -0.007156 -0.135945
    8 -0.488518 -2.755602 -0.228260 -0.979340 -0.113948 -0.305501
    9 0.047700 -1.534479 0.018135 -1.658243 -0.123753 0.207670
    10 0.028786 -1.126514 -0.105143 -0.742955 -0.013303 0.014298
    11 0.250027 -2.820665 -0.238396 -0.805142 -0.121532 -0.168378
    12 -0.057572 -1.598510 0.030164 -1.580137 -0.056699 0.100860
    13 -0.034142 -1.160031 0.053531 -0.902405 0.008281 -0.023154
    14 0.957766 -2.746780 -0.090302 0.020734 -0.102881 0.097095
    15 -0.033420 -1.397129 -0.026882 -0.836247 0.006651 -0.041132
    16 -0.022360 -0.957436 0.010971 -0.272886 0.005848 -0.012644
    17 -1.180681 -2.507217 -0.193859 -0.888172 -0.120370 -0.218688
    18 -0.024967 -1.127840 0.017597 -1.327008 0.102085 0.052302
    19 -0.020057 -0.902687 0.025715 -0.805420 0.007514 -0.032334
    20 0.583510 -1.208996 0.197098 -0.016291 -1.086293 -0.690834
    21 1.446081 -0.251481 -0.034055 -0.018832 0.116251 -0.910908
    22 1.049988 -0.167353 -0.034117 -0.069634 0.117099 -0.854838
    23 0.120153 -0.050270 -0.054489 0.287569 3.110905 1.561085
    24 -0.149671 -6.684429 -11.958679 -1.808795 -5.216915 -1.307240
    25 0.139914 -8.469950 -0.052335 0.420587 0.004561 0.204793
    26 0.447953 -2.798986 -0.200443 -1.083117 -0.024754 0.321985
    27 -0.032909 -1.499736 0.028378 -1.405034 0.023334 -0.026879
    28 -0.027022 -1.115984 -0.028023 -0.967262 0.021752 -0.015208
    29 -0.249534 -2.846964 -0.174213 -0.927162 -0.009006 0.151859
    30 0.043235 -1.656596 0.072574 -1.315107 -0.020930 0.005777
    31 0.031729 -1.137392 0.051025 -1.375095 -0.015333 0.007761
    32 -0.963866 -2.785145 -0.085350 -0.990962 0.136737 -0.225412
    33 0.028479 -1.403067 -0.017167 -0.965983 -0.135474 0.127432
    34 0.021413 -0.942156 0.012233 -0.964428 -0.025335 -0.033641
    35 1.164475 -2.543940 -0.170330 -1.202163 -0.161088 0.388810
    36 0.024032 -1.140761 -0.005631 -0.986063 0.010594 0.051247
    37 0.014898 -0.903521 -0.015942 -1.028799 0.009660 0.051438
    38 -0.586770 -1.264477 0.200161 0.221925 -1.275425 -2.979253
    39 1.569711 0.035243 0.016848 -0.019647 -0.007086 0.922323
    40 1.114041 0.040611 -0.005766 -0.028766 -0.034354 1.035390
    41 -0.045646 -0.072634 0.010491 -0.011230 0.241184 1.355861
    42 -5.897514 6.475824 -0.372250 1.580085 -0.021526 -0.938890
  time 25
    0 6.490785 -5.734840 -4.062891 -4.711142 -6.280021 -1.570282
    1 5.535558 -1.455844 0.000000 0.000000 0.000000 -1.364276
    2 1.733054 1.075926 0.000000 -1.570795 -3.141592 0.000000
    3 3.221660 -1.673593 0.000000 -0.000002 0.000000 -1.705118
    4 1.696518 -2.696660 0.414694 0.000000 0.000000 0.000000
    5 6.212353 6.220269 -8.885972 5.020199 -1.426694 1.234706
    6 8.073794 1.086569 -0.372470 1.568805 -3.117239 0.211190
    7 -0.110985 -8.416703 -0.162730 -0.174002 -0.006312 -0.135853
    8 -0.488518 -2.755602 -0.228260 -0.979340 -0.113948 -0.305501
    9 0.047700 -1.534479 0.018135 -1.658243 -0.123753 0.207670
    10 0.028786 -1.126514 -0.105143 -0.742955 -0.013303 0.014298
    11 0.250027 -2.820665 -0.238396 -0.805142 -0.121532 -0.168378
    12 -0.057572 -1.598510 0.030164 -1.580137 -0.056699 0.100860
    13 -0.034142 -1.160031 0.053531 -0.902405 0.008281 -0.023154
    14 0.957766 -2.746780 -0.090302 0.020734 -0.102881 0.097095
    15 -0.033420 -1.397129 -0.026882 -0.836247 0.006651 -0.041132
    16 -0.022360 -0.957436 0.010971 -0.272886 0.005848 -0.012644
    17 -1.180681 -2.507217 -0.193859 -0.888172 -0.120370 -0.218688
    18 -0.024967 -1.127840 0.017597 -1.327008 0.102085 0.052302
    19 -0.020057 -0.902687 0.025715 -0.805420 0.007514 -0.032334
    20 0.583510 -1.208996 0.197098 -0.016291 -1.086293 -0.690834
    21 1.446081 -0.251481 -0.034055 -0.018832 0.116251 -0.910908
    22 1.049988 -0.167353 -0.034117 -0.069634 0.117099 -0.854838
    23 0.120153 -0.050270 -0.054489 0.287569 3.110905 1.561085
    24 -0.145765 -6.688336 -11.943054 -1.806726 -5.221244 -1.305240
    25 0.139914 -8.466044 -0.052335 0.420316 0.006629 0.207544
    26 0.447953 -2.798986 -0.200443 -1.083117 -0.024754 0.321985
    27 -0.032909 -1.499736 0.028378 -1.405034 0.023334 -0.026879
    28 -0.027022 -1.115984 -0.028023 -0.967262 0.021752 -0.015208
    29 -0.249534 -2.846964 -0.174213 -0.927162 -0.009006 0.151859
    30 0.043235 -1.656596 0.072574 -1.315107 -0.020930 0.005777
    31 0.031729 -1.137392 0.051025 -1.375095 -0.015333 0.007761
    32 -0.963866 -2.785145 -0.085350 -0.990962 0.136737 -0.225412
    33 0.028479 -1.403067 -0.017167 -0.965983 -0.135474 0.127432
    34 0.021413 -0.942156 0.012233 -0.964428 -0.025335 -0.033641
    35 1.164475 -2.543940 -0.170330 -1.202163 -0.161088 0.388822
    36 0.024032 -1.140761 -0.005631 -0.986063 0.010594 0.051247
    37 0.014898 -0.903521 -0.015942 -1.028799 0.009660 0.051438
    38 -0.586770 -1.264477 0.200161 0.221925 -1.275425 -2.979253
    39 1.569711 0.035243 0.016848 -0.019647 -0.007086 0.922323
    40 1.114041 0.040611 -0.005766 -0.028766 -0.034354 1.035390
    41 -0.045646 -0.072634 0.010491 -0.011230 0.241184 1.355861
    42 -5.909233 6.464105 -0.372250 1.580073 -0.021574 -0.937086
  time 26
    0 6.490785 -5.719214 -4.047266 -4.711813 -6.281746 -1.570512
    1 5.535558 -1.455844 0.000000 0.000000 0.000000 -1.364276
    2 1.733054 1.075926 0.000000 -1.570795 -3.141592 0.000000
    3 3.221660 -1.673593 0.000000 -0.000002 0.000000 -1.705118
    4 1.696518 -2.696660 0.414694 0.000000 0.000000 0.000000
    5 6.212353 6.228082 -8.885972 5.017230 -1.425135 1.237746
    6 8.073794 1.063131 -0.372470 1.568805 -3.117143 0.208278
    7 -0.110985 -8.416703 -0.162730 -0.174296 -0.005750 -0.135761
    8 -0.488518 -2.755602 -0.228260 -0.979340 -0.113948 -0.305501
    9 0.047700 -1.534479 0.018135 -1.658243 -0.123753 0.207670
    10 0.028786 -1.126514 -0.105143 -0.742955 -0.013303 0.014298
    11 0.250027 -2.820665 -0.238396 -0.805142 -0.121532 -0.168378
    12 -0.057572 -1.598510 0.030164 -1.580137 -0.056699 0.100860
    13 -0.034142 -1.160031 0.053531 -0.902405 0.008281 -0.023154
    14 0.957766 -2.746780 -0.090302 0.020734 -0.102881 0.097095
    15 -0.033420 -1.397129 -0.026882 -0.836247 0.006651 -0.041132
    16 -0.022360 -0.957436 0.010971 -0.272886 0.005848 -0.012644
    17 -1.180681 -2.507217 -0.193859 -0.888172 -0.120370 -0.218688
    18 -0.024967 -1.127840 0.017597 -1.327008 0.102085 0.052302
    19 -0.020057 -0.902687 0.025715 -0.805420 0.007514 -0.032334
    20 0.583510 -1.208996 0.197098 -0.016291 -1.086293 -0.690834
    21 1.446081 -0.251481 -0.034055 -0.018832 0.116251 -0.910908
    22 1.049988 -0.167353 -0.034117 -0.069634 0.117099 -0.854838
    23 0.120153 -0.050270 -0.054489 0.287569 3.110905 1.561085
    24 -0.145765 -6.688336 -11.931335 -1.805402 -5.224192 -1.303906
    25 0.139914 -8.466044 -0.052335 0.420161 0.008051 0.209510
    26 0.447953 -2.798986 -0.200443 -1.083117 -0.024754 0.321985
    27 -0.032909 -1.499736 0.028378 -1.405034 0.023334 -0.026879
    28 -0.027022 -1.115984 -0.028023 -0.967262 0.021752 -0.015208
    29 -0.249534 -2.846964 -0.174213 -0.927162 -0.009006 0.151859
    30 0.043235 -1.656596 0.072574 -1.315107 -0.020930 0.005777
    31 0.031729 -1.137392 0.051025 -1.375095 -0.015333 0.007761
    32 -0.963866 -2.785145 -0.085350 -0.990962 0.136737 -0.225412
    33 0.028479 -1.403067 -0.017167 -0.965983 -0.135474 0.127432
    34 0.021413 -0.942156 0.012233 -0.964428 -0.025335 -0.033641
    35 1.164475 -2.543940 -0.170330 -1.202163 -0.161088 0.388810
    36 0.024032 -1.140761 -0.005631 -0.986063 0.010594 0.051247
    37 0.014898 -0.903521 -0.015942 -1.028799 0.009660 0.051438
    38 -0.586770 -1.264477 0.200161 0.221925 -1.275425 -2.979253
    39 1.569711 0.035243 0.016848 -0.019647 -0.007086 0.922323
    40 1.114041 0.040611 -0.005766 -0.028766 -0.034354 1.035390
    41 -0.045646 -0.072634 0.010491 -0.011230 0.241184 1.355861
    42 -5.917046 6.456292 -0.372250 1.580061 -0.021610 -0.935674
  time 27
    0 6.490785 -5.711401 -4.039453 -4.712101 -6.282609 -1.570685
    1 5.535558 -1.455844 0.000000 0.000000 0.000000 -1.364276
    2 1.733054 1.075926 0.000000 -1.570795 -3.141592 0.000000
    3 3.221660 -1.673593 0.000000 -0.000002 0.000000 -1.705118
    4 1.696518 -2.696660 0.414694 0.000000 0.000000 0.000000
    5 6.212353 6.231988 -8.885972 5.015602 -1.424291 1.239360
    6 8.073794 1.047505 -0.372470 1.568805 -3.117143 0.206588
    7 -0.110985 -8.416703 -0.162730 -0.174466 -0.005425 -0.135730
    8 -0.488518 -2.755602 -0.228260 -0.979340 -0.113948 -0.305501
    9 0.047700 -1.534479 0.018135 -1.658243 -0.123753 0.207670
    10 0.028786 -1.126514 -0.105143 -0.742955 -0.013303 0.014298
    11 0.250027 -2.820665 -0.238396 -0.805142 -0.121532 -0.168378
    12 -0.057572 -1.598510 0.030164 -1.580137 -0.056699 0.100860
    13 -0.034142 -1.160031 0.053531 -0.902405 0.008281 -0.023154
    14 0.957766 -2.746780 -0.090302 0.020734 -0.102881 0.097095
    15 -0.033420 -1.397129 -0.026882 -0.836247 0.006651 -0.041132
    16 -0.022360 -0.957436 0.010971 -0.272886 0.005848 -0.012644
    17 -1.180681 -2.507217 -0.193859 -0.888172 -0.120370 -0.218688
    18 -0.024967 -1.127840 0.017597 -1.327008 0.102085 0.052302
    19 -0.020057 -0.902687 0.025715 -0.805420 0.007514 -0.032334
    20 0.583510 -1.208996 0.197098 -0.016291 -1.086293 -0.690834
    21 1.446081 -0.251481 -0.034055 -0.018832 0.116251 -0.910908
    22 1.049988 -0.167353 -0.034117 -0.069634 0.117099 -0.854838
    23 0.120153 -0.050270 -0.054489 0.287569 3.110905 1.561085
    24 -0.141859 -6.688336 -11.927428 -1.804657 -5.225942 -1.303144
    25 0.139914 -8.466044 -0.052335 0.420083 0.008827 0.210610
    26 0.447953 -2.798986 -0.200443 -1.083117 -0.024754 0.321985
    27 -0.032909 -1.499736 0.028378 -1.405034 0.023334 -0.026879
    28 -0.027022 -1.115984 -0.028023 -0.967262 0.021752 -0.015208
    29 -0.249534 -2.846964 -0.174213 -0.927162 -0.009006 0.151859
    30 0.043235 -1.656596 0.072574 -1.315107 -0.020930 0.005777
    31 0.031729 -1.137392 0.051025 -1.375095 -0.015333 0.007761
    32 -0.963866 -2.785145 -0.085350 -0.990962 0.136737 -0.225412
    33 0.028479 -1.403067 -0.017167 -0.965983 -0.135474 0.127432
    34 0.021413 -0.942156 0.012233 -0.964428 -0.025335 -0.033641
    35 1.164475 -2.543940 -0.170330 -1.202163 -0.161088 0.388810
    36 0.024032 -1.140761 -0.005631 -0.986063 0.010594 0.051247
    37 0.014898 -0.903521 -0.015942 -1.028799 0.009660 0.051438
    38 -0.586770 -1.264477 0.200161 0.221925 -1.275425 -2.979253
    39 1.569711 0.035243 0.016848 -0.019647 -0.007086 0.922323
    40 1.114041 0.040611 -0.005766 -0.028766 -0.034354 1.035390
    41 -0.045646 -0.072634 0.010491 -0.011230 0.241184 1.355861
    42 -5.920952 6.452386 -0.372250 1.580049 -0.021622 -0.934811
  time 28
    0 6.490785 -5.707495 -4.035547 -4.712292 -6.282993 -1.570742
    1 5.535558 -1.455844 0.000000 0.000000 0.000000 -1.364276
    2 1.733054 1.075926 0.000000 -1.570795 -3.141592 0.000000
    3 3.221660 -1.673593 0.000000 -0.000002 0.000000 -1.705118
    4 1.696518 -2.696660 0.414694 0.000000 0.000000 0.000000
    5 6.212353 6.231988 -8.885972 5.014932 -1.423967 1.239930
    6 8.073794 1.043599 -0.372470 1.568901 -3.117143 0.205836
    7 -0.110985 -8.416703 -0.162730 -0.174528 -0.005295 -0.135699
    8 -0.488518 -2.755602 -0.228260 -0.979340 -0.113948 -0.305501
    9 0.047700 -1.534479 0.018135 -1.658243 -0.123753 0.207670
    10 0.028786 -1.126514 -0.105143 -0.742955 -0.013303 0.014298
    11 0.250027 -2.820665 -0.238396 -0.805142 -0.121532 -0.168378
    12 -0.057572 -1.598510 0.030164 -1.580137 -0.056699 0.100860
    13 -0.034142 -1.160031 0.053531 -0.902405 0.008281 -0.023154
    14 0.957766 -2.746780 -0.090302 0.020734 -0.102881 0.097095
    15 -0.033420 -1.397129 -0.026882 -0.836247 0.006651 -0.041132
    16 -0.022360 -0.957436 0.010971 -0.272886 0.005848 -0.012644
    17 -1.180681 -2.507217 -0.193859 -0.888172 -0.120370 -0.218688
    18 -0.024967 -1.127840 0.017597 -1.327008 0.102085 0.052302
    19 -0.020057 -0.902687 0.025715 -0.805420 0.007514 -0.032334
    20 0.583510 -1.208996 0.197098 -0.016291 -1.086293 -0.690834
    21 1.446081 -0.251481 -0.034055 -0.018832 0.116251 -0.910908
    22 1.049988 -0.167353 -0.034117 -0.069634 0.117099 -0.854838
    23 0.120153 -0.050270 -0.054489 0.287569 3.110905 1.561085
    24 -0.141859 -6.688336 -11.923522 -1.804326 -5.226587 -1.302763
    25 0.139914 -8.466044 -0.052335 0.420044 0.009150 0.211082
    26 0.447953 -2.798986 -0.200443 -1.083117 -0.024754 0.321985
    27 -0.032909 -1.499736 0.028378 -1.405034 0.023334 -0.026879
    28 -0.027022 -1.115984 -0.028023 -0.967262 0.021752 -0.015208
    29 -0.249534 -2.846964 -0.174213 -0.927162 -0.009006 0.151859
    30 0.043235 -1.656596 0.072574 -1.315107 -0.020930 0.005777
    31 0.031729 -1.137392 0.051025 -1.375095 -0.015333 0.007761
    32 -0.963866 -2.785145 -0.085350 -0.990962 0.136737 -0.225412
    33 0.028479 -1.403067 -0.017167 -0.965983 -0.135474 0.127432
    34 0.021413 -0.942156 0.012233 -0.964428 -0.025335 -0.033641
    35 1.164475 -2.543940 -0.170330 -1.202163 -0.161088 0.388810
    36 0.024032 -1.140761 -0.005631 -0.986063 0.010594 0.051247
    37 0.014898 -0.903521 -0.015942 -1.028799 0.009660 0.051438
    38 -0.586770 -1.264477 0.200161 0.221925 -1.275425 -2.979253
    39 1.569711 0.035243 0.016848 -0.019647 -0.007086 0.922323
    40 1.114041 0.040611 -0.005766 -0.028766 -0.034354 1.035390
    41 -0.045646 -0.072634 0.010491 -0.011230 0.241184 1.355861
    42 -5.924858 6.448479 -0.372250 1.580049 -0.021634 -0.934418
  time 29
    0 6.490785 -5.707495 -4.035547 -4.712292 -6.283089 -1.570742
    1 5.535558 -1.455844 0.000000 0.000000 0.000000 -1.364276
    2 1.733054 1.075926 0.000000 -1.570795 -3.141592 0.000000
    3 3.221660 -1.673593 0.000000 -0.000002 0.000000 -1.705118
    4 1.696518 -2.696660 0.414694 0.000000 0.000000 0.000000
    5 6.212353 6.231988 -8.885972 5.014740 -1.423902 1.240120
    6 8.073794 1.039693 -0.372470 1.568901 -3.117143 0.205648
    7 -0.110985 -8.416703 -0.162730 -0.174544 -0.005274 -0.135699
    8 -0.488518 -2.755602 -0.228260 -0.979340 -0.113948 -0.305501
    9 0.047700 -1.534479 0.018135 -1.658243 -0.123753 0.207670
    10 0.028786 -1.126514 -0.105143 -0.742955 -0.013303 0.014298
    11 0.250027 -2.820665 -0.238396 -0.805142 -0.121532 -0.168378
    12 -0.057572 -1.598510 0.030164 -1.580137 -0.056699 0.100860
    13 -0.034142 -1.160031 0.053531 -0.902405 0.008281 -0.023154
    14 0.957766 -2.746780 -0.090302 0.020734 -0.102881 0.097095
    15 -0.033420 -1.397129 -0.026882 -0.836247 0.006651 -0.041132
    16 -0.022360 -0.957436 0.010971 -0.272886 0.005848 -0.012644
    17 -1.180681 -2.507217 -0.193859 -0.888172 -0.120370 -0.218688
    18 -0.024967 -1.127840 0.017597 -1.327008 0.102085 0.052302
    19 -0.020057 -0.902687 0.025715 -0.805420 0.007514 -0.032334
    20 0.583510 -1.208996 0.197098 -0.016291 -1.086293 -0.690834
    21 1.446081 -0.251481 -0.034055 -0.018832 0.116251 -0.910908
    22 1.049988 -0.167353 -0.034117 -0.069634 0.117099 -0.854838
    23 0.120153 -0.050270 -0.054489 0.287569 3.110905 1.561085
    24 -0.141859 -6.688336 -11.923522 -1.804243 -5.226771 -1.302667
    25 0.139914 -8.466044 -0.052335 0.420044 0.009247 0.211200
    26 0.447953 -2.798986 -0.200443 -1.083117 -0.024754 0.321985
    27 -0.032909 -1.499736 0.028378 -1.405034 0.023334 -0.026879
    28 -0.027022 -1.115984 -0.028023 -0.967262 0.021752 -0.015208
    29 -0.249534 -2.846964 -0.174213 -0.927162 -0.009006 0.151859
    30 0.043235 -1.656596 0.072574 -1.315107 -0.020930 0.005777
    31 0.031729 -1.137392 0.051025 -1.375095 -0.015333 0.007761
    32 -0.963866 -2.785145 -0.085350 -0.990962 0.136737 -0.225412
    33 0.028479 -1.403067 -0.017167 -0.965983 -0.135474 0.127432
    34 0.021413 -0.942156 0.012233 -0.964428 -0.025335 -0.033641
    35 1.164475 -2.543940 -0.170330 -1.202163 -0.161088 0.388810
    36 0.024032 -1.140761 -0.005631 -0.986063 0.010594 0.051247
    37 0.014898 -0.903521 -0.015942 -1.028799 0.009660 0.051438
    38 -0.586770 -1.264477 0.200161 0.221925 -1.275425 -2.979253
    39 1.569711 0.035243 0.016848 -0.019647 -0.007086 0.922323
    40 1.114041 0.040611 -0.005766 -0.028766 -0.034354 1.035390
    41 -0.045646 -0.072634 0.010491 -0.011230 0.241184 1.355861
    42 -5.924858 6.448479 -0.372250 1.580049 -0.021646 -0.934261
  time 30
    0 6.490785 -5.707495 -4.035547 -4.712388 0.000000 -1.570742
    1 5.535558 -1.455844 0.000000 0.000000 0.000000 -1.364276
    2 1.733054 1.075926 0.000000 -1.570795 -3.141592 0.000000
    3 3.221660 -1.673593 0.000000 -0.000002 0.000000 -1.705118
    4 1.696518 -2.696660 0.414694 0.000000 0.000000 0.000000
    5 6.212353 6.231988 -8.885972 5.014740 -1.423837 1.240120
    6 8.073794 1.039693 -0.372470 1.568901 -3.117143 0.205648
    7 -0.110985 -8.416703 -0.162730 -0.174544 -0.005252 -0.135699
    8 -0.488518 -2.755602 -0.228260 -0.979340 -0.113948 -0.305501
    9 0.047700 -1.534479 0.018135 -1.658243 -0.123753 0.207670
    10 0.028786 -1.126514 -0.105143 -0.742955 -0.013303 0.014298
    11 0.250027 -2.820665 -0.238396 -0.805142 -0.121532 -0.168378
    12 -0.057572 -1.598510 0.030164 -1.580137 -0.056699 0.100860
    13 -0.034142 -1.160031 0.053531 -0.902405 0.008281 -0.023154
    14 0.957766 -2.746780 -0.090302 0.020734 -0.102881 0.097095
    15 -0.033420 -1.397129 -0.026882 -0.836247 0.006651 -0.041132
    16 -0.022360 -0.957436 0.010971 -0.272886 0.005848 -0.012644
    17 -1.180681 -2.507217 -0.193859 -0.888172 -0.120370 -0.218688
    18 -0.024967 -1.127840 0.017597 -1.327008 0.102085 0.052302
    19 -0.020057 -0.902687 0.025715 -0.805420 0.007514 -0.032334
    20 0.583510 -1.208996 0.197098 -0.016291 -1.086293 -0.690834
    21 1.446081 -0.251481 -0.034055 -0.018832 0.116251 -0.910908
    22 1.049988 -0.167353 -0.034117 -0.069634 0.117099 -0.854838
    23 0.120153 -0.050270 -0.054489 0.287569 3.110905 1.561085
    24 -0.141859 -6.688336 -11.923522 -1.804243 -5.226771 -1.302667
    25 0.139914 -8.466044 -0.052335 0.420044 0.009247 0.211200
    26 0.447953 -2.798986 -0.200443 -1.083117 -0.024754 0.321985
    27 -0.032909 -1.499736 0.028378 -1.405034 0.023334 -0.026879
    28 -0.027022 -1.115984 -0.028023 -0.967262 0.021752 -0.015208
    29 -0.249534 -2.846964 -0.174213 -0.927162 -0.009006 0.151859
    30 0.043235 -1.656596 0.072574 -1.315107 -0.020930 0.005777
    31 0.031729 -1.137392 0.051025 -1.375095 -0.015333 0.007761
    32 -0.963866 -2.785145 -0.085350 -0.990962 0.136737 -0.225412
    33 0.028479 -1.403067 -0.017167 -0.965983 -0.135474 0.127432
    34 0.021413 -0.942156 0.012233 -0.964428 -0.025335 -0.033641
    35 1.164475 -2.543940 -0.170330 -1.202163 -0.161088 0.388822
    36 0.024032 -1.140761 -0.005631 -0.986063 0.010594 0.051247
    37 0.014898 -0.903521 -0.015942 -1.028799 0.009660 0.051438
    38 -0.586770 -1.264477 0.200161 0.221925 -1.275425 -2.979253
    39 1.569711 0.035243 0.016848 -0.019647 -0.007086 0.922323
    40 1.114041 0.040611 -0.005766 -0.028766 -0.034354 1.035390
    41 -0.045646 -0.072634 0.010491 -0.011230 0.241184 1.355861
    42 -5.924858 6.448479 -0.372250 1.580049 -0.021646 -0.934261
end
