version 1
nodes
  0 "heavyknife_root" -1
  1 "root" -1
  2 "Bone01" 1
  3 "Bone_L_Upper" 2
  4 "Bone_Lefthand" 2
  5 "Bone13" 4
  6 "Bone14" 5
  7 "Bone15" 6
  8 "Bone17" 4
  9 "Bone18" 8
  10 "Bone19" 9
  11 "Bone21" 4
  12 "Bone22" 11
  13 "Bone23" 12
  14 "Bone09" 4
  15 "Bone10" 14
  16 "Bone11" 15
  17 "Bone05" 4
  18 "Bone06" 17
  19 "Bone07" 18
  20 "Bone_Se_Hand-L" 4
  21 "Bone04" 1
  22 "Bone_Righthand" 21
  23 "Bone39" 22
  24 "Bone40" 23
  25 "Bone41" 24
  26 "Bone35" 22
  27 "Bone36" 26
  28 "Bone37" 27
  29 "Bone31" 22
  30 "Bone32" 29
  31 "Bone33" 30
  32 "Bone43" 22
  33 "Bone44" 32
  34 "Bone45" 33
  35 "Bone27" 22
  36 "Bone28" 35
  37 "Bone29" 36
  38 "Bone_Se_Hand-R" 22
  39 "Bone_R_Upper" 21
end
skeleton
  time 0
    0 -7.319411 -11.070158 -8.468294 -1.269543 -1.093225 -1.127403
    1 0.001265 -0.569176 -20.601572 0.000000 0.000000 0.000000
    2 9.310103 -5.299614 -12.557959 3.138909 -0.000224 -1.566807
    3 1.257180 8.762585 -0.153713 -1.570562 0.002683 -1.566807
    4 -0.071921 -8.498736 -0.104134 -0.025046 0.287591 0.014898
    5 -0.488518 -2.755602 -0.228260 0.106454 0.010332 -0.264490
    6 0.039887 -1.479790 0.029854 -0.055395 0.000000 0.000001
    7 0.028786 -1.075731 -0.023109 0.002099 0.000000 0.000000
    8 0.250027 -2.820665 -0.238396 0.041826 -0.002921 0.008443
    9 -0.049759 -1.680544 0.100479 0.019826 0.000000 -0.000002
    10 -0.034142 -1.148312 0.084782 -0.040115 0.000000 0.000000
    11 0.957766 -2.746780 -0.090302 -0.017221 -0.162277 0.191558
    12 -0.033420 -1.397129 -0.011257 0.013931 0.000000 -0.000001
    13 -0.022360 -0.957436 0.018784 0.003845 0.000000 0.000000
    14 -1.180681 -2.507217 -0.193859 0.082999 0.013294 -0.477915
    15 -0.024967 -1.123934 0.017597 -0.018065 0.000000 0.000001
    16 -0.020057 -0.890968 0.010090 -0.060797 0.000000 0.000000
    17 0.583510 -1.197277 0.185379 0.158049 -0.404973 -0.364290
    18 1.535927 0.010246 0.005009 -0.002964 -0.012979 0.000887
    19 1.100771 0.004527 -0.010679 -0.002796 0.015973 0.003458
    20 0.120153 -0.050270 -0.054489 0.287569 3.110905 1.561085
    21 -9.310107 -5.231260 -12.513384 0.004984 -3.131565 -1.566847
    22 0.096944 -8.450418 -0.009365 -0.032965 -0.297907 -0.004663
    23 0.447953 -2.798986 -0.200443 0.106456 -0.010396 0.265094
    24 -0.032909 -1.480204 0.004940 -0.055403 0.000000 0.000002
    25 -0.027022 -1.076920 -0.020210 0.002094 0.000000 0.000000
    26 -0.249534 -2.846964 -0.174213 0.041903 -0.000125 -0.008396
    27 0.043235 -1.683941 0.096012 0.019757 0.002823 -0.000167
    28 0.031729 -1.160830 0.058838 -0.040181 0.000642 0.008372
    29 -0.963866 -2.785145 -0.085350 -0.017227 0.162276 -0.191556
    30 0.028479 -1.403067 0.006271 0.013941 0.000000 0.000000
    31 0.021413 -0.957781 0.020046 0.003851 0.000000 0.000000
    32 1.164475 -2.543940 -0.170330 0.083003 -0.013294 0.477915
    33 0.024032 -1.129042 0.017807 -0.018074 0.000000 0.000001
    34 0.014898 -0.883989 -0.019848 -0.060801 0.000000 0.000000
    35 -0.586770 -1.264477 0.200161 -0.152092 -0.410513 -2.814816
    36 1.522835 0.058681 0.016848 0.001410 0.008985 -0.046880
    37 1.117947 0.048424 -0.005766 -0.000243 -0.025198 0.065422
    38 -0.139399 -0.111698 0.014397 0.285382 -0.030687 1.580508
    39 -1.393470 8.839177 -0.239433 1.580804 -0.005023 -1.566847
end
triangles
hzknife_v.bmp
  0 -8.059958 -9.226113 -10.076612 -0.831485 -0.431003 0.350526 0.798434 0.283757
  0 -6.940133 -10.615917 -8.970702 -0.399742 -0.916608 0.006013 0.532290 0.117417
  0 -7.335348 -9.832182 -10.520820 -0.399742 -0.916608 0.006013 0.798434 0.125245
hzknife_v.bmp
  0 -7.335348 -9.832182 -10.520820 -0.399742 -0.916608 0.006013 0.798434 0.125245
  0 -6.940133 -10.615917 -8.970702 -0.399742 -0.916608 0.006013 0.532290 0.117417
  0 -6.916335 -10.861597 -9.034538 0.128977 -0.937684 -0.322665 0.524462 0.078278
hzknife_v.bmp
  0 -6.940133 -10.615917 -8.970702 -0.399742 -0.916608 0.006013 0.532290 0.117417
  0 -6.794889 -11.131142 -8.421842 0.170500 -0.948310 -0.267652 0.424658 0.078278
  0 -6.916335 -10.861597 -9.034538 0.128977 -0.937684 -0.322665 0.524462 0.078278
hzknife_v.bmp
  0 -6.916335 -10.861597 -9.034538 0.128977 -0.937684 -0.322665 0.524462 0.078278
  0 -6.794889 -11.131142 -8.421842 0.170500 -0.948310 -0.267652 0.424658 0.078278
  0 -7.130489 -11.165136 -9.128891 0.526681 -0.715823 -0.458481 0.524462 0.011742
hzknife_v.bmp
  0 -6.794889 -11.131142 -8.421842 0.170500 -0.948310 -0.267652 0.424658 0.078278
  0 -7.009042 -11.434681 -8.516195 0.562240 -0.736455 -0.376192 0.420744 0.013699
  0 -7.130489 -11.165136 -9.128891 0.526681 -0.715823 -0.458481 0.524462 0.011742
hzknife_v.bmp
  0 -7.130489 -11.165136 -9.128891 0.526681 -0.715823 -0.458481 0.524462 0.011742
  0 -7.009042 -11.434681 -8.516195 0.562240 -0.736455 -0.376192 0.420744 0.013699
  0 -7.326650 -11.661741 -8.551825 0.829442 -0.293596 -0.475214 0.424658 0.078278
hzknife_v.bmp
  0 -7.009042 -11.434681 -8.516195 0.562240 -0.736455 -0.376192 0.420744 0.013699
  0 -7.122085 -12.197721 -7.203872 0.829442 -0.293596 -0.475214 0.207436 0.097847
  0 -7.326650 -11.661741 -8.551825 0.829442 -0.293596 -0.475214 0.424658 0.078278
hzknife_v.bmp
  0 -7.326650 -11.661741 -8.551825 0.829442 -0.293596 -0.475214 0.424658 0.078278
  0 -7.122085 -12.197721 -7.203872 0.829442 -0.293596 -0.475214 0.207436 0.097847
  0 -7.580822 -11.644822 -8.555043 0.828746 0.433895 -0.353433 0.434442 0.119374
hzknife_v.bmp
  0 -7.122085 -12.197721 -7.203872 0.829442 -0.293596 -0.475214 0.207436 0.097847
  0 -7.376257 -12.180803 -7.207090 0.828746 0.433895 -0.353433 0.217221 0.136986
  0 -7.580822 -11.644822 -8.555043 0.828746 0.433895 -0.353433 0.434442 0.119374
hzknife_v.bmp
  0 -7.580822 -11.644822 -8.555043 0.828746 0.433895 -0.353433 0.434442 0.119374
  0 -7.376257 -12.180803 -7.207090 0.828746 0.433895 -0.353433 0.217221 0.136986
  0 -8.402095 -10.869803 -8.381967 0.387333 0.921935 -0.003171 0.483366 0.283757
hzknife_v.bmp
  0 -7.376257 -12.180803 -7.207090 0.828746 0.433895 -0.353433 0.217221 0.136986
  0 -7.950549 -11.820562 -6.348186 0.387333 0.921935 -0.003171 0.144814 0.283757
  0 -8.402095 -10.869803 -8.381967 0.387333 0.921935 -0.003171 0.483366 0.283757
hzknife_v.bmp
  0 -8.402095 -10.869803 -8.381967 0.387333 0.921935 -0.003171 0.483366 0.283757
  0 -7.950549 -11.820562 -6.348186 0.387333 0.921935 -0.003171 0.144814 0.283757
  0 -8.404204 -10.669793 -8.220438 -0.129861 0.950934 0.280821 0.473581 0.322896
hzknife_v.bmp
  0 -7.950549 -11.820562 -6.348186 0.387333 0.921935 -0.003171 0.144814 0.283757
  0 -7.954629 -11.616400 -6.195539 -0.129861 0.950934 0.280821 0.131115 0.311155
  0 -8.404204 -10.669793 -8.220438 -0.129861 0.950934 0.280821 0.473581 0.322896
hzknife_v.bmp
  0 -8.404204 -10.669793 -8.220438 -0.129861 0.950934 0.280821 0.473581 0.322896
  0 -7.954629 -11.616400 -6.195539 -0.129861 0.950934 0.280821 0.131115 0.311155
  0 -8.195192 -10.347001 -8.115944 -0.532297 0.719323 0.446358 0.471624 0.389432
hzknife_v.bmp
  0 -7.954629 -11.616400 -6.195539 -0.129861 0.950934 0.280821 0.131115 0.311155
  0 -7.745617 -11.293608 -6.091044 -0.532297 0.719323 0.446358 0.127202 0.389432
  0 -8.195192 -10.347001 -8.115944 -0.532297 0.719323 0.446358 0.471624 0.389432
hzknife_v.bmp
  0 -8.195192 -10.347001 -8.115944 -0.532297 0.719323 0.446358 0.471624 0.389432
  0 -7.745617 -11.293608 -6.091044 -0.532297 0.719323 0.446358 0.127202 0.389432
  0 -7.422868 -11.085801 -6.065556 -0.828377 0.251706 0.500436 0.131115 0.311155
hzknife_v.bmp
  0 -7.745617 -11.293608 -6.091044 -0.532297 0.719323 0.446358 0.127202 0.389432
  0 -7.366499 -11.464693 -5.455750 -0.708675 -0.013836 0.705399 0.021526 0.326810
  0 -7.422868 -11.085801 -6.065556 -0.828377 0.251706 0.500436 0.131115 0.311155
hzknife_v.bmp
  0 -7.422868 -11.085801 -6.065556 -0.828377 0.251706 0.500436 0.131115 0.311155
  0 -7.366499 -11.464693 -5.455750 -0.708675 -0.013836 0.705399 0.021526 0.326810
  0 -7.123345 -11.198211 -5.858072 -0.698090 -0.463508 0.545738 0.097847 0.281800
hzknife_v.bmp
  0 -7.366499 -11.464693 -5.455750 -0.708675 -0.013836 0.705399 0.021526 0.326810
  0 -6.398735 -11.804280 -6.302279 -0.268061 -0.955977 0.119376 0.097847 0.133072
  0 -7.123345 -11.198211 -5.858072 -0.698090 -0.463508 0.545738 0.097847 0.281800
hzknife_v.bmp
  0 -7.123345 -11.198211 -5.858072 -0.698090 -0.463508 0.545738 0.097847 0.281800
  0 -6.398735 -11.804280 -6.302279 -0.268061 -0.955977 0.119376 0.097847 0.133072
  0 -7.190386 -11.057050 -6.160031 -0.831485 -0.431003 0.350526 0.144814 0.283757
hzknife_v.bmp
  0 -6.398735 -11.804280 -6.302279 -0.268061 -0.955977 0.119376 0.097847 0.133072
  0 -6.507241 -11.639572 -6.561504 -0.399742 -0.916608 0.006013 0.142857 0.136986
  0 -7.190386 -11.057050 -6.160031 -0.831485 -0.431003 0.350526 0.144814 0.283757
hzknife_v.bmp
  0 -7.190386 -11.057050 -6.160031 -0.831485 -0.431003 0.350526 0.144814 0.283757
  0 -6.507241 -11.639572 -6.561504 -0.399742 -0.916608 0.006013 0.142857 0.136986
  0 -6.616094 -11.417291 -7.018934 -0.399742 -0.916608 0.006013 0.217221 0.136986
hzknife_v.bmp
  0 -6.507241 -11.639572 -6.561504 -0.399742 -0.916608 0.006013 0.142857 0.136986
  0 -6.487386 -11.876948 -6.643102 0.128977 -0.937684 -0.322665 0.133072 0.099804
  0 -6.616094 -11.417291 -7.018934 -0.399742 -0.916608 0.006013 0.217221 0.136986
hzknife_v.bmp
  0 -6.616094 -11.417291 -7.018934 -0.399742 -0.916608 0.006013 0.217221 0.136986
  0 -6.487386 -11.876948 -6.643102 0.128977 -0.937684 -0.322665 0.133072 0.099804
  0 -6.590324 -11.667122 -7.073889 0.170500 -0.948310 -0.267652 0.207436 0.097847
hzknife_v.bmp
  0 -6.487386 -11.876948 -6.643102 0.128977 -0.937684 -0.322665 0.133072 0.099804
  0 -6.810796 -11.964273 -7.163852 0.549297 -0.727589 -0.410959 0.203523 0.031311
  0 -6.590324 -11.667122 -7.073889 0.170500 -0.948310 -0.267652 0.207436 0.097847
hzknife_v.bmp
  0 -6.590324 -11.667122 -7.073889 0.170500 -0.948310 -0.267652 0.207436 0.097847
  0 -6.810796 -11.964273 -7.163852 0.549297 -0.727589 -0.410959 0.203523 0.031311
  0 -7.009042 -11.434681 -8.516195 0.562240 -0.736455 -0.376192 0.420744 0.013699
hzknife_v.bmp
  0 -6.810796 -11.964273 -7.163852 0.549297 -0.727589 -0.410959 0.203523 0.031311
  0 -7.122085 -12.197721 -7.203872 0.829442 -0.293596 -0.475214 0.207436 0.097847
  0 -7.009042 -11.434681 -8.516195 0.562240 -0.736455 -0.376192 0.420744 0.013699
hzknife_v.bmp
  0 -7.328905 -10.063581 -10.630425 0.128977 -0.937684 -0.322665 0.796477 0.086106
  0 -7.130489 -11.165136 -9.128891 0.526681 -0.715823 -0.458481 0.524462 0.011742
  0 -7.541881 -10.354254 -10.719025 0.526681 -0.715823 -0.458481 0.798434 0.019569
hzknife_v.bmp
  0 -7.541881 -10.354254 -10.719025 0.526681 -0.715823 -0.458481 0.798434 0.019569
  0 -7.130489 -11.165136 -9.128891 0.526681 -0.715823 -0.458481 0.524462 0.011742
  0 -7.853170 -10.587702 -10.759045 0.794230 -0.291067 -0.533366 0.796477 0.086106
hzknife_v.bmp
  0 -7.130489 -11.165136 -9.128891 0.526681 -0.715823 -0.458481 0.524462 0.011742
  0 -7.448096 -11.392196 -9.164521 0.816145 -0.278520 -0.506295 0.524462 0.078278
  0 -7.853170 -10.587702 -10.759045 0.794230 -0.291067 -0.533366 0.796477 0.086106
hzknife_v.bmp
  0 -7.853170 -10.587702 -10.759045 0.794230 -0.291067 -0.533366 0.796477 0.086106
  0 -7.448096 -11.392196 -9.164521 0.816145 -0.278520 -0.506295 0.524462 0.078278
  0 -8.103006 -10.602172 -10.710339 0.828746 0.433895 -0.353433 0.798434 0.125245
hzknife_v.bmp
  0 -7.448096 -11.392196 -9.164521 0.816145 -0.278520 -0.506295 0.524462 0.078278
  0 -7.706615 -11.373041 -9.154468 0.828746 0.433895 -0.353433 0.532290 0.117417
  0 -8.103006 -10.602172 -10.710339 0.828746 0.433895 -0.353433 0.798434 0.125245
hzknife_v.bmp
  0 -8.103006 -10.602172 -10.710339 0.828746 0.433895 -0.353433 0.798434 0.125245
  0 -7.706615 -11.373041 -9.154468 0.828746 0.433895 -0.353433 0.532290 0.117417
  0 -8.820121 -9.989625 -10.264768 0.387333 0.921935 -0.003171 0.798434 0.283757
hzknife_v.bmp
  0 -7.706615 -11.373041 -9.154468 0.828746 0.433895 -0.353433 0.532290 0.117417
  0 -8.402095 -10.869803 -8.381967 0.387333 0.921935 -0.003171 0.483366 0.283757
  0 -8.820121 -9.989625 -10.264768 0.387333 0.921935 -0.003171 0.798434 0.283757
hzknife_v.bmp
  0 -8.820121 -9.989625 -10.264768 0.387333 0.921935 -0.003171 0.798434 0.283757
  0 -8.402095 -10.869803 -8.381967 0.387333 0.921935 -0.003171 0.483366 0.283757
  0 -8.834060 -9.764704 -10.156526 -0.129861 0.950934 0.280821 0.796477 0.322896
hzknife_v.bmp
  0 -8.402095 -10.869803 -8.381967 0.387333 0.921935 -0.003171 0.483366 0.283757
  0 -8.404204 -10.669793 -8.220438 -0.129861 0.950934 0.280821 0.473581 0.322896
  0 -8.834060 -9.764704 -10.156526 -0.129861 0.950934 0.280821 0.796477 0.322896
hzknife_v.bmp
  0 -8.834060 -9.764704 -10.156526 -0.129861 0.950934 0.280821 0.796477 0.322896
  0 -8.404204 -10.669793 -8.220438 -0.129861 0.950934 0.280821 0.473581 0.322896
  0 -8.625048 -9.441912 -10.052032 -0.532297 0.719323 0.446358 0.796477 0.389432
hzknife_v.bmp
  0 -8.404204 -10.669793 -8.220438 -0.129861 0.950934 0.280821 0.473581 0.322896
  0 -8.195192 -10.347001 -8.115944 -0.532297 0.719323 0.446358 0.471624 0.389432
  0 -8.625048 -9.441912 -10.052032 -0.532297 0.719323 0.446358 0.796477 0.389432
hzknife_v.bmp
  0 -8.625048 -9.441912 -10.052032 -0.532297 0.719323 0.446358 0.796477 0.389432
  0 -8.195192 -10.347001 -8.115944 -0.532297 0.719323 0.446358 0.471624 0.389432
  0 -7.872443 -10.139194 -8.090455 -0.828377 0.251706 0.500436 0.473581 0.322896
hzknife_v.bmp
  0 -8.195192 -10.347001 -8.115944 -0.532297 0.719323 0.446358 0.471624 0.389432
  0 -7.422868 -11.085801 -6.065556 -0.828377 0.251706 0.500436 0.131115 0.311155
  0 -7.872443 -10.139194 -8.090455 -0.828377 0.251706 0.500436 0.473581 0.322896
hzknife_v.bmp
  0 -7.872443 -10.139194 -8.090455 -0.828377 0.251706 0.500436 0.473581 0.322896
  0 -7.422868 -11.085801 -6.065556 -0.828377 0.251706 0.500436 0.131115 0.311155
  0 -7.190386 -11.057050 -6.160031 -0.831485 -0.431003 0.350526 0.144814 0.283757
hzknife_v.bmp
  0 -7.422868 -11.085801 -6.065556 -0.828377 0.251706 0.500436 0.131115 0.311155
  0 -7.123345 -11.198211 -5.858072 -0.698090 -0.463508 0.545738 0.097847 0.281800
  0 -7.190386 -11.057050 -6.160031 -0.831485 -0.431003 0.350526 0.144814 0.283757
hzknife_v.bmp
  0 -6.487386 -11.876948 -6.643102 0.128977 -0.937684 -0.322665 0.133072 0.099804
  0 -6.707859 -12.174099 -6.733066 0.500180 -0.698506 -0.511771 0.127202 0.035225
  0 -6.810796 -11.964273 -7.163852 0.549297 -0.727589 -0.410959 0.203523 0.031311
hzknife_v.bmp
  0 -6.810796 -11.964273 -7.163852 0.549297 -0.727589 -0.410959 0.203523 0.031311
  0 -6.707859 -12.174099 -6.733066 0.500180 -0.698506 -0.511771 0.127202 0.035225
  0 -7.019147 -12.407547 -6.773085 0.801327 -0.256371 -0.540508 0.133072 0.099804
hzknife_v.bmp
  0 -6.707859 -12.174099 -6.733066 0.500180 -0.698506 -0.511771 0.127202 0.035225
  0 -6.692065 -12.694688 -6.180492 0.912869 -0.131085 -0.386635 0.021526 0.088063
  0 -7.019147 -12.407547 -6.773085 0.801327 -0.256371 -0.540508 0.133072 0.099804
hzknife_v.bmp
  0 -7.019147 -12.407547 -6.773085 0.801327 -0.256371 -0.540508 0.133072 0.099804
  0 -6.692065 -12.694688 -6.180492 0.912869 -0.131085 -0.386635 0.021526 0.088063
  0 -7.267404 -12.403084 -6.749660 0.828746 0.433895 -0.353433 0.142857 0.136986
hzknife_v.bmp
  0 -6.692065 -12.694688 -6.180492 0.912869 -0.131085 -0.386635 0.021526 0.088063
  0 -7.166393 -12.574269 -6.491799 0.921240 0.322373 -0.217698 0.097847 0.133072
  0 -7.267404 -12.403084 -6.749660 0.828746 0.433895 -0.353433 0.142857 0.136986
hzknife_v.bmp
  0 -7.267404 -12.403084 -6.749660 0.828746 0.433895 -0.353433 0.142857 0.136986
  0 -7.166393 -12.574269 -6.491799 0.921240 0.322373 -0.217698 0.097847 0.133072
  0 -7.950549 -11.820562 -6.348186 0.387333 0.921935 -0.003171 0.144814 0.283757
hzknife_v.bmp
  0 -7.166393 -12.574269 -6.491799 0.921240 0.322373 -0.217698 0.097847 0.133072
  0 -7.883507 -11.961723 -6.046227 0.508168 0.835394 0.209478 0.097847 0.281800
  0 -7.950549 -11.820562 -6.348186 0.387333 0.921935 -0.003171 0.144814 0.283757
hzknife_v.bmp
  0 -7.950549 -11.820562 -6.348186 0.387333 0.921935 -0.003171 0.144814 0.283757
  0 -7.883507 -11.961723 -6.046227 0.508168 0.835394 0.209478 0.097847 0.281800
  0 -7.954629 -11.616400 -6.195539 -0.129861 0.950934 0.280821 0.131115 0.311155
hzknife_v.bmp
  0 -7.883507 -11.961723 -6.046227 0.508168 0.835394 0.209478 0.097847 0.281800
  0 -7.723505 -11.820585 -5.542860 0.149486 0.887579 0.435727 0.021526 0.326810
  0 -7.954629 -11.616400 -6.195539 -0.129861 0.950934 0.280821 0.131115 0.311155
hzknife_v.bmp
  0 -7.954629 -11.616400 -6.195539 -0.129861 0.950934 0.280821 0.131115 0.311155
  0 -7.723505 -11.820585 -5.542860 0.149486 0.887579 0.435727 0.021526 0.326810
  0 -7.745617 -11.293608 -6.091044 -0.532297 0.719323 0.446358 0.127202 0.389432
hzknife_v.bmp
  0 -7.723505 -11.820585 -5.542860 0.149486 0.887579 0.435727 0.021526 0.326810
  0 -7.605618 -11.588384 -5.460483 -0.532297 0.719323 0.446358 0.023483 0.389432
  0 -7.745617 -11.293608 -6.091044 -0.532297 0.719323 0.446358 0.127202 0.389432
hzknife_v.bmp
  0 -7.745617 -11.293608 -6.091044 -0.532297 0.719323 0.446358 0.127202 0.389432
  0 -7.605618 -11.588384 -5.460483 -0.532297 0.719323 0.446358 0.023483 0.389432
  0 -7.366499 -11.464693 -5.455750 -0.708675 -0.013836 0.705399 0.021526 0.326810
hzknife_v.bmp
  0 -5.318999 -14.656418 -2.943533 0.670970 0.715175 -0.195764 0.495108 0.682975
  0 -5.746884 -13.755481 -4.870740 0.670970 0.715175 -0.195764 0.749511 0.682975
  0 -4.254817 -15.390696 -3.691966 0.697032 0.684050 -0.214993 0.518591 0.514677
hzknife_v.bmp
  0 -5.318999 -14.656418 -2.943533 0.670970 0.715175 -0.195764 0.495108 0.682975
  0 -7.229355 -12.570158 -3.672203 0.647832 0.741170 -0.176011 0.718200 0.933464
  0 -5.746884 -13.755481 -4.870740 0.670970 0.715175 -0.195764 0.749511 0.682975
hzknife_v.bmp
  0 -5.318999 -14.656418 -2.943533 0.670970 0.715175 -0.195764 0.495108 0.682975
  0 -6.826286 -13.375837 -1.987710 0.647832 0.741170 -0.176011 0.495108 0.929550
  0 -7.229355 -12.570158 -3.672203 0.647832 0.741170 -0.176011 0.718200 0.933464
hzknife_v.bmp
  0 -5.318999 -14.656418 -2.943533 0.670970 0.715175 -0.195764 0.495108 0.682975
  0 -6.478092 -14.151989 -0.288489 0.647832 0.741170 -0.176011 0.272016 0.933464
  0 -6.826286 -13.375837 -1.987710 0.647832 0.741170 -0.176011 0.495108 0.929550
hzknife_v.bmp
  0 -5.318999 -14.656418 -2.943533 0.670970 0.715175 -0.195764 0.495108 0.682975
  0 -4.889143 -15.561508 -1.007444 0.670970 0.715175 -0.195764 0.240705 0.682975
  0 -6.478092 -14.151989 -0.288489 0.647832 0.741170 -0.176011 0.272016 0.933464
hzknife_v.bmp
  0 -5.318999 -14.656418 -2.943533 0.670970 0.715175 -0.195764 0.495108 0.682975
  0 -4.157560 -15.772918 -2.631141 0.697032 0.684050 -0.214993 0.381605 0.528376
  0 -4.889143 -15.561508 -1.007444 0.670970 0.715175 -0.195764 0.240705 0.682975
hzknife_v.bmp
  0 -5.318999 -14.656418 -2.943533 0.670970 0.715175 -0.195764 0.495108 0.682975
  0 -4.381295 -15.443180 -3.114169 0.697032 0.684050 -0.214993 0.446184 0.545988
  0 -4.157560 -15.772918 -2.631141 0.697032 0.684050 -0.214993 0.381605 0.528376
hzknife_v.bmp
  0 -5.318999 -14.656418 -2.943533 0.670970 0.715175 -0.195764 0.495108 0.682975
  0 -4.583799 -15.228818 -3.239234 0.697032 0.684050 -0.214993 0.483366 0.569472
  0 -4.381295 -15.443180 -3.114169 0.697032 0.684050 -0.214993 0.446184 0.545988
hzknife_v.bmp
  0 -5.318999 -14.656418 -2.943533 0.670970 0.715175 -0.195764 0.495108 0.682975
  0 -4.254817 -15.390696 -3.691966 0.697032 0.684050 -0.214993 0.518591 0.514677
  0 -4.583799 -15.228818 -3.239234 0.697032 0.684050 -0.214993 0.483366 0.569472
hzknife_v.bmp
  0 -4.678802 -14.532550 -5.437366 0.500180 -0.698506 -0.511771 0.747554 0.512720
  0 -4.254817 -15.390696 -3.691966 0.666531 -0.738207 0.103855 0.516634 0.512720
  0 -4.686298 -14.539027 -5.438730 0.500180 -0.698506 -0.511771 0.747554 0.514677
hzknife_v.bmp
  0 -4.686298 -14.539027 -5.438730 0.500180 -0.698506 -0.511771 0.747554 0.514677
  0 -4.254817 -15.390696 -3.691966 0.666531 -0.738207 0.103855 0.516634 0.512720
  0 -4.254817 -15.390696 -3.691966 0.666531 -0.738207 0.103855 0.518591 0.514677
hzknife_v.bmp
  0 -4.254817 -15.390696 -3.691966 0.666531 -0.738207 0.103855 0.516634 0.512720
  0 -4.523833 -15.177000 -3.228323 0.616490 -0.758376 -0.211674 0.481409 0.563601
  0 -4.254817 -15.390696 -3.691966 0.666531 -0.738207 0.103855 0.518591 0.514677
hzknife_v.bmp
  0 -4.254817 -15.390696 -3.691966 0.666531 -0.738207 0.103855 0.518591 0.514677
  0 -4.523833 -15.177000 -3.228323 0.616490 -0.758376 -0.211674 0.481409 0.563601
  0 -4.583799 -15.228818 -3.239234 0.600628 -0.753694 -0.266817 0.483366 0.569472
hzknife_v.bmp
  0 -4.523833 -15.177000 -3.228323 0.616490 -0.758376 -0.211674 0.481409 0.563601
  0 -4.343816 -15.410794 -3.107350 0.284201 -0.522480 -0.803894 0.448141 0.540117
  0 -4.583799 -15.228818 -3.239234 0.600628 -0.753694 -0.266817 0.483366 0.569472
hzknife_v.bmp
  0 -4.583799 -15.228818 -3.239234 0.600628 -0.753694 -0.266817 0.483366 0.569472
  0 -4.343816 -15.410794 -3.107350 0.284201 -0.522480 -0.803894 0.448141 0.540117
  0 -4.381295 -15.443180 -3.114169 0.314670 -0.549974 -0.773636 0.446184 0.545988
hzknife_v.bmp
  0 -4.343816 -15.410794 -3.107350 0.284201 -0.522480 -0.803894 0.448141 0.540117
  0 -4.135073 -15.753486 -2.627050 0.353120 -0.583655 -0.731200 0.383562 0.524462
  0 -4.381295 -15.443180 -3.114169 0.314670 -0.549974 -0.773636 0.446184 0.545988
hzknife_v.bmp
  0 -4.381295 -15.443180 -3.114169 0.314670 -0.549974 -0.773636 0.446184 0.545988
  0 -4.135073 -15.753486 -2.627050 0.353120 -0.583655 -0.731200 0.383562 0.524462
  0 -4.157560 -15.772918 -2.631141 0.353120 -0.583655 -0.731200 0.381605 0.528376
hzknife_v.bmp
  0 -4.135073 -15.753486 -2.627050 0.353120 -0.583655 -0.731200 0.383562 0.524462
  0 -3.921535 -16.057860 -2.355098 0.526681 -0.715823 -0.458481 0.338552 0.506849
  0 -4.157560 -15.772918 -2.631141 0.353120 -0.583655 -0.731200 0.381605 0.528376
hzknife_v.bmp
  0 -5.174227 -14.507620 -2.906115 -0.619123 -0.767240 0.167421 0.495108 0.682975
  0 -4.523833 -15.177000 -3.228323 -0.619123 -0.767240 0.167421 0.483366 0.569472
  0 -4.254817 -15.390696 -3.691966 -0.596431 -0.789331 0.145694 0.518591 0.514677
hzknife_v.bmp
  0 -5.174227 -14.507620 -2.906115 -0.619123 -0.767240 0.167421 0.495108 0.682975
  0 -4.343816 -15.410794 -3.107350 -0.619123 -0.767240 0.167421 0.446184 0.545988
  0 -4.523833 -15.177000 -3.228323 -0.619123 -0.767240 0.167421 0.483366 0.569472
hzknife_v.bmp
  0 -5.174227 -14.507620 -2.906115 -0.619123 -0.767240 0.167421 0.495108 0.682975
  0 -4.135073 -15.753486 -2.627050 -0.596431 -0.789331 0.145694 0.381605 0.528376
  0 -4.343816 -15.410794 -3.107350 -0.619123 -0.767240 0.167421 0.446184 0.545988
hzknife_v.bmp
  0 -5.174227 -14.507620 -2.906115 -0.619123 -0.767240 0.167421 0.495108 0.682975
  0 -4.736875 -15.406232 -0.968663 -0.619123 -0.767240 0.167421 0.240705 0.682975
  0 -4.135073 -15.753486 -2.627050 -0.596431 -0.789331 0.145694 0.381605 0.528376
hzknife_v.bmp
  0 -5.174227 -14.507620 -2.906115 -0.619123 -0.767240 0.167421 0.495108 0.682975
  0 -6.318329 -13.990236 -0.248344 -0.642830 -0.742798 0.187140 0.272016 0.933464
  0 -4.736875 -15.406232 -0.968663 -0.619123 -0.767240 0.167421 0.240705 0.682975
hzknife_v.bmp
  0 -5.174227 -14.507620 -2.906115 -0.619123 -0.767240 0.167421 0.495108 0.682975
  0 -6.674018 -13.220561 -1.948928 -0.642830 -0.742798 0.187140 0.495108 0.929550
  0 -6.318329 -13.990236 -0.248344 -0.642830 -0.742798 0.187140 0.272016 0.933464
hzknife_v.bmp
  0 -5.174227 -14.507620 -2.906115 -0.619123 -0.767240 0.167421 0.495108 0.682975
  0 -7.069591 -12.408406 -3.632058 -0.642830 -0.742798 0.187140 0.718200 0.933464
  0 -6.674018 -13.220561 -1.948928 -0.642830 -0.742798 0.187140 0.495108 0.929550
hzknife_v.bmp
  0 -5.174227 -14.507620 -2.906115 -0.619123 -0.767240 0.167421 0.495108 0.682975
  0 -5.594616 -13.600205 -4.831958 -0.619123 -0.767240 0.167421 0.749511 0.682975
  0 -7.069591 -12.408406 -3.632058 -0.642830 -0.742798 0.187140 0.718200 0.933464
hzknife_v.bmp
  0 -5.174227 -14.507620 -2.906115 -0.619123 -0.767240 0.167421 0.495108 0.682975
  0 -4.254817 -15.390696 -3.691966 -0.596431 -0.789331 0.145694 0.518591 0.514677
  0 -5.594616 -13.600205 -4.831958 -0.619123 -0.767240 0.167421 0.749511 0.682975
hzknife_v.bmp
  0 -5.929958 -14.847962 1.764136 -0.548471 0.728903 0.409731 0.990215 0.990215
  0 -6.318329 -13.990236 -0.248344 -0.532297 0.719323 0.446358 0.727984 0.990215
  0 -6.478092 -14.151989 -0.288489 -0.532297 0.719323 0.446358 0.727984 0.954990
hzknife_v.bmp
  0 -6.478092 -14.151989 -0.288489 -0.532297 0.719323 0.446358 0.727984 0.954990
  0 -6.318329 -13.990236 -0.248344 -0.532297 0.719323 0.446358 0.727984 0.990215
  0 -6.826286 -13.375837 -1.987710 -0.532297 0.719323 0.446358 0.500978 0.954990
hzknife_v.bmp
  0 -6.318329 -13.990236 -0.248344 -0.532297 0.719323 0.446358 0.727984 0.990215
  0 -6.674018 -13.220561 -1.948928 -0.532297 0.719323 0.446358 0.500978 0.990215
  0 -6.826286 -13.375837 -1.987710 -0.532297 0.719323 0.446358 0.500978 0.954990
hzknife_v.bmp
  0 -6.826286 -13.375837 -1.987710 -0.532297 0.719323 0.446358 0.500978 0.954990
  0 -6.674018 -13.220561 -1.948928 -0.532297 0.719323 0.446358 0.500978 0.990215
  0 -7.229355 -12.570158 -3.672203 -0.532297 0.719323 0.446358 0.273973 0.954990
hzknife_v.bmp
  0 -6.674018 -13.220561 -1.948928 -0.532297 0.719323 0.446358 0.500978 0.990215
  0 -7.069591 -12.408406 -3.632058 -0.532297 0.719323 0.446358 0.273973 0.990215
  0 -7.229355 -12.570158 -3.672203 -0.532297 0.719323 0.446358 0.273973 0.954990
hzknife_v.bmp
  0 -7.229355 -12.570158 -3.672203 -0.532297 0.719323 0.446358 0.273973 0.954990
  0 -7.069591 -12.408406 -3.632058 -0.532297 0.719323 0.446358 0.273973 0.990215
  0 -7.759092 -11.597625 -5.599625 -0.532297 0.719323 0.446358 0.009785 0.954990
hzknife_v.bmp
  0 -7.069591 -12.408406 -3.632058 -0.532297 0.719323 0.446358 0.273973 0.990215
  0 -7.569345 -11.409963 -5.554025 -0.532297 0.719323 0.446358 0.009785 0.990215
  0 -7.759092 -11.597625 -5.599625 -0.532297 0.719323 0.446358 0.009785 0.954990
hzknife_v.bmp
  0 -7.641933 -10.106291 -8.193811 -0.831485 -0.431003 0.350526 0.483366 0.283757
  0 -6.940133 -10.615917 -8.970702 -0.399742 -0.916608 0.006013 0.532290 0.117417
  0 -8.059958 -9.226113 -10.076612 -0.831485 -0.431003 0.350526 0.798434 0.283757
hzknife_v.bmp
  0 -7.641933 -10.106291 -8.193811 -0.831485 -0.431003 0.350526 0.483366 0.283757
  0 -6.820659 -10.881310 -8.366887 -0.399742 -0.916608 0.006013 0.434442 0.119374
  0 -6.940133 -10.615917 -8.970702 -0.399742 -0.916608 0.006013 0.532290 0.117417
hzknife_v.bmp
  0 -7.641933 -10.106291 -8.193811 -0.831485 -0.431003 0.350526 0.483366 0.283757
  0 -6.616094 -11.417291 -7.018934 -0.399742 -0.916608 0.006013 0.217221 0.136986
  0 -6.820659 -10.881310 -8.366887 -0.399742 -0.916608 0.006013 0.434442 0.119374
hzknife_v.bmp
  0 -7.641933 -10.106291 -8.193811 -0.831485 -0.431003 0.350526 0.483366 0.283757
  0 -7.190386 -11.057050 -6.160031 -0.831485 -0.431003 0.350526 0.144814 0.283757
  0 -6.616094 -11.417291 -7.018934 -0.399742 -0.916608 0.006013 0.217221 0.136986
hzknife_v.bmp
  0 -7.641933 -10.106291 -8.193811 -0.831485 -0.431003 0.350526 0.483366 0.283757
  0 -7.872443 -10.139194 -8.090455 -0.828377 0.251706 0.500436 0.473581 0.322896
  0 -7.190386 -11.057050 -6.160031 -0.831485 -0.431003 0.350526 0.144814 0.283757
hzknife_v.bmp
  0 -7.641933 -10.106291 -8.193811 -0.831485 -0.431003 0.350526 0.483366 0.283757
  0 -8.302299 -9.234105 -10.026543 -0.828377 0.251706 0.500436 0.796477 0.322896
  0 -7.872443 -10.139194 -8.090455 -0.828377 0.251706 0.500436 0.473581 0.322896
hzknife_v.bmp
  0 -7.641933 -10.106291 -8.193811 -0.831485 -0.431003 0.350526 0.483366 0.283757
  0 -8.059958 -9.226113 -10.076612 -0.831485 -0.431003 0.350526 0.798434 0.283757
  0 -8.302299 -9.234105 -10.026543 -0.828377 0.251706 0.500436 0.796477 0.322896
hzknife_v.bmp
  0 -4.889143 -15.561508 -1.007444 0.670970 0.715175 -0.195764 0.240705 0.682975
  0 -6.113386 -15.042012 1.714146 0.647832 0.741170 -0.176011 0.011742 0.943249
  0 -6.478092 -14.151989 -0.288489 0.647832 0.741170 -0.176011 0.272016 0.933464
hzknife_v.bmp
  0 -4.889143 -15.561508 -1.007444 0.670970 0.715175 -0.195764 0.240705 0.682975
  0 -4.541320 -16.338391 0.623958 0.670970 0.715175 -0.195764 0.025440 0.682975
  0 -6.113386 -15.042012 1.714146 0.647832 0.741170 -0.176011 0.011742 0.943249
hzknife_v.bmp
  0 -4.889143 -15.561508 -1.007444 0.670970 0.715175 -0.195764 0.240705 0.682975
  0 -3.842360 -16.315992 -1.637602 0.697032 0.684050 -0.214993 0.246575 0.518591
  0 -4.541320 -16.338391 0.623958 0.670970 0.715175 -0.195764 0.025440 0.682975
hzknife_v.bmp
  0 -4.889143 -15.561508 -1.007444 0.670970 0.715175 -0.195764 0.240705 0.682975
  0 -4.001843 -16.164548 -1.700294 0.697032 0.684050 -0.214993 0.262231 0.536204
  0 -3.842360 -16.315992 -1.637602 0.697032 0.684050 -0.214993 0.246575 0.518591
hzknife_v.bmp
  0 -4.889143 -15.561508 -1.007444 0.670970 0.715175 -0.195764 0.240705 0.682975
  0 -3.921535 -16.057860 -2.355098 0.697032 0.684050 -0.214993 0.338552 0.506849
  0 -4.001843 -16.164548 -1.700294 0.697032 0.684050 -0.214993 0.262231 0.536204
hzknife_v.bmp
  0 -4.889143 -15.561508 -1.007444 0.670970 0.715175 -0.195764 0.240705 0.682975
  0 -4.157560 -15.772918 -2.631141 0.697032 0.684050 -0.214993 0.381605 0.528376
  0 -3.921535 -16.057860 -2.355098 0.697032 0.684050 -0.214993 0.338552 0.506849
hzknife_v.bmp
  0 -4.736875 -15.406232 -0.968663 -0.619123 -0.767240 0.167421 0.240705 0.682975
  0 -3.921535 -16.057860 -2.355098 -0.596431 -0.789331 0.145694 0.338552 0.506849
  0 -4.135073 -15.753486 -2.627050 -0.596431 -0.789331 0.145694 0.381605 0.528376
hzknife_v.bmp
  0 -4.736875 -15.406232 -0.968663 -0.619123 -0.767240 0.167421 0.240705 0.682975
  0 -3.978179 -16.132251 -1.690450 -0.596431 -0.789331 0.145694 0.262231 0.536204
  0 -3.921535 -16.057860 -2.355098 -0.596431 -0.789331 0.145694 0.338552 0.506849
hzknife_v.bmp
  0 -4.736875 -15.406232 -0.968663 -0.619123 -0.767240 0.167421 0.240705 0.682975
  0 -3.834864 -16.309514 -1.636238 -0.596431 -0.789331 0.145694 0.246575 0.518591
  0 -3.978179 -16.132251 -1.690450 -0.596431 -0.789331 0.145694 0.262231 0.536204
hzknife_v.bmp
  0 -4.736875 -15.406232 -0.968663 -0.619123 -0.767240 0.167421 0.240705 0.682975
  0 -4.359069 -16.157206 0.668195 -0.619123 -0.767240 0.167421 0.025440 0.682975
  0 -3.834864 -16.309514 -1.636238 -0.596431 -0.789331 0.145694 0.246575 0.518591
hzknife_v.bmp
  0 -4.736875 -15.406232 -0.968663 -0.619123 -0.767240 0.167421 0.240705 0.682975
  0 -5.929958 -14.847962 1.764136 -0.642830 -0.742798 0.187140 0.011742 0.943249
  0 -4.359069 -16.157206 0.668195 -0.619123 -0.767240 0.167421 0.025440 0.682975
hzknife_v.bmp
  0 -4.736875 -15.406232 -0.968663 -0.619123 -0.767240 0.167421 0.240705 0.682975
  0 -6.318329 -13.990236 -0.248344 -0.642830 -0.742798 0.187140 0.272016 0.933464
  0 -5.929958 -14.847962 1.764136 -0.642830 -0.742798 0.187140 0.011742 0.943249
hzknife_v.bmp
  0 -5.746884 -13.755481 -4.870740 0.670970 0.715175 -0.195764 0.749511 0.682975
  0 -4.686298 -14.539027 -5.438730 0.697032 0.684050 -0.214993 0.747554 0.514677
  0 -4.254817 -15.390696 -3.691966 0.697032 0.684050 -0.214993 0.518591 0.514677
hzknife_v.bmp
  0 -5.746884 -13.755481 -4.870740 0.670970 0.715175 -0.195764 0.749511 0.682975
  0 -5.158090 -13.709249 -7.006620 0.697032 0.684050 -0.214993 0.960861 0.532290
  0 -4.686298 -14.539027 -5.438730 0.697032 0.684050 -0.214993 0.747554 0.514677
hzknife_v.bmp
  0 -5.746884 -13.755481 -4.870740 0.670970 0.715175 -0.195764 0.749511 0.682975
  0 -6.126661 -13.000355 -6.516478 0.670970 0.715175 -0.195764 0.966732 0.682975
  0 -5.158090 -13.709249 -7.006620 0.697032 0.684050 -0.214993 0.960861 0.532290
hzknife_v.bmp
  0 -5.746884 -13.755481 -4.870740 0.670970 0.715175 -0.195764 0.749511 0.682975
  0 -7.667481 -11.678345 -5.646441 0.647832 0.741170 -0.176011 0.976517 0.927593
  0 -6.126661 -13.000355 -6.516478 0.670970 0.715175 -0.195764 0.966732 0.682975
hzknife_v.bmp
  0 -5.746884 -13.755481 -4.870740 0.670970 0.715175 -0.195764 0.749511 0.682975
  0 -7.229355 -12.570158 -3.672203 0.647832 0.741170 -0.176011 0.718200 0.933464
  0 -7.667481 -11.678345 -5.646441 0.647832 0.741170 -0.176011 0.976517 0.927593
hzknife_v.bmp
  0 -5.594616 -13.600205 -4.831958 -0.619123 -0.767240 0.167421 0.749511 0.682975
  0 -7.484053 -11.484295 -5.596451 -0.642830 -0.742798 0.187140 0.976517 0.927593
  0 -7.069591 -12.408406 -3.632058 -0.642830 -0.742798 0.187140 0.718200 0.933464
hzknife_v.bmp
  0 -5.594616 -13.600205 -4.831958 -0.619123 -0.767240 0.167421 0.749511 0.682975
  0 -5.944411 -12.819171 -6.472241 -0.712416 -0.446187 -0.541646 0.966732 0.682975
  0 -7.484053 -11.484295 -5.596451 -0.642830 -0.742798 0.187140 0.976517 0.927593
hzknife_v.bmp
  0 -5.594616 -13.600205 -4.831958 -0.619123 -0.767240 0.167421 0.749511 0.682975
  0 -5.120611 -13.676863 -6.999801 -0.687122 -0.451199 -0.569459 0.960861 0.532290
  0 -5.944411 -12.819171 -6.472241 -0.712416 -0.446187 -0.541646 0.966732 0.682975
hzknife_v.bmp
  0 -5.594616 -13.600205 -4.831958 -0.619123 -0.767240 0.167421 0.749511 0.682975
  0 -4.678802 -14.532550 -5.437366 -0.596431 -0.789331 0.145694 0.747554 0.514677
  0 -5.120611 -13.676863 -6.999801 -0.687122 -0.451199 -0.569459 0.960861 0.532290
hzknife_v.bmp
  0 -5.594616 -13.600205 -4.831958 -0.619123 -0.767240 0.167421 0.749511 0.682975
  0 -4.254817 -15.390696 -3.691966 -0.596431 -0.789331 0.145694 0.518591 0.514677
  0 -4.678802 -14.532550 -5.437366 -0.596431 -0.789331 0.145694 0.747554 0.514677
hzknife_v.bmp
  0 -8.302299 -9.234105 -10.026543 -0.369426 0.201412 -0.907170 0.837573 0.213307
  0 -7.541881 -10.354254 -10.719025 -0.369426 0.201412 -0.907170 0.900196 0.005871
  0 -8.625048 -9.441912 -10.052032 -0.369426 0.201412 -0.907170 0.900196 0.227006
hzknife_v.bmp
  0 -8.625048 -9.441912 -10.052032 -0.369426 0.201412 -0.907170 0.900196 0.227006
  0 -7.541881 -10.354254 -10.719025 -0.369426 0.201412 -0.907170 0.900196 0.005871
  0 -8.834060 -9.764704 -10.156526 -0.369426 0.201412 -0.907170 0.960861 0.213307
hzknife_v.bmp
  0 -7.541881 -10.354254 -10.719025 -0.369426 0.201412 -0.907170 0.900196 0.005871
  0 -7.853170 -10.587702 -10.759045 -0.369426 0.201412 -0.907170 0.960861 0.015656
  0 -8.834060 -9.764704 -10.156526 -0.369426 0.201412 -0.907170 0.960861 0.213307
hzknife_v.bmp
  0 -8.834060 -9.764704 -10.156526 -0.369426 0.201412 -0.907170 0.960861 0.213307
  0 -7.853170 -10.587702 -10.759045 -0.369426 0.201412 -0.907170 0.960861 0.015656
  0 -8.820121 -9.989625 -10.264768 -0.369426 0.201412 -0.907170 0.988258 0.187867
hzknife_v.bmp
  0 -7.853170 -10.587702 -10.759045 -0.369426 0.201412 -0.907170 0.960861 0.015656
  0 -8.103006 -10.602172 -10.710339 -0.369426 0.201412 -0.907170 0.988258 0.041096
  0 -8.820121 -9.989625 -10.264768 -0.369426 0.201412 -0.907170 0.988258 0.187867
hzknife_v.bmp
  0 -6.335059 -12.338796 -6.093382 0.082125 -0.979275 -0.185137 0.021526 0.088063
  0 -6.398735 -11.804280 -6.302279 -0.268061 -0.955977 0.119376 0.097847 0.133072
  0 -7.366499 -11.464693 -5.455750 -0.708675 -0.013836 0.705399 0.021526 0.326810
hzknife_v.bmp
  0 -6.335059 -12.338796 -6.093382 0.082125 -0.979275 -0.185137 0.021526 0.088063
  0 -6.507241 -11.639572 -6.561504 -0.399742 -0.916608 0.006013 0.142857 0.136986
  0 -6.398735 -11.804280 -6.302279 -0.268061 -0.955977 0.119376 0.097847 0.133072
hzknife_v.bmp
  0 -6.335059 -12.338796 -6.093382 0.082125 -0.979275 -0.185137 0.021526 0.088063
  0 -6.487386 -11.876948 -6.643102 0.128977 -0.937684 -0.322665 0.133072 0.099804
  0 -6.507241 -11.639572 -6.561504 -0.399742 -0.916608 0.006013 0.142857 0.136986
hzknife_v.bmp
  0 -6.335059 -12.338796 -6.093382 0.082125 -0.979275 -0.185137 0.021526 0.088063
  0 -6.707859 -12.174099 -6.733066 0.500180 -0.698506 -0.511771 0.127202 0.035225
  0 -6.487386 -11.876948 -6.643102 0.128977 -0.937684 -0.322665 0.133072 0.099804
hzknife_v.bmp
  0 -6.335059 -12.338796 -6.093382 0.082125 -0.979275 -0.185137 0.021526 0.088063
  0 -6.465583 -12.558220 -6.166980 0.421593 -0.640295 -0.642092 0.019569 0.043053
  0 -6.707859 -12.174099 -6.733066 0.500180 -0.698506 -0.511771 0.127202 0.035225
hzknife_v.bmp
  0 -3.834864 -16.309514 -1.636238 0.314670 -0.549974 -0.773636 0.246575 0.516634
  0 -4.001843 -16.164548 -1.700294 0.421593 -0.640295 -0.642092 0.262231 0.536204
  0 -3.978179 -16.132251 -1.690450 0.463183 -0.672180 -0.577613 0.264188 0.532290
hzknife_v.bmp
  0 -3.834864 -16.309514 -1.636238 0.314670 -0.549974 -0.773636 0.246575 0.516634
  0 -3.842360 -16.315992 -1.637602 0.353120 -0.583655 -0.731200 0.246575 0.518591
  0 -4.001843 -16.164548 -1.700294 0.421593 -0.640295 -0.642092 0.262231 0.536204
hzknife_v.bmp
  0 -3.834864 -16.309514 -1.636238 0.314670 -0.549974 -0.773636 0.246575 0.516634
  0 -3.594438 -17.001614 0.036123 0.562240 -0.736455 -0.376192 0.031311 0.532290
  0 -3.842360 -16.315992 -1.637602 0.353120 -0.583655 -0.731200 0.246575 0.518591
hzknife_v.bmp
  0 -3.834864 -16.309514 -1.636238 0.314670 -0.549974 -0.773636 0.246575 0.516634
  0 -3.556960 -16.969228 0.042942 0.562240 -0.736455 -0.376192 0.031311 0.526419
  0 -3.594438 -17.001614 0.036123 0.562240 -0.736455 -0.376192 0.031311 0.532290
hzknife_v.bmp
  0 -7.605618 -11.588384 -5.460483 0.369426 -0.201411 0.907170 0.003914 0.342466
  0 -6.335059 -12.338796 -6.093382 0.369426 -0.201411 0.907170 0.021526 0.088063
  0 -7.366499 -11.464693 -5.455750 0.369426 -0.201411 0.907170 0.021526 0.326810
hzknife_v.bmp
  0 -7.605618 -11.588384 -5.460483 0.369426 -0.201411 0.907170 0.003914 0.342466
  0 -6.465583 -12.558220 -6.166980 0.369426 -0.201411 0.907170 0.003914 0.078278
  0 -6.335059 -12.338796 -6.093382 0.369426 -0.201411 0.907170 0.021526 0.088063
hzknife_v.bmp
  0 -7.605618 -11.588384 -5.460483 0.369426 -0.201411 0.907170 0.003914 0.342466
  0 -6.692065 -12.694688 -6.180492 0.369426 -0.201411 0.907170 0.021526 0.088063
  0 -6.465583 -12.558220 -6.166980 0.369426 -0.201411 0.907170 0.003914 0.078278
hzknife_v.bmp
  0 -7.605618 -11.588384 -5.460483 0.369426 -0.201411 0.907170 0.003914 0.342466
  0 -7.723505 -11.820585 -5.542860 0.369426 -0.201411 0.907170 0.021526 0.326810
  0 -6.692065 -12.694688 -6.180492 0.369426 -0.201411 0.907170 0.021526 0.088063
hzknife_v.bmp
  0 -7.950549 -11.820562 -6.348186 0.387333 0.921935 -0.003171 0.144814 0.283757
  0 -7.376257 -12.180803 -7.207090 0.828746 0.433895 -0.353433 0.217221 0.136986
  0 -7.267404 -12.403084 -6.749660 0.828746 0.433895 -0.353433 0.142857 0.136986
hzknife_v.bmp
  0 -7.267404 -12.403084 -6.749660 0.828746 0.433895 -0.353433 0.142857 0.136986
  0 -7.376257 -12.180803 -7.207090 0.828746 0.433895 -0.353433 0.217221 0.136986
  0 -7.019147 -12.407547 -6.773085 0.801327 -0.256371 -0.540508 0.133072 0.099804
hzknife_v.bmp
  0 -7.376257 -12.180803 -7.207090 0.828746 0.433895 -0.353433 0.217221 0.136986
  0 -7.122085 -12.197721 -7.203872 0.829442 -0.293596 -0.475214 0.207436 0.097847
  0 -7.019147 -12.407547 -6.773085 0.801327 -0.256371 -0.540508 0.133072 0.099804
hzknife_v.bmp
  0 -7.019147 -12.407547 -6.773085 0.801327 -0.256371 -0.540508 0.133072 0.099804
  0 -7.122085 -12.197721 -7.203872 0.829442 -0.293596 -0.475214 0.207436 0.097847
  0 -6.810796 -11.964273 -7.163852 0.549297 -0.727589 -0.410959 0.203523 0.031311
hzknife_v.bmp
  0 -8.402095 -10.869803 -8.381967 0.387333 0.921935 -0.003171 0.483366 0.283757
  0 -7.706615 -11.373041 -9.154468 0.828746 0.433895 -0.353433 0.532290 0.117417
  0 -7.580822 -11.644822 -8.555043 0.828746 0.433895 -0.353433 0.434442 0.119374
hzknife_v.bmp
  0 -7.580822 -11.644822 -8.555043 0.828746 0.433895 -0.353433 0.434442 0.119374
  0 -7.706615 -11.373041 -9.154468 0.828746 0.433895 -0.353433 0.532290 0.117417
  0 -7.326650 -11.661741 -8.551825 0.829442 -0.293596 -0.475214 0.424658 0.078278
hzknife_v.bmp
  0 -7.706615 -11.373041 -9.154468 0.828746 0.433895 -0.353433 0.532290 0.117417
  0 -7.448096 -11.392196 -9.164521 0.816145 -0.278520 -0.506295 0.524462 0.078278
  0 -7.326650 -11.661741 -8.551825 0.829442 -0.293596 -0.475214 0.424658 0.078278
hzknife_v.bmp
  0 -7.326650 -11.661741 -8.551825 0.829442 -0.293596 -0.475214 0.424658 0.078278
  0 -7.448096 -11.392196 -9.164521 0.816145 -0.278520 -0.506295 0.524462 0.078278
  0 -7.130489 -11.165136 -9.128891 0.526681 -0.715823 -0.458481 0.524462 0.011742
hzknife_v.bmp
  0 -5.158090 -13.709249 -7.006620 -0.348617 0.174183 -0.920938 0.610568 0.426614
  0 -6.126661 -13.000355 -6.516478 -0.348617 0.174183 -0.920938 0.810176 0.446184
  0 -5.944411 -12.819171 -6.472241 -0.712416 -0.446187 -0.541646 0.810176 0.399217
hzknife_v.bmp
  0 -5.944411 -12.819171 -6.472241 -0.712416 -0.446187 -0.541646 0.810176 0.399217
  0 -6.126661 -13.000355 -6.516478 -0.348617 0.174183 -0.920938 0.810176 0.446184
  0 -6.746414 -12.126225 -6.015276 -0.752951 -0.616927 -0.229053 0.990215 0.399217
hzknife_v.bmp
  0 -6.126661 -13.000355 -6.516478 -0.348617 0.174183 -0.920938 0.810176 0.446184
  0 -6.928665 -12.307409 -6.059513 -0.348617 0.174183 -0.920938 0.990215 0.446184
  0 -6.746414 -12.126225 -6.015276 -0.752951 -0.616927 -0.229053 0.990215 0.399217
hzknife_v.bmp
  0 -6.113386 -15.042012 1.714146 0.395238 -0.235735 0.887815 0.745597 0.452055
  0 -4.541320 -16.338391 0.623958 0.395238 -0.235735 0.887815 0.500978 0.452055
  0 -4.359069 -16.157206 0.668195 0.395238 -0.235735 0.887815 0.500978 0.483366
hzknife_v.bmp
  0 -4.359069 -16.157206 0.668195 0.395238 -0.235735 0.887815 0.500978 0.483366
  0 -4.541320 -16.338391 0.623958 0.395238 -0.235735 0.887815 0.500978 0.452055
  0 -3.556960 -16.969228 0.042942 0.395238 -0.235735 0.887815 0.365949 0.469667
hzknife_v.bmp
  0 -4.541320 -16.338391 0.623958 0.395238 -0.235735 0.887815 0.500978 0.452055
  0 -3.594438 -17.001614 0.036123 0.395238 -0.235735 0.887815 0.365949 0.465753
  0 -3.556960 -16.969228 0.042942 0.395238 -0.235735 0.887815 0.365949 0.469667
hzknife_v.bmp
  0 -7.009042 -11.434681 -8.516195 0.562240 -0.736455 -0.376192 0.420744 0.013699
  0 -6.794889 -11.131142 -8.421842 0.170500 -0.948310 -0.267652 0.424658 0.078278
  0 -6.590324 -11.667122 -7.073889 0.170500 -0.948310 -0.267652 0.207436 0.097847
hzknife_v.bmp
  0 -6.590324 -11.667122 -7.073889 0.170500 -0.948310 -0.267652 0.207436 0.097847
  0 -6.794889 -11.131142 -8.421842 0.170500 -0.948310 -0.267652 0.424658 0.078278
  0 -6.820659 -10.881310 -8.366887 -0.399742 -0.916608 0.006013 0.434442 0.119374
hzknife_v.bmp
  0 -6.794889 -11.131142 -8.421842 0.170500 -0.948310 -0.267652 0.424658 0.078278
  0 -6.940133 -10.615917 -8.970702 -0.399742 -0.916608 0.006013 0.532290 0.117417
  0 -6.820659 -10.881310 -8.366887 -0.399742 -0.916608 0.006013 0.434442 0.119374
hzknife_v.bmp
  0 -7.335348 -9.832182 -10.520820 -0.369426 0.201412 -0.907170 0.810176 0.041096
  0 -7.328905 -10.063581 -10.630425 -0.369426 0.201412 -0.907170 0.837573 0.015656
  0 -8.059958 -9.226113 -10.076612 -0.369426 0.201412 -0.907170 0.810176 0.187867
hzknife_v.bmp
  0 -8.059958 -9.226113 -10.076612 -0.369426 0.201412 -0.907170 0.810176 0.187867
  0 -7.328905 -10.063581 -10.630425 -0.369426 0.201412 -0.907170 0.837573 0.015656
  0 -8.302299 -9.234105 -10.026543 -0.369426 0.201412 -0.907170 0.837573 0.213307
hzknife_v.bmp
  0 -7.328905 -10.063581 -10.630425 -0.369426 0.201412 -0.907170 0.837573 0.015656
  0 -7.541881 -10.354254 -10.719025 -0.369426 0.201412 -0.907170 0.900196 0.005871
  0 -8.302299 -9.234105 -10.026543 -0.369426 0.201412 -0.907170 0.837573 0.213307
hzknife_v.bmp
  0 -5.158090 -13.709249 -7.006620 0.500180 -0.698506 -0.511771 0.960861 0.532290
  0 -5.120611 -13.676863 -6.999801 0.500180 -0.698506 -0.511771 0.960861 0.526419
  0 -4.686298 -14.539027 -5.438730 0.500180 -0.698506 -0.511771 0.747554 0.514677
hzknife_v.bmp
  0 -4.686298 -14.539027 -5.438730 0.500180 -0.698506 -0.511771 0.747554 0.514677
  0 -5.120611 -13.676863 -6.999801 0.500180 -0.698506 -0.511771 0.960861 0.526419
  0 -4.678802 -14.532550 -5.437366 0.500180 -0.698506 -0.511771 0.747554 0.512720
hzknife_v.bmp
  0 -7.759092 -11.597625 -5.599625 -0.532297 0.719323 0.446358 0.007828 0.440313
  0 -7.569345 -11.409963 -5.554025 -0.532297 0.719323 0.446358 0.007828 0.479452
  0 -8.270554 -10.499959 -8.001819 -0.654547 0.659944 -0.368840 0.344423 0.440313
hzknife_v.bmp
  0 -8.270554 -10.499959 -8.001819 -0.654547 0.659944 -0.368840 0.344423 0.440313
  0 -7.569345 -11.409963 -5.554025 -0.532297 0.719323 0.446358 0.007828 0.479452
  0 -8.087127 -10.305909 -7.951830 -0.654547 0.659944 -0.368840 0.344423 0.479452
hzknife_v.bmp
  0 -7.667481 -11.678345 -5.646441 0.647832 0.741170 -0.176011 0.007828 0.426614
  0 -7.759092 -11.597625 -5.599625 0.647832 0.741170 -0.176011 0.007828 0.440313
  0 -8.199871 -10.557363 -8.044348 0.647832 0.741170 -0.176011 0.344423 0.426614
hzknife_v.bmp
  0 -8.199871 -10.557363 -8.044348 0.647832 0.741170 -0.176011 0.344423 0.426614
  0 -7.759092 -11.597625 -5.599625 0.647832 0.741170 -0.176011 0.007828 0.440313
  0 -8.270554 -10.499959 -8.001819 0.647832 0.741170 -0.176011 0.344423 0.440313
hzknife_v.bmp
  0 -8.199871 -10.557363 -8.044348 -0.348617 0.174183 -0.920938 0.344423 0.426614
  0 -8.270554 -10.499959 -8.001819 -0.654547 0.659944 -0.368840 0.344423 0.440313
  0 -8.016444 -10.363313 -7.994358 -0.348617 0.174183 -0.920938 0.381605 0.426614
hzknife_v.bmp
  0 -8.016444 -10.363313 -7.994358 -0.348617 0.174183 -0.920938 0.381605 0.426614
  0 -8.270554 -10.499959 -8.001819 -0.654547 0.659944 -0.368840 0.344423 0.440313
  0 -8.087127 -10.305909 -7.951830 -0.654547 0.659944 -0.368840 0.383562 0.440313
hzknife_v.bmp
  0 -8.087127 -10.305909 -7.951830 -0.642830 -0.742798 0.187140 0.344423 0.440313
  0 -7.569345 -11.409963 -5.554025 -0.642830 -0.742798 0.187140 0.007828 0.440313
  0 -8.016444 -10.363313 -7.994358 -0.642830 -0.742798 0.187140 0.344423 0.426614
hzknife_v.bmp
  0 -8.016444 -10.363313 -7.994358 -0.642830 -0.742798 0.187140 0.344423 0.426614
  0 -7.569345 -11.409963 -5.554025 -0.642830 -0.742798 0.187140 0.007828 0.440313
  0 -7.484053 -11.484295 -5.596451 -0.642830 -0.742798 0.187140 0.007828 0.426614
hzknife_v.bmp
  0 -7.335348 -9.832182 -10.520820 -0.399742 -0.916608 0.006013 0.798434 0.125245
  0 -6.916335 -10.861597 -9.034538 0.128977 -0.937684 -0.322665 0.524462 0.078278
  0 -7.328905 -10.063581 -10.630425 0.128977 -0.937684 -0.322665 0.796477 0.086106
hzknife_v.bmp
  0 -7.328905 -10.063581 -10.630425 0.128977 -0.937684 -0.322665 0.796477 0.086106
  0 -6.916335 -10.861597 -9.034538 0.128977 -0.937684 -0.322665 0.524462 0.078278
  0 -7.130489 -11.165136 -9.128891 0.526681 -0.715823 -0.458481 0.524462 0.011742
hzknife_v.bmp
  0 -6.692065 -12.694688 -6.180492 0.912869 -0.131085 -0.386635 0.021526 0.088063
  0 -7.723505 -11.820585 -5.542860 0.149486 0.887579 0.435727 0.021526 0.326810
  0 -7.166393 -12.574269 -6.491799 0.921240 0.322373 -0.217698 0.097847 0.133072
hzknife_v.bmp
  0 -7.166393 -12.574269 -6.491799 0.921240 0.322373 -0.217698 0.097847 0.133072
  0 -7.723505 -11.820585 -5.542860 0.149486 0.887579 0.435727 0.021526 0.326810
  0 -7.883507 -11.961723 -6.046227 0.508168 0.835394 0.209478 0.097847 0.281800
hzknife_v.bmp
  0 -5.120611 -13.676863 -6.999801 -0.687122 -0.451199 -0.569459 0.610568 0.418787
  0 -5.158090 -13.709249 -7.006620 -0.348617 0.174183 -0.920938 0.610568 0.426614
  0 -5.944411 -12.819171 -6.472241 -0.712416 -0.446187 -0.541646 0.810176 0.399217
hzknife_v.bmp
  0 -5.929958 -14.847962 1.764136 0.395238 -0.235735 0.887815 0.745597 0.483366
  0 -6.113386 -15.042012 1.714146 0.395238 -0.235735 0.887815 0.745597 0.452055
  0 -4.359069 -16.157206 0.668195 0.395238 -0.235735 0.887815 0.500978 0.483366
hzknife_v.bmp
  0 -7.759092 -11.597625 -5.599625 0.647832 0.741170 -0.176011 0.976517 0.947162
  0 -7.667481 -11.678345 -5.646441 0.647832 0.741170 -0.176011 0.976517 0.927593
  0 -7.229355 -12.570158 -3.672203 0.647832 0.741170 -0.176011 0.718200 0.933464
hzknife_v.bmp
  0 -3.594438 -17.001614 0.036123 0.697032 0.684050 -0.214993 0.031311 0.532290
  0 -4.541320 -16.338391 0.623958 0.670970 0.715175 -0.195764 0.025440 0.682975
  0 -3.842360 -16.315992 -1.637602 0.697032 0.684050 -0.214993 0.246575 0.518591
hzknife_v.bmp
  0 -6.113386 -15.042012 1.714146 -0.548471 0.728903 0.409731 0.990215 0.954990
  0 -5.929958 -14.847962 1.764136 -0.548471 0.728903 0.409731 0.990215 0.990215
  0 -6.478092 -14.151989 -0.288489 -0.532297 0.719323 0.446358 0.727984 0.954990
hzknife_v.bmp
  0 -4.001843 -16.164548 -1.700294 0.421593 -0.640295 -0.642092 0.262231 0.536204
  0 -3.921535 -16.057860 -2.355098 0.526681 -0.715823 -0.458481 0.338552 0.506849
  0 -3.978179 -16.132251 -1.690450 0.463183 -0.672180 -0.577613 0.264188 0.532290
hzknife_v.bmp
  0 -6.928665 -12.307409 -6.059513 0.647832 0.741170 -0.176011 0.972603 0.808219
  0 -6.126661 -13.000355 -6.516478 0.670970 0.715175 -0.195764 0.966732 0.682975
  0 -7.667481 -11.678345 -5.646441 0.647832 0.741170 -0.176011 0.976517 0.927593
hzknife_v.bmp
  0 -7.069591 -12.408406 -3.632058 -0.642830 -0.742798 0.187140 0.718200 0.933464
  0 -7.484053 -11.484295 -5.596451 -0.642830 -0.742798 0.187140 0.976517 0.927593
  0 -7.569345 -11.409963 -5.554025 -0.642830 -0.742798 0.187140 0.976517 0.947162
hzknife_v.bmp
  0 -3.556960 -16.969228 0.042942 -0.596431 -0.789331 0.145694 0.031311 0.532290
  0 -3.834864 -16.309514 -1.636238 -0.596431 -0.789331 0.145694 0.246575 0.518591
  0 -4.359069 -16.157206 0.668195 -0.619123 -0.767240 0.167421 0.025440 0.682975
hzknife_v.bmp
  0 -6.746414 -12.126225 -6.015276 -0.752951 -0.616927 -0.229053 0.972603 0.808219
  0 -7.484053 -11.484295 -5.596451 -0.642830 -0.742798 0.187140 0.976517 0.927593
  0 -5.944411 -12.819171 -6.472241 -0.712416 -0.446187 -0.541646 0.966732 0.682975
hzknife_v.bmp
  0 -8.302299 -9.234105 -10.026543 -0.828377 0.251706 0.500436 0.796477 0.322896
  0 -8.625048 -9.441912 -10.052032 -0.532297 0.719323 0.446358 0.796477 0.389432
  0 -7.872443 -10.139194 -8.090455 -0.828377 0.251706 0.500436 0.473581 0.322896
hzknife_v.bmp
  0 -6.616094 -11.417291 -7.018934 -0.399742 -0.916608 0.006013 0.217221 0.136986
  0 -6.590324 -11.667122 -7.073889 0.170500 -0.948310 -0.267652 0.207436 0.097847
  0 -6.820659 -10.881310 -8.366887 -0.399742 -0.916608 0.006013 0.434442 0.119374
hzknife_v.bmp
  0 -6.465583 -12.558220 -6.166980 0.421593 -0.640295 -0.642092 0.019569 0.043053
  0 -6.692065 -12.694688 -6.180492 0.912869 -0.131085 -0.386635 0.021526 0.088063
  0 -6.707859 -12.174099 -6.733066 0.500180 -0.698506 -0.511771 0.127202 0.035225
end
