version 1
nodes
0 "root" -1
end
skeleton
time 0
0 0 0 0 0 0 0
end
triangles
dao-bomb.bmp
0  2.147203 0.009984 5.351769  0.607253 0.056759 0.792479  0.380392 0.948207 0
0  1.297203 -0.110015 5.761768  0.333141 0.003455 0.942871  0.486275 1.000000 0
0  1.967202 -0.980015 5.171768  0.598326 -0.297584 0.743942  0.435294 0.888446 0
dao-bomb.bmp
0  1.297203 -0.110015 5.761768  0.333141 0.003455 0.942871  0.486275 1.000000 0
0  1.217202 -0.750014 5.661768  0.347076 -0.235553 0.907774  0.501961 0.956175 0
0  1.967202 -0.980015 5.171768  0.598326 -0.297584 0.743942  0.435294 0.888446 0
dao-bomb.bmp
0  1.967202 -0.980015 5.171768  0.598326 -0.297584 0.743942  0.435294 0.888446 0
0  1.217202 -0.750014 5.661768  0.347076 -0.235553 0.907774  0.501961 0.956175 0
0  1.687201 -1.720015 5.041767  0.534893 -0.565207 0.628037  0.482353 0.848606 0
dao-bomb.bmp
0  1.217202 -0.750014 5.661768  0.347076 -0.235553 0.907774  0.501961 0.956175 0
0  0.707201 -1.470014 5.611767  0.212031 -0.429676 0.877736  0.556863 0.912351 0
0  1.687201 -1.720015 5.041767  0.534893 -0.565207 0.628037  0.482353 0.848606 0
dao-bomb.bmp
0  1.687201 -1.720015 5.041767  0.534893 -0.565207 0.628037  0.482353 0.848606 0
0  0.707201 -1.470014 5.611767  0.212031 -0.429676 0.877736  0.556863 0.912351 0
0  1.037201 -2.260014 4.831766  0.302898 -0.780165 0.547353  0.537255 0.820717 0
dao-bomb.bmp
0  0.707201 -1.470014 5.611767  0.212031 -0.429676 0.877736  0.556863 0.912351 0
0  -0.002799 -1.690013 5.581766  -0.001271 -0.532510 0.846423  0.611765 0.900398 0
0  1.037201 -2.260014 4.831766  0.302898 -0.780165 0.547353  0.537255 0.820717 0
dao-bomb.bmp
0  1.037201 -2.260014 4.831766  0.302898 -0.780165 0.547353  0.537255 0.820717 0
0  -0.002799 -1.690013 5.581766  -0.001271 -0.532510 0.846423  0.611765 0.900398 0
0  -0.002800 -2.470012 4.801764  -0.004751 -0.834280 0.551320  0.615686 0.812749 0
dao-bomb.bmp
0  -0.002799 -1.690013 5.581766  -0.001271 -0.532510 0.846423  0.611765 0.900398 0
0  -1.032799 -2.260011 4.831764  -0.290296 -0.778653 0.556262  0.694118 0.816733 0
0  -0.002800 -2.470012 4.801764  -0.004751 -0.834280 0.551320  0.615686 0.812749 0
dao-bomb.bmp
0  -0.002800 -2.470012 4.801764  -0.004751 -0.834280 0.551320  0.615686 0.812749 0
0  -1.032799 -2.260011 4.831764  -0.290296 -0.778653 0.556262  0.694118 0.816733 0
0  -0.002799 -2.720012 4.231764  -0.005199 -0.950878 0.309523  0.619608 0.756972 0
dao-bomb.bmp
0  -1.032799 -2.260011 4.831764  -0.290296 -0.778653 0.556262  0.694118 0.816733 0
0  -1.162799 -2.480010 4.251763  -0.365616 -0.870648 0.329085  0.705882 0.764940 0
0  -0.002799 -2.720012 4.231764  -0.005199 -0.950878 0.309523  0.619608 0.756972 0
dao-bomb.bmp
0  -0.002799 -2.720012 4.231764  -0.005199 -0.950878 0.309523  0.619608 0.756972 0
0  -1.162799 -2.480010 4.251763  -0.365616 -0.870648 0.329085  0.705882 0.764940 0
0  -0.002799 -2.830010 3.751765  -0.002443 -0.991943 0.126660  0.623529 0.717131 0
dao-bomb.bmp
0  -1.162799 -2.480010 4.251763  -0.365616 -0.870648 0.329085  0.705882 0.764940 0
0  -0.617624 -2.718441 3.794150  -0.184415 -0.966785 0.176969  0.670588 0.721116 0
0  -0.002799 -2.830010 3.751765  -0.002443 -0.991943 0.126660  0.623529 0.717131 0
dao-bomb.bmp
0  -0.002799 -2.830010 3.751765  -0.002443 -0.991943 0.126660  0.623529 0.717131 0
0  -0.617624 -2.718441 3.794150  -0.184415 -0.966785 0.176969  0.670588 0.721116 0
0  -0.423653 -2.768441 3.624151  -0.173917 -0.984312 0.029705  0.658824 0.709163 0
dao-bomb.bmp
0  -0.617624 -2.718441 3.794150  -0.184415 -0.966785 0.176969  0.670588 0.721116 0
0  -1.272799 -2.590008 3.671763  -0.392609 -0.915348 0.089416  0.721569 0.713147 0
0  -0.423653 -2.768441 3.624151  -0.173917 -0.984312 0.029705  0.658824 0.709163 0
dao-bomb.bmp
0  -0.423653 -2.768441 3.624151  -0.173917 -0.984312 0.029705  0.658824 0.709163 0
0  -1.272799 -2.590008 3.671763  -0.392609 -0.915348 0.089416  0.721569 0.713147 0
0  -0.002798 -2.830010 3.171765  -0.003287 -0.999198 -0.039910  0.627451 0.669323 0
dao-bomb.bmp
0  -1.272799 -2.590008 3.671763  -0.392609 -0.915348 0.089416  0.721569 0.713147 0
0  -0.002798 -2.790009 2.301764  -0.010536 -0.920445 -0.390730  0.635294 0.597610 0
0  -0.002798 -2.830010 3.171765  -0.003287 -0.999198 -0.039910  0.627451 0.669323 0
dao-bomb.bmp
0  -0.002798 -2.830010 3.171765  -0.003287 -0.999198 -0.039910  0.627451 0.669323 0
0  -0.002798 -2.790009 2.301764  -0.010536 -0.920445 -0.390730  0.635294 0.597610 0
0  0.647203 -2.660010 2.291765  0.211201 -0.898783 -0.384165  0.588235 0.593625 0
dao-bomb.bmp
0  -0.002798 -2.790009 2.301764  -0.010536 -0.920445 -0.390730  0.635294 0.597610 0
0  -0.002797 -2.350009 1.881765  -0.009903 -0.638647 -0.769436  0.639216 0.549801 0
0  0.647203 -2.660010 2.291765  0.211201 -0.898783 -0.384165  0.588235 0.593625 0
dao-bomb.bmp
0  0.647203 -2.660010 2.291765  0.211201 -0.898783 -0.384165  0.588235 0.593625 0
0  -0.002797 -2.350009 1.881765  -0.009903 -0.638647 -0.769436  0.639216 0.549801 0
0  0.577203 -2.360009 1.961766  0.045562 -0.613899 -0.788068  0.592157 0.561753 0
dao-bomb.bmp
0  -0.002797 -2.350009 1.881765  -0.009903 -0.638647 -0.769436  0.639216 0.549801 0
0  0.783061 -1.850737 1.656046  0.117436 -0.318804 -0.940517  0.584314 0.517928 0
0  0.577203 -2.360009 1.961766  0.045562 -0.613899 -0.788068  0.592157 0.561753 0
dao-bomb.bmp
0  0.577203 -2.360009 1.961766  0.045562 -0.613899 -0.788068  0.592157 0.561753 0
0  0.783061 -1.850737 1.656046  0.117436 -0.318804 -0.940517  0.584314 0.517928 0
0  0.843060 -2.380737 1.976046  0.130324 -0.703641 -0.698503  0.576471 0.565737 0
dao-bomb.bmp
0  0.783061 -1.850737 1.656046  0.117436 -0.318804 -0.940517  0.584314 0.517928 0
0  1.191152 -1.940141 1.742548  0.335270 -0.394562 -0.855520  0.556863 0.529880 0
0  0.843060 -2.380737 1.976046  0.130324 -0.703641 -0.698503  0.576471 0.565737 0
dao-bomb.bmp
0  0.843060 -2.380737 1.976046  0.130324 -0.703641 -0.698503  0.576471 0.565737 0
0  1.191152 -1.940141 1.742548  0.335270 -0.394562 -0.855520  0.556863 0.529880 0
0  1.301151 -2.370142 2.162548  0.434088 -0.712953 -0.550695  0.549020 0.585657 0
dao-bomb.bmp
0  1.191152 -1.940141 1.742548  0.335270 -0.394562 -0.855520  0.556863 0.529880 0
0  1.891151 -1.970143 2.422548  0.674192 -0.536669 -0.507397  0.498039 0.593625 0
0  1.301151 -2.370142 2.162548  0.434088 -0.712953 -0.550695  0.549020 0.585657 0
dao-bomb.bmp
0  1.301151 -2.370142 2.162548  0.434088 -0.712953 -0.550695  0.549020 0.585657 0
0  1.891151 -1.970143 2.422548  0.674192 -0.536669 -0.507397  0.498039 0.593625 0
0  1.751151 -2.270144 2.592548  0.646261 -0.708568 -0.283334  0.513725 0.613546 0
dao-bomb.bmp
0  1.891151 -1.970143 2.422548  0.674192 -0.536669 -0.507397  0.498039 0.593625 0
0  2.230741 -1.709745 2.759456  0.839237 -0.505953 -0.199232  0.470588 0.617530 0
0  1.751151 -2.270144 2.592548  0.646261 -0.708568 -0.283334  0.513725 0.613546 0
dao-bomb.bmp
0  1.751151 -2.270144 2.592548  0.646261 -0.708568 -0.283334  0.513725 0.613546 0
0  2.230741 -1.709745 2.759456  0.839237 -0.505953 -0.199232  0.470588 0.617530 0
0  1.860741 -2.229745 2.859455  0.678598 -0.728416 -0.094422  0.501961 0.633466 0
dao-bomb.bmp
0  2.230741 -1.709745 2.759456  0.839237 -0.505953 -0.199232  0.470588 0.617530 0
0  2.157202 -1.970014 3.861768  0.741024 -0.649178 0.171616  0.462745 0.729084 0
0  1.860741 -2.229745 2.859455  0.678598 -0.728416 -0.094422  0.501961 0.633466 0
dao-bomb.bmp
0  1.860741 -2.229745 2.859455  0.678598 -0.728416 -0.094422  0.501961 0.633466 0
0  2.157202 -1.970014 3.861768  0.741024 -0.649178 0.171616  0.462745 0.729084 0
0  1.277201 -2.590013 3.681766  0.381718 -0.918248 0.105416  0.529412 0.713147 0
dao-bomb.bmp
0  2.157202 -1.970014 3.861768  0.741024 -0.649178 0.171616  0.462745 0.729084 0
0  1.167201 -2.480013 4.251766  0.369357 -0.866964 0.334588  0.537255 0.764940 0
0  1.277201 -2.590013 3.681766  0.381718 -0.918248 0.105416  0.529412 0.713147 0
dao-bomb.bmp
0  1.277201 -2.590013 3.681766  0.381718 -0.918248 0.105416  0.529412 0.713147 0
0  1.167201 -2.480013 4.251766  0.369357 -0.866964 0.334588  0.537255 0.764940 0
0  0.622376 -2.718443 3.794152  0.180231 -0.962542 0.202558  0.576471 0.721116 0
dao-bomb.bmp
0  1.167201 -2.480013 4.251766  0.369357 -0.866964 0.334588  0.537255 0.764940 0
0  -0.002799 -2.830010 3.751765  -0.002443 -0.991943 0.126660  0.623529 0.717131 0
0  0.622376 -2.718443 3.794152  0.180231 -0.962542 0.202558  0.576471 0.721116 0
dao-bomb.bmp
0  0.622376 -2.718443 3.794152  0.180231 -0.962542 0.202558  0.576471 0.721116 0
0  -0.002799 -2.830010 3.751765  -0.002443 -0.991943 0.126660  0.623529 0.717131 0
0  0.431364 -2.768444 3.634151  0.172131 -0.984602 0.030495  0.592157 0.705179 0
dao-bomb.bmp
0  -0.002799 -2.830010 3.751765  -0.002443 -0.991943 0.126660  0.623529 0.717131 0
0  -0.002798 -2.830010 3.171765  -0.003287 -0.999198 -0.039910  0.627451 0.669323 0
0  0.431364 -2.768444 3.634151  0.172131 -0.984602 0.030495  0.592157 0.705179 0
dao-bomb.bmp
0  0.431364 -2.768444 3.634151  0.172131 -0.984602 0.030495  0.592157 0.705179 0
0  -0.002798 -2.830010 3.171765  -0.003287 -0.999198 -0.039910  0.627451 0.669323 0
0  1.277201 -2.590013 3.681766  0.381718 -0.918248 0.105416  0.529412 0.713147 0
dao-bomb.bmp
0  -0.002798 -2.830010 3.171765  -0.003287 -0.999198 -0.039910  0.627451 0.669323 0
0  0.647203 -2.660010 2.291765  0.211201 -0.898783 -0.384165  0.588235 0.593625 0
0  1.277201 -2.590013 3.681766  0.381718 -0.918248 0.105416  0.529412 0.713147 0
dao-bomb.bmp
0  1.277201 -2.590013 3.681766  0.381718 -0.918248 0.105416  0.529412 0.713147 0
0  0.647203 -2.660010 2.291765  0.211201 -0.898783 -0.384165  0.588235 0.593625 0
0  1.297202 -2.550011 2.961766  0.362547 -0.930135 -0.058375  0.537255 0.645418 0
dao-bomb.bmp
0  0.647203 -2.660010 2.291765  0.211201 -0.898783 -0.384165  0.588235 0.593625 0
0  1.050741 -2.469743 2.209454  0.286516 -0.862179 -0.417799  0.564706 0.585657 0
0  1.297202 -2.550011 2.961766  0.362547 -0.930135 -0.058375  0.537255 0.645418 0
dao-bomb.bmp
0  1.297202 -2.550011 2.961766  0.362547 -0.930135 -0.058375  0.537255 0.645418 0
0  1.050741 -2.469743 2.209454  0.286516 -0.862179 -0.417799  0.564706 0.585657 0
0  1.340741 -2.499744 2.519454  0.314145 -0.930396 -0.188883  0.541176 0.613546 0
dao-bomb.bmp
0  1.050741 -2.469743 2.209454  0.286516 -0.862179 -0.417799  0.564706 0.585657 0
0  1.301151 -2.370142 2.162548  0.434088 -0.712953 -0.550695  0.549020 0.585657 0
0  1.340741 -2.499744 2.519454  0.314145 -0.930396 -0.188883  0.541176 0.613546 0
dao-bomb.bmp
0  1.340741 -2.499744 2.519454  0.314145 -0.930396 -0.188883  0.541176 0.613546 0
0  1.301151 -2.370142 2.162548  0.434088 -0.712953 -0.550695  0.549020 0.585657 0
0  1.751151 -2.270144 2.592548  0.646261 -0.708568 -0.283334  0.513725 0.613546 0
dao-bomb.bmp
0  -1.922793 0.219994 1.871766  -0.595878 0.226592 -0.770445  0.850980 0.442231 0
0  -1.012792 0.209993 1.431766  -0.397888 0.209766 -0.893131  0.741176 0.362550 0
0  -1.922794 -0.580006 1.801765  -0.589012 -0.067420 -0.805307  0.815686 0.486056 0
dao-bomb.bmp
0  -1.012792 0.209993 1.431766  -0.397888 0.209766 -0.893131  0.741176 0.362550 0
0  -0.882793 -0.240007 1.411766  -0.280114 -0.112661 -0.953333  0.725490 0.410359 0
0  -1.922794 -0.580006 1.801765  -0.589012 -0.067420 -0.805307  0.815686 0.486056 0
dao-bomb.bmp
0  -1.922794 -0.580006 1.801765  -0.589012 -0.067420 -0.805307  0.815686 0.486056 0
0  -0.882793 -0.240007 1.411766  -0.280114 -0.112661 -0.953333  0.725490 0.410359 0
0  -1.542795 -1.250006 1.731765  -0.430388 -0.237057 -0.870959  0.764706 0.505976 0
dao-bomb.bmp
0  -0.882793 -0.240007 1.411766  -0.280114 -0.112661 -0.953333  0.725490 0.410359 0
0  -0.442794 -0.690008 1.411766  -0.162760 -0.178663 -0.970355  0.682353 0.430279 0
0  -1.542795 -1.250006 1.731765  -0.430388 -0.237057 -0.870959  0.764706 0.505976 0
dao-bomb.bmp
0  -1.542795 -1.250006 1.731765  -0.430388 -0.237057 -0.870959  0.764706 0.505976 0
0  -0.442794 -0.690008 1.411766  -0.162760 -0.178663 -0.970355  0.682353 0.430279 0
0  -0.780781 -1.850736 1.656046  -0.166382 -0.363682 -0.916544  0.698039 0.517928 0
dao-bomb.bmp
0  -0.442794 -0.690008 1.411766  -0.162760 -0.178663 -0.970355  0.682353 0.430279 0
0  -0.002796 -1.990008 1.611766  -0.004500 -0.420864 -0.907113  0.639216 0.517928 0
0  -0.780781 -1.850736 1.656046  -0.166382 -0.363682 -0.916544  0.698039 0.517928 0
dao-bomb.bmp
0  -0.780781 -1.850736 1.656046  -0.166382 -0.363682 -0.916544  0.698039 0.517928 0
0  -0.002796 -1.990008 1.611766  -0.004500 -0.420864 -0.907113  0.639216 0.517928 0
0  -0.582797 -2.340008 1.981765  -0.072096 -0.649296 -0.757111  0.678431 0.561753 0
dao-bomb.bmp
0  -0.002796 -1.990008 1.611766  -0.004500 -0.420864 -0.907113  0.639216 0.517928 0
0  -0.002797 -2.350009 1.881765  -0.009903 -0.638647 -0.769436  0.639216 0.549801 0
0  -0.582797 -2.340008 1.981765  -0.072096 -0.649296 -0.757111  0.678431 0.561753 0
dao-bomb.bmp
0  -0.582797 -2.340008 1.981765  -0.072096 -0.649296 -0.757111  0.678431 0.561753 0
0  -0.002797 -2.350009 1.881765  -0.009903 -0.638647 -0.769436  0.639216 0.549801 0
0  -0.642797 -2.660008 2.291764  -0.237041 -0.884227 -0.402436  0.682353 0.593625 0
dao-bomb.bmp
0  -0.002797 -2.350009 1.881765  -0.009903 -0.638647 -0.769436  0.639216 0.549801 0
0  -0.002798 -2.790009 2.301764  -0.010536 -0.920445 -0.390730  0.635294 0.597610 0
0  -0.642797 -2.660008 2.291764  -0.237041 -0.884227 -0.402436  0.682353 0.593625 0
dao-bomb.bmp
0  -0.642797 -2.660008 2.291764  -0.237041 -0.884227 -0.402436  0.682353 0.593625 0
0  -0.002798 -2.790009 2.301764  -0.010536 -0.920445 -0.390730  0.635294 0.597610 0
0  -1.292798 -2.550009 2.951764  -0.398318 -0.912626 -0.091962  0.725490 0.649402 0
dao-bomb.bmp
0  -0.002798 -2.790009 2.301764  -0.010536 -0.920445 -0.390730  0.635294 0.597610 0
0  -1.272799 -2.590008 3.671763  -0.392609 -0.915348 0.089416  0.721569 0.713147 0
0  -1.292798 -2.550009 2.951764  -0.398318 -0.912626 -0.091962  0.725490 0.649402 0
dao-bomb.bmp
0  -1.292798 -2.550009 2.951764  -0.398318 -0.912626 -0.091962  0.725490 0.649402 0
0  -1.272799 -2.590008 3.671763  -0.392609 -0.915348 0.089416  0.721569 0.713147 0
0  -2.152798 -1.970008 3.861763  -0.731925 -0.659783 0.170215  0.792157 0.733068 0
dao-bomb.bmp
0  -1.272799 -2.590008 3.671763  -0.392609 -0.915348 0.089416  0.721569 0.713147 0
0  -1.162799 -2.480010 4.251763  -0.365616 -0.870648 0.329085  0.705882 0.764940 0
0  -2.152798 -1.970008 3.861763  -0.731925 -0.659783 0.170215  0.792157 0.733068 0
dao-bomb.bmp
0  -2.152798 -1.970008 3.861763  -0.731925 -0.659783 0.170215  0.792157 0.733068 0
0  -1.162799 -2.480010 4.251763  -0.365616 -0.870648 0.329085  0.705882 0.764940 0
0  -1.692799 -1.720010 5.041763  -0.539681 -0.557403 0.630909  0.752941 0.844622 0
dao-bomb.bmp
0  -1.162799 -2.480010 4.251763  -0.365616 -0.870648 0.329085  0.705882 0.764940 0
0  -1.032799 -2.260011 4.831764  -0.290296 -0.778653 0.556262  0.694118 0.816733 0
0  -1.692799 -1.720010 5.041763  -0.539681 -0.557403 0.630909  0.752941 0.844622 0
dao-bomb.bmp
0  -1.692799 -1.720010 5.041763  -0.539681 -0.557403 0.630909  0.752941 0.844622 0
0  -1.032799 -2.260011 4.831764  -0.290296 -0.778653 0.556262  0.694118 0.816733 0
0  -0.702799 -1.470012 5.611765  -0.213169 -0.427597 0.878476  0.670588 0.904382 0
dao-bomb.bmp
0  -1.032799 -2.260011 4.831764  -0.290296 -0.778653 0.556262  0.694118 0.816733 0
0  -0.002799 -1.690013 5.581766  -0.001271 -0.532510 0.846423  0.611765 0.900398 0
0  -0.702799 -1.470012 5.611765  -0.213169 -0.427597 0.878476  0.670588 0.904382 0
dao-bomb.bmp
0  -0.702799 -1.470012 5.611765  -0.213169 -0.427597 0.878476  0.670588 0.904382 0
0  -0.002799 -1.690013 5.581766  -0.001271 -0.532510 0.846423  0.611765 0.900398 0
0  -0.002798 -0.370013 5.961767  -0.001735 -0.087829 0.996134  0.627451 1.000000 0
dao-bomb.bmp
0  -0.002799 -1.690013 5.581766  -0.001271 -0.532510 0.846423  0.611765 0.900398 0
0  0.707201 -1.470014 5.611767  0.212031 -0.429676 0.877736  0.556863 0.912351 0
0  -0.002798 -0.370013 5.961767  -0.001735 -0.087829 0.996134  0.627451 1.000000 0
dao-bomb.bmp
0  -0.002798 -0.370013 5.961767  -0.001735 -0.087829 0.996134  0.627451 1.000000 0
0  0.707201 -1.470014 5.611767  0.212031 -0.429676 0.877736  0.556863 0.912351 0
0  1.217202 -0.750014 5.661768  0.347076 -0.235553 0.907774  0.501961 0.956175 0
dao-bomb.bmp
0  -3.162796 0.019992 4.781764  -0.623890 -0.022812 0.781179  0.019608 0.342629 0
0  -2.492796 0.039991 4.991765  -0.546502 0.057017 0.835514  0.062745 0.382470 0
0  -2.272795 0.739991 4.751766  -0.506463 0.614792 0.604587  0.101961 0.334661 0
dao-bomb.bmp
0  -2.492796 0.039991 4.991765  -0.546502 0.057017 0.835514  0.062745 0.382470 0
0  -2.142797 0.009990 5.351765  -0.606053 0.054339 0.793566  0.098039 0.422311 0
0  -2.272795 0.739991 4.751766  -0.506463 0.614792 0.604587  0.101961 0.334661 0
dao-bomb.bmp
0  -2.272795 0.739991 4.751766  -0.506463 0.614792 0.604587  0.101961 0.334661 0
0  -2.142797 0.009990 5.351765  -0.606053 0.054339 0.793566  0.098039 0.422311 0
0  -1.822796 0.609990 5.321766  -0.511814 0.414268 0.752614  0.133333 0.390438 0
dao-bomb.bmp
0  -2.142797 0.009990 5.351765  -0.606053 0.054339 0.793566  0.098039 0.422311 0
0  -1.292797 -0.110011 5.761766  -0.336128 -0.000190 0.941816  0.168627 0.466135 0
0  -1.822796 0.609990 5.321766  -0.511814 0.414268 0.752614  0.133333 0.390438 0
dao-bomb.bmp
0  -1.822796 0.609990 5.321766  -0.511814 0.414268 0.752614  0.133333 0.390438 0
0  -1.292797 -0.110011 5.761766  -0.336128 -0.000190 0.941816  0.168627 0.466135 0
0  -0.702796 0.489988 5.821767  -0.199687 0.280737 0.938782  0.215686 0.438247 0
dao-bomb.bmp
0  -1.292797 -0.110011 5.761766  -0.336128 -0.000190 0.941816  0.168627 0.466135 0
0  -0.002798 -0.370013 5.961767  -0.001735 -0.087829 0.996134  0.270588 0.498008 0
0  -0.702796 0.489988 5.821767  -0.199687 0.280737 0.938782  0.215686 0.438247 0
dao-bomb.bmp
0  -0.702796 0.489988 5.821767  -0.199687 0.280737 0.938782  0.215686 0.438247 0
0  -0.002798 -0.370013 5.961767  -0.001735 -0.087829 0.996134  0.270588 0.498008 0
0  -0.002796 0.709987 5.841768  -0.004722 0.368752 0.929516  0.266667 0.430279 0
dao-bomb.bmp
0  -0.002798 -0.370013 5.961767  -0.001735 -0.087829 0.996134  0.270588 0.498008 0
0  0.707204 0.489986 5.821768  0.198787 0.282125 0.938557  0.317647 0.438247 0
0  -0.002796 0.709987 5.841768  -0.004722 0.368752 0.929516  0.266667 0.430279 0
dao-bomb.bmp
0  -0.002796 0.709987 5.841768  -0.004722 0.368752 0.929516  0.266667 0.430279 0
0  0.707204 0.489986 5.821768  0.198787 0.282125 0.938557  0.317647 0.438247 0
0  -0.002794 1.619988 5.261769  -0.001432 0.733061 0.680162  0.270588 0.362550 0
dao-bomb.bmp
0  0.707204 0.489986 5.821768  0.198787 0.282125 0.938557  0.317647 0.438247 0
0  1.197205 1.329986 5.241769  0.349892 0.646275 0.678163  0.349020 0.370518 0
0  -0.002794 1.619988 5.261769  -0.001432 0.733061 0.680162  0.270588 0.362550 0
dao-bomb.bmp
0  -0.002794 1.619988 5.261769  -0.001432 0.733061 0.680162  0.270588 0.362550 0
0  1.197205 1.329986 5.241769  0.349892 0.646275 0.678163  0.349020 0.370518 0
0  -0.002792 2.249988 4.161769  -0.002100 0.964232 0.265052  0.278431 0.270916 0
dao-bomb.bmp
0  1.197205 1.329986 5.241769  0.349892 0.646275 0.678163  0.349020 0.370518 0
0  1.457207 1.909986 4.131771  0.472985 0.851197 0.227483  0.372549 0.278884 0
0  -0.002792 2.249988 4.161769  -0.002100 0.964232 0.265052  0.278431 0.270916 0
dao-bomb.bmp
0  -0.002792 2.249988 4.161769  -0.002100 0.964232 0.265052  0.278431 0.270916 0
0  1.457207 1.909986 4.131771  0.472985 0.851197 0.227483  0.372549 0.278884 0
0  -0.002791 2.279989 3.031769  0.000845 0.975897 -0.218228  0.286275 0.191235 0
dao-bomb.bmp
0  1.457207 1.909986 4.131771  0.472985 0.851197 0.227483  0.372549 0.278884 0
0  1.317208 1.939988 2.921770  0.452458 0.851798 -0.264051  0.372549 0.183267 0
0  -0.002791 2.279989 3.031769  0.000845 0.975897 -0.218228  0.286275 0.191235 0
dao-bomb.bmp
0  -0.002791 2.279989 3.031769  0.000845 0.975897 -0.218228  0.286275 0.191235 0
0  1.317208 1.939988 2.921770  0.452458 0.851798 -0.264051  0.372549 0.183267 0
0  -0.002791 1.749991 2.061769  -0.002479 0.759415 -0.650601  0.294118 0.111554 0
dao-bomb.bmp
0  1.317208 1.939988 2.921770  0.452458 0.851798 -0.264051  0.372549 0.183267 0
0  0.987209 1.549990 2.031770  0.323427 0.664282 -0.673887  0.356863 0.107570 0
0  -0.002791 1.749991 2.061769  -0.002479 0.759415 -0.650601  0.294118 0.111554 0
dao-bomb.bmp
0  -0.002791 1.749991 2.061769  -0.002479 0.759415 -0.650601  0.294118 0.111554 0
0  0.987209 1.549990 2.031770  0.323427 0.664282 -0.673887  0.356863 0.107570 0
0  -0.002792 0.939992 1.511768  -0.002162 0.533083 -0.846060  0.294118 0.043825 0
dao-bomb.bmp
0  0.987209 1.549990 2.031770  0.323427 0.664282 -0.673887  0.356863 0.107570 0
0  0.617208 0.749991 1.501768  0.273560 0.440893 -0.854856  0.345098 0.039841 0
0  -0.002792 0.939992 1.511768  -0.002162 0.533083 -0.846060  0.294118 0.043825 0
dao-bomb.bmp
0  -3.162796 0.019992 4.781764  -0.623890 -0.022812 0.781179  0.960784 0.848606 0
0  -3.432795 0.039993 4.131764  -0.996554 0.018083 0.080946  0.984314 0.768924 0
0  -3.132797 -0.610007 4.441764  -0.679886 -0.627277 0.379841  0.917647 0.800797 0
dao-bomb.bmp
0  -3.432795 0.039993 4.131764  -0.996554 0.018083 0.080946  0.984314 0.768924 0
0  -3.192795 -0.490007 3.511764  -0.798867 -0.488240 -0.351330  0.933333 0.701195 0
0  -3.132797 -0.610007 4.441764  -0.679886 -0.627277 0.379841  0.917647 0.800797 0
dao-bomb.bmp
0  -3.132797 -0.610007 4.441764  -0.679886 -0.627277 0.379841  0.917647 0.800797 0
0  -3.192795 -0.490007 3.511764  -0.798867 -0.488240 -0.351330  0.933333 0.701195 0
0  -2.482797 -0.960008 4.581764  -0.718732 -0.506692 0.476117  0.858824 0.820717 0
dao-bomb.bmp
0  -3.192795 -0.490007 3.511764  -0.798867 -0.488240 -0.351330  0.933333 0.701195 0
0  -2.732796 -0.900006 3.261764  -0.879897 -0.418544 -0.224951  0.890196 0.669323 0
0  -2.482797 -0.960008 4.581764  -0.718732 -0.506692 0.476117  0.858824 0.820717 0
dao-bomb.bmp
0  -2.482797 -0.960008 4.581764  -0.718732 -0.506692 0.476117  0.858824 0.820717 0
0  -2.732796 -0.900006 3.261764  -0.879897 -0.418544 -0.224951  0.890196 0.669323 0
0  -2.152798 -1.970008 3.861763  -0.731925 -0.659783 0.170215  0.792157 0.733068 0
dao-bomb.bmp
0  -2.732796 -0.900006 3.261764  -0.879897 -0.418544 -0.224951  0.890196 0.669323 0
0  -2.197665 -1.829741 2.759453  -0.789012 -0.574240 -0.218424  0.796078 0.621514 0
0  -2.152798 -1.970008 3.861763  -0.731925 -0.659783 0.170215  0.792157 0.733068 0
dao-bomb.bmp
0  -2.152798 -1.970008 3.861763  -0.731925 -0.659783 0.170215  0.792157 0.733068 0
0  -2.197665 -1.829741 2.759453  -0.789012 -0.574240 -0.218424  0.796078 0.621514 0
0  -1.887665 -2.119742 2.849453  -0.628545 -0.769542 -0.112849  0.772549 0.637450 0
dao-bomb.bmp
0  -2.197665 -1.829741 2.759453  -0.789012 -0.574240 -0.218424  0.796078 0.621514 0
0  -1.739793 -2.180140 2.587157  -0.596439 -0.746768 -0.294274  0.760784 0.613546 0
0  -1.887665 -2.119742 2.849453  -0.628545 -0.769542 -0.112849  0.772549 0.637450 0
dao-bomb.bmp
0  -1.887665 -2.119742 2.849453  -0.628545 -0.769542 -0.112849  0.772549 0.637450 0
0  -1.739793 -2.180140 2.587157  -0.596439 -0.746768 -0.294274  0.760784 0.613546 0
0  -1.607665 -2.309742 2.719453  -0.549932 -0.818846 -0.164519  0.749020 0.625498 0
dao-bomb.bmp
0  -1.739793 -2.180140 2.587157  -0.596439 -0.746768 -0.294274  0.760784 0.613546 0
0  -1.297665 -2.429743 2.489453  -0.370825 -0.888528 -0.270198  0.721569 0.617530 0
0  -1.607665 -2.309742 2.719453  -0.549932 -0.818846 -0.164519  0.749020 0.625498 0
dao-bomb.bmp
0  -1.607665 -2.309742 2.719453  -0.549932 -0.818846 -0.164519  0.749020 0.625498 0
0  -1.297665 -2.429743 2.489453  -0.370825 -0.888528 -0.270198  0.721569 0.617530 0
0  -1.292798 -2.550009 2.951764  -0.398318 -0.912626 -0.091962  0.725490 0.649402 0
dao-bomb.bmp
0  -1.297665 -2.429743 2.489453  -0.370825 -0.888528 -0.270198  0.721569 0.617530 0
0  -1.017665 -2.409742 2.219453  -0.319035 -0.842406 -0.434244  0.705882 0.589641 0
0  -1.292798 -2.550009 2.951764  -0.398318 -0.912626 -0.091962  0.725490 0.649402 0
dao-bomb.bmp
0  -1.292798 -2.550009 2.951764  -0.398318 -0.912626 -0.091962  0.725490 0.649402 0
0  -1.017665 -2.409742 2.219453  -0.319035 -0.842406 -0.434244  0.705882 0.589641 0
0  -0.642797 -2.660008 2.291764  -0.237041 -0.884227 -0.402436  0.682353 0.593625 0
dao-bomb.bmp
0  -1.017665 -2.409742 2.219453  -0.319035 -0.842406 -0.434244  0.705882 0.589641 0
0  -0.840782 -2.350736 2.006045  -0.191813 -0.672168 -0.715121  0.694118 0.573705 0
0  -0.642797 -2.660008 2.291764  -0.237041 -0.884227 -0.402436  0.682353 0.593625 0
dao-bomb.bmp
0  -0.642797 -2.660008 2.291764  -0.237041 -0.884227 -0.402436  0.682353 0.593625 0
0  -0.840782 -2.350736 2.006045  -0.191813 -0.672168 -0.715121  0.694118 0.573705 0
0  -0.582797 -2.340008 1.981765  -0.072096 -0.649296 -0.757111  0.678431 0.561753 0
dao-bomb.bmp
0  -0.840782 -2.350736 2.006045  -0.191813 -0.672168 -0.715121  0.694118 0.573705 0
0  -0.780781 -1.850736 1.656046  -0.166382 -0.363682 -0.916544  0.698039 0.517928 0
0  -0.582797 -2.340008 1.981765  -0.072096 -0.649296 -0.757111  0.678431 0.561753 0
dao-bomb.bmp
0  -1.012792 0.209993 1.431766  -0.397888 0.209766 -0.893131  0.196078 0.003984 0
0  -1.922793 0.219994 1.871766  -0.595878 0.226592 -0.770445  0.105882 0.043825 0
0  -0.612792 0.749993 1.501767  -0.274264 0.440568 -0.854798  0.243137 0.035857 0
dao-bomb.bmp
0  -1.922793 0.219994 1.871766  -0.595878 0.226592 -0.770445  0.105882 0.043825 0
0  -1.612792 0.809994 1.951766  -0.513057 0.433779 -0.740681  0.168627 0.079681 0
0  -0.612792 0.749993 1.501767  -0.274264 0.440568 -0.854798  0.243137 0.035857 0
dao-bomb.bmp
0  -0.612792 0.749993 1.501767  -0.274264 0.440568 -0.854798  0.243137 0.035857 0
0  -1.612792 0.809994 1.951766  -0.513057 0.433779 -0.740681  0.168627 0.079681 0
0  -0.982791 1.549993 2.031768  -0.323120 0.664521 -0.673800  0.227451 0.103586 0
dao-bomb.bmp
0  -1.612792 0.809994 1.951766  -0.513057 0.433779 -0.740681  0.168627 0.079681 0
0  -2.132793 1.009994 2.651766  -0.725610 0.558911 -0.401384  0.125490 0.139442 0
0  -0.982791 1.549993 2.031768  -0.323120 0.664521 -0.673800  0.227451 0.103586 0
dao-bomb.bmp
0  -0.982791 1.549993 2.031768  -0.323120 0.664521 -0.673800  0.227451 0.103586 0
0  -2.132793 1.009994 2.651766  -0.725610 0.558911 -0.401384  0.125490 0.139442 0
0  -1.312792 1.939991 2.921768  -0.453154 0.851502 -0.263812  0.200000 0.175299 0
dao-bomb.bmp
0  -2.132793 1.009994 2.651766  -0.725610 0.558911 -0.401384  0.125490 0.139442 0
0  -2.352793 1.029993 3.551766  -0.673264 0.719957 -0.168457  0.101961 0.219124 0
0  -1.312792 1.939991 2.921768  -0.453154 0.851502 -0.263812  0.200000 0.175299 0
dao-bomb.bmp
0  -1.312792 1.939991 2.921768  -0.453154 0.851502 -0.263812  0.200000 0.175299 0
0  -2.352793 1.029993 3.551766  -0.673264 0.719957 -0.168457  0.101961 0.219124 0
0  -1.452793 1.909990 4.131767  -0.473466 0.850896 0.227607  0.184314 0.266932 0
dao-bomb.bmp
0  -2.352793 1.029993 3.551766  -0.673264 0.719957 -0.168457  0.101961 0.219124 0
0  -2.262794 1.029992 4.221766  -0.562269 0.792707 0.235521  0.109804 0.282869 0
0  -1.452793 1.909990 4.131767  -0.473466 0.850896 0.227607  0.184314 0.266932 0
dao-bomb.bmp
0  -1.452793 1.909990 4.131767  -0.473466 0.850896 0.227607  0.184314 0.266932 0
0  -2.262794 1.029992 4.221766  -0.562269 0.792707 0.235521  0.109804 0.282869 0
0  -2.272795 0.739991 4.751766  -0.506463 0.614792 0.604587  0.101961 0.334661 0
dao-bomb.bmp
0  -2.262794 1.029992 4.221766  -0.562269 0.792707 0.235521  0.109804 0.282869 0
0  -3.142795 0.639993 4.461765  -0.646822 0.648106 0.401970  0.047059 0.302789 0
0  -2.272795 0.739991 4.751766  -0.506463 0.614792 0.604587  0.101961 0.334661 0
dao-bomb.bmp
0  -2.272795 0.739991 4.751766  -0.506463 0.614792 0.604587  0.101961 0.334661 0
0  -3.142795 0.639993 4.461765  -0.646822 0.648106 0.401970  0.047059 0.302789 0
0  -3.162796 0.019992 4.781764  -0.623890 -0.022812 0.781179  0.019608 0.342629 0
dao-bomb.bmp
0  -3.142795 0.639993 4.461765  -0.646822 0.648106 0.401970  0.047059 0.302789 0
0  -3.432795 0.039993 4.131764  -0.996554 0.018083 0.080946  0.000000 0.282869 0
0  -3.162796 0.019992 4.781764  -0.623890 -0.022812 0.781179  0.019608 0.342629 0
dao-bomb.bmp
0  1.017208 0.209990 1.431768  0.397722 0.210690 -0.892988  0.392157 0.007968 0
0  0.617208 0.749991 1.501768  0.273560 0.440893 -0.854856  0.345098 0.039841 0
0  1.917207 0.219989 1.871769  0.595973 0.219040 -0.772553  0.458824 0.047809 0
dao-bomb.bmp
0  0.617208 0.749991 1.501768  0.273560 0.440893 -0.854856  0.345098 0.039841 0
0  1.617208 0.809989 1.951769  0.516330 0.431630 -0.739661  0.419608 0.087649 0
0  1.917207 0.219989 1.871769  0.595973 0.219040 -0.772553  0.458824 0.047809 0
dao-bomb.bmp
0  1.917207 0.219989 1.871769  0.595973 0.219040 -0.772553  0.458824 0.047809 0
0  1.617208 0.809989 1.951769  0.516330 0.431630 -0.739661  0.419608 0.087649 0
0  2.547207 0.219987 2.541770  0.865438 0.238438 -0.440640  0.513725 0.115538 0
dao-bomb.bmp
0  1.617208 0.809989 1.951769  0.516330 0.431630 -0.739661  0.419608 0.087649 0
0  2.137207 1.009988 2.651770  0.731453 0.552740 -0.399318  0.450980 0.155378 0
0  2.547207 0.219987 2.541770  0.865438 0.238438 -0.440640  0.513725 0.115538 0
dao-bomb.bmp
0  2.547207 0.219987 2.541770  0.865438 0.238438 -0.440640  0.513725 0.115538 0
0  2.137207 1.009988 2.651770  0.731453 0.552740 -0.399318  0.450980 0.155378 0
0  2.637206 0.179987 2.951770  0.845376 0.287224 -0.450380  0.533333 0.179283 0
dao-bomb.bmp
0  2.137207 1.009988 2.651770  0.731453 0.552740 -0.399318  0.450980 0.155378 0
0  2.357207 1.029987 3.551770  0.676505 0.716840 -0.168768  0.462745 0.239044 0
0  2.637206 0.179987 2.951770  0.845376 0.287224 -0.450380  0.533333 0.179283 0
dao-bomb.bmp
0  2.637206 0.179987 2.951770  0.845376 0.287224 -0.450380  0.533333 0.179283 0
0  2.357207 1.029987 3.551770  0.676505 0.716840 -0.168768  0.462745 0.239044 0
0  3.117206 0.669984 3.871771  0.673555 0.707416 -0.214212  0.513725 0.278884 0
dao-bomb.bmp
0  2.357207 1.029987 3.551770  0.676505 0.716840 -0.168768  0.462745 0.239044 0
0  2.267206 1.029985 4.221770  0.561205 0.793968 0.233803  0.447059 0.298805 0
0  3.117206 0.669984 3.871771  0.673555 0.707416 -0.214212  0.513725 0.278884 0
dao-bomb.bmp
0  3.117206 0.669984 3.871771  0.673555 0.707416 -0.214212  0.513725 0.278884 0
0  2.267206 1.029985 4.221770  0.561205 0.793968 0.233803  0.447059 0.298805 0
0  3.147205 0.639984 4.461771  0.650459 0.640139 0.408809  0.505882 0.326693 0
dao-bomb.bmp
0  2.267206 1.029985 4.221770  0.561205 0.793968 0.233803  0.447059 0.298805 0
0  2.277205 0.739985 4.751770  0.504518 0.611316 0.609717  0.447059 0.354582 0
0  3.147205 0.639984 4.461771  0.650459 0.640139 0.408809  0.505882 0.326693 0
dao-bomb.bmp
0  3.147205 0.639984 4.461771  0.650459 0.640139 0.408809  0.505882 0.326693 0
0  2.277205 0.739985 4.751770  0.504518 0.611316 0.609717  0.447059 0.354582 0
0  3.157204 0.019984 4.781770  0.623867 -0.025753 0.781106  0.529412 0.366534 0
dao-bomb.bmp
0  2.277205 0.739985 4.751770  0.504518 0.611316 0.609717  0.447059 0.354582 0
0  2.497204 0.039984 4.991770  0.547097 0.056613 0.835153  0.478431 0.398406 0
0  3.157204 0.019984 4.781770  0.623867 -0.025753 0.781106  0.529412 0.366534 0
dao-bomb.bmp
0  0.097201 -0.520014 6.651767  0.859574 -0.509305 0.041724  0.203922 0.657371 0
0  0.117202 -0.340013 6.231767  0.871878 0.480838 0.092859  0.176471 0.577689 0
0  0.097202 -0.380014 6.661767  0.869372 0.463649 0.170947  0.176471 0.657371 0
dao-bomb.bmp
0  0.117202 -0.340013 6.231767  0.871878 0.480838 0.092859  0.176471 0.577689 0
0  -0.002798 -0.270013 6.231767  -0.007431 0.995502 0.094452  0.149020 0.577689 0
0  0.097202 -0.380014 6.661767  0.869372 0.463649 0.170947  0.176471 0.657371 0
dao-bomb.bmp
0  0.097202 -0.380014 6.661767  0.869372 0.463649 0.170947  0.176471 0.657371 0
0  -0.002798 -0.270013 6.231767  -0.007431 0.995502 0.094452  0.149020 0.577689 0
0  -0.022798 -0.310014 6.671767  0.026847 0.997836 0.060023  0.149020 0.657371 0
dao-bomb.bmp
0  -0.002798 -0.270013 6.231767  -0.007431 0.995502 0.094452  0.149020 0.577689 0
0  -0.112798 -0.340013 6.231767  -0.883998 0.467482 -0.002671  0.125490 0.577689 0
0  -0.022798 -0.310014 6.671767  0.026847 0.997836 0.060023  0.149020 0.657371 0
dao-bomb.bmp
0  -0.022798 -0.310014 6.671767  0.026847 0.997836 0.060023  0.149020 0.657371 0
0  -0.112798 -0.340013 6.231767  -0.883998 0.467482 -0.002671  0.125490 0.577689 0
0  -0.132798 -0.380013 6.661767  -0.841784 0.512605 -0.169222  0.125490 0.657371 0
dao-bomb.bmp
0  -0.112798 -0.340013 6.231767  -0.883998 0.467482 -0.002671  0.125490 0.577689 0
0  -0.112798 -0.470013 6.211767  -0.886030 -0.454868 -0.089705  0.098039 0.577689 0
0  -0.132798 -0.380013 6.661767  -0.841784 0.512605 -0.169222  0.125490 0.657371 0
dao-bomb.bmp
0  -0.132798 -0.380013 6.661767  -0.841784 0.512605 -0.169222  0.125490 0.657371 0
0  -0.112798 -0.470013 6.211767  -0.886030 -0.454868 -0.089705  0.098039 0.577689 0
0  -0.132799 -0.520013 6.651767  -0.823699 -0.501366 -0.264863  0.098039 0.657371 0
dao-bomb.bmp
0  -0.112798 -0.470013 6.211767  -0.886030 -0.454868 -0.089705  0.098039 0.577689 0
0  -0.002798 -0.540013 6.211767  0.003060 -0.995534 -0.094356  0.070588 0.577689 0
0  -0.132799 -0.520013 6.651767  -0.823699 -0.501366 -0.264863  0.098039 0.657371 0
dao-bomb.bmp
0  -0.132799 -0.520013 6.651767  -0.823699 -0.501366 -0.264863  0.098039 0.657371 0
0  -0.002798 -0.540013 6.211767  0.003060 -0.995534 -0.094356  0.070588 0.577689 0
0  -0.022799 -0.580014 6.641767  0.038952 -0.992805 -0.113233  0.070588 0.657371 0
dao-bomb.bmp
0  -0.002798 -0.540013 6.211767  0.003060 -0.995534 -0.094356  0.070588 0.577689 0
0  0.117202 -0.470013 6.211767  0.866126 -0.499826 -0.000145  0.043137 0.577689 0
0  -0.022799 -0.580014 6.641767  0.038952 -0.992805 -0.113233  0.070588 0.657371 0
dao-bomb.bmp
0  -0.022799 -0.580014 6.641767  0.038952 -0.992805 -0.113233  0.070588 0.657371 0
0  0.117202 -0.470013 6.211767  0.866126 -0.499826 -0.000145  0.043137 0.577689 0
0  0.097201 -0.520014 6.651767  0.859574 -0.509305 0.041724  0.043137 0.657371 0
dao-bomb.bmp
0  -0.032799 -0.580014 7.141767  0.880292 -0.444811 0.165015  0.203922 0.741036 0
0  0.097202 -0.380014 6.661767  0.869372 0.463649 0.170947  0.176471 0.657371 0
0  -0.032799 -0.410014 7.151767  0.874194 0.419642 0.244307  0.176471 0.741036 0
dao-bomb.bmp
0  0.097202 -0.380014 6.661767  0.869372 0.463649 0.170947  0.176471 0.657371 0
0  -0.022798 -0.310014 6.671767  0.026847 0.997836 0.060023  0.149020 0.657371 0
0  -0.032799 -0.410014 7.151767  0.874194 0.419642 0.244307  0.176471 0.741036 0
dao-bomb.bmp
0  -0.032799 -0.410014 7.151767  0.874194 0.419642 0.244307  0.176471 0.741036 0
0  -0.022798 -0.310014 6.671767  0.026847 0.997836 0.060023  0.149020 0.657371 0
0  -0.152799 -0.320014 7.101767  0.104124 0.992962 0.056427  0.149020 0.741036 0
dao-bomb.bmp
0  -0.022798 -0.310014 6.671767  0.026847 0.997836 0.060023  0.149020 0.657371 0
0  -0.132798 -0.380013 6.661767  -0.841784 0.512605 -0.169222  0.125490 0.657371 0
0  -0.152799 -0.320014 7.101767  0.104124 0.992962 0.056427  0.149020 0.741036 0
dao-bomb.bmp
0  -0.152799 -0.320014 7.101767  0.104124 0.992962 0.056427  0.149020 0.741036 0
0  -0.132798 -0.380013 6.661767  -0.841784 0.512605 -0.169222  0.125490 0.657371 0
0  -0.282799 -0.400014 7.031767  -0.790183 0.542508 -0.285124  0.125490 0.741036 0
dao-bomb.bmp
0  -0.132798 -0.380013 6.661767  -0.841784 0.512605 -0.169222  0.125490 0.657371 0
0  -0.132799 -0.520013 6.651767  -0.823699 -0.501366 -0.264863  0.098039 0.657371 0
0  -0.282799 -0.400014 7.031767  -0.790183 0.542508 -0.285124  0.125490 0.741036 0
dao-bomb.bmp
0  -0.282799 -0.400014 7.031767  -0.790183 0.542508 -0.285124  0.125490 0.741036 0
0  -0.132799 -0.520013 6.651767  -0.823699 -0.501366 -0.264863  0.098039 0.657371 0
0  -0.282799 -0.570014 7.011766  -0.800340 -0.484111 -0.353683  0.098039 0.741036 0
dao-bomb.bmp
0  -0.132799 -0.520013 6.651767  -0.823699 -0.501366 -0.264863  0.098039 0.657371 0
0  -0.022799 -0.580014 6.641767  0.038952 -0.992805 -0.113233  0.070588 0.657371 0
0  -0.282799 -0.570014 7.011766  -0.800340 -0.484111 -0.353683  0.098039 0.741036 0
dao-bomb.bmp
0  -0.282799 -0.570014 7.011766  -0.800340 -0.484111 -0.353683  0.098039 0.741036 0
0  -0.022799 -0.580014 6.641767  0.038952 -0.992805 -0.113233  0.070588 0.657371 0
0  -0.152799 -0.660014 7.071767  0.131323 -0.985348 -0.108827  0.070588 0.741036 0
dao-bomb.bmp
0  -0.022799 -0.580014 6.641767  0.038952 -0.992805 -0.113233  0.070588 0.657371 0
0  0.097201 -0.520014 6.651767  0.859574 -0.509305 0.041724  0.043137 0.657371 0
0  -0.152799 -0.660014 7.071767  0.131323 -0.985348 -0.108827  0.070588 0.741036 0
dao-bomb.bmp
0  -0.152799 -0.660014 7.071767  0.131323 -0.985348 -0.108827  0.070588 0.741036 0
0  0.097201 -0.520014 6.651767  0.859574 -0.509305 0.041724  0.043137 0.657371 0
0  -0.032799 -0.580014 7.141767  0.880292 -0.444811 0.165015  0.043137 0.741036 0
dao-bomb.bmp
0  -0.702796 0.489988 5.821767  -0.199687 0.280737 0.938782  0.215686 0.438247 0
0  -0.002794 1.619988 5.261769  -0.001432 0.733061 0.680162  0.270588 0.362550 0
0  -1.192795 1.329989 5.241767  -0.350396 0.645452 0.678685  0.192157 0.362550 0
dao-bomb.bmp
0  -0.002794 1.619988 5.261769  -0.001432 0.733061 0.680162  0.270588 0.362550 0
0  -0.002792 2.249988 4.161769  -0.002100 0.964232 0.265052  0.278431 0.270916 0
0  -1.192795 1.329989 5.241767  -0.350396 0.645452 0.678685  0.192157 0.362550 0
dao-bomb.bmp
0  -1.192795 1.329989 5.241767  -0.350396 0.645452 0.678685  0.192157 0.362550 0
0  -0.002792 2.249988 4.161769  -0.002100 0.964232 0.265052  0.278431 0.270916 0
0  -1.452793 1.909990 4.131767  -0.473466 0.850896 0.227607  0.184314 0.266932 0
dao-bomb.bmp
0  -0.002792 2.249988 4.161769  -0.002100 0.964232 0.265052  0.278431 0.270916 0
0  -0.002791 2.279989 3.031769  0.000845 0.975897 -0.218228  0.286275 0.191235 0
0  -1.452793 1.909990 4.131767  -0.473466 0.850896 0.227607  0.184314 0.266932 0
dao-bomb.bmp
0  -1.452793 1.909990 4.131767  -0.473466 0.850896 0.227607  0.184314 0.266932 0
0  -0.002791 2.279989 3.031769  0.000845 0.975897 -0.218228  0.286275 0.191235 0
0  -1.312792 1.939991 2.921768  -0.453154 0.851502 -0.263812  0.200000 0.175299 0
dao-bomb.bmp
0  -0.002791 2.279989 3.031769  0.000845 0.975897 -0.218228  0.286275 0.191235 0
0  -0.002791 1.749991 2.061769  -0.002479 0.759415 -0.650601  0.294118 0.111554 0
0  -1.312792 1.939991 2.921768  -0.453154 0.851502 -0.263812  0.200000 0.175299 0
dao-bomb.bmp
0  -1.312792 1.939991 2.921768  -0.453154 0.851502 -0.263812  0.200000 0.175299 0
0  -0.002791 1.749991 2.061769  -0.002479 0.759415 -0.650601  0.294118 0.111554 0
0  -0.982791 1.549993 2.031768  -0.323120 0.664521 -0.673800  0.227451 0.103586 0
dao-bomb.bmp
0  -0.002791 1.749991 2.061769  -0.002479 0.759415 -0.650601  0.294118 0.111554 0
0  -0.002792 0.939992 1.511768  -0.002162 0.533083 -0.846060  0.294118 0.043825 0
0  -0.982791 1.549993 2.031768  -0.323120 0.664521 -0.673800  0.227451 0.103586 0
dao-bomb.bmp
0  -0.982791 1.549993 2.031768  -0.323120 0.664521 -0.673800  0.227451 0.103586 0
0  -0.002792 0.939992 1.511768  -0.002162 0.533083 -0.846060  0.294118 0.043825 0
0  -0.612792 0.749993 1.501767  -0.274264 0.440568 -0.854798  0.243137 0.035857 0
dao-bomb.bmp
0  -2.632794 0.179994 2.951765  -0.846135 0.275335 -0.456340  0.964706 0.597610 0
0  -2.542794 0.219994 2.541765  -0.865597 0.242457 -0.438128  0.937255 0.529880 0
0  -2.732796 -0.900006 3.261764  -0.879897 -0.418544 -0.224951  0.890196 0.669323 0
dao-bomb.bmp
0  -2.542794 0.219994 2.541765  -0.865597 0.242457 -0.438128  0.937255 0.529880 0
0  -2.482795 -0.800006 2.481764  -0.859472 -0.149447 -0.488849  0.866667 0.573705 0
0  -2.732796 -0.900006 3.261764  -0.879897 -0.418544 -0.224951  0.890196 0.669323 0
dao-bomb.bmp
0  -2.732796 -0.900006 3.261764  -0.879897 -0.418544 -0.224951  0.890196 0.669323 0
0  -2.482795 -0.800006 2.481764  -0.859472 -0.149447 -0.488849  0.866667 0.573705 0
0  -2.197665 -1.829741 2.759453  -0.789012 -0.574240 -0.218424  0.796078 0.621514 0
dao-bomb.bmp
0  -2.482795 -0.800006 2.481764  -0.859472 -0.149447 -0.488849  0.866667 0.573705 0
0  -2.217664 -1.569741 2.429453  -0.779476 -0.381486 -0.496876  0.811765 0.585657 0
0  -2.197665 -1.829741 2.759453  -0.789012 -0.574240 -0.218424  0.796078 0.621514 0
dao-bomb.bmp
0  -2.197665 -1.829741 2.759453  -0.789012 -0.574240 -0.218424  0.796078 0.621514 0
0  -2.217664 -1.569741 2.429453  -0.779476 -0.381486 -0.496876  0.811765 0.585657 0
0  -1.849793 -2.000139 2.417157  -0.614335 -0.618829 -0.489533  0.768627 0.597610 0
dao-bomb.bmp
0  -2.217664 -1.569741 2.429453  -0.779476 -0.381486 -0.496876  0.811765 0.585657 0
0  -1.249792 -1.850139 1.787157  -0.396467 -0.405994 -0.823397  0.729412 0.533865 0
0  -1.849793 -2.000139 2.417157  -0.614335 -0.618829 -0.489533  0.768627 0.597610 0
dao-bomb.bmp
0  -1.849793 -2.000139 2.417157  -0.614335 -0.618829 -0.489533  0.768627 0.597610 0
0  -1.249792 -1.850139 1.787157  -0.396467 -0.405994 -0.823397  0.729412 0.533865 0
0  -1.299793 -2.290139 2.177157  -0.451786 -0.710053 -0.540106  0.725490 0.593625 0
dao-bomb.bmp
0  -1.249792 -1.850139 1.787157  -0.396467 -0.405994 -0.823397  0.729412 0.533865 0
0  -0.840782 -2.350736 2.006045  -0.191813 -0.672168 -0.715121  0.694118 0.573705 0
0  -1.299793 -2.290139 2.177157  -0.451786 -0.710053 -0.540106  0.725490 0.593625 0
dao-bomb.bmp
0  -1.299793 -2.290139 2.177157  -0.451786 -0.710053 -0.540106  0.725490 0.593625 0
0  -0.840782 -2.350736 2.006045  -0.191813 -0.672168 -0.715121  0.694118 0.573705 0
0  -1.017665 -2.409742 2.219453  -0.319035 -0.842406 -0.434244  0.705882 0.589641 0
dao-bomb.bmp
0  1.967202 -0.980015 5.171768  0.598326 -0.297584 0.743942  0.435294 0.888446 0
0  1.687201 -1.720015 5.041767  0.534893 -0.565207 0.628037  0.482353 0.848606 0
0  2.487203 -0.960015 4.581769  0.718694 -0.508128 0.474642  0.384314 0.812749 0
dao-bomb.bmp
0  1.687201 -1.720015 5.041767  0.534893 -0.565207 0.628037  0.482353 0.848606 0
0  2.157202 -1.970014 3.861768  0.741024 -0.649178 0.171616  0.462745 0.729084 0
0  2.487203 -0.960015 4.581769  0.718694 -0.508128 0.474642  0.384314 0.812749 0
dao-bomb.bmp
0  2.487203 -0.960015 4.581769  0.718694 -0.508128 0.474642  0.384314 0.812749 0
0  2.157202 -1.970014 3.861768  0.741024 -0.649178 0.171616  0.462745 0.729084 0
0  2.737204 -0.900014 3.261769  0.877356 -0.421472 -0.229366  0.376471 0.661355 0
dao-bomb.bmp
0  2.157202 -1.970014 3.861768  0.741024 -0.649178 0.171616  0.462745 0.729084 0
0  2.230741 -1.709745 2.759456  0.839237 -0.505953 -0.199232  0.470588 0.617530 0
0  2.737204 -0.900014 3.261769  0.877356 -0.421472 -0.229366  0.376471 0.661355 0
dao-bomb.bmp
0  2.737204 -0.900014 3.261769  0.877356 -0.421472 -0.229366  0.376471 0.661355 0
0  2.230741 -1.709745 2.759456  0.839237 -0.505953 -0.199232  0.470588 0.617530 0
0  2.487205 -0.800013 2.481769  0.852717 -0.156616 -0.498343  0.411765 0.573705 0
dao-bomb.bmp
0  2.230741 -1.709745 2.759456  0.839237 -0.505953 -0.199232  0.470588 0.617530 0
0  2.210742 -1.569745 2.429456  0.787801 -0.387711 -0.478592  0.462745 0.589641 0
0  2.487205 -0.800013 2.481769  0.852717 -0.156616 -0.498343  0.411765 0.573705 0
dao-bomb.bmp
0  2.487205 -0.800013 2.481769  0.852717 -0.156616 -0.498343  0.411765 0.573705 0
0  2.210742 -1.569745 2.429456  0.787801 -0.387711 -0.478592  0.462745 0.589641 0
0  1.587205 -1.250011 1.731768  0.462869 -0.208750 -0.861497  0.513725 0.513944 0
dao-bomb.bmp
0  2.210742 -1.569745 2.429456  0.787801 -0.387711 -0.478592  0.462745 0.589641 0
0  1.191152 -1.940141 1.742548  0.335270 -0.394562 -0.855520  0.556863 0.529880 0
0  1.587205 -1.250011 1.731768  0.462869 -0.208750 -0.861497  0.513725 0.513944 0
dao-bomb.bmp
0  1.587205 -1.250011 1.731768  0.462869 -0.208750 -0.861497  0.513725 0.513944 0
0  1.191152 -1.940141 1.742548  0.335270 -0.394562 -0.855520  0.556863 0.529880 0
0  0.783061 -1.850737 1.656046  0.117436 -0.318804 -0.940517  0.584314 0.517928 0
dao-bomb.bmp
0  -2.542794 0.219994 2.541765  -0.865597 0.242457 -0.438128  0.937255 0.529880 0
0  -1.922793 0.219994 1.871766  -0.595878 0.226592 -0.770445  0.850980 0.442231 0
0  -2.482795 -0.800006 2.481764  -0.859472 -0.149447 -0.488849  0.866667 0.573705 0
dao-bomb.bmp
0  -1.922793 0.219994 1.871766  -0.595878 0.226592 -0.770445  0.850980 0.442231 0
0  -1.922794 -0.580006 1.801765  -0.589012 -0.067420 -0.805307  0.815686 0.486056 0
0  -2.482795 -0.800006 2.481764  -0.859472 -0.149447 -0.488849  0.866667 0.573705 0
dao-bomb.bmp
0  -2.482795 -0.800006 2.481764  -0.859472 -0.149447 -0.488849  0.866667 0.573705 0
0  -1.922794 -0.580006 1.801765  -0.589012 -0.067420 -0.805307  0.815686 0.486056 0
0  -2.217664 -1.569741 2.429453  -0.779476 -0.381486 -0.496876  0.811765 0.585657 0
dao-bomb.bmp
0  -1.922794 -0.580006 1.801765  -0.589012 -0.067420 -0.805307  0.815686 0.486056 0
0  -1.542795 -1.250006 1.731765  -0.430388 -0.237057 -0.870959  0.764706 0.505976 0
0  -2.217664 -1.569741 2.429453  -0.779476 -0.381486 -0.496876  0.811765 0.585657 0
dao-bomb.bmp
0  -2.217664 -1.569741 2.429453  -0.779476 -0.381486 -0.496876  0.811765 0.585657 0
0  -1.542795 -1.250006 1.731765  -0.430388 -0.237057 -0.870959  0.764706 0.505976 0
0  -1.249792 -1.850139 1.787157  -0.396467 -0.405994 -0.823397  0.729412 0.533865 0
dao-bomb.bmp
0  -1.542795 -1.250006 1.731765  -0.430388 -0.237057 -0.870959  0.764706 0.505976 0
0  -0.780781 -1.850736 1.656046  -0.166382 -0.363682 -0.916544  0.698039 0.517928 0
0  -1.249792 -1.850139 1.787157  -0.396467 -0.405994 -0.823397  0.729412 0.533865 0
dao-bomb.bmp
0  -1.249792 -1.850139 1.787157  -0.396467 -0.405994 -0.823397  0.729412 0.533865 0
0  -0.780781 -1.850736 1.656046  -0.166382 -0.363682 -0.916544  0.698039 0.517928 0
0  -0.840782 -2.350736 2.006045  -0.191813 -0.672168 -0.715121  0.694118 0.573705 0
dao-bomb.bmp
0  -3.162796 0.019992 4.781764  -0.623890 -0.022812 0.781179  0.960784 0.848606 0
0  -3.132797 -0.610007 4.441764  -0.679886 -0.627277 0.379841  0.917647 0.800797 0
0  -2.492796 0.039991 4.991765  -0.546502 0.057017 0.835514  0.905882 0.900398 0
dao-bomb.bmp
0  -3.132797 -0.610007 4.441764  -0.679886 -0.627277 0.379841  0.917647 0.800797 0
0  -2.482797 -0.960008 4.581764  -0.718732 -0.506692 0.476117  0.858824 0.820717 0
0  -2.492796 0.039991 4.991765  -0.546502 0.057017 0.835514  0.905882 0.900398 0
dao-bomb.bmp
0  -2.492796 0.039991 4.991765  -0.546502 0.057017 0.835514  0.905882 0.900398 0
0  -2.482797 -0.960008 4.581764  -0.718732 -0.506692 0.476117  0.858824 0.820717 0
0  -1.962798 -0.980010 5.171764  -0.600525 -0.299380 0.741445  0.800000 0.880478 0
dao-bomb.bmp
0  -2.482797 -0.960008 4.581764  -0.718732 -0.506692 0.476117  0.858824 0.820717 0
0  -1.692799 -1.720010 5.041763  -0.539681 -0.557403 0.630909  0.752941 0.844622 0
0  -1.962798 -0.980010 5.171764  -0.600525 -0.299380 0.741445  0.800000 0.880478 0
dao-bomb.bmp
0  -1.962798 -0.980010 5.171764  -0.600525 -0.299380 0.741445  0.800000 0.880478 0
0  -1.692799 -1.720010 5.041763  -0.539681 -0.557403 0.630909  0.752941 0.844622 0
0  -1.212798 -0.750011 5.661765  -0.343645 -0.231640 0.910083  0.729412 0.940239 0
dao-bomb.bmp
0  -1.692799 -1.720010 5.041763  -0.539681 -0.557403 0.630909  0.752941 0.844622 0
0  -0.702799 -1.470012 5.611765  -0.213169 -0.427597 0.878476  0.670588 0.904382 0
0  -1.212798 -0.750011 5.661765  -0.343645 -0.231640 0.910083  0.729412 0.940239 0
dao-bomb.bmp
0  -1.212798 -0.750011 5.661765  -0.343645 -0.231640 0.910083  0.729412 0.940239 0
0  -0.702799 -1.470012 5.611765  -0.213169 -0.427597 0.878476  0.670588 0.904382 0
0  -0.002798 -0.370013 5.961767  -0.001735 -0.087829 0.996134  0.627451 1.000000 0
dao-bomb.bmp
0  -3.142795 0.639993 4.461765  -0.646822 0.648106 0.401970  0.047059 0.302789 0
0  -2.262794 1.029992 4.221766  -0.562269 0.792707 0.235521  0.109804 0.282869 0
0  -3.112794 0.669993 3.871765  -0.668985 0.713901 -0.206892  0.043137 0.250996 0
dao-bomb.bmp
0  -2.262794 1.029992 4.221766  -0.562269 0.792707 0.235521  0.109804 0.282869 0
0  -2.352793 1.029993 3.551766  -0.673264 0.719957 -0.168457  0.101961 0.219124 0
0  -3.112794 0.669993 3.871765  -0.668985 0.713901 -0.206892  0.043137 0.250996 0
dao-bomb.bmp
0  -3.112794 0.669993 3.871765  -0.668985 0.713901 -0.206892  0.043137 0.250996 0
0  -2.352793 1.029993 3.551766  -0.673264 0.719957 -0.168457  0.101961 0.219124 0
0  -2.632794 0.179994 2.951765  -0.846135 0.275335 -0.456340  0.035294 0.151394 0
dao-bomb.bmp
0  -2.352793 1.029993 3.551766  -0.673264 0.719957 -0.168457  0.101961 0.219124 0
0  -2.132793 1.009994 2.651766  -0.725610 0.558911 -0.401384  0.125490 0.139442 0
0  -2.632794 0.179994 2.951765  -0.846135 0.275335 -0.456340  0.035294 0.151394 0
dao-bomb.bmp
0  -2.632794 0.179994 2.951765  -0.846135 0.275335 -0.456340  0.035294 0.151394 0
0  -2.132793 1.009994 2.651766  -0.725610 0.558911 -0.401384  0.125490 0.139442 0
0  -2.542794 0.219994 2.541765  -0.865597 0.242457 -0.438128  0.058824 0.099602 0
dao-bomb.bmp
0  -2.132793 1.009994 2.651766  -0.725610 0.558911 -0.401384  0.125490 0.139442 0
0  -1.612792 0.809994 1.951766  -0.513057 0.433779 -0.740681  0.168627 0.079681 0
0  -2.542794 0.219994 2.541765  -0.865597 0.242457 -0.438128  0.058824 0.099602 0
dao-bomb.bmp
0  -2.542794 0.219994 2.541765  -0.865597 0.242457 -0.438128  0.058824 0.099602 0
0  -1.612792 0.809994 1.951766  -0.513057 0.433779 -0.740681  0.168627 0.079681 0
0  -1.922793 0.219994 1.871766  -0.595878 0.226592 -0.770445  0.105882 0.043825 0
dao-bomb.bmp
0  -0.002798 -0.370013 5.961767  -0.001735 -0.087829 0.996134  0.270588 0.498008 0
0  1.297203 -0.110015 5.761768  0.333141 0.003455 0.942871  0.368627 0.466135 0
0  0.707204 0.489986 5.821768  0.198787 0.282125 0.938557  0.317647 0.438247 0
dao-bomb.bmp
0  1.297203 -0.110015 5.761768  0.333141 0.003455 0.942871  0.368627 0.466135 0
0  1.827204 0.609985 5.321770  0.513387 0.411654 0.752978  0.403922 0.402390 0
0  0.707204 0.489986 5.821768  0.198787 0.282125 0.938557  0.317647 0.438247 0
dao-bomb.bmp
0  0.707204 0.489986 5.821768  0.198787 0.282125 0.938557  0.317647 0.438247 0
0  1.827204 0.609985 5.321770  0.513387 0.411654 0.752978  0.403922 0.402390 0
0  1.197205 1.329986 5.241769  0.349892 0.646275 0.678163  0.349020 0.370518 0
dao-bomb.bmp
0  1.827204 0.609985 5.321770  0.513387 0.411654 0.752978  0.403922 0.402390 0
0  2.277205 0.739985 4.751770  0.504518 0.611316 0.609717  0.447059 0.354582 0
0  1.197205 1.329986 5.241769  0.349892 0.646275 0.678163  0.349020 0.370518 0
dao-bomb.bmp
0  1.197205 1.329986 5.241769  0.349892 0.646275 0.678163  0.349020 0.370518 0
0  2.277205 0.739985 4.751770  0.504518 0.611316 0.609717  0.447059 0.354582 0
0  1.457207 1.909986 4.131771  0.472985 0.851197 0.227483  0.372549 0.278884 0
dao-bomb.bmp
0  2.277205 0.739985 4.751770  0.504518 0.611316 0.609717  0.447059 0.354582 0
0  2.267206 1.029985 4.221770  0.561205 0.793968 0.233803  0.447059 0.298805 0
0  1.457207 1.909986 4.131771  0.472985 0.851197 0.227483  0.372549 0.278884 0
dao-bomb.bmp
0  1.457207 1.909986 4.131771  0.472985 0.851197 0.227483  0.372549 0.278884 0
0  2.267206 1.029985 4.221770  0.561205 0.793968 0.233803  0.447059 0.298805 0
0  2.357207 1.029987 3.551770  0.676505 0.716840 -0.168768  0.462745 0.239044 0
dao-bomb.bmp
0  2.547207 0.219987 2.541770  0.865438 0.238438 -0.440640  0.337255 0.537849 0
0  2.637206 0.179987 2.951770  0.845376 0.287224 -0.450380  0.305882 0.589641 0
0  2.737204 -0.900014 3.261769  0.877356 -0.421472 -0.229366  0.376471 0.661355 0
dao-bomb.bmp
0  2.637206 0.179987 2.951770  0.845376 0.287224 -0.450380  0.305882 0.589641 0
0  3.297206 0.139984 3.401771  0.807835 0.209387 -0.550962  0.270588 0.665339 0
0  2.737204 -0.900014 3.261769  0.877356 -0.421472 -0.229366  0.376471 0.661355 0
dao-bomb.bmp
0  2.737204 -0.900014 3.261769  0.877356 -0.421472 -0.229366  0.376471 0.661355 0
0  3.297206 0.139984 3.401771  0.807835 0.209387 -0.550962  0.270588 0.665339 0
0  3.197204 -0.490015 3.511770  0.799174 -0.484943 -0.355178  0.325490 0.685259 0
dao-bomb.bmp
0  3.297206 0.139984 3.401771  0.807835 0.209387 -0.550962  0.270588 0.665339 0
0  3.437205 0.039984 4.131771  0.996406 0.013911 0.083559  0.266667 0.749004 0
0  3.197204 -0.490015 3.511770  0.799174 -0.484943 -0.355178  0.325490 0.685259 0
dao-bomb.bmp
0  3.197204 -0.490015 3.511770  0.799174 -0.484943 -0.355178  0.325490 0.685259 0
0  3.437205 0.039984 4.131771  0.996406 0.013911 0.083559  0.266667 0.749004 0
0  3.137203 -0.610016 4.441770  0.675502 -0.631954 0.379909  0.329412 0.784861 0
dao-bomb.bmp
0  3.437205 0.039984 4.131771  0.996406 0.013911 0.083559  0.266667 0.749004 0
0  3.157204 0.019984 4.781770  0.623867 -0.025753 0.781106  0.282353 0.828685 0
0  3.137203 -0.610016 4.441770  0.675502 -0.631954 0.379909  0.329412 0.784861 0
dao-bomb.bmp
0  3.137203 -0.610016 4.441770  0.675502 -0.631954 0.379909  0.329412 0.784861 0
0  3.157204 0.019984 4.781770  0.623867 -0.025753 0.781106  0.282353 0.828685 0
0  2.497204 0.039984 4.991770  0.547097 0.056613 0.835153  0.329412 0.892430 0
dao-bomb.bmp
0  -0.632797 -0.360012 5.711766  -0.999948 0.010176 0.000913  0.980392 0.147410 0
0  -0.442798 0.029987 6.281767  -0.709075 0.701992 0.066486  0.886275 0.270916 0
0  -0.442797 0.079988 5.751767  -0.709444 0.701622 0.066451  0.886275 0.147410 0
dao-bomb.bmp
0  -0.442798 0.029987 6.281767  -0.709075 0.701992 0.066486  0.886275 0.270916 0
0  -0.002797 0.219987 6.301767  -0.008131 0.995500 0.094411  0.780392 0.270916 0
0  -0.442797 0.079988 5.751767  -0.709444 0.701622 0.066451  0.886275 0.147410 0
dao-bomb.bmp
0  -0.442797 0.079988 5.751767  -0.709444 0.701622 0.066451  0.886275 0.147410 0
0  -0.002797 0.219987 6.301767  -0.008131 0.995500 0.094411  0.780392 0.270916 0
0  -0.002797 0.269987 5.771767  -0.008211 0.995499 0.094415  0.780392 0.147410 0
dao-bomb.bmp
0  -0.002797 0.219987 6.301767  -0.008131 0.995500 0.094411  0.780392 0.270916 0
0  0.447202 0.029986 6.281768  0.703595 0.707427 0.067093  0.678431 0.270916 0
0  -0.002797 0.269987 5.771767  -0.008211 0.995499 0.094415  0.780392 0.147410 0
dao-bomb.bmp
0  -0.002797 0.269987 5.771767  -0.008211 0.995499 0.094415  0.780392 0.147410 0
0  0.447202 0.029986 6.281768  0.703595 0.707427 0.067093  0.678431 0.270916 0
0  0.447203 0.079987 5.751768  0.703995 0.707032 0.067055  0.678431 0.147410 0
dao-bomb.bmp
0  0.447202 0.029986 6.281768  0.703595 0.707427 0.067093  0.678431 0.270916 0
0  0.637202 -0.410014 6.241767  0.999927 0.012034 0.001216  0.576471 0.270916 0
0  0.447203 0.079987 5.751768  0.703995 0.707032 0.067055  0.678431 0.147410 0
dao-bomb.bmp
0  0.447203 0.079987 5.751768  0.703995 0.707032 0.067055  0.678431 0.147410 0
0  0.637202 -0.410014 6.241767  0.999927 0.012034 0.001216  0.576471 0.270916 0
0  0.637203 -0.360014 5.711768  0.999944 0.010519 0.000945  0.576471 0.147410 0
dao-bomb.bmp
0  0.637203 -0.360014 5.711768  0.999944 0.010519 0.000945  0.576471 0.015936 0
0  0.447201 -0.860014 6.191767  0.694757 -0.716032 -0.067910  0.674510 0.139442 0
0  0.447202 -0.810013 5.671767  0.695632 -0.715188 -0.067831  0.674510 0.015936 0
dao-bomb.bmp
0  0.447201 -0.860014 6.191767  0.694757 -0.716032 -0.067910  0.674510 0.139442 0
0  -0.002799 -1.040013 6.181766  -0.006963 -0.995506 -0.094446  0.780392 0.139442 0
0  0.447202 -0.810013 5.671767  0.695632 -0.715188 -0.067831  0.674510 0.015936 0
dao-bomb.bmp
0  0.447202 -0.810013 5.671767  0.695632 -0.715188 -0.067831  0.674510 0.015936 0
0  -0.002799 -1.040013 6.181766  -0.006963 -0.995506 -0.094446  0.780392 0.139442 0
0  -0.002798 -0.990013 5.651766  -0.006996 -0.995509 -0.094410  0.780392 0.015936 0
dao-bomb.bmp
0  -0.002799 -1.040013 6.181766  -0.006963 -0.995506 -0.094446  0.780392 0.139442 0
0  -0.442799 -0.860013 6.191766  -0.701187 -0.709793 -0.067314  0.886275 0.139442 0
0  -0.002798 -0.990013 5.651766  -0.006996 -0.995509 -0.094410  0.780392 0.015936 0
dao-bomb.bmp
0  -0.002798 -0.990013 5.651766  -0.006996 -0.995509 -0.094410  0.780392 0.015936 0
0  -0.442799 -0.860013 6.191766  -0.701187 -0.709793 -0.067314  0.886275 0.139442 0
0  -0.442798 -0.810012 5.671766  -0.702118 -0.708879 -0.067235  0.886275 0.015936 0
dao-bomb.bmp
0  -0.442799 -0.860013 6.191766  -0.701187 -0.709793 -0.067314  0.886275 0.139442 0
0  -0.632798 -0.410012 6.241766  -0.999931 0.011695 0.001181  0.980392 0.139442 0
0  -0.442798 -0.810012 5.671766  -0.702118 -0.708879 -0.067235  0.886275 0.015936 0
dao-bomb.bmp
0  -0.442798 -0.810012 5.671766  -0.702118 -0.708879 -0.067235  0.886275 0.015936 0
0  -0.632798 -0.410012 6.241766  -0.999931 0.011695 0.001181  0.980392 0.139442 0
0  -0.632797 -0.360012 5.711766  -0.999948 0.010176 0.000913  0.980392 0.015936 0
dao-bomb.bmp
0  -0.002797 -2.350009 1.881765  -0.009903 -0.638647 -0.769436  0.639216 0.549801 0
0  -0.002796 -1.990008 1.611766  -0.004500 -0.420864 -0.907113  0.639216 0.517928 0
0  0.783061 -1.850737 1.656046  0.117436 -0.318804 -0.940517  0.584314 0.517928 0
dao-bomb.bmp
0  -0.002796 -1.990008 1.611766  -0.004500 -0.420864 -0.907113  0.639216 0.517928 0
0  0.447206 -0.690009 1.411767  0.157697 -0.178728 -0.971179  0.588235 0.422311 0
0  0.783061 -1.850737 1.656046  0.117436 -0.318804 -0.940517  0.584314 0.517928 0
dao-bomb.bmp
0  0.783061 -1.850737 1.656046  0.117436 -0.318804 -0.940517  0.584314 0.517928 0
0  0.447206 -0.690009 1.411767  0.157697 -0.178728 -0.971179  0.588235 0.422311 0
0  1.587205 -1.250011 1.731768  0.462869 -0.208750 -0.861497  0.513725 0.513944 0
dao-bomb.bmp
0  0.447206 -0.690009 1.411767  0.157697 -0.178728 -0.971179  0.588235 0.422311 0
0  0.887207 -0.240009 1.411768  0.279710 -0.106874 -0.954118  0.545098 0.422311 0
0  1.587205 -1.250011 1.731768  0.462869 -0.208750 -0.861497  0.513725 0.513944 0
dao-bomb.bmp
0  1.587205 -1.250011 1.731768  0.462869 -0.208750 -0.861497  0.513725 0.513944 0
0  0.887207 -0.240009 1.411768  0.279710 -0.106874 -0.954118  0.545098 0.422311 0
0  1.917206 -0.580011 1.801769  0.594465 -0.065550 -0.801446  0.466667 0.498008 0
dao-bomb.bmp
0  0.887207 -0.240009 1.411768  0.279710 -0.106874 -0.954118  0.545098 0.422311 0
0  1.017208 0.209990 1.431768  0.397722 0.210690 -0.892988  0.513725 0.386454 0
0  1.917206 -0.580011 1.801769  0.594465 -0.065550 -0.801446  0.466667 0.498008 0
dao-bomb.bmp
0  1.917206 -0.580011 1.801769  0.594465 -0.065550 -0.801446  0.466667 0.498008 0
0  1.017208 0.209990 1.431768  0.397722 0.210690 -0.892988  0.513725 0.386454 0
0  1.917207 0.219989 1.871769  0.595973 0.219040 -0.772553  0.415686 0.462151 0
dao-bomb.bmp
0  1.457207 1.909986 4.131771  0.472985 0.851197 0.227483  0.372549 0.278884 0
0  2.357207 1.029987 3.551770  0.676505 0.716840 -0.168768  0.462745 0.239044 0
0  1.317208 1.939988 2.921770  0.452458 0.851798 -0.264051  0.372549 0.183267 0
dao-bomb.bmp
0  2.357207 1.029987 3.551770  0.676505 0.716840 -0.168768  0.462745 0.239044 0
0  2.137207 1.009988 2.651770  0.731453 0.552740 -0.399318  0.450980 0.155378 0
0  1.317208 1.939988 2.921770  0.452458 0.851798 -0.264051  0.372549 0.183267 0
dao-bomb.bmp
0  1.317208 1.939988 2.921770  0.452458 0.851798 -0.264051  0.372549 0.183267 0
0  2.137207 1.009988 2.651770  0.731453 0.552740 -0.399318  0.450980 0.155378 0
0  0.987209 1.549990 2.031770  0.323427 0.664282 -0.673887  0.356863 0.107570 0
dao-bomb.bmp
0  2.137207 1.009988 2.651770  0.731453 0.552740 -0.399318  0.450980 0.155378 0
0  1.617208 0.809989 1.951769  0.516330 0.431630 -0.739661  0.419608 0.087649 0
0  0.987209 1.549990 2.031770  0.323427 0.664282 -0.673887  0.356863 0.107570 0
dao-bomb.bmp
0  0.987209 1.549990 2.031770  0.323427 0.664282 -0.673887  0.356863 0.107570 0
0  1.617208 0.809989 1.951769  0.516330 0.431630 -0.739661  0.419608 0.087649 0
0  0.617208 0.749991 1.501768  0.273560 0.440893 -0.854856  0.345098 0.039841 0
dao-bomb.bmp
0  -1.017665 -2.409742 2.219453  -0.319035 -0.842406 -0.434244  0.705882 0.589641 0
0  -1.297665 -2.429743 2.489453  -0.370825 -0.888528 -0.270198  0.721569 0.617530 0
0  -1.299793 -2.290139 2.177157  -0.451786 -0.710053 -0.540106  0.725490 0.593625 0
dao-bomb.bmp
0  -1.297665 -2.429743 2.489453  -0.370825 -0.888528 -0.270198  0.721569 0.617530 0
0  -1.739793 -2.180140 2.587157  -0.596439 -0.746768 -0.294274  0.760784 0.613546 0
0  -1.299793 -2.290139 2.177157  -0.451786 -0.710053 -0.540106  0.725490 0.593625 0
dao-bomb.bmp
0  -1.299793 -2.290139 2.177157  -0.451786 -0.710053 -0.540106  0.725490 0.593625 0
0  -1.739793 -2.180140 2.587157  -0.596439 -0.746768 -0.294274  0.760784 0.613546 0
0  -1.849793 -2.000139 2.417157  -0.614335 -0.618829 -0.489533  0.768627 0.597610 0
dao-bomb.bmp
0  -1.739793 -2.180140 2.587157  -0.596439 -0.746768 -0.294274  0.760784 0.613546 0
0  -2.197665 -1.829741 2.759453  -0.789012 -0.574240 -0.218424  0.796078 0.621514 0
0  -1.849793 -2.000139 2.417157  -0.614335 -0.618829 -0.489533  0.768627 0.597610 0
dao-bomb.bmp
0  2.147203 0.009984 5.351769  0.607253 0.056759 0.792479  0.380392 0.948207 0
0  1.967202 -0.980015 5.171768  0.598326 -0.297584 0.743942  0.435294 0.888446 0
0  2.497204 0.039984 4.991770  0.547097 0.056613 0.835153  0.329412 0.892430 0
dao-bomb.bmp
0  1.967202 -0.980015 5.171768  0.598326 -0.297584 0.743942  0.435294 0.888446 0
0  2.487203 -0.960015 4.581769  0.718694 -0.508128 0.474642  0.384314 0.812749 0
0  2.497204 0.039984 4.991770  0.547097 0.056613 0.835153  0.329412 0.892430 0
dao-bomb.bmp
0  2.497204 0.039984 4.991770  0.547097 0.056613 0.835153  0.329412 0.892430 0
0  2.487203 -0.960015 4.581769  0.718694 -0.508128 0.474642  0.384314 0.812749 0
0  3.137203 -0.610016 4.441770  0.675502 -0.631954 0.379909  0.329412 0.784861 0
dao-bomb.bmp
0  2.487203 -0.960015 4.581769  0.718694 -0.508128 0.474642  0.384314 0.812749 0
0  3.197204 -0.490015 3.511770  0.799174 -0.484943 -0.355178  0.325490 0.685259 0
0  3.137203 -0.610016 4.441770  0.675502 -0.631954 0.379909  0.329412 0.784861 0
dao-bomb.bmp
0  1.277201 -2.590013 3.681766  0.381718 -0.918248 0.105416  0.529412 0.713147 0
0  1.297202 -2.550011 2.961766  0.362547 -0.930135 -0.058375  0.537255 0.645418 0
0  1.860741 -2.229745 2.859455  0.678598 -0.728416 -0.094422  0.501961 0.633466 0
dao-bomb.bmp
0  1.297202 -2.550011 2.961766  0.362547 -0.930135 -0.058375  0.537255 0.645418 0
0  1.610741 -2.369745 2.719455  0.500023 -0.862281 -0.080306  0.521569 0.625498 0
0  1.860741 -2.229745 2.859455  0.678598 -0.728416 -0.094422  0.501961 0.633466 0
dao-bomb.bmp
0  1.860741 -2.229745 2.859455  0.678598 -0.728416 -0.094422  0.501961 0.633466 0
0  1.610741 -2.369745 2.719455  0.500023 -0.862281 -0.080306  0.521569 0.625498 0
0  1.751151 -2.270144 2.592548  0.646261 -0.708568 -0.283334  0.513725 0.613546 0
dao-bomb.bmp
0  1.610741 -2.369745 2.719455  0.500023 -0.862281 -0.080306  0.521569 0.625498 0
0  1.340741 -2.499744 2.519454  0.314145 -0.930396 -0.188883  0.541176 0.613546 0
0  1.751151 -2.270144 2.592548  0.646261 -0.708568 -0.283334  0.513725 0.613546 0
dao-bomb.bmp
0  2.487205 -0.800013 2.481769  0.852717 -0.156616 -0.498343  0.411765 0.573705 0
0  1.587205 -1.250011 1.731768  0.462869 -0.208750 -0.861497  0.513725 0.513944 0
0  1.917206 -0.580011 1.801769  0.594465 -0.065550 -0.801446  0.466667 0.498008 0
dao-bomb.bmp
0  2.487205 -0.800013 2.481769  0.852717 -0.156616 -0.498343  0.411765 0.573705 0
0  1.917206 -0.580011 1.801769  0.594465 -0.065550 -0.801446  0.466667 0.498008 0
0  1.917207 0.219989 1.871769  0.595973 0.219040 -0.772553  0.415686 0.462151 0
dao-bomb.bmp
0  2.487205 -0.800013 2.481769  0.852717 -0.156616 -0.498343  0.411765 0.573705 0
0  1.917207 0.219989 1.871769  0.595973 0.219040 -0.772553  0.415686 0.462151 0
0  2.547207 0.219987 2.541770  0.865438 0.238438 -0.440640  0.337255 0.537849 0
dao-bomb.bmp
0  2.487205 -0.800013 2.481769  0.852717 -0.156616 -0.498343  0.411765 0.573705 0
0  2.547207 0.219987 2.541770  0.865438 0.238438 -0.440640  0.337255 0.537849 0
0  2.737204 -0.900014 3.261769  0.877356 -0.421472 -0.229366  0.376471 0.661355 0
dao-bomb.bmp
0  -0.002799 -1.040013 6.181766  -0.000263 -0.088319 0.996092  0.133333 0.756972 0
0  0.447201 -0.860014 6.191767  -0.009080 -0.097195 0.995224  0.050980 0.792829 0
0  -0.442799 -0.860013 6.191766  0.008881 -0.097074 0.995238  0.215686 0.792829 0
dao-bomb.bmp
0  0.447201 -0.860014 6.191767  -0.009080 -0.097195 0.995224  0.050980 0.792829 0
0  0.447202 0.029986 6.281768  0.009029 -0.097228 0.995221  0.050980 0.960159 0
0  -0.442799 -0.860013 6.191766  0.008881 -0.097074 0.995238  0.215686 0.792829 0
dao-bomb.bmp
0  -0.442799 -0.860013 6.191766  0.008881 -0.097074 0.995238  0.215686 0.792829 0
0  0.447202 0.029986 6.281768  0.009029 -0.097228 0.995221  0.050980 0.960159 0
0  -0.442798 0.029987 6.281767  -0.009080 -0.097364 0.995207  0.215686 0.960159 0
dao-bomb.bmp
0  0.447202 0.029986 6.281768  0.009029 -0.097228 0.995221  0.050980 0.960159 0
0  -0.002797 0.219987 6.301767  -0.000132 -0.088317 0.996092  0.133333 0.996016 0
0  -0.442798 0.029987 6.281767  -0.009080 -0.097364 0.995207  0.215686 0.960159 0
dao-bomb.bmp
0  1.037201 -2.260014 4.831766  0.302898 -0.780165 0.547353  0.537255 0.820717 0
0  -0.002800 -2.470012 4.801764  -0.004751 -0.834280 0.551320  0.615686 0.812749 0
0  -0.002799 -2.720012 4.231764  -0.005199 -0.950878 0.309523  0.619608 0.756972 0
dao-bomb.bmp
0  1.037201 -2.260014 4.831766  0.302898 -0.780165 0.547353  0.537255 0.820717 0
0  -0.002799 -2.720012 4.231764  -0.005199 -0.950878 0.309523  0.619608 0.756972 0
0  1.167201 -2.480013 4.251766  0.369357 -0.866964 0.334588  0.537255 0.764940 0
dao-bomb.bmp
0  1.037201 -2.260014 4.831766  0.302898 -0.780165 0.547353  0.537255 0.820717 0
0  1.167201 -2.480013 4.251766  0.369357 -0.866964 0.334588  0.537255 0.764940 0
0  2.157202 -1.970014 3.861768  0.741024 -0.649178 0.171616  0.462745 0.729084 0
dao-bomb.bmp
0  1.037201 -2.260014 4.831766  0.302898 -0.780165 0.547353  0.537255 0.820717 0
0  2.157202 -1.970014 3.861768  0.741024 -0.649178 0.171616  0.462745 0.729084 0
0  1.687201 -1.720015 5.041767  0.534893 -0.565207 0.628037  0.482353 0.848606 0
dao-bomb.bmp
0  -1.452793 1.909990 4.131767  -0.473466 0.850896 0.227607  0.184314 0.266932 0
0  -2.272795 0.739991 4.751766  -0.506463 0.614792 0.604587  0.101961 0.334661 0
0  -1.192795 1.329989 5.241767  -0.350396 0.645452 0.678685  0.192157 0.362550 0
dao-bomb.bmp
0  -2.272795 0.739991 4.751766  -0.506463 0.614792 0.604587  0.101961 0.334661 0
0  -1.822796 0.609990 5.321766  -0.511814 0.414268 0.752614  0.133333 0.390438 0
0  -1.192795 1.329989 5.241767  -0.350396 0.645452 0.678685  0.192157 0.362550 0
dao-bomb.bmp
0  -1.192795 1.329989 5.241767  -0.350396 0.645452 0.678685  0.192157 0.362550 0
0  -1.822796 0.609990 5.321766  -0.511814 0.414268 0.752614  0.133333 0.390438 0
0  -0.702796 0.489988 5.821767  -0.199687 0.280737 0.938782  0.215686 0.438247 0
dao-bomb.bmp
0  -2.632794 0.179994 2.951765  -0.846135 0.275335 -0.456340  0.964706 0.597610 0
0  -2.732796 -0.900006 3.261764  -0.879897 -0.418544 -0.224951  0.890196 0.669323 0
0  -3.292795 0.139994 3.401764  -0.807799 0.209421 -0.551003  0.988235 0.681275 0
dao-bomb.bmp
0  -2.732796 -0.900006 3.261764  -0.879897 -0.418544 -0.224951  0.890196 0.669323 0
0  -3.192795 -0.490007 3.511764  -0.798867 -0.488240 -0.351330  0.933333 0.701195 0
0  -3.292795 0.139994 3.401764  -0.807799 0.209421 -0.551003  0.988235 0.681275 0
dao-bomb.bmp
0  -3.292795 0.139994 3.401764  -0.807799 0.209421 -0.551003  0.988235 0.681275 0
0  -3.192795 -0.490007 3.511764  -0.798867 -0.488240 -0.351330  0.933333 0.701195 0
0  -3.432795 0.039993 4.131764  -0.996554 0.018083 0.080946  0.984314 0.768924 0
dao-bomb.bmp
0  -2.632794 0.179994 2.951765  -0.846135 0.275335 -0.456340  0.035294 0.151394 0
0  -3.292795 0.139994 3.401764  -0.807799 0.209421 -0.551003  0.007843 0.211155 0
0  -3.112794 0.669993 3.871765  -0.668985 0.713901 -0.206892  0.043137 0.250996 0
dao-bomb.bmp
0  -3.292795 0.139994 3.401764  -0.807799 0.209421 -0.551003  0.007843 0.211155 0
0  -3.432795 0.039993 4.131764  -0.996554 0.018083 0.080946  0.000000 0.282869 0
0  -3.112794 0.669993 3.871765  -0.668985 0.713901 -0.206892  0.043137 0.250996 0
dao-bomb.bmp
0  -3.112794 0.669993 3.871765  -0.668985 0.713901 -0.206892  0.043137 0.250996 0
0  -3.432795 0.039993 4.131764  -0.996554 0.018083 0.080946  0.000000 0.282869 0
0  -3.142795 0.639993 4.461765  -0.646822 0.648106 0.401970  0.047059 0.302789 0
dao-bomb.bmp
0  -2.142797 0.009990 5.351765  -0.606053 0.054339 0.793566  0.854902 0.940239 0
0  -1.962798 -0.980010 5.171764  -0.600525 -0.299380 0.741445  0.800000 0.880478 0
0  -1.292797 -0.110011 5.761766  -0.336128 -0.000190 0.941816  0.756863 0.980080 0
dao-bomb.bmp
0  -1.962798 -0.980010 5.171764  -0.600525 -0.299380 0.741445  0.800000 0.880478 0
0  -1.212798 -0.750011 5.661765  -0.343645 -0.231640 0.910083  0.729412 0.940239 0
0  -1.292797 -0.110011 5.761766  -0.336128 -0.000190 0.941816  0.756863 0.980080 0
dao-bomb.bmp
0  -1.292797 -0.110011 5.761766  -0.336128 -0.000190 0.941816  0.756863 0.980080 0
0  -1.212798 -0.750011 5.661765  -0.343645 -0.231640 0.910083  0.729412 0.940239 0
0  -0.002798 -0.370013 5.961767  -0.001735 -0.087829 0.996134  0.627451 1.000000 0
dao-bomb.bmp
0  2.497204 0.039984 4.991770  0.547097 0.056613 0.835153  0.478431 0.398406 0
0  2.277205 0.739985 4.751770  0.504518 0.611316 0.609717  0.447059 0.354582 0
0  2.147203 0.009984 5.351769  0.607253 0.056759 0.792479  0.439216 0.430279 0
dao-bomb.bmp
0  2.277205 0.739985 4.751770  0.504518 0.611316 0.609717  0.447059 0.354582 0
0  1.827204 0.609985 5.321770  0.513387 0.411654 0.752978  0.403922 0.402390 0
0  2.147203 0.009984 5.351769  0.607253 0.056759 0.792479  0.439216 0.430279 0
dao-bomb.bmp
0  2.147203 0.009984 5.351769  0.607253 0.056759 0.792479  0.439216 0.430279 0
0  1.827204 0.609985 5.321770  0.513387 0.411654 0.752978  0.403922 0.402390 0
0  1.297203 -0.110015 5.761768  0.333141 0.003455 0.942871  0.368627 0.466135 0
dao-bomb.bmp
0  3.297206 0.139984 3.401771  0.807835 0.209387 -0.550962  0.552941 0.239044 0
0  3.117206 0.669984 3.871771  0.673555 0.707416 -0.214212  0.513725 0.278884 0
0  3.437205 0.039984 4.131771  0.996406 0.013911 0.083559  0.556863 0.306773 0
dao-bomb.bmp
0  3.117206 0.669984 3.871771  0.673555 0.707416 -0.214212  0.513725 0.278884 0
0  3.147205 0.639984 4.461771  0.650459 0.640139 0.408809  0.505882 0.326693 0
0  3.437205 0.039984 4.131771  0.996406 0.013911 0.083559  0.556863 0.306773 0
dao-bomb.bmp
0  3.437205 0.039984 4.131771  0.996406 0.013911 0.083559  0.556863 0.306773 0
0  3.147205 0.639984 4.461771  0.650459 0.640139 0.408809  0.505882 0.326693 0
0  3.157204 0.019984 4.781770  0.623867 -0.025753 0.781106  0.529412 0.366534 0
dao-bomb.bmp
0  -0.032799 -0.580014 7.141767  -0.423844 -0.088002 0.901450  0.862745 0.310757 0
0  -0.032799 -0.410014 7.151767  -0.441467 -0.046806 0.896056  0.862745 0.378486 0
0  -0.152799 -0.660014 7.071767  -0.488197 -0.084180 0.868664  0.921569 0.274900 0
dao-bomb.bmp
0  -0.032799 -0.410014 7.151767  -0.441467 -0.046806 0.896056  0.862745 0.378486 0
0  -0.282799 -0.400014 7.031767  -0.433677 -0.106484 0.894755  0.980392 0.378486 0
0  -0.152799 -0.660014 7.071767  -0.488197 -0.084180 0.868664  0.921569 0.274900 0
dao-bomb.bmp
0  -0.152799 -0.660014 7.071767  -0.488197 -0.084180 0.868664  0.921569 0.274900 0
0  -0.282799 -0.400014 7.031767  -0.433677 -0.106484 0.894755  0.980392 0.378486 0
0  -0.282799 -0.570014 7.011766  -0.433123 -0.064692 0.899010  0.980392 0.310757 0
dao-bomb.bmp
0  1.301151 -2.370142 2.162548  0.434088 -0.712953 -0.550695  0.549020 0.585657 0
0  1.050741 -2.469743 2.209454  0.286516 -0.862179 -0.417799  0.564706 0.585657 0
0  0.843060 -2.380737 1.976046  0.130324 -0.703641 -0.698503  0.576471 0.565737 0
dao-bomb.bmp
0  1.050741 -2.469743 2.209454  0.286516 -0.862179 -0.417799  0.564706 0.585657 0
0  0.647203 -2.660010 2.291765  0.211201 -0.898783 -0.384165  0.588235 0.593625 0
0  0.843060 -2.380737 1.976046  0.130324 -0.703641 -0.698503  0.576471 0.565737 0
dao-bomb.bmp
0  0.843060 -2.380737 1.976046  0.130324 -0.703641 -0.698503  0.576471 0.565737 0
0  0.647203 -2.660010 2.291765  0.211201 -0.898783 -0.384165  0.588235 0.593625 0
0  0.577203 -2.360009 1.961766  0.045562 -0.613899 -0.788068  0.592157 0.561753 0
dao-bomb.bmp
0  -0.442794 -0.690008 1.411766  -0.162760 -0.178663 -0.970355  0.682353 0.430279 0
0  -0.002794 -0.690008 1.351767  -0.002778 -0.196807 -0.980438  0.639216 0.422311 0
0  -0.002796 -1.990008 1.611766  -0.004500 -0.420864 -0.907113  0.639216 0.517928 0
dao-bomb.bmp
0  -0.002794 -0.690008 1.351767  -0.002778 -0.196807 -0.980438  0.639216 0.422311 0
0  0.447206 -0.690009 1.411767  0.157697 -0.178728 -0.971179  0.588235 0.422311 0
0  -0.002796 -1.990008 1.611766  -0.004500 -0.420864 -0.907113  0.639216 0.517928 0
dao-bomb.bmp
0  -2.152798 -1.970008 3.861763  -0.731925 -0.659783 0.170215  0.792157 0.733068 0
0  -1.887665 -2.119742 2.849453  -0.628545 -0.769542 -0.112849  0.772549 0.637450 0
0  -1.292798 -2.550009 2.951764  -0.398318 -0.912626 -0.091962  0.725490 0.649402 0
dao-bomb.bmp
0  -1.887665 -2.119742 2.849453  -0.628545 -0.769542 -0.112849  0.772549 0.637450 0
0  -1.607665 -2.309742 2.719453  -0.549932 -0.818846 -0.164519  0.749020 0.625498 0
0  -1.292798 -2.550009 2.951764  -0.398318 -0.912626 -0.091962  0.725490 0.649402 0
dao-bomb.bmp
0  1.191152 -1.940141 1.742548  0.335270 -0.394562 -0.855520  0.556863 0.529880 0
0  2.210742 -1.569745 2.429456  0.787801 -0.387711 -0.478592  0.462745 0.589641 0
0  1.891151 -1.970143 2.422548  0.674192 -0.536669 -0.507397  0.498039 0.593625 0
dao-bomb.bmp
0  2.210742 -1.569745 2.429456  0.787801 -0.387711 -0.478592  0.462745 0.589641 0
0  2.230741 -1.709745 2.759456  0.839237 -0.505953 -0.199232  0.470588 0.617530 0
0  1.891151 -1.970143 2.422548  0.674192 -0.536669 -0.507397  0.498039 0.593625 0
dao-bomb.bmp
0  -1.962798 -0.980010 5.171764  -0.600525 -0.299380 0.741445  0.800000 0.880478 0
0  -2.142797 0.009990 5.351765  -0.606053 0.054339 0.793566  0.854902 0.940239 0
0  -2.492796 0.039991 4.991765  -0.546502 0.057017 0.835514  0.905882 0.900398 0
dao-bomb.bmp
0  -0.702796 0.489988 5.821767  -0.199687 0.280737 0.938782  0.215686 0.438247 0
0  -0.002796 0.709987 5.841768  -0.004722 0.368752 0.929516  0.266667 0.430279 0
0  -0.002794 1.619988 5.261769  -0.001432 0.733061 0.680162  0.270588 0.362550 0
dao-bomb.bmp
0  -2.482797 -0.960008 4.581764  -0.718732 -0.506692 0.476117  0.858824 0.820717 0
0  -2.152798 -1.970008 3.861763  -0.731925 -0.659783 0.170215  0.792157 0.733068 0
0  -1.692799 -1.720010 5.041763  -0.539681 -0.557403 0.630909  0.752941 0.844622 0
dao-bomb.bmp
0  1.217202 -0.750014 5.661768  0.347076 -0.235553 0.907774  0.501961 0.956175 0
0  1.297203 -0.110015 5.761768  0.333141 0.003455 0.942871  0.486275 1.000000 0
0  -0.002798 -0.370013 5.961767  -0.001735 -0.087829 0.996134  0.627451 1.000000 0
dao-bomb.bmp
0  2.487203 -0.960015 4.581769  0.718694 -0.508128 0.474642  0.384314 0.812749 0
0  2.737204 -0.900014 3.261769  0.877356 -0.421472 -0.229366  0.376471 0.661355 0
0  3.197204 -0.490015 3.511770  0.799174 -0.484943 -0.355178  0.325490 0.685259 0
dao-bomb.bmp
0  3.117206 0.669984 3.871771  0.673555 0.707416 -0.214212  0.513725 0.278884 0
0  3.297206 0.139984 3.401771  0.807835 0.209387 -0.550962  0.552941 0.239044 0
0  2.637206 0.179987 2.951770  0.845376 0.287224 -0.450380  0.533333 0.179283 0
dao-bomb.bmp
0  -0.882793 -0.240007 1.411766  -0.094574 -0.050957 -0.994213  0.725490 0.410359 0
0  -0.002792 0.179992 1.301767  -0.103500 -0.057715 -0.992954  0.627451 0.334661 0
0  -0.002794 -0.690008 1.351767  -0.092444 -0.061947 -0.993789  0.639216 0.422311 0
dao-bomb.bmp
0  -0.002794 -0.690008 1.351767  -0.129207 -0.140738 -0.981579  0.639216 0.422311 0
0  -0.442794 -0.690008 1.411766  -0.135286 -0.120236 -0.983484  0.682353 0.430279 0
0  -0.882793 -0.240007 1.411766  -0.137649 -0.141024 -0.980390  0.725490 0.410359 0
dao-bomb.bmp
0  -0.002792 0.179992 1.301767  -0.127943 0.006820 -0.991758  0.627451 0.334661 0
0  -0.882793 -0.240007 1.411766  -0.126871 0.006923 -0.991895  0.725490 0.410359 0
0  -1.012792 0.209993 1.431766  -0.127800 0.007831 -0.991769  0.741176 0.362550 0
dao-bomb.bmp
0  -0.612792 0.749993 1.501767  -0.072014 0.267719 -0.960802  0.243137 0.035857 0
0  -0.002792 0.939992 1.511768  -0.065013 0.260865 -0.963184  0.294118 0.043825 0
0  -0.002792 0.179992 1.301767  -0.063489 0.269826 -0.960814  0.290196 0.000000 0
dao-bomb.bmp
0  -0.002792 0.179992 1.301767  -0.122612 0.208897 -0.970221  0.290196 0.000000 0
0  -1.012792 0.209993 1.431766  -0.113423 0.210160 -0.971065  0.196078 0.003984 0
0  -0.612792 0.749993 1.501767  -0.119986 0.219280 -0.968256  0.243137 0.035857 0
dao-bomb.bmp
0  0.447206 -0.690009 1.411767  0.134842 -0.048898 -0.989660  0.588235 0.422311 0
0  -0.002794 -0.690008 1.351767  0.125738 -0.062636 -0.990084  0.639216 0.422311 0
0  -0.002792 0.179992 1.301767  0.139863 -0.059670 -0.988371  0.627451 0.334661 0
dao-bomb.bmp
0  -0.002792 0.179992 1.301767  0.086743 -0.082395 -0.992818  0.627451 0.334661 0
0  0.887207 -0.240009 1.411768  0.083409 -0.079413 -0.993346  0.545098 0.422311 0
0  0.447206 -0.690009 1.411767  0.082814 -0.084637 -0.992965  0.588235 0.422311 0
dao-bomb.bmp
0  -0.002792 0.179992 1.301767  0.128099 0.006851 -0.991738  0.627451 0.334661 0
0  1.017208 0.209990 1.431768  0.126675 0.009634 -0.991897  0.513725 0.386454 0
0  0.887207 -0.240009 1.411768  0.124888 0.006052 -0.992152  0.545098 0.422311 0
dao-bomb.bmp
0  1.017208 0.209990 1.431768  0.114753 0.263525 -0.957803  0.392157 0.007968 0
0  -0.002792 0.179992 1.301767  0.114865 0.265570 -0.957225  0.290196 0.000000 0
0  -0.002792 0.939992 1.511768  0.113149 0.264216 -0.957803  0.294118 0.043825 0
dao-bomb.bmp
0  -0.002792 0.939992 1.511768  0.025490 0.133767 -0.990685  0.294118 0.043825 0
0  0.617208 0.749991 1.501768  0.039798 0.164805 -0.985523  0.345098 0.039841 0
0  1.017208 0.209990 1.431768  0.016342 0.139874 -0.990034  0.392157 0.007968 0
dao-bomb.bmp
0  -0.632797 -0.360012 5.711766  -0.999948 0.010176 0.000913  0.980392 0.147410 0
0  -0.632798 -0.410012 6.241766  -0.999931 0.011695 0.001181  0.980392 0.270916 0
0  -0.442798 0.029987 6.281767  -0.709075 0.701992 0.066486  0.886275 0.270916 0
dao-bomb.bmp
0  0.637203 -0.360014 5.711768  0.999944 0.010519 0.000945  0.576471 0.015936 0
0  0.637202 -0.410014 6.241767  0.999927 0.012034 0.001216  0.576471 0.139442 0
0  0.447201 -0.860014 6.191767  0.694757 -0.716032 -0.067910  0.674510 0.139442 0
dao-bomb.bmp
0  -0.442798 0.029987 6.281767  -0.009080 -0.097364 0.995207  0.215686 0.960159 0
0  -0.632798 -0.410012 6.241766  -0.000095 -0.112684 0.993631  0.250980 0.876494 0
0  -0.442799 -0.860013 6.191766  0.008881 -0.097074 0.995238  0.215686 0.792829 0
dao-bomb.bmp
0  0.637202 -0.410014 6.241767  0.000093 -0.112681 0.993631  0.019608 0.876494 0
0  0.447202 0.029986 6.281768  0.009029 -0.097228 0.995221  0.050980 0.960159 0
0  0.447201 -0.860014 6.191767  -0.009080 -0.097195 0.995224  0.050980 0.792829 0
dao-bomb.bmp
0  0.097201 -0.520014 6.651767  0.859574 -0.509305 0.041724  0.203922 0.657371 0
0  0.117202 -0.470013 6.211767  0.866126 -0.499826 -0.000145  0.203922 0.577689 0
0  0.117202 -0.340013 6.231767  0.871878 0.480838 0.092859  0.176471 0.577689 0
dao-bomb.bmp
0  -0.032799 -0.580014 7.141767  0.880292 -0.444811 0.165015  0.203922 0.741036 0
0  0.097201 -0.520014 6.651767  0.859574 -0.509305 0.041724  0.203922 0.657371 0
0  0.097202 -0.380014 6.661767  0.869372 0.463649 0.170947  0.176471 0.657371 0
dao-bomb.bmp
0  -0.152799 -0.320014 7.101767  -0.445343 -0.084190 0.891393  0.921569 0.414343 0
0  -0.282799 -0.400014 7.031767  -0.433677 -0.106484 0.894755  0.980392 0.378486 0
0  -0.032799 -0.410014 7.151767  -0.441467 -0.046806 0.896056  0.862745 0.378486 0
dao-bomb.bmp
0  1.610741 -2.369745 2.719455  0.500023 -0.862281 -0.080306  0.521569 0.625498 0
0  1.297202 -2.550011 2.961766  0.362547 -0.930135 -0.058375  0.537255 0.645418 0
0  1.340741 -2.499744 2.519454  0.314145 -0.930396 -0.188883  0.541176 0.613546 0
dao-bomb.bmp
0  1.167201 -2.480013 4.251766  0.369357 -0.866964 0.334588  0.537255 0.764940 0
0  -0.002799 -2.720012 4.231764  -0.005199 -0.950878 0.309523  0.619608 0.756972 0
0  -0.002799 -2.830010 3.751765  -0.002443 -0.991943 0.126660  0.623529 0.717131 0
dao-bomb.bmp
0  1.277201 -2.590013 3.681766  0.381718 -0.918248 0.105416  0.529412 0.713147 0
0  0.622376 -2.718443 3.794152  0.180231 -0.962542 0.202558  0.576471 0.721116 0
0  0.431364 -2.768444 3.634151  0.172131 -0.984602 0.030495  0.592157 0.705179 0
dao-bomb.bmp
0  -1.162799 -2.480010 4.251763  -0.365616 -0.870648 0.329085  0.705882 0.764940 0
0  -1.272799 -2.590008 3.671763  -0.392609 -0.915348 0.089416  0.721569 0.713147 0
0  -0.617624 -2.718441 3.794150  -0.184415 -0.966785 0.176969  0.670588 0.721116 0
dao-bomb.bmp
0  -0.423653 -2.768441 3.624151  -0.173917 -0.984312 0.029705  0.658824 0.709163 0
0  -0.002798 -2.830010 3.171765  -0.003287 -0.999198 -0.039910  0.627451 0.669323 0
0  -0.002799 -2.830010 3.751765  -0.002443 -0.991943 0.126660  0.623529 0.717131 0
end
