// Created by Crowbar 0.68

$modelname "weapons/tfa_cso/c_aeolis.mdl"

$Include "csonline_gmod.qci"

$bodygroup "weapon"
{
	studio "ref_spmg1"
}
$bodygroup "weapon"
{
	studio "ref_spmg2"
}

$CDMaterials "models\weapons\tfa_cso\aeolis\"

$attachment 0 "spgun_root" 24 0 -1
//$attachment 1 "bullet03" 0 0 0
//$attachment 2 "spgun_root" 18 0 -2
//$attachment 3 "spgun_root" 16.5 0 -2
//$attachment 4 "spgun_root" 15 0 -2

$sequence "idle1" {
	"v_spmg_anims\idle1"
	{ event 5004 1 "Aeolis.Idle" }
	activity "ACT_VM_IDLE" 1
	fps 20
	snap
	loop
}
$sequence "shoot1" {
	"v_spmg_anims\shoot1"
	{ event 5001 0 "31" }
	activity "ACT_VM_PRIMARYATTACK" 1
	fps 30
	snap
}
$sequence "shoot2" {
	"v_spmg_anims\shoot2_short"
	fps 30
	activity "ACT_VM_SECONDARYATTACK" 1
	snap
}
$sequence "reload" {
	"v_spmg_anims\reload"
	{ event 5004 0 "Aeolis.ClipOut" }
	{ event 5004 51 "Aeolis.ClipIn1" }
	{ event 5004 80 "Aeolis.ClipIn2" }
	{ event 5004 103 "Aeolis.ClipIn3" }
	activity "ACT_VM_RELOAD" 1
	fps 30
	snap
}
$sequence "draw" {
	"v_spmg_anims\draw"
	{ event 5004 7 "Aeolis.Draw" }
	activity "ACT_VM_DRAW" 1
	fps 30
	snap
}
