// Created by Crowbar 0.49.0.0

$modelname "weapons/tfa_cso/c_elite.mdl"

$Include "csonline_gmod.qci"

$bodygroup "weapon"
{
	studio "v_elite-PV"
}

$CDMaterials "models\weapons\tfa_cso\elite\"

$attachment 0 "Bone63" 0 -5.75 0
$attachment 1 "Bone52" 0 -5.5 0
//$attachment 2 "Bone63" 0 -2.25 0
//$attachment 3 "Bone52" 0 -2 0

$definebone "Bone01" "" -9.025156 0.350021 -6.182642 73.697305 -114.140051 -136.292725 0.000000 0.000000 -0.000000 0.000001 -0.000001 -0.000002
$definebone "Bone02" "Bone01" 0.026865 -9.077094 0.000000 -19.723729 14.121634 13.691112 0.000000 0.000000 0.000000 0.000001 -0.000002 0.000002
$definebone "Bone48" "Bone02" 0.231207 -3.555964 0.741274 -88.787898 -8.689522 4.589929 0.000000 0.000000 0.000000 -0.000001 0.000001 0.000002
$definebone "Bone49" "Bone48" 0.000000 2.233213 0.719424 -0.000001 0.000001 0.000002 0.000000 0.000000 -0.000000 -0.000001 0.000001 0.000002
$definebone "Bone24" "" 9.027349 0.252495 -5.923389 -75.917123 104.810402 -126.346343 0.000000 0.000000 0.000000 0.000000 0.000000 0.000000
$definebone "Bone25" "Bone24" -0.244754 -8.933564 0.000000 17.164559 -14.309967 11.983187 -0.000000 0.000000 0.000000 -0.000000 -0.000001 0.000002
$definebone "Bone47" "Bone25" -0.397213 -3.594002 0.679843 86.952476 29.078489 24.657668 0.000000 0.000000 0.000000 -0.000001 -0.000002 -0.000000
$definebone "Bone58" "Bone47" -0.000000 2.323139 0.854316 -0.000001 -0.000002 -0.000000 0.000000 0.000000 0.000000 -0.000001 -0.000002 -0.000000
$definebone "Bone52" "Bone49" 0.000000 -0.070426 2.323140 -0.000001 0.000001 0.000002 0.000000 0.000000 0.000000 -0.000001 0.000001 0.000002
$definebone "Bone63" "Bone58" 0.000000 0.221520 2.323141 -0.000001 -0.000002 -0.000000 0.000000 0.000000 0.000000 -0.000001 -0.000002 -0.000000
$definebone "Bone56" "Bone49" 0.000000 -1.663671 1.258993 -0.000001 0.000001 0.000002 -0.000000 0.000000 0.000000 -0.000001 0.000001 0.000002
$definebone "Bone65" "Bone58" 0.000001 -1.064150 1.708632 -0.000001 -0.000002 -0.000000 0.000000 0.000000 0.000000 -0.000001 -0.000002 -0.000000
$definebone "Bone59" "Bone58" 0.000001 -1.693644 1.258992 -0.000001 -0.000002 -0.000000 0.000000 0.000000 0.000000 -0.000001 -0.000002 -0.000000
$definebone "Bone61" "Bone58" 0.000001 -2.997601 1.229017 -0.000001 -0.000002 -0.000000 0.000000 0.000001 0.000000 -0.000001 -0.000002 -0.000000
$definebone "Bone50" "Bone49" 0.000000 -2.967626 1.273979 -0.000001 0.000001 0.000002 0.000000 0.000000 -0.000000 -0.000001 0.000001 0.000002
$definebone "Bone54" "Bone49" 0.000000 -1.019184 1.678656 -0.000001 0.000001 0.000002 0.000000 0.000000 0.000000 -0.000001 0.000001 0.000002

$sequence "idle" {
	"v_elite_anims\idle"
	fps 16
	activity "ACT_VM_IDLE" 1
	snap
	loop
}
$sequence "idle_leftempty" {
	"v_elite_anims\idle_leftempty"
	fps 16
}
$sequence "shoot_left1" {
	"v_elite_anims\shoot_left1"
	{ event 5001 0 "11" }
	fps 40
	activity "ACT_VM_PRIMARYATTACK" 1
	snap
}
$sequence "shoot_left2" {
	"v_elite_anims\shoot_left2"
	{ event 5001 0 "11" }
	fps 40
	activity "ACT_VM_PRIMARYATTACK" 2
	snap
}
$sequence "shoot_left3" {
	"v_elite_anims\shoot_left3"
	{ event 5001 0 "11" }
	fps 40
	activity "ACT_VM_PRIMARYATTACK" 3
	snap
}
$sequence "shoot_left4" {
	"v_elite_anims\shoot_left4"
	{ event 5001 0 "11" }
	fps 40
	activity "ACT_VM_PRIMARYATTACK" 4
	snap
}
$sequence "shoot_left5" {
	"v_elite_anims\shoot_left5"
	{ event 5001 0 "11" }
	fps 40
	activity "ACT_VM_PRIMARYATTACK" 5
	snap
}
$sequence "shoot_leftlast" {
	"v_elite_anims\shoot_leftlast"
	{ event 5001 0 "11" }
	fps 40
}
$sequence "shoot_right1" {
	"v_elite_anims\shoot_right1"
	{ event 5011 0 "11" }
	fps 40
	activity "ACT_VM_SECONDARYATTACK" 1
	snap
}
$sequence "shoot_right2" {
	"v_elite_anims\shoot_right2"
	{ event 5011 0 "11" }
	fps 40
	activity "ACT_VM_SECONDARYATTACK" 2
	snap
}
$sequence "shoot_right3" {
	"v_elite_anims\shoot_right3"
	{ event 5011 0 "11" }
	fps 40
	activity "ACT_VM_SECONDARYATTACK" 3
	snap
}
$sequence "shoot_right4" {
	"v_elite_anims\shoot_right4"
	{ event 5011 0 "11" }
	fps 40
	activity "ACT_VM_SECONDARYATTACK" 4
	snap
}
$sequence "shoot_right5" {
	"v_elite_anims\shoot_right5"
	{ event 5011 0 "11" }
	fps 40
	activity "ACT_VM_SECONDARYATTACK" 5
	snap
}
$sequence "shoot_rightlast" {
	"v_elite_anims\shoot_rightlast"
	{ event 5011 0 "11" }
	fps 40
}
$sequence "reload" {
	"v_elite_anims\reload"
	{ event 5004 6 "Elite.ReloadStart" }
	{ event 5004 44 "Elite.LeftClipin" }
	{ event 5004 73 "Elite.Clipout" }
	{ event 5004 82 "Elite.SlideRelease" }
	{ event 5004 112 "Elite.RightClipin" }
	{ event 5004 125 "Elite.SlideRelease" }
	fps 30
	activity "ACT_VM_RELOAD" 1
	snap
}
$sequence "draw" {
	"v_elite_anims\draw"
	{ event 5004 1 "Elite.Draw" }
	fps 30
	activity "ACT_VM_DRAW" 1
	snap
}
