// Created by Crowbar 0.49.0.0

$modelname "weapons/tfa_cso/c_crossbowex.mdl"

$Include "csonline_gmod.qci"

$bodygroup "weapon"
{
	studio "v_crossbowex_v_ref1"
}
$bodygroup "weapon"
{
	studio "v_crossbowex_v_ref2"
}

$CDMaterials "models\weapons\tfa_cso\crossbowex"

$attachment 0 "bone_load01" -38.117001 2.401 0

$definebone "Bone01" "" 10.550390 -2.830379 -11.305989 -44.136143 84.928902 -120.583262 -0.000001 0.000000 0.000000 0.000001 -0.000004 0.000002
$definebone "Bone_Lefthand" "Bone01" -0.071918 -8.498729 -0.104138 26.964366 -36.717035 18.189863 0.000000 -0.000000 0.000000 -0.000000 0.000003 0.000002
$definebone "bone_handle01" "Bone_Lefthand" 1.666715 -2.907800 0.634356 3.043666 160.830917 -12.801197 0.000000 0.000000 0.000000 -0.000002 0.000005 -0.000002
$definebone "bone_load01" "bone_handle01" -1.699721 2.222294 0.000422 -0.000002 -73.484025 0.000001 0.000000 0.000000 0.000000 -0.000002 -0.000003 0.000001
$definebone "bone_trogger01" "bone_handle01" 0.037088 1.836797 -0.000000 -0.000000 38.930368 -0.000002 0.000000 -0.000001 0.000000 -0.000000 -0.000002 -0.000002
$definebone "Bone25" "bone_load01" 0.757016 0.138656 0.000000 0.000001 -89.999976 0.000002 0.000000 0.000000 -0.000000 0.000001 0.000003 0.000002
$definebone "bone_megazine01" "bone_handle01" -0.489116 10.226310 1.194555 -0.000002 -73.460755 0.000001 0.000000 0.000000 0.000000 -0.000002 -0.000003 0.000001
$definebone "bone_megazine02" "bone_megazine01" 1.189388 -0.918510 -1.194556 -0.000002 0.211132 0.000001 0.000000 0.000000 -0.000000 -0.000002 -0.000003 0.000001
$definebone "Bone12" "bone_handle01" -6.011921 16.671371 5.900702 -44.999992 -73.125632 89.999983 0.000000 0.000000 0.000000 -0.000002 0.000000 -0.000004
$definebone "Bone16" "Bone12" 5.999998 -0.000002 0.000000 -0.000002 0.000000 -0.000004 0.000000 0.000000 0.000000 -0.000002 0.000000 -0.000004
$definebone "Bone30" "Bone16" 5.375442 -2.719460 -0.072982 -0.028823 -108.973375 0.000003 0.000000 0.000000 0.000000 -0.000003 -0.000005 0.000003
$definebone "Bone02" "bone_handle01" -6.011847 16.671127 -5.947226 44.999992 -73.125632 90.000038 -0.000001 0.000000 0.000000 -0.000003 0.000000 0.000002
$definebone "Bone03" "Bone02" 5.999998 0.000002 0.000000 -0.000003 0.000000 0.000002 -0.000000 0.000000 -0.000000 -0.000003 0.000000 0.000002
$definebone "Bone20" "Bone03" 5.374878 2.719330 -0.072983 -0.028706 109.060630 -0.000003 0.000000 -0.000001 0.000000 -0.000001 0.000000 -0.000003
$definebone "Bone24" "Bone16" 3.890569 -1.778534 -0.095853 -0.000001 -139.779017 0.000004 -0.000000 0.000000 0.000000 -0.000001 0.000000 0.000004
$definebone "Bone08" "Bone03" 3.876996 1.784210 -0.095853 0.000001 139.765439 -0.000003 0.000000 0.000000 0.000000 0.000001 0.000000 -0.000003

$sequence "idle1" {
	"v_crossbowex_anims\idle1"
	fps 16
	loop
	activity "ACT_VM_IDLE" 1
	snap
}
$sequence "shoot" {
	"v_crossbowex_anims\shoot"
	{ event 5001 0 "100112" }
	fps 30
	activity "ACT_VM_PRIMARYATTACK" 1
	snap
}
$sequence "shoot2" {
	"v_crossbowex_anims\shoot2"
	{ event 5001 0 "100112" }
	fps 30
	activity "ACT_VM_PRIMARYATTACK" 2
	snap
}
$sequence "reload" {
	"v_crossbowex_anims\reload"
	{ event 5004 21 "Crossbow.Foley1" }
	{ event 5004 44 "Crossbow.Foley2" }
	{ event 5004 73 "Crossbow.Foley3" }
	{ event 5004 85 "Crossbow.Foley4" }
	fps 30
	activity "ACT_VM_RELOAD" 1
	snap
}
$sequence "draw" {
	"v_crossbowex_anims\draw"
	{ event 5004 9 "Crossbowex.Draw" }
	fps 30
	activity "ACT_VM_DRAW" 1
	snap
}
