version 1
nodes
  0 "uzi_root_l" -1
  1 "triger01" 0
  2 "reloader01" 0
  3 "megazine01" 0
  4 "Hb01" 0
  5 "uzi_root_r" -1
  6 "triger" 5
  7 "reloader" 5
  8 "Hb" 5
  9 "megazine" 5
  10 "root" -1
  11 "Bone01" 10
  12 "Bone_L_Upper" 11
  13 "Bone_Lefthand" 11
  14 "Bone13" 13
  15 "Bone14" 14
  16 "Bone15" 15
  17 "Bone17" 13
  18 "Bone18" 17
  19 "Bone19" 18
  20 "Bone21" 13
  21 "Bone22" 20
  22 "Bone23" 21
  23 "Bone09" 13
  24 "Bone10" 23
  25 "Bone11" 24
  26 "Bone05" 13
  27 "Bone06" 26
  28 "Bone07" 27
  29 "Bone_Se_Hand-L" 13
  30 "Bone04" 10
  31 "Bone_Righthand" 30
  32 "Bone39" 31
  33 "Bone40" 32
  34 "Bone41" 33
  35 "Bone35" 31
  36 "Bone36" 35
  37 "Bone37" 36
  38 "Bone31" 31
  39 "Bone32" 38
  40 "Bone33" 39
  41 "Bone43" 31
  42 "Bone44" 41
  43 "Bone45" 42
  44 "Bone27" 31
  45 "Bone28" 44
  46 "Bone29" 45
  47 "Bone_Se_Hand-R" 31
  48 "Bone_R_Upper" 30
end
skeleton
  time 0
    0 -5.086093 -7.027772 -4.238411 -0.097784 -0.076355 -1.536802
    1 2.999629 0.000000 1.353194 0.639985 0.000000 1.570798
    2 3.639548 0.000000 3.113282 0.000000 0.000000 1.570798
    3 1.757773 0.000000 1.206649 0.000000 0.000000 1.570798
    4 -1.663432 -0.346000 1.941449 0.000000 0.000000 3.141589
    5 5.230628 -7.285165 -4.191534 0.104423 -0.062050 -1.542817
    6 2.999629 0.000000 1.353194 0.000000 0.000000 1.570798
    7 3.639548 0.000000 3.113282 0.000000 0.000000 1.570798
    8 -1.663432 0.346269 1.941449 0.000000 0.000000 3.141589
    9 1.757773 0.000000 1.206649 0.000000 0.000000 1.570798
    10 -0.002752 8.717751 -1.784592 0.000000 0.000000 0.000000
    11 7.626458 -6.666843 -6.171045 0.501170 -2.299110 -0.568388
    12 7.405805 3.973376 -0.317781 1.565662 -3.124353 0.577163
    13 -0.056296 -8.467485 -0.100228 0.068005 0.345269 -0.078171
    14 -0.488518 -2.755602 -0.228260 -0.434648 0.150360 -0.257287
    15 0.039887 -1.526666 0.010322 -1.357298 -0.013111 0.029747
    16 0.028786 -1.263237 -0.120768 -1.781379 -0.009516 0.040652
    17 0.250027 -2.820665 -0.238396 -0.156951 0.124643 -0.222602
    18 -0.049759 -1.598510 0.041883 -1.435809 0.002613 -0.039072
    19 -0.034142 -1.183469 0.041812 -1.449292 0.002673 -0.038027
    20 0.957766 -2.746780 -0.090302 0.163305 0.113141 0.005480
    21 -0.033420 -1.393223 -0.019070 -0.548424 0.008389 -0.026751
    22 -0.022360 -0.957436 -0.000748 -0.707945 0.007526 -0.034384
    23 -1.180681 -2.507217 -0.193859 -0.276772 0.235764 -0.220698
    24 -0.024967 -1.123934 0.017597 -0.793265 0.006687 -0.033843
    25 -0.020057 -0.906594 0.029622 -0.995434 0.005465 -0.040748
    26 0.583510 -1.193371 0.181473 0.313731 -0.595047 -0.692608
    27 1.516395 -0.153822 0.047979 0.016139 -0.157753 -0.527856
    28 1.007018 -0.182979 0.044010 0.086801 -0.241947 -1.032069
    29 0.038119 -0.319809 -0.031051 0.239607 3.240698 1.548022
    30 -6.751435 -6.692242 -5.126440 0.603585 -4.337667 0.701403
    31 -0.078843 -8.044156 -0.040616 0.111047 -0.074563 -0.056188
    32 0.447953 -2.798986 -0.200443 -0.117835 -0.183226 0.328409
    33 -0.032909 -1.499736 0.036191 -1.759219 0.021968 -0.036827
    34 -0.027022 -1.115984 -0.028023 -0.994625 0.022100 -0.015916
    35 -0.249534 -2.846964 -0.174213 0.009445 -0.070702 0.196948
    36 0.043235 -1.656596 0.056948 -1.763180 -0.024622 0.013759
    37 0.031729 -1.141298 0.054932 -1.121691 -0.012481 0.006191
    38 -0.963866 -2.785145 -0.085350 0.132687 0.028983 0.041030
    39 0.028479 -1.406973 -0.021074 -1.082975 -0.030249 -0.036205
    40 0.021413 -0.942156 0.012233 -1.001550 -0.026869 -0.034324
    41 1.164475 -2.543940 -0.170330 -0.286751 -0.269704 0.327293
    42 0.024032 -1.152480 -0.009538 -1.491828 0.033341 0.067846
    43 0.014898 -0.895708 -0.019848 -0.755705 0.001882 0.038243
    44 -0.586770 -1.264477 0.200161 -0.480709 -0.775215 -2.389088
    45 1.565805 0.035243 0.016848 -0.018844 -0.006943 0.893494
    46 1.110134 0.040611 -0.005766 -0.033752 -0.033060 1.195823
    47 -0.002676 -0.502335 -0.044199 0.290560 0.059641 1.643449
    48 -8.163208 1.670990 -0.469909 1.567286 -0.035897 -0.228424
  time 1
    0 -5.082186 -6.684011 -4.293100 -0.096642 -0.078414 -1.532880
    1 2.999629 0.000000 1.353194 0.639985 0.000000 1.570798
    2 2.385604 0.000000 3.113282 0.000000 0.000000 1.570798
    3 1.757773 0.000000 1.206649 0.000000 0.000000 1.570798
    4 -1.663432 -0.346000 1.941449 0.000000 0.000000 3.141589
    5 5.230628 -7.285165 -4.191534 0.104423 -0.062050 -1.542817
    6 2.999629 0.000000 1.353194 0.000000 0.000000 1.570798
    7 3.639548 0.000000 3.113282 0.000000 0.000000 1.570798
    8 -1.663432 0.346269 1.941449 0.000000 0.000000 3.141589
    9 1.757773 0.000000 1.206649 0.000000 0.000000 1.570798
    10 -0.002752 8.717751 -1.784592 0.000000 0.000000 0.000000
    11 7.626458 -6.666843 -6.171045 0.501170 -2.299110 -0.568388
    12 7.405805 3.973376 -0.317781 1.565662 -3.124353 0.577163
    13 -0.056296 -8.467485 -0.100228 0.068005 0.345269 -0.078171
    14 -0.488518 -2.755602 -0.228260 -0.434648 0.150360 -0.257287
    15 0.039887 -1.526666 0.010322 -1.357298 -0.013111 0.029747
    16 0.028786 -1.263237 -0.120768 -1.781379 -0.009516 0.040652
    17 0.250027 -2.820665 -0.238396 -0.156951 0.124643 -0.222602
    18 -0.049759 -1.598510 0.041883 -1.435809 0.002613 -0.039072
    19 -0.034142 -1.183469 0.041812 -1.449292 0.002673 -0.038027
    20 0.957766 -2.746780 -0.090302 0.163305 0.113141 0.005480
    21 -0.033420 -1.393223 -0.019070 -0.548424 0.008389 -0.026751
    22 -0.022360 -0.957436 -0.000748 -0.707945 0.007526 -0.034384
    23 -1.180681 -2.507217 -0.193859 -0.276772 0.235764 -0.220698
    24 -0.024967 -1.123934 0.017597 -0.793265 0.006687 -0.033843
    25 -0.020057 -0.906594 0.029622 -0.995434 0.005465 -0.040748
    26 0.583510 -1.193371 0.181473 0.313731 -0.595047 -0.692608
    27 1.516395 -0.153822 0.047979 0.016139 -0.157753 -0.527856
    28 1.007018 -0.182979 0.044010 0.086801 -0.241947 -1.032069
    29 0.038119 -0.319809 -0.031051 0.239607 3.240698 1.548022
    30 -6.778780 -6.360201 -5.196754 0.609241 -4.337389 0.710622
    31 -0.078843 -8.044156 -0.040616 0.111047 -0.074563 -0.056363
    32 0.447953 -2.798986 -0.200443 -0.117835 -0.183226 0.328409
    33 -0.032909 -1.499736 0.036191 -1.759219 0.021968 -0.036827
    34 -0.027022 -1.115984 -0.028023 -0.994625 0.022100 -0.015916
    35 -0.249534 -2.846964 -0.174213 0.009445 -0.070702 0.196948
    36 0.043235 -1.656596 0.056948 -1.763180 -0.024622 0.013759
    37 0.031729 -1.141298 0.054932 -1.121691 -0.012481 0.006191
    38 -0.963866 -2.785145 -0.085350 0.132687 0.028983 0.041030
    39 0.028479 -1.406973 -0.021074 -1.082975 -0.030249 -0.036205
    40 0.021413 -0.942156 0.012233 -1.001550 -0.026869 -0.034324
    41 1.164475 -2.543940 -0.170330 -0.286751 -0.269704 0.327293
    42 0.024032 -1.152480 -0.009538 -1.491828 0.033341 0.067846
    43 0.014898 -0.895708 -0.019848 -0.755705 0.001882 0.038243
    44 -0.586770 -1.264477 0.200161 -0.480709 -0.775215 -2.389088
    45 1.565805 0.035243 0.016848 -0.018844 -0.006943 0.893525
    46 1.110134 0.040611 -0.005766 -0.033752 -0.033060 1.195823
    47 -0.002676 -0.502335 -0.044199 0.290560 0.059641 1.643449
    48 -8.178833 1.159255 -0.473815 1.565752 -0.036662 -0.166050
  time 2
    0 -5.089999 -6.707450 -4.281381 -0.094359 -0.090578 -1.539958
    1 2.999629 0.000000 1.353194 0.639985 0.000000 1.570798
    2 2.975465 0.000000 3.113282 0.000000 0.000000 1.570798
    3 1.757773 0.000000 1.206649 0.000000 0.000000 1.570798
    4 -1.663432 -0.346000 1.941449 0.000000 0.000000 3.141589
    5 5.230628 -7.285165 -4.191534 0.104423 -0.062050 -1.542817
    6 2.999629 0.000000 1.353194 0.000000 0.000000 1.570798
    7 3.639548 0.000000 3.113282 0.000000 0.000000 1.570798
    8 -1.663432 0.346269 1.941449 0.000000 0.000000 3.141589
    9 1.757773 0.000000 1.206649 0.000000 0.000000 1.570798
    10 -0.002752 8.717751 -1.784592 0.000000 0.000000 0.000000
    11 7.626458 -6.666843 -6.171045 0.501170 -2.299110 -0.568388
    12 7.405805 3.973376 -0.317781 1.565662 -3.124353 0.577163
    13 -0.056296 -8.467485 -0.100228 0.068005 0.345269 -0.078171
    14 -0.488518 -2.755602 -0.228260 -0.434648 0.150360 -0.257287
    15 0.039887 -1.526666 0.010322 -1.357298 -0.013111 0.029747
    16 0.028786 -1.263237 -0.120768 -1.781379 -0.009516 0.040652
    17 0.250027 -2.820665 -0.238396 -0.156951 0.124643 -0.222602
    18 -0.049759 -1.598510 0.041883 -1.435809 0.002613 -0.039072
    19 -0.034142 -1.183469 0.041812 -1.449292 0.002673 -0.038027
    20 0.957766 -2.746780 -0.090302 0.163305 0.113141 0.005480
    21 -0.033420 -1.393223 -0.019070 -0.548424 0.008389 -0.026751
    22 -0.022360 -0.957436 -0.000748 -0.707945 0.007526 -0.034384
    23 -1.180681 -2.507217 -0.193859 -0.276772 0.235764 -0.220698
    24 -0.024967 -1.123934 0.017597 -0.793265 0.006687 -0.033843
    25 -0.020057 -0.906594 0.029622 -0.995434 0.005465 -0.040748
    26 0.583510 -1.193371 0.181473 0.313731 -0.595047 -0.692608
    27 1.516395 -0.153822 0.047979 0.016139 -0.157753 -0.527856
    28 1.007018 -0.182979 0.044010 0.086801 -0.241947 -1.032069
    29 0.038119 -0.319809 -0.031051 0.239607 3.240698 1.548022
    30 -6.778780 -6.383639 -5.192848 0.606365 -4.338129 0.707581
    31 -0.078843 -8.048062 -0.040616 0.121486 -0.073514 -0.068115
    32 0.447953 -2.798986 -0.200443 -0.117835 -0.183226 0.328409
    33 -0.032909 -1.499736 0.036191 -1.759219 0.021968 -0.036827
    34 -0.027022 -1.115984 -0.028023 -0.994625 0.022100 -0.015916
    35 -0.249534 -2.846964 -0.174213 0.009445 -0.070702 0.196948
    36 0.043235 -1.656596 0.056948 -1.763180 -0.024622 0.013759
    37 0.031729 -1.141298 0.054932 -1.121691 -0.012481 0.006191
    38 -0.963866 -2.785145 -0.085350 0.140351 0.028983 0.041369
    39 0.028479 -1.406973 -0.024980 -1.097788 -0.030884 -0.036421
    40 0.021413 -0.942156 0.012233 -1.001550 -0.026869 -0.034324
    41 1.164475 -2.543940 -0.170330 -0.286751 -0.269704 0.327293
    42 0.024032 -1.152480 -0.009538 -1.491828 0.033341 0.067846
    43 0.014898 -0.895708 -0.019848 -0.755705 0.001882 0.038243
    44 -0.586770 -1.264477 0.200161 -0.480709 -0.775215 -2.389088
    45 1.565805 0.035243 0.016848 -0.018844 -0.006943 0.893525
    46 1.110134 0.040611 -0.005766 -0.033752 -0.033060 1.195823
    47 -0.002676 -0.502335 -0.044199 0.290560 0.059641 1.643449
    48 -8.178833 1.206132 -0.473815 1.565848 -0.036566 -0.171764
  time 3
    0 -5.105625 -6.801202 -4.261849 -0.091791 -0.104240 -1.548949
    1 2.999629 0.000000 1.353194 0.639985 0.000000 1.570798
    2 4.065342 0.000000 3.113282 0.000000 0.000000 1.570798
    3 1.757773 0.000000 1.206649 0.000000 0.000000 1.570798
    4 -1.663432 -0.346000 1.941449 0.000000 0.000000 3.141589
    5 5.230628 -7.285165 -4.191534 0.104423 -0.062050 -1.542817
    6 2.999629 0.000000 1.353194 0.000000 0.000000 1.570798
    7 3.639548 0.000000 3.113282 0.000000 0.000000 1.570798
    8 -1.663432 0.346269 1.941449 0.000000 0.000000 3.141589
    9 1.757773 0.000000 1.206649 0.000000 0.000000 1.570798
    10 -0.002752 8.717751 -1.784592 0.000000 0.000000 0.000000
    11 7.626458 -6.666843 -6.171045 0.501170 -2.299110 -0.568388
    12 7.405805 3.973376 -0.317781 1.565662 -3.124353 0.577163
    13 -0.056296 -8.467485 -0.100228 0.068005 0.345269 -0.078171
    14 -0.488518 -2.755602 -0.228260 -0.434648 0.150360 -0.257287
    15 0.039887 -1.526666 0.010322 -1.357298 -0.013111 0.029747
    16 0.028786 -1.263237 -0.120768 -1.781379 -0.009516 0.040652
    17 0.250027 -2.820665 -0.238396 -0.156951 0.124643 -0.222602
    18 -0.049759 -1.598510 0.041883 -1.435809 0.002613 -0.039072
    19 -0.034142 -1.183469 0.041812 -1.449292 0.002673 -0.038027
    20 0.957766 -2.746780 -0.090302 0.163305 0.113141 0.005480
    21 -0.033420 -1.393223 -0.019070 -0.548424 0.008389 -0.026751
    22 -0.022360 -0.957436 -0.000748 -0.707945 0.007526 -0.034384
    23 -1.180681 -2.507217 -0.193859 -0.276772 0.235764 -0.220698
    24 -0.024967 -1.123934 0.017597 -0.793265 0.006687 -0.033843
    25 -0.020057 -0.906594 0.029622 -0.995434 0.005465 -0.040748
    26 0.583510 -1.193371 0.181473 0.313731 -0.595047 -0.692608
    27 1.516395 -0.153822 0.047979 0.016139 -0.157753 -0.527856
    28 1.007018 -0.182979 0.044010 0.086801 -0.241947 -1.032069
    29 0.038119 -0.319809 -0.031051 0.239607 3.240698 1.548022
    30 -6.770967 -6.473485 -5.177222 0.601860 -4.339145 0.702258
    31 -0.078843 -8.051969 -0.040616 0.133542 -0.072115 -0.081665
    32 0.447953 -2.798986 -0.200443 -0.117835 -0.183226 0.328409
    33 -0.032909 -1.499736 0.036191 -1.759219 0.021968 -0.036827
    34 -0.027022 -1.115984 -0.028023 -0.994625 0.022100 -0.015916
    35 -0.249534 -2.846964 -0.174213 0.009445 -0.070702 0.196948
    36 0.043235 -1.656596 0.056948 -1.763180 -0.024622 0.013759
    37 0.031729 -1.141298 0.054932 -1.121691 -0.012481 0.006191
    38 -0.963866 -2.785145 -0.085350 0.149235 0.028983 0.041771
    39 0.028479 -1.406973 -0.024980 -1.113351 -0.031555 -0.036625
    40 0.021413 -0.942156 0.012233 -1.001550 -0.026869 -0.034324
    41 1.164475 -2.543940 -0.170330 -0.286751 -0.269704 0.327293
    42 0.024032 -1.152480 -0.009538 -1.491828 0.033341 0.067846
    43 0.014898 -0.895708 -0.019848 -0.755705 0.001882 0.038243
    44 -0.586770 -1.264477 0.200161 -0.480709 -0.775215 -2.389088
    45 1.565805 0.035243 0.016848 -0.018844 -0.006943 0.893494
    46 1.110134 0.040611 -0.005766 -0.033752 -0.033060 1.195823
    47 -0.002676 -0.502335 -0.044199 0.290560 0.059641 1.643449
    48 -8.174927 1.358480 -0.473815 1.566327 -0.036375 -0.190047
  time 4
    0 -5.113437 -6.879330 -4.250130 -0.090459 -0.112100 -1.554114
    1 2.999629 0.000000 1.353194 0.639985 0.000000 1.570798
    2 4.655204 0.000000 3.113282 0.000000 0.000000 1.570798
    3 1.757773 0.000000 1.206649 0.000000 0.000000 1.570798
    4 -1.663432 -0.346000 1.941449 0.000000 0.000000 3.141589
    5 5.230628 -7.285165 -4.191534 0.104423 -0.062050 -1.542817
    6 2.999629 0.000000 1.353194 0.000000 0.000000 1.570798
    7 3.639548 0.000000 3.113282 0.000000 0.000000 1.570798
    8 -1.663432 0.346269 1.941449 0.000000 0.000000 3.141589
    9 1.757773 0.000000 1.206649 0.000000 0.000000 1.570798
    10 -0.002752 8.717751 -1.784592 0.000000 0.000000 0.000000
    11 7.626458 -6.666843 -6.171045 0.501170 -2.299110 -0.568388
    12 7.405805 3.973376 -0.317781 1.565662 -3.124353 0.577163
    13 -0.056296 -8.467485 -0.100228 0.068005 0.345269 -0.078171
    14 -0.488518 -2.755602 -0.228260 -0.434648 0.150360 -0.257287
    15 0.039887 -1.526666 0.010322 -1.357298 -0.013111 0.029747
    16 0.028786 -1.263237 -0.120768 -1.781379 -0.009516 0.040652
    17 0.250027 -2.820665 -0.238396 -0.156951 0.124643 -0.222602
    18 -0.049759 -1.598510 0.041883 -1.435809 0.002613 -0.039072
    19 -0.034142 -1.183469 0.041812 -1.449292 0.002673 -0.038027
    20 0.957766 -2.746780 -0.090302 0.163305 0.113141 0.005480
    21 -0.033420 -1.393223 -0.019070 -0.548424 0.008389 -0.026751
    22 -0.022360 -0.957436 -0.000748 -0.707945 0.007526 -0.034384
    23 -1.180681 -2.507217 -0.193859 -0.276772 0.235764 -0.220698
    24 -0.024967 -1.123934 0.017597 -0.793265 0.006687 -0.033843
    25 -0.020057 -0.906594 0.029622 -0.995434 0.005465 -0.040748
    26 0.583510 -1.193371 0.181473 0.313731 -0.595047 -0.692608
    27 1.516395 -0.153822 0.047979 0.016139 -0.157753 -0.527856
    28 1.007018 -0.182979 0.044010 0.086801 -0.241947 -1.032069
    29 0.038119 -0.319809 -0.031051 0.239607 3.240698 1.548022
    30 -6.763155 -6.551613 -5.161597 0.598122 -4.339977 0.697791
    31 -0.078843 -8.055875 -0.040616 0.140379 -0.071183 -0.089996
    32 0.447953 -2.798986 -0.200443 -0.117835 -0.183226 0.328409
    33 -0.032909 -1.499736 0.036191 -1.759219 0.021968 -0.036827
    34 -0.027022 -1.115984 -0.028023 -0.994625 0.022100 -0.015916
    35 -0.249534 -2.846964 -0.174213 0.009445 -0.070702 0.196948
    36 0.043235 -1.656596 0.056948 -1.763180 -0.024622 0.013759
    37 0.031729 -1.141298 0.054932 -1.121691 -0.012481 0.006191
    38 -0.963866 -2.785145 -0.085350 0.155044 0.028983 0.042035
    39 0.028479 -1.406973 -0.024980 -1.095886 -0.030800 -0.036385
    40 0.021413 -0.942156 0.012233 -1.001550 -0.026869 -0.034324
    41 1.164475 -2.543940 -0.170330 -0.286751 -0.269704 0.327293
    42 0.024032 -1.152480 -0.009538 -1.491828 0.033341 0.067846
    43 0.014898 -0.895708 -0.019848 -0.755705 0.001882 0.038243
    44 -0.586770 -1.264477 0.200161 -0.480709 -0.775215 -2.389088
    45 1.565805 0.035243 0.016848 -0.018844 -0.006943 0.893494
    46 1.110134 0.040611 -0.005766 -0.033752 -0.033060 1.195823
    47 -0.002676 -0.502335 -0.044199 0.290560 0.059641 1.643449
    48 -8.171021 1.483484 -0.473815 1.566711 -0.036184 -0.205284
  time 5
    0 -5.113437 -6.922300 -4.246223 -0.090650 -0.113129 -1.554401
    1 2.999629 0.000000 1.353194 0.573444 0.000000 1.570798
    2 4.147376 0.000000 3.113282 0.000000 0.000000 1.570798
    3 1.757773 0.000000 1.206649 0.000000 0.000000 1.570798
    4 -1.663432 -0.346000 1.941449 0.000000 0.000000 3.141589
    5 5.230628 -7.285165 -4.191534 0.104423 -0.062050 -1.542817
    6 2.999629 0.000000 1.353194 0.000000 0.000000 1.570798
    7 3.639548 0.000000 3.113282 0.000000 0.000000 1.570798
    8 -1.663432 0.346269 1.941449 0.000000 0.000000 3.141589
    9 1.757773 0.000000 1.206649 0.000000 0.000000 1.570798
    10 -0.002752 8.717751 -1.784592 0.000000 0.000000 0.000000
    11 7.626458 -6.666843 -6.171045 0.501170 -2.299110 -0.568388
    12 7.405805 3.973376 -0.317781 1.565662 -3.124353 0.577163
    13 -0.056296 -8.467485 -0.100228 0.068005 0.345269 -0.078171
    14 -0.488518 -2.755602 -0.228260 -0.434648 0.150360 -0.257287
    15 0.039887 -1.526666 0.010322 -1.357298 -0.013111 0.029747
    16 0.028786 -1.263237 -0.120768 -1.781379 -0.009516 0.040652
    17 0.250027 -2.820665 -0.238396 -0.156951 0.124643 -0.222602
    18 -0.049759 -1.598510 0.041883 -1.435809 0.002613 -0.039072
    19 -0.034142 -1.183469 0.041812 -1.449292 0.002673 -0.038027
    20 0.957766 -2.746780 -0.090302 0.163305 0.113141 0.005480
    21 -0.033420 -1.393223 -0.019070 -0.548424 0.008389 -0.026751
    22 -0.022360 -0.957436 -0.000748 -0.707945 0.007526 -0.034384
    23 -1.180681 -2.507217 -0.193859 -0.276772 0.235764 -0.220698
    24 -0.024967 -1.123934 0.017597 -0.793265 0.006687 -0.033843
    25 -0.020057 -0.906594 0.029622 -0.995434 0.005465 -0.040748
    26 0.583510 -1.193371 0.181473 0.313731 -0.595047 -0.692608
    27 1.516395 -0.153822 0.047979 0.016139 -0.157753 -0.527856
    28 1.007018 -0.182979 0.044010 0.086801 -0.241947 -1.032069
    29 0.038119 -0.319809 -0.031051 0.239607 3.240698 1.548022
    30 -6.759248 -6.590676 -5.153784 0.595821 -4.340439 0.695225
    31 -0.078843 -8.055875 -0.040616 0.140709 -0.070911 -0.091926
    32 0.447953 -2.798986 -0.200443 -0.117835 -0.183226 0.328409
    33 -0.032909 -1.499736 0.036191 -1.759219 0.021968 -0.036827
    34 -0.027022 -1.115984 -0.028023 -0.994625 0.022100 -0.015916
    35 -0.249534 -2.846964 -0.174213 0.009445 -0.070702 0.196948
    36 0.043235 -1.656596 0.056948 -1.763180 -0.024622 0.013759
    37 0.031729 -1.141298 0.054932 -1.121691 -0.012481 0.006191
    38 -0.963866 -2.785145 -0.085350 0.156826 0.028983 0.042123
    39 0.028479 -1.406973 -0.021074 -1.034098 -0.028176 -0.035450
    40 0.021413 -0.942156 0.012233 -1.001550 -0.026869 -0.034324
    41 1.164475 -2.543940 -0.170330 -0.286751 -0.269704 0.327293
    42 0.024032 -1.152480 -0.009538 -1.491828 0.033341 0.067846
    43 0.014898 -0.895708 -0.019848 -0.755705 0.001882 0.038243
    44 -0.586770 -1.264477 0.200161 -0.480709 -0.775215 -2.389088
    45 1.565805 0.035243 0.016848 -0.018844 -0.006943 0.893494
    46 1.110134 0.040611 -0.005766 -0.033752 -0.033060 1.195823
    47 -0.002676 -0.502335 -0.044199 0.290560 0.059641 1.643449
    48 -8.167114 1.549892 -0.469909 1.566903 -0.036088 -0.213378
  time 6
    0 -5.109531 -6.957457 -4.250130 -0.091506 -0.111445 -1.552775
    1 2.999629 0.000000 1.353194 0.414721 0.000000 1.570798
    2 3.639548 0.000000 3.113282 0.000000 0.000000 1.570798
    3 1.757773 0.000000 1.206649 0.000000 0.000000 1.570798
    4 -1.663432 -0.346000 1.941449 0.000000 0.000000 3.141589
    5 5.230628 -7.285165 -4.191534 0.104423 -0.062050 -1.542817
    6 2.999629 0.000000 1.353194 0.000000 0.000000 1.570798
    7 3.639548 0.000000 3.113282 0.000000 0.000000 1.570798
    8 -1.663432 0.346269 1.941449 0.000000 0.000000 3.141589
    9 1.757773 0.000000 1.206649 0.000000 0.000000 1.570798
    10 -0.002752 8.717751 -1.784592 0.000000 0.000000 0.000000
    11 7.626458 -6.666843 -6.171045 0.501170 -2.299110 -0.568388
    12 7.405805 3.973376 -0.317781 1.565662 -3.124353 0.577163
    13 -0.056296 -8.467485 -0.100228 0.068005 0.345269 -0.078171
    14 -0.488518 -2.755602 -0.228260 -0.434648 0.150360 -0.257287
    15 0.039887 -1.526666 0.010322 -1.357298 -0.013111 0.029747
    16 0.028786 -1.263237 -0.120768 -1.781379 -0.009516 0.040652
    17 0.250027 -2.820665 -0.238396 -0.156951 0.124643 -0.222602
    18 -0.049759 -1.598510 0.041883 -1.435809 0.002613 -0.039072
    19 -0.034142 -1.183469 0.041812 -1.449292 0.002673 -0.038027
    20 0.957766 -2.746780 -0.090302 0.163305 0.113141 0.005480
    21 -0.033420 -1.393223 -0.019070 -0.548424 0.008389 -0.026751
    22 -0.022360 -0.957436 -0.000748 -0.707945 0.007526 -0.034384
    23 -1.180681 -2.507217 -0.193859 -0.276772 0.235764 -0.220698
    24 -0.024967 -1.123934 0.017597 -0.793265 0.006687 -0.033843
    25 -0.020057 -0.906594 0.029622 -0.995434 0.005465 -0.040748
    26 0.583510 -1.193371 0.181473 0.313731 -0.595047 -0.692608
    27 1.516395 -0.153822 0.047979 0.016139 -0.157753 -0.527856
    28 1.007018 -0.182979 0.044010 0.086801 -0.241947 -1.032069
    29 0.038119 -0.319809 -0.031051 0.239607 3.240698 1.548022
    30 -6.755342 -6.621927 -5.149878 0.593904 -4.340901 0.692848
    31 -0.078843 -8.055875 -0.040616 0.138430 -0.070911 -0.091531
    32 0.447953 -2.798986 -0.200443 -0.117835 -0.183226 0.328409
    33 -0.032909 -1.499736 0.036191 -1.759219 0.021968 -0.036827
    34 -0.027022 -1.115984 -0.028023 -0.994625 0.022100 -0.015916
    35 -0.249534 -2.846964 -0.174213 0.009445 -0.070702 0.196948
    36 0.043235 -1.656596 0.056948 -1.763180 -0.024622 0.013759
    37 0.031729 -1.141298 0.054932 -1.121691 -0.012481 0.006191
    38 -0.963866 -2.785145 -0.085350 0.157046 0.028983 0.042123
    39 0.028479 -1.403067 -0.021074 -0.949658 -0.024676 -0.033892
    40 0.021413 -0.942156 0.012233 -1.001550 -0.026869 -0.034324
    41 1.164475 -2.543940 -0.170330 -0.286751 -0.269704 0.327293
    42 0.024032 -1.152480 -0.009538 -1.491828 0.033341 0.067846
    43 0.014898 -0.895708 -0.019848 -0.755705 0.001882 0.038243
    44 -0.586770 -1.264477 0.200161 -0.480709 -0.775215 -2.389088
    45 1.565805 0.035243 0.016848 -0.018844 -0.006943 0.893494
    46 1.110134 0.040611 -0.005766 -0.033752 -0.033060 1.195823
    47 -0.002676 -0.502335 -0.044199 0.290560 0.059641 1.643449
    48 -8.167114 1.608488 -0.469909 1.567094 -0.035992 -0.220425
  time 7
    0 -5.105625 -6.988708 -4.254036 -0.092647 -0.107889 -1.550097
    1 2.999629 0.000000 1.353194 0.225264 0.000000 1.570798
    2 3.639548 0.000000 3.113282 0.000000 0.000000 1.570798
    3 1.757773 0.000000 1.206649 0.000000 0.000000 1.570798
    4 -1.663432 -0.346000 1.941449 0.000000 0.000000 3.141589
    5 5.230628 -7.285165 -4.191534 0.104423 -0.062050 -1.542817
    6 2.999629 0.000000 1.353194 0.000000 0.000000 1.570798
    7 3.639548 0.000000 3.113282 0.000000 0.000000 1.570798
    8 -1.663432 0.346269 1.941449 0.000000 0.000000 3.141589
    9 1.757773 0.000000 1.206649 0.000000 0.000000 1.570798
    10 -0.002752 8.717751 -1.784592 0.000000 0.000000 0.000000
    11 7.626458 -6.666843 -6.171045 0.501170 -2.299110 -0.568388
    12 7.405805 3.973376 -0.317781 1.565662 -3.124353 0.577163
    13 -0.056296 -8.467485 -0.100228 0.068005 0.345269 -0.078171
    14 -0.488518 -2.755602 -0.228260 -0.434648 0.150360 -0.257287
    15 0.039887 -1.526666 0.010322 -1.357298 -0.013111 0.029747
    16 0.028786 -1.263237 -0.120768 -1.781379 -0.009516 0.040652
    17 0.250027 -2.820665 -0.238396 -0.156951 0.124643 -0.222602
    18 -0.049759 -1.598510 0.041883 -1.435809 0.002613 -0.039072
    19 -0.034142 -1.183469 0.041812 -1.449292 0.002673 -0.038027
    20 0.957766 -2.746780 -0.090302 0.163305 0.113141 0.005480
    21 -0.033420 -1.393223 -0.019070 -0.548424 0.008389 -0.026751
    22 -0.022360 -0.957436 -0.000748 -0.707945 0.007526 -0.034384
    23 -1.180681 -2.507217 -0.193859 -0.276772 0.235764 -0.220698
    24 -0.024967 -1.123934 0.017597 -0.793265 0.006687 -0.033843
    25 -0.020057 -0.906594 0.029622 -0.995434 0.005465 -0.040748
    26 0.583510 -1.193371 0.181473 0.313731 -0.595047 -0.692608
    27 1.516395 -0.153822 0.047979 0.016139 -0.157753 -0.527856
    28 1.007018 -0.182979 0.044010 0.086801 -0.241947 -1.032069
    29 0.038119 -0.319809 -0.031051 0.239607 3.240698 1.548022
    30 -6.751435 -6.653178 -5.142065 0.592179 -4.341271 0.690947
    31 -0.078843 -8.051969 -0.040616 0.134645 -0.071105 -0.089470
    32 0.447953 -2.798986 -0.200443 -0.117835 -0.183226 0.328409
    33 -0.032909 -1.499736 0.036191 -1.759219 0.021968 -0.036827
    34 -0.027022 -1.115984 -0.028023 -0.994625 0.022100 -0.015916
    35 -0.249534 -2.846964 -0.174213 0.009445 -0.070702 0.196948
    36 0.043235 -1.656596 0.056948 -1.763180 -0.024622 0.013759
    37 0.031729 -1.141298 0.054932 -1.121691 -0.012481 0.006191
    38 -0.963866 -2.785145 -0.085350 0.156387 0.028983 0.042098
    39 0.028479 -1.403067 -0.017167 -0.858762 -0.021081 -0.031903
    40 0.021413 -0.942156 0.012233 -1.001550 -0.026869 -0.034324
    41 1.164475 -2.543940 -0.170330 -0.286751 -0.269704 0.327293
    42 0.024032 -1.152480 -0.009538 -1.491828 0.033341 0.067846
    43 0.014898 -0.895708 -0.019848 -0.755705 0.001882 0.038243
    44 -0.586770 -1.264477 0.200161 -0.480709 -0.775215 -2.389088
    45 1.565805 0.035243 0.016848 -0.018844 -0.006943 0.893494
    46 1.110134 0.040611 -0.005766 -0.033752 -0.033060 1.195823
    47 -0.002676 -0.502335 -0.044199 0.290560 0.059641 1.643449
    48 -8.163208 1.655364 -0.469909 1.567190 -0.035992 -0.226424
  time 8
    0 -5.101718 -7.012146 -4.261849 -0.093884 -0.103491 -1.547228
    1 2.999629 0.000000 1.353194 0.066542 0.000000 1.570798
    2 3.639548 0.000000 3.113282 0.000000 0.000000 1.570798
    3 1.757773 0.000000 1.206649 0.000000 0.000000 1.570798
    4 -1.663432 -0.346000 1.941449 0.000000 0.000000 3.141589
    5 5.230628 -7.285165 -4.191534 0.104423 -0.062050 -1.542817
    6 2.999629 0.000000 1.353194 0.000000 0.000000 1.570798
    7 3.639548 0.000000 3.113282 0.000000 0.000000 1.570798
    8 -1.663432 0.346269 1.941449 0.000000 0.000000 3.141589
    9 1.757773 0.000000 1.206649 0.000000 0.000000 1.570798
    10 -0.002752 8.717751 -1.784592 0.000000 0.000000 0.000000
    11 7.626458 -6.666843 -6.171045 0.501170 -2.299110 -0.568388
    12 7.405805 3.973376 -0.317781 1.565662 -3.124353 0.577163
    13 -0.056296 -8.467485 -0.100228 0.068005 0.345269 -0.078171
    14 -0.488518 -2.755602 -0.228260 -0.434648 0.150360 -0.257287
    15 0.039887 -1.526666 0.010322 -1.357298 -0.013111 0.029747
    16 0.028786 -1.263237 -0.120768 -1.781379 -0.009516 0.040652
    17 0.250027 -2.820665 -0.238396 -0.156951 0.124643 -0.222602
    18 -0.049759 -1.598510 0.041883 -1.435809 0.002613 -0.039072
    19 -0.034142 -1.183469 0.041812 -1.449292 0.002673 -0.038027
    20 0.957766 -2.746780 -0.090302 0.163305 0.113141 0.005480
    21 -0.033420 -1.393223 -0.019070 -0.548424 0.008389 -0.026751
    22 -0.022360 -0.957436 -0.000748 -0.707945 0.007526 -0.034384
    23 -1.180681 -2.507217 -0.193859 -0.276772 0.235764 -0.220698
    24 -0.024967 -1.123934 0.017597 -0.793265 0.006687 -0.033843
    25 -0.020057 -0.906594 0.029622 -0.995434 0.005465 -0.040748
    26 0.583510 -1.193371 0.181473 0.313731 -0.595047 -0.692608
    27 1.516395 -0.153822 0.047979 0.016139 -0.157753 -0.527856
    28 1.007018 -0.182979 0.044010 0.086801 -0.241947 -1.032069
    29 0.038119 -0.319809 -0.031051 0.239607 3.240698 1.548022
    30 -6.751435 -6.676616 -5.138159 0.590837 -4.341548 0.689427
    31 -0.078843 -8.051969 -0.040616 0.130418 -0.071377 -0.086401
    32 0.447953 -2.798986 -0.200443 -0.117835 -0.183226 0.328409
    33 -0.032909 -1.499736 0.036191 -1.759219 0.021968 -0.036827
    34 -0.027022 -1.115984 -0.028023 -0.994625 0.022100 -0.015916
    35 -0.249534 -2.846964 -0.174213 0.009445 -0.070702 0.196948
    36 0.043235 -1.656596 0.056948 -1.763180 -0.024622 0.013759
    37 0.031729 -1.141298 0.054932 -1.121691 -0.012481 0.006191
    38 -0.963866 -2.785145 -0.085350 0.155484 0.028983 0.042061
    39 0.028479 -1.403067 -0.013261 -0.777434 -0.018025 -0.029854
    40 0.021413 -0.942156 0.012233 -1.001550 -0.026869 -0.034324
    41 1.164475 -2.543940 -0.170330 -0.286751 -0.269704 0.327293
    42 0.024032 -1.152480 -0.009538 -1.491828 0.033341 0.067846
    43 0.014898 -0.895708 -0.019848 -0.755705 0.001882 0.038243
    44 -0.586770 -1.264477 0.200161 -0.480709 -0.775215 -2.389088
    45 1.565805 0.035243 0.016848 -0.018844 -0.006943 0.893494
    46 1.110134 0.040611 -0.005766 -0.033752 -0.033060 1.195823
    47 -0.002676 -0.502335 -0.044199 0.290560 0.059641 1.643449
    48 -8.159302 1.694428 -0.469909 1.567286 -0.035897 -0.231090
  time 9
    0 -5.097812 -7.031678 -4.269662 -0.094835 -0.099094 -1.544932
    1 2.999629 0.000000 1.353194 0.000000 0.000000 1.570798
    2 3.639548 0.000000 3.113282 0.000000 0.000000 1.570798
    3 1.757773 0.000000 1.206649 0.000000 0.000000 1.570798
    4 -1.663432 -0.346000 1.941449 0.000000 0.000000 3.141589
    5 5.230628 -7.285165 -4.191534 0.104423 -0.062050 -1.542817
    6 2.999629 0.000000 1.353194 0.000000 0.000000 1.570798
    7 3.639548 0.000000 3.113282 0.000000 0.000000 1.570798
    8 -1.663432 0.346269 1.941449 0.000000 0.000000 3.141589
    9 1.757773 0.000000 1.206649 0.000000 0.000000 1.570798
    10 -0.002752 8.717751 -1.784592 0.000000 0.000000 0.000000
    11 7.626458 -6.666843 -6.171045 0.501170 -2.299110 -0.568388
    12 7.405805 3.973376 -0.317781 1.565662 -3.124353 0.577163
    13 -0.056296 -8.467485 -0.100228 0.068005 0.345269 -0.078171
    14 -0.488518 -2.755602 -0.228260 -0.434648 0.150360 -0.257287
    15 0.039887 -1.526666 0.010322 -1.357298 -0.013111 0.029747
    16 0.028786 -1.263237 -0.120768 -1.781379 -0.009516 0.040652
    17 0.250027 -2.820665 -0.238396 -0.156951 0.124643 -0.222602
    18 -0.049759 -1.598510 0.041883 -1.435809 0.002613 -0.039072
    19 -0.034142 -1.183469 0.041812 -1.449292 0.002673 -0.038027
    20 0.957766 -2.746780 -0.090302 0.163305 0.113141 0.005480
    21 -0.033420 -1.393223 -0.019070 -0.548424 0.008389 -0.026751
    22 -0.022360 -0.957436 -0.000748 -0.707945 0.007526 -0.034384
    23 -1.180681 -2.507217 -0.193859 -0.276772 0.235764 -0.220698
    24 -0.024967 -1.123934 0.017597 -0.793265 0.006687 -0.033843
    25 -0.020057 -0.906594 0.029622 -0.995434 0.005465 -0.040748
    26 0.583510 -1.193371 0.181473 0.313731 -0.595047 -0.692608
    27 1.516395 -0.153822 0.047979 0.016139 -0.157753 -0.527856
    28 1.007018 -0.182979 0.044010 0.086801 -0.241947 -1.032069
    29 0.038119 -0.319809 -0.031051 0.239607 3.240698 1.548022
    30 -6.747529 -6.692242 -5.134252 0.589974 -4.341826 0.688286
    31 -0.078843 -8.051969 -0.040616 0.126815 -0.071727 -0.082936
    32 0.447953 -2.798986 -0.200443 -0.117835 -0.183226 0.328409
    33 -0.032909 -1.499736 0.036191 -1.759219 0.021968 -0.036827
    34 -0.027022 -1.115984 -0.028023 -0.994625 0.022100 -0.015916
    35 -0.249534 -2.846964 -0.174213 0.009445 -0.070702 0.196948
    36 0.043235 -1.656596 0.056948 -1.763180 -0.024622 0.013759
    37 0.031729 -1.141298 0.054932 -1.121691 -0.012481 0.006191
    38 -0.963866 -2.785145 -0.085350 0.155044 0.028983 0.042035
    39 0.028479 -1.403067 -0.013261 -0.721813 -0.016035 -0.028308
    40 0.021413 -0.942156 0.012233 -1.001550 -0.026869 -0.034324
    41 1.164475 -2.543940 -0.170330 -0.286751 -0.269704 0.327293
    42 0.024032 -1.152480 -0.009538 -1.491828 0.033341 0.067846
    43 0.014898 -0.895708 -0.019848 -0.755705 0.001882 0.038243
    44 -0.586770 -1.264477 0.200161 -0.480709 -0.775215 -2.389088
    45 1.565805 0.035243 0.016848 -0.018844 -0.006943 0.893494
    46 1.110134 0.040611 -0.005766 -0.033752 -0.033060 1.195823
    47 -0.002676 -0.502335 -0.044199 0.290560 0.059641 1.643449
    48 -8.159302 1.721772 -0.469909 1.567382 -0.035897 -0.234423
  time 10
    0 -5.093905 -7.043397 -4.273568 -0.095501 -0.093760 -1.543115
    1 2.999629 0.000000 1.353194 0.000000 0.000000 1.570798
    2 3.639548 0.000000 3.113282 0.000000 0.000000 1.570798
    3 1.757773 0.000000 1.206649 0.000000 0.000000 1.570798
    4 -1.663432 -0.346000 1.941449 0.000000 0.000000 3.141589
    5 5.230628 -7.285165 -4.191534 0.104423 -0.062050 -1.542817
    6 2.999629 0.000000 1.353194 0.000000 0.000000 1.570798
    7 3.639548 0.000000 3.113282 0.000000 0.000000 1.570798
    8 -1.663432 0.346269 1.941449 0.000000 0.000000 3.141589
    9 1.757773 0.000000 1.206649 0.000000 0.000000 1.570798
    10 -0.002752 8.717751 -1.784592 0.000000 0.000000 0.000000
    11 7.626458 -6.666843 -6.171045 0.501170 -2.299110 -0.568388
    12 7.405805 3.973376 -0.317781 1.565662 -3.124353 0.577163
    13 -0.056296 -8.467485 -0.100228 0.068005 0.345269 -0.078171
    14 -0.488518 -2.755602 -0.228260 -0.434648 0.150360 -0.257287
    15 0.039887 -1.526666 0.010322 -1.357298 -0.013111 0.029747
    16 0.028786 -1.263237 -0.120768 -1.781379 -0.009516 0.040652
    17 0.250027 -2.820665 -0.238396 -0.156951 0.124643 -0.222602
    18 -0.049759 -1.598510 0.041883 -1.435809 0.002613 -0.039072
    19 -0.034142 -1.183469 0.041812 -1.449292 0.002673 -0.038027
    20 0.957766 -2.746780 -0.090302 0.163305 0.113141 0.005480
    21 -0.033420 -1.393223 -0.019070 -0.548424 0.008389 -0.026751
    22 -0.022360 -0.957436 -0.000748 -0.707945 0.007526 -0.034384
    23 -1.180681 -2.507217 -0.193859 -0.276772 0.235764 -0.220698
    24 -0.024967 -1.123934 0.017597 -0.793265 0.006687 -0.033843
    25 -0.020057 -0.906594 0.029622 -0.995434 0.005465 -0.040748
    26 0.583510 -1.193371 0.181473 0.313731 -0.595047 -0.692608
    27 1.516395 -0.153822 0.047979 0.016139 -0.157753 -0.527856
    28 1.007018 -0.182979 0.044010 0.086801 -0.241947 -1.032069
    29 0.038119 -0.319809 -0.031051 0.239607 3.240698 1.548022
    30 -6.747529 -6.700055 -5.134252 0.589495 -4.341918 0.687716
    31 -0.078843 -8.048062 -0.040616 0.123507 -0.072232 -0.078376
    32 0.447953 -2.798986 -0.200443 -0.117835 -0.183226 0.328409
    33 -0.032909 -1.499736 0.036191 -1.759219 0.021968 -0.036827
    34 -0.027022 -1.115984 -0.028023 -0.994625 0.022100 -0.015916
    35 -0.249534 -2.846964 -0.174213 0.009445 -0.070702 0.196948
    36 0.043235 -1.656596 0.056948 -1.763180 -0.024622 0.013759
    37 0.031729 -1.141298 0.054932 -1.121691 -0.012481 0.006191
    38 -0.963866 -2.785145 -0.085350 0.155044 0.028983 0.042035
    39 0.028479 -1.403067 -0.013261 -0.697836 -0.015208 -0.027612
    40 0.021413 -0.942156 0.012233 -1.001550 -0.026869 -0.034324
    41 1.164475 -2.543940 -0.170330 -0.286751 -0.269704 0.327293
    42 0.024032 -1.152480 -0.009538 -1.491828 0.033341 0.067846
    43 0.014898 -0.895708 -0.019848 -0.755705 0.001882 0.038243
    44 -0.586770 -1.264477 0.200161 -0.480709 -0.775215 -2.389088
    45 1.565805 0.035243 0.016848 -0.018844 -0.006943 0.893494
    46 1.110134 0.040611 -0.005766 -0.033752 -0.033060 1.195823
    47 -0.002676 -0.502335 -0.044199 0.290560 0.059641 1.643449
    48 -8.155395 1.733492 -0.469909 1.567382 -0.035801 -0.235947
  time 11
    0 -5.093905 -7.043397 -4.285287 -0.096166 -0.087023 -1.541297
    1 2.999629 0.000000 1.353194 0.000000 0.000000 1.570798
    2 3.639548 0.000000 3.113282 0.000000 0.000000 1.570798
    3 1.757773 0.000000 1.206649 0.000000 0.000000 1.570798
    4 -1.663432 -0.346000 1.941449 0.000000 0.000000 3.141589
    5 5.230628 -7.285165 -4.191534 0.104423 -0.062050 -1.542817
    6 2.999629 0.000000 1.353194 0.000000 0.000000 1.570798
    7 3.639548 0.000000 3.113282 0.000000 0.000000 1.570798
    8 -1.663432 0.346269 1.941449 0.000000 0.000000 3.141589
    9 1.757773 0.000000 1.206649 0.000000 0.000000 1.570798
    10 -0.002752 8.717751 -1.784592 0.000000 0.000000 0.000000
    11 7.626458 -6.666843 -6.171045 0.501170 -2.299110 -0.568388
    12 7.405805 3.973376 -0.317781 1.565662 -3.124353 0.577163
    13 -0.056296 -8.467485 -0.100228 0.068005 0.345269 -0.078171
    14 -0.488518 -2.755602 -0.228260 -0.434648 0.150360 -0.257287
    15 0.039887 -1.526666 0.010322 -1.357298 -0.013111 0.029747
    16 0.028786 -1.263237 -0.120768 -1.781379 -0.009516 0.040652
    17 0.250027 -2.820665 -0.238396 -0.156951 0.124643 -0.222602
    18 -0.049759 -1.598510 0.041883 -1.435809 0.002613 -0.039072
    19 -0.034142 -1.183469 0.041812 -1.449292 0.002673 -0.038027
    20 0.957766 -2.746780 -0.090302 0.163305 0.113141 0.005480
    21 -0.033420 -1.393223 -0.019070 -0.548424 0.008389 -0.026751
    22 -0.022360 -0.957436 -0.000748 -0.707945 0.007526 -0.034384
    23 -1.180681 -2.507217 -0.193859 -0.276772 0.235764 -0.220698
    24 -0.024967 -1.123934 0.017597 -0.793265 0.006687 -0.033843
    25 -0.020057 -0.906594 0.029622 -0.995434 0.005465 -0.040748
    26 0.583510 -1.193371 0.181473 0.313731 -0.595047 -0.692608
    27 1.516395 -0.153822 0.047979 0.016139 -0.157753 -0.527856
    28 1.007018 -0.182979 0.044010 0.086801 -0.241947 -1.032069
    29 0.038119 -0.319809 -0.031051 0.239607 3.240698 1.548022
    30 -6.747529 -6.696148 -5.134252 0.589303 -4.341918 0.687621
    31 -0.078843 -8.048062 -0.040616 0.119832 -0.072893 -0.072281
    32 0.447953 -2.798986 -0.200443 -0.117835 -0.183226 0.328409
    33 -0.032909 -1.499736 0.036191 -1.759219 0.021968 -0.036827
    34 -0.027022 -1.115984 -0.028023 -0.994625 0.022100 -0.015916
    35 -0.249534 -2.846964 -0.174213 0.009445 -0.070702 0.196948
    36 0.043235 -1.656596 0.056948 -1.763180 -0.024622 0.013759
    37 0.031729 -1.141298 0.054932 -1.121691 -0.012481 0.006191
    38 -0.963866 -2.785145 -0.085350 0.155044 0.028983 0.042035
    39 0.028479 -1.403067 -0.013261 -0.694838 -0.015101 -0.027529
    40 0.021413 -0.942156 0.012233 -1.001550 -0.026869 -0.034324
    41 1.164475 -2.543940 -0.170330 -0.286751 -0.269704 0.327293
    42 0.024032 -1.152480 -0.009538 -1.491828 0.033341 0.067846
    43 0.014898 -0.895708 -0.019848 -0.755705 0.001882 0.038243
    44 -0.586770 -1.264477 0.200161 -0.480709 -0.775215 -2.389088
    45 1.565805 0.035243 0.016848 -0.018844 -0.006943 0.893494
    46 1.110134 0.040611 -0.005766 -0.033752 -0.033060 1.195823
    47 -0.002676 -0.502335 -0.044199 0.290560 0.059641 1.643449
    48 -8.159302 1.733492 -0.469909 1.567382 -0.035801 -0.235661
  time 12
    0 -5.089999 -7.039491 -4.297006 -0.096737 -0.080005 -1.539576
    1 2.999629 0.000000 1.353194 0.000000 0.000000 1.570798
    2 3.639548 0.000000 3.113282 0.000000 0.000000 1.570798
    3 1.757773 0.000000 1.206649 0.000000 0.000000 1.570798
    4 -1.663432 -0.346000 1.941449 0.000000 0.000000 3.141589
    5 5.230628 -7.285165 -4.191534 0.104423 -0.062050 -1.542817
    6 2.999629 0.000000 1.353194 0.000000 0.000000 1.570798
    7 3.639548 0.000000 3.113282 0.000000 0.000000 1.570798
    8 -1.663432 0.346269 1.941449 0.000000 0.000000 3.141589
    9 1.757773 0.000000 1.206649 0.000000 0.000000 1.570798
    10 -0.002752 8.717751 -1.784592 0.000000 0.000000 0.000000
    11 7.626458 -6.666843 -6.171045 0.501170 -2.299110 -0.568388
    12 7.405805 3.973376 -0.317781 1.565662 -3.124353 0.577163
    13 -0.056296 -8.467485 -0.100228 0.068005 0.345269 -0.078171
    14 -0.488518 -2.755602 -0.228260 -0.434648 0.150360 -0.257287
    15 0.039887 -1.526666 0.010322 -1.357298 -0.013111 0.029747
    16 0.028786 -1.263237 -0.120768 -1.781379 -0.009516 0.040652
    17 0.250027 -2.820665 -0.238396 -0.156951 0.124643 -0.222602
    18 -0.049759 -1.598510 0.041883 -1.435809 0.002613 -0.039072
    19 -0.034142 -1.183469 0.041812 -1.449292 0.002673 -0.038027
    20 0.957766 -2.746780 -0.090302 0.163305 0.113141 0.005480
    21 -0.033420 -1.393223 -0.019070 -0.548424 0.008389 -0.026751
    22 -0.022360 -0.957436 -0.000748 -0.707945 0.007526 -0.034384
    23 -1.180681 -2.507217 -0.193859 -0.276772 0.235764 -0.220698
    24 -0.024967 -1.123934 0.017597 -0.793265 0.006687 -0.033843
    25 -0.020057 -0.906594 0.029622 -0.995434 0.005465 -0.040748
    26 0.583510 -1.193371 0.181473 0.313731 -0.595047 -0.692608
    27 1.516395 -0.153822 0.047979 0.016139 -0.157753 -0.527856
    28 1.007018 -0.182979 0.044010 0.086801 -0.241947 -1.032069
    29 0.038119 -0.319809 -0.031051 0.239607 3.240698 1.548022
    30 -6.747529 -6.688336 -5.134252 0.589495 -4.341918 0.687906
    31 -0.078843 -8.048062 -0.040616 0.116230 -0.073592 -0.065747
    32 0.447953 -2.798986 -0.200443 -0.117835 -0.183226 0.328409
    33 -0.032909 -1.499736 0.036191 -1.759219 0.021968 -0.036827
    34 -0.027022 -1.115984 -0.028023 -0.994625 0.022100 -0.015916
    35 -0.249534 -2.846964 -0.174213 0.009445 -0.070702 0.196948
    36 0.043235 -1.656596 0.056948 -1.763180 -0.024622 0.013759
    37 0.031729 -1.141298 0.054932 -1.121691 -0.012481 0.006191
    38 -0.963866 -2.785145 -0.085350 0.155044 0.028983 0.042035
    39 0.028479 -1.403067 -0.013261 -0.703830 -0.015412 -0.027792
    40 0.021413 -0.942156 0.012233 -1.001550 -0.026869 -0.034324
    41 1.164475 -2.543940 -0.170330 -0.286751 -0.269704 0.327293
    42 0.024032 -1.152480 -0.009538 -1.491828 0.033341 0.067846
    43 0.014898 -0.895708 -0.019848 -0.755705 0.001882 0.038243
    44 -0.586770 -1.264477 0.200161 -0.480709 -0.775215 -2.389088
    45 1.565805 0.035243 0.016848 -0.018844 -0.006943 0.893494
    46 1.110134 0.040611 -0.005766 -0.033752 -0.033060 1.195823
    47 -0.002676 -0.502335 -0.044199 0.290560 0.059641 1.643449
    48 -8.159302 1.721772 -0.469909 1.567382 -0.035897 -0.234423
  time 13
    0 -5.086093 -7.035585 -4.304819 -0.097213 -0.074110 -1.538045
    1 2.999629 0.000000 1.353194 0.000000 0.000000 1.570798
    2 3.639548 0.000000 3.113282 0.000000 0.000000 1.570798
    3 1.757773 0.000000 1.206649 0.000000 0.000000 1.570798
    4 -1.663432 -0.346000 1.941449 0.000000 0.000000 3.141589
    5 5.230628 -7.285165 -4.191534 0.104423 -0.062050 -1.542817
    6 2.999629 0.000000 1.353194 0.000000 0.000000 1.570798
    7 3.639548 0.000000 3.113282 0.000000 0.000000 1.570798
    8 -1.663432 0.346269 1.941449 0.000000 0.000000 3.141589
    9 1.757773 0.000000 1.206649 0.000000 0.000000 1.570798
    10 -0.002752 8.717751 -1.784592 0.000000 0.000000 0.000000
    11 7.626458 -6.666843 -6.171045 0.501170 -2.299110 -0.568388
    12 7.405805 3.973376 -0.317781 1.565662 -3.124353 0.577163
    13 -0.056296 -8.467485 -0.100228 0.068005 0.345269 -0.078171
    14 -0.488518 -2.755602 -0.228260 -0.434648 0.150360 -0.257287
    15 0.039887 -1.526666 0.010322 -1.357298 -0.013111 0.029747
    16 0.028786 -1.263237 -0.120768 -1.781379 -0.009516 0.040652
    17 0.250027 -2.820665 -0.238396 -0.156951 0.124643 -0.222602
    18 -0.049759 -1.598510 0.041883 -1.435809 0.002613 -0.039072
    19 -0.034142 -1.183469 0.041812 -1.449292 0.002673 -0.038027
    20 0.957766 -2.746780 -0.090302 0.163305 0.113141 0.005480
    21 -0.033420 -1.393223 -0.019070 -0.548424 0.008389 -0.026751
    22 -0.022360 -0.957436 -0.000748 -0.707945 0.007526 -0.034384
    23 -1.180681 -2.507217 -0.193859 -0.276772 0.235764 -0.220698
    24 -0.024967 -1.123934 0.017597 -0.793265 0.006687 -0.033843
    25 -0.020057 -0.906594 0.029622 -0.995434 0.005465 -0.040748
    26 0.583510 -1.193371 0.181473 0.313731 -0.595047 -0.692608
    27 1.516395 -0.153822 0.047979 0.016139 -0.157753 -0.527856
    28 1.007018 -0.182979 0.044010 0.086801 -0.241947 -1.032069
    29 0.038119 -0.319809 -0.031051 0.239607 3.240698 1.548022
    30 -6.747529 -6.684429 -5.138159 0.590166 -4.341733 0.688571
    31 -0.078843 -8.044156 -0.040616 0.113142 -0.074175 -0.059959
    32 0.447953 -2.798986 -0.200443 -0.117835 -0.183226 0.328409
    33 -0.032909 -1.499736 0.036191 -1.759219 0.021968 -0.036827
    34 -0.027022 -1.115984 -0.028023 -0.994625 0.022100 -0.015916
    35 -0.249534 -2.846964 -0.174213 0.009445 -0.070702 0.196948
    36 0.043235 -1.656596 0.056948 -1.763180 -0.024622 0.013759
    37 0.031729 -1.141298 0.054932 -1.121691 -0.012481 0.006191
    38 -0.963866 -2.785145 -0.085350 0.155044 0.028983 0.042035
    39 0.028479 -1.403067 -0.013261 -0.715819 -0.015832 -0.028140
    40 0.021413 -0.942156 0.012233 -1.001550 -0.026869 -0.034324
    41 1.164475 -2.543940 -0.170330 -0.286751 -0.269704 0.327293
    42 0.024032 -1.152480 -0.009538 -1.491828 0.033341 0.067846
    43 0.014898 -0.895708 -0.019848 -0.755705 0.001882 0.038243
    44 -0.586770 -1.264477 0.200161 -0.480709 -0.775215 -2.389088
    45 1.565805 0.035243 0.016848 -0.018844 -0.006943 0.893494
    46 1.110134 0.040611 -0.005766 -0.033752 -0.033060 1.195823
    47 -0.002676 -0.502335 -0.044199 0.290560 0.059641 1.643449
    48 -8.159302 1.710053 -0.469909 1.567382 -0.035897 -0.232804
  time 14
    0 -5.086093 -7.031678 -4.304819 -0.097498 -0.070460 -1.537089
    1 2.999629 0.000000 1.353194 0.000000 0.000000 1.570798
    2 3.639548 0.000000 3.113282 0.000000 0.000000 1.570798
    3 1.757773 0.000000 1.206649 0.000000 0.000000 1.570798
    4 -1.663432 -0.346000 1.941449 0.000000 0.000000 3.141589
    5 5.230628 -7.285165 -4.191534 0.104423 -0.062050 -1.542817
    6 2.999629 0.000000 1.353194 0.000000 0.000000 1.570798
    7 3.639548 0.000000 3.113282 0.000000 0.000000 1.570798
    8 -1.663432 0.346269 1.941449 0.000000 0.000000 3.141589
    9 1.757773 0.000000 1.206649 0.000000 0.000000 1.570798
    10 -0.002752 8.717751 -1.784592 0.000000 0.000000 0.000000
    11 7.626458 -6.666843 -6.171045 0.501170 -2.299110 -0.568388
    12 7.405805 3.973376 -0.317781 1.565662 -3.124353 0.577163
    13 -0.056296 -8.467485 -0.100228 0.068005 0.345269 -0.078171
    14 -0.488518 -2.755602 -0.228260 -0.434648 0.150360 -0.257287
    15 0.039887 -1.526666 0.010322 -1.357298 -0.013111 0.029747
    16 0.028786 -1.263237 -0.120768 -1.781379 -0.009516 0.040652
    17 0.250027 -2.820665 -0.238396 -0.156951 0.124643 -0.222602
    18 -0.049759 -1.598510 0.041883 -1.435809 0.002613 -0.039072
    19 -0.034142 -1.183469 0.041812 -1.449292 0.002673 -0.038027
    20 0.957766 -2.746780 -0.090302 0.163305 0.113141 0.005480
    21 -0.033420 -1.393223 -0.019070 -0.548424 0.008389 -0.026751
    22 -0.022360 -0.957436 -0.000748 -0.707945 0.007526 -0.034384
    23 -1.180681 -2.507217 -0.193859 -0.276772 0.235764 -0.220698
    24 -0.024967 -1.123934 0.017597 -0.793265 0.006687 -0.033843
    25 -0.020057 -0.906594 0.029622 -0.995434 0.005465 -0.040748
    26 0.583510 -1.193371 0.181473 0.313731 -0.595047 -0.692608
    27 1.516395 -0.153822 0.047979 0.016139 -0.157753 -0.527856
    28 1.007018 -0.182979 0.044010 0.086801 -0.241947 -1.032069
    29 0.038119 -0.319809 -0.031051 0.239607 3.240698 1.548022
    30 -6.751435 -6.680523 -5.138159 0.591220 -4.341456 0.689617
    31 -0.078843 -8.044156 -0.040616 0.111047 -0.074563 -0.056188
    32 0.447953 -2.798986 -0.200443 -0.117835 -0.183226 0.328409
    33 -0.032909 -1.499736 0.036191 -1.759219 0.021968 -0.036827
    34 -0.027022 -1.115984 -0.028023 -0.994625 0.022100 -0.015916
    35 -0.249534 -2.846964 -0.174213 0.009445 -0.070702 0.196948
    36 0.043235 -1.656596 0.056948 -1.763180 -0.024622 0.013759
    37 0.031729 -1.141298 0.054932 -1.121691 -0.012481 0.006191
    38 -0.963866 -2.785145 -0.085350 0.155044 0.028983 0.042035
    39 0.028479 -1.403067 -0.013261 -0.721813 -0.016035 -0.028308
    40 0.021413 -0.942156 0.012233 -1.001550 -0.026869 -0.034324
    41 1.164475 -2.543940 -0.170330 -0.286751 -0.269704 0.327293
    42 0.024032 -1.152480 -0.009538 -1.491828 0.033341 0.067846
    43 0.014898 -0.895708 -0.019848 -0.755705 0.001882 0.038243
    44 -0.586770 -1.264477 0.200161 -0.480709 -0.775215 -2.389088
    45 1.565805 0.035243 0.016848 -0.018844 -0.006943 0.893494
    46 1.110134 0.040611 -0.005766 -0.033752 -0.033060 1.195823
    47 -0.002676 -0.502335 -0.044199 0.290560 0.059641 1.643449
    48 -8.159302 1.698334 -0.469909 1.567286 -0.035897 -0.231757
  time 15
    0 -5.086093 -7.031678 -4.297006 -0.097688 -0.069525 -1.536515
    1 2.999629 0.000000 1.353194 0.000000 0.000000 1.570798
    2 3.639548 0.000000 3.113282 0.000000 0.000000 1.570798
    3 1.757773 0.000000 1.206649 0.000000 0.000000 1.570798
    4 -1.663432 -0.346000 1.941449 0.000000 0.000000 3.141589
    5 5.230628 -7.285165 -4.191534 0.104423 -0.062050 -1.542817
    6 2.999629 0.000000 1.353194 0.000000 0.000000 1.570798
    7 3.639548 0.000000 3.113282 0.000000 0.000000 1.570798
    8 -1.663432 0.346269 1.941449 0.000000 0.000000 3.141589
    9 1.757773 0.000000 1.206649 0.000000 0.000000 1.570798
    10 -0.002752 8.717751 -1.784592 0.000000 0.000000 0.000000
    11 7.626458 -6.666843 -6.171045 0.501170 -2.299110 -0.568388
    12 7.405805 3.973376 -0.317781 1.565662 -3.124353 0.577163
    13 -0.056296 -8.467485 -0.100228 0.068005 0.345269 -0.078171
    14 -0.488518 -2.755602 -0.228260 -0.434648 0.150360 -0.257287
    15 0.039887 -1.526666 0.010322 -1.357298 -0.013111 0.029747
    16 0.028786 -1.263237 -0.120768 -1.781379 -0.009516 0.040652
    17 0.250027 -2.820665 -0.238396 -0.156951 0.124643 -0.222602
    18 -0.049759 -1.598510 0.041883 -1.435809 0.002613 -0.039072
    19 -0.034142 -1.183469 0.041812 -1.449292 0.002673 -0.038027
    20 0.957766 -2.746780 -0.090302 0.163305 0.113141 0.005480
    21 -0.033420 -1.393223 -0.019070 -0.548424 0.008389 -0.026751
    22 -0.022360 -0.957436 -0.000748 -0.707945 0.007526 -0.034384
    23 -1.180681 -2.507217 -0.193859 -0.276772 0.235764 -0.220698
    24 -0.024967 -1.123934 0.017597 -0.793265 0.006687 -0.033843
    25 -0.020057 -0.906594 0.029622 -0.995434 0.005465 -0.040748
    26 0.583510 -1.193371 0.181473 0.313731 -0.595047 -0.692608
    27 1.516395 -0.153822 0.047979 0.016139 -0.157753 -0.527856
    28 1.007018 -0.182979 0.044010 0.086801 -0.241947 -1.032069
    29 0.038119 -0.319809 -0.031051 0.239607 3.240698 1.548022
    30 -6.751435 -6.680523 -5.134252 0.593042 -4.340901 0.691423
    31 -0.078843 -8.044156 -0.040616 0.110054 -0.074758 -0.054477
    32 0.447953 -2.798986 -0.200443 -0.117835 -0.183226 0.328409
    33 -0.032909 -1.499736 0.036191 -1.759219 0.021968 -0.036827
    34 -0.027022 -1.115984 -0.028023 -0.994625 0.022100 -0.015916
    35 -0.249534 -2.846964 -0.174213 0.009445 -0.070702 0.196948
    36 0.043235 -1.656596 0.056948 -1.763180 -0.024622 0.013759
    37 0.031729 -1.141298 0.054932 -1.121691 -0.012481 0.006191
    38 -0.963866 -2.785145 -0.085350 0.155044 0.028983 0.042035
    39 0.028479 -1.403067 -0.013261 -0.721813 -0.016035 -0.028308
    40 0.021413 -0.942156 0.012233 -1.001550 -0.026869 -0.034324
    41 1.164475 -2.543940 -0.170330 -0.286751 -0.269704 0.327293
    42 0.024032 -1.152480 -0.009538 -1.491828 0.033341 0.067846
    43 0.014898 -0.895708 -0.019848 -0.755705 0.001882 0.038243
    44 -0.586770 -1.264477 0.200161 -0.480709 -0.775215 -2.389088
    45 1.565805 0.035243 0.016848 -0.018844 -0.006943 0.893494
    46 1.110134 0.040611 -0.005766 -0.033752 -0.033060 1.195823
    47 -0.002676 -0.502335 -0.044199 0.290560 0.059641 1.643449
    48 -8.159302 1.694428 -0.469909 1.567286 -0.035897 -0.231186
  time 16
    0 -5.086093 -7.031678 -4.285287 -0.097784 -0.070180 -1.536419
    1 2.999629 0.000000 1.353194 0.000000 0.000000 1.570798
    2 3.639548 0.000000 3.113282 0.000000 0.000000 1.570798
    3 1.757773 0.000000 1.206649 0.000000 0.000000 1.570798
    4 -1.663432 -0.346000 1.941449 0.000000 0.000000 3.141589
    5 5.230628 -7.285165 -4.191534 0.104423 -0.062050 -1.542817
    6 2.999629 0.000000 1.353194 0.000000 0.000000 1.570798
    7 3.639548 0.000000 3.113282 0.000000 0.000000 1.570798
    8 -1.663432 0.346269 1.941449 0.000000 0.000000 3.141589
    9 1.757773 0.000000 1.206649 0.000000 0.000000 1.570798
    10 -0.002752 8.717751 -1.784592 0.000000 0.000000 0.000000
    11 7.626458 -6.666843 -6.171045 0.501170 -2.299110 -0.568388
    12 7.405805 3.973376 -0.317781 1.565662 -3.124353 0.577163
    13 -0.056296 -8.467485 -0.100228 0.068005 0.345269 -0.078171
    14 -0.488518 -2.755602 -0.228260 -0.434648 0.150360 -0.257287
    15 0.039887 -1.526666 0.010322 -1.357298 -0.013111 0.029747
    16 0.028786 -1.263237 -0.120768 -1.781379 -0.009516 0.040652
    17 0.250027 -2.820665 -0.238396 -0.156951 0.124643 -0.222602
    18 -0.049759 -1.598510 0.041883 -1.435809 0.002613 -0.039072
    19 -0.034142 -1.183469 0.041812 -1.449292 0.002673 -0.038027
    20 0.957766 -2.746780 -0.090302 0.163305 0.113141 0.005480
    21 -0.033420 -1.393223 -0.019070 -0.548424 0.008389 -0.026751
    22 -0.022360 -0.957436 -0.000748 -0.707945 0.007526 -0.034384
    23 -1.180681 -2.507217 -0.193859 -0.276772 0.235764 -0.220698
    24 -0.024967 -1.123934 0.017597 -0.793265 0.006687 -0.033843
    25 -0.020057 -0.906594 0.029622 -0.995434 0.005465 -0.040748
    26 0.583510 -1.193371 0.181473 0.313731 -0.595047 -0.692608
    27 1.516395 -0.153822 0.047979 0.016139 -0.157753 -0.527856
    28 1.007018 -0.182979 0.044010 0.086801 -0.241947 -1.032069
    29 0.038119 -0.319809 -0.031051 0.239607 3.240698 1.548022
    30 -6.751435 -6.684429 -5.134252 0.595630 -4.340070 0.693894
    31 -0.078843 -8.044156 -0.040616 0.109797 -0.074796 -0.053951
    32 0.447953 -2.798986 -0.200443 -0.117835 -0.183226 0.328409
    33 -0.032909 -1.499736 0.036191 -1.759219 0.021968 -0.036827
    34 -0.027022 -1.115984 -0.028023 -0.994625 0.022100 -0.015916
    35 -0.249534 -2.846964 -0.174213 0.009445 -0.070702 0.196948
    36 0.043235 -1.656596 0.056948 -1.763180 -0.024622 0.013759
    37 0.031729 -1.141298 0.054932 -1.121691 -0.012481 0.006191
    38 -0.963866 -2.785145 -0.085350 0.155044 0.028983 0.042035
    39 0.028479 -1.403067 -0.013261 -0.721813 -0.016035 -0.028308
    40 0.021413 -0.942156 0.012233 -1.001550 -0.026869 -0.034324
    41 1.164475 -2.543940 -0.170330 -0.286751 -0.269704 0.327293
    42 0.024032 -1.152480 -0.009538 -1.491828 0.033341 0.067846
    43 0.014898 -0.895708 -0.019848 -0.755705 0.001882 0.038243
    44 -0.586770 -1.264477 0.200161 -0.480709 -0.775215 -2.389088
    45 1.565805 0.035243 0.016848 -0.018844 -0.006943 0.893525
    46 1.110134 0.040611 -0.005766 -0.033752 -0.033060 1.195823
    47 -0.002676 -0.502335 -0.044199 0.290560 0.059641 1.643449
    48 -8.159302 1.690521 -0.469909 1.567286 -0.035897 -0.230424
  time 17
    0 -5.086093 -7.031678 -4.269662 -0.097784 -0.071957 -1.536419
    1 2.999629 0.000000 1.353194 0.000000 0.000000 1.570798
    2 3.639548 0.000000 3.113282 0.000000 0.000000 1.570798
    3 1.757773 0.000000 1.206649 0.000000 0.000000 1.570798
    4 -1.663432 -0.346000 1.941449 0.000000 0.000000 3.141589
    5 5.230628 -7.285165 -4.191534 0.104423 -0.062050 -1.542817
    6 2.999629 0.000000 1.353194 0.000000 0.000000 1.570798
    7 3.639548 0.000000 3.113282 0.000000 0.000000 1.570798
    8 -1.663432 0.346269 1.941449 0.000000 0.000000 3.141589
    9 1.757773 0.000000 1.206649 0.000000 0.000000 1.570798
    10 -0.002752 8.717751 -1.784592 0.000000 0.000000 0.000000
    11 7.626458 -6.666843 -6.171045 0.501170 -2.299110 -0.568388
    12 7.405805 3.973376 -0.317781 1.565662 -3.124353 0.577163
    13 -0.056296 -8.467485 -0.100228 0.068005 0.345269 -0.078171
    14 -0.488518 -2.755602 -0.228260 -0.434648 0.150360 -0.257287
    15 0.039887 -1.526666 0.010322 -1.357298 -0.013111 0.029747
    16 0.028786 -1.263237 -0.120768 -1.781379 -0.009516 0.040652
    17 0.250027 -2.820665 -0.238396 -0.156951 0.124643 -0.222602
    18 -0.049759 -1.598510 0.041883 -1.435809 0.002613 -0.039072
    19 -0.034142 -1.183469 0.041812 -1.449292 0.002673 -0.038027
    20 0.957766 -2.746780 -0.090302 0.163305 0.113141 0.005480
    21 -0.033420 -1.393223 -0.019070 -0.548424 0.008389 -0.026751
    22 -0.022360 -0.957436 -0.000748 -0.707945 0.007526 -0.034384
    23 -1.180681 -2.507217 -0.193859 -0.276772 0.235764 -0.220698
    24 -0.024967 -1.123934 0.017597 -0.793265 0.006687 -0.033843
    25 -0.020057 -0.906594 0.029622 -0.995434 0.005465 -0.040748
    26 0.583510 -1.193371 0.181473 0.313731 -0.595047 -0.692608
    27 1.516395 -0.153822 0.047979 0.016139 -0.157753 -0.527856
    28 1.007018 -0.182979 0.044010 0.086801 -0.241947 -1.032069
    29 0.038119 -0.319809 -0.031051 0.239607 3.240698 1.548022
    30 -6.751435 -6.684429 -5.130346 0.598505 -4.339238 0.696650
    31 -0.078843 -8.044156 -0.040616 0.110018 -0.074758 -0.054258
    32 0.447953 -2.798986 -0.200443 -0.117835 -0.183226 0.328409
    33 -0.032909 -1.499736 0.036191 -1.759219 0.021968 -0.036827
    34 -0.027022 -1.115984 -0.028023 -0.994625 0.022100 -0.015916
    35 -0.249534 -2.846964 -0.174213 0.009445 -0.070702 0.196948
    36 0.043235 -1.656596 0.056948 -1.763180 -0.024622 0.013759
    37 0.031729 -1.141298 0.054932 -1.121691 -0.012481 0.006191
    38 -0.963866 -2.785145 -0.085350 0.155044 0.028983 0.042035
    39 0.028479 -1.403067 -0.013261 -0.721813 -0.016035 -0.028308
    40 0.021413 -0.942156 0.012233 -1.001550 -0.026869 -0.034324
    41 1.164475 -2.543940 -0.170330 -0.286751 -0.269704 0.327293
    42 0.024032 -1.152480 -0.009538 -1.491828 0.033341 0.067846
    43 0.014898 -0.895708 -0.019848 -0.755705 0.001882 0.038243
    44 -0.586770 -1.264477 0.200161 -0.480709 -0.775215 -2.389088
    45 1.565805 0.035243 0.016848 -0.018844 -0.006943 0.893494
    46 1.110134 0.040611 -0.005766 -0.033752 -0.033060 1.195823
    47 -0.002676 -0.502335 -0.044199 0.290560 0.059641 1.643449
    48 -8.159302 1.682709 -0.469909 1.567286 -0.035897 -0.229662
  time 18
    0 -5.086093 -7.027772 -4.254036 -0.097784 -0.074016 -1.536611
    1 2.999629 0.000000 1.353194 0.000000 0.000000 1.570798
    2 3.639548 0.000000 3.113282 0.000000 0.000000 1.570798
    3 1.757773 0.000000 1.206649 0.000000 0.000000 1.570798
    4 -1.663432 -0.346000 1.941449 0.000000 0.000000 3.141589
    5 5.230628 -7.285165 -4.191534 0.104423 -0.062050 -1.542817
    6 2.999629 0.000000 1.353194 0.000000 0.000000 1.570798
    7 3.639548 0.000000 3.113282 0.000000 0.000000 1.570798
    8 -1.663432 0.346269 1.941449 0.000000 0.000000 3.141589
    9 1.757773 0.000000 1.206649 0.000000 0.000000 1.570798
    10 -0.002752 8.717751 -1.784592 0.000000 0.000000 0.000000
    11 7.626458 -6.666843 -6.171045 0.501170 -2.299110 -0.568388
    12 7.405805 3.973376 -0.317781 1.565662 -3.124353 0.577163
    13 -0.056296 -8.467485 -0.100228 0.068005 0.345269 -0.078171
    14 -0.488518 -2.755602 -0.228260 -0.434648 0.150360 -0.257287
    15 0.039887 -1.526666 0.010322 -1.357298 -0.013111 0.029747
    16 0.028786 -1.263237 -0.120768 -1.781379 -0.009516 0.040652
    17 0.250027 -2.820665 -0.238396 -0.156951 0.124643 -0.222602
    18 -0.049759 -1.598510 0.041883 -1.435809 0.002613 -0.039072
    19 -0.034142 -1.183469 0.041812 -1.449292 0.002673 -0.038027
    20 0.957766 -2.746780 -0.090302 0.163305 0.113141 0.005480
    21 -0.033420 -1.393223 -0.019070 -0.548424 0.008389 -0.026751
    22 -0.022360 -0.957436 -0.000748 -0.707945 0.007526 -0.034384
    23 -1.180681 -2.507217 -0.193859 -0.276772 0.235764 -0.220698
    24 -0.024967 -1.123934 0.017597 -0.793265 0.006687 -0.033843
    25 -0.020057 -0.906594 0.029622 -0.995434 0.005465 -0.040748
    26 0.583510 -1.193371 0.181473 0.313731 -0.595047 -0.692608
    27 1.516395 -0.153822 0.047979 0.016139 -0.157753 -0.527856
    28 1.007018 -0.182979 0.044010 0.086801 -0.241947 -1.032069
    29 0.038119 -0.319809 -0.031051 0.239607 3.240698 1.548022
    30 -6.751435 -6.688336 -5.126440 0.601093 -4.338406 0.699122
    31 -0.078843 -8.044156 -0.040616 0.110459 -0.074680 -0.055004
    32 0.447953 -2.798986 -0.200443 -0.117835 -0.183226 0.328409
    33 -0.032909 -1.499736 0.036191 -1.759219 0.021968 -0.036827
    34 -0.027022 -1.115984 -0.028023 -0.994625 0.022100 -0.015916
    35 -0.249534 -2.846964 -0.174213 0.009445 -0.070702 0.196948
    36 0.043235 -1.656596 0.056948 -1.763180 -0.024622 0.013759
    37 0.031729 -1.141298 0.054932 -1.121691 -0.012481 0.006191
    38 -0.963866 -2.785145 -0.085350 0.155044 0.028983 0.042035
    39 0.028479 -1.403067 -0.013261 -0.721813 -0.016035 -0.028308
    40 0.021413 -0.942156 0.012233 -1.001550 -0.026869 -0.034324
    41 1.164475 -2.543940 -0.170330 -0.286751 -0.269704 0.327293
    42 0.024032 -1.152480 -0.009538 -1.491828 0.033341 0.067846
    43 0.014898 -0.895708 -0.019848 -0.755705 0.001882 0.038243
    44 -0.586770 -1.264477 0.200161 -0.480709 -0.775215 -2.389088
    45 1.565805 0.035243 0.016848 -0.018844 -0.006943 0.893525
    46 1.110134 0.040611 -0.005766 -0.033752 -0.033060 1.195823
    47 -0.002676 -0.502335 -0.044199 0.290560 0.059641 1.643449
    48 -8.159302 1.678802 -0.469909 1.567286 -0.035897 -0.228995
  time 19
    0 -5.086093 -7.027772 -4.242317 -0.097784 -0.075700 -1.536706
    1 2.999629 0.000000 1.353194 0.000000 0.000000 1.570798
    2 3.639548 0.000000 3.113282 0.000000 0.000000 1.570798
    3 1.757773 0.000000 1.206649 0.000000 0.000000 1.570798
    4 -1.663432 -0.346000 1.941449 0.000000 0.000000 3.141589
    5 5.230628 -7.285165 -4.191534 0.104423 -0.062050 -1.542817
    6 2.999629 0.000000 1.353194 0.000000 0.000000 1.570798
    7 3.639548 0.000000 3.113282 0.000000 0.000000 1.570798
    8 -1.663432 0.346269 1.941449 0.000000 0.000000 3.141589
    9 1.757773 0.000000 1.206649 0.000000 0.000000 1.570798
    10 -0.002752 8.717751 -1.784592 0.000000 0.000000 0.000000
    11 7.626458 -6.666843 -6.171045 0.501170 -2.299110 -0.568388
    12 7.405805 3.973376 -0.317781 1.565662 -3.124353 0.577163
    13 -0.056296 -8.467485 -0.100228 0.068005 0.345269 -0.078171
    14 -0.488518 -2.755602 -0.228260 -0.434648 0.150360 -0.257287
    15 0.039887 -1.526666 0.010322 -1.357298 -0.013111 0.029747
    16 0.028786 -1.263237 -0.120768 -1.781379 -0.009516 0.040652
    17 0.250027 -2.820665 -0.238396 -0.156951 0.124643 -0.222602
    18 -0.049759 -1.598510 0.041883 -1.435809 0.002613 -0.039072
    19 -0.034142 -1.183469 0.041812 -1.449292 0.002673 -0.038027
    20 0.957766 -2.746780 -0.090302 0.163305 0.113141 0.005480
    21 -0.033420 -1.393223 -0.019070 -0.548424 0.008389 -0.026751
    22 -0.022360 -0.957436 -0.000748 -0.707945 0.007526 -0.034384
    23 -1.180681 -2.507217 -0.193859 -0.276772 0.235764 -0.220698
    24 -0.024967 -1.123934 0.017597 -0.793265 0.006687 -0.033843
    25 -0.020057 -0.906594 0.029622 -0.995434 0.005465 -0.040748
    26 0.583510 -1.193371 0.181473 0.313731 -0.595047 -0.692608
    27 1.516395 -0.153822 0.047979 0.016139 -0.157753 -0.527856
    28 1.007018 -0.182979 0.044010 0.086801 -0.241947 -1.032069
    29 0.038119 -0.319809 -0.031051 0.239607 3.240698 1.548022
    30 -6.751435 -6.692242 -5.126440 0.603010 -4.337852 0.700832
    31 -0.078843 -8.044156 -0.040616 0.110863 -0.074602 -0.055749
    32 0.447953 -2.798986 -0.200443 -0.117835 -0.183226 0.328409
    33 -0.032909 -1.499736 0.036191 -1.759219 0.021968 -0.036827
    34 -0.027022 -1.115984 -0.028023 -0.994625 0.022100 -0.015916
    35 -0.249534 -2.846964 -0.174213 0.009445 -0.070702 0.196948
    36 0.043235 -1.656596 0.056948 -1.763180 -0.024622 0.013759
    37 0.031729 -1.141298 0.054932 -1.121691 -0.012481 0.006191
    38 -0.963866 -2.785145 -0.085350 0.155044 0.028983 0.042035
    39 0.028479 -1.403067 -0.013261 -0.721813 -0.016035 -0.028308
    40 0.021413 -0.942156 0.012233 -1.001550 -0.026869 -0.034324
    41 1.164475 -2.543940 -0.170330 -0.286751 -0.269704 0.327293
    42 0.024032 -1.152480 -0.009538 -1.491828 0.033341 0.067846
    43 0.014898 -0.895708 -0.019848 -0.755705 0.001882 0.038243
    44 -0.586770 -1.264477 0.200161 -0.480709 -0.775215 -2.389088
    45 1.565805 0.035243 0.016848 -0.018844 -0.006943 0.893494
    46 1.110134 0.040611 -0.005766 -0.033752 -0.033060 1.195823
    47 -0.002676 -0.502335 -0.044199 0.290560 0.059641 1.643449
    48 -8.163208 1.674896 -0.469909 1.567286 -0.035897 -0.228519
  time 20
    0 -5.086093 -7.027772 -4.238411 -0.097784 -0.076355 -1.536802
    1 2.999629 0.000000 1.353194 0.000000 0.000000 1.570798
    2 3.639548 0.000000 3.113282 0.000000 0.000000 1.570798
    3 1.757773 0.000000 1.206649 0.000000 0.000000 1.570798
    4 -1.663432 -0.346000 1.941449 0.000000 0.000000 3.141589
    5 5.230628 -7.285165 -4.191534 0.104423 -0.062050 -1.542817
    6 2.999629 0.000000 1.353194 0.000000 0.000000 1.570798
    7 3.639548 0.000000 3.113282 0.000000 0.000000 1.570798
    8 -1.663432 0.346269 1.941449 0.000000 0.000000 3.141589
    9 1.757773 0.000000 1.206649 0.000000 0.000000 1.570798
    10 -0.002752 8.717751 -1.784592 0.000000 0.000000 0.000000
    11 7.626458 -6.666843 -6.171045 0.501170 -2.299110 -0.568388
    12 7.405805 3.973376 -0.317781 1.565662 -3.124353 0.577163
    13 -0.056296 -8.467485 -0.100228 0.068005 0.345269 -0.078171
    14 -0.488518 -2.755602 -0.228260 -0.434648 0.150360 -0.257287
    15 0.039887 -1.526666 0.010322 -1.357298 -0.013111 0.029747
    16 0.028786 -1.263237 -0.120768 -1.781379 -0.009516 0.040652
    17 0.250027 -2.820665 -0.238396 -0.156951 0.124643 -0.222602
    18 -0.049759 -1.598510 0.041883 -1.435809 0.002613 -0.039072
    19 -0.034142 -1.183469 0.041812 -1.449292 0.002673 -0.038027
    20 0.957766 -2.746780 -0.090302 0.163305 0.113141 0.005480
    21 -0.033420 -1.393223 -0.019070 -0.548424 0.008389 -0.026751
    22 -0.022360 -0.957436 -0.000748 -0.707945 0.007526 -0.034384
    23 -1.180681 -2.507217 -0.193859 -0.276772 0.235764 -0.220698
    24 -0.024967 -1.123934 0.017597 -0.793265 0.006687 -0.033843
    25 -0.020057 -0.906594 0.029622 -0.995434 0.005465 -0.040748
    26 0.583510 -1.193371 0.181473 0.313731 -0.595047 -0.692608
    27 1.516395 -0.153822 0.047979 0.016139 -0.157753 -0.527856
    28 1.007018 -0.182979 0.044010 0.086801 -0.241947 -1.032069
    29 0.038119 -0.319809 -0.031051 0.239607 3.240698 1.548022
    30 -6.751435 -6.692242 -5.126440 0.603585 -4.337667 0.701403
    31 -0.078843 -8.044156 -0.040616 0.111047 -0.074563 -0.056188
    32 0.447953 -2.798986 -0.200443 -0.117835 -0.183226 0.328409
    33 -0.032909 -1.499736 0.036191 -1.759219 0.021968 -0.036827
    34 -0.027022 -1.115984 -0.028023 -0.994625 0.022100 -0.015916
    35 -0.249534 -2.846964 -0.174213 0.009445 -0.070702 0.196948
    36 0.043235 -1.656596 0.056948 -1.763180 -0.024622 0.013759
    37 0.031729 -1.141298 0.054932 -1.121691 -0.012481 0.006191
    38 -0.963866 -2.785145 -0.085350 0.155044 0.028983 0.042035
    39 0.028479 -1.403067 -0.013261 -0.721813 -0.016035 -0.028308
    40 0.021413 -0.942156 0.012233 -1.001550 -0.026869 -0.034324
    41 1.164475 -2.543940 -0.170330 -0.286751 -0.269704 0.327293
    42 0.024032 -1.152480 -0.009538 -1.491828 0.033341 0.067846
    43 0.014898 -0.895708 -0.019848 -0.755705 0.001882 0.038243
    44 -0.586770 -1.264477 0.200161 -0.480709 -0.775215 -2.389088
    45 1.565805 0.035243 0.016848 -0.018844 -0.006943 0.893494
    46 1.110134 0.040611 -0.005766 -0.033752 -0.033060 1.195823
    47 -0.002676 -0.502335 -0.044199 0.290560 0.059641 1.643449
    48 -8.163208 1.670990 -0.469909 1.567286 -0.035897 -0.228424
end
