version 1
nodes
  0 "Bone01" -1
  1 "Bone_Lefthand" 0
  2 "Bone03" 1
  3 "Bone02" 2
  4 "Bone56" 3
  5 "Bone54" 3
  6 "Bone48" 3
  7 "Bone25" 3
  8 "Bone50" 3
  9 "Bone51" 8
  10 "Bone52" 9
  11 "Bone53" 10
  12 "Bone 04" 1
  13 "Bone13" 12
  14 "Bone14" 13
  15 "Bone15" 14
  16 "Bone17" 12
  17 "Bone18" 16
  18 "Bone19" 17
  19 "Bone21" 12
  20 "Bone22" 19
  21 "Bone23" 20
  22 "Bone05" 12
  23 "Bone06" 22
  24 "Bone07" 23
  25 "Bone09" 12
  26 "Bone10" 25
  27 "Bone11" 26
  28 "Bone04" -1
  29 "Bone_Righthand" 28
  30 "Bone26" 29
  31 "Bone35" 30
  32 "Bone36" 31
  33 "Bone37" 32
  34 "Bone31" 30
  35 "Bone32" 34
  36 "Bone33" 35
  37 "Bone39" 30
  38 "Bone40" 37
  39 "Bone41" 38
  40 "Bone43" 30
  41 "Bone44" 40
  42 "Bone45" 41
  43 "Bone27" 30
  44 "Bone28" 43
  45 "Bone29" 44
end
skeleton
  time 0
    0 7.087003 0.728082 -8.244841 -1.193330 -1.179502 1.009470
    1 0.000000 -8.563281 0.000001 0.084020 -0.013445 -0.314373
    2 -0.490616 -3.701483 0.535283 1.346881 1.541735 1.335142
    3 -0.025679 2.701181 0.658172 0.000000 0.000000 0.000000
    4 0.000000 -3.947158 3.041922 0.000000 0.000000 0.000000
    5 0.000000 -1.548280 0.485224 0.000000 0.000000 0.000000
    6 0.000000 -0.980124 2.284383 0.000000 0.000000 0.000000
    7 0.000000 -2.694595 1.621534 0.172782 0.000000 0.000000
    8 -0.000001 -5.746315 1.557464 0.000000 0.000000 0.000000
    9 0.000000 -0.031566 -0.614062 0.000000 0.000000 0.000000
    10 0.000000 -0.000001 -0.824930 0.000000 0.000000 0.000000
    11 0.000000 -0.015647 -0.615740 0.000000 0.000000 0.000000
    12 -0.003480 -0.404829 0.000000 0.000000 0.000000 0.000000
    13 -0.519309 -2.501153 -0.278957 -0.867431 0.000000 -0.122173
    14 -0.010598 -1.208185 0.000000 -0.870926 0.000000 0.000000
    15 0.000000 -0.763066 0.000000 -1.322966 0.000000 0.000000
    16 0.105981 -2.607133 -0.278957 -0.890118 0.000000 -0.148353
    17 0.000000 -1.250578 0.000000 -1.213004 0.000000 0.000000
    18 0.000000 -0.932634 -0.000001 -1.221739 0.000000 0.000000
    19 0.763064 -2.490555 -0.278957 -0.354271 0.000000 0.130900
    20 -0.012322 -1.280915 0.000000 -1.401472 0.000000 0.000000
    21 -0.001697 -0.749371 0.000000 -0.431104 0.000000 0.000000
    22 0.354567 0.016267 0.318133 0.357130 -0.522242 -1.116358
    23 1.887164 0.012878 0.000001 -0.304163 -0.028296 -0.491334
    24 1.001873 -0.000270 0.000000 0.000000 0.000000 -0.855205
    25 -1.123358 -2.195092 -0.278957 -0.556764 0.000000 -0.087266
    26 0.010772 -0.963791 0.000000 -0.568979 0.000000 0.000000
    27 -0.010412 -0.631916 0.000000 -1.118757 0.000000 0.000000
    28 -3.909787 -10.005926 -9.779890 -1.987564 0.981908 -0.957315
    29 0.089930 -8.543162 0.000000 -0.202090 -0.345999 0.369637
    30 0.000001 -0.359713 -0.000001 0.000000 0.000000 0.000000
    31 -0.170478 -2.636147 -0.277655 -1.692969 0.000000 0.000000
    32 0.010599 -1.261177 0.000001 -1.404983 0.000000 0.000000
    33 -0.000002 -0.943232 -0.000001 -1.370083 0.000000 0.000000
    34 -0.827562 -2.508972 -0.277656 -1.595199 0.000000 0.000000
    35 0.000000 -1.292970 0.000000 -1.439887 0.000000 0.000000
    36 0.000000 -0.752467 0.000000 -1.167619 0.000000 0.000000
    37 0.444215 -2.561960 -0.277655 -1.727307 -0.046226 -0.024599
    38 0.021022 -1.208185 0.000000 -1.370067 0.000000 0.000000
    39 0.010597 -0.741867 -0.000001 -1.082103 0.000000 0.000000
    40 1.047446 -2.222821 -0.277655 -1.508123 -0.078971 -0.038609
    41 0.000000 -0.996221 -0.000001 -1.387532 0.000000 0.000000
    42 -0.000001 -0.614690 0.000000 -1.183321 0.000000 0.000000
    43 -0.308254 -0.007814 0.307166 -0.241552 -0.531379 -1.938567
    44 1.978377 0.019543 0.000000 -0.099390 0.032995 0.869278
    45 0.982426 0.003187 0.000000 0.000000 0.000000 1.117011
  time 1
    0 7.106535 0.825741 -8.240934 -1.198275 -1.153688 1.035191
    1 0.000000 -8.563281 0.000001 0.022479 -0.018146 -0.368949
    2 -0.490616 -3.701483 0.535283 1.346881 1.541735 1.335142
    3 -0.025679 2.701181 0.658172 0.000000 0.000000 0.000000
    4 0.000000 -3.369015 3.041922 0.000000 0.000000 0.000000
    5 0.000000 -1.548280 0.485224 0.000000 0.000000 0.000000
    6 0.000000 -0.980124 2.284383 0.000000 0.000000 0.000000
    7 0.000000 -2.671157 1.621534 0.174951 0.000000 0.000000
    8 -0.000001 -5.746315 1.557464 0.000000 0.000000 0.000000
    9 0.000000 -0.031566 -0.614062 -0.108792 0.030896 -0.007155
    10 0.000000 -0.000001 -0.824930 0.000000 0.000000 0.000000
    11 0.000000 -0.015647 -0.615740 0.000000 0.000000 0.000000
    12 -0.003480 -0.404829 0.000000 0.000000 0.000000 0.000000
    13 -0.519309 -2.501153 -0.278957 -0.867431 0.000000 -0.122173
    14 -0.010598 -1.208185 0.000000 -0.870926 0.000000 0.000000
    15 0.000000 -0.763066 0.000000 -1.322966 0.000000 0.000000
    16 0.105981 -2.607133 -0.278957 -0.890118 0.000000 -0.148353
    17 0.000000 -1.250578 0.000000 -1.213004 0.000000 0.000000
    18 0.000000 -0.932634 -0.000001 -1.221739 0.000000 0.000000
    19 0.763064 -2.490555 -0.278957 -0.360441 0.000000 0.130900
    20 -0.012322 -1.280915 0.000000 -1.402705 0.000000 0.000000
    21 -0.001697 -0.749371 0.000000 -0.429890 0.000000 0.000000
    22 0.354567 0.016267 0.318133 0.357130 -0.522242 -1.116358
    23 1.887164 0.012878 0.000001 -0.304163 -0.028296 -0.491334
    24 1.001873 -0.000270 0.000000 0.000000 0.000000 -0.855205
    25 -1.123358 -2.195092 -0.278957 -0.556764 0.000000 -0.087266
    26 0.010772 -0.963791 0.000000 -0.568979 0.000000 0.000000
    27 -0.010412 -0.631916 0.000000 -1.118757 0.000000 0.000000
    28 -3.909787 -9.845765 -9.748639 -1.979224 0.988101 -0.961912
    29 0.089930 -8.543162 0.000000 -0.183102 -0.317740 0.386912
    30 0.000001 -0.359713 -0.000001 0.000000 0.000000 0.000000
    31 -0.170478 -2.636147 -0.277655 -1.692969 0.000000 0.000000
    32 0.010599 -1.261177 0.000001 -1.404983 0.000000 0.000000
    33 -0.000002 -0.943232 -0.000001 -1.370083 0.000000 0.000000
    34 -0.827562 -2.508972 -0.277656 -1.595199 0.000000 0.000000
    35 0.000000 -1.292970 0.000000 -1.439887 0.000000 0.000000
    36 0.000000 -0.752467 0.000000 -1.167619 0.000000 0.000000
    37 0.444215 -2.561960 -0.277655 -1.727307 -0.046226 -0.024599
    38 0.021022 -1.208185 0.000000 -1.370067 0.000000 0.000000
    39 0.010597 -0.741867 -0.000001 -1.082103 0.000000 0.000000
    40 1.047446 -2.222821 -0.277655 -1.508123 -0.078971 -0.038609
    41 0.000000 -0.996221 -0.000001 -1.387532 0.000000 0.000000
    42 -0.000001 -0.614690 0.000000 -1.183321 0.000000 0.000000
    43 -0.308254 -0.007814 0.307166 -0.241552 -0.531379 -1.938567
    44 1.978377 0.019543 0.000000 -0.099390 0.032995 0.869278
    45 0.982426 0.003187 0.000000 0.000000 0.000000 1.117011
  time 2
    0 7.172943 1.118719 -8.221402 -1.201443 -1.127824 1.059231
    1 0.000000 -8.563281 0.000001 -0.038726 -0.026193 -0.423145
    2 -0.490616 -3.701483 0.535283 1.346881 1.541735 1.335142
    3 -0.025679 2.701181 0.658172 0.000000 0.000000 0.000000
    4 0.000000 -1.626775 3.041922 0.000000 0.000000 0.000000
    5 0.000000 -1.548280 0.485224 0.000000 0.000000 0.000000
    6 0.000000 -0.362918 2.284383 0.000000 0.000000 0.000000
    7 0.000000 -2.663344 1.621534 0.179769 0.000000 0.000000
    8 -0.000001 -5.746315 1.557464 0.000000 0.000000 0.000000
    9 0.000000 -0.031566 -0.614062 -0.231275 0.064213 -0.018996
    10 0.000000 -0.000001 -0.824930 0.000000 0.000000 0.000000
    11 0.000000 -0.015647 -0.615740 0.000000 0.000000 0.000000
    12 -0.003480 -0.404829 0.000000 0.000000 0.000000 0.000000
    13 -0.519309 -2.501153 -0.278957 -0.867431 0.000000 -0.122173
    14 -0.010598 -1.208185 0.000000 -0.870926 0.000000 0.000000
    15 0.000000 -0.763066 0.000000 -1.322966 0.000000 0.000000
    16 0.105981 -2.607133 -0.278957 -0.890118 0.000000 -0.148353
    17 0.000000 -1.250578 0.000000 -1.213004 0.000000 0.000000
    18 0.000000 -0.932634 -0.000001 -1.221739 0.000000 0.000000
    19 0.763064 -2.490555 -0.278957 -0.374069 0.000000 0.130900
    20 -0.012322 -1.280915 0.000000 -1.405688 0.000000 0.000000
    21 -0.001697 -0.749371 0.000000 -0.426798 0.000000 0.000000
    22 0.354567 0.016267 0.318133 0.357130 -0.522242 -1.116358
    23 1.887164 0.012878 0.000001 -0.304163 -0.028296 -0.491334
    24 1.001873 -0.000270 0.000000 0.000000 0.000000 -0.855205
    25 -1.123358 -2.195092 -0.278957 -0.556764 0.000000 -0.087266
    26 0.010772 -0.963791 0.000000 -0.568979 0.000000 0.000000
    27 -0.010412 -0.631916 0.000000 -1.118757 0.000000 0.000000
    28 -3.909787 -9.298873 -9.690044 -1.969747 0.994295 -0.966509
    29 0.089930 -8.543162 0.000000 -0.161680 -0.285798 0.406459
    30 0.000001 -0.359713 -0.000001 0.000000 0.000000 0.000000
    31 -0.170478 -2.636147 -0.277655 -1.692969 0.000000 0.000000
    32 0.010599 -1.261177 0.000001 -1.404983 0.000000 0.000000
    33 -0.000002 -0.943232 -0.000001 -1.370083 0.000000 0.000000
    34 -0.827562 -2.508972 -0.277656 -1.595199 0.000000 0.000000
    35 0.000000 -1.292970 0.000000 -1.439887 0.000000 0.000000
    36 0.000000 -0.752467 0.000000 -1.167619 0.000000 0.000000
    37 0.444215 -2.561960 -0.277655 -1.727307 -0.046226 -0.024599
    38 0.021022 -1.208185 0.000000 -1.370067 0.000000 0.000000
    39 0.010597 -0.741867 -0.000001 -1.082103 0.000000 0.000000
    40 1.047446 -2.222821 -0.277655 -1.508123 -0.078971 -0.038609
    41 0.000000 -0.996221 -0.000001 -1.387532 0.000000 0.000000
    42 -0.000001 -0.614690 0.000000 -1.183321 0.000000 0.000000
    43 -0.308254 -0.007814 0.307166 -0.241552 -0.531379 -1.938567
    44 1.978377 0.019543 0.000000 -0.099390 0.032995 0.869278
    45 0.982426 0.003187 0.000000 0.000000 0.000000 1.117011
  time 3
    0 7.278415 1.603109 -8.186245 -1.201134 -1.116095 1.069765
    1 0.000000 -8.563281 0.000001 -0.071636 -0.031282 -0.449164
    2 -0.490616 -3.701483 0.535283 1.346881 1.541735 1.335142
    3 -0.025679 2.701181 0.658172 0.000000 0.000000 0.000000
    4 0.000000 -1.630681 3.041922 0.000000 0.000000 0.000000
    5 0.000000 -1.548280 0.485224 0.000000 0.000000 0.000000
    6 0.000000 0.254289 2.284383 0.000000 0.000000 0.000000
    7 0.000000 -2.655531 1.621534 0.184563 0.000000 0.000000
    8 -0.000001 -5.746315 1.557464 0.000000 0.000000 0.000000
    9 0.000000 -0.031566 -0.614062 -0.327718 0.089501 -0.031388
    10 0.000000 -0.000001 -0.824930 0.000000 0.000000 0.000000
    11 0.000000 -0.015647 -0.615740 0.000000 0.000000 0.000000
    12 -0.003480 -0.404829 0.000000 0.000000 0.000000 0.000000
    13 -0.519309 -2.501153 -0.278957 -0.867431 0.000000 -0.122173
    14 -0.010598 -1.208185 0.000000 -0.870926 0.000000 0.000000
    15 0.000000 -0.763066 0.000000 -1.322966 0.000000 0.000000
    16 0.105981 -2.607133 -0.278957 -0.890118 0.000000 -0.148353
    17 0.000000 -1.250578 0.000000 -1.213004 0.000000 0.000000
    18 0.000000 -0.932634 -0.000001 -1.221739 0.000000 0.000000
    19 0.763064 -2.490555 -0.278957 -0.387655 0.000000 0.130900
    20 -0.012322 -1.280915 0.000000 -1.409426 0.000000 0.000000
    21 -0.001697 -0.749371 0.000000 -0.422781 0.000000 0.000000
    22 0.354567 0.016267 0.318133 0.357130 -0.522242 -1.116358
    23 1.887164 0.012878 0.000001 -0.304163 -0.028296 -0.491334
    24 1.001873 -0.000270 0.000000 0.000000 0.000000 -0.855205
    25 -1.123358 -2.195092 -0.278957 -0.556764 0.000000 -0.087266
    26 0.010772 -0.963791 0.000000 -0.568979 0.000000 0.000000
    27 -0.010412 -0.631916 0.000000 -1.118757 0.000000 0.000000
    28 -3.909787 -8.955113 -9.514257 -1.962449 1.000423 -0.970915
    29 0.089930 -8.543162 0.000000 -0.140859 -0.256217 0.425600
    30 0.000001 -0.359713 -0.000001 0.000000 0.000000 0.000000
    31 -0.170478 -2.636147 -0.277655 -1.692969 0.000000 0.000000
    32 0.010599 -1.261177 0.000001 -1.404983 0.000000 0.000000
    33 -0.000002 -0.943232 -0.000001 -1.370083 0.000000 0.000000
    34 -0.827562 -2.508972 -0.277656 -1.595199 0.000000 0.000000
    35 0.000000 -1.292970 0.000000 -1.439887 0.000000 0.000000
    36 0.000000 -0.752467 0.000000 -1.167619 0.000000 0.000000
    37 0.444215 -2.561960 -0.277655 -1.727307 -0.046226 -0.024599
    38 0.021022 -1.208185 0.000000 -1.370067 0.000000 0.000000
    39 0.010597 -0.741867 -0.000001 -1.082103 0.000000 0.000000
    40 1.047446 -2.222821 -0.277655 -1.508123 -0.078971 -0.038609
    41 0.000000 -0.996221 -0.000001 -1.387532 0.000000 0.000000
    42 -0.000001 -0.614690 0.000000 -1.183321 0.000000 0.000000
    43 -0.308254 -0.007814 0.307166 -0.241552 -0.531379 -1.938567
    44 1.978377 0.019543 0.000000 -0.099390 0.032995 0.869278
    45 0.982426 0.003187 0.000000 0.000000 0.000000 1.117011
  time 4
    0 7.235445 1.235910 -8.182339 -1.197425 -1.124708 1.062333
    1 0.000000 -8.563281 0.000001 -0.065536 -0.028323 -0.434754
    2 -0.490616 -3.701483 0.535283 1.346881 1.541735 1.335142
    3 -0.025679 2.701181 0.658172 0.000000 0.000000 0.000000
    4 0.054689 -3.329952 2.979420 -0.023070 0.000719 0.045541
    5 0.000000 -1.548280 0.485224 0.000000 0.000000 0.000000
    6 0.000000 -0.366824 2.284383 0.000000 0.000000 0.000000
    7 0.000000 -2.659438 1.621534 0.186744 0.000000 0.000000
    8 -0.000001 -5.746315 1.557464 0.000000 0.000000 0.000000
    9 0.000000 -0.031566 -0.614062 -0.357830 0.098130 -0.036613
    10 0.000000 -0.000001 -0.824930 0.000000 0.000000 0.000000
    11 0.000000 -0.015647 -0.615740 0.000000 0.000000 0.000000
    12 -0.003480 -0.404829 0.000000 0.000000 0.000000 0.000000
    13 -0.519309 -2.501153 -0.278957 -0.867431 0.000000 -0.122173
    14 -0.010598 -1.208185 0.000000 -0.870926 0.000000 0.000000
    15 0.000000 -0.763066 0.000000 -1.322966 0.000000 0.000000
    16 0.105981 -2.607133 -0.278957 -0.890118 0.000000 -0.148353
    17 0.000000 -1.250578 0.000000 -1.213004 0.000000 0.000000
    18 0.000000 -0.932634 -0.000001 -1.221739 0.000000 0.000000
    19 0.763064 -2.490555 -0.278957 -0.393824 0.000000 0.130900
    20 -0.012322 -1.280915 0.000000 -1.412806 0.000000 0.000000
    21 -0.001697 -0.749371 0.000000 -0.418778 0.000000 0.000000
    22 0.354567 0.016267 0.318133 0.357130 -0.522242 -1.116358
    23 1.887164 0.012878 0.000001 -0.304163 -0.028296 -0.491334
    24 1.001873 -0.000270 0.000000 0.000000 0.000000 -0.855205
    25 -1.123358 -2.195092 -0.278957 -0.556764 0.000000 -0.087266
    26 0.010772 -0.963791 0.000000 -0.568979 0.000000 0.000000
    27 -0.010412 -0.631916 0.000000 -1.118757 0.000000 0.000000
    28 -3.909787 -8.849641 -9.346283 -1.960743 1.006160 -0.975225
    29 0.089930 -8.543162 0.000000 -0.123979 -0.234958 0.441271
    30 0.000001 -0.359713 -0.000001 0.000000 0.000000 0.000000
    31 -0.170478 -2.636147 -0.277655 -1.692969 0.000000 0.000000
    32 0.010599 -1.261177 0.000001 -1.404983 0.000000 0.000000
    33 -0.000002 -0.943232 -0.000001 -1.370083 0.000000 0.000000
    34 -0.827562 -2.508972 -0.277656 -1.595199 0.000000 0.000000
    35 0.000000 -1.292970 0.000000 -1.439887 0.000000 0.000000
    36 0.000000 -0.752467 0.000000 -1.167619 0.000000 0.000000
    37 0.444215 -2.561960 -0.277655 -1.727307 -0.046226 -0.024599
    38 0.021022 -1.208185 0.000000 -1.370067 0.000000 0.000000
    39 0.010597 -0.741867 -0.000001 -1.082103 0.000000 0.000000
    40 1.047446 -2.222821 -0.277655 -1.508123 -0.078971 -0.038609
    41 0.000000 -0.996221 -0.000001 -1.387532 0.000000 0.000000
    42 -0.000001 -0.614690 0.000000 -1.183321 0.000000 0.000000
    43 -0.308254 -0.007814 0.307166 -0.241552 -0.531379 -1.938567
    44 1.978377 0.019543 0.000000 -0.099390 0.032995 0.869278
    45 0.982426 0.003187 0.000000 0.000000 0.000000 1.117011
  time 5
    0 7.204194 0.970277 -8.178432 -1.191012 -1.144340 1.044561
    1 0.000000 -8.563281 0.000001 -0.038295 -0.021409 -0.398300
    2 -0.490616 -3.701483 0.535283 1.346881 1.541735 1.335142
    3 -0.025679 2.701181 0.658172 0.000000 0.000000 0.000000
    4 0.078127 -4.212791 2.901293 -0.046141 0.001450 0.091083
    5 0.000000 -1.548280 0.485224 0.000000 0.000000 0.000000
    6 0.000000 -0.980124 2.284383 0.000000 0.000000 0.000000
    7 0.000000 -2.675063 1.621534 0.183688 0.000000 0.000000
    8 -0.000001 -5.746315 1.557464 0.000000 0.000000 0.000000
    9 0.000000 -0.031566 -0.614062 -0.329821 0.092677 -0.034120
    10 0.000000 -0.000001 -0.824930 0.000000 0.000000 0.000000
    11 0.000000 -0.015647 -0.615740 0.000000 0.000000 0.000000
    12 -0.003480 -0.404829 0.000000 0.000000 0.000000 0.000000
    13 -0.519309 -2.501153 -0.278957 -0.867431 0.000000 -0.122173
    14 -0.010598 -1.208185 0.000000 -0.870926 0.000000 0.000000
    15 0.000000 -0.763066 0.000000 -1.322966 0.000000 0.000000
    16 0.105981 -2.607133 -0.278957 -0.890118 0.000000 -0.148353
    17 0.000000 -1.250578 0.000000 -1.213004 0.000000 0.000000
    18 0.000000 -0.932634 -0.000001 -1.221739 0.000000 0.000000
    19 0.763064 -2.490555 -0.278957 -0.385183 0.000000 0.130900
    20 -0.012322 -1.280915 0.000000 -1.414754 0.000000 0.000000
    21 -0.001697 -0.749371 0.000000 -0.415686 0.000000 0.000000
    22 0.354567 0.016267 0.318133 0.357130 -0.522242 -1.116358
    23 1.887164 0.012878 0.000001 -0.304163 -0.028296 -0.491334
    24 1.001873 -0.000270 0.000000 0.000000 0.000000 -0.855205
    25 -1.123358 -2.195092 -0.278957 -0.556764 0.000000 -0.087266
    26 0.010772 -0.963791 0.000000 -0.568979 0.000000 0.000000
    27 -0.010412 -0.631916 0.000000 -1.118757 0.000000 0.000000
    28 -3.909787 -9.087929 -9.318938 -1.963871 1.012223 -0.979918
    29 0.089930 -8.543162 0.000000 -0.114676 -0.227655 0.450267
    30 0.000001 -0.359713 -0.000001 0.000000 0.000000 0.000000
    31 -0.170478 -2.636147 -0.277655 -1.692969 0.000000 0.000000
    32 0.010599 -1.261177 0.000001 -1.404983 0.000000 0.000000
    33 -0.000002 -0.943232 -0.000001 -1.370083 0.000000 0.000000
    34 -0.827562 -2.508972 -0.277656 -1.595199 0.000000 0.000000
    35 0.000000 -1.292970 0.000000 -1.439887 0.000000 0.000000
    36 0.000000 -0.752467 0.000000 -1.167619 0.000000 0.000000
    37 0.444215 -2.561960 -0.277655 -1.727307 -0.046226 -0.024599
    38 0.021022 -1.208185 0.000000 -1.370067 0.000000 0.000000
    39 0.010597 -0.741867 -0.000001 -1.082103 0.000000 0.000000
    40 1.047446 -2.222821 -0.277655 -1.508123 -0.078971 -0.038609
    41 0.000000 -0.996221 -0.000001 -1.387532 0.000000 0.000000
    42 -0.000001 -0.614690 0.000000 -1.183321 0.000000 0.000000
    43 -0.308254 -0.007814 0.307166 -0.241552 -0.531379 -1.938567
    44 1.978377 0.019543 0.000000 -0.099390 0.032995 0.869278
    45 0.982426 0.003187 0.000000 0.000000 0.000000 1.117011
  time 6
    0 7.188568 0.814022 -8.178432 -1.183285 -1.165670 1.023752
    1 0.000000 -8.563281 0.000001 -0.005661 -0.015270 -0.358723
    2 -0.490616 -3.701483 0.535283 1.346881 1.541735 1.335142
    3 -0.025679 2.701181 0.658172 0.000000 0.000000 0.000000
    4 0.078127 -4.212791 2.901293 -0.046141 0.001450 0.091083
    5 0.000000 -1.548280 0.485224 0.000000 0.000000 0.000000
    6 0.000000 -0.980124 2.284383 0.000000 0.000000 0.000000
    7 0.000000 -2.694595 1.621534 0.172782 0.000000 0.000000
    8 -0.000001 -5.746315 1.557464 0.000000 0.000000 0.000000
    9 0.000000 -0.031566 -0.614062 -0.282170 0.081927 -0.029350
    10 0.000000 -0.000001 -0.824930 0.000000 0.000000 0.000000
    11 0.000000 -0.015647 -0.615740 0.000000 0.000000 0.000000
    12 -0.003480 -0.404829 0.000000 0.000000 0.000000 0.000000
    13 -0.519309 -2.501153 -0.278957 -0.867431 0.000000 -0.122173
    14 -0.010598 -1.208185 0.000000 -0.870926 0.000000 0.000000
    15 0.000000 -0.763066 0.000000 -1.322966 0.000000 0.000000
    16 0.105981 -2.607133 -0.278957 -0.890118 0.000000 -0.148353
    17 0.000000 -1.250578 0.000000 -1.213004 0.000000 0.000000
    18 0.000000 -0.932634 -0.000001 -1.221739 0.000000 0.000000
    19 0.763064 -2.490555 -0.278957 -0.354271 0.000000 0.130900
    20 -0.012322 -1.280915 0.000000 -1.414237 0.000000 0.000000
    21 -0.001697 -0.749371 0.000000 -0.414458 0.000000 0.000000
    22 0.354567 0.016267 0.318133 0.357130 -0.522242 -1.116358
    23 1.887164 0.012878 0.000001 -0.304163 -0.028296 -0.491334
    24 1.001873 -0.000270 0.000000 0.000000 0.000000 -0.855205
    25 -1.123358 -2.195092 -0.278957 -0.556764 0.000000 -0.087266
    26 0.010772 -0.963791 0.000000 -0.568979 0.000000 0.000000
    27 -0.010412 -0.631916 0.000000 -1.118757 0.000000 0.000000
    28 -3.909787 -9.396533 -9.342377 -1.968704 1.018938 -0.985377
    29 0.089930 -8.543162 0.000000 -0.113117 -0.235565 0.452468
    30 0.000001 -0.359713 -0.000001 0.000000 0.000000 0.000000
    31 -0.170478 -2.636147 -0.277655 -1.692969 0.000000 0.000000
    32 0.010599 -1.261177 0.000001 -1.404983 0.000000 0.000000
    33 -0.000002 -0.943232 -0.000001 -1.370083 0.000000 0.000000
    34 -0.827562 -2.508972 -0.277656 -1.595199 0.000000 0.000000
    35 0.000000 -1.292970 0.000000 -1.439887 0.000000 0.000000
    36 0.000000 -0.752467 0.000000 -1.167619 0.000000 0.000000
    37 0.444215 -2.561960 -0.277655 -1.727307 -0.046226 -0.024599
    38 0.021022 -1.208185 0.000000 -1.370067 0.000000 0.000000
    39 0.010597 -0.741867 -0.000001 -1.082103 0.000000 0.000000
    40 1.047446 -2.222821 -0.277655 -1.508123 -0.078971 -0.038609
    41 0.000000 -0.996221 -0.000001 -1.387532 0.000000 0.000000
    42 -0.000001 -0.614690 0.000000 -1.183321 0.000000 0.000000
    43 -0.308254 -0.007814 0.307166 -0.241552 -0.531379 -1.938567
    44 1.978377 0.019543 0.000000 -0.099390 0.032995 0.869278
    45 0.982426 0.003187 0.000000 0.000000 0.000000 1.117011
  time 7
    0 7.180756 0.759333 -8.174526 -1.177645 -1.179502 1.009470
    1 0.000000 -8.563281 0.000001 0.016223 -0.012422 -0.335260
    2 -0.490616 -3.701483 0.535283 1.346881 1.541735 1.335142
    3 -0.025679 2.701181 0.658172 0.000000 0.000000 0.000000
    4 0.078127 -4.212791 2.901293 -0.046141 0.001450 0.091083
    5 0.000000 -1.548280 0.485224 0.000000 0.000000 0.000000
    6 0.000000 -0.980124 2.284383 0.000000 0.000000 0.000000
    7 0.000000 -2.718033 1.621534 0.150287 0.000000 0.000000
    8 -0.000001 -5.746315 1.557464 0.000000 0.000000 0.000000
    9 0.000000 -0.031566 -0.614062 -0.219575 0.066958 -0.023526
    10 0.000000 -0.000001 -0.824930 0.000000 0.000000 0.000000
    11 0.000000 -0.015647 -0.615740 0.000000 0.000000 0.000000
    12 -0.003480 -0.404829 0.000000 0.000000 0.000000 0.000000
    13 -0.519309 -2.501153 -0.278957 -0.867431 0.000000 -0.122173
    14 -0.010598 -1.208185 0.000000 -0.870926 0.000000 0.000000
    15 0.000000 -0.763066 0.000000 -1.322966 0.000000 0.000000
    16 0.105981 -2.607133 -0.278957 -0.890118 0.000000 -0.148353
    17 0.000000 -1.250578 0.000000 -1.213004 0.000000 0.000000
    18 0.000000 -0.932634 -0.000001 -1.221739 0.000000 0.000000
    19 0.763064 -2.490555 -0.278957 -0.280566 0.000000 0.130900
    20 -0.012322 -1.280915 0.000000 -1.410141 0.000000 0.000000
    21 -0.001697 -0.749371 0.000000 -0.415990 0.000000 0.000000
    22 0.354567 0.016267 0.318133 0.357130 -0.522242 -1.116358
    23 1.887164 0.012878 0.000001 -0.304163 -0.028296 -0.491334
    24 1.001873 -0.000270 0.000000 0.000000 0.000000 -0.855205
    25 -1.123358 -2.195092 -0.278957 -0.556764 0.000000 -0.087266
    26 0.010772 -0.963791 0.000000 -0.568979 0.000000 0.000000
    27 -0.010412 -0.631916 0.000000 -1.118757 0.000000 0.000000
    28 -3.905881 -9.482473 -9.369721 -1.974864 1.026109 -0.991315
    29 0.089930 -8.543162 0.000000 -0.116154 -0.253508 0.450746
    30 0.000001 -0.359713 -0.000001 0.000000 0.000000 0.000000
    31 -0.170478 -2.636147 -0.277655 -1.692969 0.000000 0.000000
    32 0.010599 -1.261177 0.000001 -1.404983 0.000000 0.000000
    33 -0.000002 -0.943232 -0.000001 -1.370083 0.000000 0.000000
    34 -0.827562 -2.508972 -0.277656 -1.595199 0.000000 0.000000
    35 0.000000 -1.292970 0.000000 -1.439887 0.000000 0.000000
    36 0.000000 -0.752467 0.000000 -1.167619 0.000000 0.000000
    37 0.444215 -2.561960 -0.277655 -1.727307 -0.046226 -0.024599
    38 0.021022 -1.208185 0.000000 -1.370067 0.000000 0.000000
    39 0.010597 -0.741867 -0.000001 -1.082103 0.000000 0.000000
    40 1.047446 -2.222821 -0.277655 -1.508123 -0.078971 -0.038609
    41 0.000000 -0.996221 -0.000001 -1.387532 0.000000 0.000000
    42 -0.000001 -0.614690 0.000000 -1.183321 0.000000 0.000000
    43 -0.308254 -0.007814 0.307166 -0.241552 -0.531379 -1.938567
    44 1.978377 0.019543 0.000000 -0.099390 0.032995 0.869278
    45 0.982426 0.003187 0.000000 0.000000 0.000000 1.117011
  time 8
    0 7.176849 0.751520 -8.174526 -1.174941 -1.185810 1.002684
    1 0.000000 -8.563281 0.000001 0.026638 -0.011869 -0.327856
    2 -0.490616 -3.701483 0.535283 1.346881 1.541735 1.335142
    3 -0.025679 2.701181 0.658172 0.000000 0.000000 0.000000
    4 0.078127 -4.212791 2.901293 -0.046141 0.001450 0.091083
    5 0.000000 -1.548280 0.485224 0.000000 0.000000 0.000000
    6 0.000000 -0.980124 2.284383 0.000000 0.000000 0.000000
    7 0.000000 -2.753191 1.621534 0.117221 0.000000 0.000000
    8 -0.000001 -5.746315 1.557464 0.000000 0.000000 0.000000
    9 0.000000 -0.031566 -0.614062 -0.146667 0.048957 -0.017713
    10 0.000000 -0.000001 -0.824930 0.000000 0.000000 0.000000
    11 0.000000 -0.015647 -0.615740 0.000000 0.000000 0.000000
    12 -0.003480 -0.404829 0.000000 0.000000 0.000000 0.000000
    13 -0.519309 -2.501153 -0.278957 -0.867431 0.000000 -0.122173
    14 -0.010598 -1.208185 0.000000 -0.870926 0.000000 0.000000
    15 0.000000 -0.763066 0.000000 -1.322966 0.000000 0.000000
    16 0.105981 -2.607133 -0.278957 -0.890118 0.000000 -0.148353
    17 0.000000 -1.250578 0.000000 -1.213004 0.000000 0.000000
    18 0.000000 -0.932634 -0.000001 -1.221739 0.000000 0.000000
    19 0.763064 -2.490555 -0.278957 -0.165168 0.000000 0.130900
    20 -0.012322 -1.280915 0.000000 -1.401472 0.000000 0.000000
    21 -0.001697 -0.749371 0.000000 -0.421235 0.000000 0.000000
    22 0.354567 0.016267 0.318133 0.357130 -0.522242 -1.116358
    23 1.887164 0.012878 0.000001 -0.304163 -0.028296 -0.491334
    24 1.001873 -0.000270 0.000000 0.000000 0.000000 -0.855205
    25 -1.123358 -2.195092 -0.278957 -0.556764 0.000000 -0.087266
    26 0.010772 -0.963791 0.000000 -0.568979 0.000000 0.000000
    27 -0.010412 -0.631916 0.000000 -1.118757 0.000000 0.000000
    28 -3.909787 -9.486379 -9.404879 -1.981972 1.033411 -0.997636
    29 0.089930 -8.543162 0.000000 -0.122419 -0.277736 0.446248
    30 0.000001 -0.359713 -0.000001 0.000000 0.000000 0.000000
    31 -0.170478 -2.636147 -0.277655 -1.692969 0.000000 0.000000
    32 0.010599 -1.261177 0.000001 -1.404983 0.000000 0.000000
    33 -0.000002 -0.943232 -0.000001 -1.370083 0.000000 0.000000
    34 -0.827562 -2.508972 -0.277656 -1.595199 0.000000 0.000000
    35 0.000000 -1.292970 0.000000 -1.439887 0.000000 0.000000
    36 0.000000 -0.752467 0.000000 -1.167619 0.000000 0.000000
    37 0.444215 -2.561960 -0.277655 -1.727307 -0.046226 -0.024599
    38 0.021022 -1.208185 0.000000 -1.370067 0.000000 0.000000
    39 0.010597 -0.741867 -0.000001 -1.082103 0.000000 0.000000
    40 1.047446 -2.222821 -0.277655 -1.508123 -0.078971 -0.038609
    41 0.000000 -0.996221 -0.000001 -1.387532 0.000000 0.000000
    42 -0.000001 -0.614690 0.000000 -1.183321 0.000000 0.000000
    43 -0.308254 -0.007814 0.307166 -0.241552 -0.531379 -1.938567
    44 1.978377 0.019543 0.000000 -0.099390 0.032995 0.869278
    45 0.982426 0.003187 0.000000 0.000000 0.000000 1.117011
  time 9
    0 7.169036 0.735895 -8.166713 -1.172854 -1.190800 0.997191
    1 0.000000 -8.563281 0.000001 0.035926 -0.011758 -0.323141
    2 -0.490616 -3.701483 0.535283 1.346881 1.541735 1.335142
    3 -0.025679 2.701181 0.658172 0.000000 0.000000 0.000000
    4 0.078127 -4.212791 2.901293 -0.046141 0.001450 0.091083
    5 0.000000 -1.548280 0.485224 0.000000 0.000000 0.000000
    6 0.000000 -0.980124 2.284383 0.000000 0.000000 0.000000
    7 0.000000 -2.796161 1.621534 0.078152 0.000000 0.000000
    8 -0.000001 -5.746315 1.557464 0.000000 0.000000 0.000000
    9 0.000000 -0.031566 -0.614062 -0.067987 0.029278 -0.012847
    10 0.000000 -0.000001 -0.824930 0.000000 0.000000 0.000000
    11 0.000000 -0.015647 -0.615740 0.000000 0.000000 0.000000
    12 -0.003480 -0.404829 0.000000 0.000000 0.000000 0.000000
    13 -0.519309 -2.501153 -0.278957 -0.867431 0.000000 -0.122173
    14 -0.010598 -1.208185 0.000000 -0.870926 0.000000 0.000000
    15 0.000000 -0.763066 0.000000 -1.322966 0.000000 0.000000
    16 0.105981 -2.607133 -0.278957 -0.890118 0.000000 -0.148353
    17 0.000000 -1.250578 0.000000 -1.213004 0.000000 0.000000
    18 0.000000 -0.932634 -0.000001 -1.221739 0.000000 0.000000
    19 0.763064 -2.490555 -0.278957 -0.033048 0.000000 0.130900
    20 -0.012322 -1.280915 0.000000 -1.380158 0.000000 0.000000
    21 -0.001697 -0.749371 0.000000 -0.431104 0.000000 0.000000
    22 0.354567 0.016267 0.318133 0.357130 -0.522242 -1.116358
    23 1.887164 0.012878 0.000001 -0.304163 -0.028296 -0.491334
    24 1.001873 -0.000270 0.000000 0.000000 0.000000 -0.855205
    25 -1.123358 -2.195092 -0.278957 -0.556764 0.000000 -0.087266
    26 0.010772 -0.963791 0.000000 -0.568979 0.000000 0.000000
    27 -0.010412 -0.631916 0.000000 -1.118757 0.000000 0.000000
    28 -3.948851 -9.439503 -9.432223 -1.989744 1.040582 -1.004053
    29 0.089930 -8.543162 0.000000 -0.130463 -0.304521 0.440147
    30 0.000001 -0.359713 -0.000001 0.000000 0.000000 0.000000
    31 -0.170478 -2.636147 -0.277655 -1.692969 0.000000 0.000000
    32 0.010599 -1.261177 0.000001 -1.404983 0.000000 0.000000
    33 -0.000002 -0.943232 -0.000001 -1.370083 0.000000 0.000000
    34 -0.827562 -2.508972 -0.277656 -1.595199 0.000000 0.000000
    35 0.000000 -1.292970 0.000000 -1.439887 0.000000 0.000000
    36 0.000000 -0.752467 0.000000 -1.167619 0.000000 0.000000
    37 0.444215 -2.561960 -0.277655 -1.727307 -0.046226 -0.024599
    38 0.021022 -1.208185 0.000000 -1.370067 0.000000 0.000000
    39 0.010597 -0.741867 -0.000001 -1.082103 0.000000 0.000000
    40 1.047446 -2.222821 -0.277655 -1.508123 -0.078971 -0.038609
    41 0.000000 -0.996221 -0.000001 -1.387532 0.000000 0.000000
    42 -0.000001 -0.614690 0.000000 -1.183321 0.000000 0.000000
    43 -0.308254 -0.007814 0.307166 -0.241552 -0.531379 -1.938567
    44 1.978377 0.019543 0.000000 -0.099390 0.032995 0.869278
    45 0.982426 0.003187 0.000000 0.000000 0.000000 1.117011
  time 10
    0 7.157317 0.708550 -8.158900 -1.171309 -1.194550 0.992990
    1 0.000000 -8.563281 0.000001 0.044183 -0.011979 -0.320641
    2 -0.490616 -3.701483 0.535283 1.346881 1.541735 1.335142
    3 -0.025679 2.701181 0.658172 0.000000 0.000000 0.000000
    4 0.078127 -4.212791 2.901293 -0.046141 0.001450 0.091083
    5 0.000000 -1.548280 0.485224 0.000000 0.000000 0.000000
    6 0.000000 -0.980124 2.284383 0.000000 0.000000 0.000000
    7 0.000000 -2.846943 1.621534 0.037572 0.000000 0.000000
    8 -0.000001 -5.746315 1.557464 0.000000 0.000000 0.000000
    9 0.000000 -0.031566 -0.614062 0.011924 0.009408 -0.009480
    10 0.000000 -0.000001 -0.824930 0.000000 0.000000 0.000000
    11 0.000000 -0.015647 -0.615740 0.000000 0.000000 0.000000
    12 -0.003480 -0.404829 0.000000 0.000000 0.000000 0.000000
    13 -0.519309 -2.501153 -0.278957 -0.867431 0.000000 -0.122173
    14 -0.010598 -1.208185 0.000000 -0.870926 0.000000 0.000000
    15 0.000000 -0.763066 0.000000 -1.322966 0.000000 0.000000
    16 0.105981 -2.607133 -0.278957 -0.890118 0.000000 -0.148353
    17 0.000000 -1.250578 0.000000 -1.213004 0.000000 0.000000
    18 0.000000 -0.932634 -0.000001 -1.221739 0.000000 0.000000
    19 0.763064 -2.490555 -0.278957 0.090743 0.000000 0.130900
    20 -0.012322 -1.280915 0.000000 -1.344726 0.000000 0.000000
    21 -0.001697 -0.749371 0.000000 -0.455880 0.000000 0.000000
    22 0.354567 0.016267 0.318133 0.357130 -0.522242 -1.116358
    23 1.887164 0.012878 0.000001 -0.304163 -0.028296 -0.491334
    24 1.001873 -0.000270 0.000000 0.000000 0.000000 -0.855205
    25 -1.123358 -2.195092 -0.278957 -0.556764 0.000000 -0.087266
    26 0.010772 -0.963791 0.000000 -0.568979 0.000000 0.000000
    27 -0.010412 -0.631916 0.000000 -1.118757 0.000000 0.000000
    28 -3.999634 -9.388720 -9.443942 -1.997799 1.047232 -1.010374
    29 0.089930 -8.543162 0.000000 -0.139026 -0.330049 0.433519
    30 0.000001 -0.359713 -0.000001 0.000000 0.000000 0.000000
    31 -0.170478 -2.636147 -0.277655 -1.692969 0.000000 0.000000
    32 0.010599 -1.261177 0.000001 -1.404983 0.000000 0.000000
    33 -0.000002 -0.943232 -0.000001 -1.370083 0.000000 0.000000
    34 -0.827562 -2.508972 -0.277656 -1.595199 0.000000 0.000000
    35 0.000000 -1.292970 0.000000 -1.439887 0.000000 0.000000
    36 0.000000 -0.752467 0.000000 -1.167619 0.000000 0.000000
    37 0.444215 -2.561960 -0.277655 -1.727307 -0.046226 -0.024599
    38 0.021022 -1.208185 0.000000 -1.370067 0.000000 0.000000
    39 0.010597 -0.741867 -0.000001 -1.082103 0.000000 0.000000
    40 1.047446 -2.222821 -0.277655 -1.508123 -0.078971 -0.038609
    41 0.000000 -0.996221 -0.000001 -1.387532 0.000000 0.000000
    42 -0.000001 -0.614690 0.000000 -1.183321 0.000000 0.000000
    43 -0.308254 -0.007814 0.307166 -0.241552 -0.531379 -1.938567
    44 1.978377 0.019543 0.000000 -0.099390 0.032995 0.869278
    45 0.982426 0.003187 0.000000 0.000000 0.000000 1.117011
  time 11
    0 7.141692 0.677299 -8.151088 -1.170382 -1.197311 0.989824
    1 0.000000 -8.563281 0.000001 0.051494 -0.012394 -0.319921
    2 -0.490616 -3.701483 0.535283 1.346881 1.541735 1.335142
    3 -0.025679 2.701181 0.658172 0.000000 0.000000 0.000000
    4 0.078127 -4.212791 2.901293 -0.046141 0.001450 0.091083
    5 0.000000 -1.548280 0.485224 0.000000 0.000000 0.000000
    6 0.000000 -0.980124 2.284383 0.000000 0.000000 0.000000
    7 0.000000 -2.905539 1.621534 0.000000 0.000000 0.000000
    8 -0.000001 -5.746315 1.557464 0.000000 0.000000 0.000000
    9 0.000000 -0.031566 -0.614062 0.088680 -0.009096 -0.007718
    10 0.000000 -0.000001 -0.824930 0.000000 0.000000 0.000000
    11 0.000000 -0.015647 -0.615740 0.000000 0.000000 0.000000
    12 -0.003480 -0.404829 0.000000 0.000000 0.000000 0.000000
    13 -0.519309 -2.501153 -0.278957 -0.867431 0.000000 -0.122173
    14 -0.010598 -1.208185 0.000000 -0.870926 0.000000 0.000000
    15 0.000000 -0.763066 0.000000 -1.322966 0.000000 0.000000
    16 0.105981 -2.607133 -0.278957 -0.890118 0.000000 -0.148353
    17 0.000000 -1.250578 0.000000 -1.213004 0.000000 0.000000
    18 0.000000 -0.932634 -0.000001 -1.221739 0.000000 0.000000
    19 0.763064 -2.490555 -0.278957 0.090743 0.000000 0.130900
    20 -0.012322 -1.280915 0.000000 -1.303607 0.000000 0.000000
    21 -0.001697 -0.749371 0.000000 -0.498228 0.000000 0.000000
    22 0.354567 0.016267 0.318133 0.357130 -0.522242 -1.116358
    23 1.887164 0.012878 0.000001 -0.304163 -0.028296 -0.491334
    24 1.001873 -0.000270 0.000000 0.000000 0.000000 -0.855205
    25 -1.123358 -2.195092 -0.278957 -0.556764 0.000000 -0.087266
    26 0.010772 -0.963791 0.000000 -0.568979 0.000000 0.000000
    27 -0.010412 -0.631916 0.000000 -1.118757 0.000000 0.000000
    28 -4.069948 -9.404345 -9.400972 -2.005760 1.053164 -1.016025
    29 0.089930 -8.543162 0.000000 -0.146769 -0.350507 0.427322
    30 0.000001 -0.359713 -0.000001 0.000000 0.000000 0.000000
    31 -0.170478 -2.636147 -0.277655 -1.692969 0.000000 0.000000
    32 0.010599 -1.261177 0.000001 -1.404983 0.000000 0.000000
    33 -0.000002 -0.943232 -0.000001 -1.370083 0.000000 0.000000
    34 -0.827562 -2.508972 -0.277656 -1.595199 0.000000 0.000000
    35 0.000000 -1.292970 0.000000 -1.439887 0.000000 0.000000
    36 0.000000 -0.752467 0.000000 -1.167619 0.000000 0.000000
    37 0.444215 -2.561960 -0.277655 -1.727307 -0.046226 -0.024599
    38 0.021022 -1.208185 0.000000 -1.370067 0.000000 0.000000
    39 0.010597 -0.741867 -0.000001 -1.082103 0.000000 0.000000
    40 1.047446 -2.222821 -0.277655 -1.508123 -0.078971 -0.038609
    41 0.000000 -0.996221 -0.000001 -1.387532 0.000000 0.000000
    42 -0.000001 -0.614690 0.000000 -1.183321 0.000000 0.000000
    43 -0.308254 -0.007814 0.307166 -0.241552 -0.531379 -1.938567
    44 1.978377 0.019543 0.000000 -0.099390 0.032995 0.869278
    45 0.982426 0.003187 0.000000 0.000000 0.000000 1.117011
  time 12
    0 7.126066 0.642142 -8.139369 -1.169996 -1.199160 0.987756
    1 0.000000 -8.563281 0.000001 0.057989 -0.012975 -0.320433
    2 -0.490616 -3.701483 0.535283 1.346881 1.541735 1.335142
    3 -0.025679 2.701181 0.658172 0.000000 0.000000 0.000000
    4 0.078127 -4.212791 2.901293 -0.046141 0.001450 0.091083
    5 0.000000 -1.548280 0.485224 0.000000 0.000000 0.000000
    6 0.000000 -0.980124 2.284383 0.000000 0.000000 0.000000
    7 0.000000 -2.905539 1.621534 0.000000 0.000000 0.000000
    8 -0.000001 -5.746315 1.557464 0.000000 0.000000 0.000000
    9 0.000000 -0.031566 -0.614062 0.157830 -0.024676 -0.007359
    10 0.000000 -0.000001 -0.824930 0.000000 0.000000 0.000000
    11 0.000000 -0.015647 -0.615740 0.000000 0.000000 0.000000
    12 -0.003480 -0.404829 0.000000 0.000000 0.000000 0.000000
    13 -0.519309 -2.501153 -0.278957 -0.867431 0.000000 -0.122173
    14 -0.010598 -1.208185 0.000000 -0.870926 0.000000 0.000000
    15 0.000000 -0.763066 0.000000 -1.322966 0.000000 0.000000
    16 0.105981 -2.607133 -0.278957 -0.890118 0.000000 -0.148353
    17 0.000000 -1.250578 0.000000 -1.213004 0.000000 0.000000
    18 0.000000 -0.932634 -0.000001 -1.221739 0.000000 0.000000
    19 0.763064 -2.490555 -0.278957 0.090743 0.000000 0.130900
    20 -0.012322 -1.280915 0.000000 -1.265352 0.000000 0.000000
    21 -0.001697 -0.749371 0.000000 -0.547587 0.000000 0.000000
    22 0.354567 0.016267 0.318133 0.357130 -0.522242 -1.116358
    23 1.887164 0.012878 0.000001 -0.304163 -0.028296 -0.491334
    24 1.001873 -0.000270 0.000000 0.000000 0.000000 -0.855205
    25 -1.123358 -2.195092 -0.278957 -0.556764 0.000000 -0.087266
    26 0.010772 -0.963791 0.000000 -0.568979 0.000000 0.000000
    27 -0.010412 -0.631916 0.000000 -1.118757 0.000000 0.000000
    28 -4.136356 -9.439503 -9.342377 -2.013058 1.057989 -1.021005
    29 0.089930 -8.543162 0.000000 -0.152460 -0.362122 0.422441
    30 0.000001 -0.359713 -0.000001 0.000000 0.000000 0.000000
    31 -0.170478 -2.636147 -0.277655 -1.692969 0.000000 0.000000
    32 0.010599 -1.261177 0.000001 -1.404983 0.000000 0.000000
    33 -0.000002 -0.943232 -0.000001 -1.370083 0.000000 0.000000
    34 -0.827562 -2.508972 -0.277656 -1.595199 0.000000 0.000000
    35 0.000000 -1.292970 0.000000 -1.439887 0.000000 0.000000
    36 0.000000 -0.752467 0.000000 -1.167619 0.000000 0.000000
    37 0.444215 -2.561960 -0.277655 -1.727307 -0.046226 -0.024599
    38 0.021022 -1.208185 0.000000 -1.370067 0.000000 0.000000
    39 0.010597 -0.741867 -0.000001 -1.082103 0.000000 0.000000
    40 1.047446 -2.222821 -0.277655 -1.508123 -0.078971 -0.038609
    41 0.000000 -0.996221 -0.000001 -1.387532 0.000000 0.000000
    42 -0.000001 -0.614690 0.000000 -1.183321 0.000000 0.000000
    43 -0.308254 -0.007814 0.307166 -0.241552 -0.531379 -1.938567
    44 1.978377 0.019543 0.000000 -0.099390 0.032995 0.869278
    45 0.982426 0.003187 0.000000 0.000000 0.000000 1.117011
  time 13
    0 7.110441 0.606984 -8.131556 -1.170073 -1.200300 0.986463
    1 0.000000 -8.563281 0.000001 0.063766 -0.013556 -0.321739
    2 -0.490616 -3.701483 0.535283 1.346881 1.541735 1.335142
    3 -0.025679 2.701181 0.658172 0.000000 0.000000 0.000000
    4 0.078127 -4.212791 2.901293 -0.046141 0.001450 0.091083
    5 0.000000 -1.548280 0.485224 0.000000 0.000000 0.000000
    6 0.000000 -0.980124 2.284383 0.000000 0.000000 0.000000
    7 0.000000 -2.905539 1.621534 0.000000 0.000000 0.000000
    8 -0.000001 -5.746315 1.557464 0.000000 0.000000 0.000000
    9 0.000000 -0.031566 -0.614062 0.214810 -0.035810 -0.007802
    10 0.000000 -0.000001 -0.824930 0.000000 0.000000 0.000000
    11 0.000000 -0.015647 -0.615740 0.000000 0.000000 0.000000
    12 -0.003480 -0.404829 0.000000 0.000000 0.000000 0.000000
    13 -0.519309 -2.501153 -0.278957 -0.867431 0.000000 -0.122173
    14 -0.010598 -1.208185 0.000000 -0.870926 0.000000 0.000000
    15 0.000000 -0.763066 0.000000 -1.322966 0.000000 0.000000
    16 0.105981 -2.607133 -0.278957 -0.890118 0.000000 -0.148353
    17 0.000000 -1.250578 0.000000 -1.213004 0.000000 0.000000
    18 0.000000 -0.932634 -0.000001 -1.221739 0.000000 0.000000
    19 0.763064 -2.490555 -0.278957 0.090743 0.000000 0.130900
    20 -0.012322 -1.280915 0.000000 -1.265352 0.000000 0.000000
    21 -0.001697 -0.749371 0.000000 -0.593412 0.000000 0.000000
    22 0.354567 0.016267 0.318133 0.357130 -0.522242 -1.116358
    23 1.887164 0.012878 0.000001 -0.304163 -0.028296 -0.491334
    24 1.001873 -0.000270 0.000000 0.000000 0.000000 -0.855205
    25 -1.123358 -2.195092 -0.278957 -0.556764 0.000000 -0.087266
    26 0.010772 -0.963791 0.000000 -0.568979 0.000000 0.000000
    27 -0.010412 -0.631916 0.000000 -1.118757 0.000000 0.000000
    28 -4.171514 -9.455128 -9.303313 -2.019123 1.061444 -1.024645
    29 0.089930 -8.543162 0.000000 -0.156673 -0.366933 0.418542
    30 0.000001 -0.359713 -0.000001 0.000000 0.000000 0.000000
    31 -0.170478 -2.636147 -0.277655 -1.692969 0.000000 0.000000
    32 0.010599 -1.261177 0.000001 -1.404983 0.000000 0.000000
    33 -0.000002 -0.943232 -0.000001 -1.370083 0.000000 0.000000
    34 -0.827562 -2.508972 -0.277656 -1.595199 0.000000 0.000000
    35 0.000000 -1.292970 0.000000 -1.439887 0.000000 0.000000
    36 0.000000 -0.752467 0.000000 -1.167619 0.000000 0.000000
    37 0.444215 -2.561960 -0.277655 -1.727307 -0.046226 -0.024599
    38 0.021022 -1.208185 0.000000 -1.370067 0.000000 0.000000
    39 0.010597 -0.741867 -0.000001 -1.082103 0.000000 0.000000
    40 1.047446 -2.222821 -0.277655 -1.508123 -0.078971 -0.038609
    41 0.000000 -0.996221 -0.000001 -1.387532 0.000000 0.000000
    42 -0.000001 -0.614690 0.000000 -1.183321 0.000000 0.000000
    43 -0.308254 -0.007814 0.307166 -0.241552 -0.531379 -1.938567
    44 1.978377 0.019543 0.000000 -0.099390 0.032995 0.869278
    45 0.982426 0.003187 0.000000 0.000000 0.000000 1.117011
  time 14
    0 7.094815 0.575733 -8.123743 -1.170536 -1.200883 0.985817
    1 0.000000 -8.563281 0.000001 0.068919 -0.014164 -0.323330
    2 -0.490616 -3.701483 0.535283 1.346881 1.541735 1.335142
    3 -0.025679 2.701181 0.658172 0.000000 0.000000 0.000000
    4 0.078127 -4.212791 2.901293 -0.046141 0.001450 0.091083
    5 0.000000 -1.548280 0.485224 0.000000 0.000000 0.000000
    6 0.000000 -0.980124 2.284383 0.000000 0.000000 0.000000
    7 0.000000 -2.905539 1.621534 0.000000 0.000000 0.000000
    8 -0.000001 -5.746315 1.557464 0.000000 0.000000 0.000000
    9 0.000000 -0.031566 -0.614062 0.261812 -0.039429 -0.008305
    10 0.000000 -0.000001 -0.824930 0.000000 0.000000 0.000000
    11 0.000000 -0.015647 -0.615740 0.000000 0.000000 0.000000
    12 -0.003480 -0.404829 0.000000 0.000000 0.000000 0.000000
    13 -0.519309 -2.501153 -0.278957 -0.867431 0.000000 -0.122173
    14 -0.010598 -1.208185 0.000000 -0.870926 0.000000 0.000000
    15 0.000000 -0.763066 0.000000 -1.322966 0.000000 0.000000
    16 0.105981 -2.607133 -0.278957 -0.890118 0.000000 -0.148353
    17 0.000000 -1.250578 0.000000 -1.213004 0.000000 0.000000
    18 0.000000 -0.932634 -0.000001 -1.221739 0.000000 0.000000
    19 0.763064 -2.490555 -0.278957 0.090743 0.000000 0.130900
    20 -0.012322 -1.280915 0.000000 -1.265352 0.000000 0.000000
    21 -0.001697 -0.749371 0.000000 -0.593412 0.000000 0.000000
    22 0.354567 0.016267 0.318133 0.357130 -0.522242 -1.116358
    23 1.887164 0.012878 0.000001 -0.304163 -0.028296 -0.491334
    24 1.001873 -0.000270 0.000000 0.000000 0.000000 -0.855205
    25 -1.123358 -2.195092 -0.278957 -0.556764 0.000000 -0.087266
    26 0.010772 -0.963791 0.000000 -0.568979 0.000000 0.000000
    27 -0.010412 -0.631916 0.000000 -1.118757 0.000000 0.000000
    28 -4.183233 -9.459034 -9.264249 -2.023578 1.063334 -1.026752
    29 0.089930 -8.543162 0.000000 -0.160750 -0.369793 0.414570
    30 0.000001 -0.359713 -0.000001 0.000000 0.000000 0.000000
    31 -0.170478 -2.636147 -0.277655 -1.692969 0.000000 0.000000
    32 0.010599 -1.261177 0.000001 -1.404983 0.000000 0.000000
    33 -0.000002 -0.943232 -0.000001 -1.370083 0.000000 0.000000
    34 -0.827562 -2.508972 -0.277656 -1.595199 0.000000 0.000000
    35 0.000000 -1.292970 0.000000 -1.439887 0.000000 0.000000
    36 0.000000 -0.752467 0.000000 -1.167619 0.000000 0.000000
    37 0.444215 -2.561960 -0.277655 -1.727307 -0.046226 -0.024599
    38 0.021022 -1.208185 0.000000 -1.370067 0.000000 0.000000
    39 0.010597 -0.741867 -0.000001 -1.082103 0.000000 0.000000
    40 1.047446 -2.222821 -0.277655 -1.508123 -0.078971 -0.038609
    41 0.000000 -0.996221 -0.000001 -1.387532 0.000000 0.000000
    42 -0.000001 -0.614690 0.000000 -1.183321 0.000000 0.000000
    43 -0.308254 -0.007814 0.307166 -0.241552 -0.531379 -1.938567
    44 1.978377 0.019543 0.000000 -0.099390 0.032995 0.869278
    45 0.982426 0.003187 0.000000 0.000000 0.000000 1.117011
  time 15
    0 7.079190 0.548389 -8.115930 -1.171309 -1.201035 0.985688
    1 0.000000 -8.563281 0.000001 0.073533 -0.014717 -0.324750
    2 -0.490616 -3.701483 0.535283 1.346881 1.541735 1.335142
    3 -0.025679 2.701181 0.658172 0.000000 0.000000 0.000000
    4 0.078127 -4.212791 2.901293 -0.046141 0.001450 0.091083
    5 0.000000 -1.548280 0.485224 0.000000 0.000000 0.000000
    6 0.000000 -0.980124 2.284383 0.000000 0.000000 0.000000
    7 0.000000 -2.905539 1.621534 0.000000 0.000000 0.000000
    8 -0.000001 -5.746315 1.557464 0.000000 0.000000 0.000000
    9 0.000000 -0.031566 -0.614062 0.301320 -0.035810 -0.008233
    10 0.000000 -0.000001 -0.824930 0.000000 0.000000 0.000000
    11 0.000000 -0.015647 -0.615740 0.000000 0.000000 0.000000
    12 -0.003480 -0.404829 0.000000 0.000000 0.000000 0.000000
    13 -0.519309 -2.501153 -0.278957 -0.867431 0.000000 -0.122173
    14 -0.010598 -1.208185 0.000000 -0.870926 0.000000 0.000000
    15 0.000000 -0.763066 0.000000 -1.322966 0.000000 0.000000
    16 0.105981 -2.607133 -0.278957 -0.890118 0.000000 -0.148353
    17 0.000000 -1.250578 0.000000 -1.213004 0.000000 0.000000
    18 0.000000 -0.932634 -0.000001 -1.221739 0.000000 0.000000
    19 0.763064 -2.490555 -0.278957 0.090743 0.000000 0.130900
    20 -0.012322 -1.280915 0.000000 -1.265352 0.000000 0.000000
    21 -0.001697 -0.749371 0.000000 -0.593412 0.000000 0.000000
    22 0.354567 0.016267 0.318133 0.357130 -0.522242 -1.116358
    23 1.887164 0.012878 0.000001 -0.304163 -0.028296 -0.491334
    24 1.001873 -0.000270 0.000000 0.000000 0.000000 -0.855205
    25 -1.123358 -2.195092 -0.278957 -0.556764 0.000000 -0.087266
    26 0.010772 -0.963791 0.000000 -0.568979 0.000000 0.000000
    27 -0.010412 -0.631916 0.000000 -1.118757 0.000000 0.000000
    28 -4.191046 -9.474660 -9.240811 -2.025947 1.063204 -1.026847
    29 0.089930 -8.543162 0.000000 -0.164717 -0.370985 0.410574
    30 0.000001 -0.359713 -0.000001 0.000000 0.000000 0.000000
    31 -0.170478 -2.636147 -0.277655 -1.692969 0.000000 0.000000
    32 0.010599 -1.261177 0.000001 -1.404983 0.000000 0.000000
    33 -0.000002 -0.943232 -0.000001 -1.370083 0.000000 0.000000
    34 -0.827562 -2.508972 -0.277656 -1.595199 0.000000 0.000000
    35 0.000000 -1.292970 0.000000 -1.439887 0.000000 0.000000
    36 0.000000 -0.752467 0.000000 -1.167619 0.000000 0.000000
    37 0.444215 -2.561960 -0.277655 -1.727307 -0.046226 -0.024599
    38 0.021022 -1.208185 0.000000 -1.370067 0.000000 0.000000
    39 0.010597 -0.741867 -0.000001 -1.082103 0.000000 0.000000
    40 1.047446 -2.222821 -0.277655 -1.508123 -0.078971 -0.038609
    41 0.000000 -0.996221 -0.000001 -1.387532 0.000000 0.000000
    42 -0.000001 -0.614690 0.000000 -1.183321 0.000000 0.000000
    43 -0.308254 -0.007814 0.307166 -0.241552 -0.531379 -1.938567
    44 1.978377 0.019543 0.000000 -0.099390 0.032995 0.869278
    45 0.982426 0.003187 0.000000 0.000000 0.000000 1.117011
  time 16
    0 7.067471 0.532763 -8.115930 -1.172468 -1.200655 0.986205
    1 0.000000 -8.563281 0.000001 0.077752 -0.015077 -0.325489
    2 -0.490616 -3.701483 0.535283 1.346881 1.541735 1.335142
    3 -0.025679 2.701181 0.658172 0.000000 0.000000 0.000000
    4 0.078127 -4.212791 2.901293 -0.046141 0.001450 0.091083
    5 0.000000 -1.548280 0.485224 0.000000 0.000000 0.000000
    6 0.000000 -0.980124 2.284383 0.000000 0.000000 0.000000
    7 0.000000 -2.905539 1.621534 0.000000 0.000000 0.000000
    8 -0.000001 -5.746315 1.557464 0.000000 0.000000 0.000000
    9 0.000000 -0.031566 -0.614062 0.329396 -0.028284 -0.007478
    10 0.000000 -0.000001 -0.824930 0.000000 0.000000 0.000000
    11 0.000000 -0.015647 -0.615740 0.000000 0.000000 0.000000
    12 -0.003480 -0.404829 0.000000 0.000000 0.000000 0.000000
    13 -0.519309 -2.501153 -0.278957 -0.867431 0.000000 -0.122173
    14 -0.010598 -1.208185 0.000000 -0.870926 0.000000 0.000000
    15 0.000000 -0.763066 0.000000 -1.322966 0.000000 0.000000
    16 0.105981 -2.607133 -0.278957 -0.890118 0.000000 -0.148353
    17 0.000000 -1.250578 0.000000 -1.213004 0.000000 0.000000
    18 0.000000 -0.932634 -0.000001 -1.221739 0.000000 0.000000
    19 0.763064 -2.490555 -0.278957 0.090743 0.000000 0.130900
    20 -0.012322 -1.280915 0.000000 -1.265352 0.000000 0.000000
    21 -0.001697 -0.749371 0.000000 -0.593412 0.000000 0.000000
    22 0.354567 0.016267 0.318133 0.357130 -0.522242 -1.116358
    23 1.887164 0.012878 0.000001 -0.304163 -0.028296 -0.491334
    24 1.001873 -0.000270 0.000000 0.000000 0.000000 -0.855205
    25 -1.123358 -2.195092 -0.278957 -0.556764 0.000000 -0.087266
    26 0.010772 -0.963791 0.000000 -0.568979 0.000000 0.000000
    27 -0.010412 -0.631916 0.000000 -1.118757 0.000000 0.000000
    28 -4.194952 -9.498098 -9.232998 -2.026042 1.060792 -1.024645
    29 0.089930 -8.543162 0.000000 -0.168547 -0.370725 0.406579
    30 0.000001 -0.359713 -0.000001 0.000000 0.000000 0.000000
    31 -0.170478 -2.636147 -0.277655 -1.692969 0.000000 0.000000
    32 0.010599 -1.261177 0.000001 -1.404983 0.000000 0.000000
    33 -0.000002 -0.943232 -0.000001 -1.370083 0.000000 0.000000
    34 -0.827562 -2.508972 -0.277656 -1.595199 0.000000 0.000000
    35 0.000000 -1.292970 0.000000 -1.439887 0.000000 0.000000
    36 0.000000 -0.752467 0.000000 -1.167619 0.000000 0.000000
    37 0.444215 -2.561960 -0.277655 -1.727307 -0.046226 -0.024599
    38 0.021022 -1.208185 0.000000 -1.370067 0.000000 0.000000
    39 0.010597 -0.741867 -0.000001 -1.082103 0.000000 0.000000
    40 1.047446 -2.222821 -0.277655 -1.508123 -0.078971 -0.038609
    41 0.000000 -0.996221 -0.000001 -1.387532 0.000000 0.000000
    42 -0.000001 -0.614690 0.000000 -1.183321 0.000000 0.000000
    43 -0.308254 -0.007814 0.307166 -0.241552 -0.531379 -1.938567
    44 1.978377 0.019543 0.000000 -0.099390 0.032995 0.869278
    45 0.982426 0.003187 0.000000 0.000000 0.000000 1.117011
  time 17
    0 7.063564 0.528857 -8.119837 -1.174091 -1.199515 0.987497
    1 0.000000 -8.563281 0.000001 0.081635 -0.015270 -0.325072
    2 -0.490616 -3.701483 0.535283 1.346881 1.541735 1.335142
    3 -0.025679 2.701181 0.658172 0.000000 0.000000 0.000000
    4 0.078127 -4.212791 2.901293 -0.046141 0.001450 0.091083
    5 0.000000 -1.548280 0.485224 0.000000 0.000000 0.000000
    6 0.000000 -0.980124 2.284383 0.000000 0.000000 0.000000
    7 0.000000 -2.905539 1.621534 0.000000 0.000000 0.000000
    8 -0.000001 -5.746315 1.557464 0.000000 0.000000 0.000000
    9 0.000000 -0.031566 -0.614062 0.341991 -0.020170 -0.006304
    10 0.000000 -0.000001 -0.824930 0.000000 0.000000 0.000000
    11 0.000000 -0.015647 -0.615740 0.000000 0.000000 0.000000
    12 -0.003480 -0.404829 0.000000 0.000000 0.000000 0.000000
    13 -0.519309 -2.501153 -0.278957 -0.867431 0.000000 -0.122173
    14 -0.010598 -1.208185 0.000000 -0.870926 0.000000 0.000000
    15 0.000000 -0.763066 0.000000 -1.322966 0.000000 0.000000
    16 0.105981 -2.607133 -0.278957 -0.890118 0.000000 -0.148353
    17 0.000000 -1.250578 0.000000 -1.213004 0.000000 0.000000
    18 0.000000 -0.932634 -0.000001 -1.221739 0.000000 0.000000
    19 0.763064 -2.490555 -0.278957 0.090743 0.000000 0.130900
    20 -0.012322 -1.280915 0.000000 -1.265352 0.000000 0.000000
    21 -0.001697 -0.749371 0.000000 -0.593412 0.000000 0.000000
    22 0.354567 0.016267 0.318133 0.357130 -0.522242 -1.116358
    23 1.887164 0.012878 0.000001 -0.304163 -0.028296 -0.491334
    24 1.001873 -0.000270 0.000000 0.000000 0.000000 -0.855205
    25 -1.123358 -2.195092 -0.278957 -0.556764 0.000000 -0.087266
    26 0.010772 -0.963791 0.000000 -0.568979 0.000000 0.000000
    27 -0.010412 -0.631916 0.000000 -1.118757 0.000000 0.000000
    28 -4.191046 -9.529349 -9.240811 -2.024146 1.055968 -1.020143
    29 0.089930 -8.543162 0.000000 -0.172323 -0.369273 0.402535
    30 0.000001 -0.359713 -0.000001 0.000000 0.000000 0.000000
    31 -0.170478 -2.636147 -0.277655 -1.692969 0.000000 0.000000
    32 0.010599 -1.261177 0.000001 -1.404983 0.000000 0.000000
    33 -0.000002 -0.943232 -0.000001 -1.370083 0.000000 0.000000
    34 -0.827562 -2.508972 -0.277656 -1.595199 0.000000 0.000000
    35 0.000000 -1.292970 0.000000 -1.439887 0.000000 0.000000
    36 0.000000 -0.752467 0.000000 -1.167619 0.000000 0.000000
    37 0.444215 -2.561960 -0.277655 -1.727307 -0.046226 -0.024599
    38 0.021022 -1.208185 0.000000 -1.370067 0.000000 0.000000
    39 0.010597 -0.741867 -0.000001 -1.082103 0.000000 0.000000
    40 1.047446 -2.222821 -0.277655 -1.508123 -0.078971 -0.038609
    41 0.000000 -0.996221 -0.000001 -1.387532 0.000000 0.000000
    42 -0.000001 -0.614690 0.000000 -1.183321 0.000000 0.000000
    43 -0.308254 -0.007814 0.307166 -0.241552 -0.531379 -1.938567
    44 1.978377 0.019543 0.000000 -0.099390 0.032995 0.869278
    45 0.982426 0.003187 0.000000 0.000000 0.000000 1.117011
  time 18
    0 7.059658 0.536670 -8.127650 -1.176177 -1.197767 0.989565
    1 0.000000 -8.563281 0.000001 0.084571 -0.015298 -0.323860
    2 -0.490616 -3.701483 0.535283 1.346881 1.541735 1.335142
    3 -0.025679 2.701181 0.658172 0.000000 0.000000 0.000000
    4 0.078127 -4.212791 2.901293 -0.046141 0.001450 0.091083
    5 0.000000 -1.548280 0.485224 0.000000 0.000000 0.000000
    6 0.000000 -0.980124 2.284383 0.000000 0.000000 0.000000
    7 0.000000 -2.905539 1.621534 0.000000 0.000000 0.000000
    8 -0.000001 -5.746315 1.557464 0.000000 0.000000 0.000000
    9 0.000000 -0.031566 -0.614062 0.335123 -0.014825 -0.005153
    10 0.000000 -0.000001 -0.824930 0.000000 0.000000 0.000000
    11 0.000000 -0.015647 -0.615740 0.000000 0.000000 0.000000
    12 -0.003480 -0.404829 0.000000 0.000000 0.000000 0.000000
    13 -0.519309 -2.501153 -0.278957 -0.867431 0.000000 -0.122173
    14 -0.010598 -1.208185 0.000000 -0.870926 0.000000 0.000000
    15 0.000000 -0.763066 0.000000 -1.322966 0.000000 0.000000
    16 0.105981 -2.607133 -0.278957 -0.890118 0.000000 -0.148353
    17 0.000000 -1.250578 0.000000 -1.213004 0.000000 0.000000
    18 0.000000 -0.932634 -0.000001 -1.221739 0.000000 0.000000
    19 0.763064 -2.490555 -0.278957 0.090743 0.000000 0.130900
    20 -0.012322 -1.280915 0.000000 -1.265352 0.000000 0.000000
    21 -0.001697 -0.749371 0.000000 -0.593412 0.000000 0.000000
    22 0.354567 0.016267 0.318133 0.357130 -0.522242 -1.116358
    23 1.887164 0.012878 0.000001 -0.304163 -0.028296 -0.491334
    24 1.001873 -0.000270 0.000000 0.000000 0.000000 -0.855205
    25 -1.123358 -2.195092 -0.278957 -0.556764 0.000000 -0.087266
    26 0.010772 -0.963791 0.000000 -0.568979 0.000000 0.000000
    27 -0.010412 -0.631916 0.000000 -1.118757 0.000000 0.000000
    28 -4.179327 -9.568413 -9.260343 -2.020735 1.049187 -1.013822
    29 0.089930 -8.543162 0.000000 -0.176071 -0.366911 0.398444
    30 0.000001 -0.359713 -0.000001 0.000000 0.000000 0.000000
    31 -0.170478 -2.636147 -0.277655 -1.692969 0.000000 0.000000
    32 0.010599 -1.261177 0.000001 -1.404983 0.000000 0.000000
    33 -0.000002 -0.943232 -0.000001 -1.370083 0.000000 0.000000
    34 -0.827562 -2.508972 -0.277656 -1.595199 0.000000 0.000000
    35 0.000000 -1.292970 0.000000 -1.439887 0.000000 0.000000
    36 0.000000 -0.752467 0.000000 -1.167619 0.000000 0.000000
    37 0.444215 -2.561960 -0.277655 -1.727307 -0.046226 -0.024599
    38 0.021022 -1.208185 0.000000 -1.370067 0.000000 0.000000
    39 0.010597 -0.741867 -0.000001 -1.082103 0.000000 0.000000
    40 1.047446 -2.222821 -0.277655 -1.508123 -0.078971 -0.038609
    41 0.000000 -0.996221 -0.000001 -1.387532 0.000000 0.000000
    42 -0.000001 -0.614690 0.000000 -1.183321 0.000000 0.000000
    43 -0.308254 -0.007814 0.307166 -0.241552 -0.531379 -1.938567
    44 1.978377 0.019543 0.000000 -0.099390 0.032995 0.869278
    45 0.982426 0.003187 0.000000 0.000000 0.000000 1.117011
  time 19
    0 7.059658 0.548389 -8.139369 -1.178495 -1.195563 0.992021
    1 0.000000 -8.563281 0.000001 0.086117 -0.015160 -0.322610
    2 -0.490616 -3.701483 0.535283 1.346881 1.541735 1.335142
    3 -0.025679 2.701181 0.658172 0.000000 0.000000 0.000000
    4 0.078127 -4.212791 2.901293 -0.046141 0.001450 0.091083
    5 0.000000 -1.548280 0.485224 0.000000 0.000000 0.000000
    6 0.000000 -0.980124 2.284383 0.000000 0.000000 0.000000
    7 0.000000 -2.905539 1.621534 0.000000 0.000000 0.000000
    8 -0.000001 -5.746315 1.557464 0.000000 0.000000 0.000000
    9 0.000000 -0.031566 -0.614062 0.309284 -0.012152 -0.004207
    10 0.000000 -0.000001 -0.824930 0.000000 0.000000 0.000000
    11 0.000000 -0.015647 -0.615740 0.000000 0.000000 0.000000
    12 -0.003480 -0.404829 0.000000 0.000000 0.000000 0.000000
    13 -0.519309 -2.501153 -0.278957 -0.867431 0.000000 -0.122173
    14 -0.010598 -1.208185 0.000000 -0.870926 0.000000 0.000000
    15 0.000000 -0.763066 0.000000 -1.322966 0.000000 0.000000
    16 0.105981 -2.607133 -0.278957 -0.890118 0.000000 -0.148353
    17 0.000000 -1.250578 0.000000 -1.213004 0.000000 0.000000
    18 0.000000 -0.932634 -0.000001 -1.221739 0.000000 0.000000
    19 0.763064 -2.490555 -0.278957 0.090743 0.000000 0.130900
    20 -0.012322 -1.280915 0.000000 -1.265352 0.000000 0.000000
    21 -0.001697 -0.749371 0.000000 -0.593412 0.000000 0.000000
    22 0.354567 0.016267 0.318133 0.357130 -0.522242 -1.116358
    23 1.887164 0.012878 0.000001 -0.304163 -0.028296 -0.491334
    24 1.001873 -0.000270 0.000000 0.000000 0.000000 -0.855205
    25 -1.123358 -2.195092 -0.278957 -0.556764 0.000000 -0.087266
    26 0.010772 -0.963791 0.000000 -0.568979 0.000000 0.000000
    27 -0.010412 -0.631916 0.000000 -1.118757 0.000000 0.000000
    28 -4.163701 -9.611383 -9.295500 -2.016280 1.040843 -1.006256
    29 0.089930 -8.543162 0.000000 -0.179765 -0.363899 0.394352
    30 0.000001 -0.359713 -0.000001 0.000000 0.000000 0.000000
    31 -0.170478 -2.636147 -0.277655 -1.692969 0.000000 0.000000
    32 0.010599 -1.261177 0.000001 -1.404983 0.000000 0.000000
    33 -0.000002 -0.943232 -0.000001 -1.370083 0.000000 0.000000
    34 -0.827562 -2.508972 -0.277656 -1.595199 0.000000 0.000000
    35 0.000000 -1.292970 0.000000 -1.439887 0.000000 0.000000
    36 0.000000 -0.752467 0.000000 -1.167619 0.000000 0.000000
    37 0.444215 -2.561960 -0.277655 -1.727307 -0.046226 -0.024599
    38 0.021022 -1.208185 0.000000 -1.370067 0.000000 0.000000
    39 0.010597 -0.741867 -0.000001 -1.082103 0.000000 0.000000
    40 1.047446 -2.222821 -0.277655 -1.508123 -0.078971 -0.038609
    41 0.000000 -0.996221 -0.000001 -1.387532 0.000000 0.000000
    42 -0.000001 -0.614690 0.000000 -1.183321 0.000000 0.000000
    43 -0.308254 -0.007814 0.307166 -0.241552 -0.531379 -1.938567
    44 1.978377 0.019543 0.000000 -0.099390 0.032995 0.869278
    45 0.982426 0.003187 0.000000 0.000000 0.000000 1.117011
  time 20
    0 7.059658 0.564014 -8.151088 -1.180967 -1.192979 0.994929
    1 0.000000 -8.563281 0.000001 0.086585 -0.014966 -0.321266
    2 -0.490616 -3.701483 0.535283 1.346881 1.541735 1.335142
    3 -0.025679 2.701181 0.658172 0.000000 0.000000 0.000000
    4 0.078127 -4.212791 2.901293 -0.046141 0.001450 0.091083
    5 0.000000 -1.548280 0.485224 0.000000 0.000000 0.000000
    6 0.000000 -0.980124 2.284383 0.000000 0.000000 0.000000
    7 0.000000 -2.905539 1.621534 0.000000 0.000000 0.000000
    8 -0.000001 -5.746315 1.557464 0.000000 0.000000 0.000000
    9 0.000000 -0.031566 -0.614062 0.269933 -0.009863 -0.003272
    10 0.000000 -0.000001 -0.824930 0.000000 0.000000 0.000000
    11 0.000000 -0.015647 -0.615740 0.000000 0.000000 0.000000
    12 -0.003480 -0.404829 0.000000 0.000000 0.000000 0.000000
    13 -0.519309 -2.501153 -0.278957 -0.867431 0.000000 -0.122173
    14 -0.010598 -1.208185 0.000000 -0.870926 0.000000 0.000000
    15 0.000000 -0.763066 0.000000 -1.322966 0.000000 0.000000
    16 0.105981 -2.607133 -0.278957 -0.890118 0.000000 -0.148353
    17 0.000000 -1.250578 0.000000 -1.213004 0.000000 0.000000
    18 0.000000 -0.932634 -0.000001 -1.221739 0.000000 0.000000
    19 0.763064 -2.490555 -0.278957 0.090743 0.000000 0.130900
    20 -0.012322 -1.280915 0.000000 -1.265352 0.000000 0.000000
    21 -0.001697 -0.749371 0.000000 -0.593412 0.000000 0.000000
    22 0.354567 0.016267 0.318133 0.357130 -0.522242 -1.116358
    23 1.887164 0.012878 0.000001 -0.304163 -0.028296 -0.491334
    24 1.001873 -0.000270 0.000000 0.000000 0.000000 -0.855205
    25 -1.123358 -2.195092 -0.278957 -0.556764 0.000000 -0.087266
    26 0.010772 -0.963791 0.000000 -0.568979 0.000000 0.000000
    27 -0.010412 -0.631916 0.000000 -1.118757 0.000000 0.000000
    28 -4.140263 -9.662166 -9.342377 -2.011162 1.031390 -0.997923
    29 0.089930 -8.543162 0.000000 -0.183458 -0.360432 0.390237
    30 0.000001 -0.359713 -0.000001 0.000000 0.000000 0.000000
    31 -0.170478 -2.636147 -0.277655 -1.692969 0.000000 0.000000
    32 0.010599 -1.261177 0.000001 -1.404983 0.000000 0.000000
    33 -0.000002 -0.943232 -0.000001 -1.370083 0.000000 0.000000
    34 -0.827562 -2.508972 -0.277656 -1.595199 0.000000 0.000000
    35 0.000000 -1.292970 0.000000 -1.439887 0.000000 0.000000
    36 0.000000 -0.752467 0.000000 -1.167619 0.000000 0.000000
    37 0.444215 -2.561960 -0.277655 -1.727307 -0.046226 -0.024599
    38 0.021022 -1.208185 0.000000 -1.370067 0.000000 0.000000
    39 0.010597 -0.741867 -0.000001 -1.082103 0.000000 0.000000
    40 1.047446 -2.222821 -0.277655 -1.508123 -0.078971 -0.038609
    41 0.000000 -0.996221 -0.000001 -1.387532 0.000000 0.000000
    42 -0.000001 -0.614690 0.000000 -1.183321 0.000000 0.000000
    43 -0.308254 -0.007814 0.307166 -0.241552 -0.531379 -1.938567
    44 1.978377 0.019543 0.000000 -0.099390 0.032995 0.869278
    45 0.982426 0.003187 0.000000 0.000000 0.000000 1.117011
  time 21
    0 7.059658 0.587453 -8.166713 -1.183594 -1.190218 0.997967
    1 0.000000 -8.563281 0.000001 0.086273 -0.014662 -0.319903
    2 -0.490616 -3.701483 0.535283 1.346881 1.541735 1.335142
    3 -0.025679 2.701181 0.658172 0.000000 0.000000 0.000000
    4 0.078127 -4.212791 2.901293 -0.046141 0.001450 0.091083
    5 0.000000 -1.548280 0.485224 0.000000 0.000000 0.000000
    6 0.000000 -0.980124 2.284383 0.000000 0.000000 0.000000
    7 0.000000 -2.905539 1.621534 0.000000 0.000000 0.000000
    8 -0.000001 -5.746315 1.557464 0.000000 0.000000 0.000000
    9 0.000000 -0.031566 -0.614062 0.220850 -0.007838 -0.002421
    10 0.000000 -0.000001 -0.824930 0.000000 0.000000 0.000000
    11 0.000000 -0.015647 -0.615740 0.000000 0.000000 0.000000
    12 -0.003480 -0.404829 0.000000 0.000000 0.000000 0.000000
    13 -0.519309 -2.501153 -0.278957 -0.867431 0.000000 -0.122173
    14 -0.010598 -1.208185 0.000000 -0.870926 0.000000 0.000000
    15 0.000000 -0.763066 0.000000 -1.322966 0.000000 0.000000
    16 0.105981 -2.607133 -0.278957 -0.890118 0.000000 -0.148353
    17 0.000000 -1.250578 0.000000 -1.213004 0.000000 0.000000
    18 0.000000 -0.932634 -0.000001 -1.221739 0.000000 0.000000
    19 0.763064 -2.490555 -0.278957 0.090743 0.000000 0.130900
    20 -0.012322 -1.280915 0.000000 -1.265352 0.000000 0.000000
    21 -0.001697 -0.749371 0.000000 -0.593412 0.000000 0.000000
    22 0.354567 0.016267 0.318133 0.357130 -0.522242 -1.116358
    23 1.887164 0.012878 0.000001 -0.304163 -0.028296 -0.491334
    24 1.001873 -0.000270 0.000000 0.000000 0.000000 -0.855205
    25 -1.123358 -2.195092 -0.278957 -0.556764 0.000000 -0.087266
    26 0.010772 -0.963791 0.000000 -0.568979 0.000000 0.000000
    27 -0.010412 -0.631916 0.000000 -1.118757 0.000000 0.000000
    28 -4.109012 -9.716855 -9.404879 -2.005855 1.021285 -0.989112
    29 0.089930 -8.543162 0.000000 -0.187097 -0.356834 0.386122
    30 0.000001 -0.359713 -0.000001 0.000000 0.000000 0.000000
    31 -0.170478 -2.636147 -0.277655 -1.692969 0.000000 0.000000
    32 0.010599 -1.261177 0.000001 -1.404983 0.000000 0.000000
    33 -0.000002 -0.943232 -0.000001 -1.370083 0.000000 0.000000
    34 -0.827562 -2.508972 -0.277656 -1.595199 0.000000 0.000000
    35 0.000000 -1.292970 0.000000 -1.439887 0.000000 0.000000
    36 0.000000 -0.752467 0.000000 -1.167619 0.000000 0.000000
    37 0.444215 -2.561960 -0.277655 -1.727307 -0.046226 -0.024599
    38 0.021022 -1.208185 0.000000 -1.370067 0.000000 0.000000
    39 0.010597 -0.741867 -0.000001 -1.082103 0.000000 0.000000
    40 1.047446 -2.222821 -0.277655 -1.508123 -0.078971 -0.038609
    41 0.000000 -0.996221 -0.000001 -1.387532 0.000000 0.000000
    42 -0.000001 -0.614690 0.000000 -1.183321 0.000000 0.000000
    43 -0.308254 -0.007814 0.307166 -0.241552 -0.531379 -1.938567
    44 1.978377 0.019543 0.000000 -0.099390 0.032995 0.869278
    45 0.982426 0.003187 0.000000 0.000000 0.000000 1.117011
  time 22
    0 7.063564 0.614797 -8.182339 -1.186222 -1.187330 1.001069
    1 0.000000 -8.563281 0.000001 0.085554 -0.014358 -0.318501
    2 -0.490616 -3.701483 0.535283 1.346881 1.541735 1.335142
    3 -0.025679 2.701181 0.658172 0.000000 0.000000 0.000000
    4 0.078127 -4.212791 2.901293 -0.046141 0.001450 0.091083
    5 0.000000 -1.548280 0.485224 0.000000 0.000000 0.000000
    6 0.000000 -0.980124 2.284383 0.000000 0.000000 0.000000
    7 0.000000 -2.905539 1.621534 0.000000 0.000000 0.000000
    8 -0.000001 -5.746315 1.557464 0.000000 0.000000 0.000000
    9 0.000000 -0.031566 -0.614062 0.165615 -0.005920 -0.001654
    10 0.000000 -0.000001 -0.824930 0.000000 0.000000 0.000000
    11 0.000000 -0.015647 -0.615740 0.000000 0.000000 0.000000
    12 -0.003480 -0.404829 0.000000 0.000000 0.000000 0.000000
    13 -0.519309 -2.501153 -0.278957 -0.867431 0.000000 -0.122173
    14 -0.010598 -1.208185 0.000000 -0.870926 0.000000 0.000000
    15 0.000000 -0.763066 0.000000 -1.322966 0.000000 0.000000
    16 0.105981 -2.607133 -0.278957 -0.890118 0.000000 -0.148353
    17 0.000000 -1.250578 0.000000 -1.213004 0.000000 0.000000
    18 0.000000 -0.932634 -0.000001 -1.221739 0.000000 0.000000
    19 0.763064 -2.490555 -0.278957 0.090743 0.000000 0.130900
    20 -0.012322 -1.280915 0.000000 -1.265352 0.000000 0.000000
    21 -0.001697 -0.749371 0.000000 -0.593412 0.000000 0.000000
    22 0.354567 0.016267 0.318133 0.357130 -0.522242 -1.116358
    23 1.887164 0.012878 0.000001 -0.304163 -0.028296 -0.491334
    24 1.001873 -0.000270 0.000000 0.000000 0.000000 -0.855205
    25 -1.123358 -2.195092 -0.278957 -0.556764 0.000000 -0.087266
    26 0.010772 -0.963791 0.000000 -0.568979 0.000000 0.000000
    27 -0.010412 -0.631916 0.000000 -1.118757 0.000000 0.000000
    28 -4.069948 -9.779357 -9.479100 -2.000453 1.010854 -0.980301
    29 0.089930 -8.543162 0.000000 -0.190791 -0.353345 0.381983
    30 0.000001 -0.359713 -0.000001 0.000000 0.000000 0.000000
    31 -0.170478 -2.636147 -0.277655 -1.692969 0.000000 0.000000
    32 0.010599 -1.261177 0.000001 -1.404983 0.000000 0.000000
    33 -0.000002 -0.943232 -0.000001 -1.370083 0.000000 0.000000
    34 -0.827562 -2.508972 -0.277656 -1.595199 0.000000 0.000000
    35 0.000000 -1.292970 0.000000 -1.439887 0.000000 0.000000
    36 0.000000 -0.752467 0.000000 -1.167619 0.000000 0.000000
    37 0.444215 -2.561960 -0.277655 -1.727307 -0.046226 -0.024599
    38 0.021022 -1.208185 0.000000 -1.370067 0.000000 0.000000
    39 0.010597 -0.741867 -0.000001 -1.082103 0.000000 0.000000
    40 1.047446 -2.222821 -0.277655 -1.508123 -0.078971 -0.038609
    41 0.000000 -0.996221 -0.000001 -1.387532 0.000000 0.000000
    42 -0.000001 -0.614690 0.000000 -1.183321 0.000000 0.000000
    43 -0.308254 -0.007814 0.307166 -0.241552 -0.531379 -1.938567
    44 1.978377 0.019543 0.000000 -0.099390 0.032995 0.869278
    45 0.982426 0.003187 0.000000 0.000000 0.000000 1.117011
  time 23
    0 7.071377 0.646048 -8.201871 -1.188694 -1.184493 1.004171
    1 0.000000 -8.563281 0.000001 0.084703 -0.014026 -0.317100
    2 -0.490616 -3.701483 0.535283 1.346881 1.541735 1.335142
    3 -0.025679 2.701181 0.658172 0.000000 0.000000 0.000000
    4 0.078127 -4.212791 2.901293 -0.046141 0.001450 0.091083
    5 0.000000 -1.548280 0.485224 0.000000 0.000000 0.000000
    6 0.000000 -0.980124 2.284383 0.000000 0.000000 0.000000
    7 0.000000 -2.905539 1.621534 0.000000 0.000000 0.000000
    8 -0.000001 -5.746315 1.557464 0.000000 0.000000 0.000000
    9 0.000000 -0.031566 -0.614062 0.107942 -0.004051 -0.000983
    10 0.000000 -0.000001 -0.824930 0.000000 0.000000 0.000000
    11 0.000000 -0.015647 -0.615740 0.000000 0.000000 0.000000
    12 -0.003480 -0.404829 0.000000 0.000000 0.000000 0.000000
    13 -0.519309 -2.501153 -0.278957 -0.867431 0.000000 -0.122173
    14 -0.010598 -1.208185 0.000000 -0.870926 0.000000 0.000000
    15 0.000000 -0.763066 0.000000 -1.322966 0.000000 0.000000
    16 0.105981 -2.607133 -0.278957 -0.890118 0.000000 -0.148353
    17 0.000000 -1.250578 0.000000 -1.213004 0.000000 0.000000
    18 0.000000 -0.932634 -0.000001 -1.221739 0.000000 0.000000
    19 0.763064 -2.490555 -0.278957 0.090743 0.000000 0.130900
    20 -0.012322 -1.280915 0.000000 -1.265352 0.000000 0.000000
    21 -0.001697 -0.749371 0.000000 -0.593412 0.000000 0.000000
    22 0.354567 0.016267 0.318133 0.357130 -0.522242 -1.116358
    23 1.887164 0.012878 0.000001 -0.304163 -0.028296 -0.491334
    24 1.001873 -0.000270 0.000000 0.000000 0.000000 -0.855205
    25 -1.123358 -2.195092 -0.278957 -0.556764 0.000000 -0.087266
    26 0.010772 -0.963791 0.000000 -0.568979 0.000000 0.000000
    27 -0.010412 -0.631916 0.000000 -1.118757 0.000000 0.000000
    28 -4.023072 -9.849671 -9.565040 -1.995525 1.000488 -0.971873
    29 0.089930 -8.543162 0.000000 -0.194539 -0.350181 0.377844
    30 0.000001 -0.359713 -0.000001 0.000000 0.000000 0.000000
    31 -0.170478 -2.636147 -0.277655 -1.692969 0.000000 0.000000
    32 0.010599 -1.261177 0.000001 -1.404983 0.000000 0.000000
    33 -0.000002 -0.943232 -0.000001 -1.370083 0.000000 0.000000
    34 -0.827562 -2.508972 -0.277656 -1.595199 0.000000 0.000000
    35 0.000000 -1.292970 0.000000 -1.439887 0.000000 0.000000
    36 0.000000 -0.752467 0.000000 -1.167619 0.000000 0.000000
    37 0.444215 -2.561960 -0.277655 -1.727307 -0.046226 -0.024599
    38 0.021022 -1.208185 0.000000 -1.370067 0.000000 0.000000
    39 0.010597 -0.741867 -0.000001 -1.082103 0.000000 0.000000
    40 1.047446 -2.222821 -0.277655 -1.508123 -0.078971 -0.038609
    41 0.000000 -0.996221 -0.000001 -1.387532 0.000000 0.000000
    42 -0.000001 -0.614690 0.000000 -1.183321 0.000000 0.000000
    43 -0.308254 -0.007814 0.307166 -0.241552 -0.531379 -1.938567
    44 1.978377 0.019543 0.000000 -0.099390 0.032995 0.869278
    45 0.982426 0.003187 0.000000 0.000000 0.000000 1.117011
  time 24
    0 7.079190 0.685112 -8.225309 -1.191167 -1.181858 1.006949
    1 0.000000 -8.563281 0.000001 0.084092 -0.013722 -0.315717
    2 -0.490616 -3.701483 0.535283 1.346881 1.541735 1.335142
    3 -0.025679 2.701181 0.658172 0.000000 0.000000 0.000000
    4 0.078127 -4.212791 2.901293 -0.046141 0.001450 0.091083
    5 0.000000 -1.548280 0.485224 0.000000 0.000000 0.000000
    6 0.000000 -0.980124 2.284383 0.000000 0.000000 0.000000
    7 0.000000 -2.905539 1.621534 0.000000 0.000000 0.000000
    8 -0.000001 -5.746315 1.557464 0.000000 0.000000 0.000000
    9 0.000000 -0.031566 -0.614062 0.051499 -0.002097 -0.000419
    10 0.000000 -0.000001 -0.824930 0.000000 0.000000 0.000000
    11 0.000000 -0.015647 -0.615740 0.000000 0.000000 0.000000
    12 -0.003480 -0.404829 0.000000 0.000000 0.000000 0.000000
    13 -0.519309 -2.501153 -0.278957 -0.867431 0.000000 -0.122173
    14 -0.010598 -1.208185 0.000000 -0.870926 0.000000 0.000000
    15 0.000000 -0.763066 0.000000 -1.322966 0.000000 0.000000
    16 0.105981 -2.607133 -0.278957 -0.890118 0.000000 -0.148353
    17 0.000000 -1.250578 0.000000 -1.213004 0.000000 0.000000
    18 0.000000 -0.932634 -0.000001 -1.221739 0.000000 0.000000
    19 0.763064 -2.490555 -0.278957 0.090743 0.000000 0.130900
    20 -0.012322 -1.280915 0.000000 -1.265352 0.000000 0.000000
    21 -0.001697 -0.749371 0.000000 -0.593412 0.000000 0.000000
    22 0.354567 0.016267 0.318133 0.357130 -0.522242 -1.116358
    23 1.887164 0.012878 0.000001 -0.304163 -0.028296 -0.491334
    24 1.001873 -0.000270 0.000000 0.000000 0.000000 -0.855205
    25 -1.123358 -2.195092 -0.278957 -0.556764 0.000000 -0.087266
    26 0.010772 -0.963791 0.000000 -0.568979 0.000000 0.000000
    27 -0.010412 -0.631916 0.000000 -1.118757 0.000000 0.000000
    28 -3.972289 -9.923892 -9.666605 -1.991071 0.990709 -0.964115
    29 0.089930 -8.543162 0.000000 -0.198287 -0.347646 0.373704
    30 0.000001 -0.359713 -0.000001 0.000000 0.000000 0.000000
    31 -0.170478 -2.636147 -0.277655 -1.692969 0.000000 0.000000
    32 0.010599 -1.261177 0.000001 -1.404983 0.000000 0.000000
    33 -0.000002 -0.943232 -0.000001 -1.370083 0.000000 0.000000
    34 -0.827562 -2.508972 -0.277656 -1.595199 0.000000 0.000000
    35 0.000000 -1.292970 0.000000 -1.439887 0.000000 0.000000
    36 0.000000 -0.752467 0.000000 -1.167619 0.000000 0.000000
    37 0.444215 -2.561960 -0.277655 -1.727307 -0.046226 -0.024599
    38 0.021022 -1.208185 0.000000 -1.370067 0.000000 0.000000
    39 0.010597 -0.741867 -0.000001 -1.082103 0.000000 0.000000
    40 1.047446 -2.222821 -0.277655 -1.508123 -0.078971 -0.038609
    41 0.000000 -0.996221 -0.000001 -1.387532 0.000000 0.000000
    42 -0.000001 -0.614690 0.000000 -1.183321 0.000000 0.000000
    43 -0.308254 -0.007814 0.307166 -0.241552 -0.531379 -1.938567
    44 1.978377 0.019543 0.000000 -0.099390 0.032995 0.869278
    45 0.982426 0.003187 0.000000 0.000000 0.000000 1.117011
  time 25
    0 7.087003 0.728082 -8.244841 -1.193330 -1.179502 1.009470
    1 0.000000 -8.563281 0.000001 0.084008 -0.013473 -0.314373
    2 -0.490616 -3.701483 0.535283 1.346881 1.541735 1.335142
    3 -0.025679 2.701181 0.658172 0.000000 0.000000 0.000000
    4 0.078127 -4.212791 2.901293 -0.046141 0.001450 0.091083
    5 0.000000 -1.548280 0.485224 0.000000 0.000000 0.000000
    6 0.000000 -0.980124 2.284383 0.000000 0.000000 0.000000
    7 0.000000 -2.905539 1.621534 0.000000 0.000000 0.000000
    8 -0.000001 -5.746315 1.557464 0.000000 0.000000 0.000000
    9 0.000000 -0.031566 -0.614062 0.000000 0.000000 0.000000
    10 0.000000 -0.000001 -0.824930 0.000000 0.000000 0.000000
    11 0.000000 -0.015647 -0.615740 0.000000 0.000000 0.000000
    12 -0.003480 -0.404829 0.000000 0.000000 0.000000 0.000000
    13 -0.519309 -2.501153 -0.278957 -0.867431 0.000000 -0.122173
    14 -0.010598 -1.208185 0.000000 -0.870926 0.000000 0.000000
    15 0.000000 -0.763066 0.000000 -1.322966 0.000000 0.000000
    16 0.105981 -2.607133 -0.278957 -0.890118 0.000000 -0.148353
    17 0.000000 -1.250578 0.000000 -1.213004 0.000000 0.000000
    18 0.000000 -0.932634 -0.000001 -1.221739 0.000000 0.000000
    19 0.763064 -2.490555 -0.278957 0.090743 0.000000 0.130900
    20 -0.012322 -1.280915 0.000000 -1.265352 0.000000 0.000000
    21 -0.001697 -0.749371 0.000000 -0.593412 0.000000 0.000000
    22 0.354567 0.016267 0.318133 0.357130 -0.522242 -1.116358
    23 1.887164 0.012878 0.000001 -0.304163 -0.028296 -0.491334
    24 1.001873 -0.000270 0.000000 0.000000 0.000000 -0.855205
    25 -1.123358 -2.195092 -0.278957 -0.556764 0.000000 -0.087266
    26 0.010772 -0.963791 0.000000 -0.568979 0.000000 0.000000
    27 -0.010412 -0.631916 0.000000 -1.118757 0.000000 0.000000
    28 -3.909787 -10.005926 -9.779890 -1.987564 0.981908 -0.957315
    29 0.089930 -8.543162 0.000000 -0.202090 -0.345999 0.369613
    30 0.000001 -0.359713 -0.000001 0.000000 0.000000 0.000000
    31 -0.170478 -2.636147 -0.277655 -1.692969 0.000000 0.000000
    32 0.010599 -1.261177 0.000001 -1.404983 0.000000 0.000000
    33 -0.000002 -0.943232 -0.000001 -1.370083 0.000000 0.000000
    34 -0.827562 -2.508972 -0.277656 -1.595199 0.000000 0.000000
    35 0.000000 -1.292970 0.000000 -1.439887 0.000000 0.000000
    36 0.000000 -0.752467 0.000000 -1.167619 0.000000 0.000000
    37 0.444215 -2.561960 -0.277655 -1.727307 -0.046226 -0.024599
    38 0.021022 -1.208185 0.000000 -1.370067 0.000000 0.000000
    39 0.010597 -0.741867 -0.000001 -1.082103 0.000000 0.000000
    40 1.047446 -2.222821 -0.277655 -1.508123 -0.078971 -0.038609
    41 0.000000 -0.996221 -0.000001 -1.387532 0.000000 0.000000
    42 -0.000001 -0.614690 0.000000 -1.183321 0.000000 0.000000
    43 -0.308254 -0.007814 0.307166 -0.241552 -0.531379 -1.938567
    44 1.978377 0.019543 0.000000 -0.099390 0.032995 0.869278
    45 0.982426 0.003187 0.000000 0.000000 0.000000 1.117011
end
