version 1
nodes
  0 "Bone01" -1
  1 "Bone_Lefthand" 0
  2 "Bone03" 1
  3 "Bone02" 2
  4 "Bone56" 3
  5 "Bone54" 3
  6 "Bone48" 3
  7 "Bone25" 3
  8 "Bone50" 3
  9 "Bone51" 8
  10 "Bone52" 9
  11 "Bone53" 10
  12 "Bone 04" 1
  13 "Bone13" 12
  14 "Bone14" 13
  15 "Bone15" 14
  16 "Bone17" 12
  17 "Bone18" 16
  18 "Bone19" 17
  19 "Bone21" 12
  20 "Bone22" 19
  21 "Bone23" 20
  22 "Bone05" 12
  23 "Bone06" 22
  24 "Bone07" 23
  25 "Bone09" 12
  26 "Bone10" 25
  27 "Bone11" 26
  28 "Bone04" -1
  29 "Bone_Righthand" 28
  30 "Bone26" 29
  31 "Bone35" 30
  32 "Bone36" 31
  33 "Bone37" 32
  34 "Bone31" 30
  35 "Bone32" 34
  36 "Bone33" 35
  37 "Bone39" 30
  38 "Bone40" 37
  39 "Bone41" 38
  40 "Bone43" 30
  41 "Bone44" 40
  42 "Bone45" 41
  43 "Bone27" 30
  44 "Bone28" 43
  45 "Bone29" 44
end
skeleton
  time 0
    0 7.087003 0.728082 -8.244841 -1.193330 -1.179502 1.009470
    1 0.000000 -8.563281 0.000001 0.084020 -0.013445 -0.314373
    2 -0.490616 -3.701483 0.535283 1.346881 1.541735 1.335142
    3 -0.025679 2.701181 0.658172 0.000000 0.000000 0.000000
    4 0.000000 -3.947158 3.041922 0.000000 0.000000 0.000000
    5 0.000000 -1.548280 0.485224 0.000000 0.000000 0.000000
    6 0.000000 -0.980124 2.284383 0.000000 0.000000 0.000000
    7 0.000000 -2.694595 1.621534 0.172782 0.000000 0.000000
    8 -0.000001 -5.746315 1.557464 0.000000 0.000000 0.000000
    9 0.000000 -0.031566 -0.614062 0.000000 0.000000 0.000000
    10 0.000000 -0.000001 -0.824930 0.000000 0.000000 0.000000
    11 0.000000 -0.015647 -0.615740 0.000000 0.000000 0.000000
    12 -0.003480 -0.404829 0.000000 0.000000 0.000000 0.000000
    13 -0.519309 -2.501153 -0.278957 -0.867431 0.000000 -0.122173
    14 -0.010598 -1.208185 0.000000 -0.870926 0.000000 0.000000
    15 0.000000 -0.763066 0.000000 -1.322966 0.000000 0.000000
    16 0.105981 -2.607133 -0.278957 -0.890118 0.000000 -0.148353
    17 0.000000 -1.250578 0.000000 -1.213004 0.000000 0.000000
    18 0.000000 -0.932634 -0.000001 -1.221739 0.000000 0.000000
    19 0.763064 -2.490555 -0.278957 -0.354271 0.000000 0.130900
    20 -0.012322 -1.280915 0.000000 -1.401472 0.000000 0.000000
    21 -0.001697 -0.749371 0.000000 -0.431104 0.000000 0.000000
    22 0.354567 0.016267 0.318133 0.357130 -0.522242 -1.116358
    23 1.887164 0.012878 0.000001 -0.304163 -0.028296 -0.491334
    24 1.001873 -0.000270 0.000000 0.000000 0.000000 -0.855205
    25 -1.123358 -2.195092 -0.278957 -0.556764 0.000000 -0.087266
    26 0.010772 -0.963791 0.000000 -0.568979 0.000000 0.000000
    27 -0.010412 -0.631916 0.000000 -1.118757 0.000000 0.000000
    28 -3.909787 -10.005926 -9.779890 -1.987564 0.981908 -0.957315
    29 0.089930 -8.543162 0.000000 -0.202090 -0.345999 0.369637
    30 0.000001 -0.359713 -0.000001 0.000000 0.000000 0.000000
    31 -0.170478 -2.636147 -0.277655 -1.692969 0.000000 0.000000
    32 0.010599 -1.261177 0.000001 -1.404983 0.000000 0.000000
    33 -0.000002 -0.943232 -0.000001 -1.370083 0.000000 0.000000
    34 -0.827562 -2.508972 -0.277656 -1.595199 0.000000 0.000000
    35 0.000000 -1.292970 0.000000 -1.439887 0.000000 0.000000
    36 0.000000 -0.752467 0.000000 -1.167619 0.000000 0.000000
    37 0.444215 -2.561960 -0.277655 -1.727307 -0.046226 -0.024599
    38 0.021022 -1.208185 0.000000 -1.370067 0.000000 0.000000
    39 0.010597 -0.741867 -0.000001 -1.082103 0.000000 0.000000
    40 1.047446 -2.222821 -0.277655 -1.508123 -0.078971 -0.038609
    41 0.000000 -0.996221 -0.000001 -1.387532 0.000000 0.000000
    42 -0.000001 -0.614690 0.000000 -1.183321 0.000000 0.000000
    43 -0.308254 -0.007814 0.307166 -0.241552 -0.531379 -1.938567
    44 1.978377 0.019543 0.000000 -0.099390 0.032995 0.869278
    45 0.982426 0.003187 0.000000 0.000000 0.000000 1.117011
  time 1
    0 7.083096 0.978089 -8.221402 -1.289527 -1.148444 1.066469
    1 0.000000 -8.563281 0.000001 0.187052 0.013517 -0.378284
    2 -0.490616 -3.701483 0.535283 1.346881 1.541735 1.335142
    3 -0.025679 2.701181 0.658172 0.000000 0.000000 0.000000
    4 0.000000 -3.380735 3.041922 0.000000 0.000000 0.000000
    5 0.000000 -1.548280 0.485224 0.000000 0.000000 0.000000
    6 0.000000 -0.980124 2.284383 0.000000 0.000000 0.000000
    7 0.000000 -2.671157 1.621534 0.174951 0.000000 0.000000
    8 -0.000001 -5.746315 1.557464 0.000000 0.000000 0.000000
    9 0.000000 -0.031566 -0.614062 -0.108792 0.030896 -0.007155
    10 0.000000 -0.000001 -0.824930 0.000000 0.000000 0.000000
    11 0.000000 -0.015647 -0.615740 0.000000 0.000000 0.000000
    12 -0.003480 -0.404829 0.000000 0.000000 0.000000 0.000000
    13 -0.519309 -2.501153 -0.278957 -0.867431 0.000000 -0.122173
    14 -0.010598 -1.208185 0.000000 -0.870926 0.000000 0.000000
    15 0.000000 -0.763066 0.000000 -1.322966 0.000000 0.000000
    16 0.105981 -2.607133 -0.278957 -0.890118 0.000000 -0.148353
    17 0.000000 -1.250578 0.000000 -1.213004 0.000000 0.000000
    18 0.000000 -0.932634 -0.000001 -1.221739 0.000000 0.000000
    19 0.763064 -2.490555 -0.278957 -0.360441 0.000000 0.130900
    20 -0.012322 -1.280915 0.000000 -1.402705 0.000000 0.000000
    21 -0.001697 -0.749371 0.000000 -0.429890 0.000000 0.000000
    22 0.354567 0.016267 0.318133 0.357130 -0.522242 -1.116358
    23 1.887164 0.012878 0.000001 -0.304163 -0.028296 -0.491334
    24 1.001873 -0.000270 0.000000 0.000000 0.000000 -0.855205
    25 -1.123358 -2.195092 -0.278957 -0.556764 0.000000 -0.087266
    26 0.010772 -0.963791 0.000000 -0.568979 0.000000 0.000000
    27 -0.010412 -0.631916 0.000000 -1.118757 0.000000 0.000000
    28 -4.128544 -9.845765 -9.498631 -1.979224 0.988101 -0.961912
    29 0.089930 -8.543162 0.000000 -0.183102 -0.317740 0.386912
    30 0.000001 -0.359713 -0.000001 0.000000 0.000000 0.000000
    31 -0.170478 -2.636147 -0.277655 -1.692969 0.000000 0.000000
    32 0.010599 -1.261177 0.000001 -1.404983 0.000000 0.000000
    33 -0.000002 -0.943232 -0.000001 -1.370083 0.000000 0.000000
    34 -0.827562 -2.508972 -0.277656 -1.595199 0.000000 0.000000
    35 0.000000 -1.292970 0.000000 -1.439887 0.000000 0.000000
    36 0.000000 -0.752467 0.000000 -1.167619 0.000000 0.000000
    37 0.444215 -2.561960 -0.277655 -1.727307 -0.046226 -0.024599
    38 0.021022 -1.208185 0.000000 -1.370067 0.000000 0.000000
    39 0.010597 -0.741867 -0.000001 -1.082103 0.000000 0.000000
    40 1.047446 -2.222821 -0.277655 -1.508123 -0.078971 -0.038609
    41 0.000000 -0.996221 -0.000001 -1.387532 0.000000 0.000000
    42 -0.000001 -0.614690 0.000000 -1.183321 0.000000 0.000000
    43 -0.308254 -0.007814 0.307166 -0.241552 -0.531379 -1.938567
    44 1.978377 0.019543 0.000000 -0.099390 0.032995 0.869278
    45 0.982426 0.003187 0.000000 0.000000 0.000000 1.117011
  time 2
    0 7.083096 1.157782 -8.197964 -1.375216 -1.115487 1.112741
    1 0.000000 -8.563281 0.000001 0.288249 0.046840 -0.439128
    2 -0.490616 -3.701483 0.535283 1.346881 1.541735 1.335142
    3 -0.025679 2.701181 0.658172 0.000000 0.000000 0.000000
    4 0.000000 -1.681464 3.041922 0.000000 0.000000 0.000000
    5 0.000000 -1.548280 0.485224 0.000000 0.000000 0.000000
    6 0.000000 -0.366824 2.284383 0.000000 0.000000 0.000000
    7 0.000000 -2.663344 1.621534 0.179769 0.000000 0.000000
    8 -0.000001 -5.746315 1.557464 0.000000 0.000000 0.000000
    9 0.000000 -0.031566 -0.614062 -0.231275 0.064213 -0.018996
    10 0.000000 -0.000001 -0.824930 0.000000 0.000000 0.000000
    11 0.000000 -0.015647 -0.615740 0.000000 0.000000 0.000000
    12 -0.003480 -0.404829 0.000000 0.000000 0.000000 0.000000
    13 -0.519309 -2.501153 -0.278957 -0.867431 0.000000 -0.122173
    14 -0.010598 -1.208185 0.000000 -0.870926 0.000000 0.000000
    15 0.000000 -0.763066 0.000000 -1.322966 0.000000 0.000000
    16 0.105981 -2.607133 -0.278957 -0.890118 0.000000 -0.148353
    17 0.000000 -1.250578 0.000000 -1.213004 0.000000 0.000000
    18 0.000000 -0.932634 -0.000001 -1.221739 0.000000 0.000000
    19 0.763064 -2.490555 -0.278957 -0.374069 0.000000 0.130900
    20 -0.012322 -1.280915 0.000000 -1.405688 0.000000 0.000000
    21 -0.001697 -0.749371 0.000000 -0.426798 0.000000 0.000000
    22 0.354567 0.016267 0.318133 0.357130 -0.522242 -1.116358
    23 1.887164 0.012878 0.000001 -0.304163 -0.028296 -0.491334
    24 1.001873 -0.000270 0.000000 0.000000 0.000000 -0.855205
    25 -1.123358 -2.195092 -0.278957 -0.556764 0.000000 -0.087266
    26 0.010772 -0.963791 0.000000 -0.568979 0.000000 0.000000
    27 -0.010412 -0.631916 0.000000 -1.118757 0.000000 0.000000
    28 -4.066042 -9.298873 -9.268156 -1.969747 0.994295 -0.966509
    29 0.089930 -8.543162 0.000000 -0.161680 -0.285798 0.406459
    30 0.000001 -0.359713 -0.000001 0.000000 0.000000 0.000000
    31 -0.170478 -2.636147 -0.277655 -1.692969 0.000000 0.000000
    32 0.010599 -1.261177 0.000001 -1.404983 0.000000 0.000000
    33 -0.000002 -0.943232 -0.000001 -1.370083 0.000000 0.000000
    34 -0.827562 -2.508972 -0.277656 -1.595199 0.000000 0.000000
    35 0.000000 -1.292970 0.000000 -1.439887 0.000000 0.000000
    36 0.000000 -0.752467 0.000000 -1.167619 0.000000 0.000000
    37 0.444215 -2.561960 -0.277655 -1.727307 -0.046226 -0.024599
    38 0.021022 -1.208185 0.000000 -1.370067 0.000000 0.000000
    39 0.010597 -0.741867 -0.000001 -1.082103 0.000000 0.000000
    40 1.047446 -2.222821 -0.277655 -1.508123 -0.078971 -0.038609
    41 0.000000 -0.996221 -0.000001 -1.387532 0.000000 0.000000
    42 -0.000001 -0.614690 0.000000 -1.183321 0.000000 0.000000
    43 -0.308254 -0.007814 0.307166 -0.241552 -0.531379 -1.938567
    44 1.978377 0.019543 0.000000 -0.099390 0.032995 0.869278
    45 0.982426 0.003187 0.000000 0.000000 0.000000 1.117011
  time 3
    0 7.090909 1.278880 -8.182339 -1.414467 -1.099882 1.130383
    1 0.000000 -8.563281 0.000001 0.342959 0.064760 -0.466037
    2 -0.490616 -3.701483 0.535283 1.346881 1.541735 1.335142
    3 -0.025679 2.701181 0.658172 0.000000 0.000000 0.000000
    4 0.000000 -3.232293 3.041922 0.000000 0.000000 0.000000
    5 0.000000 -1.548280 0.485224 0.000000 0.000000 0.000000
    6 0.000000 0.254289 2.284383 0.000000 0.000000 0.000000
    7 0.000000 -2.655531 1.621534 0.184563 0.000000 0.000000
    8 -0.000001 -5.746315 1.557464 0.000000 0.000000 0.000000
    9 0.000000 -0.031566 -0.614062 -0.327718 0.089501 -0.031388
    10 0.000000 -0.000001 -0.824930 0.000000 0.000000 0.000000
    11 0.000000 -0.015647 -0.615740 0.000000 0.000000 0.000000
    12 -0.003480 -0.404829 0.000000 0.000000 0.000000 0.000000
    13 -0.519309 -2.501153 -0.278957 -0.867431 0.000000 -0.122173
    14 -0.010598 -1.208185 0.000000 -0.870926 0.000000 0.000000
    15 0.000000 -0.763066 0.000000 -1.322966 0.000000 0.000000
    16 0.105981 -2.607133 -0.278957 -0.890118 0.000000 -0.148353
    17 0.000000 -1.250578 0.000000 -1.213004 0.000000 0.000000
    18 0.000000 -0.932634 -0.000001 -1.221739 0.000000 0.000000
    19 0.763064 -2.490555 -0.278957 -0.387655 0.000000 0.130900
    20 -0.012322 -1.280915 0.000000 -1.409426 0.000000 0.000000
    21 -0.001697 -0.749371 0.000000 -0.422781 0.000000 0.000000
    22 0.354567 0.016267 0.318133 0.357130 -0.522242 -1.116358
    23 1.887164 0.012878 0.000001 -0.304163 -0.028296 -0.491334
    24 1.001873 -0.000270 0.000000 0.000000 0.000000 -0.855205
    25 -1.123358 -2.195092 -0.278957 -0.556764 0.000000 -0.087266
    26 0.010772 -0.963791 0.000000 -0.568979 0.000000 0.000000
    27 -0.010412 -0.631916 0.000000 -1.118757 0.000000 0.000000
    28 -3.917600 -8.982457 -9.174403 -1.962449 1.000423 -0.970915
    29 0.089930 -8.543162 0.000000 -0.140859 -0.256217 0.425600
    30 0.000001 -0.359713 -0.000001 0.000000 0.000000 0.000000
    31 -0.170478 -2.636147 -0.277655 -1.692969 0.000000 0.000000
    32 0.010599 -1.261177 0.000001 -1.404983 0.000000 0.000000
    33 -0.000002 -0.943232 -0.000001 -1.370083 0.000000 0.000000
    34 -0.827562 -2.508972 -0.277656 -1.595199 0.000000 0.000000
    35 0.000000 -1.292970 0.000000 -1.439887 0.000000 0.000000
    36 0.000000 -0.752467 0.000000 -1.167619 0.000000 0.000000
    37 0.444215 -2.561960 -0.277655 -1.727307 -0.046226 -0.024599
    38 0.021022 -1.208185 0.000000 -1.370067 0.000000 0.000000
    39 0.010597 -0.741867 -0.000001 -1.082103 0.000000 0.000000
    40 1.047446 -2.222821 -0.277655 -1.508123 -0.078971 -0.038609
    41 0.000000 -0.996221 -0.000001 -1.387532 0.000000 0.000000
    42 -0.000001 -0.614690 0.000000 -1.183321 0.000000 0.000000
    43 -0.308254 -0.007814 0.307166 -0.241552 -0.531379 -1.938567
    44 1.978377 0.019543 0.000000 -0.099390 0.032995 0.869278
    45 0.982426 0.003187 0.000000 0.000000 0.000000 1.117011
  time 4
    0 7.110441 1.306224 -8.166713 -1.397391 -1.111155 1.116230
    1 0.000000 -8.563281 0.000001 0.335181 0.053422 -0.446892
    2 -0.490616 -3.701483 0.535283 1.346881 1.541735 1.335142
    3 -0.025679 2.701181 0.658172 0.000000 0.000000 0.000000
    4 0.000000 -3.947158 3.041922 0.000000 0.000000 0.000000
    5 0.000000 -1.548280 0.485224 0.000000 0.000000 0.000000
    6 0.000000 -0.362918 2.284383 0.000000 0.000000 0.000000
    7 0.000000 -2.659438 1.621534 0.186744 0.000000 0.000000
    8 -0.000001 -5.746315 1.557464 0.000000 0.000000 0.000000
    9 0.000000 -0.031566 -0.614062 -0.357830 0.098130 -0.036613
    10 0.000000 -0.000001 -0.824930 0.000000 0.000000 0.000000
    11 0.000000 -0.015647 -0.615740 0.000000 0.000000 0.000000
    12 -0.003480 -0.404829 0.000000 0.000000 0.000000 0.000000
    13 -0.519309 -2.501153 -0.278957 -0.867431 0.000000 -0.122173
    14 -0.010598 -1.208185 0.000000 -0.870926 0.000000 0.000000
    15 0.000000 -0.763066 0.000000 -1.322966 0.000000 0.000000
    16 0.105981 -2.607133 -0.278957 -0.890118 0.000000 -0.148353
    17 0.000000 -1.250578 0.000000 -1.213004 0.000000 0.000000
    18 0.000000 -0.932634 -0.000001 -1.221739 0.000000 0.000000
    19 0.763064 -2.490555 -0.278957 -0.393824 0.000000 0.130900
    20 -0.012322 -1.280915 0.000000 -1.412806 0.000000 0.000000
    21 -0.001697 -0.749371 0.000000 -0.418778 0.000000 0.000000
    22 0.354567 0.016267 0.318133 0.357130 -0.522242 -1.116358
    23 1.887164 0.012878 0.000001 -0.304163 -0.028296 -0.491334
    24 1.001873 -0.000270 0.000000 0.000000 0.000000 -0.855205
    25 -1.123358 -2.195092 -0.278957 -0.556764 0.000000 -0.087266
    26 0.010772 -0.963791 0.000000 -0.568979 0.000000 0.000000
    27 -0.010412 -0.631916 0.000000 -1.118757 0.000000 0.000000
    28 -3.796502 -8.845734 -9.162684 -1.960743 1.006160 -0.975225
    29 0.089930 -8.543162 0.000000 -0.123979 -0.234958 0.441271
    30 0.000001 -0.359713 -0.000001 0.000000 0.000000 0.000000
    31 -0.170478 -2.636147 -0.277655 -1.692969 0.000000 0.000000
    32 0.010599 -1.261177 0.000001 -1.404983 0.000000 0.000000
    33 -0.000002 -0.943232 -0.000001 -1.370083 0.000000 0.000000
    34 -0.827562 -2.508972 -0.277656 -1.595199 0.000000 0.000000
    35 0.000000 -1.292970 0.000000 -1.439887 0.000000 0.000000
    36 0.000000 -0.752467 0.000000 -1.167619 0.000000 0.000000
    37 0.444215 -2.561960 -0.277655 -1.727307 -0.046226 -0.024599
    38 0.021022 -1.208185 0.000000 -1.370067 0.000000 0.000000
    39 0.010597 -0.741867 -0.000001 -1.082103 0.000000 0.000000
    40 1.047446 -2.222821 -0.277655 -1.508123 -0.078971 -0.038609
    41 0.000000 -0.996221 -0.000001 -1.387532 0.000000 0.000000
    42 -0.000001 -0.614690 0.000000 -1.183321 0.000000 0.000000
    43 -0.308254 -0.007814 0.307166 -0.241552 -0.531379 -1.938567
    44 1.978377 0.019543 0.000000 -0.099390 0.032995 0.869278
    45 0.982426 0.003187 0.000000 0.000000 0.000000 1.117011
  time 5
    0 7.133879 1.255442 -8.154994 -1.346859 -1.136437 1.081979
    1 0.000000 -8.563281 0.000001 0.293067 0.027151 -0.402164
    2 -0.490616 -3.701483 0.535283 1.346881 1.541735 1.335142
    3 -0.025679 2.701181 0.658172 0.000000 0.000000 0.000000
    4 0.000000 -3.994035 3.041922 0.000000 0.000000 0.000000
    5 0.000000 -1.548280 0.485224 0.000000 0.000000 0.000000
    6 0.000000 -0.980124 2.284383 0.000000 0.000000 0.000000
    7 0.000000 -2.671157 1.621534 0.183688 0.000000 0.000000
    8 -0.000001 -5.746315 1.557464 0.000000 0.000000 0.000000
    9 0.000000 -0.031566 -0.614062 -0.329821 0.092677 -0.034120
    10 0.000000 -0.000001 -0.824930 0.000000 0.000000 0.000000
    11 0.000000 -0.015647 -0.615740 0.000000 0.000000 0.000000
    12 -0.003480 -0.404829 0.000000 0.000000 0.000000 0.000000
    13 -0.519309 -2.501153 -0.278957 -0.867431 0.000000 -0.122173
    14 -0.010598 -1.208185 0.000000 -0.870926 0.000000 0.000000
    15 0.000000 -0.763066 0.000000 -1.322966 0.000000 0.000000
    16 0.105981 -2.607133 -0.278957 -0.890118 0.000000 -0.148353
    17 0.000000 -1.250578 0.000000 -1.213004 0.000000 0.000000
    18 0.000000 -0.932634 -0.000001 -1.221739 0.000000 0.000000
    19 0.763064 -2.490555 -0.278957 -0.385183 0.000000 0.130900
    20 -0.012322 -1.280915 0.000000 -1.414754 0.000000 0.000000
    21 -0.001697 -0.749371 0.000000 -0.415686 0.000000 0.000000
    22 0.354567 0.016267 0.318133 0.357130 -0.522242 -1.116358
    23 1.887164 0.012878 0.000001 -0.304163 -0.028296 -0.491334
    24 1.001873 -0.000270 0.000000 0.000000 0.000000 -0.855205
    25 -1.123358 -2.195092 -0.278957 -0.556764 0.000000 -0.087266
    26 0.010772 -0.963791 0.000000 -0.568979 0.000000 0.000000
    27 -0.010412 -0.631916 0.000000 -1.118757 0.000000 0.000000
    28 -3.859004 -8.865266 -9.205654 -1.963871 1.012223 -0.979918
    29 0.089930 -8.543162 0.000000 -0.114676 -0.227655 0.450267
    30 0.000001 -0.359713 -0.000001 0.000000 0.000000 0.000000
    31 -0.170478 -2.636147 -0.277655 -1.692969 0.000000 0.000000
    32 0.010599 -1.261177 0.000001 -1.404983 0.000000 0.000000
    33 -0.000002 -0.943232 -0.000001 -1.370083 0.000000 0.000000
    34 -0.827562 -2.508972 -0.277656 -1.595199 0.000000 0.000000
    35 0.000000 -1.292970 0.000000 -1.439887 0.000000 0.000000
    36 0.000000 -0.752467 0.000000 -1.167619 0.000000 0.000000
    37 0.444215 -2.561960 -0.277655 -1.727307 -0.046226 -0.024599
    38 0.021022 -1.208185 0.000000 -1.370067 0.000000 0.000000
    39 0.010597 -0.741867 -0.000001 -1.082103 0.000000 0.000000
    40 1.047446 -2.222821 -0.277655 -1.508123 -0.078971 -0.038609
    41 0.000000 -0.996221 -0.000001 -1.387532 0.000000 0.000000
    42 -0.000001 -0.614690 0.000000 -1.183321 0.000000 0.000000
    43 -0.308254 -0.007814 0.307166 -0.241552 -0.531379 -1.938567
    44 1.978377 0.019543 0.000000 -0.099390 0.032995 0.869278
    45 0.982426 0.003187 0.000000 0.000000 0.000000 1.117011
  time 6
    0 7.161224 1.169502 -8.151088 -1.284427 -1.163011 1.039391
    1 0.000000 -8.563281 0.000001 0.240778 0.001294 -0.353534
    2 -0.490616 -3.701483 0.535283 1.346881 1.541735 1.335142
    3 -0.025679 2.701181 0.658172 0.000000 0.000000 0.000000
    4 0.000000 -3.947158 3.041922 0.000000 0.000000 0.000000
    5 0.000000 -1.548280 0.485224 0.000000 0.000000 0.000000
    6 0.000000 -0.980124 2.284383 0.000000 0.000000 0.000000
    7 0.000000 -2.694595 1.621534 0.172782 0.000000 0.000000
    8 -0.000001 -5.746315 1.557464 0.000000 0.000000 0.000000
    9 0.000000 -0.031566 -0.614062 -0.282170 0.081927 -0.029350
    10 0.000000 -0.000001 -0.824930 0.000000 0.000000 0.000000
    11 0.000000 -0.015647 -0.615740 0.000000 0.000000 0.000000
    12 -0.003480 -0.404829 0.000000 0.000000 0.000000 0.000000
    13 -0.519309 -2.501153 -0.278957 -0.867431 0.000000 -0.122173
    14 -0.010598 -1.208185 0.000000 -0.870926 0.000000 0.000000
    15 0.000000 -0.763066 0.000000 -1.322966 0.000000 0.000000
    16 0.105981 -2.607133 -0.278957 -0.890118 0.000000 -0.148353
    17 0.000000 -1.250578 0.000000 -1.213004 0.000000 0.000000
    18 0.000000 -0.932634 -0.000001 -1.221739 0.000000 0.000000
    19 0.763064 -2.490555 -0.278957 -0.354271 0.000000 0.130900
    20 -0.012322 -1.280915 0.000000 -1.414237 0.000000 0.000000
    21 -0.001697 -0.749371 0.000000 -0.414458 0.000000 0.000000
    22 0.354567 0.016267 0.318133 0.357130 -0.522242 -1.116358
    23 1.887164 0.012878 0.000001 -0.304163 -0.028296 -0.491334
    24 1.001873 -0.000270 0.000000 0.000000 0.000000 -0.855205
    25 -1.123358 -2.195092 -0.278957 -0.556764 0.000000 -0.087266
    26 0.010772 -0.963791 0.000000 -0.568979 0.000000 0.000000
    27 -0.010412 -0.631916 0.000000 -1.118757 0.000000 0.000000
    28 -3.944944 -8.951206 -9.275968 -1.968704 1.018938 -0.985377
    29 0.089930 -8.543162 0.000000 -0.113117 -0.235565 0.452468
    30 0.000001 -0.359713 -0.000001 0.000000 0.000000 0.000000
    31 -0.170478 -2.636147 -0.277655 -1.692969 0.000000 0.000000
    32 0.010599 -1.261177 0.000001 -1.404983 0.000000 0.000000
    33 -0.000002 -0.943232 -0.000001 -1.370083 0.000000 0.000000
    34 -0.827562 -2.508972 -0.277656 -1.595199 0.000000 0.000000
    35 0.000000 -1.292970 0.000000 -1.439887 0.000000 0.000000
    36 0.000000 -0.752467 0.000000 -1.167619 0.000000 0.000000
    37 0.444215 -2.561960 -0.277655 -1.727307 -0.046226 -0.024599
    38 0.021022 -1.208185 0.000000 -1.370067 0.000000 0.000000
    39 0.010597 -0.741867 -0.000001 -1.082103 0.000000 0.000000
    40 1.047446 -2.222821 -0.277655 -1.508123 -0.078971 -0.038609
    41 0.000000 -0.996221 -0.000001 -1.387532 0.000000 0.000000
    42 -0.000001 -0.614690 0.000000 -1.183321 0.000000 0.000000
    43 -0.308254 -0.007814 0.307166 -0.241552 -0.531379 -1.938567
    44 1.978377 0.019543 0.000000 -0.099390 0.032995 0.869278
    45 0.982426 0.003187 0.000000 0.000000 0.000000 1.117011
  time 7
    0 7.180756 1.099187 -8.139369 -1.240463 -1.179502 1.009470
    1 0.000000 -8.563281 0.000001 0.204573 -0.012588 -0.324807
    2 -0.490616 -3.701483 0.535283 1.346881 1.541735 1.335142
    3 -0.025679 2.701181 0.658172 0.000000 0.000000 0.000000
    4 0.000000 -3.947158 3.041922 0.000000 0.000000 0.000000
    5 0.000000 -1.548280 0.485224 0.000000 0.000000 0.000000
    6 0.000000 -0.980124 2.284383 0.000000 0.000000 0.000000
    7 0.000000 -2.718033 1.621534 0.150287 0.000000 0.000000
    8 -0.000001 -5.746315 1.557464 0.000000 0.000000 0.000000
    9 0.000000 -0.031566 -0.614062 -0.219575 0.066958 -0.023526
    10 0.000000 -0.000001 -0.824930 0.000000 0.000000 0.000000
    11 0.000000 -0.015647 -0.615740 0.000000 0.000000 0.000000
    12 -0.003480 -0.404829 0.000000 0.000000 0.000000 0.000000
    13 -0.519309 -2.501153 -0.278957 -0.867431 0.000000 -0.122173
    14 -0.010598 -1.208185 0.000000 -0.870926 0.000000 0.000000
    15 0.000000 -0.763066 0.000000 -1.322966 0.000000 0.000000
    16 0.105981 -2.607133 -0.278957 -0.890118 0.000000 -0.148353
    17 0.000000 -1.250578 0.000000 -1.213004 0.000000 0.000000
    18 0.000000 -0.932634 -0.000001 -1.221739 0.000000 0.000000
    19 0.763064 -2.490555 -0.278957 -0.280566 0.000000 0.130900
    20 -0.012322 -1.280915 0.000000 -1.410141 0.000000 0.000000
    21 -0.001697 -0.749371 0.000000 -0.415990 0.000000 0.000000
    22 0.354567 0.016267 0.318133 0.357130 -0.522242 -1.116358
    23 1.887164 0.012878 0.000001 -0.304163 -0.028296 -0.491334
    24 1.001873 -0.000270 0.000000 0.000000 0.000000 -0.855205
    25 -1.123358 -2.195092 -0.278957 -0.556764 0.000000 -0.087266
    26 0.010772 -0.963791 0.000000 -0.568979 0.000000 0.000000
    27 -0.010412 -0.631916 0.000000 -1.118757 0.000000 0.000000
    28 -3.933225 -8.998083 -9.342377 -1.974864 1.026109 -0.991315
    29 0.089930 -8.543162 0.000000 -0.116154 -0.253508 0.450746
    30 0.000001 -0.359713 -0.000001 0.000000 0.000000 0.000000
    31 -0.170478 -2.636147 -0.277655 -1.692969 0.000000 0.000000
    32 0.010599 -1.261177 0.000001 -1.404983 0.000000 0.000000
    33 -0.000002 -0.943232 -0.000001 -1.370083 0.000000 0.000000
    34 -0.827562 -2.508972 -0.277656 -1.595199 0.000000 0.000000
    35 0.000000 -1.292970 0.000000 -1.439887 0.000000 0.000000
    36 0.000000 -0.752467 0.000000 -1.167619 0.000000 0.000000
    37 0.444215 -2.561960 -0.277655 -1.727307 -0.046226 -0.024599
    38 0.021022 -1.208185 0.000000 -1.370067 0.000000 0.000000
    39 0.010597 -0.741867 -0.000001 -1.082103 0.000000 0.000000
    40 1.047446 -2.222821 -0.277655 -1.508123 -0.078971 -0.038609
    41 0.000000 -0.996221 -0.000001 -1.387532 0.000000 0.000000
    42 -0.000001 -0.614690 0.000000 -1.183321 0.000000 0.000000
    43 -0.308254 -0.007814 0.307166 -0.241552 -0.531379 -1.938567
    44 1.978377 0.019543 0.000000 -0.099390 0.032995 0.869278
    45 0.982426 0.003187 0.000000 0.000000 0.000000 1.117011
  time 8
    0 7.188568 1.044498 -8.135462 -1.220373 -1.186519 0.997256
    1 0.000000 -8.563281 0.000001 0.186285 -0.016598 -0.316399
    2 -0.490616 -3.701483 0.535283 1.346881 1.541735 1.335142
    3 -0.025679 2.701181 0.658172 0.000000 0.000000 0.000000
    4 0.000000 -3.947158 3.041922 0.000000 0.000000 0.000000
    5 0.000000 -1.548280 0.485224 0.000000 0.000000 0.000000
    6 0.000000 -0.980124 2.284383 0.000000 0.000000 0.000000
    7 0.000000 -2.757097 1.621534 0.117221 0.000000 0.000000
    8 -0.000001 -5.746315 1.557464 0.000000 0.000000 0.000000
    9 0.000000 -0.031566 -0.614062 -0.146667 0.048957 -0.017713
    10 0.000000 -0.000001 -0.824930 0.000000 0.000000 0.000000
    11 0.000000 -0.015647 -0.615740 0.000000 0.000000 0.000000
    12 -0.003480 -0.404829 0.000000 0.000000 0.000000 0.000000
    13 -0.519309 -2.501153 -0.278957 -0.867431 0.000000 -0.122173
    14 -0.010598 -1.208185 0.000000 -0.870926 0.000000 0.000000
    15 0.000000 -0.763066 0.000000 -1.322966 0.000000 0.000000
    16 0.105981 -2.607133 -0.278957 -0.890118 0.000000 -0.148353
    17 0.000000 -1.250578 0.000000 -1.213004 0.000000 0.000000
    18 0.000000 -0.932634 -0.000001 -1.221739 0.000000 0.000000
    19 0.763064 -2.490555 -0.278957 -0.165168 0.000000 0.130900
    20 -0.012322 -1.280915 0.000000 -1.401472 0.000000 0.000000
    21 -0.001697 -0.749371 0.000000 -0.421235 0.000000 0.000000
    22 0.354567 0.016267 0.318133 0.357130 -0.522242 -1.116358
    23 1.887164 0.012878 0.000001 -0.304163 -0.028296 -0.491334
    24 1.001873 -0.000270 0.000000 0.000000 0.000000 -0.855205
    25 -1.123358 -2.195092 -0.278957 -0.556764 0.000000 -0.087266
    26 0.010772 -0.963791 0.000000 -0.568979 0.000000 0.000000
    27 -0.010412 -0.631916 0.000000 -1.118757 0.000000 0.000000
    28 -3.909787 -9.041053 -9.404879 -1.981972 1.033411 -0.997636
    29 0.089930 -8.543162 0.000000 -0.122419 -0.277736 0.446248
    30 0.000001 -0.359713 -0.000001 0.000000 0.000000 0.000000
    31 -0.170478 -2.636147 -0.277655 -1.692969 0.000000 0.000000
    32 0.010599 -1.261177 0.000001 -1.404983 0.000000 0.000000
    33 -0.000002 -0.943232 -0.000001 -1.370083 0.000000 0.000000
    34 -0.827562 -2.508972 -0.277656 -1.595199 0.000000 0.000000
    35 0.000000 -1.292970 0.000000 -1.439887 0.000000 0.000000
    36 0.000000 -0.752467 0.000000 -1.167619 0.000000 0.000000
    37 0.444215 -2.561960 -0.277655 -1.727307 -0.046226 -0.024599
    38 0.021022 -1.208185 0.000000 -1.370067 0.000000 0.000000
    39 0.010597 -0.741867 -0.000001 -1.082103 0.000000 0.000000
    40 1.047446 -2.222821 -0.277655 -1.508123 -0.078971 -0.038609
    41 0.000000 -0.996221 -0.000001 -1.387532 0.000000 0.000000
    42 -0.000001 -0.614690 0.000000 -1.183321 0.000000 0.000000
    43 -0.308254 -0.007814 0.307166 -0.241552 -0.531379 -1.938567
    44 1.978377 0.019543 0.000000 -0.099390 0.032995 0.869278
    45 0.982426 0.003187 0.000000 0.000000 0.000000 1.117011
  time 9
    0 7.184662 0.981996 -8.123743 -1.204843 -1.191814 0.989242
    1 0.000000 -8.563281 0.000001 0.169518 -0.019003 -0.311589
    2 -0.490616 -3.701483 0.535283 1.346881 1.541735 1.335142
    3 -0.025679 2.701181 0.658172 0.000000 0.000000 0.000000
    4 0.000000 -3.947158 3.041922 0.000000 0.000000 0.000000
    5 0.000000 -1.548280 0.485224 0.000000 0.000000 0.000000
    6 0.000000 -0.980124 2.284383 0.000000 0.000000 0.000000
    7 0.000000 -2.800067 1.621534 0.078152 0.000000 0.000000
    8 -0.000001 -5.746315 1.557464 0.000000 0.000000 0.000000
    9 0.000000 -0.031566 -0.614062 -0.067987 0.029278 -0.012847
    10 0.000000 -0.000001 -0.824930 0.000000 0.000000 0.000000
    11 0.000000 -0.015647 -0.615740 0.000000 0.000000 0.000000
    12 -0.003480 -0.404829 0.000000 0.000000 0.000000 0.000000
    13 -0.519309 -2.501153 -0.278957 -0.867431 0.000000 -0.122173
    14 -0.010598 -1.208185 0.000000 -0.870926 0.000000 0.000000
    15 0.000000 -0.763066 0.000000 -1.322966 0.000000 0.000000
    16 0.105981 -2.607133 -0.278957 -0.890118 0.000000 -0.148353
    17 0.000000 -1.250578 0.000000 -1.213004 0.000000 0.000000
    18 0.000000 -0.932634 -0.000001 -1.221739 0.000000 0.000000
    19 0.763064 -2.490555 -0.278957 -0.033048 0.000000 0.130900
    20 -0.012322 -1.280915 0.000000 -1.380158 0.000000 0.000000
    21 -0.001697 -0.749371 0.000000 -0.431104 0.000000 0.000000
    22 0.354567 0.016267 0.318133 0.357130 -0.522242 -1.116358
    23 1.887164 0.012878 0.000001 -0.304163 -0.028296 -0.491334
    24 1.001873 -0.000270 0.000000 0.000000 0.000000 -0.855205
    25 -1.123358 -2.195092 -0.278957 -0.556764 0.000000 -0.087266
    26 0.010772 -0.963791 0.000000 -0.568979 0.000000 0.000000
    27 -0.010412 -0.631916 0.000000 -1.118757 0.000000 0.000000
    28 -3.944944 -9.084023 -9.436130 -1.989744 1.040582 -1.004053
    29 0.089930 -8.543162 0.000000 -0.130463 -0.304521 0.440147
    30 0.000001 -0.359713 -0.000001 0.000000 0.000000 0.000000
    31 -0.170478 -2.636147 -0.277655 -1.692969 0.000000 0.000000
    32 0.010599 -1.261177 0.000001 -1.404983 0.000000 0.000000
    33 -0.000002 -0.943232 -0.000001 -1.370083 0.000000 0.000000
    34 -0.827562 -2.508972 -0.277656 -1.595199 0.000000 0.000000
    35 0.000000 -1.292970 0.000000 -1.439887 0.000000 0.000000
    36 0.000000 -0.752467 0.000000 -1.167619 0.000000 0.000000
    37 0.444215 -2.561960 -0.277655 -1.727307 -0.046226 -0.024599
    38 0.021022 -1.208185 0.000000 -1.370067 0.000000 0.000000
    39 0.010597 -0.741867 -0.000001 -1.082103 0.000000 0.000000
    40 1.047446 -2.222821 -0.277655 -1.508123 -0.078971 -0.038609
    41 0.000000 -0.996221 -0.000001 -1.387532 0.000000 0.000000
    42 -0.000001 -0.614690 0.000000 -1.183321 0.000000 0.000000
    43 -0.308254 -0.007814 0.307166 -0.241552 -0.531379 -1.938567
    44 1.978377 0.019543 0.000000 -0.099390 0.032995 0.869278
    45 0.982426 0.003187 0.000000 0.000000 0.000000 1.117011
  time 10
    0 7.176849 0.911681 -8.119837 -1.193330 -1.195614 0.984525
    1 0.000000 -8.563281 0.000001 0.154178 -0.020082 -0.309771
    2 -0.490616 -3.701483 0.535283 1.346881 1.541735 1.335142
    3 -0.025679 2.701181 0.658172 0.000000 0.000000 0.000000
    4 0.000000 -3.947158 3.041922 0.000000 0.000000 0.000000
    5 0.000000 -1.548280 0.485224 0.000000 0.000000 0.000000
    6 0.000000 -0.980124 2.284383 0.000000 0.000000 0.000000
    7 0.000000 -2.846943 1.621534 0.037572 0.000000 0.000000
    8 -0.000001 -5.746315 1.557464 0.000000 0.000000 0.000000
    9 0.000000 -0.031566 -0.614062 0.011924 0.009408 -0.009480
    10 0.000000 -0.000001 -0.824930 0.000000 0.000000 0.000000
    11 0.000000 -0.015647 -0.615740 0.000000 0.000000 0.000000
    12 -0.003480 -0.404829 0.000000 0.000000 0.000000 0.000000
    13 -0.519309 -2.501153 -0.278957 -0.867431 0.000000 -0.122173
    14 -0.010598 -1.208185 0.000000 -0.870926 0.000000 0.000000
    15 0.000000 -0.763066 0.000000 -1.322966 0.000000 0.000000
    16 0.105981 -2.607133 -0.278957 -0.890118 0.000000 -0.148353
    17 0.000000 -1.250578 0.000000 -1.213004 0.000000 0.000000
    18 0.000000 -0.932634 -0.000001 -1.221739 0.000000 0.000000
    19 0.763064 -2.490555 -0.278957 0.090743 0.000000 0.130900
    20 -0.012322 -1.280915 0.000000 -1.344726 0.000000 0.000000
    21 -0.001697 -0.749371 0.000000 -0.455880 0.000000 0.000000
    22 0.354567 0.016267 0.318133 0.357130 -0.522242 -1.116358
    23 1.887164 0.012878 0.000001 -0.304163 -0.028296 -0.491334
    24 1.001873 -0.000270 0.000000 0.000000 0.000000 -0.855205
    25 -1.123358 -2.195092 -0.278957 -0.556764 0.000000 -0.087266
    26 0.010772 -0.963791 0.000000 -0.568979 0.000000 0.000000
    27 -0.010412 -0.631916 0.000000 -1.118757 0.000000 0.000000
    28 -3.999634 -9.123087 -9.440036 -1.997799 1.047232 -1.010374
    29 0.089930 -8.543162 0.000000 -0.139026 -0.330049 0.433519
    30 0.000001 -0.359713 -0.000001 0.000000 0.000000 0.000000
    31 -0.170478 -2.636147 -0.277655 -1.692969 0.000000 0.000000
    32 0.010599 -1.261177 0.000001 -1.404983 0.000000 0.000000
    33 -0.000002 -0.943232 -0.000001 -1.370083 0.000000 0.000000
    34 -0.827562 -2.508972 -0.277656 -1.595199 0.000000 0.000000
    35 0.000000 -1.292970 0.000000 -1.439887 0.000000 0.000000
    36 0.000000 -0.752467 0.000000 -1.167619 0.000000 0.000000
    37 0.444215 -2.561960 -0.277655 -1.727307 -0.046226 -0.024599
    38 0.021022 -1.208185 0.000000 -1.370067 0.000000 0.000000
    39 0.010597 -0.741867 -0.000001 -1.082103 0.000000 0.000000
    40 1.047446 -2.222821 -0.277655 -1.508123 -0.078971 -0.038609
    41 0.000000 -0.996221 -0.000001 -1.387532 0.000000 0.000000
    42 -0.000001 -0.614690 0.000000 -1.183321 0.000000 0.000000
    43 -0.308254 -0.007814 0.307166 -0.241552 -0.531379 -1.938567
    44 1.978377 0.019543 0.000000 -0.099390 0.032995 0.869278
    45 0.982426 0.003187 0.000000 0.000000 0.000000 1.117011
  time 11
    0 7.161224 0.841367 -8.112024 -1.185372 -1.198197 0.982586
    1 0.000000 -8.563281 0.000001 0.140240 -0.020165 -0.310264
    2 -0.490616 -3.701483 0.535283 1.346881 1.541735 1.335142
    3 -0.025679 2.701181 0.658172 0.000000 0.000000 0.000000
    4 0.000000 -3.947158 3.041922 0.000000 0.000000 0.000000
    5 0.000000 -1.548280 0.485224 0.000000 0.000000 0.000000
    6 0.000000 -0.980124 2.284383 0.000000 0.000000 0.000000
    7 0.000000 -2.905539 1.621534 0.000000 0.000000 0.000000
    8 -0.000001 -5.746315 1.557464 0.000000 0.000000 0.000000
    9 0.000000 -0.031566 -0.614062 0.088680 -0.009096 -0.007718
    10 0.000000 -0.000001 -0.824930 0.000000 0.000000 0.000000
    11 0.000000 -0.015647 -0.615740 0.000000 0.000000 0.000000
    12 -0.003480 -0.404829 0.000000 0.000000 0.000000 0.000000
    13 -0.519309 -2.501153 -0.278957 -0.867431 0.000000 -0.122173
    14 -0.010598 -1.208185 0.000000 -0.870926 0.000000 0.000000
    15 0.000000 -0.763066 0.000000 -1.322966 0.000000 0.000000
    16 0.105981 -2.607133 -0.278957 -0.890118 0.000000 -0.148353
    17 0.000000 -1.250578 0.000000 -1.213004 0.000000 0.000000
    18 0.000000 -0.932634 -0.000001 -1.221739 0.000000 0.000000
    19 0.763064 -2.490555 -0.278957 0.090743 0.000000 0.130900
    20 -0.012322 -1.280915 0.000000 -1.303607 0.000000 0.000000
    21 -0.001697 -0.749371 0.000000 -0.498228 0.000000 0.000000
    22 0.354567 0.016267 0.318133 0.357130 -0.522242 -1.116358
    23 1.887164 0.012878 0.000001 -0.304163 -0.028296 -0.491334
    24 1.001873 -0.000270 0.000000 0.000000 0.000000 -0.855205
    25 -1.123358 -2.195092 -0.278957 -0.556764 0.000000 -0.087266
    26 0.010772 -0.963791 0.000000 -0.568979 0.000000 0.000000
    27 -0.010412 -0.631916 0.000000 -1.118757 0.000000 0.000000
    28 -4.069948 -9.158244 -9.400972 -2.005760 1.053164 -1.016025
    29 0.089930 -8.543162 0.000000 -0.146769 -0.350507 0.427322
    30 0.000001 -0.359713 -0.000001 0.000000 0.000000 0.000000
    31 -0.170478 -2.636147 -0.277655 -1.692969 0.000000 0.000000
    32 0.010599 -1.261177 0.000001 -1.404983 0.000000 0.000000
    33 -0.000002 -0.943232 -0.000001 -1.370083 0.000000 0.000000
    34 -0.827562 -2.508972 -0.277656 -1.595199 0.000000 0.000000
    35 0.000000 -1.292970 0.000000 -1.439887 0.000000 0.000000
    36 0.000000 -0.752467 0.000000 -1.167619 0.000000 0.000000
    37 0.444215 -2.561960 -0.277655 -1.727307 -0.046226 -0.024599
    38 0.021022 -1.208185 0.000000 -1.370067 0.000000 0.000000
    39 0.010597 -0.741867 -0.000001 -1.082103 0.000000 0.000000
    40 1.047446 -2.222821 -0.277655 -1.508123 -0.078971 -0.038609
    41 0.000000 -0.996221 -0.000001 -1.387532 0.000000 0.000000
    42 -0.000001 -0.614690 0.000000 -1.183321 0.000000 0.000000
    43 -0.308254 -0.007814 0.307166 -0.241552 -0.531379 -1.938567
    44 1.978377 0.019543 0.000000 -0.099390 0.032995 0.869278
    45 0.982426 0.003187 0.000000 0.000000 0.000000 1.117011
  time 12
    0 7.141692 0.771052 -8.108118 -1.179963 -1.199793 0.982650
    1 0.000000 -8.563281 0.000001 0.127620 -0.019584 -0.312441
    2 -0.490616 -3.701483 0.535283 1.346881 1.541735 1.335142
    3 -0.025679 2.701181 0.658172 0.000000 0.000000 0.000000
    4 0.000000 -3.947158 3.041922 0.000000 0.000000 0.000000
    5 0.000000 -1.548280 0.485224 0.000000 0.000000 0.000000
    6 0.000000 -0.980124 2.284383 0.000000 0.000000 0.000000
    7 0.000000 -2.905539 1.621534 0.000000 0.000000 0.000000
    8 -0.000001 -5.746315 1.557464 0.000000 0.000000 0.000000
    9 0.000000 -0.031566 -0.614062 0.157830 -0.024676 -0.007359
    10 0.000000 -0.000001 -0.824930 0.000000 0.000000 0.000000
    11 0.000000 -0.015647 -0.615740 0.000000 0.000000 0.000000
    12 -0.003480 -0.404829 0.000000 0.000000 0.000000 0.000000
    13 -0.519309 -2.501153 -0.278957 -0.867431 0.000000 -0.122173
    14 -0.010598 -1.208185 0.000000 -0.870926 0.000000 0.000000
    15 0.000000 -0.763066 0.000000 -1.322966 0.000000 0.000000
    16 0.105981 -2.607133 -0.278957 -0.890118 0.000000 -0.148353
    17 0.000000 -1.250578 0.000000 -1.213004 0.000000 0.000000
    18 0.000000 -0.932634 -0.000001 -1.221739 0.000000 0.000000
    19 0.763064 -2.490555 -0.278957 0.090743 0.000000 0.130900
    20 -0.012322 -1.280915 0.000000 -1.265352 0.000000 0.000000
    21 -0.001697 -0.749371 0.000000 -0.547587 0.000000 0.000000
    22 0.354567 0.016267 0.318133 0.357130 -0.522242 -1.116358
    23 1.887164 0.012878 0.000001 -0.304163 -0.028296 -0.491334
    24 1.001873 -0.000270 0.000000 0.000000 0.000000 -0.855205
    25 -1.123358 -2.195092 -0.278957 -0.556764 0.000000 -0.087266
    26 0.010772 -0.963791 0.000000 -0.568979 0.000000 0.000000
    27 -0.010412 -0.631916 0.000000 -1.118757 0.000000 0.000000
    28 -4.136356 -9.189495 -9.342377 -2.013058 1.057989 -1.021005
    29 0.089930 -8.543162 0.000000 -0.152460 -0.362122 0.422441
    30 0.000001 -0.359713 -0.000001 0.000000 0.000000 0.000000
    31 -0.170478 -2.636147 -0.277655 -1.692969 0.000000 0.000000
    32 0.010599 -1.261177 0.000001 -1.404983 0.000000 0.000000
    33 -0.000002 -0.943232 -0.000001 -1.370083 0.000000 0.000000
    34 -0.827562 -2.508972 -0.277656 -1.595199 0.000000 0.000000
    35 0.000000 -1.292970 0.000000 -1.439887 0.000000 0.000000
    36 0.000000 -0.752467 0.000000 -1.167619 0.000000 0.000000
    37 0.444215 -2.561960 -0.277655 -1.727307 -0.046226 -0.024599
    38 0.021022 -1.208185 0.000000 -1.370067 0.000000 0.000000
    39 0.010597 -0.741867 -0.000001 -1.082103 0.000000 0.000000
    40 1.047446 -2.222821 -0.277655 -1.508123 -0.078971 -0.038609
    41 0.000000 -0.996221 -0.000001 -1.387532 0.000000 0.000000
    42 -0.000001 -0.614690 0.000000 -1.183321 0.000000 0.000000
    43 -0.308254 -0.007814 0.307166 -0.241552 -0.531379 -1.938567
    44 1.978377 0.019543 0.000000 -0.099390 0.032995 0.869278
    45 0.982426 0.003187 0.000000 0.000000 0.000000 1.117011
  time 13
    0 7.122160 0.700737 -8.104211 -1.176331 -1.200655 0.983749
    1 0.000000 -8.563281 0.000001 0.116235 -0.018589 -0.315623
    2 -0.490616 -3.701483 0.535283 1.346881 1.541735 1.335142
    3 -0.025679 2.701181 0.658172 0.000000 0.000000 0.000000
    4 0.000000 -3.947158 3.041922 0.000000 0.000000 0.000000
    5 0.000000 -1.548280 0.485224 0.000000 0.000000 0.000000
    6 0.000000 -0.980124 2.284383 0.000000 0.000000 0.000000
    7 0.000000 -2.905539 1.621534 0.000000 0.000000 0.000000
    8 -0.000001 -5.746315 1.557464 0.000000 0.000000 0.000000
    9 0.000000 -0.031566 -0.614062 0.214810 -0.035810 -0.007802
    10 0.000000 -0.000001 -0.824930 0.000000 0.000000 0.000000
    11 0.000000 -0.015647 -0.615740 0.000000 0.000000 0.000000
    12 -0.003480 -0.404829 0.000000 0.000000 0.000000 0.000000
    13 -0.519309 -2.501153 -0.278957 -0.867431 0.000000 -0.122173
    14 -0.010598 -1.208185 0.000000 -0.870926 0.000000 0.000000
    15 0.000000 -0.763066 0.000000 -1.322966 0.000000 0.000000
    16 0.105981 -2.607133 -0.278957 -0.890118 0.000000 -0.148353
    17 0.000000 -1.250578 0.000000 -1.213004 0.000000 0.000000
    18 0.000000 -0.932634 -0.000001 -1.221739 0.000000 0.000000
    19 0.763064 -2.490555 -0.278957 0.090743 0.000000 0.130900
    20 -0.012322 -1.280915 0.000000 -1.265352 0.000000 0.000000
    21 -0.001697 -0.749371 0.000000 -0.593412 0.000000 0.000000
    22 0.354567 0.016267 0.318133 0.357130 -0.522242 -1.116358
    23 1.887164 0.012878 0.000001 -0.304163 -0.028296 -0.491334
    24 1.001873 -0.000270 0.000000 0.000000 0.000000 -0.855205
    25 -1.123358 -2.195092 -0.278957 -0.556764 0.000000 -0.087266
    26 0.010772 -0.963791 0.000000 -0.568979 0.000000 0.000000
    27 -0.010412 -0.631916 0.000000 -1.118757 0.000000 0.000000
    28 -4.171514 -9.216840 -9.299407 -2.019123 1.061444 -1.024645
    29 0.089930 -8.543162 0.000000 -0.156673 -0.366933 0.418542
    30 0.000001 -0.359713 -0.000001 0.000000 0.000000 0.000000
    31 -0.170478 -2.636147 -0.277655 -1.692969 0.000000 0.000000
    32 0.010599 -1.261177 0.000001 -1.404983 0.000000 0.000000
    33 -0.000002 -0.943232 -0.000001 -1.370083 0.000000 0.000000
    34 -0.827562 -2.508972 -0.277656 -1.595199 0.000000 0.000000
    35 0.000000 -1.292970 0.000000 -1.439887 0.000000 0.000000
    36 0.000000 -0.752467 0.000000 -1.167619 0.000000 0.000000
    37 0.444215 -2.561960 -0.277655 -1.727307 -0.046226 -0.024599
    38 0.021022 -1.208185 0.000000 -1.370067 0.000000 0.000000
    39 0.010597 -0.741867 -0.000001 -1.082103 0.000000 0.000000
    40 1.047446 -2.222821 -0.277655 -1.508123 -0.078971 -0.038609
    41 0.000000 -0.996221 -0.000001 -1.387532 0.000000 0.000000
    42 -0.000001 -0.614690 0.000000 -1.183321 0.000000 0.000000
    43 -0.308254 -0.007814 0.307166 -0.241552 -0.531379 -1.938567
    44 1.978377 0.019543 0.000000 -0.099390 0.032995 0.869278
    45 0.982426 0.003187 0.000000 0.000000 0.000000 1.117011
  time 14
    0 7.102628 0.638235 -8.104211 -1.173782 -1.200984 0.985106
    1 0.000000 -8.563281 0.000001 0.106012 -0.017427 -0.319164
    2 -0.490616 -3.701483 0.535283 1.346881 1.541735 1.335142
    3 -0.025679 2.701181 0.658172 0.000000 0.000000 0.000000
    4 0.000000 -3.947158 3.041922 0.000000 0.000000 0.000000
    5 0.000000 -1.548280 0.485224 0.000000 0.000000 0.000000
    6 0.000000 -0.980124 2.284383 0.000000 0.000000 0.000000
    7 0.000000 -2.905539 1.621534 0.000000 0.000000 0.000000
    8 -0.000001 -5.746315 1.557464 0.000000 0.000000 0.000000
    9 0.000000 -0.031566 -0.614062 0.261812 -0.039429 -0.008305
    10 0.000000 -0.000001 -0.824930 0.000000 0.000000 0.000000
    11 0.000000 -0.015647 -0.615740 0.000000 0.000000 0.000000
    12 -0.003480 -0.404829 0.000000 0.000000 0.000000 0.000000
    13 -0.519309 -2.501153 -0.278957 -0.867431 0.000000 -0.122173
    14 -0.010598 -1.208185 0.000000 -0.870926 0.000000 0.000000
    15 0.000000 -0.763066 0.000000 -1.322966 0.000000 0.000000
    16 0.105981 -2.607133 -0.278957 -0.890118 0.000000 -0.148353
    17 0.000000 -1.250578 0.000000 -1.213004 0.000000 0.000000
    18 0.000000 -0.932634 -0.000001 -1.221739 0.000000 0.000000
    19 0.763064 -2.490555 -0.278957 0.090743 0.000000 0.130900
    20 -0.012322 -1.280915 0.000000 -1.265352 0.000000 0.000000
    21 -0.001697 -0.749371 0.000000 -0.593412 0.000000 0.000000
    22 0.354567 0.016267 0.318133 0.357130 -0.522242 -1.116358
    23 1.887164 0.012878 0.000001 -0.304163 -0.028296 -0.491334
    24 1.001873 -0.000270 0.000000 0.000000 0.000000 -0.855205
    25 -1.123358 -2.195092 -0.278957 -0.556764 0.000000 -0.087266
    26 0.010772 -0.963791 0.000000 -0.568979 0.000000 0.000000
    27 -0.010412 -0.631916 0.000000 -1.118757 0.000000 0.000000
    28 -4.183233 -9.240278 -9.260343 -2.023578 1.063334 -1.026752
    29 0.089930 -8.543162 0.000000 -0.160750 -0.369793 0.414570
    30 0.000001 -0.359713 -0.000001 0.000000 0.000000 0.000000
    31 -0.170478 -2.636147 -0.277655 -1.692969 0.000000 0.000000
    32 0.010599 -1.261177 0.000001 -1.404983 0.000000 0.000000
    33 -0.000002 -0.943232 -0.000001 -1.370083 0.000000 0.000000
    34 -0.827562 -2.508972 -0.277656 -1.595199 0.000000 0.000000
    35 0.000000 -1.292970 0.000000 -1.439887 0.000000 0.000000
    36 0.000000 -0.752467 0.000000 -1.167619 0.000000 0.000000
    37 0.444215 -2.561960 -0.277655 -1.727307 -0.046226 -0.024599
    38 0.021022 -1.208185 0.000000 -1.370067 0.000000 0.000000
    39 0.010597 -0.741867 -0.000001 -1.082103 0.000000 0.000000
    40 1.047446 -2.222821 -0.277655 -1.508123 -0.078971 -0.038609
    41 0.000000 -0.996221 -0.000001 -1.387532 0.000000 0.000000
    42 -0.000001 -0.614690 0.000000 -1.183321 0.000000 0.000000
    43 -0.308254 -0.007814 0.307166 -0.241552 -0.531379 -1.938567
    44 1.978377 0.019543 0.000000 -0.099390 0.032995 0.869278
    45 0.982426 0.003187 0.000000 0.000000 0.000000 1.117011
  time 15
    0 7.083096 0.587453 -8.104211 -1.171309 -1.201035 0.985688
    1 0.000000 -8.563281 0.000001 0.096879 -0.016349 -0.322383
    2 -0.490616 -3.701483 0.535283 1.346881 1.541735 1.335142
    3 -0.025679 2.701181 0.658172 0.000000 0.000000 0.000000
    4 0.000000 -3.947158 3.041922 0.000000 0.000000 0.000000
    5 0.000000 -1.548280 0.485224 0.000000 0.000000 0.000000
    6 0.000000 -0.980124 2.284383 0.000000 0.000000 0.000000
    7 0.000000 -2.905539 1.621534 0.000000 0.000000 0.000000
    8 -0.000001 -5.746315 1.557464 0.000000 0.000000 0.000000
    9 0.000000 -0.031566 -0.614062 0.301320 -0.035810 -0.008233
    10 0.000000 -0.000001 -0.824930 0.000000 0.000000 0.000000
    11 0.000000 -0.015647 -0.615740 0.000000 0.000000 0.000000
    12 -0.003480 -0.404829 0.000000 0.000000 0.000000 0.000000
    13 -0.519309 -2.501153 -0.278957 -0.867431 0.000000 -0.122173
    14 -0.010598 -1.208185 0.000000 -0.870926 0.000000 0.000000
    15 0.000000 -0.763066 0.000000 -1.322966 0.000000 0.000000
    16 0.105981 -2.607133 -0.278957 -0.890118 0.000000 -0.148353
    17 0.000000 -1.250578 0.000000 -1.213004 0.000000 0.000000
    18 0.000000 -0.932634 -0.000001 -1.221739 0.000000 0.000000
    19 0.763064 -2.490555 -0.278957 0.090743 0.000000 0.130900
    20 -0.012322 -1.280915 0.000000 -1.265352 0.000000 0.000000
    21 -0.001697 -0.749371 0.000000 -0.593412 0.000000 0.000000
    22 0.354567 0.016267 0.318133 0.357130 -0.522242 -1.116358
    23 1.887164 0.012878 0.000001 -0.304163 -0.028296 -0.491334
    24 1.001873 -0.000270 0.000000 0.000000 0.000000 -0.855205
    25 -1.123358 -2.195092 -0.278957 -0.556764 0.000000 -0.087266
    26 0.010772 -0.963791 0.000000 -0.568979 0.000000 0.000000
    27 -0.010412 -0.631916 0.000000 -1.118757 0.000000 0.000000
    28 -4.191046 -9.271529 -9.236905 -2.025947 1.063204 -1.026847
    29 0.089930 -8.543162 0.000000 -0.164717 -0.370985 0.410574
    30 0.000001 -0.359713 -0.000001 0.000000 0.000000 0.000000
    31 -0.170478 -2.636147 -0.277655 -1.692969 0.000000 0.000000
    32 0.010599 -1.261177 0.000001 -1.404983 0.000000 0.000000
    33 -0.000002 -0.943232 -0.000001 -1.370083 0.000000 0.000000
    34 -0.827562 -2.508972 -0.277656 -1.595199 0.000000 0.000000
    35 0.000000 -1.292970 0.000000 -1.439887 0.000000 0.000000
    36 0.000000 -0.752467 0.000000 -1.167619 0.000000 0.000000
    37 0.444215 -2.561960 -0.277655 -1.727307 -0.046226 -0.024599
    38 0.021022 -1.208185 0.000000 -1.370067 0.000000 0.000000
    39 0.010597 -0.741867 -0.000001 -1.082103 0.000000 0.000000
    40 1.047446 -2.222821 -0.277655 -1.508123 -0.078971 -0.038609
    41 0.000000 -0.996221 -0.000001 -1.387532 0.000000 0.000000
    42 -0.000001 -0.614690 0.000000 -1.183321 0.000000 0.000000
    43 -0.308254 -0.007814 0.307166 -0.241552 -0.531379 -1.938567
    44 1.978377 0.019543 0.000000 -0.099390 0.032995 0.869278
    45 0.982426 0.003187 0.000000 0.000000 0.000000 1.117011
  time 16
    0 7.071377 0.552295 -8.108118 -1.169609 -1.200629 0.986076
    1 0.000000 -8.563281 0.000001 0.088778 -0.015547 -0.324599
    2 -0.490616 -3.701483 0.535283 1.346881 1.541735 1.335142
    3 -0.025679 2.701181 0.658172 0.000000 0.000000 0.000000
    4 0.000000 -3.947158 3.041922 0.000000 0.000000 0.000000
    5 0.000000 -1.548280 0.485224 0.000000 0.000000 0.000000
    6 0.000000 -0.980124 2.284383 0.000000 0.000000 0.000000
    7 0.000000 -2.905539 1.621534 0.000000 0.000000 0.000000
    8 -0.000001 -5.746315 1.557464 0.000000 0.000000 0.000000
    9 0.000000 -0.031566 -0.614062 0.329396 -0.028284 -0.007478
    10 0.000000 -0.000001 -0.824930 0.000000 0.000000 0.000000
    11 0.000000 -0.015647 -0.615740 0.000000 0.000000 0.000000
    12 -0.003480 -0.404829 0.000000 0.000000 0.000000 0.000000
    13 -0.519309 -2.501153 -0.278957 -0.867431 0.000000 -0.122173
    14 -0.010598 -1.208185 0.000000 -0.870926 0.000000 0.000000
    15 0.000000 -0.763066 0.000000 -1.322966 0.000000 0.000000
    16 0.105981 -2.607133 -0.278957 -0.890118 0.000000 -0.148353
    17 0.000000 -1.250578 0.000000 -1.213004 0.000000 0.000000
    18 0.000000 -0.932634 -0.000001 -1.221739 0.000000 0.000000
    19 0.763064 -2.490555 -0.278957 0.090743 0.000000 0.130900
    20 -0.012322 -1.280915 0.000000 -1.265352 0.000000 0.000000
    21 -0.001697 -0.749371 0.000000 -0.593412 0.000000 0.000000
    22 0.354567 0.016267 0.318133 0.357130 -0.522242 -1.116358
    23 1.887164 0.012878 0.000001 -0.304163 -0.028296 -0.491334
    24 1.001873 -0.000270 0.000000 0.000000 0.000000 -0.855205
    25 -1.123358 -2.195092 -0.278957 -0.556764 0.000000 -0.087266
    26 0.010772 -0.963791 0.000000 -0.568979 0.000000 0.000000
    27 -0.010412 -0.631916 0.000000 -1.118757 0.000000 0.000000
    28 -4.194952 -9.310592 -9.229092 -2.026042 1.060792 -1.024645
    29 0.089930 -8.543162 0.000000 -0.168547 -0.370725 0.406579
    30 0.000001 -0.359713 -0.000001 0.000000 0.000000 0.000000
    31 -0.170478 -2.636147 -0.277655 -1.692969 0.000000 0.000000
    32 0.010599 -1.261177 0.000001 -1.404983 0.000000 0.000000
    33 -0.000002 -0.943232 -0.000001 -1.370083 0.000000 0.000000
    34 -0.827562 -2.508972 -0.277656 -1.595199 0.000000 0.000000
    35 0.000000 -1.292970 0.000000 -1.439887 0.000000 0.000000
    36 0.000000 -0.752467 0.000000 -1.167619 0.000000 0.000000
    37 0.444215 -2.561960 -0.277655 -1.727307 -0.046226 -0.024599
    38 0.021022 -1.208185 0.000000 -1.370067 0.000000 0.000000
    39 0.010597 -0.741867 -0.000001 -1.082103 0.000000 0.000000
    40 1.047446 -2.222821 -0.277655 -1.508123 -0.078971 -0.038609
    41 0.000000 -0.996221 -0.000001 -1.387532 0.000000 0.000000
    42 -0.000001 -0.614690 0.000000 -1.183321 0.000000 0.000000
    43 -0.308254 -0.007814 0.307166 -0.241552 -0.531379 -1.938567
    44 1.978377 0.019543 0.000000 -0.099390 0.032995 0.869278
    45 0.982426 0.003187 0.000000 0.000000 0.000000 1.117011
  time 17
    0 7.063564 0.528857 -8.119837 -1.169609 -1.199489 0.987368
    1 0.000000 -8.563281 0.000001 0.081635 -0.015270 -0.325072
    2 -0.490616 -3.701483 0.535283 1.346881 1.541735 1.335142
    3 -0.025679 2.701181 0.658172 0.000000 0.000000 0.000000
    4 0.000000 -3.947158 3.041922 0.000000 0.000000 0.000000
    5 0.000000 -1.548280 0.485224 0.000000 0.000000 0.000000
    6 0.000000 -0.980124 2.284383 0.000000 0.000000 0.000000
    7 0.000000 -2.905539 1.621534 0.000000 0.000000 0.000000
    8 -0.000001 -5.746315 1.557464 0.000000 0.000000 0.000000
    9 0.000000 -0.031566 -0.614062 0.341991 -0.020170 -0.006304
    10 0.000000 -0.000001 -0.824930 0.000000 0.000000 0.000000
    11 0.000000 -0.015647 -0.615740 0.000000 0.000000 0.000000
    12 -0.003480 -0.404829 0.000000 0.000000 0.000000 0.000000
    13 -0.519309 -2.501153 -0.278957 -0.867431 0.000000 -0.122173
    14 -0.010598 -1.208185 0.000000 -0.870926 0.000000 0.000000
    15 0.000000 -0.763066 0.000000 -1.322966 0.000000 0.000000
    16 0.105981 -2.607133 -0.278957 -0.890118 0.000000 -0.148353
    17 0.000000 -1.250578 0.000000 -1.213004 0.000000 0.000000
    18 0.000000 -0.932634 -0.000001 -1.221739 0.000000 0.000000
    19 0.763064 -2.490555 -0.278957 0.090743 0.000000 0.130900
    20 -0.012322 -1.280915 0.000000 -1.265352 0.000000 0.000000
    21 -0.001697 -0.749371 0.000000 -0.593412 0.000000 0.000000
    22 0.354567 0.016267 0.318133 0.357130 -0.522242 -1.116358
    23 1.887164 0.012878 0.000001 -0.304163 -0.028296 -0.491334
    24 1.001873 -0.000270 0.000000 0.000000 0.000000 -0.855205
    25 -1.123358 -2.195092 -0.278957 -0.556764 0.000000 -0.087266
    26 0.010772 -0.963791 0.000000 -0.568979 0.000000 0.000000
    27 -0.010412 -0.631916 0.000000 -1.118757 0.000000 0.000000
    28 -4.191046 -9.361375 -9.236905 -2.024146 1.055968 -1.020143
    29 0.089930 -8.543162 0.000000 -0.172323 -0.369273 0.402535
    30 0.000001 -0.359713 -0.000001 0.000000 0.000000 0.000000
    31 -0.170478 -2.636147 -0.277655 -1.692969 0.000000 0.000000
    32 0.010599 -1.261177 0.000001 -1.404983 0.000000 0.000000
    33 -0.000002 -0.943232 -0.000001 -1.370083 0.000000 0.000000
    34 -0.827562 -2.508972 -0.277656 -1.595199 0.000000 0.000000
    35 0.000000 -1.292970 0.000000 -1.439887 0.000000 0.000000
    36 0.000000 -0.752467 0.000000 -1.167619 0.000000 0.000000
    37 0.444215 -2.561960 -0.277655 -1.727307 -0.046226 -0.024599
    38 0.021022 -1.208185 0.000000 -1.370067 0.000000 0.000000
    39 0.010597 -0.741867 -0.000001 -1.082103 0.000000 0.000000
    40 1.047446 -2.222821 -0.277655 -1.508123 -0.078971 -0.038609
    41 0.000000 -0.996221 -0.000001 -1.387532 0.000000 0.000000
    42 -0.000001 -0.614690 0.000000 -1.183321 0.000000 0.000000
    43 -0.308254 -0.007814 0.307166 -0.241552 -0.531379 -1.938567
    44 1.978377 0.019543 0.000000 -0.099390 0.032995 0.869278
    45 0.982426 0.003187 0.000000 0.000000 0.000000 1.117011
  time 18
    0 7.059658 0.521044 -8.123743 -1.170923 -1.197741 0.989371
    1 0.000000 -8.563281 0.000001 0.076578 -0.015270 -0.324315
    2 -0.490616 -3.701483 0.535283 1.346881 1.541735 1.335142
    3 -0.025679 2.701181 0.658172 0.000000 0.000000 0.000000
    4 0.000000 -3.947158 3.041922 0.000000 0.000000 0.000000
    5 0.000000 -1.548280 0.485224 0.000000 0.000000 0.000000
    6 0.000000 -0.980124 2.284383 0.000000 0.000000 0.000000
    7 0.000000 -2.905539 1.621534 0.000000 0.000000 0.000000
    8 -0.000001 -5.746315 1.557464 0.000000 0.000000 0.000000
    9 0.000000 -0.031566 -0.614062 0.335123 -0.014825 -0.005153
    10 0.000000 -0.000001 -0.824930 0.000000 0.000000 0.000000
    11 0.000000 -0.015647 -0.615740 0.000000 0.000000 0.000000
    12 -0.003480 -0.404829 0.000000 0.000000 0.000000 0.000000
    13 -0.519309 -2.501153 -0.278957 -0.867431 0.000000 -0.122173
    14 -0.010598 -1.208185 0.000000 -0.870926 0.000000 0.000000
    15 0.000000 -0.763066 0.000000 -1.322966 0.000000 0.000000
    16 0.105981 -2.607133 -0.278957 -0.890118 0.000000 -0.148353
    17 0.000000 -1.250578 0.000000 -1.213004 0.000000 0.000000
    18 0.000000 -0.932634 -0.000001 -1.221739 0.000000 0.000000
    19 0.763064 -2.490555 -0.278957 0.090743 0.000000 0.130900
    20 -0.012322 -1.280915 0.000000 -1.265352 0.000000 0.000000
    21 -0.001697 -0.749371 0.000000 -0.593412 0.000000 0.000000
    22 0.354567 0.016267 0.318133 0.357130 -0.522242 -1.116358
    23 1.887164 0.012878 0.000001 -0.304163 -0.028296 -0.491334
    24 1.001873 -0.000270 0.000000 0.000000 0.000000 -0.855205
    25 -1.123358 -2.195092 -0.278957 -0.556764 0.000000 -0.087266
    26 0.010772 -0.963791 0.000000 -0.568979 0.000000 0.000000
    27 -0.010412 -0.631916 0.000000 -1.118757 0.000000 0.000000
    28 -4.179327 -9.416064 -9.256437 -2.020735 1.049187 -1.013822
    29 0.089930 -8.543162 0.000000 -0.176071 -0.366911 0.398444
    30 0.000001 -0.359713 -0.000001 0.000000 0.000000 0.000000
    31 -0.170478 -2.636147 -0.277655 -1.692969 0.000000 0.000000
    32 0.010599 -1.261177 0.000001 -1.404983 0.000000 0.000000
    33 -0.000002 -0.943232 -0.000001 -1.370083 0.000000 0.000000
    34 -0.827562 -2.508972 -0.277656 -1.595199 0.000000 0.000000
    35 0.000000 -1.292970 0.000000 -1.439887 0.000000 0.000000
    36 0.000000 -0.752467 0.000000 -1.167619 0.000000 0.000000
    37 0.444215 -2.561960 -0.277655 -1.727307 -0.046226 -0.024599
    38 0.021022 -1.208185 0.000000 -1.370067 0.000000 0.000000
    39 0.010597 -0.741867 -0.000001 -1.082103 0.000000 0.000000
    40 1.047446 -2.222821 -0.277655 -1.508123 -0.078971 -0.038609
    41 0.000000 -0.996221 -0.000001 -1.387532 0.000000 0.000000
    42 -0.000001 -0.614690 0.000000 -1.183321 0.000000 0.000000
    43 -0.308254 -0.007814 0.307166 -0.241552 -0.531379 -1.938567
    44 1.978377 0.019543 0.000000 -0.099390 0.032995 0.869278
    45 0.982426 0.003187 0.000000 0.000000 0.000000 1.117011
  time 19
    0 7.059658 0.524951 -8.135462 -1.173395 -1.195538 0.991956
    1 0.000000 -8.563281 0.000001 0.074360 -0.015132 -0.323235
    2 -0.490616 -3.701483 0.535283 1.346881 1.541735 1.335142
    3 -0.025679 2.701181 0.658172 0.000000 0.000000 0.000000
    4 0.000000 -3.947158 3.041922 0.000000 0.000000 0.000000
    5 0.000000 -1.548280 0.485224 0.000000 0.000000 0.000000
    6 0.000000 -0.980124 2.284383 0.000000 0.000000 0.000000
    7 0.000000 -2.905539 1.621534 0.000000 0.000000 0.000000
    8 -0.000001 -5.746315 1.557464 0.000000 0.000000 0.000000
    9 0.000000 -0.031566 -0.614062 0.309284 -0.012152 -0.004207
    10 0.000000 -0.000001 -0.824930 0.000000 0.000000 0.000000
    11 0.000000 -0.015647 -0.615740 0.000000 0.000000 0.000000
    12 -0.003480 -0.404829 0.000000 0.000000 0.000000 0.000000
    13 -0.519309 -2.501153 -0.278957 -0.867431 0.000000 -0.122173
    14 -0.010598 -1.208185 0.000000 -0.870926 0.000000 0.000000
    15 0.000000 -0.763066 0.000000 -1.322966 0.000000 0.000000
    16 0.105981 -2.607133 -0.278957 -0.890118 0.000000 -0.148353
    17 0.000000 -1.250578 0.000000 -1.213004 0.000000 0.000000
    18 0.000000 -0.932634 -0.000001 -1.221739 0.000000 0.000000
    19 0.763064 -2.490555 -0.278957 0.090743 0.000000 0.130900
    20 -0.012322 -1.280915 0.000000 -1.265352 0.000000 0.000000
    21 -0.001697 -0.749371 0.000000 -0.593412 0.000000 0.000000
    22 0.354567 0.016267 0.318133 0.357130 -0.522242 -1.116358
    23 1.887164 0.012878 0.000001 -0.304163 -0.028296 -0.491334
    24 1.001873 -0.000270 0.000000 0.000000 0.000000 -0.855205
    25 -1.123358 -2.195092 -0.278957 -0.556764 0.000000 -0.087266
    26 0.010772 -0.963791 0.000000 -0.568979 0.000000 0.000000
    27 -0.010412 -0.631916 0.000000 -1.118757 0.000000 0.000000
    28 -4.163701 -9.478566 -9.291594 -2.016280 1.040843 -1.006256
    29 0.089930 -8.543162 0.000000 -0.179765 -0.363899 0.394352
    30 0.000001 -0.359713 -0.000001 0.000000 0.000000 0.000000
    31 -0.170478 -2.636147 -0.277655 -1.692969 0.000000 0.000000
    32 0.010599 -1.261177 0.000001 -1.404983 0.000000 0.000000
    33 -0.000002 -0.943232 -0.000001 -1.370083 0.000000 0.000000
    34 -0.827562 -2.508972 -0.277656 -1.595199 0.000000 0.000000
    35 0.000000 -1.292970 0.000000 -1.439887 0.000000 0.000000
    36 0.000000 -0.752467 0.000000 -1.167619 0.000000 0.000000
    37 0.444215 -2.561960 -0.277655 -1.727307 -0.046226 -0.024599
    38 0.021022 -1.208185 0.000000 -1.370067 0.000000 0.000000
    39 0.010597 -0.741867 -0.000001 -1.082103 0.000000 0.000000
    40 1.047446 -2.222821 -0.277655 -1.508123 -0.078971 -0.038609
    41 0.000000 -0.996221 -0.000001 -1.387532 0.000000 0.000000
    42 -0.000001 -0.614690 0.000000 -1.183321 0.000000 0.000000
    43 -0.308254 -0.007814 0.307166 -0.241552 -0.531379 -1.938567
    44 1.978377 0.019543 0.000000 -0.099390 0.032995 0.869278
    45 0.982426 0.003187 0.000000 0.000000 0.000000 1.117011
  time 20
    0 7.059658 0.536670 -8.151088 -1.176563 -1.192954 0.994865
    1 0.000000 -8.563281 0.000001 0.074324 -0.014883 -0.321948
    2 -0.490616 -3.701483 0.535283 1.346881 1.541735 1.335142
    3 -0.025679 2.701181 0.658172 0.000000 0.000000 0.000000
    4 0.000000 -3.947158 3.041922 0.000000 0.000000 0.000000
    5 0.000000 -1.548280 0.485224 0.000000 0.000000 0.000000
    6 0.000000 -0.980124 2.284383 0.000000 0.000000 0.000000
    7 0.000000 -2.905539 1.621534 0.000000 0.000000 0.000000
    8 -0.000001 -5.746315 1.557464 0.000000 0.000000 0.000000
    9 0.000000 -0.031566 -0.614062 0.269933 -0.009863 -0.003272
    10 0.000000 -0.000001 -0.824930 0.000000 0.000000 0.000000
    11 0.000000 -0.015647 -0.615740 0.000000 0.000000 0.000000
    12 -0.003480 -0.404829 0.000000 0.000000 0.000000 0.000000
    13 -0.519309 -2.501153 -0.278957 -0.867431 0.000000 -0.122173
    14 -0.010598 -1.208185 0.000000 -0.870926 0.000000 0.000000
    15 0.000000 -0.763066 0.000000 -1.322966 0.000000 0.000000
    16 0.105981 -2.607133 -0.278957 -0.890118 0.000000 -0.148353
    17 0.000000 -1.250578 0.000000 -1.213004 0.000000 0.000000
    18 0.000000 -0.932634 -0.000001 -1.221739 0.000000 0.000000
    19 0.763064 -2.490555 -0.278957 0.090743 0.000000 0.130900
    20 -0.012322 -1.280915 0.000000 -1.265352 0.000000 0.000000
    21 -0.001697 -0.749371 0.000000 -0.593412 0.000000 0.000000
    22 0.354567 0.016267 0.318133 0.357130 -0.522242 -1.116358
    23 1.887164 0.012878 0.000001 -0.304163 -0.028296 -0.491334
    24 1.001873 -0.000270 0.000000 0.000000 0.000000 -0.855205
    25 -1.123358 -2.195092 -0.278957 -0.556764 0.000000 -0.087266
    26 0.010772 -0.963791 0.000000 -0.568979 0.000000 0.000000
    27 -0.010412 -0.631916 0.000000 -1.118757 0.000000 0.000000
    28 -4.140263 -9.548881 -9.342377 -2.011162 1.031390 -0.997923
    29 0.089930 -8.543162 0.000000 -0.183458 -0.360432 0.390237
    30 0.000001 -0.359713 -0.000001 0.000000 0.000000 0.000000
    31 -0.170478 -2.636147 -0.277655 -1.692969 0.000000 0.000000
    32 0.010599 -1.261177 0.000001 -1.404983 0.000000 0.000000
    33 -0.000002 -0.943232 -0.000001 -1.370083 0.000000 0.000000
    34 -0.827562 -2.508972 -0.277656 -1.595199 0.000000 0.000000
    35 0.000000 -1.292970 0.000000 -1.439887 0.000000 0.000000
    36 0.000000 -0.752467 0.000000 -1.167619 0.000000 0.000000
    37 0.444215 -2.561960 -0.277655 -1.727307 -0.046226 -0.024599
    38 0.021022 -1.208185 0.000000 -1.370067 0.000000 0.000000
    39 0.010597 -0.741867 -0.000001 -1.082103 0.000000 0.000000
    40 1.047446 -2.222821 -0.277655 -1.508123 -0.078971 -0.038609
    41 0.000000 -0.996221 -0.000001 -1.387532 0.000000 0.000000
    42 -0.000001 -0.614690 0.000000 -1.183321 0.000000 0.000000
    43 -0.308254 -0.007814 0.307166 -0.241552 -0.531379 -1.938567
    44 1.978377 0.019543 0.000000 -0.099390 0.032995 0.869278
    45 0.982426 0.003187 0.000000 0.000000 0.000000 1.117011
  time 21
    0 7.059658 0.556202 -8.166713 -1.180195 -1.190192 0.997967
    1 0.000000 -8.563281 0.000001 0.075835 -0.014606 -0.320471
    2 -0.490616 -3.701483 0.535283 1.346881 1.541735 1.335142
    3 -0.025679 2.701181 0.658172 0.000000 0.000000 0.000000
    4 0.000000 -3.947158 3.041922 0.000000 0.000000 0.000000
    5 0.000000 -1.548280 0.485224 0.000000 0.000000 0.000000
    6 0.000000 -0.980124 2.284383 0.000000 0.000000 0.000000
    7 0.000000 -2.905539 1.621534 0.000000 0.000000 0.000000
    8 -0.000001 -5.746315 1.557464 0.000000 0.000000 0.000000
    9 0.000000 -0.031566 -0.614062 0.220850 -0.007838 -0.002421
    10 0.000000 -0.000001 -0.824930 0.000000 0.000000 0.000000
    11 0.000000 -0.015647 -0.615740 0.000000 0.000000 0.000000
    12 -0.003480 -0.404829 0.000000 0.000000 0.000000 0.000000
    13 -0.519309 -2.501153 -0.278957 -0.867431 0.000000 -0.122173
    14 -0.010598 -1.208185 0.000000 -0.870926 0.000000 0.000000
    15 0.000000 -0.763066 0.000000 -1.322966 0.000000 0.000000
    16 0.105981 -2.607133 -0.278957 -0.890118 0.000000 -0.148353
    17 0.000000 -1.250578 0.000000 -1.213004 0.000000 0.000000
    18 0.000000 -0.932634 -0.000001 -1.221739 0.000000 0.000000
    19 0.763064 -2.490555 -0.278957 0.090743 0.000000 0.130900
    20 -0.012322 -1.280915 0.000000 -1.265352 0.000000 0.000000
    21 -0.001697 -0.749371 0.000000 -0.593412 0.000000 0.000000
    22 0.354567 0.016267 0.318133 0.357130 -0.522242 -1.116358
    23 1.887164 0.012878 0.000001 -0.304163 -0.028296 -0.491334
    24 1.001873 -0.000270 0.000000 0.000000 0.000000 -0.855205
    25 -1.123358 -2.195092 -0.278957 -0.556764 0.000000 -0.087266
    26 0.010772 -0.963791 0.000000 -0.568979 0.000000 0.000000
    27 -0.010412 -0.631916 0.000000 -1.118757 0.000000 0.000000
    28 -4.109012 -9.627008 -9.404879 -2.005855 1.021285 -0.989112
    29 0.089930 -8.543162 0.000000 -0.187097 -0.356834 0.386122
    30 0.000001 -0.359713 -0.000001 0.000000 0.000000 0.000000
    31 -0.170478 -2.636147 -0.277655 -1.692969 0.000000 0.000000
    32 0.010599 -1.261177 0.000001 -1.404983 0.000000 0.000000
    33 -0.000002 -0.943232 -0.000001 -1.370083 0.000000 0.000000
    34 -0.827562 -2.508972 -0.277656 -1.595199 0.000000 0.000000
    35 0.000000 -1.292970 0.000000 -1.439887 0.000000 0.000000
    36 0.000000 -0.752467 0.000000 -1.167619 0.000000 0.000000
    37 0.444215 -2.561960 -0.277655 -1.727307 -0.046226 -0.024599
    38 0.021022 -1.208185 0.000000 -1.370067 0.000000 0.000000
    39 0.010597 -0.741867 -0.000001 -1.082103 0.000000 0.000000
    40 1.047446 -2.222821 -0.277655 -1.508123 -0.078971 -0.038609
    41 0.000000 -0.996221 -0.000001 -1.387532 0.000000 0.000000
    42 -0.000001 -0.614690 0.000000 -1.183321 0.000000 0.000000
    43 -0.308254 -0.007814 0.307166 -0.241552 -0.531379 -1.938567
    44 1.978377 0.019543 0.000000 -0.099390 0.032995 0.869278
    45 0.982426 0.003187 0.000000 0.000000 0.000000 1.117011
  time 22
    0 7.063564 0.587453 -8.182339 -1.183981 -1.187330 1.001069
    1 0.000000 -8.563281 0.000001 0.078195 -0.014302 -0.318899
    2 -0.490616 -3.701483 0.535283 1.346881 1.541735 1.335142
    3 -0.025679 2.701181 0.658172 0.000000 0.000000 0.000000
    4 0.000000 -3.947158 3.041922 0.000000 0.000000 0.000000
    5 0.000000 -1.548280 0.485224 0.000000 0.000000 0.000000
    6 0.000000 -0.980124 2.284383 0.000000 0.000000 0.000000
    7 0.000000 -2.905539 1.621534 0.000000 0.000000 0.000000
    8 -0.000001 -5.746315 1.557464 0.000000 0.000000 0.000000
    9 0.000000 -0.031566 -0.614062 0.165615 -0.005920 -0.001654
    10 0.000000 -0.000001 -0.824930 0.000000 0.000000 0.000000
    11 0.000000 -0.015647 -0.615740 0.000000 0.000000 0.000000
    12 -0.003480 -0.404829 0.000000 0.000000 0.000000 0.000000
    13 -0.519309 -2.501153 -0.278957 -0.867431 0.000000 -0.122173
    14 -0.010598 -1.208185 0.000000 -0.870926 0.000000 0.000000
    15 0.000000 -0.763066 0.000000 -1.322966 0.000000 0.000000
    16 0.105981 -2.607133 -0.278957 -0.890118 0.000000 -0.148353
    17 0.000000 -1.250578 0.000000 -1.213004 0.000000 0.000000
    18 0.000000 -0.932634 -0.000001 -1.221739 0.000000 0.000000
    19 0.763064 -2.490555 -0.278957 0.090743 0.000000 0.130900
    20 -0.012322 -1.280915 0.000000 -1.265352 0.000000 0.000000
    21 -0.001697 -0.749371 0.000000 -0.593412 0.000000 0.000000
    22 0.354567 0.016267 0.318133 0.357130 -0.522242 -1.116358
    23 1.887164 0.012878 0.000001 -0.304163 -0.028296 -0.491334
    24 1.001873 -0.000270 0.000000 0.000000 0.000000 -0.855205
    25 -1.123358 -2.195092 -0.278957 -0.556764 0.000000 -0.087266
    26 0.010772 -0.963791 0.000000 -0.568979 0.000000 0.000000
    27 -0.010412 -0.631916 0.000000 -1.118757 0.000000 0.000000
    28 -4.069948 -9.709042 -9.475193 -2.000453 1.010854 -0.980301
    29 0.089930 -8.543162 0.000000 -0.190791 -0.353345 0.381983
    30 0.000001 -0.359713 -0.000001 0.000000 0.000000 0.000000
    31 -0.170478 -2.636147 -0.277655 -1.692969 0.000000 0.000000
    32 0.010599 -1.261177 0.000001 -1.404983 0.000000 0.000000
    33 -0.000002 -0.943232 -0.000001 -1.370083 0.000000 0.000000
    34 -0.827562 -2.508972 -0.277656 -1.595199 0.000000 0.000000
    35 0.000000 -1.292970 0.000000 -1.439887 0.000000 0.000000
    36 0.000000 -0.752467 0.000000 -1.167619 0.000000 0.000000
    37 0.444215 -2.561960 -0.277655 -1.727307 -0.046226 -0.024599
    38 0.021022 -1.208185 0.000000 -1.370067 0.000000 0.000000
    39 0.010597 -0.741867 -0.000001 -1.082103 0.000000 0.000000
    40 1.047446 -2.222821 -0.277655 -1.508123 -0.078971 -0.038609
    41 0.000000 -0.996221 -0.000001 -1.387532 0.000000 0.000000
    42 -0.000001 -0.614690 0.000000 -1.183321 0.000000 0.000000
    43 -0.308254 -0.007814 0.307166 -0.241552 -0.531379 -1.938567
    44 1.978377 0.019543 0.000000 -0.099390 0.032995 0.869278
    45 0.982426 0.003187 0.000000 0.000000 0.000000 1.117011
  time 23
    0 7.071377 0.626516 -8.201871 -1.187612 -1.184493 1.004171
    1 0.000000 -8.563281 0.000001 0.080784 -0.013998 -0.317327
    2 -0.490616 -3.701483 0.535283 1.346881 1.541735 1.335142
    3 -0.025679 2.701181 0.658172 0.000000 0.000000 0.000000
    4 0.000000 -3.947158 3.041922 0.000000 0.000000 0.000000
    5 0.000000 -1.548280 0.485224 0.000000 0.000000 0.000000
    6 0.000000 -0.980124 2.284383 0.000000 0.000000 0.000000
    7 0.000000 -2.905539 1.621534 0.000000 0.000000 0.000000
    8 -0.000001 -5.746315 1.557464 0.000000 0.000000 0.000000
    9 0.000000 -0.031566 -0.614062 0.107942 -0.004051 -0.000983
    10 0.000000 -0.000001 -0.824930 0.000000 0.000000 0.000000
    11 0.000000 -0.015647 -0.615740 0.000000 0.000000 0.000000
    12 -0.003480 -0.404829 0.000000 0.000000 0.000000 0.000000
    13 -0.519309 -2.501153 -0.278957 -0.867431 0.000000 -0.122173
    14 -0.010598 -1.208185 0.000000 -0.870926 0.000000 0.000000
    15 0.000000 -0.763066 0.000000 -1.322966 0.000000 0.000000
    16 0.105981 -2.607133 -0.278957 -0.890118 0.000000 -0.148353
    17 0.000000 -1.250578 0.000000 -1.213004 0.000000 0.000000
    18 0.000000 -0.932634 -0.000001 -1.221739 0.000000 0.000000
    19 0.763064 -2.490555 -0.278957 0.090743 0.000000 0.130900
    20 -0.012322 -1.280915 0.000000 -1.265352 0.000000 0.000000
    21 -0.001697 -0.749371 0.000000 -0.593412 0.000000 0.000000
    22 0.354567 0.016267 0.318133 0.357130 -0.522242 -1.116358
    23 1.887164 0.012878 0.000001 -0.304163 -0.028296 -0.491334
    24 1.001873 -0.000270 0.000000 0.000000 0.000000 -0.855205
    25 -1.123358 -2.195092 -0.278957 -0.556764 0.000000 -0.087266
    26 0.010772 -0.963791 0.000000 -0.568979 0.000000 0.000000
    27 -0.010412 -0.631916 0.000000 -1.118757 0.000000 0.000000
    28 -4.023072 -9.802795 -9.561133 -1.995525 1.000488 -0.971873
    29 0.089930 -8.543162 0.000000 -0.194539 -0.350181 0.377844
    30 0.000001 -0.359713 -0.000001 0.000000 0.000000 0.000000
    31 -0.170478 -2.636147 -0.277655 -1.692969 0.000000 0.000000
    32 0.010599 -1.261177 0.000001 -1.404983 0.000000 0.000000
    33 -0.000002 -0.943232 -0.000001 -1.370083 0.000000 0.000000
    34 -0.827562 -2.508972 -0.277656 -1.595199 0.000000 0.000000
    35 0.000000 -1.292970 0.000000 -1.439887 0.000000 0.000000
    36 0.000000 -0.752467 0.000000 -1.167619 0.000000 0.000000
    37 0.444215 -2.561960 -0.277655 -1.727307 -0.046226 -0.024599
    38 0.021022 -1.208185 0.000000 -1.370067 0.000000 0.000000
    39 0.010597 -0.741867 -0.000001 -1.082103 0.000000 0.000000
    40 1.047446 -2.222821 -0.277655 -1.508123 -0.078971 -0.038609
    41 0.000000 -0.996221 -0.000001 -1.387532 0.000000 0.000000
    42 -0.000001 -0.614690 0.000000 -1.183321 0.000000 0.000000
    43 -0.308254 -0.007814 0.307166 -0.241552 -0.531379 -1.938567
    44 1.978377 0.019543 0.000000 -0.099390 0.032995 0.869278
    45 0.982426 0.003187 0.000000 0.000000 0.000000 1.117011
  time 24
    0 7.079190 0.673393 -8.221402 -1.190858 -1.181833 1.006949
    1 0.000000 -8.563281 0.000001 0.082953 -0.013722 -0.315774
    2 -0.490616 -3.701483 0.535283 1.346881 1.541735 1.335142
    3 -0.025679 2.701181 0.658172 0.000000 0.000000 0.000000
    4 0.000000 -3.947158 3.041922 0.000000 0.000000 0.000000
    5 0.000000 -1.548280 0.485224 0.000000 0.000000 0.000000
    6 0.000000 -0.980124 2.284383 0.000000 0.000000 0.000000
    7 0.000000 -2.905539 1.621534 0.000000 0.000000 0.000000
    8 -0.000001 -5.746315 1.557464 0.000000 0.000000 0.000000
    9 0.000000 -0.031566 -0.614062 0.051499 -0.002097 -0.000419
    10 0.000000 -0.000001 -0.824930 0.000000 0.000000 0.000000
    11 0.000000 -0.015647 -0.615740 0.000000 0.000000 0.000000
    12 -0.003480 -0.404829 0.000000 0.000000 0.000000 0.000000
    13 -0.519309 -2.501153 -0.278957 -0.867431 0.000000 -0.122173
    14 -0.010598 -1.208185 0.000000 -0.870926 0.000000 0.000000
    15 0.000000 -0.763066 0.000000 -1.322966 0.000000 0.000000
    16 0.105981 -2.607133 -0.278957 -0.890118 0.000000 -0.148353
    17 0.000000 -1.250578 0.000000 -1.213004 0.000000 0.000000
    18 0.000000 -0.932634 -0.000001 -1.221739 0.000000 0.000000
    19 0.763064 -2.490555 -0.278957 0.090743 0.000000 0.130900
    20 -0.012322 -1.280915 0.000000 -1.265352 0.000000 0.000000
    21 -0.001697 -0.749371 0.000000 -0.593412 0.000000 0.000000
    22 0.354567 0.016267 0.318133 0.357130 -0.522242 -1.116358
    23 1.887164 0.012878 0.000001 -0.304163 -0.028296 -0.491334
    24 1.001873 -0.000270 0.000000 0.000000 0.000000 -0.855205
    25 -1.123358 -2.195092 -0.278957 -0.556764 0.000000 -0.087266
    26 0.010772 -0.963791 0.000000 -0.568979 0.000000 0.000000
    27 -0.010412 -0.631916 0.000000 -1.118757 0.000000 0.000000
    28 -3.972289 -9.900454 -9.662699 -1.991071 0.990709 -0.964115
    29 0.089930 -8.543162 0.000000 -0.198287 -0.347646 0.373704
    30 0.000001 -0.359713 -0.000001 0.000000 0.000000 0.000000
    31 -0.170478 -2.636147 -0.277655 -1.692969 0.000000 0.000000
    32 0.010599 -1.261177 0.000001 -1.404983 0.000000 0.000000
    33 -0.000002 -0.943232 -0.000001 -1.370083 0.000000 0.000000
    34 -0.827562 -2.508972 -0.277656 -1.595199 0.000000 0.000000
    35 0.000000 -1.292970 0.000000 -1.439887 0.000000 0.000000
    36 0.000000 -0.752467 0.000000 -1.167619 0.000000 0.000000
    37 0.444215 -2.561960 -0.277655 -1.727307 -0.046226 -0.024599
    38 0.021022 -1.208185 0.000000 -1.370067 0.000000 0.000000
    39 0.010597 -0.741867 -0.000001 -1.082103 0.000000 0.000000
    40 1.047446 -2.222821 -0.277655 -1.508123 -0.078971 -0.038609
    41 0.000000 -0.996221 -0.000001 -1.387532 0.000000 0.000000
    42 -0.000001 -0.614690 0.000000 -1.183321 0.000000 0.000000
    43 -0.308254 -0.007814 0.307166 -0.241552 -0.531379 -1.938567
    44 1.978377 0.019543 0.000000 -0.099390 0.032995 0.869278
    45 0.982426 0.003187 0.000000 0.000000 0.000000 1.117011
  time 25
    0 7.087003 0.728082 -8.244841 -1.193330 -1.179502 1.009470
    1 0.000000 -8.563281 0.000001 0.084008 -0.013473 -0.314373
    2 -0.490616 -3.701483 0.535283 1.346881 1.541735 1.335142
    3 -0.025679 2.701181 0.658172 0.000000 0.000000 0.000000
    4 0.000000 -3.947158 3.041922 0.000000 0.000000 0.000000
    5 0.000000 -1.548280 0.485224 0.000000 0.000000 0.000000
    6 0.000000 -0.980124 2.284383 0.000000 0.000000 0.000000
    7 0.000000 -2.905539 1.621534 0.000000 0.000000 0.000000
    8 -0.000001 -5.746315 1.557464 0.000000 0.000000 0.000000
    9 0.000000 -0.031566 -0.614062 0.000000 0.000000 0.000000
    10 0.000000 -0.000001 -0.824930 0.000000 0.000000 0.000000
    11 0.000000 -0.015647 -0.615740 0.000000 0.000000 0.000000
    12 -0.003480 -0.404829 0.000000 0.000000 0.000000 0.000000
    13 -0.519309 -2.501153 -0.278957 -0.867431 0.000000 -0.122173
    14 -0.010598 -1.208185 0.000000 -0.870926 0.000000 0.000000
    15 0.000000 -0.763066 0.000000 -1.322966 0.000000 0.000000
    16 0.105981 -2.607133 -0.278957 -0.890118 0.000000 -0.148353
    17 0.000000 -1.250578 0.000000 -1.213004 0.000000 0.000000
    18 0.000000 -0.932634 -0.000001 -1.221739 0.000000 0.000000
    19 0.763064 -2.490555 -0.278957 0.090743 0.000000 0.130900
    20 -0.012322 -1.280915 0.000000 -1.265352 0.000000 0.000000
    21 -0.001697 -0.749371 0.000000 -0.593412 0.000000 0.000000
    22 0.354567 0.016267 0.318133 0.357130 -0.522242 -1.116358
    23 1.887164 0.012878 0.000001 -0.304163 -0.028296 -0.491334
    24 1.001873 -0.000270 0.000000 0.000000 0.000000 -0.855205
    25 -1.123358 -2.195092 -0.278957 -0.556764 0.000000 -0.087266
    26 0.010772 -0.963791 0.000000 -0.568979 0.000000 0.000000
    27 -0.010412 -0.631916 0.000000 -1.118757 0.000000 0.000000
    28 -3.909787 -10.005926 -9.779890 -1.987564 0.981908 -0.957315
    29 0.089930 -8.543162 0.000000 -0.202090 -0.345999 0.369613
    30 0.000001 -0.359713 -0.000001 0.000000 0.000000 0.000000
    31 -0.170478 -2.636147 -0.277655 -1.692969 0.000000 0.000000
    32 0.010599 -1.261177 0.000001 -1.404983 0.000000 0.000000
    33 -0.000002 -0.943232 -0.000001 -1.370083 0.000000 0.000000
    34 -0.827562 -2.508972 -0.277656 -1.595199 0.000000 0.000000
    35 0.000000 -1.292970 0.000000 -1.439887 0.000000 0.000000
    36 0.000000 -0.752467 0.000000 -1.167619 0.000000 0.000000
    37 0.444215 -2.561960 -0.277655 -1.727307 -0.046226 -0.024599
    38 0.021022 -1.208185 0.000000 -1.370067 0.000000 0.000000
    39 0.010597 -0.741867 -0.000001 -1.082103 0.000000 0.000000
    40 1.047446 -2.222821 -0.277655 -1.508123 -0.078971 -0.038609
    41 0.000000 -0.996221 -0.000001 -1.387532 0.000000 0.000000
    42 -0.000001 -0.614690 0.000000 -1.183321 0.000000 0.000000
    43 -0.308254 -0.007814 0.307166 -0.241552 -0.531379 -1.938567
    44 1.978377 0.019543 0.000000 -0.099390 0.032995 0.869278
    45 0.982426 0.003187 0.000000 0.000000 0.000000 1.117011
end
