version 1
nodes
  0 "Bone24" -1
  1 "Bone25" 0
  2 "Bone47" 1
  3 "Bone48" 2
  4 "Bone55" 3
  5 "Bone49" 3
  6 "Bone53" 3
  7 "Bone51" 3
  8 "Bone57" 3
  9 "Bone01" -1
  10 "Bone02" 9
  11 "Bone03" 10
  12 "Bone04" 11
  13 "Bone05" 12
  14 "Bone06" 13
  15 "Bone07" 11
  16 "Bone08" 15
  17 "Bone09" 16
  18 "Bone11" 11
  19 "Bone12" 18
  20 "Bone13" 19
  21 "Bone15" 11
  22 "Bone16" 21
  23 "Bone17" 22
  24 "Bone19" 11
  25 "Bone20" 24
  26 "Bone21" 25
  27 "Bone26" 1
  28 "Bone27" 27
  29 "Bone28" 28
  30 "Bone29" 29
  31 "Bone31" 27
  32 "Bone32" 31
  33 "Bone33" 32
  34 "Bone35" 27
  35 "Bone36" 34
  36 "Bone37" 35
  37 "Bone39" 27
  38 "Bone40" 37
  39 "Bone41" 38
  40 "Bone43" 27
  41 "Bone44" 40
  42 "Bone45" 41
end
skeleton
  time 0
    0 9.623875 2.824573 -6.638255 -0.858777 -2.152802 -0.234702
    1 -0.244755 -8.933567 -0.000001 0.065279 0.224378 -0.519014
    2 -0.686200 -3.387099 0.924607 1.218516 1.752558 1.295778
    3 0.000000 2.226937 0.999491 0.000000 0.000000 0.000000
    4 0.000000 -5.541041 1.209910 0.000000 0.000000 0.000000
    5 0.000000 -3.226430 1.771029 0.000000 0.000000 0.000000
    6 0.000000 -6.435323 1.946378 0.000000 0.000000 0.000000
    7 0.000000 -4.979922 3.296568 0.000000 0.000000 0.000000
    8 -0.002621 -10.920650 4.053535 0.007353 -0.041128 -0.003156
    9 -9.435433 -1.631419 -12.307830 -1.383961 2.673638 -1.296981
    10 0.026865 -9.077095 -0.000001 -0.289426 0.001030 0.301733
    11 0.000000 -0.456722 0.000000 0.000000 0.000000 0.000000
    12 -0.710981 0.147372 0.477535 0.010524 -0.135188 -2.253457
    13 1.647790 0.090625 0.000000 0.000000 0.000000 0.000033
    14 0.983506 0.005681 0.000000 0.000000 0.000000 -0.204170
    15 -1.090122 -1.829639 -0.122573 -0.041886 0.309851 -1.647732
    16 1.390341 -0.000584 0.000000 0.000000 -0.403216 0.005236
    17 0.964939 -0.010943 0.000000 0.000000 -0.345593 0.000000
    18 -0.348493 -1.994085 -0.122572 -0.000007 0.235605 -1.644097
    19 1.546314 0.004627 0.000001 0.000000 -0.403178 0.000000
    20 1.135736 0.008475 -0.000001 0.000000 -0.277511 0.020944
    21 0.310263 -1.738958 -0.122572 0.041367 0.178647 -1.551820
    22 1.569655 0.049780 0.000000 0.000000 -0.528867 -0.010472
    23 1.096339 0.003407 0.000001 0.000000 -0.408436 0.005236
    24 0.956485 -1.335291 -0.122573 0.042162 0.127398 -1.530068
    25 1.346261 0.018204 0.000001 0.000000 -0.382288 -0.005236
    26 0.874448 -0.001050 0.000002 0.000000 -0.481743 0.000000
    27 -0.017482 -0.437063 0.000000 0.000000 0.000000 0.000000
    28 0.714223 0.114181 0.472822 -0.048914 -0.322244 -0.907441
    29 1.728638 -0.122215 0.000000 0.000000 0.000000 -0.528829
    30 0.882757 0.056391 0.000000 0.000000 0.000000 -0.534075
    31 1.137758 -1.867487 -0.137080 0.006196 -0.130751 -1.497905
    32 1.365644 0.014869 0.000000 0.000000 -0.261807 -0.005236
    33 0.938014 -0.005664 0.000001 0.000000 -0.822049 0.010472
    34 0.409682 -2.071859 -0.137080 0.028594 -0.396954 -1.597491
    35 1.470907 0.007359 -0.000001 0.000000 -1.560324 0.010472
    36 1.152100 0.010338 0.000001 0.000000 -1.261865 0.005236
    37 -0.292848 -1.816393 -0.137080 0.008057 -0.298339 -1.671501
    38 1.511617 -0.004263 0.000000 0.000000 -1.544617 0.036652
    39 1.099637 -0.010806 0.000000 0.000000 -1.314229 0.010472
    40 -0.957059 -1.356556 -0.137080 -0.026917 -0.376066 -1.612798
    41 1.351391 -0.010799 -0.000001 0.000000 -0.842992 0.005229
    42 0.859052 0.017735 0.000000 0.000000 -1.513199 -0.010472
  time 1
    0 9.346523 2.765977 -6.833574 -0.739412 -2.101393 -0.296199
    1 -0.244755 -8.933567 -0.000001 0.049500 0.215305 -0.530195
    2 -0.686200 -3.387099 0.924607 1.218516 1.752558 1.295778
    3 0.000000 2.226937 0.999491 0.000000 0.000000 0.000000
    4 0.000000 -5.541041 1.209910 0.000000 0.000000 0.000000
    5 0.000000 -3.226430 1.771029 0.000000 0.000000 0.000000
    6 0.000000 -6.435323 1.946378 0.000000 0.000000 0.000000
    7 0.000000 -4.979922 3.296568 0.000000 0.000000 0.000000
    8 -0.002621 -10.920650 4.053535 0.007353 -0.041128 -0.003156
    9 -11.724566 -1.639231 -11.850784 -1.398978 2.608363 -1.269040
    10 0.026865 -9.077095 -0.000001 -0.269475 0.000533 0.308081
    11 0.000000 -0.456722 0.000000 0.000000 0.000000 0.000000
    12 -0.710981 0.147372 0.477535 0.010643 -0.160388 -2.253879
    13 1.647790 0.090625 0.000000 0.000000 0.000000 0.014769
    14 0.983506 0.005681 0.000000 0.000000 0.000000 -0.194490
    15 -1.090122 -1.829639 -0.122573 -0.041659 0.291639 -1.646929
    16 1.390341 -0.000584 0.000000 0.000000 -0.402542 0.005236
    17 0.964939 -0.010943 0.000000 0.000000 -0.345094 0.000000
    18 -0.348493 -1.994085 -0.122572 -0.000007 0.216527 -1.644097
    19 1.546314 0.004627 0.000001 0.000000 -0.402400 0.000000
    20 1.135736 0.008475 -0.000001 0.000000 -0.277039 0.020944
    21 0.310263 -1.738958 -0.122572 0.041259 0.163466 -1.552455
    22 1.569655 0.049780 0.000000 0.000000 -0.528214 -0.010472
    23 1.096339 0.003407 0.000001 0.000000 -0.407942 0.005236
    24 0.956485 -1.335291 -0.122573 0.042114 0.116508 -1.530511
    25 1.346261 0.018204 0.000001 0.000000 -0.381943 -0.005236
    26 0.874448 -0.001050 0.000002 0.000000 -0.481277 0.000000
    27 -0.017482 -0.437063 0.000000 0.000000 0.000000 0.000000
    28 0.714223 0.114181 0.472822 -0.048914 -0.322244 -0.907441
    29 1.728638 -0.122215 0.000000 0.000000 0.000000 -0.528829
    30 0.882757 0.056391 0.000000 0.000000 0.000000 -0.534075
    31 1.137758 -1.867487 -0.137080 0.006196 -0.130751 -1.497905
    32 1.365644 0.014869 0.000000 0.000000 -0.261807 -0.005236
    33 0.938014 -0.005664 0.000001 0.000000 -0.822049 0.010472
    34 0.409682 -2.071859 -0.137080 0.028594 -0.396954 -1.597491
    35 1.470907 0.007359 -0.000001 0.000000 -1.560324 0.010472
    36 1.152100 0.010338 0.000001 0.000000 -1.261865 0.005236
    37 -0.292848 -1.816393 -0.137080 0.008057 -0.298339 -1.671501
    38 1.511617 -0.004263 0.000000 0.000000 -1.544617 0.036652
    39 1.099637 -0.010806 0.000000 0.000000 -1.314229 0.010472
    40 -0.957059 -1.356556 -0.137080 -0.026917 -0.376066 -1.612798
    41 1.351391 -0.010799 -0.000001 0.000000 -0.842992 0.005229
    42 0.859052 0.017735 0.000000 0.000000 -1.513199 -0.010472
  time 2
    0 9.084796 2.715194 -7.017173 -0.412785 -2.011987 -0.513212
    1 -0.244755 -8.933567 -0.000001 0.001822 0.190030 -0.563309
    2 -0.686200 -3.387099 0.924607 1.218516 1.752558 1.295778
    3 0.000000 2.226937 0.999491 0.000000 0.000000 0.000000
    4 0.000000 -5.541041 1.209910 0.000000 0.000000 0.000000
    5 0.000000 -3.226430 1.771029 0.000000 0.000000 0.000000
    6 0.000000 -6.435323 1.946378 0.000000 0.000000 0.000000
    7 0.000000 -4.979922 3.296568 0.000000 0.000000 0.000000
    8 -0.002621 -10.920650 4.053535 0.007353 -0.041128 -0.003156
    9 -13.494151 -1.822831 -11.448428 -1.422986 2.468424 -1.208276
    10 0.026865 -9.077095 -0.000001 -0.214805 -0.001607 0.325143
    11 0.000000 -0.456722 0.000000 0.000000 0.000000 0.000000
    12 -0.710981 0.147372 0.477535 0.011890 -0.231760 -2.256410
    13 1.647790 0.090625 0.000000 0.000000 0.000000 0.054380
    14 0.983506 0.005681 0.000000 0.000000 0.000000 -0.173418
    15 -1.090122 -1.829639 -0.122573 -0.041107 0.243181 -1.644832
    16 1.390341 -0.000584 0.000000 0.000000 -0.393286 0.005236
    17 0.964939 -0.010943 0.000000 0.000000 -0.337813 0.000000
    18 -0.348493 -1.994085 -0.122572 -0.000007 0.166840 -1.644097
    19 1.546314 0.004627 0.000001 0.000000 -0.391047 0.000000
    20 1.135736 0.008475 -0.000001 0.000000 -0.270141 0.020944
    21 0.310263 -1.738958 -0.122572 0.041031 0.123454 -1.554121
    22 1.569655 0.049780 0.000000 0.000000 -0.519245 -0.010472
    23 1.096339 0.003407 0.000001 0.000000 -0.401141 0.005236
    24 0.956485 -1.335291 -0.122573 0.041970 0.084819 -1.531853
    25 1.346261 0.018204 0.000001 0.000000 -0.377285 -0.005236
    26 0.874448 -0.001050 0.000002 0.000000 -0.474884 0.000000
    27 -0.017482 -0.437063 0.000000 0.000000 0.000000 0.000000
    28 0.714223 0.114181 0.472822 -0.048914 -0.322244 -0.907441
    29 1.728638 -0.122215 0.000000 0.000000 0.000000 -0.528829
    30 0.882757 0.056391 0.000000 0.000000 0.000000 -0.534075
    31 1.137758 -1.867487 -0.137080 0.006196 -0.130751 -1.497905
    32 1.365644 0.014869 0.000000 0.000000 -0.261807 -0.005236
    33 0.938014 -0.005664 0.000001 0.000000 -0.822049 0.010472
    34 0.409682 -2.071859 -0.137080 0.028594 -0.396954 -1.597491
    35 1.470907 0.007359 -0.000001 0.000000 -1.560324 0.010472
    36 1.152100 0.010338 0.000001 0.000000 -1.261865 0.005236
    37 -0.292848 -1.816393 -0.137080 0.008057 -0.298339 -1.671501
    38 1.511617 -0.004263 0.000000 0.000000 -1.544617 0.036652
    39 1.099637 -0.010806 0.000000 0.000000 -1.314229 0.010472
    40 -0.957059 -1.356556 -0.137080 -0.026917 -0.376066 -1.612798
    41 1.351391 -0.010799 -0.000001 0.000000 -0.842992 0.005229
    42 0.859052 0.017735 0.000000 0.000000 -1.513199 -0.010472
  time 3
    0 8.834789 2.668318 -7.189053 -0.054244 -1.973630 -0.790258
    1 -0.244755 -8.933567 -0.000001 -0.051852 0.162286 -0.599670
    2 -0.686200 -3.387099 0.924607 1.218516 1.752558 1.295778
    3 0.000000 2.226937 0.999491 0.000000 0.000000 0.000000
    4 0.000000 -5.541041 1.209910 0.000000 0.000000 0.000000
    5 0.000000 -3.226430 1.771029 0.000000 0.000000 0.000000
    6 0.000000 -6.435323 1.946378 0.000000 0.000000 0.000000
    7 0.000000 -4.979922 3.296568 0.000000 0.000000 0.000000
    8 -0.002621 -10.920650 4.053535 0.007353 -0.041128 -0.003156
    9 -14.755908 -2.182217 -11.100762 -1.431977 2.360895 -1.158133
    10 0.026865 -9.077095 -0.000001 -0.148396 -0.005695 0.344882
    11 0.000000 -0.456722 0.000000 0.000000 0.000000 0.000000
    12 -0.710981 0.147372 0.477535 0.015953 -0.323727 -2.263159
    13 1.647790 0.090625 0.000000 0.000000 0.000000 0.100658
    14 0.983506 0.005681 0.000000 0.000000 0.000000 -0.160424
    15 -1.090122 -1.829639 -0.122573 -0.040616 0.187816 -1.642519
    16 1.390341 -0.000584 0.000000 0.000000 -0.364808 0.005236
    17 0.964939 -0.010943 0.000000 0.000000 -0.315560 0.000000
    18 -0.348493 -1.994085 -0.122572 -0.000007 0.112239 -1.644097
    19 1.546314 0.004627 0.000001 0.000000 -0.356348 0.000000
    20 1.135736 0.008475 -0.000001 0.000000 -0.249030 0.020944
    21 0.310263 -1.738958 -0.122572 0.040839 0.078557 -1.555966
    22 1.569655 0.049780 0.000000 0.000000 -0.491685 -0.010472
    23 1.096339 0.003407 0.000001 0.000000 -0.380324 0.005236
    24 0.956485 -1.335291 -0.122573 0.041850 0.035170 -1.533951
    25 1.346261 0.018204 0.000001 0.000000 -0.362882 -0.005236
    26 0.874448 -0.001050 0.000002 0.000000 -0.455214 0.000000
    27 -0.017482 -0.437063 0.000000 0.000000 0.000000 0.000000
    28 0.714223 0.114181 0.472822 -0.048914 -0.322244 -0.907441
    29 1.728638 -0.122215 0.000000 0.000000 0.000000 -0.528829
    30 0.882757 0.056391 0.000000 0.000000 0.000000 -0.534075
    31 1.137758 -1.867487 -0.137080 0.006196 -0.130751 -1.497905
    32 1.365644 0.014869 0.000000 0.000000 -0.261807 -0.005236
    33 0.938014 -0.005664 0.000001 0.000000 -0.822049 0.010472
    34 0.409682 -2.071859 -0.137080 0.028594 -0.396954 -1.597491
    35 1.470907 0.007359 -0.000001 0.000000 -1.560324 0.010472
    36 1.152100 0.010338 0.000001 0.000000 -1.261865 0.005236
    37 -0.292848 -1.816393 -0.137080 0.008057 -0.298339 -1.671501
    38 1.511617 -0.004263 0.000000 0.000000 -1.544617 0.036652
    39 1.099637 -0.010806 0.000000 0.000000 -1.314229 0.010472
    40 -0.957059 -1.356556 -0.137080 -0.026917 -0.376066 -1.612798
    41 1.351391 -0.010799 -0.000001 0.000000 -0.842992 0.005229
    42 0.859052 0.017735 0.000000 0.000000 -1.513199 -0.010472
  time 4
    0 8.596500 2.625348 -7.353121 0.271046 -1.975585 -1.047387
    1 -0.244755 -8.933567 -0.000001 -0.100694 0.135728 -0.631944
    2 -0.686200 -3.387099 0.924607 1.218516 1.752558 1.295778
    3 0.000000 2.226937 0.999491 0.000000 0.000000 0.000000
    4 0.000000 -5.541041 1.209910 0.000000 0.000000 0.000000
    5 0.000000 -3.226430 1.771029 0.000000 0.000000 0.000000
    6 0.000000 -6.435323 1.946378 0.000000 0.000000 0.000000
    7 0.000000 -4.979922 3.296568 0.000000 0.000000 0.000000
    8 -0.002621 -10.920650 4.053535 0.007353 -0.041128 -0.003156
    9 -15.502025 -2.709577 -10.807784 -1.432455 2.276538 -1.114977
    10 0.026865 -9.077095 -0.000001 -0.092862 -0.010356 0.360505
    11 0.000000 -0.456722 0.000000 0.000000 0.000000 0.000000
    12 -0.710981 0.147372 0.477535 0.022328 -0.405664 -2.272814
    13 1.647790 0.090625 0.000000 0.000000 0.000000 0.137620
    14 0.983506 0.005681 0.000000 0.000000 0.000000 -0.161578
    15 -1.090122 -1.829639 -0.122573 -0.040316 0.144890 -1.640769
    16 1.390341 -0.000584 0.000000 0.000000 -0.324639 0.005236
    17 0.964939 -0.010943 0.000000 0.000000 -0.284030 0.000000
    18 -0.348493 -1.994085 -0.122572 -0.000007 0.072124 -1.644097
    19 1.546314 0.004627 0.000001 0.000000 -0.307229 0.000000
    20 1.135736 0.008475 -0.000001 0.000000 -0.219214 0.020944
    21 0.310263 -1.738958 -0.122572 0.040755 0.044531 -1.557369
    22 1.569655 0.049780 0.000000 0.000000 -0.452723 -0.010472
    23 1.096339 0.003407 0.000001 0.000000 -0.350922 0.005236
    24 0.956485 -1.335291 -0.122573 0.041826 -0.017704 -1.536168
    25 1.346261 0.018204 0.000001 0.000000 -0.342614 -0.005236
    26 0.874448 -0.001050 0.000002 0.000000 -0.427469 0.000000
    27 -0.017482 -0.437063 0.000000 0.000000 0.000000 0.000000
    28 0.714223 0.114181 0.472822 -0.048914 -0.322244 -0.907441
    29 1.728638 -0.122215 0.000000 0.000000 0.000000 -0.528829
    30 0.882757 0.056391 0.000000 0.000000 0.000000 -0.534075
    31 1.137758 -1.867487 -0.137080 0.006196 -0.130751 -1.497905
    32 1.365644 0.014869 0.000000 0.000000 -0.261807 -0.005236
    33 0.938014 -0.005664 0.000001 0.000000 -0.822049 0.010472
    34 0.409682 -2.071859 -0.137080 0.028594 -0.396954 -1.597491
    35 1.470907 0.007359 -0.000001 0.000000 -1.560324 0.010472
    36 1.152100 0.010338 0.000001 0.000000 -1.261865 0.005236
    37 -0.292848 -1.816393 -0.137080 0.008057 -0.298339 -1.671501
    38 1.511617 -0.004263 0.000000 0.000000 -1.544617 0.036652
    39 1.099637 -0.010806 0.000000 0.000000 -1.314229 0.010472
    40 -0.957059 -1.356556 -0.137080 -0.026917 -0.376066 -1.612798
    41 1.351391 -0.010799 -0.000001 0.000000 -0.842992 0.005229
    42 0.859052 0.017735 0.000000 0.000000 -1.513199 -0.010472
  time 5
    0 8.377744 2.582378 -7.513282 0.540977 -1.996061 -1.245214
    1 -0.244755 -8.933567 -0.000001 -0.137410 0.113197 -0.655734
    2 -0.686200 -3.387099 0.924607 1.218516 1.752558 1.295778
    3 0.000000 2.226937 0.999491 0.000000 0.000000 0.000000
    4 0.000000 -5.541041 1.209910 0.000000 0.000000 0.000000
    5 0.000000 -3.226430 1.771029 0.000000 0.000000 0.000000
    6 0.000000 -6.435323 1.946378 0.000000 0.000000 0.000000
    7 0.000000 -4.979922 3.296568 0.000000 0.000000 0.000000
    8 -0.002621 -10.920650 4.053535 0.007353 -0.041128 -0.003156
    9 -15.740313 -3.412723 -10.569495 -1.429203 2.193165 -1.068758
    10 0.026865 -9.077095 -0.000001 -0.045504 -0.015132 0.373103
    11 0.000000 -0.456722 0.000000 0.000000 0.000000 0.000000
    12 -0.710981 0.147372 0.477535 0.030298 -0.478677 -2.284109
    13 1.647790 0.090625 0.000000 0.000000 0.000000 0.168005
    14 0.983506 0.005681 0.000000 0.000000 0.000000 -0.170179
    15 -1.090122 -1.829639 -0.122573 -0.040136 0.110381 -1.639355
    16 1.390341 -0.000584 0.000000 0.000000 -0.280011 0.005236
    17 0.964939 -0.010943 0.000000 0.000000 -0.249064 0.000000
    18 -0.348493 -1.994085 -0.122572 -0.000007 0.041354 -1.644097
    19 1.546314 0.004627 0.000001 0.000000 -0.252709 0.000000
    20 1.135736 0.008475 -0.000001 0.000000 -0.186088 0.020944
    21 0.310263 -1.738958 -0.122572 0.040719 0.017760 -1.558459
    22 1.569655 0.049780 0.000000 0.000000 -0.409477 -0.010472
    23 1.096339 0.003407 0.000001 0.000000 -0.318229 0.005236
    24 0.956485 -1.335291 -0.122573 0.041910 -0.066218 -1.538193
    25 1.346261 0.018204 0.000001 0.000000 -0.320017 -0.005236
    26 0.874448 -0.001050 0.000002 0.000000 -0.396644 0.000000
    27 -0.017482 -0.437063 0.000000 0.000000 0.000000 0.000000
    28 0.714223 0.114181 0.472822 -0.048914 -0.322244 -0.907441
    29 1.728638 -0.122215 0.000000 0.000000 0.000000 -0.528829
    30 0.882757 0.056391 0.000000 0.000000 0.000000 -0.534075
    31 1.137758 -1.867487 -0.137080 0.006196 -0.130751 -1.497905
    32 1.365644 0.014869 0.000000 0.000000 -0.261807 -0.005236
    33 0.938014 -0.005664 0.000001 0.000000 -0.822049 0.010472
    34 0.409682 -2.071859 -0.137080 0.028594 -0.396954 -1.597491
    35 1.470907 0.007359 -0.000001 0.000000 -1.560324 0.010472
    36 1.152100 0.010338 0.000001 0.000000 -1.261865 0.005236
    37 -0.292848 -1.816393 -0.137080 0.008057 -0.298339 -1.671501
    38 1.511617 -0.004263 0.000000 0.000000 -1.544617 0.036652
    39 1.099637 -0.010806 0.000000 0.000000 -1.314229 0.010472
    40 -0.957059 -1.356556 -0.137080 -0.026917 -0.376066 -1.612798
    41 1.351391 -0.010799 -0.000001 0.000000 -0.842992 0.005229
    42 0.859052 0.017735 0.000000 0.000000 -1.513199 -0.010472
  time 6
    0 8.170706 2.547220 -7.657818 0.778280 -2.017654 -1.389420
    1 -0.244755 -8.933567 -0.000001 -0.155090 0.098024 -0.667035
    2 -0.686200 -3.387099 0.924607 1.218516 1.752558 1.295778
    3 0.000000 2.226937 0.999491 0.000000 0.000000 0.000000
    4 0.000000 -5.541041 1.209910 0.000000 0.000000 0.000000
    5 0.000000 -3.226430 1.771029 0.000000 0.000000 0.000000
    6 0.000000 -6.435323 1.946378 0.000000 0.000000 0.000000
    7 0.000000 -4.979922 3.296568 0.000000 0.000000 0.000000
    8 -0.002621 -10.920650 4.053535 0.007353 -0.041128 -0.003156
    9 -15.462961 -4.283843 -10.385896 -1.420499 2.088665 -1.005219
    10 0.026865 -9.077095 -0.000001 -0.003224 -0.019920 0.384064
    11 0.000000 -0.456722 0.000000 0.000000 0.000000 0.000000
    12 -0.710981 0.147372 0.477535 0.038879 -0.544481 -2.295686
    13 1.647790 0.090625 0.000000 0.000000 0.000000 0.194981
    14 0.983506 0.005681 0.000000 0.000000 0.000000 -0.179375
    15 -1.090122 -1.829639 -0.122573 -0.040029 0.079974 -1.638157
    16 1.390341 -0.000584 0.000000 0.000000 -0.238080 0.005236
    17 0.964939 -0.010943 0.000000 0.000000 -0.216242 0.000000
    18 -0.348493 -1.994085 -0.122572 -0.000007 0.014600 -1.644097
    19 1.546314 0.004627 0.000001 0.000000 -0.201484 0.000000
    20 1.135736 0.008475 -0.000001 0.000000 -0.154965 0.020944
    21 0.310263 -1.738958 -0.122572 0.040707 -0.005706 -1.559418
    22 1.569655 0.049780 0.000000 0.000000 -0.368844 -0.010472
    23 1.096339 0.003407 0.000001 0.000000 -0.287566 0.005236
    24 0.956485 -1.335291 -0.122573 0.042078 -0.110887 -1.540087
    25 1.346261 0.018204 0.000001 0.000000 -0.298843 -0.005236
    26 0.874448 -0.001050 0.000002 0.000000 -0.367682 0.000000
    27 -0.017482 -0.437063 0.000000 0.000000 0.000000 0.000000
    28 0.714223 0.114181 0.472822 -0.048914 -0.322244 -0.907441
    29 1.728638 -0.122215 0.000000 0.000000 0.000000 -0.528829
    30 0.882757 0.056391 0.000000 0.000000 0.000000 -0.534075
    31 1.137758 -1.867487 -0.137080 0.006196 -0.130751 -1.497905
    32 1.365644 0.014869 0.000000 0.000000 -0.261807 -0.005236
    33 0.938014 -0.005664 0.000001 0.000000 -0.822049 0.010472
    34 0.409682 -2.071859 -0.137080 0.028594 -0.396954 -1.597491
    35 1.470907 0.007359 -0.000001 0.000000 -1.560324 0.010472
    36 1.152100 0.010338 0.000001 0.000000 -1.261865 0.005236
    37 -0.292848 -1.816393 -0.137080 0.008057 -0.298339 -1.671501
    38 1.511617 -0.004263 0.000000 0.000000 -1.544617 0.036652
    39 1.099637 -0.010806 0.000000 0.000000 -1.314229 0.010472
    40 -0.957059 -1.356556 -0.137080 -0.026917 -0.376066 -1.612798
    41 1.351391 -0.010799 -0.000001 0.000000 -0.842992 0.005229
    42 0.859052 0.017735 0.000000 0.000000 -1.513199 -0.010472
  time 7
    0 7.979294 2.515969 -7.794541 0.975647 -2.029189 -1.482931
    1 -0.244755 -8.933567 -0.000001 -0.146692 0.093290 -0.661834
    2 -0.686200 -3.387099 0.924607 1.218516 1.752558 1.295778
    3 0.000000 2.226937 0.999491 0.000000 0.000000 0.000000
    4 0.000000 -5.541041 1.209910 0.000000 0.000000 0.000000
    5 0.000000 -3.226430 1.771029 0.000000 0.000000 0.000000
    6 0.000000 -6.435323 1.946378 0.000000 0.000000 0.000000
    7 0.000000 -4.979922 3.296568 0.000000 0.000000 0.000000
    8 -0.002621 -10.920650 4.053535 0.007353 -0.041128 -0.003156
    9 -14.673874 -5.334657 -10.256986 -1.384344 1.941305 -0.890581
    10 0.026865 -9.077095 -0.000001 0.037076 -0.024836 0.394677
    11 0.000000 -0.456722 0.000000 0.000000 0.000000 0.000000
    12 -0.710981 0.147372 0.477535 0.046789 -0.604840 -2.305809
    13 1.647790 0.090625 0.000000 0.000000 0.000000 0.221591
    14 0.983506 0.005681 0.000000 0.000000 0.000000 -0.182241
    15 -1.090122 -1.829639 -0.122573 -0.039957 0.049270 -1.636910
    16 1.390341 -0.000584 0.000000 0.000000 -0.206080 0.005236
    17 0.964939 -0.010943 0.000000 0.000000 -0.191171 0.000000
    18 -0.348493 -1.994085 -0.122572 -0.000007 -0.013696 -1.644097
    19 1.546314 0.004627 0.000001 0.000000 -0.162391 0.000000
    20 1.135736 0.008475 -0.000001 0.000000 -0.131212 0.020944
    21 0.310263 -1.738958 -0.122572 0.040731 -0.029891 -1.560401
    22 1.569655 0.049780 0.000000 0.000000 -0.337835 -0.010472
    23 1.096339 0.003407 0.000001 0.000000 -0.264116 0.005236
    24 0.956485 -1.335291 -0.122573 0.042330 -0.152098 -1.541849
    25 1.346261 0.018204 0.000001 0.000000 -0.282715 -0.005236
    26 0.874448 -0.001050 0.000002 0.000000 -0.345579 0.000000
    27 -0.017482 -0.437063 0.000000 0.000000 0.000000 0.000000
    28 0.714223 0.114181 0.472822 -0.048914 -0.322244 -0.907441
    29 1.728638 -0.122215 0.000000 0.000000 0.000000 -0.528829
    30 0.882757 0.056391 0.000000 0.000000 0.000000 -0.534075
    31 1.137758 -1.867487 -0.137080 0.006196 -0.130751 -1.497905
    32 1.365644 0.014869 0.000000 0.000000 -0.261807 -0.005236
    33 0.938014 -0.005664 0.000001 0.000000 -0.822049 0.010472
    34 0.409682 -2.071859 -0.137080 0.028594 -0.396954 -1.597491
    35 1.470907 0.007359 -0.000001 0.000000 -1.560324 0.010472
    36 1.152100 0.010338 0.000001 0.000000 -1.261865 0.005236
    37 -0.292848 -1.816393 -0.137080 0.008057 -0.298339 -1.671501
    38 1.511617 -0.004263 0.000000 0.000000 -1.544617 0.036652
    39 1.099637 -0.010806 0.000000 0.000000 -1.314229 0.010472
    40 -0.957059 -1.356556 -0.137080 -0.026917 -0.376066 -1.612798
    41 1.351391 -0.010799 -0.000001 0.000000 -0.842992 0.005229
    42 0.859052 0.017735 0.000000 0.000000 -1.513199 -0.010472
  time 8
    0 7.799601 2.484718 -7.919544 1.109900 -2.029030 -1.532725
    1 -0.244755 -8.933567 -0.000001 -0.116223 0.098360 -0.642659
    2 -0.686200 -3.387099 0.924607 1.218516 1.752558 1.295778
    3 0.000000 2.226937 0.999491 0.000000 0.000000 0.000000
    4 0.000000 -5.541041 1.209910 0.000000 0.000000 0.000000
    5 0.000000 -3.226430 1.771029 0.000000 0.000000 0.000000
    6 0.000000 -6.435323 1.946378 0.000000 0.000000 0.000000
    7 0.000000 -4.979922 3.296568 0.000000 0.000000 0.000000
    8 -0.002621 -10.920650 4.053535 0.007353 -0.041128 -0.003156
    9 -13.369147 -6.553444 -10.182765 -1.233507 1.781829 -0.653075
    10 0.026865 -9.077095 -0.000001 0.078492 -0.030173 0.406233
    11 0.000000 -0.456722 0.000000 0.000000 0.000000 0.000000
    12 -0.710981 0.147372 0.477535 0.052434 -0.661488 -2.312558
    13 1.647790 0.090625 0.000000 0.000000 0.000000 0.250941
    14 0.983506 0.005681 0.000000 0.000000 0.000000 -0.171966
    15 -1.090122 -1.829639 -0.122573 -0.039909 0.013925 -1.635496
    16 1.390341 -0.000584 0.000000 0.000000 -0.191129 0.005236
    17 0.964939 -0.010943 0.000000 0.000000 -0.179486 0.000000
    18 -0.348493 -1.994085 -0.122572 -0.000007 -0.048962 -1.644097
    19 1.546314 0.004627 0.000001 0.000000 -0.144172 0.000000
    20 1.135736 0.008475 -0.000001 0.000000 -0.120170 0.020944
    21 0.310263 -1.738958 -0.122572 0.040779 -0.058697 -1.561575
    22 1.569655 0.049780 0.000000 0.000000 -0.323419 -0.010472
    23 1.096339 0.003407 0.000001 0.000000 -0.253228 0.005236
    24 0.956485 -1.335291 -0.122573 0.042593 -0.190367 -1.543478
    25 1.346261 0.018204 0.000001 0.000000 -0.275169 -0.005236
    26 0.874448 -0.001050 0.000002 0.000000 -0.335278 0.000000
    27 -0.017482 -0.437063 0.000000 0.000000 0.000000 0.000000
    28 0.714223 0.114181 0.472822 -0.048914 -0.322244 -0.907441
    29 1.728638 -0.122215 0.000000 0.000000 0.000000 -0.528829
    30 0.882757 0.056391 0.000000 0.000000 0.000000 -0.534075
    31 1.137758 -1.867487 -0.137080 0.006196 -0.130751 -1.497905
    32 1.365644 0.014869 0.000000 0.000000 -0.261807 -0.005236
    33 0.938014 -0.005664 0.000001 0.000000 -0.822049 0.010472
    34 0.409682 -2.071859 -0.137080 0.028594 -0.396954 -1.597491
    35 1.470907 0.007359 -0.000001 0.000000 -1.560324 0.010472
    36 1.152100 0.010338 0.000001 0.000000 -1.261865 0.005236
    37 -0.292848 -1.816393 -0.137080 0.008057 -0.298339 -1.671501
    38 1.511617 -0.004263 0.000000 0.000000 -1.544617 0.036652
    39 1.099637 -0.010806 0.000000 0.000000 -1.314229 0.010472
    40 -0.957059 -1.356556 -0.137080 -0.026917 -0.376066 -1.612798
    41 1.351391 -0.010799 -0.000001 0.000000 -0.842992 0.005229
    42 0.859052 0.017735 0.000000 0.000000 -1.513199 -0.010472
  time 9
    0 7.639440 2.461280 -8.040642 1.252710 -2.005521 -1.566259
    1 -0.244755 -8.933567 -0.000001 -0.082174 0.107696 -0.620883
    2 -0.686200 -3.387099 0.924607 1.218516 1.752558 1.295778
    3 0.000000 2.226937 0.999491 0.000000 0.000000 0.000000
    4 0.000000 -5.541041 1.209910 0.000000 0.000000 0.000000
    5 0.000000 -3.226430 1.771029 0.000000 0.000000 0.000000
    6 0.000000 -6.435323 1.946378 0.000000 0.000000 0.000000
    7 0.000000 -4.979922 3.296568 0.000000 0.000000 0.000000
    8 -0.002621 -10.920650 4.053535 0.007353 -0.041128 -0.003156
    9 -11.310490 -8.084741 -10.151514 -0.239246 1.653628 0.432351
    10 0.026865 -9.077095 -0.000001 0.124086 -0.036388 0.419922
    11 0.000000 -0.456722 0.000000 0.000000 0.000000 0.000000
    12 -0.710981 0.147372 0.477535 0.053944 -0.716314 -2.313636
    13 1.647790 0.090625 0.000000 0.000000 0.000000 0.286137
    14 0.983506 0.005681 0.000000 0.000000 0.000000 -0.141585
    15 -1.090122 -1.829639 -0.122573 -0.039921 -0.030351 -1.633746
    16 1.390341 -0.000584 0.000000 0.000000 -0.200534 0.005236
    17 0.964939 -0.010943 0.000000 0.000000 -0.186796 0.000000
    18 -0.348493 -1.994085 -0.122572 -0.000007 -0.096625 -1.644097
    19 1.546314 0.004627 0.000001 0.000000 -0.155616 0.000000
    20 1.135736 0.008475 -0.000001 0.000000 -0.127068 0.020944
    21 0.310263 -1.738958 -0.122572 0.040899 -0.096147 -1.563109
    22 1.569655 0.049780 0.000000 0.000000 -0.332461 -0.010472
    23 1.096339 0.003407 0.000001 0.000000 -0.260085 0.005236
    24 0.956485 -1.335291 -0.122573 0.042917 -0.226107 -1.545048
    25 1.346261 0.018204 0.000001 0.000000 -0.279869 -0.005236
    26 0.874448 -0.001050 0.000002 0.000000 -0.341748 0.000000
    27 -0.017482 -0.437063 0.000000 0.000000 0.000000 0.000000
    28 0.714223 0.114181 0.472822 -0.048914 -0.322244 -0.907441
    29 1.728638 -0.122215 0.000000 0.000000 0.000000 -0.528829
    30 0.882757 0.056391 0.000000 0.000000 0.000000 -0.534075
    31 1.137758 -1.867487 -0.137080 0.006196 -0.130751 -1.497905
    32 1.365644 0.014869 0.000000 0.000000 -0.261807 -0.005236
    33 0.938014 -0.005664 0.000001 0.000000 -0.822049 0.010472
    34 0.409682 -2.071859 -0.137080 0.028594 -0.396954 -1.597491
    35 1.470907 0.007359 -0.000001 0.000000 -1.560324 0.010472
    36 1.152100 0.010338 0.000001 0.000000 -1.261865 0.005236
    37 -0.292848 -1.816393 -0.137080 0.008057 -0.298339 -1.671501
    38 1.511617 -0.004263 0.000000 0.000000 -1.544617 0.036652
    39 1.099637 -0.010806 0.000000 0.000000 -1.314229 0.010472
    40 -0.957059 -1.356556 -0.137080 -0.026917 -0.376066 -1.612798
    41 1.351391 -0.010799 -0.000001 0.000000 -0.842992 0.005229
    42 0.859052 0.017735 0.000000 0.000000 -1.513199 -0.010472
  time 10
    0 7.490998 2.441748 -8.146114 1.342746 -1.959021 -1.569804
    1 -0.244755 -8.933567 -0.000001 -0.011910 0.132360 -0.574634
    2 -0.686200 -3.387099 0.924607 1.218516 1.752558 1.295778
    3 0.000000 2.226937 0.999491 0.000000 0.000000 0.000000
    4 0.000000 -5.541041 1.209910 0.000000 0.000000 0.000000
    5 0.000000 -3.226430 1.771029 0.000000 0.000000 0.000000
    6 0.000000 -6.435323 1.946378 0.000000 0.000000 0.000000
    7 0.000000 -4.979922 3.296568 0.000000 0.000000 0.000000
    8 -0.002621 -10.920650 4.053535 0.007353 -0.041128 -0.003156
    9 -8.736193 -9.787918 -10.178858 -2.116816 1.379051 -1.345880
    10 0.026865 -9.077095 -0.000001 0.176882 -0.044169 0.436785
    11 0.000000 -0.456722 0.000000 0.000000 0.000000 0.000000
    12 -0.710981 0.147372 0.477535 0.048934 -0.770999 -2.306372
    13 1.647790 0.090625 0.000000 0.000000 0.000000 0.330284
    14 0.983506 0.005681 0.000000 0.000000 0.000000 -0.084325
    15 -1.090122 -1.829639 -0.122573 -0.040065 -0.088036 -1.631433
    16 1.390341 -0.000584 0.000000 0.000000 -0.241340 0.005236
    17 0.964939 -0.010943 0.000000 0.000000 -0.218796 0.000000
    18 -0.348493 -1.994085 -0.122572 -0.000007 -0.162146 -1.644097
    19 1.546314 0.004627 0.000001 0.000000 -0.205467 0.000000
    20 1.135736 0.008475 -0.000001 0.000000 -0.157384 0.020944
    21 0.310263 -1.738958 -0.122572 0.041163 -0.146168 -1.565171
    22 1.569655 0.049780 0.000000 0.000000 -0.372003 -0.010472
    23 1.096339 0.003407 0.000001 0.000000 -0.289952 0.005236
    24 0.956485 -1.335291 -0.122573 0.043277 -0.259834 -1.546558
    25 1.346261 0.018204 0.000001 0.000000 -0.300525 -0.005236
    26 0.874448 -0.001050 0.000002 0.000000 -0.369934 0.000000
    27 -0.017482 -0.437063 0.000000 0.000000 0.000000 0.000000
    28 0.714223 0.114181 0.472822 -0.048914 -0.322244 -0.907441
    29 1.728638 -0.122215 0.000000 0.000000 0.000000 -0.528829
    30 0.882757 0.056391 0.000000 0.000000 0.000000 -0.534075
    31 1.137758 -1.867487 -0.137080 0.006196 -0.130751 -1.497905
    32 1.365644 0.014869 0.000000 0.000000 -0.261807 -0.005236
    33 0.938014 -0.005664 0.000001 0.000000 -0.822049 0.010472
    34 0.409682 -2.071859 -0.137080 0.028594 -0.396954 -1.597491
    35 1.470907 0.007359 -0.000001 0.000000 -1.560324 0.010472
    36 1.152100 0.010338 0.000001 0.000000 -1.261865 0.005236
    37 -0.292848 -1.816393 -0.137080 0.008057 -0.298339 -1.671501
    38 1.511617 -0.004263 0.000000 0.000000 -1.544617 0.036652
    39 1.099637 -0.010806 0.000000 0.000000 -1.314229 0.010472
    40 -0.957059 -1.356556 -0.137080 -0.026917 -0.376066 -1.612798
    41 1.351391 -0.010799 -0.000001 0.000000 -0.842992 0.005229
    42 0.859052 0.017735 0.000000 0.000000 -1.513199 -0.010472
  time 11
    0 7.354275 2.422217 -8.247679 1.397570 -1.899310 -1.556919
    1 -0.244755 -8.933567 -0.000001 0.071276 0.161650 -0.518235
    2 -0.686200 -3.387099 0.924607 1.218516 1.752558 1.295778
    3 0.000000 2.226937 0.999491 0.000000 0.000000 0.000000
    4 0.000000 -5.541041 1.209910 0.000000 0.000000 0.000000
    5 0.000000 -3.226430 1.771029 0.000000 0.000000 0.000000
    6 0.000000 -6.435323 1.946378 0.000000 0.000000 0.000000
    7 0.000000 -4.979922 3.296568 0.000000 0.000000 0.000000
    8 -0.002621 -10.920650 4.053535 0.007353 -0.041128 -0.003156
    9 -6.392372 -11.248900 -10.284330 -1.973631 1.229192 -1.093733
    10 0.026865 -9.077095 -0.000001 0.239871 -0.054447 0.457864
    11 0.000000 -0.456722 0.000000 0.000000 0.000000 0.000000
    12 -0.710981 0.147372 0.477535 0.034349 -0.827200 -2.287249
    13 1.647790 0.090625 0.000000 0.000000 0.000000 0.386458
    14 0.983506 0.005681 0.000000 0.000000 0.000000 0.006742
    15 -1.090122 -1.829639 -0.122573 -0.040436 -0.163394 -1.628377
    16 1.390341 -0.000584 0.000000 0.000000 -0.320779 0.005236
    17 0.964939 -0.010943 0.000000 0.000000 -0.281006 0.000000
    18 -0.348493 -1.994085 -0.122572 -0.000007 -0.250921 -1.644097
    19 1.546314 0.004627 0.000001 0.000000 -0.302514 0.000000
    20 1.135736 0.008475 -0.000001 0.000000 -0.216349 0.020944
    21 0.310263 -1.738958 -0.122572 0.041654 -0.212664 -1.567987
    22 1.569655 0.049780 0.000000 0.000000 -0.448983 -0.010472
    23 1.096339 0.003407 0.000001 0.000000 -0.348097 0.005236
    24 0.956485 -1.335291 -0.122573 0.043672 -0.291936 -1.548009
    25 1.346261 0.018204 0.000001 0.000000 -0.340630 -0.005236
    26 0.874448 -0.001050 0.000002 0.000000 -0.424777 0.000000
    27 -0.017482 -0.437063 0.000000 0.000000 0.000000 0.000000
    28 0.714223 0.114181 0.472822 -0.048914 -0.322244 -0.907441
    29 1.728638 -0.122215 0.000000 0.000000 0.000000 -0.528829
    30 0.882757 0.056391 0.000000 0.000000 0.000000 -0.534075
    31 1.137758 -1.867487 -0.137080 0.006196 -0.130751 -1.497905
    32 1.365644 0.014869 0.000000 0.000000 -0.261807 -0.005236
    33 0.938014 -0.005664 0.000001 0.000000 -0.822049 0.010472
    34 0.409682 -2.071859 -0.137080 0.028594 -0.396954 -1.597491
    35 1.470907 0.007359 -0.000001 0.000000 -1.560324 0.010472
    36 1.152100 0.010338 0.000001 0.000000 -1.261865 0.005236
    37 -0.292848 -1.816393 -0.137080 0.008057 -0.298339 -1.671501
    38 1.511617 -0.004263 0.000000 0.000000 -1.544617 0.036652
    39 1.099637 -0.010806 0.000000 0.000000 -1.314229 0.010472
    40 -0.957059 -1.356556 -0.137080 -0.026917 -0.376066 -1.612798
    41 1.351391 -0.010799 -0.000001 0.000000 -0.842992 0.005229
    42 0.859052 0.017735 0.000000 0.000000 -1.513199 -0.010472
  time 12
    0 7.237084 2.410497 -8.337526 1.433496 -1.838203 -1.539365
    1 -0.244755 -8.933567 -0.000001 0.161975 0.188460 -0.455387
    2 -0.686200 -3.387099 0.924607 1.218516 1.752558 1.295778
    3 0.000000 2.226937 0.999491 0.000000 0.000000 0.000000
    4 0.000000 -5.541041 1.209910 0.000000 0.000000 0.000000
    5 0.000000 -3.226430 1.771029 0.000000 0.000000 0.000000
    6 0.000000 -6.435323 1.946378 0.000000 0.000000 0.000000
    7 0.000000 -4.979922 3.296568 0.000000 0.000000 0.000000
    8 -0.002621 -10.920650 4.053535 0.007353 -0.041128 -0.003156
    9 -4.497782 -12.338777 -10.573402 -1.977840 1.129387 -1.002539
    10 0.026865 -9.077095 -0.000001 0.291695 -0.063833 0.475520
    11 0.000000 -0.456722 0.000000 0.000000 0.000000 0.000000
    12 -0.710981 0.147372 0.477535 0.016144 -0.868159 -2.264377
    13 1.647790 0.090625 0.000000 0.000000 0.000000 0.434624
    14 0.983506 0.005681 0.000000 0.000000 0.000000 0.094271
    15 -1.090122 -1.829639 -0.122573 -0.040963 -0.228957 -1.625657
    16 1.390341 -0.000584 0.000000 0.000000 -0.403216 0.005236
    17 0.964939 -0.010943 0.000000 0.000000 -0.345593 0.000000
    18 -0.348493 -1.994085 -0.122572 -0.000007 -0.329867 -1.644097
    19 1.546314 0.004627 0.000001 0.000000 -0.403178 0.000000
    20 1.135736 0.008475 -0.000001 0.000000 -0.277511 0.020944
    21 0.310263 -1.738958 -0.122572 0.042253 -0.271209 -1.570504
    22 1.569655 0.049780 0.000000 0.000000 -0.528867 -0.010472
    23 1.096339 0.003407 0.000001 0.000000 -0.408436 0.005236
    24 0.956485 -1.335291 -0.122573 0.044104 -0.322902 -1.549435
    25 1.346261 0.018204 0.000001 0.000000 -0.382288 -0.005236
    26 0.874448 -0.001050 0.000002 0.000000 -0.481743 0.000000
    27 -0.017482 -0.437063 0.000000 0.000000 0.000000 0.000000
    28 0.714223 0.114181 0.472822 -0.048914 -0.322244 -0.907441
    29 1.728638 -0.122215 0.000000 0.000000 0.000000 -0.528829
    30 0.882757 0.056391 0.000000 0.000000 0.000000 -0.534075
    31 1.137758 -1.867487 -0.137080 0.006196 -0.130751 -1.497905
    32 1.365644 0.014869 0.000000 0.000000 -0.261807 -0.005236
    33 0.938014 -0.005664 0.000001 0.000000 -0.822049 0.010472
    34 0.409682 -2.071859 -0.137080 0.028594 -0.396954 -1.597491
    35 1.470907 0.007359 -0.000001 0.000000 -1.560324 0.010472
    36 1.152100 0.010338 0.000001 0.000000 -1.261865 0.005236
    37 -0.292848 -1.816393 -0.137080 0.008057 -0.298339 -1.671501
    38 1.511617 -0.004263 0.000000 0.000000 -1.544617 0.036652
    39 1.099637 -0.010806 0.000000 0.000000 -1.314229 0.010472
    40 -0.957059 -1.356556 -0.137080 -0.026917 -0.376066 -1.612798
    41 1.351391 -0.010799 -0.000001 0.000000 -0.842992 0.005229
    42 0.859052 0.017735 0.000000 0.000000 -1.513199 -0.010472
  time 13
    0 7.131612 2.398778 -8.415653 1.477355 -1.788111 -1.538971
    1 -0.244755 -8.933567 -0.000001 0.253574 0.207084 -0.391342
    2 -0.686200 -3.387099 0.924607 1.218516 1.752558 1.295778
    3 0.000000 2.226937 0.999491 0.000000 0.000000 0.000000
    4 0.000000 -5.541041 1.209910 0.000000 0.000000 0.000000
    5 0.000000 -3.226430 1.771029 0.000000 0.000000 0.000000
    6 0.000000 -6.435323 1.946378 0.000000 0.000000 0.000000
    7 0.000000 -4.979922 3.296568 0.000000 0.000000 0.000000
    8 -0.002621 -10.920650 4.053535 0.007353 -0.041128 -0.003156
    9 -2.798512 -13.194272 -11.026541 -2.020212 1.054041 -0.941584
    10 0.026865 -9.077095 -0.000001 0.338873 -0.075562 0.494218
    11 0.000000 -0.456722 0.000000 0.000000 0.000000 0.000000
    12 -0.710981 0.147372 0.477535 -0.026808 -0.881777 -2.211322
    13 1.647790 0.090625 0.000000 0.000000 0.000000 0.493446
    14 0.983506 0.005681 0.000000 0.000000 0.000000 0.249076
    15 -1.090122 -1.829639 -0.122573 -0.041946 -0.314271 -1.621978
    16 1.390341 -0.000584 0.000000 0.000000 -0.576333 0.005236
    17 0.964939 -0.010943 0.000000 0.000000 -0.481285 0.000000
    18 -0.348493 -1.994085 -0.122572 -0.000007 -0.440642 -1.644097
    19 1.546314 0.004627 0.000001 0.000000 -0.614759 0.000000
    20 1.135736 0.008475 -0.000001 0.000000 -0.406066 0.020944
    21 0.310263 -1.738958 -0.122572 0.043356 -0.350348 -1.574063
    22 1.569655 0.049780 0.000000 0.000000 -0.696661 -0.010472
    23 1.096339 0.003407 0.000001 0.000000 -0.535203 0.005236
    24 0.956485 -1.335291 -0.122573 0.044595 -0.353275 -1.550861
    25 1.346261 0.018204 0.000001 0.000000 -0.469742 -0.005236
    26 0.874448 -0.001050 0.000002 0.000000 -0.601368 0.000000
    27 -0.017482 -0.437063 0.000000 0.000000 0.000000 0.000000
    28 0.714223 0.114181 0.472822 -0.048914 -0.322244 -0.907441
    29 1.728638 -0.122215 0.000000 0.000000 0.000000 -0.528829
    30 0.882757 0.056391 0.000000 0.000000 0.000000 -0.534075
    31 1.137758 -1.867487 -0.137080 0.006196 -0.130751 -1.497905
    32 1.365644 0.014869 0.000000 0.000000 -0.261807 -0.005236
    33 0.938014 -0.005664 0.000001 0.000000 -0.822049 0.010472
    34 0.409682 -2.071859 -0.137080 0.028594 -0.396954 -1.597491
    35 1.470907 0.007359 -0.000001 0.000000 -1.560324 0.010472
    36 1.152100 0.010338 0.000001 0.000000 -1.261865 0.005236
    37 -0.292848 -1.816393 -0.137080 0.008057 -0.298339 -1.671501
    38 1.511617 -0.004263 0.000000 0.000000 -1.544617 0.036652
    39 1.099637 -0.010806 0.000000 0.000000 -1.314229 0.010472
    40 -0.957059 -1.356556 -0.137080 -0.026917 -0.376066 -1.612798
    41 1.351391 -0.010799 -0.000001 0.000000 -0.842992 0.005229
    42 0.859052 0.017735 0.000000 0.000000 -1.513199 -0.010472
  time 14
    0 7.037859 2.394872 -8.485968 -1.590924 -1.377519 1.562331
    1 -0.244755 -8.933567 -0.000001 0.338350 0.213652 -0.332713
    2 -0.686200 -3.387099 0.924607 1.218516 1.752558 1.295778
    3 0.000000 2.226937 0.999491 0.000000 0.000000 0.000000
    4 0.000000 -5.541041 1.209910 0.000000 0.000000 0.000000
    5 0.000000 -3.226430 1.771029 0.000000 0.000000 0.000000
    6 0.000000 -6.435323 1.946378 0.000000 0.000000 0.000000
    7 0.000000 -4.979922 3.296568 0.000000 0.000000 0.000000
    8 -0.002621 -10.920650 4.053535 0.007353 -0.041128 -0.003156
    9 -1.349249 -13.803665 -11.522649 -2.059714 1.022918 -0.910102
    10 0.026865 -9.077095 -0.000001 0.372402 -0.088196 0.514602
    11 0.000000 -0.456722 0.000000 0.000000 0.000000 0.000000
    12 -0.710981 0.147372 0.477535 -0.102407 -0.833429 -2.115522
    13 1.647790 0.090625 0.000000 0.000000 0.000000 0.565178
    14 0.983506 0.005681 0.000000 0.000000 0.000000 0.519595
    15 -1.090122 -1.829639 -0.122573 -0.043852 -0.427213 -1.616764
    16 1.390341 -0.000584 0.000000 0.000000 -0.911214 0.005236
    17 0.964939 -0.010943 0.000000 0.000000 -0.743626 0.000000
    18 -0.348493 -1.994085 -0.122572 -0.000007 -0.600237 -1.644097
    19 1.546314 0.004627 0.000001 0.000000 -1.023868 0.000000
    20 1.135736 0.008475 -0.000001 0.000000 -0.654636 0.020944
    21 0.310263 -1.738958 -0.122572 0.045429 -0.459969 -1.579360
    22 1.569655 0.049780 0.000000 0.000000 -1.021210 -0.010472
    23 1.096339 0.003407 0.000001 0.000000 -0.780316 0.005236
    24 0.956485 -1.335291 -0.122573 0.045098 -0.383389 -1.552299
    25 1.346261 0.018204 0.000001 0.000000 -0.638873 -0.005236
    26 0.874448 -0.001050 0.000002 0.000000 -0.832673 0.000000
    27 -0.017482 -0.437063 0.000000 0.000000 0.000000 0.000000
    28 0.714223 0.114181 0.472822 -0.048914 -0.322244 -0.907441
    29 1.728638 -0.122215 0.000000 0.000000 0.000000 -0.528829
    30 0.882757 0.056391 0.000000 0.000000 0.000000 -0.534075
    31 1.137758 -1.867487 -0.137080 0.006196 -0.130751 -1.497905
    32 1.365644 0.014869 0.000000 0.000000 -0.261807 -0.005236
    33 0.938014 -0.005664 0.000001 0.000000 -0.822049 0.010472
    34 0.409682 -2.071859 -0.137080 0.028594 -0.396954 -1.597491
    35 1.470907 0.007359 -0.000001 0.000000 -1.560324 0.010472
    36 1.152100 0.010338 0.000001 0.000000 -1.261865 0.005236
    37 -0.292848 -1.816393 -0.137080 0.008057 -0.298339 -1.671501
    38 1.511617 -0.004263 0.000000 0.000000 -1.544617 0.036652
    39 1.099637 -0.010806 0.000000 0.000000 -1.314229 0.010472
    40 -0.957059 -1.356556 -0.137080 -0.026917 -0.376066 -1.612798
    41 1.351391 -0.010799 -0.000001 0.000000 -0.842992 0.005229
    42 0.859052 0.017735 0.000000 0.000000 -1.513199 -0.010472
  time 15
    0 6.963638 2.390966 -8.544563 -1.530395 -1.384065 1.520245
    1 -0.244755 -8.933567 -0.000001 0.408040 0.206137 -0.286800
    2 -0.686200 -3.387099 0.924607 1.218516 1.752558 1.295778
    3 0.000000 2.226937 0.999491 0.000000 0.000000 0.000000
    4 0.000000 -5.541041 1.209910 0.000000 0.000000 0.000000
    5 0.000000 -3.226430 1.771029 0.000000 0.000000 0.000000
    6 0.000000 -6.435323 1.946378 0.000000 0.000000 0.000000
    7 0.000000 -4.979922 3.296568 0.000000 0.000000 0.000000
    8 -0.002621 -10.920650 4.053535 0.007353 -0.041128 -0.003156
    9 -0.200776 -14.163051 -11.932818 -2.071288 1.011332 -0.887614
    10 0.026865 -9.077095 -0.000001 0.398224 -0.094907 0.535730
    11 0.000000 -0.456722 0.000000 0.000000 0.000000 0.000000
    12 -0.710981 0.147372 0.477535 -0.161575 -0.760201 -2.035705
    13 1.647790 0.090625 0.000000 0.000000 0.000000 0.623574
    14 0.983506 0.005681 0.000000 0.000000 0.000000 0.778721
    15 -1.090122 -1.829639 -0.122573 -0.046069 -0.523265 -1.611922
    16 1.390341 -0.000584 0.000000 0.000000 -1.242797 0.005236
    17 0.964939 -0.010943 0.000000 0.000000 -1.003414 0.000000
    18 -0.348493 -1.994085 -0.122572 -0.000007 -0.741718 -1.644097
    19 1.546314 0.004627 0.000001 0.000000 -1.428948 0.000000
    20 1.135736 0.008475 -0.000001 0.000000 -0.900759 0.020944
    21 0.310263 -1.738958 -0.122572 0.047922 -0.555366 -1.584466
    22 1.569655 0.049780 0.000000 0.000000 -1.342527 -0.010472
    23 1.096339 0.003407 0.000001 0.000000 -1.022988 0.005236
    24 0.956485 -1.335291 -0.122573 0.045685 -0.413762 -1.553797
    25 1.346261 0.018204 0.000001 0.000000 -0.806322 -0.005236
    26 0.874448 -0.001050 0.000002 0.000000 -1.061675 0.000000
    27 -0.017482 -0.437063 0.000000 0.000000 0.000000 0.000000
    28 0.714223 0.114181 0.472822 -0.048914 -0.322244 -0.907441
    29 1.728638 -0.122215 0.000000 0.000000 0.000000 -0.528829
    30 0.882757 0.056391 0.000000 0.000000 0.000000 -0.534075
    31 1.137758 -1.867487 -0.137080 0.006196 -0.130751 -1.497905
    32 1.365644 0.014869 0.000000 0.000000 -0.261807 -0.005236
    33 0.938014 -0.005664 0.000001 0.000000 -0.822049 0.010472
    34 0.409682 -2.071859 -0.137080 0.028594 -0.396954 -1.597491
    35 1.470907 0.007359 -0.000001 0.000000 -1.560324 0.010472
    36 1.152100 0.010338 0.000001 0.000000 -1.261865 0.005236
    37 -0.292848 -1.816393 -0.137080 0.008057 -0.298339 -1.671501
    38 1.511617 -0.004263 0.000000 0.000000 -1.544617 0.036652
    39 1.099637 -0.010806 0.000000 0.000000 -1.314229 0.010472
    40 -0.957059 -1.356556 -0.137080 -0.026917 -0.376066 -1.612798
    41 1.351391 -0.010799 -0.000001 0.000000 -0.842992 0.005229
    42 0.859052 0.017735 0.000000 0.000000 -1.513199 -0.010472
  time 16
    0 6.901136 2.394872 -8.603159 -1.453196 -1.386300 1.462236
    1 -0.244755 -8.933567 -0.000001 0.447496 0.189479 -0.263945
    2 -0.686200 -3.387099 0.924607 1.218516 1.752558 1.295778
    3 0.000000 2.226937 0.999491 0.000000 0.000000 0.000000
    4 0.000000 -5.541041 1.209910 0.000000 0.000000 0.000000
    5 0.000000 -3.226430 1.771029 0.000000 0.000000 0.000000
    6 0.000000 -6.435323 1.946378 0.000000 0.000000 0.000000
    7 0.000000 -4.979922 3.296568 0.000000 0.000000 0.000000
    8 -0.002621 -10.920650 4.053535 0.007353 -0.041128 -0.003156
    9 0.592217 -14.252898 -12.132043 -2.042306 0.997853 -0.861586
    10 0.026865 -9.077095 -0.000001 0.433374 -0.093507 0.558793
    11 0.000000 -0.456722 0.000000 0.000000 0.000000 0.000000
    12 -0.710981 0.147372 0.477535 -0.188145 -0.719991 -1.997882
    13 1.647790 0.090625 0.000000 0.000000 0.000000 0.654477
    14 0.983506 0.005681 0.000000 0.000000 0.000000 0.916288
    15 -1.090122 -1.829639 -0.122573 -0.047519 -0.574205 -1.609130
    16 1.390341 -0.000584 0.000000 0.000000 -1.418949 0.005236
    17 0.964939 -0.010943 0.000000 0.000000 -1.141425 0.000000
    18 -0.348493 -1.994085 -0.122572 -0.000007 -0.816810 -1.644097
    19 1.546314 0.004627 0.000001 0.000000 -1.644100 0.000000
    20 1.135736 0.008475 -0.000001 0.000000 -1.031511 0.020944
    21 0.310263 -1.738958 -0.122572 0.049540 -0.605938 -1.587414
    22 1.569655 0.049780 0.000000 0.000000 -1.513189 -0.010472
    23 1.096339 0.003407 0.000001 0.000000 -1.151921 0.005236
    24 0.956485 -1.335291 -0.122573 0.046069 -0.432290 -1.554732
    25 1.346261 0.018204 0.000001 0.000000 -0.895329 -0.005236
    26 0.874448 -0.001050 0.000002 0.000000 -1.183345 0.000000
    27 -0.017482 -0.437063 0.000000 0.000000 0.000000 0.000000
    28 0.714223 0.114181 0.472822 -0.048914 -0.322244 -0.907441
    29 1.728638 -0.122215 0.000000 0.000000 0.000000 -0.528829
    30 0.882757 0.056391 0.000000 0.000000 0.000000 -0.534075
    31 1.137758 -1.867487 -0.137080 0.006196 -0.130751 -1.497905
    32 1.365644 0.014869 0.000000 0.000000 -0.261807 -0.005236
    33 0.938014 -0.005664 0.000001 0.000000 -0.822049 0.010472
    34 0.409682 -2.071859 -0.137080 0.028594 -0.396954 -1.597491
    35 1.470907 0.007359 -0.000001 0.000000 -1.560324 0.010472
    36 1.152100 0.010338 0.000001 0.000000 -1.261865 0.005236
    37 -0.292848 -1.816393 -0.137080 0.008057 -0.298339 -1.671501
    38 1.511617 -0.004263 0.000000 0.000000 -1.544617 0.036652
    39 1.099637 -0.010806 0.000000 0.000000 -1.314229 0.010472
    40 -0.957059 -1.356556 -0.137080 -0.026917 -0.376066 -1.612798
    41 1.351391 -0.010799 -0.000001 0.000000 -0.842992 0.005229
    42 0.859052 0.017735 0.000000 0.000000 -1.513199 -0.010472
  time 17
    0 6.854260 2.398778 -8.642223 -1.419231 -1.379435 1.431966
    1 -0.244755 -8.933567 -0.000001 0.464720 0.174702 -0.256683
    2 -0.686200 -3.387099 0.924607 1.218516 1.752558 1.295778
    3 0.000000 2.226937 0.999491 0.000000 0.000000 0.000000
    4 0.000000 -5.541041 1.209910 0.000000 0.000000 0.000000
    5 0.000000 -3.226430 1.771029 0.000000 0.000000 0.000000
    6 0.000000 -6.435323 1.946378 0.000000 0.000000 0.000000
    7 0.000000 -4.979922 3.296568 0.000000 0.000000 0.000000
    8 -0.002621 -10.920650 4.053535 0.007353 -0.041128 -0.003156
    9 0.920352 -13.967733 -12.046103 -2.007108 0.986873 -0.843405
    10 0.026865 -9.077095 -0.000001 0.463841 -0.090310 0.573722
    11 0.000000 -0.456722 0.000000 0.000000 0.000000 0.000000
    12 -0.710981 0.147372 0.477535 -0.192987 -0.715047 -1.991133
    13 1.647790 0.090625 0.000000 0.000000 0.000000 0.661084
    14 0.983506 0.005681 0.000000 0.000000 0.000000 0.940898
    15 -1.090122 -1.829639 -0.122573 -0.047831 -0.584539 -1.608543
    16 1.390341 -0.000584 0.000000 0.000000 -1.449376 0.005236
    17 0.964939 -0.010943 0.000000 0.000000 -1.165264 0.000000
    18 -0.348493 -1.994085 -0.122572 -0.000007 -0.831360 -1.644097
    19 1.546314 0.004627 0.000001 0.000000 -1.681271 0.000000
    20 1.135736 0.008475 -0.000001 0.000000 -1.054096 0.020944
    21 0.310263 -1.738958 -0.122572 0.049876 -0.615995 -1.588013
    22 1.569655 0.049780 0.000000 0.000000 -1.542710 -0.010472
    23 1.096339 0.003407 0.000001 0.000000 -1.174219 0.005236
    24 0.956485 -1.335291 -0.122573 0.046273 -0.442328 -1.555235
    25 1.346261 0.018204 0.000001 0.000000 -0.910681 -0.005236
    26 0.874448 -0.001050 0.000002 0.000000 -1.204387 0.000000
    27 -0.017482 -0.437063 0.000000 0.000000 0.000000 0.000000
    28 0.714223 0.114181 0.472822 -0.048914 -0.322244 -0.907441
    29 1.728638 -0.122215 0.000000 0.000000 0.000000 -0.528829
    30 0.882757 0.056391 0.000000 0.000000 0.000000 -0.534075
    31 1.137758 -1.867487 -0.137080 0.006196 -0.130751 -1.497905
    32 1.365644 0.014869 0.000000 0.000000 -0.261807 -0.005236
    33 0.938014 -0.005664 0.000001 0.000000 -0.822049 0.010472
    34 0.409682 -2.071859 -0.137080 0.028594 -0.396954 -1.597491
    35 1.470907 0.007359 -0.000001 0.000000 -1.560324 0.010472
    36 1.152100 0.010338 0.000001 0.000000 -1.261865 0.005236
    37 -0.292848 -1.816393 -0.137080 0.008057 -0.298339 -1.671501
    38 1.511617 -0.004263 0.000000 0.000000 -1.544617 0.036652
    39 1.099637 -0.010806 0.000000 0.000000 -1.314229 0.010472
    40 -0.957059 -1.356556 -0.137080 -0.026917 -0.376066 -1.612798
    41 1.351391 -0.010799 -0.000001 0.000000 -0.842992 0.005229
    42 0.859052 0.017735 0.000000 0.000000 -1.513199 -0.010472
  time 18
    0 6.819102 2.410497 -8.677380 -1.418429 -1.366623 1.423076
    1 -0.244755 -8.933567 -0.000001 0.478142 0.148216 -0.258349
    2 -0.686200 -3.387099 0.924607 1.218516 1.752558 1.295778
    3 0.000000 2.226937 0.999491 0.000000 0.000000 0.000000
    4 0.000000 -5.541041 1.209910 0.000000 0.000000 0.000000
    5 0.000000 -3.226430 1.771029 0.000000 0.000000 0.000000
    6 0.000000 -6.435323 1.946378 0.000000 0.000000 0.000000
    7 0.000000 -4.979922 3.296568 0.000000 0.000000 0.000000
    8 -0.002621 -10.920650 4.053535 0.007353 -0.041128 -0.003156
    9 0.853943 -13.350526 -11.788283 -1.947806 0.981951 -0.827233
    10 0.026865 -9.077095 -0.000001 0.511740 -0.085980 0.589593
    11 0.000000 -0.456722 0.000000 0.000000 0.000000 0.000000
    12 -0.710981 0.147372 0.477535 -0.203042 -0.704446 -1.976979
    13 1.647790 0.090625 0.000000 0.000000 0.000000 0.675028
    14 0.983506 0.005681 0.000000 0.000000 0.000000 0.993058
    15 -1.090122 -1.829639 -0.122573 -0.048562 -0.606420 -1.607272
    16 1.390341 -0.000584 0.000000 0.000000 -1.513789 0.005236
    17 0.964939 -0.010943 0.000000 0.000000 -1.215759 0.000000
    18 -0.348493 -1.994085 -0.122572 -0.000007 -0.862289 -1.644097
    19 1.546314 0.004627 0.000001 0.000000 -1.760007 0.000000
    20 1.135736 0.008475 -0.000001 0.000000 -1.101907 0.020944
    21 0.310263 -1.738958 -0.122572 0.050643 -0.637186 -1.589332
    22 1.569655 0.049780 0.000000 0.000000 -1.605129 -0.010472
    23 1.096339 0.003407 0.000001 0.000000 -1.221338 0.005236
    24 0.956485 -1.335291 -0.122573 0.046752 -0.463617 -1.556350
    25 1.346261 0.018204 0.000001 0.000000 -0.943239 -0.005236
    26 0.874448 -0.001050 0.000002 0.000000 -1.248878 0.000000
    27 -0.017482 -0.437063 0.000000 0.000000 0.000000 0.000000
    28 0.714223 0.114181 0.472822 -0.048914 -0.322244 -0.907441
    29 1.728638 -0.122215 0.000000 0.000000 0.000000 -0.528829
    30 0.882757 0.056391 0.000000 0.000000 0.000000 -0.534075
    31 1.137758 -1.867487 -0.137080 0.006196 -0.130751 -1.497905
    32 1.365644 0.014869 0.000000 0.000000 -0.261807 -0.005236
    33 0.938014 -0.005664 0.000001 0.000000 -0.822049 0.010472
    34 0.409682 -2.071859 -0.137080 0.028594 -0.396954 -1.597491
    35 1.470907 0.007359 -0.000001 0.000000 -1.560324 0.010472
    36 1.152100 0.010338 0.000001 0.000000 -1.261865 0.005236
    37 -0.292848 -1.816393 -0.137080 0.008057 -0.298339 -1.671501
    38 1.511617 -0.004263 0.000000 0.000000 -1.544617 0.036652
    39 1.099637 -0.010806 0.000000 0.000000 -1.314229 0.010472
    40 -0.957059 -1.356556 -0.137080 -0.026917 -0.376066 -1.612798
    41 1.351391 -0.010799 -0.000001 0.000000 -0.842992 0.005229
    42 0.859052 0.017735 0.000000 0.000000 -1.513199 -0.010472
  time 19
    0 6.803477 2.422217 -8.700818 -1.436971 -1.350697 1.424877
    1 -0.244755 -8.933567 -0.000001 0.473162 0.122413 -0.274444
    2 -0.686200 -3.387099 0.924607 1.218516 1.752558 1.295778
    3 0.000000 2.226937 0.999491 0.000000 0.000000 0.000000
    4 0.000000 -5.541041 1.209910 0.000000 0.000000 0.000000
    5 0.000000 -3.226430 1.771029 0.000000 0.000000 0.000000
    6 0.000000 -6.435323 1.946378 0.000000 0.000000 0.000000
    7 0.000000 -4.979922 3.296568 0.000000 0.000000 0.000000
    8 -0.002621 -10.920650 4.053535 0.007353 -0.041128 -0.003156
    9 0.615655 -12.623942 -11.499211 -1.886018 0.989221 -0.821587
    10 0.026865 -9.077095 -0.000001 0.554380 -0.081777 0.597925
    11 0.000000 -0.456722 0.000000 0.000000 0.000000 0.000000
    12 -0.710981 0.147372 0.477535 -0.209945 -0.696914 -1.967183
    13 1.647790 0.090625 0.000000 0.000000 0.000000 0.684832
    14 0.983506 0.005681 0.000000 0.000000 0.000000 1.029804
    15 -1.090122 -1.829639 -0.122573 -0.049089 -0.621880 -1.606350
    16 1.390341 -0.000584 0.000000 0.000000 -1.559204 0.005236
    17 0.964939 -0.010943 0.000000 0.000000 -1.251341 0.000000
    18 -0.348493 -1.994085 -0.122572 -0.000007 -0.884033 -1.644097
    19 1.546314 0.004627 0.000001 0.000000 -1.815443 0.000000
    20 1.135736 0.008475 -0.000001 0.000000 -1.135590 0.020944
    21 0.310263 -1.738958 -0.122572 0.051230 -0.652152 -1.590278
    22 1.569655 0.049780 0.000000 0.000000 -1.649138 -0.010472
    23 1.096339 0.003407 0.000001 0.000000 -1.254579 0.005236
    24 0.956485 -1.335291 -0.122573 0.047112 -0.478636 -1.557141
    25 1.346261 0.018204 0.000001 0.000000 -0.966224 -0.005236
    26 0.874448 -0.001050 0.000002 0.000000 -1.280246 0.000000
    27 -0.017482 -0.437063 0.000000 0.000000 0.000000 0.000000
    28 0.714223 0.114181 0.472822 -0.048914 -0.322244 -0.907441
    29 1.728638 -0.122215 0.000000 0.000000 0.000000 -0.528829
    30 0.882757 0.056391 0.000000 0.000000 0.000000 -0.534075
    31 1.137758 -1.867487 -0.137080 0.006196 -0.130751 -1.497905
    32 1.365644 0.014869 0.000000 0.000000 -0.261807 -0.005236
    33 0.938014 -0.005664 0.000001 0.000000 -0.822049 0.010472
    34 0.409682 -2.071859 -0.137080 0.028594 -0.396954 -1.597491
    35 1.470907 0.007359 -0.000001 0.000000 -1.560324 0.010472
    36 1.152100 0.010338 0.000001 0.000000 -1.261865 0.005236
    37 -0.292848 -1.816393 -0.137080 0.008057 -0.298339 -1.671501
    38 1.511617 -0.004263 0.000000 0.000000 -1.544617 0.036652
    39 1.099637 -0.010806 0.000000 0.000000 -1.314229 0.010472
    40 -0.957059 -1.356556 -0.137080 -0.026917 -0.376066 -1.612798
    41 1.351391 -0.010799 -0.000001 0.000000 -0.842992 0.005229
    42 0.859052 0.017735 0.000000 0.000000 -1.513199 -0.010472
  time 20
    0 6.799570 2.441748 -8.720350 -1.462110 -1.334093 1.428534
    1 -0.244755 -8.933567 -0.000001 0.454996 0.096826 -0.299660
    2 -0.686200 -3.387099 0.924607 1.218516 1.752558 1.295778
    3 0.000000 2.226937 0.999491 0.000000 0.000000 0.000000
    4 0.000000 -5.541041 1.209910 0.000000 0.000000 0.000000
    5 0.000000 -3.226430 1.771029 0.000000 0.000000 0.000000
    6 0.000000 -6.435323 1.946378 0.000000 0.000000 0.000000
    7 0.000000 -4.979922 3.296568 0.000000 0.000000 0.000000
    8 -0.002621 -10.920650 4.053535 0.007353 -0.041128 -0.003156
    9 0.435962 -12.014548 -11.331237 -1.821073 1.003305 -0.819961
    10 0.026865 -9.077095 -0.000001 0.589890 -0.076708 0.603132
    11 0.000000 -0.456722 0.000000 0.000000 0.000000 0.000000
    12 -0.710981 0.147372 0.477535 -0.213660 -0.692738 -1.961793
    13 1.647790 0.090625 0.000000 0.000000 0.000000 0.690251
    14 0.983506 0.005681 0.000000 0.000000 0.000000 1.050021
    15 -1.090122 -1.829639 -0.122573 -0.049377 -0.630352 -1.605834
    16 1.390341 -0.000584 0.000000 0.000000 -1.584160 0.005236
    17 0.964939 -0.010943 0.000000 0.000000 -1.270922 0.000000
    18 -0.348493 -1.994085 -0.122572 -0.000007 -0.896013 -1.644097
    19 1.546314 0.004627 0.000001 0.000000 -1.845976 0.000000
    20 1.135736 0.008475 -0.000001 0.000000 -1.154141 0.020944
    21 0.310263 -1.738958 -0.122572 0.051541 -0.660413 -1.590818
    22 1.569655 0.049780 0.000000 0.000000 -1.673321 -0.010472
    23 1.096339 0.003407 0.000001 0.000000 -1.272873 0.005236
    24 0.956485 -1.335291 -0.122573 0.047315 -0.486919 -1.557560
    25 1.346261 0.018204 0.000001 0.000000 -0.978773 -0.005236
    26 0.874448 -0.001050 0.000002 0.000000 -1.297483 0.000000
    27 -0.017482 -0.437063 0.000000 0.000000 0.000000 0.000000
    28 0.714223 0.114181 0.472822 -0.048914 -0.322244 -0.907441
    29 1.728638 -0.122215 0.000000 0.000000 0.000000 -0.528829
    30 0.882757 0.056391 0.000000 0.000000 0.000000 -0.534075
    31 1.137758 -1.867487 -0.137080 0.006196 -0.130751 -1.497905
    32 1.365644 0.014869 0.000000 0.000000 -0.261807 -0.005236
    33 0.938014 -0.005664 0.000001 0.000000 -0.822049 0.010472
    34 0.409682 -2.071859 -0.137080 0.028594 -0.396954 -1.597491
    35 1.470907 0.007359 -0.000001 0.000000 -1.560324 0.010472
    36 1.152100 0.010338 0.000001 0.000000 -1.261865 0.005236
    37 -0.292848 -1.816393 -0.137080 0.008057 -0.298339 -1.671501
    38 1.511617 -0.004263 0.000000 0.000000 -1.544617 0.036652
    39 1.099637 -0.010806 0.000000 0.000000 -1.314229 0.010472
    40 -0.957059 -1.356556 -0.137080 -0.026917 -0.376066 -1.612798
    41 1.351391 -0.010799 -0.000001 0.000000 -0.842992 0.005229
    42 0.859052 0.017735 0.000000 0.000000 -1.513199 -0.010472
  time 21
    0 6.807383 2.461280 -8.724256 -1.484753 -1.319445 1.427971
    1 -0.244755 -8.933567 -0.000001 0.428593 0.070867 -0.329046
    2 -0.686200 -3.387099 0.924607 1.218516 1.752558 1.295778
    3 0.000000 2.226937 0.999491 0.000000 0.000000 0.000000
    4 0.000000 -5.541041 1.209910 0.000000 0.000000 0.000000
    5 0.000000 -3.226430 1.771029 0.000000 0.000000 0.000000
    6 0.000000 -6.435323 1.946378 0.000000 0.000000 0.000000
    7 0.000000 -4.979922 3.296568 0.000000 0.000000 0.000000
    8 -0.002621 -10.920650 4.053535 0.007353 -0.041128 -0.003156
    9 0.342209 -11.526252 -11.323425 -1.753928 1.018375 -0.816994
    10 0.026865 -9.077095 -0.000001 0.616540 -0.070200 0.609580
    11 0.000000 -0.456722 0.000000 0.000000 0.000000 0.000000
    12 -0.710981 0.147372 0.477535 -0.214811 -0.691453 -1.960200
    13 1.647790 0.090625 0.000000 0.000000 0.000000 0.691926
    14 0.983506 0.005681 0.000000 0.000000 0.000000 1.056275
    15 -1.090122 -1.829639 -0.122573 -0.049472 -0.632996 -1.605666
    16 1.390341 -0.000584 0.000000 0.000000 -1.591954 0.005236
    17 0.964939 -0.010943 0.000000 0.000000 -1.276970 0.000000
    18 -0.348493 -1.994085 -0.122572 -0.000007 -0.899707 -1.644097
    19 1.546314 0.004627 0.000001 0.000000 -1.855452 0.000000
    20 1.135736 0.008475 -0.000001 0.000000 -1.159899 0.020944
    21 0.310263 -1.738958 -0.122572 0.051649 -0.662951 -1.590985
    22 1.569655 0.049780 0.000000 0.000000 -1.680837 -0.010472
    23 1.096339 0.003407 0.000001 0.000000 -1.278523 0.005236
    24 0.956485 -1.335291 -0.122573 0.047375 -0.489474 -1.557704
    25 1.346261 0.018204 0.000001 0.000000 -0.982697 -0.005236
    26 0.874448 -0.001050 0.000002 0.000000 -1.302841 0.000000
    27 -0.017482 -0.437063 0.000000 0.000000 0.000000 0.000000
    28 0.714223 0.114181 0.472822 -0.048914 -0.322244 -0.907441
    29 1.728638 -0.122215 0.000000 0.000000 0.000000 -0.528829
    30 0.882757 0.056391 0.000000 0.000000 0.000000 -0.534075
    31 1.137758 -1.867487 -0.137080 0.006196 -0.130751 -1.497905
    32 1.365644 0.014869 0.000000 0.000000 -0.261807 -0.005236
    33 0.938014 -0.005664 0.000001 0.000000 -0.822049 0.010472
    34 0.409682 -2.071859 -0.137080 0.028594 -0.396954 -1.597491
    35 1.470907 0.007359 -0.000001 0.000000 -1.560324 0.010472
    36 1.152100 0.010338 0.000001 0.000000 -1.261865 0.005236
    37 -0.292848 -1.816393 -0.137080 0.008057 -0.298339 -1.671501
    38 1.511617 -0.004263 0.000000 0.000000 -1.544617 0.036652
    39 1.099637 -0.010806 0.000000 0.000000 -1.314229 0.010472
    40 -0.957059 -1.356556 -0.137080 -0.026917 -0.376066 -1.612798
    41 1.351391 -0.010799 -0.000001 0.000000 -0.842992 0.005229
    42 0.859052 0.017735 0.000000 0.000000 -1.513199 -0.010472
  time 22
    0 6.830821 2.484718 -8.720350 -1.497233 -1.309427 1.419363
    1 -0.244755 -8.933567 -0.000001 0.398596 0.044285 -0.357881
    2 -0.686200 -3.387099 0.924607 1.218516 1.752558 1.295778
    3 0.000000 2.226937 0.999491 0.000000 0.000000 0.000000
    4 0.000000 -5.541041 1.209910 0.000000 0.000000 0.000000
    5 0.000000 -3.226430 1.771029 0.000000 0.000000 0.000000
    6 0.000000 -6.435323 1.946378 0.000000 0.000000 0.000000
    7 0.000000 -4.979922 3.296568 0.000000 0.000000 0.000000
    8 -0.002621 -10.920650 4.053535 0.007353 -0.041128 -0.003156
    9 0.228924 -11.053581 -11.397646 -1.686209 1.028067 -0.808860
    10 0.026865 -9.077095 -0.000001 0.632675 -0.061910 0.621682
    11 0.000000 -0.456722 0.000000 0.000000 0.000000 0.000000
    12 -0.710981 0.147372 0.477535 -0.213900 -0.692506 -1.961512
    13 1.647790 0.090625 0.000000 0.000000 0.000000 0.690586
    14 0.983506 0.005681 0.000000 0.000000 0.000000 1.051249
    15 -1.090122 -1.829639 -0.122573 -0.049401 -0.630865 -1.605798
    16 1.390341 -0.000584 0.000000 0.000000 -1.585733 0.005236
    17 0.964939 -0.010943 0.000000 0.000000 -1.272097 0.000000
    18 -0.348493 -1.994085 -0.122572 -0.000007 -0.896752 -1.644097
    19 1.546314 0.004627 0.000001 0.000000 -1.847807 0.000000
    20 1.135736 0.008475 -0.000001 0.000000 -1.155282 0.020944
    21 0.310263 -1.738958 -0.122572 0.051565 -0.660916 -1.590854
    22 1.569655 0.049780 0.000000 0.000000 -1.674810 -0.010472
    23 1.096339 0.003407 0.000001 0.000000 -1.273970 0.005236
    24 0.956485 -1.335291 -0.122573 0.047327 -0.487410 -1.557596
    25 1.346261 0.018204 0.000001 0.000000 -0.979549 -0.005236
    26 0.874448 -0.001050 0.000002 0.000000 -1.298545 0.000000
    27 -0.017482 -0.437063 0.000000 0.000000 0.000000 0.000000
    28 0.714223 0.114181 0.472822 -0.048914 -0.322244 -0.907441
    29 1.728638 -0.122215 0.000000 0.000000 0.000000 -0.528829
    30 0.882757 0.056391 0.000000 0.000000 0.000000 -0.534075
    31 1.137758 -1.867487 -0.137080 0.006196 -0.130751 -1.497905
    32 1.365644 0.014869 0.000000 0.000000 -0.261807 -0.005236
    33 0.938014 -0.005664 0.000001 0.000000 -0.822049 0.010472
    34 0.409682 -2.071859 -0.137080 0.028594 -0.396954 -1.597491
    35 1.470907 0.007359 -0.000001 0.000000 -1.560324 0.010472
    36 1.152100 0.010338 0.000001 0.000000 -1.261865 0.005236
    37 -0.292848 -1.816393 -0.137080 0.008057 -0.298339 -1.671501
    38 1.511617 -0.004263 0.000000 0.000000 -1.544617 0.036652
    39 1.099637 -0.010806 0.000000 0.000000 -1.314229 0.010472
    40 -0.957059 -1.356556 -0.137080 -0.026917 -0.376066 -1.612798
    41 1.351391 -0.010799 -0.000001 0.000000 -0.842992 0.005229
    42 0.859052 0.017735 0.000000 0.000000 -1.513199 -0.010472
  time 23
    0 6.869885 2.515969 -8.704725 -1.495450 -1.306513 1.404734
    1 -0.244755 -8.933567 -0.000001 0.369453 0.017332 -0.381694
    2 -0.686200 -3.387099 0.924607 1.218516 1.752558 1.295778
    3 0.000000 2.226937 0.999491 0.000000 0.000000 0.000000
    4 0.000000 -5.541041 1.209910 0.000000 0.000000 0.000000
    5 0.000000 -3.226430 1.771029 0.000000 0.000000 0.000000
    6 0.000000 -6.435323 1.946378 0.000000 0.000000 0.000000
    7 0.000000 -4.979922 3.296568 0.000000 0.000000 0.000000
    8 -0.002621 -10.920650 4.053535 0.007353 -0.041128 -0.003156
    9 0.096108 -10.670757 -11.522649 -1.621264 1.026023 -0.793550
    10 0.026865 -9.077095 -0.000001 0.636600 -0.051416 0.643653
    11 0.000000 -0.456722 0.000000 0.000000 0.000000 0.000000
    12 -0.710981 0.147372 0.477535 -0.211359 -0.695326 -1.965121
    13 1.647790 0.090625 0.000000 0.000000 0.000000 0.686902
    14 0.983506 0.005681 0.000000 0.000000 0.000000 1.037511
    15 -1.090122 -1.829639 -0.122573 -0.049209 -0.625118 -1.606158
    16 1.390341 -0.000584 0.000000 0.000000 -1.568759 0.005236
    17 0.964939 -0.010943 0.000000 0.000000 -1.258827 0.000000
    18 -0.348493 -1.994085 -0.122572 -0.000007 -0.888594 -1.644097
    19 1.546314 0.004627 0.000001 0.000000 -1.827116 0.000000
    20 1.135736 0.008475 -0.000001 0.000000 -1.142682 0.020944
    21 0.310263 -1.738958 -0.122572 0.051350 -0.655313 -1.590482
    22 1.569655 0.049780 0.000000 0.000000 -1.658361 -0.010472
    23 1.096339 0.003407 0.000001 0.000000 -1.261573 0.005236
    24 0.956485 -1.335291 -0.122573 0.047184 -0.481784 -1.557309
    25 1.346261 0.018204 0.000001 0.000000 -0.971011 -0.005236
    26 0.874448 -0.001050 0.000002 0.000000 -1.286846 0.000000
    27 -0.017482 -0.437063 0.000000 0.000000 0.000000 0.000000
    28 0.714223 0.114181 0.472822 -0.048914 -0.322244 -0.907441
    29 1.728638 -0.122215 0.000000 0.000000 0.000000 -0.528829
    30 0.882757 0.056391 0.000000 0.000000 0.000000 -0.534075
    31 1.137758 -1.867487 -0.137080 0.006196 -0.130751 -1.497905
    32 1.365644 0.014869 0.000000 0.000000 -0.261807 -0.005236
    33 0.938014 -0.005664 0.000001 0.000000 -0.822049 0.010472
    34 0.409682 -2.071859 -0.137080 0.028594 -0.396954 -1.597491
    35 1.470907 0.007359 -0.000001 0.000000 -1.560324 0.010472
    36 1.152100 0.010338 0.000001 0.000000 -1.261865 0.005236
    37 -0.292848 -1.816393 -0.137080 0.008057 -0.298339 -1.671501
    38 1.511617 -0.004263 0.000000 0.000000 -1.544617 0.036652
    39 1.099637 -0.010806 0.000000 0.000000 -1.314229 0.010472
    40 -0.957059 -1.356556 -0.137080 -0.026917 -0.376066 -1.612798
    41 1.351391 -0.010799 -0.000001 0.000000 -0.842992 0.005229
    42 0.859052 0.017735 0.000000 0.000000 -1.513199 -0.010472
  time 24
    0 6.924574 2.547220 -8.681286 -1.489299 -1.306952 1.390781
    1 -0.244755 -8.933567 -0.000001 0.345349 -0.009322 -0.396315
    2 -0.686200 -3.387099 0.924607 1.218516 1.752558 1.295778
    3 0.000000 2.226937 0.999491 0.000000 0.000000 0.000000
    4 0.000000 -5.541041 1.209910 0.000000 0.000000 0.000000
    5 0.000000 -3.226430 1.771029 0.000000 0.000000 0.000000
    6 0.000000 -6.435323 1.946378 0.000000 0.000000 0.000000
    7 0.000000 -4.979922 3.296568 0.000000 0.000000 0.000000
    8 -0.002621 -10.920650 4.053535 0.007353 -0.041128 -0.003156
    9 -0.052334 -10.448094 -11.671091 -1.575066 1.011787 -0.776134
    10 0.026865 -9.077095 -0.000001 0.630082 -0.041023 0.671130
    11 0.000000 -0.456722 0.000000 0.000000 0.000000 0.000000
    12 -0.710981 0.147372 0.477535 -0.207680 -0.699395 -1.970417
    13 1.647790 0.090625 0.000000 0.000000 0.000000 0.681605
    14 0.983506 0.005681 0.000000 0.000000 0.000000 1.017704
    15 -1.090122 -1.829639 -0.122573 -0.048897 -0.616781 -1.606661
    16 1.390341 -0.000584 0.000000 0.000000 -1.544215 0.005236
    17 0.964939 -0.010943 0.000000 0.000000 -1.239598 0.000000
    18 -0.348493 -1.994085 -0.122572 -0.000007 -0.876839 -1.644097
    19 1.546314 0.004627 0.000001 0.000000 -1.797178 0.000000
    20 1.135736 0.008475 -0.000001 0.000000 -1.124492 0.020944
    21 0.310263 -1.738958 -0.122572 0.051026 -0.647219 -1.589967
    22 1.569655 0.049780 0.000000 0.000000 -1.634613 -0.010472
    23 1.096339 0.003407 0.000001 0.000000 -1.243636 0.005236
    24 0.956485 -1.335291 -0.122573 0.047004 -0.473707 -1.556865
    25 1.346261 0.018204 0.000001 0.000000 -0.958591 -0.005236
    26 0.874448 -0.001050 0.000002 0.000000 -1.269893 0.000000
    27 -0.017482 -0.437063 0.000000 0.000000 0.000000 0.000000
    28 0.714223 0.114181 0.472822 -0.048914 -0.322244 -0.907441
    29 1.728638 -0.122215 0.000000 0.000000 0.000000 -0.528829
    30 0.882757 0.056391 0.000000 0.000000 0.000000 -0.534075
    31 1.137758 -1.867487 -0.137080 0.006196 -0.130751 -1.497905
    32 1.365644 0.014869 0.000000 0.000000 -0.261807 -0.005236
    33 0.938014 -0.005664 0.000001 0.000000 -0.822049 0.010472
    34 0.409682 -2.071859 -0.137080 0.028594 -0.396954 -1.597491
    35 1.470907 0.007359 -0.000001 0.000000 -1.560324 0.010472
    36 1.152100 0.010338 0.000001 0.000000 -1.261865 0.005236
    37 -0.292848 -1.816393 -0.137080 0.008057 -0.298339 -1.671501
    38 1.511617 -0.004263 0.000000 0.000000 -1.544617 0.036652
    39 1.099637 -0.010806 0.000000 0.000000 -1.314229 0.010472
    40 -0.957059 -1.356556 -0.137080 -0.026917 -0.376066 -1.612798
    41 1.351391 -0.010799 -0.000001 0.000000 -0.842992 0.005229
    42 0.859052 0.017735 0.000000 0.000000 -1.513199 -0.010472
  time 25
    0 6.994889 2.582378 -8.653942 -1.482435 -1.310305 1.374745
    1 -0.244755 -8.933567 -0.000001 0.332619 -0.029156 -0.398784
    2 -0.686200 -3.387099 0.924607 1.218516 1.752558 1.295778
    3 0.000000 2.226937 0.999491 0.000000 0.000000 0.000000
    4 0.000000 -5.541041 1.209910 0.000000 0.000000 0.000000
    5 0.000000 -3.226430 1.771029 0.000000 0.000000 0.000000
    6 0.000000 -6.435323 1.946378 0.000000 0.000000 0.000000
    7 0.000000 -4.979922 3.296568 0.000000 0.000000 0.000000
    8 -0.002621 -10.920650 4.053535 0.007353 -0.041128 -0.003156
    9 -0.220308 -10.409030 -11.862504 -1.547232 0.993688 -0.761685
    10 0.026865 -9.077095 -0.000001 0.617621 -0.031790 0.696721
    11 0.000000 -0.456722 0.000000 0.000000 0.000000 0.000000
    12 -0.710981 0.147372 0.477535 -0.203270 -0.704178 -1.976604
    13 1.647790 0.090625 0.000000 0.000000 0.000000 0.675363
    14 0.983506 0.005681 0.000000 0.000000 0.000000 0.994398
    15 -1.090122 -1.829639 -0.122573 -0.048574 -0.606987 -1.607236
    16 1.390341 -0.000584 0.000000 0.000000 -1.515437 0.005236
    17 0.964939 -0.010943 0.000000 0.000000 -1.217051 0.000000
    18 -0.348493 -1.994085 -0.122572 -0.000007 -0.863060 -1.644097
    19 1.546314 0.004627 0.000001 0.000000 -1.761976 0.000000
    20 1.135736 0.008475 -0.000001 0.000000 -1.103131 0.020944
    21 0.310263 -1.738958 -0.122572 0.050667 -0.637737 -1.589368
    22 1.569655 0.049780 0.000000 0.000000 -1.606690 -0.010472
    23 1.096339 0.003407 0.000001 0.000000 -1.222545 0.005236
    24 0.956485 -1.335291 -0.122573 0.046764 -0.464185 -1.556374
    25 1.346261 0.018204 0.000001 0.000000 -0.944059 -0.005236
    26 0.874448 -0.001050 0.000002 0.000000 -1.250016 0.000000
    27 -0.017482 -0.437063 0.000000 0.000000 0.000000 0.000000
    28 0.714223 0.114181 0.472822 -0.048914 -0.322244 -0.907441
    29 1.728638 -0.122215 0.000000 0.000000 0.000000 -0.528829
    30 0.882757 0.056391 0.000000 0.000000 0.000000 -0.534075
    31 1.137758 -1.867487 -0.137080 0.006196 -0.130751 -1.497905
    32 1.365644 0.014869 0.000000 0.000000 -0.261807 -0.005236
    33 0.938014 -0.005664 0.000001 0.000000 -0.822049 0.010472
    34 0.409682 -2.071859 -0.137080 0.028594 -0.396954 -1.597491
    35 1.470907 0.007359 -0.000001 0.000000 -1.560324 0.010472
    36 1.152100 0.010338 0.000001 0.000000 -1.261865 0.005236
    37 -0.292848 -1.816393 -0.137080 0.008057 -0.298339 -1.671501
    38 1.511617 -0.004263 0.000000 0.000000 -1.544617 0.036652
    39 1.099637 -0.010806 0.000000 0.000000 -1.314229 0.010472
    40 -0.957059 -1.356556 -0.137080 -0.026917 -0.376066 -1.612798
    41 1.351391 -0.010799 -0.000001 0.000000 -0.842992 0.005229
    42 0.859052 0.017735 0.000000 0.000000 -1.513199 -0.010472
  time 26
    0 7.076923 2.625348 -8.610972 -1.477354 -1.316611 1.362592
    1 -0.244755 -8.933567 -0.000001 0.326018 -0.042088 -0.393511
    2 -0.686200 -3.387099 0.924607 1.218516 1.752558 1.295778
    3 0.000000 2.226937 0.999491 0.000000 0.000000 0.000000
    4 0.000000 -5.541041 1.209910 0.000000 0.000000 0.000000
    5 0.000000 -3.226430 1.771029 0.000000 0.000000 0.000000
    6 0.000000 -6.435323 1.946378 0.000000 0.000000 0.000000
    7 0.000000 -4.979922 3.296568 0.000000 0.000000 0.000000
    8 -0.002621 -10.920650 4.053535 0.007353 -0.041128 -0.003156
    9 -0.400001 -10.502783 -12.089073 -1.534320 0.968548 -0.747522
    10 0.026865 -9.077095 -0.000001 0.590358 -0.020481 0.725835
    11 0.000000 -0.456722 0.000000 0.000000 0.000000 0.000000
    12 -0.710981 0.147372 0.477535 -0.198655 -0.709104 -1.983165
    13 1.647790 0.090625 0.000000 0.000000 0.000000 0.668878
    14 0.983506 0.005681 0.000000 0.000000 0.000000 0.970198
    15 -1.090122 -1.829639 -0.122573 -0.048226 -0.596842 -1.607836
    16 1.390341 -0.000584 0.000000 0.000000 -1.485535 0.005236
    17 0.964939 -0.010943 0.000000 0.000000 -1.193623 0.000000
    18 -0.348493 -1.994085 -0.122572 -0.000007 -0.848735 -1.644097
    19 1.546314 0.004627 0.000001 0.000000 -1.725446 0.000000
    20 1.135736 0.008475 -0.000001 0.000000 -1.080964 0.020944
    21 0.310263 -1.738958 -0.122572 0.050319 -0.627896 -1.588744
    22 1.569655 0.049780 0.000000 0.000000 -1.577750 -0.010472
    23 1.096339 0.003407 0.000001 0.000000 -1.200686 0.005236
    24 0.956485 -1.335291 -0.122573 0.046536 -0.454302 -1.555859
    25 1.346261 0.018204 0.000001 0.000000 -0.928965 -0.005236
    26 0.874448 -0.001050 0.000002 0.000000 -1.229363 0.000000
    27 -0.017482 -0.437063 0.000000 0.000000 0.000000 0.000000
    28 0.714223 0.114181 0.472822 -0.048914 -0.322244 -0.907441
    29 1.728638 -0.122215 0.000000 0.000000 0.000000 -0.528829
    30 0.882757 0.056391 0.000000 0.000000 0.000000 -0.534075
    31 1.137758 -1.867487 -0.137080 0.006196 -0.130751 -1.497905
    32 1.365644 0.014869 0.000000 0.000000 -0.261807 -0.005236
    33 0.938014 -0.005664 0.000001 0.000000 -0.822049 0.010472
    34 0.409682 -2.071859 -0.137080 0.028594 -0.396954 -1.597491
    35 1.470907 0.007359 -0.000001 0.000000 -1.560324 0.010472
    36 1.152100 0.010338 0.000001 0.000000 -1.261865 0.005236
    37 -0.292848 -1.816393 -0.137080 0.008057 -0.298339 -1.671501
    38 1.511617 -0.004263 0.000000 0.000000 -1.544617 0.036652
    39 1.099637 -0.010806 0.000000 0.000000 -1.314229 0.010472
    40 -0.957059 -1.356556 -0.137080 -0.026917 -0.376066 -1.612798
    41 1.351391 -0.010799 -0.000001 0.000000 -0.842992 0.005229
    42 0.859052 0.017735 0.000000 0.000000 -1.513199 -0.010472
  time 27
    0 7.170676 2.668318 -8.560189 -1.472362 -1.325392 1.351339
    1 -0.244755 -8.933567 -0.000001 0.323337 -0.044952 -0.377272
    2 -0.686200 -3.387099 0.924607 1.218516 1.752558 1.295778
    3 0.000000 2.226937 0.999491 0.000000 0.000000 0.000000
    4 0.000000 -5.541041 1.209910 0.000000 0.000000 0.000000
    5 0.000000 -3.226430 1.771029 0.000000 0.000000 0.000000
    6 0.000000 -6.435323 1.946378 0.000000 0.000000 0.000000
    7 0.000000 -4.979922 3.296568 0.000000 0.000000 0.000000
    8 -0.002621 -10.920650 4.053535 0.007353 -0.041128 -0.003156
    9 -0.599226 -10.702008 -12.268766 -1.542546 0.941590 -0.736135
    10 0.026865 -9.077095 -0.000001 0.551967 -0.009223 0.751129
    11 0.000000 -0.456722 0.000000 0.000000 0.000000 0.000000
    12 -0.710981 0.147372 0.477535 -0.194317 -0.713655 -1.989211
    13 1.647790 0.090625 0.000000 0.000000 0.000000 0.662911
    14 0.983506 0.005681 0.000000 0.000000 0.000000 0.947748
    15 -1.090122 -1.829639 -0.122573 -0.047926 -0.587399 -1.608375
    16 1.390341 -0.000584 0.000000 0.000000 -1.457844 0.005236
    17 0.964939 -0.010943 0.000000 0.000000 -1.171898 0.000000
    18 -0.348493 -1.994085 -0.122572 -0.000007 -0.835439 -1.644097
    19 1.546314 0.004627 0.000001 0.000000 -1.691571 0.000000
    20 1.135736 0.008475 -0.000001 0.000000 -1.060381 0.020944
    21 0.310263 -1.738958 -0.122572 0.049971 -0.618749 -1.588193
    22 1.569655 0.049780 0.000000 0.000000 -1.550880 -0.010472
    23 1.096339 0.003407 0.000001 0.000000 -1.180390 0.005236
    24 0.956485 -1.335291 -0.122573 0.046333 -0.445115 -1.555367
    25 1.346261 0.018204 0.000001 0.000000 -0.914993 -0.005236
    26 0.874448 -0.001050 0.000002 0.000000 -1.210210 0.000000
    27 -0.017482 -0.437063 0.000000 0.000000 0.000000 0.000000
    28 0.714223 0.114181 0.472822 -0.048914 -0.322244 -0.907441
    29 1.728638 -0.122215 0.000000 0.000000 0.000000 -0.528829
    30 0.882757 0.056391 0.000000 0.000000 0.000000 -0.534075
    31 1.137758 -1.867487 -0.137080 0.006196 -0.130751 -1.497905
    32 1.365644 0.014869 0.000000 0.000000 -0.261807 -0.005236
    33 0.938014 -0.005664 0.000001 0.000000 -0.822049 0.010472
    34 0.409682 -2.071859 -0.137080 0.028594 -0.396954 -1.597491
    35 1.470907 0.007359 -0.000001 0.000000 -1.560324 0.010472
    36 1.152100 0.010338 0.000001 0.000000 -1.261865 0.005236
    37 -0.292848 -1.816393 -0.137080 0.008057 -0.298339 -1.671501
    38 1.511617 -0.004263 0.000000 0.000000 -1.544617 0.036652
    39 1.099637 -0.010806 0.000000 0.000000 -1.314229 0.010472
    40 -0.957059 -1.356556 -0.137080 -0.026917 -0.376066 -1.612798
    41 1.351391 -0.010799 -0.000001 0.000000 -0.842992 0.005229
    42 0.859052 0.017735 0.000000 0.000000 -1.513199 -0.010472
  time 28
    0 7.283960 2.715194 -8.501593 -1.466032 -1.336089 1.337836
    1 -0.244755 -8.933567 -0.000001 0.324810 -0.037953 -0.351888
    2 -0.686200 -3.387099 0.924607 1.218516 1.752558 1.295778
    3 0.000000 2.226937 0.999491 0.000000 0.000000 0.000000
    4 0.000000 -5.541041 1.209910 0.000000 0.000000 0.000000
    5 0.000000 -3.226430 1.771029 0.000000 0.000000 0.000000
    6 0.000000 -6.435323 1.946378 0.000000 0.000000 0.000000
    7 0.000000 -4.979922 3.296568 0.000000 0.000000 0.000000
    8 -0.002621 -10.920650 4.053535 0.007353 -0.041128 -0.003156
    9 -0.817983 -10.998892 -12.382051 -1.561101 0.909786 -0.723695
    10 0.026865 -9.077095 -0.000001 0.502736 0.004646 0.778110
    11 0.000000 -0.456722 0.000000 0.000000 0.000000 0.000000
    12 -0.710981 0.147372 0.477535 -0.190770 -0.717314 -1.994226
    13 1.647790 0.090625 0.000000 0.000000 0.000000 0.658039
    14 0.983506 0.005681 0.000000 0.000000 0.000000 0.929654
    15 -1.090122 -1.829639 -0.122573 -0.047699 -0.579817 -1.608818
    16 1.390341 -0.000584 0.000000 0.000000 -1.435474 0.005236
    17 0.964939 -0.010943 0.000000 0.000000 -1.154372 0.000000
    18 -0.348493 -1.994085 -0.122572 -0.000007 -0.824711 -1.644097
    19 1.546314 0.004627 0.000001 0.000000 -1.664242 0.000000
    20 1.135736 0.008475 -0.000001 0.000000 -1.043777 0.020944
    21 0.310263 -1.738958 -0.122572 0.049720 -0.611374 -1.587726
    22 1.569655 0.049780 0.000000 0.000000 -1.529202 -0.010472
    23 1.096339 0.003407 0.000001 0.000000 -1.164016 0.005236
    24 0.956485 -1.335291 -0.122573 0.046177 -0.437735 -1.555008
    25 1.346261 0.018204 0.000001 0.000000 -0.903652 -0.005236
    26 0.874448 -0.001050 0.000002 0.000000 -1.194759 0.000000
    27 -0.017482 -0.437063 0.000000 0.000000 0.000000 0.000000
    28 0.714223 0.114181 0.472822 -0.048914 -0.322244 -0.907441
    29 1.728638 -0.122215 0.000000 0.000000 0.000000 -0.528829
    30 0.882757 0.056391 0.000000 0.000000 0.000000 -0.534075
    31 1.137758 -1.867487 -0.137080 0.006196 -0.130751 -1.497905
    32 1.365644 0.014869 0.000000 0.000000 -0.261807 -0.005236
    33 0.938014 -0.005664 0.000001 0.000000 -0.822049 0.010472
    34 0.409682 -2.071859 -0.137080 0.028594 -0.396954 -1.597491
    35 1.470907 0.007359 -0.000001 0.000000 -1.560324 0.010472
    36 1.152100 0.010338 0.000001 0.000000 -1.261865 0.005236
    37 -0.292848 -1.816393 -0.137080 0.008057 -0.298339 -1.671501
    38 1.511617 -0.004263 0.000000 0.000000 -1.544617 0.036652
    39 1.099637 -0.010806 0.000000 0.000000 -1.314229 0.010472
    40 -0.957059 -1.356556 -0.137080 -0.026917 -0.376066 -1.612798
    41 1.351391 -0.010799 -0.000001 0.000000 -0.842992 0.005229
    42 0.859052 0.017735 0.000000 0.000000 -1.513199 -0.010472
  time 29
    0 7.408964 2.765977 -8.431279 -1.456226 -1.348382 1.318537
    1 -0.244755 -8.933567 -0.000001 0.327359 -0.028293 -0.318763
    2 -0.686200 -3.387099 0.924607 1.218516 1.752558 1.295778
    3 0.000000 2.226937 0.999491 0.000000 0.000000 0.000000
    4 0.000000 -5.541041 1.209910 0.000000 0.000000 0.000000
    5 0.000000 -3.226430 1.771029 0.000000 0.000000 0.000000
    6 0.000000 -6.435323 1.946378 0.000000 0.000000 0.000000
    7 0.000000 -4.979922 3.296568 0.000000 0.000000 0.000000
    8 -0.002621 -10.920650 4.053535 0.007353 -0.041128 -0.003156
    9 -1.052365 -11.401248 -12.448459 -1.580614 0.869954 -0.707141
    10 0.026865 -9.077095 -0.000001 0.443277 0.024221 0.812083
    11 0.000000 -0.456722 0.000000 0.000000 0.000000 0.000000
    12 -0.710981 0.147372 0.477535 -0.188576 -0.719545 -1.997273
    13 1.647790 0.090625 0.000000 0.000000 0.000000 0.655086
    14 0.983506 0.005681 0.000000 0.000000 0.000000 0.918522
    15 -1.090122 -1.829639 -0.122573 -0.047555 -0.575149 -1.609070
    16 1.390341 -0.000584 0.000000 0.000000 -1.421722 0.005236
    17 0.964939 -0.010943 0.000000 0.000000 -1.143597 0.000000
    18 -0.348493 -1.994085 -0.122572 -0.000007 -0.818127 -1.644097
    19 1.546314 0.004627 0.000001 0.000000 -1.647442 0.000000
    20 1.135736 0.008475 -0.000001 0.000000 -1.033541 0.020944
    21 0.310263 -1.738958 -0.122572 0.049564 -0.606872 -1.587474
    22 1.569655 0.049780 0.000000 0.000000 -1.515876 -0.010472
    23 1.096339 0.003407 0.000001 0.000000 -1.153951 0.005236
    24 0.956485 -1.335291 -0.122573 0.046081 -0.433193 -1.554780
    25 1.346261 0.018204 0.000001 0.000000 -0.896709 -0.005236
    26 0.874448 -0.001050 0.000002 0.000000 -1.185260 0.000000
    27 -0.017482 -0.437063 0.000000 0.000000 0.000000 0.000000
    28 0.714223 0.114181 0.472822 -0.048914 -0.322244 -0.907441
    29 1.728638 -0.122215 0.000000 0.000000 0.000000 -0.528829
    30 0.882757 0.056391 0.000000 0.000000 0.000000 -0.534075
    31 1.137758 -1.867487 -0.137080 0.006196 -0.130751 -1.497905
    32 1.365644 0.014869 0.000000 0.000000 -0.261807 -0.005236
    33 0.938014 -0.005664 0.000001 0.000000 -0.822049 0.010472
    34 0.409682 -2.071859 -0.137080 0.028594 -0.396954 -1.597491
    35 1.470907 0.007359 -0.000001 0.000000 -1.560324 0.010472
    36 1.152100 0.010338 0.000001 0.000000 -1.261865 0.005236
    37 -0.292848 -1.816393 -0.137080 0.008057 -0.298339 -1.671501
    38 1.511617 -0.004263 0.000000 0.000000 -1.544617 0.036652
    39 1.099637 -0.010806 0.000000 0.000000 -1.314229 0.010472
    40 -0.957059 -1.356556 -0.137080 -0.026917 -0.376066 -1.612798
    41 1.351391 -0.010799 -0.000001 0.000000 -0.842992 0.005229
    42 0.859052 0.017735 0.000000 0.000000 -1.513199 -0.010472
  time 30
    0 7.549593 2.824573 -8.353151 -1.443657 -1.359239 1.295243
    1 -0.244755 -8.933567 -0.000001 0.327698 -0.023128 -0.284547
    2 -0.686200 -3.387099 0.924607 1.218516 1.752558 1.295778
    3 0.000000 2.226937 0.999491 0.000000 0.000000 0.000000
    4 0.000000 -5.541041 1.209910 0.000000 0.000000 0.000000
    5 0.000000 -3.226430 1.771029 0.000000 0.000000 0.000000
    6 0.000000 -6.435323 1.946378 0.000000 0.000000 0.000000
    7 0.000000 -4.979922 3.296568 0.000000 0.000000 0.000000
    8 -0.002621 -10.920650 4.053535 0.007353 -0.041128 -0.003156
    9 -1.306279 -11.909076 -12.471897 -1.591613 0.827473 -0.688481
    10 0.026865 -9.077095 -0.000001 0.385475 0.048253 0.850025
    11 0.000000 -0.456722 0.000000 0.000000 0.000000 0.000000
    12 -0.710981 0.147372 0.477535 -0.188145 -0.719991 -1.997882
    13 1.647790 0.090625 0.000000 0.000000 0.000000 0.654477
    14 0.983506 0.005681 0.000000 0.000000 0.000000 0.916288
    15 -1.090122 -1.829639 -0.122573 -0.047519 -0.574205 -1.609130
    16 1.390341 -0.000584 0.000000 0.000000 -1.418949 0.005236
    17 0.964939 -0.010943 0.000000 0.000000 -1.141425 0.000000
    18 -0.348493 -1.994085 -0.122572 -0.000007 -0.816810 -1.644097
    19 1.546314 0.004627 0.000001 0.000000 -1.644100 0.000000
    20 1.135736 0.008475 -0.000001 0.000000 -1.031511 0.020944
    21 0.310263 -1.738958 -0.122572 0.049540 -0.605938 -1.587414
    22 1.569655 0.049780 0.000000 0.000000 -1.513189 -0.010472
    23 1.096339 0.003407 0.000001 0.000000 -1.151921 0.005236
    24 0.956485 -1.335291 -0.122573 0.046069 -0.432290 -1.554732
    25 1.346261 0.018204 0.000001 0.000000 -0.895329 -0.005236
    26 0.874448 -0.001050 0.000002 0.000000 -1.183345 0.000000
    27 -0.017482 -0.437063 0.000000 0.000000 0.000000 0.000000
    28 0.714223 0.114181 0.472822 -0.048914 -0.322244 -0.907441
    29 1.728638 -0.122215 0.000000 0.000000 0.000000 -0.528829
    30 0.882757 0.056391 0.000000 0.000000 0.000000 -0.534075
    31 1.137758 -1.867487 -0.137080 0.006196 -0.130751 -1.497905
    32 1.365644 0.014869 0.000000 0.000000 -0.261807 -0.005236
    33 0.938014 -0.005664 0.000001 0.000000 -0.822049 0.010472
    34 0.409682 -2.071859 -0.137080 0.028594 -0.396954 -1.597491
    35 1.470907 0.007359 -0.000001 0.000000 -1.560324 0.010472
    36 1.152100 0.010338 0.000001 0.000000 -1.261865 0.005236
    37 -0.292848 -1.816393 -0.137080 0.008057 -0.298339 -1.671501
    38 1.511617 -0.004263 0.000000 0.000000 -1.544617 0.036652
    39 1.099637 -0.010806 0.000000 0.000000 -1.314229 0.010472
    40 -0.957059 -1.356556 -0.137080 -0.026917 -0.376066 -1.612798
    41 1.351391 -0.010799 -0.000001 0.000000 -0.842992 0.005229
    42 0.859052 0.017735 0.000000 0.000000 -1.513199 -0.010472
end
