// Created by Crowbar 0.34.0.0
version 1
nodes
  0 "phantom_1" -1
  1 "phantom_11" -1
  2 "phantom_22" -1
  3 "phantom_2" -1
  4 "slashfx1" -1
  5 "fxtrail" -1
  6 "fxtrailend" 5
  7 "flare_phantom" -1
  8 "root" -1
  9 "Bone01" 8
  10 "Bone_L_Upper" 9
  11 "Bone_Lefthand" 9
  12 "Bone13" 11
  13 "Bone14" 12
  14 "Bone15" 13
  15 "Bone17" 11
  16 "Bone18" 15
  17 "Bone19" 16
  18 "Bone21" 11
  19 "Bone22" 18
  20 "Bone23" 19
  21 "Bone09" 11
  22 "Bone10" 21
  23 "Bone11" 22
  24 "Bone05" 11
  25 "Bone06" 24
  26 "Bone07" 25
  27 "Bone_Se_Hand-L" 11
  28 "Bone04" 8
  29 "Bone_Righthand" 28
  30 "Bone39" 29
  31 "Bone40" 30
  32 "Bone41" 31
  33 "Bone35" 29
  34 "Bone36" 33
  35 "Bone37" 34
  36 "Bone31" 29
  37 "Bone32" 36
  38 "Bone33" 37
  39 "Bone43" 29
  40 "Bone44" 39
  41 "Bone45" 40
  42 "Bone27" 29
  43 "Bone28" 42
  44 "Bone29" 43
  45 "Bone_Se_Hand-R" 29
  46 "Bone_R_Upper" 28
end
skeleton
  time 0
    0 21.926450 -6.643104 -7.966455 -0.967298 3.042236 0.476718
    1 12.144902 -12.017387 -9.492807 -0.967280 3.042267 0.476701
    2 12.144901 11.396547 -33.278689 -4.986352 -0.177236 -2.765681
    3 22.500686 15.448478 -35.154785 -4.986352 -0.177236 -2.765681
    4 89.735512 -136.134579 -18.902527 1.570796 -1.396264 -1.570793
    5 -47.930830 -42.416122 -15.388097 -0.967218 -3.240799 0.476741
    6 0.000004 99.890709 0.000021 0.000000 0.000000 0.000000
    7 -42.359509 -4.725811 -10.784075 -0.873495 2.881110 1.272517
    8 -2.424590 -0.002752 -3.503394 0.000000 0.000000 1.570796
    9 10.325759 -14.096757 -5.546026 0.189631 -2.902566 -1.188481
    10 7.230018 6.895340 -0.571695 1.424083 -3.103258 0.850494
    11 -0.071921 -8.498736 -0.104134 -0.095175 0.097154 -0.047020
    12 -0.488518 -2.755602 -0.228260 -0.093307 0.051942 -0.186015
    13 0.039887 -1.479790 0.029854 -0.426801 0.000000 0.000001
    14 0.028786 -1.075731 -0.023109 0.007184 0.000000 0.000000
    15 0.250027 -2.820665 -0.238396 0.132796 -0.002921 0.008443
    16 -0.049759 -1.680544 0.100479 -0.327367 0.000000 -0.000002
    17 -0.034142 -1.148312 0.084782 0.125737 0.000000 0.000000
    18 0.957766 -2.746780 -0.090302 0.433776 -0.082532 0.013527
    19 -0.033420 -1.397129 -0.011257 -0.333261 0.000000 -0.000001
    20 -0.022360 -0.957436 0.018784 0.169694 0.000000 0.000000
    21 -1.180681 -2.507217 -0.193859 -0.221260 0.117596 -0.331523
    22 -0.024967 -1.123934 0.017597 -0.501223 0.000000 0.000001
    23 -0.020057 -0.890968 0.010090 -0.129117 0.000000 0.000000
    24 0.583510 -1.197277 0.185379 0.391281 -0.590806 -0.763001
    25 1.535927 0.010246 0.005009 -0.002964 -0.012979 0.000887
    26 1.100771 0.004527 -0.010679 -0.006823 0.014715 -0.257730
    27 0.120153 -0.050270 -0.054489 0.287569 3.110905 1.561085
    28 -17.168208 3.288531 -2.239633 -0.721927 -3.529721 -0.899538
    29 0.096944 -8.450418 -0.009365 0.022895 0.318621 -0.150468
    30 0.447953 -2.798986 -0.200443 -0.432940 0.007042 0.102403
    31 -0.032909 -1.480204 0.004940 -0.856481 0.000000 0.000002
    32 -0.027022 -1.076920 -0.020210 -0.667028 0.000000 0.000000
    33 -0.249534 -2.846964 -0.174213 0.019778 -0.055122 0.043773
    34 0.043235 -1.683941 0.096012 -0.548337 0.002823 -0.000167
    35 0.031729 -1.160830 0.058838 -0.137675 0.000642 0.008372
    36 -0.963866 -2.785145 -0.085350 0.236894 0.163163 -0.073052
    37 0.028479 -1.403067 0.006271 -0.381699 0.000000 0.000000
    38 0.021413 -0.957781 0.020046 0.071792 0.000000 0.000000
    39 1.164475 -2.543940 -0.170330 -0.956309 -0.059351 0.113931
    40 0.024032 -1.129042 0.017807 -0.663804 0.000000 0.000001
    41 0.014898 -0.883989 -0.019848 -0.319901 0.000000 0.000000
    42 -0.586770 -1.264477 0.200161 -0.654394 -0.948779 -2.212617
    43 1.522835 0.058681 0.016848 0.001410 0.008985 0.139420
    44 1.117947 0.048424 -0.005766 -0.013402 -0.021351 0.616699
    45 -0.139399 -0.111698 0.014397 0.358632 0.302122 1.681023
    46 -3.069302 9.975931 -0.063646 1.600650 -0.000912 -1.380786
  time 1
    0 21.926450 -6.643104 -7.966455 -0.967298 3.042236 0.476718
    1 12.144902 -12.017387 -9.492807 -0.967280 3.042267 0.476701
    2 12.144901 11.396547 -33.278689 -4.986352 -0.177236 -2.765681
    3 22.500686 15.448478 -35.154785 -4.986352 -0.177236 -2.765681
    4 89.735512 -136.134579 -18.902527 1.570796 -1.396264 -1.570793
    5 -47.930830 -42.416122 -15.388097 -0.967218 -3.240799 0.476741
    6 0.000004 99.890709 0.000021 0.000000 0.000000 0.000000
    7 -42.359509 -4.725811 -10.784075 -0.873495 2.881110 1.272517
    8 -2.424590 -0.002752 -3.503394 0.000000 0.000000 1.570796
    9 10.040594 -14.096757 -5.350707 0.240558 -2.902566 -1.188481
    10 7.230018 6.895340 -0.571695 1.424083 -3.103258 0.850494
    11 -0.071921 -8.498736 -0.104134 -0.031172 -0.119323 -0.053945
    12 -0.488518 -2.755602 -0.228260 -0.093307 0.051942 -0.186015
    13 0.039887 -1.479790 0.029854 -0.426801 0.000000 0.000001
    14 0.028786 -1.075731 -0.023109 0.007184 0.000000 0.000000
    15 0.250027 -2.820665 -0.238396 0.132796 -0.002921 0.008443
    16 -0.049759 -1.680544 0.100479 -0.327367 0.000000 -0.000002
    17 -0.034142 -1.148312 0.084782 0.125737 0.000000 0.000000
    18 0.957766 -2.746780 -0.090302 0.433776 -0.082532 0.013527
    19 -0.033420 -1.397129 -0.011257 -0.333261 0.000000 -0.000001
    20 -0.022360 -0.957436 0.018784 0.169694 0.000000 0.000000
    21 -1.180681 -2.507217 -0.193859 -0.221260 0.117596 -0.331523
    22 -0.024967 -1.123934 0.017597 -0.501223 0.000000 0.000001
    23 -0.020057 -0.890968 0.010090 -0.129117 0.000000 0.000000
    24 0.583510 -1.197277 0.185379 0.391281 -0.590806 -0.763001
    25 1.535927 0.010246 0.005009 -0.002964 -0.012979 0.000887
    26 1.100771 0.004527 -0.010679 -0.006823 0.014715 -0.257730
    27 0.120153 -0.050270 -0.054489 0.287569 3.110905 1.561085
    28 -17.168208 3.288531 -2.239633 -0.721927 -3.529721 -0.899538
    29 0.096944 -8.450418 -0.009365 0.022895 0.318621 -0.150468
    30 0.447953 -2.798986 -0.200443 -0.432940 0.007042 0.102403
    31 -0.032909 -1.480204 0.004940 -0.856481 0.000000 0.000002
    32 -0.027022 -1.076920 -0.020210 -0.667028 0.000000 0.000000
    33 -0.249534 -2.846964 -0.174213 0.019778 -0.055122 0.043773
    34 0.043235 -1.683941 0.096012 -0.548337 0.002823 -0.000167
    35 0.031729 -1.160830 0.058838 -0.137675 0.000642 0.008372
    36 -0.963866 -2.785145 -0.085350 0.236894 0.163163 -0.073052
    37 0.028479 -1.403067 0.006271 -0.381699 0.000000 0.000000
    38 0.021413 -0.957781 0.020046 0.071792 0.000000 0.000000
    39 1.164475 -2.543940 -0.170330 -0.956309 -0.059351 0.113931
    40 0.024032 -1.129042 0.017807 -0.663804 0.000000 0.000001
    41 0.014898 -0.883989 -0.019848 -0.319901 0.000000 0.000000
    42 -0.586770 -1.264477 0.200161 -0.654394 -0.948779 -2.212617
    43 1.522835 0.058681 0.016848 0.001410 0.008985 0.139420
    44 1.117947 0.048424 -0.005766 -0.013402 -0.021351 0.616699
    45 -0.139399 -0.111698 0.014397 0.358632 0.302122 1.681023
    46 -3.069302 9.975931 -0.063646 1.600650 -0.000912 -1.380786
  time 2
    0 21.926450 -6.643104 -7.966455 -0.967298 3.042236 0.476718
    1 12.144902 -12.017387 -9.492807 -0.967280 3.042267 0.476701
    2 12.144901 11.396547 -33.278689 -4.986352 -0.177236 -2.765681
    3 22.500686 15.448478 -35.154785 -4.986352 -0.177236 -2.765681
    4 89.735512 -136.134579 -18.902527 1.570796 -1.396264 -1.570793
    5 -47.930830 -42.416122 -15.388097 -0.967218 -3.240799 0.476741
    6 0.000004 99.890709 0.000021 0.000000 0.000000 0.000000
    7 -42.359509 -4.725811 -10.784075 -0.873495 2.881110 1.272517
    8 -2.424590 -0.002752 -3.503394 0.000000 0.000000 1.570796
    9 8.966343 -14.096757 -4.960070 0.291580 -2.902566 -1.188481
    10 7.230018 6.895340 -0.571695 1.424083 -3.103258 0.850494
    11 -0.071921 -8.498736 -0.104134 0.032789 -0.335800 -0.060869
    12 -0.488518 -2.755602 -0.228260 -0.093307 0.051942 -0.186015
    13 0.039887 -1.479790 0.029854 -0.426801 0.000000 0.000001
    14 0.028786 -1.075731 -0.023109 0.007184 0.000000 0.000000
    15 0.250027 -2.820665 -0.238396 0.132796 -0.002921 0.008443
    16 -0.049759 -1.680544 0.100479 -0.327367 0.000000 -0.000002
    17 -0.034142 -1.148312 0.084782 0.125737 0.000000 0.000000
    18 0.957766 -2.746780 -0.090302 0.433776 -0.082532 0.013527
    19 -0.033420 -1.397129 -0.011257 -0.333261 0.000000 -0.000001
    20 -0.022360 -0.957436 0.018784 0.169694 0.000000 0.000000
    21 -1.180681 -2.507217 -0.193859 -0.221260 0.117596 -0.331523
    22 -0.024967 -1.123934 0.017597 -0.501223 0.000000 0.000001
    23 -0.020057 -0.890968 0.010090 -0.129117 0.000000 0.000000
    24 0.583510 -1.197277 0.185379 0.391281 -0.590806 -0.763001
    25 1.535927 0.010246 0.005009 -0.002964 -0.012979 0.000887
    26 1.100771 0.004527 -0.010679 -0.006823 0.014715 -0.257730
    27 0.120153 -0.050270 -0.054489 0.287569 3.110905 1.561085
    28 -17.168208 3.288531 -2.239633 -0.721927 -3.529721 -0.899538
    29 0.096944 -8.450418 -0.009365 0.022895 0.318621 -0.150468
    30 0.447953 -2.798986 -0.200443 -0.432940 0.007042 0.102403
    31 -0.032909 -1.480204 0.004940 -0.856481 0.000000 0.000002
    32 -0.027022 -1.076920 -0.020210 -0.667028 0.000000 0.000000
    33 -0.249534 -2.846964 -0.174213 0.019778 -0.055122 0.043773
    34 0.043235 -1.683941 0.096012 -0.548337 0.002823 -0.000167
    35 0.031729 -1.160830 0.058838 -0.137675 0.000642 0.008372
    36 -0.963866 -2.785145 -0.085350 0.236894 0.163163 -0.073052
    37 0.028479 -1.403067 0.006271 -0.381699 0.000000 0.000000
    38 0.021413 -0.957781 0.020046 0.071792 0.000000 0.000000
    39 1.164475 -2.543940 -0.170330 -0.956309 -0.059351 0.113931
    40 0.024032 -1.129042 0.017807 -0.663804 0.000000 0.000001
    41 0.014898 -0.883989 -0.019848 -0.319901 0.000000 0.000000
    42 -0.586770 -1.264477 0.200161 -0.654394 -0.948779 -2.212617
    43 1.522835 0.058681 0.016848 0.001410 0.008985 0.139420
    44 1.117947 0.048424 -0.005766 -0.013402 -0.021351 0.616699
    45 -0.139399 -0.111698 0.014397 0.358632 0.302122 1.681023
    46 -3.069302 9.975931 -0.063646 1.600650 -0.000912 -1.380786
  time 3
    0 11.199561 -14.616594 -6.767200 -0.132062 3.416675 0.464206
    1 1.722709 -19.916066 -3.773882 -0.132109 3.416670 0.464148
    2 12.144901 11.396547 -33.278689 -4.986352 -0.177236 -2.765681
    3 22.500686 15.448478 -35.154785 -4.986352 -0.177236 -2.765681
    4 89.735512 -12.114962 2.965328 1.570796 -1.396264 -1.570793
    5 -35.504670 -37.468249 7.971991 -0.132045 -2.866436 0.464178
    6 0.000004 99.890709 0.000021 0.000000 0.000000 0.000000
    7 -42.359509 -4.725811 -10.784075 -0.873495 2.881110 1.272517
    8 -2.424590 -0.002752 -3.503394 0.000000 0.000000 1.570796
    9 -3.616072 -13.127978 -4.362396 0.190296 -2.977077 -1.566991
    10 7.230018 6.895340 -0.571695 1.424083 -3.103258 0.850494
    11 -0.071921 -8.498736 -0.104134 -0.093346 0.098897 -0.028354
    12 -0.488518 -2.755602 -0.228260 -0.735967 0.051942 -0.186015
    13 0.039887 -1.479790 0.029854 -1.719815 0.000000 0.000001
    14 0.028786 -1.075731 -0.023109 -0.692266 0.000000 0.000000
    15 0.250027 -2.820665 -0.238396 -0.303486 0.002724 -0.033851
    16 -0.049759 -1.680544 0.100479 -1.708145 0.000000 -0.000002
    17 -0.034142 -1.148312 0.084782 -1.055176 0.000000 0.000000
    18 0.957766 -2.746780 -0.090302 0.017864 -0.082532 0.013527
    19 -0.033420 -1.397129 -0.011257 -1.114135 0.000000 -0.000001
    20 -0.022360 -0.957436 0.018784 -0.956454 0.000000 0.000000
    21 -1.180681 -2.507217 -0.193859 -0.913873 0.146982 -0.194144
    22 -0.024967 -1.123934 0.017597 -1.141274 0.000000 0.000001
    23 -0.020057 -0.890968 0.010090 -1.247138 0.000000 0.000000
    24 0.583510 -1.197277 0.185379 0.417168 -0.658435 -0.967039
    25 1.535927 0.010246 0.005009 -0.002964 -0.012979 -0.208074
    26 1.100771 0.004527 -0.010679 -0.015068 0.005990 -1.016487
    27 0.120153 -0.050270 -0.054489 0.287569 3.110905 1.561085
    28 -17.168208 3.288531 -2.239633 -0.721927 -3.529721 -0.899538
    29 0.096944 -8.450418 -0.009365 0.022895 0.318590 -0.150468
    30 0.447953 -2.798986 -0.200443 -0.432940 0.007042 0.102403
    31 -0.032909 -1.480204 0.004940 -0.856439 0.000000 0.000002
    32 -0.027022 -1.076920 -0.020210 -0.666885 0.000000 0.000000
    33 -0.249534 -2.846964 -0.174213 0.019735 -0.055110 0.043761
    34 0.043235 -1.683941 0.096012 -0.548383 0.002823 -0.000167
    35 0.031729 -1.160830 0.058838 -0.137764 0.000642 0.008372
    36 -0.963866 -2.785145 -0.085350 0.236762 0.163163 -0.073052
    37 0.028479 -1.403067 0.006271 -0.381699 0.000000 0.000000
    38 0.021413 -0.957781 0.020046 0.071792 0.000000 0.000000
    39 1.164475 -2.543940 -0.170330 -0.956246 -0.059339 0.113955
    40 0.024032 -1.129042 0.017807 -0.663804 0.000000 0.000001
    41 0.014898 -0.883989 -0.019848 -0.319901 0.000000 0.000000
    42 -0.586770 -1.264477 0.200161 -0.654442 -0.948762 -2.212579
    43 1.522835 0.058681 0.016848 0.001410 0.008985 0.139420
    44 1.117947 0.048424 -0.005766 -0.013402 -0.021351 0.616699
    45 -0.139399 -0.111698 0.014397 0.358632 0.302122 1.681023
    46 -3.069302 9.975931 -0.063646 1.600650 -0.000912 -1.380786
  time 4
    0 15.492660 8.265201 -1.985804 -6.076698 3.234545 2.594788
    1 1.722709 -19.916066 -3.773882 -0.132109 3.416670 0.464148
    2 12.144901 11.396547 -33.278689 -4.986352 -0.177236 -2.765681
    3 22.500686 15.448478 -35.154785 -4.986352 -0.177236 -2.765681
    4 89.735512 111.904655 24.833182 1.570796 -1.396264 -1.570793
    5 40.142170 -7.284731 0.631923 0.206373 -3.048488 2.594787
    6 0.000004 99.890709 0.000021 0.000000 0.000000 0.000000
    7 -42.359509 -4.725811 -10.784075 -0.873495 2.881110 1.272517
    8 -2.424590 -0.002752 -3.503394 0.000000 0.000000 1.570796
    9 6.685023 -8.170795 -2.292020 0.441414 -3.090824 -0.055801
    10 2.147832 8.641487 0.240830 1.429399 3.086634 1.472455
    11 -0.071921 -8.498736 -0.104134 -0.009029 -0.340264 -0.589832
    12 -0.488518 -2.755602 -0.228260 -0.735967 0.051942 -0.186015
    13 0.039887 -1.479790 0.029854 -1.719815 0.000000 0.000001
    14 0.028786 -1.075731 -0.023109 -0.692266 0.000000 0.000000
    15 0.250027 -2.820665 -0.238396 -0.303486 0.002724 -0.033851
    16 -0.049759 -1.680544 0.100479 -1.708145 0.000000 -0.000002
    17 -0.034142 -1.148312 0.084782 -1.055176 0.000000 0.000000
    18 0.957766 -2.746780 -0.090302 0.017864 -0.082532 0.013527
    19 -0.033420 -1.397129 -0.011257 -1.114135 0.000000 -0.000001
    20 -0.022360 -0.957436 0.018784 -0.956454 0.000000 0.000000
    21 -1.180681 -2.507217 -0.193859 -0.913873 0.146982 -0.194144
    22 -0.024967 -1.123934 0.017597 -1.141274 0.000000 0.000001
    23 -0.020057 -0.890968 0.010090 -1.247138 0.000000 0.000000
    24 0.583510 -1.197277 0.185379 0.417168 -0.658435 -0.967039
    25 1.535927 0.010246 0.005009 -0.002964 -0.012979 -0.208074
    26 1.100771 0.004527 -0.010679 -0.015068 0.005990 -1.016487
    27 -0.219701 0.086453 -0.113085 3.085290 6.218264 -1.256861
    28 -17.168208 3.288531 -2.239633 -0.721927 -3.529721 -0.899538
    29 0.096944 -8.450418 -0.009365 0.022883 0.318496 -0.150468
    30 0.447953 -2.798986 -0.200443 -0.432940 0.007042 0.102403
    31 -0.032909 -1.480204 0.004940 -0.856314 0.000000 0.000002
    32 -0.027022 -1.076920 -0.020210 -0.666497 0.000000 0.000000
    33 -0.249534 -2.846964 -0.174213 0.019584 -0.055062 0.043713
    34 0.043235 -1.683941 0.096012 -0.548543 0.002823 -0.000167
    35 0.031729 -1.160830 0.058838 -0.138031 0.000642 0.008372
    36 -0.963866 -2.785145 -0.085350 0.236367 0.163163 -0.073052
    37 0.028479 -1.403067 0.006271 -0.381699 0.000000 0.000000
    38 0.021413 -0.957781 0.020046 0.071792 0.000000 0.000000
    39 1.164475 -2.543940 -0.170330 -0.956024 -0.059279 0.114027
    40 0.024032 -1.129042 0.017807 -0.663804 0.000000 0.000001
    41 0.014898 -0.883989 -0.019848 -0.319901 0.000000 0.000000
    42 -0.586770 -1.264477 0.200161 -0.654555 -0.948664 -2.212423
    43 1.522835 0.058681 0.016848 0.001410 0.008985 0.139420
    44 1.117947 0.048424 -0.005766 -0.013402 -0.021351 0.616699
    45 -0.139399 -0.111698 0.014397 0.358632 0.302122 1.681023
    46 -3.069302 9.975931 -0.063646 1.600650 -0.000912 -1.380786
  time 5
    0 12.785546 24.075165 -0.407630 -3.101554 -0.256246 0.707158
    1 1.722709 -19.916066 -3.773882 -0.132109 3.416670 0.464148
    2 12.144901 11.396547 -33.278689 -4.986352 -0.177236 -2.765681
    3 22.500686 15.448478 -35.154785 -4.986352 -0.177236 -2.765681
    4 89.735512 111.904655 24.833182 1.570796 -1.396264 -1.570793
    5 33.399777 48.700186 8.108714 -2.972693 -0.197839 0.149586
    6 0.000004 95.601516 0.000021 0.000000 0.000000 0.000000
    7 -42.359509 -4.725811 -10.784075 -0.873495 2.881110 1.272517
    8 -2.424590 -0.002752 -3.503394 0.000000 0.000000 1.570796
    9 16.099373 -10.338830 0.184618 0.392103 2.728385 0.912114
    10 1.780633 9.129783 0.322864 1.432974 3.078292 1.531748
    11 -0.071921 -8.498736 -0.104134 -0.313732 0.068164 -1.081230
    12 -0.488518 -2.755602 -0.228260 -0.735967 0.051942 -0.186015
    13 0.039887 -1.479790 0.029854 -1.719815 0.000000 0.000001
    14 0.028786 -1.075731 -0.023109 -0.692266 0.000000 0.000000
    15 0.250027 -2.820665 -0.238396 -0.303486 0.002724 -0.033851
    16 -0.049759 -1.680544 0.100479 -1.708145 0.000000 -0.000002
    17 -0.034142 -1.148312 0.084782 -1.055176 0.000000 0.000000
    18 0.957766 -2.746780 -0.090302 0.017864 -0.082532 0.013527
    19 -0.033420 -1.397129 -0.011257 -1.114135 0.000000 -0.000001
    20 -0.022360 -0.957436 0.018784 -0.956454 0.000000 0.000000
    21 -1.180681 -2.507217 -0.193859 -0.913873 0.146982 -0.194144
    22 -0.024967 -1.123934 0.017597 -1.141274 0.000000 0.000001
    23 -0.020057 -0.890968 0.010090 -1.247138 0.000000 0.000000
    24 0.583510 -1.197277 0.185379 0.417168 -0.658435 -0.967039
    25 1.535927 0.010246 0.005009 -0.002964 -0.012979 -0.208074
    26 1.100771 0.004527 -0.010679 -0.015068 0.005990 -1.016487
    27 -0.403300 -0.015113 -0.097459 3.071031 6.234565 -1.002224
    28 -17.168208 3.288531 -2.239633 -0.721927 -3.529721 -0.899538
    29 0.096944 -8.450418 -0.009365 0.022859 0.318371 -0.150456
    30 0.447953 -2.798986 -0.200443 -0.432940 0.007042 0.102403
    31 -0.032909 -1.480204 0.004940 -0.856147 0.000000 0.000002
    32 -0.027022 -1.076920 -0.020210 -0.665864 0.000000 0.000000
    33 -0.249534 -2.846964 -0.174213 0.019367 -0.054978 0.043641
    34 0.043235 -1.683941 0.096012 -0.548795 0.002823 -0.000167
    35 0.031729 -1.160830 0.058838 -0.138462 0.000642 0.008372
    36 -0.963866 -2.785145 -0.085350 0.235708 0.163163 -0.073052
    37 0.028479 -1.403067 0.006271 -0.381699 0.000000 0.000000
    38 0.021413 -0.957781 0.020046 0.071792 0.000000 0.000000
    39 1.164475 -2.543940 -0.170330 -0.955643 -0.059183 0.114147
    40 0.024032 -1.129042 0.017807 -0.663804 0.000000 0.000001
    41 0.014898 -0.883989 -0.019848 -0.319901 0.000000 0.000000
    42 -0.586770 -1.264477 0.200161 -0.654765 -0.948532 -2.212171
    43 1.522835 0.058681 0.016848 0.001410 0.008985 0.139420
    44 1.117947 0.048424 -0.005766 -0.013402 -0.021351 0.616699
    45 -0.139399 -0.111698 0.014397 0.358632 0.302122 1.681023
    46 -3.069302 9.975931 -0.063646 1.600650 -0.000912 -1.380786
  time 6
    0 12.871487 23.527098 -0.434975 -3.099160 -0.252230 0.697339
    1 1.722709 -19.916066 -3.773882 -0.132109 3.416670 0.464148
    2 12.144901 11.396547 -33.278689 -4.986352 -0.177236 -2.765681
    3 22.500686 15.448478 -35.154785 -4.986352 -0.177236 -2.765681
    4 89.735512 111.904655 24.833182 1.570796 -1.396264 -1.570793
    5 33.317743 50.442115 8.386066 -2.972875 -0.193218 0.140329
    6 0.000004 84.292577 0.000021 0.000000 0.000000 0.000000
    7 -42.359509 -4.725811 -10.784075 -0.873495 2.881110 1.272517
    8 -2.424590 -0.002752 -3.503394 0.000000 0.000000 1.570796
    9 15.595451 -10.338830 0.184618 0.388397 2.725838 0.901179
    10 1.780633 9.129783 0.322864 1.432974 3.078292 1.531748
    11 -0.071921 -8.498736 -0.104134 -0.313349 0.067819 -1.081063
    12 -0.488518 -2.755602 -0.228260 -0.735967 0.051942 -0.186015
    13 0.039887 -1.479790 0.029854 -1.719815 0.000000 0.000001
    14 0.028786 -1.075731 -0.023109 -0.692266 0.000000 0.000000
    15 0.250027 -2.820665 -0.238396 -0.303486 0.002724 -0.033851
    16 -0.049759 -1.680544 0.100479 -1.708145 0.000000 -0.000002
    17 -0.034142 -1.148312 0.084782 -1.055176 0.000000 0.000000
    18 0.957766 -2.746780 -0.090302 0.017864 -0.082532 0.013527
    19 -0.033420 -1.397129 -0.011257 -1.114135 0.000000 -0.000001
    20 -0.022360 -0.957436 0.018784 -0.956454 0.000000 0.000000
    21 -1.180681 -2.507217 -0.193859 -0.913873 0.146982 -0.194144
    22 -0.024967 -1.123934 0.017597 -1.141274 0.000000 0.000001
    23 -0.020057 -0.890968 0.010090 -1.247138 0.000000 0.000000
    24 0.583510 -1.197277 0.185379 0.417168 -0.658435 -0.967039
    25 1.535927 0.010246 0.005009 -0.002964 -0.012979 -0.208074
    26 1.100771 0.004527 -0.010679 -0.015068 0.005990 -1.016487
    27 -0.403300 -0.015113 -0.097459 3.071031 6.234565 -1.002224
    28 -17.168208 3.288531 -2.239633 -0.721927 -3.529721 -0.899538
    29 0.096944 -8.450418 -0.009365 0.022835 0.318183 -0.150456
    30 0.447953 -2.798986 -0.200443 -0.432940 0.007042 0.102403
    31 -0.032909 -1.480204 0.004940 -0.855855 0.000000 0.000002
    32 -0.027022 -1.076920 -0.020210 -0.664986 0.000000 0.000000
    33 -0.249534 -2.846964 -0.174213 0.019043 -0.054883 0.043545
    34 0.043235 -1.683941 0.096012 -0.549138 0.002823 -0.000167
    35 0.031729 -1.160830 0.058838 -0.139072 0.000642 0.008372
    36 -0.963866 -2.785145 -0.085350 0.234785 0.163163 -0.073052
    37 0.028479 -1.403067 0.006271 -0.381699 0.000000 0.000000
    38 0.021413 -0.957781 0.020046 0.071792 0.000000 0.000000
    39 1.164475 -2.543940 -0.170330 -0.955104 -0.059051 0.114314
    40 0.024032 -1.129042 0.017807 -0.663804 0.000000 0.000001
    41 0.014898 -0.883989 -0.019848 -0.319901 0.000000 0.000000
    42 -0.586770 -1.264477 0.200161 -0.655039 -0.948335 -2.211802
    43 1.522835 0.058681 0.016848 0.001410 0.008985 0.139420
    44 1.117947 0.048424 -0.005766 -0.013402 -0.021351 0.616699
    45 -0.139399 -0.111698 0.014397 0.358632 0.302122 1.681023
    46 -3.069302 9.975931 -0.063646 1.600650 -0.000912 -1.380786
  time 7
    0 12.953520 22.970192 -0.438881 -3.097148 -0.250706 0.686728
    1 1.722709 -19.916066 -3.773882 -0.132109 3.416670 0.464148
    2 12.144901 11.396547 -33.278689 -4.986352 -0.177236 -2.765681
    3 22.500686 15.448478 -35.154785 -4.986352 -0.177236 -2.765681
    4 89.735512 111.904655 24.833182 1.570796 -1.396264 -1.570793
    5 33.282586 52.179082 8.772796 -2.971962 -0.190815 0.130081
    6 0.000004 68.307714 0.000021 0.000000 0.000000 0.000000
    7 -42.359509 -4.725811 -10.784075 -0.873495 2.881110 1.272517
    8 -2.424590 -0.002752 -3.503394 0.000000 0.000000 1.570796
    9 15.091530 -10.338830 0.184618 0.387447 2.725084 0.890335
    10 1.780633 9.129783 0.322864 1.432974 3.078292 1.531748
    11 -0.071921 -8.498736 -0.104134 -0.312179 0.066842 -1.080661
    12 -0.488518 -2.755602 -0.228260 -0.735967 0.051942 -0.186015
    13 0.039887 -1.479790 0.029854 -1.719815 0.000000 0.000001
    14 0.028786 -1.075731 -0.023109 -0.692266 0.000000 0.000000
    15 0.250027 -2.820665 -0.238396 -0.303486 0.002724 -0.033851
    16 -0.049759 -1.680544 0.100479 -1.708145 0.000000 -0.000002
    17 -0.034142 -1.148312 0.084782 -1.055176 0.000000 0.000000
    18 0.957766 -2.746780 -0.090302 0.017864 -0.082532 0.013527
    19 -0.033420 -1.397129 -0.011257 -1.114135 0.000000 -0.000001
    20 -0.022360 -0.957436 0.018784 -0.956454 0.000000 0.000000
    21 -1.180681 -2.507217 -0.193859 -0.913873 0.146982 -0.194144
    22 -0.024967 -1.123934 0.017597 -1.141274 0.000000 0.000001
    23 -0.020057 -0.890968 0.010090 -1.247138 0.000000 0.000000
    24 0.583510 -1.197277 0.185379 0.417168 -0.658435 -0.967039
    25 1.535927 0.010246 0.005009 -0.002964 -0.012979 -0.208074
    26 1.100771 0.004527 -0.010679 -0.015068 0.005990 -1.016487
    27 -0.403300 -0.015113 -0.097459 3.071031 6.234565 -1.002224
    28 -17.168208 3.288531 -2.239633 -0.721927 -3.529721 -0.899538
    29 0.096944 -8.450418 -0.009365 0.022787 0.317964 -0.150444
    30 0.447953 -2.798986 -0.200443 -0.432940 0.007042 0.102403
    31 -0.032909 -1.480204 0.004940 -0.855562 0.000000 0.000002
    32 -0.027022 -1.076920 -0.020210 -0.663863 0.000000 0.000000
    33 -0.249534 -2.846964 -0.174213 0.018654 -0.054751 0.043413
    34 0.043235 -1.683941 0.096012 -0.549572 0.002823 -0.000167
    35 0.031729 -1.160830 0.058838 -0.139846 0.000642 0.008372
    36 -0.963866 -2.785145 -0.085350 0.233622 0.163163 -0.073052
    37 0.028479 -1.403067 0.006271 -0.381699 0.000000 0.000000
    38 0.021413 -0.957781 0.020046 0.071792 0.000000 0.000000
    39 1.164475 -2.543940 -0.170330 -0.954406 -0.058883 0.114518
    40 0.024032 -1.129042 0.017807 -0.663804 0.000000 0.000001
    41 0.014898 -0.883989 -0.019848 -0.319901 0.000000 0.000000
    42 -0.586770 -1.264477 0.200161 -0.655394 -0.948072 -2.211356
    43 1.522835 0.058681 0.016848 0.001410 0.008985 0.139420
    44 1.117947 0.048424 -0.005766 -0.013402 -0.021351 0.616699
    45 -0.139399 -0.111698 0.014397 0.358632 0.302122 1.681023
    46 -3.069302 9.975931 -0.063646 1.600650 -0.000912 -1.380786
  time 8
    0 12.953520 22.970192 -0.434975 -3.094658 -0.249945 0.686648
    1 1.722709 -19.916066 -3.773882 -0.132109 3.416670 0.464148
    2 12.144901 11.396547 -33.278689 -4.986352 -0.177236 -2.765681
    3 22.500686 15.448478 -35.154785 -4.986352 -0.177236 -2.765681
    4 89.735512 111.904655 24.833182 1.570796 -1.396264 -1.570793
    5 32.891949 54.556245 9.182965 -2.970317 -0.188967 0.130345
    6 0.000004 49.979030 0.000021 0.000000 0.000000 0.000000
    7 -42.359509 -4.725811 -10.784075 -0.873495 2.881110 1.272517
    8 -2.424590 -0.002752 -3.503394 0.000000 0.000000 1.570796
    9 15.091530 -10.338830 0.184618 0.387447 2.725084 0.890335
    10 1.780633 9.129783 0.322864 1.432974 3.078292 1.531748
    11 -0.071921 -8.498736 -0.104134 -0.310265 0.065232 -1.079992
    12 -0.488518 -2.755602 -0.228260 -0.735967 0.051942 -0.186015
    13 0.039887 -1.479790 0.029854 -1.719815 0.000000 0.000001
    14 0.028786 -1.075731 -0.023109 -0.692266 0.000000 0.000000
    15 0.250027 -2.820665 -0.238396 -0.303486 0.002724 -0.033851
    16 -0.049759 -1.680544 0.100479 -1.708145 0.000000 -0.000002
    17 -0.034142 -1.148312 0.084782 -1.055176 0.000000 0.000000
    18 0.957766 -2.746780 -0.090302 0.017864 -0.082532 0.013527
    19 -0.033420 -1.397129 -0.011257 -1.114135 0.000000 -0.000001
    20 -0.022360 -0.957436 0.018784 -0.956454 0.000000 0.000000
    21 -1.180681 -2.507217 -0.193859 -0.913873 0.146982 -0.194144
    22 -0.024967 -1.123934 0.017597 -1.141274 0.000000 0.000001
    23 -0.020057 -0.890968 0.010090 -1.247138 0.000000 0.000000
    24 0.583510 -1.197277 0.185379 0.417168 -0.658435 -0.967039
    25 1.535927 0.010246 0.005009 -0.002964 -0.012979 -0.208074
    26 1.100771 0.004527 -0.010679 -0.015068 0.005990 -1.016487
    27 -0.403300 -0.015113 -0.097459 3.071031 6.234565 -1.002224
    28 -17.168208 3.288531 -2.239633 -0.721927 -3.529721 -0.899538
    29 0.096944 -8.450418 -0.009365 0.022751 0.317651 -0.150432
    30 0.447953 -2.798986 -0.200443 -0.432940 0.007042 0.102403
    31 -0.032909 -1.480204 0.004940 -0.855145 0.000000 0.000002
    32 -0.027022 -1.076920 -0.020210 -0.662515 0.000000 0.000000
    33 -0.249534 -2.846964 -0.174213 0.018156 -0.054583 0.043258
    34 0.043235 -1.683941 0.096012 -0.550121 0.002823 -0.000167
    35 0.031729 -1.160830 0.058838 -0.140786 0.000642 0.008372
    36 -0.963866 -2.785145 -0.085350 0.232220 0.163163 -0.073052
    37 0.028479 -1.403067 0.006271 -0.381699 0.000000 0.000000
    38 0.021413 -0.957781 0.020046 0.071792 0.000000 0.000000
    39 1.164475 -2.543940 -0.170330 -0.953613 -0.058680 0.114782
    40 0.024032 -1.129042 0.017807 -0.663804 0.000000 0.000001
    41 0.014898 -0.883989 -0.019848 -0.319901 0.000000 0.000000
    42 -0.586770 -1.264477 0.200161 -0.655830 -0.947777 -2.210812
    43 1.522835 0.058681 0.016848 0.001410 0.008985 0.139420
    44 1.117947 0.048424 -0.005766 -0.013402 -0.021351 0.616699
    45 -0.139399 -0.111698 0.014397 0.358632 0.302122 1.681023
    46 -3.069302 9.975931 -0.063646 1.600650 -0.000912 -1.380786
  time 9
    0 12.949614 22.970192 -0.427162 -3.091305 -0.248906 0.686648
    1 1.722709 -19.916066 -3.773882 -0.132109 3.416670 0.464148
    2 12.144901 11.396547 -33.278689 -4.986352 -0.177236 -2.765681
    3 22.500686 15.448478 -35.154785 -4.986352 -0.177236 -2.765681
    4 89.735512 111.904655 24.833182 1.570796 -1.396264 -1.570793
    5 32.548188 56.660456 9.561883 -2.968033 -0.186287 0.130676
    6 0.000004 31.650345 0.000021 0.000000 0.000000 0.000000
    7 -42.359509 -4.725811 -10.784075 -0.873495 2.881110 1.272517
    8 -2.424590 -0.002752 -3.503394 0.000000 0.000000 1.570796
    9 15.091530 -10.338830 0.184618 0.387447 2.725084 0.890335
    10 1.780633 9.129783 0.322864 1.432974 3.078292 1.531748
    11 -0.071921 -8.498736 -0.104134 -0.307542 0.063086 -1.079022
    12 -0.488518 -2.755602 -0.228260 -0.735967 0.051942 -0.186015
    13 0.039887 -1.479790 0.029854 -1.719815 0.000000 0.000001
    14 0.028786 -1.075731 -0.023109 -0.692266 0.000000 0.000000
    15 0.250027 -2.820665 -0.238396 -0.303486 0.002724 -0.033851
    16 -0.049759 -1.680544 0.100479 -1.708145 0.000000 -0.000002
    17 -0.034142 -1.148312 0.084782 -1.055176 0.000000 0.000000
    18 0.957766 -2.746780 -0.090302 0.017864 -0.082532 0.013527
    19 -0.033420 -1.397129 -0.011257 -1.114135 0.000000 -0.000001
    20 -0.022360 -0.957436 0.018784 -0.956454 0.000000 0.000000
    21 -1.180681 -2.507217 -0.193859 -0.913873 0.146982 -0.194144
    22 -0.024967 -1.123934 0.017597 -1.141274 0.000000 0.000001
    23 -0.020057 -0.890968 0.010090 -1.247138 0.000000 0.000000
    24 0.583510 -1.197277 0.185379 0.417168 -0.658435 -0.967039
    25 1.535927 0.010246 0.005009 -0.002964 -0.012979 -0.208074
    26 1.100771 0.004527 -0.010679 -0.015068 0.005990 -1.016487
    27 -0.403300 -0.015113 -0.097459 3.071031 6.234565 -1.002224
    28 -17.168208 3.288531 -2.239633 -0.721927 -3.529721 -0.899538
    29 0.096944 -8.450418 -0.009365 0.022691 0.317337 -0.150420
    30 0.447953 -2.798986 -0.200443 -0.432940 0.007042 0.102403
    31 -0.032909 -1.480204 0.004940 -0.854685 0.000000 0.000002
    32 -0.027022 -1.076920 -0.020210 -0.660922 0.000000 0.000000
    33 -0.249534 -2.846964 -0.174213 0.017594 -0.054391 0.043078
    34 0.043235 -1.683941 0.096012 -0.550739 0.002823 -0.000167
    35 0.031729 -1.160830 0.058838 -0.141890 0.000642 0.008372
    36 -0.963866 -2.785145 -0.085350 0.230578 0.163163 -0.073052
    37 0.028479 -1.403067 0.006271 -0.381699 0.000000 0.000000
    38 0.021413 -0.957781 0.020046 0.071792 0.000000 0.000000
    39 1.164475 -2.543940 -0.170330 -0.952630 -0.058440 0.115070
    40 0.024032 -1.129042 0.017807 -0.663804 0.000000 0.000001
    41 0.014898 -0.883989 -0.019848 -0.319901 0.000000 0.000000
    42 -0.586770 -1.264477 0.200161 -0.656330 -0.947415 -2.210152
    43 1.522835 0.058681 0.016848 0.001410 0.008985 0.139420
    44 1.117947 0.048424 -0.005766 -0.013402 -0.021351 0.616699
    45 -0.139399 -0.111698 0.014397 0.358632 0.302122 1.681023
    46 -3.069302 9.975931 -0.063646 1.600650 -0.000912 -1.380786
  time 10
    0 12.945708 22.970192 -0.415443 -3.086899 -0.247659 0.686490
    1 1.722709 -19.916066 -3.773882 -0.132109 3.416670 0.464148
    2 12.144901 11.396547 -33.278689 -4.986352 -0.177236 -2.765681
    3 22.500686 15.448478 -35.154785 -4.986352 -0.177236 -2.765681
    4 89.735512 111.904655 24.833182 1.570796 -1.396264 -1.570793
    5 32.270836 58.342832 9.882205 -2.965109 -0.183053 0.131072
    6 0.000004 15.661576 0.000021 0.000000 0.000000 0.000000
    7 -42.359509 -4.725811 -10.784075 -0.873495 2.881110 1.272517
    8 -2.424590 -0.002752 -3.503394 0.000000 0.000000 1.570796
    9 15.091530 -10.338830 0.184618 0.387447 2.725084 0.890335
    10 1.780633 9.129783 0.322864 1.432974 3.078292 1.531748
    11 -0.071921 -8.498736 -0.104134 -0.304054 0.060423 -1.077818
    12 -0.488518 -2.755602 -0.228260 -0.735967 0.051942 -0.186015
    13 0.039887 -1.479790 0.029854 -1.719815 0.000000 0.000001
    14 0.028786 -1.075731 -0.023109 -0.692266 0.000000 0.000000
    15 0.250027 -2.820665 -0.238396 -0.303486 0.002724 -0.033851
    16 -0.049759 -1.680544 0.100479 -1.708145 0.000000 -0.000002
    17 -0.034142 -1.148312 0.084782 -1.055176 0.000000 0.000000
    18 0.957766 -2.746780 -0.090302 0.017864 -0.082532 0.013527
    19 -0.033420 -1.397129 -0.011257 -1.114135 0.000000 -0.000001
    20 -0.022360 -0.957436 0.018784 -0.956454 0.000000 0.000000
    21 -1.180681 -2.507217 -0.193859 -0.913873 0.146982 -0.194144
    22 -0.024967 -1.123934 0.017597 -1.141274 0.000000 0.000001
    23 -0.020057 -0.890968 0.010090 -1.247138 0.000000 0.000000
    24 0.583510 -1.197277 0.185379 0.417168 -0.658435 -0.967039
    25 1.535927 0.010246 0.005009 -0.002964 -0.012979 -0.208074
    26 1.100771 0.004527 -0.010679 -0.015068 0.005990 -1.016487
    27 -0.403300 -0.015113 -0.097459 3.071031 6.234565 -1.002224
    28 -17.168208 3.288531 -2.239633 -0.721927 -3.529721 -0.899538
    29 0.096944 -8.450418 -0.009365 0.022632 0.316962 -0.150408
    30 0.447953 -2.798986 -0.200443 -0.432940 0.007042 0.102403
    31 -0.032909 -1.480204 0.004940 -0.854143 0.000000 0.000002
    32 -0.027022 -1.076920 -0.020210 -0.659105 0.000000 0.000000
    33 -0.249534 -2.846964 -0.174213 0.016924 -0.054176 0.042874
    34 0.043235 -1.683941 0.096012 -0.551448 0.002823 -0.000167
    35 0.031729 -1.160830 0.058838 -0.143135 0.000642 0.008372
    36 -0.963866 -2.785145 -0.085350 0.228697 0.163163 -0.073052
    37 0.028479 -1.403067 0.006271 -0.381699 0.000000 0.000000
    38 0.021413 -0.957781 0.020046 0.071792 0.000000 0.000000
    39 1.164475 -2.543940 -0.170330 -0.951552 -0.058164 0.115417
    40 0.024032 -1.129042 0.017807 -0.663804 0.000000 0.000001
    41 0.014898 -0.883989 -0.019848 -0.319901 0.000000 0.000000
    42 -0.586770 -1.264477 0.200161 -0.656895 -0.947005 -2.209434
    43 1.522835 0.058681 0.016848 0.001410 0.008985 0.139420
    44 1.117947 0.048424 -0.005766 -0.013402 -0.021351 0.616699
    45 -0.139399 -0.111698 0.014397 0.358632 0.302122 1.681023
    46 -3.069302 9.975931 -0.063646 1.600650 -0.000912 -1.380786
  time 11
    0 12.945708 22.970192 -0.403724 -3.081631 -0.246274 0.686252
    1 1.722709 -19.916066 -3.773882 -0.132109 3.416670 0.464148
    2 12.144901 11.396547 -33.278689 -4.986352 -0.177236 -2.765681
    3 22.500686 15.448478 -35.154785 -4.986352 -0.177236 -2.765681
    4 89.735512 111.904655 24.833182 1.570796 -1.396264 -1.570793
    5 32.087237 59.454491 10.124400 -2.961363 -0.179171 0.131535
    6 0.000004 4.352637 0.000021 0.000000 0.000000 0.000000
    7 -42.359509 -4.725811 -10.784075 -0.873495 2.881110 1.272517
    8 -2.424590 -0.002752 -3.503394 0.000000 0.000000 1.570796
    9 15.091530 -10.338830 0.184618 0.387447 2.725084 0.890335
    10 1.780633 9.129783 0.322864 1.432974 3.078292 1.531748
    11 -0.071921 -8.498736 -0.104134 -0.299778 0.057280 -1.076380
    12 -0.488518 -2.755602 -0.228260 -0.735967 0.051942 -0.186015
    13 0.039887 -1.479790 0.029854 -1.719815 0.000000 0.000001
    14 0.028786 -1.075731 -0.023109 -0.692266 0.000000 0.000000
    15 0.250027 -2.820665 -0.238396 -0.303486 0.002724 -0.033851
    16 -0.049759 -1.680544 0.100479 -1.708145 0.000000 -0.000002
    17 -0.034142 -1.148312 0.084782 -1.055176 0.000000 0.000000
    18 0.957766 -2.746780 -0.090302 0.017864 -0.082532 0.013527
    19 -0.033420 -1.397129 -0.011257 -1.114135 0.000000 -0.000001
    20 -0.022360 -0.957436 0.018784 -0.956454 0.000000 0.000000
    21 -1.180681 -2.507217 -0.193859 -0.913873 0.146982 -0.194144
    22 -0.024967 -1.123934 0.017597 -1.141274 0.000000 0.000001
    23 -0.020057 -0.890968 0.010090 -1.247138 0.000000 0.000000
    24 0.583510 -1.197277 0.185379 0.417168 -0.658435 -0.967039
    25 1.535927 0.010246 0.005009 -0.002964 -0.012979 -0.208074
    26 1.100771 0.004527 -0.010679 -0.015068 0.005990 -1.016487
    27 -0.403300 -0.015113 -0.097459 3.071031 6.234565 -1.002224
    28 -17.168208 3.288531 -2.239633 -0.721927 -3.529721 -0.899538
    29 0.096944 -8.450418 -0.009365 0.022572 0.316523 -0.150384
    30 0.447953 -2.798986 -0.200443 -0.432940 0.007042 0.102403
    31 -0.032909 -1.480204 0.004940 -0.853558 0.000000 0.000002
    32 -0.027022 -1.076920 -0.020210 -0.657063 0.000000 0.000000
    33 -0.249534 -2.846964 -0.174213 0.016210 -0.053936 0.042646
    34 0.043235 -1.683941 0.096012 -0.552248 0.002823 -0.000167
    35 0.031729 -1.160830 0.058838 -0.144544 0.000642 0.008372
    36 -0.963866 -2.785145 -0.085350 0.226588 0.163163 -0.073052
    37 0.028479 -1.403067 0.006271 -0.381699 0.000000 0.000000
    38 0.021413 -0.957781 0.020046 0.071792 0.000000 0.000000
    39 1.164475 -2.543940 -0.170330 -0.950315 -0.057865 0.115789
    40 0.024032 -1.129042 0.017807 -0.663804 0.000000 0.000001
    41 0.014898 -0.883989 -0.019848 -0.319901 0.000000 0.000000
    42 -0.586770 -1.264477 0.200161 -0.657541 -0.946545 -2.208600
    43 1.522835 0.058681 0.016848 0.001410 0.008985 0.139420
    44 1.117947 0.048424 -0.005766 -0.013402 -0.021351 0.616699
    45 -0.139399 -0.111698 0.014397 0.358632 0.302122 1.681023
    46 -3.069302 9.975931 -0.063646 1.600650 -0.000912 -1.380786
  time 12
    0 12.941801 22.970192 -0.392005 -3.075405 -0.244682 0.685936
    1 1.722709 -19.916066 -3.773882 -0.132109 3.416670 0.464148
    2 12.144901 11.396547 -33.278689 -4.986352 -0.177236 -2.765681
    3 22.500686 15.448478 -35.154785 -4.986352 -0.177236 -2.765681
    4 89.735512 111.904655 24.833182 1.570796 -1.396264 -1.570793
    5 32.024735 59.841586 10.253310 -2.956978 -0.174643 0.131932
    6 0.000004 0.063444 0.000021 0.000000 0.000000 0.000000
    7 -42.359509 -4.725811 -10.784075 -0.873495 2.881110 1.272517
    8 -2.424590 -0.002752 -3.503394 0.000000 0.000000 1.570796
    9 15.091530 -10.338830 0.184618 0.387447 2.725084 0.890335
    10 1.780633 9.129783 0.322864 1.432974 3.078292 1.531748
    11 -0.071921 -8.498736 -0.104134 -0.294716 0.053697 -1.074640
    12 -0.488518 -2.755602 -0.228260 -0.735967 0.051942 -0.186015
    13 0.039887 -1.479790 0.029854 -1.719815 0.000000 0.000001
    14 0.028786 -1.075731 -0.023109 -0.692266 0.000000 0.000000
    15 0.250027 -2.820665 -0.238396 -0.303486 0.002724 -0.033851
    16 -0.049759 -1.680544 0.100479 -1.708145 0.000000 -0.000002
    17 -0.034142 -1.148312 0.084782 -1.055176 0.000000 0.000000
    18 0.957766 -2.746780 -0.090302 0.017864 -0.082532 0.013527
    19 -0.033420 -1.397129 -0.011257 -1.114135 0.000000 -0.000001
    20 -0.022360 -0.957436 0.018784 -0.956454 0.000000 0.000000
    21 -1.180681 -2.507217 -0.193859 -0.913873 0.146982 -0.194144
    22 -0.024967 -1.123934 0.017597 -1.141274 0.000000 0.000001
    23 -0.020057 -0.890968 0.010090 -1.247138 0.000000 0.000000
    24 0.583510 -1.197277 0.185379 0.417168 -0.658435 -0.967039
    25 1.535927 0.010246 0.005009 -0.002964 -0.012979 -0.208074
    26 1.100771 0.004527 -0.010679 -0.015068 0.005990 -1.016487
    27 -0.403300 -0.015113 -0.097459 3.071031 6.234565 -1.002224
    28 -17.168208 3.288531 -2.239633 -0.721927 -3.529721 -0.899538
    29 0.096944 -8.450418 -0.009365 0.022488 0.316054 -0.150372
    30 0.447953 -2.798986 -0.200443 -0.432940 0.007042 0.102403
    31 -0.032909 -1.480204 0.004940 -0.852890 0.000000 0.000002
    32 -0.027022 -1.076920 -0.020210 -0.654817 0.000000 0.000000
    33 -0.249534 -2.846964 -0.174213 0.015388 -0.053660 0.042395
    34 0.043235 -1.683941 0.096012 -0.553140 0.002823 -0.000167
    35 0.031729 -1.160830 0.058838 -0.146093 0.000642 0.008372
    36 -0.963866 -2.785145 -0.085350 0.224263 0.163163 -0.073052
    37 0.028479 -1.403067 0.006271 -0.381699 0.000000 0.000000
    38 0.021413 -0.957781 0.020046 0.071792 0.000000 0.000000
    39 1.164475 -2.543940 -0.170330 -0.948951 -0.057517 0.116208
    40 0.024032 -1.129042 0.017807 -0.663804 0.000000 0.000001
    41 0.014898 -0.883989 -0.019848 -0.319901 0.000000 0.000000
    42 -0.586770 -1.264477 0.200161 -0.658251 -0.946035 -2.207707
    43 1.522835 0.058681 0.016848 0.001410 0.008985 0.139420
    44 1.117947 0.048424 -0.005766 -0.013402 -0.021351 0.616699
    45 -0.139399 -0.111698 0.014397 0.358632 0.302122 1.681023
    46 -3.069302 9.975931 -0.063646 1.600650 -0.000912 -1.380786
  time 13
    0 12.937895 22.970192 -0.372473 -3.068222 -0.243089 0.685540
    1 1.722709 -19.916066 -3.773882 -0.132109 3.416670 0.464148
    2 12.144901 11.396547 -33.278689 -4.986352 -0.177236 -2.765681
    3 22.500686 15.448478 -35.154785 -4.986352 -0.177236 -2.765681
    4 89.735512 111.904655 24.833182 1.570796 -1.396264 -1.570793
    5 32.032547 59.821735 10.319718 -2.951861 -0.169653 0.132395
    6 0.000004 0.063444 0.000021 0.000000 0.000000 0.000000
    7 -42.359509 -4.725811 -10.784075 -0.873495 2.881110 1.272517
    8 -2.424590 -0.002752 -3.503394 0.000000 0.000000 1.570796
    9 15.091530 -10.338830 0.184618 0.387447 2.725084 0.890335
    10 1.780633 9.129783 0.322864 1.432974 3.078292 1.531748
    11 -0.071921 -8.498736 -0.104134 -0.288866 0.049731 -1.072700
    12 -0.488518 -2.755602 -0.228260 -0.735967 0.051942 -0.186015
    13 0.039887 -1.479790 0.029854 -1.719815 0.000000 0.000001
    14 0.028786 -1.075731 -0.023109 -0.692266 0.000000 0.000000
    15 0.250027 -2.820665 -0.238396 -0.303486 0.002724 -0.033851
    16 -0.049759 -1.680544 0.100479 -1.708145 0.000000 -0.000002
    17 -0.034142 -1.148312 0.084782 -1.055176 0.000000 0.000000
    18 0.957766 -2.746780 -0.090302 0.017864 -0.082532 0.013527
    19 -0.033420 -1.397129 -0.011257 -1.114135 0.000000 -0.000001
    20 -0.022360 -0.957436 0.018784 -0.956454 0.000000 0.000000
    21 -1.180681 -2.507217 -0.193859 -0.913873 0.146982 -0.194144
    22 -0.024967 -1.123934 0.017597 -1.141274 0.000000 0.000001
    23 -0.020057 -0.890968 0.010090 -1.247138 0.000000 0.000000
    24 0.583510 -1.197277 0.185379 0.417168 -0.658435 -0.967039
    25 1.535927 0.010246 0.005009 -0.002964 -0.012979 -0.208074
    26 1.100771 0.004527 -0.010679 -0.015068 0.005990 -1.016487
    27 -0.403300 -0.015113 -0.097459 3.071031 6.234565 -1.002224
    28 -17.168208 3.288531 -2.239633 -0.721927 -3.529721 -0.899538
    29 0.096944 -8.450418 -0.009365 0.022416 0.315521 -0.150348
    30 0.447953 -2.798986 -0.200443 -0.432940 0.007042 0.102403
    31 -0.032909 -1.480204 0.004940 -0.852180 0.000000 0.000002
    32 -0.027022 -1.076920 -0.020210 -0.652366 0.000000 0.000000
    33 -0.249534 -2.846964 -0.174213 0.014501 -0.053373 0.042119
    34 0.043235 -1.683941 0.096012 -0.554101 0.002823 -0.000167
    35 0.031729 -1.160830 0.058838 -0.147794 0.000642 0.008372
    36 -0.963866 -2.785145 -0.085350 0.221710 0.163163 -0.073052
    37 0.028479 -1.403067 0.006271 -0.381699 0.000000 0.000000
    38 0.021413 -0.957781 0.020046 0.071792 0.000000 0.000000
    39 1.164475 -2.543940 -0.170330 -0.947492 -0.057146 0.116675
    40 0.024032 -1.129042 0.017807 -0.663804 0.000000 0.000001
    41 0.014898 -0.883989 -0.019848 -0.319901 0.000000 0.000000
    42 -0.586770 -1.264477 0.200161 -0.659042 -0.945493 -2.206697
    43 1.522835 0.058681 0.016848 0.001410 0.008985 0.139420
    44 1.117947 0.048424 -0.005766 -0.013402 -0.021351 0.616699
    45 -0.139399 -0.111698 0.014397 0.358632 0.302122 1.681023
    46 -3.069302 9.975931 -0.063646 1.600650 -0.000912 -1.380786
  time 14
    0 12.930082 22.965772 -0.356848 -3.060176 -0.241357 0.684985
    1 1.722709 -19.916066 -3.773882 -0.132109 3.416670 0.464148
    2 12.144901 11.396547 -33.278689 -4.986352 -0.177236 -2.765681
    3 22.500686 15.448478 -35.154785 -4.986352 -0.177236 -2.765681
    4 89.735512 111.904655 24.833182 1.570796 -1.396264 -1.570793
    5 32.044267 59.791959 10.401752 -2.946014 -0.164016 0.132792
    6 0.000004 0.063444 0.000021 0.000000 0.000000 0.000000
    7 -42.359509 -4.725811 -10.784075 -0.873495 2.881110 1.272517
    8 -2.424590 -0.002752 -3.503394 0.000000 0.000000 1.570796
    9 15.091530 -10.338830 0.184618 0.387447 2.725084 0.890335
    10 1.780633 9.129783 0.322864 1.432974 3.078292 1.531748
    11 -0.071921 -8.498736 -0.104134 -0.282230 0.045420 -1.070492
    12 -0.488518 -2.755602 -0.228260 -0.735967 0.051942 -0.186015
    13 0.039887 -1.479790 0.029854 -1.719815 0.000000 0.000001
    14 0.028786 -1.075731 -0.023109 -0.692266 0.000000 0.000000
    15 0.250027 -2.820665 -0.238396 -0.303486 0.002724 -0.033851
    16 -0.049759 -1.680544 0.100479 -1.708145 0.000000 -0.000002
    17 -0.034142 -1.148312 0.084782 -1.055176 0.000000 0.000000
    18 0.957766 -2.746780 -0.090302 0.017864 -0.082532 0.013527
    19 -0.033420 -1.397129 -0.011257 -1.114135 0.000000 -0.000001
    20 -0.022360 -0.957436 0.018784 -0.956454 0.000000 0.000000
    21 -1.180681 -2.507217 -0.193859 -0.913873 0.146982 -0.194144
    22 -0.024967 -1.123934 0.017597 -1.141274 0.000000 0.000001
    23 -0.020057 -0.890968 0.010090 -1.247138 0.000000 0.000000
    24 0.583510 -1.197277 0.185379 0.417168 -0.658435 -0.967039
    25 1.535927 0.010246 0.005009 -0.002964 -0.012979 -0.208074
    26 1.100771 0.004527 -0.010679 -0.015068 0.005990 -1.016487
    27 -0.403300 -0.015113 -0.097459 3.071031 6.234565 -1.002224
    28 -17.168208 3.288531 -2.239633 -0.721927 -3.529721 -0.899538
    29 0.096944 -8.450418 -0.009365 0.022320 0.314958 -0.150336
    30 0.447953 -2.798986 -0.200443 -0.432940 0.007042 0.102403
    31 -0.032909 -1.480204 0.004940 -0.851386 0.000000 0.000002
    32 -0.027022 -1.076920 -0.020210 -0.649691 0.000000 0.000000
    33 -0.249534 -2.846964 -0.174213 0.013550 -0.053061 0.041807
    34 0.043235 -1.683941 0.096012 -0.555153 0.002823 -0.000167
    35 0.031729 -1.160830 0.058838 -0.149635 0.000642 0.008372
    36 -0.963866 -2.785145 -0.085350 0.218953 0.163163 -0.073052
    37 0.028479 -1.403067 0.006271 -0.381699 0.000000 0.000000
    38 0.021413 -0.957781 0.020046 0.071792 0.000000 0.000000
    39 1.164475 -2.543940 -0.170330 -0.945874 -0.056750 0.117179
    40 0.024032 -1.129042 0.017807 -0.663804 0.000000 0.000001
    41 0.014898 -0.883989 -0.019848 -0.319901 0.000000 0.000000
    42 -0.586770 -1.264477 0.200161 -0.659881 -0.944885 -2.205630
    43 1.522835 0.058681 0.016848 0.001410 0.008985 0.139420
    44 1.117947 0.048424 -0.005766 -0.013402 -0.021351 0.616699
    45 -0.139399 -0.111698 0.014397 0.358632 0.302122 1.681023
    46 -3.069302 9.975931 -0.063646 1.600650 -0.000912 -1.380786
  time 15
    0 12.926176 22.965772 -0.333409 -3.051172 -0.239695 0.684273
    1 1.722709 -19.916066 -3.773882 -0.132109 3.416670 0.464148
    2 12.144901 11.396547 -33.278689 -4.986352 -0.177236 -2.765681
    3 22.500686 15.448478 -35.154785 -4.986352 -0.177236 -2.765681
    4 89.735512 111.904655 24.833182 1.570796 -1.396264 -1.570793
    5 32.063798 59.757219 10.503318 -2.939344 -0.158009 0.133122
    6 0.000004 0.063444 0.000021 0.000000 0.000000 0.000000
    7 -42.359509 -4.725811 -10.784075 -0.873495 2.881110 1.272517
    8 -2.424590 -0.002752 -3.503394 0.000000 0.000000 1.570796
    9 15.091530 -10.338830 0.184618 0.387447 2.725084 0.890335
    10 1.780633 9.129783 0.322864 1.432974 3.078292 1.531748
    11 -0.071921 -8.498736 -0.104134 -0.274785 0.040802 -1.068050
    12 -0.488518 -2.755602 -0.228260 -0.735967 0.051942 -0.186015
    13 0.039887 -1.479790 0.029854 -1.719815 0.000000 0.000001
    14 0.028786 -1.075731 -0.023109 -0.692266 0.000000 0.000000
    15 0.250027 -2.820665 -0.238396 -0.303486 0.002724 -0.033851
    16 -0.049759 -1.680544 0.100479 -1.708145 0.000000 -0.000002
    17 -0.034142 -1.148312 0.084782 -1.055176 0.000000 0.000000
    18 0.957766 -2.746780 -0.090302 0.017864 -0.082532 0.013527
    19 -0.033420 -1.397129 -0.011257 -1.114135 0.000000 -0.000001
    20 -0.022360 -0.957436 0.018784 -0.956454 0.000000 0.000000
    21 -1.180681 -2.507217 -0.193859 -0.913873 0.146982 -0.194144
    22 -0.024967 -1.123934 0.017597 -1.141274 0.000000 0.000001
    23 -0.020057 -0.890968 0.010090 -1.247138 0.000000 0.000000
    24 0.583510 -1.197277 0.185379 0.417168 -0.658435 -0.967057
    25 1.535927 0.010246 0.005009 -0.002964 -0.012979 -0.208074
    26 1.100771 0.004527 -0.010679 -0.015068 0.005990 -1.016487
    27 -0.403300 -0.015113 -0.097459 3.071031 6.234565 -1.002224
    28 -17.168208 3.288531 -2.239633 -0.721927 -3.529721 -0.899538
    29 0.096944 -8.450418 -0.009365 0.022224 0.314363 -0.150312
    30 0.447953 -2.798986 -0.200443 -0.432940 0.007042 0.102403
    31 -0.032909 -1.480204 0.004940 -0.850551 0.000000 0.000002
    32 -0.027022 -1.076920 -0.020210 -0.646833 0.000000 0.000000
    33 -0.249534 -2.846964 -0.174213 0.012512 -0.052713 0.041484
    34 0.043235 -1.683941 0.096012 -0.556274 0.002823 -0.000167
    35 0.031729 -1.160830 0.058838 -0.151616 0.000642 0.008372
    36 -0.963866 -2.785145 -0.085350 0.215981 0.163163 -0.073052
    37 0.028479 -1.403067 0.006271 -0.381699 0.000000 0.000000
    38 0.021413 -0.957781 0.020046 0.071792 0.000000 0.000000
    39 1.164475 -2.543940 -0.170330 -0.944130 -0.056319 0.117706
    40 0.024032 -1.129042 0.017807 -0.663804 0.000000 0.000001
    41 0.014898 -0.883989 -0.019848 -0.319901 0.000000 0.000000
    42 -0.586770 -1.264477 0.200161 -0.660784 -0.944245 -2.204465
    43 1.522835 0.058681 0.016848 0.001410 0.008985 0.139420
    44 1.117947 0.048424 -0.005766 -0.013402 -0.021351 0.616699
    45 -0.139399 -0.111698 0.014397 0.358632 0.302122 1.681023
    46 -3.069302 9.975931 -0.063646 1.600650 -0.000912 -1.380786
  time 16
    0 12.922269 22.965772 -0.309971 -3.041306 -0.237964 0.683322
    1 1.722709 -19.916066 -3.773882 -0.132109 3.416670 0.464148
    2 12.144901 11.396547 -33.278689 -4.986352 -0.177236 -2.765681
    3 22.500686 15.448478 -35.154785 -4.986352 -0.177236 -2.765681
    4 89.735512 111.904655 24.833182 1.570796 -1.396264 -1.570793
    5 32.087237 59.712554 10.616603 -2.931944 -0.151540 0.133387
    6 0.000004 0.063444 0.000021 0.000000 0.000000 0.000000
    7 -42.359509 -4.725811 -10.784075 -0.873495 2.881110 1.272517
    8 -2.424590 -0.002752 -3.503394 0.000000 0.000000 1.570796
    9 15.091530 -10.338830 0.184618 0.387447 2.725084 0.890335
    10 1.780633 9.129783 0.322864 1.432974 3.078292 1.531748
    11 -0.071921 -8.498736 -0.104134 -0.266532 0.035936 -1.065374
    12 -0.488518 -2.755602 -0.228260 -0.735967 0.051942 -0.186015
    13 0.039887 -1.479790 0.029854 -1.719815 0.000000 0.000001
    14 0.028786 -1.075731 -0.023109 -0.692266 0.000000 0.000000
    15 0.250027 -2.820665 -0.238396 -0.303486 0.002724 -0.033851
    16 -0.049759 -1.680544 0.100479 -1.708145 0.000000 -0.000002
    17 -0.034142 -1.148312 0.084782 -1.055176 0.000000 0.000000
    18 0.957766 -2.746780 -0.090302 0.017864 -0.082532 0.013527
    19 -0.033420 -1.397129 -0.011257 -1.114135 0.000000 -0.000001
    20 -0.022360 -0.957436 0.018784 -0.956454 0.000000 0.000000
    21 -1.180681 -2.507217 -0.193859 -0.913873 0.146982 -0.194144
    22 -0.024967 -1.123934 0.017597 -1.141274 0.000000 0.000001
    23 -0.020057 -0.890968 0.010090 -1.247138 0.000000 0.000000
    24 0.583510 -1.197277 0.185379 0.417168 -0.658435 -0.967039
    25 1.535927 0.010246 0.005009 -0.002964 -0.012979 -0.208074
    26 1.100771 0.004527 -0.010679 -0.015068 0.005990 -1.016487
    27 -0.403300 -0.015113 -0.097459 3.071031 6.234565 -1.002224
    28 -17.168208 3.288531 -2.239633 -0.721927 -3.529721 -0.899538
    29 0.096944 -8.450418 -0.009365 0.022128 0.313737 -0.150288
    30 0.447953 -2.798986 -0.200443 -0.432940 0.007042 0.102403
    31 -0.032909 -1.480204 0.004940 -0.849674 0.000000 0.000002
    32 -0.027022 -1.076920 -0.020210 -0.643770 0.000000 0.000000
    33 -0.249534 -2.846964 -0.174213 0.011430 -0.052354 0.041136
    34 0.043235 -1.683941 0.096012 -0.557486 0.002823 -0.000167
    35 0.031729 -1.160830 0.058838 -0.153723 0.000642 0.008372
    36 -0.963866 -2.785145 -0.085350 0.212817 0.163163 -0.073052
    37 0.028479 -1.403067 0.006271 -0.381699 0.000000 0.000000
    38 0.021413 -0.957781 0.020046 0.071792 0.000000 0.000000
    39 1.164475 -2.543940 -0.170330 -0.942290 -0.055863 0.118281
    40 0.024032 -1.129042 0.017807 -0.663804 0.000000 0.000001
    41 0.014898 -0.883989 -0.019848 -0.319901 0.000000 0.000000
    42 -0.586770 -1.264477 0.200161 -0.661753 -0.943555 -2.203242
    43 1.522835 0.058681 0.016848 0.001410 0.008985 0.139420
    44 1.117947 0.048424 -0.005766 -0.013402 -0.021351 0.616699
    45 -0.139399 -0.111698 0.014397 0.358632 0.302122 1.681023
    46 -3.069302 9.975931 -0.063646 1.600650 -0.000912 -1.380786
  time 17
    0 12.918363 22.965772 -0.286533 -3.030483 -0.236371 0.682214
    1 1.722709 -19.916066 -3.773882 -0.132109 3.416670 0.464148
    2 12.144901 11.396547 -33.278689 -4.986352 -0.177236 -2.765681
    3 22.500686 15.448478 -35.154785 -4.986352 -0.177236 -2.765681
    4 89.735512 111.904655 24.833182 1.570796 -1.396264 -1.570793
    5 32.118488 59.662927 10.753325 -2.923812 -0.144701 0.133585
    6 0.000004 0.063444 0.000021 0.000000 0.000000 0.000000
    7 -42.359509 -4.725811 -10.784075 -0.873495 2.881110 1.272517
    8 -2.424590 -0.002752 -3.503394 0.000000 0.000000 1.570796
    9 15.091530 -10.338830 0.184618 0.387447 2.725084 0.890335
    10 1.780633 9.129783 0.322864 1.432974 3.078292 1.531748
    11 -0.071921 -8.498736 -0.104134 -0.257492 0.030839 -1.062464
    12 -0.488518 -2.755602 -0.228260 -0.735967 0.051942 -0.186015
    13 0.039887 -1.479790 0.029854 -1.719815 0.000000 0.000001
    14 0.028786 -1.075731 -0.023109 -0.692266 0.000000 0.000000
    15 0.250027 -2.820665 -0.238396 -0.303486 0.002724 -0.033851
    16 -0.049759 -1.680544 0.100479 -1.708145 0.000000 -0.000002
    17 -0.034142 -1.148312 0.084782 -1.055176 0.000000 0.000000
    18 0.957766 -2.746780 -0.090302 0.017864 -0.082532 0.013527
    19 -0.033420 -1.397129 -0.011257 -1.114135 0.000000 -0.000001
    20 -0.022360 -0.957436 0.018784 -0.956454 0.000000 0.000000
    21 -1.180681 -2.507217 -0.193859 -0.913873 0.146982 -0.194144
    22 -0.024967 -1.123934 0.017597 -1.141274 0.000000 0.000001
    23 -0.020057 -0.890968 0.010090 -1.247138 0.000000 0.000000
    24 0.583510 -1.197277 0.185379 0.417168 -0.658435 -0.967039
    25 1.535927 0.010246 0.005009 -0.002964 -0.012979 -0.208074
    26 1.100771 0.004527 -0.010679 -0.015068 0.005990 -1.016487
    27 -0.403300 -0.015113 -0.097459 3.071031 6.234565 -1.002224
    28 -17.168208 3.288531 -2.239633 -0.721927 -3.529721 -0.899538
    29 0.096944 -8.450418 -0.009365 0.022020 0.313048 -0.150264
    30 0.447953 -2.798986 -0.200443 -0.432940 0.007042 0.102403
    31 -0.032909 -1.480204 0.004940 -0.848714 0.000000 0.000002
    32 -0.027022 -1.076920 -0.020210 -0.640523 0.000000 0.000000
    33 -0.249534 -2.846964 -0.174213 0.010262 -0.051958 0.040777
    34 0.043235 -1.683941 0.096012 -0.558767 0.002823 -0.000167
    35 0.031729 -1.160830 0.058838 -0.155971 0.000642 0.008372
    36 -0.963866 -2.785145 -0.085350 0.209450 0.163163 -0.073052
    37 0.028479 -1.403067 0.006271 -0.381699 0.000000 0.000000
    38 0.021413 -0.957781 0.020046 0.071792 0.000000 0.000000
    39 1.164475 -2.543940 -0.170330 -0.940323 -0.055372 0.118893
    40 0.024032 -1.129042 0.017807 -0.663804 0.000000 0.000001
    41 0.014898 -0.883989 -0.019848 -0.319901 0.000000 0.000000
    42 -0.586770 -1.264477 0.200161 -0.662786 -0.942816 -2.201923
    43 1.522835 0.058681 0.016848 0.001410 0.008985 0.139420
    44 1.117947 0.048424 -0.005766 -0.013402 -0.021351 0.616699
    45 -0.139399 -0.111698 0.014397 0.358632 0.302122 1.681023
    46 -3.069302 9.975931 -0.063646 1.600650 -0.000912 -1.380786
  time 18
    0 12.898831 22.970192 -0.259188 -3.018893 -0.234848 0.682372
    1 1.722709 -19.916066 -3.773882 -0.132109 3.416670 0.464148
    2 12.144901 11.396547 -33.278689 -4.986352 -0.177236 -2.765681
    3 22.500686 15.448478 -35.154785 -4.986352 -0.177236 -2.765681
    4 89.735512 111.904655 24.833182 1.570796 -1.396264 -1.570793
    5 32.087237 59.638113 10.909580 -2.914858 -0.137493 0.135172
    6 0.000004 0.063444 0.000021 0.000000 0.000000 0.000000
    7 -42.359509 -4.725811 -10.784075 -0.873495 2.881110 1.272517
    8 -2.424590 -0.002752 -3.503394 0.000000 0.000000 1.570796
    9 15.091530 -10.334924 0.184618 0.387447 2.725084 0.891898
    10 1.780633 9.129783 0.322864 1.432974 3.078292 1.531748
    11 -0.071921 -8.498736 -0.104134 -0.247644 0.025570 -1.059319
    12 -0.488518 -2.755602 -0.228260 -0.735967 0.051942 -0.186015
    13 0.039887 -1.479790 0.029854 -1.719815 0.000000 0.000001
    14 0.028786 -1.075731 -0.023109 -0.692266 0.000000 0.000000
    15 0.250027 -2.820665 -0.238396 -0.303486 0.002724 -0.033851
    16 -0.049759 -1.680544 0.100479 -1.708145 0.000000 -0.000002
    17 -0.034142 -1.148312 0.084782 -1.055176 0.000000 0.000000
    18 0.957766 -2.746780 -0.090302 0.017864 -0.082532 0.013527
    19 -0.033420 -1.397129 -0.011257 -1.114135 0.000000 -0.000001
    20 -0.022360 -0.957436 0.018784 -0.956454 0.000000 0.000000
    21 -1.180681 -2.507217 -0.193859 -0.913873 0.146982 -0.194144
    22 -0.024967 -1.123934 0.017597 -1.141274 0.000000 0.000001
    23 -0.020057 -0.890968 0.010090 -1.247138 0.000000 0.000000
    24 0.583510 -1.197277 0.185379 0.417168 -0.658435 -0.967039
    25 1.535927 0.010246 0.005009 -0.002964 -0.012979 -0.208074
    26 1.100771 0.004527 -0.010679 -0.015068 0.005990 -1.016487
    27 -0.403300 -0.015113 -0.097459 3.071031 6.234565 -1.002224
    28 -17.168208 3.288531 -2.239633 -0.721927 -3.529721 -0.899538
    29 0.096944 -8.450418 -0.009365 0.021900 0.312328 -0.150240
    30 0.447953 -2.798986 -0.200443 -0.432940 0.007042 0.102403
    31 -0.032909 -1.480204 0.004940 -0.847712 0.000000 0.000002
    32 -0.027022 -1.076920 -0.020210 -0.637092 0.000000 0.000000
    33 -0.249534 -2.846964 -0.174213 0.009008 -0.051551 0.040381
    34 0.043235 -1.683941 0.096012 -0.560117 0.002823 -0.000167
    35 0.031729 -1.160830 0.058838 -0.158345 0.000642 0.008372
    36 -0.963866 -2.785145 -0.085350 0.205890 0.163163 -0.073052
    37 0.028479 -1.403067 0.006271 -0.381699 0.000000 0.000000
    38 0.021413 -0.957781 0.020046 0.071792 0.000000 0.000000
    39 1.164475 -2.543940 -0.170330 -0.938262 -0.054857 0.119528
    40 0.024032 -1.129042 0.017807 -0.663804 0.000000 0.000001
    41 0.014898 -0.883989 -0.019848 -0.319901 0.000000 0.000000
    42 -0.586770 -1.264477 0.200161 -0.663867 -0.942044 -2.200544
    43 1.522835 0.058681 0.016848 0.001410 0.008985 0.139420
    44 1.117947 0.048424 -0.005766 -0.013402 -0.021351 0.616699
    45 -0.139399 -0.111698 0.014397 0.358632 0.302122 1.681023
    46 -3.069302 9.975931 -0.063646 1.600650 -0.000912 -1.380786
  time 19
    0 12.855861 22.992291 -0.227937 -3.006441 -0.233532 0.684906
    1 1.722709 -19.916066 -3.773882 -0.132109 3.416670 0.464148
    2 12.144901 11.396547 -33.278689 -4.986352 -0.177236 -2.765681
    3 22.500686 15.448478 -35.154785 -4.986352 -0.177236 -2.765681
    4 89.735512 111.904655 24.833182 1.570796 -1.396264 -1.570793
    5 31.938795 59.662927 11.089273 -2.905082 -0.130100 0.139337
    6 0.000004 0.063444 0.000021 0.000000 0.000000 0.000000
    7 -42.359509 -4.725811 -10.784075 -0.873495 2.881110 1.272517
    8 -2.424590 -0.002752 -3.503394 0.000000 0.000000 1.570796
    9 15.091530 -10.327111 0.184618 0.387637 2.725272 0.896033
    10 1.780633 9.129783 0.322864 1.432974 3.078292 1.531748
    11 -0.071921 -8.498736 -0.104134 -0.236966 0.020185 -1.055941
    12 -0.488518 -2.755602 -0.228260 -0.735967 0.051942 -0.186015
    13 0.039887 -1.479790 0.029854 -1.719815 0.000000 0.000001
    14 0.028786 -1.075731 -0.023109 -0.692266 0.000000 0.000000
    15 0.250027 -2.820665 -0.238396 -0.303486 0.002724 -0.033851
    16 -0.049759 -1.680544 0.100479 -1.708145 0.000000 -0.000002
    17 -0.034142 -1.148312 0.084782 -1.055176 0.000000 0.000000
    18 0.957766 -2.746780 -0.090302 0.017864 -0.082532 0.013527
    19 -0.033420 -1.397129 -0.011257 -1.114135 0.000000 -0.000001
    20 -0.022360 -0.957436 0.018784 -0.956454 0.000000 0.000000
    21 -1.180681 -2.507217 -0.193859 -0.913873 0.146982 -0.194144
    22 -0.024967 -1.123934 0.017597 -1.141274 0.000000 0.000001
    23 -0.020057 -0.890968 0.010090 -1.247138 0.000000 0.000000
    24 0.583510 -1.197277 0.185379 0.417168 -0.658435 -0.967039
    25 1.535927 0.010246 0.005009 -0.002964 -0.012979 -0.208074
    26 1.100771 0.004527 -0.010679 -0.015068 0.005990 -1.016487
    27 -0.403300 -0.015113 -0.097459 3.071031 6.234565 -1.002224
    28 -17.168208 3.288531 -2.239633 -0.721927 -3.529721 -0.899538
    29 0.096944 -8.450418 -0.009365 0.021781 0.311576 -0.150204
    30 0.447953 -2.798986 -0.200443 -0.432940 0.007042 0.102403
    31 -0.032909 -1.480204 0.004940 -0.846668 0.000000 0.000002
    32 -0.027022 -1.076920 -0.020210 -0.633478 0.000000 0.000000
    33 -0.249534 -2.846964 -0.174213 0.007710 -0.051119 0.039974
    34 0.043235 -1.683941 0.096012 -0.561535 0.002823 -0.000167
    35 0.031729 -1.160830 0.058838 -0.160833 0.000642 0.008372
    36 -0.963866 -2.785145 -0.085350 0.202151 0.163163 -0.073052
    37 0.028479 -1.403067 0.006271 -0.381699 0.000000 0.000000
    38 0.021413 -0.957781 0.020046 0.071792 0.000000 0.000000
    39 1.164475 -2.543940 -0.170330 -0.936073 -0.054305 0.120211
    40 0.024032 -1.129042 0.017807 -0.663804 0.000000 0.000001
    41 0.014898 -0.883989 -0.019848 -0.319901 0.000000 0.000000
    42 -0.586770 -1.264477 0.200161 -0.665013 -0.941239 -2.199069
    43 1.522835 0.058681 0.016848 0.001410 0.008985 0.139420
    44 1.117947 0.048424 -0.005766 -0.013402 -0.021351 0.616699
    45 -0.139399 -0.111698 0.014397 0.358632 0.302122 1.681023
    46 -3.069302 9.975931 -0.063646 1.600650 -0.000912 -1.380786
  time 20
    0 12.785546 23.018811 -0.192780 -2.993223 -0.232563 0.689262
    1 1.722709 -19.916066 -3.773882 -0.132109 3.416670 0.464148
    2 12.144901 11.396547 -33.278689 -4.986352 -0.177236 -2.765681
    3 22.500686 15.448478 -35.154785 -4.986352 -0.177236 -2.765681
    4 89.735512 111.904655 24.833182 1.570796 -1.396264 -1.570793
    5 31.700506 59.727443 11.296311 -2.894575 -0.122707 0.145420
    6 0.000004 0.063444 0.000021 0.000000 0.000000 0.000000
    7 -42.359509 -4.725811 -10.784075 -0.873495 2.881110 1.272517
    8 -2.424590 -0.002752 -3.503394 0.000000 0.000000 1.570796
    9 15.091530 -10.311486 0.184618 0.387922 2.725555 0.902465
    10 1.780633 9.129783 0.322864 1.432974 3.078292 1.531748
    11 -0.071921 -8.498736 -0.104134 -0.225480 0.014706 -1.052395
    12 -0.488518 -2.755602 -0.228260 -0.735967 0.051942 -0.186015
    13 0.039887 -1.479790 0.029854 -1.719815 0.000000 0.000001
    14 0.028786 -1.075731 -0.023109 -0.692266 0.000000 0.000000
    15 0.250027 -2.820665 -0.238396 -0.303486 0.002724 -0.033851
    16 -0.049759 -1.680544 0.100479 -1.708145 0.000000 -0.000002
    17 -0.034142 -1.148312 0.084782 -1.055176 0.000000 0.000000
    18 0.957766 -2.746780 -0.090302 0.017864 -0.082532 0.013527
    19 -0.033420 -1.397129 -0.011257 -1.114135 0.000000 -0.000001
    20 -0.022360 -0.957436 0.018784 -0.956454 0.000000 0.000000
    21 -1.180681 -2.507217 -0.193859 -0.913873 0.146982 -0.194144
    22 -0.024967 -1.123934 0.017597 -1.141274 0.000000 0.000001
    23 -0.020057 -0.890968 0.010090 -1.247138 0.000000 0.000000
    24 0.583510 -1.197277 0.185379 0.417168 -0.658435 -0.967039
    25 1.535927 0.010246 0.005009 -0.002964 -0.012979 -0.208074
    26 1.100771 0.004527 -0.010679 -0.015068 0.005990 -1.016487
    27 -0.403300 -0.015113 -0.097459 3.071031 6.234565 -1.002224
    28 -17.168208 3.288531 -2.239633 -0.721927 -3.529721 -0.899538
    29 0.096944 -8.450418 -0.009365 0.021661 0.310762 -0.150180
    30 0.447953 -2.798986 -0.200443 -0.432940 0.007042 0.102403
    31 -0.032909 -1.480204 0.004940 -0.845540 0.000000 0.000002
    32 -0.027022 -1.076920 -0.020210 -0.629700 0.000000 0.000000
    33 -0.249534 -2.846964 -0.174213 0.006348 -0.050664 0.039554
    34 0.043235 -1.683941 0.096012 -0.563021 0.002823 -0.000167
    35 0.031729 -1.160830 0.058838 -0.163449 0.000642 0.008372
    36 -0.963866 -2.785145 -0.085350 0.198220 0.163163 -0.073052
    37 0.028479 -1.403067 0.006271 -0.381699 0.000000 0.000000
    38 0.021413 -0.957781 0.020046 0.071792 0.000000 0.000000
    39 1.164475 -2.543940 -0.170330 -0.933789 -0.053742 0.120918
    40 0.024032 -1.129042 0.017807 -0.663804 0.000000 0.000001
    41 0.014898 -0.883989 -0.019848 -0.319901 0.000000 0.000000
    42 -0.586770 -1.264477 0.200161 -0.666207 -0.940384 -2.197555
    43 1.522835 0.058681 0.016848 0.001410 0.008985 0.139420
    44 1.117947 0.048424 -0.005766 -0.013402 -0.021351 0.616699
    45 -0.139399 -0.111698 0.014397 0.358632 0.302122 1.681023
    46 -3.069302 9.975931 -0.063646 1.600650 -0.000912 -1.380786
  time 21
    0 12.703513 23.054170 -0.153716 -2.979430 -0.232078 0.694963
    1 1.722709 -19.916066 -3.773882 -0.132109 3.416670 0.464148
    2 12.144901 11.396547 -33.278689 -4.986352 -0.177236 -2.765681
    3 22.500686 15.448478 -35.154785 -4.986352 -0.177236 -2.765681
    4 89.735512 111.904655 24.833182 1.570796 -1.396264 -1.570793
    5 31.391903 59.816772 11.534599 -2.883246 -0.115222 0.153024
    6 0.000004 0.063444 0.000021 0.000000 0.000000 0.000000
    7 -42.359509 -4.725811 -10.784075 -0.873495 2.881110 1.272517
    8 -2.424590 -0.002752 -3.503394 0.000000 0.000000 1.570796
    9 15.091530 -10.295860 0.184618 0.388397 2.726027 0.910552
    10 1.780633 9.129783 0.322864 1.432974 3.078292 1.531748
    11 -0.071921 -8.498736 -0.104134 -0.213185 0.009187 -1.048582
    12 -0.488518 -2.755602 -0.228260 -0.735967 0.051942 -0.186015
    13 0.039887 -1.479790 0.029854 -1.719815 0.000000 0.000001
    14 0.028786 -1.075731 -0.023109 -0.692266 0.000000 0.000000
    15 0.250027 -2.820665 -0.238396 -0.303486 0.002724 -0.033851
    16 -0.049759 -1.680544 0.100479 -1.708145 0.000000 -0.000002
    17 -0.034142 -1.148312 0.084782 -1.055176 0.000000 0.000000
    18 0.957766 -2.746780 -0.090302 0.017864 -0.082532 0.013527
    19 -0.033420 -1.397129 -0.011257 -1.114135 0.000000 -0.000001
    20 -0.022360 -0.957436 0.018784 -0.956454 0.000000 0.000000
    21 -1.180681 -2.507217 -0.193859 -0.913873 0.146982 -0.194144
    22 -0.024967 -1.123934 0.017597 -1.141274 0.000000 0.000001
    23 -0.020057 -0.890968 0.010090 -1.247138 0.000000 0.000000
    24 0.583510 -1.197277 0.185379 0.417168 -0.658435 -0.967039
    25 1.535927 0.010246 0.005009 -0.002964 -0.012979 -0.208074
    26 1.100771 0.004527 -0.010679 -0.015068 0.005990 -1.016487
    27 -0.403300 -0.015113 -0.097459 3.071031 6.234565 -1.002224
    28 -17.168208 3.288531 -2.239633 -0.721927 -3.529721 -0.899538
    29 0.096944 -8.450418 -0.009365 0.021529 0.309948 -0.150144
    30 0.447953 -2.798986 -0.200443 -0.432940 0.007042 0.102403
    31 -0.032909 -1.480204 0.004940 -0.844413 0.000000 0.000002
    32 -0.027022 -1.076920 -0.020210 -0.625739 0.000000 0.000000
    33 -0.249534 -2.846964 -0.174213 0.004942 -0.050197 0.039099
    34 0.043235 -1.683941 0.096012 -0.564577 0.002823 -0.000167
    35 0.031729 -1.160830 0.058838 -0.166191 0.000642 0.008372
    36 -0.963866 -2.785145 -0.085350 0.194121 0.163163 -0.073052
    37 0.028479 -1.403067 0.006271 -0.381699 0.000000 0.000000
    38 0.021413 -0.957781 0.020046 0.071792 0.000000 0.000000
    39 1.164475 -2.543940 -0.170330 -0.931411 -0.053143 0.121661
    40 0.024032 -1.129042 0.017807 -0.663804 0.000000 0.000001
    41 0.014898 -0.883989 -0.019848 -0.319901 0.000000 0.000000
    42 -0.586770 -1.264477 0.200161 -0.667465 -0.939497 -2.195944
    43 1.522835 0.058681 0.016848 0.001410 0.008985 0.139420
    44 1.117947 0.048424 -0.005766 -0.013402 -0.021351 0.616699
    45 -0.139399 -0.111698 0.014397 0.358632 0.302122 1.681023
    46 -3.069302 9.975931 -0.063646 1.600650 -0.000912 -1.380786
  time 22
    0 12.609760 23.098369 -0.110746 -2.964967 -0.232078 0.701457
    1 1.722709 -19.916066 -3.773882 -0.132109 3.416670 0.464148
    2 12.144901 11.396547 -33.278689 -4.986352 -0.177236 -2.765681
    3 22.500686 15.448478 -35.154785 -4.986352 -0.177236 -2.765681
    4 89.735512 111.904655 24.833182 1.570796 -1.396264 -1.570793
    5 31.044236 59.911065 11.808045 -2.871003 -0.108014 0.161421
    6 0.000004 0.063444 0.000021 0.000000 0.000000 0.000000
    7 -42.359509 -4.725811 -10.784075 -0.873495 2.881110 1.272517
    8 -2.424590 -0.002752 -3.503394 0.000000 0.000000 1.570796
    9 15.091530 -10.276328 0.184618 0.389252 2.726876 0.919833
    10 1.780633 9.129783 0.322864 1.432974 3.078292 1.531748
    11 -0.071921 -8.498736 -0.104134 -0.200083 0.003669 -1.044601
    12 -0.488518 -2.755602 -0.228260 -0.735967 0.051942 -0.186015
    13 0.039887 -1.479790 0.029854 -1.719815 0.000000 0.000001
    14 0.028786 -1.075731 -0.023109 -0.692266 0.000000 0.000000
    15 0.250027 -2.820665 -0.238396 -0.303486 0.002724 -0.033851
    16 -0.049759 -1.680544 0.100479 -1.708145 0.000000 -0.000002
    17 -0.034142 -1.148312 0.084782 -1.055176 0.000000 0.000000
    18 0.957766 -2.746780 -0.090302 0.017864 -0.082532 0.013527
    19 -0.033420 -1.397129 -0.011257 -1.114135 0.000000 -0.000001
    20 -0.022360 -0.957436 0.018784 -0.956454 0.000000 0.000000
    21 -1.180681 -2.507217 -0.193859 -0.913873 0.146982 -0.194144
    22 -0.024967 -1.123934 0.017597 -1.141274 0.000000 0.000001
    23 -0.020057 -0.890968 0.010090 -1.247138 0.000000 0.000000
    24 0.583510 -1.197277 0.185379 0.417168 -0.658435 -0.967039
    25 1.535927 0.010246 0.005009 -0.002964 -0.012979 -0.208074
    26 1.100771 0.004527 -0.010679 -0.015068 0.005990 -1.016487
    27 -0.403300 -0.015113 -0.097459 3.071031 6.234565 -1.002224
    28 -17.168208 3.288531 -2.239633 -0.721927 -3.529721 -0.899538
    29 0.096944 -8.450418 -0.009365 0.021385 0.309071 -0.150120
    30 0.447953 -2.798986 -0.200443 -0.432940 0.007042 0.102403
    31 -0.032909 -1.480204 0.004940 -0.843202 0.000000 0.000002
    32 -0.027022 -1.076920 -0.020210 -0.621614 0.000000 0.000000
    33 -0.249534 -2.846964 -0.174213 0.003450 -0.049705 0.038632
    34 0.043235 -1.683941 0.096012 -0.566201 0.002823 -0.000167
    35 0.031729 -1.160830 0.058838 -0.169035 0.000642 0.008372
    36 -0.963866 -2.785145 -0.085350 0.189843 0.163163 -0.073052
    37 0.028479 -1.403067 0.006271 -0.381699 0.000000 0.000000
    38 0.021413 -0.957781 0.020046 0.071792 0.000000 0.000000
    39 1.164475 -2.543940 -0.170330 -0.928905 -0.052520 0.122428
    40 0.024032 -1.129042 0.017807 -0.663804 0.000000 0.000001
    41 0.014898 -0.883989 -0.019848 -0.319901 0.000000 0.000000
    42 -0.586770 -1.264477 0.200161 -0.668773 -0.938561 -2.194275
    43 1.522835 0.058681 0.016848 0.001410 0.008985 0.139420
    44 1.117947 0.048424 -0.005766 -0.013402 -0.021351 0.616699
    45 -0.139399 -0.111698 0.014397 0.358632 0.302122 1.681023
    46 -3.069302 9.975931 -0.063646 1.600650 -0.000912 -1.380786
  time 23
    0 12.508194 23.138148 -0.059964 -2.949833 -0.232770 0.708188
    1 1.722709 -19.916066 -3.773882 -0.132109 3.416670 0.464148
    2 12.144901 11.396547 -33.278689 -4.986352 -0.177236 -2.765681
    3 22.500686 15.448478 -35.154785 -4.986352 -0.177236 -2.765681
    4 89.735512 111.904655 24.833182 1.570796 -1.396264 -1.570793
    5 30.680944 59.995432 12.120555 -2.858029 -0.101083 0.170281
    6 0.000004 0.063444 0.000021 0.000000 0.000000 0.000000
    7 -42.359509 -4.725811 -10.784075 -0.873495 2.881110 1.272517
    8 -2.424590 -0.002752 -3.503394 0.000000 0.000000 1.570796
    9 15.091530 -10.256796 0.184618 0.390392 2.727913 0.929758
    10 1.780633 9.129783 0.322864 1.432974 3.078292 1.531748
    11 -0.071921 -8.498736 -0.104134 -0.186129 -0.001811 -1.040386
    12 -0.488518 -2.755602 -0.228260 -0.735967 0.051942 -0.186015
    13 0.039887 -1.479790 0.029854 -1.719815 0.000000 0.000001
    14 0.028786 -1.075731 -0.023109 -0.692266 0.000000 0.000000
    15 0.250027 -2.820665 -0.238396 -0.303486 0.002724 -0.033851
    16 -0.049759 -1.680544 0.100479 -1.708145 0.000000 -0.000002
    17 -0.034142 -1.148312 0.084782 -1.055176 0.000000 0.000000
    18 0.957766 -2.746780 -0.090302 0.017864 -0.082532 0.013527
    19 -0.033420 -1.397129 -0.011257 -1.114135 0.000000 -0.000001
    20 -0.022360 -0.957436 0.018784 -0.956454 0.000000 0.000000
    21 -1.180681 -2.507217 -0.193859 -0.913873 0.146982 -0.194144
    22 -0.024967 -1.123934 0.017597 -1.141274 0.000000 0.000001
    23 -0.020057 -0.890968 0.010090 -1.247138 0.000000 0.000000
    24 0.583510 -1.197277 0.185379 0.417168 -0.658435 -0.967039
    25 1.535927 0.010246 0.005009 -0.002964 -0.012979 -0.208074
    26 1.100771 0.004527 -0.010679 -0.015068 0.005990 -1.016487
    27 -0.403300 -0.015113 -0.097459 3.071031 6.234565 -1.002224
    28 -17.168208 3.288531 -2.239633 -0.721927 -3.529721 -0.899538
    29 0.096944 -8.450418 -0.009365 0.021241 0.308163 -0.150084
    30 0.447953 -2.798986 -0.200443 -0.432940 0.007042 0.102403
    31 -0.032909 -1.480204 0.004940 -0.841949 0.000000 0.000002
    32 -0.027022 -1.076920 -0.020210 -0.617326 0.000000 0.000000
    33 -0.249534 -2.846964 -0.174213 0.001914 -0.049190 0.038152
    34 0.043235 -1.683941 0.096012 -0.567893 0.002823 -0.000167
    35 0.031729 -1.160830 0.058838 -0.171993 0.000642 0.008372
    36 -0.963866 -2.785145 -0.085350 0.185408 0.163163 -0.073052
    37 0.028479 -1.403067 0.006271 -0.381699 0.000000 0.000000
    38 0.021413 -0.957781 0.020046 0.071792 0.000000 0.000000
    39 1.164475 -2.543940 -0.170330 -0.926336 -0.051884 0.123231
    40 0.024032 -1.129042 0.017807 -0.663804 0.000000 0.000001
    41 0.014898 -0.883989 -0.019848 -0.319901 0.000000 0.000000
    42 -0.586770 -1.264477 0.200161 -0.670128 -0.937592 -2.192547
    43 1.522835 0.058681 0.016848 0.001410 0.008985 0.139420
    44 1.117947 0.048424 -0.005766 -0.013402 -0.021351 0.616699
    45 -0.139399 -0.111698 0.014397 0.358632 0.302122 1.681023
    46 -3.069302 9.975931 -0.063646 1.600650 -0.000912 -1.380786
  time 24
    0 12.410535 23.177927 -0.009181 -2.934220 -0.234155 0.714523
    1 1.722709 -19.916066 -3.773882 -0.132109 3.416670 0.464148
    2 12.144901 11.396547 -33.278689 -4.986352 -0.177236 -2.765681
    3 22.500686 15.448478 -35.154785 -4.986352 -0.177236 -2.765681
    4 89.735512 111.904655 24.833182 1.570796 -1.396264 -1.570793
    5 30.321558 60.064911 12.472128 -2.844141 -0.094429 0.178876
    6 0.000004 0.063444 0.000021 0.000000 0.000000 0.000000
    7 -42.359509 -4.725811 -10.784075 -0.873495 2.881110 1.272517
    8 -2.424590 -0.002752 -3.503394 0.000000 0.000000 1.570796
    9 15.091530 -10.241171 0.184618 0.391913 2.729422 0.939866
    10 1.780633 9.129783 0.322864 1.432974 3.078292 1.531748
    11 -0.071921 -8.498736 -0.104134 -0.171367 -0.007214 -1.035971
    12 -0.488518 -2.755602 -0.228260 -0.735967 0.051942 -0.186015
    13 0.039887 -1.479790 0.029854 -1.719815 0.000000 0.000001
    14 0.028786 -1.075731 -0.023109 -0.692266 0.000000 0.000000
    15 0.250027 -2.820665 -0.238396 -0.303486 0.002724 -0.033851
    16 -0.049759 -1.680544 0.100479 -1.708145 0.000000 -0.000002
    17 -0.034142 -1.148312 0.084782 -1.055176 0.000000 0.000000
    18 0.957766 -2.746780 -0.090302 0.017864 -0.082532 0.013527
    19 -0.033420 -1.397129 -0.011257 -1.114135 0.000000 -0.000001
    20 -0.022360 -0.957436 0.018784 -0.956454 0.000000 0.000000
    21 -1.180681 -2.507217 -0.193859 -0.913873 0.146982 -0.194144
    22 -0.024967 -1.123934 0.017597 -1.141274 0.000000 0.000001
    23 -0.020057 -0.890968 0.010090 -1.247138 0.000000 0.000000
    24 0.583510 -1.197277 0.185379 0.417168 -0.658435 -0.967039
    25 1.535927 0.010246 0.005009 -0.002964 -0.012979 -0.208074
    26 1.100771 0.004527 -0.010679 -0.015068 0.005990 -1.016487
    27 -0.403300 -0.015113 -0.097459 3.071031 6.234565 -1.002224
    28 -17.168208 3.288531 -2.239633 -0.721927 -3.529721 -0.899538
    29 0.096944 -8.450418 -0.009365 0.021097 0.307224 -0.150048
    30 0.447953 -2.798986 -0.200443 -0.432940 0.007042 0.102403
    31 -0.032909 -1.480204 0.004940 -0.840654 0.000000 0.000002
    32 -0.027022 -1.076920 -0.020210 -0.612895 0.000000 0.000000
    33 -0.249534 -2.846964 -0.174213 0.000314 -0.048663 0.037649
    34 0.043235 -1.683941 0.096012 -0.569632 0.002823 -0.000167
    35 0.031729 -1.160830 0.058838 -0.175053 0.000642 0.008372
    36 -0.963866 -2.785145 -0.085350 0.180818 0.163163 -0.073052
    37 0.028479 -1.403067 0.006271 -0.381699 0.000000 0.000000
    38 0.021413 -0.957781 0.020046 0.071792 0.000000 0.000000
    39 1.164475 -2.543940 -0.170330 -0.923640 -0.051213 0.124058
    40 0.024032 -1.129042 0.017807 -0.663804 0.000000 0.000001
    41 0.014898 -0.883989 -0.019848 -0.319901 0.000000 0.000000
    42 -0.586770 -1.264477 0.200161 -0.671532 -0.936606 -2.190762
    43 1.522835 0.058681 0.016848 0.001410 0.008985 0.139420
    44 1.117947 0.048424 -0.005766 -0.013402 -0.021351 0.616699
    45 -0.139399 -0.111698 0.014397 0.358632 0.302122 1.681023
    46 -3.069302 9.975931 -0.063646 1.600650 -0.000912 -1.380786
  time 25
    0 12.316782 23.213286 0.049415 -2.918032 -0.236371 0.719987
    1 1.722709 -19.916066 -3.773882 -0.132109 3.416670 0.464148
    2 12.144901 11.396547 -33.278689 -4.986352 -0.177236 -2.765681
    3 22.500686 15.448478 -35.154785 -4.986352 -0.177236 -2.765681
    4 89.735512 111.904655 24.833182 1.570796 -1.396264 -1.570793
    5 29.997329 60.094687 12.866671 -2.829431 -0.088422 0.186744
    6 0.000004 0.063444 0.000021 0.000000 0.000000 0.000000
    7 -42.359509 -4.725811 -10.784075 -0.873495 2.881110 1.272517
    8 -2.424590 -0.002752 -3.503394 0.000000 0.000000 1.570796
    9 15.091530 -10.229452 0.184618 0.393908 2.731309 0.949699
    10 1.780633 9.129783 0.322864 1.432974 3.078292 1.531748
    11 -0.071921 -8.498736 -0.104134 -0.155776 -0.012464 -1.031388
    12 -0.488518 -2.755602 -0.228260 -0.735967 0.051942 -0.186015
    13 0.039887 -1.479790 0.029854 -1.719815 0.000000 0.000001
    14 0.028786 -1.075731 -0.023109 -0.692266 0.000000 0.000000
    15 0.250027 -2.820665 -0.238396 -0.303486 0.002724 -0.033851
    16 -0.049759 -1.680544 0.100479 -1.708145 0.000000 -0.000002
    17 -0.034142 -1.148312 0.084782 -1.055176 0.000000 0.000000
    18 0.957766 -2.746780 -0.090302 0.017864 -0.082532 0.013527
    19 -0.033420 -1.397129 -0.011257 -1.114135 0.000000 -0.000001
    20 -0.022360 -0.957436 0.018784 -0.956454 0.000000 0.000000
    21 -1.180681 -2.507217 -0.193859 -0.913873 0.146982 -0.194144
    22 -0.024967 -1.123934 0.017597 -1.141274 0.000000 0.000001
    23 -0.020057 -0.890968 0.010090 -1.247138 0.000000 0.000000
    24 0.583510 -1.197277 0.185379 0.417168 -0.658435 -0.967039
    25 1.535927 0.010246 0.005009 -0.002964 -0.012979 -0.208074
    26 1.100771 0.004527 -0.010679 -0.015068 0.005990 -1.016487
    27 -0.403300 -0.015113 -0.097459 3.071031 6.234565 -1.002224
    28 -17.168208 3.288531 -2.239633 -0.721927 -3.529721 -0.899538
    29 0.096944 -8.450418 -0.009365 0.020942 0.306284 -0.150012
    30 0.447953 -2.798986 -0.200443 -0.432940 0.007042 0.102403
    31 -0.032909 -1.480204 0.004940 -0.839318 0.000000 0.000002
    32 -0.027022 -1.076920 -0.020210 -0.608321 0.000000 0.000000
    33 -0.249534 -2.846964 -0.174213 -0.001330 -0.048123 0.037133
    34 0.043235 -1.683941 0.096012 -0.571439 0.002823 -0.000167
    35 0.031729 -1.160830 0.058838 -0.178227 0.000642 0.008372
    36 -0.963866 -2.785145 -0.085350 0.176060 0.163163 -0.073052
    37 0.028479 -1.403067 0.006271 -0.381699 0.000000 0.000000
    38 0.021413 -0.957781 0.020046 0.071792 0.000000 0.000000
    39 1.164475 -2.543940 -0.170330 -0.920880 -0.050518 0.124921
    40 0.024032 -1.129042 0.017807 -0.663804 0.000000 0.000001
    41 0.014898 -0.883989 -0.019848 -0.319901 0.000000 0.000000
    42 -0.586770 -1.264477 0.200161 -0.672985 -0.935571 -2.188918
    43 1.522835 0.058681 0.016848 0.001410 0.008985 0.139420
    44 1.117947 0.048424 -0.005766 -0.013402 -0.021351 0.616699
    45 -0.139399 -0.111698 0.014397 0.358632 0.302122 1.681023
    46 -3.069302 9.975931 -0.063646 1.600650 -0.000912 -1.380786
  time 26
    0 12.234748 23.244225 0.115823 -2.901366 -0.239557 0.724026
    1 1.722709 -19.916066 -3.773882 -0.132109 3.416670 0.464148
    2 12.144901 11.396547 -33.278689 -4.986352 -0.177236 -2.765681
    3 22.500686 15.448478 -35.154785 -4.986352 -0.177236 -2.765681
    4 89.735512 111.904655 24.833182 1.570796 -1.396264 -1.570793
    5 29.731696 60.079799 13.311997 -2.813808 -0.082970 0.193356
    6 0.000004 0.063444 0.000021 0.000000 0.000000 0.000000
    7 -42.359509 -4.725811 -10.784075 -0.873495 2.881110 1.272517
    8 -2.424590 -0.002752 -3.503394 0.000000 0.000000 1.570796
    9 15.091530 -10.217733 0.184618 0.396473 2.733667 0.958704
    10 1.780633 9.129783 0.322864 1.432974 3.078292 1.531748
    11 -0.071921 -8.498736 -0.104134 -0.139333 -0.017561 -1.026571
    12 -0.488518 -2.755602 -0.228260 -0.735967 0.051942 -0.186015
    13 0.039887 -1.479790 0.029854 -1.719815 0.000000 0.000001
    14 0.028786 -1.075731 -0.023109 -0.692266 0.000000 0.000000
    15 0.250027 -2.820665 -0.238396 -0.303486 0.002724 -0.033851
    16 -0.049759 -1.680544 0.100479 -1.708145 0.000000 -0.000002
    17 -0.034142 -1.148312 0.084782 -1.055176 0.000000 0.000000
    18 0.957766 -2.746780 -0.090302 0.017864 -0.082532 0.013527
    19 -0.033420 -1.397129 -0.011257 -1.114135 0.000000 -0.000001
    20 -0.022360 -0.957436 0.018784 -0.956454 0.000000 0.000000
    21 -1.180681 -2.507217 -0.193859 -0.913873 0.146982 -0.194144
    22 -0.024967 -1.123934 0.017597 -1.141274 0.000000 0.000001
    23 -0.020057 -0.890968 0.010090 -1.247138 0.000000 0.000000
    24 0.583510 -1.197277 0.185379 0.417168 -0.658435 -0.967039
    25 1.535927 0.010246 0.005009 -0.002964 -0.012979 -0.208074
    26 1.100771 0.004527 -0.010679 -0.015068 0.005990 -1.016487
    27 -0.403300 -0.015113 -0.097459 3.071031 6.234565 -1.002224
    28 -17.168208 3.288531 -2.239633 -0.721927 -3.529721 -0.899538
    29 0.096944 -8.450418 -0.009365 0.020786 0.305282 -0.149976
    30 0.447953 -2.798986 -0.200443 -0.432940 0.007042 0.102403
    31 -0.032909 -1.480204 0.004940 -0.837940 0.000000 0.000002
    32 -0.027022 -1.076920 -0.020210 -0.603583 0.000000 0.000000
    33 -0.249534 -2.846964 -0.174213 -0.003038 -0.047548 0.036594
    34 0.043235 -1.683941 0.096012 -0.573291 0.002823 -0.000167
    35 0.031729 -1.160830 0.058838 -0.181490 0.000642 0.008372
    36 -0.963866 -2.785145 -0.085350 0.171159 0.163163 -0.073052
    37 0.028479 -1.403067 0.006271 -0.381699 0.000000 0.000000
    38 0.021413 -0.957781 0.020046 0.071792 0.000000 0.000000
    39 1.164475 -2.543940 -0.170330 -0.918025 -0.049811 0.125808
    40 0.024032 -1.129042 0.017807 -0.663804 0.000000 0.000001
    41 0.014898 -0.883989 -0.019848 -0.319901 0.000000 0.000000
    42 -0.586770 -1.264477 0.200161 -0.674469 -0.934504 -2.186996
    43 1.522835 0.058681 0.016848 0.001410 0.008985 0.139420
    44 1.117947 0.048424 -0.005766 -0.013402 -0.021351 0.616699
    45 -0.139399 -0.111698 0.014397 0.358632 0.302122 1.681023
    46 -3.069302 9.975931 -0.063646 1.600650 -0.000912 -1.380786
  time 27
    0 12.168340 23.266325 0.190044 -2.884317 -0.243781 0.726085
    1 1.722709 -19.916066 -3.773882 -0.132109 3.416670 0.464148
    2 12.144901 11.396547 -33.278689 -4.986352 -0.177236 -2.765681
    3 22.500686 15.448478 -35.154785 -4.986352 -0.177236 -2.765681
    4 89.735512 111.904655 24.833182 1.570796 -1.396264 -1.570793
    5 29.544190 60.005357 13.808106 -2.797362 -0.078164 0.198183
    6 0.000004 0.063444 0.000021 0.000000 0.000000 0.000000
    7 -42.359509 -4.725811 -10.784075 -0.873495 2.881110 1.272517
    8 -2.424590 -0.002752 -3.503394 0.000000 0.000000 1.570796
    9 15.091530 -10.213826 0.184618 0.399609 2.736590 0.966331
    10 1.780633 9.129783 0.322864 1.432974 3.078292 1.531748
    11 -0.071921 -8.498736 -0.104134 -0.122083 -0.022428 -1.021587
    12 -0.488518 -2.755602 -0.228260 -0.735967 0.051942 -0.186015
    13 0.039887 -1.479790 0.029854 -1.719815 0.000000 0.000001
    14 0.028786 -1.075731 -0.023109 -0.692266 0.000000 0.000000
    15 0.250027 -2.820665 -0.238396 -0.303486 0.002724 -0.033851
    16 -0.049759 -1.680544 0.100479 -1.708145 0.000000 -0.000002
    17 -0.034142 -1.148312 0.084782 -1.055176 0.000000 0.000000
    18 0.957766 -2.746780 -0.090302 0.017864 -0.082532 0.013527
    19 -0.033420 -1.397129 -0.011257 -1.114135 0.000000 -0.000001
    20 -0.022360 -0.957436 0.018784 -0.956454 0.000000 0.000000
    21 -1.180681 -2.507217 -0.193859 -0.913873 0.146982 -0.194144
    22 -0.024967 -1.123934 0.017597 -1.141274 0.000000 0.000001
    23 -0.020057 -0.890968 0.010090 -1.247138 0.000000 0.000000
    24 0.583510 -1.197277 0.185379 0.417168 -0.658435 -0.967039
    25 1.535927 0.010246 0.005009 -0.002964 -0.012979 -0.208074
    26 1.100771 0.004527 -0.010679 -0.015068 0.005990 -1.016487
    27 -0.403300 -0.015113 -0.097459 3.071031 6.234565 -1.002224
    28 -17.168208 3.288531 -2.239633 -0.721927 -3.529721 -0.899538
    29 0.096944 -8.450418 -0.009365 0.020630 0.304249 -0.149940
    30 0.447953 -2.798986 -0.200443 -0.432940 0.007042 0.102403
    31 -0.032909 -1.480204 0.004940 -0.836520 0.000000 0.000002
    32 -0.027022 -1.076920 -0.020210 -0.598703 0.000000 0.000000
    33 -0.249534 -2.846964 -0.174213 -0.004790 -0.046973 0.036043
    34 0.043235 -1.683941 0.096012 -0.575213 0.002823 -0.000167
    35 0.031729 -1.160830 0.058838 -0.184855 0.000642 0.008372
    36 -0.963866 -2.785145 -0.085350 0.166113 0.163163 -0.073052
    37 0.028479 -1.403067 0.006271 -0.381699 0.000000 0.000000
    38 0.021413 -0.957781 0.020046 0.071792 0.000000 0.000000
    39 1.164475 -2.543940 -0.170330 -0.915076 -0.049080 0.126719
    40 0.024032 -1.129042 0.017807 -0.663804 0.000000 0.000001
    41 0.014898 -0.883989 -0.019848 -0.319901 0.000000 0.000000
    42 -0.586770 -1.264477 0.200161 -0.676018 -0.933403 -2.185036
    43 1.522835 0.058681 0.016848 0.001410 0.008985 0.139420
    44 1.117947 0.048424 -0.005766 -0.013402 -0.021351 0.616699
    45 -0.139399 -0.111698 0.014397 0.358632 0.302122 1.681023
    46 -3.069302 9.975931 -0.063646 1.600650 -0.000912 -1.380786
  time 28
    0 12.129276 23.266325 0.283797 -2.865926 -0.250706 0.724501
    1 1.722709 -19.916066 -3.773882 -0.132109 3.416670 0.464148
    2 12.144901 11.396547 -33.278689 -4.986352 -0.177236 -2.765681
    3 22.500686 15.448478 -35.154785 -4.986352 -0.177236 -2.765681
    4 89.735512 111.904655 24.833182 1.570796 -1.396264 -1.570793
    5 29.489501 59.806847 14.444844 -2.778449 -0.075207 0.199704
    6 0.000004 0.063444 0.000021 0.000000 0.000000 0.000000
    7 -42.359509 -4.725811 -10.784075 -0.873495 2.881110 1.272517
    8 -2.424590 -0.002752 -3.503394 0.000000 0.000000 1.570796
    9 15.091530 -10.213826 0.184618 0.405214 2.739514 0.971937
    10 1.780633 9.129783 0.322864 1.432974 3.078292 1.531748
    11 -0.071921 -8.498736 -0.104134 -0.103960 -0.027045 -1.016435
    12 -0.488518 -2.755602 -0.228260 -0.735967 0.051942 -0.186015
    13 0.039887 -1.479790 0.029854 -1.719815 0.000000 0.000001
    14 0.028786 -1.075731 -0.023109 -0.692266 0.000000 0.000000
    15 0.250027 -2.820665 -0.238396 -0.303486 0.002724 -0.033851
    16 -0.049759 -1.680544 0.100479 -1.708145 0.000000 -0.000002
    17 -0.034142 -1.148312 0.084782 -1.055176 0.000000 0.000000
    18 0.957766 -2.746780 -0.090302 0.017864 -0.082532 0.013527
    19 -0.033420 -1.397129 -0.011257 -1.114135 0.000000 -0.000001
    20 -0.022360 -0.957436 0.018784 -0.956454 0.000000 0.000000
    21 -1.180681 -2.507217 -0.193859 -0.913873 0.146982 -0.194144
    22 -0.024967 -1.123934 0.017597 -1.141274 0.000000 0.000001
    23 -0.020057 -0.890968 0.010090 -1.247138 0.000000 0.000000
    24 0.583510 -1.197277 0.185379 0.417168 -0.658435 -0.967039
    25 1.535927 0.010246 0.005009 -0.002964 -0.012979 -0.208074
    26 1.100771 0.004527 -0.010679 -0.015068 0.005990 -1.016487
    27 -0.403300 -0.015113 -0.097459 3.071031 6.234565 -1.002224
    28 -17.168208 3.288531 -2.239633 -0.721927 -3.529721 -0.899538
    29 0.096944 -8.450418 -0.009365 0.020462 0.303216 -0.149892
    30 0.447953 -2.798986 -0.200443 -0.432940 0.007042 0.102403
    31 -0.032909 -1.480204 0.004940 -0.835058 0.000000 0.000002
    32 -0.027022 -1.076920 -0.020210 -0.593700 0.000000 0.000000
    33 -0.249534 -2.846964 -0.174213 -0.006585 -0.046374 0.035480
    34 0.043235 -1.683941 0.096012 -0.577180 0.002823 -0.000167
    35 0.031729 -1.160830 0.058838 -0.188308 0.000642 0.008372
    36 -0.963866 -2.785145 -0.085350 0.160936 0.163163 -0.073052
    37 0.028479 -1.403067 0.006271 -0.381699 0.000000 0.000000
    38 0.021413 -0.957781 0.020046 0.071792 0.000000 0.000000
    39 1.164475 -2.543940 -0.170330 -0.912062 -0.048325 0.127653
    40 0.024032 -1.129042 0.017807 -0.663804 0.000000 0.000001
    41 0.014898 -0.883989 -0.019848 -0.319901 0.000000 0.000000
    42 -0.586770 -1.264477 0.200161 -0.677600 -0.932286 -2.183017
    43 1.522835 0.058681 0.016848 0.001410 0.008985 0.139420
    44 1.117947 0.048424 -0.005766 -0.013402 -0.021351 0.616699
    45 -0.139399 -0.111698 0.014397 0.358632 0.302122 1.681023
    46 -3.069302 9.975931 -0.063646 1.600650 -0.000912 -1.380786
  time 29
    0 12.109745 23.239805 0.412707 -2.845811 -0.261302 0.718878
    1 1.722709 -19.916066 -3.773882 -0.132109 3.416670 0.464148
    2 12.144901 11.396547 -33.278689 -4.986352 -0.177236 -2.765681
    3 22.500686 15.448478 -35.154785 -4.986352 -0.177236 -2.765681
    4 89.735512 111.904655 24.833182 1.570796 -1.396264 -1.570793
    5 29.559816 59.459454 15.276901 -2.756156 -0.074745 0.197456
    6 0.000004 0.063444 0.000021 0.000000 0.000000 0.000000
    7 -42.359509 -4.725811 -10.784075 -0.873495 2.881110 1.272517
    8 -2.424590 -0.002752 -3.503394 0.000000 0.000000 1.570796
    9 15.091530 -10.213826 0.184618 0.414526 2.742532 0.975796
    10 1.780633 9.129783 0.322864 1.432974 3.078292 1.531748
    11 -0.071921 -8.498736 -0.104134 -0.085008 -0.031357 -1.011083
    12 -0.488518 -2.755602 -0.228260 -0.735967 0.051942 -0.186015
    13 0.039887 -1.479790 0.029854 -1.719815 0.000000 0.000001
    14 0.028786 -1.075731 -0.023109 -0.692266 0.000000 0.000000
    15 0.250027 -2.820665 -0.238396 -0.303486 0.002724 -0.033851
    16 -0.049759 -1.680544 0.100479 -1.708145 0.000000 -0.000002
    17 -0.034142 -1.148312 0.084782 -1.055176 0.000000 0.000000
    18 0.957766 -2.746780 -0.090302 0.017864 -0.082532 0.013527
    19 -0.033420 -1.397129 -0.011257 -1.114135 0.000000 -0.000001
    20 -0.022360 -0.957436 0.018784 -0.956454 0.000000 0.000000
    21 -1.180681 -2.507217 -0.193859 -0.913873 0.146982 -0.194144
    22 -0.024967 -1.123934 0.017597 -1.141274 0.000000 0.000001
    23 -0.020057 -0.890968 0.010090 -1.247138 0.000000 0.000000
    24 0.583510 -1.197277 0.185379 0.417168 -0.658435 -0.967039
    25 1.535927 0.010246 0.005009 -0.002964 -0.012979 -0.208074
    26 1.100771 0.004527 -0.010679 -0.015068 0.005990 -1.016487
    27 -0.403300 -0.015113 -0.097459 3.071031 6.234565 -1.002224
    28 -17.168208 3.288531 -2.239633 -0.721927 -3.529721 -0.899538
    29 0.096944 -8.450418 -0.009365 0.020283 0.302120 -0.149856
    30 0.447953 -2.798986 -0.200443 -0.432940 0.007042 0.102403
    31 -0.032909 -1.480204 0.004940 -0.833555 0.000000 0.000002
    32 -0.027022 -1.076920 -0.020210 -0.588574 0.000000 0.000000
    33 -0.249534 -2.846964 -0.174213 -0.008424 -0.045762 0.034892
    34 0.043235 -1.683941 0.096012 -0.579193 0.002823 -0.000167
    35 0.031729 -1.160830 0.058838 -0.191863 0.000642 0.008372
    36 -0.963866 -2.785145 -0.085350 0.155615 0.163163 -0.073052
    37 0.028479 -1.403067 0.006271 -0.381699 0.000000 0.000000
    38 0.021413 -0.957781 0.020046 0.071792 0.000000 0.000000
    39 1.164475 -2.543940 -0.170330 -0.908954 -0.047558 0.128612
    40 0.024032 -1.129042 0.017807 -0.663804 0.000000 0.000001
    41 0.014898 -0.883989 -0.019848 -0.319901 0.000000 0.000000
    42 -0.586770 -1.264477 0.200161 -0.679214 -0.931120 -2.180940
    43 1.522835 0.058681 0.016848 0.001410 0.008985 0.139420
    44 1.117947 0.048424 -0.005766 -0.013402 -0.021351 0.616699
    45 -0.139399 -0.111698 0.014397 0.358632 0.302122 1.681023
    46 -3.069302 9.975931 -0.063646 1.600650 -0.000912 -1.380786
  time 30
    0 12.098025 23.200026 0.568962 -2.824930 -0.275083 0.710484
    1 1.722709 -19.916066 -3.773882 -0.132109 3.416670 0.464148
    2 12.144901 11.396547 -33.278689 -4.986352 -0.177236 -2.765681
    3 22.500686 15.448478 -35.154785 -4.986352 -0.177236 -2.765681
    4 89.735512 111.904655 24.833182 1.570796 -1.396264 -1.570793
    5 29.692632 58.997917 16.253493 -2.731853 -0.076593 0.192827
    6 0.000004 0.063444 0.000021 0.000000 0.000000 0.000000
    7 -42.359509 -4.725811 -10.784075 -0.873495 2.881110 1.272517
    8 -2.424590 -0.002752 -3.503394 0.000000 0.000000 1.570796
    9 15.091530 -10.217733 0.184618 0.426497 2.746399 0.978461
    10 1.780633 9.129783 0.322864 1.432974 3.078292 1.531748
    11 -0.071921 -8.498736 -0.104134 -0.065226 -0.035323 -1.005563
    12 -0.488518 -2.755602 -0.228260 -0.735967 0.051942 -0.186015
    13 0.039887 -1.479790 0.029854 -1.719815 0.000000 0.000001
    14 0.028786 -1.075731 -0.023109 -0.692266 0.000000 0.000000
    15 0.250027 -2.820665 -0.238396 -0.303486 0.002724 -0.033851
    16 -0.049759 -1.680544 0.100479 -1.708145 0.000000 -0.000002
    17 -0.034142 -1.148312 0.084782 -1.055176 0.000000 0.000000
    18 0.957766 -2.746780 -0.090302 0.017864 -0.082532 0.013527
    19 -0.033420 -1.397129 -0.011257 -1.114135 0.000000 -0.000001
    20 -0.022360 -0.957436 0.018784 -0.956454 0.000000 0.000000
    21 -1.180681 -2.507217 -0.193859 -0.913873 0.146982 -0.194144
    22 -0.024967 -1.123934 0.017597 -1.141274 0.000000 0.000001
    23 -0.020057 -0.890968 0.010090 -1.247138 0.000000 0.000000
    24 0.583510 -1.197277 0.185379 0.417168 -0.658435 -0.967039
    25 1.535927 0.010246 0.005009 -0.002964 -0.012979 -0.208074
    26 1.100771 0.004527 -0.010679 -0.015068 0.005990 -1.016487
    27 -0.403300 -0.015113 -0.097459 3.071031 6.234565 -1.002224
    28 -17.168208 3.288531 -2.239633 -0.721927 -3.529721 -0.899538
    29 0.096944 -8.450418 -0.009365 0.020115 0.301024 -0.149820
    30 0.447953 -2.798986 -0.200443 -0.432940 0.007042 0.102403
    31 -0.032909 -1.480204 0.004940 -0.832010 0.000000 0.000002
    32 -0.027022 -1.076920 -0.020210 -0.583326 0.000000 0.000000
    33 -0.249534 -2.846964 -0.174213 -0.010327 -0.045139 0.034305
    34 0.043235 -1.683941 0.096012 -0.581274 0.002823 -0.000167
    35 0.031729 -1.160830 0.058838 -0.195494 0.000642 0.008372
    36 -0.963866 -2.785145 -0.085350 0.150162 0.163163 -0.073052
    37 0.028479 -1.403067 0.006271 -0.381699 0.000000 0.000000
    38 0.021413 -0.957781 0.020046 0.071792 0.000000 0.000000
    39 1.164475 -2.543940 -0.170330 -0.905782 -0.046767 0.129595
    40 0.024032 -1.129042 0.017807 -0.663804 0.000000 0.000001
    41 0.014898 -0.883989 -0.019848 -0.319901 0.000000 0.000000
    42 -0.586770 -1.264477 0.200161 -0.680876 -0.929937 -2.178825
    43 1.522835 0.058681 0.016848 0.001410 0.008985 0.139420
    44 1.117947 0.048424 -0.005766 -0.013402 -0.021351 0.616699
    45 -0.139399 -0.111698 0.014397 0.358632 0.302122 1.681023
    46 -3.069302 9.975931 -0.063646 1.600650 -0.000912 -1.380786
end
