"UnLitGeneric"
{
	$basetexture	"models\weapons\tfa_cso\wa2000gs\$20@003wa2000gs_v"
	$bumpmap "models\weapons\tfa_cso\wa2000gs\$20@003wa2000gs_v_n"
	$phongexponenttexture "models\weapons\v_models\Request CSO\Dragon TMP S"
	$selfillum "1"
	$phong "1"
	$phongexponent "20"
	$phongfresnelranges "[0.15 0.65 1.00]"
	$phongalbedotint "1"
	$phongboost "32"
	
	"$basetexturealphaenvmapmask"    "1"
    "$envmap"            "env_cubemap"
    "$envmaptint"            "[ 2 1 0 ]"
    "$envmapfresnel"            "1"
}