version 1
nodes
  0 "Bone_Root" -1
  1 "Bone01" 0
  2 "Bone_Lefthand" 1
  3 "Kriss_root_L" 2
  4 "trigger_L" 3
  5 "magazine_L" 3
  6 "load_L" 3
  7 "Bone04" 0
  8 "Bone_Righthand" 7
  9 "Kriss_root_R" 8
  10 "trigger_R" 9
  11 "magazine_R" 9
  12 "load_R" 9
  13 "Bone39" 8
  14 "Bone40" 13
  15 "Bone41" 14
  16 "Bone35" 8
  17 "Bone36" 16
  18 "Bone37" 17
  19 "Bone31" 8
  20 "Bone32" 19
  21 "Bone33" 20
  22 "Bone43" 8
  23 "Bone44" 22
  24 "Bone45" 23
  25 "Bone27" 8
  26 "Bone28" 25
  27 "Bone29" 26
  28 "Bone_Se_Hand-R" 8
  29 "Bone13" 2
  30 "Bone14" 29
  31 "Bone15" 30
  32 "Bone17" 2
  33 "Bone18" 32
  34 "Bone19" 33
  35 "Bone21" 2
  36 "Bone22" 35
  37 "Bone23" 36
  38 "Bone09" 2
  39 "Bone10" 38
  40 "Bone11" 39
  41 "Bone05" 2
  42 "Bone06" 41
  43 "Bone07" 42
  44 "Bone_Se_Hand-L" 2
end
skeleton
  time 0
    0 0.000000 0.000000 0.000000 0.000000 0.000000 0.000000
    1 8.998408 5.728283 -6.947295 0.768969 -1.860599 -0.977774
    2 -0.071918 -8.498731 -0.104136 0.233254 0.229971 0.027310
    3 1.848777 -3.361525 0.930295 -0.002021 0.003529 2.672105
    4 0.082600 1.146644 0.000000 0.000000 0.000000 0.063337
    5 -0.795048 6.628532 0.000002 0.000001 0.000000 -0.047613
    6 -1.846357 7.578959 0.739989 0.000000 -0.000001 1.835736
    7 -8.998459 5.728283 -6.947295 0.737161 1.870910 0.920649
    8 0.096944 -8.450417 -0.009364 0.225935 -0.242945 -0.016551
    9 -1.923800 -3.381275 1.088828 -3.159658 0.004021 0.461093
    10 0.082600 1.146644 0.000000 0.000000 0.000000 0.063337
    11 -0.795048 6.628532 0.000003 0.000001 0.000000 -0.047613
    12 -1.846356 7.578958 0.739990 0.000000 -0.000001 1.835736
    13 0.447952 -2.798983 -0.200442 -1.289000 0.073436 0.289327
    14 -0.032910 -1.480206 0.004936 -1.189832 0.000000 0.000002
    15 -0.027022 -1.076919 -0.020212 -1.132336 0.000000 0.000000
    16 -0.249534 -2.846962 -0.174215 -1.181249 -0.010959 0.253180
    17 0.043235 -1.683940 0.096014 -1.376463 0.002823 -0.000167
    18 0.031729 -1.160831 0.058836 -1.261911 0.000642 0.008372
    19 -0.963866 -2.785142 -0.085346 -0.221133 0.074585 0.071481
    20 0.028479 -1.403069 0.006271 -0.422375 0.000000 0.000000
    21 0.021413 -0.957782 0.020047 -1.218611 0.008569 0.008126
    22 1.164474 -2.543938 -0.170328 -1.066547 -0.036904 0.165177
    23 0.024033 -1.129042 0.017806 -1.065271 0.000000 0.000001
    24 0.014896 -0.883989 -0.019845 -0.846175 0.000000 0.000000
    25 -0.586770 -1.264475 0.200164 -0.233000 -0.925248 -2.688570
    26 1.522835 0.058681 0.016850 -0.434910 -0.252805 1.087584
    27 1.117948 0.048424 -0.005764 -0.016374 -0.019158 0.763687
    28 -0.139399 -0.111697 0.014397 0.285382 -0.030687 1.580508
    29 -0.488517 -2.755600 -0.228261 -1.376484 -0.075298 -0.281316
    30 0.039888 -1.479789 0.029853 -0.928046 0.000000 0.000000
    31 0.028786 -1.075730 -0.023111 -1.481385 0.000000 0.000000
    32 0.250028 -2.820664 -0.238396 -1.075893 -0.014906 -0.312588
    33 -0.049759 -1.680545 0.100480 -1.463660 0.000000 -0.000002
    34 -0.034141 -1.148312 0.084779 -1.087281 0.000000 0.000000
    35 0.957766 -2.746776 -0.090301 -0.143359 -0.206189 -0.071012
    36 -0.033419 -1.397128 -0.011255 -0.779080 0.124808 -0.122316
    37 -0.022361 -0.957434 0.018783 -1.043321 0.000000 0.000000
    38 -1.180680 -2.507215 -0.193861 -1.224952 -0.001292 -0.303995
    39 -0.024966 -1.123935 0.017594 -0.977967 0.000000 0.000001
    40 -0.020057 -0.890966 0.010091 -0.933434 0.000000 0.000000
    41 0.583510 -1.197274 0.185377 0.272542 -1.003481 -0.533089
    42 1.535926 0.010244 0.005008 0.440185 -0.138732 -1.296648
    43 1.100770 0.004526 -0.010676 -0.011449 0.011491 -0.607431
    44 0.120152 -0.050266 -0.054488 0.287568 3.110905 1.561085
  time 1
    0 0.000000 0.000000 0.000000 0.000000 0.000000 0.000000
    1 8.998408 5.728283 -6.947295 0.768969 -1.860599 -0.977774
    2 -0.071918 -8.498731 -0.104136 0.233254 0.229971 0.027310
    3 1.848777 -3.361525 0.930295 -0.002021 0.003529 2.672105
    4 0.082600 1.146644 0.000000 0.000000 0.000000 0.063337
    5 -0.795048 6.628532 0.000002 0.000001 0.000000 -0.047613
    6 -1.846357 7.578959 0.739989 0.000000 -0.000001 1.835736
    7 -8.998459 6.642373 -6.947295 0.737161 1.870910 0.920649
    8 0.096944 -8.450417 -0.009364 0.219495 -0.249915 0.018549
    9 -1.923800 -3.381275 1.088828 -3.159658 0.004021 0.461093
    10 0.203697 0.740382 0.000000 0.000000 0.000000 0.063337
    11 -0.795048 6.628532 0.000003 0.000001 0.000000 -0.047613
    12 -1.283839 5.504676 0.739990 0.000000 -0.000001 1.835736
    13 0.447952 -2.798983 -0.200442 -1.289000 0.073436 0.289327
    14 -0.032910 -1.480206 0.004936 -1.189832 0.000000 0.000002
    15 -0.027022 -1.076919 -0.020212 -1.132336 0.000000 0.000000
    16 -0.249534 -2.846962 -0.174215 -1.181249 -0.010959 0.253180
    17 0.043235 -1.683940 0.096014 -1.376463 0.002823 -0.000167
    18 0.031729 -1.160831 0.058836 -1.261911 0.000642 0.008372
    19 -0.963866 -2.785142 -0.085346 -0.221133 0.074585 0.071481
    20 0.028479 -1.403069 0.006271 -0.945990 0.000000 0.000000
    21 0.021413 -0.957782 0.020047 -1.218611 0.008569 0.008126
    22 1.164474 -2.543938 -0.170328 -1.066547 -0.036904 0.165177
    23 0.024033 -1.129042 0.017806 -1.065271 0.000000 0.000001
    24 0.014896 -0.883989 -0.019845 -0.846175 0.000000 0.000000
    25 -0.586770 -1.264475 0.200164 -0.233000 -0.925248 -2.688570
    26 1.522835 0.058681 0.016850 -0.434910 -0.252805 1.087584
    27 1.117948 0.048424 -0.005764 -0.016374 -0.019158 0.763687
    28 -0.139399 -0.111697 0.014397 0.285382 -0.030687 1.580508
    29 -0.488517 -2.755600 -0.228261 -1.376484 -0.075298 -0.281316
    30 0.039888 -1.479789 0.029853 -0.928046 0.000000 0.000000
    31 0.028786 -1.075730 -0.023111 -1.481385 0.000000 0.000000
    32 0.250028 -2.820664 -0.238396 -1.075893 -0.014906 -0.312588
    33 -0.049759 -1.680545 0.100480 -1.463660 0.000000 -0.000002
    34 -0.034141 -1.148312 0.084779 -1.087281 0.000000 0.000000
    35 0.957766 -2.746776 -0.090301 -0.143359 -0.206189 -0.071012
    36 -0.033419 -1.397128 -0.011255 -0.779080 0.124808 -0.122316
    37 -0.022361 -0.957434 0.018783 -1.043321 0.000000 0.000000
    38 -1.180680 -2.507215 -0.193861 -1.224952 -0.001292 -0.303995
    39 -0.024966 -1.123935 0.017594 -0.977967 0.000000 0.000001
    40 -0.020057 -0.890966 0.010091 -0.933434 0.000000 0.000000
    41 0.583510 -1.197274 0.185377 0.272542 -1.003481 -0.533089
    42 1.535926 0.010244 0.005008 0.440185 -0.138732 -1.296648
    43 1.100770 0.004526 -0.010676 -0.011449 0.011491 -0.607431
    44 0.120152 -0.050266 -0.054488 0.287568 3.110905 1.561085
  time 2
    0 0.000000 0.000000 0.000000 0.000000 0.000000 0.000000
    1 8.998408 5.728283 -6.947295 0.768969 -1.860599 -0.977774
    2 -0.071918 -8.498731 -0.104136 0.233254 0.229971 0.027310
    3 1.848777 -3.361525 0.930295 -0.002021 0.003529 2.672105
    4 0.082600 1.146644 0.000000 0.000000 0.000000 0.063337
    5 -0.795048 6.628532 0.000002 0.000001 0.000000 -0.047613
    6 -1.846357 7.578959 0.739989 0.000000 -0.000001 1.835736
    7 -8.998459 6.622841 -6.947295 0.737161 1.870910 0.920649
    8 0.096944 -8.450417 -0.009364 0.222842 -0.246173 -0.000043
    9 -1.923800 -3.381275 1.088828 -3.159658 0.004021 0.461093
    10 0.195885 0.752101 0.000000 0.000000 0.000000 0.063337
    11 -0.795048 6.628532 0.000003 0.000001 0.000000 -0.047613
    12 -1.373685 5.828905 0.739990 0.000000 -0.000001 1.835736
    13 0.447952 -2.798983 -0.200442 -1.289000 0.073436 0.289327
    14 -0.032910 -1.480206 0.004936 -1.189832 0.000000 0.000002
    15 -0.027022 -1.076919 -0.020212 -1.132336 0.000000 0.000000
    16 -0.249534 -2.846962 -0.174215 -1.181249 -0.010959 0.253180
    17 0.043235 -1.683940 0.096014 -1.376463 0.002823 -0.000167
    18 0.031729 -1.160831 0.058836 -1.261911 0.000642 0.008372
    19 -0.963866 -2.785142 -0.085346 -0.221133 0.074585 0.071481
    20 0.028479 -1.403069 0.006271 -0.928032 0.000000 0.000000
    21 0.021413 -0.957782 0.020047 -1.218611 0.008569 0.008126
    22 1.164474 -2.543938 -0.170328 -1.066547 -0.036904 0.165177
    23 0.024033 -1.129042 0.017806 -1.065271 0.000000 0.000001
    24 0.014896 -0.883989 -0.019845 -0.846175 0.000000 0.000000
    25 -0.586770 -1.264475 0.200164 -0.233000 -0.925248 -2.688570
    26 1.522835 0.058681 0.016850 -0.434910 -0.252805 1.087584
    27 1.117948 0.048424 -0.005764 -0.016374 -0.019158 0.763687
    28 -0.139399 -0.111697 0.014397 0.285382 -0.030687 1.580508
    29 -0.488517 -2.755600 -0.228261 -1.376484 -0.075298 -0.281316
    30 0.039888 -1.479789 0.029853 -0.928046 0.000000 0.000000
    31 0.028786 -1.075730 -0.023111 -1.481385 0.000000 0.000000
    32 0.250028 -2.820664 -0.238396 -1.075893 -0.014906 -0.312588
    33 -0.049759 -1.680545 0.100480 -1.463660 0.000000 -0.000002
    34 -0.034141 -1.148312 0.084779 -1.087281 0.000000 0.000000
    35 0.957766 -2.746776 -0.090301 -0.143359 -0.206189 -0.071012
    36 -0.033419 -1.397128 -0.011255 -0.779080 0.124808 -0.122316
    37 -0.022361 -0.957434 0.018783 -1.043321 0.000000 0.000000
    38 -1.180680 -2.507215 -0.193861 -1.224952 -0.001292 -0.303995
    39 -0.024966 -1.123935 0.017594 -0.977967 0.000000 0.000001
    40 -0.020057 -0.890966 0.010091 -0.933434 0.000000 0.000000
    41 0.583510 -1.197274 0.185377 0.272542 -1.003481 -0.533089
    42 1.535926 0.010244 0.005008 0.440185 -0.138732 -1.296648
    43 1.100770 0.004526 -0.010676 -0.011449 0.011491 -0.607431
    44 0.120152 -0.050266 -0.054488 0.287568 3.110905 1.561085
  time 3
    0 0.000000 0.000000 0.000000 0.000000 0.000000 0.000000
    1 8.998408 5.728283 -6.947295 0.768969 -1.860599 -0.977774
    2 -0.071918 -8.498731 -0.104136 0.233254 0.229971 0.027310
    3 1.848777 -3.361525 0.930295 -0.002021 0.003529 2.672105
    4 0.082600 1.146644 0.000000 0.000000 0.000000 0.063337
    5 -0.795048 6.628532 0.000002 0.000001 0.000000 -0.047613
    6 -1.846357 7.578959 0.739989 0.000000 -0.000001 1.835736
    7 -8.998459 6.564246 -6.935576 0.737161 1.870910 0.920649
    8 0.096944 -8.450417 -0.009364 0.229028 -0.239156 -0.034523
    9 -1.923800 -3.381275 1.088828 -3.159658 0.004021 0.461093
    10 0.188072 0.791164 0.000000 0.000000 0.000000 0.063337
    11 -0.795048 6.628532 0.000003 0.000001 0.000000 -0.047613
    12 -1.565097 6.543770 0.739990 0.000000 -0.000001 1.835736
    13 0.447952 -2.798983 -0.200442 -1.289000 0.073436 0.289327
    14 -0.032910 -1.480206 0.004936 -1.189832 0.000000 0.000002
    15 -0.027022 -1.076919 -0.020212 -1.132336 0.000000 0.000000
    16 -0.249534 -2.846962 -0.174215 -1.181249 -0.010959 0.253180
    17 0.043235 -1.683940 0.096014 -1.376463 0.002823 -0.000167
    18 0.031729 -1.160831 0.058836 -1.261911 0.000642 0.008372
    19 -0.963866 -2.785142 -0.085346 -0.221133 0.074585 0.071481
    20 0.028479 -1.403069 0.006271 -0.879901 0.000000 0.000000
    21 0.021413 -0.957782 0.020047 -1.218611 0.008569 0.008126
    22 1.164474 -2.543938 -0.170328 -1.066547 -0.036904 0.165177
    23 0.024033 -1.129042 0.017806 -1.065271 0.000000 0.000001
    24 0.014896 -0.883989 -0.019845 -0.846175 0.000000 0.000000
    25 -0.586770 -1.264475 0.200164 -0.233000 -0.925248 -2.688570
    26 1.522835 0.058681 0.016850 -0.434910 -0.252805 1.087584
    27 1.117948 0.048424 -0.005764 -0.016374 -0.019158 0.763687
    28 -0.139399 -0.111697 0.014397 0.285382 -0.030687 1.580508
    29 -0.488517 -2.755600 -0.228261 -1.376484 -0.075298 -0.281316
    30 0.039888 -1.479789 0.029853 -0.928046 0.000000 0.000000
    31 0.028786 -1.075730 -0.023111 -1.481385 0.000000 0.000000
    32 0.250028 -2.820664 -0.238396 -1.075893 -0.014906 -0.312588
    33 -0.049759 -1.680545 0.100480 -1.463660 0.000000 -0.000002
    34 -0.034141 -1.148312 0.084779 -1.087281 0.000000 0.000000
    35 0.957766 -2.746776 -0.090301 -0.143359 -0.206189 -0.071012
    36 -0.033419 -1.397128 -0.011255 -0.779080 0.124808 -0.122316
    37 -0.022361 -0.957434 0.018783 -1.043321 0.000000 0.000000
    38 -1.180680 -2.507215 -0.193861 -1.224952 -0.001292 -0.303995
    39 -0.024966 -1.123935 0.017594 -0.977967 0.000000 0.000001
    40 -0.020057 -0.890966 0.010091 -0.933434 0.000000 0.000000
    41 0.583510 -1.197274 0.185377 0.272542 -1.003481 -0.533089
    42 1.535926 0.010244 0.005008 0.440185 -0.138732 -1.296648
    43 1.100770 0.004526 -0.010676 -0.011449 0.011491 -0.607431
    44 0.120152 -0.050266 -0.054488 0.287568 3.110905 1.561085
  time 4
    0 0.000000 0.000000 0.000000 0.000000 0.000000 0.000000
    1 8.998408 5.728283 -6.947295 0.768969 -1.860599 -0.977774
    2 -0.071918 -8.498731 -0.104136 0.233254 0.229971 0.027310
    3 1.848777 -3.361525 0.930295 -0.002021 0.003529 2.672105
    4 0.082600 1.146644 0.000000 0.000000 0.000000 0.063337
    5 -0.795048 6.628532 0.000002 0.000001 0.000000 -0.047613
    6 -1.846357 7.578959 0.739989 0.000000 -0.000001 1.835736
    7 -8.998459 6.474399 -6.919951 0.737161 1.870910 0.920649
    8 0.096944 -8.450417 -0.009364 0.232374 -0.235414 -0.053116
    9 -1.923800 -3.381275 1.088828 -3.159658 0.004021 0.461093
    10 0.172446 0.845854 0.000000 0.000000 0.000000 0.063337
    11 -0.795048 6.628532 0.000003 0.000001 0.000000 -0.047613
    12 -1.760416 7.254729 0.739990 0.000000 -0.000001 1.835736
    13 0.447952 -2.798983 -0.200442 -1.289000 0.073436 0.289327
    14 -0.032910 -1.480206 0.004936 -1.189832 0.000000 0.000002
    15 -0.027022 -1.076919 -0.020212 -1.132336 0.000000 0.000000
    16 -0.249534 -2.846962 -0.174215 -1.181249 -0.010959 0.253180
    17 0.043235 -1.683940 0.096014 -1.376463 0.002823 -0.000167
    18 0.031729 -1.160831 0.058836 -1.261911 0.000642 0.008372
    19 -0.963866 -2.785142 -0.085346 -0.221133 0.074585 0.071481
    20 0.028479 -1.403069 0.006271 -0.810238 0.000000 0.000000
    21 0.021413 -0.957782 0.020047 -1.218611 0.008569 0.008126
    22 1.164474 -2.543938 -0.170328 -1.066547 -0.036904 0.165177
    23 0.024033 -1.129042 0.017806 -1.065271 0.000000 0.000001
    24 0.014896 -0.883989 -0.019845 -0.846175 0.000000 0.000000
    25 -0.586770 -1.264475 0.200164 -0.233000 -0.925248 -2.688570
    26 1.522835 0.058681 0.016850 -0.434910 -0.252805 1.087584
    27 1.117948 0.048424 -0.005764 -0.016374 -0.019158 0.763687
    28 -0.139399 -0.111697 0.014397 0.285382 -0.030687 1.580508
    29 -0.488517 -2.755600 -0.228261 -1.376484 -0.075298 -0.281316
    30 0.039888 -1.479789 0.029853 -0.928046 0.000000 0.000000
    31 0.028786 -1.075730 -0.023111 -1.481385 0.000000 0.000000
    32 0.250028 -2.820664 -0.238396 -1.075893 -0.014906 -0.312588
    33 -0.049759 -1.680545 0.100480 -1.463660 0.000000 -0.000002
    34 -0.034141 -1.148312 0.084779 -1.087281 0.000000 0.000000
    35 0.957766 -2.746776 -0.090301 -0.143359 -0.206189 -0.071012
    36 -0.033419 -1.397128 -0.011255 -0.779080 0.124808 -0.122316
    37 -0.022361 -0.957434 0.018783 -1.043321 0.000000 0.000000
    38 -1.180680 -2.507215 -0.193861 -1.224952 -0.001292 -0.303995
    39 -0.024966 -1.123935 0.017594 -0.977967 0.000000 0.000001
    40 -0.020057 -0.890966 0.010091 -0.933434 0.000000 0.000000
    41 0.583510 -1.197274 0.185377 0.272542 -1.003481 -0.533089
    42 1.535926 0.010244 0.005008 0.440185 -0.138732 -1.296648
    43 1.100770 0.004526 -0.010676 -0.011449 0.011491 -0.607431
    44 0.120152 -0.050266 -0.054488 0.287568 3.110905 1.561085
  time 5
    0 0.000000 0.000000 0.000000 0.000000 0.000000 0.000000
    1 8.998408 5.728283 -6.947295 0.768969 -1.860599 -0.977774
    2 -0.071918 -8.498731 -0.104136 0.233254 0.229971 0.027310
    3 1.848777 -3.361525 0.930295 -0.002021 0.003529 2.672105
    4 0.082600 1.146644 0.000000 0.000000 0.000000 0.063337
    5 -0.795048 6.628532 0.000002 0.000001 0.000000 -0.047613
    6 -1.846357 7.578959 0.739989 0.000000 -0.000001 1.835736
    7 -8.998459 6.368927 -6.900419 0.737161 1.870910 0.920649
    8 0.096944 -8.450417 -0.009364 0.231867 -0.235975 -0.050411
    9 -1.923800 -3.381275 1.088828 -3.159658 0.004021 0.461093
    10 0.152915 0.908355 0.000000 0.000000 0.000000 0.063337
    11 -0.795048 6.628532 0.000003 0.000001 0.000000 -0.047613
    12 -1.846356 7.578958 0.739990 0.000000 -0.000001 1.835736
    13 0.447952 -2.798983 -0.200442 -1.289000 0.073436 0.289327
    14 -0.032910 -1.480206 0.004936 -1.189832 0.000000 0.000002
    15 -0.027022 -1.076919 -0.020212 -1.132336 0.000000 0.000000
    16 -0.249534 -2.846962 -0.174215 -1.181249 -0.010959 0.253180
    17 0.043235 -1.683940 0.096014 -1.376463 0.002823 -0.000167
    18 0.031729 -1.160831 0.058836 -1.261911 0.000642 0.008372
    19 -0.963866 -2.785142 -0.085346 -0.221133 0.074585 0.071481
    20 0.028479 -1.403069 0.006271 -0.727627 0.000000 0.000000
    21 0.021413 -0.957782 0.020047 -1.218611 0.008569 0.008126
    22 1.164474 -2.543938 -0.170328 -1.066547 -0.036904 0.165177
    23 0.024033 -1.129042 0.017806 -1.065271 0.000000 0.000001
    24 0.014896 -0.883989 -0.019845 -0.846175 0.000000 0.000000
    25 -0.586770 -1.264475 0.200164 -0.233000 -0.925248 -2.688570
    26 1.522835 0.058681 0.016850 -0.434910 -0.252805 1.087584
    27 1.117948 0.048424 -0.005764 -0.016374 -0.019158 0.763687
    28 -0.139399 -0.111697 0.014397 0.285382 -0.030687 1.580508
    29 -0.488517 -2.755600 -0.228261 -1.376484 -0.075298 -0.281316
    30 0.039888 -1.479789 0.029853 -0.928046 0.000000 0.000000
    31 0.028786 -1.075730 -0.023111 -1.481385 0.000000 0.000000
    32 0.250028 -2.820664 -0.238396 -1.075893 -0.014906 -0.312588
    33 -0.049759 -1.680545 0.100480 -1.463660 0.000000 -0.000002
    34 -0.034141 -1.148312 0.084779 -1.087281 0.000000 0.000000
    35 0.957766 -2.746776 -0.090301 -0.143359 -0.206189 -0.071012
    36 -0.033419 -1.397128 -0.011255 -0.779080 0.124808 -0.122316
    37 -0.022361 -0.957434 0.018783 -1.043321 0.000000 0.000000
    38 -1.180680 -2.507215 -0.193861 -1.224952 -0.001292 -0.303995
    39 -0.024966 -1.123935 0.017594 -0.977967 0.000000 0.000001
    40 -0.020057 -0.890966 0.010091 -0.933434 0.000000 0.000000
    41 0.583510 -1.197274 0.185377 0.272542 -1.003481 -0.533089
    42 1.535926 0.010244 0.005008 0.440185 -0.138732 -1.296648
    43 1.100770 0.004526 -0.010676 -0.011449 0.011491 -0.607431
    44 0.120152 -0.050266 -0.054488 0.287568 3.110905 1.561085
  time 6
    0 0.000000 0.000000 0.000000 0.000000 0.000000 0.000000
    1 8.998408 5.728283 -6.947295 0.768969 -1.860599 -0.977774
    2 -0.071918 -8.498731 -0.104136 0.233254 0.229971 0.027310
    3 1.848777 -3.361525 0.930295 -0.002021 0.003529 2.672105
    4 0.082600 1.146644 0.000000 0.000000 0.000000 0.063337
    5 -0.795048 6.628532 0.000002 0.000001 0.000000 -0.047613
    6 -1.846357 7.578959 0.739989 0.000000 -0.000001 1.835736
    7 -8.998459 6.247830 -6.876981 0.737161 1.870910 0.920649
    8 0.096944 -8.450417 -0.009364 0.230701 -0.237379 -0.043651
    9 -1.923800 -3.381275 1.088828 -3.159658 0.004021 0.461093
    10 0.129476 0.978670 0.000000 0.000000 0.000000 0.063337
    11 -0.795048 6.628532 0.000003 0.000001 0.000000 -0.047613
    12 -1.846356 7.578958 0.739990 0.000000 -0.000001 1.835736
    13 0.447952 -2.798983 -0.200442 -1.289000 0.073436 0.289327
    14 -0.032910 -1.480206 0.004936 -1.189832 0.000000 0.000002
    15 -0.027022 -1.076919 -0.020212 -1.132336 0.000000 0.000000
    16 -0.249534 -2.846962 -0.174215 -1.181249 -0.010959 0.253180
    17 0.043235 -1.683940 0.096014 -1.376463 0.002823 -0.000167
    18 0.031729 -1.160831 0.058836 -1.261911 0.000642 0.008372
    19 -0.963866 -2.785142 -0.085346 -0.221133 0.074585 0.071481
    20 0.028479 -1.403069 0.006271 -0.640709 0.000000 0.000000
    21 0.021413 -0.957782 0.020047 -1.218611 0.008569 0.008126
    22 1.164474 -2.543938 -0.170328 -1.066547 -0.036904 0.165177
    23 0.024033 -1.129042 0.017806 -1.065271 0.000000 0.000001
    24 0.014896 -0.883989 -0.019845 -0.846175 0.000000 0.000000
    25 -0.586770 -1.264475 0.200164 -0.233000 -0.925248 -2.688570
    26 1.522835 0.058681 0.016850 -0.434910 -0.252805 1.087584
    27 1.117948 0.048424 -0.005764 -0.016374 -0.019158 0.763687
    28 -0.139399 -0.111697 0.014397 0.285382 -0.030687 1.580508
    29 -0.488517 -2.755600 -0.228261 -1.376484 -0.075298 -0.281316
    30 0.039888 -1.479789 0.029853 -0.928046 0.000000 0.000000
    31 0.028786 -1.075730 -0.023111 -1.481385 0.000000 0.000000
    32 0.250028 -2.820664 -0.238396 -1.075893 -0.014906 -0.312588
    33 -0.049759 -1.680545 0.100480 -1.463660 0.000000 -0.000002
    34 -0.034141 -1.148312 0.084779 -1.087281 0.000000 0.000000
    35 0.957766 -2.746776 -0.090301 -0.143359 -0.206189 -0.071012
    36 -0.033419 -1.397128 -0.011255 -0.779080 0.124808 -0.122316
    37 -0.022361 -0.957434 0.018783 -1.043321 0.000000 0.000000
    38 -1.180680 -2.507215 -0.193861 -1.224952 -0.001292 -0.303995
    39 -0.024966 -1.123935 0.017594 -0.977967 0.000000 0.000001
    40 -0.020057 -0.890966 0.010091 -0.933434 0.000000 0.000000
    41 0.583510 -1.197274 0.185377 0.272542 -1.003481 -0.533089
    42 1.535926 0.010244 0.005008 0.440185 -0.138732 -1.296648
    43 1.100770 0.004526 -0.010676 -0.011449 0.011491 -0.607431
    44 0.120152 -0.050266 -0.054488 0.287568 3.110905 1.561085
  time 7
    0 0.000000 0.000000 0.000000 0.000000 0.000000 0.000000
    1 8.998408 5.728283 -6.947295 0.768969 -1.860599 -0.977774
    2 -0.071918 -8.498731 -0.104136 0.233254 0.229971 0.027310
    3 1.848777 -3.361525 0.930295 -0.002021 0.003529 2.672105
    4 0.082600 1.146644 0.000000 0.000000 0.000000 0.063337
    5 -0.795048 6.628532 0.000002 0.000001 0.000000 -0.047613
    6 -1.846357 7.578959 0.739989 0.000000 -0.000001 1.835736
    7 -8.998459 6.122826 -6.853542 0.737161 1.870910 0.920649
    8 0.096944 -8.450417 -0.009364 0.229129 -0.239156 -0.034861
    9 -1.923800 -3.381275 1.088828 -3.159658 0.004021 0.461093
    10 0.113851 1.041172 0.000000 0.000000 0.000000 0.063337
    11 -0.795048 6.628532 0.000003 0.000001 0.000000 -0.047613
    12 -1.846356 7.578958 0.739990 0.000000 -0.000001 1.835736
    13 0.447952 -2.798983 -0.200442 -1.289000 0.073436 0.289327
    14 -0.032910 -1.480206 0.004936 -1.189832 0.000000 0.000002
    15 -0.027022 -1.076919 -0.020212 -1.132336 0.000000 0.000000
    16 -0.249534 -2.846962 -0.174215 -1.181249 -0.010959 0.253180
    17 0.043235 -1.683940 0.096014 -1.376463 0.002823 -0.000167
    18 0.031729 -1.160831 0.058836 -1.261911 0.000642 0.008372
    19 -0.963866 -2.785142 -0.085346 -0.221133 0.074585 0.071481
    20 0.028479 -1.403069 0.006271 -0.558127 0.000000 0.000000
    21 0.021413 -0.957782 0.020047 -1.218611 0.008569 0.008126
    22 1.164474 -2.543938 -0.170328 -1.066547 -0.036904 0.165177
    23 0.024033 -1.129042 0.017806 -1.065271 0.000000 0.000001
    24 0.014896 -0.883989 -0.019845 -0.846175 0.000000 0.000000
    25 -0.586770 -1.264475 0.200164 -0.233000 -0.925248 -2.688570
    26 1.522835 0.058681 0.016850 -0.434910 -0.252805 1.087584
    27 1.117948 0.048424 -0.005764 -0.016374 -0.019158 0.763687
    28 -0.139399 -0.111697 0.014397 0.285382 -0.030687 1.580508
    29 -0.488517 -2.755600 -0.228261 -1.376484 -0.075298 -0.281316
    30 0.039888 -1.479789 0.029853 -0.928046 0.000000 0.000000
    31 0.028786 -1.075730 -0.023111 -1.481385 0.000000 0.000000
    32 0.250028 -2.820664 -0.238396 -1.075893 -0.014906 -0.312588
    33 -0.049759 -1.680545 0.100480 -1.463660 0.000000 -0.000002
    34 -0.034141 -1.148312 0.084779 -1.087281 0.000000 0.000000
    35 0.957766 -2.746776 -0.090301 -0.143359 -0.206189 -0.071012
    36 -0.033419 -1.397128 -0.011255 -0.779080 0.124808 -0.122316
    37 -0.022361 -0.957434 0.018783 -1.043321 0.000000 0.000000
    38 -1.180680 -2.507215 -0.193861 -1.224952 -0.001292 -0.303995
    39 -0.024966 -1.123935 0.017594 -0.977967 0.000000 0.000001
    40 -0.020057 -0.890966 0.010091 -0.933434 0.000000 0.000000
    41 0.583510 -1.197274 0.185377 0.272542 -1.003481 -0.533089
    42 1.535926 0.010244 0.005008 0.440185 -0.138732 -1.296648
    43 1.100770 0.004526 -0.010676 -0.011449 0.011491 -0.607431
    44 0.120152 -0.050266 -0.054488 0.287568 3.110905 1.561085
  time 8
    0 0.000000 0.000000 0.000000 0.000000 0.000000 0.000000
    1 8.998408 5.728283 -6.947295 0.768969 -1.860599 -0.977774
    2 -0.071918 -8.498731 -0.104136 0.233254 0.229971 0.027310
    3 1.848777 -3.361525 0.930295 -0.002021 0.003529 2.672105
    4 0.082600 1.146644 0.000000 0.000000 0.000000 0.063337
    5 -0.795048 6.628532 0.000002 0.000001 0.000000 -0.047613
    6 -1.846357 7.578959 0.739989 0.000000 -0.000001 1.835736
    7 -8.998459 6.001729 -6.834010 0.737161 1.870910 0.920649
    8 0.096944 -8.450417 -0.009364 0.227608 -0.240981 -0.026072
    9 -1.923800 -3.381275 1.088828 -3.159658 0.004021 0.461093
    10 0.094319 1.095861 0.000000 0.000000 0.000000 0.063337
    11 -0.795048 6.628532 0.000003 0.000001 0.000000 -0.047613
    12 -1.846356 7.578958 0.739990 0.000000 -0.000001 1.835736
    13 0.447952 -2.798983 -0.200442 -1.289000 0.073436 0.289327
    14 -0.032910 -1.480206 0.004936 -1.189832 0.000000 0.000002
    15 -0.027022 -1.076919 -0.020212 -1.132336 0.000000 0.000000
    16 -0.249534 -2.846962 -0.174215 -1.181249 -0.010959 0.253180
    17 0.043235 -1.683940 0.096014 -1.376463 0.002823 -0.000167
    18 0.031729 -1.160831 0.058836 -1.261911 0.000642 0.008372
    19 -0.963866 -2.785142 -0.085346 -0.221133 0.074585 0.071481
    20 0.028479 -1.403069 0.006271 -0.488464 0.000000 0.000000
    21 0.021413 -0.957782 0.020047 -1.218611 0.008569 0.008126
    22 1.164474 -2.543938 -0.170328 -1.066547 -0.036904 0.165177
    23 0.024033 -1.129042 0.017806 -1.065271 0.000000 0.000001
    24 0.014896 -0.883989 -0.019845 -0.846175 0.000000 0.000000
    25 -0.586770 -1.264475 0.200164 -0.233000 -0.925248 -2.688570
    26 1.522835 0.058681 0.016850 -0.434910 -0.252805 1.087584
    27 1.117948 0.048424 -0.005764 -0.016374 -0.019158 0.763687
    28 -0.139399 -0.111697 0.014397 0.285382 -0.030687 1.580508
    29 -0.488517 -2.755600 -0.228261 -1.376484 -0.075298 -0.281316
    30 0.039888 -1.479789 0.029853 -0.928046 0.000000 0.000000
    31 0.028786 -1.075730 -0.023111 -1.481385 0.000000 0.000000
    32 0.250028 -2.820664 -0.238396 -1.075893 -0.014906 -0.312588
    33 -0.049759 -1.680545 0.100480 -1.463660 0.000000 -0.000002
    34 -0.034141 -1.148312 0.084779 -1.087281 0.000000 0.000000
    35 0.957766 -2.746776 -0.090301 -0.143359 -0.206189 -0.071012
    36 -0.033419 -1.397128 -0.011255 -0.779080 0.124808 -0.122316
    37 -0.022361 -0.957434 0.018783 -1.043321 0.000000 0.000000
    38 -1.180680 -2.507215 -0.193861 -1.224952 -0.001292 -0.303995
    39 -0.024966 -1.123935 0.017594 -0.977967 0.000000 0.000001
    40 -0.020057 -0.890966 0.010091 -0.933434 0.000000 0.000000
    41 0.583510 -1.197274 0.185377 0.272542 -1.003481 -0.533089
    42 1.535926 0.010244 0.005008 0.440185 -0.138732 -1.296648
    43 1.100770 0.004526 -0.010676 -0.011449 0.011491 -0.607431
    44 0.120152 -0.050266 -0.054488 0.287568 3.110905 1.561085
  time 9
    0 0.000000 0.000000 0.000000 0.000000 0.000000 0.000000
    1 8.998408 5.728283 -6.947295 0.768969 -1.860599 -0.977774
    2 -0.071918 -8.498731 -0.104136 0.233254 0.229971 0.027310
    3 1.848777 -3.361525 0.930295 -0.002021 0.003529 2.672105
    4 0.082600 1.146644 0.000000 0.000000 0.000000 0.063337
    5 -0.795048 6.628532 0.000002 0.000001 0.000000 -0.047613
    6 -1.846357 7.578959 0.739989 0.000000 -0.000001 1.835736
    7 -8.998459 5.892350 -6.810572 0.737161 1.870910 0.920649
    8 0.096944 -8.450417 -0.009364 0.226391 -0.242384 -0.019255
    9 -1.923800 -3.381275 1.088828 -3.159658 0.004021 0.461093
    10 0.086506 1.134925 0.000000 0.000000 0.000000 0.063337
    11 -0.795048 6.628532 0.000003 0.000001 0.000000 -0.047613
    12 -1.846356 7.578958 0.739990 0.000000 -0.000001 1.835736
    13 0.447952 -2.798983 -0.200442 -1.289000 0.073436 0.289327
    14 -0.032910 -1.480206 0.004936 -1.189832 0.000000 0.000002
    15 -0.027022 -1.076919 -0.020212 -1.132336 0.000000 0.000000
    16 -0.249534 -2.846962 -0.174215 -1.181249 -0.010959 0.253180
    17 0.043235 -1.683940 0.096014 -1.376463 0.002823 -0.000167
    18 0.031729 -1.160831 0.058836 -1.261911 0.000642 0.008372
    19 -0.963866 -2.785142 -0.085346 -0.221133 0.074585 0.071481
    20 0.028479 -1.403069 0.006271 -0.440333 0.000000 0.000000
    21 0.021413 -0.957782 0.020047 -1.218611 0.008569 0.008126
    22 1.164474 -2.543938 -0.170328 -1.066547 -0.036904 0.165177
    23 0.024033 -1.129042 0.017806 -1.065271 0.000000 0.000001
    24 0.014896 -0.883989 -0.019845 -0.846175 0.000000 0.000000
    25 -0.586770 -1.264475 0.200164 -0.233000 -0.925248 -2.688570
    26 1.522835 0.058681 0.016850 -0.434910 -0.252805 1.087584
    27 1.117948 0.048424 -0.005764 -0.016374 -0.019158 0.763687
    28 -0.139399 -0.111697 0.014397 0.285382 -0.030687 1.580508
    29 -0.488517 -2.755600 -0.228261 -1.376484 -0.075298 -0.281316
    30 0.039888 -1.479789 0.029853 -0.928046 0.000000 0.000000
    31 0.028786 -1.075730 -0.023111 -1.481385 0.000000 0.000000
    32 0.250028 -2.820664 -0.238396 -1.075893 -0.014906 -0.312588
    33 -0.049759 -1.680545 0.100480 -1.463660 0.000000 -0.000002
    34 -0.034141 -1.148312 0.084779 -1.087281 0.000000 0.000000
    35 0.957766 -2.746776 -0.090301 -0.143359 -0.206189 -0.071012
    36 -0.033419 -1.397128 -0.011255 -0.779080 0.124808 -0.122316
    37 -0.022361 -0.957434 0.018783 -1.043321 0.000000 0.000000
    38 -1.180680 -2.507215 -0.193861 -1.224952 -0.001292 -0.303995
    39 -0.024966 -1.123935 0.017594 -0.977967 0.000000 0.000001
    40 -0.020057 -0.890966 0.010091 -0.933434 0.000000 0.000000
    41 0.583510 -1.197274 0.185377 0.272542 -1.003481 -0.533089
    42 1.535926 0.010244 0.005008 0.440185 -0.138732 -1.296648
    43 1.100770 0.004526 -0.010676 -0.011449 0.011491 -0.607431
    44 0.120152 -0.050266 -0.054488 0.287568 3.110905 1.561085
  time 10
    0 0.000000 0.000000 0.000000 0.000000 0.000000 0.000000
    1 8.998408 5.728283 -6.947295 0.768969 -1.860599 -0.977774
    2 -0.071918 -8.498731 -0.104136 0.233254 0.229971 0.027310
    3 1.848777 -3.361525 0.930295 -0.002021 0.003529 2.672105
    4 0.082600 1.146644 0.000000 0.000000 0.000000 0.063337
    5 -0.795048 6.628532 0.000002 0.000001 0.000000 -0.047613
    6 -1.846357 7.578959 0.739989 0.000000 -0.000001 1.835736
    7 -8.998459 5.806410 -6.794947 0.737161 1.870910 0.920649
    8 0.096944 -8.450417 -0.009364 0.225935 -0.242945 -0.016551
    9 -1.923800 -3.381275 1.088828 -3.159658 0.004021 0.461093
    10 0.082600 1.146644 0.000000 0.000000 0.000000 0.063337
    11 -0.795048 6.628532 0.000003 0.000001 0.000000 -0.047613
    12 -1.846356 7.578958 0.739990 0.000000 -0.000001 1.835736
    13 0.447952 -2.798983 -0.200442 -1.289000 0.073436 0.289327
    14 -0.032910 -1.480206 0.004936 -1.189832 0.000000 0.000002
    15 -0.027022 -1.076919 -0.020212 -1.132336 0.000000 0.000000
    16 -0.249534 -2.846962 -0.174215 -1.181249 -0.010959 0.253180
    17 0.043235 -1.683940 0.096014 -1.376463 0.002823 -0.000167
    18 0.031729 -1.160831 0.058836 -1.261911 0.000642 0.008372
    19 -0.963866 -2.785142 -0.085346 -0.221133 0.074585 0.071481
    20 0.028479 -1.403069 0.006271 -0.422375 0.000000 0.000000
    21 0.021413 -0.957782 0.020047 -1.218611 0.008569 0.008126
    22 1.164474 -2.543938 -0.170328 -1.066547 -0.036904 0.165177
    23 0.024033 -1.129042 0.017806 -1.065271 0.000000 0.000001
    24 0.014896 -0.883989 -0.019845 -0.846175 0.000000 0.000000
    25 -0.586770 -1.264475 0.200164 -0.233000 -0.925248 -2.688570
    26 1.522835 0.058681 0.016850 -0.434910 -0.252805 1.087584
    27 1.117948 0.048424 -0.005764 -0.016374 -0.019158 0.763687
    28 -0.139399 -0.111697 0.014397 0.285382 -0.030687 1.580508
    29 -0.488517 -2.755600 -0.228261 -1.376484 -0.075298 -0.281316
    30 0.039888 -1.479789 0.029853 -0.928046 0.000000 0.000000
    31 0.028786 -1.075730 -0.023111 -1.481385 0.000000 0.000000
    32 0.250028 -2.820664 -0.238396 -1.075893 -0.014906 -0.312588
    33 -0.049759 -1.680545 0.100480 -1.463660 0.000000 -0.000002
    34 -0.034141 -1.148312 0.084779 -1.087281 0.000000 0.000000
    35 0.957766 -2.746776 -0.090301 -0.143359 -0.206189 -0.071012
    36 -0.033419 -1.397128 -0.011255 -0.779080 0.124808 -0.122316
    37 -0.022361 -0.957434 0.018783 -1.043321 0.000000 0.000000
    38 -1.180680 -2.507215 -0.193861 -1.224952 -0.001292 -0.303995
    39 -0.024966 -1.123935 0.017594 -0.977967 0.000000 0.000001
    40 -0.020057 -0.890966 0.010091 -0.933434 0.000000 0.000000
    41 0.583510 -1.197274 0.185377 0.272542 -1.003481 -0.533089
    42 1.535926 0.010244 0.005008 0.440185 -0.138732 -1.296648
    43 1.100770 0.004526 -0.010676 -0.011449 0.011491 -0.607431
    44 0.120152 -0.050266 -0.054488 0.287568 3.110905 1.561085
  time 11
    0 0.000000 0.000000 0.000000 0.000000 0.000000 0.000000
    1 8.998408 5.728283 -6.947295 0.768969 -1.860599 -0.977774
    2 -0.071918 -8.498731 -0.104136 0.233254 0.229971 0.027310
    3 1.848777 -3.361525 0.930295 -0.002021 0.003529 2.672105
    4 0.082600 1.146644 0.000000 0.000000 0.000000 0.063337
    5 -0.795048 6.628532 0.000002 0.000001 0.000000 -0.047613
    6 -1.846357 7.578959 0.739989 0.000000 -0.000001 1.835736
    7 -8.998459 5.747815 -6.787134 0.737161 1.870910 0.920649
    8 0.096944 -8.450417 -0.009364 0.225935 -0.242945 -0.016551
    9 -1.923800 -3.381275 1.088828 -3.159658 0.004021 0.461093
    10 0.082600 1.146644 0.000000 0.000000 0.000000 0.063337
    11 -0.795048 6.628532 0.000003 0.000001 0.000000 -0.047613
    12 -1.846356 7.578958 0.739990 0.000000 -0.000001 1.835736
    13 0.447952 -2.798983 -0.200442 -1.289000 0.073436 0.289327
    14 -0.032910 -1.480206 0.004936 -1.189832 0.000000 0.000002
    15 -0.027022 -1.076919 -0.020212 -1.132336 0.000000 0.000000
    16 -0.249534 -2.846962 -0.174215 -1.181249 -0.010959 0.253180
    17 0.043235 -1.683940 0.096014 -1.376463 0.002823 -0.000167
    18 0.031729 -1.160831 0.058836 -1.261911 0.000642 0.008372
    19 -0.963866 -2.785142 -0.085346 -0.221133 0.074585 0.071481
    20 0.028479 -1.403069 0.006271 -0.422375 0.000000 0.000000
    21 0.021413 -0.957782 0.020047 -1.218611 0.008569 0.008126
    22 1.164474 -2.543938 -0.170328 -1.066547 -0.036904 0.165177
    23 0.024033 -1.129042 0.017806 -1.065271 0.000000 0.000001
    24 0.014896 -0.883989 -0.019845 -0.846175 0.000000 0.000000
    25 -0.586770 -1.264475 0.200164 -0.233000 -0.925248 -2.688570
    26 1.522835 0.058681 0.016850 -0.434910 -0.252805 1.087584
    27 1.117948 0.048424 -0.005764 -0.016374 -0.019158 0.763687
    28 -0.139399 -0.111697 0.014397 0.285382 -0.030687 1.580508
    29 -0.488517 -2.755600 -0.228261 -1.376484 -0.075298 -0.281316
    30 0.039888 -1.479789 0.029853 -0.928046 0.000000 0.000000
    31 0.028786 -1.075730 -0.023111 -1.481385 0.000000 0.000000
    32 0.250028 -2.820664 -0.238396 -1.075893 -0.014906 -0.312588
    33 -0.049759 -1.680545 0.100480 -1.463660 0.000000 -0.000002
    34 -0.034141 -1.148312 0.084779 -1.087281 0.000000 0.000000
    35 0.957766 -2.746776 -0.090301 -0.143359 -0.206189 -0.071012
    36 -0.033419 -1.397128 -0.011255 -0.779080 0.124808 -0.122316
    37 -0.022361 -0.957434 0.018783 -1.043321 0.000000 0.000000
    38 -1.180680 -2.507215 -0.193861 -1.224952 -0.001292 -0.303995
    39 -0.024966 -1.123935 0.017594 -0.977967 0.000000 0.000001
    40 -0.020057 -0.890966 0.010091 -0.933434 0.000000 0.000000
    41 0.583510 -1.197274 0.185377 0.272542 -1.003481 -0.533089
    42 1.535926 0.010244 0.005008 0.440185 -0.138732 -1.296648
    43 1.100770 0.004526 -0.010676 -0.011449 0.011491 -0.607431
    44 0.120152 -0.050266 -0.054488 0.287568 3.110905 1.561085
  time 12
    0 0.000000 0.000000 0.000000 0.000000 0.000000 0.000000
    1 8.998408 5.728283 -6.947295 0.768969 -1.860599 -0.977774
    2 -0.071918 -8.498731 -0.104136 0.233254 0.229971 0.027310
    3 1.848777 -3.361525 0.930295 -0.002021 0.003529 2.672105
    4 0.082600 1.146644 0.000000 0.000000 0.000000 0.063337
    5 -0.795048 6.628532 0.000002 0.000001 0.000000 -0.047613
    6 -1.846357 7.578959 0.739989 0.000000 -0.000001 1.835736
    7 -8.998459 5.728283 -6.783228 0.737161 1.870910 0.920649
    8 0.096944 -8.450417 -0.009364 0.225935 -0.242945 -0.016551
    9 -1.923800 -3.381275 1.088828 -3.159658 0.004021 0.461093
    10 0.082600 1.146644 0.000000 0.000000 0.000000 0.063337
    11 -0.795048 6.628532 0.000003 0.000001 0.000000 -0.047613
    12 -1.846356 7.578958 0.739990 0.000000 -0.000001 1.835736
    13 0.447952 -2.798983 -0.200442 -1.289000 0.073436 0.289327
    14 -0.032910 -1.480206 0.004936 -1.189832 0.000000 0.000002
    15 -0.027022 -1.076919 -0.020212 -1.132336 0.000000 0.000000
    16 -0.249534 -2.846962 -0.174215 -1.181249 -0.010959 0.253180
    17 0.043235 -1.683940 0.096014 -1.376463 0.002823 -0.000167
    18 0.031729 -1.160831 0.058836 -1.261911 0.000642 0.008372
    19 -0.963866 -2.785142 -0.085346 -0.221133 0.074585 0.071481
    20 0.028479 -1.403069 0.006271 -0.422375 0.000000 0.000000
    21 0.021413 -0.957782 0.020047 -1.218611 0.008569 0.008126
    22 1.164474 -2.543938 -0.170328 -1.066547 -0.036904 0.165177
    23 0.024033 -1.129042 0.017806 -1.065271 0.000000 0.000001
    24 0.014896 -0.883989 -0.019845 -0.846175 0.000000 0.000000
    25 -0.586770 -1.264475 0.200164 -0.233000 -0.925248 -2.688570
    26 1.522835 0.058681 0.016850 -0.434910 -0.252805 1.087584
    27 1.117948 0.048424 -0.005764 -0.016374 -0.019158 0.763687
    28 -0.139399 -0.111697 0.014397 0.285382 -0.030687 1.580508
    29 -0.488517 -2.755600 -0.228261 -1.376484 -0.075298 -0.281316
    30 0.039888 -1.479789 0.029853 -0.928046 0.000000 0.000000
    31 0.028786 -1.075730 -0.023111 -1.481385 0.000000 0.000000
    32 0.250028 -2.820664 -0.238396 -1.075893 -0.014906 -0.312588
    33 -0.049759 -1.680545 0.100480 -1.463660 0.000000 -0.000002
    34 -0.034141 -1.148312 0.084779 -1.087281 0.000000 0.000000
    35 0.957766 -2.746776 -0.090301 -0.143359 -0.206189 -0.071012
    36 -0.033419 -1.397128 -0.011255 -0.779080 0.124808 -0.122316
    37 -0.022361 -0.957434 0.018783 -1.043321 0.000000 0.000000
    38 -1.180680 -2.507215 -0.193861 -1.224952 -0.001292 -0.303995
    39 -0.024966 -1.123935 0.017594 -0.977967 0.000000 0.000001
    40 -0.020057 -0.890966 0.010091 -0.933434 0.000000 0.000000
    41 0.583510 -1.197274 0.185377 0.272542 -1.003481 -0.533089
    42 1.535926 0.010244 0.005008 0.440185 -0.138732 -1.296648
    43 1.100770 0.004526 -0.010676 -0.011449 0.011491 -0.607431
    44 0.120152 -0.050266 -0.054488 0.287568 3.110905 1.561085
  time 13
    0 0.000000 0.000000 0.000000 0.000000 0.000000 0.000000
    1 8.998408 5.728283 -6.947295 0.768969 -1.860599 -0.977774
    2 -0.071918 -8.498731 -0.104136 0.233254 0.229971 0.027310
    3 1.848777 -3.361525 0.930295 -0.002021 0.003529 2.672105
    4 0.082600 1.146644 0.000000 0.000000 0.000000 0.063337
    5 -0.795048 6.628532 0.000002 0.000001 0.000000 -0.047613
    6 -1.846357 7.578959 0.739989 0.000000 -0.000001 1.835736
    7 -8.998459 5.728283 -6.787134 0.737161 1.870910 0.920649
    8 0.096944 -8.450417 -0.009364 0.225935 -0.242945 -0.016551
    9 -1.923800 -3.381275 1.088828 -3.159658 0.004021 0.461093
    10 0.082600 1.146644 0.000000 0.000000 0.000000 0.063337
    11 -0.795048 6.628532 0.000003 0.000001 0.000000 -0.047613
    12 -1.846356 7.578958 0.739990 0.000000 -0.000001 1.835736
    13 0.447952 -2.798983 -0.200442 -1.289000 0.073436 0.289327
    14 -0.032910 -1.480206 0.004936 -1.189832 0.000000 0.000002
    15 -0.027022 -1.076919 -0.020212 -1.132336 0.000000 0.000000
    16 -0.249534 -2.846962 -0.174215 -1.181249 -0.010959 0.253180
    17 0.043235 -1.683940 0.096014 -1.376463 0.002823 -0.000167
    18 0.031729 -1.160831 0.058836 -1.261911 0.000642 0.008372
    19 -0.963866 -2.785142 -0.085346 -0.221133 0.074585 0.071481
    20 0.028479 -1.403069 0.006271 -0.422375 0.000000 0.000000
    21 0.021413 -0.957782 0.020047 -1.218611 0.008569 0.008126
    22 1.164474 -2.543938 -0.170328 -1.066547 -0.036904 0.165177
    23 0.024033 -1.129042 0.017806 -1.065271 0.000000 0.000001
    24 0.014896 -0.883989 -0.019845 -0.846175 0.000000 0.000000
    25 -0.586770 -1.264475 0.200164 -0.233000 -0.925248 -2.688570
    26 1.522835 0.058681 0.016850 -0.434910 -0.252805 1.087584
    27 1.117948 0.048424 -0.005764 -0.016374 -0.019158 0.763687
    28 -0.139399 -0.111697 0.014397 0.285382 -0.030687 1.580508
    29 -0.488517 -2.755600 -0.228261 -1.376484 -0.075298 -0.281316
    30 0.039888 -1.479789 0.029853 -0.928046 0.000000 0.000000
    31 0.028786 -1.075730 -0.023111 -1.481385 0.000000 0.000000
    32 0.250028 -2.820664 -0.238396 -1.075893 -0.014906 -0.312588
    33 -0.049759 -1.680545 0.100480 -1.463660 0.000000 -0.000002
    34 -0.034141 -1.148312 0.084779 -1.087281 0.000000 0.000000
    35 0.957766 -2.746776 -0.090301 -0.143359 -0.206189 -0.071012
    36 -0.033419 -1.397128 -0.011255 -0.779080 0.124808 -0.122316
    37 -0.022361 -0.957434 0.018783 -1.043321 0.000000 0.000000
    38 -1.180680 -2.507215 -0.193861 -1.224952 -0.001292 -0.303995
    39 -0.024966 -1.123935 0.017594 -0.977967 0.000000 0.000001
    40 -0.020057 -0.890966 0.010091 -0.933434 0.000000 0.000000
    41 0.583510 -1.197274 0.185377 0.272542 -1.003481 -0.533089
    42 1.535926 0.010244 0.005008 0.440185 -0.138732 -1.296648
    43 1.100770 0.004526 -0.010676 -0.011449 0.011491 -0.607431
    44 0.120152 -0.050266 -0.054488 0.287568 3.110905 1.561085
  time 14
    0 0.000000 0.000000 0.000000 0.000000 0.000000 0.000000
    1 8.998408 5.728283 -6.947295 0.768969 -1.860599 -0.977774
    2 -0.071918 -8.498731 -0.104136 0.233254 0.229971 0.027310
    3 1.848777 -3.361525 0.930295 -0.002021 0.003529 2.672105
    4 0.082600 1.146644 0.000000 0.000000 0.000000 0.063337
    5 -0.795048 6.628532 0.000002 0.000001 0.000000 -0.047613
    6 -1.846357 7.578959 0.739989 0.000000 -0.000001 1.835736
    7 -8.998459 5.728283 -6.806666 0.737161 1.870910 0.920649
    8 0.096944 -8.450417 -0.009364 0.225935 -0.242945 -0.016551
    9 -1.923800 -3.381275 1.088828 -3.159658 0.004021 0.461093
    10 0.082600 1.146644 0.000000 0.000000 0.000000 0.063337
    11 -0.795048 6.628532 0.000003 0.000001 0.000000 -0.047613
    12 -1.846356 7.578958 0.739990 0.000000 -0.000001 1.835736
    13 0.447952 -2.798983 -0.200442 -1.289000 0.073436 0.289327
    14 -0.032910 -1.480206 0.004936 -1.189832 0.000000 0.000002
    15 -0.027022 -1.076919 -0.020212 -1.132336 0.000000 0.000000
    16 -0.249534 -2.846962 -0.174215 -1.181249 -0.010959 0.253180
    17 0.043235 -1.683940 0.096014 -1.376463 0.002823 -0.000167
    18 0.031729 -1.160831 0.058836 -1.261911 0.000642 0.008372
    19 -0.963866 -2.785142 -0.085346 -0.221133 0.074585 0.071481
    20 0.028479 -1.403069 0.006271 -0.422375 0.000000 0.000000
    21 0.021413 -0.957782 0.020047 -1.218611 0.008569 0.008126
    22 1.164474 -2.543938 -0.170328 -1.066547 -0.036904 0.165177
    23 0.024033 -1.129042 0.017806 -1.065271 0.000000 0.000001
    24 0.014896 -0.883989 -0.019845 -0.846175 0.000000 0.000000
    25 -0.586770 -1.264475 0.200164 -0.233000 -0.925248 -2.688570
    26 1.522835 0.058681 0.016850 -0.434910 -0.252805 1.087584
    27 1.117948 0.048424 -0.005764 -0.016374 -0.019158 0.763687
    28 -0.139399 -0.111697 0.014397 0.285382 -0.030687 1.580508
    29 -0.488517 -2.755600 -0.228261 -1.376484 -0.075298 -0.281316
    30 0.039888 -1.479789 0.029853 -0.928046 0.000000 0.000000
    31 0.028786 -1.075730 -0.023111 -1.481385 0.000000 0.000000
    32 0.250028 -2.820664 -0.238396 -1.075893 -0.014906 -0.312588
    33 -0.049759 -1.680545 0.100480 -1.463660 0.000000 -0.000002
    34 -0.034141 -1.148312 0.084779 -1.087281 0.000000 0.000000
    35 0.957766 -2.746776 -0.090301 -0.143359 -0.206189 -0.071012
    36 -0.033419 -1.397128 -0.011255 -0.779080 0.124808 -0.122316
    37 -0.022361 -0.957434 0.018783 -1.043321 0.000000 0.000000
    38 -1.180680 -2.507215 -0.193861 -1.224952 -0.001292 -0.303995
    39 -0.024966 -1.123935 0.017594 -0.977967 0.000000 0.000001
    40 -0.020057 -0.890966 0.010091 -0.933434 0.000000 0.000000
    41 0.583510 -1.197274 0.185377 0.272542 -1.003481 -0.533089
    42 1.535926 0.010244 0.005008 0.440185 -0.138732 -1.296648
    43 1.100770 0.004526 -0.010676 -0.011449 0.011491 -0.607431
    44 0.120152 -0.050266 -0.054488 0.287568 3.110905 1.561085
  time 15
    0 0.000000 0.000000 0.000000 0.000000 0.000000 0.000000
    1 8.998408 5.728283 -6.947295 0.768969 -1.860599 -0.977774
    2 -0.071918 -8.498731 -0.104136 0.233254 0.229971 0.027310
    3 1.848777 -3.361525 0.930295 -0.002021 0.003529 2.672105
    4 0.082600 1.146644 0.000000 0.000000 0.000000 0.063337
    5 -0.795048 6.628532 0.000002 0.000001 0.000000 -0.047613
    6 -1.846357 7.578959 0.739989 0.000000 -0.000001 1.835736
    7 -8.998459 5.728283 -6.834010 0.737161 1.870910 0.920649
    8 0.096944 -8.450417 -0.009364 0.225935 -0.242945 -0.016551
    9 -1.923800 -3.381275 1.088828 -3.159658 0.004021 0.461093
    10 0.082600 1.146644 0.000000 0.000000 0.000000 0.063337
    11 -0.795048 6.628532 0.000003 0.000001 0.000000 -0.047613
    12 -1.846356 7.578958 0.739990 0.000000 -0.000001 1.835736
    13 0.447952 -2.798983 -0.200442 -1.289000 0.073436 0.289327
    14 -0.032910 -1.480206 0.004936 -1.189832 0.000000 0.000002
    15 -0.027022 -1.076919 -0.020212 -1.132336 0.000000 0.000000
    16 -0.249534 -2.846962 -0.174215 -1.181249 -0.010959 0.253180
    17 0.043235 -1.683940 0.096014 -1.376463 0.002823 -0.000167
    18 0.031729 -1.160831 0.058836 -1.261911 0.000642 0.008372
    19 -0.963866 -2.785142 -0.085346 -0.221133 0.074585 0.071481
    20 0.028479 -1.403069 0.006271 -0.422375 0.000000 0.000000
    21 0.021413 -0.957782 0.020047 -1.218611 0.008569 0.008126
    22 1.164474 -2.543938 -0.170328 -1.066547 -0.036904 0.165177
    23 0.024033 -1.129042 0.017806 -1.065271 0.000000 0.000001
    24 0.014896 -0.883989 -0.019845 -0.846175 0.000000 0.000000
    25 -0.586770 -1.264475 0.200164 -0.233000 -0.925248 -2.688570
    26 1.522835 0.058681 0.016850 -0.434910 -0.252805 1.087584
    27 1.117948 0.048424 -0.005764 -0.016374 -0.019158 0.763687
    28 -0.139399 -0.111697 0.014397 0.285382 -0.030687 1.580508
    29 -0.488517 -2.755600 -0.228261 -1.376484 -0.075298 -0.281316
    30 0.039888 -1.479789 0.029853 -0.928046 0.000000 0.000000
    31 0.028786 -1.075730 -0.023111 -1.481385 0.000000 0.000000
    32 0.250028 -2.820664 -0.238396 -1.075893 -0.014906 -0.312588
    33 -0.049759 -1.680545 0.100480 -1.463660 0.000000 -0.000002
    34 -0.034141 -1.148312 0.084779 -1.087281 0.000000 0.000000
    35 0.957766 -2.746776 -0.090301 -0.143359 -0.206189 -0.071012
    36 -0.033419 -1.397128 -0.011255 -0.779080 0.124808 -0.122316
    37 -0.022361 -0.957434 0.018783 -1.043321 0.000000 0.000000
    38 -1.180680 -2.507215 -0.193861 -1.224952 -0.001292 -0.303995
    39 -0.024966 -1.123935 0.017594 -0.977967 0.000000 0.000001
    40 -0.020057 -0.890966 0.010091 -0.933434 0.000000 0.000000
    41 0.583510 -1.197274 0.185377 0.272542 -1.003481 -0.533089
    42 1.535926 0.010244 0.005008 0.440185 -0.138732 -1.296648
    43 1.100770 0.004526 -0.010676 -0.011449 0.011491 -0.607431
    44 0.120152 -0.050266 -0.054488 0.287568 3.110905 1.561085
  time 16
    0 0.000000 0.000000 0.000000 0.000000 0.000000 0.000000
    1 8.998408 5.728283 -6.947295 0.768969 -1.860599 -0.977774
    2 -0.071918 -8.498731 -0.104136 0.233254 0.229971 0.027310
    3 1.848777 -3.361525 0.930295 -0.002021 0.003529 2.672105
    4 0.082600 1.146644 0.000000 0.000000 0.000000 0.063337
    5 -0.795048 6.628532 0.000002 0.000001 0.000000 -0.047613
    6 -1.846357 7.578959 0.739989 0.000000 -0.000001 1.835736
    7 -8.998459 5.728283 -6.865261 0.737161 1.870910 0.920649
    8 0.096944 -8.450417 -0.009364 0.225935 -0.242945 -0.016551
    9 -1.923800 -3.381275 1.088828 -3.159658 0.004021 0.461093
    10 0.082600 1.146644 0.000000 0.000000 0.000000 0.063337
    11 -0.795048 6.628532 0.000003 0.000001 0.000000 -0.047613
    12 -1.846356 7.578958 0.739990 0.000000 -0.000001 1.835736
    13 0.447952 -2.798983 -0.200442 -1.289000 0.073436 0.289327
    14 -0.032910 -1.480206 0.004936 -1.189832 0.000000 0.000002
    15 -0.027022 -1.076919 -0.020212 -1.132336 0.000000 0.000000
    16 -0.249534 -2.846962 -0.174215 -1.181249 -0.010959 0.253180
    17 0.043235 -1.683940 0.096014 -1.376463 0.002823 -0.000167
    18 0.031729 -1.160831 0.058836 -1.261911 0.000642 0.008372
    19 -0.963866 -2.785142 -0.085346 -0.221133 0.074585 0.071481
    20 0.028479 -1.403069 0.006271 -0.422375 0.000000 0.000000
    21 0.021413 -0.957782 0.020047 -1.218611 0.008569 0.008126
    22 1.164474 -2.543938 -0.170328 -1.066547 -0.036904 0.165177
    23 0.024033 -1.129042 0.017806 -1.065271 0.000000 0.000001
    24 0.014896 -0.883989 -0.019845 -0.846175 0.000000 0.000000
    25 -0.586770 -1.264475 0.200164 -0.233000 -0.925248 -2.688570
    26 1.522835 0.058681 0.016850 -0.434910 -0.252805 1.087584
    27 1.117948 0.048424 -0.005764 -0.016374 -0.019158 0.763687
    28 -0.139399 -0.111697 0.014397 0.285382 -0.030687 1.580508
    29 -0.488517 -2.755600 -0.228261 -1.376484 -0.075298 -0.281316
    30 0.039888 -1.479789 0.029853 -0.928046 0.000000 0.000000
    31 0.028786 -1.075730 -0.023111 -1.481385 0.000000 0.000000
    32 0.250028 -2.820664 -0.238396 -1.075893 -0.014906 -0.312588
    33 -0.049759 -1.680545 0.100480 -1.463660 0.000000 -0.000002
    34 -0.034141 -1.148312 0.084779 -1.087281 0.000000 0.000000
    35 0.957766 -2.746776 -0.090301 -0.143359 -0.206189 -0.071012
    36 -0.033419 -1.397128 -0.011255 -0.779080 0.124808 -0.122316
    37 -0.022361 -0.957434 0.018783 -1.043321 0.000000 0.000000
    38 -1.180680 -2.507215 -0.193861 -1.224952 -0.001292 -0.303995
    39 -0.024966 -1.123935 0.017594 -0.977967 0.000000 0.000001
    40 -0.020057 -0.890966 0.010091 -0.933434 0.000000 0.000000
    41 0.583510 -1.197274 0.185377 0.272542 -1.003481 -0.533089
    42 1.535926 0.010244 0.005008 0.440185 -0.138732 -1.296648
    43 1.100770 0.004526 -0.010676 -0.011449 0.011491 -0.607431
    44 0.120152 -0.050266 -0.054488 0.287568 3.110905 1.561085
  time 17
    0 0.000000 0.000000 0.000000 0.000000 0.000000 0.000000
    1 8.998408 5.728283 -6.947295 0.768969 -1.860599 -0.977774
    2 -0.071918 -8.498731 -0.104136 0.233254 0.229971 0.027310
    3 1.848777 -3.361525 0.930295 -0.002021 0.003529 2.672105
    4 0.082600 1.146644 0.000000 0.000000 0.000000 0.063337
    5 -0.795048 6.628532 0.000002 0.000001 0.000000 -0.047613
    6 -1.846357 7.578959 0.739989 0.000000 -0.000001 1.835736
    7 -8.998459 5.728283 -6.896512 0.737161 1.870910 0.920649
    8 0.096944 -8.450417 -0.009364 0.225935 -0.242945 -0.016551
    9 -1.923800 -3.381275 1.088828 -3.159658 0.004021 0.461093
    10 0.082600 1.146644 0.000000 0.000000 0.000000 0.063337
    11 -0.795048 6.628532 0.000003 0.000001 0.000000 -0.047613
    12 -1.846356 7.578958 0.739990 0.000000 -0.000001 1.835736
    13 0.447952 -2.798983 -0.200442 -1.289000 0.073436 0.289327
    14 -0.032910 -1.480206 0.004936 -1.189832 0.000000 0.000002
    15 -0.027022 -1.076919 -0.020212 -1.132336 0.000000 0.000000
    16 -0.249534 -2.846962 -0.174215 -1.181249 -0.010959 0.253180
    17 0.043235 -1.683940 0.096014 -1.376463 0.002823 -0.000167
    18 0.031729 -1.160831 0.058836 -1.261911 0.000642 0.008372
    19 -0.963866 -2.785142 -0.085346 -0.221133 0.074585 0.071481
    20 0.028479 -1.403069 0.006271 -0.422375 0.000000 0.000000
    21 0.021413 -0.957782 0.020047 -1.218611 0.008569 0.008126
    22 1.164474 -2.543938 -0.170328 -1.066547 -0.036904 0.165177
    23 0.024033 -1.129042 0.017806 -1.065271 0.000000 0.000001
    24 0.014896 -0.883989 -0.019845 -0.846175 0.000000 0.000000
    25 -0.586770 -1.264475 0.200164 -0.233000 -0.925248 -2.688570
    26 1.522835 0.058681 0.016850 -0.434910 -0.252805 1.087584
    27 1.117948 0.048424 -0.005764 -0.016374 -0.019158 0.763687
    28 -0.139399 -0.111697 0.014397 0.285382 -0.030687 1.580508
    29 -0.488517 -2.755600 -0.228261 -1.376484 -0.075298 -0.281316
    30 0.039888 -1.479789 0.029853 -0.928046 0.000000 0.000000
    31 0.028786 -1.075730 -0.023111 -1.481385 0.000000 0.000000
    32 0.250028 -2.820664 -0.238396 -1.075893 -0.014906 -0.312588
    33 -0.049759 -1.680545 0.100480 -1.463660 0.000000 -0.000002
    34 -0.034141 -1.148312 0.084779 -1.087281 0.000000 0.000000
    35 0.957766 -2.746776 -0.090301 -0.143359 -0.206189 -0.071012
    36 -0.033419 -1.397128 -0.011255 -0.779080 0.124808 -0.122316
    37 -0.022361 -0.957434 0.018783 -1.043321 0.000000 0.000000
    38 -1.180680 -2.507215 -0.193861 -1.224952 -0.001292 -0.303995
    39 -0.024966 -1.123935 0.017594 -0.977967 0.000000 0.000001
    40 -0.020057 -0.890966 0.010091 -0.933434 0.000000 0.000000
    41 0.583510 -1.197274 0.185377 0.272542 -1.003481 -0.533089
    42 1.535926 0.010244 0.005008 0.440185 -0.138732 -1.296648
    43 1.100770 0.004526 -0.010676 -0.011449 0.011491 -0.607431
    44 0.120152 -0.050266 -0.054488 0.287568 3.110905 1.561085
  time 18
    0 0.000000 0.000000 0.000000 0.000000 0.000000 0.000000
    1 8.998408 5.728283 -6.947295 0.768969 -1.860599 -0.977774
    2 -0.071918 -8.498731 -0.104136 0.233254 0.229971 0.027310
    3 1.848777 -3.361525 0.930295 -0.002021 0.003529 2.672105
    4 0.082600 1.146644 0.000000 0.000000 0.000000 0.063337
    5 -0.795048 6.628532 0.000002 0.000001 0.000000 -0.047613
    6 -1.846357 7.578959 0.739989 0.000000 -0.000001 1.835736
    7 -8.998459 5.728283 -6.923857 0.737161 1.870910 0.920649
    8 0.096944 -8.450417 -0.009364 0.225935 -0.242945 -0.016551
    9 -1.923800 -3.381275 1.088828 -3.159658 0.004021 0.461093
    10 0.082600 1.146644 0.000000 0.000000 0.000000 0.063337
    11 -0.795048 6.628532 0.000003 0.000001 0.000000 -0.047613
    12 -1.846356 7.578958 0.739990 0.000000 -0.000001 1.835736
    13 0.447952 -2.798983 -0.200442 -1.289000 0.073436 0.289327
    14 -0.032910 -1.480206 0.004936 -1.189832 0.000000 0.000002
    15 -0.027022 -1.076919 -0.020212 -1.132336 0.000000 0.000000
    16 -0.249534 -2.846962 -0.174215 -1.181249 -0.010959 0.253180
    17 0.043235 -1.683940 0.096014 -1.376463 0.002823 -0.000167
    18 0.031729 -1.160831 0.058836 -1.261911 0.000642 0.008372
    19 -0.963866 -2.785142 -0.085346 -0.221133 0.074585 0.071481
    20 0.028479 -1.403069 0.006271 -0.422375 0.000000 0.000000
    21 0.021413 -0.957782 0.020047 -1.218611 0.008569 0.008126
    22 1.164474 -2.543938 -0.170328 -1.066547 -0.036904 0.165177
    23 0.024033 -1.129042 0.017806 -1.065271 0.000000 0.000001
    24 0.014896 -0.883989 -0.019845 -0.846175 0.000000 0.000000
    25 -0.586770 -1.264475 0.200164 -0.233000 -0.925248 -2.688570
    26 1.522835 0.058681 0.016850 -0.434910 -0.252805 1.087584
    27 1.117948 0.048424 -0.005764 -0.016374 -0.019158 0.763687
    28 -0.139399 -0.111697 0.014397 0.285382 -0.030687 1.580508
    29 -0.488517 -2.755600 -0.228261 -1.376484 -0.075298 -0.281316
    30 0.039888 -1.479789 0.029853 -0.928046 0.000000 0.000000
    31 0.028786 -1.075730 -0.023111 -1.481385 0.000000 0.000000
    32 0.250028 -2.820664 -0.238396 -1.075893 -0.014906 -0.312588
    33 -0.049759 -1.680545 0.100480 -1.463660 0.000000 -0.000002
    34 -0.034141 -1.148312 0.084779 -1.087281 0.000000 0.000000
    35 0.957766 -2.746776 -0.090301 -0.143359 -0.206189 -0.071012
    36 -0.033419 -1.397128 -0.011255 -0.779080 0.124808 -0.122316
    37 -0.022361 -0.957434 0.018783 -1.043321 0.000000 0.000000
    38 -1.180680 -2.507215 -0.193861 -1.224952 -0.001292 -0.303995
    39 -0.024966 -1.123935 0.017594 -0.977967 0.000000 0.000001
    40 -0.020057 -0.890966 0.010091 -0.933434 0.000000 0.000000
    41 0.583510 -1.197274 0.185377 0.272542 -1.003481 -0.533089
    42 1.535926 0.010244 0.005008 0.440185 -0.138732 -1.296648
    43 1.100770 0.004526 -0.010676 -0.011449 0.011491 -0.607431
    44 0.120152 -0.050266 -0.054488 0.287568 3.110905 1.561085
  time 19
    0 0.000000 0.000000 0.000000 0.000000 0.000000 0.000000
    1 8.998408 5.728283 -6.947295 0.768969 -1.860599 -0.977774
    2 -0.071918 -8.498731 -0.104136 0.233254 0.229971 0.027310
    3 1.848777 -3.361525 0.930295 -0.002021 0.003529 2.672105
    4 0.082600 1.146644 0.000000 0.000000 0.000000 0.063337
    5 -0.795048 6.628532 0.000002 0.000001 0.000000 -0.047613
    6 -1.846357 7.578959 0.739989 0.000000 -0.000001 1.835736
    7 -8.998459 5.728283 -6.943389 0.737161 1.870910 0.920649
    8 0.096944 -8.450417 -0.009364 0.225935 -0.242945 -0.016551
    9 -1.923800 -3.381275 1.088828 -3.159658 0.004021 0.461093
    10 0.082600 1.146644 0.000000 0.000000 0.000000 0.063337
    11 -0.795048 6.628532 0.000003 0.000001 0.000000 -0.047613
    12 -1.846356 7.578958 0.739990 0.000000 -0.000001 1.835736
    13 0.447952 -2.798983 -0.200442 -1.289000 0.073436 0.289327
    14 -0.032910 -1.480206 0.004936 -1.189832 0.000000 0.000002
    15 -0.027022 -1.076919 -0.020212 -1.132336 0.000000 0.000000
    16 -0.249534 -2.846962 -0.174215 -1.181249 -0.010959 0.253180
    17 0.043235 -1.683940 0.096014 -1.376463 0.002823 -0.000167
    18 0.031729 -1.160831 0.058836 -1.261911 0.000642 0.008372
    19 -0.963866 -2.785142 -0.085346 -0.221133 0.074585 0.071481
    20 0.028479 -1.403069 0.006271 -0.422375 0.000000 0.000000
    21 0.021413 -0.957782 0.020047 -1.218611 0.008569 0.008126
    22 1.164474 -2.543938 -0.170328 -1.066547 -0.036904 0.165177
    23 0.024033 -1.129042 0.017806 -1.065271 0.000000 0.000001
    24 0.014896 -0.883989 -0.019845 -0.846175 0.000000 0.000000
    25 -0.586770 -1.264475 0.200164 -0.233000 -0.925248 -2.688570
    26 1.522835 0.058681 0.016850 -0.434910 -0.252805 1.087584
    27 1.117948 0.048424 -0.005764 -0.016374 -0.019158 0.763687
    28 -0.139399 -0.111697 0.014397 0.285382 -0.030687 1.580508
    29 -0.488517 -2.755600 -0.228261 -1.376484 -0.075298 -0.281316
    30 0.039888 -1.479789 0.029853 -0.928046 0.000000 0.000000
    31 0.028786 -1.075730 -0.023111 -1.481385 0.000000 0.000000
    32 0.250028 -2.820664 -0.238396 -1.075893 -0.014906 -0.312588
    33 -0.049759 -1.680545 0.100480 -1.463660 0.000000 -0.000002
    34 -0.034141 -1.148312 0.084779 -1.087281 0.000000 0.000000
    35 0.957766 -2.746776 -0.090301 -0.143359 -0.206189 -0.071012
    36 -0.033419 -1.397128 -0.011255 -0.779080 0.124808 -0.122316
    37 -0.022361 -0.957434 0.018783 -1.043321 0.000000 0.000000
    38 -1.180680 -2.507215 -0.193861 -1.224952 -0.001292 -0.303995
    39 -0.024966 -1.123935 0.017594 -0.977967 0.000000 0.000001
    40 -0.020057 -0.890966 0.010091 -0.933434 0.000000 0.000000
    41 0.583510 -1.197274 0.185377 0.272542 -1.003481 -0.533089
    42 1.535926 0.010244 0.005008 0.440185 -0.138732 -1.296648
    43 1.100770 0.004526 -0.010676 -0.011449 0.011491 -0.607431
    44 0.120152 -0.050266 -0.054488 0.287568 3.110905 1.561085
  time 20
    0 0.000000 0.000000 0.000000 0.000000 0.000000 0.000000
    1 8.998408 5.728283 -6.947295 0.768969 -1.860599 -0.977774
    2 -0.071918 -8.498731 -0.104136 0.233254 0.229971 0.027310
    3 1.848777 -3.361525 0.930295 -0.002021 0.003529 2.672105
    4 0.082600 1.146644 0.000000 0.000000 0.000000 0.063337
    5 -0.795048 6.628532 0.000002 0.000001 0.000000 -0.047613
    6 -1.846357 7.578959 0.739989 0.000000 -0.000001 1.835736
    7 -8.998459 5.728283 -6.947295 0.737161 1.870910 0.920649
    8 0.096944 -8.450417 -0.009364 0.225935 -0.242945 -0.016551
    9 -1.923800 -3.381275 1.088828 -3.159658 0.004021 0.461093
    10 0.082600 1.146644 0.000000 0.000000 0.000000 0.063337
    11 -0.795048 6.628532 0.000003 0.000001 0.000000 -0.047613
    12 -1.846356 7.578958 0.739990 0.000000 -0.000001 1.835736
    13 0.447952 -2.798983 -0.200442 -1.289000 0.073436 0.289327
    14 -0.032910 -1.480206 0.004936 -1.189832 0.000000 0.000002
    15 -0.027022 -1.076919 -0.020212 -1.132336 0.000000 0.000000
    16 -0.249534 -2.846962 -0.174215 -1.181249 -0.010959 0.253180
    17 0.043235 -1.683940 0.096014 -1.376463 0.002823 -0.000167
    18 0.031729 -1.160831 0.058836 -1.261911 0.000642 0.008372
    19 -0.963866 -2.785142 -0.085346 -0.221133 0.074585 0.071481
    20 0.028479 -1.403069 0.006271 -0.422375 0.000000 0.000000
    21 0.021413 -0.957782 0.020047 -1.218611 0.008569 0.008126
    22 1.164474 -2.543938 -0.170328 -1.066547 -0.036904 0.165177
    23 0.024033 -1.129042 0.017806 -1.065271 0.000000 0.000001
    24 0.014896 -0.883989 -0.019845 -0.846175 0.000000 0.000000
    25 -0.586770 -1.264475 0.200164 -0.233000 -0.925248 -2.688570
    26 1.522835 0.058681 0.016850 -0.434910 -0.252805 1.087584
    27 1.117948 0.048424 -0.005764 -0.016374 -0.019158 0.763687
    28 -0.139399 -0.111697 0.014397 0.285382 -0.030687 1.580508
    29 -0.488517 -2.755600 -0.228261 -1.376484 -0.075298 -0.281316
    30 0.039888 -1.479789 0.029853 -0.928046 0.000000 0.000000
    31 0.028786 -1.075730 -0.023111 -1.481385 0.000000 0.000000
    32 0.250028 -2.820664 -0.238396 -1.075893 -0.014906 -0.312588
    33 -0.049759 -1.680545 0.100480 -1.463660 0.000000 -0.000002
    34 -0.034141 -1.148312 0.084779 -1.087281 0.000000 0.000000
    35 0.957766 -2.746776 -0.090301 -0.143359 -0.206189 -0.071012
    36 -0.033419 -1.397128 -0.011255 -0.779080 0.124808 -0.122316
    37 -0.022361 -0.957434 0.018783 -1.043321 0.000000 0.000000
    38 -1.180680 -2.507215 -0.193861 -1.224952 -0.001292 -0.303995
    39 -0.024966 -1.123935 0.017594 -0.977967 0.000000 0.000001
    40 -0.020057 -0.890966 0.010091 -0.933434 0.000000 0.000000
    41 0.583510 -1.197274 0.185377 0.272542 -1.003481 -0.533089
    42 1.535926 0.010244 0.005008 0.440185 -0.138732 -1.296648
    43 1.100770 0.004526 -0.010676 -0.011449 0.011491 -0.607431
    44 0.120152 -0.050266 -0.054488 0.287568 3.110905 1.561085
end
