// Created by Crowbar 0.58

$modelname "weapons/tfa_cso/c_tomahawk.mdl"

$Include "csonline_gmod.qci"

$bodygroup "weapon"
{
	studio "v_tomahawk_v_ref"
}

$CDMaterials "models\weapons\tfa_cso\tomahawk\"

$definebone "root" "" -3.208803 7.383152 -21.031046 0.000000 0.000000 0.000000 0.000000 0.000000 0.000000 -0.000000 0.000000 0.000000
$definebone "Bone04" "root" -0.497809 0.651412 22.559568 -0.574537 90.226281 -179.714382 0.000000 0.000000 0.000000 0.000000 0.000000 0.000000
$definebone "Bone_Righthand" "Bone04" 0.096944 -8.450418 -0.009364 -17.068814 -0.267170 -1.888755 0.000000 0.000000 0.000000 0.000001 0.000000 0.000000
$definebone "root_tomahawk" "Bone_Righthand" -7.491126 11.948236 4.092065 73.361902 176.274398 -94.707780 0.000000 0.000000 0.000000 -0.000000 0.000003 0.000000

$sequence "idle" {
	"v_tomahawk_anims\idle"
	fps 30
	loop
	activity "ACT_VM_IDLE" 1
	snap
}
$sequence "slash1" {
	"v_tomahawk_anims\slash1"
	{ event 5004 1 "Tomahawk.Slash1" }
	fps 30
	activity "ACT_VM_HITLEFT" 1
	snap
}
$sequence "slash2" {
	"v_tomahawk_anims\slash2"
	{ event 5004 1 "Tomahawk.Slash2" }
	fps 30
	activity "ACT_VM_HITRIGHT" 1
	snap
}
$sequence "draw" {
	"v_tomahawk_anims\draw"
	{ event 5004 1 "Tomahawk.Draw" }
	fps 32
	activity "ACT_VM_DRAW" 1
	snap
}
$sequence "stab" {
	"v_tomahawk_anims\stab"
	{ event 5004 1 "Tomahawk.Stab" }
	fps 30
	activity "ACT_VM_MISSLEFT" 1
	snap
}
$sequence "stab_miss" {
	"v_tomahawk_anims\stab_miss"
	{ event 5004 1 "Tomahawk.Stab" }
	fps 30
	activity "ACT_VM_PULLBACK" 1
	snap
}
$sequence "midslash1" {
	"v_tomahawk_anims\midslash1"
	fps 30
}
$sequence "midslash2" {
	"v_tomahawk_anims\midslash2"
	fps 30
}
