version 1
nodes
  0 "Bip01" -1
  1 "Bip01 Pelvis" 0
  2 "Bip01 Spine" 1
  3 "Bip01 Spine1" 2
  4 "Bip01 Spine2" 3
  5 "Bip01 Spine3" 4
  6 "Bip01 Neck" 5
  7 "Bip01 Head" 6
  8 "Bip01 L Clavicle" 6
  9 "Bip01 L UpperArm" 8
  10 "Bip01 L Forearm" 9
  11 "Bip01 L Hand" 10
  12 "Bip01 L Finger0" 11
  13 "Bip01 L Finger01" 12
  14 "Bip01 L Finger1" 11
  15 "Bip01 L Finger11" 14
  16 "lflash" 11
  17 "gunslinger_minor_p001" 16
  18 "Bip01 R Clavicle" 6
  19 "Bip01 R UpperArm" 18
  20 "Bip01 R Forearm" 19
  21 "Bip01 R Hand" 20
  22 "Bip01 R Finger0" 21
  23 "Bip01 R Finger01" 22
  24 "Bip01 R Finger1" 21
  25 "Bip01 R Finger11" 24
  26 "rflash" 21
  27 "gunslinger_minor_p" 26
  28 "Bip01 L Thigh" 1
  29 "Bip01 L Calf" 28
  30 "Bip01 L Foot" 29
  31 "Bip01 L Toe0" 30
  32 "Bip01 R Thigh" 29
  33 "Bip01 R Calf" 32
  34 "Bip01 R Foot" 33
  35 "Bip01 R Toe0" 34
  36 "Plane002" 16
  37 "Plane003" 26
end
skeleton
  time 0
    0 0.001961 3.074313 -3.268696 -0.024495 -0.296862 -1.846147
    1 -2.276896 0.000003 -1.238186 -1.570795 -1.570796 0.000000
    2 1.797775 0.711858 0.000057 -0.017789 0.000738 0.195348
    3 4.119244 -0.003218 0.000058 -0.017784 0.000738 0.194626
    4 4.119228 -0.003215 0.000059 -0.017784 0.000738 0.194628
    5 4.119236 -0.003220 0.000058 -0.017784 0.000738 0.194603
    6 4.119690 -0.003366 -0.000020 0.005760 -0.065509 0.312238
    7 4.443604 0.000000 0.000000 0.219105 -0.171775 -0.144717
    8 0.113430 0.013489 1.728975 -0.716466 -1.430391 -2.749617
    9 5.849109 -0.000002 0.000000 -0.307729 -0.487664 -1.360596
    10 9.697663 0.000002 -0.000004 0.000000 0.000000 -0.039620
    11 10.762130 0.000001 0.000004 -1.572372 0.008375 0.001413
    12 0.867325 -0.222958 -0.645012 1.880709 0.522696 0.904654
    13 2.270588 -0.000003 0.000004 0.000000 0.000000 0.307301
    14 3.240425 -0.290825 -0.028107 -0.000597 0.000527 0.723045
    15 2.011148 0.000000 0.000000 0.000000 0.000000 1.745329
    16 14.442873 0.913799 -4.104937 0.000001 0.000000 0.000000
    17 -4.076781 -0.001918 0.908444 3.141592 0.000000 0.000000
    18 -0.113422 -0.006420 -1.728976 0.567883 1.302030 -2.895411
    19 5.849108 0.000000 -0.000004 0.800242 0.203459 -1.804707
    20 9.697662 0.000004 0.000000 0.000000 0.000000 -0.366957
    21 10.762132 -0.000004 0.000000 1.545025 -0.096928 0.040259
    22 0.867321 -0.222958 0.645012 -1.880709 -0.522696 0.904654
    23 2.270590 -0.000006 -0.000004 0.000000 0.000000 0.307301
    24 3.240423 -0.290825 0.028111 0.000597 -0.000527 0.723045
    25 2.011153 0.000000 -0.000004 0.000000 0.000000 1.745329
    26 14.688066 1.140224 3.090290 0.000001 0.000000 0.000000
    27 -3.727534 -0.000336 0.155897 0.000000 0.000000 0.000000
    28 -0.000006 0.000007 3.619081 -2.621011 -0.149445 1.520684
    29 16.573921 0.000002 0.000000 0.000000 0.000000 -1.764397
    30 15.128182 0.000001 0.000000 0.040688 -0.415392 -0.178546
    31 5.758665 4.244732 -0.000001 0.000000 0.000000 1.570796
    32 -0.097061 -18.003553 6.212975 -0.408115 -0.940203 0.460946
    33 16.573921 -0.000001 -0.000001 0.000000 0.000000 -2.578645
    34 15.128182 0.000000 0.000002 -0.527769 0.427117 0.576642
    35 5.758665 4.244732 -0.000001 0.000000 0.000000 1.570796
    36 15.510132 -0.000004 0.000008 0.000000 0.000000 -1.570796
    37 16.527199 0.000008 -0.000008 0.000000 0.000000 -1.570796
end
