version 1
nodes
  0 "root" -1
  1 "Bone04" 0
  2 "Bone_Righthand" 1
  3 "gatlingex_root" 2
  4 "load" 3
  5 "gun01" 3
  6 "gun003" 5
  7 "gun004" 5
  8 "gun005" 5
  9 "gun006" 5
  10 "gun007" 5
  11 "gun02" 10
  12 "gunstock" 3
  13 "trigger" 12
  14 "magazine" 12
  15 "muzzle_bone" 11
  16 "muzzle_mesh" 15
  17 "cylinder_ef" 5
  18 "Bone01" 0
  19 "Bone_L_Upper" 18
  20 "Bone_Lefthand" 18
  21 "Bone13" 20
  22 "Bone14" 21
  23 "Bone15" 22
  24 "Bone17" 20
  25 "Bone18" 24
  26 "Bone19" 25
  27 "Bone21" 20
  28 "Bone22" 27
  29 "Bone23" 28
  30 "Bone09" 20
  31 "Bone10" 30
  32 "Bone11" 31
  33 "Bone05" 20
  34 "Bone06" 33
  35 "Bone07" 34
  36 "Bone_Se_Hand-L" 20
  37 "Bone39" 2
  38 "Bone40" 37
  39 "Bone41" 38
  40 "Bone35" 2
  41 "Bone36" 40
  42 "Bone37" 41
  43 "Bone31" 2
  44 "Bone32" 43
  45 "Bone33" 44
  46 "Bone43" 2
  47 "Bone44" 46
  48 "Bone45" 47
  49 "Bone27" 2
  50 "Bone28" 49
  51 "Bone29" 50
  52 "Bone_Se_Hand-R" 2
  53 "Bone_R_Upper" 1
end
skeleton
  time 0
    0 0.000000 0.000000 0.000000 0.000000 0.000000 0.000000
    1 1.480203 -7.729853 -12.201680 -0.250844 0.417673 0.596900
    2 0.096944 -8.450420 -0.009365 -0.062740 -0.276051 -0.051537
    3 2.267546 0.642558 0.731657 -1.495514 -0.326897 0.921026
    4 -2.377436 -6.061513 0.000002 0.000001 0.000000 0.005300
    5 -2.008892 -3.609558 0.000002 0.000000 0.000000 -3.136292
    6 8.380736 2.644259 0.000013 0.000000 3.141592 -0.068808
    7 8.366395 -0.061600 -2.747383 1.570796 3.091398 -0.005301
    8 8.351630 -2.845866 0.005400 0.000051 0.000000 -3.103407
    9 8.366416 -0.058214 2.848107 1.570796 -0.039190 3.136292
    10 13.569819 -0.072787 -0.000001 0.000000 0.000000 0.000000
    11 0.493853 -0.246204 -0.000001 0.000000 0.000000 0.000000
    12 10.482985 0.139389 0.000003 0.000000 0.000000 -3.136292
    13 4.673368 2.663273 -0.000003 -0.000001 0.000000 -1.570797
    14 7.377747 3.706192 -0.000502 -0.001380 -0.000050 -0.012805
    15 7.046757 0.064317 0.008490 -0.001381 -0.001237 -0.013097
    16 -75.060349 0.243035 0.001152 0.000000 1.570451 0.000000
    17 5.254969 -0.065763 0.009348 0.000000 0.000000 0.000000
    18 9.310103 -5.299614 -12.557959 3.138909 -0.000224 -1.566807
    19 1.257180 8.762585 -0.153713 -1.570562 0.002683 -1.566807
    20 -0.071921 -8.498736 -0.104134 -0.025046 0.287591 0.014898
    21 -0.488518 -2.755602 -0.228260 0.106454 0.010332 -0.264490
    22 0.039887 -1.479790 0.029854 -0.055395 0.000000 0.000001
    23 0.028786 -1.075731 -0.023109 0.002099 0.000000 0.000000
    24 0.250027 -2.820665 -0.238396 0.041826 -0.002921 0.008443
    25 -0.049759 -1.680544 0.100479 0.019826 0.000000 -0.000002
    26 -0.034142 -1.148312 0.084782 -0.040115 0.000000 0.000000
    27 0.957766 -2.746780 -0.090302 -0.017221 -0.162277 0.191558
    28 -0.033420 -1.397129 -0.011257 0.013931 0.000000 -0.000001
    29 -0.022360 -0.957436 0.018784 0.003845 0.000000 0.000000
    30 -1.180681 -2.507217 -0.193859 0.082999 0.013294 -0.477915
    31 -0.024967 -1.123934 0.017597 -0.018065 0.000000 0.000001
    32 -0.020057 -0.890968 0.010090 -0.060797 0.000000 0.000000
    33 0.583510 -1.197277 0.185379 0.158049 -0.404973 -0.364290
    34 1.535927 0.010246 0.005009 -0.002964 -0.012979 0.000887
    35 1.100771 0.004527 -0.010679 -0.002796 0.015973 0.003458
    36 0.120153 -0.050270 -0.054489 0.287569 3.110905 1.561085
    37 0.447953 -2.798986 -0.200443 0.106456 -0.010396 0.265094
    38 -0.032909 -1.480204 0.004940 -0.055403 0.000000 0.000002
    39 -0.027022 -1.076920 -0.020210 0.002094 0.000000 0.000000
    40 -0.249534 -2.846964 -0.174213 0.041903 -0.000125 -0.008396
    41 0.043235 -1.683941 0.096012 0.019757 0.002823 -0.000167
    42 0.031729 -1.160830 0.058838 -0.040181 0.000642 0.008372
    43 -0.963866 -2.785145 -0.085350 -0.017227 0.162276 -0.191556
    44 0.028479 -1.403067 0.006271 0.013941 0.000000 0.000000
    45 0.021413 -0.957781 0.020046 0.003851 0.000000 0.000000
    46 1.164475 -2.543940 -0.170330 0.083003 -0.013294 0.477915
    47 0.024032 -1.129042 0.017807 -0.018074 0.000000 0.000001
    48 0.014898 -0.883989 -0.019848 -0.060801 0.000000 0.000000
    49 -0.586770 -1.264477 0.200161 -0.152092 -0.410513 -2.814816
    50 1.522835 0.058681 0.016848 0.001410 0.008985 -0.046880
    51 1.117947 0.048424 -0.005766 -0.000243 -0.025198 0.065422
    52 -0.139399 -0.111698 0.014397 0.285382 -0.030687 1.580508
    53 -1.393470 8.839177 -0.239433 1.580804 -0.005023 -1.566847
end
triangles
$0b_gatlingex_red.bmp
  17 7.228920 -21.150142 -7.919146 -0.586716 -0.007030 -0.809762 0.588235 0.772549
  17 8.254747 -17.363387 -8.287339 0.001430 -0.007774 -0.999969 0.909804 0.976471
  17 8.259394 -21.153321 -8.257695 0.001430 -0.007774 -0.999969 0.588235 0.976471
$0b_gatlingex_red.bmp
  17 8.259394 -21.153321 -8.257695 0.001430 -0.007774 -0.999969 0.588235 0.976471
  17 8.254747 -17.363387 -8.287339 0.001430 -0.007774 -0.999969 0.909804 0.976471
  17 9.308917 -21.147570 -7.916275 0.589029 -0.005548 -0.808093 0.588235 0.772549
$0b_gatlingex_red.bmp
  17 8.254747 -17.363387 -8.287339 0.001430 -0.007774 -0.999969 0.909804 0.976471
  17 9.304270 -17.357636 -7.945919 0.589029 -0.005548 -0.808093 0.909804 0.772549
  17 9.308917 -21.147570 -7.916275 0.589029 -0.005548 -0.808093 0.588235 0.772549
$0b_gatlingex_red.bmp
  17 9.308917 -21.147570 -7.916275 0.589029 -0.005548 -0.808093 0.588235 0.772549
  17 9.304270 -17.357636 -7.945919 0.589029 -0.005548 -0.808093 0.909804 0.772549
  17 9.957685 -21.145109 -7.025324 0.951542 -0.001203 -0.307516 0.588235 0.556863
$0b_gatlingex_red.bmp
  17 9.304270 -17.357636 -7.945919 0.589029 -0.005548 -0.808093 0.909804 0.772549
  17 9.953038 -17.355175 -7.054968 0.951542 -0.001203 -0.307516 0.909804 0.556863
  17 9.957685 -21.145109 -7.025324 0.951542 -0.001203 -0.307516 0.588235 0.556863
$0b_gatlingex_red.bmp
  17 9.957685 -21.145109 -7.025324 0.951542 -0.001203 -0.307516 0.588235 0.556863
  17 9.953038 -17.355175 -7.054968 0.951542 -0.001203 -0.307516 0.909804 0.556863
  17 9.952284 -17.348103 -6.515015 0.999998 0.001260 0.001420 0.909804 0.435294
$0b_gatlingex_red.bmp
  17 6.572290 -17.352283 -6.519681 -0.999998 -0.001260 -0.001420 0.909804 0.435294
  17 6.576169 -21.135014 -5.940084 -0.951542 0.001203 0.307516 0.588235 0.556863
  17 6.571522 -17.345080 -5.969729 -0.951542 0.001203 0.307516 0.909804 0.556863
$0b_gatlingex_red.bmp
  17 6.571522 -17.345080 -5.969729 -0.951542 0.001203 0.307516 0.909804 0.556863
  17 6.576169 -21.135014 -5.940084 -0.951542 0.001203 0.307516 0.588235 0.556863
  17 7.220290 -17.342619 -5.078777 -0.589029 0.005548 0.808093 0.909804 0.772549
$0b_gatlingex_red.bmp
  17 6.576169 -21.135014 -5.940084 -0.951542 0.001203 0.307516 0.588235 0.556863
  17 7.224937 -21.132554 -5.049133 -0.589029 0.005548 0.808093 0.588235 0.772549
  17 7.220290 -17.342619 -5.078777 -0.589029 0.005548 0.808093 0.909804 0.772549
$0b_gatlingex_red.bmp
  17 7.220290 -17.342619 -5.078777 -0.589029 0.005548 0.808093 0.909804 0.772549
  17 7.224937 -21.132554 -5.049133 -0.589029 0.005548 0.808093 0.588235 0.772549
  17 8.249813 -17.336893 -4.737385 -0.001430 0.007774 0.999969 0.909804 0.976471
$0b_gatlingex_red.bmp
  17 7.224937 -21.132554 -5.049133 -0.589029 0.005548 0.808093 0.588235 0.772549
  17 8.254460 -21.126827 -4.707741 -0.001430 0.007774 0.999969 0.588235 0.976471
  17 8.249813 -17.336893 -4.737385 -0.001430 0.007774 0.999969 0.909804 0.976471
$0b_gatlingex_red.bmp
  17 8.249813 -17.336893 -4.737385 -0.001430 0.007774 0.999969 0.909804 0.976471
  17 8.254460 -21.126827 -4.707741 -0.001430 0.007774 0.999969 0.588235 0.976471
  17 9.304933 -21.129981 -5.046262 0.586716 0.007030 0.809762 0.588235 0.772549
$0b_gatlingex_red.bmp
  17 7.224274 -17.360208 -7.948790 -0.586716 -0.007030 -0.809762 0.909804 0.772549
  17 6.577691 -21.149290 -7.029990 -0.950659 -0.003600 -0.310217 0.588235 0.556863
  17 6.573044 -17.359355 -7.059634 -0.950659 -0.003600 -0.310217 0.909804 0.556863
$0b_gatlingex_red.bmp
  17 6.573044 -17.359355 -7.059634 -0.950659 -0.003600 -0.310217 0.909804 0.556863
  17 6.577691 -21.149290 -7.029990 -0.950659 -0.003600 -0.310217 0.588235 0.556863
  17 6.572290 -17.352283 -6.519681 -0.999998 -0.001260 -0.001420 0.909804 0.435294
$0b_gatlingex_red.bmp
  17 6.577691 -21.149290 -7.029990 -0.950659 -0.003600 -0.310217 0.588235 0.556863
  17 6.576937 -21.142217 -6.490037 -0.999998 -0.001260 -0.001420 0.588235 0.435294
  17 6.572290 -17.352283 -6.519681 -0.999998 -0.001260 -0.001420 0.909804 0.435294
$0b_gatlingex_red.bmp
  17 6.572290 -17.352283 -6.519681 -0.999998 -0.001260 -0.001420 0.909804 0.435294
  17 6.576937 -21.142217 -6.490037 -0.999998 -0.001260 -0.001420 0.588235 0.435294
  17 6.576169 -21.135014 -5.940084 -0.951542 0.001203 0.307516 0.588235 0.556863
$0b_gatlingex_red.bmp
  17 9.957685 -21.145109 -7.025324 0.951542 -0.001203 -0.307516 0.588235 0.556863
  17 9.952284 -17.348103 -6.515015 0.999998 0.001260 0.001420 0.909804 0.435294
  17 9.956931 -21.138037 -6.485371 0.999998 0.001260 0.001420 0.588235 0.435294
$0b_gatlingex_red.bmp
  17 9.956931 -21.138037 -6.485371 0.999998 0.001260 0.001420 0.588235 0.435294
  17 9.952284 -17.348103 -6.515015 0.999998 0.001260 0.001420 0.909804 0.435294
  17 9.956163 -21.130834 -5.935418 0.950659 0.003600 0.310217 0.588235 0.556863
$0b_gatlingex_red.bmp
  17 9.952284 -17.348103 -6.515015 0.999998 0.001260 0.001420 0.909804 0.435294
  17 9.951516 -17.340900 -5.965062 0.950659 0.003600 0.310217 0.909804 0.556863
  17 9.956163 -21.130834 -5.935418 0.950659 0.003600 0.310217 0.588235 0.556863
$0b_gatlingex_red.bmp
  17 9.956163 -21.130834 -5.935418 0.950659 0.003600 0.310217 0.588235 0.556863
  17 9.951516 -17.340900 -5.965062 0.950659 0.003600 0.310217 0.909804 0.556863
  17 9.300286 -17.340047 -5.075906 0.586716 0.007030 0.809762 0.909804 0.772549
$0b_gatlingex_red.bmp
  3 7.397962 -8.908731 -4.176184 -0.001249 0.999969 -0.007776 0.082353 0.156863
  3 8.247683 -8.906120 -3.975017 -0.001249 0.999969 -0.007776 0.301961 0.156863
  3 8.247794 -8.906744 -4.055014 -0.001249 0.999969 -0.007776 0.301961 0.215686
$0b_gatlingex_red.bmp
  3 8.247794 -8.906744 -4.055014 -0.001249 0.999969 -0.007776 0.301961 0.215686
  3 8.247683 -8.906120 -3.975017 -0.001249 0.999969 -0.007776 0.301961 0.156863
  3 9.088084 -8.907342 -4.263848 -0.001249 0.999969 -0.007776 0.525490 0.215686
$0b_gatlingex_red.bmp
  3 8.247683 -8.906120 -3.975017 -0.001249 0.999969 -0.007776 0.301961 0.156863
  3 9.107959 -8.906616 -4.173823 -0.001249 0.999969 -0.007776 0.525490 0.156863
  3 9.088084 -8.907342 -4.263848 -0.001249 0.999969 -0.007776 0.525490 0.215686
$0b_gatlingex_red.bmp
  16 8.123874 40.013400 -6.091432 -0.000001 -1.000000 0.000000 0.486275 0.509804
  16 8.123874 40.013400 -6.431432 -0.000001 -1.000000 0.000000 0.486275 0.486275
  16 8.423874 40.013296 -6.091432 -0.000001 -1.000000 0.000000 0.509804 0.509804
$0b_gatlingex_red.bmp
  16 8.423874 40.013296 -6.091432 -0.000001 -1.000000 0.000000 0.509804 0.509804
  16 8.123874 40.013400 -6.431432 -0.000001 -1.000000 0.000000 0.486275 0.486275
  16 8.423874 40.013296 -6.431432 -0.000001 -1.000000 0.000000 0.509804 0.486275
$0b_gatlingex_red.bmp
  17 6.577691 -21.149290 -7.029990 -0.950659 -0.003600 -0.310217 0.588235 0.556863
  17 7.224274 -17.360208 -7.948790 -0.586716 -0.007030 -0.809762 0.909804 0.772549
  17 7.228920 -21.150142 -7.919146 -0.586716 -0.007030 -0.809762 0.588235 0.772549
$0b_gatlingex_red.bmp
  17 7.228920 -21.150142 -7.919146 -0.586716 -0.007030 -0.809762 0.588235 0.772549
  17 7.224274 -17.360208 -7.948790 -0.586716 -0.007030 -0.809762 0.909804 0.772549
  17 8.254747 -17.363387 -8.287339 0.001430 -0.007774 -0.999969 0.909804 0.976471
$0b_gatlingex_red.bmp
  17 9.956163 -21.130834 -5.935418 0.950659 0.003600 0.310217 0.588235 0.556863
  17 9.300286 -17.340047 -5.075906 0.586716 0.007030 0.809762 0.909804 0.772549
  17 9.304933 -21.129981 -5.046262 0.586716 0.007030 0.809762 0.588235 0.772549
$0b_gatlingex_red.bmp
  17 9.304933 -21.129981 -5.046262 0.586716 0.007030 0.809762 0.588235 0.772549
  17 9.300286 -17.340047 -5.075906 0.586716 0.007030 0.809762 0.909804 0.772549
  17 8.249813 -17.336893 -4.737385 -0.001430 0.007774 0.999969 0.909804 0.976471
$0b_gatlingex_red.bmp
  11 11.443432 -27.024181 -6.389426 -0.001249 0.999969 -0.007776 0.082353 0.215686
  11 11.443557 -27.025360 -6.479418 -0.001249 0.999969 -0.007776 0.082353 0.156863
  11 11.083432 -27.024626 -6.389923 -0.001249 0.999969 -0.007776 0.525490 0.215686
$0b_gatlingex_red.bmp
  11 11.083432 -27.024626 -6.389923 -0.001249 0.999969 -0.007776 0.525490 0.215686
  11 11.443557 -27.025360 -6.479418 -0.001249 0.999969 -0.007776 0.082353 0.156863
  11 11.083558 -27.025805 -6.479915 -0.001249 0.999969 -0.007776 0.525490 0.156863
$0b_gatlingex_red.bmp
  3 9.798681 -8.909816 -4.692854 -0.001249 0.999969 -0.007776 0.082353 0.215686
  3 9.858597 -8.909274 -4.632773 -0.001249 0.999969 -0.007776 0.082353 0.156863
  3 10.239278 -8.912624 -5.122233 -0.001249 0.999969 -0.007776 0.525490 0.215686
$0b_gatlingex_red.bmp
  3 10.239278 -8.912624 -5.122233 -0.001249 0.999969 -0.007776 0.525490 0.215686
  3 9.858597 -8.909274 -4.632773 -0.001249 0.999969 -0.007776 0.082353 0.156863
  3 10.299194 -8.912082 -5.062152 -0.001249 0.999969 -0.007776 0.525490 0.156863
$0b_gatlingex_red.bmp
  3 6.249299 -8.917638 -5.137741 -0.001249 0.999969 -0.007776 0.082353 0.215686
  3 6.189215 -8.917244 -5.077826 -0.001249 0.999969 -0.007776 0.082353 0.156863
  3 6.688686 -8.913663 -4.697148 -0.001249 0.999969 -0.007776 0.525490 0.215686
$0b_gatlingex_red.bmp
  3 6.688686 -8.913663 -4.697148 -0.001249 0.999969 -0.007776 0.525490 0.215686
  3 6.189215 -8.917244 -5.077826 -0.001249 0.999969 -0.007776 0.082353 0.156863
  3 6.628603 -8.913270 -4.637233 -0.001249 0.999969 -0.007776 0.525490 0.156863
$0b_gatlingex_red.bmp
  3 6.170837 -10.892685 -4.482432 -0.001249 0.999969 -0.007776 0.164706 0.584314
  3 10.340830 -10.887528 -4.476676 -0.001249 0.999969 -0.007776 0.164706 0.250980
  3 6.176662 -10.925351 -8.672301 -0.001249 0.999969 -0.007776 0.505882 0.584314
$0b_gatlingex_red.bmp
  3 6.176662 -10.925351 -8.672301 -0.001249 0.999969 -0.007776 0.505882 0.584314
  3 10.340830 -10.887528 -4.476676 -0.001249 0.999969 -0.007776 0.164706 0.250980
  3 10.346654 -10.920193 -8.666544 -0.001249 0.999969 -0.007776 0.505882 0.250980
$0b_gatlingex_red.bmp
  3 5.845680 -13.244091 -5.884596 -0.940180 0.001475 0.340675 0.082353 0.909804
  3 5.925375 -13.242277 -5.664493 -0.940180 0.001475 0.340675 0.082353 0.854902
  3 5.843620 -11.564143 -5.897696 -0.940180 0.001475 0.340675 0.301961 0.909804
$0b_gatlingex_red.bmp
  3 5.843620 -11.564143 -5.897696 -0.940180 0.001475 0.340675 0.301961 0.909804
  3 5.925375 -13.242277 -5.664493 -0.940180 0.001475 0.340675 0.082353 0.854902
  3 5.923315 -11.562329 -5.677593 -0.940180 0.001475 0.340675 0.301961 0.854902
$0b_gatlingex_red.bmp
  3 6.103700 -12.934735 -4.726613 -0.708116 0.004606 0.706081 0.082353 0.909804
  3 6.303407 -12.932851 -4.516343 -0.708116 0.004606 0.706081 0.082353 0.854902
  3 6.102057 -11.594777 -4.737062 -0.708116 0.004606 0.706081 0.301961 0.909804
$0b_gatlingex_red.bmp
  3 6.102057 -11.594777 -4.737062 -0.708116 0.004606 0.706081 0.301961 0.909804
  3 6.303407 -12.932851 -4.516343 -0.708116 0.004606 0.706081 0.082353 0.854902
  3 6.301764 -11.592893 -4.526793 -0.708116 0.004606 0.706081 0.301961 0.854902
$0b_gatlingex_red.bmp
  3 6.309067 -9.392949 -4.543934 -0.708116 0.004606 0.706081 0.101961 0.800000
  3 6.099345 -9.394768 -4.744218 -0.708116 0.004606 0.706081 0.101961 0.741176
  3 6.310170 -10.292921 -4.536916 -0.708116 0.004606 0.706081 0.231373 0.800000
$0b_gatlingex_red.bmp
  3 6.310170 -10.292921 -4.536916 -0.708116 0.004606 0.706081 0.231373 0.800000
  3 6.099345 -9.394768 -4.744218 -0.708116 0.004606 0.706081 0.101961 0.741176
  3 6.100449 -10.294740 -4.737200 -0.708116 0.004606 0.706081 0.231373 0.741176
$0b_gatlingex_red.bmp
  3 7.697192 -9.777964 -2.838949 -0.996949 -0.000638 0.078050 0.074510 0.521569
  3 7.696787 -9.447974 -2.841523 -0.996949 -0.000638 0.078050 0.074510 0.427451
  3 7.667665 -9.780651 -3.178980 -0.996949 -0.000638 0.078050 0.172549 0.521569
$0b_gatlingex_red.bmp
  3 7.667665 -9.780651 -3.178980 -0.996949 -0.000638 0.078050 0.172549 0.521569
  3 7.696787 -9.447974 -2.841523 -0.996949 -0.000638 0.078050 0.074510 0.427451
  3 7.667260 -9.450662 -3.181554 -0.996949 -0.000638 0.078050 0.172549 0.427451
$0b_gatlingex_red.bmp
  3 6.304805 -14.072815 -4.507454 -0.708116 0.004606 0.706081 0.082353 0.337255
  3 6.105097 -14.074700 -4.717723 -0.708116 0.004606 0.706081 0.082353 0.286275
  3 6.305148 -14.352807 -4.505270 -0.708116 0.004606 0.706081 0.113725 0.337255
$0b_gatlingex_red.bmp
  3 6.305148 -14.352807 -4.505270 -0.708116 0.004606 0.706081 0.113725 0.337255
  3 6.105097 -14.074700 -4.717723 -0.708116 0.004606 0.706081 0.082353 0.286275
  3 6.105441 -14.354691 -4.715540 -0.708116 0.004606 0.706081 0.113725 0.286275
$0b_gatlingex_red.bmp
  3 5.941058 -16.740030 -6.647233 -0.999998 -0.001260 -0.001420 0.082353 0.909804
  3 5.940738 -16.738237 -6.417240 -0.999998 -0.001260 -0.001420 0.082353 0.854902
  3 5.938887 -14.970085 -6.661035 -0.999998 -0.001260 -0.001420 0.301961 0.909804
$0b_gatlingex_red.bmp
  3 5.938887 -14.970085 -6.661035 -0.999998 -0.001260 -0.001420 0.301961 0.909804
  3 5.940738 -16.738237 -6.417240 -0.999998 -0.001260 -0.001420 0.082353 0.854902
  3 5.938568 -14.968292 -6.431042 -0.999998 -0.001260 -0.001420 0.301961 0.854902
$0b_gatlingex_red.bmp
  3 8.147648 -16.718196 -4.194258 -0.001430 0.007774 0.999969 0.082353 0.909804
  3 8.367648 -16.717924 -4.193955 -0.001430 0.007774 0.999969 0.082353 0.854902
  3 8.145478 -14.948251 -4.208061 -0.001430 0.007774 0.999969 0.301961 0.909804
$0b_gatlingex_red.bmp
  3 8.145478 -14.948251 -4.208061 -0.001430 0.007774 0.999969 0.301961 0.909804
  3 8.367648 -16.717924 -4.193955 -0.001430 0.007774 0.999969 0.082353 0.854902
  3 8.365477 -14.947979 -4.207757 -0.001430 0.007774 0.999969 0.301961 0.854902
$0b_gatlingex_red.bmp
  3 8.374126 -16.754254 -8.853809 0.001430 -0.007774 -0.999969 0.082353 0.909804
  3 8.154126 -16.754526 -8.854112 0.001430 -0.007774 -0.999969 0.082353 0.854902
  3 8.371955 -14.984309 -8.867611 0.001430 -0.007774 -0.999969 0.301961 0.909804
$0b_gatlingex_red.bmp
  3 8.371955 -14.984309 -8.867611 0.001430 -0.007774 -0.999969 0.301961 0.909804
  3 8.154126 -16.754526 -8.854112 0.001430 -0.007774 -0.999969 0.082353 0.854902
  3 8.151956 -14.984581 -8.867915 0.001430 -0.007774 -0.999969 0.301961 0.854902
$0b_gatlingex_red.bmp
  3 10.580730 -16.732498 -6.410834 0.999998 0.001260 0.001420 0.082353 0.909804
  3 10.581049 -16.734291 -6.640827 0.999998 0.001260 0.001420 0.082353 0.854902
  3 10.578560 -14.962553 -6.424636 0.999998 0.001260 0.001420 0.301961 0.909804
$0b_gatlingex_red.bmp
  3 10.578560 -14.962553 -6.424636 0.999998 0.001260 0.001420 0.301961 0.909804
  3 10.581049 -16.734291 -6.640827 0.999998 0.001260 0.001420 0.082353 0.854902
  3 10.578879 -14.964346 -6.654629 0.999998 0.001260 0.001420 0.301961 0.854902
$0b_gatlingex_red.bmp
  6 8.486823 -17.184800 -3.187580 -0.999998 -0.001260 -0.001420 0.082353 0.215686
  6 8.486915 -17.180902 -3.257472 -0.999998 -0.001260 -0.001420 0.082353 0.156863
  6 8.487702 -17.864301 -3.215459 -0.999998 -0.001260 -0.001420 0.525490 0.215686
$0b_gatlingex_red.bmp
  6 8.487702 -17.864301 -3.215459 -0.999998 -0.001260 -0.001420 0.525490 0.215686
  6 8.486915 -17.180902 -3.257472 -0.999998 -0.001260 -0.001420 0.082353 0.156863
  6 8.487806 -17.859847 -3.295334 -0.999998 -0.001260 -0.001420 0.525490 0.156863
$0b_gatlingex_red.bmp
  6 8.037820 -17.870388 -3.296512 -0.999998 -0.001260 -0.001420 0.082353 0.215686
  6 8.037729 -17.874286 -3.226621 -0.999998 -0.001260 -0.001420 0.082353 0.156863
  6 8.036928 -17.191443 -3.258650 -0.999998 -0.001260 -0.001420 0.525490 0.215686
$0b_gatlingex_red.bmp
  6 8.036928 -17.191443 -3.258650 -0.999998 -0.001260 -0.001420 0.525490 0.215686
  6 8.037729 -17.874286 -3.226621 -0.999998 -0.001260 -0.001420 0.082353 0.156863
  6 8.036837 -17.195341 -3.188758 -0.999998 -0.001260 -0.001420 0.525490 0.156863
$0b_gatlingex_red.bmp
  9 4.924258 -17.239261 -6.289051 0.001430 -0.007774 -0.999969 0.082353 0.215686
  9 4.993797 -17.226440 -6.289054 0.001430 -0.007774 -0.999969 0.082353 0.156863
  9 4.971313 -17.907885 -6.283772 0.001430 -0.007774 -0.999969 0.525490 0.215686
$0b_gatlingex_red.bmp
  9 4.971313 -17.907885 -6.283772 0.001430 -0.007774 -0.999969 0.525490 0.215686
  9 4.993797 -17.226440 -6.289054 0.001430 -0.007774 -0.999969 0.082353 0.156863
  9 5.041256 -17.905056 -6.283697 0.001430 -0.007774 -0.999969 0.525490 0.156863
$0b_gatlingex_red.bmp
  9 5.042286 -17.918556 -6.733605 0.001430 -0.007774 -0.999969 0.082353 0.215686
  9 4.972343 -17.921385 -6.733680 0.001430 -0.007774 -0.999969 0.082353 0.156863
  9 5.004818 -17.239536 -6.738951 0.001430 -0.007774 -0.999969 0.525490 0.215686
$0b_gatlingex_red.bmp
  9 5.004818 -17.239536 -6.738951 0.001430 -0.007774 -0.999969 0.525490 0.215686
  9 4.972343 -17.921385 -6.733680 0.001430 -0.007774 -0.999969 0.082353 0.156863
  9 4.935280 -17.252357 -6.738947 0.001430 -0.007774 -0.999969 0.525490 0.156863
$0b_gatlingex_red.bmp
  8 8.050694 -17.256595 -9.843335 0.999998 0.001260 0.001420 0.082353 0.215686
  8 8.050597 -17.253007 -9.773427 0.999998 0.001260 0.001420 0.082353 0.156863
  8 8.051472 -17.935188 -9.798490 0.999998 0.001260 0.001420 0.525490 0.215686
$0b_gatlingex_red.bmp
  8 8.051472 -17.935188 -9.798490 0.999998 0.001260 0.001420 0.525490 0.215686
  8 8.050597 -17.253007 -9.773427 0.999998 0.001260 0.001420 0.082353 0.156863
  8 8.051375 -17.931600 -9.728582 0.999998 0.001260 0.001420 0.525490 0.156863
$0b_gatlingex_red.bmp
  8 8.501372 -17.940518 -9.717484 0.999998 0.001260 0.001420 0.082353 0.215686
  8 8.501469 -17.944107 -9.787392 0.999998 0.001260 0.001420 0.082353 0.156863
  8 8.500594 -17.261926 -9.762329 0.999998 0.001260 0.001420 0.525490 0.215686
$0b_gatlingex_red.bmp
  8 8.500594 -17.261926 -9.762329 0.999998 0.001260 0.001420 0.525490 0.215686
  8 8.501469 -17.944107 -9.787392 0.999998 0.001260 0.001420 0.082353 0.156863
  8 8.500705 -17.266027 -9.842224 0.999998 0.001260 0.001420 0.525490 0.156863
$0b_gatlingex_red.bmp
  7 11.584156 -17.231759 -6.733249 -0.001430 0.007774 0.999969 0.082353 0.215686
  7 11.514240 -17.228334 -6.733373 -0.001430 0.007774 0.999969 0.082353 0.156863
  7 11.550871 -17.910924 -6.728001 -0.001430 0.007774 0.999969 0.525490 0.215686
$0b_gatlingex_red.bmp
  7 11.550871 -17.910924 -6.728001 -0.001430 0.007774 0.999969 0.525490 0.215686
  7 11.514240 -17.228334 -6.733373 -0.001430 0.007774 0.999969 0.082353 0.156863
  7 11.471456 -17.897021 -6.728219 -0.001430 0.007774 0.999969 0.525490 0.156863
$0b_gatlingex_red.bmp
  7 11.470327 -17.903423 -6.268157 -0.001430 0.007774 0.999969 0.082353 0.215686
  7 11.539753 -17.916836 -6.267956 -0.001430 0.007774 0.999969 0.082353 0.156863
  7 11.513111 -17.234736 -6.273310 -0.001430 0.007774 0.999969 0.525490 0.215686
$0b_gatlingex_red.bmp
  7 11.513111 -17.234736 -6.273310 -0.001430 0.007774 0.999969 0.525490 0.215686
  7 11.539753 -17.916836 -6.267956 -0.001430 0.007774 0.999969 0.082353 0.156863
  7 11.583027 -17.238161 -6.273186 -0.001430 0.007774 0.999969 0.525490 0.156863
$0b_gatlingex_red.bmp
  11 6.994910 -29.425725 -5.314094 -0.740416 0.004302 0.672135 0.082353 0.909804
  11 7.154672 -29.423301 -5.143888 -0.740416 0.004302 0.672135 0.082353 0.854902
  11 6.993446 -28.235697 -5.319682 -0.740416 0.004302 0.672135 0.301961 0.909804
$0b_gatlingex_red.bmp
  11 6.993446 -28.235697 -5.319682 -0.740416 0.004302 0.672135 0.301961 0.909804
  11 7.154672 -29.423301 -5.143888 -0.740416 0.004302 0.672135 0.082353 0.854902
  11 7.153208 -28.233273 -5.149475 -0.740416 0.004302 0.672135 0.301961 0.854902
$0b_gatlingex_red.bmp
  11 7.158235 -29.446829 -7.703797 -0.672147 -0.006597 -0.740388 0.082353 0.909804
  11 6.988012 -29.444944 -7.544045 -0.672147 -0.006597 -0.740388 0.082353 0.854902
  11 7.156771 -28.256801 -7.709384 -0.672147 -0.006597 -0.740388 0.301961 0.909804
$0b_gatlingex_red.bmp
  11 7.156771 -28.256801 -7.709384 -0.672147 -0.006597 -0.740388 0.301961 0.909804
  11 6.988012 -29.444944 -7.544045 -0.672147 -0.006597 -0.740388 0.082353 0.854902
  11 6.986548 -28.254916 -7.549633 -0.672147 -0.006597 -0.740388 0.301961 0.854902
$0b_gatlingex_red.bmp
  11 9.587994 -29.441597 -7.530457 0.740416 -0.004302 -0.672135 0.082353 0.909804
  11 9.428231 -29.444021 -7.700663 0.740416 -0.004302 -0.672135 0.082353 0.854902
  11 9.586529 -28.251569 -7.536044 0.740416 -0.004302 -0.672135 0.301961 0.909804
$0b_gatlingex_red.bmp
  11 9.586529 -28.251569 -7.536044 0.740416 -0.004302 -0.672135 0.301961 0.909804
  11 9.428231 -29.444021 -7.700663 0.740416 -0.004302 -0.672135 0.082353 0.854902
  11 9.426781 -28.254124 -7.716250 0.740416 -0.004302 -0.672135 0.301961 0.854902
$0b_gatlingex_red.bmp
  11 9.424668 -29.420493 -5.140754 0.734121 0.006197 0.678990 0.082353 0.909804
  11 9.584905 -29.422522 -5.310518 0.734121 0.006197 0.678990 0.082353 0.854902
  11 9.423204 -28.230465 -5.146342 0.734121 0.006197 0.678990 0.301961 0.909804
$0b_gatlingex_red.bmp
  11 9.423204 -28.230465 -5.146342 0.734121 0.006197 0.678990 0.301961 0.909804
  11 9.584905 -29.422522 -5.310518 0.734121 0.006197 0.678990 0.082353 0.854902
  11 9.583441 -28.232494 -5.316106 0.734121 0.006197 0.678990 0.301961 0.854902
$0b_gatlingex_red.bmp
  11 8.229104 -27.007289 -3.273866 -0.001249 0.999969 -0.007776 0.082353 0.215686
  11 8.309104 -27.007190 -3.273756 -0.001249 0.999969 -0.007776 0.082353 0.156863
  11 8.229593 -27.011872 -3.623836 -0.001249 0.999969 -0.007776 0.525490 0.215686
$0b_gatlingex_red.bmp
  11 8.229593 -27.011872 -3.623836 -0.001249 0.999969 -0.007776 0.525490 0.215686
  11 8.309104 -27.007190 -3.273756 -0.001249 0.999969 -0.007776 0.082353 0.156863
  11 8.309593 -27.011773 -3.623726 -0.001249 0.999969 -0.007776 0.525490 0.156863
$0b_gatlingex_red.bmp
  11 8.237419 -27.055608 -9.253740 -0.001249 0.999969 -0.007776 0.082353 0.215686
  11 8.317419 -27.055509 -9.253630 -0.001249 0.999969 -0.007776 0.082353 0.156863
  11 8.237908 -27.060192 -9.603710 -0.001249 0.999969 -0.007776 0.525490 0.215686
$0b_gatlingex_red.bmp
  11 8.237908 -27.060192 -9.603710 -0.001249 0.999969 -0.007776 0.525490 0.215686
  11 8.317419 -27.055509 -9.253630 -0.001249 0.999969 -0.007776 0.082353 0.156863
  11 8.317908 -27.060093 -9.603600 -0.001249 0.999969 -0.007776 0.525490 0.156863
$0b_gatlingex_red.bmp
  11 5.453454 -27.041589 -6.397565 -0.001249 0.999969 -0.007776 0.082353 0.215686
  11 5.453568 -27.032769 -6.487688 -0.001249 0.999969 -0.007776 0.082353 0.156863
  11 5.103454 -27.042022 -6.398048 -0.001249 0.999969 -0.007776 0.525490 0.215686
$0b_gatlingex_red.bmp
  11 5.103454 -27.042022 -6.398048 -0.001249 0.999969 -0.007776 0.525490 0.215686
  11 5.453568 -27.032769 -6.487688 -0.001249 0.999969 -0.007776 0.082353 0.156863
  11 5.103568 -27.033202 -6.488171 -0.001249 0.999969 -0.007776 0.525490 0.156863
$0b_gatlingex_red.bmp
  14 8.183507 -10.380774 -4.289588 -0.001430 0.007774 0.999969 0.082353 0.215686
  14 8.323507 -10.380608 -4.289588 -0.001430 0.007774 0.999969 0.082353 0.156863
  14 8.182262 -9.330778 -4.299896 -0.001430 0.007774 0.999969 0.525490 0.215686
$0b_gatlingex_red.bmp
  14 8.182262 -9.330778 -4.299896 -0.001430 0.007774 0.999969 0.525490 0.215686
  14 8.323507 -10.380608 -4.289588 -0.001430 0.007774 0.999969 0.082353 0.156863
  14 8.322261 -9.330612 -4.299896 -0.001430 0.007774 0.999969 0.525490 0.156863
$0b_gatlingex_red.bmp
  14 7.053508 -10.382215 -4.629588 -0.501238 0.006103 0.865288 0.082353 0.215686
  14 7.183508 -10.382040 -4.559588 -0.501238 0.006103 0.865288 0.082353 0.156863
  14 7.052263 -9.332218 -4.639897 -0.501238 0.006103 0.865288 0.525490 0.215686
$0b_gatlingex_red.bmp
  14 7.052263 -9.332218 -4.639897 -0.501238 0.006103 0.865288 0.525490 0.215686
  14 7.183508 -10.382040 -4.559588 -0.501238 0.006103 0.865288 0.082353 0.156863
  14 7.182262 -9.332041 -4.559897 -0.501238 0.006103 0.865288 0.525490 0.156863
$0b_gatlingex_red.bmp
  14 6.243522 -10.393428 -5.489586 -0.866739 0.002796 0.498754 0.082353 0.215686
  14 6.313521 -10.393307 -5.359586 -0.866739 0.002796 0.498754 0.082353 0.156863
  14 6.242276 -9.343432 -5.499894 -0.866739 0.002796 0.498754 0.525490 0.215686
$0b_gatlingex_red.bmp
  14 6.242276 -9.343432 -5.499894 -0.866739 0.002796 0.498754 0.525490 0.215686
  14 6.313521 -10.393307 -5.359586 -0.866739 0.002796 0.498754 0.082353 0.156863
  14 6.312276 -9.343311 -5.369894 -0.866739 0.002796 0.498754 0.525490 0.156863
$0b_gatlingex_red.bmp
  14 5.973535 -10.404083 -6.629583 -0.999998 -0.001260 -0.001420 0.082353 0.215686
  14 5.973523 -10.394042 -6.489586 -0.999998 -0.001260 -0.001420 0.082353 0.156863
  14 5.972289 -9.354087 -6.639891 -0.999998 -0.001260 -0.001420 0.525490 0.215686
$0b_gatlingex_red.bmp
  14 5.972289 -9.354087 -6.639891 -0.999998 -0.001260 -0.001420 0.525490 0.215686
  14 5.973523 -10.394042 -6.489586 -0.999998 -0.001260 -0.001420 0.082353 0.156863
  14 5.972289 -9.354046 -6.499891 -0.999998 -0.001260 -0.001420 0.525490 0.156863
$0b_gatlingex_red.bmp
  14 6.313535 -10.404012 -7.759583 -0.865309 -0.004978 -0.501214 0.082353 0.215686
  14 6.233535 -10.404068 -7.629583 -0.865309 -0.004978 -0.501214 0.082353 0.156863
  14 6.302301 -9.364027 -7.769888 -0.865309 -0.004978 -0.501214 0.525490 0.215686
$0b_gatlingex_red.bmp
  14 6.302301 -9.364027 -7.769888 -0.865309 -0.004978 -0.501214 0.525490 0.215686
  14 6.233535 -10.404068 -7.629583 -0.865309 -0.004978 -0.501214 0.082353 0.156863
  14 6.232301 -9.364072 -7.639888 -0.865309 -0.004978 -0.501214 0.525490 0.156863
$0b_gatlingex_red.bmp
  14 7.163547 -10.413241 -8.569579 -0.498759 -0.007363 -0.866710 0.082353 0.215686
  14 7.033547 -10.413374 -8.499579 -0.498759 -0.007363 -0.866710 0.082353 0.156863
  14 7.162302 -9.363244 -8.579888 -0.498759 -0.007363 -0.866710 0.525490 0.215686
$0b_gatlingex_red.bmp
  14 7.162302 -9.363244 -8.579888 -0.498759 -0.007363 -0.866710 0.525490 0.215686
  14 7.033547 -10.413374 -8.499579 -0.498759 -0.007363 -0.866710 0.082353 0.156863
  14 7.032302 -9.363375 -8.499888 -0.498759 -0.007363 -0.866710 0.525490 0.156863
$0b_gatlingex_red.bmp
  14 8.303547 -10.411967 -8.839579 0.001430 -0.007774 -0.999969 0.082353 0.215686
  14 8.163547 -10.412134 -8.839579 0.001430 -0.007774 -0.999969 0.082353 0.156863
  14 8.302301 -9.361971 -8.849887 0.001430 -0.007774 -0.999969 0.525490 0.215686
$0b_gatlingex_red.bmp
  14 8.302301 -9.361971 -8.849887 0.001430 -0.007774 -0.999969 0.525490 0.215686
  14 8.163547 -10.412134 -8.839579 0.001430 -0.007774 -0.999969 0.082353 0.156863
  14 8.162301 -9.362137 -8.849887 0.001430 -0.007774 -0.999969 0.525490 0.156863
$0b_gatlingex_red.bmp
  14 9.443546 -10.410515 -8.499578 0.501238 -0.006103 -0.865288 0.082353 0.215686
  14 9.303546 -10.410705 -8.579578 0.501238 -0.006103 -0.865288 0.082353 0.156863
  14 9.442300 -9.360519 -8.509887 0.501238 -0.006103 -0.865288 0.525490 0.215686
$0b_gatlingex_red.bmp
  14 9.442300 -9.360519 -8.509887 0.501238 -0.006103 -0.865288 0.525490 0.215686
  14 9.303546 -10.410705 -8.579578 0.501238 -0.006103 -0.865288 0.082353 0.156863
  14 9.302300 -9.360708 -8.589887 0.501238 -0.006103 -0.865288 0.525490 0.156863
$0b_gatlingex_red.bmp
  14 10.243533 -10.399313 -7.639581 0.866739 -0.002796 -0.498755 0.082353 0.215686
  14 10.173533 -10.399438 -7.779581 0.866739 -0.002796 -0.498755 0.082353 0.156863
  14 10.242299 -9.359317 -7.649886 0.866739 -0.002796 -0.498755 0.525490 0.215686
$0b_gatlingex_red.bmp
  14 10.242299 -9.359317 -7.649886 0.866739 -0.002796 -0.498755 0.525490 0.215686
  14 10.173533 -10.399438 -7.779581 0.866739 -0.002796 -0.498755 0.082353 0.156863
  14 10.172299 -9.359438 -7.779886 0.866739 -0.002796 -0.498755 0.525490 0.156863
$0b_gatlingex_red.bmp
  14 10.523520 -10.388649 -6.509584 0.999998 0.001260 0.001420 0.082353 0.215686
  14 10.523531 -10.398691 -6.649581 0.999998 0.001260 0.001420 0.082353 0.156863
  14 10.522286 -9.348650 -6.509889 0.999998 0.001260 0.001420 0.525490 0.215686
$0b_gatlingex_red.bmp
  14 10.522286 -9.348650 -6.509889 0.999998 0.001260 0.001420 0.525490 0.215686
  14 10.523531 -10.398691 -6.649581 0.999998 0.001260 0.001420 0.082353 0.156863
  14 10.522286 -9.348694 -6.659889 0.999998 0.001260 0.001420 0.525490 0.156863
$0b_gatlingex_red.bmp
  14 10.183519 -10.388718 -5.369584 0.865309 0.004978 0.501214 0.082353 0.215686
  14 10.253519 -10.388676 -5.509584 0.865309 0.004978 0.501214 0.082353 0.156863
  14 10.182273 -9.338722 -5.379892 0.865309 0.004978 0.501214 0.525490 0.215686
$0b_gatlingex_red.bmp
  14 10.182273 -9.338722 -5.379892 0.865309 0.004978 0.501214 0.525490 0.215686
  14 10.253519 -10.388676 -5.509584 0.865309 0.004978 0.501214 0.082353 0.156863
  14 10.252273 -9.338677 -5.509892 0.865309 0.004978 0.501214 0.525490 0.156863
$0b_gatlingex_red.bmp
  14 9.323507 -10.379501 -4.559587 0.498761 0.007363 0.866708 0.082353 0.215686
  14 9.453507 -10.379370 -4.639587 0.498761 0.007363 0.866708 0.082353 0.156863
  14 9.322261 -9.329504 -4.569896 0.498761 0.007363 0.866708 0.525490 0.215686
$0b_gatlingex_red.bmp
  14 9.322261 -9.329504 -4.569896 0.498761 0.007363 0.866708 0.525490 0.215686
  14 9.453507 -10.379370 -4.639587 0.498761 0.007363 0.866708 0.082353 0.156863
  14 9.452261 -9.329374 -4.649895 0.498761 0.007363 0.866708 0.525490 0.156863
$0b_gatlingex_red.bmp
  4 9.292161 -13.876060 -2.765354 -0.001249 0.999969 -0.007776 0.003922 0.141176
  4 9.292705 -13.881168 -3.155320 -0.001249 0.999969 -0.007776 0.003922 0.035294
  4 7.182165 -13.878670 -2.768265 -0.001249 0.999969 -0.007776 0.556863 0.141176
$0b_gatlingex_red.bmp
  4 7.182165 -13.878670 -2.768265 -0.001249 0.999969 -0.007776 0.556863 0.141176
  4 9.292705 -13.881168 -3.155320 -0.001249 0.999969 -0.007776 0.003922 0.035294
  4 7.182709 -13.883777 -3.158231 -0.001249 0.999969 -0.007776 0.556863 0.035294
$0b_gatlingex_red.bmp
  4 7.292290 -13.879713 -2.858105 -0.001249 0.999969 -0.007776 0.325490 0.866667
  4 7.293576 -13.881893 -3.788156 -0.001249 0.999969 -0.007776 0.325490 0.682353
  4 6.352292 -13.880875 -2.859402 -0.001249 0.999969 -0.007776 0.509804 0.866667
$0b_gatlingex_red.bmp
  4 6.352292 -13.880875 -2.859402 -0.001249 0.999969 -0.007776 0.509804 0.866667
  4 7.293576 -13.881893 -3.788156 -0.001249 0.999969 -0.007776 0.325490 0.682353
  4 6.353578 -13.883055 -3.789452 -0.001249 0.999969 -0.007776 0.509804 0.682353
$0b_gatlingex_red.bmp
  4 9.202287 -13.877350 -2.855470 0.001249 -0.999969 0.007776 0.325490 0.866667
  4 9.203573 -13.879530 -3.785521 0.001249 -0.999969 0.007776 0.325490 0.682353
  4 10.142285 -13.876187 -2.854174 0.001249 -0.999969 0.007776 0.509804 0.866667
$0b_gatlingex_red.bmp
  4 10.142285 -13.876187 -2.854174 0.001249 -0.999969 0.007776 0.509804 0.866667
  4 9.203573 -13.879530 -3.785521 0.001249 -0.999969 0.007776 0.325490 0.682353
  4 10.143571 -13.878367 -3.784224 0.001249 -0.999969 0.007776 0.509804 0.682353
$0b_gatlingex_red.bmp
  3 8.247794 -8.906744 -4.055014 -0.001249 0.999969 -0.007776 0.301961 0.215686
  3 7.408087 -8.909420 -4.266167 -0.001249 0.999969 -0.007776 0.082353 0.215686
  3 7.397962 -8.908731 -4.176184 -0.001249 0.999969 -0.007776 0.082353 0.156863
end
