// Created by Crowbar 0.34.0.0

$ModelName "weapons/tfa_cso/w_darkknight_v8.mdl"

$BodyGroup "studio"
{
	studio "v_buffm4_d3a3_v_m4a1buffA"
}

$collisionmodel "v_buffm4_d3a3_v_m4a1buffA.smd"
{
	$mass 9
}

$CDMaterials "models\weapons\tfa_cso\darkknight_v8"

$attachment "0" "root" 0.50 18.80 -0.30 rotate -0 0 0

$Sequence "idle" {
	"anims\idle.smd"
	fps 30
}