version 1
nodes
  0 "root" -1
  1 "Bone04" 0
  2 "Bone_Righthand" 1
  3 "ozwpnset1_root" 2
  4 "chainF11" 3
  5 "chainF1" 4
  6 "chainF21" 3
  7 "pipe1" 3
  8 "pipe2" 3
  9 "chain12" 3
  10 "chain11" 9
  11 "chain1" 10
  12 "chain22" 3
  13 "chain21" 12
  14 "bodycover02" 3
  15 "bodycover03" 3
  16 "bodycover1" 3
  17 "magazine_Body" 3
  18 "magazine3" 17
  19 "magazine_rot" 17
  20 "magazine1" 19
  21 "magazine2" 19
  22 "Bone01" 0
  23 "Bone_L_Upper" 22
  24 "Bone_Lefthand" 22
  25 "Bone13" 24
  26 "Bone14" 25
  27 "Bone15" 26
  28 "Bone17" 24
  29 "Bone18" 28
  30 "Bone19" 29
  31 "Bone21" 24
  32 "Bone22" 31
  33 "Bone23" 32
  34 "Bone09" 24
  35 "Bone10" 34
  36 "Bone11" 35
  37 "Bone05" 24
  38 "Bone06" 37
  39 "Bone07" 38
  40 "Bone_Se_Hand-L" 24
  41 "Bone39" 2
  42 "Bone40" 41
  43 "Bone41" 42
  44 "Bone35" 2
  45 "Bone36" 44
  46 "Bone37" 45
  47 "Bone31" 2
  48 "Bone32" 47
  49 "Bone33" 48
  50 "Bone43" 2
  51 "Bone44" 50
  52 "Bone45" 51
  53 "Bone27" 2
  54 "Bone28" 53
  55 "Bone29" 54
  56 "Bone_Se_Hand-R" 2
  57 "Bone_R_Upper" 1
end
skeleton
  time 0
    0 -0.199225 -3.449324 -0.566424 0.000000 -0.174532 0.000000
    1 -2.555995 -8.576255 -5.449214 0.134251 -3.157262 0.752320
    2 0.096945 -8.450418 -0.009364 0.070456 -0.189998 0.255289
    3 -0.545529 -2.707051 0.585805 1.511243 0.303605 0.490428
    4 -0.136844 6.541830 13.780921 0.000000 0.000000 -1.570796
    5 -0.686620 0.294763 -0.000001 0.000000 0.000000 0.000000
    6 0.836242 6.541831 13.780921 0.000000 0.000000 -1.570796
    7 -2.322148 3.262281 -0.924553 0.174496 1.570787 0.000000
    8 1.785817 4.603365 -8.312910 0.174494 1.570787 0.000000
    9 1.568528 1.140103 -0.352429 0.000000 0.000000 -1.570796
    10 -0.886585 0.161396 -0.349560 0.000000 0.000000 0.000000
    11 -0.523059 0.485281 -0.201933 0.000000 0.000000 0.000000
    12 2.279250 1.020314 -0.233879 0.000000 0.000000 -1.570796
    13 -1.006374 0.018205 -0.231159 0.000000 0.000000 0.000000
    14 -0.000001 3.053805 -3.287379 0.000000 0.000000 -1.570796
    15 -0.000002 3.053804 -4.941231 0.000000 0.000000 -1.570796
    16 0.000000 3.053805 -1.401840 0.000000 0.000000 -1.570796
    17 0.000006 7.892565 -1.494321 -1.570796 1.570796 0.000000
    18 -0.290093 0.869169 10.227669 1.570797 0.000000 -0.000001
    19 5.808486 -0.000115 -0.000011 0.006969 0.000000 3.141577
    20 6.098544 2.048650 -2.077436 -1.563827 -3.141592 0.000016
    21 6.098440 -0.015417 -2.923415 -0.778437 -3.141592 0.000016
    22 7.782713 7.700783 -5.452273 5.444019 -1.736187 0.615171
    23 1.257180 8.762585 -0.153713 -1.570562 0.002683 -1.566807
    24 -0.071921 -8.498736 -0.104134 0.122224 0.332113 0.023155
    25 -0.488518 -2.755602 -0.228260 -0.726376 0.079843 -0.218961
    26 0.039887 -1.479790 0.029854 -1.552686 0.000000 0.000001
    27 0.028786 -1.075731 -0.023109 -0.992502 0.000000 0.000000
    28 0.250027 -2.820665 -0.238396 -0.572168 0.103586 -0.135716
    29 -0.049759 -1.680544 0.100479 -1.641977 0.000000 -0.000002
    30 -0.034142 -1.148312 0.084782 -0.829271 0.000000 0.000000
    31 0.957766 -2.746780 -0.090302 -0.293392 -0.016437 0.087927
    32 -0.033420 -1.397129 -0.011257 -1.011454 0.000000 -0.000001
    33 -0.022360 -0.957436 0.018784 -0.872810 0.000000 0.000000
    34 -1.180681 -2.507217 -0.193859 -0.372948 0.114156 -0.031562
    35 -0.024967 -1.123934 0.017597 -1.365604 0.000000 0.000001
    36 -0.020057 -0.890968 0.010090 -0.866461 0.000000 0.000000
    37 0.583510 -1.197277 0.185379 0.197567 -0.606348 -0.142412
    38 1.535927 0.010246 0.005009 -0.002964 -0.012979 -0.374849
    39 1.100771 0.004527 -0.010679 -0.015955 0.002850 -1.217442
    40 0.077183 0.348180 -0.097459 -2.729208 6.116441 -1.525883
    41 0.447953 -2.798986 -0.200443 -1.021660 0.000534 0.163141
    42 -0.032909 -1.480204 0.004940 -1.641066 0.000000 0.000002
    43 -0.027022 -1.076920 -0.020210 -1.574534 0.000000 0.000000
    44 -0.249534 -2.846964 -0.174213 -0.611012 -0.003049 0.061474
    45 0.043235 -1.683941 0.096012 -1.849639 0.002823 -0.000167
    46 0.031729 -1.160830 0.058838 -1.197501 0.003183 -0.003517
    47 -0.963866 -2.785145 -0.085350 -0.559859 0.000065 -0.034534
    48 0.028479 -1.403067 0.006271 -1.649121 0.000000 0.000000
    49 0.021413 -0.957781 0.020046 -1.040402 0.000000 0.000000
    50 1.164475 -2.543940 -0.170330 -1.195396 0.008266 0.221157
    51 0.024032 -1.129042 0.017807 -1.078848 0.000000 0.000001
    52 0.014898 -0.883989 -0.019848 -1.745668 0.000000 0.000000
    53 -0.586770 -1.264477 0.200161 0.229198 -0.611231 -2.635610
    54 1.522835 0.058681 0.016848 0.001410 0.008985 0.881754
    55 1.117947 0.048424 -0.005766 -0.019047 -0.016497 0.913483
    56 -0.030021 -0.006226 -0.028573 0.165908 0.129871 1.436268
    57 -1.393470 8.839177 -0.239433 1.580804 -0.005023 -1.566847
  time 1
    0 -0.199225 -3.449324 -0.566424 0.000000 -0.174532 0.000000
    1 -2.559901 -7.951236 -5.453120 0.134251 -3.157262 0.752320
    2 0.096945 -8.450418 -0.009364 0.070456 -0.189998 0.255289
    3 -0.545529 -2.707051 0.585805 1.511243 0.303605 0.490428
    4 -0.136844 6.541830 13.780921 0.000000 0.000000 -1.570796
    5 -0.686620 0.294763 -0.000001 0.000000 0.000000 0.000000
    6 0.836242 6.541831 13.780921 0.000000 0.000000 -1.570796
    7 -2.322148 3.262281 -0.924553 1.745243 1.561043 1.570700
    8 1.785817 4.603365 -8.312910 1.745216 1.565322 1.570740
    9 1.568528 1.140103 -0.352429 0.000000 0.000000 -1.570796
    10 -0.898304 0.251242 -0.205024 0.266498 0.350303 0.152288
    11 -0.523059 0.485281 -0.201933 -0.016467 0.022879 -0.008018
    12 2.279250 1.020314 -0.233879 0.000000 0.000000 -1.570796
    13 -1.006374 0.018205 -0.231159 0.000000 0.000000 0.000000
    14 -0.000001 3.069431 -3.287379 0.000000 0.000000 -1.570796
    15 -0.000002 3.073336 -4.941231 -0.002301 0.009636 -1.577160
    16 0.000000 3.061618 -1.401840 0.000000 0.000000 -1.570796
    17 0.000006 7.892565 -1.494321 -1.570796 1.570796 0.000000
    18 -0.290093 0.869169 10.227669 1.570797 0.000000 -0.000001
    19 5.808486 -0.000115 -0.000011 0.246948 0.000000 3.141577
    20 6.098544 2.048650 -2.077436 -1.563827 -3.141592 0.000016
    21 6.098440 -0.015417 -2.923415 -0.778437 -3.141592 0.000016
    22 7.782713 7.814067 -5.456179 5.444019 -1.736187 0.615171
    23 1.257180 8.762585 -0.153713 -1.570562 0.002683 -1.566807
    24 -0.118797 -8.002627 0.013057 0.122224 0.332113 0.023155
    25 -0.488518 -2.755602 -0.228260 -0.726376 0.079843 -0.218961
    26 0.039887 -1.479790 0.029854 -1.552686 0.000000 0.000001
    27 0.028786 -1.075731 -0.023109 -0.992502 0.000000 0.000000
    28 0.250027 -2.820665 -0.238396 -0.572168 0.103586 -0.135716
    29 -0.049759 -1.680544 0.100479 -1.641977 0.000000 -0.000002
    30 -0.034142 -1.148312 0.084782 -0.829271 0.000000 0.000000
    31 0.957766 -2.746780 -0.090302 -0.293392 -0.016437 0.087927
    32 -0.033420 -1.397129 -0.011257 -1.011454 0.000000 -0.000001
    33 -0.022360 -0.957436 0.018784 -0.872810 0.000000 0.000000
    34 -1.180681 -2.507217 -0.193859 -0.372948 0.114156 -0.031562
    35 -0.024967 -1.123934 0.017597 -1.365604 0.000000 0.000001
    36 -0.020057 -0.890968 0.010090 -0.866461 0.000000 0.000000
    37 0.583510 -1.197277 0.185379 0.197341 -0.606422 -0.142001
    38 1.535927 0.010246 0.005009 -0.002964 -0.012979 -0.366290
    39 1.100771 0.004527 -0.010679 -0.015955 0.002850 -1.217442
    40 0.077183 0.348180 -0.097459 -2.729208 6.116441 -1.525883
    41 0.447953 -2.798986 -0.200443 -1.021660 0.000534 0.163141
    42 -0.032909 -1.480204 0.004940 -1.641066 0.000000 0.000002
    43 -0.027022 -1.076920 -0.020210 -1.574534 0.000000 0.000000
    44 -0.249534 -2.846964 -0.174213 -0.611012 -0.003049 0.061474
    45 0.043235 -1.683941 0.096012 -1.849639 0.002823 -0.000167
    46 0.031729 -1.160830 0.058838 -1.197501 0.003183 -0.003517
    47 -0.963866 -2.785145 -0.085350 -0.559859 0.000065 -0.034534
    48 0.028479 -1.403067 0.006271 -1.649121 0.000000 0.000000
    49 0.021413 -0.957781 0.020046 -1.040402 0.000000 0.000000
    50 1.164475 -2.543940 -0.170330 -1.195396 0.008266 0.221157
    51 0.024032 -1.129042 0.017807 -1.078848 0.000000 0.000001
    52 0.014898 -0.883989 -0.019848 -1.745668 0.000000 0.000000
    53 -0.586770 -1.264477 0.200161 0.229198 -0.611231 -2.635610
    54 1.522835 0.058681 0.016848 0.001410 0.008985 0.881754
    55 1.117947 0.048424 -0.005766 -0.019047 -0.016497 0.913483
    56 -0.030021 -0.006226 -0.028573 0.165908 0.129871 1.436268
    57 -1.623946 8.761050 -0.188650 1.567579 0.000634 -1.521209
  time 2
    0 -0.199225 -3.449324 -0.566424 0.000000 -0.174532 0.000000
    1 -2.548182 -8.002019 -5.406244 0.142330 -3.149654 0.754286
    2 0.096945 -8.450418 -0.009364 0.070456 -0.189998 0.255289
    3 -0.545529 -2.707051 0.585805 1.511243 0.303605 0.490428
    4 -0.136844 6.541830 13.780921 0.000000 0.000000 -1.570796
    5 -0.686620 0.294763 -0.000001 0.000000 0.000000 0.000000
    6 0.836242 6.541831 13.780921 0.000000 0.000000 -1.570796
    7 -2.322148 3.262281 -0.924553 1.744686 1.569504 1.570221
    8 1.785817 4.603365 -8.312910 1.745216 1.565765 1.570692
    9 1.568528 1.140103 -0.352429 0.000000 0.000000 -1.570796
    10 -0.910023 0.278587 -0.037050 0.532997 0.700606 0.304588
    11 -0.523059 0.485281 -0.201933 -0.010678 0.050024 -0.018624
    12 2.279250 1.020314 -0.233879 0.000000 0.000000 -1.570796
    13 -1.006374 0.018205 -0.231159 0.000000 0.000000 0.000000
    14 -0.000001 3.069431 -3.287379 0.000000 0.000000 -1.570796
    15 -0.000002 3.053804 -4.941231 0.002277 0.011577 -1.571671
    16 0.000000 3.053805 -1.401840 0.000000 0.000000 -1.570796
    17 0.000006 7.892565 -1.494321 -1.570796 1.570796 0.000000
    18 -0.290093 0.869169 10.227669 1.570797 0.000000 -0.000001
    19 5.808486 -0.000115 -0.000011 0.443280 0.000000 3.141577
    20 6.098544 2.048650 -2.077436 -1.563827 -3.141592 0.000016
    21 6.098440 -0.015417 -2.923415 -0.778437 -3.141592 0.000016
    22 7.786619 7.794536 -5.452273 5.444019 -1.736187 0.615171
    23 1.257180 8.762585 -0.153713 -1.570562 0.002683 -1.566807
    24 -0.161767 -8.045598 0.016963 0.125663 0.329897 0.034816
    25 -0.488518 -2.755602 -0.228260 -0.726376 0.079843 -0.218961
    26 0.039887 -1.479790 0.029854 -1.552686 0.000000 0.000001
    27 0.028786 -1.075731 -0.023109 -0.992502 0.000000 0.000000
    28 0.250027 -2.820665 -0.238396 -0.572168 0.103586 -0.135716
    29 -0.049759 -1.680544 0.100479 -1.641977 0.000000 -0.000002
    30 -0.034142 -1.148312 0.084782 -0.829271 0.000000 0.000000
    31 0.957766 -2.746780 -0.090302 -0.293392 -0.016437 0.087927
    32 -0.033420 -1.397129 -0.011257 -1.011454 0.000000 -0.000001
    33 -0.022360 -0.957436 0.018784 -0.872810 0.000000 0.000000
    34 -1.180681 -2.507217 -0.193859 -0.372948 0.114156 -0.031562
    35 -0.024967 -1.123934 0.017597 -1.365604 0.000000 0.000001
    36 -0.020057 -0.890968 0.010090 -0.866461 0.000000 0.000000
    37 0.583510 -1.197277 0.185379 0.196702 -0.606588 -0.140885
    38 1.535927 0.010246 0.005009 -0.002964 -0.012979 -0.345864
    39 1.100771 0.004527 -0.010679 -0.015955 0.002850 -1.217442
    40 0.077183 0.348180 -0.097459 -2.729208 6.116441 -1.525883
    41 0.447953 -2.798986 -0.200443 -1.021660 0.000534 0.163141
    42 -0.032909 -1.480204 0.004940 -1.641066 0.000000 0.000002
    43 -0.027022 -1.076920 -0.020210 -1.574534 0.000000 0.000000
    44 -0.249534 -2.846964 -0.174213 -0.611012 -0.003049 0.061474
    45 0.043235 -1.683941 0.096012 -1.849639 0.002823 -0.000167
    46 0.031729 -1.160830 0.058838 -1.197501 0.003183 -0.003517
    47 -0.963866 -2.785145 -0.085350 -0.559859 0.000065 -0.034534
    48 0.028479 -1.403067 0.006271 -1.649121 0.000000 0.000000
    49 0.021413 -0.957781 0.020046 -1.040402 0.000000 0.000000
    50 1.164475 -2.543940 -0.170330 -1.195396 0.008266 0.221157
    51 0.024032 -1.129042 0.017807 -1.078848 0.000000 0.000001
    52 0.014898 -0.883989 -0.019848 -1.745668 0.000000 0.000000
    53 -0.586770 -1.264477 0.200161 0.229198 -0.611231 -2.635610
    54 1.522835 0.058681 0.016848 0.001410 0.008985 0.881754
    55 1.117947 0.048424 -0.005766 -0.019047 -0.016497 0.913483
    56 -0.030021 -0.006226 -0.028573 0.165908 0.129871 1.436268
    57 -1.623946 8.761050 -0.188650 1.567579 0.000634 -1.521209
  time 3
    0 -0.199225 -3.449324 -0.566424 0.000000 -0.174532 0.000000
    1 -2.536463 -8.134835 -5.328117 0.157310 -3.135499 0.757937
    2 0.096945 -8.450418 -0.009364 0.070456 -0.189998 0.255289
    3 -0.545529 -2.707051 0.585805 1.511243 0.303605 0.490428
    4 -0.136844 6.541830 13.780921 0.000000 0.000000 -1.570796
    5 -0.686620 0.294763 -0.000001 0.000000 0.000000 0.000000
    6 0.836242 6.541831 13.780921 0.000000 0.000000 -1.570796
    7 -2.322148 3.262281 -0.924553 -1.396138 1.565777 -1.570652
    8 1.785817 4.603365 -8.312910 1.745216 1.566520 1.570692
    9 1.568528 1.140103 -0.352429 0.000000 0.000000 -1.570796
    10 -0.917836 0.255149 -0.122991 0.511557 0.572550 0.268647
    11 -0.523059 0.485281 -0.201933 0.002373 0.051702 -0.015975
    12 2.279250 1.020314 -0.233879 0.000000 0.000000 -1.570796
    13 -1.006374 0.018205 -0.231159 0.000000 0.000000 0.000000
    14 -0.000001 3.053805 -3.287379 0.000000 0.000000 -1.570796
    15 -0.000002 3.053804 -4.941231 0.000204 0.002721 -1.571156
    16 0.000000 3.053805 -1.401840 0.000000 0.000000 -1.570796
    17 0.000006 7.892565 -1.494321 -1.570796 1.570796 0.000000
    18 -0.290093 0.869169 10.227669 1.570797 0.000000 -0.000001
    19 5.808486 -0.000115 -0.000011 0.596012 0.000000 3.141577
    20 6.098544 2.048650 -2.077436 -1.563827 -3.141592 0.000016
    21 6.098440 -0.015417 -2.923415 -0.778437 -3.141592 0.000016
    22 7.774900 7.786723 -5.456179 5.444019 -1.736187 0.615171
    23 1.257180 8.762585 -0.153713 -1.570562 0.002683 -1.566807
    24 -0.228176 -8.166695 0.005244 0.132208 0.325660 0.056461
    25 -0.488518 -2.755602 -0.228260 -0.726376 0.079843 -0.218961
    26 0.039887 -1.479790 0.029854 -1.552686 0.000000 0.000001
    27 0.028786 -1.075731 -0.023109 -0.992502 0.000000 0.000000
    28 0.250027 -2.820665 -0.238396 -0.572168 0.103586 -0.135716
    29 -0.049759 -1.680544 0.100479 -1.641977 0.000000 -0.000002
    30 -0.034142 -1.148312 0.084782 -0.829271 0.000000 0.000000
    31 0.957766 -2.746780 -0.090302 -0.293392 -0.016437 0.087927
    32 -0.033420 -1.397129 -0.011257 -1.011454 0.000000 -0.000001
    33 -0.022360 -0.957436 0.018784 -0.872810 0.000000 0.000000
    34 -1.180681 -2.507217 -0.193859 -0.372948 0.114156 -0.031562
    35 -0.024967 -1.123934 0.017597 -1.365604 0.000000 0.000001
    36 -0.020057 -0.890968 0.010090 -0.866461 0.000000 0.000000
    37 0.583510 -1.197277 0.185379 0.195731 -0.606864 -0.139183
    38 1.535927 0.010246 0.005009 -0.002964 -0.012979 -0.321489
    39 1.100771 0.004527 -0.010679 -0.015955 0.002850 -1.217442
    40 0.077183 0.348180 -0.097459 -2.729208 6.116441 -1.525883
    41 0.447953 -2.798986 -0.200443 -1.021660 0.000534 0.163141
    42 -0.032909 -1.480204 0.004940 -1.641066 0.000000 0.000002
    43 -0.027022 -1.076920 -0.020210 -1.574534 0.000000 0.000000
    44 -0.249534 -2.846964 -0.174213 -0.611012 -0.003049 0.061474
    45 0.043235 -1.683941 0.096012 -1.849639 0.002823 -0.000167
    46 0.031729 -1.160830 0.058838 -1.197501 0.003183 -0.003517
    47 -0.963866 -2.785145 -0.085350 -0.559859 0.000065 -0.034534
    48 0.028479 -1.403067 0.006271 -1.649121 0.000000 0.000000
    49 0.021413 -0.957781 0.020046 -1.040402 0.000000 0.000000
    50 1.164475 -2.543940 -0.170330 -1.195396 0.008266 0.221157
    51 0.024032 -1.129042 0.017807 -1.078848 0.000000 0.000001
    52 0.014898 -0.883989 -0.019848 -1.745668 0.000000 0.000000
    53 -0.586770 -1.264477 0.200161 0.229198 -0.611231 -2.635610
    54 1.522835 0.058681 0.016848 0.001410 0.008985 0.881754
    55 1.117947 0.048424 -0.005766 -0.019047 -0.016497 0.913483
    56 -0.030021 -0.006226 -0.028573 0.165908 0.129871 1.436268
    57 -1.623946 8.761050 -0.188650 1.567579 0.000634 -1.521209
  time 4
    0 -0.199225 -3.449324 -0.566424 0.000000 -0.174532 0.000000
    1 -2.528650 -8.228588 -5.285147 0.165389 -3.127907 0.759903
    2 0.096945 -8.450418 -0.009364 0.070456 -0.189998 0.255289
    3 -0.545529 -2.707051 0.585805 1.511243 0.303605 0.490428
    4 -0.136844 6.541830 13.780921 0.000000 0.000000 -1.570796
    5 -0.686620 0.294763 -0.000001 0.000000 0.000000 0.000000
    6 0.836242 6.541831 13.780921 0.000000 0.000000 -1.570796
    7 -2.322148 3.262281 -0.924553 -1.396250 1.560300 -1.570700
    8 1.785817 4.603365 -8.312910 1.745383 1.557651 1.570740
    9 1.568528 1.140103 -0.352429 0.000000 0.000000 -1.570796
    10 -0.867053 0.235617 -0.263620 0.457112 0.267262 0.182933
    11 -0.523059 0.485281 -0.201933 0.001234 0.054134 -0.004338
    12 2.279250 1.020314 -0.233879 0.000000 0.000000 -1.570796
    13 -1.006374 0.018205 -0.231159 0.000000 0.000000 0.000000
    14 -0.000001 3.049899 -3.287379 0.000000 0.000000 -1.570796
    15 -0.000002 3.034272 -4.941231 0.004207 -0.000204 -1.571455
    16 0.000000 3.045992 -1.401840 0.000000 0.000000 -1.570796
    17 0.000006 7.892565 -1.494321 -1.570796 1.570796 0.000000
    18 -0.290093 0.869169 10.227669 1.570797 0.000000 -0.000001
    19 5.808486 -0.000115 -0.000011 0.705095 0.000000 3.141577
    20 6.098544 2.048650 -2.077436 -1.563827 -3.141592 0.000016
    21 6.098440 -0.015417 -2.923415 -0.778437 -3.141592 0.000016
    22 7.778807 7.767191 -5.467898 5.444019 -1.736187 0.615171
    23 1.257180 8.762585 -0.153713 -1.570562 0.002683 -1.566807
    24 -0.259427 -8.240916 0.005244 0.135771 0.323287 0.068098
    25 -0.488518 -2.755602 -0.228260 -0.726376 0.079843 -0.218961
    26 0.039887 -1.479790 0.029854 -1.552686 0.000000 0.000001
    27 0.028786 -1.075731 -0.023109 -0.992502 0.000000 0.000000
    28 0.250027 -2.820665 -0.238396 -0.572168 0.103586 -0.135716
    29 -0.049759 -1.680544 0.100479 -1.641977 0.000000 -0.000002
    30 -0.034142 -1.148312 0.084782 -0.829271 0.000000 0.000000
    31 0.957766 -2.746780 -0.090302 -0.293392 -0.016437 0.087927
    32 -0.033420 -1.397129 -0.011257 -1.011454 0.000000 -0.000001
    33 -0.022360 -0.957436 0.018784 -0.872810 0.000000 0.000000
    34 -1.180681 -2.507217 -0.193859 -0.372948 0.114156 -0.031562
    35 -0.024967 -1.123934 0.017597 -1.365604 0.000000 0.000001
    36 -0.020057 -0.890968 0.010090 -0.866461 0.000000 0.000000
    37 0.583510 -1.197277 0.185379 0.194519 -0.607196 -0.137054
    38 1.535927 0.010246 0.005009 -0.002964 -0.012979 -0.301062
    39 1.100771 0.004527 -0.010679 -0.015955 0.002850 -1.217442
    40 0.077183 0.348180 -0.097459 -2.729208 6.116441 -1.525883
    41 0.447953 -2.798986 -0.200443 -1.021660 0.000534 0.163141
    42 -0.032909 -1.480204 0.004940 -1.641066 0.000000 0.000002
    43 -0.027022 -1.076920 -0.020210 -1.574534 0.000000 0.000000
    44 -0.249534 -2.846964 -0.174213 -0.611012 -0.003049 0.061474
    45 0.043235 -1.683941 0.096012 -1.849639 0.002823 -0.000167
    46 0.031729 -1.160830 0.058838 -1.197501 0.003183 -0.003517
    47 -0.963866 -2.785145 -0.085350 -0.559859 0.000065 -0.034534
    48 0.028479 -1.403067 0.006271 -1.649121 0.000000 0.000000
    49 0.021413 -0.957781 0.020046 -1.040402 0.000000 0.000000
    50 1.164475 -2.543940 -0.170330 -1.195396 0.008266 0.221157
    51 0.024032 -1.129042 0.017807 -1.078848 0.000000 0.000001
    52 0.014898 -0.883989 -0.019848 -1.745668 0.000000 0.000000
    53 -0.586770 -1.264477 0.200161 0.229198 -0.611231 -2.635610
    54 1.522835 0.058681 0.016848 0.001410 0.008985 0.881754
    55 1.117947 0.048424 -0.005766 -0.019047 -0.016497 0.913483
    56 -0.030021 -0.006226 -0.028573 0.165908 0.129871 1.436268
    57 -1.623946 8.761050 -0.188650 1.567579 0.000634 -1.521209
  time 5
    0 -0.199225 -3.449324 -0.566424 0.000000 -0.174532 0.000000
    1 -2.532557 -8.298903 -5.304678 0.164060 -3.129168 0.759594
    2 0.096945 -8.450418 -0.009364 0.070456 -0.189998 0.255289
    3 -0.545529 -2.707051 0.585805 1.511243 0.303605 0.490428
    4 -0.136844 6.541830 13.780921 0.000000 0.000000 -1.570796
    5 -0.686620 0.294763 -0.000001 0.000000 0.000000 0.000000
    6 0.836242 6.541831 13.780921 0.000000 0.000000 -1.570796
    7 -2.322148 3.262281 -0.924553 0.174496 1.570787 0.000000
    8 1.785817 4.603365 -8.312910 0.174494 1.570787 0.000000
    9 1.568528 1.140103 -0.352429 0.000000 0.000000 -1.570796
    10 -0.816270 0.262962 -0.396436 0.384579 -0.097126 0.080644
    11 -0.523059 0.485281 -0.201933 -0.000443 0.021632 0.001186
    12 2.279250 1.020314 -0.233879 0.000000 0.000000 -1.570796
    13 -1.006374 0.018205 -0.231159 0.000000 0.000000 0.000000
    14 -0.000001 3.049899 -3.287379 0.000000 0.000000 -1.570796
    15 -0.000002 3.022553 -4.941231 -0.007982 -0.002445 -1.574391
    16 0.000000 3.049899 -1.401840 0.000000 0.000000 -1.570796
    17 0.000006 7.892565 -1.494321 -1.570796 1.570796 0.000000
    18 -0.290093 0.869169 10.227669 1.570797 0.000000 -0.000001
    19 5.808486 -0.000115 -0.000011 0.770531 0.000000 3.141577
    20 6.098544 2.048650 -2.077436 -1.563827 -3.141592 0.000016
    21 6.098440 -0.015417 -2.923415 -0.778437 -3.141592 0.000016
    22 7.786619 7.763285 -5.456179 5.444019 -1.736187 0.615171
    23 1.257180 8.762585 -0.153713 -1.570562 0.002683 -1.566807
    24 -0.267239 -8.315137 0.001338 0.135149 0.323679 0.066168
    25 -0.488518 -2.755602 -0.228260 -0.726376 0.079843 -0.218961
    26 0.039887 -1.479790 0.029854 -1.552686 0.000000 0.000001
    27 0.028786 -1.075731 -0.023109 -0.992502 0.000000 0.000000
    28 0.250027 -2.820665 -0.238396 -0.572168 0.103586 -0.135716
    29 -0.049759 -1.680544 0.100479 -1.641977 0.000000 -0.000002
    30 -0.034142 -1.148312 0.084782 -0.829271 0.000000 0.000000
    31 0.957766 -2.746780 -0.090302 -0.293392 -0.016437 0.087927
    32 -0.033420 -1.397129 -0.011257 -1.011454 0.000000 -0.000001
    33 -0.022360 -0.957436 0.018784 -0.872810 0.000000 0.000000
    34 -1.180681 -2.507217 -0.193859 -0.372948 0.114156 -0.031562
    35 -0.024967 -1.123934 0.017597 -1.365604 0.000000 0.000001
    36 -0.020057 -0.890968 0.010090 -0.866461 0.000000 0.000000
    37 0.583510 -1.197277 0.185379 0.193135 -0.607583 -0.134647
    38 1.535927 0.010246 0.005009 -0.002964 -0.012979 -0.292482
    39 1.100771 0.004527 -0.010679 -0.015955 0.002850 -1.217442
    40 0.077183 0.348180 -0.097459 -2.729208 6.116441 -1.525883
    41 0.447953 -2.798986 -0.200443 -1.021660 0.000534 0.163141
    42 -0.032909 -1.480204 0.004940 -1.641066 0.000000 0.000002
    43 -0.027022 -1.076920 -0.020210 -1.574534 0.000000 0.000000
    44 -0.249534 -2.846964 -0.174213 -0.611012 -0.003049 0.061474
    45 0.043235 -1.683941 0.096012 -1.849639 0.002823 -0.000167
    46 0.031729 -1.160830 0.058838 -1.197501 0.003183 -0.003517
    47 -0.963866 -2.785145 -0.085350 -0.559859 0.000065 -0.034534
    48 0.028479 -1.403067 0.006271 -1.649121 0.000000 0.000000
    49 0.021413 -0.957781 0.020046 -1.040402 0.000000 0.000000
    50 1.164475 -2.543940 -0.170330 -1.195396 0.008266 0.221157
    51 0.024032 -1.129042 0.017807 -1.078848 0.000000 0.000001
    52 0.014898 -0.883989 -0.019848 -1.745668 0.000000 0.000000
    53 -0.586770 -1.264477 0.200161 0.229198 -0.611231 -2.635610
    54 1.522835 0.058681 0.016848 0.001410 0.008985 0.881754
    55 1.117947 0.048424 -0.005766 -0.019047 -0.016497 0.913483
    56 -0.030021 -0.006226 -0.028573 0.165908 0.129871 1.436268
    57 -1.616133 8.764956 -0.192557 1.568154 0.000442 -1.523122
  time 6
    0 -0.199225 -3.449324 -0.566424 0.000000 -0.174532 0.000000
    1 -2.536463 -8.361405 -5.324210 0.160525 -3.132472 0.758724
    2 0.096945 -8.450418 -0.009364 0.070456 -0.189998 0.255289
    3 -0.545529 -2.707051 0.585805 1.511243 0.303605 0.490428
    4 -0.136844 6.541830 13.780921 0.000000 0.000000 -1.570796
    5 -0.686620 0.294763 -0.000001 0.000000 0.000000 0.000000
    6 0.836242 6.541831 13.780921 0.000000 0.000000 -1.570796
    7 -2.322148 3.262281 -0.924553 1.745298 1.560024 1.570700
    8 1.785817 4.603365 -8.312910 1.745216 1.565705 1.570692
    9 1.568528 1.140103 -0.352429 0.000000 0.000000 -1.570796
    10 -0.785019 0.290306 -0.498002 0.308808 -0.402448 -0.005046
    11 -0.523059 0.485281 -0.201933 0.012764 0.005836 0.007838
    12 2.279250 1.020314 -0.233879 0.000000 0.000000 -1.570796
    13 -1.006374 0.018205 -0.231159 0.000000 0.000000 0.000000
    14 -0.000001 3.042086 -3.287379 0.000000 0.000000 -1.570796
    15 -0.000002 3.053804 -4.941231 -0.008221 -0.009839 -1.582721
    16 0.000000 3.053805 -1.401840 0.000000 0.000000 -1.570796
    17 0.000006 7.892565 -1.494321 -1.570796 1.570796 0.000000
    18 -0.290093 0.869169 10.227669 1.570797 0.000000 -0.000001
    19 5.808486 -0.000115 -0.000011 0.792343 0.000000 3.141577
    20 6.098544 2.048650 -2.077436 -1.563827 -3.141592 0.000016
    21 6.098440 -0.015417 -2.923415 -0.778437 -3.141592 0.000016
    22 7.774900 7.771097 -5.440554 5.444019 -1.736187 0.615171
    23 1.257180 8.762585 -0.153713 -1.570562 0.002683 -1.566807
    24 -0.259427 -8.377639 -0.029913 0.133617 0.324719 0.061087
    25 -0.488518 -2.755602 -0.228260 -0.726376 0.079843 -0.218961
    26 0.039887 -1.479790 0.029854 -1.552686 0.000000 0.000001
    27 0.028786 -1.075731 -0.023109 -0.992502 0.000000 0.000000
    28 0.250027 -2.820665 -0.238396 -0.572168 0.103586 -0.135716
    29 -0.049759 -1.680544 0.100479 -1.641977 0.000000 -0.000002
    30 -0.034142 -1.148312 0.084782 -0.829271 0.000000 0.000000
    31 0.957766 -2.746780 -0.090302 -0.293392 -0.016437 0.087927
    32 -0.033420 -1.397129 -0.011257 -1.011454 0.000000 -0.000001
    33 -0.022360 -0.957436 0.018784 -0.872810 0.000000 0.000000
    34 -1.180681 -2.507217 -0.193859 -0.372948 0.114156 -0.031562
    35 -0.024967 -1.123934 0.017597 -1.365604 0.000000 0.000001
    36 -0.020057 -0.890968 0.010090 -0.866461 0.000000 0.000000
    37 0.583510 -1.197277 0.185379 0.191684 -0.607988 -0.132093
    38 1.535927 0.010246 0.005009 -0.002964 -0.012979 -0.297775
    39 1.100771 0.004527 -0.010679 -0.015799 0.003221 -1.192937
    40 0.077183 0.348180 -0.097459 -2.729208 6.116441 -1.525883
    41 0.447953 -2.798986 -0.200443 -1.021660 0.000534 0.163141
    42 -0.032909 -1.480204 0.004940 -1.641066 0.000000 0.000002
    43 -0.027022 -1.076920 -0.020210 -1.574534 0.000000 0.000000
    44 -0.249534 -2.846964 -0.174213 -0.611012 -0.003049 0.061474
    45 0.043235 -1.683941 0.096012 -1.849639 0.002823 -0.000167
    46 0.031729 -1.160830 0.058838 -1.197501 0.003183 -0.003517
    47 -0.963866 -2.785145 -0.085350 -0.559859 0.000065 -0.034534
    48 0.028479 -1.403067 0.006271 -1.649121 0.000000 0.000000
    49 0.021413 -0.957781 0.020046 -1.040402 0.000000 0.000000
    50 1.164475 -2.543940 -0.170330 -1.195396 0.008266 0.221157
    51 0.024032 -1.129042 0.017807 -1.078848 0.000000 0.000001
    52 0.014898 -0.883989 -0.019848 -1.745668 0.000000 0.000000
    53 -0.586770 -1.264477 0.200161 0.229198 -0.611231 -2.635610
    54 1.522835 0.058681 0.016848 0.001410 0.008985 0.881754
    55 1.117947 0.048424 -0.005766 -0.019047 -0.016497 0.913483
    56 -0.030021 -0.006226 -0.028573 0.165908 0.129871 1.436268
    57 -1.588789 8.772769 -0.196463 1.569592 -0.000229 -1.528289
  time 7
    0 -0.199225 -3.449324 -0.566424 0.000000 -0.174532 0.000000
    1 -2.536463 -8.412187 -5.343742 0.155543 -3.137175 0.757516
    2 0.096945 -8.450418 -0.009364 0.070456 -0.189998 0.255289
    3 -0.545529 -2.707051 0.585805 1.511243 0.303605 0.490428
    4 -0.136844 6.541830 13.780921 0.000000 0.000000 -1.570796
    5 -0.686620 0.294763 -0.000001 0.000000 0.000000 0.000000
    6 0.836242 6.541831 13.780921 0.000000 0.000000 -1.570796
    7 -2.322148 3.262281 -0.924553 1.745187 1.566185 1.570652
    8 1.785817 4.603365 -8.312910 1.745216 1.565885 1.570692
    9 1.568528 1.140103 -0.352429 0.000000 0.000000 -1.570796
    10 -0.765488 0.259055 -0.583942 0.244717 -0.530505 -0.040987
    11 -0.523059 0.485281 -0.201933 0.012835 -0.004734 -0.004087
    12 2.279250 1.020314 -0.233879 0.000000 0.000000 -1.570796
    13 -1.006374 0.018205 -0.231159 0.000000 0.000000 0.000000
    14 -0.000001 3.030367 -3.287379 0.000000 0.000000 -1.570796
    15 -0.000002 3.069429 -4.941231 -0.003188 -0.012152 -1.583931
    16 0.000000 3.061618 -1.401840 0.000000 0.000000 -1.570796
    17 0.000006 7.892565 -1.494321 -1.570796 1.570796 0.000000
    18 -0.290093 0.869169 10.227669 1.570797 0.000000 -0.000001
    19 5.808486 -0.000115 -0.000011 0.792343 0.000000 3.141577
    20 6.098544 2.048650 -2.077436 -1.563827 -3.141592 0.000016
    21 6.098440 -0.015417 -2.923415 -0.778437 -3.141592 0.000016
    22 7.778807 7.755472 -5.440554 5.444019 -1.736187 0.615171
    23 1.257180 8.762585 -0.153713 -1.570562 0.002683 -1.566807
    24 -0.216457 -8.408890 -0.049445 0.131421 0.326170 0.053896
    25 -0.488518 -2.755602 -0.228260 -0.726376 0.079843 -0.218961
    26 0.039887 -1.479790 0.029854 -1.552686 0.000000 0.000001
    27 0.028786 -1.075731 -0.023109 -0.992502 0.000000 0.000000
    28 0.250027 -2.820665 -0.238396 -0.572168 0.103586 -0.135716
    29 -0.049759 -1.680544 0.100479 -1.641977 0.000000 -0.000002
    30 -0.034142 -1.148312 0.084782 -0.829271 0.000000 0.000000
    31 0.957766 -2.746780 -0.090302 -0.293392 -0.016437 0.087927
    32 -0.033420 -1.397129 -0.011257 -1.011454 0.000000 -0.000001
    33 -0.022360 -0.957436 0.018784 -0.872810 0.000000 0.000000
    34 -1.180681 -2.507217 -0.193859 -0.372948 0.114156 -0.031562
    35 -0.024967 -1.123934 0.017597 -1.365604 0.000000 0.000001
    36 -0.020057 -0.890968 0.010090 -0.866461 0.000000 0.000000
    37 0.583510 -1.197277 0.185379 0.190220 -0.608393 -0.129538
    38 1.535927 0.010246 0.005009 -0.002964 -0.012979 -0.311399
    39 1.100771 0.004527 -0.010679 -0.015416 0.004156 -1.129631
    40 0.077183 0.348180 -0.097459 -2.729208 6.116441 -1.525883
    41 0.447953 -2.798986 -0.200443 -1.021660 0.000534 0.163141
    42 -0.032909 -1.480204 0.004940 -1.641066 0.000000 0.000002
    43 -0.027022 -1.076920 -0.020210 -1.574534 0.000000 0.000000
    44 -0.249534 -2.846964 -0.174213 -0.611012 -0.003049 0.061474
    45 0.043235 -1.683941 0.096012 -1.849639 0.002823 -0.000167
    46 0.031729 -1.160830 0.058838 -1.197501 0.003183 -0.003517
    47 -0.963866 -2.785145 -0.085350 -0.559859 0.000065 -0.034534
    48 0.028479 -1.403067 0.006271 -1.649121 0.000000 0.000000
    49 0.021413 -0.957781 0.020046 -1.040402 0.000000 0.000000
    50 1.164475 -2.543940 -0.170330 -1.195396 0.008266 0.221157
    51 0.024032 -1.129042 0.017807 -1.078848 0.000000 0.000001
    52 0.014898 -0.883989 -0.019848 -1.745668 0.000000 0.000000
    53 -0.586770 -1.264477 0.200161 0.229198 -0.611231 -2.635610
    54 1.522835 0.058681 0.016848 0.001410 0.008985 0.881754
    55 1.117947 0.048424 -0.005766 -0.019047 -0.016497 0.913483
    56 -0.030021 -0.006226 -0.028573 0.165908 0.129871 1.436268
    57 -1.549725 8.788394 -0.208182 1.571796 -0.001188 -1.535656
  time 8
    0 -0.199225 -3.449324 -0.566424 0.000000 -0.174532 0.000000
    1 -2.540369 -8.459064 -5.367180 0.149820 -3.142569 0.756112
    2 0.096945 -8.450418 -0.009364 0.070456 -0.189998 0.255289
    3 -0.545529 -2.707051 0.585805 1.511243 0.303605 0.490428
    4 -0.136844 6.541830 13.780921 0.000000 0.000000 -1.570796
    5 -0.686620 0.294763 -0.000001 0.000000 0.000000 0.000000
    6 0.836242 6.541831 13.780921 0.000000 0.000000 -1.570796
    7 -2.322148 3.262281 -0.924553 -1.396194 1.565813 -1.570652
    8 1.785817 4.603365 -8.312910 -1.396172 1.566796 -1.570644
    9 1.568528 1.140103 -0.352429 0.000000 0.000000 -1.570796
    10 -0.769394 0.212179 -0.576129 0.185165 -0.475319 -0.036733
    11 -0.523059 0.485281 -0.201933 -0.010247 -0.001798 -0.000072
    12 2.279250 1.020314 -0.233879 0.000000 0.000000 -1.570796
    13 -1.006374 0.018205 -0.231159 0.000000 0.000000 0.000000
    14 -0.000001 3.045992 -3.287379 0.000000 0.000000 -1.570796
    15 -0.000002 3.077242 -4.941231 0.000336 -0.005801 -1.574475
    16 0.000000 3.057711 -1.401840 0.000000 0.000000 -1.570796
    17 0.000006 7.892565 -1.494321 -1.570796 1.570796 0.000000
    18 -0.290093 0.869169 10.227669 1.570797 0.000000 -0.000001
    19 5.808486 -0.000115 -0.000011 0.792343 0.000000 3.141577
    20 6.098544 2.048650 -2.077436 -1.563827 -3.141592 0.000016
    21 6.098440 -0.015417 -2.923415 -0.778437 -3.141592 0.000016
    22 7.782713 7.728127 -5.452273 5.444019 -1.736187 0.615171
    23 1.257180 8.762585 -0.153713 -1.570562 0.002683 -1.566807
    24 -0.169580 -8.424515 -0.061164 0.128935 0.327798 0.045638
    25 -0.488518 -2.755602 -0.228260 -0.726376 0.079843 -0.218961
    26 0.039887 -1.479790 0.029854 -1.552686 0.000000 0.000001
    27 0.028786 -1.075731 -0.023109 -0.992502 0.000000 0.000000
    28 0.250027 -2.820665 -0.238396 -0.572168 0.103586 -0.135716
    29 -0.049759 -1.680544 0.100479 -1.641977 0.000000 -0.000002
    30 -0.034142 -1.148312 0.084782 -0.829271 0.000000 0.000000
    31 0.957766 -2.746780 -0.090302 -0.293392 -0.016437 0.087927
    32 -0.033420 -1.397129 -0.011257 -1.011454 0.000000 -0.000001
    33 -0.022360 -0.957436 0.018784 -0.872810 0.000000 0.000000
    34 -1.180681 -2.507217 -0.193859 -0.372948 0.114156 -0.031562
    35 -0.024967 -1.123934 0.017597 -1.365604 0.000000 0.000001
    36 -0.020057 -0.890968 0.010090 -0.866461 0.000000 0.000000
    37 0.583510 -1.197277 0.185379 0.188849 -0.608780 -0.127131
    38 1.535927 0.010246 0.005009 -0.002964 -0.012979 -0.330027
    39 1.100771 0.004527 -0.010679 -0.014876 0.005439 -1.043127
    40 0.077183 0.348180 -0.097459 -2.729208 6.116441 -1.525883
    41 0.447953 -2.798986 -0.200443 -1.021660 0.000534 0.163141
    42 -0.032909 -1.480204 0.004940 -1.641066 0.000000 0.000002
    43 -0.027022 -1.076920 -0.020210 -1.574534 0.000000 0.000000
    44 -0.249534 -2.846964 -0.174213 -0.611012 -0.003049 0.061474
    45 0.043235 -1.683941 0.096012 -1.849639 0.002823 -0.000167
    46 0.031729 -1.160830 0.058838 -1.197501 0.003183 -0.003517
    47 -0.963866 -2.785145 -0.085350 -0.559859 0.000065 -0.034534
    48 0.028479 -1.403067 0.006271 -1.649121 0.000000 0.000000
    49 0.021413 -0.957781 0.020046 -1.040402 0.000000 0.000000
    50 1.164475 -2.543940 -0.170330 -1.195396 0.008266 0.221157
    51 0.024032 -1.129042 0.017807 -1.078848 0.000000 0.000001
    52 0.014898 -0.883989 -0.019848 -1.745668 0.000000 0.000000
    53 -0.586770 -1.264477 0.200161 0.229198 -0.611231 -2.635610
    54 1.522835 0.058681 0.016848 0.001410 0.008985 0.881754
    55 1.117947 0.048424 -0.005766 -0.019047 -0.016497 0.913483
    56 -0.030021 -0.006226 -0.028573 0.165908 0.129871 1.436268
    57 -1.506755 8.800113 -0.215995 1.574192 -0.002243 -1.544076
  time 9
    0 -0.199225 -3.449324 -0.566424 0.000000 -0.174532 0.000000
    1 -2.552088 -8.490315 -5.382806 0.144098 -3.147963 0.754736
    2 0.096945 -8.450418 -0.009364 0.070456 -0.189998 0.255289
    3 -0.545529 -2.707051 0.585805 1.511243 0.303605 0.490428
    4 -0.136844 6.541830 13.780921 0.000000 0.000000 -1.570796
    5 -0.686620 0.294763 -0.000001 0.000000 0.000000 0.000000
    6 0.836242 6.541831 13.780921 0.000000 0.000000 -1.570796
    7 -2.322148 3.262281 -0.924553 1.744853 1.569384 1.570413
    8 1.785817 4.603365 -8.312910 -1.396117 1.567635 -1.570596
    9 1.568528 1.140103 -0.352429 0.000000 0.000000 -1.570796
    10 -0.812364 0.212179 -0.540972 0.120195 -0.343767 -0.026558
    11 -0.523059 0.485281 -0.201933 -0.025180 -0.014573 -0.022231
    12 2.279250 1.020314 -0.233879 0.000000 0.000000 -1.570796
    13 -1.006374 0.018205 -0.231159 0.000000 0.000000 0.000000
    14 -0.000001 3.053805 -3.287379 0.000000 0.000000 -1.570796
    15 -0.000002 3.065523 -4.941231 0.002469 -0.000623 -1.572162
    16 0.000000 3.053805 -1.401840 0.000000 0.000000 -1.570796
    17 0.000006 7.892565 -1.494321 -1.570796 1.570796 0.000000
    18 -0.290093 0.869169 10.227669 1.570797 0.000000 -0.000001
    19 5.808486 -0.000115 -0.000011 0.792343 0.000000 3.141577
    20 6.098544 2.048650 -2.077436 -1.563827 -3.141592 0.000016
    21 6.098440 -0.015417 -2.923415 -0.778437 -3.141592 0.000016
    22 7.782713 7.712502 -5.471805 5.444019 -1.736187 0.615171
    23 1.257180 8.762585 -0.153713 -1.570562 0.002683 -1.566807
    24 -0.103172 -8.432328 -0.072883 0.126450 0.329406 0.037381
    25 -0.488518 -2.755602 -0.228260 -0.726376 0.079843 -0.218961
    26 0.039887 -1.479790 0.029854 -1.552686 0.000000 0.000001
    27 0.028786 -1.075731 -0.023109 -0.992502 0.000000 0.000000
    28 0.250027 -2.820665 -0.238396 -0.572168 0.103586 -0.135716
    29 -0.049759 -1.680544 0.100479 -1.641977 0.000000 -0.000002
    30 -0.034142 -1.148312 0.084782 -0.829271 0.000000 0.000000
    31 0.957766 -2.746780 -0.090302 -0.293392 -0.016437 0.087927
    32 -0.033420 -1.397129 -0.011257 -1.011454 0.000000 -0.000001
    33 -0.022360 -0.957436 0.018784 -0.872810 0.000000 0.000000
    34 -1.180681 -2.507217 -0.193859 -0.372948 0.114156 -0.031562
    35 -0.024967 -1.123934 0.017597 -1.365604 0.000000 0.000001
    36 -0.020057 -0.890968 0.010090 -0.866461 0.000000 0.000000
    37 0.583510 -1.197277 0.185379 0.187638 -0.609130 -0.125002
    38 1.535927 0.010246 0.005009 -0.002964 -0.012979 -0.350329
    39 1.100771 0.004527 -0.010679 -0.014277 0.006841 -0.948904
    40 0.077183 0.348180 -0.097459 -2.729208 6.116441 -1.525883
    41 0.447953 -2.798986 -0.200443 -1.021660 0.000534 0.163141
    42 -0.032909 -1.480204 0.004940 -1.641066 0.000000 0.000002
    43 -0.027022 -1.076920 -0.020210 -1.574534 0.000000 0.000000
    44 -0.249534 -2.846964 -0.174213 -0.611012 -0.003049 0.061474
    45 0.043235 -1.683941 0.096012 -1.849639 0.002823 -0.000167
    46 0.031729 -1.160830 0.058838 -1.197501 0.003183 -0.003517
    47 -0.963866 -2.785145 -0.085350 -0.559859 0.000065 -0.034534
    48 0.028479 -1.403067 0.006271 -1.649121 0.000000 0.000000
    49 0.021413 -0.957781 0.020046 -1.040402 0.000000 0.000000
    50 1.164475 -2.543940 -0.170330 -1.195396 0.008266 0.221157
    51 0.024032 -1.129042 0.017807 -1.078848 0.000000 0.000001
    52 0.014898 -0.883989 -0.019848 -1.745668 0.000000 0.000000
    53 -0.586770 -1.264477 0.200161 0.229198 -0.611231 -2.635610
    54 1.522835 0.058681 0.016848 0.001410 0.008985 0.881754
    55 1.117947 0.048424 -0.005766 -0.019047 -0.016497 0.913483
    56 -0.030021 -0.006226 -0.028573 0.165908 0.129871 1.436268
    57 -1.463785 8.815739 -0.223808 1.576683 -0.003297 -1.552400
  time 10
    0 -0.199225 -3.449324 -0.566424 0.000000 -0.174532 0.000000
    1 -2.555995 -8.529379 -5.406244 0.139116 -3.152666 0.753500
    2 0.096945 -8.450418 -0.009364 0.070456 -0.189998 0.255289
    3 -0.545529 -2.707051 0.585805 1.511243 0.303605 0.490428
    4 -0.136844 6.541830 13.780921 0.000000 0.000000 -1.570796
    5 -0.686620 0.294763 -0.000001 0.000000 0.000000 0.000000
    6 0.836242 6.541831 13.780921 0.000000 0.000000 -1.570796
    7 -2.322148 3.262281 -0.924553 0.174496 1.570787 0.000000
    8 1.785817 4.603365 -8.312910 0.174494 1.570787 0.000000
    9 1.568528 1.140103 -0.352429 0.000000 0.000000 -1.570796
    10 -0.843615 0.184834 -0.431594 0.060545 -0.186737 -0.014429
    11 -0.523059 0.485281 -0.201933 -0.030896 -0.047327 -0.050575
    12 2.279250 1.020314 -0.233879 0.000000 0.000000 -1.570796
    13 -1.006374 0.018205 -0.231159 0.000000 0.000000 0.000000
    14 -0.000001 3.069431 -3.287379 0.000000 0.000000 -1.570796
    15 -0.000002 3.034272 -4.941231 -0.008557 0.009396 -1.561280
    16 0.000000 3.053805 -1.401840 0.000000 0.000000 -1.570796
    17 0.000006 7.892565 -1.494321 -1.570796 1.570796 0.000000
    18 -0.290093 0.869169 10.227669 1.570797 0.000000 -0.000001
    19 5.808486 -0.000115 -0.000011 0.792343 0.000000 3.141577
    20 6.098544 2.048650 -2.077436 -1.563827 -3.141592 0.000016
    21 6.098440 -0.015417 -2.923415 -0.778437 -3.141592 0.000016
    22 7.786619 7.712502 -5.471805 5.444019 -1.736187 0.615171
    23 1.257180 8.762585 -0.153713 -1.570562 0.002683 -1.566807
    24 -0.068015 -8.463579 -0.088509 0.124296 0.330779 0.030178
    25 -0.488518 -2.755602 -0.228260 -0.726376 0.079843 -0.218961
    26 0.039887 -1.479790 0.029854 -1.552686 0.000000 0.000001
    27 0.028786 -1.075731 -0.023109 -0.992502 0.000000 0.000000
    28 0.250027 -2.820665 -0.238396 -0.572168 0.103586 -0.135716
    29 -0.049759 -1.680544 0.100479 -1.641977 0.000000 -0.000002
    30 -0.034142 -1.148312 0.084782 -0.829271 0.000000 0.000000
    31 0.957766 -2.746780 -0.090302 -0.293392 -0.016437 0.087927
    32 -0.033420 -1.397129 -0.011257 -1.011454 0.000000 -0.000001
    33 -0.022360 -0.957436 0.018784 -0.872810 0.000000 0.000000
    34 -1.180681 -2.507217 -0.193859 -0.372948 0.114156 -0.031562
    35 -0.024967 -1.123934 0.017597 -1.365604 0.000000 0.000001
    36 -0.020057 -0.890968 0.010090 -0.866461 0.000000 0.000000
    37 0.583510 -1.197277 0.185379 0.186666 -0.609388 -0.123314
    38 1.535927 0.010246 0.005009 -0.002964 -0.012979 -0.368978
    39 1.100771 0.004527 -0.010679 -0.013750 0.008123 -0.862359
    40 0.077183 0.348180 -0.097459 -2.729208 6.116441 -1.525883
    41 0.447953 -2.798986 -0.200443 -1.021660 0.000534 0.163141
    42 -0.032909 -1.480204 0.004940 -1.641066 0.000000 0.000002
    43 -0.027022 -1.076920 -0.020210 -1.574534 0.000000 0.000000
    44 -0.249534 -2.846964 -0.174213 -0.611012 -0.003049 0.061474
    45 0.043235 -1.683941 0.096012 -1.849639 0.002823 -0.000167
    46 0.031729 -1.160830 0.058838 -1.197501 0.003183 -0.003517
    47 -0.963866 -2.785145 -0.085350 -0.559859 0.000065 -0.034534
    48 0.028479 -1.403067 0.006271 -1.649121 0.000000 0.000000
    49 0.021413 -0.957781 0.020046 -1.040402 0.000000 0.000000
    50 1.164475 -2.543940 -0.170330 -1.195396 0.008266 0.221157
    51 0.024032 -1.129042 0.017807 -1.078848 0.000000 0.000001
    52 0.014898 -0.883989 -0.019848 -1.745668 0.000000 0.000000
    53 -0.586770 -1.264477 0.200161 0.229198 -0.611231 -2.635610
    54 1.522835 0.058681 0.016848 0.001410 0.008985 0.881754
    55 1.117947 0.048424 -0.005766 -0.019047 -0.016497 0.913483
    56 -0.030021 -0.006226 -0.028573 0.165908 0.129871 1.436268
    57 -1.428627 8.827458 -0.231620 1.578792 -0.004160 -1.559767
  time 11
    0 -0.199225 -3.449324 -0.566424 0.000000 -0.174532 0.000000
    1 -2.555995 -8.556723 -5.433589 0.135581 -3.156001 0.752657
    2 0.096945 -8.450418 -0.009364 0.070456 -0.189998 0.255289
    3 -0.545529 -2.707051 0.585805 1.511243 0.303605 0.490428
    4 -0.136844 6.541830 13.780921 0.000000 0.000000 -1.570796
    5 -0.686620 0.294763 -0.000001 0.000000 0.000000 0.000000
    6 0.836242 6.541831 13.780921 0.000000 0.000000 -1.570796
    7 -2.322148 3.262281 -0.924553 -1.396194 1.564674 -1.570700
    8 1.785817 4.603365 -8.312910 -1.396172 1.546050 -1.570740
    9 1.568528 1.140103 -0.352429 0.000000 0.000000 -1.570796
    10 -0.886585 0.149677 -0.361279 0.016917 -0.055151 -0.004255
    11 -0.523059 0.485281 -0.201933 -0.025899 -0.045482 -0.046812
    12 2.279250 1.020314 -0.233879 0.000000 0.000000 -1.570796
    13 -1.006374 0.018205 -0.231159 0.000000 0.000000 0.000000
    14 -0.000001 3.069431 -3.287379 0.000000 0.000000 -1.570796
    15 -0.000002 3.053804 -4.941231 -0.004614 0.011889 -1.553215
    16 0.000000 3.053805 -1.401840 0.000000 0.000000 -1.570796
    17 0.000006 7.892565 -1.494321 -1.570796 1.570796 0.000000
    18 -0.290093 0.869169 10.227669 1.570797 0.000000 -0.000001
    19 5.808486 -0.000115 -0.000011 0.792343 0.000000 3.141577
    20 6.098544 2.048650 -2.077436 -1.563827 -3.141592 0.000016
    21 6.098440 -0.015417 -2.923415 -0.778437 -3.141592 0.000016
    22 7.774900 7.696876 -5.444460 5.444019 -1.736187 0.615171
    23 1.257180 8.762585 -0.153713 -1.570562 0.002683 -1.566807
    24 -0.079734 -8.479205 -0.104134 0.122804 0.331740 0.025085
    25 -0.488518 -2.755602 -0.228260 -0.726376 0.079843 -0.218961
    26 0.039887 -1.479790 0.029854 -1.552686 0.000000 0.000001
    27 0.028786 -1.075731 -0.023109 -0.992502 0.000000 0.000000
    28 0.250027 -2.820665 -0.238396 -0.572168 0.103586 -0.135716
    29 -0.049759 -1.680544 0.100479 -1.641977 0.000000 -0.000002
    30 -0.034142 -1.148312 0.084782 -0.829271 0.000000 0.000000
    31 0.957766 -2.746780 -0.090302 -0.293392 -0.016437 0.087927
    32 -0.033420 -1.397129 -0.011257 -1.011454 0.000000 -0.000001
    33 -0.022360 -0.957436 0.018784 -0.872810 0.000000 0.000000
    34 -1.180681 -2.507217 -0.193859 -0.372948 0.114156 -0.031562
    35 -0.024967 -1.123934 0.017597 -1.365604 0.000000 0.000001
    36 -0.020057 -0.890968 0.010090 -0.866461 0.000000 0.000000
    37 0.583510 -1.197277 0.185379 0.186027 -0.609572 -0.122184
    38 1.535927 0.010246 0.005009 -0.002964 -0.012979 -0.382602
    39 1.100771 0.004527 -0.010679 -0.013354 0.009058 -0.799094
    40 0.077183 0.348180 -0.097459 -2.729208 6.116441 -1.525883
    41 0.447953 -2.798986 -0.200443 -1.021660 0.000534 0.163141
    42 -0.032909 -1.480204 0.004940 -1.641066 0.000000 0.000002
    43 -0.027022 -1.076920 -0.020210 -1.574534 0.000000 0.000000
    44 -0.249534 -2.846964 -0.174213 -0.611012 -0.003049 0.061474
    45 0.043235 -1.683941 0.096012 -1.849639 0.002823 -0.000167
    46 0.031729 -1.160830 0.058838 -1.197501 0.003183 -0.003517
    47 -0.963866 -2.785145 -0.085350 -0.559859 0.000065 -0.034534
    48 0.028479 -1.403067 0.006271 -1.649121 0.000000 0.000000
    49 0.021413 -0.957781 0.020046 -1.040402 0.000000 0.000000
    50 1.164475 -2.543940 -0.170330 -1.195396 0.008266 0.221157
    51 0.024032 -1.129042 0.017807 -1.078848 0.000000 0.000001
    52 0.014898 -0.883989 -0.019848 -1.745668 0.000000 0.000000
    53 -0.586770 -1.264477 0.200161 0.229198 -0.611231 -2.635610
    54 1.522835 0.058681 0.016848 0.001410 0.008985 0.881754
    55 1.117947 0.048424 -0.005766 -0.019047 -0.016497 0.913483
    56 -0.030021 -0.006226 -0.028573 0.165908 0.129871 1.436268
    57 -1.401283 8.839177 -0.239433 1.580325 -0.004831 -1.564933
  time 12
    0 -0.199225 -3.449324 -0.566424 0.000000 -0.174532 0.000000
    1 -2.555995 -8.576255 -5.449214 0.134251 -3.157262 0.752320
    2 0.096945 -8.450418 -0.009364 0.070456 -0.189998 0.255289
    3 -0.545529 -2.707051 0.585805 1.511243 0.303605 0.490428
    4 -0.136844 6.541830 13.780921 0.000000 0.000000 -1.570796
    5 -0.686620 0.294763 -0.000001 0.000000 0.000000 0.000000
    6 0.836242 6.541831 13.780921 0.000000 0.000000 -1.570796
    7 -2.322148 3.262281 -0.924553 0.174496 1.570787 0.000000
    8 1.785817 4.603365 -8.312910 -1.396172 1.563668 -1.570692
    9 1.568528 1.140103 -0.352429 0.000000 0.000000 -1.570796
    10 -0.882679 0.161396 -0.345654 0.000000 0.000000 0.000000
    11 -0.523059 0.485281 -0.201933 -0.011685 -0.058533 -0.048657
    12 2.279250 1.020314 -0.233879 0.000000 0.000000 -1.570796
    13 -1.006374 0.018205 -0.231159 0.000000 0.000000 0.000000
    14 -0.000001 3.069431 -3.287379 0.000000 0.000000 -1.570796
    15 -0.000002 3.061617 -4.941231 -0.002888 0.010199 -1.559063
    16 0.000000 3.053805 -1.401840 0.000000 0.000000 -1.570796
    17 0.000006 7.892565 -1.494321 -1.570796 1.570796 0.000000
    18 -0.290093 0.869169 10.227669 1.570797 0.000000 -0.000001
    19 5.808486 -0.000115 -0.000011 0.792343 0.000000 3.141577
    20 6.098544 2.048650 -2.077436 -1.563827 -3.141592 0.000016
    21 6.098440 -0.015417 -2.923415 -0.778437 -3.141592 0.000016
    22 7.782713 7.689064 -5.444460 5.444019 -1.736187 0.615171
    23 1.257180 8.762585 -0.153713 -1.570562 0.002683 -1.566807
    24 -0.079734 -8.490924 -0.104134 0.122224 0.332113 0.023155
    25 -0.488518 -2.755602 -0.228260 -0.726376 0.079843 -0.218961
    26 0.039887 -1.479790 0.029854 -1.552686 0.000000 0.000001
    27 0.028786 -1.075731 -0.023109 -0.992502 0.000000 0.000000
    28 0.250027 -2.820665 -0.238396 -0.572168 0.103586 -0.135716
    29 -0.049759 -1.680544 0.100479 -1.641977 0.000000 -0.000002
    30 -0.034142 -1.148312 0.084782 -0.829271 0.000000 0.000000
    31 0.957766 -2.746780 -0.090302 -0.293392 -0.016437 0.087927
    32 -0.033420 -1.397129 -0.011257 -1.011454 0.000000 -0.000001
    33 -0.022360 -0.957436 0.018784 -0.872810 0.000000 0.000000
    34 -1.180681 -2.507217 -0.193859 -0.372948 0.114156 -0.031562
    35 -0.024967 -1.123934 0.017597 -1.365604 0.000000 0.000001
    36 -0.020057 -0.890968 0.010090 -0.866461 0.000000 0.000000
    37 0.583510 -1.197277 0.185379 0.185788 -0.609646 -0.121788
    38 1.535927 0.010246 0.005009 -0.002964 -0.012979 -0.387874
    39 1.100771 0.004527 -0.010679 -0.013199 0.009417 -0.774589
    40 0.077183 0.348180 -0.097459 -2.729208 6.116441 -1.525883
    41 0.447953 -2.798986 -0.200443 -1.021660 0.000534 0.163141
    42 -0.032909 -1.480204 0.004940 -1.641066 0.000000 0.000002
    43 -0.027022 -1.076920 -0.020210 -1.574534 0.000000 0.000000
    44 -0.249534 -2.846964 -0.174213 -0.611012 -0.003049 0.061474
    45 0.043235 -1.683941 0.096012 -1.849639 0.002823 -0.000167
    46 0.031729 -1.160830 0.058838 -1.197501 0.003183 -0.003517
    47 -0.963866 -2.785145 -0.085350 -0.559859 0.000065 -0.034534
    48 0.028479 -1.403067 0.006271 -1.649121 0.000000 0.000000
    49 0.021413 -0.957781 0.020046 -1.040402 0.000000 0.000000
    50 1.164475 -2.543940 -0.170330 -1.195396 0.008266 0.221157
    51 0.024032 -1.129042 0.017807 -1.078848 0.000000 0.000001
    52 0.014898 -0.883989 -0.019848 -1.745668 0.000000 0.000000
    53 -0.586770 -1.264477 0.200161 0.229198 -0.611231 -2.635610
    54 1.522835 0.058681 0.016848 0.001410 0.008985 0.881754
    55 1.117947 0.048424 -0.005766 -0.019047 -0.016497 0.913483
    56 -0.030021 -0.006226 -0.028573 0.165908 0.129871 1.436268
    57 -1.393470 8.839177 -0.239433 1.580804 -0.005023 -1.566847
end
