version 1
nodes
  0 "root" -1
  1 "Bone01" 0
  2 "Bone_L_Upper" 1
  3 "Bone_Lefthand" 1
  4 "Bone13" 3
  5 "Bone14" 4
  6 "Bone15" 5
  7 "Bone17" 3
  8 "Bone18" 7
  9 "Bone19" 8
  10 "Bone21" 3
  11 "Bone22" 10
  12 "Bone23" 11
  13 "Bone09" 3
  14 "Bone10" 13
  15 "Bone11" 14
  16 "Bone05" 3
  17 "Bone06" 16
  18 "Bone07" 17
  19 "Bone_Se_Hand-L" 3
  20 "Bone04" 0
  21 "Bone_Righthand" 20
  22 "Bone39" 21
  23 "Bone40" 22
  24 "Bone41" 23
  25 "Bone35" 21
  26 "Bone36" 25
  27 "Bone37" 26
  28 "Bone31" 21
  29 "Bone32" 28
  30 "Bone33" 29
  31 "Bone43" 21
  32 "Bone44" 31
  33 "Bone45" 32
  34 "Bone27" 21
  35 "Bone28" 34
  36 "Bone29" 35
  37 "Bone_Se_Hand-R" 21
  38 "Bone_R_Upper" 20
  39 "d_root" -1
  40 "trigger" 39
  41 "Bone08" 39
  42 "Bone03" 39
  43 "Bone02" 42
  44 "Bone16" 43
  45 "Bone12" 44
  46 "d_root01" -1
  47 "Bone48" 46
  48 "trigger01" 46
  49 "Bone46" 46
  50 "Bone47" 49
  51 "Baa01" 50
  52 "Baa02" 51
  53 "d22" 46
  54 "d11" 53
  55 "lighfxx" 46
  56 "lighfxxxxx" 39
  57 "glass" 39
  58 "glass2" 57
  59 "Dum11my02" -1
  60 "Du11mmy01" 59
end
skeleton
  time 0
    0 -1.987188 8.428680 -1.108790 -0.009720 0.000000 -0.374591
    1 6.747525 0.270869 -6.026509 5.088810 -2.377232 1.008593
    2 5.183081 6.957842 -0.239653 1.565542 -3.134183 1.037629
    3 -0.138329 -8.467485 -0.178355 -0.073281 -0.101812 0.061348
    4 -0.488518 -2.755602 -0.228260 -0.672908 0.058342 -0.237716
    5 0.039887 -1.491509 0.018135 -0.528774 -0.009276 0.008486
    6 0.028786 -1.079637 -0.042641 -0.163892 -0.003823 0.002253
    7 0.250027 -2.820665 -0.238396 -0.403685 0.077615 -0.138572
    8 -0.049759 -1.649293 0.100479 -0.390330 0.006663 -0.009961
    9 -0.034142 -1.148312 0.073063 -0.398459 0.005884 -0.008677
    10 0.957766 -2.746780 -0.090302 -0.234135 -0.222068 -0.024896
    11 -0.033420 -1.397129 -0.011257 -0.188906 0.004758 -0.009049
    12 -0.022360 -0.957436 0.018784 -0.105091 0.002709 -0.004782
    13 -1.180681 -2.507217 -0.193859 -0.718229 0.122450 -0.234105
    14 -0.024967 -1.123934 0.017597 -0.488126 0.007239 -0.019977
    15 -0.020057 -0.894874 0.013996 -0.366029 0.006004 -0.012500
    16 0.571791 -1.201183 0.201004 -0.160155 -0.397598 -0.412239
    17 1.516395 -0.153822 0.047979 0.015948 -0.157285 -0.526040
    18 1.100771 -0.046256 0.001040 -0.007051 -0.051704 -0.239523
    19 0.120153 -0.050270 -0.054489 0.287569 3.110905 1.561085
    20 -4.563869 -4.481237 -5.673331 0.642422 -4.379316 0.972828
    21 0.057880 -8.352759 -0.036710 -0.177788 -0.179693 0.503864
    22 0.447953 -2.798986 -0.200443 -1.102093 -0.014842 0.154548
    23 -0.032909 -1.499736 0.040097 -1.867668 0.020853 -0.039703
    24 -0.027022 -1.084733 -0.024116 -0.240942 0.006699 -0.001690
    25 -0.249534 -2.846964 -0.174213 -0.506443 -0.009677 0.074202
    26 0.043235 -1.660503 0.049136 -2.061415 -0.024969 0.019632
    27 0.031729 -1.153017 0.058838 -0.486236 -0.004415 0.005723
    28 -0.963866 -2.785145 -0.085350 0.115767 0.161701 0.061678
    29 0.028479 -1.403067 0.002365 -0.249724 -0.003272 -0.011421
    30 0.021413 -0.957781 0.020046 0.168675 0.000587 0.007418
    31 1.164475 -2.543940 -0.170330 -1.287253 -0.158056 0.208416
    32 0.024032 -1.144668 -0.005631 -1.194798 0.018936 0.059481
    33 0.014898 -0.899614 -0.019848 -0.774879 0.002301 0.039238
    34 -0.586770 -1.264477 0.200161 -0.225941 -0.693912 -2.492790
    35 1.554086 0.035243 0.016848 -0.013031 -0.005121 0.678841
    36 1.114041 0.044518 -0.005766 -0.017597 -0.034354 0.685966
    37 -0.139399 -0.111698 0.014397 0.285382 -0.030687 1.580508
    38 -6.120177 6.237535 -0.376156 1.579701 -0.022509 -0.899365
    39 -6.854566 -9.000275 -5.495079 1.345944 -1.162371 -1.278462
    40 -0.445597 0.884378 -0.000001 0.000000 0.000000 -2.855763
    41 0.752335 0.955584 -0.000001 0.000000 0.000002 -0.000001
    42 0.227005 -1.459700 -0.336619 0.000000 0.000000 -1.570796
    43 -1.773792 0.941444 0.336619 0.000000 0.000000 0.000000
    44 -12.940949 -13.876676 0.063470 0.000000 0.000000 3.141592
    45 -2.191151 0.000000 0.000000 0.000000 0.000000 0.000000
    46 28.767628 0.000000 -20.407471 0.000000 -1.570796 -1.570796
    47 0.752335 0.955585 -0.000001 0.000000 0.000002 -0.000001
    48 -0.445597 0.884380 -0.000001 0.000000 0.000000 -2.855763
    49 0.227003 -1.459700 0.523556 0.000000 0.000000 -1.570796
    50 -1.773792 0.941444 -0.523556 0.000000 0.000000 0.000000
    51 -19.860804 -4.372061 -0.000001 0.000000 0.000000 3.141592
    52 -0.004971 0.000000 0.000000 0.000000 0.000000 3.141592
    53 1.105276 0.472918 0.044064 1.396626 1.315062 2.998056
    54 0.000000 0.000002 -0.051336 0.000000 0.000000 0.000000
    55 -21.550318 25.867062 0.077498 0.000001 1.570451 0.000000
    56 -13.515524 35.221081 -0.542491 0.000001 1.570451 0.000000
    57 0.176298 1.520552 -0.810270 -0.169797 3.020228 0.347598
    58 0.000000 0.000000 0.004268 0.000000 0.000000 0.000000
    59 50.887146 9.091324 -31.729149 0.000000 0.000000 -1.570796
    60 -0.000001 0.000000 0.008734 0.000000 0.000000 0.000000
  time 1
    0 -2.100473 7.706001 -1.401767 -0.009720 -0.005549 -0.374591
    1 8.161631 -0.068986 -5.823378 5.476745 -2.270765 0.632081
    2 6.687033 5.106223 -0.395908 1.564775 -3.128053 0.759913
    3 -0.103172 -8.643272 -0.279921 0.065931 -0.111377 0.124429
    4 -0.488518 -2.755602 -0.228260 -0.454395 0.058534 -0.233342
    5 0.039887 -1.491509 0.018135 -0.475775 -0.008449 0.007336
    6 0.028786 -1.079637 -0.042641 -0.162541 -0.003799 0.002229
    7 0.250027 -2.820665 -0.238396 -0.208651 0.070712 -0.122309
    8 -0.049759 -1.653199 0.100479 -0.345470 0.006136 -0.008751
    9 -0.034142 -1.148312 0.076969 -0.296799 0.004530 -0.006004
    10 0.957766 -2.746780 -0.090302 -0.035970 -0.208166 -0.008369
    11 -0.033420 -1.397129 -0.015163 -0.255709 0.005908 -0.012225
    12 -0.022360 -0.957436 0.018784 -0.007864 0.000312 -0.000491
    13 -1.180681 -2.507217 -0.193859 -0.511573 0.117212 -0.219667
    14 -0.024967 -1.123934 0.017597 -0.423715 0.006819 -0.017065
    15 -0.020057 -0.894874 0.013996 -0.346258 0.005741 -0.011637
    16 0.571791 -1.201183 0.197098 -0.111669 -0.409942 -0.441463
    17 1.516395 -0.153822 0.047979 0.016331 -0.158196 -0.529618
    18 1.100771 -0.050162 0.001040 -0.006823 -0.055108 -0.251722
    19 0.120153 -0.050270 -0.054489 0.287569 3.110905 1.561085
    20 -4.759187 -4.102319 -6.149908 0.606929 -4.388430 0.943821
    21 0.061787 -8.352759 -0.044522 -0.155337 -0.145877 0.509874
    22 0.447953 -2.798986 -0.200443 -1.102093 -0.014842 0.154548
    23 -0.032909 -1.499736 0.040097 -1.867668 0.020853 -0.039703
    24 -0.027022 -1.084733 -0.024116 -0.240942 0.006699 -0.001690
    25 -0.249534 -2.846964 -0.174213 -0.506443 -0.009677 0.074202
    26 0.043235 -1.660503 0.049136 -2.061415 -0.024969 0.019632
    27 0.031729 -1.153017 0.058838 -0.486236 -0.004415 0.005723
    28 -0.963866 -2.785145 -0.085350 0.115767 0.161701 0.061678
    29 0.028479 -1.403067 0.002365 -0.249724 -0.003272 -0.011421
    30 0.021413 -0.957781 0.020046 0.168675 0.000587 0.007418
    31 1.164475 -2.543940 -0.170330 -1.287253 -0.158056 0.208416
    32 0.024032 -1.144668 -0.005631 -1.194798 0.018936 0.059481
    33 0.014898 -0.899614 -0.019848 -0.774879 0.002301 0.039238
    34 -0.586770 -1.264477 0.200161 -0.225941 -0.693912 -2.492790
    35 1.554086 0.035243 0.016848 -0.013031 -0.005121 0.678841
    36 1.114041 0.044518 -0.005766 -0.017597 -0.034354 0.685966
    37 -0.139399 -0.111698 0.014397 0.285382 -0.030687 1.580508
    38 -6.628005 5.616423 -0.395688 1.578575 -0.024857 -0.802040
    39 -7.038166 -9.336222 -6.588862 1.288410 -1.131874 -1.234669
    40 -0.445597 0.884378 -0.000001 0.000000 0.000000 -2.855763
    41 0.752335 0.955584 -0.000001 0.000000 0.000002 -0.000001
    42 0.227005 -1.459700 -0.336619 0.000000 0.000000 -1.570796
    43 -1.773792 0.941444 0.336619 0.000000 0.000000 0.000000
    44 -12.940949 -13.876676 0.063470 0.000000 0.000000 3.141592
    45 -2.191151 0.000000 0.000000 0.000000 0.000000 0.000000
    46 28.767628 0.000000 -20.407471 0.000000 -1.570796 -1.570796
    47 0.752335 0.955585 -0.000001 0.000000 0.000002 -0.000001
    48 -0.445597 0.884380 -0.000001 0.000000 0.000000 -2.855763
    49 0.227003 -1.459700 0.523556 0.000000 0.000000 -1.570796
    50 -1.773792 0.941444 -0.523556 0.000000 0.000000 0.000000
    51 -19.860804 -4.372061 -0.000001 0.000000 0.000000 3.141592
    52 -0.004971 0.000000 0.000000 0.000000 0.000000 3.141592
    53 1.105276 0.472918 0.044064 1.396626 1.315062 2.998056
    54 0.000000 0.000002 -0.051336 0.000000 0.000000 0.000000
    55 -21.550318 25.867062 0.077498 0.000001 1.570451 0.000000
    56 -13.515524 35.221081 -0.542491 0.000001 1.570451 0.000000
    57 0.176298 1.520552 -0.810270 -0.169797 3.020228 0.347598
    58 0.000000 0.000000 0.004268 0.000000 0.000000 0.000000
    59 50.887146 9.091324 -31.729149 0.000000 0.000000 -1.570796
    60 -0.000001 0.000000 0.008734 0.000000 0.000000 0.000000
  time 2
    0 -2.213757 6.983323 -1.698651 -0.009720 -0.011098 -0.374591
    1 9.423388 -0.424465 -5.499149 5.884173 -2.293661 0.170474
    2 7.550341 3.047567 -0.548256 1.564871 -3.122115 0.499773
    3 -0.068015 -8.822965 -0.385393 0.215116 -0.130275 0.190159
    4 -0.488518 -2.755602 -0.228260 -0.220397 0.057527 -0.229351
    5 0.039887 -1.487603 0.022041 -0.417124 -0.007466 0.006101
    6 0.028786 -1.079637 -0.042641 -0.160582 -0.003751 0.002205
    7 0.250027 -2.820665 -0.238396 0.000631 0.059878 -0.107484
    8 -0.049759 -1.657106 0.100479 -0.295625 0.005489 -0.007432
    9 -0.034142 -1.148312 0.080876 -0.188260 0.002804 -0.003320
    10 0.957766 -2.746780 -0.090302 0.177224 -0.198506 0.011561
    11 -0.033420 -1.397129 -0.015163 -0.326965 0.006903 -0.015689
    12 -0.022360 -0.957436 0.018784 0.097382 -0.002732 0.003847
    13 -1.180681 -2.507217 -0.193859 -0.292463 0.108775 -0.206451
    14 -0.024967 -1.123934 0.017597 -0.351770 0.006124 -0.013865
    15 -0.020057 -0.894874 0.013996 -0.325524 0.005429 -0.010738
    16 0.571791 -1.197277 0.197098 -0.062143 -0.420655 -0.472004
    17 1.516395 -0.153822 0.051885 0.016715 -0.159107 -0.533196
    18 1.100771 -0.050162 0.004946 -0.006559 -0.058535 -0.264025
    19 0.120153 -0.050270 -0.054489 0.287569 3.110905 1.561085
    20 -4.974037 -3.641368 -6.610860 0.556779 -4.400904 0.901024
    21 0.065693 -8.348853 -0.048429 -0.134456 -0.107009 0.527825
    22 0.447953 -2.798986 -0.200443 -1.102093 -0.014842 0.154548
    23 -0.032909 -1.499736 0.040097 -1.867668 0.020853 -0.039703
    24 -0.027022 -1.084733 -0.024116 -0.240942 0.006699 -0.001690
    25 -0.249534 -2.846964 -0.174213 -0.506443 -0.009677 0.074202
    26 0.043235 -1.660503 0.049136 -2.061415 -0.024969 0.019632
    27 0.031729 -1.153017 0.058838 -0.486236 -0.004415 0.005723
    28 -0.963866 -2.785145 -0.085350 0.115767 0.161701 0.061678
    29 0.028479 -1.403067 0.002365 -0.249724 -0.003272 -0.011421
    30 0.021413 -0.957781 0.020046 0.168675 0.000587 0.007418
    31 1.164475 -2.543940 -0.170330 -1.287253 -0.158056 0.208416
    32 0.024032 -1.144668 -0.005631 -1.194798 0.018936 0.059481
    33 0.014898 -0.899614 -0.019848 -0.774879 0.002301 0.039238
    34 -0.586770 -1.264477 0.200161 -0.225941 -0.693912 -2.492790
    35 1.554086 0.035243 0.016848 -0.013031 -0.005121 0.678841
    36 1.114041 0.044518 -0.005766 -0.017597 -0.034354 0.685966
    37 -0.139399 -0.111698 0.014397 0.285382 -0.030687 1.580508
    38 -7.081144 4.932808 -0.411313 1.577197 -0.027135 -0.702262
    39 -7.198327 -9.570605 -7.823275 1.245260 -1.083745 -1.203279
    40 -0.445597 0.884378 -0.000001 0.000000 0.000000 -2.855763
    41 0.752335 0.955584 -0.000001 0.000000 0.000002 -0.000001
    42 0.227005 -1.459700 -0.336619 0.000000 0.000000 -1.570796
    43 -1.773792 0.941444 0.336619 0.000000 0.000000 0.000000
    44 -12.940949 -13.876676 0.063470 0.000000 0.000000 3.141592
    45 -2.191151 0.000000 0.000000 0.000000 0.000000 0.000000
    46 28.767628 0.000000 -20.407471 0.000000 -1.570796 -1.570796
    47 0.752335 0.955585 -0.000001 0.000000 0.000002 -0.000001
    48 -0.445597 0.884380 -0.000001 0.000000 0.000000 -2.855763
    49 0.227003 -1.459700 0.523556 0.000000 0.000000 -1.570796
    50 -1.773792 0.941444 -0.523556 0.000000 0.000000 0.000000
    51 -19.860804 -4.372061 -0.000001 0.000000 0.000000 3.141592
    52 -0.004971 0.000000 0.000000 0.000000 0.000000 3.141592
    53 1.105276 0.472918 0.044064 1.396626 1.315062 2.998056
    54 0.000000 0.000002 -0.051336 0.000000 0.000000 0.000000
    55 -21.550318 25.867062 0.077498 0.000001 1.570451 0.000000
    56 -13.515524 35.221081 -0.542491 0.000001 1.570451 0.000000
    57 0.176298 1.520552 -0.810270 -0.169797 3.020228 0.347598
    58 0.000000 0.000000 0.004268 0.000000 0.000000 0.000000
    59 50.887146 9.091324 -31.729149 0.000000 0.000000 -1.570796
    60 -0.000001 0.000000 0.008734 0.000000 0.000000 0.000000
  time 3
    0 -2.327042 6.260645 -1.995535 -0.009720 -0.016647 -0.374591
    1 10.396074 -0.760413 -5.088981 6.158117 -2.421880 -0.200384
    2 7.823787 1.332670 -0.688886 1.565351 -3.117326 0.296317
    3 -0.028951 -8.998752 -0.498677 0.342146 -0.155896 0.243985
    4 -0.488518 -2.755602 -0.228260 -0.017421 0.056089 -0.224989
    5 0.039887 -1.487603 0.022041 -0.369738 -0.006627 0.005154
    6 0.028786 -1.079637 -0.042641 -0.159839 -0.003739 0.002193
    7 0.250027 -2.820665 -0.238396 0.180599 0.048265 -0.095272
    8 -0.049759 -1.661012 0.100479 -0.255750 0.004938 -0.006402
    9 -0.034142 -1.148312 0.084782 -0.093455 0.001067 -0.001151
    10 0.957766 -2.746780 -0.090302 0.359606 -0.191088 0.031240
    11 -0.033420 -1.397129 -0.015163 -0.389338 0.007574 -0.018769
    12 -0.022360 -0.957436 0.022690 0.186545 -0.005669 0.007263
    13 -1.180681 -2.507217 -0.193859 -0.099094 0.098576 -0.195539
    14 -0.024967 -1.123934 0.017597 -0.294892 0.005405 -0.011360
    15 -0.020057 -0.894874 0.013996 -0.306736 0.005141 -0.009935
    16 0.571791 -1.197277 0.193192 -0.012881 -0.430646 -0.502215
    17 1.516395 -0.153822 0.051885 0.017110 -0.160006 -0.536732
    18 1.096865 -0.054069 0.004946 -0.006260 -0.061891 -0.276095
    19 0.120153 -0.050270 -0.054489 0.287569 3.110905 1.561085
    20 -5.173262 -3.203854 -6.954620 0.534721 -4.407497 0.884096
    21 0.073506 -8.348853 -0.052335 -0.110018 -0.078664 0.524146
    22 0.447953 -2.798986 -0.200443 -1.102093 -0.014842 0.154548
    23 -0.032909 -1.499736 0.040097 -1.867668 0.020853 -0.039703
    24 -0.027022 -1.084733 -0.024116 -0.240942 0.006699 -0.001690
    25 -0.249534 -2.846964 -0.174213 -0.506443 -0.009677 0.074202
    26 0.043235 -1.660503 0.049136 -2.061415 -0.024969 0.019632
    27 0.031729 -1.153017 0.058838 -0.486236 -0.004415 0.005723
    28 -0.963866 -2.785145 -0.085350 0.115767 0.161701 0.061678
    29 0.028479 -1.403067 0.002365 -0.249724 -0.003272 -0.011421
    30 0.021413 -0.957781 0.020046 0.168675 0.000587 0.007418
    31 1.164475 -2.543940 -0.170330 -1.287253 -0.158056 0.208416
    32 0.024032 -1.144668 -0.005631 -1.194798 0.018936 0.059481
    33 0.014898 -0.899614 -0.019848 -0.774879 0.002301 0.039238
    34 -0.586770 -1.264477 0.200161 -0.225941 -0.693912 -2.492790
    35 1.554086 0.035243 0.016848 -0.013031 -0.005121 0.678841
    36 1.114041 0.044518 -0.005766 -0.017597 -0.034354 0.685966
    37 -0.139399 -0.111698 0.014397 0.285382 -0.030687 1.580508
    38 -7.448342 4.245287 -0.426939 1.575675 -0.029172 -0.607338
    39 -7.358488 -9.847957 -8.620174 1.194500 -1.069441 -1.166737
    40 -0.445597 0.884378 -0.000001 0.000000 0.000000 -2.855763
    41 0.752335 0.955584 -0.000001 0.000000 0.000002 -0.000001
    42 0.227005 -1.459700 -0.336619 0.000000 0.000000 -1.570796
    43 -1.773792 0.941444 0.336619 0.000000 0.000000 0.000000
    44 -12.940949 -13.876676 0.063470 0.000000 0.000000 3.141592
    45 -2.191151 0.000000 0.000000 0.000000 0.000000 0.000000
    46 28.767628 0.000000 -20.407471 0.000000 -1.570796 -1.570796
    47 0.752335 0.955585 -0.000001 0.000000 0.000002 -0.000001
    48 -0.445597 0.884380 -0.000001 0.000000 0.000000 -2.855763
    49 0.227003 -1.459700 0.523556 0.000000 0.000000 -1.570796
    50 -1.773792 0.941444 -0.523556 0.000000 0.000000 0.000000
    51 -19.860804 -4.372061 -0.000001 0.000000 0.000000 3.141592
    52 -0.004971 0.000000 0.000000 0.000000 0.000000 3.141592
    53 1.105276 0.472918 0.044064 1.396626 1.315062 2.998056
    54 0.000000 0.000002 -0.051336 0.000000 0.000000 0.000000
    55 -21.550318 25.867062 0.077498 0.000001 1.570451 0.000000
    56 -13.515524 35.221081 -0.542491 0.000001 1.570451 0.000000
    57 0.176298 1.520552 -0.810270 -0.169797 3.020228 0.347598
    58 0.000000 0.000000 0.004268 0.000000 0.000000 0.000000
    59 50.887146 9.091324 -31.729149 0.000000 0.000000 -1.570796
    60 -0.000001 0.000000 0.008734 0.000000 0.000000 0.000000
  time 4
    0 -2.440327 5.537967 -2.292420 -0.009720 -0.022195 -0.374591
    1 11.060157 -0.983076 -4.651467 0.014787 -2.592265 -0.436027
    2 7.835506 0.399048 -0.817796 1.564967 -3.114453 0.188838
    3 0.010113 -9.162819 -0.608056 0.415654 -0.179231 0.274002
    4 -0.488518 -2.755602 -0.228260 0.108029 0.055035 -0.219164
    5 0.039887 -1.487603 0.022041 -0.350415 -0.006268 0.004783
    6 0.028786 -1.079637 -0.042641 -0.162135 -0.003787 0.002229
    7 0.250027 -2.820665 -0.238396 0.288016 0.040164 -0.084833
    8 -0.049759 -1.661012 0.100479 -0.240842 0.004710 -0.006018
    9 -0.034142 -1.148312 0.084782 -0.033083 -0.000144 0.000144
    10 0.957766 -2.746780 -0.090302 0.465240 -0.181261 0.047276
    11 -0.033420 -1.397129 -0.019070 -0.429452 0.007898 -0.020758
    12 -0.022360 -0.957436 0.022690 0.235477 -0.007406 0.009024
    13 -1.180681 -2.507217 -0.193859 0.030342 0.089013 -0.186705
    14 -0.024967 -1.123934 0.017597 -0.275650 0.005141 -0.010533
    15 -0.020057 -0.894874 0.013996 -0.292845 0.004926 -0.009348
    16 0.571791 -1.197277 0.189285 0.034845 -0.441057 -0.530605
    17 1.516395 -0.157728 0.051885 0.017470 -0.160845 -0.540060
    18 1.096865 -0.057975 0.004946 -0.005936 -0.065067 -0.287519
    19 0.120153 -0.050270 -0.054489 0.287569 3.110905 1.561085
    20 -5.313892 -2.910877 -7.122594 0.585087 -4.398513 0.935072
    21 0.085225 -8.360572 -0.052335 -0.078206 -0.074636 0.464829
    22 0.447953 -2.798986 -0.200443 -1.102093 -0.014842 0.154548
    23 -0.032909 -1.499736 0.040097 -1.867668 0.020853 -0.039703
    24 -0.027022 -1.084733 -0.024116 -0.240942 0.006699 -0.001690
    25 -0.249534 -2.846964 -0.174213 -0.506443 -0.009677 0.074202
    26 0.043235 -1.660503 0.049136 -2.061415 -0.024969 0.019632
    27 0.031729 -1.153017 0.058838 -0.486236 -0.004415 0.005723
    28 -0.963866 -2.785145 -0.085350 0.115767 0.161701 0.061678
    29 0.028479 -1.403067 0.002365 -0.249724 -0.003272 -0.011421
    30 0.021413 -0.957781 0.020046 0.168675 0.000587 0.007418
    31 1.164475 -2.543940 -0.170330 -1.287253 -0.158056 0.208416
    32 0.024032 -1.144668 -0.005631 -1.194798 0.018936 0.059481
    33 0.014898 -0.899614 -0.019848 -0.774879 0.002301 0.039238
    34 -0.586770 -1.264477 0.200161 -0.225941 -0.693912 -2.492790
    35 1.554086 0.035243 0.016848 -0.013031 -0.005121 0.678841
    36 1.114041 0.044518 -0.005766 -0.017597 -0.034354 0.685966
    37 -0.139399 -0.111698 0.014397 0.285382 -0.030687 1.580508
    38 -7.713975 3.616361 -0.438658 1.574200 -0.030814 -0.524574
    39 -7.526462 -10.316721 -8.428762 1.094121 -1.138082 -1.088597
    40 -0.445597 0.884378 -0.000001 0.000000 0.000000 -2.855763
    41 0.752335 0.955584 -0.000001 0.000000 0.000002 -0.000001
    42 0.227005 -1.459700 -0.336619 0.000000 0.000000 -1.570796
    43 -1.773792 0.941444 0.336619 0.000000 0.000000 0.000000
    44 -12.940949 -13.876676 0.063470 0.000000 0.000000 3.141592
    45 -2.191151 0.000000 0.000000 0.000000 0.000000 0.000000
    46 28.767628 0.000000 -20.407471 0.000000 -1.570796 -1.570796
    47 0.752335 0.955585 -0.000001 0.000000 0.000002 -0.000001
    48 -0.445597 0.884380 -0.000001 0.000000 0.000000 -2.855763
    49 0.227003 -1.459700 0.523556 0.000000 0.000000 -1.570796
    50 -1.773792 0.941444 -0.523556 0.000000 0.000000 0.000000
    51 -19.860804 -4.372061 -0.000001 0.000000 0.000000 3.141592
    52 -0.004971 0.000000 0.000000 0.000000 0.000000 3.141592
    53 1.105276 0.472918 0.044064 1.396626 1.315062 2.998056
    54 0.000000 0.000002 -0.051336 0.000000 0.000000 0.000000
    55 -21.550318 25.867062 0.077498 0.000001 1.570451 0.000000
    56 -13.515524 35.221081 -0.542491 0.000001 1.570451 0.000000
    57 0.176298 1.520552 -0.810270 -0.169797 3.020228 0.347598
    58 0.000000 0.000000 0.004268 0.000000 0.000000 0.000000
    59 50.887146 9.091324 -31.729149 0.000000 0.000000 -1.570796
    60 -0.000001 0.000000 0.008734 0.000000 0.000000 0.000000
  time 5
    0 -2.553612 4.815288 -2.589304 -0.009720 -0.027744 -0.374591
    1 11.517202 -1.045578 -4.116295 0.091323 -2.797664 -0.585903
    2 7.870663 0.106071 -0.938893 1.563433 -3.113016 0.160956
    3 0.045270 -9.311261 -0.717434 0.435126 -0.199099 0.279613
    4 -0.488518 -2.755602 -0.228260 0.151542 0.054939 -0.210691
    5 0.039887 -1.487603 0.022041 -0.367453 -0.006580 0.005106
    6 0.028786 -1.079637 -0.042641 -0.169588 -0.003955 0.002337
    7 0.250027 -2.820665 -0.238396 0.317943 0.037251 -0.073520
    8 -0.049759 -1.661012 0.100479 -0.258750 0.004974 -0.006474
    9 -0.034142 -1.148312 0.084782 -0.009663 -0.000635 0.000623
    10 0.957766 -2.746780 -0.090302 0.487731 -0.164063 0.059620
    11 -0.033420 -1.397129 -0.019070 -0.446815 0.008018 -0.021633
    12 -0.022360 -0.957436 0.022690 0.238370 -0.007514 0.009120
    13 -1.180681 -2.507217 -0.193859 0.095011 0.080743 -0.177899
    14 -0.024967 -1.123934 0.017597 -0.304815 0.005549 -0.011804
    15 -0.020057 -0.894874 0.010090 -0.284404 0.004782 -0.008988
    16 0.575697 -1.197277 0.185379 0.085841 -0.454373 -0.560386
    17 1.516395 -0.157728 0.051885 0.017853 -0.161720 -0.543471
    18 1.096865 -0.057975 0.004946 -0.005564 -0.068327 -0.299279
    19 0.120153 -0.050270 -0.054489 0.287569 3.110905 1.561085
    20 -5.392019 -2.809311 -7.134313 0.718437 -4.361542 1.064794
    21 0.096944 -8.391823 -0.044522 -0.031056 -0.096671 0.325626
    22 0.447953 -2.798986 -0.200443 -1.102093 -0.014842 0.154548
    23 -0.032909 -1.499736 0.040097 -1.867668 0.020853 -0.039703
    24 -0.027022 -1.084733 -0.024116 -0.240942 0.006699 -0.001690
    25 -0.249534 -2.846964 -0.174213 -0.506443 -0.009677 0.074202
    26 0.043235 -1.660503 0.049136 -2.061415 -0.024969 0.019632
    27 0.031729 -1.153017 0.058838 -0.486236 -0.004415 0.005723
    28 -0.963866 -2.785145 -0.085350 0.115767 0.161701 0.061678
    29 0.028479 -1.403067 0.002365 -0.249724 -0.003272 -0.011421
    30 0.021413 -0.957781 0.020046 0.168675 0.000587 0.007418
    31 1.164475 -2.543940 -0.170330 -1.287253 -0.158056 0.208416
    32 0.024032 -1.144668 -0.005631 -1.194798 0.018936 0.059481
    33 0.014898 -0.899614 -0.019848 -0.774879 0.002301 0.039238
    34 -0.586770 -1.264477 0.200161 -0.225941 -0.693912 -2.492790
    35 1.554086 0.035243 0.016848 -0.013031 -0.005121 0.678841
    36 1.114041 0.044518 -0.005766 -0.017597 -0.034354 0.685966
    37 -0.139399 -0.111698 0.014397 0.285382 -0.030687 1.580508
    38 -7.921013 2.999155 -0.446471 1.572678 -0.032264 -0.445845
    39 -7.713968 -10.820643 -6.924810 0.755086 -1.307119 -0.782619
    40 -0.445597 0.884378 -0.000001 0.000000 0.000000 -2.855763
    41 0.752335 0.955584 -0.000001 0.000000 0.000002 -0.000001
    42 0.227005 -1.459700 -0.336619 0.000000 0.000000 -1.570796
    43 -1.773792 0.941444 0.336619 0.000000 0.000000 0.000000
    44 -12.940949 -13.876676 0.063470 0.000000 0.000000 3.141592
    45 -2.191151 0.000000 0.000000 0.000000 0.000000 0.000000
    46 28.767628 0.000000 -20.407471 0.000000 -1.570796 -1.570796
    47 0.752335 0.955585 -0.000001 0.000000 0.000002 -0.000001
    48 -0.445597 0.884380 -0.000001 0.000000 0.000000 -2.855763
    49 0.227003 -1.459700 0.523556 0.000000 0.000000 -1.570796
    50 -1.773792 0.941444 -0.523556 0.000000 0.000000 0.000000
    51 -19.860804 -4.372061 -0.000001 0.000000 0.000000 3.141592
    52 -0.004971 0.000000 0.000000 0.000000 0.000000 3.141592
    53 1.105276 0.472918 0.044064 1.396626 1.315062 2.998056
    54 0.000000 0.000002 -0.051336 0.000000 0.000000 0.000000
    55 -21.550318 25.867062 0.077498 0.000001 1.570451 0.000000
    56 -13.515524 35.221081 -0.542491 0.000001 1.570451 0.000000
    57 0.176298 1.520552 -0.810270 -0.169797 3.020228 0.347598
    58 0.000000 0.000000 0.004268 0.000000 0.000000 0.000000
    59 50.887146 9.091324 -31.729149 0.000000 0.000000 -1.570796
    60 -0.000001 0.000000 0.008734 0.000000 0.000000 0.000000
  time 6
    0 -2.666896 4.092610 -2.886188 -0.009720 -0.033293 -0.374591
    1 11.794554 -0.967450 -3.405336 0.127346 -3.037215 -0.697160
    2 8.015199 0.059194 -1.056084 1.561516 -3.111962 0.165189
    3 0.080427 -9.451890 -0.826812 0.426866 -0.219107 0.271724
    4 -0.488518 -2.755602 -0.228260 0.150808 0.055670 -0.200157
    5 0.039887 -1.487603 0.022041 -0.408545 -0.007323 0.005933
    6 0.028786 -1.079637 -0.046547 -0.181117 -0.004207 0.002517
    7 0.250027 -2.820665 -0.238396 0.305450 0.037731 -0.060696
    8 -0.049759 -1.657106 0.100479 -0.298579 0.005537 -0.007504
    9 -0.034142 -1.148312 0.084782 -0.006656 -0.000695 0.000683
    10 0.957766 -2.746780 -0.090302 0.464067 -0.140585 0.069711
    11 -0.033420 -1.397129 -0.019070 -0.452402 0.008054 -0.021909
    12 -0.022360 -0.957436 0.022690 0.214132 -0.006639 0.008269
    13 -1.180681 -2.507217 -0.193859 0.126487 0.072941 -0.168265
    14 -0.024967 -1.123934 0.017597 -0.365838 0.006280 -0.014488
    15 -0.020057 -0.894874 0.010090 -0.279036 0.004686 -0.008761
    16 0.575697 -1.193371 0.185379 0.142405 -0.469819 -0.593836
    17 1.512489 -0.157728 0.051885 0.018273 -0.162655 -0.547174
    18 1.096865 -0.061881 0.004946 -0.005133 -0.071826 -0.311918
    19 0.120153 -0.050270 -0.054489 0.287569 3.110905 1.561085
    20 -5.438895 -2.821030 -7.060092 0.866876 -4.296456 1.207737
    21 0.116476 -8.434793 -0.032803 0.033654 -0.126577 0.127857
    22 0.447953 -2.798986 -0.200443 -1.102093 -0.014842 0.154548
    23 -0.032909 -1.499736 0.040097 -1.867668 0.020853 -0.039703
    24 -0.027022 -1.084733 -0.024116 -0.240942 0.006699 -0.001690
    25 -0.249534 -2.846964 -0.174213 -0.506443 -0.009677 0.074202
    26 0.043235 -1.660503 0.049136 -2.061415 -0.024969 0.019632
    27 0.031729 -1.153017 0.058838 -0.486236 -0.004415 0.005723
    28 -0.963866 -2.785145 -0.085350 0.115767 0.161701 0.061678
    29 0.028479 -1.403067 0.002365 -0.249724 -0.003272 -0.011421
    30 0.021413 -0.957781 0.020046 0.168675 0.000587 0.007418
    31 1.164475 -2.543940 -0.170330 -1.287253 -0.158056 0.208416
    32 0.024032 -1.144668 -0.005631 -1.194798 0.018936 0.059481
    33 0.014898 -0.899614 -0.019848 -0.774879 0.002301 0.039238
    34 -0.586770 -1.264477 0.200161 -0.225941 -0.693912 -2.492790
    35 1.554086 0.035243 0.016848 -0.013031 -0.005121 0.678841
    36 1.114041 0.044518 -0.005766 -0.017597 -0.034354 0.685966
    37 -0.139399 -0.111698 0.014397 0.285382 -0.030687 1.580508
    38 -8.081174 2.342885 -0.458190 1.570965 -0.033642 -0.363489
    39 -7.917099 -10.859706 -4.592707 -0.588194 -1.375310 0.522582
    40 -0.445597 0.884378 -0.000001 0.000000 0.000000 -2.855763
    41 0.752335 0.955584 -0.000001 0.000000 0.000002 -0.000001
    42 0.227005 -1.459700 -0.336619 0.000000 0.000000 -1.570796
    43 -1.773792 0.941444 0.336619 0.000000 0.000000 0.000000
    44 -12.940949 -13.876676 0.063470 0.000000 0.000000 3.141592
    45 -2.191151 0.000000 0.000000 0.000000 0.000000 0.000000
    46 28.767628 0.000000 -20.407471 0.000000 -1.570796 -1.570796
    47 0.752335 0.955585 -0.000001 0.000000 0.000002 -0.000001
    48 -0.445597 0.884380 -0.000001 0.000000 0.000000 -2.855763
    49 0.227003 -1.459700 0.523556 0.000000 0.000000 -1.570796
    50 -1.773792 0.941444 -0.523556 0.000000 0.000000 0.000000
    51 -19.860804 -4.372061 -0.000001 0.000000 0.000000 3.141592
    52 -0.004971 0.000000 0.000000 0.000000 0.000000 3.141592
    53 1.105276 0.472918 0.044064 1.396626 1.315062 2.998056
    54 0.000000 0.000002 -0.051336 0.000000 0.000000 0.000000
    55 -21.550318 25.867062 0.077498 0.000001 1.570451 0.000000
    56 -13.515524 35.221081 -0.542491 0.000001 1.570451 0.000000
    57 0.176298 1.520552 -0.810270 -0.169797 3.020228 0.347598
    58 0.000000 0.000000 0.004268 0.000000 0.000000 0.000000
    59 50.887146 9.091324 -31.729149 0.000000 0.000000 -1.570796
    60 -0.000001 0.000000 0.008734 0.000000 0.000000 0.000000
  time 7
    0 -2.780181 3.369932 -3.179165 -0.009720 -0.038842 -0.374591
    1 11.821899 -0.783851 -2.596717 0.131837 3.003854 -0.782448
    2 8.245674 0.164666 -1.173275 1.559407 -3.111484 0.192979
    3 0.111678 -9.588613 -0.936191 0.400106 -0.236365 0.257143
    4 -0.488518 -2.755602 -0.228260 0.122516 0.057288 -0.189011
    5 0.039887 -1.487603 0.018135 -0.459659 -0.008185 0.006988
    6 0.028786 -1.079637 -0.046547 -0.193703 -0.004470 0.002721
    7 0.250027 -2.820665 -0.238396 0.267317 0.040811 -0.047789
    8 -0.049759 -1.653199 0.100479 -0.347316 0.006160 -0.008799
    9 -0.034142 -1.148312 0.084782 -0.015877 -0.000503 0.000503
    10 0.957766 -2.746780 -0.090302 0.413574 -0.114458 0.076506
    11 -0.033420 -1.397129 -0.019070 -0.450087 0.008042 -0.021801
    12 -0.022360 -0.957436 0.022690 0.175610 -0.005297 0.006855
    13 -1.180681 -2.507217 -0.193859 0.135264 0.066050 -0.158560
    14 -0.024967 -1.123934 0.017597 -0.440234 0.006939 -0.017808
    15 -0.020057 -0.894874 0.010090 -0.275430 0.004626 -0.008605
    16 0.579604 -1.193371 0.185379 0.199249 -0.484279 -0.627640
    17 1.512489 -0.157728 0.051885 0.018680 -0.163565 -0.550793
    18 1.096865 -0.061881 0.008853 -0.004654 -0.075254 -0.324298
    19 0.120153 -0.050270 -0.054489 0.287569 3.110905 1.561085
    20 -5.466240 -2.887438 -6.938995 0.982695 -4.216246 1.316822
    21 0.124289 -8.485576 -0.024990 0.108903 -0.148830 -0.093225
    22 0.447953 -2.798986 -0.200443 -1.102093 -0.014842 0.154548
    23 -0.032909 -1.499736 0.040097 -1.867668 0.020853 -0.039703
    24 -0.027022 -1.084733 -0.024116 -0.240942 0.006699 -0.001690
    25 -0.249534 -2.846964 -0.174213 -0.506443 -0.009677 0.074202
    26 0.043235 -1.660503 0.049136 -2.061415 -0.024969 0.019632
    27 0.031729 -1.153017 0.058838 -0.486236 -0.004415 0.005723
    28 -0.963866 -2.785145 -0.085350 0.115767 0.161701 0.061678
    29 0.028479 -1.403067 0.002365 -0.249724 -0.003272 -0.011421
    30 0.021413 -0.957781 0.020046 0.168675 0.000587 0.007418
    31 1.164475 -2.543940 -0.170330 -1.287253 -0.158056 0.208416
    32 0.024032 -1.144668 -0.005631 -1.194798 0.018936 0.059481
    33 0.014898 -0.899614 -0.019848 -0.774879 0.002301 0.039238
    34 -0.586770 -1.264477 0.200161 -0.225941 -0.693912 -2.492790
    35 1.554086 0.035243 0.016848 -0.013031 -0.005121 0.678841
    36 1.114041 0.044518 -0.005766 -0.017597 -0.034354 0.685966
    37 -0.139399 -0.111698 0.014397 0.285382 -0.030687 1.580508
    38 -8.182740 1.706147 -0.462096 1.569239 -0.034817 -0.285475
    39 -8.139762 -10.207343 -2.221541 -1.314666 -1.130615 1.211629
    40 -0.445597 0.884378 -0.000001 0.000000 0.000000 -2.855763
    41 0.752335 0.955584 -0.000001 0.000000 0.000002 -0.000001
    42 0.227005 -1.459700 -0.336619 0.000000 0.000000 -1.570796
    43 -1.773792 0.941444 0.336619 0.000000 0.000000 0.000000
    44 -12.940949 -13.876676 0.063470 0.000000 0.000000 3.141592
    45 -2.191151 0.000000 0.000000 0.000000 0.000000 0.000000
    46 28.767628 0.000000 -20.407471 0.000000 -1.570796 -1.570796
    47 0.752335 0.955585 -0.000001 0.000000 0.000002 -0.000001
    48 -0.445597 0.884380 -0.000001 0.000000 0.000000 -2.855763
    49 0.227003 -1.459700 0.523556 0.000000 0.000000 -1.570796
    50 -1.773792 0.941444 -0.523556 0.000000 0.000000 0.000000
    51 -19.860804 -4.372061 -0.000001 0.000000 0.000000 3.141592
    52 -0.004971 0.000000 0.000000 0.000000 0.000000 3.141592
    53 1.105276 0.472918 0.044064 1.396626 1.315062 2.998056
    54 0.000000 0.000002 -0.051336 0.000000 0.000000 0.000000
    55 -21.550318 25.867062 0.077498 0.000001 1.570451 0.000000
    56 -13.515524 35.221081 -0.542491 0.000001 1.570451 0.000000
    57 0.176298 1.520552 -0.810270 -0.169797 3.020228 0.347598
    58 0.000000 0.000000 0.004268 0.000000 0.000000 0.000000
    59 50.887146 9.091324 -31.729149 0.000000 0.000000 -1.570796
    60 -0.000001 0.000000 0.008734 0.000000 0.000000 0.000000
  time 8
    0 -2.893466 2.651160 -3.476049 -0.009720 -0.044391 -0.374591
    1 11.650019 -0.561188 -1.827162 0.117408 2.789106 -0.850487
    2 8.515214 0.371704 -1.286560 1.557298 -3.111292 0.236321
    3 0.142929 -9.725336 -1.045569 0.363806 -0.247962 0.242220
    4 -0.488518 -2.755602 -0.228260 0.083516 0.059469 -0.178740
    5 0.039887 -1.491509 0.018135 -0.506645 -0.008941 0.008007
    6 0.028786 -1.083544 -0.046547 -0.204421 -0.004710 0.002900
    7 0.250027 -2.820665 -0.238396 0.220161 0.045221 -0.036283
    8 -0.049759 -1.649293 0.100479 -0.391853 0.006675 -0.009997
    9 -0.034142 -1.148312 0.084782 -0.029124 -0.000228 0.000228
    10 0.957766 -2.746780 -0.090302 0.355289 -0.089878 0.079969
    11 -0.033420 -1.397129 -0.019070 -0.443721 0.007994 -0.021477
    12 -0.022360 -0.957436 0.018784 0.135585 -0.003955 0.005345
    13 -1.180681 -2.507217 -0.193859 0.131979 0.060369 -0.149740
    14 -0.024967 -1.123934 0.017597 -0.509546 0.007335 -0.020948
    15 -0.020057 -0.894874 0.010090 -0.272193 0.004566 -0.008473
    16 0.579604 -1.189464 0.181473 0.250543 -0.495269 -0.657852
    17 1.512489 -0.161634 0.051885 0.019040 -0.164380 -0.554038
    18 1.096865 -0.065788 0.008853 -0.004198 -0.078310 -0.335412
    19 0.120153 -0.050270 -0.054489 0.287569 3.110905 1.561085
    20 -5.489678 -2.961659 -6.821804 1.058567 -4.139784 1.385297
    21 0.120382 -8.536359 -0.021084 0.181667 -0.156080 -0.299802
    22 0.447953 -2.798986 -0.200443 -1.102093 -0.014842 0.154548
    23 -0.032909 -1.499736 0.040097 -1.867668 0.020853 -0.039703
    24 -0.027022 -1.084733 -0.024116 -0.240942 0.006699 -0.001690
    25 -0.249534 -2.846964 -0.174213 -0.506443 -0.009677 0.074202
    26 0.043235 -1.660503 0.049136 -2.061415 -0.024969 0.019632
    27 0.031729 -1.153017 0.058838 -0.486236 -0.004415 0.005723
    28 -0.963866 -2.785145 -0.085350 0.115767 0.161701 0.061678
    29 0.028479 -1.403067 0.002365 -0.249724 -0.003272 -0.011421
    30 0.021413 -0.957781 0.020046 0.168675 0.000587 0.007418
    31 1.164475 -2.543940 -0.170330 -1.287253 -0.158056 0.208416
    32 0.024032 -1.144668 -0.005631 -1.194798 0.018936 0.059481
    33 0.014898 -0.899614 -0.019848 -0.774879 0.002301 0.039238
    34 -0.586770 -1.264477 0.200161 -0.225941 -0.693912 -2.492790
    35 1.554086 0.035243 0.016848 -0.013031 -0.005121 0.678841
    36 1.114041 0.044518 -0.005766 -0.017597 -0.034354 0.685966
    37 -0.139399 -0.111698 0.014397 0.285382 -0.030687 1.580508
    38 -8.229616 1.167068 -0.469909 1.567717 -0.035704 -0.219672
    39 -8.385863 -9.160436 -0.487113 -1.503018 -0.853804 1.365429
    40 -0.445597 0.884378 -0.000001 0.000000 0.000000 -2.855763
    41 0.752335 0.955584 -0.000001 0.000000 0.000002 -0.000001
    42 0.227005 -1.459700 -0.336619 0.000000 0.000000 -1.570796
    43 -1.773792 0.941444 0.336619 0.000000 0.000000 0.000000
    44 -12.940949 -13.876676 0.063470 0.000000 0.000000 3.141592
    45 -2.191151 0.000000 0.000000 0.000000 0.000000 0.000000
    46 28.767628 0.000000 -20.407471 0.000000 -1.570796 -1.570796
    47 0.752335 0.955585 -0.000001 0.000000 0.000002 -0.000001
    48 -0.445597 0.884380 -0.000001 0.000000 0.000000 -2.855763
    49 0.227003 -1.459700 0.523556 0.000000 0.000000 -1.570796
    50 -1.773792 0.941444 -0.523556 0.000000 0.000000 0.000000
    51 -19.860804 -4.372061 -0.000001 0.000000 0.000000 3.141592
    52 -0.004971 0.000000 0.000000 0.000000 0.000000 3.141592
    53 1.105276 0.472918 0.044064 1.396626 1.315062 2.998056
    54 0.000000 0.000002 -0.051336 0.000000 0.000000 0.000000
    55 -21.550318 25.867062 0.077498 0.000001 1.570451 0.000000
    56 -13.515524 35.221081 -0.542491 0.000001 1.570451 0.000000
    57 0.176298 1.520552 -0.810270 -0.169797 3.020228 0.347598
    58 0.000000 0.000000 0.004268 0.000000 0.000000 0.000000
    59 50.887146 9.091324 -31.729149 0.000000 0.000000 -1.570796
    60 -0.000001 0.000000 0.008734 0.000000 0.000000 0.000000
  time 9
    0 -3.006750 1.928481 -3.772933 -0.009720 -0.049940 -0.374591
    1 11.431262 -0.401027 -1.252926 0.098012 2.630073 -0.902042
    2 8.765222 0.625618 -1.399845 1.555380 -3.111484 0.286931
    3 0.178087 -9.862059 -1.151041 0.326886 -0.250504 0.232764
    4 -0.488518 -2.755602 -0.228260 0.050395 0.061446 -0.170723
    5 0.039887 -1.491509 0.018135 -0.535469 -0.009384 0.008642
    6 0.028786 -1.083544 -0.050454 -0.210275 -0.004830 0.002996
    7 0.250027 -2.820665 -0.238396 0.180681 0.049188 -0.027463
    8 -0.049759 -1.649293 0.096573 -0.419037 0.006963 -0.010752
    9 -0.034142 -1.148312 0.084782 -0.038213 -0.000036 0.000036
    10 0.957766 -2.746780 -0.090302 0.308094 -0.071146 0.081480
    11 -0.033420 -1.397129 -0.019070 -0.437154 0.007958 -0.021154
    12 -0.022360 -0.957436 0.018784 0.106927 -0.003032 0.004219
    13 -1.180681 -2.507217 -0.193859 0.127223 0.055983 -0.142915
    14 -0.024967 -1.123934 0.017597 -0.555291 0.007478 -0.023033
    15 -0.020057 -0.894874 0.010090 -0.267993 0.004494 -0.008293
    16 0.583510 -1.189464 0.181473 0.289992 -0.500987 -0.679966
    17 1.512489 -0.161634 0.051885 0.019339 -0.165016 -0.556576
    18 1.092958 -0.069694 0.008853 -0.003815 -0.080707 -0.344122
    19 0.120153 -0.050270 -0.054489 0.287569 3.110905 1.561085
    20 -5.517023 -3.004629 -6.747583 1.100095 -4.087173 1.418679
    21 0.112569 -8.571516 -0.021084 0.236793 -0.151113 -0.452914
    22 0.447953 -2.798986 -0.200443 -1.102093 -0.014842 0.154548
    23 -0.032909 -1.499736 0.040097 -1.867668 0.020853 -0.039703
    24 -0.027022 -1.084733 -0.024116 -0.240942 0.006699 -0.001690
    25 -0.249534 -2.846964 -0.174213 -0.506443 -0.009677 0.074202
    26 0.043235 -1.660503 0.049136 -2.061415 -0.024969 0.019632
    27 0.031729 -1.153017 0.058838 -0.486236 -0.004415 0.005723
    28 -0.963866 -2.785145 -0.085350 0.115767 0.161701 0.061678
    29 0.028479 -1.403067 0.002365 -0.249724 -0.003272 -0.011421
    30 0.021413 -0.957781 0.020046 0.168675 0.000587 0.007418
    31 1.164475 -2.543940 -0.170330 -1.287253 -0.158056 0.208416
    32 0.024032 -1.144668 -0.005631 -1.194798 0.018936 0.059481
    33 0.014898 -0.899614 -0.019848 -0.774879 0.002301 0.039238
    34 -0.586770 -1.264477 0.200161 -0.225941 -0.693912 -2.492790
    35 1.554086 0.035243 0.016848 -0.013031 -0.005121 0.678841
    36 1.114041 0.044518 -0.005766 -0.017597 -0.034354 0.685966
    37 -0.139399 -0.111698 0.014397 0.285382 -0.030687 1.580508
    38 -8.241335 0.792057 -0.473815 1.566626 -0.036255 -0.174101
    39 -8.655403 -8.379162 0.317599 -1.581023 -0.648422 1.412657
    40 -0.445597 0.884378 -0.000001 0.000000 0.000000 -2.855763
    41 0.752335 0.955584 -0.000001 0.000000 0.000002 -0.000001
    42 0.227005 -1.459700 -0.336619 0.000000 0.000000 -1.570796
    43 -1.773792 0.941444 0.336619 0.000000 0.000000 0.000000
    44 -12.940949 -13.876676 0.063470 0.000000 0.000000 3.141592
    45 -2.191151 0.000000 0.000000 0.000000 0.000000 0.000000
    46 28.767628 0.000000 -20.407471 0.000000 -1.570796 -1.570796
    47 0.752335 0.955585 -0.000001 0.000000 0.000002 -0.000001
    48 -0.445597 0.884380 -0.000001 0.000000 0.000000 -2.855763
    49 0.227003 -1.459700 0.523556 0.000000 0.000000 -1.570796
    50 -1.773792 0.941444 -0.523556 0.000000 0.000000 0.000000
    51 -19.860804 -4.372061 -0.000001 0.000000 0.000000 3.141592
    52 -0.004971 0.000000 0.000000 0.000000 0.000000 3.141592
    53 1.105276 0.472918 0.044064 1.396626 1.315062 2.998056
    54 0.000000 0.000002 -0.051336 0.000000 0.000000 0.000000
    55 -21.550318 25.867062 0.077498 0.000001 1.570451 0.000000
    56 -13.515524 35.221081 -0.542491 0.000001 1.570451 0.000000
    57 0.176298 1.520552 -0.810270 -0.169797 3.020228 0.347598
    58 0.000000 0.000000 0.004268 0.000000 0.000000 0.000000
    59 50.887146 9.091324 -31.729149 0.000000 0.000000 -1.570796
    60 -0.000001 0.000000 0.008734 0.000000 0.000000 0.000000
  time 10
    0 -3.120035 1.205803 -4.069818 -0.009720 -0.055489 -0.374591
    1 11.372666 -0.408840 -1.018544 0.088361 2.554516 -0.929833
    2 8.933195 0.879532 -1.505317 1.554038 -3.111962 0.336438
    3 0.213244 -10.002689 -1.252607 0.298329 -0.240015 0.234160
    4 -0.488518 -2.755602 -0.228260 0.039950 0.062141 -0.166240
    5 0.039887 -1.491509 0.018135 -0.531981 -0.009324 0.008558
    6 0.028786 -1.083544 -0.050454 -0.208316 -0.004782 0.002960
    7 0.250027 -2.820665 -0.238396 0.165534 0.050542 -0.022345
    8 -0.049759 -1.649293 0.100479 -0.415806 0.006939 -0.010656
    9 -0.034142 -1.148312 0.084782 -0.034940 -0.000096 0.000108
    10 0.957766 -2.746780 -0.090302 0.290917 -0.062469 0.083397
    11 -0.033420 -1.397129 -0.019070 -0.434305 0.007934 -0.021010
    12 -0.022360 -0.957436 0.018784 0.102485 -0.002888 0.004051
    13 -1.180681 -2.507217 -0.193859 0.131488 0.052819 -0.139347
    14 -0.024967 -1.123934 0.017597 -0.559042 0.007490 -0.023201
    15 -0.020057 -0.894874 0.010090 -0.261457 0.004386 -0.008018
    16 0.583510 -1.189464 0.181473 0.311220 -0.499948 -0.689429
    17 1.512489 -0.161634 0.051885 0.019507 -0.165399 -0.558115
    18 1.092958 -0.069694 0.008853 -0.003563 -0.082145 -0.349343
    19 0.120153 -0.050270 -0.054489 0.287569 3.110905 1.561085
    20 -5.556086 -2.965566 -6.763208 1.109651 -4.078059 1.419630
    21 0.104757 -8.587141 -0.021084 0.261309 -0.142973 -0.514641
    22 0.447953 -2.798986 -0.200443 -1.102093 -0.014842 0.154548
    23 -0.032909 -1.499736 0.040097 -1.867668 0.020853 -0.039703
    24 -0.027022 -1.084733 -0.024116 -0.240942 0.006699 -0.001690
    25 -0.249534 -2.846964 -0.174213 -0.506443 -0.009677 0.074202
    26 0.043235 -1.660503 0.049136 -2.061415 -0.024969 0.019632
    27 0.031729 -1.153017 0.058838 -0.486236 -0.004415 0.005723
    28 -0.963866 -2.785145 -0.085350 0.115767 0.161701 0.061678
    29 0.028479 -1.403067 0.002365 -0.249724 -0.003272 -0.011421
    30 0.021413 -0.957781 0.020046 0.168675 0.000587 0.007418
    31 1.164475 -2.543940 -0.170330 -1.287253 -0.158056 0.208416
    32 0.024032 -1.144668 -0.005631 -1.194798 0.018936 0.059481
    33 0.014898 -0.899614 -0.019848 -0.774879 0.002301 0.039238
    34 -0.586770 -1.264477 0.200161 -0.225941 -0.693912 -2.492790
    35 1.554086 0.035243 0.016848 -0.013031 -0.005121 0.678841
    36 1.114041 0.044518 -0.005766 -0.017597 -0.034354 0.685966
    37 -0.139399 -0.111698 0.014397 0.285382 -0.030687 1.580508
    38 -8.241335 0.647521 -0.473815 1.566207 -0.036459 -0.156628
    39 -8.952287 -8.527604 0.219939 -1.612453 -0.576363 1.418000
    40 -0.445597 0.884378 -0.000001 0.000000 0.000000 -2.855763
    41 0.752335 0.955584 -0.000001 0.000000 0.000002 -0.000001
    42 0.227005 -1.459700 -0.336619 0.000000 0.000000 -1.570796
    43 -1.773792 0.941444 0.336619 0.000000 0.000000 0.000000
    44 -12.940949 -13.876676 0.063470 0.000000 0.000000 3.141592
    45 -2.191151 0.000000 0.000000 0.000000 0.000000 0.000000
    46 28.767628 0.000000 -20.407471 0.000000 -1.570796 -1.570796
    47 0.752335 0.955585 -0.000001 0.000000 0.000002 -0.000001
    48 -0.445597 0.884380 -0.000001 0.000000 0.000000 -2.855763
    49 0.227003 -1.459700 0.523556 0.000000 0.000000 -1.570796
    50 -1.773792 0.941444 -0.523556 0.000000 0.000000 0.000000
    51 -19.860804 -4.372061 -0.000001 0.000000 0.000000 3.141592
    52 -0.004971 0.000000 0.000000 0.000000 0.000000 3.141592
    53 1.105276 0.472918 0.044064 1.396626 1.315062 2.998056
    54 0.000000 0.000002 -0.051336 0.000000 0.000000 0.000000
    55 -21.550318 25.867062 0.077498 0.000001 1.570451 0.000000
    56 -13.515524 35.221081 -0.542491 0.000001 1.570451 0.000000
    57 0.176298 1.520552 -0.810270 -0.169797 3.020228 0.347598
    58 0.000000 0.000000 0.004268 0.000000 0.000000 0.000000
    59 50.887146 9.091324 -31.729149 0.000000 0.000000 -1.570796
    60 -0.000001 0.000000 0.008734 0.000000 0.000000 0.000000
end
