version 1
nodes
  0 "Bone01" -1
  1 "Bone_Lefthand" 0
  2 "Bone02" 1
  3 "Bone03" 2
  4 "Bone50" 3
  5 "Bone52" 3
  6 "Bone48" 3
  7 "Bone25" 3
  8 "Bone54" 3
  9 "Bone 04" 1
  10 "Bone13" 9
  11 "Bone14" 10
  12 "Bone15" 11
  13 "Bone17" 9
  14 "Bone18" 13
  15 "Bone19" 14
  16 "Bone21" 9
  17 "Bone22" 16
  18 "Bone23" 17
  19 "Bone05" 9
  20 "Bone06" 19
  21 "Bone07" 20
  22 "Bone09" 9
  23 "Bone10" 22
  24 "Bone11" 23
  25 "Bone04" -1
  26 "Bone_Righthand" 25
  27 "Bone26" 26
  28 "Bone35" 27
  29 "Bone36" 28
  30 "Bone37" 29
  31 "Bone31" 27
  32 "Bone32" 31
  33 "Bone33" 32
  34 "Bone39" 27
  35 "Bone40" 34
  36 "Bone41" 35
  37 "Bone43" 27
  38 "Bone44" 37
  39 "Bone45" 38
  40 "Bone27" 27
  41 "Bone28" 40
  42 "Bone29" 41
end
skeleton
  time 0
    0 6.606520 2.985963 -7.201839 1.492158 -0.841642 -2.113440
    1 0.000000 -8.563280 0.000000 -0.048773 0.091669 -0.721258
    2 -0.424379 -3.413320 0.699675 -1.186398 1.434476 -1.173754
    3 0.000000 2.286977 0.873886 0.000000 0.000000 0.000000
    4 0.000000 -0.743733 1.487464 0.000000 0.000000 0.000000
    5 0.000000 -1.227157 2.045263 0.000000 0.000000 0.000000
    6 0.000000 -1.580430 1.264344 0.000000 0.000000 0.000000
    7 0.000001 -2.844774 1.022632 0.000000 0.000000 0.000000
    8 0.024938 -1.409603 0.862229 0.000000 0.000000 0.000000
    9 -0.003480 -0.404829 0.000000 0.000000 0.000000 0.000000
    10 -0.519309 -2.501154 -0.278957 -1.003564 0.000000 -0.122173
    11 -0.010598 -1.208184 0.000001 -1.090831 0.000000 0.000000
    12 0.000000 -0.763067 0.000001 -1.343903 0.000000 0.000000
    13 0.105981 -2.607133 -0.278957 -0.890118 0.000000 -0.148353
    14 0.000000 -1.250579 0.000000 -1.213004 0.000000 0.000000
    15 0.000000 -0.932634 0.000000 -1.483530 0.000000 0.000000
    16 0.763064 -2.490555 -0.278957 -0.349046 0.000000 0.130900
    17 -0.012322 -1.280916 0.000000 -0.322889 0.000000 0.000000
    18 -0.001697 -0.749371 0.000000 -0.593412 0.000000 0.000000
    19 0.354567 0.016267 0.318133 0.342077 -0.443527 -1.083976
    20 1.887165 0.012879 0.000000 -0.305433 0.000000 -0.401426
    21 1.001874 -0.000270 0.000000 0.000000 0.000000 -0.488692
    22 -1.123359 -2.195093 -0.278957 -0.933751 0.000000 -0.087266
    23 0.010772 -0.963791 0.000000 -0.610865 0.000000 0.000000
    24 -0.010412 -0.631916 -0.000001 -1.213004 0.000000 0.000000
    25 3.984985 3.178070 -6.947772 -1.192586 2.350633 -1.348266
    26 0.089932 -8.543161 0.000000 0.504535 -0.395279 0.789705
    27 0.000000 -0.359713 0.000000 0.000000 0.000000 0.000000
    28 -0.170478 -2.636146 -0.277656 -0.563807 0.000000 0.000000
    29 0.010599 -1.261177 0.000001 -0.527094 0.000000 0.000000
    30 -0.000001 -0.943233 -0.000001 0.336801 0.000000 0.000000
    31 -0.827562 -2.508972 -0.277656 -0.664990 0.000000 0.000000
    32 0.000000 -1.292971 0.000000 -0.361274 0.000000 0.000000
    33 0.000000 -0.752466 0.000000 0.214641 0.000000 0.000000
    34 0.444213 -2.561959 -0.277655 -0.160046 -0.046226 -0.024599
    35 0.021022 -1.208186 0.000000 -1.040210 0.000000 0.000000
    36 0.010597 -0.741867 -0.000001 -1.171074 0.000000 0.000000
    37 1.047445 -2.222821 -0.277655 0.022276 -0.066950 -0.041090
    38 0.000000 -0.996223 -0.000001 -0.794115 0.000000 0.000000
    39 0.000000 -0.614690 0.000000 -1.146640 0.000000 0.000000
    40 -0.308254 -0.007814 0.307166 -0.553193 -0.695307 -2.198986
    41 1.978377 0.019543 0.000001 -0.000002 -0.000010 0.633518
    42 0.982426 0.003186 0.000001 0.000000 0.000000 -0.228627
  time 1
    0 6.606520 2.739862 -7.029959 1.534507 -0.957628 -2.105224
    1 0.000000 -8.563280 0.000000 -0.040448 0.099612 -0.715384
    2 -0.424379 -3.413320 0.699675 -1.186398 1.434476 -1.173754
    3 0.000000 2.286977 0.873886 0.000000 0.000000 0.000000
    4 0.000000 -0.743733 1.487464 0.000000 0.000000 0.000000
    5 0.000000 -1.227157 2.045263 0.000000 0.000000 0.000000
    6 0.000000 -1.580430 1.264344 0.000000 0.000000 0.000000
    7 0.000001 -2.844774 1.022632 0.000000 0.000000 0.000000
    8 0.024938 -1.409603 0.862229 0.000000 0.000000 0.000000
    9 -0.003480 -0.404829 0.000000 0.000000 0.000000 0.000000
    10 -0.519309 -2.501154 -0.278957 -1.003564 0.000000 -0.122173
    11 -0.010598 -1.208184 0.000001 -1.090831 0.000000 0.000000
    12 0.000000 -0.763067 0.000001 -1.343903 0.000000 0.000000
    13 0.105981 -2.607133 -0.278957 -0.890118 0.000000 -0.148353
    14 0.000000 -1.250579 0.000000 -1.213004 0.000000 0.000000
    15 0.000000 -0.932634 0.000000 -1.483530 0.000000 0.000000
    16 0.763064 -2.490555 -0.278957 -0.349046 0.000000 0.130900
    17 -0.012322 -1.280916 0.000000 -0.322889 0.000000 0.000000
    18 -0.001697 -0.749371 0.000000 -0.593412 0.000000 0.000000
    19 0.354567 0.016267 0.318133 0.342077 -0.443527 -1.083976
    20 1.887165 0.012879 0.000000 -0.305433 0.000000 -0.401426
    21 1.001874 -0.000270 0.000000 0.000000 0.000000 -0.488692
    22 -1.123359 -2.195093 -0.278957 -0.933751 0.000000 -0.087266
    23 0.010772 -0.963791 0.000000 -0.610865 0.000000 0.000000
    24 -0.010412 -0.631916 -0.000001 -1.213004 0.000000 0.000000
    25 4.172491 3.103849 -6.635262 -1.054575 2.270196 -1.180037
    26 0.089932 -8.543161 0.000000 0.518569 -0.387987 0.745627
    27 0.000000 -0.359713 0.000000 0.000000 0.000000 0.000000
    28 -0.170478 -2.636146 -0.277656 -0.565458 0.000000 0.000000
    29 0.010599 -1.261177 0.000001 -0.542677 0.000336 -0.000144
    30 -0.000001 -0.943233 -0.000001 0.338251 0.000000 0.000000
    31 -0.827562 -2.508972 -0.277656 -0.673390 0.000000 0.000000
    32 0.000000 -1.292971 0.000000 -0.355049 0.000000 0.000000
    33 0.000000 -0.752466 0.000000 0.215204 0.000000 0.000000
    34 0.444213 -2.561959 -0.277655 -0.160405 -0.046226 -0.024599
    35 0.021022 -1.208186 0.000000 -1.041485 0.000000 0.000000
    36 0.010597 -0.741867 -0.000001 -1.172290 0.000000 0.000000
    37 1.047445 -2.222821 -0.277655 0.024014 -0.066950 -0.041090
    38 0.000000 -0.996223 -0.000001 -0.796124 0.000000 0.000000
    39 0.000000 -0.614690 0.000000 -1.148046 0.000000 0.000000
    40 -0.308254 -0.007814 0.307166 -0.552816 -0.695247 -2.199747
    41 1.978377 0.019543 0.000001 -0.000002 -0.000010 0.634713
    42 0.982426 0.003186 0.000001 0.000000 0.000000 -0.228654
  time 2
    0 6.606520 2.528918 -6.873704 -1.551424 -2.061276 1.033296
    1 0.000000 -8.563280 0.000000 -0.034370 0.104819 -0.716840
    2 -0.424379 -3.413320 0.699675 -1.186398 1.434476 -1.173754
    3 0.000000 2.286977 0.873886 0.000000 0.000000 0.000000
    4 0.000000 -0.743733 1.487464 0.000000 0.000000 0.000000
    5 0.000000 -1.227157 2.045263 0.000000 0.000000 0.000000
    6 0.000000 -1.580430 1.264344 0.000000 0.000000 0.000000
    7 0.000001 -2.844774 1.022632 0.000000 0.000000 0.000000
    8 0.024938 -1.409603 0.862229 0.000000 0.000000 0.000000
    9 -0.003480 -0.404829 0.000000 0.000000 0.000000 0.000000
    10 -0.519309 -2.501154 -0.278957 -1.003564 0.000000 -0.122173
    11 -0.010598 -1.208184 0.000001 -1.090831 0.000000 0.000000
    12 0.000000 -0.763067 0.000001 -1.343903 0.000000 0.000000
    13 0.105981 -2.607133 -0.278957 -0.890118 0.000000 -0.148353
    14 0.000000 -1.250579 0.000000 -1.213004 0.000000 0.000000
    15 0.000000 -0.932634 0.000000 -1.483530 0.000000 0.000000
    16 0.763064 -2.490555 -0.278957 -0.349046 0.000000 0.130900
    17 -0.012322 -1.280916 0.000000 -0.322889 0.000000 0.000000
    18 -0.001697 -0.749371 0.000000 -0.593412 0.000000 0.000000
    19 0.354567 0.016267 0.318133 0.342077 -0.443527 -1.083976
    20 1.887165 0.012879 0.000000 -0.305433 0.000000 -0.401426
    21 1.001874 -0.000270 0.000000 0.000000 0.000000 -0.488692
    22 -1.123359 -2.195093 -0.278957 -0.933751 0.000000 -0.087266
    23 0.010772 -0.963791 0.000000 -0.610865 0.000000 0.000000
    24 -0.010412 -0.631916 -0.000001 -1.213004 0.000000 0.000000
    25 4.274056 3.033534 -6.346191 -0.874956 2.208309 -0.971281
    26 0.089932 -8.543161 0.000000 0.531715 -0.380203 0.702269
    27 0.000000 -0.359713 0.000000 0.000000 0.000000 0.000000
    28 -0.170478 -2.636146 -0.277656 -0.570005 0.000000 0.000000
    29 0.010599 -1.261177 0.000001 -0.559869 0.000695 -0.000324
    30 -0.000001 -0.943233 -0.000001 0.342254 0.000000 0.000000
    31 -0.827562 -2.508972 -0.277656 -0.682598 0.000000 0.000000
    32 0.000000 -1.292971 0.000000 -0.348171 0.000000 0.000000
    33 0.000000 -0.752466 0.000000 0.216699 0.000000 0.000000
    34 0.444213 -2.561959 -0.277655 -0.161526 -0.046226 -0.024599
    35 0.021022 -1.208186 0.000000 -1.045060 0.000000 0.000000
    36 0.010597 -0.741867 -0.000001 -1.175580 0.000000 0.000000
    37 1.047445 -2.222821 -0.277655 0.028829 -0.066950 -0.041090
    38 0.000000 -0.996223 -0.000001 -0.801672 0.000000 0.000000
    39 0.000000 -0.614690 0.000000 -1.151829 0.000000 0.000000
    40 -0.308254 -0.007814 0.307166 -0.551739 -0.695079 -2.201848
    41 1.978377 0.019543 0.000001 -0.000002 -0.000010 0.637947
    42 0.982426 0.003186 0.000001 0.000000 0.000000 -0.228762
  time 3
    0 6.606520 2.345318 -6.729169 -1.472788 -1.935096 1.007796
    1 0.000000 -8.563280 0.000000 -0.028317 0.110039 -0.718245
    2 -0.424379 -3.413320 0.699675 -1.186398 1.434476 -1.173754
    3 0.000000 2.286977 0.873886 0.000000 0.000000 0.000000
    4 0.000000 -0.743733 1.487464 0.000000 0.000000 0.000000
    5 0.000000 -1.227157 2.045263 0.000000 0.000000 0.000000
    6 0.000000 -1.580430 1.264344 0.000000 0.000000 0.000000
    7 0.000001 -2.844774 1.022632 0.000000 0.000000 0.000000
    8 0.024938 -1.409603 0.862229 0.000000 0.000000 0.000000
    9 -0.003480 -0.404829 0.000000 0.000000 0.000000 0.000000
    10 -0.519309 -2.501154 -0.278957 -1.003564 0.000000 -0.122173
    11 -0.010598 -1.208184 0.000001 -1.090831 0.000000 0.000000
    12 0.000000 -0.763067 0.000001 -1.343903 0.000000 0.000000
    13 0.105981 -2.607133 -0.278957 -0.890118 0.000000 -0.148353
    14 0.000000 -1.250579 0.000000 -1.213004 0.000000 0.000000
    15 0.000000 -0.932634 0.000000 -1.483530 0.000000 0.000000
    16 0.763064 -2.490555 -0.278957 -0.349046 0.000000 0.130900
    17 -0.012322 -1.280916 0.000000 -0.322889 0.000000 0.000000
    18 -0.001697 -0.749371 0.000000 -0.593412 0.000000 0.000000
    19 0.354567 0.016267 0.318133 0.342077 -0.443527 -1.083976
    20 1.887165 0.012879 0.000000 -0.305433 0.000000 -0.401426
    21 1.001874 -0.000270 0.000000 0.000000 0.000000 -0.488692
    22 -1.123359 -2.195093 -0.278957 -0.933751 0.000000 -0.087266
    23 0.010772 -0.963791 0.000000 -0.610865 0.000000 0.000000
    24 -0.010412 -0.631916 -0.000001 -1.213004 0.000000 0.000000
    25 4.289682 2.963220 -6.064933 -0.658806 2.173585 -0.726961
    26 0.089932 -8.543161 0.000000 0.544250 -0.371978 0.659316
    27 0.000000 -0.359713 0.000000 0.000000 0.000000 0.000000
    28 -0.170478 -2.636146 -0.277656 -0.577045 0.000000 0.000000
    29 0.010599 -1.261177 0.000001 -0.578201 0.001091 -0.000503
    30 -0.000001 -0.943233 -0.000001 0.348375 0.000000 0.000000
    31 -0.827562 -2.508972 -0.277656 -0.692423 0.000000 0.000000
    32 0.000000 -1.292971 0.000000 -0.340833 0.000000 0.000000
    33 0.000000 -0.752466 0.000000 0.218974 0.000000 0.000000
    34 0.444213 -2.561959 -0.277655 -0.163185 -0.046226 -0.024599
    35 0.021022 -1.208186 0.000000 -1.050495 0.000000 0.000000
    36 0.010597 -0.741867 -0.000001 -1.180618 0.000000 0.000000
    37 1.047445 -2.222821 -0.277655 0.036143 -0.066950 -0.041090
    38 0.000000 -0.996223 -0.000001 -0.810114 0.000000 0.000000
    39 0.000000 -0.614690 0.000000 -1.157584 0.000000 0.000000
    40 -0.308254 -0.007814 0.307166 -0.550089 -0.694828 -2.205053
    41 1.978377 0.019543 0.000001 -0.000002 -0.000010 0.642881
    42 0.982426 0.003186 0.000001 0.000000 0.000000 -0.228924
  time 4
    0 6.606520 2.196876 -6.600258 -1.338908 -1.809802 0.926335
    1 0.000000 -8.563280 0.000000 -0.019919 0.117890 -0.712202
    2 -0.424379 -3.413320 0.699675 -1.186398 1.434476 -1.173754
    3 0.000000 2.286977 0.873886 0.000000 0.000000 0.000000
    4 0.000000 -0.743733 1.487464 0.000000 0.000000 0.000000
    5 0.000000 -1.227157 2.045263 0.000000 0.000000 0.000000
    6 0.000000 -1.580430 1.264344 0.000000 0.000000 0.000000
    7 0.000001 -2.844774 1.022632 0.000000 0.000000 0.000000
    8 0.024938 -1.409603 0.862229 0.000000 0.000000 0.000000
    9 -0.003480 -0.404829 0.000000 0.000000 0.000000 0.000000
    10 -0.519309 -2.501154 -0.278957 -1.003564 0.000000 -0.122173
    11 -0.010598 -1.208184 0.000001 -1.090831 0.000000 0.000000
    12 0.000000 -0.763067 0.000001 -1.343903 0.000000 0.000000
    13 0.105981 -2.607133 -0.278957 -0.890118 0.000000 -0.148353
    14 0.000000 -1.250579 0.000000 -1.213004 0.000000 0.000000
    15 0.000000 -0.932634 0.000000 -1.483530 0.000000 0.000000
    16 0.763064 -2.490555 -0.278957 -0.349046 0.000000 0.130900
    17 -0.012322 -1.280916 0.000000 -0.322889 0.000000 0.000000
    18 -0.001697 -0.749371 0.000000 -0.593412 0.000000 0.000000
    19 0.354567 0.016267 0.318133 0.342077 -0.443527 -1.083976
    20 1.887165 0.012879 0.000000 -0.305433 0.000000 -0.401426
    21 1.001874 -0.000270 0.000000 0.000000 0.000000 -0.488692
    22 -1.123359 -2.195093 -0.278957 -0.933751 0.000000 -0.087266
    23 0.010772 -0.963791 0.000000 -0.610865 0.000000 0.000000
    24 -0.010412 -0.631916 -0.000001 -1.213004 0.000000 0.000000
    25 4.223273 2.900718 -5.795393 -0.426157 2.172179 -0.466182
    26 0.089932 -8.543161 0.000000 0.556449 -0.363236 0.616521
    27 0.000000 -0.359713 0.000000 0.000000 0.000000 0.000000
    28 -0.170478 -2.636146 -0.277656 -0.585846 0.000000 0.000000
    29 0.010599 -1.261177 0.000001 -0.597320 0.001486 -0.000707
    30 -0.000001 -0.943233 -0.000001 0.356063 0.000000 0.000000
    31 -0.827562 -2.508972 -0.277656 -0.702749 0.000000 0.000000
    32 0.000000 -1.292971 0.000000 -0.333170 0.000000 0.000000
    33 0.000000 -0.752466 0.000000 0.221812 0.000000 0.000000
    34 0.444213 -2.561959 -0.277655 -0.165248 -0.046226 -0.024599
    35 0.021022 -1.208186 0.000000 -1.057352 0.000000 0.000000
    36 0.010597 -0.741867 -0.000001 -1.186961 0.000000 0.000000
    37 1.047445 -2.222821 -0.277655 0.045376 -0.066950 -0.041090
    38 0.000000 -0.996223 -0.000001 -0.820781 0.000000 0.000000
    39 0.000000 -0.614690 0.000000 -1.164907 0.000000 0.000000
    40 -0.308254 -0.007814 0.307166 -0.548025 -0.694480 -2.209092
    41 1.978377 0.019543 0.000001 -0.000002 -0.000010 0.649103
    42 0.982426 0.003186 0.000001 0.000000 0.000000 -0.229139
  time 5
    0 6.606520 2.079685 -6.486974 -1.000192 -1.694142 0.638162
    1 0.000000 -8.563280 0.000000 -0.006628 0.130855 -0.691162
    2 -0.424379 -3.413320 0.699675 -1.186398 1.434476 -1.173754
    3 0.000000 2.286977 0.873886 0.000000 0.000000 0.000000
    4 0.000000 -0.743733 1.487464 0.000000 0.000000 0.000000
    5 0.000000 -1.227157 2.045263 0.000000 0.000000 0.000000
    6 0.000000 -1.580430 1.264344 0.000000 0.000000 0.000000
    7 0.000001 -2.844774 1.022632 0.000000 0.000000 0.000000
    8 0.024938 -1.409603 0.862229 0.000000 0.000000 0.000000
    9 -0.003480 -0.404829 0.000000 0.000000 0.000000 0.000000
    10 -0.519309 -2.501154 -0.278957 -1.003564 0.000000 -0.122173
    11 -0.010598 -1.208184 0.000001 -1.090831 0.000000 0.000000
    12 0.000000 -0.763067 0.000001 -1.343903 0.000000 0.000000
    13 0.105981 -2.607133 -0.278957 -0.890118 0.000000 -0.148353
    14 0.000000 -1.250579 0.000000 -1.213004 0.000000 0.000000
    15 0.000000 -0.932634 0.000000 -1.483530 0.000000 0.000000
    16 0.763064 -2.490555 -0.278957 -0.349046 0.000000 0.130900
    17 -0.012322 -1.280916 0.000000 -0.322889 0.000000 0.000000
    18 -0.001697 -0.749371 0.000000 -0.593412 0.000000 0.000000
    19 0.354567 0.016267 0.318133 0.342077 -0.443527 -1.083976
    20 1.887165 0.012879 0.000000 -0.305433 0.000000 -0.401426
    21 1.001874 -0.000270 0.000000 0.000000 0.000000 -0.488692
    22 -1.123359 -2.195093 -0.278957 -0.933751 0.000000 -0.087266
    23 0.010772 -0.963791 0.000000 -0.610865 0.000000 0.000000
    24 -0.010412 -0.631916 -0.000001 -1.213004 0.000000 0.000000
    25 4.059206 2.846029 -5.521947 -0.205317 2.204089 -0.216899
    26 0.089932 -8.543161 0.000000 0.568587 -0.353906 0.573674
    27 0.000000 -0.359713 0.000000 0.000000 0.000000 0.000000
    28 -0.170478 -2.636146 -0.277656 -0.595894 0.000000 0.000000
    29 0.010599 -1.261177 0.000001 -0.616831 0.001906 -0.000935
    30 -0.000001 -0.943233 -0.000001 0.364910 0.000000 0.000000
    31 -0.827562 -2.508972 -0.277656 -0.713229 0.000000 0.000000
    32 0.000000 -1.292971 0.000000 -0.325373 0.000000 0.000000
    33 0.000000 -0.752466 0.000000 0.225105 0.000000 0.000000
    34 0.444213 -2.561959 -0.277655 -0.167715 -0.046226 -0.024599
    35 0.021022 -1.208186 0.000000 -1.065170 0.000000 0.000000
    36 0.010597 -0.741867 -0.000001 -1.194253 0.000000 0.000000
    37 1.047445 -2.222821 -0.277655 0.055984 -0.066950 -0.041090
    38 0.000000 -0.996223 -0.000001 -0.833002 0.000000 0.000000
    39 0.000000 -0.614690 0.000000 -1.173311 0.000000 0.000000
    40 -0.308254 -0.007814 0.307166 -0.545674 -0.694097 -2.213710
    41 1.978377 0.019543 0.000001 -0.000002 -0.000010 0.656259
    42 0.982426 0.003186 0.000001 0.000000 0.000000 -0.229381
  time 6
    0 6.606520 1.989839 -6.389314 0.280052 -1.644379 -0.594521
    1 0.000000 -8.563280 0.000000 0.014565 0.150839 -0.647320
    2 -0.424379 -3.413320 0.699675 -1.186398 1.434476 -1.173754
    3 0.000000 2.286977 0.873886 0.000000 0.000000 0.000000
    4 0.000000 -0.743733 1.487464 0.000000 0.000000 0.000000
    5 0.000000 -1.227157 2.045263 0.000000 0.000000 0.000000
    6 0.000000 -1.580430 1.264344 0.000000 0.000000 0.000000
    7 0.000001 -2.844774 1.022632 0.000000 0.000000 0.000000
    8 0.024938 -1.409603 0.862229 0.000000 0.000000 0.000000
    9 -0.003480 -0.404829 0.000000 0.000000 0.000000 0.000000
    10 -0.519309 -2.501154 -0.278957 -1.003564 0.000000 -0.122173
    11 -0.010598 -1.208184 0.000001 -1.090831 0.000000 0.000000
    12 0.000000 -0.763067 0.000001 -1.343903 0.000000 0.000000
    13 0.105981 -2.607133 -0.278957 -0.890118 0.000000 -0.148353
    14 0.000000 -1.250579 0.000000 -1.213004 0.000000 0.000000
    15 0.000000 -0.932634 0.000000 -1.483530 0.000000 0.000000
    16 0.763064 -2.490555 -0.278957 -0.349046 0.000000 0.130900
    17 -0.012322 -1.280916 0.000000 -0.322889 0.000000 0.000000
    18 -0.001697 -0.749371 0.000000 -0.593412 0.000000 0.000000
    19 0.354567 0.016267 0.318133 0.342077 -0.443527 -1.083976
    20 1.887165 0.012879 0.000000 -0.305433 0.000000 -0.401426
    21 1.001874 -0.000270 0.000000 0.000000 0.000000 -0.488692
    22 -1.123359 -2.195093 -0.278957 -0.933751 0.000000 -0.087266
    23 0.010772 -0.963791 0.000000 -0.610865 0.000000 0.000000
    24 -0.010412 -0.631916 -0.000001 -1.213004 0.000000 0.000000
    25 3.805292 2.799152 -5.240689 -0.016924 2.263428 0.000293
    26 0.089932 -8.543161 0.000000 0.580878 -0.343839 0.530475
    27 0.000000 -0.359713 0.000000 0.000000 0.000000 0.000000
    28 -0.170478 -2.636146 -0.277656 -0.606749 0.000000 0.000000
    29 0.010599 -1.261177 0.000001 -0.636361 0.002301 -0.001163
    30 -0.000001 -0.943233 -0.000001 0.374367 0.000000 0.000000
    31 -0.827562 -2.508972 -0.277656 -0.723709 0.000000 0.000000
    32 0.000000 -1.292971 0.000000 -0.317562 0.000000 0.000000
    33 0.000000 -0.752466 0.000000 0.228658 0.000000 0.000000
    34 0.444213 -2.561959 -0.277655 -0.170227 -0.046226 -0.024599
    35 0.021022 -1.208186 0.000000 -1.073595 0.000000 0.000000
    36 0.010597 -0.741867 -0.000001 -1.202078 0.000000 0.000000
    37 1.047445 -2.222821 -0.277655 0.067317 -0.066950 -0.041090
    38 0.000000 -0.996223 -0.000001 -0.846083 0.000000 0.000000
    39 0.000000 -0.614690 0.000000 -1.182255 0.000000 0.000000
    40 -0.308254 -0.007814 0.307166 -0.543129 -0.693677 -2.218654
    41 1.978377 0.019543 0.000001 -0.000002 -0.000010 0.663906
    42 0.982426 0.003186 0.000001 0.000000 0.000000 -0.229651
  time 7
    0 6.606520 1.935150 -6.303374 1.110178 -1.723131 -1.380914
    1 0.000000 -8.563280 0.000000 0.047914 0.182214 -0.571419
    2 -0.424379 -3.413320 0.699675 -1.186398 1.434476 -1.173754
    3 0.000000 2.286977 0.873886 0.000000 0.000000 0.000000
    4 0.000000 -0.743733 1.487464 0.000000 0.000000 0.000000
    5 0.000000 -1.227157 2.045263 0.000000 0.000000 0.000000
    6 0.000000 -1.580430 1.264344 0.000000 0.000000 0.000000
    7 0.000001 -2.844774 1.022632 0.000000 0.000000 0.000000
    8 0.024938 -1.409603 0.862229 0.000000 0.000000 0.000000
    9 -0.003480 -0.404829 0.000000 0.000000 0.000000 0.000000
    10 -0.519309 -2.501154 -0.278957 -1.003564 0.000000 -0.122173
    11 -0.010598 -1.208184 0.000001 -1.090831 0.000000 0.000000
    12 0.000000 -0.763067 0.000001 -1.343903 0.000000 0.000000
    13 0.105981 -2.607133 -0.278957 -0.890118 0.000000 -0.148353
    14 0.000000 -1.250579 0.000000 -1.213004 0.000000 0.000000
    15 0.000000 -0.932634 0.000000 -1.483530 0.000000 0.000000
    16 0.763064 -2.490555 -0.278957 -0.349046 0.000000 0.130900
    17 -0.012322 -1.280916 0.000000 -0.322889 0.000000 0.000000
    18 -0.001697 -0.749371 0.000000 -0.593412 0.000000 0.000000
    19 0.354567 0.016267 0.318133 0.342077 -0.443527 -1.083976
    20 1.887165 0.012879 0.000000 -0.305433 0.000000 -0.401426
    21 1.001874 -0.000270 0.000000 0.000000 0.000000 -0.488692
    22 -1.123359 -2.195093 -0.278957 -0.933751 0.000000 -0.087266
    23 0.010772 -0.963791 0.000000 -0.610865 0.000000 0.000000
    24 -0.010412 -0.631916 -0.000001 -1.213004 0.000000 0.000000
    25 3.481063 2.752276 -5.010213 0.132951 2.341666 0.180018
    26 0.089932 -8.543161 0.000000 0.593627 -0.332986 0.486748
    27 0.000000 -0.359713 0.000000 0.000000 0.000000 0.000000
    28 -0.170478 -2.636146 -0.277656 -0.617823 0.000000 0.000000
    29 0.010599 -1.261177 0.000001 -0.655498 0.002709 -0.001378
    30 -0.000001 -0.943233 -0.000001 0.383998 0.000000 0.000000
    31 -0.827562 -2.508972 -0.277656 -0.733958 0.000000 0.000000
    32 0.000000 -1.292971 0.000000 -0.309898 0.000000 0.000000
    33 0.000000 -0.752466 0.000000 0.232233 0.000000 0.000000
    34 0.444213 -2.561959 -0.277655 -0.172873 -0.046226 -0.024599
    35 0.021022 -1.208186 0.000000 -1.082166 0.000000 0.000000
    36 0.010597 -0.741867 -0.000001 -1.210021 0.000000 0.000000
    37 1.047445 -2.222821 -0.277655 0.078866 -0.066950 -0.041090
    38 0.000000 -0.996223 -0.000001 -0.859428 0.000000 0.000000
    39 0.000000 -0.614690 0.000000 -1.191416 0.000000 0.000000
    40 -0.308254 -0.007814 0.307166 -0.540558 -0.693222 -2.223707
    41 1.978377 0.019543 0.000001 -0.000002 -0.000010 0.671707
    42 0.982426 0.003186 0.000001 0.000000 0.000000 -0.229893
  time 8
    0 6.606520 1.931243 -6.236966 1.332207 -1.819022 -1.564530
    1 0.000000 -8.563280 0.000000 0.094614 0.221890 -0.466268
    2 -0.424379 -3.413320 0.699675 -1.186398 1.434476 -1.173754
    3 0.000000 2.286977 0.873886 0.000000 0.000000 0.000000
    4 0.000000 -0.743733 1.487464 0.000000 0.000000 0.000000
    5 0.000000 -1.227157 2.045263 0.000000 0.000000 0.000000
    6 0.000000 -1.580430 1.264344 0.000000 0.000000 0.000000
    7 0.000001 -2.844774 1.022632 0.000000 0.000000 0.000000
    8 0.024938 -1.409603 0.862229 0.000000 0.000000 0.000000
    9 -0.003480 -0.404829 0.000000 0.000000 0.000000 0.000000
    10 -0.519309 -2.501154 -0.278957 -1.003564 0.000000 -0.122173
    11 -0.010598 -1.208184 0.000001 -1.090831 0.000000 0.000000
    12 0.000000 -0.763067 0.000001 -1.343903 0.000000 0.000000
    13 0.105981 -2.607133 -0.278957 -0.890118 0.000000 -0.148353
    14 0.000000 -1.250579 0.000000 -1.213004 0.000000 0.000000
    15 0.000000 -0.932634 0.000000 -1.483530 0.000000 0.000000
    16 0.763064 -2.490555 -0.278957 -0.349046 0.000000 0.130900
    17 -0.012322 -1.280916 0.000000 -0.322889 0.000000 0.000000
    18 -0.001697 -0.749371 0.000000 -0.593412 0.000000 0.000000
    19 0.354567 0.016267 0.318133 0.342077 -0.443527 -1.083976
    20 1.887165 0.012879 0.000000 -0.305433 0.000000 -0.401426
    21 1.001874 -0.000270 0.000000 0.000000 0.000000 -0.488692
    22 -1.123359 -2.195093 -0.278957 -0.933751 0.000000 -0.087266
    23 0.010772 -0.963791 0.000000 -0.610865 0.000000 0.000000
    24 -0.010412 -0.631916 -0.000001 -1.213004 0.000000 0.000000
    25 3.117771 2.681961 -4.881303 0.248503 2.430542 0.326660
    26 0.089932 -8.543161 0.000000 0.607018 -0.321127 0.442300
    27 0.000000 -0.359713 0.000000 0.000000 0.000000 0.000000
    28 -0.170478 -2.636146 -0.277656 -0.628458 0.000000 0.000000
    29 0.010599 -1.261177 0.000001 -0.673849 0.003068 -0.001618
    30 -0.000001 -0.943233 -0.000001 0.393310 0.000000 0.000000
    31 -0.827562 -2.508972 -0.277656 -0.743822 0.000000 0.000000
    32 0.000000 -1.292971 0.000000 -0.302561 0.000000 0.000000
    33 0.000000 -0.752466 0.000000 0.235721 0.000000 0.000000
    34 0.444213 -2.561959 -0.277655 -0.175384 -0.046226 -0.024599
    35 0.021022 -1.208186 0.000000 -1.090486 0.000000 0.000000
    36 0.010597 -0.741867 -0.000001 -1.217728 0.000000 0.000000
    37 1.047445 -2.222821 -0.277655 0.090018 -0.066950 -0.041090
    38 0.000000 -0.996223 -0.000001 -0.872271 0.000000 0.000000
    39 0.000000 -0.614690 0.000000 -1.200225 0.000000 0.000000
    40 -0.308254 -0.007814 0.307166 -0.538091 -0.692778 -2.228579
    41 1.978377 0.019543 0.000001 -0.000002 -0.000010 0.679231
    42 0.982426 0.003186 0.000001 0.000000 0.000000 -0.230162
  time 9
    0 6.606520 1.982026 -6.186183 -1.705739 -1.236376 1.504930
    1 0.000000 -8.563280 0.000000 0.152552 0.260376 -0.342395
    2 -0.424379 -3.413320 0.699675 -1.186398 1.434476 -1.173754
    3 0.000000 2.286977 0.873886 0.000000 0.000000 0.000000
    4 0.000000 -0.743733 1.487464 0.000000 0.000000 0.000000
    5 0.000000 -1.227157 2.045263 0.000000 0.000000 0.000000
    6 0.000000 -1.580430 1.264344 0.000000 0.000000 0.000000
    7 0.000001 -2.844774 1.022632 0.000000 0.000000 0.000000
    8 0.024938 -1.409603 0.862229 0.000000 0.000000 0.000000
    9 -0.003480 -0.404829 0.000000 0.000000 0.000000 0.000000
    10 -0.519309 -2.501154 -0.278957 -1.003564 0.000000 -0.122173
    11 -0.010598 -1.208184 0.000001 -1.090831 0.000000 0.000000
    12 0.000000 -0.763067 0.000001 -1.343903 0.000000 0.000000
    13 0.105981 -2.607133 -0.278957 -0.890118 0.000000 -0.148353
    14 0.000000 -1.250579 0.000000 -1.213004 0.000000 0.000000
    15 0.000000 -0.932634 0.000000 -1.483530 0.000000 0.000000
    16 0.763064 -2.490555 -0.278957 -0.349046 0.000000 0.130900
    17 -0.012322 -1.280916 0.000000 -0.322889 0.000000 0.000000
    18 -0.001697 -0.749371 0.000000 -0.593412 0.000000 0.000000
    19 0.354567 0.016267 0.318133 0.342077 -0.443527 -1.083976
    20 1.887165 0.012879 0.000000 -0.305433 0.000000 -0.401426
    21 1.001874 -0.000270 0.000000 0.000000 0.000000 -0.488692
    22 -1.123359 -2.195093 -0.278957 -0.933751 0.000000 -0.087266
    23 0.010772 -0.963791 0.000000 -0.610865 0.000000 0.000000
    24 -0.010412 -0.631916 -0.000001 -1.213004 0.000000 0.000000
    25 2.629475 2.576489 -4.935992 0.336630 2.523725 0.447414
    26 0.089932 -8.543161 0.000000 0.622030 -0.300477 0.386442
    27 0.000000 -0.359713 0.000000 0.000000 0.000000 0.000000
    28 -0.170478 -2.636146 -0.277656 -0.638139 0.000000 0.000000
    29 0.010599 -1.261177 0.000001 -0.691004 0.003428 -0.001846
    30 -0.000001 -0.943233 -0.000001 0.401809 0.000000 0.000000
    31 -0.827562 -2.508972 -0.277656 -0.753030 0.000000 0.000000
    32 0.000000 -1.292971 0.000000 -0.295698 0.000000 0.000000
    33 0.000000 -0.752466 0.000000 0.238884 0.000000 0.000000
    34 0.444213 -2.561959 -0.277655 -0.177716 -0.046226 -0.024599
    35 0.021022 -1.208186 0.000000 -1.098033 0.000000 0.000000
    36 0.010597 -0.741867 -0.000001 -1.224723 0.000000 0.000000
    37 1.047445 -2.222821 -0.277655 0.100192 -0.066950 -0.041090
    38 0.000000 -0.996223 -0.000001 -0.884038 0.000000 0.000000
    39 0.000000 -0.614690 0.000000 -1.208277 0.000000 0.000000
    40 -0.308254 -0.007814 0.307166 -0.535831 -0.692383 -2.233016
    41 1.978377 0.019543 0.000001 -0.000002 -0.000010 0.686127
    42 0.982426 0.003186 0.000001 0.000000 0.000000 -0.230404
  time 10
    0 6.606520 2.060153 -6.151026 -1.641406 -1.165869 1.463774
    1 0.000000 -8.563280 0.000000 0.216784 0.289875 -0.211921
    2 -0.424379 -3.413320 0.699675 -1.186398 1.434476 -1.173754
    3 0.000000 2.286977 0.873886 0.000000 0.000000 0.000000
    4 0.000000 -0.743733 1.487464 0.000000 0.000000 0.000000
    5 0.000000 -1.227157 2.045263 0.000000 0.000000 0.000000
    6 0.000000 -1.580430 1.264344 0.000000 0.000000 0.000000
    7 0.000001 -2.844774 1.022632 0.000000 0.000000 0.000000
    8 0.024938 -1.409603 0.862229 0.000000 0.000000 0.000000
    9 -0.003480 -0.404829 0.000000 0.000000 0.000000 0.000000
    10 -0.519309 -2.501154 -0.278957 -1.003564 0.000000 -0.122173
    11 -0.010598 -1.208184 0.000001 -1.090831 0.000000 0.000000
    12 0.000000 -0.763067 0.000001 -1.343903 0.000000 0.000000
    13 0.105981 -2.607133 -0.278957 -0.890118 0.000000 -0.148353
    14 0.000000 -1.250579 0.000000 -1.213004 0.000000 0.000000
    15 0.000000 -0.932634 0.000000 -1.483530 0.000000 0.000000
    16 0.763064 -2.490555 -0.278957 -0.349046 0.000000 0.130900
    17 -0.012322 -1.280916 0.000000 -0.322889 0.000000 0.000000
    18 -0.001697 -0.749371 0.000000 -0.593412 0.000000 0.000000
    19 0.354567 0.016267 0.318133 0.342077 -0.443527 -1.083976
    20 1.887165 0.012879 0.000000 -0.305433 0.000000 -0.401426
    21 1.001874 -0.000270 0.000000 0.000000 0.000000 -0.488692
    22 -1.123359 -2.195093 -0.278957 -0.933751 0.000000 -0.087266
    23 0.010772 -0.963791 0.000000 -0.610865 0.000000 0.000000
    24 -0.010412 -0.631916 -0.000001 -1.213004 0.000000 0.000000
    25 2.039613 2.443673 -5.119591 0.403897 2.616028 0.549228
    26 0.089932 -8.543161 0.000000 0.638356 -0.272780 0.322285
    27 0.000000 -0.359713 0.000000 0.000000 0.000000 0.000000
    28 -0.170478 -2.636146 -0.277656 -0.646427 0.000000 0.000000
    29 0.010599 -1.261177 0.000001 -0.706642 0.003727 -0.002037
    30 -0.000001 -0.943233 -0.000001 0.409032 0.000000 0.000000
    31 -0.827562 -2.508972 -0.277656 -0.761430 0.000000 0.000000
    32 0.000000 -1.292971 0.000000 -0.289457 0.000000 0.000000
    33 0.000000 -0.752466 0.000000 0.241548 0.000000 0.000000
    34 0.444213 -2.561959 -0.277655 -0.179645 -0.046226 -0.024599
    35 0.021022 -1.208186 0.000000 -1.104472 0.000000 0.000000
    36 0.010597 -0.741867 -0.000001 -1.230680 0.000000 0.000000
    37 1.047445 -2.222821 -0.277655 0.108881 -0.066950 -0.041090
    38 0.000000 -0.996223 -0.000001 -0.894034 0.000000 0.000000
    39 0.000000 -0.614690 0.000000 -1.215141 0.000000 0.000000
    40 -0.308254 -0.007814 0.307166 -0.533896 -0.692035 -2.236783
    41 1.978377 0.019543 0.000001 -0.000002 -0.000010 0.691965
    42 0.982426 0.003186 0.000001 0.000000 0.000000 -0.230593
  time 11
    0 6.606520 2.150000 -6.127588 -1.587431 -1.119711 1.420059
    1 0.000000 -8.563280 0.000000 0.279494 0.305444 -0.088979
    2 -0.424379 -3.413320 0.699675 -1.186398 1.434476 -1.173754
    3 0.000000 2.286977 0.873886 0.000000 0.000000 0.000000
    4 0.000000 -0.743733 1.487464 0.000000 0.000000 0.000000
    5 0.000000 -1.227157 2.045263 0.000000 0.000000 0.000000
    6 0.000000 -1.580430 1.264344 0.000000 0.000000 0.000000
    7 0.000001 -2.844774 1.022632 0.000000 0.000000 0.000000
    8 0.024938 -1.409603 0.862229 0.000000 0.000000 0.000000
    9 -0.003480 -0.404829 0.000000 0.000000 0.000000 0.000000
    10 -0.519309 -2.501154 -0.278957 -1.003564 0.000000 -0.122173
    11 -0.010598 -1.208184 0.000001 -1.090831 0.000000 0.000000
    12 0.000000 -0.763067 0.000001 -1.343903 0.000000 0.000000
    13 0.105981 -2.607133 -0.278957 -0.890118 0.000000 -0.148353
    14 0.000000 -1.250579 0.000000 -1.213004 0.000000 0.000000
    15 0.000000 -0.932634 0.000000 -1.483530 0.000000 0.000000
    16 0.763064 -2.490555 -0.278957 -0.349046 0.000000 0.130900
    17 -0.012322 -1.280916 0.000000 -0.322889 0.000000 0.000000
    18 -0.001697 -0.749371 0.000000 -0.593412 0.000000 0.000000
    19 0.354567 0.016267 0.318133 0.342077 -0.443527 -1.083976
    20 1.887165 0.012879 0.000000 -0.305433 0.000000 -0.401426
    21 1.001874 -0.000270 0.000000 0.000000 0.000000 -0.488692
    22 -1.123359 -2.195093 -0.278957 -0.933751 0.000000 -0.087266
    23 0.010772 -0.963791 0.000000 -0.610865 0.000000 0.000000
    24 -0.010412 -0.631916 -0.000001 -1.213004 0.000000 0.000000
    25 1.512253 2.322575 -5.299284 0.455548 2.703761 0.637230
    26 0.089932 -8.543161 0.000000 0.656242 -0.252622 0.269363
    27 0.000000 -0.359713 0.000000 0.000000 0.000000 0.000000
    28 -0.170478 -2.636146 -0.277656 -0.652697 0.000000 0.000000
    29 0.010599 -1.261177 0.000001 -0.720261 0.004003 -0.002217
    30 -0.000001 -0.943233 -0.000001 0.414515 0.000000 0.000000
    31 -0.827562 -2.508972 -0.277656 -0.768750 0.000000 0.000000
    32 0.000000 -1.292971 0.000000 -0.284003 0.000000 0.000000
    33 0.000000 -0.752466 0.000000 0.243607 0.000000 0.000000
    34 0.444213 -2.561959 -0.277655 -0.181125 -0.046226 -0.024599
    35 0.021022 -1.208186 0.000000 -1.109301 0.000000 0.000000
    36 0.010597 -0.741867 -0.000001 -1.235186 0.000000 0.000000
    37 1.047445 -2.222821 -0.277655 0.115435 -0.066950 -0.041090
    38 0.000000 -0.996223 -0.000001 -0.901592 0.000000 0.000000
    39 0.000000 -0.614690 0.000000 -1.220329 0.000000 0.000000
    40 -0.308254 -0.007814 0.307166 -0.532455 -0.691760 -2.239626
    41 1.978377 0.019543 0.000001 -0.000002 -0.000010 0.696379
    42 0.982426 0.003186 0.000001 0.000000 0.000000 -0.230728
  time 12
    0 6.606520 2.228127 -6.111962 -1.531836 -1.098878 1.360533
    1 0.000000 -8.563280 0.000000 0.331281 0.305616 0.011145
    2 -0.424379 -3.413320 0.699675 -1.186398 1.434476 -1.173754
    3 0.000000 2.286977 0.873886 0.000000 0.000000 0.000000
    4 0.000000 -0.743733 1.487464 0.000000 0.000000 0.000000
    5 0.000000 -1.227157 2.045263 0.000000 0.000000 0.000000
    6 0.000000 -1.580430 1.264344 0.000000 0.000000 0.000000
    7 0.000001 -2.844774 1.022632 0.000000 0.000000 0.000000
    8 0.024938 -1.409603 0.862229 0.000000 0.000000 0.000000
    9 -0.003480 -0.404829 0.000000 0.000000 0.000000 0.000000
    10 -0.519309 -2.501154 -0.278957 -1.003564 0.000000 -0.122173
    11 -0.010598 -1.208184 0.000001 -1.090831 0.000000 0.000000
    12 0.000000 -0.763067 0.000001 -1.343903 0.000000 0.000000
    13 0.105981 -2.607133 -0.278957 -0.890118 0.000000 -0.148353
    14 0.000000 -1.250579 0.000000 -1.213004 0.000000 0.000000
    15 0.000000 -0.932634 0.000000 -1.483530 0.000000 0.000000
    16 0.763064 -2.490555 -0.278957 -0.349046 0.000000 0.130900
    17 -0.012322 -1.280916 0.000000 -0.322889 0.000000 0.000000
    18 -0.001697 -0.749371 0.000000 -0.593412 0.000000 0.000000
    19 0.354567 0.016267 0.318133 0.342077 -0.443527 -1.083976
    20 1.887165 0.012879 0.000000 -0.305433 0.000000 -0.401426
    21 1.001874 -0.000270 0.000000 0.000000 0.000000 -0.488692
    22 -1.123359 -2.195093 -0.278957 -0.933751 0.000000 -0.087266
    23 0.010772 -0.963791 0.000000 -0.610865 0.000000 0.000000
    24 -0.010412 -0.631916 -0.000001 -1.213004 0.000000 0.000000
    25 1.227088 2.267886 -5.353973 0.495334 2.783846 0.715141
    26 0.089932 -8.543161 0.000000 0.678133 -0.255225 0.246014
    27 0.000000 -0.359713 0.000000 0.000000 0.000000 0.000000
    28 -0.170478 -2.636146 -0.277656 -0.656364 0.000000 0.000000
    29 0.010599 -1.261177 0.000001 -0.731560 0.004231 -0.002385
    30 -0.000001 -0.943233 -0.000001 0.417735 0.000000 0.000000
    31 -0.827562 -2.508972 -0.277656 -0.774838 0.000000 0.000000
    32 0.000000 -1.292971 0.000000 -0.279482 0.000000 0.000000
    33 0.000000 -0.752466 0.000000 0.244777 0.000000 0.000000
    34 0.444213 -2.561959 -0.277655 -0.182067 -0.046226 -0.024599
    35 0.021022 -1.208186 0.000000 -1.112165 0.000000 0.000000
    36 0.010597 -0.741867 -0.000001 -1.237824 0.000000 0.000000
    37 1.047445 -2.222821 -0.277655 0.119237 -0.066950 -0.041090
    38 0.000000 -0.996223 -0.000001 -0.906040 0.000000 0.000000
    39 0.000000 -0.614690 0.000000 -1.223328 0.000000 0.000000
    40 -0.308254 -0.007814 0.307166 -0.531598 -0.691592 -2.241292
    41 1.978377 0.019543 0.000001 -0.000002 -0.000010 0.698969
    42 0.982426 0.003186 0.000001 0.000000 0.000000 -0.230835
  time 13
    0 6.606520 2.267191 -6.104149 -1.474338 -1.096278 1.288529
    1 0.000000 -8.563280 0.000000 0.363192 0.291501 0.073267
    2 -0.424379 -3.413320 0.699675 -1.186398 1.434476 -1.173754
    3 0.000000 2.286977 0.873886 0.000000 0.000000 0.000000
    4 0.000000 -0.743733 1.487464 0.000000 0.000000 0.000000
    5 0.000000 -1.227157 2.045263 0.000000 0.000000 0.000000
    6 0.000000 -1.580430 1.264344 0.000000 0.000000 0.000000
    7 0.000001 -2.844774 1.022632 0.000000 0.000000 0.000000
    8 0.024938 -1.409603 0.862229 0.000000 0.000000 0.000000
    9 -0.003480 -0.404829 0.000000 0.000000 0.000000 0.000000
    10 -0.519309 -2.501154 -0.278957 -1.003564 0.000000 -0.122173
    11 -0.010598 -1.208184 0.000001 -1.090831 0.000000 0.000000
    12 0.000000 -0.763067 0.000001 -1.343903 0.000000 0.000000
    13 0.105981 -2.607133 -0.278957 -0.890118 0.000000 -0.148353
    14 0.000000 -1.250579 0.000000 -1.213004 0.000000 0.000000
    15 0.000000 -0.932634 0.000000 -1.483530 0.000000 0.000000
    16 0.763064 -2.490555 -0.278957 -0.349046 0.000000 0.130900
    17 -0.012322 -1.280916 0.000000 -0.322889 0.000000 0.000000
    18 -0.001697 -0.749371 0.000000 -0.593412 0.000000 0.000000
    19 0.354567 0.016267 0.318133 0.342077 -0.443527 -1.083976
    20 1.887165 0.012879 0.000000 -0.305433 0.000000 -0.401426
    21 1.001874 -0.000270 0.000000 0.000000 0.000000 -0.488692
    22 -1.123359 -2.195093 -0.278957 -0.933751 0.000000 -0.087266
    23 0.010772 -0.963791 0.000000 -0.610865 0.000000 0.000000
    24 -0.010412 -0.631916 -0.000001 -1.213004 0.000000 0.000000
    25 1.328654 2.299137 -5.182093 0.514648 2.773385 0.770555
    26 0.089932 -8.543161 0.000000 0.700237 -0.321421 0.279191
    27 0.000000 -0.359713 0.000000 0.000000 0.000000 0.000000
    28 -0.170478 -2.636146 -0.277656 -0.656878 0.000000 0.000000
    29 0.010599 -1.261177 0.000001 -0.740128 0.004374 -0.002505
    30 -0.000001 -0.943233 -0.000001 0.418170 0.000000 0.000000
    31 -0.827562 -2.508972 -0.277656 -0.779385 0.000000 0.000000
    32 0.000000 -1.292971 0.000000 -0.276072 0.000000 0.000000
    33 0.000000 -0.752466 0.000000 0.244972 0.000000 0.000000
    34 0.444213 -2.561959 -0.277655 -0.182156 -0.046226 -0.024599
    35 0.021022 -1.208186 0.000000 -1.112625 0.000000 0.000000
    36 0.010597 -0.741867 -0.000001 -1.238239 0.000000 0.000000
    37 1.047445 -2.222821 -0.277655 0.119816 -0.066950 -0.041090
    38 0.000000 -0.996223 -0.000001 -0.906710 0.000000 0.000000
    39 0.000000 -0.614690 0.000000 -1.223815 0.000000 0.000000
    40 -0.308254 -0.007814 0.307166 -0.531481 -0.691568 -2.241546
    41 1.978377 0.019543 0.000001 -0.000002 -0.000010 0.699382
    42 0.982426 0.003186 0.000001 0.000000 0.000000 -0.230835
  time 14
    0 6.606520 2.259378 -6.092430 -1.415994 -1.105084 1.208618
    1 0.000000 -8.563280 0.000000 0.325735 0.228208 -0.012976
    2 -0.424379 -3.413320 0.699675 -1.186398 1.434476 -1.173754
    3 0.000000 2.286977 0.873886 0.000000 0.000000 0.000000
    4 0.000000 -0.743733 1.487464 0.000000 0.000000 0.000000
    5 0.000000 -1.227157 2.045263 0.000000 0.000000 0.000000
    6 0.000000 -1.580430 1.264344 0.000000 0.000000 0.000000
    7 0.000001 -2.844774 1.022632 0.000000 0.000000 0.000000
    8 0.024938 -1.409603 0.862229 0.000000 0.000000 0.000000
    9 -0.003480 -0.404829 0.000000 0.000000 0.000000 0.000000
    10 -0.519309 -2.501154 -0.278957 -1.003564 0.000000 -0.122173
    11 -0.010598 -1.208184 0.000001 -1.090831 0.000000 0.000000
    12 0.000000 -0.763067 0.000001 -1.343903 0.000000 0.000000
    13 0.105981 -2.607133 -0.278957 -0.890118 0.000000 -0.148353
    14 0.000000 -1.250579 0.000000 -1.213004 0.000000 0.000000
    15 0.000000 -0.932634 0.000000 -1.483530 0.000000 0.000000
    16 0.763064 -2.490555 -0.278957 -0.349046 0.000000 0.130900
    17 -0.012322 -1.280916 0.000000 -0.322889 0.000000 0.000000
    18 -0.001697 -0.749371 0.000000 -0.593412 0.000000 0.000000
    19 0.354567 0.016267 0.318133 0.342077 -0.443527 -1.083976
    20 1.887165 0.012879 0.000000 -0.305433 0.000000 -0.401426
    21 1.001874 -0.000270 0.000000 0.000000 0.000000 -0.488692
    22 -1.123359 -2.195093 -0.278957 -0.933751 0.000000 -0.087266
    23 0.010772 -0.963791 0.000000 -0.610865 0.000000 0.000000
    24 -0.010412 -0.631916 -0.000001 -1.213004 0.000000 0.000000
    25 1.375530 2.334294 -5.072715 0.527616 2.659455 0.815879
    26 0.089932 -8.543161 0.000000 0.724115 -0.422558 0.352315
    27 0.000000 -0.359713 0.000000 0.000000 0.000000 0.000000
    28 -0.170478 -2.636146 -0.277656 -0.653761 0.000000 0.000000
    29 0.010599 -1.261177 0.000001 -0.745553 0.004482 -0.002577
    30 -0.000001 -0.943233 -0.000001 0.415443 0.000000 0.000000
    31 -0.827562 -2.508972 -0.277656 -0.782313 0.000000 0.000000
    32 0.000000 -1.292971 0.000000 -0.273893 0.000000 0.000000
    33 0.000000 -0.752466 0.000000 0.243975 0.000000 0.000000
    34 0.444213 -2.561959 -0.277655 -0.181394 -0.046226 -0.024599
    35 0.021022 -1.208186 0.000000 -1.110158 0.000000 0.000000
    36 0.010597 -0.741867 -0.000001 -1.236016 0.000000 0.000000
    37 1.047445 -2.222821 -0.277655 0.116557 -0.066950 -0.041090
    38 0.000000 -0.996223 -0.000001 -0.902907 0.000000 0.000000
    39 0.000000 -0.614690 0.000000 -1.221221 0.000000 0.000000
    40 -0.308254 -0.007814 0.307166 -0.532195 -0.691700 -2.240115
    41 1.978377 0.019543 0.000001 -0.000002 -0.000010 0.697160
    42 0.982426 0.003186 0.000001 0.000000 0.000000 -0.230754
  time 15
    0 6.606520 2.228127 -6.076805 -1.360892 -1.119268 1.128475
    1 0.000000 -8.563280 0.000000 0.251329 0.117864 -0.193860
    2 -0.424379 -3.413320 0.699675 -1.186398 1.434476 -1.173754
    3 0.000000 2.286977 0.873886 0.000000 0.000000 0.000000
    4 0.000000 -0.743733 1.487464 0.000000 0.000000 0.000000
    5 0.000000 -1.035745 2.045263 0.000000 0.000000 0.000000
    6 0.000000 -1.580430 1.264344 0.000000 0.000000 0.000000
    7 0.000001 -2.844774 1.022632 0.000000 0.000000 0.000000
    8 0.024938 -1.409603 0.862229 0.000000 0.000000 0.000000
    9 -0.003480 -0.404829 0.000000 0.000000 0.000000 0.000000
    10 -0.519309 -2.501154 -0.278957 -1.003564 0.000000 -0.122173
    11 -0.010598 -1.208184 0.000001 -1.090831 0.000000 0.000000
    12 0.000000 -0.763067 0.000001 -1.343903 0.000000 0.000000
    13 0.105981 -2.607133 -0.278957 -0.890118 0.000000 -0.148353
    14 0.000000 -1.250579 0.000000 -1.213004 0.000000 0.000000
    15 0.000000 -0.932634 0.000000 -1.483530 0.000000 0.000000
    16 0.763064 -2.490555 -0.278957 -0.349046 0.000000 0.130900
    17 -0.012322 -1.280916 0.000000 -0.322889 0.000000 0.000000
    18 -0.001697 -0.749371 0.000000 -0.593412 0.000000 0.000000
    19 0.354567 0.016267 0.318133 0.342077 -0.443527 -1.083976
    20 1.887165 0.012879 0.000000 -0.305433 0.000000 -0.401426
    21 1.001874 -0.000270 0.000000 0.000000 0.000000 -0.488692
    22 -1.123359 -2.195093 -0.278957 -0.933751 0.000000 -0.087266
    23 0.010772 -0.963791 0.000000 -0.610865 0.000000 0.000000
    24 -0.010412 -0.631916 -0.000001 -1.213004 0.000000 0.000000
    25 1.008332 2.310856 -5.221157 0.567403 2.547987 0.890482
    26 0.089932 -8.543161 0.000000 0.772697 -0.470389 0.414696
    27 0.000000 -0.359713 0.000000 0.000000 0.000000 0.000000
    28 -0.170478 -2.636146 -0.277656 -0.646427 0.000000 0.000000
    29 0.010599 -1.261177 0.000001 -0.747423 0.004518 -0.002601
    30 -0.000001 -0.943233 -0.000001 0.409032 0.000000 0.000000
    31 -0.827562 -2.508972 -0.277656 -0.783315 0.000000 0.000000
    32 0.000000 -1.292971 0.000000 -0.273138 0.000000 0.000000
    33 0.000000 -0.752466 0.000000 0.241548 0.000000 0.000000
    34 0.444213 -2.561959 -0.277655 -0.179645 -0.046226 -0.024599
    35 0.021022 -1.208186 0.000000 -1.104472 0.000000 0.000000
    36 0.010597 -0.741867 -0.000001 -1.230680 0.000000 0.000000
    37 1.047445 -2.222821 -0.277655 0.108881 -0.066950 -0.041090
    38 0.000000 -0.996223 -0.000001 -0.894034 0.000000 0.000000
    39 0.000000 -0.614690 0.000000 -1.215141 0.000000 0.000000
    40 -0.308254 -0.007814 0.307166 -0.533896 -0.692035 -2.236783
    41 1.978377 0.019543 0.000001 -0.000002 -0.000010 0.691965
    42 0.982426 0.003186 0.000001 0.000000 0.000000 -0.230593
  time 16
    0 6.606520 2.185157 -6.076805 -1.316923 -1.133807 1.059649
    1 0.000000 -8.563280 0.000000 0.213075 0.046495 -0.262076
    2 -0.424379 -3.413320 0.699675 -1.186398 1.434476 -1.173754
    3 0.000000 2.286977 0.873886 0.000000 0.000000 0.000000
    4 0.000000 -0.743733 1.487464 0.000000 0.000000 0.000000
    5 0.000000 -0.606044 2.045263 0.000000 0.000000 0.000000
    6 0.000000 -1.580430 1.264344 0.000000 0.000000 0.000000
    7 0.000001 -2.844774 1.022632 0.000000 0.000000 0.000000
    8 0.024938 -1.409603 0.862229 0.000000 0.000000 0.000000
    9 -0.003480 -0.404829 0.000000 0.000000 0.000000 0.000000
    10 -0.519309 -2.501154 -0.278957 -1.003564 0.000000 -0.122173
    11 -0.010598 -1.208184 0.000001 -1.090831 0.000000 0.000000
    12 0.000000 -0.763067 0.000001 -1.343903 0.000000 0.000000
    13 0.105981 -2.607133 -0.278957 -0.890118 0.000000 -0.148353
    14 0.000000 -1.250579 0.000000 -1.213004 0.000000 0.000000
    15 0.000000 -0.932634 0.000000 -1.483530 0.000000 0.000000
    16 0.763064 -2.490555 -0.278957 -0.349046 0.000000 0.130900
    17 -0.012322 -1.280916 0.000000 -0.322889 0.000000 0.000000
    18 -0.001697 -0.749371 0.000000 -0.593412 0.000000 0.000000
    19 0.354567 0.016267 0.318133 0.342077 -0.443527 -1.083976
    20 1.887165 0.012879 0.000000 -0.305433 0.000000 -0.401426
    21 1.001874 -0.000270 0.000000 0.000000 0.000000 -0.488692
    22 -1.123359 -2.195093 -0.278957 -0.933751 0.000000 -0.087266
    23 0.010772 -0.963791 0.000000 -0.610865 0.000000 0.000000
    24 -0.010412 -0.631916 -0.000001 -1.213004 0.000000 0.000000
    25 0.719260 2.080380 -5.912584 0.646424 2.482320 1.013552
    26 0.089932 -8.543161 0.000000 0.976379 -0.216749 0.433562
    27 0.000000 -0.359713 0.000000 0.000000 0.000000 0.000000
    28 -0.170478 -2.636146 -0.277656 -0.634325 0.000000 0.000000
    29 0.010599 -1.261177 0.000001 -0.713283 0.003967 -0.002181
    30 -0.000001 -0.943233 -0.000001 0.398444 0.000000 0.000000
    31 -0.827562 -2.508972 -0.277656 -0.781157 0.000000 0.000000
    32 0.000000 -1.292971 0.000000 -0.281601 0.000000 0.000000
    33 0.000000 -0.752466 0.000000 0.237605 0.000000 0.000000
    34 0.444213 -2.561959 -0.277655 -0.176819 -0.046226 -0.024599
    35 0.021022 -1.208186 0.000000 -1.095044 0.000000 0.000000
    36 0.010597 -0.741867 -0.000001 -1.221937 0.000000 0.000000
    37 1.047445 -2.222821 -0.277655 0.096137 -0.066950 -0.041090
    38 0.000000 -0.996223 -0.000001 -0.879398 0.000000 0.000000
    39 0.000000 -0.614690 0.000000 -1.205089 0.000000 0.000000
    40 -0.308254 -0.007814 0.307166 -0.536727 -0.692539 -2.231241
    41 1.978377 0.019543 0.000001 -0.000002 -0.000010 0.683384
    42 0.982426 0.003186 0.000001 0.000000 0.000000 -0.230297
  time 17
    0 6.606520 2.157813 -6.111962 -1.296348 -1.144622 1.017872
    1 0.000000 -8.563280 0.000000 0.227526 0.086171 -0.082902
    2 -0.424379 -3.413320 0.699675 -1.186398 1.434476 -1.173754
    3 0.000000 2.286977 0.873886 0.000000 0.000000 0.000000
    4 0.000000 -0.743733 1.487464 0.000000 0.000000 0.000000
    5 0.000000 -0.180250 2.045263 0.000000 0.000000 0.000000
    6 0.000000 -1.580430 1.264344 0.000000 0.000000 0.000000
    7 0.000001 -2.844774 1.022632 0.000000 0.000000 0.000000
    8 0.024938 -1.409603 0.862229 0.000000 0.000000 0.000000
    9 -0.003480 -0.404829 0.000000 0.000000 0.000000 0.000000
    10 -0.519309 -2.501154 -0.278957 -1.003564 0.000000 -0.122173
    11 -0.010598 -1.208184 0.000001 -1.090831 0.000000 0.000000
    12 0.000000 -0.763067 0.000001 -1.343903 0.000000 0.000000
    13 0.105981 -2.607133 -0.278957 -0.890118 0.000000 -0.148353
    14 0.000000 -1.250579 0.000000 -1.213004 0.000000 0.000000
    15 0.000000 -0.932634 0.000000 -1.483530 0.000000 0.000000
    16 0.763064 -2.490555 -0.278957 -0.349046 0.000000 0.130900
    17 -0.012322 -1.280916 0.000000 -0.322889 0.000000 0.000000
    18 -0.001697 -0.749371 0.000000 -0.593412 0.000000 0.000000
    19 0.354567 0.016267 0.318133 0.342077 -0.443527 -1.083976
    20 1.887165 0.012879 0.000000 -0.305433 0.000000 -0.401426
    21 1.001874 -0.000270 0.000000 0.000000 0.000000 -0.488692
    22 -1.123359 -2.195093 -0.278957 -0.933751 0.000000 -0.087266
    23 0.010772 -0.963791 0.000000 -0.610865 0.000000 0.000000
    24 -0.010412 -0.631916 -0.000001 -1.213004 0.000000 0.000000
    25 0.516129 1.920219 -6.756360 0.753698 2.431772 1.169044
    26 0.089932 -8.543161 0.000000 1.081583 0.141662 0.482106
    27 0.000000 -0.359713 0.000000 0.000000 0.000000 0.000000
    28 -0.170478 -2.636146 -0.277656 -0.616870 0.000000 0.000000
    29 0.010599 -1.261177 0.000001 -0.638026 0.002625 -0.001306
    30 -0.000001 -0.943233 -0.000001 0.383186 0.000000 0.000000
    31 -0.827562 -2.508972 -0.277656 -0.767710 0.000000 0.000000
    32 0.000000 -1.292971 0.000000 -0.303050 0.000000 0.000000
    33 0.000000 -0.752466 0.000000 0.231951 0.000000 0.000000
    34 0.444213 -2.561959 -0.277655 -0.172693 -0.046226 -0.024599
    35 0.021022 -1.208186 0.000000 -1.081455 0.000000 0.000000
    36 0.010597 -0.741867 -0.000001 -1.209399 0.000000 0.000000
    37 1.047445 -2.222821 -0.277655 0.077889 -0.066950 -0.041090
    38 0.000000 -0.996223 -0.000001 -0.858304 0.000000 0.000000
    39 0.000000 -0.614690 0.000000 -1.190659 0.000000 0.000000
    40 -0.308254 -0.007814 0.307166 -0.540779 -0.693258 -2.223272
    41 1.978377 0.019543 0.000001 -0.000002 -0.000010 0.671063
    42 0.982426 0.003186 0.000001 0.000000 0.000000 -0.229866
  time 18
    0 6.606520 2.165625 -6.193996 -1.313189 -1.147459 1.020585
    1 0.000000 -8.563280 0.000000 0.281306 0.164266 0.204554
    2 -0.424379 -3.413320 0.699675 -1.186398 1.434476 -1.173754
    3 0.000000 2.286977 0.873886 0.000000 0.000000 0.000000
    4 0.000000 -0.743733 1.487464 0.000000 0.000000 0.000000
    5 0.000000 0.011162 2.045263 0.000000 0.000000 0.000000
    6 0.000000 -1.580430 1.264344 0.000000 0.000000 0.000000
    7 0.000001 -2.844774 1.022632 0.000000 0.000000 0.000000
    8 0.024938 -1.409603 0.862229 0.000000 0.000000 0.000000
    9 -0.003480 -0.404829 0.000000 0.000000 0.000000 0.000000
    10 -0.519309 -2.501154 -0.278957 -1.003564 0.000000 -0.122173
    11 -0.010598 -1.208184 0.000001 -1.090831 0.000000 0.000000
    12 0.000000 -0.763067 0.000001 -1.343903 0.000000 0.000000
    13 0.105981 -2.607133 -0.278957 -0.890118 0.000000 -0.148353
    14 0.000000 -1.250579 0.000000 -1.213004 0.000000 0.000000
    15 0.000000 -0.932634 0.000000 -1.483530 0.000000 0.000000
    16 0.763064 -2.490555 -0.278957 -0.349046 0.000000 0.130900
    17 -0.012322 -1.280916 0.000000 -0.322889 0.000000 0.000000
    18 -0.001697 -0.749371 0.000000 -0.593412 0.000000 0.000000
    19 0.354567 0.016267 0.318133 0.342077 -0.443527 -1.083976
    20 1.887165 0.012879 0.000000 -0.305433 0.000000 -0.401426
    21 1.001874 -0.000270 0.000000 0.000000 0.000000 -0.488692
    22 -1.123359 -2.195093 -0.278957 -0.933751 0.000000 -0.087266
    23 0.010772 -0.963791 0.000000 -0.610865 0.000000 0.000000
    24 -0.010412 -0.631916 -0.000001 -1.213004 0.000000 0.000000
    25 0.418470 2.174133 -7.416536 0.882991 2.393532 1.342731
    26 0.089932 -8.543161 0.000000 1.035294 0.349779 0.467882
    27 0.000000 -0.359713 0.000000 0.000000 0.000000 0.000000
    28 -0.170478 -2.636146 -0.277656 -0.593547 0.000000 0.000000
    29 0.010599 -1.261177 0.000001 -0.562375 0.001067 -0.000467
    30 -0.000001 -0.943233 -0.000001 0.362822 0.000000 0.000000
    31 -0.827562 -2.508972 -0.277656 -0.732456 0.000000 0.000000
    32 0.000000 -1.292971 0.000000 -0.331584 0.000000 0.000000
    33 0.000000 -0.752466 0.000000 0.224325 0.000000 0.000000
    34 0.444213 -2.561959 -0.277655 -0.167132 -0.046226 -0.024599
    35 0.021022 -1.208186 0.000000 -1.063352 0.000000 0.000000
    36 0.010597 -0.741867 -0.000001 -1.192534 0.000000 0.000000
    37 1.047445 -2.222821 -0.277655 0.053450 -0.066950 -0.041090
    38 0.000000 -0.996223 -0.000001 -0.830132 0.000000 0.000000
    39 0.000000 -0.614690 0.000000 -1.171284 0.000000 0.000000
    40 -0.308254 -0.007814 0.307166 -0.546220 -0.694193 -2.212623
    41 1.978377 0.019543 0.000001 -0.000002 -0.000010 0.654574
    42 0.982426 0.003186 0.000001 0.000000 0.000000 -0.229328
  time 19
    0 6.606520 2.228127 -6.373689 -1.515559 -1.141786 1.220477
    1 0.000000 -8.563280 0.000000 0.314728 0.196977 0.366394
    2 -0.424379 -3.413320 0.699675 -1.186398 1.434476 -1.173754
    3 0.000000 2.286977 0.873886 0.000000 0.000000 0.000000
    4 0.000000 -0.743733 1.487464 0.000000 0.000000 0.000000
    5 0.000000 -0.606044 2.045263 0.000000 0.000000 0.000000
    6 0.000000 -1.580430 1.264344 0.000000 0.000000 0.000000
    7 0.000001 -2.844774 1.022632 0.000000 0.000000 0.000000
    8 0.024938 -1.409603 0.862229 0.000000 0.000000 0.000000
    9 -0.003480 -0.404829 0.000000 0.000000 0.000000 0.000000
    10 -0.519309 -2.501154 -0.278957 -1.003564 0.000000 -0.122173
    11 -0.010598 -1.208184 0.000001 -1.090831 0.000000 0.000000
    12 0.000000 -0.763067 0.000001 -1.343903 0.000000 0.000000
    13 0.105981 -2.607133 -0.278957 -0.890118 0.000000 -0.148353
    14 0.000000 -1.250579 0.000000 -1.213004 0.000000 0.000000
    15 0.000000 -0.932634 0.000000 -1.483530 0.000000 0.000000
    16 0.763064 -2.490555 -0.278957 -0.349046 0.000000 0.130900
    17 -0.012322 -1.280916 0.000000 -0.322889 0.000000 0.000000
    18 -0.001697 -0.749371 0.000000 -0.593412 0.000000 0.000000
    19 0.354567 0.016267 0.318133 0.342077 -0.443527 -1.083976
    20 1.887165 0.012879 0.000000 -0.305433 0.000000 -0.401426
    21 1.001874 -0.000270 0.000000 0.000000 0.000000 -0.488692
    22 -1.123359 -2.195093 -0.278957 -0.933751 0.000000 -0.087266
    23 0.010772 -0.963791 0.000000 -0.610865 0.000000 0.000000
    24 -0.010412 -0.631916 -0.000001 -1.213004 0.000000 0.000000
    25 0.391125 2.545238 -7.850143 1.029004 2.361270 1.521298
    26 0.089932 -8.543161 0.000000 0.965953 0.482492 0.431980
    27 0.000000 -0.359713 0.000000 0.000000 0.000000 0.000000
    28 -0.170478 -2.636146 -0.277656 -0.563807 0.000000 0.000000
    29 0.010599 -1.261177 0.000001 -0.527094 0.000000 0.000000
    30 -0.000001 -0.943233 -0.000001 0.336801 0.000000 0.000000
    31 -0.827562 -2.508972 -0.277656 -0.664990 0.000000 0.000000
    32 0.000000 -1.292971 0.000000 -0.361274 0.000000 0.000000
    33 0.000000 -0.752466 0.000000 0.214641 0.000000 0.000000
    34 0.444213 -2.561959 -0.277655 -0.160046 -0.046226 -0.024599
    35 0.021022 -1.208186 0.000000 -1.040210 0.000000 0.000000
    36 0.010597 -0.741867 -0.000001 -1.171074 0.000000 0.000000
    37 1.047445 -2.222821 -0.277655 0.022276 -0.066950 -0.041090
    38 0.000000 -0.996223 -0.000001 -0.794115 0.000000 0.000000
    39 0.000000 -0.614690 0.000000 -1.146640 0.000000 0.000000
    40 -0.308254 -0.007814 0.307166 -0.553193 -0.695307 -2.198986
    41 1.978377 0.019543 0.000001 -0.000002 -0.000010 0.633518
    42 0.982426 0.003186 0.000001 0.000000 0.000000 -0.228627
  time 20
    0 6.606520 2.314067 -6.592446 -1.824751 -1.099203 1.536088
    1 0.000000 -8.563280 0.000000 0.285535 0.179862 0.331084
    2 -0.424379 -3.413320 0.699675 -1.186398 1.434476 -1.173754
    3 0.000000 2.286977 0.873886 0.000000 0.000000 0.000000
    4 0.000000 -0.743733 1.487464 0.000000 0.000000 0.000000
    5 0.000000 -1.227157 2.045263 0.000000 0.000000 0.000000
    6 0.000000 -1.580430 1.264344 0.000000 0.000000 0.000000
    7 0.000001 -2.844774 1.022632 0.000000 0.000000 0.000000
    8 0.024938 -1.409603 0.862229 0.000000 0.000000 0.000000
    9 -0.003480 -0.404829 0.000000 0.000000 0.000000 0.000000
    10 -0.519309 -2.501154 -0.278957 -1.003564 0.000000 -0.122173
    11 -0.010598 -1.208184 0.000001 -1.090831 0.000000 0.000000
    12 0.000000 -0.763067 0.000001 -1.343903 0.000000 0.000000
    13 0.105981 -2.607133 -0.278957 -0.890118 0.000000 -0.148353
    14 0.000000 -1.250579 0.000000 -1.213004 0.000000 0.000000
    15 0.000000 -0.932634 0.000000 -1.483530 0.000000 0.000000
    16 0.763064 -2.490555 -0.278957 -0.349046 0.000000 0.130900
    17 -0.012322 -1.280916 0.000000 -0.322889 0.000000 0.000000
    18 -0.001697 -0.749371 0.000000 -0.593412 0.000000 0.000000
    19 0.354567 0.016267 0.318133 0.342077 -0.443527 -1.083976
    20 1.887165 0.012879 0.000000 -0.305433 0.000000 -0.401426
    21 1.001874 -0.000270 0.000000 0.000000 0.000000 -0.488692
    22 -1.123359 -2.195093 -0.278957 -0.933751 0.000000 -0.087266
    23 0.010772 -0.963791 0.000000 -0.610865 0.000000 0.000000
    24 -0.010412 -0.631916 -0.000001 -1.213004 0.000000 0.000000
    25 0.410657 2.873373 -7.791548 -1.920553 0.815839 -1.426673
    26 0.089932 -8.543161 0.000000 0.985306 0.519838 0.437975
    27 0.000000 -0.359713 0.000000 0.000000 0.000000 0.000000
    28 -0.170478 -2.636146 -0.277656 -0.456142 0.000000 0.000000
    29 0.010599 -1.261177 0.000001 -0.546718 -0.000407 0.000180
    30 -0.000001 -0.943233 -0.000001 0.299148 0.000000 0.000000
    31 -0.827562 -2.508972 -0.277656 -0.536109 0.000000 0.000000
    32 0.000000 -1.292971 0.000000 -0.397783 0.000000 0.000000
    33 0.000000 -0.752466 0.000000 0.190376 0.000000 0.000000
    34 0.444213 -2.561959 -0.277655 -0.121925 -0.046226 -0.024599
    35 0.021022 -1.208186 0.000000 -0.968254 0.000000 0.000000
    36 0.010597 -0.741867 -0.000001 -1.140012 0.000000 0.000000
    37 1.047445 -2.222821 -0.277655 -0.022837 -0.066950 -0.041090
    38 0.000000 -0.996223 -0.000001 -0.671475 0.000000 0.000000
    39 0.000000 -0.614690 0.000000 -1.069574 0.000000 0.000000
    40 -0.308254 -0.007814 0.307166 -0.581840 -0.700472 -2.147336
    41 1.978377 0.019543 0.000001 -0.000002 -0.000010 0.574917
    42 0.982426 0.003186 0.000001 0.000000 0.000000 -0.236058
  time 21
    0 6.606520 2.349225 -6.736981 1.171129 -2.083882 -1.452299
    1 0.000000 -8.563280 0.000000 0.233422 0.142354 0.222683
    2 -0.424379 -3.413320 0.699675 -1.186398 1.434476 -1.173754
    3 0.000000 2.286977 0.873886 0.000000 0.000000 0.000000
    4 0.000000 -0.743733 1.487464 0.000000 0.000000 0.000000
    5 0.000000 -1.227157 2.045263 0.000000 0.000000 0.000000
    6 0.000000 -1.580430 1.264344 0.000000 0.000000 0.000000
    7 0.000001 -2.844774 1.022632 0.000000 0.000000 0.000000
    8 0.024938 -1.409603 0.862229 0.000000 0.000000 0.000000
    9 -0.003480 -0.404829 0.000000 0.000000 0.000000 0.000000
    10 -0.519309 -2.501154 -0.278957 -1.003564 0.000000 -0.122173
    11 -0.010598 -1.208184 0.000001 -1.090831 0.000000 0.000000
    12 0.000000 -0.763067 0.000001 -1.343903 0.000000 0.000000
    13 0.105981 -2.607133 -0.278957 -0.890118 0.000000 -0.148353
    14 0.000000 -1.250579 0.000000 -1.213004 0.000000 0.000000
    15 0.000000 -0.932634 0.000000 -1.483530 0.000000 0.000000
    16 0.763064 -2.490555 -0.278957 -0.349046 0.000000 0.130900
    17 -0.012322 -1.280916 0.000000 -0.322889 0.000000 0.000000
    18 -0.001697 -0.749371 0.000000 -0.593412 0.000000 0.000000
    19 0.354567 0.016267 0.318133 0.342077 -0.443527 -1.083976
    20 1.887165 0.012879 0.000000 -0.305433 0.000000 -0.401426
    21 1.001874 -0.000270 0.000000 0.000000 0.000000 -0.488692
    22 -1.123359 -2.195093 -0.278957 -0.933751 0.000000 -0.087266
    23 0.010772 -0.963791 0.000000 -0.610865 0.000000 0.000000
    24 -0.010412 -0.631916 -0.000001 -1.213004 0.000000 0.000000
    25 0.434095 3.127287 -7.600136 -1.704679 0.858738 -1.229910
    26 0.089932 -8.543161 0.000000 0.965953 0.482492 0.431980
    27 0.000000 -0.359713 0.000000 0.000000 0.000000 0.000000
    28 -0.170478 -2.636146 -0.277656 -0.248695 0.000000 0.000000
    29 0.010599 -1.261177 0.000001 -0.596104 -0.000575 0.000252
    30 -0.000001 -0.943233 -0.000001 0.245772 0.000000 0.000000
    31 -0.827562 -2.508972 -0.277656 -0.356021 0.000000 0.000000
    32 0.000000 -1.292971 0.000000 -0.443496 0.000000 0.000000
    33 0.000000 -0.752466 0.000000 0.144468 0.000000 0.000000
    34 0.444213 -2.561959 -0.277655 -0.047700 -0.046226 -0.024599
    35 0.021022 -1.208186 0.000000 -0.830573 0.000000 0.000000
    36 0.010597 -0.741867 -0.000001 -1.095967 0.000000 0.000000
    37 1.047445 -2.222821 -0.277655 -0.086850 -0.066950 -0.041090
    38 0.000000 -0.996223 -0.000001 -0.435762 0.000000 0.000000
    39 0.000000 -0.614690 0.000000 -0.922008 0.000000 0.000000
    40 -0.308254 -0.007814 0.307166 -0.638302 -0.707316 -2.046679
    41 1.978377 0.019543 0.000001 -0.000002 -0.000010 0.464214
    42 0.982426 0.003186 0.000001 0.000000 0.000000 -0.254232
  time 22
    0 6.606520 2.278910 -6.740888 1.212702 -2.077706 -1.488108
    1 0.000000 -8.563280 0.000000 0.181164 0.088417 0.084473
    2 -0.424379 -3.413320 0.699675 -1.186398 1.434476 -1.173754
    3 0.000000 2.286977 0.873886 0.000000 0.000000 0.000000
    4 0.000000 -0.743733 1.487464 0.000000 0.000000 0.000000
    5 0.000000 -1.227157 2.045263 0.000000 0.000000 0.000000
    6 0.000000 -1.580430 1.264344 0.000000 0.000000 0.000000
    7 0.000001 -2.844774 1.022632 0.000000 0.000000 0.000000
    8 0.024938 -1.409603 0.862229 0.000000 0.000000 0.000000
    9 -0.003480 -0.404829 0.000000 0.000000 0.000000 0.000000
    10 -0.519309 -2.501154 -0.278957 -1.003564 0.000000 -0.122173
    11 -0.010598 -1.208184 0.000001 -1.090831 0.000000 0.000000
    12 0.000000 -0.763067 0.000001 -1.343903 0.000000 0.000000
    13 0.105981 -2.607133 -0.278957 -0.890118 0.000000 -0.148353
    14 0.000000 -1.250579 0.000000 -1.213004 0.000000 0.000000
    15 0.000000 -0.932634 0.000000 -1.483530 0.000000 0.000000
    16 0.763064 -2.490555 -0.278957 -0.349046 0.000000 0.130900
    17 -0.012322 -1.280916 0.000000 -0.322889 0.000000 0.000000
    18 -0.001697 -0.749371 0.000000 -0.593412 0.000000 0.000000
    19 0.354567 0.016267 0.318133 0.342077 -0.443527 -1.083976
    20 1.887165 0.012879 0.000000 -0.305433 0.000000 -0.401426
    21 1.001874 -0.000270 0.000000 0.000000 0.000000 -0.488692
    22 -1.123359 -2.195093 -0.278957 -0.933751 0.000000 -0.087266
    23 0.010772 -0.963791 0.000000 -0.610865 0.000000 0.000000
    24 -0.010412 -0.631916 -0.000001 -1.213004 0.000000 0.000000
    25 0.402844 3.221040 -7.592323 -1.498407 0.904626 -1.049937
    26 0.089932 -8.543161 0.000000 0.806787 0.382804 0.379321
    27 0.000000 -0.359713 0.000000 0.000000 0.000000 0.000000
    28 -0.170478 -2.636146 -0.277656 -0.015616 0.000000 0.000000
    29 0.010599 -1.261177 0.000001 -0.656321 -0.000575 0.000252
    30 -0.000001 -0.943233 -0.000001 0.179168 0.000000 0.000000
    31 -0.827562 -2.508972 -0.277656 -0.173969 0.000000 0.000000
    32 0.000000 -1.292971 0.000000 -0.487580 0.000000 0.000000
    33 0.000000 -0.752466 0.000000 0.084759 0.000000 0.000000
    34 0.444213 -2.561959 -0.277655 0.026480 -0.046226 -0.024599
    35 0.021022 -1.208186 0.000000 -0.666991 0.000000 0.000000
    36 0.010597 -0.741867 -0.000001 -1.041014 0.000000 0.000000
    37 1.047445 -2.222821 -0.277655 -0.166685 -0.066950 -0.041090
    38 0.000000 -0.996223 -0.000001 -0.165156 0.000000 0.000000
    39 0.000000 -0.614690 0.000000 -0.747069 0.000000 0.000000
    40 -0.308254 -0.007814 0.307166 -0.700127 -0.708754 -1.934521
    41 1.978377 0.019543 0.000001 -0.000002 -0.000010 0.328730
    42 0.982426 0.003186 0.000001 0.000000 0.000000 -0.274667
  time 23
    0 6.606520 2.134374 -6.651041 -1.801780 -1.086999 1.532523
    1 0.000000 -8.563280 0.000000 0.146474 0.029802 -0.043547
    2 -0.424379 -3.413320 0.699675 -1.186398 1.434476 -1.173754
    3 0.000000 2.286977 0.873886 0.000000 0.000000 0.000000
    4 0.000000 -0.743733 1.487464 0.000000 0.000000 0.000000
    5 0.000000 -1.227157 2.045263 0.000000 0.000000 0.000000
    6 0.000000 -1.580430 1.264344 0.000000 0.000000 0.000000
    7 0.000001 -2.844774 1.022632 0.000000 0.000000 0.000000
    8 0.024938 -1.409603 0.862229 0.000000 0.000000 0.000000
    9 -0.003480 -0.404829 0.000000 0.000000 0.000000 0.000000
    10 -0.519309 -2.501154 -0.278957 -1.003564 0.000000 -0.122173
    11 -0.010598 -1.208184 0.000001 -1.090831 0.000000 0.000000
    12 0.000000 -0.763067 0.000001 -1.343903 0.000000 0.000000
    13 0.105981 -2.607133 -0.278957 -0.890118 0.000000 -0.148353
    14 0.000000 -1.250579 0.000000 -1.213004 0.000000 0.000000
    15 0.000000 -0.932634 0.000000 -1.483530 0.000000 0.000000
    16 0.763064 -2.490555 -0.278957 -0.349046 0.000000 0.130900
    17 -0.012322 -1.280916 0.000000 -0.322889 0.000000 0.000000
    18 -0.001697 -0.749371 0.000000 -0.593412 0.000000 0.000000
    19 0.354567 0.016267 0.318133 0.342077 -0.443527 -1.083976
    20 1.887165 0.012879 0.000000 -0.305433 0.000000 -0.401426
    21 1.001874 -0.000270 0.000000 0.000000 0.000000 -0.488692
    22 -1.123359 -2.195093 -0.278957 -0.933751 0.000000 -0.087266
    23 0.010772 -0.963791 0.000000 -0.610865 0.000000 0.000000
    24 -0.010412 -0.631916 -0.000001 -1.213004 0.000000 0.000000
    25 0.332530 3.181976 -7.658731 -1.279940 0.935658 -0.868971
    26 0.089932 -8.543161 0.000000 0.616832 0.244297 0.339199
    27 0.000000 -0.359713 0.000000 0.000000 0.000000 0.000000
    28 -0.170478 -2.636146 -0.277656 0.169168 0.000000 0.000000
    29 0.010599 -1.261177 0.000001 -0.708457 -0.000503 0.000228
    30 -0.000001 -0.943233 -0.000001 0.101802 0.000000 0.000000
    31 -0.827562 -2.508972 -0.277656 -0.038807 0.000000 0.000000
    32 0.000000 -1.292971 0.000000 -0.519301 0.000000 0.000000
    33 0.000000 -0.752466 0.000000 0.019179 0.000000 0.000000
    34 0.444213 -2.561959 -0.277655 0.064018 -0.046226 -0.024599
    35 0.021022 -1.208186 0.000000 -0.517373 0.000000 0.000000
    36 0.010597 -0.741867 -0.000001 -0.977140 0.000000 0.000000
    37 1.047445 -2.222821 -0.277655 -0.259446 -0.066950 -0.041090
    38 0.000000 -0.996223 -0.000001 0.062162 0.000000 0.000000
    39 0.000000 -0.614690 0.000000 -0.587884 0.000000 0.000000
    40 -0.308254 -0.007814 0.307166 -0.742942 -0.704128 -1.850000
    41 1.978377 0.019543 0.000001 -0.000002 -0.000010 0.195883
    42 0.982426 0.003186 0.000001 0.000000 0.000000 -0.288802
  time 24
    0 6.606520 1.985932 -6.526037 -1.637883 -1.112501 1.375415
    1 0.000000 -8.563280 0.000000 0.139031 -0.015530 -0.124628
    2 -0.424379 -3.413320 0.699675 -1.186398 1.434476 -1.173754
    3 0.000000 2.286977 0.873886 0.000000 0.000000 0.000000
    4 0.000000 -0.743733 1.487464 0.000000 0.000000 0.000000
    5 0.000000 -1.227157 2.045263 0.000000 0.000000 0.000000
    6 0.000000 -1.580430 1.264344 0.000000 0.000000 0.000000
    7 0.000001 -2.844774 1.022632 0.000000 0.000000 0.000000
    8 0.024938 -1.409603 0.862229 0.000000 0.000000 0.000000
    9 -0.003480 -0.404829 0.000000 0.000000 0.000000 0.000000
    10 -0.519309 -2.501154 -0.278957 -1.003564 0.000000 -0.122173
    11 -0.010598 -1.208184 0.000001 -1.090831 0.000000 0.000000
    12 0.000000 -0.763067 0.000001 -1.343903 0.000000 0.000000
    13 0.105981 -2.607133 -0.278957 -0.890118 0.000000 -0.148353
    14 0.000000 -1.250579 0.000000 -1.213004 0.000000 0.000000
    15 0.000000 -0.932634 0.000000 -1.483530 0.000000 0.000000
    16 0.763064 -2.490555 -0.278957 -0.349046 0.000000 0.130900
    17 -0.012322 -1.280916 0.000000 -0.322889 0.000000 0.000000
    18 -0.001697 -0.749371 0.000000 -0.593412 0.000000 0.000000
    19 0.354567 0.016267 0.318133 0.342077 -0.443527 -1.083976
    20 1.887165 0.012879 0.000000 -0.305433 0.000000 -0.401426
    21 1.001874 -0.000270 0.000000 0.000000 0.000000 -0.488692
    22 -1.123359 -2.195093 -0.278957 -0.933751 0.000000 -0.087266
    23 0.010772 -0.963791 0.000000 -0.610865 0.000000 0.000000
    24 -0.010412 -0.631916 -0.000001 -1.213004 0.000000 0.000000
    25 0.230964 3.010096 -7.799361 -1.047898 0.946383 -0.674937
    26 0.089932 -8.543161 0.000000 0.476652 0.124794 0.330724
    27 0.000000 -0.359713 0.000000 0.000000 0.000000 0.000000
    28 -0.170478 -2.636146 -0.277656 0.231692 0.000000 0.000000
    29 0.010599 -1.261177 0.000001 -0.733524 -0.000455 0.000204
    30 -0.000001 -0.943233 -0.000001 0.016169 0.000000 0.000000
    31 -0.827562 -2.508972 -0.277656 0.000262 0.000000 0.000000
    32 0.000000 -1.292971 0.000000 -0.527824 0.000000 0.000000
    33 0.000000 -0.752466 0.000000 -0.044430 0.000000 0.000000
    34 0.444213 -2.561959 -0.277655 0.028857 -0.046226 -0.024599
    35 0.021022 -1.208186 0.000000 -0.421564 0.000000 0.000000
    36 0.010597 -0.741867 -0.000001 -0.906478 0.000000 0.000000
    37 1.047445 -2.222821 -0.277655 -0.362091 -0.066950 -0.041090
    38 0.000000 -0.996223 -0.000001 0.167965 0.000000 0.000000
    39 0.000000 -0.614690 0.000000 -0.487525 0.000000 0.000000
    40 -0.308254 -0.007814 0.307166 -0.743565 -0.697548 -1.831238
    41 1.978377 0.019543 0.000001 -0.000002 -0.000010 0.093071
    42 0.982426 0.003186 0.000001 0.000000 0.000000 -0.288102
  time 25
    0 6.606520 1.899992 -6.428378 -1.499000 -1.139185 1.244272
    1 0.000000 -8.563280 0.000000 0.155415 -0.043126 -0.158110
    2 -0.424379 -3.413320 0.699675 -1.186398 1.434476 -1.173754
    3 0.000000 2.286977 0.873886 0.000000 0.000000 0.000000
    4 0.000000 -0.743733 1.487464 0.000000 0.000000 0.000000
    5 0.000000 -1.227157 2.045263 0.000000 0.000000 0.000000
    6 0.000000 -1.580430 1.264344 0.000000 0.000000 0.000000
    7 0.000001 -2.844774 1.022632 0.000000 0.000000 0.000000
    8 0.024938 -1.409603 0.862229 0.000000 0.000000 0.000000
    9 -0.003480 -0.404829 0.000000 0.000000 0.000000 0.000000
    10 -0.519309 -2.501154 -0.278957 -1.003564 0.000000 -0.122173
    11 -0.010598 -1.208184 0.000001 -1.090831 0.000000 0.000000
    12 0.000000 -0.763067 0.000001 -1.343903 0.000000 0.000000
    13 0.105981 -2.607133 -0.278957 -0.890118 0.000000 -0.148353
    14 0.000000 -1.250579 0.000000 -1.213004 0.000000 0.000000
    15 0.000000 -0.932634 0.000000 -1.483530 0.000000 0.000000
    16 0.763064 -2.490555 -0.278957 -0.349046 0.000000 0.130900
    17 -0.012322 -1.280916 0.000000 -0.322889 0.000000 0.000000
    18 -0.001697 -0.749371 0.000000 -0.593412 0.000000 0.000000
    19 0.354567 0.016267 0.318133 0.342077 -0.443527 -1.083976
    20 1.887165 0.012879 0.000000 -0.305433 0.000000 -0.401426
    21 1.001874 -0.000270 0.000000 0.000000 0.000000 -0.488692
    22 -1.123359 -2.195093 -0.278957 -0.933751 0.000000 -0.087266
    23 0.010772 -0.963791 0.000000 -0.610865 0.000000 0.000000
    24 -0.010412 -0.631916 -0.000001 -1.213004 0.000000 0.000000
    25 0.090335 2.705399 -8.018117 -0.811110 0.926428 -0.466595
    26 0.089932 -8.543161 0.000000 0.393522 0.041434 0.339006
    27 0.000000 -0.359713 0.000000 0.000000 0.000000 0.000000
    28 -0.170478 -2.636146 -0.277656 0.161944 0.000000 0.000000
    29 0.010599 -1.261177 0.000001 -0.729577 -0.000431 0.000192
    30 -0.000001 -0.943233 -0.000001 -0.075237 0.000000 0.000000
    31 -0.827562 -2.508972 -0.277656 -0.065277 0.000000 0.000000
    32 0.000000 -1.292971 0.000000 -0.510985 0.000000 0.000000
    33 0.000000 -0.752466 0.000000 -0.106478 0.000000 0.000000
    34 0.444213 -2.561959 -0.277655 -0.085911 -0.046226 -0.024599
    35 0.021022 -1.208186 0.000000 -0.383183 0.000000 0.000000
    36 0.010597 -0.741867 -0.000001 -0.830985 0.000000 0.000000
    37 1.047445 -2.222821 -0.277655 -0.471687 -0.066950 -0.041090
    38 0.000000 -0.996223 -0.000001 0.142878 0.000000 0.000000
    39 0.000000 -0.614690 0.000000 -0.450019 0.000000 0.000000
    40 -0.308254 -0.007814 0.307166 -0.699530 -0.689722 -1.882581
    41 1.978377 0.019543 0.000001 -0.000002 -0.000010 0.047634
    42 0.982426 0.003186 0.000001 0.000000 0.000000 -0.264032
  time 26
    0 6.606520 1.876554 -6.369783 -1.397533 -1.175000 1.151495
    1 0.000000 -8.563280 0.000000 0.185248 -0.062805 -0.172074
    2 -0.424379 -3.413320 0.699675 -1.186398 1.434476 -1.173754
    3 0.000000 2.286977 0.873886 0.000000 0.000000 0.000000
    4 0.000000 -0.743733 1.487464 0.000000 0.000000 0.000000
    5 0.000000 -1.227157 2.045263 0.000000 0.000000 0.000000
    6 0.000000 -1.580430 1.264344 0.000000 0.000000 0.000000
    7 0.000001 -2.844774 1.022632 0.000000 0.000000 0.000000
    8 0.024938 -1.409603 0.862229 0.000000 0.000000 0.000000
    9 -0.003480 -0.404829 0.000000 0.000000 0.000000 0.000000
    10 -0.519309 -2.501154 -0.278957 -1.003564 0.000000 -0.122173
    11 -0.010598 -1.208184 0.000001 -1.090831 0.000000 0.000000
    12 0.000000 -0.763067 0.000001 -1.343903 0.000000 0.000000
    13 0.105981 -2.607133 -0.278957 -0.890118 0.000000 -0.148353
    14 0.000000 -1.250579 0.000000 -1.213004 0.000000 0.000000
    15 0.000000 -0.932634 0.000000 -1.483530 0.000000 0.000000
    16 0.763064 -2.490555 -0.278957 -0.349046 0.000000 0.130900
    17 -0.012322 -1.280916 0.000000 -0.322889 0.000000 0.000000
    18 -0.001697 -0.749371 0.000000 -0.593412 0.000000 0.000000
    19 0.354567 0.016267 0.318133 0.342077 -0.443527 -1.083976
    20 1.887165 0.012879 0.000000 -0.305433 0.000000 -0.401426
    21 1.001874 -0.000270 0.000000 0.000000 0.000000 -0.488692
    22 -1.123359 -2.195093 -0.278957 -0.933751 0.000000 -0.087266
    23 0.010772 -0.963791 0.000000 -0.610865 0.000000 0.000000
    24 -0.010412 -0.631916 -0.000001 -1.213004 0.000000 0.000000
    25 -0.085452 2.271792 -8.315001 -0.591925 0.864276 -0.256268
    26 0.089932 -8.543161 0.000000 0.324456 -0.032178 0.353880
    27 0.000000 -0.359713 0.000000 0.000000 0.000000 0.000000
    28 -0.170478 -2.636146 -0.277656 0.016141 0.000000 0.000000
    29 0.010599 -1.261177 0.000001 -0.710608 -0.000384 0.000156
    30 -0.000001 -0.943233 -0.000001 -0.169979 0.000000 0.000000
    31 -0.827562 -2.508972 -0.277656 -0.196740 0.000000 0.000000
    32 0.000000 -1.292971 0.000000 -0.477485 0.000000 0.000000
    33 0.000000 -0.752466 0.000000 -0.171928 0.000000 0.000000
    34 0.444213 -2.561959 -0.277655 -0.251268 -0.046226 -0.024599
    35 0.021022 -1.208186 0.000000 -0.373148 0.000000 0.000000
    36 0.010597 -0.741867 -0.000001 -0.752854 0.000000 0.000000
    37 1.047445 -2.222821 -0.277655 -0.585266 -0.066950 -0.041090
    38 0.000000 -0.996223 -0.000001 0.045517 0.000000 0.000000
    39 0.000000 -0.614690 0.000000 -0.443858 0.000000 0.000000
    40 -0.308254 -0.007814 0.307166 -0.630108 -0.676635 -1.973658
    41 1.978377 0.019543 0.000001 -0.000002 -0.000010 0.078911
    42 0.982426 0.003186 0.000001 0.000000 0.000000 -0.208112
  time 27
    0 6.606520 1.896086 -6.315093 -1.289302 -1.217967 1.052828
    1 0.000000 -8.563280 0.000000 0.223611 -0.077423 -0.173225
    2 -0.424379 -3.413320 0.699675 -1.186398 1.434476 -1.173754
    3 0.000000 2.286977 0.873886 0.000000 0.000000 0.000000
    4 0.000000 -0.743733 1.487464 0.000000 0.000000 0.000000
    5 0.000000 -1.227157 2.045263 0.000000 0.000000 0.000000
    6 0.000000 -1.580430 1.264344 0.000000 0.000000 0.000000
    7 0.000001 -2.844774 1.022632 0.000000 0.000000 0.000000
    8 0.024938 -1.409603 0.862229 0.000000 0.000000 0.000000
    9 -0.003480 -0.404829 0.000000 0.000000 0.000000 0.000000
    10 -0.519309 -2.501154 -0.278957 -1.003564 0.000000 -0.122173
    11 -0.010598 -1.208184 0.000001 -1.090831 0.000000 0.000000
    12 0.000000 -0.763067 0.000001 -1.343903 0.000000 0.000000
    13 0.105981 -2.607133 -0.278957 -0.890118 0.000000 -0.148353
    14 0.000000 -1.250579 0.000000 -1.213004 0.000000 0.000000
    15 0.000000 -0.932634 0.000000 -1.483530 0.000000 0.000000
    16 0.763064 -2.490555 -0.278957 -0.349046 0.000000 0.130900
    17 -0.012322 -1.280916 0.000000 -0.322889 0.000000 0.000000
    18 -0.001697 -0.749371 0.000000 -0.593412 0.000000 0.000000
    19 0.354567 0.016267 0.318133 0.342077 -0.443527 -1.083976
    20 1.887165 0.012879 0.000000 -0.305433 0.000000 -0.401426
    21 1.001874 -0.000270 0.000000 0.000000 0.000000 -0.488692
    22 -1.123359 -2.195093 -0.278957 -0.933751 0.000000 -0.087266
    23 0.010772 -0.963791 0.000000 -0.610865 0.000000 0.000000
    24 -0.010412 -0.631916 -0.000001 -1.213004 0.000000 0.000000
    25 -0.296396 1.701462 -8.686106 -0.417328 0.751490 -0.060167
    26 0.089932 -8.543161 0.000000 0.263920 -0.098891 0.373203
    27 0.000000 -0.359713 0.000000 0.000000 0.000000 0.000000
    28 -0.170478 -2.636146 -0.277656 -0.180341 0.000000 0.000000
    29 0.010599 -1.261177 0.000001 -0.681613 -0.000300 0.000120
    30 -0.000001 -0.943233 -0.000001 -0.265534 0.000000 0.000000
    31 -0.827562 -2.508972 -0.277656 -0.372204 0.000000 0.000000
    32 0.000000 -1.292971 0.000000 -0.432898 0.000000 0.000000
    33 0.000000 -0.752466 0.000000 -0.239653 0.000000 0.000000
    34 0.444213 -2.561959 -0.277655 -0.450396 -0.046226 -0.024599
    35 0.021022 -1.208186 0.000000 -0.382054 0.000000 0.000000
    36 0.010597 -0.741867 -0.000001 -0.673982 0.000000 0.000000
    37 1.047445 -2.222821 -0.277655 -0.699823 -0.066950 -0.041090
    38 0.000000 -0.996223 -0.000001 -0.099986 0.000000 0.000000
    39 0.000000 -0.614690 0.000000 -0.458585 0.000000 0.000000
    40 -0.308254 -0.007814 0.307166 -0.546674 -0.654703 -2.088531
    41 1.978377 0.019543 0.000001 -0.000002 -0.000010 0.170674
    42 0.982426 0.003186 0.000001 0.000000 0.000000 -0.078393
  time 28
    0 6.606520 1.946869 -6.268217 -1.159297 -1.263060 0.932691
    1 0.000000 -8.563280 0.000000 0.266155 -0.089806 -0.168232
    2 -0.424379 -3.413320 0.699675 -1.186398 1.434476 -1.173754
    3 0.000000 2.286977 0.873886 0.000000 0.000000 0.000000
    4 0.000000 -0.743733 1.487464 0.000000 0.000000 0.000000
    5 0.000000 -1.227157 2.045263 0.000000 0.000000 0.000000
    6 0.000000 -1.580430 1.264344 0.000000 0.000000 0.000000
    7 0.000001 -2.844774 1.022632 0.000000 0.000000 0.000000
    8 0.024938 -1.409603 0.862229 0.000000 0.000000 0.000000
    9 -0.003480 -0.404829 0.000000 0.000000 0.000000 0.000000
    10 -0.519309 -2.501154 -0.278957 -1.003564 0.000000 -0.122173
    11 -0.010598 -1.208184 0.000001 -1.090831 0.000000 0.000000
    12 0.000000 -0.763067 0.000001 -1.343903 0.000000 0.000000
    13 0.105981 -2.607133 -0.278957 -0.890118 0.000000 -0.148353
    14 0.000000 -1.250579 0.000000 -1.213004 0.000000 0.000000
    15 0.000000 -0.932634 0.000000 -1.483530 0.000000 0.000000
    16 0.763064 -2.490555 -0.278957 -0.349046 0.000000 0.130900
    17 -0.012322 -1.280916 0.000000 -0.322889 0.000000 0.000000
    18 -0.001697 -0.749371 0.000000 -0.593412 0.000000 0.000000
    19 0.354567 0.016267 0.318133 0.342077 -0.443527 -1.083976
    20 1.887165 0.012879 0.000000 -0.305433 0.000000 -0.401426
    21 1.001874 -0.000270 0.000000 0.000000 0.000000 -0.488692
    22 -1.123359 -2.195093 -0.278957 -0.933751 0.000000 -0.087266
    23 0.010772 -0.963791 0.000000 -0.610865 0.000000 0.000000
    24 -0.010412 -0.631916 -0.000001 -1.213004 0.000000 0.000000
    25 -0.546403 1.006129 -9.135339 -0.317227 0.548157 0.153221
    26 0.089932 -8.543161 0.000000 0.206625 -0.161478 0.396183
    27 0.000000 -0.359713 0.000000 0.000000 0.000000 0.000000
    28 -0.170478 -2.636146 -0.277656 -0.402126 0.000000 0.000000
    29 0.010599 -1.261177 0.000001 -0.647622 -0.000192 0.000072
    30 -0.000001 -0.943233 -0.000001 -0.359435 0.000000 0.000000
    31 -0.827562 -2.508972 -0.277656 -0.569629 0.000000 0.000000
    32 0.000000 -1.292971 0.000000 -0.382738 0.000000 0.000000
    33 0.000000 -0.752466 0.000000 -0.308504 0.000000 0.000000
    34 0.444213 -2.561959 -0.277655 -0.666433 -0.046226 -0.024599
    35 0.021022 -1.208186 0.000000 -0.400388 0.000000 0.000000
    36 0.010597 -0.741867 -0.000001 -0.596443 0.000000 0.000000
    37 1.047445 -2.222821 -0.277655 -0.812353 -0.066950 -0.041090
    38 0.000000 -0.996223 -0.000001 -0.269572 0.000000 0.000000
    39 0.000000 -0.614690 0.000000 -0.483742 0.000000 0.000000
    40 -0.308254 -0.007814 0.307166 -0.460786 -0.622609 -2.211175
    41 1.978377 0.019543 0.000001 -0.000002 -0.000010 0.297070
    42 0.982426 0.003186 0.000001 0.000000 0.000000 0.129836
  time 29
    0 6.606520 2.036715 -6.229153 -0.990679 -1.303633 0.774033
    1 0.000000 -8.563280 0.000000 0.308662 -0.102402 -0.163763
    2 -0.424379 -3.413320 0.699675 -1.186398 1.434476 -1.173754
    3 0.000000 2.286977 0.873886 0.000000 0.000000 0.000000
    4 0.000000 -0.743733 1.487464 0.000000 0.000000 0.000000
    5 0.000000 -1.227157 2.045263 0.000000 0.000000 0.000000
    6 0.000000 -1.580430 1.264344 0.000000 0.000000 0.000000
    7 0.000001 -2.844774 1.022632 0.000000 0.000000 0.000000
    8 0.024938 -1.409603 0.862229 0.000000 0.000000 0.000000
    9 -0.003480 -0.404829 0.000000 0.000000 0.000000 0.000000
    10 -0.519309 -2.501154 -0.278957 -1.003564 0.000000 -0.122173
    11 -0.010598 -1.208184 0.000001 -1.090831 0.000000 0.000000
    12 0.000000 -0.763067 0.000001 -1.343903 0.000000 0.000000
    13 0.105981 -2.607133 -0.278957 -0.890118 0.000000 -0.148353
    14 0.000000 -1.250579 0.000000 -1.213004 0.000000 0.000000
    15 0.000000 -0.932634 0.000000 -1.483530 0.000000 0.000000
    16 0.763064 -2.490555 -0.278957 -0.349046 0.000000 0.130900
    17 -0.012322 -1.280916 0.000000 -0.322889 0.000000 0.000000
    18 -0.001697 -0.749371 0.000000 -0.593412 0.000000 0.000000
    19 0.354567 0.016267 0.318133 0.342077 -0.443527 -1.083976
    20 1.887165 0.012879 0.000000 -0.305433 0.000000 -0.401426
    21 1.001874 -0.000270 0.000000 0.000000 0.000000 -0.488692
    22 -1.123359 -2.195093 -0.278957 -0.933751 0.000000 -0.087266
    23 0.010772 -0.963791 0.000000 -0.610865 0.000000 0.000000
    24 -0.010412 -0.631916 -0.000001 -1.213004 0.000000 0.000000
    25 -0.823756 0.170166 -9.658792 -0.315075 0.270806 0.382157
    26 0.089932 -8.543161 0.000000 0.147129 -0.222666 0.423066
    27 0.000000 -0.359713 0.000000 0.000000 0.000000 0.000000
    28 -0.170478 -2.636146 -0.277656 -0.623874 0.000000 0.000000
    29 0.010599 -1.261177 0.000001 -0.613632 -0.000084 0.000024
    30 -0.000001 -0.943233 -0.000001 -0.449187 0.000000 0.000000
    31 -0.827562 -2.508972 -0.277656 -0.767094 0.000000 0.000000
    32 0.000000 -1.292971 0.000000 -0.332592 0.000000 0.000000
    33 0.000000 -0.752466 0.000000 -0.377378 0.000000 0.000000
    34 0.444213 -2.561959 -0.277655 -0.882469 -0.046226 -0.024599
    35 0.021022 -1.208186 0.000000 -0.418721 0.000000 0.000000
    36 0.010597 -0.741867 -0.000001 -0.522403 0.000000 0.000000
    37 1.047445 -2.222821 -0.277655 -0.920030 -0.066950 -0.041090
    38 0.000000 -0.996223 -0.000001 -0.439206 0.000000 0.000000
    39 0.000000 -0.614690 0.000000 -0.508899 0.000000 0.000000
    40 -0.308254 -0.007814 0.307166 -0.382326 -0.582556 -2.327099
    41 1.978377 0.019543 0.000001 -0.000002 -0.000010 0.432048
    42 0.982426 0.003186 0.000001 0.000000 0.000000 0.369511
  time 30
    0 6.606520 2.165625 -6.193996 -0.774287 -1.331381 0.567242
    1 0.000000 -8.563280 0.000000 0.347158 -0.117019 -0.166590
    2 -0.424379 -3.413320 0.699675 -1.186398 1.434476 -1.173754
    3 0.000000 2.286977 0.873886 0.000000 0.000000 0.000000
    4 0.000000 -0.743733 1.487464 0.000000 0.000000 0.000000
    5 0.000000 -1.227157 2.045263 0.000000 0.000000 0.000000
    6 0.000000 -1.580430 1.264344 0.000000 0.000000 0.000000
    7 0.000001 -2.844774 1.022632 0.000000 0.000000 0.000000
    8 0.024938 -1.409603 0.862229 0.000000 0.000000 0.000000
    9 -0.003480 -0.404829 0.000000 0.000000 0.000000 0.000000
    10 -0.519309 -2.501154 -0.278957 -1.003564 0.000000 -0.122173
    11 -0.010598 -1.208184 0.000001 -1.090831 0.000000 0.000000
    12 0.000000 -0.763067 0.000001 -1.343903 0.000000 0.000000
    13 0.105981 -2.607133 -0.278957 -0.890118 0.000000 -0.148353
    14 0.000000 -1.250579 0.000000 -1.213004 0.000000 0.000000
    15 0.000000 -0.932634 0.000000 -1.483530 0.000000 0.000000
    16 0.763064 -2.490555 -0.278957 -0.349046 0.000000 0.130900
    17 -0.012322 -1.280916 0.000000 -0.322889 0.000000 0.000000
    18 -0.001697 -0.749371 0.000000 -0.593412 0.000000 0.000000
    19 0.354567 0.016267 0.318133 0.342077 -0.443527 -1.083976
    20 1.887165 0.012879 0.000000 -0.305433 0.000000 -0.401426
    21 1.001874 -0.000270 0.000000 0.000000 0.000000 -0.488692
    22 -1.123359 -2.195093 -0.278957 -0.933751 0.000000 -0.087266
    23 0.010772 -0.963791 0.000000 -0.610865 0.000000 0.000000
    24 -0.010412 -0.631916 -0.000001 -1.213004 0.000000 0.000000
    25 -1.144078 -0.794708 -10.260373 -0.375279 0.000048 0.602079
    26 0.089932 -8.543161 0.000000 0.079775 -0.284689 0.455188
    27 0.000000 -0.359713 0.000000 0.000000 0.000000 0.000000
    28 -0.170478 -2.636146 -0.277656 -0.820356 0.000000 0.000000
    29 0.010599 -1.261177 0.000001 -0.584674 0.000000 0.000000
    30 -0.000001 -0.943233 -0.000001 -0.532326 0.000000 0.000000
    31 -0.827562 -2.508972 -0.277656 -0.942519 0.000000 0.000000
    32 0.000000 -1.292971 0.000000 -0.287990 0.000000 0.000000
    33 0.000000 -0.752466 0.000000 -0.445059 0.000000 0.000000
    34 0.444213 -2.561959 -0.277655 -1.081552 -0.046226 -0.024599
    35 0.021022 -1.208186 0.000000 -0.427606 0.000000 0.000000
    36 0.010597 -0.741867 -0.000001 -0.453786 0.000000 0.000000
    37 1.047445 -2.222821 -0.277655 -1.019670 -0.066950 -0.041090
    38 0.000000 -0.996223 -0.000001 -0.584709 0.000000 0.000000
    39 0.000000 -0.614690 0.000000 -0.523599 0.000000 0.000000
    40 -0.308254 -0.007814 0.307166 -0.318046 -0.539819 -2.424641
    41 1.978377 0.019543 0.000001 -0.000002 -0.000010 0.549770
    42 0.982426 0.003186 0.000001 0.000000 0.000000 0.593409
end
