// Created by Crowbar 0.68

$modelname "weapons/tfa_cso/c_scar_ozb.mdl"

$include "csonline_gmod.qci"

$bodygroup "studio"
{
	studio "v_ref"
}

$CDMaterials "models\weapons\tfa_cso\scar_ozb"

$attachment 0 "scar_root" 15 -0.8 0
//$attachment 1 "scar_root" 4 -0.7 -0.5

$sequence "idle" {
	"v_y20s2scara_anims\idle"
	activity "ACT_VM_IDLE" 1
	fps 30
	loop
	snap
}
$sequence "reload" {
	"v_y20s2scara_anims\reload"
	activity "ACT_VM_RELOAD" 1
	{ event 5004 32 "ScarA.ClipOut" }
	{ event 5004 58 "ScarA.ClipIn" }
	{ event 5004 78 "ScarA.Boltpull" }
	fps 36
	snap
}
$sequence "draw" {
	"v_y20s2scara_anims\draw"
	activity "ACT_VM_DRAW" 1
	{ event 5004 3 "ScarA.Draw" }
	fps 30
	snap
}
$sequence "shoot1" {
	"v_y20s2scara_anims\shoot1"
	{ event 5001 2 "12" }
	fps 30
	activity "ACT_VM_PRIMARYATTACK" 1
	snap
}
$sequence "shoot2" {
	"v_y20s2scara_anims\shoot2"
	{ event 5001 2 "12" }
	fps 30
	snap
}
$sequence "shoot3" {
	"v_y20s2scara_anims\shoot3"
	{ event 5001 2 "12" }
	fps 30
	snap
}
