version 1
nodes
  0 "20_2_Pipeorgan_p" -1
end
skeleton
  time 0
    0 -1.202574 1.839848 -24.601025 0.002661 -0.000279 -2.356209
  time 1
    0 -1.202574 1.839848 -24.601025 0.002661 -0.000279 -2.356209
end
