version 1
nodes
  0 "Bone01" -1
  1 "Bone_Lefthand" 0
  2 "Bone02" 1
  3 "Bone03" 2
  4 "Bone25" 3
  5 "Bone48" 3
  6 "Bone50" 3
  7 "Bone52" 3
  8 "Bone54" 3
  9 "Bone 04" 1
  10 "Bone13" 9
  11 "Bone14" 10
  12 "Bone15" 11
  13 "Bone17" 9
  14 "Bone18" 13
  15 "Bone19" 14
  16 "Bone21" 9
  17 "Bone22" 16
  18 "Bone23" 17
  19 "Bone05" 9
  20 "Bone06" 19
  21 "Bone07" 20
  22 "Bone09" 9
  23 "Bone10" 22
  24 "Bone11" 23
  25 "Bone04" -1
  26 "Bone_Righthand" 25
  27 "Bone26" 26
  28 "Bone35" 27
  29 "Bone36" 28
  30 "Bone37" 29
  31 "Bone31" 27
  32 "Bone32" 31
  33 "Bone33" 32
  34 "Bone39" 27
  35 "Bone40" 34
  36 "Bone41" 35
  37 "Bone43" 27
  38 "Bone44" 37
  39 "Bone45" 38
  40 "Bone27" 27
  41 "Bone28" 40
  42 "Bone29" 41
end
skeleton
  time 0
    0 8.106566 3.364881 -7.694043 -0.774287 -1.331381 0.567275
    1 0.000000 -8.563283 -0.000001 0.347509 -0.125220 -0.169570
    2 -0.657808 -3.130249 0.692628 -1.247037 1.437608 -1.233844
    3 0.000000 1.873662 1.027493 0.000000 0.000000 0.000000
    4 0.000000 -3.037148 1.087932 0.410128 0.000000 0.000000
    5 0.000001 -4.895699 1.027491 0.000000 0.000000 0.000000
    6 0.000001 -6.240505 1.163484 0.000000 0.000000 0.000000
    7 0.000000 -5.243233 2.931374 0.000000 0.000000 0.000000
    8 -0.214729 -14.141506 3.399045 0.000000 0.000000 0.000000
    9 -0.003480 -0.404829 0.000000 0.000000 0.000000 0.000000
    10 -0.519309 -2.501155 -0.278957 -1.003564 0.000000 -0.122173
    11 -0.010598 -1.208185 0.000001 -1.090831 0.000000 0.000000
    12 0.000000 -0.763067 0.000000 -1.343903 0.000000 0.000000
    13 0.105982 -2.607134 -0.278957 -0.890118 0.000000 -0.148353
    14 0.000000 -1.250579 0.000000 -1.213004 0.000000 0.000000
    15 0.000000 -0.932634 0.000000 -1.483530 0.000000 0.000000
    16 0.763064 -2.490556 -0.278957 -0.349065 0.000000 0.130900
    17 -0.012322 -1.280917 0.000001 -0.471225 0.000000 0.000000
    18 -0.001697 -0.749371 0.000001 -1.527106 0.000000 0.000000
    19 0.354567 0.016267 0.318134 0.342077 -0.443527 -1.083976
    20 1.887164 0.012877 0.000001 -0.305433 0.000000 -0.401426
    21 1.001874 -0.000270 0.000001 0.000000 0.000000 -0.488692
    22 -1.123358 -2.195093 -0.278957 -0.933751 0.000000 -0.087266
    23 0.010772 -0.963791 0.000000 -0.610865 0.000000 0.000000
    24 -0.010412 -0.631916 0.000000 -1.213004 0.000000 0.000000
    25 -0.370616 -9.697322 -9.463474 -0.616063 0.255020 0.648685
    26 0.089928 -8.543161 0.000001 0.538694 0.017885 0.229038
    27 0.000000 -0.359713 0.000000 0.000000 0.000000 0.000000
    28 -0.170479 -2.636146 -0.277655 -1.692969 0.000000 0.000000
    29 0.010600 -1.261177 0.000001 -0.253073 0.000000 0.000000
    30 -0.000001 -0.943233 -0.000001 -0.532326 0.000000 0.000000
    31 -0.827563 -2.508973 -0.277656 -1.186834 0.000000 0.000000
    32 0.000000 -1.292971 -0.000001 -0.811554 0.000000 0.000000
    33 0.000000 -0.752465 0.000000 -0.445059 0.000000 0.000000
    34 0.444212 -2.561960 -0.277655 -1.727307 -0.046226 -0.024599
    35 0.021022 -1.208186 0.000000 -0.427606 0.000000 0.000000
    36 0.010597 -0.741866 -0.000001 -0.453786 0.000000 0.000000
    37 1.047445 -2.222819 -0.277655 -1.508123 -0.078971 -0.038609
    38 0.000001 -0.996223 0.000001 -0.863938 0.000000 0.000000
    39 -0.000001 -0.614690 0.000000 -0.523599 0.000000 0.000000
    40 -0.308254 -0.007814 0.307166 -0.145110 -0.159878 -2.467082
    41 1.978379 0.019543 0.000000 -0.091660 -0.050705 0.045957
    42 0.982426 0.003186 0.000000 0.000000 0.000000 0.383991
  time 1
    0 8.106566 4.021151 -8.108118 -0.906192 -1.292346 0.703824
    1 0.000000 -8.563283 -0.000001 0.353250 -0.107255 -0.219066
    2 -0.657808 -3.130249 0.692628 -1.247037 1.437608 -1.233844
    3 0.000000 1.873662 1.027493 0.000000 0.000000 0.000000
    4 0.000000 -3.037148 1.087932 0.413483 0.000000 0.000000
    5 0.000001 -4.895699 1.027491 0.000000 0.000000 0.000000
    6 0.000001 -6.240505 1.163484 0.000000 0.000000 0.000000
    7 0.000000 -3.954131 2.931374 0.000000 0.000000 0.000000
    8 -0.214729 -14.141506 3.399045 0.000000 0.000000 0.000000
    9 -0.003480 -0.404829 0.000000 0.000000 0.000000 0.000000
    10 -0.519309 -2.501155 -0.278957 -1.003564 0.000000 -0.122173
    11 -0.010598 -1.208185 0.000001 -1.090831 0.000000 0.000000
    12 0.000000 -0.763067 0.000000 -1.343903 0.000000 0.000000
    13 0.105982 -2.607134 -0.278957 -0.890118 0.000000 -0.148353
    14 0.000000 -1.250579 0.000000 -1.213004 0.000000 0.000000
    15 0.000000 -0.932634 0.000000 -1.483530 0.000000 0.000000
    16 0.763064 -2.490556 -0.278957 -0.349065 0.000000 0.130900
    17 -0.012322 -1.280917 0.000001 -0.472436 0.000000 0.000000
    18 -0.001697 -0.749371 0.000001 -1.534745 0.000000 0.000000
    19 0.354567 0.016267 0.318134 0.342077 -0.443527 -1.083976
    20 1.887164 0.012877 0.000001 -0.305433 0.000000 -0.401426
    21 1.001874 -0.000270 0.000001 0.000000 0.000000 -0.488692
    22 -1.123358 -2.195093 -0.278957 -0.933751 0.000000 -0.087266
    23 0.010772 -0.963791 0.000000 -0.610865 0.000000 0.000000
    24 -0.010412 -0.631916 0.000000 -1.213004 0.000000 0.000000
    25 -1.128452 -9.919986 -9.006429 -0.570600 0.352662 0.800249
    26 0.089928 -8.543161 0.000001 0.527028 0.004496 0.028871
    27 0.000000 -0.359713 0.000000 0.000000 0.000000 0.000000
    28 -0.170479 -2.636146 -0.277655 -1.692969 0.000000 0.000000
    29 0.010600 -1.261177 0.000001 -0.253073 0.000000 0.000000
    30 -0.000001 -0.943233 -0.000001 -0.532326 0.000000 0.000000
    31 -0.827563 -2.508973 -0.277656 -1.186834 0.000000 0.000000
    32 0.000000 -1.292971 -0.000001 -0.811554 0.000000 0.000000
    33 0.000000 -0.752465 0.000000 -0.445059 0.000000 0.000000
    34 0.444212 -2.561960 -0.277655 -1.727307 -0.046226 -0.024599
    35 0.021022 -1.208186 0.000000 -0.427606 0.000000 0.000000
    36 0.010597 -0.741866 -0.000001 -0.453786 0.000000 0.000000
    37 1.047445 -2.222819 -0.277655 -1.508123 -0.078971 -0.038609
    38 0.000001 -0.996223 0.000001 -0.863938 0.000000 0.000000
    39 -0.000001 -0.614690 0.000000 -0.523599 0.000000 0.000000
    40 -0.308254 -0.007814 0.307166 -0.145110 -0.159878 -2.467082
    41 1.978379 0.019543 0.000000 -0.091660 -0.050705 0.045957
    42 0.982426 0.003186 0.000000 0.000000 0.000000 0.383991
  time 2
    0 8.106566 3.896147 -8.061242 -0.903116 -1.293451 0.700631
    1 0.000000 -8.563283 -0.000001 0.353202 -0.107411 -0.218659
    2 -0.657808 -3.130249 0.692628 -1.247037 1.437608 -1.233844
    3 0.000000 1.873662 1.027493 0.000000 0.000000 0.000000
    4 0.000000 -3.037148 1.087932 0.421290 0.000000 0.000000
    5 0.000001 -4.895699 1.027491 0.000000 0.000000 0.000000
    6 0.000001 -6.240505 1.163484 0.000000 0.000000 0.000000
    7 0.000000 -4.598682 2.931374 0.000000 0.000000 0.000000
    8 -0.214729 -14.141506 3.399045 0.000000 0.000000 0.000000
    9 -0.003480 -0.404829 0.000000 0.000000 0.000000 0.000000
    10 -0.519309 -2.501155 -0.278957 -1.003564 0.000000 -0.122173
    11 -0.010598 -1.208185 0.000001 -1.090831 0.000000 0.000000
    12 0.000000 -0.763067 0.000000 -1.343903 0.000000 0.000000
    13 0.105982 -2.607134 -0.278957 -0.890118 0.000000 -0.148353
    14 0.000000 -1.250579 0.000000 -1.213004 0.000000 0.000000
    15 0.000000 -0.932634 0.000000 -1.483530 0.000000 0.000000
    16 0.763064 -2.490556 -0.278957 -0.349065 0.000000 0.130900
    17 -0.012322 -1.280917 0.000001 -0.475264 0.000000 0.000000
    18 -0.001697 -0.749371 0.000001 -1.552549 0.000000 0.000000
    19 0.354567 0.016267 0.318134 0.342077 -0.443527 -1.083976
    20 1.887164 0.012877 0.000001 -0.305433 0.000000 -0.401426
    21 1.001874 -0.000270 0.000001 0.000000 0.000000 -0.488692
    22 -1.123358 -2.195093 -0.278957 -0.933751 0.000000 -0.087266
    23 0.010772 -0.963791 0.000000 -0.610865 0.000000 0.000000
    24 -0.010412 -0.631916 0.000000 -1.213004 0.000000 0.000000
    25 -1.171422 -10.060615 -8.963459 -0.571112 0.351776 0.798773
    26 0.089928 -8.543161 0.000001 0.527139 0.004636 0.030837
    27 0.000000 -0.359713 0.000000 0.000000 0.000000 0.000000
    28 -0.170479 -2.636146 -0.277655 -1.692969 0.000000 0.000000
    29 0.010600 -1.261177 0.000001 -0.253073 0.000000 0.000000
    30 -0.000001 -0.943233 -0.000001 -0.532326 0.000000 0.000000
    31 -0.827563 -2.508973 -0.277656 -1.186834 0.000000 0.000000
    32 0.000000 -1.292971 -0.000001 -0.811554 0.000000 0.000000
    33 0.000000 -0.752465 0.000000 -0.445059 0.000000 0.000000
    34 0.444212 -2.561960 -0.277655 -1.727307 -0.046226 -0.024599
    35 0.021022 -1.208186 0.000000 -0.427606 0.000000 0.000000
    36 0.010597 -0.741866 -0.000001 -0.453786 0.000000 0.000000
    37 1.047445 -2.222819 -0.277655 -1.508123 -0.078971 -0.038609
    38 0.000001 -0.996223 0.000001 -0.863938 0.000000 0.000000
    39 -0.000001 -0.614690 0.000000 -0.523599 0.000000 0.000000
    40 -0.308254 -0.007814 0.307166 -0.145110 -0.159878 -2.467082
    41 1.978379 0.019543 0.000000 -0.091660 -0.050705 0.045957
    42 0.982426 0.003186 0.000000 0.000000 0.000000 0.383991
  time 3
    0 8.106566 3.786769 -8.018272 -0.894604 -1.296490 0.691673
    1 0.000000 -8.563283 -0.000001 0.352914 -0.108358 -0.216082
    2 -0.657808 -3.130249 0.692628 -1.247037 1.437608 -1.233844
    3 0.000000 1.873662 1.027493 0.000000 0.000000 0.000000
    4 0.000000 -3.037148 1.087932 0.430221 0.000000 0.000000
    5 0.000001 -4.895699 1.027491 0.000000 0.000000 0.000000
    6 0.000001 -6.240505 1.163484 0.000000 0.000000 0.000000
    7 0.000000 -5.243233 2.931374 0.000000 0.000000 0.000000
    8 -0.214729 -14.141506 3.399045 0.000000 0.000000 0.000000
    9 -0.003480 -0.404829 0.000000 0.000000 0.000000 0.000000
    10 -0.519309 -2.501155 -0.278957 -1.003564 0.000000 -0.122173
    11 -0.010598 -1.208185 0.000001 -1.090831 0.000000 0.000000
    12 0.000000 -0.763067 0.000000 -1.343903 0.000000 0.000000
    13 0.105982 -2.607134 -0.278957 -0.890118 0.000000 -0.148353
    14 0.000000 -1.250579 0.000000 -1.213004 0.000000 0.000000
    15 0.000000 -0.932634 0.000000 -1.483530 0.000000 0.000000
    16 0.763064 -2.490556 -0.278957 -0.349065 0.000000 0.130900
    17 -0.012322 -1.280917 0.000001 -0.478500 0.000000 0.000000
    18 -0.001697 -0.749371 0.000001 -1.572879 0.000000 0.000000
    19 0.354567 0.016267 0.318134 0.342077 -0.443527 -1.083976
    20 1.887164 0.012877 0.000001 -0.305433 0.000000 -0.401426
    21 1.001874 -0.000270 0.000001 0.000000 0.000000 -0.488692
    22 -1.123358 -2.195093 -0.278957 -0.933751 0.000000 -0.087266
    23 0.010772 -0.963791 0.000000 -0.610865 0.000000 0.000000
    24 -0.010412 -0.631916 0.000000 -1.213004 0.000000 0.000000
    25 -1.183141 -10.134836 -8.943927 -0.572597 0.349118 0.794419
    26 0.089928 -8.543161 0.000001 0.527416 0.005055 0.036458
    27 0.000000 -0.359713 0.000000 0.000000 0.000000 0.000000
    28 -0.170479 -2.636146 -0.277655 -1.692969 0.000000 0.000000
    29 0.010600 -1.261177 0.000001 -0.253073 0.000000 0.000000
    30 -0.000001 -0.943233 -0.000001 -0.532326 0.000000 0.000000
    31 -0.827563 -2.508973 -0.277656 -1.186834 0.000000 0.000000
    32 0.000000 -1.292971 -0.000001 -0.811554 0.000000 0.000000
    33 0.000000 -0.752465 0.000000 -0.445059 0.000000 0.000000
    34 0.444212 -2.561960 -0.277655 -1.727307 -0.046226 -0.024599
    35 0.021022 -1.208186 0.000000 -0.427606 0.000000 0.000000
    36 0.010597 -0.741866 -0.000001 -0.453786 0.000000 0.000000
    37 1.047445 -2.222819 -0.277655 -1.508123 -0.078971 -0.038609
    38 0.000001 -0.996223 0.000001 -0.863938 0.000000 0.000000
    39 -0.000001 -0.614690 0.000000 -0.523599 0.000000 0.000000
    40 -0.308254 -0.007814 0.307166 -0.145110 -0.159878 -2.467082
    41 1.978379 0.019543 0.000000 -0.091660 -0.050705 0.045957
    42 0.982426 0.003186 0.000000 0.000000 0.000000 0.383991
  time 4
    0 8.106566 3.689109 -7.975302 -0.881585 -1.300966 0.678119
    1 0.000000 -8.563283 -0.000001 0.352459 -0.109904 -0.211852
    2 -0.657808 -3.130249 0.692628 -1.247037 1.437608 -1.233844
    3 0.000000 1.873662 1.027493 0.000000 0.000000 0.000000
    4 0.000000 -3.037148 1.087932 0.436918 0.000000 0.000000
    5 0.000001 -4.895699 1.027491 0.000000 0.000000 0.000000
    6 0.000001 -6.240505 1.163484 0.000000 0.000000 0.000000
    7 0.000000 -5.243233 2.931374 0.000000 0.000000 0.000000
    8 -0.214729 -14.141506 3.399045 0.000000 0.000000 0.000000
    9 -0.003480 -0.404829 0.000000 0.000000 0.000000 0.000000
    10 -0.519309 -2.501155 -0.278957 -1.003564 0.000000 -0.122173
    11 -0.010598 -1.208185 0.000001 -1.090831 0.000000 0.000000
    12 0.000000 -0.763067 0.000000 -1.343903 0.000000 0.000000
    13 0.105982 -2.607134 -0.278957 -0.890118 0.000000 -0.148353
    14 0.000000 -1.250579 0.000000 -1.213004 0.000000 0.000000
    15 0.000000 -0.932634 0.000000 -1.483530 0.000000 0.000000
    16 0.763064 -2.490556 -0.278957 -0.349065 0.000000 0.130900
    17 -0.012322 -1.280917 0.000001 -0.480909 0.000000 0.000000
    18 -0.001697 -0.749371 0.000001 -1.588127 0.000000 0.000000
    19 0.354567 0.016267 0.318134 0.342077 -0.443527 -1.083976
    20 1.887164 0.012877 0.000001 -0.305433 0.000000 -0.401426
    21 1.001874 -0.000270 0.000001 0.000000 0.000000 -0.488692
    22 -1.123358 -2.195093 -0.278957 -0.933751 0.000000 -0.087266
    23 0.010772 -0.963791 0.000000 -0.610865 0.000000 0.000000
    24 -0.010412 -0.631916 0.000000 -1.213004 0.000000 0.000000
    25 -1.144078 -10.189525 -8.975178 -0.574952 0.344954 0.787483
    26 0.089928 -8.543161 0.000001 0.527887 0.005691 0.045278
    27 0.000000 -0.359713 0.000000 0.000000 0.000000 0.000000
    28 -0.170479 -2.636146 -0.277655 -1.692969 0.000000 0.000000
    29 0.010600 -1.261177 0.000001 -0.253073 0.000000 0.000000
    30 -0.000001 -0.943233 -0.000001 -0.532326 0.000000 0.000000
    31 -0.827563 -2.508973 -0.277656 -1.186834 0.000000 0.000000
    32 0.000000 -1.292971 -0.000001 -0.811554 0.000000 0.000000
    33 0.000000 -0.752465 0.000000 -0.445059 0.000000 0.000000
    34 0.444212 -2.561960 -0.277655 -1.727307 -0.046226 -0.024599
    35 0.021022 -1.208186 0.000000 -0.427606 0.000000 0.000000
    36 0.010597 -0.741866 -0.000001 -0.453786 0.000000 0.000000
    37 1.047445 -2.222819 -0.277655 -1.508123 -0.078971 -0.038609
    38 0.000001 -0.996223 0.000001 -0.863938 0.000000 0.000000
    39 -0.000001 -0.614690 0.000000 -0.523599 0.000000 0.000000
    40 -0.308254 -0.007814 0.307166 -0.145110 -0.159878 -2.467082
    41 1.978379 0.019543 0.000000 -0.091660 -0.050705 0.045957
    42 0.982426 0.003186 0.000000 0.000000 0.000000 0.383991
  time 5
    0 8.106566 3.610982 -7.944051 -0.864918 -1.306352 0.660982
    1 0.000000 -8.563283 -0.000001 0.351847 -0.111881 -0.206399
    2 -0.657808 -3.130249 0.692628 -1.247037 1.437608 -1.233844
    3 0.000000 1.873662 1.027493 0.000000 0.000000 0.000000
    4 0.000000 -3.037148 1.087932 0.438028 0.000000 0.000000
    5 0.000001 -4.895699 1.027491 0.000000 0.000000 0.000000
    6 0.000001 -6.240505 1.163484 0.000000 0.000000 0.000000
    7 0.000000 -5.243233 2.931374 0.000000 0.000000 0.000000
    8 -0.214729 -14.141506 3.399045 0.000000 0.000000 0.000000
    9 -0.003480 -0.404829 0.000000 0.000000 0.000000 0.000000
    10 -0.519309 -2.501155 -0.278957 -1.003564 0.000000 -0.122173
    11 -0.010598 -1.208185 0.000001 -1.090831 0.000000 0.000000
    12 0.000000 -0.763067 0.000000 -1.343903 0.000000 0.000000
    13 0.105982 -2.607134 -0.278957 -0.890118 0.000000 -0.148353
    14 0.000000 -1.250579 0.000000 -1.213004 0.000000 0.000000
    15 0.000000 -0.932634 0.000000 -1.483530 0.000000 0.000000
    16 0.763064 -2.490556 -0.278957 -0.349065 0.000000 0.130900
    17 -0.012322 -1.280917 0.000001 -0.481316 0.000000 0.000000
    18 -0.001697 -0.749371 0.000001 -1.590683 0.000000 0.000000
    19 0.354567 0.016267 0.318134 0.342077 -0.443527 -1.083976
    20 1.887164 0.012877 0.000001 -0.305433 0.000000 -0.401426
    21 1.001874 -0.000270 0.000001 0.000000 0.000000 -0.488692
    22 -1.123358 -2.195093 -0.278957 -0.933751 0.000000 -0.087266
    23 0.010772 -0.963791 0.000000 -0.610865 0.000000 0.000000
    24 -0.010412 -0.631916 0.000000 -1.213004 0.000000 0.000000
    25 -1.069857 -10.209057 -9.045493 -0.577973 0.339460 0.778481
    26 0.089928 -8.543161 0.000001 0.528497 0.006513 0.056867
    27 0.000000 -0.359713 0.000000 0.000000 0.000000 0.000000
    28 -0.170479 -2.636146 -0.277655 -1.692969 0.000000 0.000000
    29 0.010600 -1.261177 0.000001 -0.253073 0.000000 0.000000
    30 -0.000001 -0.943233 -0.000001 -0.532326 0.000000 0.000000
    31 -0.827563 -2.508973 -0.277656 -1.186834 0.000000 0.000000
    32 0.000000 -1.292971 -0.000001 -0.811554 0.000000 0.000000
    33 0.000000 -0.752465 0.000000 -0.445059 0.000000 0.000000
    34 0.444212 -2.561960 -0.277655 -1.727307 -0.046226 -0.024599
    35 0.021022 -1.208186 0.000000 -0.427606 0.000000 0.000000
    36 0.010597 -0.741866 -0.000001 -0.453786 0.000000 0.000000
    37 1.047445 -2.222819 -0.277655 -1.508123 -0.078971 -0.038609
    38 0.000001 -0.996223 0.000001 -0.863938 0.000000 0.000000
    39 -0.000001 -0.614690 0.000000 -0.523599 0.000000 0.000000
    40 -0.308254 -0.007814 0.307166 -0.145110 -0.159878 -2.467082
    41 1.978379 0.019543 0.000000 -0.091660 -0.050705 0.045957
    42 0.982426 0.003186 0.000000 0.000000 0.000000 0.383991
  time 6
    0 8.106566 3.544574 -7.920613 -0.845962 -1.312209 0.641275
    1 0.000000 -8.563283 -0.000001 0.351152 -0.114134 -0.200227
    2 -0.657808 -3.130249 0.692628 -1.247037 1.437608 -1.233844
    3 0.000000 1.873662 1.027493 0.000000 0.000000 0.000000
    4 0.000000 -3.037148 1.087932 0.430221 0.000000 0.000000
    5 0.000001 -4.895699 1.027491 0.000000 0.000000 0.000000
    6 0.000001 -6.240505 1.163484 0.000000 0.000000 0.000000
    7 0.000000 -5.243233 2.931374 0.000000 0.000000 0.000000
    8 -0.214729 -14.141506 3.399045 0.000000 0.000000 0.000000
    9 -0.003480 -0.404829 0.000000 0.000000 0.000000 0.000000
    10 -0.519309 -2.501155 -0.278957 -1.003564 0.000000 -0.122173
    11 -0.010598 -1.208185 0.000001 -1.090831 0.000000 0.000000
    12 0.000000 -0.763067 0.000000 -1.343903 0.000000 0.000000
    13 0.105982 -2.607134 -0.278957 -0.890118 0.000000 -0.148353
    14 0.000000 -1.250579 0.000000 -1.213004 0.000000 0.000000
    15 0.000000 -0.932634 0.000000 -1.483530 0.000000 0.000000
    16 0.763064 -2.490556 -0.278957 -0.349065 0.000000 0.130900
    17 -0.012322 -1.280917 0.000001 -0.478500 0.000000 0.000000
    18 -0.001697 -0.749371 0.000001 -1.572879 0.000000 0.000000
    19 0.354567 0.016267 0.318134 0.342077 -0.443527 -1.083976
    20 1.887164 0.012877 0.000001 -0.305433 0.000000 -0.401426
    21 1.001874 -0.000270 0.000001 0.000000 0.000000 -0.488692
    22 -1.123358 -2.195093 -0.278957 -0.933751 0.000000 -0.087266
    23 0.010772 -0.963791 0.000000 -0.610865 0.000000 0.000000
    24 -0.010412 -0.631916 0.000000 -1.213004 0.000000 0.000000
    25 -1.011261 -10.209057 -9.131433 -0.581505 0.332726 0.767707
    26 0.089928 -8.543161 0.000001 0.529245 0.007490 0.070805
    27 0.000000 -0.359713 0.000000 0.000000 0.000000 0.000000
    28 -0.170479 -2.636146 -0.277655 -1.692969 0.000000 0.000000
    29 0.010600 -1.261177 0.000001 -0.253073 0.000000 0.000000
    30 -0.000001 -0.943233 -0.000001 -0.532326 0.000000 0.000000
    31 -0.827563 -2.508973 -0.277656 -1.186834 0.000000 0.000000
    32 0.000000 -1.292971 -0.000001 -0.811554 0.000000 0.000000
    33 0.000000 -0.752465 0.000000 -0.445059 0.000000 0.000000
    34 0.444212 -2.561960 -0.277655 -1.727307 -0.046226 -0.024599
    35 0.021022 -1.208186 0.000000 -0.427606 0.000000 0.000000
    36 0.010597 -0.741866 -0.000001 -0.453786 0.000000 0.000000
    37 1.047445 -2.222819 -0.277655 -1.508123 -0.078971 -0.038609
    38 0.000001 -0.996223 0.000001 -0.863938 0.000000 0.000000
    39 -0.000001 -0.614690 0.000000 -0.523599 0.000000 0.000000
    40 -0.308254 -0.007814 0.307166 -0.145110 -0.159878 -2.467082
    41 1.978379 0.019543 0.000000 -0.091660 -0.050705 0.045957
    42 0.982426 0.003186 0.000000 0.000000 0.000000 0.383991
  time 7
    0 8.106566 3.493791 -7.901081 -0.825647 -1.318093 0.620321
    1 0.000000 -8.563283 -0.000001 0.350409 -0.116471 -0.193803
    2 -0.657808 -3.130249 0.692628 -1.247037 1.437608 -1.233844
    3 0.000000 1.873662 1.027493 0.000000 0.000000 0.000000
    4 0.000000 -3.037148 1.087932 0.410128 0.000000 0.000000
    5 0.000001 -4.895699 1.027491 0.000000 0.000000 0.000000
    6 0.000001 -6.240505 1.163484 0.000000 0.000000 0.000000
    7 0.000000 -5.243233 2.931374 0.000000 0.000000 0.000000
    8 -0.214729 -14.141506 3.399045 0.000000 0.000000 0.000000
    9 -0.003480 -0.404829 0.000000 0.000000 0.000000 0.000000
    10 -0.519309 -2.501155 -0.278957 -1.003564 0.000000 -0.122173
    11 -0.010598 -1.208185 0.000001 -1.090831 0.000000 0.000000
    12 0.000000 -0.763067 0.000000 -1.343903 0.000000 0.000000
    13 0.105982 -2.607134 -0.278957 -0.890118 0.000000 -0.148353
    14 0.000000 -1.250579 0.000000 -1.213004 0.000000 0.000000
    15 0.000000 -0.932634 0.000000 -1.483530 0.000000 0.000000
    16 0.763064 -2.490556 -0.278957 -0.349065 0.000000 0.130900
    17 -0.012322 -1.280917 0.000001 -0.471225 0.000000 0.000000
    18 -0.001697 -0.749371 0.000001 -1.527106 0.000000 0.000000
    19 0.354567 0.016267 0.318134 0.342077 -0.443527 -1.083976
    20 1.887164 0.012877 0.000001 -0.305433 0.000000 -0.401426
    21 1.001874 -0.000270 0.000001 0.000000 0.000000 -0.488692
    22 -1.123358 -2.195093 -0.278957 -0.933751 0.000000 -0.087266
    23 0.010772 -0.963791 0.000000 -0.610865 0.000000 0.000000
    24 -0.010412 -0.631916 0.000000 -1.213004 0.000000 0.000000
    25 -1.003448 -10.189525 -9.244718 -0.585447 0.325195 0.755606
    26 0.089928 -8.543161 0.000001 0.530132 0.008607 0.086625
    27 0.000000 -0.359713 0.000000 0.000000 0.000000 0.000000
    28 -0.170479 -2.636146 -0.277655 -1.692969 0.000000 0.000000
    29 0.010600 -1.261177 0.000001 -0.253073 0.000000 0.000000
    30 -0.000001 -0.943233 -0.000001 -0.532326 0.000000 0.000000
    31 -0.827563 -2.508973 -0.277656 -1.186834 0.000000 0.000000
    32 0.000000 -1.292971 -0.000001 -0.811554 0.000000 0.000000
    33 0.000000 -0.752465 0.000000 -0.445059 0.000000 0.000000
    34 0.444212 -2.561960 -0.277655 -1.727307 -0.046226 -0.024599
    35 0.021022 -1.208186 0.000000 -0.427606 0.000000 0.000000
    36 0.010597 -0.741866 -0.000001 -0.453786 0.000000 0.000000
    37 1.047445 -2.222819 -0.277655 -1.508123 -0.078971 -0.038609
    38 0.000001 -0.996223 0.000001 -0.863938 0.000000 0.000000
    39 -0.000001 -0.614690 0.000000 -0.523599 0.000000 0.000000
    40 -0.308254 -0.007814 0.307166 -0.145110 -0.159878 -2.467082
    41 1.978379 0.019543 0.000000 -0.091660 -0.050705 0.045957
    42 0.982426 0.003186 0.000000 0.000000 0.000000 0.383991
  time 8
    0 8.106566 3.454727 -7.881549 -0.805833 -1.323480 0.599757
    1 0.000000 -8.563283 -0.000001 0.349690 -0.118712 -0.187607
    2 -0.657808 -3.130249 0.692628 -1.247037 1.437608 -1.233844
    3 0.000000 1.873662 1.027493 0.000000 0.000000 0.000000
    4 0.000000 -3.037148 1.087932 0.377188 0.000000 0.000000
    5 0.000001 -4.895699 1.027491 0.000000 0.000000 0.000000
    6 0.000001 -6.240505 1.163484 0.000000 0.000000 0.000000
    7 0.000000 -5.243233 2.931374 0.000000 0.000000 0.000000
    8 -0.214729 -14.141506 3.399045 0.000000 0.000000 0.000000
    9 -0.003480 -0.404829 0.000000 0.000000 0.000000 0.000000
    10 -0.519309 -2.501155 -0.278957 -1.003564 0.000000 -0.122173
    11 -0.010598 -1.208185 0.000001 -1.090831 0.000000 0.000000
    12 0.000000 -0.763067 0.000000 -1.343903 0.000000 0.000000
    13 0.105982 -2.607134 -0.278957 -0.890118 0.000000 -0.148353
    14 0.000000 -1.250579 0.000000 -1.213004 0.000000 0.000000
    15 0.000000 -0.932634 0.000000 -1.483530 0.000000 0.000000
    16 0.763064 -2.490556 -0.278957 -0.349065 0.000000 0.130900
    17 -0.012322 -1.280917 0.000001 -0.459301 0.000000 0.000000
    18 -0.001697 -0.749371 0.000001 -1.452116 0.000000 0.000000
    19 0.354567 0.016267 0.318134 0.342077 -0.443527 -1.083976
    20 1.887164 0.012877 0.000001 -0.305433 0.000000 -0.401426
    21 1.001874 -0.000270 0.000001 0.000000 0.000000 -0.488692
    22 -1.123358 -2.195093 -0.278957 -0.933751 0.000000 -0.087266
    23 0.010772 -0.963791 0.000000 -0.610865 0.000000 0.000000
    24 -0.010412 -0.631916 0.000000 -1.213004 0.000000 0.000000
    25 -1.015167 -10.142649 -9.369721 -0.589594 0.316866 0.742324
    26 0.089928 -8.543161 0.000001 0.531101 0.009802 0.103907
    27 0.000000 -0.359713 0.000000 0.000000 0.000000 0.000000
    28 -0.170479 -2.636146 -0.277655 -1.692969 0.000000 0.000000
    29 0.010600 -1.261177 0.000001 -0.253073 0.000000 0.000000
    30 -0.000001 -0.943233 -0.000001 -0.532326 0.000000 0.000000
    31 -0.827563 -2.508973 -0.277656 -1.186834 0.000000 0.000000
    32 0.000000 -1.292971 -0.000001 -0.811554 0.000000 0.000000
    33 0.000000 -0.752465 0.000000 -0.445059 0.000000 0.000000
    34 0.444212 -2.561960 -0.277655 -1.727307 -0.046226 -0.024599
    35 0.021022 -1.208186 0.000000 -0.427606 0.000000 0.000000
    36 0.010597 -0.741866 -0.000001 -0.453786 0.000000 0.000000
    37 1.047445 -2.222819 -0.277655 -1.508123 -0.078971 -0.038609
    38 0.000001 -0.996223 0.000001 -0.863938 0.000000 0.000000
    39 -0.000001 -0.614690 0.000000 -0.523599 0.000000 0.000000
    40 -0.308254 -0.007814 0.307166 -0.145110 -0.159878 -2.467082
    41 1.978379 0.019543 0.000000 -0.091660 -0.050705 0.045957
    42 0.982426 0.003186 0.000000 0.000000 0.000000 0.383991
  time 9
    0 8.106566 3.435195 -7.877643 -0.787950 -1.328038 0.581452
    1 0.000000 -8.563283 -0.000001 0.349031 -0.120714 -0.182130
    2 -0.657808 -3.130249 0.692628 -1.247037 1.437608 -1.233844
    3 0.000000 1.873662 1.027493 0.000000 0.000000 0.000000
    4 0.000000 -3.037148 1.087932 0.334516 0.000000 0.000000
    5 0.000001 -4.895699 1.027491 0.000000 0.000000 0.000000
    6 0.000001 -6.240505 1.163484 0.000000 0.000000 0.000000
    7 0.000000 -5.243233 2.931374 0.000000 0.000000 0.000000
    8 -0.214729 -14.141506 3.399045 0.000000 0.000000 0.000000
    9 -0.003480 -0.404829 0.000000 0.000000 0.000000 0.000000
    10 -0.519309 -2.501155 -0.278957 -1.003564 0.000000 -0.122173
    11 -0.010598 -1.208185 0.000001 -1.090831 0.000000 0.000000
    12 0.000000 -0.763067 0.000000 -1.343903 0.000000 0.000000
    13 0.105982 -2.607134 -0.278957 -0.890118 0.000000 -0.148353
    14 0.000000 -1.250579 0.000000 -1.213004 0.000000 0.000000
    15 0.000000 -0.932634 0.000000 -1.483530 0.000000 0.000000
    16 0.763064 -2.490556 -0.278957 -0.349065 0.000000 0.130900
    17 -0.012322 -1.280917 0.000001 -0.443864 0.000000 0.000000
    18 -0.001697 -0.749371 0.000001 -1.355000 0.000000 0.000000
    19 0.354567 0.016267 0.318134 0.342077 -0.443527 -1.083976
    20 1.887164 0.012877 0.000001 -0.305433 0.000000 -0.401426
    21 1.001874 -0.000270 0.000001 0.000000 0.000000 -0.488692
    22 -1.123358 -2.195093 -0.278957 -0.933751 0.000000 -0.087266
    23 0.010772 -0.963791 0.000000 -0.610865 0.000000 0.000000
    24 -0.010412 -0.631916 0.000000 -1.213004 0.000000 0.000000
    25 -0.991729 -10.084053 -9.463474 -0.593895 0.308006 0.728378
    26 0.089928 -8.543161 0.000001 0.532127 0.011043 0.122219
    27 0.000000 -0.359713 0.000000 0.000000 0.000000 0.000000
    28 -0.170479 -2.636146 -0.277655 -1.692969 0.000000 0.000000
    29 0.010600 -1.261177 0.000001 -0.253073 0.000000 0.000000
    30 -0.000001 -0.943233 -0.000001 -0.532326 0.000000 0.000000
    31 -0.827563 -2.508973 -0.277656 -1.186834 0.000000 0.000000
    32 0.000000 -1.292971 -0.000001 -0.811554 0.000000 0.000000
    33 0.000000 -0.752465 0.000000 -0.445059 0.000000 0.000000
    34 0.444212 -2.561960 -0.277655 -1.727307 -0.046226 -0.024599
    35 0.021022 -1.208186 0.000000 -0.427606 0.000000 0.000000
    36 0.010597 -0.741866 -0.000001 -0.453786 0.000000 0.000000
    37 1.047445 -2.222819 -0.277655 -1.508123 -0.078971 -0.038609
    38 0.000001 -0.996223 0.000001 -0.863938 0.000000 0.000000
    39 -0.000001 -0.614690 0.000000 -0.523599 0.000000 0.000000
    40 -0.308254 -0.007814 0.307166 -0.145110 -0.159878 -2.467082
    41 1.978379 0.019543 0.000000 -0.091660 -0.050705 0.045957
    42 0.982426 0.003186 0.000000 0.000000 0.000000 0.383991
  time 10
    0 8.106566 3.427383 -7.869830 -0.774287 -1.331381 0.567275
    1 0.000000 -8.563283 -0.000001 0.348528 -0.122260 -0.177815
    2 -0.657808 -3.130249 0.692628 -1.247037 1.437608 -1.233844
    3 0.000000 1.873662 1.027493 0.000000 0.000000 0.000000
    4 0.000000 -3.037148 1.087932 0.284372 0.000000 0.000000
    5 0.000001 -4.895699 1.027491 0.000000 0.000000 0.000000
    6 0.000001 -6.240505 1.163484 0.000000 0.000000 0.000000
    7 0.000000 -5.243233 2.931374 0.000000 0.000000 0.000000
    8 -0.214729 -14.141506 3.399045 0.000000 0.000000 0.000000
    9 -0.003480 -0.404829 0.000000 0.000000 0.000000 0.000000
    10 -0.519309 -2.501155 -0.278957 -1.003564 0.000000 -0.122173
    11 -0.010598 -1.208185 0.000001 -1.090831 0.000000 0.000000
    12 0.000000 -0.763067 0.000000 -1.343903 0.000000 0.000000
    13 0.105982 -2.607134 -0.278957 -0.890118 0.000000 -0.148353
    14 0.000000 -1.250579 0.000000 -1.213004 0.000000 0.000000
    15 0.000000 -0.932634 0.000000 -1.483530 0.000000 0.000000
    16 0.763064 -2.490556 -0.278957 -0.349065 0.000000 0.130900
    17 -0.012322 -1.280917 0.000001 -0.425732 0.000000 0.000000
    18 -0.001697 -0.749371 0.000001 -1.240780 0.000000 0.000000
    19 0.354567 0.016267 0.318134 0.342077 -0.443527 -1.083976
    20 1.887164 0.012877 0.000001 -0.305433 0.000000 -0.401426
    21 1.001874 -0.000270 0.000001 0.000000 0.000000 -0.488692
    22 -1.123358 -2.195093 -0.278957 -0.933751 0.000000 -0.087266
    23 0.010772 -0.963791 0.000000 -0.610865 0.000000 0.000000
    24 -0.010412 -0.631916 0.000000 -1.213004 0.000000 0.000000
    25 -0.909695 -10.013738 -9.498632 -0.598195 0.298613 0.714136
    26 0.089928 -8.543161 0.000001 0.533235 0.012300 0.141119
    27 0.000000 -0.359713 0.000000 0.000000 0.000000 0.000000
    28 -0.170479 -2.636146 -0.277655 -1.692969 0.000000 0.000000
    29 0.010600 -1.261177 0.000001 -0.253073 0.000000 0.000000
    30 -0.000001 -0.943233 -0.000001 -0.532326 0.000000 0.000000
    31 -0.827563 -2.508973 -0.277656 -1.186834 0.000000 0.000000
    32 0.000000 -1.292971 -0.000001 -0.811554 0.000000 0.000000
    33 0.000000 -0.752465 0.000000 -0.445059 0.000000 0.000000
    34 0.444212 -2.561960 -0.277655 -1.727307 -0.046226 -0.024599
    35 0.021022 -1.208186 0.000000 -0.427606 0.000000 0.000000
    36 0.010597 -0.741866 -0.000001 -0.453786 0.000000 0.000000
    37 1.047445 -2.222819 -0.277655 -1.508123 -0.078971 -0.038609
    38 0.000001 -0.996223 0.000001 -0.863938 0.000000 0.000000
    39 -0.000001 -0.614690 0.000000 -0.523599 0.000000 0.000000
    40 -0.308254 -0.007814 0.307166 -0.145110 -0.159878 -2.467082
    41 1.978379 0.019543 0.000000 -0.091660 -0.050705 0.045957
    42 0.982426 0.003186 0.000000 0.000000 0.000000 0.383991
  time 11
    0 8.106566 3.403944 -7.807328 -0.767348 -1.333011 0.559953
    1 0.000000 -8.563283 -0.000001 0.348156 -0.123278 -0.174951
    2 -0.657808 -3.130249 0.692628 -1.247037 1.437608 -1.233844
    3 0.000000 1.873662 1.027493 0.000000 0.000000 0.000000
    4 0.000000 -3.037148 1.087932 0.228987 0.000000 0.000000
    5 0.000001 -4.895699 1.027491 0.000000 0.000000 0.000000
    6 0.000001 -6.240505 1.163484 0.000000 0.000000 0.000000
    7 0.000000 -5.243233 2.931374 0.000000 0.000000 0.000000
    8 -0.214729 -14.141506 3.399045 0.000000 0.000000 0.000000
    9 -0.003480 -0.404829 0.000000 0.000000 0.000000 0.000000
    10 -0.519309 -2.501155 -0.278957 -1.003564 0.000000 -0.122173
    11 -0.010598 -1.208185 0.000001 -1.090831 0.000000 0.000000
    12 0.000000 -0.763067 0.000000 -1.343903 0.000000 0.000000
    13 0.105982 -2.607134 -0.278957 -0.890118 0.000000 -0.148353
    14 0.000000 -1.250579 0.000000 -1.213004 0.000000 0.000000
    15 0.000000 -0.932634 0.000000 -1.483530 0.000000 0.000000
    16 0.763064 -2.490556 -0.278957 -0.349065 0.000000 0.130900
    17 -0.012322 -1.280917 0.000001 -0.405694 0.000000 0.000000
    18 -0.001697 -0.749371 0.000001 -1.114721 0.000000 0.000000
    19 0.354567 0.016267 0.318134 0.342077 -0.443527 -1.083976
    20 1.887164 0.012877 0.000001 -0.305433 0.000000 -0.401426
    21 1.001874 -0.000270 0.000001 0.000000 0.000000 -0.488692
    22 -1.123358 -2.195093 -0.278957 -0.933751 0.000000 -0.087266
    23 0.010772 -0.963791 0.000000 -0.610865 0.000000 0.000000
    24 -0.010412 -0.631916 0.000000 -1.213004 0.000000 0.000000
    25 -0.792504 -9.927798 -9.510351 -0.602291 0.289310 0.699821
    26 0.089928 -8.543161 0.000001 0.534399 0.013557 0.160163
    27 0.000000 -0.359713 0.000000 0.000000 0.000000 0.000000
    28 -0.170479 -2.636146 -0.277655 -1.692969 0.000000 0.000000
    29 0.010600 -1.261177 0.000001 -0.253073 0.000000 0.000000
    30 -0.000001 -0.943233 -0.000001 -0.532326 0.000000 0.000000
    31 -0.827563 -2.508973 -0.277656 -1.186834 0.000000 0.000000
    32 0.000000 -1.292971 -0.000001 -0.811554 0.000000 0.000000
    33 0.000000 -0.752465 0.000000 -0.445059 0.000000 0.000000
    34 0.444212 -2.561960 -0.277655 -1.727307 -0.046226 -0.024599
    35 0.021022 -1.208186 0.000000 -0.427606 0.000000 0.000000
    36 0.010597 -0.741866 -0.000001 -0.453786 0.000000 0.000000
    37 1.047445 -2.222819 -0.277655 -1.508123 -0.078971 -0.038609
    38 0.000001 -0.996223 0.000001 -0.863938 0.000000 0.000000
    39 -0.000001 -0.614690 0.000000 -0.523599 0.000000 0.000000
    40 -0.308254 -0.007814 0.307166 -0.145110 -0.159878 -2.467082
    41 1.978379 0.019543 0.000000 -0.091660 -0.050705 0.045957
    42 0.982426 0.003186 0.000000 0.000000 0.000000 0.383991
  time 12
    0 8.106566 3.388319 -7.756545 -0.766418 -1.333232 0.559018
    1 0.000000 -8.563283 -0.000001 0.347940 -0.123950 -0.173141
    2 -0.657808 -3.130249 0.692628 -1.247037 1.437608 -1.233844
    3 0.000000 1.873662 1.027493 0.000000 0.000000 0.000000
    4 0.000000 -3.037148 1.087932 0.170620 0.000000 0.000000
    5 0.000001 -4.895699 1.027491 0.000000 0.000000 0.000000
    6 0.000001 -6.240505 1.163484 0.000000 0.000000 0.000000
    7 0.000000 -5.243233 2.931374 0.000000 0.000000 0.000000
    8 -0.214729 -14.141506 3.399045 0.000000 0.000000 0.000000
    9 -0.003480 -0.404829 0.000000 0.000000 0.000000 0.000000
    10 -0.519309 -2.501155 -0.278957 -1.003564 0.000000 -0.122173
    11 -0.010598 -1.208185 0.000001 -1.090831 0.000000 0.000000
    12 0.000000 -0.763067 0.000000 -1.343903 0.000000 0.000000
    13 0.105982 -2.607134 -0.278957 -0.890118 0.000000 -0.148353
    14 0.000000 -1.250579 0.000000 -1.213004 0.000000 0.000000
    15 0.000000 -0.932634 0.000000 -1.483530 0.000000 0.000000
    16 0.763064 -2.490556 -0.278957 -0.349065 0.000000 0.130900
    17 -0.012322 -1.280917 0.000001 -0.384589 0.000000 0.000000
    18 -0.001697 -0.749371 0.000001 -0.981845 0.000000 0.000000
    19 0.354567 0.016267 0.318134 0.342077 -0.443527 -1.083976
    20 1.887164 0.012877 0.000001 -0.305433 0.000000 -0.401426
    21 1.001874 -0.000270 0.000001 0.000000 0.000000 -0.488692
    22 -1.123358 -2.195093 -0.278957 -0.933751 0.000000 -0.087266
    23 0.010772 -0.963791 0.000000 -0.610865 0.000000 0.000000
    24 -0.010412 -0.631916 0.000000 -1.213004 0.000000 0.000000
    25 -0.679220 -9.853577 -9.510351 -0.606233 0.280007 0.685801
    26 0.089928 -8.543161 0.000001 0.535535 0.014767 0.178906
    27 0.000000 -0.359713 0.000000 0.000000 0.000000 0.000000
    28 -0.170479 -2.636146 -0.277655 -1.692969 0.000000 0.000000
    29 0.010600 -1.261177 0.000001 -0.253073 0.000000 0.000000
    30 -0.000001 -0.943233 -0.000001 -0.532326 0.000000 0.000000
    31 -0.827563 -2.508973 -0.277656 -1.186834 0.000000 0.000000
    32 0.000000 -1.292971 -0.000001 -0.811554 0.000000 0.000000
    33 0.000000 -0.752465 0.000000 -0.445059 0.000000 0.000000
    34 0.444212 -2.561960 -0.277655 -1.727307 -0.046226 -0.024599
    35 0.021022 -1.208186 0.000000 -0.427606 0.000000 0.000000
    36 0.010597 -0.741866 -0.000001 -0.453786 0.000000 0.000000
    37 1.047445 -2.222819 -0.277655 -1.508123 -0.078971 -0.038609
    38 0.000001 -0.996223 0.000001 -0.863938 0.000000 0.000000
    39 -0.000001 -0.614690 0.000000 -0.523599 0.000000 0.000000
    40 -0.308254 -0.007814 0.307166 -0.145110 -0.159878 -2.467082
    41 1.978379 0.019543 0.000000 -0.091660 -0.050705 0.045957
    42 0.982426 0.003186 0.000000 0.000000 0.000000 0.383991
  time 13
    0 8.106566 3.376600 -7.725294 -0.769065 -1.332596 0.561823
    1 0.000000 -8.563283 -0.000001 0.347797 -0.124369 -0.171955
    2 -0.657808 -3.130249 0.692628 -1.247037 1.437608 -1.233844
    3 0.000000 1.873662 1.027493 0.000000 0.000000 0.000000
    4 0.000000 -3.037148 1.087932 0.111505 0.000000 0.000000
    5 0.000001 -4.895699 1.027491 0.000000 0.000000 0.000000
    6 0.000001 -6.240505 1.163484 0.000000 0.000000 0.000000
    7 0.000000 -5.243233 2.931374 0.000000 0.000000 0.000000
    8 -0.214729 -14.141506 3.399045 0.000000 0.000000 0.000000
    9 -0.003480 -0.404829 0.000000 0.000000 0.000000 0.000000
    10 -0.519309 -2.501155 -0.278957 -1.003564 0.000000 -0.122173
    11 -0.010598 -1.208185 0.000001 -1.090831 0.000000 0.000000
    12 0.000000 -0.763067 0.000000 -1.343903 0.000000 0.000000
    13 0.105982 -2.607134 -0.278957 -0.890118 0.000000 -0.148353
    14 0.000000 -1.250579 0.000000 -1.213004 0.000000 0.000000
    15 0.000000 -0.932634 0.000000 -1.483530 0.000000 0.000000
    16 0.763064 -2.490556 -0.278957 -0.349065 0.000000 0.130900
    17 -0.012322 -1.280917 0.000001 -0.363208 0.000000 0.000000
    18 -0.001697 -0.749371 0.000001 -0.847234 0.000000 0.000000
    19 0.354567 0.016267 0.318134 0.342077 -0.443527 -1.083976
    20 1.887164 0.012877 0.000001 -0.305433 0.000000 -0.401426
    21 1.001874 -0.000270 0.000001 0.000000 0.000000 -0.488692
    22 -1.123358 -2.195093 -0.278957 -0.933751 0.000000 -0.087266
    23 0.010772 -0.963791 0.000000 -0.610865 0.000000 0.000000
    24 -0.010412 -0.631916 0.000000 -1.213004 0.000000 0.000000
    25 -0.550309 -9.787169 -9.498632 -0.609868 0.271057 0.672372
    26 0.089928 -8.543161 0.000001 0.536671 0.015915 0.196931
    27 0.000000 -0.359713 0.000000 0.000000 0.000000 0.000000
    28 -0.170479 -2.636146 -0.277655 -1.692969 0.000000 0.000000
    29 0.010600 -1.261177 0.000001 -0.253073 0.000000 0.000000
    30 -0.000001 -0.943233 -0.000001 -0.532326 0.000000 0.000000
    31 -0.827563 -2.508973 -0.277656 -1.186834 0.000000 0.000000
    32 0.000000 -1.292971 -0.000001 -0.811554 0.000000 0.000000
    33 0.000000 -0.752465 0.000000 -0.445059 0.000000 0.000000
    34 0.444212 -2.561960 -0.277655 -1.727307 -0.046226 -0.024599
    35 0.021022 -1.208186 0.000000 -0.427606 0.000000 0.000000
    36 0.010597 -0.741866 -0.000001 -0.453786 0.000000 0.000000
    37 1.047445 -2.222819 -0.277655 -1.508123 -0.078971 -0.038609
    38 0.000001 -0.996223 0.000001 -0.863938 0.000000 0.000000
    39 -0.000001 -0.614690 0.000000 -0.523599 0.000000 0.000000
    40 -0.308254 -0.007814 0.307166 -0.145110 -0.159878 -2.467082
    41 1.978379 0.019543 0.000000 -0.091660 -0.050705 0.045957
    42 0.982426 0.003186 0.000000 0.000000 0.000000 0.383991
  time 14
    0 8.106566 3.368787 -7.701856 -0.772570 -1.331768 0.565484
    1 0.000000 -8.563283 -0.000001 0.347665 -0.124753 -0.170900
    2 -0.657808 -3.130249 0.692628 -1.247037 1.437608 -1.233844
    3 0.000000 1.873662 1.027493 0.000000 0.000000 0.000000
    4 0.000000 -3.037148 1.087932 0.053874 0.000000 0.000000
    5 0.000001 -4.895699 1.027491 0.000000 0.000000 0.000000
    6 0.000001 -6.240505 1.163484 0.000000 0.000000 0.000000
    7 0.000000 -5.243233 2.931374 0.000000 0.000000 0.000000
    8 -0.214729 -14.141506 3.399045 0.000000 0.000000 0.000000
    9 -0.003480 -0.404829 0.000000 0.000000 0.000000 0.000000
    10 -0.519309 -2.501155 -0.278957 -1.003564 0.000000 -0.122173
    11 -0.010598 -1.208185 0.000001 -1.090831 0.000000 0.000000
    12 0.000000 -0.763067 0.000000 -1.343903 0.000000 0.000000
    13 0.105982 -2.607134 -0.278957 -0.890118 0.000000 -0.148353
    14 0.000000 -1.250579 0.000000 -1.213004 0.000000 0.000000
    15 0.000000 -0.932634 0.000000 -1.483530 0.000000 0.000000
    16 0.763064 -2.490556 -0.278957 -0.349065 0.000000 0.130900
    17 -0.012322 -1.280917 0.000001 -0.342379 0.000000 0.000000
    18 -0.001697 -0.749371 0.000001 -0.716032 0.000000 0.000000
    19 0.354567 0.016267 0.318134 0.342077 -0.443527 -1.083976
    20 1.887164 0.012877 0.000001 -0.305433 0.000000 -0.401426
    21 1.001874 -0.000270 0.000001 0.000000 0.000000 -0.488692
    22 -1.123358 -2.195093 -0.278957 -0.933751 0.000000 -0.087266
    23 0.010772 -0.963791 0.000000 -0.610865 0.000000 0.000000
    24 -0.010412 -0.631916 0.000000 -1.213004 0.000000 0.000000
    25 -0.425306 -9.724667 -9.475193 -0.613196 0.262640 0.659901
    26 0.089928 -8.543161 0.000001 0.537724 0.016970 0.213794
    27 0.000000 -0.359713 0.000000 0.000000 0.000000 0.000000
    28 -0.170479 -2.636146 -0.277655 -1.692969 0.000000 0.000000
    29 0.010600 -1.261177 0.000001 -0.253073 0.000000 0.000000
    30 -0.000001 -0.943233 -0.000001 -0.532326 0.000000 0.000000
    31 -0.827563 -2.508973 -0.277656 -1.186834 0.000000 0.000000
    32 0.000000 -1.292971 -0.000001 -0.811554 0.000000 0.000000
    33 0.000000 -0.752465 0.000000 -0.445059 0.000000 0.000000
    34 0.444212 -2.561960 -0.277655 -1.727307 -0.046226 -0.024599
    35 0.021022 -1.208186 0.000000 -0.427606 0.000000 0.000000
    36 0.010597 -0.741866 -0.000001 -0.453786 0.000000 0.000000
    37 1.047445 -2.222819 -0.277655 -1.508123 -0.078971 -0.038609
    38 0.000001 -0.996223 0.000001 -0.863938 0.000000 0.000000
    39 -0.000001 -0.614690 0.000000 -0.523599 0.000000 0.000000
    40 -0.308254 -0.007814 0.307166 -0.145110 -0.159878 -2.467082
    41 1.978379 0.019543 0.000000 -0.091660 -0.050705 0.045957
    42 0.982426 0.003186 0.000000 0.000000 0.000000 0.383991
  time 15
    0 8.106566 3.364881 -7.694043 -0.774287 -1.331381 0.567275
    1 0.000000 -8.563283 -0.000001 0.347509 -0.125220 -0.169570
    2 -0.657808 -3.130249 0.692628 -1.247037 1.437608 -1.233844
    3 0.000000 1.873662 1.027493 0.000000 0.000000 0.000000
    4 0.000000 -3.037148 1.087932 0.000000 0.000000 0.000000
    5 0.000001 -4.895699 1.027491 0.000000 0.000000 0.000000
    6 0.000001 -6.240505 1.163484 0.000000 0.000000 0.000000
    7 0.000000 -5.243233 2.931374 0.000000 0.000000 0.000000
    8 -0.214729 -14.141506 3.399045 0.000000 0.000000 0.000000
    9 -0.003480 -0.404829 0.000000 0.000000 0.000000 0.000000
    10 -0.519309 -2.501155 -0.278957 -1.003564 0.000000 -0.122173
    11 -0.010598 -1.208185 0.000001 -1.090831 0.000000 0.000000
    12 0.000000 -0.763067 0.000000 -1.343903 0.000000 0.000000
    13 0.105982 -2.607134 -0.278957 -0.890118 0.000000 -0.148353
    14 0.000000 -1.250579 0.000000 -1.213004 0.000000 0.000000
    15 0.000000 -0.932634 0.000000 -1.483530 0.000000 0.000000
    16 0.763064 -2.490556 -0.278957 -0.349065 0.000000 0.130900
    17 -0.012322 -1.280917 0.000001 -0.322892 0.000000 0.000000
    18 -0.001697 -0.749371 0.000001 -0.593412 0.000000 0.000000
    19 0.354567 0.016267 0.318134 0.342077 -0.443527 -1.083976
    20 1.887164 0.012877 0.000001 -0.305433 0.000000 -0.401426
    21 1.001874 -0.000270 0.000001 0.000000 0.000000 -0.488692
    22 -1.123358 -2.195093 -0.278957 -0.933751 0.000000 -0.087266
    23 0.010772 -0.963791 0.000000 -0.610865 0.000000 0.000000
    24 -0.010412 -0.631916 0.000000 -1.213004 0.000000 0.000000
    25 -0.370616 -9.697322 -9.463474 -0.616063 0.255020 0.648685
    26 0.089928 -8.543161 0.000001 0.538694 0.017885 0.229038
    27 0.000000 -0.359713 0.000000 0.000000 0.000000 0.000000
    28 -0.170479 -2.636146 -0.277655 -1.692969 0.000000 0.000000
    29 0.010600 -1.261177 0.000001 -0.253073 0.000000 0.000000
    30 -0.000001 -0.943233 -0.000001 -0.532326 0.000000 0.000000
    31 -0.827563 -2.508973 -0.277656 -1.186834 0.000000 0.000000
    32 0.000000 -1.292971 -0.000001 -0.811554 0.000000 0.000000
    33 0.000000 -0.752465 0.000000 -0.445059 0.000000 0.000000
    34 0.444212 -2.561960 -0.277655 -1.727307 -0.046226 -0.024599
    35 0.021022 -1.208186 0.000000 -0.427606 0.000000 0.000000
    36 0.010597 -0.741866 -0.000001 -0.453786 0.000000 0.000000
    37 1.047445 -2.222819 -0.277655 -1.508123 -0.078971 -0.038609
    38 0.000001 -0.996223 0.000001 -0.863938 0.000000 0.000000
    39 -0.000001 -0.614690 0.000000 -0.523599 0.000000 0.000000
    40 -0.308254 -0.007814 0.307166 -0.145110 -0.159878 -2.467082
    41 1.978379 0.019543 0.000000 -0.091660 -0.050705 0.045957
    42 0.982426 0.003186 0.000000 0.000000 0.000000 0.383991
end
