// Created by Crowbar 0.49.0.0

$modelname "weapons/tfa_cso/c_plasmagun_v6.mdl"

$Include "csonline_gmod.qci"

$bodygroup "studio"
{
	studio "v_plasmagun_d3a3_v_ref_parta"
}
$bodygroup "studio"
{
	studio "v_plasmagun_d3a3_v_ref_partb"
}

$CDMaterials "models\weapons\tfa_cso\plasmagun_v6\"

$attachment 0 "Bone03" 23 0 0

$definebone "root" "" 0.001265 -0.569176 -20.601572 0.000000 0.000000 0.000000 0.000000 0.000000 0.000000 -0.000000 0.000000 0.000000
$definebone "Bone01" "root" 9.310103 -5.299614 -12.557959 -0.012834 -89.771431 179.846260 0.000000 -0.000001 -0.000004 0.000000 0.000000 -0.000000
$definebone "Bone_Lefthand" "Bone01" -0.071921 -8.498736 -0.104137 16.477753 0.853593 -1.435030 0.000000 0.000000 0.000000 0.000002 0.000000 -0.000000
$definebone "Dummy02" "Bone_Lefthand" 3.592305 2.239758 1.894352 10.319702 -92.970917 -175.764757 -0.000001 0.000000 0.000000 -0.000000 -0.000001 -0.000002
$definebone "Bone03" "Dummy02" 0.000000 0.057031 0.000000 -0.000000 -0.000001 -0.000002 0.000001 -0.000000 0.000000 -0.000000 -0.000001 -0.000002
$definebone "Bone25" "Bone03" 3.008894 -2.887660 -0.000008 -0.000002 -89.999983 0.000058 0.000000 0.000001 0.000000 -0.000003 0.000000 0.000002
$definebone "Bone20" "Bone03" 6.748113 1.709079 -0.000004 0.000002 89.999983 0.000000 0.000000 0.000000 -0.000004 0.000002 0.000000 0.000000
$definebone "Bone49" "Bone03" 9.342647 -0.766770 0.000156 0.000033 -90.000017 -179.999939 0.000000 0.000000 0.000000 0.000003 -0.000000 0.000000
$definebone "Bone47" "Bone49" 0.000001 0.601099 -0.000004 -0.000003 -179.999966 0.000057 0.000000 0.000000 0.000004 -0.000002 0.000000 0.000000
$definebone "Bone08" "Bone47" 0.805967 0.238405 0.582920 -0.000057 -90.000038 -54.785648 0.000000 0.000000 0.000000 -0.000000 0.000000 0.000002
$definebone "Bone24" "Bone47" -1.002301 0.267351 0.000160 -0.000057 -89.999983 0.000003 0.000000 -0.000000 0.000000 -0.000000 0.000000 0.000003
$definebone "Bone34" "Bone47" -0.311293 0.267349 0.952206 -0.000057 -89.999983 -72.141572 0.000000 -0.000004 0.000000 0.000001 0.000001 -0.000001
$definebone "Bone08(mirrored)" "Bone47" 0.805966 0.238405 -0.589291 -0.000038 -90.000017 -125.214349 0.000000 0.000000 0.000000 0.000001 -0.000000 0.000002
$definebone "Bone34(mirrored)" "Bone47" -0.311295 0.267351 -0.966782 -0.000038 -90.000017 -107.858428 0.000000 0.000000 0.000000 -0.000000 -0.000000 -0.000002
$definebone "Dummy05" "Bone47" 0.000000 -2.260990 0.000004 -0.000000 -89.999983 -179.999857 0.000000 -0.000000 -0.000004 -0.000001 0.000000 0.000002
$definebone "Bone26" "Dummy05" 0.000000 -0.000000 -0.000004 -0.000002 89.999928 -179.999966 0.000000 0.000000 0.000000 0.000002 0.000000 0.000000
$definebone "Dummy06" "Bone47" -9.999426 -2.340891 -0.071636 0.000037 -90.000017 179.999898 -0.000002 0.000000 -0.000004 0.000001 -0.000001 0.000002
$definebone "Bone59" "Dummy06" -0.000002 0.000002 -0.000004 -0.000003 89.999928 -179.999966 0.000001 0.000000 -0.000004 0.000002 -0.000001 -0.000001
$definebone "Bone42" "Bone03" 14.343728 0.011655 0.000160 -0.000039 -90.000017 -179.999939 0.000000 0.000000 0.000000 0.000004 -0.000001 0.000001
$definebone "Bone12" "Bone03" 15.487538 2.541221 0.000000 0.000002 89.999983 0.000000 -0.000000 0.000000 0.000000 0.000002 0.000000 0.000000
$definebone "Bone12(mirrored)" "Bone03" 6.480563 -0.766773 0.000153 53.663605 -90.000024 -90.000079 0.000000 0.000000 0.000000 0.000001 -0.000002 -0.000001
$definebone "Bone02" "Bone03" 6.480563 -0.766773 0.000153 -53.663342 -89.999976 -90.000038 0.000000 -0.000002 0.000000 -0.000001 -0.000001 0.000000
$definebone "Bone02(mirrored)" "Bone03" 6.480563 -0.766773 0.000153 -56.171811 89.999983 90.000038 0.000000 -0.000002 0.000000 -0.000001 0.000002 0.000001
$definebone "Bone02(mirrored)(mirrored)" "Bone03" 6.480563 -0.766773 0.000153 56.171555 90.000024 90.000072 0.000000 0.000000 0.000002 0.000001 0.000000 0.000000
$definebone "Bone30" "Dummy05" 0.000000 0.000001 -0.000004 -0.000001 0.000000 0.000002 0.000000 -0.000000 -0.000004 -0.000001 0.000000 0.000002
$definebone "Dummy03" "Bone30" 0.455584 0.047455 -0.010323 89.999983 -0.000286 0.000000 -0.000004 0.000000 0.000000 -0.000000 -0.000002 0.000000
$definebone "Bone16" "Dummy03" -0.000004 0.000000 0.000000 -0.000000 134.999988 -0.000001 0.000000 -0.000002 0.000000 -0.000000 0.000005 -0.000001
$definebone "Bone46" "Dummy03" -0.000004 0.000000 0.000004 0.000001 -134.999988 -0.000000 0.000000 0.000000 0.000000 0.000001 -0.000004 -0.000000
$definebone "Bone48" "Dummy03" -0.000004 0.000000 0.000000 -0.000000 -44.999988 0.000001 -0.000002 0.000000 0.000000 -0.000000 0.000005 0.000001
$definebone "Bone38" "Dummy03" -0.000004 0.000000 0.000000 -0.000001 45.000046 0.000000 0.000002 0.000000 0.000000 -0.000001 -0.000004 0.000000
$definebone "Dummy04" "Bone30" -1.130495 0.010263 -0.010326 89.999983 -0.000286 0.000000 0.000000 0.000000 0.000002 -0.000000 -0.000002 0.000000
$definebone "Bone51" "Dummy04" 0.000000 0.000000 0.000002 -0.000058 135.000029 -0.000001 0.000000 0.000002 0.000000 -0.000000 0.000005 0.000001
$definebone "Bone55" "Dummy04" 0.000000 0.000001 0.000002 0.000001 -134.999988 0.000057 0.000000 0.000002 0.000000 0.000002 -0.000003 -0.000000
$definebone "Bone57" "Dummy04" 0.000000 0.000000 0.000004 -0.000000 -44.999988 0.000001 0.000000 -0.000002 0.000002 -0.000000 0.000005 0.000001
$definebone "Bone53" "Dummy04" 0.000004 0.000000 0.000000 -0.000001 45.000046 0.000000 0.000000 0.000000 0.000002 -0.000001 -0.000004 0.000000
$definebone "Bone58" "Dummy06" -0.000002 0.000002 -0.000004 0.000001 -0.000001 0.000002 -0.000002 0.000000 0.000000 0.000001 -0.000001 0.000002

$sequence "idle1" {
	"v_plasmagun_d3a3_anims\idle1"
	{ event 5004 0 "PlasmaGun.Idle" }
	fps 30
	activity "ACT_VM_IDLE" 1
	snap
	loop
}
$sequence "reload" {
	"v_plasmagun_d3a3_anims\reload"
	{ event 5004 10 "PlasmaGun.ClipOut" }
	{ event 5004 45 "PlasmaGun.ClipIn1" }
	{ event 5004 72 "PlasmaGun.ClipIn2" }
	fps 30
	activity "ACT_VM_RELOAD" 1
	snap
}
$sequence "draw" {
	"v_plasmagun_d3a3_anims\draw"
	{ event 5004 3 "PlasmaGun.Draw" }
	fps 30
	activity "ACT_VM_DRAW" 1
	snap
}
$sequence "shoot1" {
	"v_plasmagun_d3a3_anims\shoot1"
	{ event 5001 0 "#I61 S0.11 R2 F15 P120 T0.5 A1 L0.1 O0" }
	fps 30
	activity "ACT_VM_PRIMARYATTACK" 1
	snap
}
$sequence "shoot2" {
	"v_plasmagun_d3a3_anims\shoot2"
	{ event 5001 0 "#I61 S0.11 R2 F15 P120 T0.5 A1 L0.1 O0" }
	fps 30
	activity "ACT_VM_PRIMARYATTACK" 1
	snap
}
$sequence "shoot3" {
	"v_plasmagun_d3a3_anims\shoot3"
	{ event 5001 0 "#I61 S0.11 R2 F15 P120 T0.5 A1 L0.1 O0" }
	fps 30
	activity "ACT_VM_PRIMARYATTACK" 1
	snap
}
