// Created by Crowbar 0.68

$modelname "weapons/tfa_cso/thanatos3_knife.mdl"

$bodygroup "studio"
{
	studio "thanatos3_knife"
}

$collisionmodel "thanatos3_knife.smd"
{
	$mass 9
}

$cdmaterials "models/weapons/tfa_cso/thanatos_3"

$sequence "idle" {
	"thanatos3_knife_anims\idle"
	fps 30
	loop
}
