// Created by Crowbar 0.34.0.0

$ModelName "weapons/tfa_cso/w_ak47wg.mdl"

$BodyGroup "studio"
{
	studio "v_ak47_f_ak47_template"
}

$collisionmodel "v_ak47_f_ak47_template.smd"
{
	$mass 9
}

$CDMaterials "models\weapons\tfa_cso\ak47wg\"

$attachment "0" "root" -0.05 -11.30 -0.15 rotate -0 0 0

$Sequence "idle" {
	"anims\idle.smd"
	fps 30
}