// Created by Crowbar 0.49.0.0

$modelname "weapons/tfa_cso/c_v2rocket.mdl"

$Include "csonline_gmod.qci"

$bodygroup "weapon"
{
	studio "v_blockar2_1"
}
$bodygroup "weapon"
{
	studio "v_blockar2_2"
}

$CDMaterials "models\weapons\tfa_cso\v2rocket\"

$attachment 0 "Bone02" 0 0 0

$definebone "root" "" -0.349714 1.166272 0.203512 0.000000 0.000000 0.000000 0.000000 0.000000 0.000000 -0.000000 0.000000 0.000000
$definebone "Bone01" "root" 16.336895 -1.112619 -9.024385 -85.585434 117.394670 -154.798398 0.000000 0.000000 0.000000 0.000000 -0.000000 0.000000
$definebone "Bone_Lefthand" "Bone01" -0.071918 -8.498728 -0.104136 4.073902 -14.345373 -0.733443 0.000000 -0.000000 -0.000001 -0.000001 0.000000 0.000002
$definebone "Bone08" "Bone_Lefthand" 4.238647 -4.266517 0.498796 7.118197 -88.026373 -175.659996 0.000000 0.000000 0.000000 0.000003 0.000000 0.000000
$definebone "Dummy02" "Bone08" 2.319580 -1.456084 -0.000001 0.000001 -89.999983 -0.000003 0.000000 0.000000 0.000000 0.000001 -0.000001 -0.000003
$definebone "Bone42" "Dummy02" 1.416250 -0.000001 -0.000001 -0.000000 10.040108 -0.000003 0.000000 0.000000 0.000001 -0.000000 -0.000002 -0.000003
$definebone "Dummy01" "Bone42" 0.591962 -4.172408 -0.000001 0.000002 79.609045 0.000000 0.000000 0.000000 0.000000 0.000002 0.000001 0.000000
$definebone "Bone02" "Dummy01" 0.000000 0.000000 0.000000 0.000002 0.000001 0.000000 0.000000 0.000000 0.000000 0.000002 0.000001 0.000000
$definebone "Bone24" "Bone08" 4.989941 2.565243 -2.253418 -0.000056 -90.000099 -0.000060 0.000000 0.000000 0.000000 0.000001 0.000000 -0.000003
$definebone "Bone16" "Bone08" 16.804588 2.565286 -2.253423 -0.000056 -90.000099 -0.000060 -0.000000 0.000000 0.000000 0.000001 0.000000 -0.000003
$definebone "Dummy03" "Bone08" 8.830292 -0.400003 -2.170231 0.000001 -89.999983 -0.000003 0.000000 0.000000 0.000000 0.000001 -0.000001 -0.000003
$definebone "Bone47" "Dummy03" 0.000000 0.000000 0.000000 0.000001 -0.000001 -0.000003 0.000000 0.000000 0.000000 0.000001 -0.000001 -0.000003
$definebone "Bone26" "Bone08" 1.430790 2.565282 -2.253420 -0.000056 -90.000099 -0.000060 0.000000 0.000000 0.000000 0.000001 0.000000 -0.000003

$sequence "idle1" {
	"v_blockar2_anims\idle1"
	{ event 5004 1 "V2ROCKET.Idle" }
	fps 30
	loop
	activity "ACT_VM_IDLE" 1
	snap
}
$sequence "idle2" {
	"v_blockar2_anims\idle2"
	fps 30
	loop
	activity "ACT_VM_IDLE_EMPTY" 1
	snap
}
$sequence "shoot_start" {
	"v_blockar2_anims\shoot_start"
	{ event 5004 1 "V2ROCKET.Fire_Start" }
	fps 30
}
$sequence "shoot_end" {
	"v_blockar2_anims\shoot_end"
	{ event 5004 1 "V2ROCKET.Fire_End" }
	fps 30
	activity "ACT_VM_PRIMARYATTACK" 1
	snap
}
$sequence "change1_1" {
	"v_blockar2_anims\change1_1"
	{ event 5004 8 "V2ROCKET.ChangeA" }
	fps 30
}
$sequence "change1_2" {
	"v_blockar2_anims\change1_2"
	{ event 5004 8 "V2ROCKET.ChangeA" }
	fps 30
}
$sequence "change2_1" {
	"v_blockar2_anims\change2_1"
	{ event 5004 1 "V2ROCKET.ChangeB" }
	fps 30
	activity "ACT_VM_DRAW" 1
	snap
}
$sequence "change2_2" {
	"v_blockar2_anims\change2_2"
	{ event 5004 17 "V2ROCKET.ChangeB_Empty" }
	fps 30
	activity "ACT_VM_DRAW_EMPTY" 1
	snap
}
$sequence "reload" {
	"v_blockar2_anims\reload"
	{ event 5004 17 "V2ROCKET.Reload" }
	fps 30
	activity "ACT_VM_RELOAD" 1
	snap
}
$sequence "draw1" {
	"v_blockar2_anims\draw1"
	{ event 5004 1 "V2ROCKET.Idle" }
	fps 30
	activity "ACT_VM_DRAW" 1
	snap
}
$sequence "draw2" {
	"v_blockar2_anims\draw2"
	fps 30
	activity "ACT_VM_DRAW_EMPTY" 1
	snap
}
