// Created by Crowbar 0.49.0.0

$modelname "weapons/tfa_cso/c_python.mdl"

$Include "csonline_gmod.qci"

$bodygroup "weapon"
{
	studio "v_python"
}

$CDMaterials "models\weapons\tfa_cso\python\"

$attachment 0 "colt_root" 1.483 0 6.305 rotate -90 0 0
//$attachment 1 "colt_root" -1000000 0 -50

$definebone "colt_root" "" 0.000000 0.000000 0.000000 -89.999983 89.999983 0.000000 0.000000 0.000000 0.000000 -0.000000 0.000000 0.000000
$definebone "line" "colt_root" 0.236711 0.089539 1.555147 -0.000036 -90.000017 -90.000017 0.000000 0.000000 0.000000 -0.000000 -0.000000 0.000000
$definebone "megazine" "line" 0.110988 1.681015 0.893471 0.000000 0.000057 0.000000 0.000000 0.000000 0.000000 0.000000 -0.000000 0.000000
$definebone "colt_bullets" "megazine" 0.000000 0.000000 -0.000001 0.000000 -0.000000 0.000000 0.000000 0.000000 0.000000 0.000000 -0.000000 0.000000
$definebone "bullets01" "colt_bullets" -0.411436 -0.396761 0.222030 0.000115 -89.999928 0.000057 0.000000 0.000000 0.000000 -0.000000 -0.000000 -0.000000
$definebone "bullets02" "colt_bullets" -0.411436 -0.396760 -0.225242 0.000115 -89.999928 0.000057 0.000000 0.000000 0.000000 -0.000000 -0.000000 -0.000000
$definebone "bullets03" "colt_bullets" -0.030282 -0.396760 -0.446430 0.000115 -89.999928 0.000057 0.000000 0.000000 0.000000 -0.000000 -0.000000 -0.000000
$definebone "bullets04" "colt_bullets" 0.355694 -0.396760 -0.224889 0.000115 -89.999928 0.000057 0.000000 0.000000 0.000000 -0.000000 -0.000000 -0.000000
$definebone "bullets05" "colt_bullets" 0.355362 -0.396761 0.219824 0.000115 -89.999928 0.000057 0.000000 0.000000 0.000000 -0.000000 -0.000000 -0.000000
$definebone "bullets06" "colt_bullets" -0.028396 -0.396761 0.440955 0.000115 -89.999928 0.000057 0.000000 -0.000000 0.000000 -0.000000 -0.000000 -0.000000
$definebone "reload" "colt_root" 1.060922 -0.000001 -0.686406 -0.000000 -89.999983 -89.999983 0.000000 0.000000 0.000000 -0.000000 0.000000 -0.000000
$definebone "triger" "colt_root" 0.143420 0.000000 -0.076547 -0.000057 -89.999983 -89.999983 0.000000 0.000000 0.000000 -0.000000 -0.000000 -0.000000

$sequence "idle1" {
	"v_python_anims\idle1"
	fps 30
	loop
	activity "ACT_VM_IDLE" 1
	snap
}
$sequence "shoot1" {
	"v_python_anims\shoot1"
	{ event 5001 0 "21" }
	fps 30
	activity "ACT_VM_PRIMARYATTACK" 1
	snap
}
$sequence "shoot2" {
	"v_python_anims\shoot2"
	{ event 5001 0 "21" }
	fps 30
	activity "ACT_VM_PRIMARYATTACK" 2
	snap
}
$sequence "shoot_empty" {
	"v_python_anims\shoot_empty"
	fps 30
}
$sequence "reload" {
	"v_python_anims\reload"
	{ event 5004 5 "Python.ClipOut" }
	{ event 5004 39 "Python.ClipIn" }
	fps 30
	activity "ACT_VM_RELOAD" 1
	snap
}
$sequence "draw" {
	"v_python_anims\draw"
	{ event 5004 5 "Python.Draw" }
	fps 30
	activity "ACT_VM_DRAW" 1
	snap
}
