version 1
nodes
  0 "Bone01" -1
  1 "Bone_Lefthand" 0
  2 "Bone02" 1
  3 "Bone 04" 1
  4 "Bone13" 3
  5 "Bone14" 4
  6 "Bone15" 5
  7 "Bone17" 3
  8 "Bone18" 7
  9 "Bone19" 8
  10 "Bone21" 3
  11 "Bone22" 10
  12 "Bone23" 11
  13 "Bone05" 3
  14 "Bone06" 13
  15 "Bone07" 14
  16 "Bone09" 3
  17 "Bone10" 16
  18 "Bone11" 17
  19 "Bone04" -1
  20 "Bone_Righthand" 19
  21 "Bone26" 20
  22 "Bone35" 21
  23 "Bone36" 22
  24 "Bone37" 23
  25 "Bone31" 21
  26 "Bone32" 25
  27 "Bone33" 26
  28 "Bone39" 21
  29 "Bone40" 28
  30 "Bone41" 29
  31 "Bone43" 21
  32 "Bone44" 31
  33 "Bone45" 32
  34 "Bone27" 21
  35 "Bone28" 34
  36 "Bone29" 35
end
skeleton
  time 0
    0 7.598738 1.165596 -6.193997 1.122140 -1.938870 -1.314664
    1 0.000001 -8.563280 0.000000 0.011360 0.045153 -0.172443
    2 2.360136 -3.245876 1.423021 -1.205423 1.106299 -1.376897
    3 -0.003480 -0.404830 0.000000 0.000000 0.000000 0.000000
    4 -0.519309 -2.501153 -0.278956 -0.390529 0.037668 -0.005934
    5 -0.010598 -1.208185 0.000000 -1.055925 0.000000 0.000000
    6 0.000000 -0.763066 -0.000001 -0.602148 0.000000 0.000000
    7 0.105981 -2.607132 -0.278957 -0.537311 0.054194 -0.010195
    8 0.000000 -1.250579 0.000000 -0.776700 0.000000 0.000000
    9 -0.000001 -0.932634 0.000000 -1.230488 0.000000 0.000000
    10 0.763064 -2.490553 -0.278957 -0.349065 0.000000 0.130900
    11 -0.012322 -1.280917 0.000000 -0.750491 0.000000 0.000000
    12 -0.001697 -0.749371 -0.000001 -0.907564 0.000000 0.000000
    13 0.354567 0.016268 0.318133 0.743986 -0.762896 -1.122494
    14 1.887164 0.012878 0.000000 -0.040082 -0.219749 -0.583100
    15 1.001874 -0.000270 0.000000 0.000000 0.000000 -0.532315
    16 -1.123359 -2.195091 -0.278957 -0.156516 0.013626 -0.001073
    17 0.010771 -0.963790 0.000000 -0.698121 0.000000 0.000000
    18 -0.010411 -0.631916 0.000000 -0.907581 0.000000 0.000000
    19 -4.898099 2.365545 -8.100151 0.790237 1.318993 0.567289
    20 0.089928 -8.543162 0.000000 0.079760 -0.284688 0.455199
    21 0.000000 -0.359714 0.000001 0.000000 0.000000 0.000000
    22 -0.170480 -2.636147 -0.277655 -0.820310 0.000000 0.000000
    23 0.010599 -1.261177 0.000001 -0.584663 0.000000 0.000000
    24 -0.000001 -0.943232 0.000001 -0.532326 0.000000 0.000000
    25 -0.827563 -2.508973 -0.277656 -0.942498 0.000000 0.000000
    26 0.000000 -1.292970 0.000000 -0.287990 0.000000 0.000000
    27 0.000000 -0.752466 0.000001 -0.445059 0.000000 0.000000
    28 0.444212 -2.561960 -0.277654 -1.081537 -0.046226 -0.024599
    29 0.021022 -1.208186 -0.000001 -0.427606 0.000000 0.000000
    30 0.010597 -0.741867 -0.000002 -0.453786 0.000000 0.000000
    31 1.047444 -2.222821 -0.277654 -1.019678 -0.066950 -0.041090
    32 0.000000 -0.996222 -0.000001 -0.584686 0.000000 0.000000
    33 -0.000001 -0.614690 0.000000 -0.523599 0.000000 0.000000
    34 -0.308254 -0.007814 0.307167 -0.318048 -0.539825 -2.424633
    35 1.978377 0.019543 0.000001 -0.000002 -0.000010 0.549774
    36 0.982426 0.003186 0.000000 0.000000 0.000000 0.593405
  time 1
    0 7.598738 1.165596 -6.193997 1.122140 -1.938870 -1.314664
    1 0.000001 -8.563280 0.000000 0.011360 0.045153 -0.172443
    2 2.360136 -3.245876 1.423021 -1.205423 1.106299 -1.376897
    3 -0.003480 -0.404830 0.000000 0.000000 0.000000 0.000000
    4 -0.519309 -2.501153 -0.278956 -0.390529 0.037668 -0.005934
    5 -0.010598 -1.208185 0.000000 -1.055925 0.000000 0.000000
    6 0.000000 -0.763066 -0.000001 -0.602148 0.000000 0.000000
    7 0.105981 -2.607132 -0.278957 -0.537311 0.054194 -0.010195
    8 0.000000 -1.250579 0.000000 -0.776700 0.000000 0.000000
    9 -0.000001 -0.932634 0.000000 -1.230488 0.000000 0.000000
    10 0.763064 -2.490553 -0.278957 -0.349065 0.000000 0.130900
    11 -0.012322 -1.280917 0.000000 -0.750491 0.000000 0.000000
    12 -0.001697 -0.749371 -0.000001 -0.907564 0.000000 0.000000
    13 0.354567 0.016268 0.318133 0.743986 -0.762896 -1.122494
    14 1.887164 0.012878 0.000000 -0.040082 -0.219749 -0.583100
    15 1.001874 -0.000270 0.000000 0.000000 0.000000 -0.532315
    16 -1.123359 -2.195091 -0.278957 -0.156516 0.013626 -0.001073
    17 0.010771 -0.963790 0.000000 -0.698121 0.000000 0.000000
    18 -0.010411 -0.631916 0.000000 -0.907581 0.000000 0.000000
    19 -4.898099 2.365545 -8.100151 0.790237 1.318993 0.567289
    20 0.089928 -8.543162 0.000000 0.079760 -0.284688 0.455199
    21 0.000000 -0.359714 0.000001 0.000000 0.000000 0.000000
    22 -0.170480 -2.636147 -0.277655 -0.820310 0.000000 0.000000
    23 0.010599 -1.261177 0.000001 -0.584663 0.000000 0.000000
    24 -0.000001 -0.943232 0.000001 -0.532326 0.000000 0.000000
    25 -0.827563 -2.508973 -0.277656 -0.942498 0.000000 0.000000
    26 0.000000 -1.292970 0.000000 -0.287990 0.000000 0.000000
    27 0.000000 -0.752466 0.000001 -0.445059 0.000000 0.000000
    28 0.444212 -2.561960 -0.277654 -1.081537 -0.046226 -0.024599
    29 0.021022 -1.208186 -0.000001 -0.427606 0.000000 0.000000
    30 0.010597 -0.741867 -0.000002 -0.453786 0.000000 0.000000
    31 1.047444 -2.222821 -0.277654 -1.019678 -0.066950 -0.041090
    32 0.000000 -0.996222 -0.000001 -0.584686 0.000000 0.000000
    33 -0.000001 -0.614690 0.000000 -0.523599 0.000000 0.000000
    34 -0.308254 -0.007814 0.307167 -0.318048 -0.539825 -2.424633
    35 1.978377 0.019543 0.000001 -0.000002 -0.000010 0.549774
    36 0.982426 0.003186 0.000000 0.000000 0.000000 0.593405
  time 2
    0 7.598738 1.165596 -6.193997 1.122140 -1.938870 -1.314664
    1 0.000001 -8.563280 0.000000 0.011360 0.045153 -0.172443
    2 2.360136 -3.245876 1.423021 -1.205423 1.106299 -1.376897
    3 -0.003480 -0.404830 0.000000 0.000000 0.000000 0.000000
    4 -0.519309 -2.501153 -0.278956 -0.390529 0.037668 -0.005934
    5 -0.010598 -1.208185 0.000000 -1.055925 0.000000 0.000000
    6 0.000000 -0.763066 -0.000001 -0.602148 0.000000 0.000000
    7 0.105981 -2.607132 -0.278957 -0.537311 0.054194 -0.010195
    8 0.000000 -1.250579 0.000000 -0.776700 0.000000 0.000000
    9 -0.000001 -0.932634 0.000000 -1.230488 0.000000 0.000000
    10 0.763064 -2.490553 -0.278957 -0.349065 0.000000 0.130900
    11 -0.012322 -1.280917 0.000000 -0.750491 0.000000 0.000000
    12 -0.001697 -0.749371 -0.000001 -0.907564 0.000000 0.000000
    13 0.354567 0.016268 0.318133 0.743986 -0.762896 -1.122494
    14 1.887164 0.012878 0.000000 -0.040082 -0.219749 -0.583100
    15 1.001874 -0.000270 0.000000 0.000000 0.000000 -0.532315
    16 -1.123359 -2.195091 -0.278957 -0.156516 0.013626 -0.001073
    17 0.010771 -0.963790 0.000000 -0.698121 0.000000 0.000000
    18 -0.010411 -0.631916 0.000000 -0.907581 0.000000 0.000000
    19 -4.898099 2.365545 -8.100151 0.790237 1.318993 0.567289
    20 0.089928 -8.543162 0.000000 0.079760 -0.284688 0.455199
    21 0.000000 -0.359714 0.000001 0.000000 0.000000 0.000000
    22 -0.170480 -2.636147 -0.277655 -0.820310 0.000000 0.000000
    23 0.010599 -1.261177 0.000001 -0.584663 0.000000 0.000000
    24 -0.000001 -0.943232 0.000001 -0.532326 0.000000 0.000000
    25 -0.827563 -2.508973 -0.277656 -0.942498 0.000000 0.000000
    26 0.000000 -1.292970 0.000000 -0.287990 0.000000 0.000000
    27 0.000000 -0.752466 0.000001 -0.445059 0.000000 0.000000
    28 0.444212 -2.561960 -0.277654 -1.081537 -0.046226 -0.024599
    29 0.021022 -1.208186 -0.000001 -0.427606 0.000000 0.000000
    30 0.010597 -0.741867 -0.000002 -0.453786 0.000000 0.000000
    31 1.047444 -2.222821 -0.277654 -1.019678 -0.066950 -0.041090
    32 0.000000 -0.996222 -0.000001 -0.584686 0.000000 0.000000
    33 -0.000001 -0.614690 0.000000 -0.523599 0.000000 0.000000
    34 -0.308254 -0.007814 0.307167 -0.318048 -0.539825 -2.424633
    35 1.978377 0.019543 0.000001 -0.000002 -0.000010 0.549774
    36 0.982426 0.003186 0.000000 0.000000 0.000000 0.593405
  time 3
    0 7.598738 1.165596 -6.193997 1.122140 -1.938870 -1.314664
    1 0.000001 -8.563280 0.000000 0.011360 0.045153 -0.172443
    2 2.360136 -3.245876 1.423021 -1.205423 1.106299 -1.376897
    3 -0.003480 -0.404830 0.000000 0.000000 0.000000 0.000000
    4 -0.519309 -2.501153 -0.278956 -0.390529 0.037668 -0.005934
    5 -0.010598 -1.208185 0.000000 -1.055925 0.000000 0.000000
    6 0.000000 -0.763066 -0.000001 -0.602148 0.000000 0.000000
    7 0.105981 -2.607132 -0.278957 -0.537311 0.054194 -0.010195
    8 0.000000 -1.250579 0.000000 -0.776700 0.000000 0.000000
    9 -0.000001 -0.932634 0.000000 -1.230488 0.000000 0.000000
    10 0.763064 -2.490553 -0.278957 -0.349065 0.000000 0.130900
    11 -0.012322 -1.280917 0.000000 -0.750491 0.000000 0.000000
    12 -0.001697 -0.749371 -0.000001 -0.907564 0.000000 0.000000
    13 0.354567 0.016268 0.318133 0.743986 -0.762896 -1.122494
    14 1.887164 0.012878 0.000000 -0.040082 -0.219749 -0.583100
    15 1.001874 -0.000270 0.000000 0.000000 0.000000 -0.532315
    16 -1.123359 -2.195091 -0.278957 -0.156516 0.013626 -0.001073
    17 0.010771 -0.963790 0.000000 -0.698121 0.000000 0.000000
    18 -0.010411 -0.631916 0.000000 -0.907581 0.000000 0.000000
    19 -4.898099 2.365545 -8.100151 0.790237 1.318993 0.567289
    20 0.089928 -8.543162 0.000000 0.079760 -0.284688 0.455199
    21 0.000000 -0.359714 0.000001 0.000000 0.000000 0.000000
    22 -0.170480 -2.636147 -0.277655 -0.820310 0.000000 0.000000
    23 0.010599 -1.261177 0.000001 -0.584663 0.000000 0.000000
    24 -0.000001 -0.943232 0.000001 -0.532326 0.000000 0.000000
    25 -0.827563 -2.508973 -0.277656 -0.942498 0.000000 0.000000
    26 0.000000 -1.292970 0.000000 -0.287990 0.000000 0.000000
    27 0.000000 -0.752466 0.000001 -0.445059 0.000000 0.000000
    28 0.444212 -2.561960 -0.277654 -1.081537 -0.046226 -0.024599
    29 0.021022 -1.208186 -0.000001 -0.427606 0.000000 0.000000
    30 0.010597 -0.741867 -0.000002 -0.453786 0.000000 0.000000
    31 1.047444 -2.222821 -0.277654 -1.019678 -0.066950 -0.041090
    32 0.000000 -0.996222 -0.000001 -0.584686 0.000000 0.000000
    33 -0.000001 -0.614690 0.000000 -0.523599 0.000000 0.000000
    34 -0.308254 -0.007814 0.307167 -0.318048 -0.539825 -2.424633
    35 1.978377 0.019543 0.000001 -0.000002 -0.000010 0.549774
    36 0.982426 0.003186 0.000000 0.000000 0.000000 0.593405
  time 4
    0 7.598738 1.165596 -6.193997 1.122140 -1.938870 -1.314664
    1 0.000001 -8.563280 0.000000 0.011360 0.045153 -0.172443
    2 2.360136 -3.245876 1.423021 -1.205423 1.106299 -1.376897
    3 -0.003480 -0.404830 0.000000 0.000000 0.000000 0.000000
    4 -0.519309 -2.501153 -0.278956 -0.390529 0.037668 -0.005934
    5 -0.010598 -1.208185 0.000000 -1.055925 0.000000 0.000000
    6 0.000000 -0.763066 -0.000001 -0.602148 0.000000 0.000000
    7 0.105981 -2.607132 -0.278957 -0.537311 0.054194 -0.010195
    8 0.000000 -1.250579 0.000000 -0.776700 0.000000 0.000000
    9 -0.000001 -0.932634 0.000000 -1.230488 0.000000 0.000000
    10 0.763064 -2.490553 -0.278957 -0.349065 0.000000 0.130900
    11 -0.012322 -1.280917 0.000000 -0.750491 0.000000 0.000000
    12 -0.001697 -0.749371 -0.000001 -0.907564 0.000000 0.000000
    13 0.354567 0.016268 0.318133 0.743986 -0.762896 -1.122494
    14 1.887164 0.012878 0.000000 -0.040082 -0.219749 -0.583100
    15 1.001874 -0.000270 0.000000 0.000000 0.000000 -0.532315
    16 -1.123359 -2.195091 -0.278957 -0.156516 0.013626 -0.001073
    17 0.010771 -0.963790 0.000000 -0.698121 0.000000 0.000000
    18 -0.010411 -0.631916 0.000000 -0.907581 0.000000 0.000000
    19 -4.898099 2.365545 -8.100151 0.790237 1.318993 0.567289
    20 0.089928 -8.543162 0.000000 0.079760 -0.284688 0.455199
    21 0.000000 -0.359714 0.000001 0.000000 0.000000 0.000000
    22 -0.170480 -2.636147 -0.277655 -0.820310 0.000000 0.000000
    23 0.010599 -1.261177 0.000001 -0.584663 0.000000 0.000000
    24 -0.000001 -0.943232 0.000001 -0.532326 0.000000 0.000000
    25 -0.827563 -2.508973 -0.277656 -0.942498 0.000000 0.000000
    26 0.000000 -1.292970 0.000000 -0.287990 0.000000 0.000000
    27 0.000000 -0.752466 0.000001 -0.445059 0.000000 0.000000
    28 0.444212 -2.561960 -0.277654 -1.081537 -0.046226 -0.024599
    29 0.021022 -1.208186 -0.000001 -0.427606 0.000000 0.000000
    30 0.010597 -0.741867 -0.000002 -0.453786 0.000000 0.000000
    31 1.047444 -2.222821 -0.277654 -1.019678 -0.066950 -0.041090
    32 0.000000 -0.996222 -0.000001 -0.584686 0.000000 0.000000
    33 -0.000001 -0.614690 0.000000 -0.523599 0.000000 0.000000
    34 -0.308254 -0.007814 0.307167 -0.318048 -0.539825 -2.424633
    35 1.978377 0.019543 0.000001 -0.000002 -0.000010 0.549774
    36 0.982426 0.003186 0.000000 0.000000 0.000000 0.593405
  time 5
    0 7.598738 1.165596 -6.193997 1.122140 -1.938870 -1.314664
    1 0.000001 -8.563280 0.000000 0.011360 0.045153 -0.172443
    2 2.360136 -3.245876 1.423021 -1.205423 1.106299 -1.376897
    3 -0.003480 -0.404830 0.000000 0.000000 0.000000 0.000000
    4 -0.519309 -2.501153 -0.278956 -0.390529 0.037668 -0.005934
    5 -0.010598 -1.208185 0.000000 -1.055925 0.000000 0.000000
    6 0.000000 -0.763066 -0.000001 -0.602148 0.000000 0.000000
    7 0.105981 -2.607132 -0.278957 -0.537311 0.054194 -0.010195
    8 0.000000 -1.250579 0.000000 -0.776700 0.000000 0.000000
    9 -0.000001 -0.932634 0.000000 -1.230488 0.000000 0.000000
    10 0.763064 -2.490553 -0.278957 -0.349065 0.000000 0.130900
    11 -0.012322 -1.280917 0.000000 -0.750491 0.000000 0.000000
    12 -0.001697 -0.749371 -0.000001 -0.907564 0.000000 0.000000
    13 0.354567 0.016268 0.318133 0.743986 -0.762896 -1.122494
    14 1.887164 0.012878 0.000000 -0.040082 -0.219749 -0.583100
    15 1.001874 -0.000270 0.000000 0.000000 0.000000 -0.532315
    16 -1.123359 -2.195091 -0.278957 -0.156516 0.013626 -0.001073
    17 0.010771 -0.963790 0.000000 -0.698121 0.000000 0.000000
    18 -0.010411 -0.631916 0.000000 -0.907581 0.000000 0.000000
    19 -4.898099 2.365545 -8.100151 0.790237 1.318993 0.567289
    20 0.089928 -8.543162 0.000000 0.079760 -0.284688 0.455199
    21 0.000000 -0.359714 0.000001 0.000000 0.000000 0.000000
    22 -0.170480 -2.636147 -0.277655 -0.820310 0.000000 0.000000
    23 0.010599 -1.261177 0.000001 -0.584663 0.000000 0.000000
    24 -0.000001 -0.943232 0.000001 -0.532326 0.000000 0.000000
    25 -0.827563 -2.508973 -0.277656 -0.942498 0.000000 0.000000
    26 0.000000 -1.292970 0.000000 -0.287990 0.000000 0.000000
    27 0.000000 -0.752466 0.000001 -0.445059 0.000000 0.000000
    28 0.444212 -2.561960 -0.277654 -1.081537 -0.046226 -0.024599
    29 0.021022 -1.208186 -0.000001 -0.427606 0.000000 0.000000
    30 0.010597 -0.741867 -0.000002 -0.453786 0.000000 0.000000
    31 1.047444 -2.222821 -0.277654 -1.019678 -0.066950 -0.041090
    32 0.000000 -0.996222 -0.000001 -0.584686 0.000000 0.000000
    33 -0.000001 -0.614690 0.000000 -0.523599 0.000000 0.000000
    34 -0.308254 -0.007814 0.307167 -0.318048 -0.539825 -2.424633
    35 1.978377 0.019543 0.000001 -0.000002 -0.000010 0.549774
    36 0.982426 0.003186 0.000000 0.000000 0.000000 0.593405
  time 6
    0 7.598738 1.165596 -6.193997 1.122140 -1.938870 -1.314664
    1 0.000001 -8.563280 0.000000 0.011360 0.045153 -0.172443
    2 2.360136 -3.245876 1.423021 -1.205423 1.106299 -1.376897
    3 -0.003480 -0.404830 0.000000 0.000000 0.000000 0.000000
    4 -0.519309 -2.501153 -0.278956 -0.390529 0.037668 -0.005934
    5 -0.010598 -1.208185 0.000000 -1.055925 0.000000 0.000000
    6 0.000000 -0.763066 -0.000001 -0.602148 0.000000 0.000000
    7 0.105981 -2.607132 -0.278957 -0.537311 0.054194 -0.010195
    8 0.000000 -1.250579 0.000000 -0.776700 0.000000 0.000000
    9 -0.000001 -0.932634 0.000000 -1.230488 0.000000 0.000000
    10 0.763064 -2.490553 -0.278957 -0.349065 0.000000 0.130900
    11 -0.012322 -1.280917 0.000000 -0.750491 0.000000 0.000000
    12 -0.001697 -0.749371 -0.000001 -0.907564 0.000000 0.000000
    13 0.354567 0.016268 0.318133 0.743986 -0.762896 -1.122494
    14 1.887164 0.012878 0.000000 -0.040082 -0.219749 -0.583100
    15 1.001874 -0.000270 0.000000 0.000000 0.000000 -0.532315
    16 -1.123359 -2.195091 -0.278957 -0.156516 0.013626 -0.001073
    17 0.010771 -0.963790 0.000000 -0.698121 0.000000 0.000000
    18 -0.010411 -0.631916 0.000000 -0.907581 0.000000 0.000000
    19 -4.898099 2.365545 -8.100151 0.790237 1.318993 0.567289
    20 0.089928 -8.543162 0.000000 0.079760 -0.284688 0.455199
    21 0.000000 -0.359714 0.000001 0.000000 0.000000 0.000000
    22 -0.170480 -2.636147 -0.277655 -0.820310 0.000000 0.000000
    23 0.010599 -1.261177 0.000001 -0.584663 0.000000 0.000000
    24 -0.000001 -0.943232 0.000001 -0.532326 0.000000 0.000000
    25 -0.827563 -2.508973 -0.277656 -0.942498 0.000000 0.000000
    26 0.000000 -1.292970 0.000000 -0.287990 0.000000 0.000000
    27 0.000000 -0.752466 0.000001 -0.445059 0.000000 0.000000
    28 0.444212 -2.561960 -0.277654 -1.081537 -0.046226 -0.024599
    29 0.021022 -1.208186 -0.000001 -0.427606 0.000000 0.000000
    30 0.010597 -0.741867 -0.000002 -0.453786 0.000000 0.000000
    31 1.047444 -2.222821 -0.277654 -1.019678 -0.066950 -0.041090
    32 0.000000 -0.996222 -0.000001 -0.584686 0.000000 0.000000
    33 -0.000001 -0.614690 0.000000 -0.523599 0.000000 0.000000
    34 -0.308254 -0.007814 0.307167 -0.318048 -0.539825 -2.424633
    35 1.978377 0.019543 0.000001 -0.000002 -0.000010 0.549774
    36 0.982426 0.003186 0.000000 0.000000 0.000000 0.593405
  time 7
    0 7.598738 1.165596 -6.193997 1.122140 -1.938870 -1.314664
    1 0.000001 -8.563280 0.000000 0.011360 0.045153 -0.172443
    2 2.360136 -3.245876 1.423021 -1.205423 1.106299 -1.376897
    3 -0.003480 -0.404830 0.000000 0.000000 0.000000 0.000000
    4 -0.519309 -2.501153 -0.278956 -0.390529 0.037668 -0.005934
    5 -0.010598 -1.208185 0.000000 -1.055925 0.000000 0.000000
    6 0.000000 -0.763066 -0.000001 -0.602148 0.000000 0.000000
    7 0.105981 -2.607132 -0.278957 -0.537311 0.054194 -0.010195
    8 0.000000 -1.250579 0.000000 -0.776700 0.000000 0.000000
    9 -0.000001 -0.932634 0.000000 -1.230488 0.000000 0.000000
    10 0.763064 -2.490553 -0.278957 -0.349065 0.000000 0.130900
    11 -0.012322 -1.280917 0.000000 -0.750491 0.000000 0.000000
    12 -0.001697 -0.749371 -0.000001 -0.907564 0.000000 0.000000
    13 0.354567 0.016268 0.318133 0.743986 -0.762896 -1.122494
    14 1.887164 0.012878 0.000000 -0.040082 -0.219749 -0.583100
    15 1.001874 -0.000270 0.000000 0.000000 0.000000 -0.532315
    16 -1.123359 -2.195091 -0.278957 -0.156516 0.013626 -0.001073
    17 0.010771 -0.963790 0.000000 -0.698121 0.000000 0.000000
    18 -0.010411 -0.631916 0.000000 -0.907581 0.000000 0.000000
    19 -4.898099 2.365545 -8.100151 0.790237 1.318993 0.567289
    20 0.089928 -8.543162 0.000000 0.079760 -0.284688 0.455199
    21 0.000000 -0.359714 0.000001 0.000000 0.000000 0.000000
    22 -0.170480 -2.636147 -0.277655 -0.820310 0.000000 0.000000
    23 0.010599 -1.261177 0.000001 -0.584663 0.000000 0.000000
    24 -0.000001 -0.943232 0.000001 -0.532326 0.000000 0.000000
    25 -0.827563 -2.508973 -0.277656 -0.942498 0.000000 0.000000
    26 0.000000 -1.292970 0.000000 -0.287990 0.000000 0.000000
    27 0.000000 -0.752466 0.000001 -0.445059 0.000000 0.000000
    28 0.444212 -2.561960 -0.277654 -1.081537 -0.046226 -0.024599
    29 0.021022 -1.208186 -0.000001 -0.427606 0.000000 0.000000
    30 0.010597 -0.741867 -0.000002 -0.453786 0.000000 0.000000
    31 1.047444 -2.222821 -0.277654 -1.019678 -0.066950 -0.041090
    32 0.000000 -0.996222 -0.000001 -0.584686 0.000000 0.000000
    33 -0.000001 -0.614690 0.000000 -0.523599 0.000000 0.000000
    34 -0.308254 -0.007814 0.307167 -0.318048 -0.539825 -2.424633
    35 1.978377 0.019543 0.000001 -0.000002 -0.000010 0.549774
    36 0.982426 0.003186 0.000000 0.000000 0.000000 0.593405
  time 8
    0 7.598738 1.165596 -6.193997 1.122140 -1.938870 -1.314664
    1 0.000001 -8.563280 0.000000 0.011360 0.045153 -0.172443
    2 2.360136 -3.245876 1.423021 -1.205423 1.106299 -1.376897
    3 -0.003480 -0.404830 0.000000 0.000000 0.000000 0.000000
    4 -0.519309 -2.501153 -0.278956 -0.390529 0.037668 -0.005934
    5 -0.010598 -1.208185 0.000000 -1.055925 0.000000 0.000000
    6 0.000000 -0.763066 -0.000001 -0.602148 0.000000 0.000000
    7 0.105981 -2.607132 -0.278957 -0.537311 0.054194 -0.010195
    8 0.000000 -1.250579 0.000000 -0.776700 0.000000 0.000000
    9 -0.000001 -0.932634 0.000000 -1.230488 0.000000 0.000000
    10 0.763064 -2.490553 -0.278957 -0.349065 0.000000 0.130900
    11 -0.012322 -1.280917 0.000000 -0.750491 0.000000 0.000000
    12 -0.001697 -0.749371 -0.000001 -0.907564 0.000000 0.000000
    13 0.354567 0.016268 0.318133 0.743986 -0.762896 -1.122494
    14 1.887164 0.012878 0.000000 -0.040082 -0.219749 -0.583100
    15 1.001874 -0.000270 0.000000 0.000000 0.000000 -0.532315
    16 -1.123359 -2.195091 -0.278957 -0.156516 0.013626 -0.001073
    17 0.010771 -0.963790 0.000000 -0.698121 0.000000 0.000000
    18 -0.010411 -0.631916 0.000000 -0.907581 0.000000 0.000000
    19 -4.898099 2.365545 -8.100151 0.790237 1.318993 0.567289
    20 0.089928 -8.543162 0.000000 0.079760 -0.284688 0.455199
    21 0.000000 -0.359714 0.000001 0.000000 0.000000 0.000000
    22 -0.170480 -2.636147 -0.277655 -0.820310 0.000000 0.000000
    23 0.010599 -1.261177 0.000001 -0.584663 0.000000 0.000000
    24 -0.000001 -0.943232 0.000001 -0.532326 0.000000 0.000000
    25 -0.827563 -2.508973 -0.277656 -0.942498 0.000000 0.000000
    26 0.000000 -1.292970 0.000000 -0.287990 0.000000 0.000000
    27 0.000000 -0.752466 0.000001 -0.445059 0.000000 0.000000
    28 0.444212 -2.561960 -0.277654 -1.081537 -0.046226 -0.024599
    29 0.021022 -1.208186 -0.000001 -0.427606 0.000000 0.000000
    30 0.010597 -0.741867 -0.000002 -0.453786 0.000000 0.000000
    31 1.047444 -2.222821 -0.277654 -1.019678 -0.066950 -0.041090
    32 0.000000 -0.996222 -0.000001 -0.584686 0.000000 0.000000
    33 -0.000001 -0.614690 0.000000 -0.523599 0.000000 0.000000
    34 -0.308254 -0.007814 0.307167 -0.318048 -0.539825 -2.424633
    35 1.978377 0.019543 0.000001 -0.000002 -0.000010 0.549774
    36 0.982426 0.003186 0.000000 0.000000 0.000000 0.593405
  time 9
    0 7.598738 1.165596 -6.193997 1.122140 -1.938870 -1.314664
    1 0.000001 -8.563280 0.000000 0.011360 0.045153 -0.172443
    2 2.360136 -3.245876 1.423021 -1.205423 1.106299 -1.376897
    3 -0.003480 -0.404830 0.000000 0.000000 0.000000 0.000000
    4 -0.519309 -2.501153 -0.278956 -0.390529 0.037668 -0.005934
    5 -0.010598 -1.208185 0.000000 -1.055925 0.000000 0.000000
    6 0.000000 -0.763066 -0.000001 -0.602148 0.000000 0.000000
    7 0.105981 -2.607132 -0.278957 -0.537311 0.054194 -0.010195
    8 0.000000 -1.250579 0.000000 -0.776700 0.000000 0.000000
    9 -0.000001 -0.932634 0.000000 -1.230488 0.000000 0.000000
    10 0.763064 -2.490553 -0.278957 -0.349065 0.000000 0.130900
    11 -0.012322 -1.280917 0.000000 -0.750491 0.000000 0.000000
    12 -0.001697 -0.749371 -0.000001 -0.907564 0.000000 0.000000
    13 0.354567 0.016268 0.318133 0.743986 -0.762896 -1.122494
    14 1.887164 0.012878 0.000000 -0.040082 -0.219749 -0.583100
    15 1.001874 -0.000270 0.000000 0.000000 0.000000 -0.532315
    16 -1.123359 -2.195091 -0.278957 -0.156516 0.013626 -0.001073
    17 0.010771 -0.963790 0.000000 -0.698121 0.000000 0.000000
    18 -0.010411 -0.631916 0.000000 -0.907581 0.000000 0.000000
    19 -4.898099 2.365545 -8.100151 0.790237 1.318993 0.567289
    20 0.089928 -8.543162 0.000000 0.079760 -0.284688 0.455199
    21 0.000000 -0.359714 0.000001 0.000000 0.000000 0.000000
    22 -0.170480 -2.636147 -0.277655 -0.820310 0.000000 0.000000
    23 0.010599 -1.261177 0.000001 -0.584663 0.000000 0.000000
    24 -0.000001 -0.943232 0.000001 -0.532326 0.000000 0.000000
    25 -0.827563 -2.508973 -0.277656 -0.942498 0.000000 0.000000
    26 0.000000 -1.292970 0.000000 -0.287990 0.000000 0.000000
    27 0.000000 -0.752466 0.000001 -0.445059 0.000000 0.000000
    28 0.444212 -2.561960 -0.277654 -1.081537 -0.046226 -0.024599
    29 0.021022 -1.208186 -0.000001 -0.427606 0.000000 0.000000
    30 0.010597 -0.741867 -0.000002 -0.453786 0.000000 0.000000
    31 1.047444 -2.222821 -0.277654 -1.019678 -0.066950 -0.041090
    32 0.000000 -0.996222 -0.000001 -0.584686 0.000000 0.000000
    33 -0.000001 -0.614690 0.000000 -0.523599 0.000000 0.000000
    34 -0.308254 -0.007814 0.307167 -0.318048 -0.539825 -2.424633
    35 1.978377 0.019543 0.000001 -0.000002 -0.000010 0.549774
    36 0.982426 0.003186 0.000000 0.000000 0.000000 0.593405
  time 10
    0 7.598738 1.165596 -6.193997 1.122140 -1.938870 -1.314664
    1 0.000001 -8.563280 0.000000 0.011360 0.045153 -0.172443
    2 2.360136 -3.245876 1.423021 -1.205423 1.106299 -1.376897
    3 -0.003480 -0.404830 0.000000 0.000000 0.000000 0.000000
    4 -0.519309 -2.501153 -0.278956 -0.390529 0.037668 -0.005934
    5 -0.010598 -1.208185 0.000000 -1.055925 0.000000 0.000000
    6 0.000000 -0.763066 -0.000001 -0.602148 0.000000 0.000000
    7 0.105981 -2.607132 -0.278957 -0.537311 0.054194 -0.010195
    8 0.000000 -1.250579 0.000000 -0.776700 0.000000 0.000000
    9 -0.000001 -0.932634 0.000000 -1.230488 0.000000 0.000000
    10 0.763064 -2.490553 -0.278957 -0.349065 0.000000 0.130900
    11 -0.012322 -1.280917 0.000000 -0.750491 0.000000 0.000000
    12 -0.001697 -0.749371 -0.000001 -0.907564 0.000000 0.000000
    13 0.354567 0.016268 0.318133 0.743986 -0.762896 -1.122494
    14 1.887164 0.012878 0.000000 -0.040082 -0.219749 -0.583100
    15 1.001874 -0.000270 0.000000 0.000000 0.000000 -0.532315
    16 -1.123359 -2.195091 -0.278957 -0.156516 0.013626 -0.001073
    17 0.010771 -0.963790 0.000000 -0.698121 0.000000 0.000000
    18 -0.010411 -0.631916 0.000000 -0.907581 0.000000 0.000000
    19 -4.898099 2.365545 -8.100151 0.790237 1.318993 0.567289
    20 0.089928 -8.543162 0.000000 0.079760 -0.284688 0.455199
    21 0.000000 -0.359714 0.000001 0.000000 0.000000 0.000000
    22 -0.170480 -2.636147 -0.277655 -0.820310 0.000000 0.000000
    23 0.010599 -1.261177 0.000001 -0.584663 0.000000 0.000000
    24 -0.000001 -0.943232 0.000001 -0.532326 0.000000 0.000000
    25 -0.827563 -2.508973 -0.277656 -0.942498 0.000000 0.000000
    26 0.000000 -1.292970 0.000000 -0.287990 0.000000 0.000000
    27 0.000000 -0.752466 0.000001 -0.445059 0.000000 0.000000
    28 0.444212 -2.561960 -0.277654 -1.081537 -0.046226 -0.024599
    29 0.021022 -1.208186 -0.000001 -0.427606 0.000000 0.000000
    30 0.010597 -0.741867 -0.000002 -0.453786 0.000000 0.000000
    31 1.047444 -2.222821 -0.277654 -1.019678 -0.066950 -0.041090
    32 0.000000 -0.996222 -0.000001 -0.584686 0.000000 0.000000
    33 -0.000001 -0.614690 0.000000 -0.523599 0.000000 0.000000
    34 -0.308254 -0.007814 0.307167 -0.318048 -0.539825 -2.424633
    35 1.978377 0.019543 0.000001 -0.000002 -0.000010 0.549774
    36 0.982426 0.003186 0.000000 0.000000 0.000000 0.593405
end
