version 1
nodes
  0 "Bone01" -1
  1 "Bone_Lefthand" 0
  2 "Bone02" 1
  3 "Bone 04" 1
  4 "Bone13" 3
  5 "Bone14" 4
  6 "Bone15" 5
  7 "Bone17" 3
  8 "Bone18" 7
  9 "Bone19" 8
  10 "Bone21" 3
  11 "Bone22" 10
  12 "Bone23" 11
  13 "Bone05" 3
  14 "Bone06" 13
  15 "Bone07" 14
  16 "Bone09" 3
  17 "Bone10" 16
  18 "Bone11" 17
  19 "Bone04" -1
  20 "Bone_Righthand" 19
  21 "Bone26" 20
  22 "Bone35" 21
  23 "Bone36" 22
  24 "Bone37" 23
  25 "Bone31" 21
  26 "Bone32" 25
  27 "Bone33" 26
  28 "Bone39" 21
  29 "Bone40" 28
  30 "Bone41" 29
  31 "Bone43" 21
  32 "Bone44" 31
  33 "Bone45" 32
  34 "Bone27" 21
  35 "Bone28" 34
  36 "Bone29" 35
end
skeleton
  time 0
    0 8.067502 7.325940 -4.850206 1.261338 -2.553367 -0.274410
    1 0.000001 -8.563280 0.000000 0.011360 0.045153 -0.172443
    2 2.360136 -3.245876 1.423021 -1.205423 1.106299 -1.376897
    3 -0.003480 -0.404830 0.000000 0.000000 0.000000 0.000000
    4 -0.519309 -2.501153 -0.278956 -0.390529 0.037668 -0.005934
    5 -0.010598 -1.208185 0.000000 -1.055925 0.000000 0.000000
    6 0.000000 -0.763066 -0.000001 -0.602148 0.000000 0.000000
    7 0.105981 -2.607132 -0.278957 -0.537311 0.054194 -0.010195
    8 0.000000 -1.250579 0.000000 -0.776700 0.000000 0.000000
    9 -0.000001 -0.932634 0.000000 -1.230488 0.000000 0.000000
    10 0.763064 -2.490553 -0.278957 -0.349065 0.000000 0.130900
    11 -0.012322 -1.280917 0.000000 -0.750491 0.000000 0.000000
    12 -0.001697 -0.749371 -0.000001 -0.907564 0.000000 0.000000
    13 0.354567 0.016268 0.318133 0.743986 -0.762896 -1.122494
    14 1.887164 0.012878 0.000000 -0.040082 -0.219749 -0.583100
    15 1.001874 -0.000270 0.000000 0.000000 0.000000 -0.532315
    16 -1.123359 -2.195091 -0.278957 -0.156516 0.013626 -0.001073
    17 0.010771 -0.963790 0.000000 -0.698121 0.000000 0.000000
    18 -0.010411 -0.631916 0.000000 -0.907581 0.000000 0.000000
    19 -4.898099 4.842183 -9.193934 0.790237 1.318993 0.567289
    20 0.089928 -8.543162 0.000000 0.079760 -0.284688 0.455199
    21 0.000000 -0.359714 0.000001 0.000000 0.000000 0.000000
    22 -0.170480 -2.636147 -0.277655 -0.820310 0.000000 0.000000
    23 0.010599 -1.261177 0.000001 -0.584663 0.000000 0.000000
    24 -0.000001 -0.943232 0.000001 -0.532326 0.000000 0.000000
    25 -0.827563 -2.508973 -0.277656 -0.942498 0.000000 0.000000
    26 0.000000 -1.292970 0.000000 -0.287990 0.000000 0.000000
    27 0.000000 -0.752466 0.000001 -0.445059 0.000000 0.000000
    28 0.444212 -2.561960 -0.277654 -1.081537 -0.046226 -0.024599
    29 0.021022 -1.208186 -0.000001 -0.427606 0.000000 0.000000
    30 0.010597 -0.741867 -0.000002 -0.453786 0.000000 0.000000
    31 1.047444 -2.222821 -0.277654 -1.019678 -0.066950 -0.041090
    32 0.000000 -0.996222 -0.000001 -0.584686 0.000000 0.000000
    33 -0.000001 -0.614690 0.000000 -0.523599 0.000000 0.000000
    34 -0.308254 -0.007814 0.307167 -0.318048 -0.539825 -2.424633
    35 1.978377 0.019543 0.000001 -0.000002 -0.000010 0.549774
    36 0.982426 0.003186 0.000000 0.000000 0.000000 0.593405
  time 1
    0 7.848745 6.470446 -4.811142 -1.537984 -0.637972 -3.662455
    1 0.000001 -8.563280 0.000000 0.143451 0.045153 -0.172443
    2 2.360136 -3.245876 1.423021 -1.205423 1.106299 -1.376897
    3 -0.003480 -0.404830 0.000000 0.000000 0.000000 0.000000
    4 -0.519309 -2.501153 -0.278956 -0.371773 0.037668 -0.005934
    5 -0.010598 -1.208185 0.000000 -1.007640 0.000000 0.000000
    6 0.000000 -0.763066 -0.000001 -0.561794 0.000000 0.000000
    7 0.105981 -2.607132 -0.278957 -0.520724 0.054194 -0.010195
    8 0.000000 -1.250579 0.000000 -0.714681 0.000000 0.000000
    9 -0.000001 -0.932634 0.000000 -1.156230 0.000000 0.000000
    10 0.763064 -2.490553 -0.278957 -0.349065 0.000000 0.130900
    11 -0.012322 -1.280917 0.000000 -0.700008 0.000000 0.000000
    12 -0.001697 -0.749371 -0.000001 -0.864341 0.000000 0.000000
    13 0.354567 0.016268 0.318133 0.752699 -0.783030 -1.133592
    14 1.887164 0.012878 0.000000 -0.048375 -0.218107 -0.544731
    15 1.001874 -0.000270 0.000000 0.000000 0.000000 -0.485490
    16 -1.123359 -2.195091 -0.278957 -0.156516 0.013626 -0.001073
    17 0.010771 -0.963790 0.000000 -0.657044 0.000000 0.000000
    18 -0.010411 -0.631916 0.000000 -0.880915 0.000000 0.000000
    19 -4.898099 4.842183 -9.193934 0.790237 1.318993 0.567289
    20 0.089928 -8.543162 0.000000 0.079760 -0.284688 0.455199
    21 0.000000 -0.359714 0.000001 0.000000 0.000000 0.000000
    22 -0.170480 -2.636147 -0.277655 -0.820310 0.000000 0.000000
    23 0.010599 -1.261177 0.000001 -0.584663 0.000000 0.000000
    24 -0.000001 -0.943232 0.000001 -0.532326 0.000000 0.000000
    25 -0.827563 -2.508973 -0.277656 -0.942498 0.000000 0.000000
    26 0.000000 -1.292970 0.000000 -0.287990 0.000000 0.000000
    27 0.000000 -0.752466 0.000001 -0.445059 0.000000 0.000000
    28 0.444212 -2.561960 -0.277654 -1.081537 -0.046226 -0.024599
    29 0.021022 -1.208186 -0.000001 -0.427606 0.000000 0.000000
    30 0.010597 -0.741867 -0.000002 -0.453786 0.000000 0.000000
    31 1.047444 -2.222821 -0.277654 -1.019678 -0.066950 -0.041090
    32 0.000000 -0.996222 -0.000001 -0.584686 0.000000 0.000000
    33 -0.000001 -0.614690 0.000000 -0.523599 0.000000 0.000000
    34 -0.308254 -0.007814 0.307167 -0.318048 -0.539825 -2.424633
    35 1.978377 0.019543 0.000001 -0.000002 -0.000010 0.549774
    36 0.982426 0.003186 0.000000 0.000000 0.000000 0.593405
  time 2
    0 7.637801 5.681359 -4.787704 -1.150959 -0.609317 -3.937517
    1 0.000001 -8.563280 0.000000 0.282611 0.045153 -0.172443
    2 2.360136 -3.245876 1.423021 -1.205423 1.106299 -1.376897
    3 -0.003480 -0.404830 0.000000 0.000000 0.000000 0.000000
    4 -0.519309 -2.501153 -0.278956 -0.350980 0.037668 -0.005934
    5 -0.010598 -1.208185 0.000000 -0.953967 0.000000 0.000000
    6 0.000000 -0.763066 -0.000001 -0.516922 0.000000 0.000000
    7 0.105981 -2.607132 -0.278957 -0.502304 0.054194 -0.010195
    8 0.000000 -1.250579 0.000000 -0.645815 0.000000 0.000000
    9 -0.000001 -0.932634 0.000000 -1.073714 0.000000 0.000000
    10 0.763064 -2.490553 -0.278957 -0.349065 0.000000 0.130900
    11 -0.012322 -1.280917 0.000000 -0.643951 0.000000 0.000000
    12 -0.001697 -0.749371 -0.000001 -0.816244 0.000000 0.000000
    13 0.354567 0.016268 0.318133 0.762982 -0.805333 -1.146463
    14 1.887164 0.012878 0.000000 -0.057580 -0.215914 -0.502138
    15 1.001874 -0.000270 0.000000 0.000000 0.000000 -0.433437
    16 -1.123359 -2.195091 -0.278957 -0.156516 0.013626 -0.001073
    17 0.010771 -0.963790 0.000000 -0.611398 0.000000 0.000000
    18 -0.010411 -0.631916 0.000000 -0.851265 0.000000 0.000000
    19 -4.898099 4.842183 -9.193934 0.790237 1.318993 0.567289
    20 0.089928 -8.543162 0.000000 0.079760 -0.284688 0.455199
    21 0.000000 -0.359714 0.000001 0.000000 0.000000 0.000000
    22 -0.170480 -2.636147 -0.277655 -0.820310 0.000000 0.000000
    23 0.010599 -1.261177 0.000001 -0.584663 0.000000 0.000000
    24 -0.000001 -0.943232 0.000001 -0.532326 0.000000 0.000000
    25 -0.827563 -2.508973 -0.277656 -0.942498 0.000000 0.000000
    26 0.000000 -1.292970 0.000000 -0.287990 0.000000 0.000000
    27 0.000000 -0.752466 0.000001 -0.445059 0.000000 0.000000
    28 0.444212 -2.561960 -0.277654 -1.081537 -0.046226 -0.024599
    29 0.021022 -1.208186 -0.000001 -0.427606 0.000000 0.000000
    30 0.010597 -0.741867 -0.000002 -0.453786 0.000000 0.000000
    31 1.047444 -2.222821 -0.277654 -1.019678 -0.066950 -0.041090
    32 0.000000 -0.996222 -0.000001 -0.584686 0.000000 0.000000
    33 -0.000001 -0.614690 0.000000 -0.523599 0.000000 0.000000
    34 -0.308254 -0.007814 0.307167 -0.318048 -0.539825 -2.424633
    35 1.978377 0.019543 0.000001 -0.000002 -0.000010 0.549774
    36 0.982426 0.003186 0.000000 0.000000 0.000000 0.593405
  time 3
    0 7.442483 4.954774 -4.775985 -0.911164 -0.541642 -4.121385
    1 0.000001 -8.563280 0.000000 0.422718 0.045153 -0.172443
    2 2.360136 -3.245876 1.423021 -1.205423 1.106299 -1.376897
    3 -0.003480 -0.404830 0.000000 0.000000 0.000000 0.000000
    4 -0.519309 -2.501153 -0.278956 -0.328701 0.037668 -0.005934
    5 -0.010598 -1.208185 0.000000 -0.896564 0.000000 0.000000
    6 0.000000 -0.763066 -0.000001 -0.468963 0.000000 0.000000
    7 0.105981 -2.607132 -0.278957 -0.482601 0.054194 -0.010195
    8 0.000000 -1.250579 0.000000 -0.572117 0.000000 0.000000
    9 -0.000001 -0.932634 0.000000 -0.985465 0.000000 0.000000
    10 0.763064 -2.490553 -0.278957 -0.349065 0.000000 0.130900
    11 -0.012322 -1.280917 0.000000 -0.583979 0.000000 0.000000
    12 -0.001697 -0.749371 -0.000001 -0.764872 0.000000 0.000000
    13 0.354567 0.016268 0.318133 0.774691 -0.829099 -1.160977
    14 1.887164 0.012878 0.000000 -0.067239 -0.213145 -0.456659
    15 1.001874 -0.000270 0.000000 0.000000 0.000000 -0.377732
    16 -1.123359 -2.195091 -0.278957 -0.156516 0.013626 -0.001073
    17 0.010771 -0.963790 0.000000 -0.562579 0.000000 0.000000
    18 -0.010411 -0.631916 0.000000 -0.819566 0.000000 0.000000
    19 -4.898099 4.842183 -9.193934 0.790237 1.318993 0.567289
    20 0.089928 -8.543162 0.000000 0.079760 -0.284688 0.455199
    21 0.000000 -0.359714 0.000001 0.000000 0.000000 0.000000
    22 -0.170480 -2.636147 -0.277655 -0.820310 0.000000 0.000000
    23 0.010599 -1.261177 0.000001 -0.584663 0.000000 0.000000
    24 -0.000001 -0.943232 0.000001 -0.532326 0.000000 0.000000
    25 -0.827563 -2.508973 -0.277656 -0.942498 0.000000 0.000000
    26 0.000000 -1.292970 0.000000 -0.287990 0.000000 0.000000
    27 0.000000 -0.752466 0.000001 -0.445059 0.000000 0.000000
    28 0.444212 -2.561960 -0.277654 -1.081537 -0.046226 -0.024599
    29 0.021022 -1.208186 -0.000001 -0.427606 0.000000 0.000000
    30 0.010597 -0.741867 -0.000002 -0.453786 0.000000 0.000000
    31 1.047444 -2.222821 -0.277654 -1.019678 -0.066950 -0.041090
    32 0.000000 -0.996222 -0.000001 -0.584686 0.000000 0.000000
    33 -0.000001 -0.614690 0.000000 -0.523599 0.000000 0.000000
    34 -0.308254 -0.007814 0.307167 -0.318048 -0.539825 -2.424633
    35 1.978377 0.019543 0.000001 -0.000002 -0.000010 0.549774
    36 0.982426 0.003186 0.000000 0.000000 0.000000 0.593405
  time 4
    0 7.251071 4.294598 -4.775985 -0.925513 -0.537234 -4.175823
    1 0.000001 -8.563280 0.000000 0.557726 0.045153 -0.172443
    2 2.360136 -3.245876 1.423021 -1.205423 1.106299 -1.376897
    3 -0.003480 -0.404830 0.000000 0.000000 0.000000 0.000000
    4 -0.519309 -2.501153 -0.278956 -0.305582 0.037668 -0.005934
    5 -0.010598 -1.208185 0.000000 -0.837038 0.000000 0.000000
    6 0.000000 -0.763066 -0.000001 -0.419214 0.000000 0.000000
    7 0.105981 -2.607132 -0.278957 -0.462180 0.054194 -0.010195
    8 0.000000 -1.250579 0.000000 -0.495739 0.000000 0.000000
    9 -0.000001 -0.932634 0.000000 -0.893952 0.000000 0.000000
    10 0.763064 -2.490553 -0.278957 -0.349065 0.000000 0.130900
    11 -0.012322 -1.280917 0.000000 -0.521770 0.000000 0.000000
    12 -0.001697 -0.749371 -0.000001 -0.711566 0.000000 0.000000
    13 0.354567 0.016268 0.318133 0.787754 -0.853571 -1.176892
    14 1.887164 0.012878 0.000000 -0.077138 -0.209802 -0.409532
    15 1.001874 -0.000270 0.000000 0.000000 0.000000 -0.319984
    16 -1.123359 -2.195091 -0.278957 -0.156516 0.013626 -0.001073
    17 0.010771 -0.963790 0.000000 -0.511893 0.000000 0.000000
    18 -0.010411 -0.631916 0.000000 -0.786692 0.000000 0.000000
    19 -4.898099 4.842183 -9.193934 0.790237 1.318993 0.567289
    20 0.089928 -8.543162 0.000000 0.079760 -0.284688 0.455199
    21 0.000000 -0.359714 0.000001 0.000000 0.000000 0.000000
    22 -0.170480 -2.636147 -0.277655 -0.820310 0.000000 0.000000
    23 0.010599 -1.261177 0.000001 -0.584663 0.000000 0.000000
    24 -0.000001 -0.943232 0.000001 -0.532326 0.000000 0.000000
    25 -0.827563 -2.508973 -0.277656 -0.942498 0.000000 0.000000
    26 0.000000 -1.292970 0.000000 -0.287990 0.000000 0.000000
    27 0.000000 -0.752466 0.000001 -0.445059 0.000000 0.000000
    28 0.444212 -2.561960 -0.277654 -1.081537 -0.046226 -0.024599
    29 0.021022 -1.208186 -0.000001 -0.427606 0.000000 0.000000
    30 0.010597 -0.741867 -0.000002 -0.453786 0.000000 0.000000
    31 1.047444 -2.222821 -0.277654 -1.019678 -0.066950 -0.041090
    32 0.000000 -0.996222 -0.000001 -0.584686 0.000000 0.000000
    33 -0.000001 -0.614690 0.000000 -0.523599 0.000000 0.000000
    34 -0.308254 -0.007814 0.307167 -0.318048 -0.539825 -2.424633
    35 1.978377 0.019543 0.000001 -0.000002 -0.000010 0.549774
    36 0.982426 0.003186 0.000000 0.000000 0.000000 0.593405
  time 5
    0 7.071378 3.693017 -4.787704 -1.034687 -0.568987 -4.195636
    1 0.000001 -8.563280 0.000000 0.681590 0.045153 -0.172443
    2 2.360136 -3.245876 1.423021 -1.205423 1.106299 -1.376897
    3 -0.003480 -0.404830 0.000000 0.000000 0.000000 0.000000
    4 -0.519309 -2.501153 -0.278956 -0.282284 0.037668 -0.005934
    5 -0.010598 -1.208185 0.000000 -0.776977 0.000000 0.000000
    6 0.000000 -0.763066 -0.000001 -0.369018 0.000000 0.000000
    7 0.105981 -2.607132 -0.278957 -0.441554 0.054194 -0.010195
    8 0.000000 -1.250579 0.000000 -0.418628 0.000000 0.000000
    9 -0.000001 -0.932634 0.000000 -0.801616 0.000000 0.000000
    10 0.763064 -2.490553 -0.278957 -0.349065 0.000000 0.130900
    11 -0.012322 -1.280917 0.000000 -0.459039 0.000000 0.000000
    12 -0.001697 -0.749371 -0.000001 -0.657781 0.000000 0.000000
    13 0.354567 0.016268 0.318133 0.801920 -0.878164 -1.193898
    14 1.887164 0.012878 0.000000 -0.086966 -0.205979 -0.362067
    15 1.001874 -0.000270 0.000000 0.000000 0.000000 -0.261734
    16 -1.123359 -2.195091 -0.278957 -0.156516 0.013626 -0.001073
    17 0.010771 -0.963790 0.000000 -0.460843 0.000000 0.000000
    18 -0.010411 -0.631916 0.000000 -0.753531 0.000000 0.000000
    19 -4.898099 4.842183 -9.193934 0.790237 1.318993 0.567289
    20 0.089928 -8.543162 0.000000 0.079760 -0.284688 0.455199
    21 0.000000 -0.359714 0.000001 0.000000 0.000000 0.000000
    22 -0.170480 -2.636147 -0.277655 -0.820310 0.000000 0.000000
    23 0.010599 -1.261177 0.000001 -0.584663 0.000000 0.000000
    24 -0.000001 -0.943232 0.000001 -0.532326 0.000000 0.000000
    25 -0.827563 -2.508973 -0.277656 -0.942498 0.000000 0.000000
    26 0.000000 -1.292970 0.000000 -0.287990 0.000000 0.000000
    27 0.000000 -0.752466 0.000001 -0.445059 0.000000 0.000000
    28 0.444212 -2.561960 -0.277654 -1.081537 -0.046226 -0.024599
    29 0.021022 -1.208186 -0.000001 -0.427606 0.000000 0.000000
    30 0.010597 -0.741867 -0.000002 -0.453786 0.000000 0.000000
    31 1.047444 -2.222821 -0.277654 -1.019678 -0.066950 -0.041090
    32 0.000000 -0.996222 -0.000001 -0.584686 0.000000 0.000000
    33 -0.000001 -0.614690 0.000000 -0.523599 0.000000 0.000000
    34 -0.308254 -0.007814 0.307167 -0.318048 -0.539825 -2.424633
    35 1.978377 0.019543 0.000001 -0.000002 -0.000010 0.549774
    36 0.982426 0.003186 0.000000 0.000000 0.000000 0.593405
  time 6
    0 6.899498 3.165657 -4.803329 -1.165697 -0.610866 -4.214245
    1 0.000001 -8.563280 0.000000 0.788214 0.045153 -0.172443
    2 2.360136 -3.245876 1.423021 -1.205423 1.106299 -1.376897
    3 -0.003480 -0.404830 0.000000 0.000000 0.000000 0.000000
    4 -0.519309 -2.501153 -0.278956 -0.259418 0.037668 -0.005934
    5 -0.010598 -1.208185 0.000000 -0.718022 0.000000 0.000000
    6 0.000000 -0.763066 -0.000001 -0.319732 0.000000 0.000000
    7 0.105981 -2.607132 -0.278957 -0.421312 0.054194 -0.010195
    8 0.000000 -1.250579 0.000000 -0.342960 0.000000 0.000000
    9 -0.000001 -0.932634 0.000000 -0.711008 0.000000 0.000000
    10 0.763064 -2.490553 -0.278957 -0.349065 0.000000 0.130900
    11 -0.012322 -1.280917 0.000000 -0.397464 0.000000 0.000000
    12 -0.001697 -0.749371 -0.000001 -0.604954 0.000000 0.000000
    13 0.354567 0.016268 0.318133 0.816888 -0.902121 -1.211659
    14 1.887164 0.012878 0.000000 -0.096386 -0.201772 -0.315546
    15 1.001874 -0.000270 0.000000 0.000000 0.000000 -0.204540
    16 -1.123359 -2.195091 -0.278957 -0.156516 0.013626 -0.001073
    17 0.010771 -0.963790 0.000000 -0.410673 0.000000 0.000000
    18 -0.010411 -0.631916 0.000000 -0.720993 0.000000 0.000000
    19 -4.898099 4.842183 -9.193934 0.790237 1.318993 0.567289
    20 0.089928 -8.543162 0.000000 0.079760 -0.284688 0.455199
    21 0.000000 -0.359714 0.000001 0.000000 0.000000 0.000000
    22 -0.170480 -2.636147 -0.277655 -0.820310 0.000000 0.000000
    23 0.010599 -1.261177 0.000001 -0.584663 0.000000 0.000000
    24 -0.000001 -0.943232 0.000001 -0.532326 0.000000 0.000000
    25 -0.827563 -2.508973 -0.277656 -0.942498 0.000000 0.000000
    26 0.000000 -1.292970 0.000000 -0.287990 0.000000 0.000000
    27 0.000000 -0.752466 0.000001 -0.445059 0.000000 0.000000
    28 0.444212 -2.561960 -0.277654 -1.081537 -0.046226 -0.024599
    29 0.021022 -1.208186 -0.000001 -0.427606 0.000000 0.000000
    30 0.010597 -0.741867 -0.000002 -0.453786 0.000000 0.000000
    31 1.047444 -2.222821 -0.277654 -1.019678 -0.066950 -0.041090
    32 0.000000 -0.996222 -0.000001 -0.584686 0.000000 0.000000
    33 -0.000001 -0.614690 0.000000 -0.523599 0.000000 0.000000
    34 -0.308254 -0.007814 0.307167 -0.318048 -0.539825 -2.424633
    35 1.978377 0.019543 0.000001 -0.000002 -0.000010 0.549774
    36 0.982426 0.003186 0.000000 0.000000 0.000000 0.593405
  time 7
    0 6.731524 2.696893 -4.834580 -1.319322 -0.661682 -4.224799
    1 0.000001 -8.563280 0.000000 0.864693 0.045153 -0.172443
    2 2.360136 -3.245876 1.423021 -1.205423 1.106299 -1.376897
    3 -0.003480 -0.404830 0.000000 0.000000 0.000000 0.000000
    4 -0.519309 -2.501153 -0.278956 -0.237582 0.037668 -0.005934
    5 -0.010598 -1.208185 0.000000 -0.661779 0.000000 0.000000
    6 0.000000 -0.763066 -0.000001 -0.272727 0.000000 0.000000
    7 0.105981 -2.607132 -0.278957 -0.402029 0.054194 -0.010195
    8 0.000000 -1.250579 0.000000 -0.270795 0.000000 0.000000
    9 -0.000001 -0.932634 0.000000 -0.624515 0.000000 0.000000
    10 0.763064 -2.490553 -0.278957 -0.349065 0.000000 0.130900
    11 -0.012322 -1.280917 0.000000 -0.338685 0.000000 0.000000
    12 -0.001697 -0.749371 -0.000001 -0.554604 0.000000 0.000000
    13 0.354567 0.016268 0.318133 0.832288 -0.924820 -1.229684
    14 1.887164 0.012878 0.000000 -0.105134 -0.197398 -0.271221
    15 1.001874 -0.000270 0.000000 0.000000 0.000000 -0.149960
    16 -1.123359 -2.195091 -0.278957 -0.156516 0.013626 -0.001073
    17 0.010771 -0.963790 0.000000 -0.362841 0.000000 0.000000
    18 -0.010411 -0.631916 0.000000 -0.689929 0.000000 0.000000
    19 -4.898099 4.842183 -9.193934 0.790237 1.318993 0.567289
    20 0.089928 -8.543162 0.000000 0.079760 -0.284688 0.455199
    21 0.000000 -0.359714 0.000001 0.000000 0.000000 0.000000
    22 -0.170480 -2.636147 -0.277655 -0.820310 0.000000 0.000000
    23 0.010599 -1.261177 0.000001 -0.584663 0.000000 0.000000
    24 -0.000001 -0.943232 0.000001 -0.532326 0.000000 0.000000
    25 -0.827563 -2.508973 -0.277656 -0.942498 0.000000 0.000000
    26 0.000000 -1.292970 0.000000 -0.287990 0.000000 0.000000
    27 0.000000 -0.752466 0.000001 -0.445059 0.000000 0.000000
    28 0.444212 -2.561960 -0.277654 -1.081537 -0.046226 -0.024599
    29 0.021022 -1.208186 -0.000001 -0.427606 0.000000 0.000000
    30 0.010597 -0.741867 -0.000002 -0.453786 0.000000 0.000000
    31 1.047444 -2.222821 -0.277654 -1.019678 -0.066950 -0.041090
    32 0.000000 -0.996222 -0.000001 -0.584686 0.000000 0.000000
    33 -0.000001 -0.614690 0.000000 -0.523599 0.000000 0.000000
    34 -0.308254 -0.007814 0.307167 -0.318048 -0.539825 -2.424633
    35 1.978377 0.019543 0.000001 -0.000002 -0.000010 0.549774
    36 0.982426 0.003186 0.000000 0.000000 0.000000 0.593405
  time 8
    0 6.583082 2.298443 -4.881457 -1.496653 -0.718932 -4.219800
    1 0.000001 -8.563280 0.000000 0.872499 0.045153 -0.172443
    2 2.360136 -3.245876 1.423021 -1.205423 1.106299 -1.376897
    3 -0.003480 -0.404830 0.000000 0.000000 0.000000 0.000000
    4 -0.519309 -2.501153 -0.278956 -0.217424 0.037668 -0.005934
    5 -0.010598 -1.208185 0.000000 -0.609872 0.000000 0.000000
    6 0.000000 -0.763066 -0.000001 -0.229332 0.000000 0.000000
    7 0.105981 -2.607132 -0.278957 -0.384196 0.054194 -0.010195
    8 0.000000 -1.250579 0.000000 -0.204105 0.000000 0.000000
    9 -0.000001 -0.932634 0.000000 -0.544688 0.000000 0.000000
    10 0.763064 -2.490553 -0.278957 -0.349065 0.000000 0.130900
    11 -0.012322 -1.280917 0.000000 -0.284455 0.000000 0.000000
    12 -0.001697 -0.749371 -0.000001 -0.508122 0.000000 0.000000
    13 0.354567 0.016268 0.318133 0.847557 -0.945589 -1.247349
    14 1.887164 0.012878 0.000000 -0.113056 -0.192987 -0.230388
    15 1.001874 -0.000270 0.000000 0.000000 0.000000 -0.099569
    16 -1.123359 -2.195091 -0.278957 -0.156516 0.013626 -0.001073
    17 0.010771 -0.963790 0.000000 -0.318652 0.000000 0.000000
    18 -0.010411 -0.631916 0.000000 -0.661250 0.000000 0.000000
    19 -4.898099 4.842183 -9.193934 0.790237 1.318993 0.567289
    20 0.089928 -8.543162 0.000000 0.079760 -0.284688 0.455199
    21 0.000000 -0.359714 0.000001 0.000000 0.000000 0.000000
    22 -0.170480 -2.636147 -0.277655 -0.820310 0.000000 0.000000
    23 0.010599 -1.261177 0.000001 -0.584663 0.000000 0.000000
    24 -0.000001 -0.943232 0.000001 -0.532326 0.000000 0.000000
    25 -0.827563 -2.508973 -0.277656 -0.942498 0.000000 0.000000
    26 0.000000 -1.292970 0.000000 -0.287990 0.000000 0.000000
    27 0.000000 -0.752466 0.000001 -0.445059 0.000000 0.000000
    28 0.444212 -2.561960 -0.277654 -1.081537 -0.046226 -0.024599
    29 0.021022 -1.208186 -0.000001 -0.427606 0.000000 0.000000
    30 0.010597 -0.741867 -0.000002 -0.453786 0.000000 0.000000
    31 1.047444 -2.222821 -0.277654 -1.019678 -0.066950 -0.041090
    32 0.000000 -0.996222 -0.000001 -0.584686 0.000000 0.000000
    33 -0.000001 -0.614690 0.000000 -0.523599 0.000000 0.000000
    34 -0.308254 -0.007814 0.307167 -0.318048 -0.539825 -2.424633
    35 1.978377 0.019543 0.000001 -0.000002 -0.000010 0.549774
    36 0.982426 0.003186 0.000000 0.000000 0.000000 0.593405
  time 9
    0 6.446359 1.966402 -4.936146 1.440541 -2.363745 -1.050804
    1 0.000001 -8.563280 0.000000 0.813944 0.045153 -0.172443
    2 2.360136 -3.245876 1.423021 -1.205423 1.106299 -1.376897
    3 -0.003480 -0.404830 0.000000 0.000000 0.000000 0.000000
    4 -0.519309 -2.501153 -0.278956 -0.199591 0.037668 -0.005934
    5 -0.010598 -1.208185 0.000000 -0.563836 0.000000 0.000000
    6 0.000000 -0.763066 -0.000001 -0.190887 0.000000 0.000000
    7 0.105981 -2.607132 -0.278957 -0.368376 0.054194 -0.010195
    8 0.000000 -1.250579 0.000000 -0.145086 0.000000 0.000000
    9 -0.000001 -0.932634 0.000000 -0.473941 0.000000 0.000000
    10 0.763064 -2.490553 -0.278957 -0.349065 0.000000 0.130900
    11 -0.012322 -1.280917 0.000000 -0.236377 0.000000 0.000000
    12 -0.001697 -0.749371 -0.000001 -0.466912 0.000000 0.000000
    13 0.354567 0.016268 0.318133 0.861974 -0.963890 -1.263888
    14 1.887164 0.012878 0.000000 -0.119911 -0.188865 -0.194258
    15 1.001874 -0.000270 0.000000 0.000000 0.000000 -0.054908
    16 -1.123359 -2.195091 -0.278957 -0.156516 0.013626 -0.001073
    17 0.010771 -0.963790 0.000000 -0.279503 0.000000 0.000000
    18 -0.010411 -0.631916 0.000000 -0.635818 0.000000 0.000000
    19 -4.898099 4.842183 -9.193934 0.790237 1.318993 0.567289
    20 0.089928 -8.543162 0.000000 0.079760 -0.284688 0.455199
    21 0.000000 -0.359714 0.000001 0.000000 0.000000 0.000000
    22 -0.170480 -2.636147 -0.277655 -0.820310 0.000000 0.000000
    23 0.010599 -1.261177 0.000001 -0.584663 0.000000 0.000000
    24 -0.000001 -0.943232 0.000001 -0.532326 0.000000 0.000000
    25 -0.827563 -2.508973 -0.277656 -0.942498 0.000000 0.000000
    26 0.000000 -1.292970 0.000000 -0.287990 0.000000 0.000000
    27 0.000000 -0.752466 0.000001 -0.445059 0.000000 0.000000
    28 0.444212 -2.561960 -0.277654 -1.081537 -0.046226 -0.024599
    29 0.021022 -1.208186 -0.000001 -0.427606 0.000000 0.000000
    30 0.010597 -0.741867 -0.000002 -0.453786 0.000000 0.000000
    31 1.047444 -2.222821 -0.277654 -1.019678 -0.066950 -0.041090
    32 0.000000 -0.996222 -0.000001 -0.584686 0.000000 0.000000
    33 -0.000001 -0.614690 0.000000 -0.523599 0.000000 0.000000
    34 -0.308254 -0.007814 0.307167 -0.318048 -0.539825 -2.424633
    35 1.978377 0.019543 0.000001 -0.000002 -0.000010 0.549774
    36 0.982426 0.003186 0.000000 0.000000 0.000000 0.593405
  time 10
    0 6.286198 1.673424 -5.053337 1.207063 -2.309772 -0.994144
    1 0.000001 -8.563280 0.000000 0.700986 0.045153 -0.172443
    2 8.270473 20.008740 -7.854606 -1.205423 1.106299 -1.376897
    3 -0.003480 -0.404830 0.000000 0.000000 0.000000 0.000000
    4 -0.519309 -2.501153 -0.278956 -0.184646 0.037668 -0.005934
    5 -0.010598 -1.208185 0.000000 -0.525365 0.000000 0.000000
    6 0.000000 -0.763066 -0.000001 -0.158690 0.000000 0.000000
    7 0.105981 -2.607132 -0.278957 -0.355181 0.054194 -0.010195
    8 0.000000 -1.250579 0.000000 -0.095664 0.000000 0.000000
    9 -0.000001 -0.932634 0.000000 -0.414825 0.000000 0.000000
    10 0.763064 -2.490553 -0.278957 -0.349065 0.000000 0.130900
    11 -0.012322 -1.280917 0.000000 -0.196166 0.000000 0.000000
    12 -0.001697 -0.749371 -0.000001 -0.432429 0.000000 0.000000
    13 0.354567 0.016268 0.318133 0.874774 -0.979038 -1.278437
    14 1.887164 0.012878 0.000000 -0.125520 -0.185185 -0.164112
    15 1.001874 -0.000270 0.000000 0.000000 0.000000 -0.017621
    16 -1.123359 -2.195091 -0.278957 -0.156516 0.013626 -0.001073
    17 0.010771 -0.963790 0.000000 -0.246775 0.000000 0.000000
    18 -0.010411 -0.631916 0.000000 -0.614594 0.000000 0.000000
    19 -4.898099 4.842183 -9.193934 0.790237 1.318993 0.567289
    20 0.089928 -8.543162 0.000000 0.079760 -0.284688 0.455199
    21 0.000000 -0.359714 0.000001 0.000000 0.000000 0.000000
    22 -0.170480 -2.636147 -0.277655 -0.820310 0.000000 0.000000
    23 0.010599 -1.261177 0.000001 -0.584663 0.000000 0.000000
    24 -0.000001 -0.943232 0.000001 -0.532326 0.000000 0.000000
    25 -0.827563 -2.508973 -0.277656 -0.942498 0.000000 0.000000
    26 0.000000 -1.292970 0.000000 -0.287990 0.000000 0.000000
    27 0.000000 -0.752466 0.000001 -0.445059 0.000000 0.000000
    28 0.444212 -2.561960 -0.277654 -1.081537 -0.046226 -0.024599
    29 0.021022 -1.208186 -0.000001 -0.427606 0.000000 0.000000
    30 0.010597 -0.741867 -0.000002 -0.453786 0.000000 0.000000
    31 1.047444 -2.222821 -0.277654 -1.019678 -0.066950 -0.041090
    32 0.000000 -0.996222 -0.000001 -0.584686 0.000000 0.000000
    33 -0.000001 -0.614690 0.000000 -0.523599 0.000000 0.000000
    34 -0.308254 -0.007814 0.307167 -0.318048 -0.539825 -2.424633
    35 1.978377 0.019543 0.000001 -0.000002 -0.000010 0.549774
    36 0.982426 0.003186 0.000000 0.000000 0.000000 0.593405
  time 11
    0 6.051816 1.388259 -5.361940 0.944107 -2.268607 -0.905728
    1 0.000001 -8.563280 0.000000 0.554072 0.045153 -0.172443
    2 8.360319 22.770543 -7.487407 -1.205423 1.106299 -1.376897
    3 -0.003480 -0.404830 0.000000 0.000000 0.000000 0.000000
    4 -0.519309 -2.501153 -0.278956 -0.173236 0.037668 -0.005934
    5 -0.010598 -1.208185 0.000000 -0.496066 0.000000 0.000000
    6 0.000000 -0.763066 -0.000001 -0.134219 0.000000 0.000000
    7 0.105981 -2.607132 -0.278957 -0.345114 0.054194 -0.010195
    8 0.000000 -1.250579 0.000000 -0.058036 0.000000 0.000000
    9 -0.000001 -0.932634 0.000000 -0.369755 0.000000 0.000000
    10 0.763064 -2.490553 -0.278957 -0.349065 0.000000 0.130900
    11 -0.012322 -1.280917 0.000000 -0.165518 0.000000 0.000000
    12 -0.001697 -0.749371 -0.000001 -0.406208 0.000000 0.000000
    13 0.354567 0.016268 0.318133 0.884985 -0.990543 -1.290003
    14 1.887164 0.012878 0.000000 -0.129751 -0.182285 -0.141147
    15 1.001874 -0.000270 0.000000 0.000000 0.000000 0.010855
    16 -1.123359 -2.195091 -0.278957 -0.156516 0.013626 -0.001073
    17 0.010771 -0.963790 0.000000 -0.221819 0.000000 0.000000
    18 -0.010411 -0.631916 0.000000 -0.598414 0.000000 0.000000
    19 -4.898099 4.842183 -9.193934 0.790237 1.318993 0.567289
    20 0.089928 -8.543162 0.000000 0.079760 -0.284688 0.455199
    21 0.000000 -0.359714 0.000001 0.000000 0.000000 0.000000
    22 -0.170480 -2.636147 -0.277655 -0.820310 0.000000 0.000000
    23 0.010599 -1.261177 0.000001 -0.584663 0.000000 0.000000
    24 -0.000001 -0.943232 0.000001 -0.532326 0.000000 0.000000
    25 -0.827563 -2.508973 -0.277656 -0.942498 0.000000 0.000000
    26 0.000000 -1.292970 0.000000 -0.287990 0.000000 0.000000
    27 0.000000 -0.752466 0.000001 -0.445059 0.000000 0.000000
    28 0.444212 -2.561960 -0.277654 -1.081537 -0.046226 -0.024599
    29 0.021022 -1.208186 -0.000001 -0.427606 0.000000 0.000000
    30 0.010597 -0.741867 -0.000002 -0.453786 0.000000 0.000000
    31 1.047444 -2.222821 -0.277654 -1.019678 -0.066950 -0.041090
    32 0.000000 -0.996222 -0.000001 -0.584686 0.000000 0.000000
    33 -0.000001 -0.614690 0.000000 -0.523599 0.000000 0.000000
    34 -0.308254 -0.007814 0.307167 -0.318048 -0.539825 -2.424633
    35 1.978377 0.019543 0.000001 -0.000002 -0.000010 0.549774
    36 0.982426 0.003186 0.000000 0.000000 0.000000 0.593405
  time 12
    0 5.747119 1.122626 -5.818985 0.659863 -2.248888 -0.790926
    1 0.000001 -8.563280 0.000000 0.389051 0.045153 -0.172443
    2 6.465730 23.270558 -2.881798 -1.205423 1.106299 -1.376897
    3 -0.003480 -0.404830 0.000000 0.000000 0.000000 0.000000
    4 -0.519309 -2.501153 -0.278956 -0.166058 0.037668 -0.005934
    5 -0.010598 -1.208185 0.000000 -0.477473 0.000000 0.000000
    6 0.000000 -0.763066 -0.000001 -0.118710 0.000000 0.000000
    7 0.105981 -2.607132 -0.278957 -0.338726 0.054194 -0.010195
    8 0.000000 -1.250579 0.000000 -0.034172 0.000000 0.000000
    9 -0.000001 -0.932634 0.000000 -0.341225 0.000000 0.000000
    10 0.763064 -2.490553 -0.278957 -0.349065 0.000000 0.130900
    11 -0.012322 -1.280917 0.000000 -0.146130 0.000000 0.000000
    12 -0.001697 -0.749371 -0.000001 -0.389590 0.000000 0.000000
    13 0.354567 0.016268 0.318133 0.891648 -0.997818 -1.297529
    14 1.887164 0.012878 0.000000 -0.132351 -0.180428 -0.126616
    15 1.001874 -0.000270 0.000000 0.000000 0.000000 0.028875
    16 -1.123359 -2.195091 -0.278957 -0.156516 0.013626 -0.001073
    17 0.010771 -0.963790 0.000000 -0.206032 0.000000 0.000000
    18 -0.010411 -0.631916 0.000000 -0.588156 0.000000 0.000000
    19 -4.898099 4.842183 -9.193934 0.790237 1.318993 0.567289
    20 0.089928 -8.543162 0.000000 0.079760 -0.284688 0.455199
    21 0.000000 -0.359714 0.000001 0.000000 0.000000 0.000000
    22 -0.170480 -2.636147 -0.277655 -0.820310 0.000000 0.000000
    23 0.010599 -1.261177 0.000001 -0.584663 0.000000 0.000000
    24 -0.000001 -0.943232 0.000001 -0.532326 0.000000 0.000000
    25 -0.827563 -2.508973 -0.277656 -0.942498 0.000000 0.000000
    26 0.000000 -1.292970 0.000000 -0.287990 0.000000 0.000000
    27 0.000000 -0.752466 0.000001 -0.445059 0.000000 0.000000
    28 0.444212 -2.561960 -0.277654 -1.081537 -0.046226 -0.024599
    29 0.021022 -1.208186 -0.000001 -0.427606 0.000000 0.000000
    30 0.010597 -0.741867 -0.000002 -0.453786 0.000000 0.000000
    31 1.047444 -2.222821 -0.277654 -1.019678 -0.066950 -0.041090
    32 0.000000 -0.996222 -0.000001 -0.584686 0.000000 0.000000
    33 -0.000001 -0.614690 0.000000 -0.523599 0.000000 0.000000
    34 -0.308254 -0.007814 0.307167 -0.318048 -0.539825 -2.424633
    35 1.978377 0.019543 0.000001 -0.000002 -0.000010 0.549774
    36 0.982426 0.003186 0.000000 0.000000 0.000000 0.593405
  time 13
    0 5.399452 0.876525 -6.381503 0.370237 -2.255918 -0.665477
    1 0.000001 -8.563280 0.000000 0.221480 0.045153 -0.172443
    2 3.903152 23.801824 3.337142 -1.205423 1.106299 -1.376897
    3 -0.003480 -0.404830 0.000000 0.000000 0.000000 0.000000
    4 -0.519309 -2.501153 -0.278956 -0.163673 0.037668 -0.005934
    5 -0.010598 -1.208185 0.000000 -0.471246 0.000000 0.000000
    6 0.000000 -0.763066 -0.000001 -0.113505 0.000000 0.000000
    7 0.105981 -2.607132 -0.278957 -0.336593 0.054194 -0.010195
    8 0.000000 -1.250579 0.000000 -0.026294 0.000000 0.000000
    9 -0.000001 -0.932634 0.000000 -0.331624 0.000000 0.000000
    10 0.763064 -2.490553 -0.278957 -0.349065 0.000000 0.130900
    11 -0.012322 -1.280917 0.000000 -0.139643 0.000000 0.000000
    12 -0.001697 -0.749371 -0.000001 -0.383981 0.000000 0.000000
    13 0.354567 0.016268 0.318133 0.893925 -1.000215 -1.300082
    14 1.887164 0.012878 0.000000 -0.133202 -0.179756 -0.121730
    15 1.001874 -0.000270 0.000000 0.000000 0.000000 0.034899
    16 -1.123359 -2.195091 -0.278957 -0.156516 0.013626 -0.001073
    17 0.010771 -0.963790 0.000000 -0.200719 0.000000 0.000000
    18 -0.010411 -0.631916 0.000000 -0.584716 0.000000 0.000000
    19 -4.898099 4.842183 -9.193934 0.790237 1.318993 0.567289
    20 0.089928 -8.543162 0.000000 0.079760 -0.284688 0.455199
    21 0.000000 -0.359714 0.000001 0.000000 0.000000 0.000000
    22 -0.170480 -2.636147 -0.277655 -0.820310 0.000000 0.000000
    23 0.010599 -1.261177 0.000001 -0.584663 0.000000 0.000000
    24 -0.000001 -0.943232 0.000001 -0.532326 0.000000 0.000000
    25 -0.827563 -2.508973 -0.277656 -0.942498 0.000000 0.000000
    26 0.000000 -1.292970 0.000000 -0.287990 0.000000 0.000000
    27 0.000000 -0.752466 0.000001 -0.445059 0.000000 0.000000
    28 0.444212 -2.561960 -0.277654 -1.081537 -0.046226 -0.024599
    29 0.021022 -1.208186 -0.000001 -0.427606 0.000000 0.000000
    30 0.010597 -0.741867 -0.000002 -0.453786 0.000000 0.000000
    31 1.047444 -2.222821 -0.277654 -1.019678 -0.066950 -0.041090
    32 0.000000 -0.996222 -0.000001 -0.584686 0.000000 0.000000
    33 -0.000001 -0.614690 0.000000 -0.523599 0.000000 0.000000
    34 -0.308254 -0.007814 0.307167 -0.318048 -0.539825 -2.424633
    35 1.978377 0.019543 0.000001 -0.000002 -0.000010 0.549774
    36 0.982426 0.003186 0.000000 0.000000 0.000000 0.593405
  time 14
    0 5.028347 0.677300 -7.037773 0.096832 -2.290351 -0.549194
    1 0.000001 -8.563280 0.000000 0.066814 0.045153 -0.172443
    2 1.387450 24.020581 9.583426 -1.205423 1.106299 -1.376897
    3 -0.003480 -0.404830 0.000000 0.000000 0.000000 0.000000
    4 -0.519309 -2.501153 -0.278956 -0.165722 0.037668 -0.005934
    5 -0.010598 -1.208185 0.000000 -0.476653 0.000000 0.000000
    6 0.000000 -0.763066 -0.000001 -0.117994 0.000000 0.000000
    7 0.105981 -2.607132 -0.278957 -0.338475 0.054194 -0.010195
    8 0.000000 -1.250579 0.000000 -0.033164 0.000000 0.000000
    9 -0.000001 -0.932634 0.000000 -0.339963 0.000000 0.000000
    10 0.763064 -2.490553 -0.278957 -0.349065 0.000000 0.130900
    11 -0.012322 -1.280917 0.000000 -0.145254 0.000000 0.000000
    12 -0.001697 -0.749371 -0.000001 -0.388823 0.000000 0.000000
    13 0.354567 0.016268 0.318133 0.891972 -0.998142 -1.297865
    14 1.887164 0.012878 0.000000 -0.132459 -0.180332 -0.125940
    15 1.001874 -0.000270 0.000000 0.000000 0.000000 0.029689
    16 -1.123359 -2.195091 -0.278957 -0.156516 0.013626 -0.001073
    17 0.010771 -0.963790 0.000000 -0.205288 0.000000 0.000000
    18 -0.010411 -0.631916 0.000000 -0.587664 0.000000 0.000000
    19 -4.898099 4.842183 -9.193934 0.790237 1.318993 0.567289
    20 0.089928 -8.543162 0.000000 0.079760 -0.284688 0.455199
    21 0.000000 -0.359714 0.000001 0.000000 0.000000 0.000000
    22 -0.170480 -2.636147 -0.277655 -0.820310 0.000000 0.000000
    23 0.010599 -1.261177 0.000001 -0.584663 0.000000 0.000000
    24 -0.000001 -0.943232 0.000001 -0.532326 0.000000 0.000000
    25 -0.827563 -2.508973 -0.277656 -0.942498 0.000000 0.000000
    26 0.000000 -1.292970 0.000000 -0.287990 0.000000 0.000000
    27 0.000000 -0.752466 0.000001 -0.445059 0.000000 0.000000
    28 0.444212 -2.561960 -0.277654 -1.081537 -0.046226 -0.024599
    29 0.021022 -1.208186 -0.000001 -0.427606 0.000000 0.000000
    30 0.010597 -0.741867 -0.000002 -0.453786 0.000000 0.000000
    31 1.047444 -2.222821 -0.277654 -1.019678 -0.066950 -0.041090
    32 0.000000 -0.996222 -0.000001 -0.584686 0.000000 0.000000
    33 -0.000001 -0.614690 0.000000 -0.523599 0.000000 0.000000
    34 -0.308254 -0.007814 0.307167 -0.318048 -0.539825 -2.424633
    35 1.978377 0.019543 0.000001 -0.000002 -0.000010 0.549774
    36 0.982426 0.003186 0.000000 0.000000 0.000000 0.593405
  time 15
    0 4.657242 0.528858 -7.737013 -0.144600 -2.347422 -0.456519
    1 0.000001 -8.563280 0.000000 -0.059363 0.045153 -0.172443
    2 -0.464169 23.622131 14.220286 -1.205423 1.106299 -1.376897
    3 -0.003480 -0.404830 0.000000 0.000000 0.000000 0.000000
    4 -0.519309 -2.501153 -0.278956 -0.171415 0.037668 -0.005934
    5 -0.010598 -1.208185 0.000000 -0.491284 0.000000 0.000000
    6 0.000000 -0.763066 -0.000001 -0.130222 0.000000 0.000000
    7 0.105981 -2.607132 -0.278957 -0.343472 0.054194 -0.010195
    8 0.000000 -1.250579 0.000000 -0.051967 0.000000 0.000000
    9 -0.000001 -0.932634 0.000000 -0.362430 0.000000 0.000000
    10 0.763064 -2.490553 -0.278957 -0.349065 0.000000 0.130900
    11 -0.012322 -1.280917 0.000000 -0.160578 0.000000 0.000000
    12 -0.001697 -0.749371 -0.000001 -0.401909 0.000000 0.000000
    13 0.354567 0.016268 0.318133 0.886687 -0.992437 -1.291896
    14 1.887164 0.012878 0.000000 -0.130434 -0.181830 -0.137387
    15 1.001874 -0.000270 0.000000 0.000000 0.000000 0.015477
    16 -1.123359 -2.195091 -0.278957 -0.156516 0.013626 -0.001073
    17 0.010771 -0.963790 0.000000 -0.217766 0.000000 0.000000
    18 -0.010411 -0.631916 0.000000 -0.595778 0.000000 0.000000
    19 -4.898099 4.842183 -9.193934 0.790237 1.318993 0.567289
    20 0.089928 -8.543162 0.000000 0.079760 -0.284688 0.455199
    21 0.000000 -0.359714 0.000001 0.000000 0.000000 0.000000
    22 -0.170480 -2.636147 -0.277655 -0.820310 0.000000 0.000000
    23 0.010599 -1.261177 0.000001 -0.584663 0.000000 0.000000
    24 -0.000001 -0.943232 0.000001 -0.532326 0.000000 0.000000
    25 -0.827563 -2.508973 -0.277656 -0.942498 0.000000 0.000000
    26 0.000000 -1.292970 0.000000 -0.287990 0.000000 0.000000
    27 0.000000 -0.752466 0.000001 -0.445059 0.000000 0.000000
    28 0.444212 -2.561960 -0.277654 -1.081537 -0.046226 -0.024599
    29 0.021022 -1.208186 -0.000001 -0.427606 0.000000 0.000000
    30 0.010597 -0.741867 -0.000002 -0.453786 0.000000 0.000000
    31 1.047444 -2.222821 -0.277654 -1.019678 -0.066950 -0.041090
    32 0.000000 -0.996222 -0.000001 -0.584686 0.000000 0.000000
    33 -0.000001 -0.614690 0.000000 -0.523599 0.000000 0.000000
    34 -0.308254 -0.007814 0.307167 -0.318048 -0.539825 -2.424633
    35 1.978377 0.019543 0.000001 -0.000002 -0.000010 0.549774
    36 0.982426 0.003186 0.000000 0.000000 0.000000 0.593405
  time 16
    0 4.286137 0.454637 -8.432346 -0.348133 -2.419565 -0.392545
    1 0.000001 -8.563280 0.000000 -0.143149 0.045153 -0.172443
    2 -1.952496 22.446314 17.872742 -1.205423 1.106299 -1.376897
    3 -0.003480 -0.404830 0.000000 0.000000 0.000000 0.000000
    4 -0.519309 -2.501153 -0.278956 -0.180283 0.037668 -0.005934
    5 -0.010598 -1.208185 0.000000 -0.514195 0.000000 0.000000
    6 0.000000 -0.763066 -0.000001 -0.149340 0.000000 0.000000
    7 0.105981 -2.607132 -0.278957 -0.351322 0.054194 -0.010195
    8 0.000000 -1.250579 0.000000 -0.081304 0.000000 0.000000
    9 -0.000001 -0.932634 0.000000 -0.397625 0.000000 0.000000
    10 0.763064 -2.490553 -0.278957 -0.349065 0.000000 0.130900
    11 -0.012322 -1.280917 0.000000 -0.184477 0.000000 0.000000
    12 -0.001697 -0.749371 -0.000001 -0.422394 0.000000 0.000000
    13 0.354567 0.016268 0.318133 0.878621 -0.983460 -1.282824
    14 1.887164 0.012878 0.000000 -0.127138 -0.184107 -0.155326
    15 1.001874 -0.000270 0.000000 0.000000 0.000000 -0.006750
    16 -1.123359 -2.195091 -0.278957 -0.156516 0.013626 -0.001073
    17 0.010771 -0.963790 0.000000 -0.237242 0.000000 0.000000
    18 -0.010411 -0.631916 0.000000 -0.608422 0.000000 0.000000
    19 -4.898099 4.842183 -9.193934 0.790237 1.318993 0.567289
    20 0.089928 -8.543162 0.000000 0.079760 -0.284688 0.455199
    21 0.000000 -0.359714 0.000001 0.000000 0.000000 0.000000
    22 -0.170480 -2.636147 -0.277655 -0.820310 0.000000 0.000000
    23 0.010599 -1.261177 0.000001 -0.584663 0.000000 0.000000
    24 -0.000001 -0.943232 0.000001 -0.532326 0.000000 0.000000
    25 -0.827563 -2.508973 -0.277656 -0.942498 0.000000 0.000000
    26 0.000000 -1.292970 0.000000 -0.287990 0.000000 0.000000
    27 0.000000 -0.752466 0.000001 -0.445059 0.000000 0.000000
    28 0.444212 -2.561960 -0.277654 -1.081537 -0.046226 -0.024599
    29 0.021022 -1.208186 -0.000001 -0.427606 0.000000 0.000000
    30 0.010597 -0.741867 -0.000002 -0.453786 0.000000 0.000000
    31 1.047444 -2.222821 -0.277654 -1.019678 -0.066950 -0.041090
    32 0.000000 -0.996222 -0.000001 -0.584686 0.000000 0.000000
    33 -0.000001 -0.614690 0.000000 -0.523599 0.000000 0.000000
    34 -0.308254 -0.007814 0.307167 -0.318048 -0.539825 -2.424633
    35 1.978377 0.019543 0.000001 -0.000002 -0.000010 0.549774
    36 0.982426 0.003186 0.000000 0.000000 0.000000 0.593405
  time 17
    0 3.961908 0.454637 -9.112055 -0.514079 -2.499036 -0.354586
    1 0.000001 -8.563280 0.000000 -0.205515 0.045153 -0.172443
    2 -3.245504 20.872047 21.079871 -1.205423 1.106299 -1.376897
    3 -0.003480 -0.404830 0.000000 0.000000 0.000000 0.000000
    4 -0.519309 -2.501153 -0.278956 -0.191944 0.037668 -0.005934
    5 -0.010598 -1.208185 0.000000 -0.544280 0.000000 0.000000
    6 0.000000 -0.763066 -0.000001 -0.174513 0.000000 0.000000
    7 0.105981 -2.607132 -0.278957 -0.361677 0.054194 -0.010195
    8 0.000000 -1.250579 0.000000 -0.119940 0.000000 0.000000
    9 -0.000001 -0.932634 0.000000 -0.443848 0.000000 0.000000
    10 0.763064 -2.490553 -0.278957 -0.349065 0.000000 0.130900
    11 -0.012322 -1.280917 0.000000 -0.215889 0.000000 0.000000
    12 -0.001697 -0.749371 -0.000001 -0.449367 0.000000 0.000000
    13 0.354567 0.016268 0.318133 0.868386 -0.971644 -1.271235
    14 1.887164 0.012878 0.000000 -0.122824 -0.186995 -0.178882
    15 1.001874 -0.000270 0.000000 0.000000 0.000000 -0.035918
    16 -1.123359 -2.195091 -0.278957 -0.156516 0.013626 -0.001073
    17 0.010771 -0.963790 0.000000 -0.262805 0.000000 0.000000
    18 -0.010411 -0.631916 0.000000 -0.624996 0.000000 0.000000
    19 -4.898099 4.842183 -9.193934 0.790237 1.318993 0.567289
    20 0.089928 -8.543162 0.000000 0.079760 -0.284688 0.455199
    21 0.000000 -0.359714 0.000001 0.000000 0.000000 0.000000
    22 -0.170480 -2.636147 -0.277655 -0.820310 0.000000 0.000000
    23 0.010599 -1.261177 0.000001 -0.584663 0.000000 0.000000
    24 -0.000001 -0.943232 0.000001 -0.532326 0.000000 0.000000
    25 -0.827563 -2.508973 -0.277656 -0.942498 0.000000 0.000000
    26 0.000000 -1.292970 0.000000 -0.287990 0.000000 0.000000
    27 0.000000 -0.752466 0.000001 -0.445059 0.000000 0.000000
    28 0.444212 -2.561960 -0.277654 -1.081537 -0.046226 -0.024599
    29 0.021022 -1.208186 -0.000001 -0.427606 0.000000 0.000000
    30 0.010597 -0.741867 -0.000002 -0.453786 0.000000 0.000000
    31 1.047444 -2.222821 -0.277654 -1.019678 -0.066950 -0.041090
    32 0.000000 -0.996222 -0.000001 -0.584686 0.000000 0.000000
    33 -0.000001 -0.614690 0.000000 -0.523599 0.000000 0.000000
    34 -0.308254 -0.007814 0.307167 -0.318048 -0.539825 -2.424633
    35 1.978377 0.019543 0.000001 -0.000002 -0.000010 0.549774
    36 0.982426 0.003186 0.000000 0.000000 0.000000 0.593405
  time 18
    0 3.684556 0.548390 -9.709729 -0.645791 -2.578983 -0.337088
    1 0.000001 -8.563280 0.000000 -0.258078 0.045153 -0.172443
    2 -4.100999 19.356376 23.611198 -1.205423 1.106299 -1.376897
    3 -0.003480 -0.404830 0.000000 0.000000 0.000000 0.000000
    4 -0.519309 -2.501153 -0.278956 -0.206026 0.037668 -0.005934
    5 -0.010598 -1.208185 0.000000 -0.580538 0.000000 0.000000
    6 0.000000 -0.763066 -0.000001 -0.204800 0.000000 0.000000
    7 0.105981 -2.607132 -0.278957 -0.374129 0.054194 -0.010195
    8 0.000000 -1.250579 0.000000 -0.166477 0.000000 0.000000
    9 -0.000001 -0.932634 0.000000 -0.499672 0.000000 0.000000
    10 0.763064 -2.490553 -0.278957 -0.349065 0.000000 0.130900
    11 -0.012322 -1.280917 0.000000 -0.253770 0.000000 0.000000
    12 -0.001697 -0.749371 -0.000001 -0.481820 0.000000 0.000000
    13 0.354567 0.016268 0.318133 0.856629 -0.957262 -1.257812
    14 1.887164 0.012878 0.000000 -0.117467 -0.190399 -0.207324
    15 1.001874 -0.000270 0.000000 0.000000 0.000000 -0.071093
    16 -1.123359 -2.195091 -0.278957 -0.156516 0.013626 -0.001073
    17 0.010771 -0.963790 0.000000 -0.293681 0.000000 0.000000
    18 -0.010411 -0.631916 0.000000 -0.645059 0.000000 0.000000
    19 -4.898099 4.842183 -9.193934 0.790237 1.318993 0.567289
    20 0.089928 -8.543162 0.000000 0.079760 -0.284688 0.455199
    21 0.000000 -0.359714 0.000001 0.000000 0.000000 0.000000
    22 -0.170480 -2.636147 -0.277655 -0.820310 0.000000 0.000000
    23 0.010599 -1.261177 0.000001 -0.584663 0.000000 0.000000
    24 -0.000001 -0.943232 0.000001 -0.532326 0.000000 0.000000
    25 -0.827563 -2.508973 -0.277656 -0.942498 0.000000 0.000000
    26 0.000000 -1.292970 0.000000 -0.287990 0.000000 0.000000
    27 0.000000 -0.752466 0.000001 -0.445059 0.000000 0.000000
    28 0.444212 -2.561960 -0.277654 -1.081537 -0.046226 -0.024599
    29 0.021022 -1.208186 -0.000001 -0.427606 0.000000 0.000000
    30 0.010597 -0.741867 -0.000002 -0.453786 0.000000 0.000000
    31 1.047444 -2.222821 -0.277654 -1.019678 -0.066950 -0.041090
    32 0.000000 -0.996222 -0.000001 -0.584686 0.000000 0.000000
    33 -0.000001 -0.614690 0.000000 -0.523599 0.000000 0.000000
    34 -0.308254 -0.007814 0.307167 -0.318048 -0.539825 -2.424633
    35 1.978377 0.019543 0.000001 -0.000002 -0.000010 0.549774
    36 0.982426 0.003186 0.000000 0.000000 0.000000 0.593405
  time 19
    0 3.473612 0.751521 -10.205838 -0.745920 -2.653569 -0.333755
    1 0.000001 -8.563280 0.000000 -0.301390 0.045153 -0.172443
    2 -4.198658 18.325095 25.115150 -1.205423 1.106299 -1.376897
    3 -0.003480 -0.404830 0.000000 0.000000 0.000000 0.000000
    4 -0.519309 -2.501153 -0.278956 -0.222122 0.037668 -0.005934
    5 -0.010598 -1.208185 0.000000 -0.621952 0.000000 0.000000
    6 0.000000 -0.763066 -0.000001 -0.239427 0.000000 0.000000
    7 0.105981 -2.607132 -0.278957 -0.388343 0.054194 -0.010195
    8 0.000000 -1.250579 0.000000 -0.219609 0.000000 0.000000
    9 -0.000001 -0.932634 0.000000 -0.563287 0.000000 0.000000
    10 0.763064 -2.490553 -0.278957 -0.349065 0.000000 0.130900
    11 -0.012322 -1.280917 0.000000 -0.297057 0.000000 0.000000
    12 -0.001697 -0.749371 -0.000001 -0.518907 0.000000 0.000000
    13 0.354567 0.016268 0.318133 0.843926 -0.940759 -1.243167
    14 1.887164 0.012878 0.000000 -0.111247 -0.194042 -0.239878
    15 1.001874 -0.000270 0.000000 0.000000 0.000000 -0.111271
    16 -1.123359 -2.195091 -0.278957 -0.156516 0.013626 -0.001073
    17 0.010771 -0.963790 0.000000 -0.328929 0.000000 0.000000
    18 -0.010411 -0.631916 0.000000 -0.667901 0.000000 0.000000
    19 -4.898099 4.842183 -9.193934 0.790237 1.318993 0.567289
    20 0.089928 -8.543162 0.000000 0.079760 -0.284688 0.455199
    21 0.000000 -0.359714 0.000001 0.000000 0.000000 0.000000
    22 -0.170480 -2.636147 -0.277655 -0.820310 0.000000 0.000000
    23 0.010599 -1.261177 0.000001 -0.584663 0.000000 0.000000
    24 -0.000001 -0.943232 0.000001 -0.532326 0.000000 0.000000
    25 -0.827563 -2.508973 -0.277656 -0.942498 0.000000 0.000000
    26 0.000000 -1.292970 0.000000 -0.287990 0.000000 0.000000
    27 0.000000 -0.752466 0.000001 -0.445059 0.000000 0.000000
    28 0.444212 -2.561960 -0.277654 -1.081537 -0.046226 -0.024599
    29 0.021022 -1.208186 -0.000001 -0.427606 0.000000 0.000000
    30 0.010597 -0.741867 -0.000002 -0.453786 0.000000 0.000000
    31 1.047444 -2.222821 -0.277654 -1.019678 -0.066950 -0.041090
    32 0.000000 -0.996222 -0.000001 -0.584686 0.000000 0.000000
    33 -0.000001 -0.614690 0.000000 -0.523599 0.000000 0.000000
    34 -0.308254 -0.007814 0.307167 -0.318048 -0.539825 -2.424633
    35 1.978377 0.019543 0.000001 -0.000002 -0.000010 0.549774
    36 0.982426 0.003186 0.000000 0.000000 0.000000 0.593405
  time 20
    0 3.348608 1.067937 -10.553505 -0.816260 -2.718027 -0.338847
    1 0.000001 -8.563280 0.000000 -0.335871 0.045153 -0.172443
    2 -3.128313 17.684450 25.091712 -1.205423 1.106299 -1.376897
    3 -0.003480 -0.404830 0.000000 0.000000 0.000000 0.000000
    4 -0.519309 -2.501153 -0.278956 -0.239787 0.037668 -0.005934
    5 -0.010598 -1.208185 0.000000 -0.667453 0.000000 0.000000
    6 0.000000 -0.763066 -0.000001 -0.277470 0.000000 0.000000
    7 0.105981 -2.607132 -0.278957 -0.403946 0.054194 -0.010195
    8 0.000000 -1.250579 0.000000 -0.278078 0.000000 0.000000
    9 -0.000001 -0.932634 0.000000 -0.633266 0.000000 0.000000
    10 0.763064 -2.490553 -0.278957 -0.349065 0.000000 0.130900
    11 -0.012322 -1.280917 0.000000 -0.344632 0.000000 0.000000
    12 -0.001697 -0.749371 -0.000001 -0.559702 0.000000 0.000000
    13 0.354567 0.016268 0.318133 0.830707 -0.922543 -1.227839
    14 1.887164 0.012878 0.000000 -0.104271 -0.197841 -0.275670
    15 1.001874 -0.000270 0.000000 0.000000 0.000000 -0.155430
    16 -1.123359 -2.195091 -0.278957 -0.156516 0.013626 -0.001073
    17 0.010771 -0.963790 0.000000 -0.367653 0.000000 0.000000
    18 -0.010411 -0.631916 0.000000 -0.693057 0.000000 0.000000
    19 -4.898099 4.842183 -9.193934 0.790237 1.318993 0.567289
    20 0.089928 -8.543162 0.000000 0.079760 -0.284688 0.455199
    21 0.000000 -0.359714 0.000001 0.000000 0.000000 0.000000
    22 -0.170480 -2.636147 -0.277655 -0.820310 0.000000 0.000000
    23 0.010599 -1.261177 0.000001 -0.584663 0.000000 0.000000
    24 -0.000001 -0.943232 0.000001 -0.532326 0.000000 0.000000
    25 -0.827563 -2.508973 -0.277656 -0.942498 0.000000 0.000000
    26 0.000000 -1.292970 0.000000 -0.287990 0.000000 0.000000
    27 0.000000 -0.752466 0.000001 -0.445059 0.000000 0.000000
    28 0.444212 -2.561960 -0.277654 -1.081537 -0.046226 -0.024599
    29 0.021022 -1.208186 -0.000001 -0.427606 0.000000 0.000000
    30 0.010597 -0.741867 -0.000002 -0.453786 0.000000 0.000000
    31 1.047444 -2.222821 -0.277654 -1.019678 -0.066950 -0.041090
    32 0.000000 -0.996222 -0.000001 -0.584686 0.000000 0.000000
    33 -0.000001 -0.614690 0.000000 -0.523599 0.000000 0.000000
    34 -0.308254 -0.007814 0.307167 -0.318048 -0.539825 -2.424633
    35 1.978377 0.019543 0.000001 -0.000002 -0.000010 0.549774
    36 0.982426 0.003186 0.000000 0.000000 0.000000 0.593405
  time 21
    0 3.336889 1.521076 -10.713666 -0.857434 -2.767830 -0.347920
    1 0.000001 -8.563280 0.000000 -0.362021 0.045153 -0.172443
    2 -1.147784 17.301626 23.865112 -1.205423 1.106299 -1.376897
    3 -0.003480 -0.404830 0.000000 0.000000 0.000000 0.000000
    4 -0.519309 -2.501153 -0.278956 -0.258651 0.037668 -0.005934
    5 -0.010598 -1.208185 0.000000 -0.716041 0.000000 0.000000
    6 0.000000 -0.763066 -0.000001 -0.318107 0.000000 0.000000
    7 0.105981 -2.607132 -0.278957 -0.420641 0.054194 -0.010195
    8 0.000000 -1.250579 0.000000 -0.340440 0.000000 0.000000
    9 -0.000001 -0.932634 0.000000 -0.707963 0.000000 0.000000
    10 0.763064 -2.490553 -0.278957 -0.349065 0.000000 0.130900
    11 -0.012322 -1.280917 0.000000 -0.395376 0.000000 0.000000
    12 -0.001697 -0.749371 -0.000001 -0.603212 0.000000 0.000000
    13 0.354567 0.016268 0.318133 0.817428 -0.902912 -1.212295
    14 1.887164 0.012878 0.000000 -0.096661 -0.201628 -0.313983
    15 1.001874 -0.000270 0.000000 0.000000 0.000000 -0.202584
    16 -1.123359 -2.195091 -0.278957 -0.156516 0.013626 -0.001073
    17 0.010771 -0.963790 0.000000 -0.408988 0.000000 0.000000
    18 -0.010411 -0.631916 0.000000 -0.719878 0.000000 0.000000
    19 -4.898099 4.842183 -9.193934 0.790237 1.318993 0.567289
    20 0.089928 -8.543162 0.000000 0.079760 -0.284688 0.455199
    21 0.000000 -0.359714 0.000001 0.000000 0.000000 0.000000
    22 -0.170480 -2.636147 -0.277655 -0.820310 0.000000 0.000000
    23 0.010599 -1.261177 0.000001 -0.584663 0.000000 0.000000
    24 -0.000001 -0.943232 0.000001 -0.532326 0.000000 0.000000
    25 -0.827563 -2.508973 -0.277656 -0.942498 0.000000 0.000000
    26 0.000000 -1.292970 0.000000 -0.287990 0.000000 0.000000
    27 0.000000 -0.752466 0.000001 -0.445059 0.000000 0.000000
    28 0.444212 -2.561960 -0.277654 -1.081537 -0.046226 -0.024599
    29 0.021022 -1.208186 -0.000001 -0.427606 0.000000 0.000000
    30 0.010597 -0.741867 -0.000002 -0.453786 0.000000 0.000000
    31 1.047444 -2.222821 -0.277654 -1.019678 -0.066950 -0.041090
    32 0.000000 -0.996222 -0.000001 -0.584686 0.000000 0.000000
    33 -0.000001 -0.614690 0.000000 -0.523599 0.000000 0.000000
    34 -0.308254 -0.007814 0.307167 -0.318048 -0.539825 -2.424633
    35 1.978377 0.019543 0.000001 -0.000002 -0.000010 0.549774
    36 0.982426 0.003186 0.000000 0.000000 0.000000 0.593405
  time 22
    0 3.442361 2.122657 -10.670696 -0.828971 -2.801310 -0.355975
    1 0.000001 -8.563280 0.000000 -0.380339 0.045153 -0.172443
    2 1.344480 17.121933 21.872864 -1.205423 1.106299 -1.376897
    3 -0.003480 -0.404830 0.000000 0.000000 0.000000 0.000000
    4 -0.519309 -2.501153 -0.278956 -0.278281 0.037668 -0.005934
    5 -0.010598 -1.208185 0.000000 -0.766699 0.000000 0.000000
    6 0.000000 -0.763066 -0.000001 -0.360459 0.000000 0.000000
    7 0.105981 -2.607132 -0.278957 -0.438043 0.054194 -0.010195
    8 0.000000 -1.250579 0.000000 -0.405482 0.000000 0.000000
    9 -0.000001 -0.932634 0.000000 -0.785870 0.000000 0.000000
    10 0.763064 -2.490553 -0.278957 -0.349065 0.000000 0.130900
    11 -0.012322 -1.280917 0.000000 -0.448301 0.000000 0.000000
    12 -0.001697 -0.749371 -0.000001 -0.648593 0.000000 0.000000
    13 0.354567 0.016268 0.318133 0.804436 -0.882334 -1.196918
    14 1.887164 0.012878 0.000000 -0.088620 -0.205284 -0.353957
    15 1.001874 -0.000270 0.000000 0.000000 0.000000 -0.251746
    16 -1.123359 -2.195091 -0.278957 -0.156516 0.013626 -0.001073
    17 0.010771 -0.963790 0.000000 -0.452084 0.000000 0.000000
    18 -0.010411 -0.631916 0.000000 -0.747862 0.000000 0.000000
    19 -4.898099 4.842183 -9.193934 0.790237 1.318993 0.567289
    20 0.089928 -8.543162 0.000000 0.079760 -0.284688 0.455199
    21 0.000000 -0.359714 0.000001 0.000000 0.000000 0.000000
    22 -0.170480 -2.636147 -0.277655 -0.820310 0.000000 0.000000
    23 0.010599 -1.261177 0.000001 -0.584663 0.000000 0.000000
    24 -0.000001 -0.943232 0.000001 -0.532326 0.000000 0.000000
    25 -0.827563 -2.508973 -0.277656 -0.942498 0.000000 0.000000
    26 0.000000 -1.292970 0.000000 -0.287990 0.000000 0.000000
    27 0.000000 -0.752466 0.000001 -0.445059 0.000000 0.000000
    28 0.444212 -2.561960 -0.277654 -1.081537 -0.046226 -0.024599
    29 0.021022 -1.208186 -0.000001 -0.427606 0.000000 0.000000
    30 0.010597 -0.741867 -0.000002 -0.453786 0.000000 0.000000
    31 1.047444 -2.222821 -0.277654 -1.019678 -0.066950 -0.041090
    32 0.000000 -0.996222 -0.000001 -0.584686 0.000000 0.000000
    33 -0.000001 -0.614690 0.000000 -0.523599 0.000000 0.000000
    34 -0.308254 -0.007814 0.307167 -0.318048 -0.539825 -2.424633
    35 1.978377 0.019543 0.000001 -0.000002 -0.000010 0.549774
    36 0.982426 0.003186 0.000000 0.000000 0.000000 0.593405
  time 23
    0 3.704088 2.876586 -10.365999 -0.638071 -2.821565 -0.356345
    1 0.000001 -8.563280 0.000000 -0.391246 0.045153 -0.172443
    2 3.946122 17.094588 19.560293 -1.205423 1.106299 -1.376897
    3 -0.003480 -0.404830 0.000000 0.000000 0.000000 0.000000
    4 -0.519309 -2.501153 -0.278956 -0.298356 0.037668 -0.005934
    5 -0.010598 -1.208185 0.000000 -0.818374 0.000000 0.000000
    6 0.000000 -0.763066 -0.000001 -0.403646 0.000000 0.000000
    7 0.105981 -2.607132 -0.278957 -0.455780 0.054194 -0.010195
    8 0.000000 -1.250579 0.000000 -0.471806 0.000000 0.000000
    9 -0.000001 -0.932634 0.000000 -0.865313 0.000000 0.000000
    10 0.763064 -2.490553 -0.278957 -0.349065 0.000000 0.130900
    11 -0.012322 -1.280917 0.000000 -0.502326 0.000000 0.000000
    12 -0.001697 -0.749371 -0.000001 -0.694868 0.000000 0.000000
    13 0.354567 0.016268 0.318133 0.792020 -0.861242 -1.182057
    14 1.887164 0.012878 0.000000 -0.080206 -0.208639 -0.394804
    15 1.001874 -0.000270 0.000000 0.000000 0.000000 -0.301877
    16 -1.123359 -2.195091 -0.278957 -0.156516 0.013626 -0.001073
    17 0.010771 -0.963790 0.000000 -0.496045 0.000000 0.000000
    18 -0.010411 -0.631916 0.000000 -0.776410 0.000000 0.000000
    19 -4.898099 4.842183 -9.193934 0.790237 1.318993 0.567289
    20 0.089928 -8.543162 0.000000 0.079760 -0.284688 0.455199
    21 0.000000 -0.359714 0.000001 0.000000 0.000000 0.000000
    22 -0.170480 -2.636147 -0.277655 -0.820310 0.000000 0.000000
    23 0.010599 -1.261177 0.000001 -0.584663 0.000000 0.000000
    24 -0.000001 -0.943232 0.000001 -0.532326 0.000000 0.000000
    25 -0.827563 -2.508973 -0.277656 -0.942498 0.000000 0.000000
    26 0.000000 -1.292970 0.000000 -0.287990 0.000000 0.000000
    27 0.000000 -0.752466 0.000001 -0.445059 0.000000 0.000000
    28 0.444212 -2.561960 -0.277654 -1.081537 -0.046226 -0.024599
    29 0.021022 -1.208186 -0.000001 -0.427606 0.000000 0.000000
    30 0.010597 -0.741867 -0.000002 -0.453786 0.000000 0.000000
    31 1.047444 -2.222821 -0.277654 -1.019678 -0.066950 -0.041090
    32 0.000000 -0.996222 -0.000001 -0.584686 0.000000 0.000000
    33 -0.000001 -0.614690 0.000000 -0.523599 0.000000 0.000000
    34 -0.308254 -0.007814 0.307167 -0.318048 -0.539825 -2.424633
    35 1.978377 0.019543 0.000001 -0.000002 -0.000010 0.549774
    36 0.982426 0.003186 0.000000 0.000000 0.000000 0.593405
end
