version 1
nodes
  0 "sm_root" -1
  1 "Bone035" 0
  2 "roll" 0
  3 "Bone047" -1
  4 "Bone050" 3
  5 "Bone048" 3
  6 "Bone051" 3
  7 "Bone049" 3
  8 "Bone053" -1
  9 "Bone057" 8
  10 "Bone055" 8
  11 "Bone056" 8
  12 "Bone054" 8
  13 "Bone059" -1
  14 "Bone063" 13
  15 "Bone061" 13
  16 "Bone062" 13
  17 "Bone060" 13
  18 "Bone065" -1
  19 "Bone069" 18
  20 "Bone067" 18
  21 "Bone068" 18
  22 "Bone066" 18
  23 "Bone071" -1
  24 "Bone073" 23
  25 "Bone075" 23
  26 "Bone074" 23
  27 "Bone072" 23
  28 "Bone076" -1
  29 "Bone077" 28
  30 "Bone078" 28
  31 "Bone079" 28
  32 "Bone080" 28
  33 "Bone081" -1
  34 "Bone082" 33
  35 "Bone083" 33
  36 "Bone084" 33
  37 "Bone085" 33
  38 "Bone088" -1
  39 "Bone087" 38
  40 "Bone0471" -1
  41 "Bone0481" 40
  42 "Bone4483" -1
  43 "Bone4484" -1
  44 "Bone001" 0
  45 "Bone002" 0
  46 "Bone003" 0
  47 "Bone004" 0
  48 "Bone005" 0
  49 "Bone006" 0
  50 "Bone007" 0
  51 "Bone008" 0
  52 "Bone009" 0
  53 "Bone010" 0
  54 "Bone011" 0
  55 "Bone012" 0
  56 "Bone013" 0
  57 "megazin" 0
  58 "wbl" 0
  59 "wbr" 0
  60 "wlw" 0
  61 "wrw" 0
  62 "wmr" 0
  63 "wml" 0
  64 "g1" 0
  65 "g5" 0
  66 "g2" 0
  67 "le" 0
  68 "Bone034" 0
  69 "g4" 0
  70 "missub" 0
  71 "missile" 70
  72 "triger" 0
  73 "rr" 0
  74 "g3" 0
  75 "dr" 0
  76 "dl" 0
  77 "rrr" 0
  78 "root" -1
  79 "Bone01" 78
  80 "Bone_L_Upper" 79
  81 "Bone_Lefthand" 79
  82 "Bone13" 81
  83 "Bone14" 82
  84 "Bone15" 83
  85 "Bone17" 81
  86 "Bone18" 85
  87 "Bone19" 86
  88 "Bone21" 81
  89 "Bone22" 88
  90 "Bone23" 89
  91 "Bone09" 81
  92 "Bone10" 91
  93 "Bone11" 92
  94 "Bone05" 81
  95 "Bone06" 94
  96 "Bone07" 95
  97 "Bone_Se_Hand-L" 81
  98 "Bone04" 78
  99 "Bone_Righthand" 98
  100 "Bone39" 99
  101 "Bone40" 100
  102 "Bone41" 101
  103 "Bone35" 99
  104 "Bone36" 103
  105 "Bone37" 104
  106 "Bone31" 99
  107 "Bone32" 106
  108 "Bone33" 107
  109 "Bone43" 99
  110 "Bone44" 109
  111 "Bone45" 110
  112 "Bone27" 99
  113 "Bone28" 112
  114 "Bone29" 113
  115 "Bone_Se_Hand-R" 99
  116 "Bone_R_Upper" 98
  117 "Bone44486" -1
  118 "Bone34487" -1
  119 "Bone24488" -1
  120 "Bone14489" -1
end
skeleton
  time 0
    0 30.740341 0.057415 16.506876 0.000000 -1.570796 0.000000
    1 0.000002 0.000003 6.656769 1.568907 0.000016 -0.000016
    2 0.238165 -0.057411 18.177242 0.000016 1.571142 0.000000
    3 5.411311 16.979931 2.331516 0.000000 -3.141592 1.570796
    4 0.000000 0.533579 -0.533575 0.000000 0.000000 0.000000
    5 0.000000 0.533558 0.533559 0.000000 0.000000 0.000000
    6 0.000000 -0.533422 0.533425 0.000000 0.000000 0.000000
    7 0.000000 -0.533558 -0.533559 0.000000 0.000000 0.000000
    8 0.093007 16.745312 -1.587859 3.141592 0.000000 -1.570796
    9 0.000000 0.000000 0.000000 0.000000 0.000000 0.000000
    10 0.000000 0.000000 0.000000 0.000000 0.000000 0.000000
    11 0.000000 0.000000 0.000000 0.000000 0.000000 0.000000
    12 0.000000 0.000000 0.000000 0.000000 0.000000 0.000000
    13 -8.350971 16.765377 5.505509 -3.141592 0.000000 -1.570796
    14 0.000000 0.858212 -0.858679 0.000000 0.000000 0.000000
    15 0.000000 0.858258 0.858254 0.000000 0.000000 0.000000
    16 0.000000 -0.857788 0.858322 0.000000 0.000000 0.000000
    17 0.000000 -0.858255 -0.858255 0.000000 0.000000 0.000000
    18 -3.864479 16.143764 1.586151 3.141592 0.000000 -1.570796
    19 -0.000002 1.288248 1.288246 0.000000 0.000000 0.000000
    20 0.000000 1.288374 -1.287852 0.000000 0.000000 0.000000
    21 0.000000 -1.288624 1.288149 0.000000 0.000000 0.000000
    22 0.000002 -1.288245 -1.288246 0.000000 0.000000 0.000000
    23 -17.026951 12.474297 0.000000 1.570797 -1.570796 0.000000
    24 0.000000 -2.500265 2.499650 0.000000 0.000000 0.000000
    25 0.000002 2.499998 2.500000 0.000000 0.000000 0.000000
    26 0.000000 2.499733 -2.500347 0.000000 0.000000 0.000000
    27 -0.000002 -2.499998 -2.499999 0.000000 0.000000 0.000000
    28 -17.026951 20.583500 0.000000 1.570797 -1.570796 0.000000
    29 0.000000 -2.500264 2.499649 0.000000 0.000000 0.000000
    30 0.000002 2.500000 2.499998 0.000000 0.000000 0.000000
    31 0.000000 2.499733 -2.500349 0.000000 0.000000 0.000000
    32 -0.000002 -2.499998 -2.500000 0.000000 0.000000 0.000000
    33 -24.909796 12.474297 0.000000 1.570797 -1.570796 0.000000
    34 0.000000 -2.500265 2.499649 0.000000 0.000000 0.000000
    35 0.000002 2.499998 2.500000 0.000000 0.000000 0.000000
    36 -0.000002 -2.499998 -2.500000 0.000000 0.000000 0.000000
    37 0.000000 2.499733 -2.500347 0.000000 0.000000 0.000000
    38 -22.136528 5.148227 0.000000 1.570797 -1.570796 0.000000
    39 0.000000 0.000000 -5.000001 0.000000 0.000000 0.000000
    40 3.850081 10.374924 -2.009211 -1.570796 -1.570796 0.000000
    41 0.000000 0.000000 0.000000 -0.000001 0.000000 0.000000
    42 3.822995 19.577003 1.750549 1.570797 -1.570796 0.000000
    43 3.823020 19.577007 1.744969 1.570796 -1.570796 0.000000
    44 1.227543 1.274200 2.559948 0.000000 0.000000 -0.000016
    45 1.227522 -0.057805 2.559948 0.000000 0.000000 -0.000016
    46 1.227499 -1.405704 2.559944 0.000000 0.000000 -0.000016
    47 1.227533 0.614613 4.131958 0.000000 0.000000 -0.000016
    48 1.227509 -0.736622 4.131958 0.000000 0.000000 -0.000016
    49 1.227541 1.269795 5.648256 0.000000 0.000000 -0.000016
    50 1.227526 -0.061621 5.608467 0.000000 0.000000 -0.000016
    51 1.227503 -1.384727 5.628353 0.000000 0.000000 -0.000016
    52 1.227530 0.576794 7.045952 0.000000 0.000000 -0.000016
    53 1.227512 -0.691383 7.045952 0.000000 0.000000 -0.000016
    54 1.227531 0.479730 9.970165 0.000000 0.000000 -0.000016
    55 1.227510 -0.597449 9.970165 0.000000 0.000000 -0.000016
    56 1.227522 -0.057430 11.260593 0.000000 0.000000 -0.000016
    57 -2.649344 -0.057365 19.084707 1.570813 1.570796 0.000000
    58 -1.493857 1.981615 13.975277 1.567822 0.874977 -1.260424
    59 -1.493926 -2.096234 13.975277 1.567822 -2.266615 1.260391
    60 1.467035 1.098954 14.340328 1.570796 -0.851723 -0.000016
    61 1.466995 -1.213433 14.340328 -1.570795 0.851723 3.141577
    62 1.427794 -1.100432 14.395096 -1.570794 1.322711 3.141578
    63 1.427830 0.985443 14.395096 1.570794 -1.322711 -0.000015
    64 1.739691 0.829557 21.047108 0.000000 -3.141592 1.570780
    65 0.673979 -0.057417 21.796459 0.000000 0.000000 -1.570813
    66 1.739658 -0.980721 21.047108 0.000000 0.000000 -1.570813
    67 1.201231 -0.057430 12.624596 1.570813 1.570796 0.000000
    68 1.227522 -0.057431 8.514482 0.000000 0.000000 -0.000016
    69 1.893322 -0.445810 20.965324 3.141576 -1.570451 0.000000
    70 2.107203 -0.057441 20.712799 0.000016 1.570451 0.000000
    71 -0.000001 0.000000 0.000000 0.000000 0.000000 0.000000
    72 -1.365401 -0.057385 21.304688 -1.570795 0.000000 3.141576
    73 0.197601 -0.057412 15.712989 1.570813 1.570796 0.000000
    74 1.892908 0.330097 20.965324 3.141576 -1.570451 0.000000
    75 1.752115 -0.395435 20.910845 1.570813 1.570796 0.000000
    76 1.752123 0.280085 20.910845 1.570813 1.570796 0.000000
    77 0.197601 -0.057412 16.040049 1.570813 1.570796 0.000000
    78 0.001265 -0.569176 -20.601572 0.000000 0.000000 0.000000
    79 9.310103 -5.299614 -12.557959 3.138909 -0.000224 -1.566807
    80 1.257180 8.762585 -0.153713 -1.570562 0.002683 -1.566807
    81 -0.071921 -8.498736 -0.104134 -0.025046 0.287591 0.014898
    82 -0.488518 -2.755602 -0.228260 0.106454 0.010332 -0.264490
    83 0.039887 -1.479790 0.029854 -0.055395 0.000000 0.000001
    84 0.028786 -1.075731 -0.023109 0.002099 0.000000 0.000000
    85 0.250027 -2.820665 -0.238396 0.041826 -0.002921 0.008443
    86 -0.049759 -1.680544 0.100479 0.019826 0.000000 -0.000002
    87 -0.034142 -1.148312 0.084782 -0.040115 0.000000 0.000000
    88 0.957766 -2.746780 -0.090302 -0.017221 -0.162277 0.191558
    89 -0.033420 -1.397129 -0.011257 0.013931 0.000000 -0.000001
    90 -0.022360 -0.957436 0.018784 0.003845 0.000000 0.000000
    91 -1.180681 -2.507217 -0.193859 0.082999 0.013294 -0.477915
    92 -0.024967 -1.123934 0.017597 -0.018065 0.000000 0.000001
    93 -0.020057 -0.890968 0.010090 -0.060797 0.000000 0.000000
    94 0.583510 -1.197277 0.185379 0.158049 -0.404973 -0.364290
    95 1.535927 0.010246 0.005009 -0.002964 -0.012979 0.000887
    96 1.100771 0.004527 -0.010679 -0.002796 0.015973 0.003458
    97 0.120153 -0.050270 -0.054489 0.287569 3.110905 1.561085
    98 -9.310107 -5.231260 -12.513384 0.004984 -3.131565 -1.566847
    99 0.096944 -8.450418 -0.009365 -0.032965 -0.297907 -0.004663
    100 0.447953 -2.798986 -0.200443 0.106456 -0.010396 0.265094
    101 -0.032909 -1.480204 0.004940 -0.055403 0.000000 0.000002
    102 -0.027022 -1.076920 -0.020210 0.002094 0.000000 0.000000
    103 -0.249534 -2.846964 -0.174213 0.041903 -0.000125 -0.008396
    104 0.043235 -1.683941 0.096012 0.019757 0.002823 -0.000167
    105 0.031729 -1.160830 0.058838 -0.040181 0.000642 0.008372
    106 -0.963866 -2.785145 -0.085350 -0.017227 0.162276 -0.191556
    107 0.028479 -1.403067 0.006271 0.013941 0.000000 0.000000
    108 0.021413 -0.957781 0.020046 0.003851 0.000000 0.000000
    109 1.164475 -2.543940 -0.170330 0.083003 -0.013294 0.477915
    110 0.024032 -1.129042 0.017807 -0.018074 0.000000 0.000001
    111 0.014898 -0.883989 -0.019848 -0.060801 0.000000 0.000000
    112 -0.586770 -1.264477 0.200161 -0.152092 -0.410513 -2.814816
    113 1.522835 0.058681 0.016848 0.001410 0.008985 -0.046880
    114 1.117947 0.048424 -0.005766 -0.000243 -0.025198 0.065422
    115 -0.139399 -0.111698 0.014397 0.285382 -0.030687 1.580508
    116 -1.393470 8.839177 -0.239433 1.580804 -0.005023 -1.566847
    117 -6.657067 16.074886 -4.579077 1.570796 -1.570796 0.000000
    118 -5.764869 16.002422 -4.579077 1.570796 -1.570796 0.000000
    119 -4.811806 16.002422 -4.579077 1.570796 -1.570796 0.000000
    120 -4.003729 16.002422 -4.579077 1.570796 -1.570796 0.000000
end
triangles
$0b_battleshipo.bmp
  1 18.352348 -0.601786 18.416963 -1.000000 0.000000 0.000000 0.850394 0.503937
  1 18.352867 -0.331795 18.946967 -1.000000 0.000000 0.000000 0.692913 0.811024
  1 18.352960 -0.281794 18.876968 -1.000000 0.000000 0.000000 0.661417 0.771654
$0b_battleshipo.bmp
  1 18.352960 -0.281794 18.876968 -1.000000 0.000000 0.000000 0.661417 0.771654
  1 18.352867 -0.331795 18.946967 -1.000000 0.000000 0.000000 0.692913 0.811024
  1 18.354037 0.288205 18.876977 -1.000000 0.000000 0.000000 0.322835 0.771654
$0b_battleshipo.bmp
  1 18.352867 -0.331795 18.946967 -1.000000 0.000000 0.000000 0.692913 0.811024
  1 18.354133 0.338204 18.946978 -1.000000 0.000000 0.000000 0.291339 0.811024
  1 18.354037 0.288205 18.876977 -1.000000 0.000000 0.000000 0.322835 0.771654
$0b_battleshipo.bmp
  1 18.354037 0.288205 18.876977 -1.000000 0.000000 0.000000 0.322835 0.771654
  1 18.354133 0.338204 18.946978 -1.000000 0.000000 0.000000 0.291339 0.811024
  1 18.354483 0.528212 18.416981 -1.000000 0.000000 0.000000 0.181102 0.503937
$0b_battleshipo.bmp
  1 18.354133 0.338204 18.946978 -1.000000 0.000000 0.000000 0.291339 0.811024
  1 18.354653 0.618212 18.416982 -1.000000 0.000000 0.000000 0.133858 0.503937
  1 18.354483 0.528212 18.416981 -1.000000 0.000000 0.000000 0.181102 0.503937
$0b_battleshipo.bmp
  1 18.354483 0.528212 18.416981 -1.000000 0.000000 0.000000 0.181102 0.503937
  1 18.354653 0.618212 18.416982 -1.000000 0.000000 0.000000 0.133858 0.503937
  1 18.354060 0.308220 17.956978 -1.000000 0.000000 0.000000 0.307087 0.236220
$0b_battleshipo.bmp
  1 18.354653 0.618212 18.416982 -1.000000 0.000000 0.000000 0.133858 0.503937
  1 18.354153 0.358221 17.866978 -1.000000 0.000000 0.000000 0.283465 0.196850
  1 18.354060 0.308220 17.956978 -1.000000 0.000000 0.000000 0.307087 0.236220
$0b_battleshipo.bmp
  1 18.354060 0.308220 17.956978 -1.000000 0.000000 0.000000 0.307087 0.236220
  1 18.354153 0.358221 17.866978 -1.000000 0.000000 0.000000 0.283465 0.196850
  1 18.352907 -0.301779 17.956968 -1.000000 0.000000 0.000000 0.677165 0.236220
$0b_battleshipo.bmp
  1 18.354153 0.358221 17.866978 -1.000000 0.000000 0.000000 0.283465 0.196850
  1 18.342812 -0.351759 17.876967 -1.000000 0.000000 0.000000 0.700787 0.196850
  1 18.352907 -0.301779 17.956968 -1.000000 0.000000 0.000000 0.677165 0.236220
$0b_battleshipo.bmp
  1 18.352907 -0.301779 17.956968 -1.000000 0.000000 0.000000 0.677165 0.236220
  1 18.342812 -0.351759 17.876967 -1.000000 0.000000 0.000000 0.700787 0.196850
  1 18.352499 -0.521786 18.406964 -1.000000 0.000000 0.000000 0.803150 0.503937
$0b_battleshipo.bmp
  1 18.342812 -0.351759 17.876967 -1.000000 0.000000 0.000000 0.700787 0.196850
  1 18.352348 -0.601786 18.416963 -1.000000 0.000000 0.000000 0.850394 0.503937
  1 18.352499 -0.521786 18.406964 -1.000000 0.000000 0.000000 0.803150 0.503937
$0b_battleshipo.bmp
  1 18.352499 -0.521786 18.406964 -1.000000 0.000000 0.000000 0.803150 0.503937
  1 18.352348 -0.601786 18.416963 -1.000000 0.000000 0.000000 0.850394 0.503937
  1 18.352960 -0.281794 18.876968 -1.000000 0.000000 0.000000 0.661417 0.771654
$0b_battleshipo.bmp
  1 18.392867 -0.331870 18.946967 1.000000 0.000000 0.000000 0.755906 0.062992
  1 18.392348 -0.601861 18.406962 1.000000 0.000000 0.000000 0.976378 0.496063
  1 18.392499 -0.521861 18.416964 1.000000 0.000000 0.000000 0.905512 0.496063
$0b_battleshipo.bmp
  1 18.392499 -0.521861 18.416964 1.000000 0.000000 0.000000 0.905512 0.496063
  1 18.392348 -0.601861 18.406962 1.000000 0.000000 0.000000 0.976378 0.496063
  1 18.392907 -0.301854 17.946967 1.000000 0.000000 0.000000 0.732283 0.866142
$0b_battleshipo.bmp
  1 18.392348 -0.601861 18.406962 1.000000 0.000000 0.000000 0.976378 0.496063
  1 18.392811 -0.351853 17.876966 1.000000 0.000000 0.000000 0.779528 0.929134
  1 18.392907 -0.301854 17.946967 1.000000 0.000000 0.000000 0.732283 0.866142
$0b_battleshipo.bmp
  1 18.392907 -0.301854 17.946967 1.000000 0.000000 0.000000 0.732283 0.866142
  1 18.392811 -0.351853 17.876966 1.000000 0.000000 0.000000 0.779528 0.929134
  1 18.394060 0.308145 17.956977 1.000000 0.000000 0.000000 0.236220 0.866142
$0b_battleshipo.bmp
  1 18.392811 -0.351853 17.876966 1.000000 0.000000 0.000000 0.779528 0.929134
  1 18.394153 0.358146 17.876978 1.000000 0.000000 0.000000 0.196850 0.929134
  1 18.394060 0.308145 17.956977 1.000000 0.000000 0.000000 0.236220 0.866142
$0b_battleshipo.bmp
  1 18.394060 0.308145 17.956977 1.000000 0.000000 0.000000 0.236220 0.866142
  1 18.394153 0.358146 17.876978 1.000000 0.000000 0.000000 0.196850 0.929134
  1 18.394483 0.528137 18.416980 1.000000 0.000000 0.000000 0.062992 0.496063
$0b_battleshipo.bmp
  1 18.394153 0.358146 17.876978 1.000000 0.000000 0.000000 0.196850 0.929134
  1 18.394653 0.618137 18.416982 1.000000 0.000000 0.000000 0.000000 0.496063
  1 18.394483 0.528137 18.416980 1.000000 0.000000 0.000000 0.062992 0.496063
$0b_battleshipo.bmp
  1 18.394483 0.528137 18.416980 1.000000 0.000000 0.000000 0.062992 0.496063
  1 18.394653 0.618137 18.416982 1.000000 0.000000 0.000000 0.000000 0.496063
  1 18.394037 0.288130 18.866976 1.000000 0.000000 0.000000 0.251969 0.125984
$0b_battleshipo.bmp
  1 18.394653 0.618137 18.416982 1.000000 0.000000 0.000000 0.000000 0.496063
  1 18.394132 0.338129 18.946977 1.000000 0.000000 0.000000 0.212598 0.062992
  1 18.394037 0.288130 18.866976 1.000000 0.000000 0.000000 0.251969 0.125984
$0b_battleshipo.bmp
  1 18.394037 0.288130 18.866976 1.000000 0.000000 0.000000 0.251969 0.125984
  1 18.394132 0.338129 18.946977 1.000000 0.000000 0.000000 0.212598 0.062992
  1 18.392960 -0.281869 18.866967 1.000000 0.000000 0.000000 0.716535 0.125984
$0b_battleshipo.bmp
  1 18.394132 0.338129 18.946977 1.000000 0.000000 0.000000 0.212598 0.062992
  1 18.392867 -0.331870 18.946967 1.000000 0.000000 0.000000 0.755906 0.062992
  1 18.392960 -0.281869 18.866967 1.000000 0.000000 0.000000 0.716535 0.125984
$0b_battleshipo.bmp
  1 18.392960 -0.281869 18.866967 1.000000 0.000000 0.000000 0.716535 0.125984
  1 18.392867 -0.331870 18.946967 1.000000 0.000000 0.000000 0.755906 0.062992
  1 18.392499 -0.521861 18.416964 1.000000 0.000000 0.000000 0.905512 0.496063
$0b_battleshipo.bmp
  1 30.252346 -0.614268 18.406769 -1.000000 0.000000 0.000000 0.850394 0.503937
  1 30.252864 -0.344277 18.936773 -1.000000 0.000000 0.000000 0.692913 0.811024
  1 30.252958 -0.294276 18.866774 -1.000000 0.000000 0.000000 0.661417 0.771654
$0b_battleshipo.bmp
  1 30.252958 -0.294276 18.866774 -1.000000 0.000000 0.000000 0.661417 0.771654
  1 30.252864 -0.344277 18.936773 -1.000000 0.000000 0.000000 0.692913 0.811024
  1 30.254034 0.275723 18.866783 -1.000000 0.000000 0.000000 0.322835 0.771654
$0b_battleshipo.bmp
  1 30.252864 -0.344277 18.936773 -1.000000 0.000000 0.000000 0.692913 0.811024
  1 30.254130 0.325722 18.936784 -1.000000 0.000000 0.000000 0.291339 0.811024
  1 30.254034 0.275723 18.866783 -1.000000 0.000000 0.000000 0.322835 0.771654
$0b_battleshipo.bmp
  1 30.254034 0.275723 18.866783 -1.000000 0.000000 0.000000 0.322835 0.771654
  1 30.254130 0.325722 18.936784 -1.000000 0.000000 0.000000 0.291339 0.811024
  1 30.264480 0.515711 18.406787 -1.000000 0.000000 0.000000 0.181102 0.503937
$0b_battleshipo.bmp
  1 30.254130 0.325722 18.936784 -1.000000 0.000000 0.000000 0.291339 0.811024
  1 30.264650 0.605711 18.406788 -1.000000 0.000000 0.000000 0.133858 0.503937
  1 30.264480 0.515711 18.406787 -1.000000 0.000000 0.000000 0.181102 0.503937
$0b_battleshipo.bmp
  1 30.264480 0.515711 18.406787 -1.000000 0.000000 0.000000 0.181102 0.503937
  1 30.264650 0.605711 18.406788 -1.000000 0.000000 0.000000 0.133858 0.503937
  1 30.254057 0.295737 17.956783 -1.000000 0.000000 0.000000 0.307087 0.236220
$0b_battleshipo.bmp
  1 30.264650 0.605711 18.406788 -1.000000 0.000000 0.000000 0.133858 0.503937
  1 30.264150 0.345720 17.866784 -1.000000 0.000000 0.000000 0.283465 0.196850
  1 30.254057 0.295737 17.956783 -1.000000 0.000000 0.000000 0.307087 0.236220
$0b_battleshipo.bmp
  1 30.254057 0.295737 17.956783 -1.000000 0.000000 0.000000 0.307087 0.236220
  1 30.264150 0.345720 17.866784 -1.000000 0.000000 0.000000 0.283465 0.196850
  1 30.262905 -0.314280 17.946773 -1.000000 0.000000 0.000000 0.677165 0.236220
$0b_battleshipo.bmp
  1 30.264150 0.345720 17.866784 -1.000000 0.000000 0.000000 0.283465 0.196850
  1 30.252809 -0.364260 17.866773 -1.000000 0.000000 0.000000 0.700787 0.196850
  1 30.262905 -0.314280 17.946773 -1.000000 0.000000 0.000000 0.677165 0.236220
$0b_battleshipo.bmp
  1 30.262905 -0.314280 17.946773 -1.000000 0.000000 0.000000 0.677165 0.236220
  1 30.252809 -0.364260 17.866773 -1.000000 0.000000 0.000000 0.700787 0.196850
  1 30.262515 -0.524287 18.406770 -1.000000 0.000000 0.000000 0.803150 0.503937
$0b_battleshipo.bmp
  1 30.252809 -0.364260 17.866773 -1.000000 0.000000 0.000000 0.700787 0.196850
  1 30.252346 -0.614268 18.406769 -1.000000 0.000000 0.000000 0.850394 0.503937
  1 30.262515 -0.524287 18.406770 -1.000000 0.000000 0.000000 0.803150 0.503937
$0b_battleshipo.bmp
  1 30.262515 -0.524287 18.406770 -1.000000 0.000000 0.000000 0.803150 0.503937
  1 30.252346 -0.614268 18.406769 -1.000000 0.000000 0.000000 0.850394 0.503937
  1 30.252958 -0.294276 18.866774 -1.000000 0.000000 0.000000 0.661417 0.771654
$0b_battleshipo.bmp
  1 30.292864 -0.344353 18.936772 1.000000 0.000000 0.000000 0.755906 0.062992
  1 30.292345 -0.614344 18.406768 1.000000 0.000000 0.000000 0.976378 0.496063
  1 30.292515 -0.524344 18.406769 1.000000 0.000000 0.000000 0.905512 0.496063
$0b_battleshipo.bmp
  1 30.292515 -0.524344 18.406769 1.000000 0.000000 0.000000 0.905512 0.496063
  1 30.292345 -0.614344 18.406768 1.000000 0.000000 0.000000 0.976378 0.496063
  1 30.292924 -0.304337 17.946773 1.000000 0.000000 0.000000 0.732283 0.866142
$0b_battleshipo.bmp
  1 30.292345 -0.614344 18.406768 1.000000 0.000000 0.000000 0.976378 0.496063
  1 30.292809 -0.364336 17.876772 1.000000 0.000000 0.000000 0.779528 0.929134
  1 30.292924 -0.304337 17.946773 1.000000 0.000000 0.000000 0.732283 0.866142
$0b_battleshipo.bmp
  1 30.292924 -0.304337 17.946773 1.000000 0.000000 0.000000 0.732283 0.866142
  1 30.292809 -0.364336 17.876772 1.000000 0.000000 0.000000 0.779528 0.929134
  1 30.294057 0.295662 17.946783 1.000000 0.000000 0.000000 0.236220 0.866142
$0b_battleshipo.bmp
  1 30.292809 -0.364336 17.876772 1.000000 0.000000 0.000000 0.779528 0.929134
  1 30.294150 0.345663 17.876783 1.000000 0.000000 0.000000 0.196850 0.929134
  1 30.294057 0.295662 17.946783 1.000000 0.000000 0.000000 0.236220 0.866142
$0b_battleshipo.bmp
  1 30.294057 0.295662 17.946783 1.000000 0.000000 0.000000 0.236220 0.866142
  1 30.294150 0.345663 17.876783 1.000000 0.000000 0.000000 0.196850 0.929134
  1 30.294480 0.515654 18.416786 1.000000 0.000000 0.000000 0.062992 0.496063
$0b_battleshipo.bmp
  1 30.294150 0.345663 17.876783 1.000000 0.000000 0.000000 0.196850 0.929134
  1 30.294650 0.605654 18.406788 1.000000 0.000000 0.000000 0.000000 0.496063
  1 30.294480 0.515654 18.416786 1.000000 0.000000 0.000000 0.062992 0.496063
$0b_battleshipo.bmp
  1 30.294480 0.515654 18.416786 1.000000 0.000000 0.000000 0.062992 0.496063
  1 30.294650 0.605654 18.406788 1.000000 0.000000 0.000000 0.000000 0.496063
  1 30.294034 0.275647 18.866782 1.000000 0.000000 0.000000 0.251969 0.125984
$0b_battleshipo.bmp
  1 30.294650 0.605654 18.406788 1.000000 0.000000 0.000000 0.000000 0.496063
  1 30.294130 0.325646 18.946783 1.000000 0.000000 0.000000 0.212598 0.062992
  1 30.294034 0.275647 18.866782 1.000000 0.000000 0.000000 0.251969 0.125984
$0b_battleshipo.bmp
  1 30.294034 0.275647 18.866782 1.000000 0.000000 0.000000 0.251969 0.125984
  1 30.294130 0.325646 18.946783 1.000000 0.000000 0.000000 0.212598 0.062992
  1 30.292957 -0.294352 18.866773 1.000000 0.000000 0.000000 0.716535 0.125984
$0b_battleshipo.bmp
  1 30.294130 0.325646 18.946783 1.000000 0.000000 0.000000 0.212598 0.062992
  1 30.292864 -0.344353 18.936772 1.000000 0.000000 0.000000 0.755906 0.062992
  1 30.292957 -0.294352 18.866773 1.000000 0.000000 0.000000 0.716535 0.125984
$0b_battleshipo.bmp
  1 30.292957 -0.294352 18.866773 1.000000 0.000000 0.000000 0.716535 0.125984
  1 30.292864 -0.344353 18.936772 1.000000 0.000000 0.000000 0.755906 0.062992
  1 30.292515 -0.524344 18.406769 1.000000 0.000000 0.000000 0.905512 0.496063
$0b_battleshipo.bmp
  1 30.255236 0.915729 18.406793 -1.000000 0.000000 0.000000 0.850394 0.503937
  1 30.265755 1.185701 18.936797 -1.000000 0.000000 0.000000 0.692913 0.811024
  1 30.265848 1.235702 18.866798 -1.000000 0.000000 0.000000 0.661417 0.771654
$0b_battleshipo.bmp
  1 30.265848 1.235702 18.866798 -1.000000 0.000000 0.000000 0.661417 0.771654
  1 30.265755 1.185701 18.936797 -1.000000 0.000000 0.000000 0.692913 0.811024
  1 30.256963 1.825720 18.866808 -1.000000 0.000000 0.000000 0.322835 0.771654
$0b_battleshipo.bmp
  1 30.265755 1.185701 18.936797 -1.000000 0.000000 0.000000 0.692913 0.811024
  1 30.257059 1.875719 18.936809 -1.000000 0.000000 0.000000 0.291339 0.811024
  1 30.256963 1.825720 18.866808 -1.000000 0.000000 0.000000 0.322835 0.771654
$0b_battleshipo.bmp
  1 30.256963 1.825720 18.866808 -1.000000 0.000000 0.000000 0.322835 0.771654
  1 30.257059 1.875719 18.936809 -1.000000 0.000000 0.000000 0.291339 0.811024
  1 30.257409 2.065727 18.406811 -1.000000 0.000000 0.000000 0.181102 0.503937
$0b_battleshipo.bmp
  1 30.257059 1.875719 18.936809 -1.000000 0.000000 0.000000 0.291339 0.811024
  1 30.257579 2.155727 18.406813 -1.000000 0.000000 0.000000 0.133858 0.503937
  1 30.257409 2.065727 18.406811 -1.000000 0.000000 0.000000 0.181102 0.503937
$0b_battleshipo.bmp
  1 30.257409 2.065727 18.406811 -1.000000 0.000000 0.000000 0.181102 0.503937
  1 30.257579 2.155727 18.406813 -1.000000 0.000000 0.000000 0.133858 0.503937
  1 30.256986 1.845735 17.956808 -1.000000 0.000000 0.000000 0.307087 0.236220
$0b_battleshipo.bmp
  1 30.257579 2.155727 18.406813 -1.000000 0.000000 0.000000 0.133858 0.503937
  1 30.257079 1.895736 17.866809 -1.000000 0.000000 0.000000 0.283465 0.196850
  1 30.256986 1.845735 17.956808 -1.000000 0.000000 0.000000 0.307087 0.236220
$0b_battleshipo.bmp
  1 30.256986 1.845735 17.956808 -1.000000 0.000000 0.000000 0.307087 0.236220
  1 30.257079 1.895736 17.866809 -1.000000 0.000000 0.000000 0.283465 0.196850
  1 30.255795 1.215736 17.946798 -1.000000 0.000000 0.000000 0.677165 0.236220
$0b_battleshipo.bmp
  1 30.257079 1.895736 17.866809 -1.000000 0.000000 0.000000 0.283465 0.196850
  1 30.255700 1.165737 17.866797 -1.000000 0.000000 0.000000 0.700787 0.196850
  1 30.255795 1.215736 17.946798 -1.000000 0.000000 0.000000 0.677165 0.236220
$0b_battleshipo.bmp
  1 30.255795 1.215736 17.946798 -1.000000 0.000000 0.000000 0.677165 0.236220
  1 30.255700 1.165737 17.866797 -1.000000 0.000000 0.000000 0.700787 0.196850
  1 30.255406 1.005729 18.406795 -1.000000 0.000000 0.000000 0.803150 0.503937
$0b_battleshipo.bmp
  1 30.255700 1.165737 17.866797 -1.000000 0.000000 0.000000 0.700787 0.196850
  1 30.255236 0.915729 18.406793 -1.000000 0.000000 0.000000 0.850394 0.503937
  1 30.255406 1.005729 18.406795 -1.000000 0.000000 0.000000 0.803150 0.503937
$0b_battleshipo.bmp
  1 30.255406 1.005729 18.406795 -1.000000 0.000000 0.000000 0.803150 0.503937
  1 30.255236 0.915729 18.406793 -1.000000 0.000000 0.000000 0.850394 0.503937
  1 30.265848 1.235702 18.866798 -1.000000 0.000000 0.000000 0.661417 0.771654
$0b_battleshipo.bmp
  1 30.295755 1.185645 18.936797 1.000000 0.000000 0.000000 0.755906 0.062992
  1 30.295236 0.915653 18.406792 1.000000 0.000000 0.000000 0.976378 0.496063
  1 30.295406 1.005653 18.406794 1.000000 0.000000 0.000000 0.905512 0.496063
$0b_battleshipo.bmp
  1 30.295406 1.005653 18.406794 1.000000 0.000000 0.000000 0.905512 0.496063
  1 30.295236 0.915653 18.406792 1.000000 0.000000 0.000000 0.976378 0.496063
  1 30.295814 1.225660 17.946797 1.000000 0.000000 0.000000 0.732283 0.866142
$0b_battleshipo.bmp
  1 30.295236 0.915653 18.406792 1.000000 0.000000 0.000000 0.976378 0.496063
  1 30.295700 1.165662 17.866796 1.000000 0.000000 0.000000 0.779528 0.929134
  1 30.295814 1.225660 17.946797 1.000000 0.000000 0.000000 0.732283 0.866142
$0b_battleshipo.bmp
  1 30.295814 1.225660 17.946797 1.000000 0.000000 0.000000 0.732283 0.866142
  1 30.295700 1.165662 17.866796 1.000000 0.000000 0.000000 0.779528 0.929134
  1 30.306985 1.845640 17.946807 1.000000 0.000000 0.000000 0.236220 0.866142
$0b_battleshipo.bmp
  1 30.295700 1.165662 17.866796 1.000000 0.000000 0.000000 0.779528 0.929134
  1 30.297079 1.895660 17.876808 1.000000 0.000000 0.000000 0.196850 0.929134
  1 30.306985 1.845640 17.946807 1.000000 0.000000 0.000000 0.236220 0.866142
$0b_battleshipo.bmp
  1 30.306985 1.845640 17.946807 1.000000 0.000000 0.000000 0.236220 0.866142
  1 30.297079 1.895660 17.876808 1.000000 0.000000 0.000000 0.196850 0.929134
  1 30.297409 2.065651 18.416811 1.000000 0.000000 0.000000 0.062992 0.496063
$0b_battleshipo.bmp
  1 30.297079 1.895660 17.876808 1.000000 0.000000 0.000000 0.196850 0.929134
  1 30.307579 2.155632 18.406812 1.000000 0.000000 0.000000 0.000000 0.496063
  1 30.297409 2.065651 18.416811 1.000000 0.000000 0.000000 0.062992 0.496063
$0b_battleshipo.bmp
  1 30.297409 2.065651 18.416811 1.000000 0.000000 0.000000 0.062992 0.496063
  1 30.307579 2.155632 18.406812 1.000000 0.000000 0.000000 0.000000 0.496063
  1 30.306963 1.825626 18.866807 1.000000 0.000000 0.000000 0.251969 0.125984
$0b_battleshipo.bmp
  1 30.307579 2.155632 18.406812 1.000000 0.000000 0.000000 0.000000 0.496063
  1 30.307058 1.875624 18.946808 1.000000 0.000000 0.000000 0.212598 0.062992
  1 30.306963 1.825626 18.866807 1.000000 0.000000 0.000000 0.251969 0.125984
$0b_battleshipo.bmp
  1 30.306963 1.825626 18.866807 1.000000 0.000000 0.000000 0.251969 0.125984
  1 30.307058 1.875624 18.946808 1.000000 0.000000 0.000000 0.212598 0.062992
  1 30.295848 1.235646 18.866797 1.000000 0.000000 0.000000 0.716535 0.125984
$0b_battleshipo.bmp
  1 30.307058 1.875624 18.946808 1.000000 0.000000 0.000000 0.212598 0.062992
  1 30.295755 1.185645 18.936797 1.000000 0.000000 0.000000 0.755906 0.062992
  1 30.295848 1.235646 18.866797 1.000000 0.000000 0.000000 0.716535 0.125984
$0b_battleshipo.bmp
  1 30.295848 1.235646 18.866797 1.000000 0.000000 0.000000 0.716535 0.125984
  1 30.295755 1.185645 18.936797 1.000000 0.000000 0.000000 0.755906 0.062992
  1 30.295406 1.005653 18.406794 1.000000 0.000000 0.000000 0.905512 0.496063
$0b_battleshipo.bmp
  1 30.259379 -2.184284 18.406743 -1.000000 0.000000 0.000000 0.850394 0.503937
  1 30.259917 -1.904293 18.936748 -1.000000 0.000000 0.000000 0.692913 0.811024
  1 30.260010 -1.854292 18.866749 -1.000000 0.000000 0.000000 0.661417 0.771654
$0b_battleshipo.bmp
  1 30.260010 -1.854292 18.866749 -1.000000 0.000000 0.000000 0.661417 0.771654
  1 30.259917 -1.904293 18.936748 -1.000000 0.000000 0.000000 0.692913 0.811024
  1 30.251125 -1.264274 18.866758 -1.000000 0.000000 0.000000 0.322835 0.771654
$0b_battleshipo.bmp
  1 30.259917 -1.904293 18.936748 -1.000000 0.000000 0.000000 0.692913 0.811024
  1 30.261220 -1.214295 18.936759 -1.000000 0.000000 0.000000 0.291339 0.811024
  1 30.251125 -1.264274 18.866758 -1.000000 0.000000 0.000000 0.322835 0.771654
$0b_battleshipo.bmp
  1 30.251125 -1.264274 18.866758 -1.000000 0.000000 0.000000 0.322835 0.771654
  1 30.261220 -1.214295 18.936759 -1.000000 0.000000 0.000000 0.291339 0.811024
  1 30.251552 -1.034268 18.406762 -1.000000 0.000000 0.000000 0.181102 0.503937
$0b_battleshipo.bmp
  1 30.261220 -1.214295 18.936759 -1.000000 0.000000 0.000000 0.291339 0.811024
  1 30.261722 -0.944287 18.406763 -1.000000 0.000000 0.000000 0.133858 0.503937
  1 30.251552 -1.034268 18.406762 -1.000000 0.000000 0.000000 0.181102 0.503937
$0b_battleshipo.bmp
  1 30.251552 -1.034268 18.406762 -1.000000 0.000000 0.000000 0.181102 0.503937
  1 30.261722 -0.944287 18.406763 -1.000000 0.000000 0.000000 0.133858 0.503937
  1 30.251148 -1.244260 17.956759 -1.000000 0.000000 0.000000 0.307087 0.236220
$0b_battleshipo.bmp
  1 30.261722 -0.944287 18.406763 -1.000000 0.000000 0.000000 0.133858 0.503937
  1 30.251241 -1.194259 17.866759 -1.000000 0.000000 0.000000 0.283465 0.196850
  1 30.251148 -1.244260 17.956759 -1.000000 0.000000 0.000000 0.307087 0.236220
$0b_battleshipo.bmp
  1 30.251148 -1.244260 17.956759 -1.000000 0.000000 0.000000 0.307087 0.236220
  1 30.251241 -1.194259 17.866759 -1.000000 0.000000 0.000000 0.283465 0.196850
  1 30.259957 -1.874277 17.946748 -1.000000 0.000000 0.000000 0.677165 0.236220
$0b_battleshipo.bmp
  1 30.251241 -1.194259 17.866759 -1.000000 0.000000 0.000000 0.283465 0.196850
  1 30.259861 -1.924276 17.866748 -1.000000 0.000000 0.000000 0.700787 0.196850
  1 30.259957 -1.874277 17.946748 -1.000000 0.000000 0.000000 0.677165 0.236220
$0b_battleshipo.bmp
  1 30.259957 -1.874277 17.946748 -1.000000 0.000000 0.000000 0.677165 0.236220
  1 30.259861 -1.924276 17.866748 -1.000000 0.000000 0.000000 0.700787 0.196850
  1 30.259549 -2.094285 18.406745 -1.000000 0.000000 0.000000 0.803150 0.503937
$0b_battleshipo.bmp
  1 30.259861 -1.924276 17.866748 -1.000000 0.000000 0.000000 0.700787 0.196850
  1 30.259379 -2.184284 18.406743 -1.000000 0.000000 0.000000 0.850394 0.503937
  1 30.259549 -2.094285 18.406745 -1.000000 0.000000 0.000000 0.803150 0.503937
$0b_battleshipo.bmp
  1 30.259549 -2.094285 18.406745 -1.000000 0.000000 0.000000 0.803150 0.503937
  1 30.259379 -2.184284 18.406743 -1.000000 0.000000 0.000000 0.850394 0.503937
  1 30.260010 -1.854292 18.866749 -1.000000 0.000000 0.000000 0.661417 0.771654
$0b_battleshipo.bmp
  1 30.299917 -1.904369 18.936747 1.000000 0.000000 0.000000 0.755906 0.062992
  1 30.289379 -2.184341 18.406743 1.000000 0.000000 0.000000 0.976378 0.496063
  1 30.289549 -2.094341 18.406744 1.000000 0.000000 0.000000 0.905512 0.496063
$0b_battleshipo.bmp
  1 30.289549 -2.094341 18.406744 1.000000 0.000000 0.000000 0.905512 0.496063
  1 30.289379 -2.184341 18.406743 1.000000 0.000000 0.000000 0.976378 0.496063
  1 30.289957 -1.874334 17.946748 1.000000 0.000000 0.000000 0.732283 0.866142
$0b_battleshipo.bmp
  1 30.289379 -2.184341 18.406743 1.000000 0.000000 0.000000 0.976378 0.496063
  1 30.299861 -1.924352 17.876747 1.000000 0.000000 0.000000 0.779528 0.929134
  1 30.289957 -1.874334 17.946748 1.000000 0.000000 0.000000 0.732283 0.866142
$0b_battleshipo.bmp
  1 30.289957 -1.874334 17.946748 1.000000 0.000000 0.000000 0.732283 0.866142
  1 30.299861 -1.924352 17.876747 1.000000 0.000000 0.000000 0.779528 0.929134
  1 30.291129 -1.254335 17.946758 1.000000 0.000000 0.000000 0.236220 0.866142
$0b_battleshipo.bmp
  1 30.299861 -1.924352 17.876747 1.000000 0.000000 0.000000 0.779528 0.929134
  1 30.291241 -1.194334 17.866759 1.000000 0.000000 0.000000 0.196850 0.929134
  1 30.291129 -1.254335 17.946758 1.000000 0.000000 0.000000 0.236220 0.866142
$0b_battleshipo.bmp
  1 30.291129 -1.254335 17.946758 1.000000 0.000000 0.000000 0.236220 0.866142
  1 30.291241 -1.194334 17.866759 1.000000 0.000000 0.000000 0.196850 0.929134
  1 30.291552 -1.034343 18.406761 1.000000 0.000000 0.000000 0.062992 0.496063
$0b_battleshipo.bmp
  1 30.291241 -1.194334 17.866759 1.000000 0.000000 0.000000 0.196850 0.929134
  1 30.291722 -0.944343 18.406763 1.000000 0.000000 0.000000 0.000000 0.496063
  1 30.291552 -1.034343 18.406761 1.000000 0.000000 0.000000 0.062992 0.496063
$0b_battleshipo.bmp
  1 30.291552 -1.034343 18.406761 1.000000 0.000000 0.000000 0.062992 0.496063
  1 30.291722 -0.944343 18.406763 1.000000 0.000000 0.000000 0.000000 0.496063
  1 30.291125 -1.264350 18.866758 1.000000 0.000000 0.000000 0.251969 0.125984
$0b_battleshipo.bmp
  1 30.291722 -0.944343 18.406763 1.000000 0.000000 0.000000 0.000000 0.496063
  1 30.291221 -1.214351 18.946759 1.000000 0.000000 0.000000 0.212598 0.062992
  1 30.291125 -1.264350 18.866758 1.000000 0.000000 0.000000 0.251969 0.125984
$0b_battleshipo.bmp
  1 30.291125 -1.264350 18.866758 1.000000 0.000000 0.000000 0.251969 0.125984
  1 30.291221 -1.214351 18.946759 1.000000 0.000000 0.000000 0.212598 0.062992
  1 30.300010 -1.854368 18.866748 1.000000 0.000000 0.000000 0.716535 0.125984
$0b_battleshipo.bmp
  1 30.291221 -1.214351 18.946759 1.000000 0.000000 0.000000 0.212598 0.062992
  1 30.299917 -1.904369 18.936747 1.000000 0.000000 0.000000 0.755906 0.062992
  1 30.300010 -1.854368 18.866748 1.000000 0.000000 0.000000 0.716535 0.125984
$0b_battleshipo.bmp
  1 30.300010 -1.854368 18.866748 1.000000 0.000000 0.000000 0.716535 0.125984
  1 30.299917 -1.904369 18.936747 1.000000 0.000000 0.000000 0.755906 0.062992
  1 30.289549 -2.094341 18.406744 1.000000 0.000000 0.000000 0.905512 0.496063
$0b_battleshipo.bmp
  1 18.394483 0.528137 18.416980 -1.000000 0.000000 0.000000 0.228346 0.503937
  1 18.394060 0.308145 17.956977 -1.000000 0.000000 0.000000 0.346457 0.275591
  1 18.394037 0.288130 18.866976 -1.000000 0.000000 0.000000 0.346457 0.724409
$0b_battleshipo.bmp
  1 18.394037 0.288130 18.866976 -1.000000 0.000000 0.000000 0.346457 0.724409
  1 18.394060 0.308145 17.956977 -1.000000 0.000000 0.000000 0.346457 0.275591
  1 18.392499 -0.521861 18.416964 -1.000000 0.000000 0.000000 0.748031 0.503937
$0b_battleshipo.bmp
  1 18.394060 0.308145 17.956977 -1.000000 0.000000 0.000000 0.346457 0.275591
  1 18.392907 -0.301854 17.946967 -1.000000 0.000000 0.000000 0.637795 0.275591
  1 18.392499 -0.521861 18.416964 -1.000000 0.000000 0.000000 0.748031 0.503937
$0b_battleshipo.bmp
  1 30.294480 0.515654 18.416786 -1.000000 0.000000 0.000000 0.228346 0.503937
  1 30.294057 0.295662 17.946783 -1.000000 0.000000 0.000000 0.346457 0.275591
  1 30.294034 0.275647 18.866782 -1.000000 0.000000 0.000000 0.346457 0.724409
$0b_battleshipo.bmp
  1 30.294034 0.275647 18.866782 -1.000000 0.000000 0.000000 0.346457 0.724409
  1 30.294057 0.295662 17.946783 -1.000000 0.000000 0.000000 0.346457 0.275591
  1 30.292515 -0.524344 18.406769 -1.000000 0.000000 0.000000 0.748031 0.503937
$0b_battleshipo.bmp
  1 30.294057 0.295662 17.946783 -1.000000 0.000000 0.000000 0.346457 0.275591
  1 30.292924 -0.304337 17.946773 -1.000000 0.000000 0.000000 0.637795 0.275591
  1 30.292515 -0.524344 18.406769 -1.000000 0.000000 0.000000 0.748031 0.503937
$0b_battleshipo.bmp
  1 30.297409 2.065651 18.416811 -1.000000 0.000000 0.000000 0.228346 0.503937
  1 30.306985 1.845640 17.946807 -1.000000 0.000000 0.000000 0.346457 0.275591
  1 30.306963 1.825626 18.866807 -1.000000 0.000000 0.000000 0.346457 0.724409
$0b_battleshipo.bmp
  1 30.306963 1.825626 18.866807 -1.000000 0.000000 0.000000 0.346457 0.724409
  1 30.306985 1.845640 17.946807 -1.000000 0.000000 0.000000 0.346457 0.275591
  1 30.295406 1.005653 18.406794 -1.000000 0.000000 0.000000 0.748031 0.503937
$0b_battleshipo.bmp
  1 30.306985 1.845640 17.946807 -1.000000 0.000000 0.000000 0.346457 0.275591
  1 30.295814 1.225660 17.946797 -1.000000 0.000000 0.000000 0.637795 0.275591
  1 30.295406 1.005653 18.406794 -1.000000 0.000000 0.000000 0.748031 0.503937
$0b_battleshipo.bmp
  1 30.291552 -1.034343 18.406761 -1.000000 0.000000 0.000000 0.228346 0.503937
  1 30.291129 -1.254335 17.946758 -1.000000 0.000000 0.000000 0.346457 0.275591
  1 30.291125 -1.264350 18.866758 -1.000000 0.000000 0.000000 0.346457 0.724409
$0b_battleshipo.bmp
  1 30.291125 -1.264350 18.866758 -1.000000 0.000000 0.000000 0.346457 0.724409
  1 30.291129 -1.254335 17.946758 -1.000000 0.000000 0.000000 0.346457 0.275591
  1 30.289549 -2.094341 18.406744 -1.000000 0.000000 0.000000 0.748031 0.503937
$0b_battleshipo.bmp
  1 30.291129 -1.254335 17.946758 -1.000000 0.000000 0.000000 0.346457 0.275591
  1 30.289957 -1.874334 17.946748 -1.000000 0.000000 0.000000 0.637795 0.275591
  1 30.289549 -2.094341 18.406744 -1.000000 0.000000 0.000000 0.748031 0.503937
$0b_battleshipo.bmp
  1 18.392867 -0.331870 18.946967 -0.000001 -0.889369 0.457189 0.716535 0.842520
  1 18.352867 -0.331795 18.946967 -0.000001 -0.889369 0.457189 0.692913 0.811024
  1 18.392348 -0.601861 18.406962 -0.000001 -0.889369 0.457189 0.881890 0.503937
$0b_battleshipo.bmp
  1 18.392348 -0.601861 18.406962 -0.000001 -0.889369 0.457189 0.881890 0.503937
  1 18.352867 -0.331795 18.946967 -0.000001 -0.889369 0.457189 0.692913 0.811024
  1 18.352348 -0.601786 18.416963 -0.000001 -0.889369 0.457189 0.850394 0.503937
$0b_battleshipo.bmp
  1 18.394132 0.338129 18.946977 0.000000 0.000000 1.000000 0.275591 0.842520
  1 18.354133 0.338204 18.946978 0.000000 0.000000 1.000000 0.291339 0.811024
  1 18.392867 -0.331870 18.946967 0.000000 0.000000 1.000000 0.716535 0.842520
$0b_battleshipo.bmp
  1 18.392867 -0.331870 18.946967 0.000000 0.000000 1.000000 0.716535 0.842520
  1 18.354133 0.338204 18.946978 0.000000 0.000000 1.000000 0.291339 0.811024
  1 18.352867 -0.331795 18.946967 0.000000 0.000000 1.000000 0.692913 0.811024
$0b_battleshipo.bmp
  1 18.394653 0.618137 18.416982 0.000000 0.889369 0.457190 0.102362 0.503937
  1 18.354653 0.618212 18.416982 0.000000 0.889369 0.457190 0.133858 0.503937
  1 18.394132 0.338129 18.946977 0.000000 0.889369 0.457190 0.275591 0.842520
$0b_battleshipo.bmp
  1 18.394132 0.338129 18.946977 0.000000 0.889369 0.457190 0.275591 0.842520
  1 18.354653 0.618212 18.416982 0.000000 0.889369 0.457190 0.133858 0.503937
  1 18.354133 0.338204 18.946978 0.000000 0.889369 0.457190 0.291339 0.811024
$0b_battleshipo.bmp
  1 18.394153 0.358146 17.876978 0.000003 0.903279 -0.429053 0.259843 0.165354
  1 18.354153 0.358221 17.866978 0.000003 0.903279 -0.429053 0.283465 0.196850
  1 18.394653 0.618137 18.416982 0.000003 0.903279 -0.429053 0.102362 0.503937
$0b_battleshipo.bmp
  1 18.394653 0.618137 18.416982 0.000003 0.903279 -0.429053 0.102362 0.503937
  1 18.354153 0.358221 17.866978 0.000003 0.903279 -0.429053 0.283465 0.196850
  1 18.354653 0.618212 18.416982 0.000003 0.903279 -0.429053 0.133858 0.503937
$0b_battleshipo.bmp
  1 18.392811 -0.351853 17.876966 0.000000 0.000000 -1.000000 0.724409 0.165354
  1 18.342812 -0.351759 17.876967 0.000000 0.000000 -1.000000 0.700787 0.196850
  1 18.394153 0.358146 17.876978 0.000000 0.000000 -1.000000 0.259843 0.165354
$0b_battleshipo.bmp
  1 18.394153 0.358146 17.876978 0.000000 0.000000 -1.000000 0.259843 0.165354
  1 18.342812 -0.351759 17.876967 0.000000 0.000000 -1.000000 0.700787 0.196850
  1 18.354153 0.358221 17.866978 0.000000 0.000000 -1.000000 0.283465 0.196850
$0b_battleshipo.bmp
  1 18.392348 -0.601861 18.406962 0.000002 -0.903280 -0.429052 0.881890 0.503937
  1 18.352348 -0.601786 18.416963 0.000002 -0.903280 -0.429052 0.850394 0.503937
  1 18.392811 -0.351853 17.876966 0.000002 -0.903280 -0.429052 0.724409 0.165354
$0b_battleshipo.bmp
  1 18.392811 -0.351853 17.876966 0.000002 -0.903280 -0.429052 0.724409 0.165354
  1 18.352348 -0.601786 18.416963 0.000002 -0.903280 -0.429052 0.850394 0.503937
  1 18.342812 -0.351759 17.876967 0.000002 -0.903280 -0.429052 0.700787 0.196850
$0b_battleshipo.bmp
  1 18.352960 -0.281794 18.876968 -0.033389 0.888874 -0.456934 0.661417 0.771654
  1 18.392960 -0.281869 18.866967 -0.033389 0.888874 -0.456934 0.645669 0.740157
  1 18.352499 -0.521786 18.406964 -0.033389 0.888874 -0.456934 0.803150 0.503937
$0b_battleshipo.bmp
  1 18.352499 -0.521786 18.406964 -0.033389 0.888874 -0.456934 0.803150 0.503937
  1 18.392960 -0.281869 18.866967 -0.033389 0.888874 -0.456934 0.645669 0.740157
  1 18.392499 -0.521861 18.416964 -0.033389 0.888874 -0.456934 0.763780 0.503937
$0b_battleshipo.bmp
  1 18.354037 0.288205 18.876977 0.000000 0.000000 -1.000000 0.322835 0.771654
  1 18.394037 0.288130 18.866976 0.000000 0.000000 -1.000000 0.338583 0.740157
  1 18.352960 -0.281794 18.876968 0.000000 0.000000 -1.000000 0.661417 0.771654
$0b_battleshipo.bmp
  1 18.352960 -0.281794 18.876968 0.000000 0.000000 -1.000000 0.661417 0.771654
  1 18.394037 0.288130 18.866976 0.000000 0.000000 -1.000000 0.338583 0.740157
  1 18.392960 -0.281869 18.866967 0.000000 0.000000 -1.000000 0.645669 0.740157
$0b_battleshipo.bmp
  1 18.354483 0.528212 18.416981 -0.033390 -0.888873 -0.456935 0.181102 0.503937
  1 18.394483 0.528137 18.416980 -0.033390 -0.888873 -0.456935 0.220472 0.503937
  1 18.354037 0.288205 18.876977 -0.033390 -0.888873 -0.456935 0.322835 0.771654
$0b_battleshipo.bmp
  1 18.354037 0.288205 18.876977 -0.033390 -0.888873 -0.456935 0.322835 0.771654
  1 18.394483 0.528137 18.416980 -0.033390 -0.888873 -0.456935 0.220472 0.503937
  1 18.394037 0.288130 18.866976 -0.033390 -0.888873 -0.456935 0.338583 0.740157
$0b_battleshipo.bmp
  1 18.354060 0.308220 17.956978 -0.033919 -0.902760 0.428806 0.307087 0.236220
  1 18.394060 0.308145 17.956977 -0.033919 -0.902760 0.428806 0.330709 0.267717
  1 18.354483 0.528212 18.416981 -0.033919 -0.902760 0.428806 0.181102 0.503937
$0b_battleshipo.bmp
  1 18.354483 0.528212 18.416981 -0.033919 -0.902760 0.428806 0.181102 0.503937
  1 18.394060 0.308145 17.956977 -0.033919 -0.902760 0.428806 0.330709 0.267717
  1 18.394483 0.528137 18.416980 -0.033919 -0.902760 0.428806 0.220472 0.503937
$0b_battleshipo.bmp
  1 18.352907 -0.301779 17.956968 0.000000 0.000000 1.000000 0.677165 0.236220
  1 18.392907 -0.301854 17.946967 0.000000 0.000000 1.000000 0.653543 0.267717
  1 18.354060 0.308220 17.956978 0.000000 0.000000 1.000000 0.307087 0.236220
$0b_battleshipo.bmp
  1 18.354060 0.308220 17.956978 0.000000 0.000000 1.000000 0.307087 0.236220
  1 18.392907 -0.301854 17.946967 0.000000 0.000000 1.000000 0.653543 0.267717
  1 18.394060 0.308145 17.956977 0.000000 0.000000 1.000000 0.330709 0.267717
$0b_battleshipo.bmp
  1 18.352499 -0.521786 18.406964 -0.033916 0.902760 0.428806 0.803150 0.503937
  1 18.392499 -0.521861 18.416964 -0.033916 0.902760 0.428806 0.763780 0.503937
  1 18.352907 -0.301779 17.956968 -0.033916 0.902760 0.428806 0.677165 0.236220
$0b_battleshipo.bmp
  1 18.352907 -0.301779 17.956968 -0.033916 0.902760 0.428806 0.677165 0.236220
  1 18.392499 -0.521861 18.416964 -0.033916 0.902760 0.428806 0.763780 0.503937
  1 18.392907 -0.301854 17.946967 -0.033916 0.902760 0.428806 0.653543 0.267717
$0b_battleshipo.bmp
  1 30.292864 -0.344353 18.936772 -0.000001 -0.889369 0.457189 0.716535 0.842520
  1 30.252864 -0.344277 18.936773 -0.000001 -0.889369 0.457189 0.692913 0.811024
  1 30.292345 -0.614344 18.406768 -0.000001 -0.889369 0.457189 0.881890 0.503937
$0b_battleshipo.bmp
  1 30.292345 -0.614344 18.406768 -0.000001 -0.889369 0.457189 0.881890 0.503937
  1 30.252864 -0.344277 18.936773 -0.000001 -0.889369 0.457189 0.692913 0.811024
  1 30.252346 -0.614268 18.406769 -0.000001 -0.889369 0.457189 0.850394 0.503937
$0b_battleshipo.bmp
  1 30.294130 0.325646 18.946783 0.000000 0.000000 1.000000 0.275591 0.842520
  1 30.254130 0.325722 18.936784 0.000000 0.000000 1.000000 0.291339 0.811024
  1 30.292864 -0.344353 18.936772 0.000000 0.000000 1.000000 0.716535 0.842520
$0b_battleshipo.bmp
  1 30.292864 -0.344353 18.936772 0.000000 0.000000 1.000000 0.716535 0.842520
  1 30.254130 0.325722 18.936784 0.000000 0.000000 1.000000 0.291339 0.811024
  1 30.252864 -0.344277 18.936773 0.000000 0.000000 1.000000 0.692913 0.811024
$0b_battleshipo.bmp
  1 30.294650 0.605654 18.406788 0.000000 0.889369 0.457190 0.102362 0.503937
  1 30.264650 0.605711 18.406788 0.000000 0.889369 0.457190 0.133858 0.503937
  1 30.294130 0.325646 18.946783 0.000000 0.889369 0.457190 0.275591 0.842520
$0b_battleshipo.bmp
  1 30.294130 0.325646 18.946783 0.000000 0.889369 0.457190 0.275591 0.842520
  1 30.264650 0.605711 18.406788 0.000000 0.889369 0.457190 0.133858 0.503937
  1 30.254130 0.325722 18.936784 0.000000 0.889369 0.457190 0.291339 0.811024
$0b_battleshipo.bmp
  1 30.294150 0.345663 17.876783 0.000003 0.903279 -0.429053 0.259843 0.165354
  1 30.264150 0.345720 17.866784 0.000003 0.903279 -0.429053 0.283465 0.196850
  1 30.294650 0.605654 18.406788 0.000003 0.903279 -0.429053 0.102362 0.503937
$0b_battleshipo.bmp
  1 30.294650 0.605654 18.406788 0.000003 0.903279 -0.429053 0.102362 0.503937
  1 30.264150 0.345720 17.866784 0.000003 0.903279 -0.429053 0.283465 0.196850
  1 30.264650 0.605711 18.406788 0.000003 0.903279 -0.429053 0.133858 0.503937
$0b_battleshipo.bmp
  1 30.292809 -0.364336 17.876772 0.000000 0.000000 -1.000000 0.724409 0.165354
  1 30.252809 -0.364260 17.866773 0.000000 0.000000 -1.000000 0.700787 0.196850
  1 30.294150 0.345663 17.876783 0.000000 0.000000 -1.000000 0.259843 0.165354
$0b_battleshipo.bmp
  1 30.294150 0.345663 17.876783 0.000000 0.000000 -1.000000 0.259843 0.165354
  1 30.252809 -0.364260 17.866773 0.000000 0.000000 -1.000000 0.700787 0.196850
  1 30.264150 0.345720 17.866784 0.000000 0.000000 -1.000000 0.283465 0.196850
$0b_battleshipo.bmp
  1 30.292345 -0.614344 18.406768 0.000002 -0.903280 -0.429052 0.881890 0.503937
  1 30.252346 -0.614268 18.406769 0.000002 -0.903280 -0.429052 0.850394 0.503937
  1 30.292809 -0.364336 17.876772 0.000002 -0.903280 -0.429052 0.724409 0.165354
$0b_battleshipo.bmp
  1 30.292809 -0.364336 17.876772 0.000002 -0.903280 -0.429052 0.724409 0.165354
  1 30.252346 -0.614268 18.406769 0.000002 -0.903280 -0.429052 0.850394 0.503937
  1 30.252809 -0.364260 17.866773 0.000002 -0.903280 -0.429052 0.700787 0.196850
$0b_battleshipo.bmp
  1 30.252958 -0.294276 18.866774 -0.033389 0.888874 -0.456934 0.661417 0.771654
  1 30.292957 -0.294352 18.866773 -0.033389 0.888874 -0.456934 0.645669 0.740157
  1 30.262515 -0.524287 18.406770 -0.033389 0.888874 -0.456934 0.803150 0.503937
$0b_battleshipo.bmp
  1 30.262515 -0.524287 18.406770 -0.033389 0.888874 -0.456934 0.803150 0.503937
  1 30.292957 -0.294352 18.866773 -0.033389 0.888874 -0.456934 0.645669 0.740157
  1 30.292515 -0.524344 18.406769 -0.033389 0.888874 -0.456934 0.763780 0.503937
$0b_battleshipo.bmp
  1 30.254034 0.275723 18.866783 0.000000 0.000000 -1.000000 0.322835 0.771654
  1 30.294034 0.275647 18.866782 0.000000 0.000000 -1.000000 0.338583 0.740157
  1 30.252958 -0.294276 18.866774 0.000000 0.000000 -1.000000 0.661417 0.771654
$0b_battleshipo.bmp
  1 30.252958 -0.294276 18.866774 0.000000 0.000000 -1.000000 0.661417 0.771654
  1 30.294034 0.275647 18.866782 0.000000 0.000000 -1.000000 0.338583 0.740157
  1 30.292957 -0.294352 18.866773 0.000000 0.000000 -1.000000 0.645669 0.740157
$0b_battleshipo.bmp
  1 30.264480 0.515711 18.406787 -0.033390 -0.888873 -0.456935 0.181102 0.503937
  1 30.294480 0.515654 18.416786 -0.033390 -0.888873 -0.456935 0.220472 0.503937
  1 30.254034 0.275723 18.866783 -0.033390 -0.888873 -0.456935 0.322835 0.771654
$0b_battleshipo.bmp
  1 30.254034 0.275723 18.866783 -0.033390 -0.888873 -0.456935 0.322835 0.771654
  1 30.294480 0.515654 18.416786 -0.033390 -0.888873 -0.456935 0.220472 0.503937
  1 30.294034 0.275647 18.866782 -0.033390 -0.888873 -0.456935 0.338583 0.740157
$0b_battleshipo.bmp
  1 30.254057 0.295737 17.956783 -0.033919 -0.902760 0.428806 0.307087 0.236220
  1 30.294057 0.295662 17.946783 -0.033919 -0.902760 0.428806 0.330709 0.267717
  1 30.264480 0.515711 18.406787 -0.033919 -0.902760 0.428806 0.181102 0.503937
$0b_battleshipo.bmp
  1 30.264480 0.515711 18.406787 -0.033919 -0.902760 0.428806 0.181102 0.503937
  1 30.294057 0.295662 17.946783 -0.033919 -0.902760 0.428806 0.330709 0.267717
  1 30.294480 0.515654 18.416786 -0.033919 -0.902760 0.428806 0.220472 0.503937
$0b_battleshipo.bmp
  1 30.262905 -0.314280 17.946773 0.000000 0.000000 1.000000 0.677165 0.236220
  1 30.292924 -0.304337 17.946773 0.000000 0.000000 1.000000 0.653543 0.267717
  1 30.254057 0.295737 17.956783 0.000000 0.000000 1.000000 0.307087 0.236220
$0b_battleshipo.bmp
  1 30.254057 0.295737 17.956783 0.000000 0.000000 1.000000 0.307087 0.236220
  1 30.292924 -0.304337 17.946773 0.000000 0.000000 1.000000 0.653543 0.267717
  1 30.294057 0.295662 17.946783 0.000000 0.000000 1.000000 0.330709 0.267717
$0b_battleshipo.bmp
  1 30.262515 -0.524287 18.406770 -0.033916 0.902760 0.428806 0.803150 0.503937
  1 30.292515 -0.524344 18.406769 -0.033916 0.902760 0.428806 0.763780 0.503937
  1 30.262905 -0.314280 17.946773 -0.033916 0.902760 0.428806 0.677165 0.236220
$0b_battleshipo.bmp
  1 30.262905 -0.314280 17.946773 -0.033916 0.902760 0.428806 0.677165 0.236220
  1 30.292515 -0.524344 18.406769 -0.033916 0.902760 0.428806 0.763780 0.503937
  1 30.292924 -0.304337 17.946773 -0.033916 0.902760 0.428806 0.653543 0.267717
$0b_battleshipo.bmp
  1 30.295755 1.185645 18.936797 -0.000001 -0.889369 0.457189 0.716535 0.842520
  1 30.265755 1.185701 18.936797 -0.000001 -0.889369 0.457189 0.692913 0.811024
  1 30.295236 0.915653 18.406792 -0.000001 -0.889369 0.457189 0.881890 0.503937
$0b_battleshipo.bmp
  1 30.295236 0.915653 18.406792 -0.000001 -0.889369 0.457189 0.881890 0.503937
  1 30.265755 1.185701 18.936797 -0.000001 -0.889369 0.457189 0.692913 0.811024
  1 30.255236 0.915729 18.406793 -0.000001 -0.889369 0.457189 0.850394 0.503937
$0b_battleshipo.bmp
  1 30.307058 1.875624 18.946808 0.000000 0.000000 1.000000 0.275591 0.842520
  1 30.257059 1.875719 18.936809 0.000000 0.000000 1.000000 0.291339 0.811024
  1 30.295755 1.185645 18.936797 0.000000 0.000000 1.000000 0.716535 0.842520
$0b_battleshipo.bmp
  1 30.295755 1.185645 18.936797 0.000000 0.000000 1.000000 0.716535 0.842520
  1 30.257059 1.875719 18.936809 0.000000 0.000000 1.000000 0.291339 0.811024
  1 30.265755 1.185701 18.936797 0.000000 0.000000 1.000000 0.692913 0.811024
$0b_battleshipo.bmp
  1 30.307579 2.155632 18.406812 0.000000 0.889369 0.457190 0.102362 0.503937
  1 30.257579 2.155727 18.406813 0.000000 0.889369 0.457190 0.133858 0.503937
  1 30.307058 1.875624 18.946808 0.000000 0.889369 0.457190 0.275591 0.842520
$0b_battleshipo.bmp
  1 30.307058 1.875624 18.946808 0.000000 0.889369 0.457190 0.275591 0.842520
  1 30.257579 2.155727 18.406813 0.000000 0.889369 0.457190 0.133858 0.503937
  1 30.257059 1.875719 18.936809 0.000000 0.889369 0.457190 0.291339 0.811024
$0b_battleshipo.bmp
  1 30.297079 1.895660 17.876808 0.000003 0.903279 -0.429053 0.259843 0.165354
  1 30.257079 1.895736 17.866809 0.000003 0.903279 -0.429053 0.283465 0.196850
  1 30.307579 2.155632 18.406812 0.000003 0.903279 -0.429053 0.102362 0.503937
$0b_battleshipo.bmp
  1 30.307579 2.155632 18.406812 0.000003 0.903279 -0.429053 0.102362 0.503937
  1 30.257079 1.895736 17.866809 0.000003 0.903279 -0.429053 0.283465 0.196850
  1 30.257579 2.155727 18.406813 0.000003 0.903279 -0.429053 0.133858 0.503937
$0b_battleshipo.bmp
  1 30.295700 1.165662 17.866796 0.000000 0.000000 -1.000000 0.724409 0.165354
  1 30.255700 1.165737 17.866797 0.000000 0.000000 -1.000000 0.700787 0.196850
  1 30.297079 1.895660 17.876808 0.000000 0.000000 -1.000000 0.259843 0.165354
$0b_battleshipo.bmp
  1 30.297079 1.895660 17.876808 0.000000 0.000000 -1.000000 0.259843 0.165354
  1 30.255700 1.165737 17.866797 0.000000 0.000000 -1.000000 0.700787 0.196850
  1 30.257079 1.895736 17.866809 0.000000 0.000000 -1.000000 0.283465 0.196850
$0b_battleshipo.bmp
  1 30.295236 0.915653 18.406792 0.000002 -0.903280 -0.429052 0.881890 0.503937
  1 30.255236 0.915729 18.406793 0.000002 -0.903280 -0.429052 0.850394 0.503937
  1 30.295700 1.165662 17.866796 0.000002 -0.903280 -0.429052 0.724409 0.165354
$0b_battleshipo.bmp
  1 30.295700 1.165662 17.866796 0.000002 -0.903280 -0.429052 0.724409 0.165354
  1 30.255236 0.915729 18.406793 0.000002 -0.903280 -0.429052 0.850394 0.503937
  1 30.255700 1.165737 17.866797 0.000002 -0.903280 -0.429052 0.700787 0.196850
$0b_battleshipo.bmp
  1 30.265848 1.235702 18.866798 -0.033389 0.888874 -0.456934 0.661417 0.771654
  1 30.295848 1.235646 18.866797 -0.033389 0.888874 -0.456934 0.645669 0.740157
  1 30.255406 1.005729 18.406795 -0.033389 0.888874 -0.456934 0.803150 0.503937
$0b_battleshipo.bmp
  1 30.255406 1.005729 18.406795 -0.033389 0.888874 -0.456934 0.803150 0.503937
  1 30.295848 1.235646 18.866797 -0.033389 0.888874 -0.456934 0.645669 0.740157
  1 30.295406 1.005653 18.406794 -0.033389 0.888874 -0.456934 0.763780 0.503937
$0b_battleshipo.bmp
  1 30.256963 1.825720 18.866808 0.000000 0.000000 -1.000000 0.322835 0.771654
  1 30.306963 1.825626 18.866807 0.000000 0.000000 -1.000000 0.338583 0.740157
  1 30.265848 1.235702 18.866798 0.000000 0.000000 -1.000000 0.661417 0.771654
$0b_battleshipo.bmp
  1 30.265848 1.235702 18.866798 0.000000 0.000000 -1.000000 0.661417 0.771654
  1 30.306963 1.825626 18.866807 0.000000 0.000000 -1.000000 0.338583 0.740157
  1 30.295848 1.235646 18.866797 0.000000 0.000000 -1.000000 0.645669 0.740157
$0b_battleshipo.bmp
  1 30.257409 2.065727 18.406811 -0.033390 -0.888873 -0.456935 0.181102 0.503937
  1 30.297409 2.065651 18.416811 -0.033390 -0.888873 -0.456935 0.220472 0.503937
  1 30.256963 1.825720 18.866808 -0.033390 -0.888873 -0.456935 0.322835 0.771654
$0b_battleshipo.bmp
  1 30.256963 1.825720 18.866808 -0.033390 -0.888873 -0.456935 0.322835 0.771654
  1 30.297409 2.065651 18.416811 -0.033390 -0.888873 -0.456935 0.220472 0.503937
  1 30.306963 1.825626 18.866807 -0.033390 -0.888873 -0.456935 0.338583 0.740157
$0b_battleshipo.bmp
  1 30.256986 1.845735 17.956808 -0.033919 -0.902760 0.428806 0.307087 0.236220
  1 30.306985 1.845640 17.946807 -0.033919 -0.902760 0.428806 0.330709 0.267717
  1 30.257409 2.065727 18.406811 -0.033919 -0.902760 0.428806 0.181102 0.503937
$0b_battleshipo.bmp
  1 30.257409 2.065727 18.406811 -0.033919 -0.902760 0.428806 0.181102 0.503937
  1 30.306985 1.845640 17.946807 -0.033919 -0.902760 0.428806 0.330709 0.267717
  1 30.297409 2.065651 18.416811 -0.033919 -0.902760 0.428806 0.220472 0.503937
$0b_battleshipo.bmp
  1 30.255795 1.215736 17.946798 0.000000 0.000000 1.000000 0.677165 0.236220
  1 30.295814 1.225660 17.946797 0.000000 0.000000 1.000000 0.653543 0.267717
  1 30.256986 1.845735 17.956808 0.000000 0.000000 1.000000 0.307087 0.236220
$0b_battleshipo.bmp
  1 30.256986 1.845735 17.956808 0.000000 0.000000 1.000000 0.307087 0.236220
  1 30.295814 1.225660 17.946797 0.000000 0.000000 1.000000 0.653543 0.267717
  1 30.306985 1.845640 17.946807 0.000000 0.000000 1.000000 0.330709 0.267717
$0b_battleshipo.bmp
  1 30.255406 1.005729 18.406795 -0.033916 0.902760 0.428806 0.803150 0.503937
  1 30.295406 1.005653 18.406794 -0.033916 0.902760 0.428806 0.763780 0.503937
  1 30.255795 1.215736 17.946798 -0.033916 0.902760 0.428806 0.677165 0.236220
$0b_battleshipo.bmp
  1 30.255795 1.215736 17.946798 -0.033916 0.902760 0.428806 0.677165 0.236220
  1 30.295406 1.005653 18.406794 -0.033916 0.902760 0.428806 0.763780 0.503937
  1 30.295814 1.225660 17.946797 -0.033916 0.902760 0.428806 0.653543 0.267717
$0b_battleshipo.bmp
  1 30.299917 -1.904369 18.936747 -0.000001 -0.889369 0.457189 0.716535 0.842520
  1 30.259917 -1.904293 18.936748 -0.000001 -0.889369 0.457189 0.692913 0.811024
  1 30.289379 -2.184341 18.406743 -0.000001 -0.889369 0.457189 0.881890 0.503937
$0b_battleshipo.bmp
  1 30.289379 -2.184341 18.406743 -0.000001 -0.889369 0.457189 0.881890 0.503937
  1 30.259917 -1.904293 18.936748 -0.000001 -0.889369 0.457189 0.692913 0.811024
  1 30.259379 -2.184284 18.406743 -0.000001 -0.889369 0.457189 0.850394 0.503937
$0b_battleshipo.bmp
  1 30.291221 -1.214351 18.946759 0.000000 0.000000 1.000000 0.275591 0.842520
  1 30.261220 -1.214295 18.936759 0.000000 0.000000 1.000000 0.291339 0.811024
  1 30.299917 -1.904369 18.936747 0.000000 0.000000 1.000000 0.716535 0.842520
$0b_battleshipo.bmp
  1 30.299917 -1.904369 18.936747 0.000000 0.000000 1.000000 0.716535 0.842520
  1 30.261220 -1.214295 18.936759 0.000000 0.000000 1.000000 0.291339 0.811024
  1 30.259917 -1.904293 18.936748 0.000000 0.000000 1.000000 0.692913 0.811024
$0b_battleshipo.bmp
  1 30.291722 -0.944343 18.406763 0.000000 0.889369 0.457190 0.102362 0.503937
  1 30.261722 -0.944287 18.406763 0.000000 0.889369 0.457190 0.133858 0.503937
  1 30.291221 -1.214351 18.946759 0.000000 0.889369 0.457190 0.275591 0.842520
$0b_battleshipo.bmp
  1 30.291221 -1.214351 18.946759 0.000000 0.889369 0.457190 0.275591 0.842520
  1 30.261722 -0.944287 18.406763 0.000000 0.889369 0.457190 0.133858 0.503937
  1 30.261220 -1.214295 18.936759 0.000000 0.889369 0.457190 0.291339 0.811024
$0b_battleshipo.bmp
  1 30.291241 -1.194334 17.866759 0.000003 0.903279 -0.429053 0.259843 0.165354
  1 30.251241 -1.194259 17.866759 0.000003 0.903279 -0.429053 0.283465 0.196850
  1 30.291722 -0.944343 18.406763 0.000003 0.903279 -0.429053 0.102362 0.503937
$0b_battleshipo.bmp
  1 30.291722 -0.944343 18.406763 0.000003 0.903279 -0.429053 0.102362 0.503937
  1 30.251241 -1.194259 17.866759 0.000003 0.903279 -0.429053 0.283465 0.196850
  1 30.261722 -0.944287 18.406763 0.000003 0.903279 -0.429053 0.133858 0.503937
$0b_battleshipo.bmp
  1 30.299861 -1.924352 17.876747 0.000000 0.000000 -1.000000 0.724409 0.165354
  1 30.259861 -1.924276 17.866748 0.000000 0.000000 -1.000000 0.700787 0.196850
  1 30.291241 -1.194334 17.866759 0.000000 0.000000 -1.000000 0.259843 0.165354
$0b_battleshipo.bmp
  1 30.291241 -1.194334 17.866759 0.000000 0.000000 -1.000000 0.259843 0.165354
  1 30.259861 -1.924276 17.866748 0.000000 0.000000 -1.000000 0.700787 0.196850
  1 30.251241 -1.194259 17.866759 0.000000 0.000000 -1.000000 0.283465 0.196850
$0b_battleshipo.bmp
  1 30.289379 -2.184341 18.406743 0.000002 -0.903280 -0.429052 0.881890 0.503937
  1 30.259379 -2.184284 18.406743 0.000002 -0.903280 -0.429052 0.850394 0.503937
  1 30.299861 -1.924352 17.876747 0.000002 -0.903280 -0.429052 0.724409 0.165354
$0b_battleshipo.bmp
  1 30.299861 -1.924352 17.876747 0.000002 -0.903280 -0.429052 0.724409 0.165354
  1 30.259379 -2.184284 18.406743 0.000002 -0.903280 -0.429052 0.850394 0.503937
  1 30.259861 -1.924276 17.866748 0.000002 -0.903280 -0.429052 0.700787 0.196850
$0b_battleshipo.bmp
  1 30.260010 -1.854292 18.866749 -0.033389 0.888874 -0.456934 0.661417 0.771654
  1 30.300010 -1.854368 18.866748 -0.033389 0.888874 -0.456934 0.645669 0.740157
  1 30.259549 -2.094285 18.406745 -0.033389 0.888874 -0.456934 0.803150 0.503937
$0b_battleshipo.bmp
  1 30.259549 -2.094285 18.406745 -0.033389 0.888874 -0.456934 0.803150 0.503937
  1 30.300010 -1.854368 18.866748 -0.033389 0.888874 -0.456934 0.645669 0.740157
  1 30.289549 -2.094341 18.406744 -0.033389 0.888874 -0.456934 0.763780 0.503937
$0b_battleshipo.bmp
  1 30.251125 -1.264274 18.866758 0.000000 0.000000 -1.000000 0.322835 0.771654
  1 30.291125 -1.264350 18.866758 0.000000 0.000000 -1.000000 0.338583 0.740157
  1 30.260010 -1.854292 18.866749 0.000000 0.000000 -1.000000 0.661417 0.771654
$0b_battleshipo.bmp
  1 30.260010 -1.854292 18.866749 0.000000 0.000000 -1.000000 0.661417 0.771654
  1 30.291125 -1.264350 18.866758 0.000000 0.000000 -1.000000 0.338583 0.740157
  1 30.300010 -1.854368 18.866748 0.000000 0.000000 -1.000000 0.645669 0.740157
$0b_battleshipo.bmp
  1 30.251552 -1.034268 18.406762 -0.033390 -0.888873 -0.456935 0.181102 0.503937
  1 30.291552 -1.034343 18.406761 -0.033390 -0.888873 -0.456935 0.220472 0.503937
  1 30.251125 -1.264274 18.866758 -0.033390 -0.888873 -0.456935 0.322835 0.771654
$0b_battleshipo.bmp
  1 30.251125 -1.264274 18.866758 -0.033390 -0.888873 -0.456935 0.322835 0.771654
  1 30.291552 -1.034343 18.406761 -0.033390 -0.888873 -0.456935 0.220472 0.503937
  1 30.291125 -1.264350 18.866758 -0.033390 -0.888873 -0.456935 0.338583 0.740157
$0b_battleshipo.bmp
  1 30.251148 -1.244260 17.956759 -0.033919 -0.902760 0.428806 0.307087 0.236220
  1 30.291129 -1.254335 17.946758 -0.033919 -0.902760 0.428806 0.330709 0.267717
  1 30.251552 -1.034268 18.406762 -0.033919 -0.902760 0.428806 0.181102 0.503937
$0b_battleshipo.bmp
  1 30.251552 -1.034268 18.406762 -0.033919 -0.902760 0.428806 0.181102 0.503937
  1 30.291129 -1.254335 17.946758 -0.033919 -0.902760 0.428806 0.330709 0.267717
  1 30.291552 -1.034343 18.406761 -0.033919 -0.902760 0.428806 0.220472 0.503937
$0b_battleshipo.bmp
  1 30.259957 -1.874277 17.946748 0.000000 0.000000 1.000000 0.677165 0.236220
  1 30.289957 -1.874334 17.946748 0.000000 0.000000 1.000000 0.653543 0.267717
  1 30.251148 -1.244260 17.956759 0.000000 0.000000 1.000000 0.307087 0.236220
$0b_battleshipo.bmp
  1 30.251148 -1.244260 17.956759 0.000000 0.000000 1.000000 0.307087 0.236220
  1 30.289957 -1.874334 17.946748 0.000000 0.000000 1.000000 0.653543 0.267717
  1 30.291129 -1.254335 17.946758 0.000000 0.000000 1.000000 0.330709 0.267717
$0b_battleshipo.bmp
  1 30.259549 -2.094285 18.406745 -0.033916 0.902760 0.428806 0.803150 0.503937
  1 30.289549 -2.094341 18.406744 -0.033916 0.902760 0.428806 0.763780 0.503937
  1 30.259957 -1.874277 17.946748 -0.033916 0.902760 0.428806 0.677165 0.236220
$0b_battleshipo.bmp
  1 30.259957 -1.874277 17.946748 -0.033916 0.902760 0.428806 0.677165 0.236220
  1 30.289549 -2.094341 18.406744 -0.033916 0.902760 0.428806 0.763780 0.503937
  1 30.289957 -1.874334 17.946748 -0.033916 0.902760 0.428806 0.653543 0.267717
$0b_battleshipo.bmp
  1 18.394037 0.288130 18.866976 -1.000000 0.000000 0.000000 0.346457 0.724409
  1 18.392499 -0.521861 18.416964 -1.000000 0.000000 0.000000 0.748031 0.503937
  1 18.392960 -0.281869 18.866967 -1.000000 0.000000 0.000000 0.637795 0.724409
$0b_battleshipo.bmp
  1 30.294034 0.275647 18.866782 -1.000000 0.000000 0.000000 0.346457 0.724409
  1 30.292515 -0.524344 18.406769 -1.000000 0.000000 0.000000 0.748031 0.503937
  1 30.292957 -0.294352 18.866773 -1.000000 0.000000 0.000000 0.637795 0.724409
$0b_battleshipo.bmp
  1 30.306963 1.825626 18.866807 -1.000000 0.000000 0.000000 0.346457 0.724409
  1 30.295406 1.005653 18.406794 -1.000000 0.000000 0.000000 0.748031 0.503937
  1 30.295848 1.235646 18.866797 -1.000000 0.000000 0.000000 0.637795 0.724409
$0b_battleshipo.bmp
  1 30.291125 -1.264350 18.866758 -1.000000 0.000000 0.000000 0.346457 0.724409
  1 30.289549 -2.094341 18.406744 -1.000000 0.000000 0.000000 0.748031 0.503937
  1 30.300010 -1.854368 18.866748 -1.000000 0.000000 0.000000 0.637795 0.724409
end
