// Created by Crowbar 0.68

$modelname "weapons/tfa_cso/c_electronv.mdl"

$include "csonline_gmod.qci"

$bodygroup "weapon"
{
	studio "v_ref1"
}
$bodygroup "weapon"
{
	studio "v_ref2"
}
$bodygroup "weapon"
{
	studio "v_ref_fx1"
}

$cdmaterials "models/weapons/tfa_cso/electronv"

$attachment 0 "lightningar_root" 2 -26 0 rotate 0 -90 0
//$attachment 1 "lightningar_root" 2 -5 -1

$sequence "idle_empty" {
	"v_lightningar_anims\idle_empty"
	fps 30
	loop
}
$sequence "idle" {
	"v_lightningar_anims\idle"
	{ event 5004 1 "ElectronV.Idle1" }
	fps 30
	loop
	activity "ACT_VM_IDLE" 1
	snap
}
$sequence "charge_idle1" {
	"v_lightningar_anims\charge_idle1"
	{ event 5004 1 "ElectronV.Idle2" }
	fps 30
	loop
	snap
}
$sequence "charge_idle2" {
	"v_lightningar_anims\charge_idle2"
	{ event 5004 1 "ElectronV.Idle3" }
	fps 30
	loop
}
$sequence "charging" {
	"v_lightningar_anims\charging"
	{ event 5004 1 "ElectronV.Idle2" }
	{ event 5004 11 "ElectronV.Idle3" }
	fps 30
	loop
}
$sequence "charge_finish" {
	"v_lightningar_anims\charge_finish"
	{ event 5004 1 "ElectronV.Idle3" }
	fps 30
	snap
}
$sequence "reload_empty" {
	"v_lightningar_anims\reload_empty"
	{ event 5004 12 "ElectronV.ClipOut" }
	{ event 5004 34 "ElectronV.ClipIn" }
	fps 30
}
$sequence "reload" {
	"v_lightningar_anims\reload"
	{ event 5004 12 "ElectronV.ClipOut" }
	{ event 5004 34 "ElectronV.ClipIn" }
	fps 30
	activity "ACT_VM_RELOAD" 1
	snap
}
$sequence "draw_empty" {
	"v_lightningar_anims\draw_empty"
	{ event 5004 1 "ElectronV.Draw" }
	fps 30
}
$sequence "draw" {
	"v_lightningar_anims\draw"
	{ event 5004 1 "ElectronV.Draw" }
	fps 30
	activity "ACT_VM_DRAW" 1
	snap
}
$sequence "shoot_empty" {
	"v_lightningar_anims\shoot_empty"
	{ event 5001 0 "#I215 S0.07 R2 F0 P30 T999 A1 L0 O0 X0" }
	fps 30
}
$sequence "charge_shoot1" {
	"v_lightningar_anims\charge_shoot1"
	{ event 5001 0 "#I215 S0.07 R2 F0 P30 T999 A1 L0 O0 X0" }
	fps 30
	activity "ACT_VM_PRIMARYATTACK" 1
	snap
}
$sequence "charge_shoot2" {
	"v_lightningar_anims\charge_shoot2"
	{ event 5001 0 "#I215 S0.07 R2 F0 P30 T999 A1 L0 O0 X0" }
	fps 30
	activity "ACT_VM_SECONDARYATTACK" 1
	snap
}
$sequence "charge_shoot_last" {
	"v_lightningar_anims\charge_shoot_last"
	{ event 5001 0 "#I215 S0.07 R2 F0 P30 T999 A1 L0 O0 X0" }
	fps 30
}
