// Created by Crowbar 0.68

$modelname "weapons/tfa_cso/c_balrog_3.mdl"

$bodygroup "weapon"
{
	studio "v_balrog3_ref_balrog3.smd"
}


$surfaceprop "default"

$contents "solid"

$illumposition 0 0 0

$cdmaterials "models\weapons\tfa_cso\balrog_3\"

$attachment "0" "reload" 8.87 -1.56 0 rotate 0 0 0

$cbox 0 0 0 0 0 0

$bbox -16.414 -18.146 -17.258 25.411 16.165 5.148

$definebone "root" "" 0 1.629157 0.541027 0 0 0 0 0 0 0 0 0
$definebone "Bone01" "root" 9.310103 0.16816 -0.149879 -0.012834 -89.77143 179.846257 0 0 0 0 0 0
$definebone "Bone_Lefthand" "Bone01" -0.07192 -8.498734 -0.104137 16.477755 0.853593 -1.43503 0 0 0 0 0 0
$definebone "Bone13" "Bone_Lefthand" -0.488518 -2.755608 -0.22826 0.591986 -15.154159 6.099305 0 0 0 0 0 0
$definebone "Bone14" "Bone13" 0.039887 -1.479792 0.029853 -0.00005 -0.000116 -3.173845 0 0 0 0 0 0
$definebone "Bone15" "Bone14" 0.028789 -1.075737 -0.023109 0.000006 0.000001 0.120263 0 0 0 0 0 0
$definebone "ValveBiped.Bip01_L_Finger32" "Bone15" 0.007988 0.172182 -0.118553 -12.407343 -89.98835 -91.56387 0 0 0 0 0 0
$definebone "ValveBiped.Bip01_L_Finger31" "Bone14" 0.08066 0.135929 -0.203919 -3.792123 -95.27062 -86.334663 0 0 0 0 0 0
$definebone "ValveBiped.Bip01_L_Finger3" "Bone13" 0.117288 -0.155554 -0.604544 -21.460596 -89.909796 -80.95826 0 0 0 0 0 0
$definebone "Bone17" "Bone_Lefthand" 0.250027 -2.820667 -0.238396 -0.167356 0.483748 2.396453 0 0 0 0 0 0
$definebone "Bone18" "Bone17" -0.04976 -1.680544 0.100479 0.000005 -0.000172 1.135946 0 0 0 0 0 0
$definebone "Bone19" "Bone18" -0.034142 -1.148317 0.084782 0.000006 0 -2.298421 0 0 0 0 0 0
$definebone "ValveBiped.Bip01_L_Finger22" "Bone19" -0.018589 0.129955 -0.123721 0.074599 -93.700544 -74.173969 0 0 0 0 0 0
$definebone "ValveBiped.Bip01_L_Finger21" "Bone18" -0.00616 0.170065 -0.110169 -3.935132 -91.513682 -73.343411 0 0 0 0 0 0
$definebone "ValveBiped.Bip01_L_Finger2" "Bone17" 0.0471 -0.104074 -0.352264 -14.742089 -97.078872 -71.239754 0 0 0 0 0 0
$definebone "Bone21" "Bone_Lefthand" 0.957766 -2.746782 -0.090302 -9.297781 10.975405 -0.986632 0 0 0 0 0 0
$definebone "Bone22" "Bone21" -0.033419 -1.397131 -0.011256 0.000005 -0.000002 0.79813 0 0 0 0 0 0
$definebone "Bone23" "Bone22" -0.022361 -0.957438 0.018784 0.000005 -0.000059 0.220302 0 0 0 0 0 0
$definebone "ValveBiped.Bip01_L_Finger12" "Bone23" -0.022325 0.04542 -0.038284 -7.404337 -96.337817 -64.488939 0 0 0 0 0 0
$definebone "ValveBiped.Bip01_L_Finger11" "Bone22" -0.0429 -0.061274 -0.071212 -3.46376 -90.87678 -64.426927 0 0 0 0 0 0
$definebone "ValveBiped.Bip01_L_Finger1" "Bone21" 0.063741 -0.109104 -0.248158 -7.208098 -97.035166 -65.47836 0 0 0 0 0 0
$definebone "Bone09" "Bone_Lefthand" -1.180682 -2.507221 -0.193859 0.761753 -27.382341 4.755432 0 0 0 0 0 0
$definebone "Bone10" "Bone09" -0.024971 -1.123932 0.017596 -0.000166 -0.000398 -1.034994 0 0 0 0 0 0
$definebone "Bone11" "Bone10" -0.020051 -0.89097 0.010091 0.000064 0.000227 -3.483472 0 0 0 0 0 0
$definebone "ValveBiped.Bip01_L_Finger42" "Bone11" -0.011721 0.093266 0.017949 -4.535246 -90.250261 -96.706975 0 0 0 0 0 0
$definebone "ValveBiped.Bip01_L_Finger41" "Bone10" 0.048862 -0.085539 0.028626 -1.980659 -94.720811 -98.296927 0 0 0 0 0 0
$definebone "ValveBiped.Bip01_L_Finger4" "Bone09" 0.173919 -0.198418 -0.336163 -24.196983 -98.030563 -95.575322 0 0 0 0 0 0
$definebone "Bone05" "Bone_Lefthand" 0.58351 -1.197279 0.185379 -23.203249 -20.872394 9.055595 0 0 0 0 0 0
$definebone "Bone06" "Bone05" 1.535928 0.010252 0.005009 -0.743699 0.051109 -0.169826 0 0 0 0 0 0
$definebone "Bone07" "Bone06" 1.10077 0.004524 -0.01068 0.915186 0.198185 -0.1602 0 0 0 0 0 0
$definebone "ValveBiped.Bip01_L_Finger02" "Bone07" -0.267709 0.037512 -0.093907 -8.215419 4.495833 166.949125 0 0 0 0 0 0
$definebone "ValveBiped.Bip01_L_Finger01" "Bone06" -0.029266 0.205408 -0.329287 -14.638277 -10.824147 159.773534 0 0 0 0 0 0
$definebone "ValveBiped.Bip01_L_Finger0" "Bone05" 0.204373 0.521055 -0.268577 2.418227 -13.199066 165.393946 0 0 0 0 0 0
$definebone "ValveBiped.Bip01_L_Hand" "Bone_Lefthand" 0.195697 -0.010059 -0.293538 8.643815 -95.84146 -76.408848 0 0 0 0 0 0
$definebone "Bone_L_Upper" "Bone01" 1.257181 8.76259 -0.153713 0.153725 -89.771485 -89.986574 0 0 0 0 0 0
$definebone "ValveBiped.Bip01_L_UpperArm" "Bone_L_Upper" -0.0935 -0.114213 -0.738866 3.54151 0.120092 -90.002618 0 0 0 0 0 0
$definebone "ValveBiped.Bip01_L_Forearm" "Bone01" 0.010843 0.093625 -0.081439 2.390303 -89.853283 -179.992546 0 0 0 0 0 0
$definebone "Bone04" "root" -9.310107 -5.231259 -12.513384 -0.574482 90.226218 -179.714448 0 0 0 0 0 0
$definebone "Bone_Righthand" "Bone04" 0.096935 -8.450418 -0.009359 -17.068928 -0.267285 -1.888641 0 0 0 0 0 0
$definebone "Bone39" "Bone_Righthand" 0.447956 -2.798988 -0.200437 -0.595646 15.188992 6.099537 0 0 0 0 0 0
$definebone "Bone40" "Bone39" -0.032911 -1.480202 0.004945 0.000056 -0.00023 -3.174473 0 0 0 0 0 0
$definebone "Bone41" "Bone40" -0.027019 -1.076921 -0.020208 -0.000116 -0.000055 0.120033 0 0 0 0 0 0
$definebone "ValveBiped.Bip01_R_Finger32" "Bone41" 0.006928 0.005329 -0.181358 -14.242533 -92.324241 -87.576597 0 0 0 0 0 0
$definebone "ValveBiped.Bip01_R_Finger31" "Bone40" -0.052313 0.038591 -0.230756 -2.4875 -87.577457 -91.243124 0 0 0 0 0 0
$definebone "ValveBiped.Bip01_R_Finger3" "Bone39" -0.232601 -0.209654 -0.420669 -9.578309 -82.444618 -98.192937 0 0 0 0 0 0
$definebone "Bone35" "Bone_Righthand" -0.249531 -2.846966 -0.174203 -0.007167 -0.481113 2.400922 0 0 0 0 0 0
$definebone "Bone36" "Bone35" 0.043239 -1.683939 0.096018 0.1618 -0.009454 1.131993 0 0 0 0 0 0
$definebone "Bone37" "Bone36" 0.031729 -1.160828 0.058844 0.036892 0.479623 -2.302316 0 0 0 0 0 0
$definebone "ValveBiped.Bip01_R_Finger22" "Bone37" -0.038065 0.069168 -0.159885 3.79172 -90.263313 -104.105627 0 0 0 0 0 0
$definebone "ValveBiped.Bip01_R_Finger21" "Bone36" -0.025151 0.088764 -0.068836 2.550234 -89.856234 -104.154723 0 0 0 0 0 0
$definebone "ValveBiped.Bip01_R_Finger2" "Bone35" -0.102916 -0.186983 -0.272247 -13.34774 -84.360875 -105.062298 0 0 0 0 0 0
$definebone "Bone31" "Bone_Righthand" -0.963863 -2.785145 -0.08534 9.297842 -10.975175 -0.987091 0 0 0 0 0 0
$definebone "Bone32" "Bone31" 0.028477 -1.403069 0.006275 0.00017 -0.000113 0.798532 0 0 0 0 0 0
$definebone "Bone33" "Bone32" 0.021413 -0.957781 0.020044 0.000054 0.000061 0.220589 0 0 0 0 0 0
$definebone "ValveBiped.Bip01_R_Finger12" "Bone33" -0.004241 0.043707 -0.080204 -10.714081 -83.693265 -115.450824 0 0 0 0 0 0
$definebone "ValveBiped.Bip01_R_Finger11" "Bone32" 0.015383 -0.089136 -0.03001 2.082473 -89.875823 -114.94009 0 0 0 0 0 0
$definebone "ValveBiped.Bip01_R_Finger1" "Bone31" -0.02261 -0.212355 -0.177906 -6.806799 -87.026275 -110.761961 0 0 0 0 0 0
$definebone "Bone43" "Bone_Righthand" 1.164478 -2.543936 -0.170326 -0.761407 27.382454 4.755606 0 0 0 0 0 0
$definebone "Bone44" "Bone43" 0.024034 -1.129042 0.017804 0.000228 0.000514 -1.035563 0 0 0 0 0 0
$definebone "Bone45" "Bone44" 0.014894 -0.883987 -0.019848 -0.000342 -0.000229 -3.48341 0 0 0 0 0 0
$definebone "ValveBiped.Bip01_R_Finger42" "Bone45" -0.067138 0.063251 -0.010962 -0.831649 -91.691922 -51.521172 0 0 0 0 0 0
$definebone "ValveBiped.Bip01_R_Finger41" "Bone44" -0.15118 -0.007393 -0.070065 -6.807828 -80.704429 -52.31454 0 0 0 0 0 0
$definebone "ValveBiped.Bip01_R_Finger4" "Bone43" -0.178164 -0.244682 -0.357068 -22.016481 -89.158537 -66.458287 0 0 0 0 0 0
$definebone "Bone27" "Bone_Righthand" -0.586769 -1.264473 0.200167 -23.520784 -161.276858 -8.714114 0 0 0 0 0 0
$definebone "Bone28" "Bone27" 1.522834 0.058674 0.01685 0.51457 -2.686028 0.080501 0 0 0 0 0 0
$definebone "Bone29" "Bone28" 1.117947 0.048422 -0.005766 -1.443741 3.74817 -0.013923 0 0 0 0 0 0
$definebone "ValveBiped.Bip01_R_Finger02" "Bone29" -0.263409 -0.11764 -0.01566 -4.710288 -1.535532 0.002063 0 0 0 0 0 0
$definebone "ValveBiped.Bip01_R_Finger01" "Bone28" 0.007707 -0.334358 -0.191575 -10.402795 16.178259 4.055853 0 0 0 0 0 0
$definebone "ValveBiped.Bip01_R_Finger0" "Bone27" 0.225562 -0.567923 -0.420715 -10.530857 12.803308 6.869476 0 0 0 0 0 0
$definebone "ValveBiped.Bip01_R_Hand" "Bone_Righthand" -0.203683 -0.095655 -0.328306 4.30532 -86.824996 -99.985548 0 0 0 0 0 0
$definebone "Bone_R_Upper" "Bone04" -1.39346 8.839182 -0.239438 -0.287854 -89.77378 90.573397 0 0 0 0 0 0
$definebone "ValveBiped.Bip01_R_UpperArm" "Bone_R_Upper" 0.03602 0.082816 -0.692656 3.780892 0.073109 -89.998438 0 0 0 0 0 0
$definebone "ValveBiped.Bip01_R_Forearm" "Bone04" -0.088586 0.054021 -0.088593 1.936599 -89.430173 0.586193 0 0 0 0 0 0
$definebone "Bone_Se_Hand-L" "Bone_Lefthand" 0.120153 -0.05027 -0.054489 1.758293 -90.556444 -163.523526 0 0 0 0 0 0
$definebone "Bone_Se_Hand-R" "Bone_Righthand" -0.139399 -0.111696 0.0144 -1.796395 90.545263 16.351925 0 0 0 0 0 0
$definebone "magazine" "Bone_Lefthand" 2.058603 -9.022203 1.16176 14.281939 -159.997741 2.03058 0 0 0 0 0 0
$definebone "reload" "Bone_Lefthand" 4.866659 -10.951731 1.766928 2.986881 -89.882284 14.116339 0 0 0 0 0 0
$definebone "mouth2" "Bone_Lefthand" 5.373538 -6.144754 2.147827 14.420491 -169.176805 -0.249165 0 0 0 0 0 0
$definebone "mouth1" "Bone_Lefthand" 5.507003 -6.788429 2.147504 -3.381091 88.542782 -14.028857 0 0 0 0 0 0
$definebone "bcs" "Bone_Lefthand" 3.392928 -3.774115 1.77419 2.986881 -89.882284 14.116339 0 0 0 0 0 0

$bonemerge "root"
$bonemerge "Bone01"
$bonemerge "Bone_Lefthand"
$bonemerge "Bone13"
$bonemerge "Bone14"
$bonemerge "Bone15"
$bonemerge "ValveBiped.Bip01_L_Finger32"
$bonemerge "ValveBiped.Bip01_L_Finger31"
$bonemerge "ValveBiped.Bip01_L_Finger3"
$bonemerge "Bone17"
$bonemerge "Bone18"
$bonemerge "Bone19"
$bonemerge "ValveBiped.Bip01_L_Finger22"
$bonemerge "ValveBiped.Bip01_L_Finger21"
$bonemerge "ValveBiped.Bip01_L_Finger2"
$bonemerge "Bone21"
$bonemerge "Bone22"
$bonemerge "Bone23"
$bonemerge "ValveBiped.Bip01_L_Finger12"
$bonemerge "ValveBiped.Bip01_L_Finger11"
$bonemerge "ValveBiped.Bip01_L_Finger1"
$bonemerge "Bone09"
$bonemerge "Bone10"
$bonemerge "Bone11"
$bonemerge "ValveBiped.Bip01_L_Finger42"
$bonemerge "ValveBiped.Bip01_L_Finger41"
$bonemerge "ValveBiped.Bip01_L_Finger4"
$bonemerge "Bone05"
$bonemerge "Bone06"
$bonemerge "Bone07"
$bonemerge "ValveBiped.Bip01_L_Finger02"
$bonemerge "ValveBiped.Bip01_L_Finger01"
$bonemerge "ValveBiped.Bip01_L_Finger0"
$bonemerge "ValveBiped.Bip01_L_Hand"
$bonemerge "Bone_L_Upper"
$bonemerge "ValveBiped.Bip01_L_UpperArm"
$bonemerge "ValveBiped.Bip01_L_Forearm"
$bonemerge "Bone04"
$bonemerge "Bone_Righthand"
$bonemerge "Bone39"
$bonemerge "Bone40"
$bonemerge "Bone41"
$bonemerge "ValveBiped.Bip01_R_Finger32"
$bonemerge "ValveBiped.Bip01_R_Finger31"
$bonemerge "ValveBiped.Bip01_R_Finger3"
$bonemerge "Bone35"
$bonemerge "Bone36"
$bonemerge "Bone37"
$bonemerge "ValveBiped.Bip01_R_Finger22"
$bonemerge "ValveBiped.Bip01_R_Finger21"
$bonemerge "ValveBiped.Bip01_R_Finger2"
$bonemerge "Bone31"
$bonemerge "Bone32"
$bonemerge "Bone33"
$bonemerge "ValveBiped.Bip01_R_Finger12"
$bonemerge "ValveBiped.Bip01_R_Finger11"
$bonemerge "ValveBiped.Bip01_R_Finger1"
$bonemerge "Bone43"
$bonemerge "Bone44"
$bonemerge "Bone45"
$bonemerge "ValveBiped.Bip01_R_Finger42"
$bonemerge "ValveBiped.Bip01_R_Finger41"
$bonemerge "ValveBiped.Bip01_R_Finger4"
$bonemerge "Bone27"
$bonemerge "Bone28"
$bonemerge "Bone29"
$bonemerge "ValveBiped.Bip01_R_Finger02"
$bonemerge "ValveBiped.Bip01_R_Finger01"
$bonemerge "ValveBiped.Bip01_R_Finger0"
$bonemerge "ValveBiped.Bip01_R_Hand"
$bonemerge "Bone_R_Upper"
$bonemerge "ValveBiped.Bip01_R_UpperArm"
$bonemerge "ValveBiped.Bip01_R_Forearm"


$sectionframes 30 300

$sequence "idle" {
	"c_balrog_3_anims\idle.smd"
	activity "ACT_VM_IDLE" 1
	fadein 0.2
	fadeout 0.2
	fps 12
}

$sequence "reload" {
	"c_balrog_3_anims\reload.smd"
	activity "ACT_VM_RELOAD" 1
	{ event 5004 15 "BALROG3.ClipOut" }
	{ event 5004 46 "BALROG3.ClipIn" }
	{ event 5004 65 "BALROG3.BoltPull" }
	fadein 0.2
	fadeout 0.2
	snap
	fps 38
}

$sequence "draw" {
	"c_balrog_3_anims\draw.smd"
	activity "ACT_VM_DRAW" 1
	{ event 5004 10 "BALROG3.Draw" }
	fadein 0.2
	fadeout 0.2
	fps 35
}

$sequence "shoot1" {
	"c_balrog_3_anims\shoot1.smd"
	activity "ACT_VM_PRIMARYATTACK" 1
	{ event 5001 0 "#I21 S0.05 R1.5 F0 P30 T0.01 A1 L0 O0" }
	fadein 0.2
	fadeout 0.2
	snap
	fps 30
}

$sequence "shoot2" {
	"c_balrog_3_anims\shoot2.smd"
	{ event 5001 0 "#I26 S0.05 R1.5 F0 P30 T0.01 A1 L0 O0" }
	fadein 0.2
	fadeout 0.2
	snap
	fps 30
}
