// Created by Crowbar 0.34.0.0

$ModelName "weapons/tfa_cso/w_ozwpnset2.mdl"

$BodyGroup "studio"
{
	studio "v_oz"
}

$collisionmodel "v_oz.smd"
{
	$mass 9
}

$CDMaterials "models\weapons\tfa_cso\ozwpnset2\"

$attachment "0" "root" -0.10 -5.80 -0.00 rotate -0 -90 0

$Sequence "idle" {
	"anims\idle.smd"
	fps 30
}