version 1
nodes
  0 "kronos1_root" -1
  1 "fnp_trigger" 0
  2 "fnp_reload" 0
  3 "fnp_button" 0
  4 "fnp_trigger02" 0
  5 "fnp_slider" 0
  6 "trans01" 0
  7 "trans02" 0
  8 "ef" 0
  9 "root" -1
  10 "Bone01" 9
  11 "Bone_L_Upper" 10
  12 "Bone_Lefthand" 10
  13 "Bone13" 12
  14 "Bone14" 13
  15 "Bone15" 14
  16 "Bone17" 12
  17 "Bone18" 16
  18 "Bone19" 17
  19 "Bone21" 12
  20 "Bone22" 19
  21 "Bone23" 20
  22 "Bone09" 12
  23 "Bone10" 22
  24 "Bone11" 23
  25 "Bone05" 12
  26 "Bone06" 25
  27 "Bone07" 26
  28 "Bone_Se_Hand-L" 12
  29 "Bone04" 9
  30 "Bone_Righthand" 29
  31 "Bone39" 30
  32 "Bone40" 31
  33 "Bone41" 32
  34 "Bone35" 30
  35 "Bone36" 34
  36 "Bone37" 35
  37 "Bone31" 30
  38 "Bone32" 37
  39 "Bone33" 38
  40 "Bone43" 30
  41 "Bone44" 40
  42 "Bone45" 41
  43 "Bone27" 30
  44 "Bone28" 43
  45 "Bone29" 44
  46 "Bone_Se_Hand-R" 30
  47 "Bone_R_Upper" 29
end
skeleton
  time 0
    0 0.336737 -10.556345 -3.103774 -1.582229 0.069241 1.556379
    1 -0.881688 0.301299 0.000000 0.000001 0.000000 -1.382160
    2 1.671935 4.611084 0.000000 0.000000 0.000000 1.232289
    3 -0.763543 -0.089952 0.631852 -0.002283 1.570796 0.000000
    4 1.384421 -0.042067 0.000000 0.000000 0.000000 1.345677
    5 0.660750 -0.739376 0.000000 0.000000 0.000000 0.002283
    6 -0.736122 -1.726717 -0.122348 1.570770 -1.561760 1.573105
    7 -0.736128 -1.724683 0.143968 -1.570809 1.561648 -1.568528
    8 12.401976 13.688553 -0.183159 -0.021947 -0.004687 3.117914
    9 -0.002752 -0.001265 -0.003287 0.000000 0.000000 0.000000
    10 6.122506 -0.404933 -8.175012 4.455315 -1.229495 1.244955
    11 6.831569 -3.604980 -0.423252 -1.562797 -0.032171 -3.535440
    12 -0.110985 -8.483111 -0.139291 0.408832 0.048899 -0.256102
    13 -0.488518 -2.755602 -0.228260 -0.242250 0.060691 -0.057732
    14 0.039887 -1.538386 0.018135 -1.634758 -0.010403 0.036650
    15 0.028786 -1.134327 -0.109049 -0.791864 -0.013746 0.015532
    16 0.250027 -2.820665 -0.238396 -0.313985 0.018280 -0.085804
    17 -0.049759 -1.602417 0.049696 -1.312009 0.004662 -0.036064
    18 -0.034142 -1.175657 0.045718 -1.263189 0.005489 -0.033341
    19 0.957766 -2.746780 -0.090302 0.167150 -0.150256 0.099289
    20 -0.033420 -1.393223 -0.019070 -0.517853 0.008329 -0.025205
    21 -0.022360 -0.957436 0.007065 -0.527929 0.007982 -0.025323
    22 -1.180681 -2.507217 -0.193859 -0.150629 0.142428 -0.022097
    23 -0.024967 -1.123934 0.017597 -0.759772 0.006951 -0.032333
    24 -0.020057 -0.906594 0.037435 -1.161982 0.002397 -0.047687
    25 0.603042 -1.197277 0.181473 0.666402 -0.922572 -1.051051
    26 1.504676 -0.177260 -0.006710 0.213418 0.065484 -0.624307
    27 1.049988 -0.147821 0.032291 0.039018 -0.188604 -0.767764
    28 0.120153 -0.050270 -0.054489 0.287569 3.110905 1.561085
    29 -4.149794 -0.367830 -8.669517 0.378683 -4.061314 0.613951
    30 -0.043685 -8.430887 0.045324 -0.139581 -0.898442 0.178887
    31 0.447953 -2.798986 -0.200443 -0.244439 -0.056549 0.060325
    32 -0.032909 -1.499736 0.024472 -1.286546 0.022998 -0.023524
    33 -0.027022 -1.096452 -0.028023 -0.524789 0.013722 -0.005621
    34 -0.249534 -2.846964 -0.174213 -0.316343 -0.019324 0.076958
    35 0.043235 -1.656596 0.076480 -1.215735 -0.019648 0.004291
    36 0.031729 -1.149111 0.058838 -0.758918 -0.007903 0.005292
    37 -0.963866 -2.785145 -0.085350 -0.133536 0.264013 -0.032832
    38 0.028479 -1.403067 -0.009354 -0.611716 -0.012368 -0.024940
    39 0.021413 -0.942156 0.012233 -1.051190 -0.028955 -0.035163
    40 1.164475 -2.543940 -0.170330 -0.166622 -0.161422 -0.083745
    41 0.024032 -1.136855 -0.001725 -0.790999 0.004494 0.042151
    42 0.014898 -0.903521 -0.015942 -1.038482 0.010007 0.051857
    43 -0.586770 -1.264477 0.200161 -0.200114 -0.096951 -2.129323
    44 1.530648 0.054775 0.009035 0.154202 -0.079650 0.158043
    45 1.106228 0.052330 -0.001860 0.312990 -0.289446 0.975210
    46 -0.139399 -0.111698 0.014397 0.285382 -0.030687 1.580508
    47 -8.194459 -0.153285 -0.477722 1.563786 -0.037429 -0.059094
  time 1
    0 0.301579 -10.556345 -3.123306 -1.593073 0.067821 1.556480
    1 -0.881688 0.301299 0.000000 0.000001 0.000000 -1.382160
    2 1.671935 4.611084 0.000000 0.000000 0.000000 1.232289
    3 -0.763543 -0.089952 0.631852 -0.002283 1.570796 0.000000
    4 1.384421 -0.042067 0.000000 0.000000 0.000000 1.345677
    5 0.660750 -0.739376 0.000000 0.000000 0.000000 0.002283
    6 -0.736122 -1.726717 -0.122348 1.570770 -1.561760 1.573105
    7 -0.736128 -1.724683 0.143968 -1.570809 1.561648 -1.568528
    8 12.401976 13.688553 -0.183159 -0.021947 -0.004687 3.117914
    9 -0.002752 -0.001265 -0.003287 0.000000 0.000000 0.000000
    10 6.102974 -0.401027 -8.190638 4.458760 -1.227397 1.241987
    11 6.819850 -3.624512 -0.423252 -1.562701 -0.032171 -3.538034
    12 -0.114891 -8.479205 -0.143198 0.408062 0.039934 -0.265451
    13 -0.488518 -2.755602 -0.228260 -0.242250 0.060691 -0.057732
    14 0.039887 -1.538386 0.018135 -1.634758 -0.010403 0.036650
    15 0.028786 -1.134327 -0.109049 -0.791864 -0.013746 0.015532
    16 0.250027 -2.820665 -0.238396 -0.313985 0.018280 -0.085804
    17 -0.049759 -1.602417 0.049696 -1.312009 0.004662 -0.036064
    18 -0.034142 -1.175657 0.045718 -1.263189 0.005489 -0.033341
    19 0.957766 -2.746780 -0.090302 0.167150 -0.150256 0.099289
    20 -0.033420 -1.393223 -0.019070 -0.517853 0.008329 -0.025205
    21 -0.022360 -0.957436 0.007065 -0.527929 0.007982 -0.025323
    22 -1.180681 -2.507217 -0.193859 -0.150629 0.142428 -0.022097
    23 -0.024967 -1.123934 0.017597 -0.759772 0.006951 -0.032333
    24 -0.020057 -0.906594 0.037435 -1.161982 0.002397 -0.047687
    25 0.603042 -1.197277 0.181473 0.666402 -0.922572 -1.051051
    26 1.504676 -0.177260 -0.006710 0.213418 0.065484 -0.624307
    27 1.049988 -0.147821 0.032291 0.039018 -0.188604 -0.767764
    28 0.120153 -0.050270 -0.054489 0.287569 3.110905 1.561085
    29 -4.149794 -0.363924 -8.673423 0.375380 -4.062485 0.610600
    30 -0.047592 -8.430887 0.045324 -0.142498 -0.904825 0.176616
    31 0.447953 -2.798986 -0.200443 -0.244439 -0.056549 0.060325
    32 -0.032909 -1.499736 0.024472 -1.286546 0.022998 -0.023524
    33 -0.027022 -1.096452 -0.028023 -0.524789 0.013722 -0.005621
    34 -0.249534 -2.846964 -0.174213 -0.316343 -0.019324 0.076958
    35 0.043235 -1.656596 0.076480 -1.215735 -0.019648 0.004291
    36 0.031729 -1.149111 0.058838 -0.758918 -0.007903 0.005292
    37 -0.963866 -2.785145 -0.085350 -0.133536 0.264013 -0.032832
    38 0.028479 -1.403067 -0.009354 -0.611716 -0.012368 -0.024940
    39 0.021413 -0.942156 0.012233 -1.051190 -0.028955 -0.035163
    40 1.164475 -2.543940 -0.170330 -0.166622 -0.161422 -0.083745
    41 0.024032 -1.136855 -0.001725 -0.790999 0.004494 0.042151
    42 0.014898 -0.903521 -0.015942 -1.038482 0.010007 0.051857
    43 -0.586770 -1.264477 0.200161 -0.200114 -0.096951 -2.129323
    44 1.530648 0.054775 0.009035 0.154202 -0.079650 0.158043
    45 1.106228 0.052330 -0.001860 0.312990 -0.289446 0.975210
    46 -0.139399 -0.111698 0.014397 0.285382 -0.030687 1.580508
    47 -8.194459 -0.141566 -0.477722 1.563822 -0.037417 -0.060491
  time 2
    0 0.309392 -10.556345 -3.131119 -1.599636 0.069241 1.556882
    1 -0.881688 0.301299 0.000000 0.000001 0.000000 -1.382160
    2 1.671935 4.611084 0.000000 0.000000 0.000000 1.232289
    3 -0.763543 -0.089952 0.631852 -0.002283 1.570796 0.000000
    4 1.384421 -0.042067 0.000000 0.000000 0.000000 1.345677
    5 0.660750 -0.739376 0.000000 0.000000 0.000000 0.002283
    6 -0.736122 -1.726717 -0.122348 1.570770 -1.561760 1.573105
    7 -0.736128 -1.724683 0.143968 -1.570809 1.561648 -1.568528
    8 12.401976 13.688553 -0.183159 -0.021947 -0.004687 3.117914
    9 -0.002752 -0.001265 -0.003287 0.000000 0.000000 0.000000
    10 6.126413 -0.397121 -8.171106 4.453975 -1.230020 1.246774
    11 6.827662 -3.608887 -0.423252 -1.562701 -0.032171 -3.535986
    12 -0.114891 -8.479205 -0.143198 0.408288 0.034547 -0.264698
    13 -0.488518 -2.755602 -0.228260 -0.242250 0.060691 -0.057732
    14 0.039887 -1.538386 0.018135 -1.634758 -0.010403 0.036650
    15 0.028786 -1.134327 -0.109049 -0.791864 -0.013746 0.015532
    16 0.250027 -2.820665 -0.238396 -0.313985 0.018280 -0.085804
    17 -0.049759 -1.602417 0.049696 -1.312009 0.004662 -0.036064
    18 -0.034142 -1.175657 0.045718 -1.263189 0.005489 -0.033341
    19 0.957766 -2.746780 -0.090302 0.167150 -0.150256 0.099289
    20 -0.033420 -1.393223 -0.019070 -0.517853 0.008329 -0.025205
    21 -0.022360 -0.957436 0.007065 -0.527929 0.007982 -0.025323
    22 -1.180681 -2.507217 -0.193859 -0.150629 0.142428 -0.022097
    23 -0.024967 -1.123934 0.017597 -0.759772 0.006951 -0.032333
    24 -0.020057 -0.906594 0.037435 -1.161982 0.002397 -0.047687
    25 0.603042 -1.197277 0.181473 0.666402 -0.922572 -1.051051
    26 1.504676 -0.177260 -0.006710 0.213418 0.065484 -0.624307
    27 1.049988 -0.147821 0.032291 0.039018 -0.188604 -0.767764
    28 0.120153 -0.050270 -0.054489 0.287569 3.110905 1.561085
    29 -4.141981 -0.383456 -8.673423 0.373906 -4.063573 0.610504
    30 -0.047592 -8.430887 0.045324 -0.145549 -0.905767 0.173423
    31 0.447953 -2.798986 -0.200443 -0.244439 -0.056549 0.060325
    32 -0.032909 -1.499736 0.024472 -1.286546 0.022998 -0.023524
    33 -0.027022 -1.096452 -0.028023 -0.524789 0.013722 -0.005621
    34 -0.249534 -2.846964 -0.174213 -0.316343 -0.019324 0.076958
    35 0.043235 -1.656596 0.076480 -1.215735 -0.019648 0.004291
    36 0.031729 -1.149111 0.058838 -0.758918 -0.007903 0.005292
    37 -0.963866 -2.785145 -0.085350 -0.133536 0.264013 -0.032832
    38 0.028479 -1.403067 -0.009354 -0.611716 -0.012368 -0.024940
    39 0.021413 -0.942156 0.012233 -1.051190 -0.028955 -0.035163
    40 1.164475 -2.543940 -0.170330 -0.166622 -0.161422 -0.083745
    41 0.024032 -1.136855 -0.001725 -0.790999 0.004494 0.042151
    42 0.014898 -0.903521 -0.015942 -1.038482 0.010007 0.051857
    43 -0.586770 -1.264477 0.200161 -0.200114 -0.096951 -2.129323
    44 1.530648 0.054775 0.009035 0.154202 -0.079650 0.158043
    45 1.106228 0.052330 -0.001860 0.312990 -0.289446 0.975210
    46 -0.139399 -0.111698 0.014397 0.285382 -0.030687 1.580508
    47 -8.198365 -0.106408 -0.477722 1.563930 -0.037381 -0.064472
  time 3
    0 0.410958 -10.568065 -3.127212 -1.598590 0.076908 1.557284
    1 -0.881688 0.301299 0.000000 0.000001 0.000000 -1.382160
    2 1.671935 4.611084 0.000000 0.000000 0.000000 1.232289
    3 -0.763543 -0.089952 0.631852 -0.002283 1.570796 0.000000
    4 1.384421 -0.042067 0.000000 0.000000 0.000000 1.345677
    5 0.660750 -0.739376 0.000000 0.000000 0.000000 0.002283
    6 -0.736122 -1.726717 -0.122348 1.570770 -1.561760 1.573105
    7 -0.736128 -1.724683 0.143968 -1.570809 1.561648 -1.568528
    8 12.401976 13.688553 -0.183159 -0.021947 -0.004687 3.117914
    9 -0.002752 -0.001265 -0.003287 0.000000 0.000000 0.000000
    10 6.251416 -0.397121 -8.077353 4.429764 -1.242911 1.270421
    11 6.882352 -3.526853 -0.419346 -1.562988 -0.032076 -3.523905
    12 -0.114891 -8.483111 -0.143198 0.409829 0.035633 -0.243176
    13 -0.488518 -2.755602 -0.228260 -0.242250 0.060691 -0.057732
    14 0.039887 -1.538386 0.018135 -1.634758 -0.010403 0.036650
    15 0.028786 -1.134327 -0.109049 -0.791864 -0.013746 0.015532
    16 0.250027 -2.820665 -0.238396 -0.313985 0.018280 -0.085804
    17 -0.049759 -1.602417 0.049696 -1.312009 0.004662 -0.036064
    18 -0.034142 -1.175657 0.045718 -1.263189 0.005489 -0.033341
    19 0.957766 -2.746780 -0.090302 0.167150 -0.150256 0.099289
    20 -0.033420 -1.393223 -0.019070 -0.517853 0.008329 -0.025205
    21 -0.022360 -0.957436 0.007065 -0.527929 0.007982 -0.025323
    22 -1.180681 -2.507217 -0.193859 -0.150629 0.142428 -0.022097
    23 -0.024967 -1.123934 0.017597 -0.759772 0.006951 -0.032333
    24 -0.020057 -0.906594 0.037435 -1.161982 0.002397 -0.047687
    25 0.603042 -1.197277 0.181473 0.666402 -0.922572 -1.051051
    26 1.504676 -0.177260 -0.006710 0.213418 0.065484 -0.624307
    27 1.049988 -0.147821 0.032291 0.039018 -0.188604 -0.767764
    28 0.120153 -0.050270 -0.054489 0.287569 3.110905 1.561085
    29 -4.106823 -0.445958 -8.677329 0.376088 -4.065246 0.620270
    30 -0.043685 -8.434793 0.045324 -0.131639 -0.896230 0.160755
    31 0.447953 -2.798986 -0.200443 -0.244439 -0.056549 0.060325
    32 -0.032909 -1.499736 0.024472 -1.286546 0.022998 -0.023524
    33 -0.027022 -1.096452 -0.028023 -0.524789 0.013722 -0.005621
    34 -0.249534 -2.846964 -0.174213 -0.316343 -0.019324 0.076958
    35 0.043235 -1.656596 0.076480 -1.215735 -0.019648 0.004291
    36 0.031729 -1.149111 0.058838 -0.758918 -0.007903 0.005292
    37 -0.963866 -2.785145 -0.085350 -0.133536 0.264013 -0.032832
    38 0.028479 -1.403067 -0.009354 -0.611716 -0.012368 -0.024940
    39 0.021413 -0.942156 0.012233 -1.051190 -0.028955 -0.035163
    40 1.164475 -2.543940 -0.170330 -0.166622 -0.161422 -0.083745
    41 0.024032 -1.136855 -0.001725 -0.790999 0.004494 0.042151
    42 0.014898 -0.903521 -0.015942 -1.038482 0.010007 0.051857
    43 -0.586770 -1.264477 0.200161 -0.200114 -0.096951 -2.129323
    44 1.530648 0.054775 0.009035 0.154202 -0.079650 0.158043
    45 1.106228 0.052330 -0.001860 0.312990 -0.289446 0.975210
    46 -0.139399 -0.111698 0.014397 0.285382 -0.030687 1.580508
    47 -8.206178 -0.047813 -0.477722 1.564109 -0.037309 -0.071805
  time 4
    0 0.547681 -10.583690 -3.111587 -1.593738 0.087226 1.557987
    1 -0.881688 0.301299 0.000000 0.000001 0.000000 -1.382160
    2 1.671935 4.611084 0.000000 0.000000 0.000000 1.232289
    3 -0.763543 -0.089952 0.631852 -0.002283 1.570796 0.000000
    4 1.384421 -0.042067 0.000000 0.000000 0.000000 1.345677
    5 0.660750 -0.739376 0.000000 0.000000 0.000000 0.002283
    6 -0.736122 -1.726717 -0.122348 1.570770 -1.561760 1.573105
    7 -0.736128 -1.724683 0.143968 -1.570809 1.561648 -1.568528
    8 12.401976 13.688553 -0.183159 -0.021947 -0.004687 3.117914
    9 -0.002752 -0.001265 -0.003287 0.000000 0.000000 0.000000
    10 6.407671 -0.393214 -7.948443 4.394930 -1.259774 1.304409
    11 6.948760 -3.413568 -0.419346 -1.563276 -0.031980 -3.507660
    12 -0.114891 -8.490924 -0.143198 0.412368 0.039844 -0.212619
    13 -0.488518 -2.755602 -0.228260 -0.242250 0.060691 -0.057732
    14 0.039887 -1.538386 0.018135 -1.634758 -0.010403 0.036650
    15 0.028786 -1.134327 -0.109049 -0.791864 -0.013746 0.015532
    16 0.250027 -2.820665 -0.238396 -0.313985 0.018280 -0.085804
    17 -0.049759 -1.602417 0.049696 -1.312009 0.004662 -0.036064
    18 -0.034142 -1.175657 0.045718 -1.263189 0.005489 -0.033341
    19 0.957766 -2.746780 -0.090302 0.167150 -0.150256 0.099289
    20 -0.033420 -1.393223 -0.019070 -0.517853 0.008329 -0.025205
    21 -0.022360 -0.957436 0.007065 -0.527929 0.007982 -0.025323
    22 -1.180681 -2.507217 -0.193859 -0.150629 0.142428 -0.022097
    23 -0.024967 -1.123934 0.017597 -0.759772 0.006951 -0.032333
    24 -0.020057 -0.906594 0.037435 -1.161982 0.002397 -0.047687
    25 0.603042 -1.197277 0.181473 0.666402 -0.922572 -1.051051
    26 1.504676 -0.177260 -0.006710 0.213418 0.065484 -0.624307
    27 1.049988 -0.147821 0.032291 0.039018 -0.188604 -0.767764
    28 0.120153 -0.050270 -0.054489 0.287569 3.110905 1.561085
    29 -4.059947 -0.516272 -8.677329 0.380275 -4.067338 0.636164
    30 -0.039779 -8.438699 0.045324 -0.097491 -0.881436 0.139821
    31 0.447953 -2.798986 -0.200443 -0.244439 -0.056549 0.060325
    32 -0.032909 -1.499736 0.024472 -1.286546 0.022998 -0.023524
    33 -0.027022 -1.096452 -0.028023 -0.524789 0.013722 -0.005621
    34 -0.249534 -2.846964 -0.174213 -0.316343 -0.019324 0.076958
    35 0.043235 -1.656596 0.076480 -1.215735 -0.019648 0.004291
    36 0.031729 -1.149111 0.058838 -0.758918 -0.007903 0.005292
    37 -0.963866 -2.785145 -0.085350 -0.133536 0.264013 -0.032832
    38 0.028479 -1.403067 -0.009354 -0.611716 -0.012368 -0.024940
    39 0.021413 -0.942156 0.012233 -1.051190 -0.028955 -0.035163
    40 1.164475 -2.543940 -0.170330 -0.166622 -0.161422 -0.083745
    41 0.024032 -1.136855 -0.001725 -0.790999 0.004494 0.042151
    42 0.014898 -0.903521 -0.015942 -1.038482 0.010007 0.051857
    43 -0.586770 -1.264477 0.200161 -0.200114 -0.096951 -2.129323
    44 1.530648 0.054775 0.009035 0.154202 -0.079650 0.158043
    45 1.106228 0.052330 -0.001860 0.312990 -0.289446 0.975210
    46 -0.139399 -0.111698 0.014397 0.285382 -0.030687 1.580508
    47 -8.210084 0.002970 -0.477722 1.564265 -0.037250 -0.078299
  time 5
    0 0.696123 -10.595409 -3.084242 -1.582324 0.098680 1.560499
    1 -0.881688 0.301299 0.000000 0.000001 0.000000 -1.382160
    2 1.671935 4.611084 0.000000 0.000000 0.000000 1.232289
    3 -0.763543 -0.089952 0.631852 -0.002283 1.570796 0.000000
    4 1.384421 -0.042067 0.000000 0.000000 0.000000 1.345677
    5 0.660750 -0.739376 0.000000 0.000000 0.000000 0.002283
    6 -0.736122 -1.726717 -0.122348 1.570770 -1.561760 1.573105
    7 -0.736128 -1.724683 0.143968 -1.570809 1.561648 -1.568528
    8 12.401976 13.688553 -0.183159 -0.021947 -0.004687 3.117914
    9 -0.002752 -0.001265 -0.003287 0.000000 0.000000 0.000000
    10 6.560019 -0.389308 -7.811720 4.356077 -1.277386 1.342226
    11 7.019075 -3.292471 -0.419346 -1.563660 -0.031789 -3.490323
    12 -0.114891 -8.498736 -0.143198 0.417490 0.048356 -0.176477
    13 -0.488518 -2.755602 -0.228260 -0.242250 0.060691 -0.057732
    14 0.039887 -1.538386 0.018135 -1.634758 -0.010403 0.036650
    15 0.028786 -1.134327 -0.109049 -0.791864 -0.013746 0.015532
    16 0.250027 -2.820665 -0.238396 -0.313985 0.018280 -0.085804
    17 -0.049759 -1.602417 0.049696 -1.312009 0.004662 -0.036064
    18 -0.034142 -1.175657 0.045718 -1.263189 0.005489 -0.033341
    19 0.957766 -2.746780 -0.090302 0.167150 -0.150256 0.099289
    20 -0.033420 -1.393223 -0.019070 -0.517853 0.008329 -0.025205
    21 -0.022360 -0.957436 0.007065 -0.527929 0.007982 -0.025323
    22 -1.180681 -2.507217 -0.193859 -0.150629 0.142428 -0.022097
    23 -0.024967 -1.123934 0.017597 -0.759772 0.006951 -0.032333
    24 -0.020057 -0.906594 0.037435 -1.161982 0.002397 -0.047687
    25 0.603042 -1.197277 0.181473 0.666402 -0.922572 -1.051051
    26 1.504676 -0.177260 -0.006710 0.213418 0.065484 -0.624307
    27 1.049988 -0.147821 0.032291 0.039018 -0.188604 -0.767764
    28 0.120153 -0.050270 -0.054489 0.287569 3.110905 1.561085
    29 -4.020883 -0.582680 -8.657797 0.381277 -4.067421 0.652154
    30 -0.035873 -8.446512 0.049231 -0.046337 -0.861818 0.112854
    31 0.447953 -2.798986 -0.200443 -0.244439 -0.056549 0.060325
    32 -0.032909 -1.499736 0.024472 -1.286546 0.022998 -0.023524
    33 -0.027022 -1.096452 -0.028023 -0.524789 0.013722 -0.005621
    34 -0.249534 -2.846964 -0.174213 -0.316343 -0.019324 0.076958
    35 0.043235 -1.656596 0.076480 -1.215735 -0.019648 0.004291
    36 0.031729 -1.149111 0.058838 -0.758918 -0.007903 0.005292
    37 -0.963866 -2.785145 -0.085350 -0.133536 0.264013 -0.032832
    38 0.028479 -1.403067 -0.009354 -0.611716 -0.012368 -0.024940
    39 0.021413 -0.942156 0.012233 -1.051190 -0.028955 -0.035163
    40 1.164475 -2.543940 -0.170330 -0.166622 -0.161422 -0.083745
    41 0.024032 -1.136855 -0.001725 -0.790999 0.004494 0.042151
    42 0.014898 -0.903521 -0.015942 -1.038482 0.010007 0.051857
    43 -0.586770 -1.264477 0.200161 -0.200114 -0.096951 -2.129323
    44 1.530648 0.054775 0.009035 0.154202 -0.079650 0.158043
    45 1.106228 0.052330 -0.001860 0.312990 -0.289446 0.975210
    46 -0.139399 -0.111698 0.014397 0.285382 -0.030687 1.580508
    47 -8.213991 0.049846 -0.477722 1.564409 -0.037202 -0.084026
  time 6
    0 0.813314 -10.595409 -3.056898 -1.555594 0.115908 1.565474
    1 -0.881688 0.301299 0.000000 0.000001 0.000000 -1.382160
    2 1.671935 4.611084 0.000000 0.000000 0.000000 1.232289
    3 -0.763543 -0.089952 0.631852 -0.002283 1.570796 0.000000
    4 1.384421 -0.042067 0.000000 0.000000 0.000000 1.345677
    5 0.660750 -0.739376 0.000000 0.000000 0.000000 0.002283
    6 -0.736122 -1.726717 0.115941 1.570770 -1.561760 1.573105
    7 -0.736128 -1.724683 -0.106040 -1.570809 1.561648 -1.568528
    8 12.401976 13.688553 -0.183159 -0.021947 -0.004687 3.117914
    9 -0.002752 -0.001265 -0.003287 0.000000 0.000000 0.000000
    10 6.661585 -0.404933 -7.698435 4.323540 -1.297322 1.369894
    11 7.112827 -3.124497 -0.419346 -1.564139 -0.031598 -3.466775
    12 -0.110985 -8.506549 -0.139291 0.429955 0.061802 -0.125967
    13 -0.488518 -2.755602 -0.228260 -0.242250 0.060691 -0.057732
    14 0.039887 -1.538386 0.018135 -1.634758 -0.010403 0.036650
    15 0.028786 -1.134327 -0.109049 -0.791864 -0.013746 0.015532
    16 0.250027 -2.820665 -0.238396 -0.313985 0.018280 -0.085804
    17 -0.049759 -1.602417 0.049696 -1.312009 0.004662 -0.036064
    18 -0.034142 -1.175657 0.045718 -1.263189 0.005489 -0.033341
    19 0.957766 -2.746780 -0.090302 0.167150 -0.150256 0.099289
    20 -0.033420 -1.393223 -0.019070 -0.517853 0.008329 -0.025205
    21 -0.022360 -0.957436 0.007065 -0.527929 0.007982 -0.025323
    22 -1.180681 -2.507217 -0.193859 -0.150629 0.142428 -0.022097
    23 -0.024967 -1.123934 0.017597 -0.759772 0.006951 -0.032333
    24 -0.020057 -0.906594 0.037435 -1.161982 0.002397 -0.047687
    25 0.603042 -1.197277 0.181473 0.666402 -0.922572 -1.051051
    26 1.504676 -0.177260 -0.006710 0.213418 0.065484 -0.624307
    27 1.049988 -0.147821 0.032291 0.039018 -0.188604 -0.767764
    28 0.120153 -0.050270 -0.054489 0.287569 3.110905 1.561085
    29 -4.024790 -0.641276 -8.599202 0.375911 -4.062485 0.658281
    30 -0.028060 -8.450418 0.049231 0.006612 -0.831394 0.082623
    31 0.447953 -2.798986 -0.200443 -0.244439 -0.056549 0.060325
    32 -0.032909 -1.499736 0.024472 -1.286546 0.022998 -0.023524
    33 -0.027022 -1.096452 -0.028023 -0.524789 0.013722 -0.005621
    34 -0.249534 -2.846964 -0.174213 -0.316343 -0.019324 0.076958
    35 0.043235 -1.656596 0.076480 -1.215735 -0.019648 0.004291
    36 0.031729 -1.149111 0.058838 -0.758918 -0.007903 0.005292
    37 -0.963866 -2.785145 -0.085350 -0.133536 0.264013 -0.032832
    38 0.028479 -1.403067 -0.009354 -0.611716 -0.012368 -0.024940
    39 0.021413 -0.942156 0.012233 -1.051190 -0.028955 -0.035163
    40 1.164475 -2.543940 -0.170330 -0.166622 -0.161422 -0.083745
    41 0.024032 -1.136855 -0.001725 -0.790999 0.004494 0.042151
    42 0.014898 -0.903521 -0.015942 -1.038482 0.010007 0.051857
    43 -0.586770 -1.264477 0.200161 -0.200114 -0.096951 -2.129323
    44 1.530648 0.054775 0.009035 0.154202 -0.079650 0.158043
    45 1.106228 0.052330 -0.001860 0.312990 -0.289446 0.975210
    46 -0.139399 -0.111698 0.014397 0.285382 -0.030687 1.580508
    47 -8.217897 0.112348 -0.477722 1.564589 -0.037130 -0.091219
  time 7
    0 0.950037 -10.591503 -3.021740 -1.522111 0.134083 1.573262
    1 -0.881688 0.301299 0.000000 0.000001 0.000000 -1.382160
    2 1.671935 4.611084 0.000000 0.000000 0.000000 1.232289
    3 -0.763543 -0.089952 0.631852 -0.002283 1.570796 0.000000
    4 1.384421 -0.042067 0.000000 0.000000 0.000000 1.345677
    5 0.660750 -0.739376 0.000000 0.000000 0.000000 0.002283
    6 -0.736122 -1.726717 0.119847 1.570770 -1.561760 1.573105
    7 -0.736128 -1.724683 -0.121665 -1.570809 1.561648 -1.568528
    8 12.401976 13.688553 -0.183159 -0.021348 -0.005431 3.117878
    9 -0.002752 -0.001265 -0.003287 0.000000 0.000000 0.000000
    10 6.759244 -0.416652 -7.581244 4.285357 -1.318082 1.402828
    11 7.206580 -2.944804 -0.419346 -1.564618 -0.031407 -3.442066
    12 -0.107078 -8.518268 -0.135385 0.445910 0.078781 -0.069558
    13 -0.488518 -2.755602 -0.228260 -0.242250 0.060691 -0.057732
    14 0.039887 -1.538386 0.018135 -1.634758 -0.010403 0.036650
    15 0.028786 -1.134327 -0.109049 -0.791864 -0.013746 0.015532
    16 0.250027 -2.820665 -0.238396 -0.313985 0.018280 -0.085804
    17 -0.049759 -1.602417 0.049696 -1.312009 0.004662 -0.036064
    18 -0.034142 -1.175657 0.045718 -1.263189 0.005489 -0.033341
    19 0.957766 -2.746780 -0.090302 0.167150 -0.150256 0.099289
    20 -0.033420 -1.393223 -0.019070 -0.517853 0.008329 -0.025205
    21 -0.022360 -0.957436 0.007065 -0.527929 0.007982 -0.025323
    22 -1.180681 -2.507217 -0.193859 -0.150629 0.142428 -0.022097
    23 -0.024967 -1.123934 0.017597 -0.759772 0.006951 -0.032333
    24 -0.020057 -0.906594 0.037435 -1.161982 0.002397 -0.047687
    25 0.603042 -1.197277 0.181473 0.666402 -0.922572 -1.051051
    26 1.504676 -0.177260 -0.006710 0.213418 0.065484 -0.624307
    27 1.049988 -0.147821 0.032291 0.039018 -0.188604 -0.767764
    28 0.120153 -0.050270 -0.054489 0.287569 3.110905 1.561085
    29 -4.036509 -0.703778 -8.528887 0.368363 -4.055709 0.663452
    30 -0.016341 -8.458231 0.049231 0.060414 -0.795712 0.054202
    31 0.447953 -2.798986 -0.200443 -0.244439 -0.056549 0.060325
    32 -0.032909 -1.499736 0.024472 -1.286546 0.022998 -0.023524
    33 -0.027022 -1.096452 -0.028023 -0.524789 0.013722 -0.005621
    34 -0.249534 -2.846964 -0.174213 -0.316343 -0.019324 0.076958
    35 0.043235 -1.656596 0.076480 -1.215735 -0.019648 0.004291
    36 0.031729 -1.149111 0.058838 -0.758918 -0.007903 0.005292
    37 -0.963866 -2.785145 -0.085350 -0.133536 0.264013 -0.032832
    38 0.028479 -1.403067 -0.009354 -0.611716 -0.012368 -0.024940
    39 0.021413 -0.942156 0.012233 -1.051190 -0.028955 -0.035163
    40 1.164475 -2.543940 -0.170330 -0.166622 -0.161422 -0.083745
    41 0.024032 -1.136855 -0.001725 -0.790999 0.004494 0.042151
    42 0.014898 -0.903521 -0.015942 -1.038482 0.010007 0.051857
    43 -0.586770 -1.264477 0.200161 -0.200114 -0.096951 -2.129323
    44 1.530648 0.054775 0.009035 0.154202 -0.079650 0.158043
    45 1.106228 0.052330 -0.001860 0.312990 -0.289446 0.975210
    46 -0.139399 -0.111698 0.014397 0.285382 -0.030687 1.580508
    47 -8.221803 0.170944 -0.477722 1.564781 -0.037058 -0.098691
  time 8
    0 1.203951 -10.607128 -2.994396 -1.505465 0.137680 1.583512
    1 -0.881688 0.301299 0.000000 0.000001 0.000000 -1.382160
    2 1.671935 4.611084 0.000000 0.000000 0.000000 1.232289
    3 -0.763543 -0.089952 0.631852 -0.002283 1.570796 0.000000
    4 1.384421 -0.042067 0.000000 0.000000 0.000000 1.345677
    5 0.660750 -0.739376 0.000000 0.000000 0.000000 0.002283
    6 -0.736122 -1.726717 0.119847 1.570770 -1.561760 1.573105
    7 -0.736128 -1.724683 -0.129478 -1.570809 1.561648 -1.568528
    8 12.401976 13.688553 -0.175347 -0.019658 -0.007552 3.117782
    9 -0.002752 -0.001265 -0.003287 0.000000 0.000000 0.000000
    10 6.931125 -0.377589 -7.421083 4.213967 -1.332172 1.479420
    11 7.233925 -2.886208 -0.415440 -1.564714 -0.031312 -3.434217
    12 -0.103172 -8.526081 -0.131479 0.453571 0.099019 -0.036742
    13 -0.488518 -2.755602 -0.228260 -0.242250 0.060691 -0.057732
    14 0.039887 -1.538386 0.018135 -1.634758 -0.010403 0.036650
    15 0.028786 -1.134327 -0.109049 -0.791864 -0.013746 0.015532
    16 0.250027 -2.820665 -0.238396 -0.313985 0.018280 -0.085804
    17 -0.049759 -1.602417 0.049696 -1.312009 0.004662 -0.036064
    18 -0.034142 -1.175657 0.045718 -1.263189 0.005489 -0.033341
    19 0.957766 -2.746780 -0.090302 0.167150 -0.150256 0.099289
    20 -0.033420 -1.393223 -0.019070 -0.517853 0.008329 -0.025205
    21 -0.022360 -0.957436 0.007065 -0.527929 0.007982 -0.025323
    22 -1.180681 -2.507217 -0.193859 -0.150629 0.142428 -0.022097
    23 -0.024967 -1.123934 0.017597 -0.759772 0.006951 -0.032333
    24 -0.020057 -0.906594 0.037435 -1.161982 0.002397 -0.047687
    25 0.603042 -1.197277 0.181473 0.666402 -0.922572 -1.051051
    26 1.504676 -0.177260 -0.006710 0.213418 0.065484 -0.624307
    27 1.049988 -0.147821 0.032291 0.039018 -0.188604 -0.767764
    28 0.120153 -0.050270 -0.054489 0.287569 3.110905 1.561085
    29 -3.985726 -0.797531 -8.470292 0.364647 -4.053116 0.687675
    30 -0.012434 -8.466044 0.049231 0.122292 -0.772903 0.036816
    31 0.447953 -2.798986 -0.200443 -0.244439 -0.056549 0.060325
    32 -0.032909 -1.499736 0.024472 -1.286546 0.022998 -0.023524
    33 -0.027022 -1.096452 -0.028023 -0.524789 0.013722 -0.005621
    34 -0.249534 -2.846964 -0.174213 -0.316343 -0.019324 0.076958
    35 0.043235 -1.656596 0.076480 -1.215735 -0.019648 0.004291
    36 0.031729 -1.149111 0.058838 -0.758918 -0.007903 0.005292
    37 -0.963866 -2.785145 -0.085350 -0.133536 0.264013 -0.032832
    38 0.028479 -1.403067 -0.009354 -0.611716 -0.012368 -0.024940
    39 0.021413 -0.942156 0.012233 -1.051190 -0.028967 -0.035163
    40 1.164475 -2.543940 -0.170330 -0.166622 -0.161422 -0.083745
    41 0.024032 -1.136855 -0.001725 -0.790999 0.004494 0.042151
    42 0.014898 -0.903521 -0.015942 -1.038482 0.010007 0.051857
    43 -0.586770 -1.264477 0.200161 -0.200114 -0.096951 -2.129323
    44 1.530648 0.054775 0.009035 0.154202 -0.079650 0.158043
    45 1.106228 0.052330 -0.001860 0.312990 -0.289446 0.975210
    46 -0.139399 -0.111698 0.014397 0.285382 -0.030687 1.580508
    47 -8.225710 0.225633 -0.477722 1.564936 -0.036998 -0.105046
  time 9
    0 1.645370 -10.622754 -2.927988 -1.522587 0.113731 1.596826
    1 -0.881688 0.301299 0.000000 0.000001 0.000000 -1.382160
    2 1.671935 4.611084 0.000000 0.000000 0.000000 1.232289
    3 -0.763543 -0.089952 0.631852 -0.002283 1.570796 0.000000
    4 1.384421 -0.042067 0.000000 0.000000 0.000000 1.345677
    5 0.660750 -0.739376 0.000000 0.000000 0.000000 0.002283
    6 -0.736122 -1.726717 0.123753 1.570770 -1.561760 1.573105
    7 -0.736128 -1.724683 -0.133384 -1.570809 1.561648 -1.568528
    8 12.401976 13.688553 -0.167534 -0.017057 -0.010788 3.117638
    9 -0.002752 -0.001265 -0.003287 0.000000 0.000000 0.000000
    10 7.259260 -0.217428 -7.143731 0.954150 -1.810255 -1.525065
    11 7.124547 -3.104965 -0.419346 -1.564139 -0.031598 -3.463976
    12 -0.099266 -8.522175 -0.127572 0.448766 0.123649 -0.051926
    13 -0.488518 -2.755602 -0.228260 -0.242250 0.060691 -0.057732
    14 0.039887 -1.538386 0.018135 -1.634758 -0.010403 0.036650
    15 0.028786 -1.134327 -0.109049 -0.791864 -0.013746 0.015532
    16 0.250027 -2.820665 -0.238396 -0.313985 0.018280 -0.085804
    17 -0.049759 -1.602417 0.049696 -1.312009 0.004662 -0.036064
    18 -0.034142 -1.175657 0.045718 -1.263189 0.005489 -0.033341
    19 0.957766 -2.746780 -0.090302 0.167150 -0.150256 0.099289
    20 -0.033420 -1.393223 -0.019070 -0.517853 0.008329 -0.025205
    21 -0.022360 -0.957436 0.007065 -0.527929 0.007982 -0.025323
    22 -1.180681 -2.507217 -0.193859 -0.150629 0.142428 -0.022097
    23 -0.024967 -1.123934 0.017597 -0.759772 0.006951 -0.032333
    24 -0.020057 -0.906594 0.037435 -1.161982 0.002397 -0.047687
    25 0.603042 -1.197277 0.181473 0.666402 -0.922572 -1.051051
    26 1.504676 -0.177260 -0.006710 0.213418 0.065484 -0.624307
    27 1.049988 -0.147821 0.032291 0.039018 -0.188604 -0.767764
    28 0.120153 -0.050270 -0.054489 0.287569 3.110905 1.561085
    29 -3.837284 -0.910815 -8.458573 0.378506 -4.056211 0.752687
    30 -0.016341 -8.477763 0.053137 0.191710 -0.778270 0.046219
    31 0.447953 -2.798986 -0.200443 -0.244439 -0.056549 0.060325
    32 -0.032909 -1.499736 0.024472 -1.286546 0.022998 -0.023524
    33 -0.027022 -1.096452 -0.028023 -0.524789 0.013722 -0.005621
    34 -0.249534 -2.846964 -0.174213 -0.316343 -0.019324 0.076958
    35 0.043235 -1.656596 0.076480 -1.215735 -0.019648 0.004291
    36 0.031729 -1.149111 0.058838 -0.758918 -0.007903 0.005292
    37 -0.963866 -2.785145 -0.085350 -0.133536 0.264013 -0.032832
    38 0.028479 -1.403067 -0.009354 -0.611716 -0.012368 -0.024940
    39 0.021413 -0.942156 0.012233 -1.051190 -0.028955 -0.035163
    40 1.164475 -2.543940 -0.170330 -0.166622 -0.161422 -0.083745
    41 0.024032 -1.136855 -0.001725 -0.790999 0.004494 0.042151
    42 0.014898 -0.903521 -0.015942 -1.038482 0.010007 0.051857
    43 -0.586770 -1.264477 0.200161 -0.200114 -0.096951 -2.129323
    44 1.530648 0.054775 0.009035 0.154202 -0.079650 0.158043
    45 1.106228 0.052330 -0.001860 0.312990 -0.289446 0.975210
    46 -0.139399 -0.111698 0.014397 0.285382 -0.030687 1.580508
    47 -8.221803 0.182663 -0.477722 1.564817 -0.037046 -0.100018
  time 10
    0 2.176637 -10.638379 -2.838141 -1.556831 0.076246 1.612804
    1 -0.881688 0.301299 0.000000 0.000001 0.000000 -1.382160
    2 1.671935 4.611084 0.000000 0.000000 0.000000 1.232289
    3 -0.763543 -0.089952 0.631852 -0.002283 1.570796 0.000000
    4 1.384421 -0.042067 0.000000 0.000000 0.000000 1.345677
    5 0.660750 -0.739376 0.000000 0.000000 0.000000 0.002283
    6 -0.736122 -1.726717 0.123753 1.570770 -1.561760 1.573105
    7 -0.736128 -1.724683 -0.137291 -1.570809 1.561648 -1.568528
    8 12.401976 13.688553 -0.151908 -0.013749 -0.014934 3.117446
    9 -0.002752 -0.001265 -0.003287 0.000000 0.000000 0.000000
    10 7.638177 0.001329 -6.796064 0.817304 -1.823821 -1.360776
    11 6.937041 -3.433100 -0.419346 -1.563276 -0.031980 -3.510595
    12 -0.095359 -8.514362 -0.123666 0.433536 0.151901 -0.091582
    13 -0.488518 -2.755602 -0.228260 -0.242250 0.060691 -0.057732
    14 0.039887 -1.538386 0.018135 -1.634758 -0.010403 0.036650
    15 0.028786 -1.134327 -0.109049 -0.791864 -0.013746 0.015532
    16 0.250027 -2.820665 -0.238396 -0.313985 0.018280 -0.085804
    17 -0.049759 -1.602417 0.049696 -1.312009 0.004662 -0.036064
    18 -0.034142 -1.175657 0.045718 -1.263189 0.005489 -0.033341
    19 0.957766 -2.746780 -0.090302 0.167150 -0.150256 0.099289
    20 -0.033420 -1.393223 -0.019070 -0.517853 0.008329 -0.025205
    21 -0.022360 -0.957436 0.007065 -0.527929 0.007982 -0.025323
    22 -1.180681 -2.507217 -0.193859 -0.150629 0.142428 -0.022097
    23 -0.024967 -1.123934 0.017597 -0.759772 0.006951 -0.032333
    24 -0.020057 -0.906594 0.037435 -1.161982 0.002397 -0.047687
    25 0.603042 -1.197277 0.181473 0.666402 -0.922572 -1.051051
    26 1.504676 -0.177260 -0.006710 0.213418 0.065484 -0.624307
    27 1.049988 -0.147821 0.032291 0.039018 -0.188604 -0.767764
    28 0.120153 -0.050270 -0.054489 0.287569 3.110905 1.561085
    29 -3.606808 -1.063164 -8.485917 0.409937 -4.061649 0.842209
    30 -0.024153 -8.485576 0.053137 0.255114 -0.798649 0.073646
    31 0.447953 -2.798986 -0.200443 -0.244439 -0.056549 0.060325
    32 -0.032909 -1.499736 0.024472 -1.286546 0.022998 -0.023524
    33 -0.027022 -1.096452 -0.028023 -0.524789 0.013722 -0.005621
    34 -0.249534 -2.846964 -0.174213 -0.316343 -0.019324 0.076958
    35 0.043235 -1.656596 0.076480 -1.215735 -0.019648 0.004291
    36 0.031729 -1.149111 0.058838 -0.758918 -0.007903 0.005292
    37 -0.963866 -2.785145 -0.085350 -0.133536 0.264013 -0.032832
    38 0.028479 -1.403067 -0.009354 -0.611716 -0.012368 -0.024940
    39 0.021413 -0.942156 0.012233 -1.051190 -0.028955 -0.035163
    40 1.164475 -2.543940 -0.170330 -0.166622 -0.161422 -0.083745
    41 0.024032 -1.136855 -0.001725 -0.790999 0.004494 0.042151
    42 0.014898 -0.903521 -0.015942 -1.038482 0.010007 0.051857
    43 -0.586770 -1.264477 0.200161 -0.200114 -0.096951 -2.129323
    44 1.530648 0.054775 0.009035 0.154202 -0.079650 0.158043
    45 1.106228 0.052330 -0.001860 0.312990 -0.289446 0.975210
    46 -0.139399 -0.111698 0.014397 0.285382 -0.030687 1.580508
    47 -8.217897 0.131880 -0.477722 1.564661 -0.037106 -0.093873
  time 11
    0 2.680558 -10.751664 -2.795171 1.560230 3.091355 -1.514287
    1 -0.881688 0.301299 0.000000 0.000001 0.000000 -1.382160
    2 1.671935 4.611084 0.000000 0.000000 0.000000 1.232289
    3 -0.763543 -0.089952 0.631852 -0.002283 1.570796 0.000000
    4 1.384421 -0.042067 0.000000 0.000000 0.000000 1.345677
    5 0.660750 -0.739376 0.000000 0.000000 0.000000 0.002283
    6 -0.736122 -1.726717 0.123753 1.570770 -1.561760 1.573105
    7 -0.736128 -1.724683 -0.137291 -1.570809 1.561648 -1.568528
    8 12.401976 13.688553 -0.140189 -0.009890 -0.019752 3.117231
    9 -0.002752 -0.001265 -0.003287 0.000000 0.000000 0.000000
    10 7.895998 0.126333 -6.526525 0.688591 -1.840009 -1.195148
    11 6.855007 -3.569823 -0.423252 -1.562893 -0.032171 -3.529843
    12 -0.091453 -8.506549 -0.119759 0.406294 0.181873 -0.113418
    13 -0.488518 -2.755602 -0.228260 -0.242250 0.060691 -0.057732
    14 0.039887 -1.538386 0.018135 -1.634758 -0.010403 0.036650
    15 0.028786 -1.134327 -0.109049 -0.791864 -0.013746 0.015532
    16 0.250027 -2.820665 -0.238396 -0.313985 0.018280 -0.085804
    17 -0.049759 -1.602417 0.049696 -1.312009 0.004662 -0.036064
    18 -0.034142 -1.175657 0.045718 -1.263189 0.005489 -0.033341
    19 0.957766 -2.746780 -0.090302 0.167150 -0.150256 0.099289
    20 -0.033420 -1.393223 -0.019070 -0.517853 0.008329 -0.025205
    21 -0.022360 -0.957436 0.007065 -0.527929 0.007982 -0.025323
    22 -1.180681 -2.507217 -0.193859 -0.150629 0.142428 -0.022097
    23 -0.024967 -1.123934 0.017597 -0.759772 0.006951 -0.032333
    24 -0.020057 -0.906594 0.037435 -1.161982 0.002397 -0.047687
    25 0.603042 -1.197277 0.181473 0.666402 -0.922572 -1.051051
    26 1.504676 -0.177260 -0.006710 0.213418 0.065484 -0.624307
    27 1.049988 -0.147821 0.032291 0.039018 -0.188604 -0.767764
    28 0.120153 -0.050270 -0.054489 0.287569 3.110905 1.561085
    29 -3.309924 -1.301452 -8.540606 0.440897 -4.071688 0.915358
    30 -0.024153 -8.489482 0.053137 0.298864 -0.805720 0.093126
    31 0.447953 -2.798986 -0.200443 -0.244439 -0.056549 0.060325
    32 -0.032909 -1.499736 0.024472 -1.286546 0.022998 -0.023524
    33 -0.027022 -1.096452 -0.028023 -0.524789 0.013722 -0.005621
    34 -0.249534 -2.846964 -0.174213 -0.316343 -0.019324 0.076958
    35 0.043235 -1.656596 0.076480 -1.215735 -0.019648 0.004291
    36 0.031729 -1.149111 0.058838 -0.758918 -0.007903 0.005292
    37 -0.963866 -2.785145 -0.085350 -0.133536 0.264013 -0.032832
    38 0.028479 -1.403067 -0.009354 -0.611716 -0.012368 -0.024940
    39 0.021413 -0.942156 0.012233 -1.051190 -0.028955 -0.035163
    40 1.164475 -2.543940 -0.170330 -0.166622 -0.161422 -0.083745
    41 0.024032 -1.136855 -0.001725 -0.790999 0.004494 0.042151
    42 0.014898 -0.903521 -0.015942 -1.038482 0.010007 0.051857
    43 -0.586770 -1.264477 0.200161 -0.200114 -0.096951 -2.129323
    44 1.530648 0.054775 0.009035 0.154202 -0.079650 0.158043
    45 1.106228 0.052330 -0.001860 0.312990 -0.289446 0.975210
    46 -0.139399 -0.111698 0.014397 0.285382 -0.030687 1.580508
    47 -8.229616 0.323292 -0.473815 1.565236 -0.036878 -0.117128
  time 12
    0 3.196199 -10.993859 -2.822516 1.552145 3.101483 -1.499666
    1 -0.881688 0.301299 0.000000 0.000001 0.000000 -1.382160
    2 1.671935 4.611084 0.000000 0.000000 0.000000 1.232289
    3 -0.763543 -0.089952 0.631852 -0.002283 1.570796 0.000000
    4 1.384421 -0.042067 0.000000 0.000000 0.000000 1.345677
    5 0.660750 -0.739376 0.000000 0.000000 0.000000 0.002283
    6 -0.736122 -1.726717 0.123753 1.570770 -1.561760 1.573105
    7 -0.736128 -1.724683 -0.137291 -1.570809 1.561648 -1.568528
    8 12.401976 13.688553 -0.124564 -0.005660 -0.025025 3.116979
    9 -0.002752 -0.001265 -0.003287 0.000000 0.000000 0.000000
    10 8.032721 0.126333 -6.389802 0.578444 -1.856797 -1.036029
    11 6.921415 -3.464351 -0.419346 -1.563180 -0.031980 -3.514690
    12 -0.083640 -8.502643 -0.111947 0.370304 0.213656 -0.111096
    13 -0.488518 -2.755602 -0.228260 -0.242250 0.060691 -0.057732
    14 0.039887 -1.538386 0.018135 -1.634758 -0.010403 0.036650
    15 0.028786 -1.134327 -0.109049 -0.791864 -0.013746 0.015532
    16 0.250027 -2.820665 -0.238396 -0.313985 0.018280 -0.085804
    17 -0.049759 -1.602417 0.049696 -1.312009 0.004662 -0.036064
    18 -0.034142 -1.175657 0.045718 -1.263189 0.005489 -0.033341
    19 0.957766 -2.746780 -0.090302 0.167150 -0.150256 0.099289
    20 -0.033420 -1.393223 -0.019070 -0.517853 0.008329 -0.025205
    21 -0.022360 -0.957436 0.007065 -0.527929 0.007982 -0.025323
    22 -1.180681 -2.507217 -0.193859 -0.150629 0.142428 -0.022097
    23 -0.024967 -1.123934 0.017597 -0.759772 0.006951 -0.032333
    24 -0.020057 -0.906594 0.037435 -1.161982 0.002397 -0.047687
    25 0.603042 -1.197277 0.181473 0.666402 -0.922572 -1.051051
    26 1.504676 -0.177260 -0.006710 0.213418 0.065484 -0.624307
    27 1.049988 -0.147821 0.032291 0.039018 -0.188604 -0.767764
    28 0.120153 -0.050270 -0.054489 0.287569 3.110905 1.561085
    29 -2.923194 -1.633494 -8.630453 0.469969 -4.090343 0.966487
    30 -0.020247 -8.489482 0.053137 0.309723 -0.790418 0.105474
    31 0.447953 -2.798986 -0.200443 -0.244439 -0.056549 0.060325
    32 -0.032909 -1.499736 0.024472 -1.286546 0.022998 -0.023524
    33 -0.027022 -1.096452 -0.028023 -0.524789 0.013722 -0.005621
    34 -0.249534 -2.846964 -0.174213 -0.316343 -0.019324 0.076958
    35 0.043235 -1.656596 0.076480 -1.215735 -0.019648 0.004291
    36 0.031729 -1.149111 0.058838 -0.758918 -0.007903 0.005292
    37 -0.963866 -2.785145 -0.085350 -0.133536 0.264013 -0.032832
    38 0.028479 -1.403067 -0.009354 -0.611716 -0.012368 -0.024940
    39 0.021413 -0.942156 0.012233 -1.051190 -0.028955 -0.035163
    40 1.164475 -2.543940 -0.170330 -0.166622 -0.161422 -0.083745
    41 0.024032 -1.136855 -0.001725 -0.790999 0.004494 0.042151
    42 0.014898 -0.903521 -0.015942 -1.038482 0.010007 0.051857
    43 -0.586770 -1.264477 0.200161 -0.200114 -0.096951 -2.129323
    44 1.530648 0.054775 0.009035 0.154202 -0.079650 0.158043
    45 1.106228 0.052330 -0.001860 0.312990 -0.289446 0.975210
    46 -0.139399 -0.111698 0.014397 0.285382 -0.030687 1.580508
    47 -8.241335 0.811588 -0.473815 1.566686 -0.036231 -0.176628
  time 13
    0 3.782154 -11.275117 -2.845954 1.548625 3.107731 -1.481276
    1 -0.881688 0.301299 0.000000 0.000001 0.000000 -1.382160
    2 1.671935 4.611084 0.000000 0.000000 0.000000 1.232289
    3 -0.763543 -0.089952 0.631852 -0.002283 1.570796 0.000000
    4 1.384421 -0.042067 0.000000 0.000000 0.000000 1.345677
    5 0.660750 -0.739376 0.000000 0.000000 0.000000 0.002283
    6 -0.736122 -1.726717 0.123753 1.570770 -1.561760 1.573105
    7 -0.736128 -1.724683 -0.137291 -1.570809 1.561648 -1.568528
    8 12.401976 13.688553 -0.105032 -0.001261 -0.030526 3.116727
    9 -0.002752 -0.001265 -0.003287 0.000000 0.000000 0.000000
    10 8.126474 0.083363 -6.296049 0.490403 -1.878457 -0.890027
    11 7.022981 -3.288564 -0.419346 -1.563660 -0.031789 -3.489777
    12 -0.075827 -8.498736 -0.108040 0.329690 0.247251 -0.106202
    13 -0.488518 -2.755602 -0.228260 -0.242250 0.060691 -0.057732
    14 0.039887 -1.538386 0.018135 -1.634758 -0.010403 0.036650
    15 0.028786 -1.134327 -0.109049 -0.791864 -0.013746 0.015532
    16 0.250027 -2.820665 -0.238396 -0.313985 0.018280 -0.085804
    17 -0.049759 -1.602417 0.049696 -1.312009 0.004662 -0.036064
    18 -0.034142 -1.175657 0.045718 -1.263189 0.005489 -0.033341
    19 0.957766 -2.746780 -0.090302 0.167150 -0.150256 0.099289
    20 -0.033420 -1.393223 -0.019070 -0.517853 0.008329 -0.025205
    21 -0.022360 -0.957436 0.007065 -0.527929 0.007982 -0.025323
    22 -1.180681 -2.507217 -0.193859 -0.150629 0.142428 -0.022097
    23 -0.024967 -1.123934 0.017597 -0.759772 0.006951 -0.032333
    24 -0.020057 -0.906594 0.037435 -1.161982 0.002397 -0.047687
    25 0.603042 -1.197277 0.181473 0.666402 -0.922572 -1.051051
    26 1.504676 -0.177260 -0.006710 0.213418 0.065484 -0.624307
    27 1.049988 -0.147821 0.032291 0.039018 -0.188604 -0.767764
    28 0.120153 -0.050270 -0.054489 0.287569 3.110905 1.561085
    29 -2.427085 -1.996786 -8.763269 0.518561 -4.116778 1.024987
    30 -0.016341 -8.485576 0.053137 0.283563 -0.763221 0.131695
    31 0.447953 -2.798986 -0.200443 -0.244439 -0.056549 0.060325
    32 -0.032909 -1.499736 0.024472 -1.286546 0.022998 -0.023524
    33 -0.027022 -1.096452 -0.028023 -0.524789 0.013722 -0.005621
    34 -0.249534 -2.846964 -0.174213 -0.316343 -0.019324 0.076958
    35 0.043235 -1.656596 0.076480 -1.215735 -0.019648 0.004291
    36 0.031729 -1.149111 0.058838 -0.758918 -0.007903 0.005292
    37 -0.963866 -2.785145 -0.085350 -0.133536 0.264013 -0.032832
    38 0.028479 -1.403067 -0.009354 -0.611716 -0.012368 -0.024940
    39 0.021413 -0.942156 0.012233 -1.051190 -0.028955 -0.035163
    40 1.164475 -2.543940 -0.170330 -0.166622 -0.161422 -0.083745
    41 0.024032 -1.136855 -0.001725 -0.790999 0.004494 0.042151
    42 0.014898 -0.903521 -0.015942 -1.038482 0.010007 0.051857
    43 -0.586770 -1.264477 0.200161 -0.200114 -0.096951 -2.129323
    44 1.530648 0.054775 0.009035 0.154202 -0.079650 0.158043
    45 1.106228 0.052330 -0.001860 0.312990 -0.289446 0.975210
    46 -0.139399 -0.111698 0.014397 0.285382 -0.030687 1.580508
    47 -8.213991 1.409263 -0.466002 1.568400 -0.035320 -0.248908
  time 14
    0 4.411080 -11.560282 -2.865486 1.549957 3.111328 -1.462384
    1 -0.881688 0.301299 0.000000 0.000001 0.000000 -1.382160
    2 1.671935 4.611084 0.000000 0.000000 0.000000 1.232289
    3 -0.763543 -0.089952 0.631852 -0.002283 1.570796 0.000000
    4 1.384421 -0.042067 0.000000 0.000000 0.000000 1.345677
    5 0.660750 -0.739376 0.000000 0.000000 0.000000 0.002283
    6 -0.736122 -1.726717 0.123753 1.570770 -1.561760 1.573105
    7 -0.736128 -1.724683 -0.137291 -1.570809 1.561648 -1.568528
    8 12.401976 13.688553 -0.089406 0.003137 -0.036039 3.116476
    9 -0.002752 -0.001265 -0.003287 0.000000 0.000000 0.000000
    10 8.208507 0.016955 -6.229640 0.420640 -1.901016 -0.758099
    11 7.144078 -3.061995 -0.419346 -1.564235 -0.031503 -3.458038
    12 -0.071921 -8.498736 -0.104134 0.286356 0.281841 -0.098233
    13 -0.488518 -2.755602 -0.228260 -0.242250 0.060691 -0.057732
    14 0.039887 -1.538386 0.018135 -1.634758 -0.010403 0.036650
    15 0.028786 -1.134327 -0.109049 -0.791864 -0.013746 0.015532
    16 0.250027 -2.820665 -0.238396 -0.313985 0.018280 -0.085804
    17 -0.049759 -1.602417 0.049696 -1.312009 0.004662 -0.036064
    18 -0.034142 -1.175657 0.045718 -1.263189 0.005489 -0.033341
    19 0.957766 -2.746780 -0.090302 0.167150 -0.150256 0.099289
    20 -0.033420 -1.393223 -0.019070 -0.517853 0.008329 -0.025205
    21 -0.022360 -0.957436 0.007065 -0.527929 0.007982 -0.025323
    22 -1.180681 -2.507217 -0.193859 -0.150629 0.142428 -0.022097
    23 -0.024967 -1.123934 0.017597 -0.759772 0.006951 -0.032333
    24 -0.020057 -0.906594 0.037435 -1.161982 0.002397 -0.047687
    25 0.603042 -1.197277 0.181473 0.666402 -0.922572 -1.051051
    26 1.504676 -0.177260 -0.006710 0.213418 0.065484 -0.624307
    27 1.049988 -0.147821 0.032291 0.039018 -0.188604 -0.767764
    28 0.120153 -0.050270 -0.054489 0.287569 3.110905 1.561085
    29 -1.852848 -2.356172 -8.931243 0.590683 -4.149822 1.098041
    30 -0.008528 -8.473857 0.049231 0.231646 -0.722173 0.168987
    31 0.447953 -2.798986 -0.200443 -0.244439 -0.056549 0.060325
    32 -0.032909 -1.499736 0.024472 -1.286546 0.022998 -0.023524
    33 -0.027022 -1.096452 -0.028023 -0.524789 0.013722 -0.005621
    34 -0.249534 -2.846964 -0.174213 -0.316343 -0.019324 0.076958
    35 0.043235 -1.656596 0.076480 -1.215735 -0.019648 0.004291
    36 0.031729 -1.149111 0.058838 -0.758918 -0.007903 0.005292
    37 -0.963866 -2.785145 -0.085350 -0.133536 0.264013 -0.032832
    38 0.028479 -1.403067 -0.009354 -0.611716 -0.012368 -0.024940
    39 0.021413 -0.942156 0.012233 -1.051190 -0.028955 -0.035163
    40 1.164475 -2.543940 -0.170330 -0.166622 -0.161422 -0.083745
    41 0.024032 -1.136855 -0.001725 -0.790999 0.004494 0.042151
    42 0.014898 -0.903521 -0.015942 -1.038482 0.010007 0.051857
    43 -0.586770 -1.264477 0.200161 -0.200114 -0.096951 -2.129323
    44 1.530648 0.054775 0.009035 0.154202 -0.079650 0.158043
    45 1.106228 0.052330 -0.001860 0.312990 -0.289446 0.975210
    46 -0.139399 -0.111698 0.014397 0.285382 -0.030687 1.580508
    47 -8.139770 2.010844 -0.462096 1.570078 -0.034277 -0.322864
  time 15
    0 5.043912 -11.810290 -2.881111 1.555855 3.113695 -1.446557
    1 -0.881688 0.301299 0.000000 0.000001 0.000000 -1.382160
    2 1.671935 4.611084 0.000000 0.000000 0.000000 1.232289
    3 -0.763543 -0.089952 0.631852 -0.002283 1.570796 0.000000
    4 1.384421 -0.042067 0.000000 0.000000 0.000000 1.345677
    5 0.660750 -0.739376 0.000000 0.000000 0.000000 0.002283
    6 -0.736122 -1.726717 0.123753 1.570770 -1.561760 1.573105
    7 -0.736128 -1.724683 -0.137291 -1.570809 1.561648 -1.568528
    8 12.401976 13.688553 -0.073781 0.007356 -0.041312 3.116236
    9 -0.002752 -0.001265 -0.003287 0.000000 0.000000 0.000000
    10 8.286635 -0.053360 -6.159326 0.360925 -1.921701 -0.636989
    11 7.276895 -2.800268 -0.415440 -1.565002 -0.031216 -3.422340
    12 -0.064108 -8.494830 -0.100228 0.242343 0.316839 -0.086374
    13 -0.488518 -2.755602 -0.228260 -0.242250 0.060691 -0.057732
    14 0.039887 -1.538386 0.018135 -1.634758 -0.010403 0.036650
    15 0.028786 -1.134327 -0.109049 -0.791864 -0.013746 0.015532
    16 0.250027 -2.820665 -0.238396 -0.313985 0.018280 -0.085804
    17 -0.049759 -1.602417 0.049696 -1.312009 0.004662 -0.036064
    18 -0.034142 -1.175657 0.045718 -1.263189 0.005489 -0.033341
    19 0.957766 -2.746780 -0.090302 0.167150 -0.150256 0.099289
    20 -0.033420 -1.393223 -0.019070 -0.517853 0.008329 -0.025205
    21 -0.022360 -0.957436 0.007065 -0.527929 0.007982 -0.025323
    22 -1.180681 -2.507217 -0.193859 -0.150629 0.142428 -0.022097
    23 -0.024967 -1.123934 0.017597 -0.759772 0.006951 -0.032333
    24 -0.020057 -0.906594 0.037435 -1.161982 0.002397 -0.047687
    25 0.603042 -1.197277 0.181473 0.666402 -0.922572 -1.051051
    26 1.504676 -0.177260 -0.006710 0.213418 0.065484 -0.624307
    27 1.049988 -0.147821 0.032291 0.039018 -0.188604 -0.767764
    28 0.120153 -0.050270 -0.054489 0.287569 3.110905 1.561085
    29 -1.247361 -2.676494 -9.110936 0.686098 -4.184957 1.189765
    30 0.003191 -8.458231 0.045324 0.169902 -0.668795 0.211460
    31 0.447953 -2.798986 -0.200443 -0.244439 -0.056549 0.060325
    32 -0.032909 -1.499736 0.024472 -1.286546 0.022998 -0.023524
    33 -0.027022 -1.096452 -0.028023 -0.524789 0.013722 -0.005621
    34 -0.249534 -2.846964 -0.174213 -0.316343 -0.019324 0.076958
    35 0.043235 -1.656596 0.076480 -1.215735 -0.019648 0.004291
    36 0.031729 -1.149111 0.058838 -0.758918 -0.007903 0.005292
    37 -0.963866 -2.785145 -0.085350 -0.133536 0.264013 -0.032832
    38 0.028479 -1.403067 -0.009354 -0.611716 -0.012368 -0.024940
    39 0.021413 -0.942156 0.012233 -1.051190 -0.028955 -0.035163
    40 1.164475 -2.543940 -0.170330 -0.166622 -0.161422 -0.083745
    41 0.024032 -1.136855 -0.001725 -0.790999 0.004494 0.042151
    42 0.014898 -0.903521 -0.015942 -1.038482 0.010007 0.051857
    43 -0.586770 -1.264477 0.200161 -0.200114 -0.096951 -2.129323
    44 1.530648 0.054775 0.009035 0.154202 -0.079650 0.158043
    45 1.106228 0.052330 -0.001860 0.312990 -0.289446 0.975210
    46 -0.139399 -0.111698 0.014397 0.285382 -0.030687 1.580508
    47 -8.038204 2.538204 -0.454283 1.571480 -0.033247 -0.388090
  time 16
    0 5.637680 -12.001702 -2.900643 1.565462 3.115872 -1.437312
    1 -0.881688 0.301299 0.000000 0.000001 0.000000 -1.382160
    2 1.671935 4.611084 0.000000 0.000000 0.000000 1.232289
    3 -0.763543 -0.089952 0.631852 -0.002283 1.570796 0.000000
    4 1.384421 -0.042067 0.000000 0.000000 0.000000 1.345677
    5 0.660750 -0.739376 0.000000 0.000000 0.000000 0.002283
    6 -0.736122 -1.726717 0.123753 1.570770 -1.561760 1.573105
    7 -0.736128 -1.724683 -0.137291 -1.570809 1.561648 -1.568528
    8 12.398069 13.688553 -0.058156 0.011215 -0.046130 3.116020
    9 -0.002752 -0.001265 -0.003287 0.000000 0.000000 0.000000
    10 8.376481 -0.108049 -6.065573 0.301019 -1.938789 -0.522581
    11 7.401899 -2.530729 -0.415440 -1.565673 -0.030835 -3.385687
    12 -0.056296 -8.490924 -0.096321 0.199825 0.351610 -0.069558
    13 -0.488518 -2.755602 -0.228260 -0.242250 0.060691 -0.057732
    14 0.039887 -1.538386 0.018135 -1.634758 -0.010403 0.036650
    15 0.028786 -1.134327 -0.109049 -0.791864 -0.013746 0.015532
    16 0.250027 -2.820665 -0.238396 -0.313985 0.018280 -0.085804
    17 -0.049759 -1.602417 0.049696 -1.312009 0.004662 -0.036064
    18 -0.034142 -1.175657 0.045718 -1.263189 0.005489 -0.033341
    19 0.957766 -2.746780 -0.090302 0.167150 -0.150256 0.099289
    20 -0.033420 -1.393223 -0.019070 -0.517853 0.008329 -0.025205
    21 -0.022360 -0.957436 0.007065 -0.527929 0.007982 -0.025323
    22 -1.180681 -2.507217 -0.193859 -0.150629 0.142428 -0.022097
    23 -0.024967 -1.123934 0.017597 -0.759772 0.006951 -0.032333
    24 -0.020057 -0.906594 0.037435 -1.161982 0.002397 -0.047687
    25 0.603042 -1.197277 0.181473 0.666402 -0.922572 -1.051051
    26 1.504676 -0.177260 -0.006710 0.213418 0.065484 -0.624307
    27 1.049988 -0.147821 0.032291 0.039018 -0.188604 -0.767764
    28 0.120153 -0.050270 -0.054489 0.287569 3.110905 1.561085
    29 -0.661406 -2.930408 -9.306255 0.804688 -4.216412 1.302937
    30 0.014910 -8.446512 0.037511 0.111030 -0.606606 0.255884
    31 0.447953 -2.798986 -0.200443 -0.244439 -0.056549 0.060325
    32 -0.032909 -1.499736 0.024472 -1.286546 0.022998 -0.023524
    33 -0.027022 -1.096452 -0.028023 -0.524789 0.013722 -0.005621
    34 -0.249534 -2.846964 -0.174213 -0.316343 -0.019324 0.076958
    35 0.043235 -1.656596 0.076480 -1.215735 -0.019648 0.004291
    36 0.031729 -1.149111 0.058838 -0.758918 -0.007903 0.005292
    37 -0.963866 -2.785145 -0.085350 -0.133536 0.264013 -0.032832
    38 0.028479 -1.403067 -0.009354 -0.611716 -0.012368 -0.024940
    39 0.021413 -0.942156 0.012233 -1.051190 -0.028955 -0.035163
    40 1.164475 -2.543940 -0.170330 -0.166622 -0.161422 -0.083745
    41 0.024032 -1.136855 -0.001725 -0.790999 0.004494 0.042151
    42 0.014898 -0.903521 -0.015942 -1.038482 0.010007 0.051857
    43 -0.586770 -1.264477 0.200161 -0.200114 -0.096951 -2.129323
    44 1.530648 0.054775 0.009035 0.154202 -0.079650 0.158043
    45 1.106228 0.052330 -0.001860 0.312990 -0.289446 0.975210
    46 -0.139399 -0.111698 0.014397 0.285382 -0.030687 1.580508
    47 -7.948358 2.901496 -0.450377 1.572427 -0.032480 -0.433623
  time 17
    0 6.125976 -12.114987 -2.931894 -1.564441 0.022195 1.703245
    1 -0.881688 0.301299 0.000000 0.000001 0.000000 -1.382160
    2 1.671935 4.611084 0.000000 0.000000 0.000000 1.232289
    3 -0.763543 -0.089952 0.631852 -0.002283 1.570796 0.000000
    4 1.384421 -0.042067 0.000000 0.000000 0.000000 1.345677
    5 0.660750 -0.739376 0.000000 0.000000 0.000000 0.002283
    6 -0.736122 -1.726717 0.123753 1.570770 -1.561760 1.573105
    7 -0.736128 -1.724683 -0.137291 -1.570809 1.561648 -1.568528
    8 12.398069 13.688553 -0.046436 0.014534 -0.050277 3.115829
    9 -0.002752 -0.001265 -0.003287 0.000000 0.000000 0.000000
    10 8.478047 -0.123675 -5.924944 0.230873 -1.952204 -0.410183
    11 7.507371 -2.269002 -0.411533 -1.566344 -0.030453 -3.351013
    12 -0.048483 -8.487017 -0.092415 0.160934 0.385522 -0.046719
    13 -0.488518 -2.755602 -0.228260 -0.242250 0.060691 -0.057732
    14 0.039887 -1.538386 0.018135 -1.634758 -0.010403 0.036650
    15 0.028786 -1.134327 -0.109049 -0.791864 -0.013746 0.015532
    16 0.250027 -2.820665 -0.238396 -0.313985 0.018280 -0.085804
    17 -0.049759 -1.602417 0.049696 -1.312009 0.004662 -0.036064
    18 -0.034142 -1.175657 0.045718 -1.263189 0.005489 -0.033341
    19 0.957766 -2.746780 -0.090302 0.167150 -0.150256 0.099289
    20 -0.033420 -1.393223 -0.019070 -0.517853 0.008329 -0.025205
    21 -0.022360 -0.957436 0.007065 -0.527929 0.007982 -0.025323
    22 -1.180681 -2.507217 -0.193859 -0.150629 0.142428 -0.022097
    23 -0.024967 -1.123934 0.017597 -0.759772 0.006951 -0.032333
    24 -0.020057 -0.906594 0.037435 -1.161982 0.002397 -0.047687
    25 0.603042 -1.197277 0.181473 0.666402 -0.922572 -1.051051
    26 1.504676 -0.177260 -0.006710 0.213418 0.065484 -0.624307
    27 1.049988 -0.147821 0.032291 0.039018 -0.188604 -0.767764
    28 0.120153 -0.050270 -0.054489 0.287569 3.110905 1.561085
    29 -0.141859 -3.094476 -9.528918 0.942680 -4.237493 1.434970
    30 0.026629 -8.434793 0.025792 0.064363 -0.540754 0.301869
    31 0.447953 -2.798986 -0.200443 -0.244439 -0.056549 0.060325
    32 -0.032909 -1.499736 0.024472 -1.286546 0.022998 -0.023524
    33 -0.027022 -1.096452 -0.028023 -0.524789 0.013722 -0.005621
    34 -0.249534 -2.846964 -0.174213 -0.316343 -0.019324 0.076958
    35 0.043235 -1.656596 0.076480 -1.215735 -0.019648 0.004291
    36 0.031729 -1.149111 0.058838 -0.758918 -0.007903 0.005292
    37 -0.963866 -2.785145 -0.085350 -0.133536 0.264013 -0.032832
    38 0.028479 -1.403067 -0.009354 -0.611716 -0.012368 -0.024940
    39 0.021413 -0.942156 0.012233 -1.051190 -0.028955 -0.035163
    40 1.164475 -2.543940 -0.170330 -0.166622 -0.161422 -0.083745
    41 0.024032 -1.136855 -0.001725 -0.790999 0.004494 0.042151
    42 0.014898 -0.903521 -0.015942 -1.038482 0.010007 0.051857
    43 -0.586770 -1.264477 0.200161 -0.200114 -0.096951 -2.129323
    44 1.530648 0.054775 0.009035 0.154202 -0.079650 0.158043
    45 1.106228 0.052330 -0.001860 0.312990 -0.289446 0.975210
    46 -0.139399 -0.111698 0.014397 0.285382 -0.030687 1.580508
    47 -7.913200 3.022593 -0.446471 1.572726 -0.032216 -0.448568
  time 18
    0 6.286137 -12.075923 -3.095961 -1.543799 0.015947 1.664054
    1 -0.881688 0.301299 0.000000 0.000001 0.000000 -1.382160
    2 1.671935 4.611084 0.000000 0.000000 0.000000 1.232289
    3 -0.763543 -0.089952 0.631852 -0.002283 1.570796 0.000000
    4 1.384421 -0.042067 0.000000 0.000000 0.000000 1.345677
    5 0.660750 -0.739376 0.000000 0.000000 0.000000 0.002283
    6 -0.736122 -1.726717 0.123753 1.570770 -1.561760 1.573105
    7 -0.736128 -1.724683 -0.137291 -1.570809 1.561648 -1.568528
    8 12.398069 13.688553 -0.038624 0.017123 -0.053525 3.115673
    9 -0.002752 -0.001265 -0.003287 0.000000 0.000000 0.000000
    10 8.614770 -0.061173 -5.643685 0.084457 -1.956251 -0.257958
    11 7.628468 -1.952586 -0.407627 -1.567015 -0.029975 -3.309582
    12 -0.044576 -8.487017 -0.088509 0.127346 0.421787 0.009878
    13 -0.488518 -2.755602 -0.228260 -0.242250 0.060691 -0.057732
    14 0.039887 -1.538386 0.018135 -1.634758 -0.010403 0.036650
    15 0.028786 -1.134327 -0.109049 -0.791864 -0.013746 0.015532
    16 0.250027 -2.820665 -0.238396 -0.313985 0.018280 -0.085804
    17 -0.049759 -1.602417 0.049696 -1.312009 0.004662 -0.036064
    18 -0.034142 -1.175657 0.045718 -1.263189 0.005489 -0.033341
    19 0.957766 -2.746780 -0.090302 0.167150 -0.150256 0.099289
    20 -0.033420 -1.393223 -0.019070 -0.517853 0.008329 -0.025205
    21 -0.022360 -0.957436 0.007065 -0.527929 0.007982 -0.025323
    22 -1.180681 -2.507217 -0.193859 -0.150629 0.142428 -0.022097
    23 -0.024967 -1.123934 0.017597 -0.759772 0.006951 -0.032333
    24 -0.020057 -0.906594 0.037435 -1.161982 0.002397 -0.047687
    25 0.603042 -1.197277 0.181473 0.666402 -0.922572 -1.051051
    26 1.504676 -0.177260 -0.006710 0.213418 0.065484 -0.624307
    27 1.049988 -0.147821 0.032291 0.039018 -0.188604 -0.767764
    28 0.120153 -0.050270 -0.054489 0.287569 3.110905 1.561085
    29 0.158932 -3.016348 -9.907836 1.090225 -4.240421 1.570354
    30 0.038348 -8.423074 0.017980 0.055837 -0.468085 0.350799
    31 0.447953 -2.798986 -0.200443 -0.244439 -0.056549 0.060325
    32 -0.032909 -1.499736 0.024472 -1.286546 0.022998 -0.023524
    33 -0.027022 -1.096452 -0.028023 -0.524789 0.013722 -0.005621
    34 -0.249534 -2.846964 -0.174213 -0.316343 -0.019324 0.076958
    35 0.043235 -1.656596 0.076480 -1.215735 -0.019648 0.004291
    36 0.031729 -1.149111 0.058838 -0.758918 -0.007903 0.005292
    37 -0.963866 -2.785145 -0.085350 -0.133536 0.264013 -0.032832
    38 0.028479 -1.403067 -0.009354 -0.611716 -0.012368 -0.024940
    39 0.021413 -0.942156 0.012233 -1.051190 -0.028955 -0.035163
    40 1.164475 -2.543940 -0.170330 -0.166622 -0.161422 -0.083745
    41 0.024032 -1.136855 -0.001725 -0.790999 0.004494 0.042151
    42 0.014898 -0.903521 -0.015942 -1.038482 0.010007 0.051857
    43 -0.586770 -1.264477 0.200161 -0.200114 -0.096951 -2.129323
    44 1.530648 0.054775 0.009035 0.154202 -0.079650 0.158043
    45 1.106228 0.052330 -0.001860 0.312990 -0.289446 0.975210
    46 -0.139399 -0.111698 0.014397 0.285382 -0.030687 1.580508
    47 -8.038204 2.542110 -0.454283 1.571492 -0.033235 -0.388579
  time 19
    0 6.141601 -11.892324 -3.361595 -1.514026 0.009037 1.596826
    1 -0.881688 0.301299 0.000000 0.000001 0.000000 -1.382160
    2 1.671935 4.611084 0.000000 0.000000 0.000000 1.232289
    3 -0.763543 -0.089952 0.631852 -0.002283 1.570796 0.000000
    4 1.384421 -0.042067 0.000000 0.000000 0.000000 1.345677
    5 0.660750 -0.739376 0.000000 0.000000 0.000000 0.002283
    6 -0.736122 -1.726717 0.123753 1.570770 -1.561760 1.573105
    7 -0.736128 -1.724683 -0.137291 -1.570809 1.561648 -1.568528
    8 12.398069 13.688553 -0.030811 0.018813 -0.055634 3.115577
    9 -0.002752 -0.001265 -0.003287 0.000000 0.000000 0.000000
    10 8.743680 0.048205 -5.272580 6.164748 -1.962097 -0.081128
    11 7.741753 -1.601013 -0.407627 -1.567878 -0.029402 -3.264260
    12 -0.036764 -8.490924 -0.084602 0.103232 0.457646 0.092578
    13 -0.488518 -2.755602 -0.228260 -0.242250 0.060691 -0.057732
    14 0.039887 -1.538386 0.018135 -1.634758 -0.010403 0.036650
    15 0.028786 -1.134327 -0.109049 -0.791864 -0.013746 0.015532
    16 0.250027 -2.820665 -0.238396 -0.313985 0.018280 -0.085804
    17 -0.049759 -1.602417 0.049696 -1.312009 0.004662 -0.036064
    18 -0.034142 -1.175657 0.045718 -1.263189 0.005489 -0.033341
    19 0.957766 -2.746780 -0.090302 0.167150 -0.150256 0.099289
    20 -0.033420 -1.393223 -0.019070 -0.517853 0.008329 -0.025205
    21 -0.022360 -0.957436 0.007065 -0.527929 0.007982 -0.025323
    22 -1.180681 -2.507217 -0.193859 -0.150629 0.142428 -0.022097
    23 -0.024967 -1.123934 0.017597 -0.759772 0.006951 -0.032333
    24 -0.020057 -0.906594 0.037435 -1.161982 0.002397 -0.047687
    25 0.603042 -1.197277 0.181473 0.666402 -0.922572 -1.051051
    26 1.504676 -0.177260 -0.006710 0.213418 0.065484 -0.624307
    27 1.049988 -0.147821 0.032291 0.039018 -0.188604 -0.767764
    28 0.120153 -0.050270 -0.054489 0.287569 3.110905 1.561085
    29 0.272216 -2.711652 -10.376600 -1.919118 -5.196940 -1.458750
    30 0.046161 -8.415261 0.010167 0.075760 -0.394219 0.400438
    31 0.447953 -2.798986 -0.200443 -0.244439 -0.056549 0.060325
    32 -0.032909 -1.499736 0.024472 -1.286546 0.022998 -0.023524
    33 -0.027022 -1.096452 -0.028023 -0.524789 0.013722 -0.005621
    34 -0.249534 -2.846964 -0.174213 -0.316343 -0.019324 0.076958
    35 0.043235 -1.656596 0.076480 -1.215735 -0.019648 0.004291
    36 0.031729 -1.149111 0.058838 -0.758918 -0.007903 0.005292
    37 -0.963866 -2.785145 -0.085350 -0.133536 0.264013 -0.032832
    38 0.028479 -1.403067 -0.009354 -0.611716 -0.012368 -0.024940
    39 0.021413 -0.942156 0.012233 -1.051190 -0.028955 -0.035163
    40 1.164475 -2.543940 -0.170330 -0.166622 -0.161422 -0.083745
    41 0.024032 -1.136855 -0.001725 -0.790999 0.004494 0.042151
    42 0.014898 -0.903521 -0.015942 -1.038482 0.010007 0.051857
    43 -0.586770 -1.264477 0.200161 -0.200114 -0.096951 -2.129323
    44 1.530648 0.054775 0.009035 0.154202 -0.079650 0.158043
    45 1.106228 0.052330 -0.001860 0.312990 -0.289446 0.975210
    46 -0.139399 -0.111698 0.014397 0.285382 -0.030687 1.580508
    47 -8.194459 1.577237 -0.466002 1.568867 -0.035044 -0.269509
  time 20
    0 6.020504 -11.732163 -3.533475 -1.492433 0.004967 1.551958
    1 -0.881688 0.301299 0.000000 0.000001 0.000000 -1.382160
    2 1.671935 4.611084 0.000000 0.000000 0.000000 1.232289
    3 -0.763543 -0.089952 0.631852 -0.002283 1.570796 0.000000
    4 1.384421 -0.042067 0.000000 0.000000 0.000000 1.345677
    5 0.660750 -0.739376 0.000000 0.000000 0.000000 0.002283
    6 -0.736122 -1.726717 0.123753 1.570770 -1.561760 1.573105
    7 -0.736128 -1.724683 -0.137291 -1.570809 1.561648 -1.568528
    8 12.398069 13.688553 -0.030811 0.019412 -0.056377 3.115553
    9 -0.002752 -0.001265 -0.003287 0.000000 0.000000 0.000000
    10 8.810088 0.122427 -5.022572 6.034217 -1.973039 0.029164
    11 7.804255 -1.370537 -0.403721 -1.568357 -0.029020 -3.235046
    12 -0.032857 -8.494830 -0.084602 0.090449 0.481008 0.148672
    13 -0.488518 -2.755602 -0.228260 -0.242250 0.060691 -0.057732
    14 0.039887 -1.538386 0.018135 -1.634758 -0.010403 0.036650
    15 0.028786 -1.134327 -0.109049 -0.791864 -0.013746 0.015532
    16 0.250027 -2.820665 -0.238396 -0.313985 0.018280 -0.085804
    17 -0.049759 -1.602417 0.049696 -1.312009 0.004662 -0.036064
    18 -0.034142 -1.175657 0.045718 -1.263189 0.005489 -0.033341
    19 0.957766 -2.746780 -0.090302 0.167150 -0.150256 0.099289
    20 -0.033420 -1.393223 -0.019070 -0.517853 0.008329 -0.025205
    21 -0.022360 -0.957436 0.007065 -0.527929 0.007982 -0.025323
    22 -1.180681 -2.507217 -0.193859 -0.150629 0.142428 -0.022097
    23 -0.024967 -1.123934 0.017597 -0.759772 0.006951 -0.032333
    24 -0.020057 -0.906594 0.037435 -1.161982 0.002397 -0.047687
    25 0.603042 -1.197277 0.181473 0.666402 -0.922572 -1.051051
    26 1.504676 -0.177260 -0.006710 0.213418 0.065484 -0.624307
    27 1.049988 -0.147821 0.032291 0.039018 -0.188604 -0.767764
    28 0.120153 -0.050270 -0.054489 0.287569 3.110905 1.561085
    29 0.369876 -2.461644 -10.700829 -1.824234 -5.211245 -1.382154
    30 0.053974 -8.407448 0.002354 0.084600 -0.339935 0.438724
    31 0.447953 -2.798986 -0.200443 -0.244439 -0.056549 0.060325
    32 -0.032909 -1.499736 0.024472 -1.286546 0.022998 -0.023524
    33 -0.027022 -1.096452 -0.028023 -0.524789 0.013722 -0.005621
    34 -0.249534 -2.846964 -0.174213 -0.316343 -0.019324 0.076958
    35 0.043235 -1.656596 0.076480 -1.215735 -0.019648 0.004291
    36 0.031729 -1.149111 0.058838 -0.758918 -0.007903 0.005292
    37 -0.963866 -2.785145 -0.085350 -0.133536 0.264013 -0.032832
    38 0.028479 -1.403067 -0.009354 -0.611716 -0.012368 -0.024940
    39 0.021413 -0.942156 0.012233 -1.051190 -0.028955 -0.035163
    40 1.164475 -2.543940 -0.170330 -0.166622 -0.161422 -0.083745
    41 0.024032 -1.136855 -0.001725 -0.790999 0.004494 0.042151
    42 0.014898 -0.903521 -0.015942 -1.038482 0.010007 0.051857
    43 -0.586770 -1.264477 0.200161 -0.200114 -0.096951 -2.129323
    44 1.530648 0.054775 0.009035 0.154202 -0.079650 0.158043
    45 1.106228 0.052330 -0.001860 0.312990 -0.289446 0.975210
    46 -0.139399 -0.111698 0.014397 0.285382 -0.030687 1.580508
    47 -8.241335 0.827214 -0.473815 1.566734 -0.036207 -0.178304
  time 21
    0 6.012691 -11.693099 -3.576445 -1.485775 0.003831 1.540502
    1 -0.881688 0.301299 0.000000 0.000001 0.000000 -1.382160
    2 1.671935 4.611084 0.000000 0.000000 0.000000 1.232289
    3 -0.763543 -0.089952 0.631852 -0.002283 1.570796 0.000000
    4 1.384421 -0.042067 0.000000 0.000000 0.000000 1.345677
    5 0.660750 -0.739376 0.000000 0.000000 0.000000 0.002283
    6 -0.736122 -1.726717 0.123753 1.570770 -1.561760 1.573105
    7 -0.736128 -1.724683 -0.137291 -1.570809 1.561648 -1.568528
    8 12.398069 13.688553 -0.030811 0.019412 -0.056377 3.115553
    9 -0.002752 -0.001265 -0.003287 0.000000 0.000000 0.000000
    10 8.829620 0.141958 -4.952258 5.999671 -1.978360 0.060662
    11 7.823787 -1.300222 -0.403721 -1.568453 -0.028925 -3.225764
    12 -0.032857 -8.494830 -0.080696 0.085599 0.489157 0.164359
    13 -0.488518 -2.755602 -0.228260 -0.242250 0.060691 -0.057732
    14 0.039887 -1.538386 0.018135 -1.634758 -0.010403 0.036650
    15 0.028786 -1.134327 -0.109049 -0.791864 -0.013746 0.015532
    16 0.250027 -2.820665 -0.238396 -0.313985 0.018280 -0.085804
    17 -0.049759 -1.602417 0.049696 -1.312009 0.004662 -0.036064
    18 -0.034142 -1.175657 0.045718 -1.263189 0.005489 -0.033341
    19 0.957766 -2.746780 -0.090302 0.167150 -0.150256 0.099289
    20 -0.033420 -1.393223 -0.019070 -0.517853 0.008329 -0.025205
    21 -0.022360 -0.957436 0.007065 -0.527929 0.007982 -0.025323
    22 -1.180681 -2.507217 -0.193859 -0.150629 0.142428 -0.022097
    23 -0.024967 -1.123934 0.017597 -0.759772 0.006951 -0.032333
    24 -0.020057 -0.906594 0.037435 -1.161982 0.002397 -0.047687
    25 0.603042 -1.197277 0.181473 0.666402 -0.922572 -1.051051
    26 1.504676 -0.177260 -0.006710 0.213418 0.065484 -0.624307
    27 1.049988 -0.147821 0.032291 0.039018 -0.188604 -0.767764
    28 0.120153 -0.050270 -0.054489 0.287569 3.110905 1.561085
    29 0.467535 -2.399142 -10.818020 -1.777824 -5.218356 -1.344909
    30 0.053974 -8.399636 -0.001552 0.079350 -0.316183 0.456252
    31 0.447953 -2.798986 -0.200443 -0.244439 -0.056549 0.060325
    32 -0.032909 -1.499736 0.024472 -1.286546 0.022998 -0.023524
    33 -0.027022 -1.096452 -0.028023 -0.524789 0.013722 -0.005621
    34 -0.249534 -2.846964 -0.174213 -0.316343 -0.019324 0.076958
    35 0.043235 -1.656596 0.076480 -1.215735 -0.019648 0.004291
    36 0.031729 -1.149111 0.058838 -0.758918 -0.007903 0.005292
    37 -0.963866 -2.785145 -0.085350 -0.133536 0.264013 -0.032832
    38 0.028479 -1.403067 -0.009354 -0.611716 -0.012368 -0.024940
    39 0.021413 -0.942156 0.012233 -1.051190 -0.028955 -0.035163
    40 1.164475 -2.543940 -0.170330 -0.166622 -0.161422 -0.083745
    41 0.024032 -1.136855 -0.001725 -0.790999 0.004494 0.042151
    42 0.014898 -0.903521 -0.015942 -1.038482 0.010007 0.051857
    43 -0.586770 -1.264477 0.200161 -0.200114 -0.096951 -2.129323
    44 1.530648 0.054775 0.009035 0.154202 -0.079650 0.158043
    45 1.106228 0.052330 -0.001860 0.312990 -0.289446 0.975210
    46 -0.139399 -0.111698 0.014397 0.285382 -0.030687 1.580508
    47 -8.241335 0.577206 -0.473815 1.565991 -0.036554 -0.147856
  time 22
    0 6.012691 -11.685286 -3.584258 -1.484919 0.003642 1.539045
    1 -0.881688 0.301299 0.000000 0.000001 0.000000 -1.382160
    2 1.671935 4.611084 0.000000 0.000000 0.000000 1.232289
    3 -0.763543 -0.089952 0.631852 -0.002283 1.570796 0.000000
    4 1.384421 -0.042067 0.000000 0.000000 0.000000 1.345677
    5 0.660750 -0.739376 0.000000 0.000000 0.000000 0.002283
    6 -0.736122 -1.726717 0.123753 1.570770 -1.561760 1.573105
    7 -0.736128 -1.724683 -0.137291 -1.570809 1.561648 -1.568528
    8 12.398069 13.688553 -0.030811 0.019412 -0.056377 3.115553
    9 -0.002752 -0.001265 -0.003287 0.000000 0.000000 0.000000
    10 8.833526 0.141958 -4.940539 5.995364 -1.979035 0.064492
    11 7.827693 -1.288503 -0.403721 -1.568549 -0.028925 -3.224603
    12 -0.032857 -8.494830 -0.080696 0.084965 0.490153 0.166367
    13 -0.488518 -2.755602 -0.228260 -0.242250 0.060691 -0.057732
    14 0.039887 -1.538386 0.018135 -1.634758 -0.010403 0.036650
    15 0.028786 -1.134327 -0.109049 -0.791864 -0.013746 0.015532
    16 0.250027 -2.820665 -0.238396 -0.313985 0.018280 -0.085804
    17 -0.049759 -1.602417 0.049696 -1.312009 0.004662 -0.036064
    18 -0.034142 -1.175657 0.045718 -1.263189 0.005489 -0.033341
    19 0.957766 -2.746780 -0.090302 0.167150 -0.150256 0.099289
    20 -0.033420 -1.393223 -0.019070 -0.517853 0.008329 -0.025205
    21 -0.022360 -0.957436 0.007065 -0.527929 0.007982 -0.025323
    22 -1.180681 -2.507217 -0.193859 -0.150629 0.142428 -0.022097
    23 -0.024967 -1.123934 0.017597 -0.759772 0.006951 -0.032333
    24 -0.020057 -0.906594 0.037435 -1.161982 0.002397 -0.047687
    25 0.603042 -1.197277 0.181473 0.666402 -0.922572 -1.051051
    26 1.504676 -0.177260 -0.006710 0.213418 0.065484 -0.624307
    27 1.049988 -0.147821 0.032291 0.039018 -0.188604 -0.767764
    28 0.120153 -0.050270 -0.054489 0.287569 3.110905 1.561085
    29 0.479254 -2.391329 -10.829739 -1.772104 -5.219360 -1.340409
    30 0.053974 -8.399636 -0.001552 0.078722 -0.313210 0.458416
    31 0.447953 -2.798986 -0.200443 -0.244439 -0.056549 0.060325
    32 -0.032909 -1.499736 0.024472 -1.286546 0.022998 -0.023524
    33 -0.027022 -1.096452 -0.028023 -0.524789 0.013722 -0.005621
    34 -0.249534 -2.846964 -0.174213 -0.316343 -0.019324 0.076958
    35 0.043235 -1.656596 0.076480 -1.215735 -0.019648 0.004291
    36 0.031729 -1.149111 0.058838 -0.758918 -0.007903 0.005292
    37 -0.963866 -2.785145 -0.085350 -0.133536 0.264013 -0.032832
    38 0.028479 -1.403067 -0.009354 -0.611716 -0.012368 -0.024940
    39 0.021413 -0.942156 0.012233 -1.051190 -0.028967 -0.035163
    40 1.164475 -2.543940 -0.170330 -0.166622 -0.161422 -0.083745
    41 0.024032 -1.136855 -0.001725 -0.790999 0.004494 0.042151
    42 0.014898 -0.903521 -0.015942 -1.038482 0.010007 0.051857
    43 -0.586770 -1.264477 0.200161 -0.200114 -0.096951 -2.129323
    44 1.530648 0.054775 0.009035 0.154202 -0.079650 0.158043
    45 1.106228 0.052330 -0.001860 0.312990 -0.289446 0.975210
    46 -0.139399 -0.111698 0.014397 0.285382 -0.030687 1.580508
    47 -8.237429 0.545955 -0.473815 1.565895 -0.036590 -0.144015
  time 23
    0 6.012691 -11.700912 -3.564726 -1.487392 0.004115 1.543366
    1 -0.881688 0.301299 0.000000 0.000001 0.000000 -1.382160
    2 1.671935 4.611084 0.000000 0.000000 0.000000 1.232289
    3 -0.763543 -0.089952 0.631852 -0.002283 1.570796 0.000000
    4 1.384421 -0.042067 0.000000 0.000000 0.000000 1.345677
    5 0.660750 -0.739376 0.000000 0.000000 0.000000 0.002283
    6 -0.736122 -1.726717 0.123753 1.570770 -1.561760 1.573105
    7 -0.736128 -1.724683 -0.137291 -1.570809 1.561648 -1.568528
    8 12.398069 13.688553 -0.030811 0.019412 -0.056377 3.115553
    9 -0.002752 -0.001265 -0.003287 0.000000 0.000000 0.000000
    10 8.825714 0.138052 -4.967883 6.008188 -1.977011 0.052907
    11 7.819880 -1.315848 -0.403721 -1.568453 -0.028925 -3.228084
    12 -0.032857 -8.494830 -0.084602 0.086778 0.487120 0.160469
    13 -0.488518 -2.755602 -0.228260 -0.242250 0.060691 -0.057732
    14 0.039887 -1.538386 0.018135 -1.634758 -0.010403 0.036650
    15 0.028786 -1.134327 -0.109049 -0.791864 -0.013746 0.015532
    16 0.250027 -2.820665 -0.238396 -0.313985 0.018280 -0.085804
    17 -0.049759 -1.602417 0.049696 -1.312009 0.004662 -0.036064
    18 -0.034142 -1.175657 0.045718 -1.263189 0.005489 -0.033341
    19 0.957766 -2.746780 -0.090302 0.167150 -0.150256 0.099289
    20 -0.033420 -1.393223 -0.019070 -0.517853 0.008329 -0.025205
    21 -0.022360 -0.957436 0.007065 -0.527929 0.007982 -0.025323
    22 -1.180681 -2.507217 -0.193859 -0.150629 0.142428 -0.022097
    23 -0.024967 -1.123934 0.017597 -0.759772 0.006951 -0.032333
    24 -0.020057 -0.906594 0.037435 -1.161982 0.002397 -0.047687
    25 0.603042 -1.197277 0.181473 0.666402 -0.922572 -1.051051
    26 1.504676 -0.177260 -0.006710 0.213418 0.065484 -0.624307
    27 1.049988 -0.147821 0.032291 0.039018 -0.188604 -0.767764
    28 0.120153 -0.050270 -0.054489 0.287569 3.110905 1.561085
    29 0.444097 -2.418674 -10.786769 -1.789264 -5.216516 -1.354100
    30 0.053974 -8.403542 -0.001552 0.080651 -0.322130 0.451923
    31 0.447953 -2.798986 -0.200443 -0.244439 -0.056549 0.060325
    32 -0.032909 -1.499736 0.024472 -1.286546 0.022998 -0.023524
    33 -0.027022 -1.096452 -0.028023 -0.524789 0.013722 -0.005621
    34 -0.249534 -2.846964 -0.174213 -0.316343 -0.019324 0.076958
    35 0.043235 -1.656596 0.076480 -1.215735 -0.019648 0.004291
    36 0.031729 -1.149111 0.058838 -0.758918 -0.007903 0.005292
    37 -0.963866 -2.785145 -0.085350 -0.133536 0.264013 -0.032832
    38 0.028479 -1.403067 -0.009354 -0.611716 -0.012368 -0.024940
    39 0.021413 -0.942156 0.012233 -1.051190 -0.028955 -0.035163
    40 1.164475 -2.543940 -0.170330 -0.166622 -0.161422 -0.083745
    41 0.024032 -1.136855 -0.001725 -0.790999 0.004494 0.042151
    42 0.014898 -0.903521 -0.015942 -1.038482 0.010007 0.051857
    43 -0.586770 -1.264477 0.200161 -0.200114 -0.096951 -2.129323
    44 1.530648 0.054775 0.009035 0.154202 -0.079650 0.158043
    45 1.106228 0.052330 -0.001860 0.312990 -0.289446 0.975210
    46 -0.139399 -0.111698 0.014397 0.285382 -0.030687 1.580508
    47 -8.241335 0.639708 -0.473815 1.566183 -0.036471 -0.155468
  time 24
    0 6.016598 -11.724350 -3.545194 -1.490721 0.004683 1.549044
    1 -0.881688 0.301299 0.000000 0.000001 0.000000 -1.382160
    2 1.671935 4.611084 0.000000 0.000000 0.000000 1.232289
    3 -0.763543 -0.089952 0.631852 -0.002283 1.570796 0.000000
    4 1.384421 -0.042067 0.000000 0.000000 0.000000 1.345677
    5 0.660750 -0.739376 0.000000 0.000000 0.000000 0.002283
    6 -0.736122 -1.726717 0.123753 1.570770 -1.561760 1.573105
    7 -0.736128 -1.724683 -0.137291 -1.570809 1.561648 -1.568528
    8 12.398069 13.688553 -0.030811 0.019412 -0.056377 3.115553
    9 -0.002752 -0.001265 -0.003287 0.000000 0.000000 0.000000
    10 8.817901 0.126333 -5.006947 6.025509 -1.974313 0.037110
    11 7.808161 -1.354912 -0.403721 -1.568357 -0.029020 -3.232726
    12 -0.032857 -8.494830 -0.084602 0.089226 0.483045 0.152563
    13 -0.488518 -2.755602 -0.228260 -0.242250 0.060691 -0.057732
    14 0.039887 -1.538386 0.018135 -1.634758 -0.010403 0.036650
    15 0.028786 -1.134327 -0.109049 -0.791864 -0.013746 0.015532
    16 0.250027 -2.820665 -0.238396 -0.313985 0.018280 -0.085804
    17 -0.049759 -1.602417 0.049696 -1.312009 0.004662 -0.036064
    18 -0.034142 -1.175657 0.045718 -1.263189 0.005489 -0.033341
    19 0.957766 -2.746780 -0.090302 0.167150 -0.150256 0.099289
    20 -0.033420 -1.393223 -0.019070 -0.517853 0.008329 -0.025205
    21 -0.022360 -0.957436 0.007065 -0.527929 0.007982 -0.025323
    22 -1.180681 -2.507217 -0.193859 -0.150629 0.142428 -0.022097
    23 -0.024967 -1.123934 0.017597 -0.759772 0.006951 -0.032333
    24 -0.020057 -0.906594 0.037435 -1.161982 0.002397 -0.047687
    25 0.603042 -1.197277 0.181473 0.666402 -0.922572 -1.051051
    26 1.504676 -0.177260 -0.006710 0.213418 0.065484 -0.624307
    27 1.049988 -0.147821 0.032291 0.039018 -0.188604 -0.767764
    28 0.120153 -0.050270 -0.054489 0.287569 3.110905 1.561085
    29 0.393314 -2.449925 -10.728173 -1.812499 -5.212918 -1.372675
    30 0.053974 -8.403542 0.002354 0.083254 -0.334024 0.443159
    31 0.447953 -2.798986 -0.200443 -0.244439 -0.056549 0.060325
    32 -0.032909 -1.499736 0.024472 -1.286546 0.022998 -0.023524
    33 -0.027022 -1.096452 -0.028023 -0.524789 0.013722 -0.005621
    34 -0.249534 -2.846964 -0.174213 -0.316343 -0.019324 0.076958
    35 0.043235 -1.656596 0.076480 -1.215735 -0.019648 0.004291
    36 0.031729 -1.149111 0.058838 -0.758918 -0.007903 0.005292
    37 -0.963866 -2.785145 -0.085350 -0.133536 0.264013 -0.032832
    38 0.028479 -1.403067 -0.009354 -0.611716 -0.012368 -0.024940
    39 0.021413 -0.942156 0.012233 -1.051190 -0.028955 -0.035163
    40 1.164475 -2.543940 -0.170330 -0.166622 -0.161422 -0.083745
    41 0.024032 -1.136855 -0.001725 -0.790999 0.004494 0.042151
    42 0.014898 -0.903521 -0.015942 -1.038482 0.010007 0.051857
    43 -0.586770 -1.264477 0.200161 -0.200114 -0.096951 -2.129323
    44 1.530648 0.054775 0.009035 0.154202 -0.079650 0.158043
    45 1.106228 0.052330 -0.001860 0.312990 -0.289446 0.975210
    46 -0.139399 -0.111698 0.014397 0.285382 -0.030687 1.580508
    47 -8.241335 0.764712 -0.473815 1.566542 -0.036291 -0.170692
  time 25
    0 6.020504 -11.732163 -3.533475 -1.492433 0.004967 1.551958
    1 -0.881688 0.301299 0.000000 0.000001 0.000000 -1.382160
    2 1.671935 4.611084 0.000000 0.000000 0.000000 1.232289
    3 -0.763543 -0.089952 0.631852 -0.002283 1.570796 0.000000
    4 1.384421 -0.042067 0.000000 0.000000 0.000000 1.345677
    5 0.660750 -0.739376 0.000000 0.000000 0.000000 0.002283
    6 -0.736122 -1.726717 0.123753 1.570770 -1.561760 1.573105
    7 -0.736128 -1.724683 -0.137291 -1.570809 1.561648 -1.568528
    8 12.398069 13.688553 -0.030811 0.019412 -0.056377 3.115553
    9 -0.002752 -0.001265 -0.003287 0.000000 0.000000 0.000000
    10 8.810088 0.122427 -5.022572 6.034217 -1.973039 0.029164
    11 7.804255 -1.370537 -0.403721 -1.568357 -0.029020 -3.235046
    12 -0.032857 -8.494830 -0.084602 0.090449 0.481008 0.148672
    13 -0.488518 -2.755602 -0.228260 -0.242250 0.060691 -0.057732
    14 0.039887 -1.538386 0.018135 -1.634758 -0.010403 0.036650
    15 0.028786 -1.134327 -0.109049 -0.791864 -0.013746 0.015532
    16 0.250027 -2.820665 -0.238396 -0.313985 0.018280 -0.085804
    17 -0.049759 -1.602417 0.049696 -1.312009 0.004662 -0.036064
    18 -0.034142 -1.175657 0.045718 -1.263189 0.005489 -0.033341
    19 0.957766 -2.746780 -0.090302 0.167150 -0.150256 0.099289
    20 -0.033420 -1.393223 -0.019070 -0.517853 0.008329 -0.025205
    21 -0.022360 -0.957436 0.007065 -0.527929 0.007982 -0.025323
    22 -1.180681 -2.507217 -0.193859 -0.150629 0.142428 -0.022097
    23 -0.024967 -1.123934 0.017597 -0.759772 0.006951 -0.032333
    24 -0.020057 -0.906594 0.037435 -1.161982 0.002397 -0.047687
    25 0.603042 -1.197277 0.181473 0.666402 -0.922572 -1.051051
    26 1.504676 -0.177260 -0.006710 0.213418 0.065484 -0.624307
    27 1.049988 -0.147821 0.032291 0.039018 -0.188604 -0.767764
    28 0.120153 -0.050270 -0.054489 0.287569 3.110905 1.561085
    29 0.369876 -2.461644 -10.700829 -1.824234 -5.211245 -1.382154
    30 0.053974 -8.407448 0.002354 0.084600 -0.339935 0.438724
    31 0.447953 -2.798986 -0.200443 -0.244439 -0.056549 0.060325
    32 -0.032909 -1.499736 0.024472 -1.286546 0.022998 -0.023524
    33 -0.027022 -1.096452 -0.028023 -0.524789 0.013722 -0.005621
    34 -0.249534 -2.846964 -0.174213 -0.316343 -0.019324 0.076958
    35 0.043235 -1.656596 0.076480 -1.215735 -0.019648 0.004291
    36 0.031729 -1.149111 0.058838 -0.758918 -0.007903 0.005292
    37 -0.963866 -2.785145 -0.085350 -0.133536 0.264013 -0.032832
    38 0.028479 -1.403067 -0.009354 -0.611716 -0.012368 -0.024940
    39 0.021413 -0.942156 0.012233 -1.051190 -0.028955 -0.035163
    40 1.164475 -2.543940 -0.170330 -0.166622 -0.161422 -0.083745
    41 0.024032 -1.136855 -0.001725 -0.790999 0.004494 0.042151
    42 0.014898 -0.903521 -0.015942 -1.038482 0.010007 0.051857
    43 -0.586770 -1.264477 0.200161 -0.200114 -0.096951 -2.129323
    44 1.530648 0.054775 0.009035 0.154202 -0.079650 0.158043
    45 1.106228 0.052330 -0.001860 0.312990 -0.289446 0.975210
    46 -0.139399 -0.111698 0.014397 0.285382 -0.030687 1.580508
    47 -8.241335 0.827214 -0.473815 1.566734 -0.036207 -0.178304
end
