version 1
nodes
  0 "Bone_Root" -1
  1 "Bone01" 0
  2 "Bone_Lefthand" 1
  3 "Kriss_root" 2
  4 "trigger" 3
  5 "magazine" 3
  6 "load01" 3
  7 "silencer" 3
  8 "Bone04" 0
  9 "Bone_Righthand" 8
  10 "Bone39" 9
  11 "Bone40" 10
  12 "Bone41" 11
  13 "Bone35" 9
  14 "Bone36" 13
  15 "Bone37" 14
  16 "Bone31" 9
  17 "Bone32" 16
  18 "Bone33" 17
  19 "Bone43" 9
  20 "Bone44" 19
  21 "Bone45" 20
  22 "Bone27" 9
  23 "Bone28" 22
  24 "Bone29" 23
  25 "Bone_Se_Hand-R" 9
  26 "Bone13" 2
  27 "Bone14" 26
  28 "Bone15" 27
  29 "Bone17" 2
  30 "Bone18" 29
  31 "Bone19" 30
  32 "Bone21" 2
  33 "Bone22" 32
  34 "Bone23" 33
  35 "Bone09" 2
  36 "Bone10" 35
  37 "Bone11" 36
  38 "Bone05" 2
  39 "Bone06" 38
  40 "Bone07" 39
  41 "Bone_Se_Hand-L" 2
end
skeleton
  time 0
    0 0.000000 0.000000 0.000000 0.000000 0.000000 0.000000
    1 6.650234 5.725005 -6.946960 0.769040 -1.860570 -0.716043
    2 -0.071918 -8.498732 -0.104137 -0.025046 0.287591 0.014898
    3 1.851738 -3.358099 0.933068 -0.001979 0.003529 -3.611060
    4 0.082600 1.146645 0.000000 0.000000 0.000000 0.063337
    5 -0.795049 6.628533 0.000002 0.000001 0.000000 -0.047613
    6 -1.846357 7.578958 0.739989 0.000000 -0.000001 1.835736
    7 -1.762572 10.567569 -0.008215 0.000000 0.000000 1.835736
    8 -2.188002 -7.683626 -9.919990 -2.110864 -5.190312 -1.381951
    9 0.096944 -8.450418 -0.009364 -0.119153 -0.275630 0.297905
    10 0.447952 -2.798983 -0.200442 -1.171631 -0.187313 0.022274
    11 -0.032910 -1.480206 0.004936 -1.151858 0.000000 0.000002
    12 -0.027022 -1.076919 -0.020212 -1.045074 0.000000 0.000000
    13 -0.249534 -2.846962 -0.174215 -1.050358 -0.194024 -0.118379
    14 0.043235 -1.683940 0.096014 -1.469808 0.002823 -0.000167
    15 0.031729 -1.160831 0.058836 -1.087362 0.000642 0.008372
    16 -0.963866 -2.785142 -0.085346 -0.613115 -0.085997 -0.167478
    17 0.028479 -1.403069 0.006271 -1.158127 0.000000 0.000000
    18 0.021413 -0.957782 0.020047 -0.780553 0.000000 0.000000
    19 1.164474 -2.543938 -0.170328 -0.955776 -0.336135 0.112541
    20 0.024033 -1.129042 0.017806 -0.850024 0.000000 0.000001
    21 0.014896 -0.883989 -0.019845 -1.052862 0.000000 0.000000
    22 -0.586770 -1.264475 0.200164 -0.276792 -0.716336 -2.528363
    23 1.522835 0.058681 0.016850 -0.417695 -0.629901 1.323585
    24 1.117948 0.048424 -0.005764 -0.002580 -0.025066 0.158718
    25 -0.139399 -0.111697 0.014397 0.285382 -0.030687 1.580508
    26 -0.488517 -2.755600 -0.228261 -1.376484 -0.075298 -0.281316
    27 0.039888 -1.479789 0.029853 -0.928033 0.000000 0.000000
    28 0.028786 -1.075730 -0.023111 -1.481386 0.000000 0.000000
    29 0.250028 -2.820664 -0.238396 -1.075893 -0.014906 -0.312588
    30 -0.049759 -1.680545 0.100480 -1.463659 0.000000 -0.000002
    31 -0.034141 -1.148312 0.084779 -1.087312 0.000000 0.000000
    32 0.957766 -2.746776 -0.090301 -0.143359 -0.206189 -0.071012
    33 -0.033419 -1.397128 -0.011255 -0.779119 0.124808 -0.122316
    34 -0.022361 -0.957434 0.018783 -1.043310 0.000000 0.000000
    35 -1.180680 -2.507215 -0.193861 -1.224952 -0.001292 -0.303995
    36 -0.024966 -1.123935 0.017594 -0.977967 0.000000 0.000001
    37 -0.020057 -0.890966 0.010091 -0.933434 0.000000 0.000000
    38 0.583510 -1.197274 0.185377 0.272562 -1.003490 -0.533081
    39 1.535926 0.010244 0.005008 0.440185 -0.138733 -1.296648
    40 1.100770 0.004526 -0.010676 -0.011449 0.011491 -0.607432
    41 0.120152 -0.050266 -0.054488 0.287568 3.110905 1.561085
  time 1
    0 0.000000 1.085971 0.000000 0.000000 0.000000 0.000000
    1 6.650234 5.725005 -6.946960 0.769040 -1.860570 -0.716043
    2 -0.071918 -8.498732 -0.104137 -0.030426 0.287088 -0.004086
    3 1.851738 -3.358099 0.933068 -0.001979 0.003529 -3.611060
    4 0.133383 0.939607 0.000000 0.000000 0.000000 0.063337
    5 -0.795049 6.628533 0.000002 0.000001 0.000000 -0.047613
    6 -1.846357 7.578958 0.739989 0.000000 -0.000001 1.835736
    7 -1.762572 10.567569 -0.008215 0.000000 0.000000 1.835736
    8 -2.188002 -7.718783 -9.919990 -2.147611 -5.190312 -1.381951
    9 0.096944 -8.450418 -0.009364 -0.037759 -0.275630 0.297905
    10 0.447952 -2.798983 -0.200442 -1.171631 -0.187313 0.022274
    11 -0.032910 -1.480206 0.004936 -1.151858 0.000000 0.000002
    12 -0.027022 -1.076919 -0.020212 -1.108628 0.000000 0.000000
    13 -0.249534 -2.846962 -0.174215 -1.050358 -0.194024 -0.118379
    14 0.043235 -1.683940 0.096014 -1.469808 0.002823 -0.000167
    15 0.031729 -1.160831 0.058836 -1.141818 0.000642 0.008372
    16 -0.963866 -2.785142 -0.085346 -0.613115 -0.085997 -0.167478
    17 0.028479 -1.403069 0.006271 -1.167197 0.000000 0.000000
    18 0.021413 -0.957782 0.020047 -0.780553 0.000000 0.000000
    19 1.164474 -2.543938 -0.170328 -0.955776 -0.336135 0.112541
    20 0.024033 -1.129042 0.017806 -0.850024 0.000000 0.000001
    21 0.014896 -0.883989 -0.019845 -1.080069 0.000000 0.000000
    22 -0.586770 -1.264475 0.200164 -0.276792 -0.716336 -2.528363
    23 1.522835 0.058681 0.016850 -0.409480 -0.628670 1.225704
    24 1.117948 0.048424 -0.005764 -0.004030 -0.024443 0.222257
    25 -0.139399 -0.111697 0.014397 0.285382 -0.030687 1.580508
    26 -0.488517 -2.755600 -0.228261 -1.376484 -0.075298 -0.281316
    27 0.039888 -1.479789 0.029853 -0.928033 0.000000 0.000000
    28 0.028786 -1.075730 -0.023111 -1.481386 0.000000 0.000000
    29 0.250028 -2.820664 -0.238396 -1.075893 -0.014906 -0.312588
    30 -0.049759 -1.680545 0.100480 -1.463659 0.000000 -0.000002
    31 -0.034141 -1.148312 0.084779 -1.087312 0.000000 0.000000
    32 0.957766 -2.746776 -0.090301 -0.143359 -0.206189 -0.071012
    33 -0.033419 -1.397128 -0.011255 -0.779119 0.124808 -0.122316
    34 -0.022361 -0.957434 0.018783 -1.392418 0.000000 0.000000
    35 -1.180680 -2.507215 -0.193861 -1.224952 -0.001292 -0.303995
    36 -0.024966 -1.123935 0.017594 -0.977967 0.000000 0.000001
    37 -0.020057 -0.890966 0.010091 -0.933434 0.000000 0.000000
    38 0.583510 -1.197274 0.185377 0.272562 -1.003490 -0.533081
    39 1.535926 0.010244 0.005008 0.440185 -0.138733 -1.296648
    40 1.100770 0.004526 -0.010676 -0.011449 0.011491 -0.607432
    41 0.120152 -0.050266 -0.054488 0.287568 3.110905 1.561085
  time 2
    0 0.000000 1.082064 0.000000 -0.027888 0.000000 0.000000
    1 6.650234 5.725005 -6.946960 0.769040 -1.860570 -0.716043
    2 -0.071918 -8.498732 -0.104137 -0.034280 0.286632 -0.017724
    3 1.851738 -3.358099 0.933068 -0.001979 0.003529 -3.611060
    4 0.133383 0.943514 0.000000 0.000000 0.000000 0.063337
    5 -0.795049 6.628533 0.000002 0.000001 0.000000 -0.047613
    6 -1.846357 7.578958 0.739989 0.000000 -0.000001 1.835736
    7 -1.762572 10.567569 -0.008215 0.000000 0.000000 1.835736
    8 -2.191908 -7.664094 -10.002024 -2.147474 -5.190312 -1.381951
    9 0.096944 -8.450418 -0.009364 -0.012304 -0.270991 0.298527
    10 0.447952 -2.798983 -0.200442 -1.171631 -0.187313 0.022274
    11 -0.032910 -1.480206 0.004936 -1.151858 0.000000 0.000002
    12 -0.027022 -1.076919 -0.020212 -1.260125 0.000000 0.000000
    13 -0.249534 -2.846962 -0.174215 -1.050358 -0.194024 -0.118379
    14 0.043235 -1.683940 0.096014 -1.469808 0.002823 -0.000167
    15 0.031729 -1.160831 0.058836 -1.271679 0.000642 0.008372
    16 -0.963866 -2.785142 -0.085346 -0.613115 -0.085997 -0.167478
    17 0.028479 -1.403069 0.006271 -1.188835 0.000000 0.000000
    18 0.021413 -0.957782 0.020047 -0.780553 0.000000 0.000000
    19 1.164474 -2.543938 -0.170328 -0.955776 -0.336135 0.112541
    20 0.024033 -1.129042 0.017806 -0.850024 0.000000 0.000001
    21 0.014896 -0.883989 -0.019845 -1.145004 0.000000 0.000000
    22 -0.586770 -1.264475 0.200164 -0.276792 -0.716336 -2.528363
    23 1.522835 0.058681 0.016850 -0.389870 -0.625750 0.992278
    24 1.117948 0.048424 -0.005764 -0.007482 -0.022957 0.373795
    25 -0.139399 -0.111697 0.014397 0.285382 -0.030687 1.580508
    26 -0.488517 -2.755600 -0.228261 -1.376484 -0.075298 -0.281316
    27 0.039888 -1.479789 0.029853 -0.928033 0.000000 0.000000
    28 0.028786 -1.075730 -0.023111 -1.481386 0.000000 0.000000
    29 0.250028 -2.820664 -0.238396 -1.075893 -0.014906 -0.312588
    30 -0.049759 -1.680545 0.100480 -1.463659 0.000000 -0.000002
    31 -0.034141 -1.148312 0.084779 -1.087312 0.000000 0.000000
    32 0.957766 -2.746776 -0.090301 -0.143359 -0.206189 -0.071012
    33 -0.033419 -1.397128 -0.011255 -0.779119 0.124808 -0.122316
    34 -0.022361 -0.957434 0.018783 -1.390628 0.000000 0.000000
    35 -1.180680 -2.507215 -0.193861 -1.224952 -0.001292 -0.303995
    36 -0.024966 -1.123935 0.017594 -0.977967 0.000000 0.000001
    37 -0.020057 -0.890966 0.010091 -0.933434 0.000000 0.000000
    38 0.583510 -1.197274 0.185377 0.272562 -1.003490 -0.533081
    39 1.535926 0.010244 0.005008 0.440185 -0.138733 -1.296648
    40 1.100770 0.004526 -0.010676 -0.011449 0.011491 -0.607432
    41 0.120152 -0.050266 -0.054488 0.287568 3.110905 1.561085
  time 3
    0 0.000000 1.066439 0.000000 -0.055788 0.000000 0.000000
    1 6.650234 5.725005 -6.946960 0.769040 -1.860570 -0.716043
    2 -0.071918 -8.498732 -0.104137 -0.038209 0.286141 -0.031662
    3 1.851738 -3.358099 0.933068 -0.001979 0.003529 -3.611060
    4 0.133383 0.947420 0.000000 0.000000 0.000000 0.063337
    5 -0.795049 6.628533 0.000002 0.000001 0.000000 -0.047613
    6 -1.846357 7.578958 0.739989 0.000000 -0.000001 1.835736
    7 -1.762572 10.567569 -0.008215 0.000000 0.000000 1.835736
    8 -2.191908 -7.546903 -10.181717 -2.147132 -5.190312 -1.381951
    9 0.096944 -8.450418 -0.009364 0.006752 -0.260795 0.299914
    10 0.447952 -2.798983 -0.200442 -1.171631 -0.187313 0.022274
    11 -0.032910 -1.480206 0.004936 -1.151858 0.000000 0.000002
    12 -0.027022 -1.076919 -0.020212 -1.440919 0.000000 0.000000
    13 -0.249534 -2.846962 -0.174215 -1.050358 -0.194024 -0.118379
    14 0.043235 -1.683940 0.096014 -1.469808 0.002823 -0.000167
    15 0.031729 -1.160831 0.058836 -1.426659 0.000642 0.008372
    16 -0.963866 -2.785142 -0.085346 -0.613115 -0.085997 -0.167478
    17 0.028479 -1.403069 0.006271 -1.214661 0.000000 0.000000
    18 0.021413 -0.957782 0.020047 -0.780553 0.000000 0.000000
    19 1.164474 -2.543938 -0.170328 -0.955776 -0.336135 0.112541
    20 0.024033 -1.129042 0.017806 -0.850024 0.000000 0.000001
    21 0.014896 -0.883989 -0.019845 -1.222491 0.000000 0.000000
    22 -0.586770 -1.264475 0.200164 -0.276792 -0.716336 -2.528363
    23 1.522835 0.058681 0.016850 -0.366483 -0.622266 0.713701
    24 1.117948 0.048424 -0.005764 -0.011592 -0.021171 0.554635
    25 -0.139399 -0.111697 0.014397 0.285382 -0.030687 1.580508
    26 -0.488517 -2.755600 -0.228261 -1.376484 -0.075298 -0.281316
    27 0.039888 -1.479789 0.029853 -0.928033 0.000000 0.000000
    28 0.028786 -1.075730 -0.023111 -1.481386 0.000000 0.000000
    29 0.250028 -2.820664 -0.238396 -1.075893 -0.014906 -0.312588
    30 -0.049759 -1.680545 0.100480 -1.463659 0.000000 -0.000002
    31 -0.034141 -1.148312 0.084779 -1.087312 0.000000 0.000000
    32 0.957766 -2.746776 -0.090301 -0.143359 -0.206189 -0.071012
    33 -0.033419 -1.397128 -0.011255 -0.779119 0.124808 -0.122316
    34 -0.022361 -0.957434 0.018783 -1.385515 0.000000 0.000000
    35 -1.180680 -2.507215 -0.193861 -1.224952 -0.001292 -0.303995
    36 -0.024966 -1.123935 0.017594 -0.977967 0.000000 0.000001
    37 -0.020057 -0.890966 0.010091 -0.933434 0.000000 0.000000
    38 0.583510 -1.197274 0.185377 0.272562 -1.003490 -0.533081
    39 1.535926 0.010244 0.005008 0.440185 -0.138733 -1.296648
    40 1.100770 0.004526 -0.010676 -0.011449 0.011491 -0.607432
    41 0.120152 -0.050266 -0.054488 0.287568 3.110905 1.561085
  time 4
    0 0.000000 1.046907 -0.007813 -0.055345 0.000000 0.000000
    1 6.650234 5.725005 -6.946960 0.769040 -1.860570 -0.716043
    2 -0.071918 -8.498732 -0.104137 -0.041275 0.285745 -0.042508
    3 1.851738 -3.358099 0.933068 -0.001979 0.003529 -3.611060
    4 0.129476 0.955233 0.000000 0.000000 0.000000 0.063337
    5 -0.795049 6.628533 0.000002 0.000001 0.000000 -0.047613
    6 -1.846357 7.578958 0.739989 0.000000 -0.000001 1.835736
    7 -1.762572 10.567569 -0.008215 0.000000 0.000000 1.835736
    8 -2.191908 -7.429712 -10.361410 -2.146516 -5.190312 -1.381951
    9 0.096944 -8.450418 -0.009364 0.018716 -0.250598 0.301301
    10 0.447952 -2.798983 -0.200442 -1.171631 -0.187313 0.022274
    11 -0.032910 -1.480206 0.004936 -1.151858 0.000000 0.000002
    12 -0.027022 -1.076919 -0.020212 -1.592415 0.000000 0.000000
    13 -0.249534 -2.846962 -0.174215 -1.050358 -0.194024 -0.118379
    14 0.043235 -1.683940 0.096014 -1.469808 0.002823 -0.000167
    15 0.031729 -1.160831 0.058836 -1.556520 0.000642 0.008372
    16 -0.963866 -2.785142 -0.085346 -0.613115 -0.085997 -0.167478
    17 0.028479 -1.403069 0.006271 -1.236299 0.000000 0.000000
    18 0.021413 -0.957782 0.020047 -0.780553 0.000000 0.000000
    19 1.164474 -2.543938 -0.170328 -0.955776 -0.336135 0.112541
    20 0.024033 -1.129042 0.017806 -0.850024 0.000000 0.000001
    21 0.014896 -0.883989 -0.019845 -1.287427 0.000000 0.000000
    22 -0.586770 -1.264475 0.200164 -0.276792 -0.716336 -2.528363
    23 1.522835 0.058681 0.016850 -0.346895 -0.619346 0.480318
    24 1.117948 0.048424 -0.005764 -0.015044 -0.019673 0.706172
    25 -0.139399 -0.111697 0.014397 0.285382 -0.030687 1.580508
    26 -0.488517 -2.755600 -0.228261 -1.376484 -0.075298 -0.281316
    27 0.039888 -1.479789 0.029853 -0.928033 0.000000 0.000000
    28 0.028786 -1.075730 -0.023111 -1.481386 0.000000 0.000000
    29 0.250028 -2.820664 -0.238396 -1.075893 -0.014906 -0.312588
    30 -0.049759 -1.680545 0.100480 -1.463659 0.000000 -0.000002
    31 -0.034141 -1.148312 0.084779 -1.087312 0.000000 0.000000
    32 0.957766 -2.746776 -0.090301 -0.143359 -0.206189 -0.071012
    33 -0.033419 -1.397128 -0.011255 -0.779119 0.124808 -0.122316
    34 -0.022361 -0.957434 0.018783 -1.377376 0.000000 0.000000
    35 -1.180680 -2.507215 -0.193861 -1.224952 -0.001292 -0.303995
    36 -0.024966 -1.123935 0.017594 -0.977967 0.000000 0.000001
    37 -0.020057 -0.890966 0.010091 -0.933434 0.000000 0.000000
    38 0.583510 -1.197274 0.185377 0.272562 -1.003490 -0.533081
    39 1.535926 0.010244 0.005008 0.440185 -0.138733 -1.296648
    40 1.100770 0.004526 -0.010676 -0.011449 0.011491 -0.607432
    41 0.120152 -0.050266 -0.054488 0.287568 3.110905 1.561085
  time 5
    0 0.000000 1.015656 -0.011719 -0.054062 0.000000 0.000000
    1 6.650234 5.725005 -6.946960 0.769040 -1.860570 -0.716043
    2 -0.071918 -8.498732 -0.104137 -0.042514 0.285590 -0.046883
    3 1.851738 -3.358099 0.933068 -0.001979 0.003529 -3.611060
    4 0.129476 0.963046 0.000000 0.000000 0.000000 0.063337
    5 -0.795049 6.628533 0.000002 0.000001 0.000000 -0.047613
    6 -1.846357 7.578958 0.739989 0.000000 -0.000001 1.835736
    7 -1.762572 10.567569 -0.008215 0.000000 0.000000 1.835736
    8 -2.195815 -7.378929 -10.443443 -2.145695 -5.190312 -1.381951
    9 0.096944 -8.450418 -0.009364 0.022876 -0.245983 0.301924
    10 0.447952 -2.798983 -0.200442 -1.171631 -0.187313 0.022274
    11 -0.032910 -1.480206 0.004936 -1.151858 0.000000 0.000002
    12 -0.027022 -1.076919 -0.020212 -1.655918 0.000000 0.000000
    13 -0.249534 -2.846962 -0.174215 -1.050358 -0.194024 -0.118379
    14 0.043235 -1.683940 0.096014 -1.469808 0.002823 -0.000167
    15 0.031729 -1.160831 0.058836 -1.610976 0.000642 0.008372
    16 -0.963866 -2.785142 -0.085346 -0.613115 -0.085997 -0.167478
    17 0.028479 -1.403069 0.006271 -1.245369 0.000000 0.000000
    18 0.021413 -0.957782 0.020047 -0.780553 0.000000 0.000000
    19 1.164474 -2.543938 -0.170328 -0.955776 -0.336135 0.112541
    20 0.024033 -1.129042 0.017806 -0.850024 0.000000 0.000001
    21 0.014896 -0.883989 -0.019845 -1.314672 0.000000 0.000000
    22 -0.586770 -1.264475 0.200164 -0.276792 -0.716336 -2.528363
    23 1.522835 0.058681 0.016850 -0.338680 -0.618115 0.382394
    24 1.117948 0.048424 -0.005764 -0.016494 -0.019050 0.769711
    25 -0.139399 -0.111697 0.014397 0.285382 -0.030687 1.580508
    26 -0.488517 -2.755600 -0.228261 -1.376484 -0.075298 -0.281316
    27 0.039888 -1.479789 0.029853 -0.928033 0.000000 0.000000
    28 0.028786 -1.075730 -0.023111 -1.481386 0.000000 0.000000
    29 0.250028 -2.820664 -0.238396 -1.075893 -0.014906 -0.312588
    30 -0.049759 -1.680545 0.100480 -1.463659 0.000000 -0.000002
    31 -0.034141 -1.148312 0.084779 -1.087312 0.000000 0.000000
    32 0.957766 -2.746776 -0.090301 -0.143359 -0.206189 -0.071012
    33 -0.033419 -1.397128 -0.011255 -0.779119 0.124808 -0.122316
    34 -0.022361 -0.957434 0.018783 -1.366553 0.000000 0.000000
    35 -1.180680 -2.507215 -0.193861 -1.224952 -0.001292 -0.303995
    36 -0.024966 -1.123935 0.017594 -0.977967 0.000000 0.000001
    37 -0.020057 -0.890966 0.010091 -0.933434 0.000000 0.000000
    38 0.583510 -1.197274 0.185377 0.272562 -1.003490 -0.533081
    39 1.535926 0.010244 0.005008 0.440185 -0.138733 -1.296648
    40 1.100770 0.004526 -0.010676 -0.011449 0.011491 -0.607432
    41 0.120152 -0.050266 -0.054488 0.287568 3.110905 1.561085
  time 6
    0 0.000000 0.980499 -0.019532 -0.052061 0.000000 0.000000
    1 6.650234 5.725005 -6.946960 0.769040 -1.860570 -0.716043
    2 -0.071918 -8.498732 -0.104137 -0.042414 0.285602 -0.046535
    3 1.851738 -3.358099 0.933068 -0.001979 0.003529 -3.611060
    4 0.125570 0.978671 0.000000 0.000000 0.000000 0.063337
    5 -0.795049 6.628533 0.000002 0.000001 0.000000 -0.047613
    6 -1.846357 7.578958 0.739989 0.000000 -0.000001 1.835736
    7 -1.762572 10.567569 -0.008215 0.000000 0.000000 1.835736
    8 -2.195815 -7.378929 -10.439537 -2.144668 -5.190312 -1.381951
    9 0.096944 -8.450418 -0.009364 0.022203 -0.246104 0.301910
    10 0.447952 -2.798983 -0.200442 -1.171631 -0.187313 0.022274
    11 -0.032910 -1.480206 0.004936 -1.151858 0.000000 0.000002
    12 -0.027022 -1.076919 -0.020212 -1.653085 0.000000 0.000000
    13 -0.249534 -2.846962 -0.174215 -1.050358 -0.194024 -0.118379
    14 0.043235 -1.683940 0.096014 -1.469808 0.002823 -0.000167
    15 0.031729 -1.160831 0.058836 -1.608483 0.000642 0.008372
    16 -0.963866 -2.785142 -0.085346 -0.613115 -0.085997 -0.167478
    17 0.028479 -1.403069 0.006271 -1.244984 0.000000 0.000000
    18 0.021413 -0.957782 0.020047 -0.780553 0.000000 0.000000
    19 1.164474 -2.543938 -0.170328 -0.955776 -0.336135 0.112541
    20 0.024033 -1.129042 0.017806 -0.850024 0.000000 0.000001
    21 0.014896 -0.883989 -0.019845 -1.313447 0.000000 0.000000
    22 -0.586770 -1.264475 0.200164 -0.276792 -0.716336 -2.528363
    23 1.522835 0.058681 0.016850 -0.339033 -0.618178 0.386810
    24 1.117948 0.048424 -0.005764 -0.016434 -0.019086 0.766866
    25 -0.139399 -0.111697 0.014397 0.285382 -0.030687 1.580508
    26 -0.488517 -2.755600 -0.228261 -1.376484 -0.075298 -0.281316
    27 0.039888 -1.479789 0.029853 -0.928033 0.000000 0.000000
    28 0.028786 -1.075730 -0.023111 -1.481386 0.000000 0.000000
    29 0.250028 -2.820664 -0.238396 -1.075893 -0.014906 -0.312588
    30 -0.049759 -1.680545 0.100480 -1.463659 0.000000 -0.000002
    31 -0.034141 -1.148312 0.084779 -1.087312 0.000000 0.000000
    32 0.957766 -2.746776 -0.090301 -0.143359 -0.206189 -0.071012
    33 -0.033419 -1.397128 -0.011255 -0.779119 0.124808 -0.122316
    34 -0.022361 -0.957434 0.018783 -1.353259 0.000000 0.000000
    35 -1.180680 -2.507215 -0.193861 -1.224952 -0.001292 -0.303995
    36 -0.024966 -1.123935 0.017594 -0.977967 0.000000 0.000001
    37 -0.020057 -0.890966 0.010091 -0.933434 0.000000 0.000000
    38 0.583510 -1.197274 0.185377 0.272562 -1.003490 -0.533081
    39 1.535926 0.010244 0.005008 0.440185 -0.138733 -1.296648
    40 1.100770 0.004526 -0.010676 -0.011449 0.011491 -0.607432
    41 0.120152 -0.050266 -0.054488 0.287568 3.110905 1.561085
  time 7
    0 0.000000 0.941435 -0.027345 -0.049412 0.000000 0.000000
    1 6.650234 5.725005 -6.946960 0.769040 -1.860570 -0.716043
    2 -0.071918 -8.498732 -0.104137 -0.042126 0.285638 -0.045540
    3 1.851738 -3.358099 0.933068 -0.001979 0.003529 -3.611060
    4 0.121664 0.990390 0.000000 0.000000 0.000000 0.063337
    5 -0.795049 6.628533 0.000002 0.000001 0.000000 -0.047613
    6 -1.846357 7.578958 0.739989 0.000000 -0.000001 1.835736
    7 -1.762572 10.567569 -0.008215 0.000000 0.000000 1.835736
    8 -2.195815 -7.390648 -10.431724 -2.143505 -5.190312 -1.381951
    9 0.096944 -8.450418 -0.009364 0.020301 -0.246515 0.301853
    10 0.447952 -2.798983 -0.200442 -1.171631 -0.187313 0.022274
    11 -0.032910 -1.480206 0.004936 -1.151858 0.000000 0.000002
    12 -0.027022 -1.076919 -0.020212 -1.644837 0.000000 0.000000
    13 -0.249534 -2.846962 -0.174215 -1.050358 -0.194024 -0.118379
    14 0.043235 -1.683940 0.096014 -1.469808 0.002823 -0.000167
    15 0.031729 -1.160831 0.058836 -1.601437 0.000642 0.008372
    16 -0.963866 -2.785142 -0.085346 -0.613115 -0.085997 -0.167478
    17 0.028479 -1.403069 0.006271 -1.243793 0.000000 0.000000
    18 0.021413 -0.957782 0.020047 -0.780553 0.000000 0.000000
    19 1.164474 -2.543938 -0.170328 -0.955776 -0.336135 0.112541
    20 0.024033 -1.129042 0.017806 -0.850024 0.000000 0.000001
    21 0.014896 -0.883989 -0.019845 -1.309889 0.000000 0.000000
    22 -0.586770 -1.264475 0.200164 -0.276792 -0.716336 -2.528363
    23 1.522835 0.058681 0.016850 -0.340115 -0.618324 0.399537
    24 1.117948 0.048424 -0.005764 -0.016242 -0.019158 0.758602
    25 -0.139399 -0.111697 0.014397 0.285382 -0.030687 1.580508
    26 -0.488517 -2.755600 -0.228261 -1.376484 -0.075298 -0.281316
    27 0.039888 -1.479789 0.029853 -0.928033 0.000000 0.000000
    28 0.028786 -1.075730 -0.023111 -1.481386 0.000000 0.000000
    29 0.250028 -2.820664 -0.238396 -1.075893 -0.014906 -0.312588
    30 -0.049759 -1.680545 0.100480 -1.463659 0.000000 -0.000002
    31 -0.034141 -1.148312 0.084779 -1.087312 0.000000 0.000000
    32 0.957766 -2.746776 -0.090301 -0.143359 -0.206189 -0.071012
    33 -0.033419 -1.397128 -0.011255 -0.779119 0.124808 -0.122316
    34 -0.022361 -0.957434 0.018783 -1.337834 0.000000 0.000000
    35 -1.180680 -2.507215 -0.193861 -1.224952 -0.001292 -0.303995
    36 -0.024966 -1.123935 0.017594 -0.977967 0.000000 0.000001
    37 -0.020057 -0.890966 0.010091 -0.933434 0.000000 0.000000
    38 0.583510 -1.197274 0.185377 0.272562 -1.003490 -0.533081
    39 1.535926 0.010244 0.005008 0.440185 -0.138733 -1.296648
    40 1.100770 0.004526 -0.010676 -0.011449 0.011491 -0.607432
    41 0.120152 -0.050266 -0.054488 0.287568 3.110905 1.561085
  time 8
    0 0.000000 0.894559 -0.035157 -0.046225 0.000000 0.000000
    1 6.650234 5.725005 -6.946960 0.769040 -1.860570 -0.716043
    2 -0.071918 -8.498732 -0.104137 -0.041688 0.285697 -0.043970
    3 1.851738 -3.358099 0.933068 -0.001979 0.003529 -3.611060
    4 0.117757 1.006016 0.000000 0.000000 0.000000 0.063337
    5 -0.795049 6.628533 0.000002 0.000001 0.000000 -0.047613
    6 -1.846357 7.578958 0.739989 0.000000 -0.000001 1.835736
    7 -1.762572 10.567569 -0.008215 0.000000 0.000000 1.835736
    8 -2.195815 -7.402367 -10.420005 -2.142205 -5.190312 -1.381951
    9 0.096944 -8.450418 -0.009364 0.017231 -0.247143 0.301768
    10 0.447952 -2.798983 -0.200442 -1.171631 -0.187313 0.022274
    11 -0.032910 -1.480206 0.004936 -1.151858 0.000000 0.000002
    12 -0.027022 -1.076919 -0.020212 -1.631681 0.000000 0.000000
    13 -0.249534 -2.846962 -0.174215 -1.050358 -0.194024 -0.118379
    14 0.043235 -1.683940 0.096014 -1.469808 0.002823 -0.000167
    15 0.031729 -1.160831 0.058836 -1.590123 0.000642 0.008372
    16 -0.963866 -2.785142 -0.085346 -0.613115 -0.085997 -0.167478
    17 0.028479 -1.403069 0.006271 -1.241910 0.000000 0.000000
    18 0.021413 -0.957782 0.020047 -0.780553 0.000000 0.000000
    19 1.164474 -2.543938 -0.170328 -0.955776 -0.336135 0.112541
    20 0.024033 -1.129042 0.017806 -0.850024 0.000000 0.000001
    21 0.014896 -0.883989 -0.019845 -1.304264 0.000000 0.000000
    22 -0.586770 -1.264475 0.200164 -0.276792 -0.716336 -2.528363
    23 1.522835 0.058681 0.016850 -0.341816 -0.618574 0.419841
    24 1.117948 0.048424 -0.005764 -0.015943 -0.019290 0.745434
    25 -0.139399 -0.111697 0.014397 0.285382 -0.030687 1.580508
    26 -0.488517 -2.755600 -0.228261 -1.376484 -0.075298 -0.281316
    27 0.039888 -1.479789 0.029853 -0.928033 0.000000 0.000000
    28 0.028786 -1.075730 -0.023111 -1.481386 0.000000 0.000000
    29 0.250028 -2.820664 -0.238396 -1.075893 -0.014906 -0.312588
    30 -0.049759 -1.680545 0.100480 -1.463659 0.000000 -0.000002
    31 -0.034141 -1.148312 0.084779 -1.087312 0.000000 0.000000
    32 0.957766 -2.746776 -0.090301 -0.143359 -0.206189 -0.071012
    33 -0.033419 -1.397128 -0.011255 -0.779119 0.124808 -0.122316
    34 -0.022361 -0.957434 0.018783 -1.320619 0.000000 0.000000
    35 -1.180680 -2.507215 -0.193861 -1.224952 -0.001292 -0.303995
    36 -0.024966 -1.123935 0.017594 -0.977967 0.000000 0.000001
    37 -0.020057 -0.890966 0.010091 -0.933434 0.000000 0.000000
    38 0.583510 -1.197274 0.185377 0.272562 -1.003490 -0.533081
    39 1.535926 0.010244 0.005008 0.440185 -0.138733 -1.296648
    40 1.100770 0.004526 -0.010676 -0.011449 0.011491 -0.607432
    41 0.120152 -0.050266 -0.054488 0.287568 3.110905 1.561085
  time 9
    0 0.000000 0.843776 -0.042970 -0.042605 0.000000 0.000000
    1 6.650234 5.725005 -6.946960 0.769040 -1.860570 -0.716043
    2 -0.071918 -8.498732 -0.104137 -0.041100 0.285769 -0.041885
    3 1.851738 -3.358099 0.933068 -0.001979 0.003529 -3.611060
    4 0.113851 1.021641 0.000000 0.000000 0.000000 0.063337
    5 -0.795049 6.628533 0.000002 0.000001 0.000000 -0.047613
    6 -1.846357 7.578958 0.739989 0.000000 -0.000001 1.835736
    7 -1.762572 10.567569 -0.008215 0.000000 0.000000 1.835736
    8 -2.191908 -7.421899 -10.404380 -2.140768 -5.190312 -1.381951
    9 0.096944 -8.450418 -0.009364 0.013130 -0.248013 0.301655
    10 0.447952 -2.798983 -0.200442 -1.171631 -0.187313 0.022274
    11 -0.032910 -1.480206 0.004936 -1.151858 0.000000 0.000002
    12 -0.027022 -1.076919 -0.020212 -1.614022 0.000000 0.000000
    13 -0.249534 -2.846962 -0.174215 -1.050358 -0.194024 -0.118379
    14 0.043235 -1.683940 0.096014 -1.469808 0.002823 -0.000167
    15 0.031729 -1.160831 0.058836 -1.575023 0.000642 0.008372
    16 -0.963866 -2.785142 -0.085346 -0.613115 -0.085997 -0.167478
    17 0.028479 -1.403069 0.006271 -1.239412 0.000000 0.000000
    18 0.021413 -0.957782 0.020047 -0.780553 0.000000 0.000000
    19 1.164474 -2.543938 -0.170328 -0.955776 -0.336135 0.112541
    20 0.024033 -1.129042 0.017806 -0.850024 0.000000 0.000001
    21 0.014896 -0.883989 -0.019845 -1.296687 0.000000 0.000000
    22 -0.586770 -1.264475 0.200164 -0.276792 -0.716336 -2.528363
    23 1.522835 0.058681 0.016850 -0.344090 -0.618929 0.446984
    24 1.117948 0.048424 -0.005764 -0.015535 -0.019469 0.727786
    25 -0.139399 -0.111697 0.014397 0.285382 -0.030687 1.580508
    26 -0.488517 -2.755600 -0.228261 -1.376484 -0.075298 -0.281316
    27 0.039888 -1.479789 0.029853 -0.928033 0.000000 0.000000
    28 0.028786 -1.075730 -0.023111 -1.481386 0.000000 0.000000
    29 0.250028 -2.820664 -0.238396 -1.075893 -0.014906 -0.312588
    30 -0.049759 -1.680545 0.100480 -1.463659 0.000000 -0.000002
    31 -0.034141 -1.148312 0.084779 -1.087312 0.000000 0.000000
    32 0.957766 -2.746776 -0.090301 -0.143359 -0.206189 -0.071012
    33 -0.033419 -1.397128 -0.011255 -0.779119 0.124808 -0.122316
    34 -0.022361 -0.957434 0.018783 -1.301913 0.000000 0.000000
    35 -1.180680 -2.507215 -0.193861 -1.224952 -0.001292 -0.303995
    36 -0.024966 -1.123935 0.017594 -0.977967 0.000000 0.000001
    37 -0.020057 -0.890966 0.010091 -0.933434 0.000000 0.000000
    38 0.583510 -1.197274 0.185377 0.272562 -1.003490 -0.533081
    39 1.535926 0.010244 0.005008 0.440185 -0.138733 -1.296648
    40 1.100770 0.004526 -0.010676 -0.011449 0.011491 -0.607432
    41 0.120152 -0.050266 -0.054488 0.287568 3.110905 1.561085
  time 10
    0 0.000000 0.789087 -0.054689 -0.038638 0.000000 0.000000
    1 6.650234 5.725005 -6.946960 0.769040 -1.860570 -0.716043
    2 -0.071918 -8.498732 -0.104137 -0.040387 0.285853 -0.039344
    3 1.851738 -3.358099 0.933068 -0.001979 0.003529 -3.611060
    4 0.109945 1.037267 0.000000 0.000000 0.000000 0.063337
    5 -0.795049 6.628533 0.000002 0.000001 0.000000 -0.047613
    6 -1.846357 7.578958 0.739989 0.000000 -0.000001 1.835736
    7 -1.762572 10.567569 -0.008215 0.000000 0.000000 1.835736
    8 -2.191908 -7.441431 -10.384848 -2.139194 -5.190312 -1.381951
    9 0.096944 -8.450418 -0.009364 0.008099 -0.249052 0.301514
    10 0.447952 -2.798983 -0.200442 -1.171631 -0.187313 0.022274
    11 -0.032910 -1.480206 0.004936 -1.151858 0.000000 0.000002
    12 -0.027022 -1.076919 -0.020212 -1.592415 0.000000 0.000000
    13 -0.249534 -2.846962 -0.174215 -1.050358 -0.194024 -0.118379
    14 0.043235 -1.683940 0.096014 -1.469808 0.002823 -0.000167
    15 0.031729 -1.160831 0.058836 -1.556520 0.000642 0.008372
    16 -0.963866 -2.785142 -0.085346 -0.613115 -0.085997 -0.167478
    17 0.028479 -1.403069 0.006271 -1.236299 0.000000 0.000000
    18 0.021413 -0.957782 0.020047 -0.780553 0.000000 0.000000
    19 1.164474 -2.543938 -0.170328 -0.955776 -0.336135 0.112541
    20 0.024033 -1.129042 0.017806 -0.850024 0.000000 0.000001
    21 0.014896 -0.883989 -0.019845 -1.287427 0.000000 0.000000
    22 -0.586770 -1.264475 0.200164 -0.276792 -0.716336 -2.528363
    23 1.522835 0.058681 0.016850 -0.346895 -0.619346 0.480318
    24 1.117948 0.048424 -0.005764 -0.015044 -0.019673 0.706172
    25 -0.139399 -0.111697 0.014397 0.285382 -0.030687 1.580508
    26 -0.488517 -2.755600 -0.228261 -1.376484 -0.075298 -0.281316
    27 0.039888 -1.479789 0.029853 -0.928033 0.000000 0.000000
    28 0.028786 -1.075730 -0.023111 -1.481386 0.000000 0.000000
    29 0.250028 -2.820664 -0.238396 -1.075893 -0.014906 -0.312588
    30 -0.049759 -1.680545 0.100480 -1.463659 0.000000 -0.000002
    31 -0.034141 -1.148312 0.084779 -1.087312 0.000000 0.000000
    32 0.957766 -2.746776 -0.090301 -0.143359 -0.206189 -0.071012
    33 -0.033419 -1.397128 -0.011255 -0.779119 0.124808 -0.122316
    34 -0.022361 -0.957434 0.018783 -1.281929 0.000000 0.000000
    35 -1.180680 -2.507215 -0.193861 -1.224952 -0.001292 -0.303995
    36 -0.024966 -1.123935 0.017594 -0.977967 0.000000 0.000001
    37 -0.020057 -0.890966 0.010091 -0.933434 0.000000 0.000000
    38 0.583510 -1.197274 0.185377 0.272562 -1.003490 -0.533081
    39 1.535926 0.010244 0.005008 0.440185 -0.138733 -1.296648
    40 1.100770 0.004526 -0.010676 -0.011449 0.011491 -0.607432
    41 0.120152 -0.050266 -0.054488 0.287568 3.110905 1.561085
  time 11
    0 0.000000 0.730491 -0.066408 -0.034420 0.000000 0.000000
    1 6.650234 5.725005 -6.946960 0.769040 -1.860570 -0.716043
    2 -0.071918 -8.498732 -0.104137 -0.039561 0.285961 -0.036432
    3 1.851738 -3.358099 0.933068 -0.001979 0.003529 -3.611060
    4 0.106038 1.052892 0.000000 0.000000 0.000000 0.063337
    5 -0.795049 6.628533 0.000002 0.000001 0.000000 -0.047613
    6 -1.846357 7.578958 0.739989 0.000000 -0.000001 1.835736
    7 -1.762572 10.567569 -0.008215 0.000000 0.000000 1.835736
    8 -2.191908 -7.464869 -10.361410 -2.137483 -5.190312 -1.381951
    9 0.096944 -8.450418 -0.009364 0.002255 -0.250284 0.301344
    10 0.447952 -2.798983 -0.200442 -1.171631 -0.187313 0.022274
    11 -0.032910 -1.480206 0.004936 -1.151858 0.000000 0.000002
    12 -0.027022 -1.076919 -0.020212 -1.567267 0.000000 0.000000
    13 -0.249534 -2.846962 -0.174215 -1.050358 -0.194024 -0.118379
    14 0.043235 -1.683940 0.096014 -1.469808 0.002823 -0.000167
    15 0.031729 -1.160831 0.058836 -1.534948 0.000642 0.008372
    16 -0.963866 -2.785142 -0.085346 -0.613115 -0.085997 -0.167478
    17 0.028479 -1.403069 0.006271 -1.232724 0.000000 0.000000
    18 0.021413 -0.957782 0.020047 -0.780553 0.000000 0.000000
    19 1.164474 -2.543938 -0.170328 -0.955776 -0.336135 0.112541
    20 0.024033 -1.129042 0.017806 -0.850024 0.000000 0.000001
    21 0.014896 -0.883989 -0.019845 -1.276636 0.000000 0.000000
    22 -0.586770 -1.264475 0.200164 -0.276792 -0.716336 -2.528363
    23 1.522835 0.058681 0.016850 -0.350141 -0.619826 0.519021
    24 1.117948 0.048424 -0.005764 -0.014481 -0.019925 0.681017
    25 -0.139399 -0.111697 0.014397 0.285382 -0.030687 1.580508
    26 -0.488517 -2.755600 -0.228261 -1.376484 -0.075298 -0.281316
    27 0.039888 -1.479789 0.029853 -0.928033 0.000000 0.000000
    28 0.028786 -1.075730 -0.023111 -1.481386 0.000000 0.000000
    29 0.250028 -2.820664 -0.238396 -1.075893 -0.014906 -0.312588
    30 -0.049759 -1.680545 0.100480 -1.463659 0.000000 -0.000002
    31 -0.034141 -1.148312 0.084779 -1.087312 0.000000 0.000000
    32 0.957766 -2.746776 -0.090301 -0.143359 -0.206189 -0.071012
    33 -0.033419 -1.397128 -0.011255 -0.779119 0.124808 -0.122316
    34 -0.022361 -0.957434 0.018783 -1.261092 0.000000 0.000000
    35 -1.180680 -2.507215 -0.193861 -1.224952 -0.001292 -0.303995
    36 -0.024966 -1.123935 0.017594 -0.977967 0.000000 0.000001
    37 -0.020057 -0.890966 0.010091 -0.933434 0.000000 0.000000
    38 0.583510 -1.197274 0.185377 0.272562 -1.003490 -0.533081
    39 1.535926 0.010244 0.005008 0.440185 -0.138733 -1.296648
    40 1.100770 0.004526 -0.010676 -0.011449 0.011491 -0.607432
    41 0.120152 -0.050266 -0.054488 0.287568 3.110905 1.561085
  time 12
    0 0.000000 0.671896 -0.074221 -0.030069 0.000000 0.000000
    1 6.650234 5.725005 -6.946960 0.769040 -1.860570 -0.716043
    2 -0.071918 -8.498732 -0.104137 -0.038647 0.286069 -0.033208
    3 1.851738 -3.358099 0.933068 -0.001979 0.003529 -3.611060
    4 0.102132 1.068518 0.000000 0.000000 0.000000 0.063337
    5 -0.795049 6.628533 0.000002 0.000001 0.000000 -0.047613
    6 -1.846357 7.578958 0.739989 0.000000 -0.000001 1.835736
    7 -1.762572 10.567569 -0.008215 0.000000 0.000000 1.835736
    8 -2.191908 -7.488308 -10.337971 -2.135772 -5.190312 -1.381951
    9 0.096944 -8.450418 -0.009364 -0.004302 -0.251637 0.301160
    10 0.447952 -2.798983 -0.200442 -1.171631 -0.187313 0.022274
    11 -0.032910 -1.480206 0.004936 -1.151858 0.000000 0.000002
    12 -0.027022 -1.076919 -0.020212 -1.539083 0.000000 0.000000
    13 -0.249534 -2.846962 -0.174215 -1.050358 -0.194024 -0.118379
    14 0.043235 -1.683940 0.096014 -1.469808 0.002823 -0.000167
    15 0.031729 -1.160831 0.058836 -1.510788 0.000642 0.008372
    16 -0.963866 -2.785142 -0.085346 -0.613115 -0.085997 -0.167478
    17 0.028479 -1.403069 0.006271 -1.228689 0.000000 0.000000
    18 0.021413 -0.957782 0.020047 -0.780553 0.000000 0.000000
    19 1.164474 -2.543938 -0.170328 -0.955776 -0.336135 0.112541
    20 0.024033 -1.129042 0.017806 -0.850024 0.000000 0.000001
    21 0.014896 -0.883989 -0.019845 -1.264583 0.000000 0.000000
    22 -0.586770 -1.264475 0.200164 -0.276792 -0.716336 -2.528363
    23 1.522835 0.058681 0.016850 -0.353785 -0.620368 0.562442
    24 1.117948 0.048424 -0.005764 -0.013834 -0.020200 0.652834
    25 -0.139399 -0.111697 0.014397 0.285382 -0.030687 1.580508
    26 -0.488517 -2.755600 -0.228261 -1.376484 -0.075298 -0.281316
    27 0.039888 -1.479789 0.029853 -0.928033 0.000000 0.000000
    28 0.028786 -1.075730 -0.023111 -1.481386 0.000000 0.000000
    29 0.250028 -2.820664 -0.238396 -1.075893 -0.014906 -0.312588
    30 -0.049759 -1.680545 0.100480 -1.463659 0.000000 -0.000002
    31 -0.034141 -1.148312 0.084779 -1.087312 0.000000 0.000000
    32 0.957766 -2.746776 -0.090301 -0.143359 -0.206189 -0.071012
    33 -0.033419 -1.397128 -0.011255 -0.779119 0.124808 -0.122316
    34 -0.022361 -0.957434 0.018783 -1.239617 0.000000 0.000000
    35 -1.180680 -2.507215 -0.193861 -1.224952 -0.001292 -0.303995
    36 -0.024966 -1.123935 0.017594 -0.977967 0.000000 0.000001
    37 -0.020057 -0.890966 0.010091 -0.933434 0.000000 0.000000
    38 0.583510 -1.197274 0.185377 0.272562 -1.003490 -0.533081
    39 1.535926 0.010244 0.005008 0.440185 -0.138733 -1.296648
    40 1.100770 0.004526 -0.010676 -0.011449 0.011491 -0.607432
    41 0.120152 -0.050266 -0.054488 0.287568 3.110905 1.561085
  time 13
    0 0.000000 0.609394 -0.085940 -0.025659 0.000000 0.000000
    1 6.650234 5.725005 -6.946960 0.769040 -1.860570 -0.716043
    2 -0.071918 -8.498732 -0.104137 -0.037671 0.286189 -0.029745
    3 1.851738 -3.358099 0.933068 -0.001979 0.003529 -3.611060
    4 0.098225 1.084143 0.000000 0.000000 0.000000 0.063337
    5 -0.795049 6.628533 0.000002 0.000001 0.000000 -0.047613
    6 -1.846357 7.578958 0.739989 0.000000 -0.000001 1.835736
    7 -1.762572 10.567569 -0.008215 0.000000 0.000000 1.835736
    8 -2.191908 -7.515652 -10.310627 -2.133925 -5.190312 -1.381951
    9 0.096944 -8.450418 -0.009364 -0.011453 -0.253135 0.300947
    10 0.447952 -2.798983 -0.200442 -1.171631 -0.187313 0.022274
    11 -0.032910 -1.480206 0.004936 -1.151858 0.000000 0.000002
    12 -0.027022 -1.076919 -0.020212 -1.508318 0.000000 0.000000
    13 -0.249534 -2.846962 -0.174215 -1.050358 -0.194024 -0.118379
    14 0.043235 -1.683940 0.096014 -1.469808 0.002823 -0.000167
    15 0.031729 -1.160831 0.058836 -1.484423 0.000642 0.008372
    16 -0.963866 -2.785142 -0.085346 -0.613115 -0.085997 -0.167478
    17 0.028479 -1.403069 0.006271 -1.224308 0.000000 0.000000
    18 0.021413 -0.957782 0.020047 -0.780553 0.000000 0.000000
    19 1.164474 -2.543938 -0.170328 -0.955776 -0.336135 0.112541
    20 0.024033 -1.129042 0.017806 -0.850024 0.000000 0.000001
    21 0.014896 -0.883989 -0.019845 -1.251381 0.000000 0.000000
    22 -0.586770 -1.264475 0.200164 -0.276792 -0.716336 -2.528363
    23 1.522835 0.058681 0.016850 -0.357760 -0.620952 0.609845
    24 1.117948 0.048424 -0.005764 -0.013126 -0.020512 0.622049
    25 -0.139399 -0.111697 0.014397 0.285382 -0.030687 1.580508
    26 -0.488517 -2.755600 -0.228261 -1.376484 -0.075298 -0.281316
    27 0.039888 -1.479789 0.029853 -0.928033 0.000000 0.000000
    28 0.028786 -1.075730 -0.023111 -1.481386 0.000000 0.000000
    29 0.250028 -2.820664 -0.238396 -1.075893 -0.014906 -0.312588
    30 -0.049759 -1.680545 0.100480 -1.463659 0.000000 -0.000002
    31 -0.034141 -1.148312 0.084779 -1.087312 0.000000 0.000000
    32 0.957766 -2.746776 -0.090301 -0.143359 -0.206189 -0.071012
    33 -0.033419 -1.397128 -0.011255 -0.779119 0.124808 -0.122316
    34 -0.022361 -0.957434 0.018783 -1.217843 0.000000 0.000000
    35 -1.180680 -2.507215 -0.193861 -1.224952 -0.001292 -0.303995
    36 -0.024966 -1.123935 0.017594 -0.977967 0.000000 0.000001
    37 -0.020057 -0.890966 0.010091 -0.933434 0.000000 0.000000
    38 0.583510 -1.197274 0.185377 0.272562 -1.003490 -0.533081
    39 1.535926 0.010244 0.005008 0.440185 -0.138733 -1.296648
    40 1.100770 0.004526 -0.010676 -0.011449 0.011491 -0.607432
    41 0.120152 -0.050266 -0.054488 0.287568 3.110905 1.561085
  time 14
    0 0.000000 0.546892 -0.093753 -0.021297 0.000000 0.000000
    1 6.650234 5.725005 -6.946960 0.769040 -1.860570 -0.716043
    2 -0.071918 -8.498732 -0.104137 -0.036633 0.286309 -0.026089
    3 1.851738 -3.358099 0.933068 -0.001979 0.003529 -3.611060
    4 0.094319 1.099769 0.000000 0.000000 0.000000 0.063337
    5 -0.795049 6.628533 0.000002 0.000001 0.000000 -0.047613
    6 -1.846357 7.578958 0.739989 0.000000 -0.000001 1.835736
    7 -1.762572 10.567569 -0.008215 0.000000 0.000000 1.835736
    8 -2.191908 -7.542997 -10.283282 -2.132077 -5.190312 -1.381951
    9 0.096944 -8.450418 -0.009364 -0.019099 -0.254730 0.300735
    10 0.447952 -2.798983 -0.200442 -1.171631 -0.187313 0.022274
    11 -0.032910 -1.480206 0.004936 -1.151858 0.000000 0.000002
    12 -0.027022 -1.076919 -0.020212 -1.475428 0.000000 0.000000
    13 -0.249534 -2.846962 -0.174215 -1.050358 -0.194024 -0.118379
    14 0.043235 -1.683940 0.096014 -1.469808 0.002823 -0.000167
    15 0.031729 -1.160831 0.058836 -1.456236 0.000642 0.008372
    16 -0.963866 -2.785142 -0.085346 -0.613115 -0.085997 -0.167478
    17 0.028479 -1.403069 0.006271 -1.219619 0.000000 0.000000
    18 0.021413 -0.957782 0.020047 -0.780553 0.000000 0.000000
    19 1.164474 -2.543938 -0.170328 -0.955776 -0.336135 0.112541
    20 0.024033 -1.129042 0.017806 -0.850024 0.000000 0.000001
    21 0.014896 -0.883989 -0.019845 -1.237300 0.000000 0.000000
    22 -0.586770 -1.264475 0.200164 -0.276792 -0.716336 -2.528363
    23 1.522835 0.058681 0.016850 -0.362022 -0.621599 0.660539
    24 1.117948 0.048424 -0.005764 -0.012383 -0.020836 0.589174
    25 -0.139399 -0.111697 0.014397 0.285382 -0.030687 1.580508
    26 -0.488517 -2.755600 -0.228261 -1.376484 -0.075298 -0.281316
    27 0.039888 -1.479789 0.029853 -0.928033 0.000000 0.000000
    28 0.028786 -1.075730 -0.023111 -1.481386 0.000000 0.000000
    29 0.250028 -2.820664 -0.238396 -1.075893 -0.014906 -0.312588
    30 -0.049759 -1.680545 0.100480 -1.463659 0.000000 -0.000002
    31 -0.034141 -1.148312 0.084779 -1.087312 0.000000 0.000000
    32 0.957766 -2.746776 -0.090301 -0.143359 -0.206189 -0.071012
    33 -0.033419 -1.397128 -0.011255 -0.779119 0.124808 -0.122316
    34 -0.022361 -0.957434 0.018783 -1.196111 0.000000 0.000000
    35 -1.180680 -2.507215 -0.193861 -1.224952 -0.001292 -0.303995
    36 -0.024966 -1.123935 0.017594 -0.977967 0.000000 0.000001
    37 -0.020057 -0.890966 0.010091 -0.933434 0.000000 0.000000
    38 0.583510 -1.197274 0.185377 0.272562 -1.003490 -0.533081
    39 1.535926 0.010244 0.005008 0.440185 -0.138733 -1.296648
    40 1.100770 0.004526 -0.010676 -0.011449 0.011491 -0.607432
    41 0.120152 -0.050266 -0.054488 0.287568 3.110905 1.561085
  time 15
    0 0.000000 0.488296 -0.105472 -0.017090 0.000000 0.000000
    1 6.650234 5.725005 -6.946960 0.769040 -1.860570 -0.716043
    2 -0.071918 -8.498732 -0.104137 -0.035569 0.286440 -0.022326
    3 1.851738 -3.358099 0.933068 -0.001979 0.003529 -3.611060
    4 0.090413 1.111488 0.000000 0.000000 0.000000 0.063337
    5 -0.795049 6.628533 0.000002 0.000001 0.000000 -0.047613
    6 -1.846357 7.578958 0.739989 0.000000 -0.000001 1.835736
    7 -1.762572 10.567569 -0.008215 0.000000 0.000000 1.835736
    8 -2.191908 -7.570341 -10.252031 -2.130161 -5.190312 -1.381951
    9 0.096944 -8.450418 -0.009364 -0.027121 -0.256421 0.300509
    10 0.447952 -2.798983 -0.200442 -1.171631 -0.187313 0.022274
    11 -0.032910 -1.480206 0.004936 -1.151858 0.000000 0.000002
    12 -0.027022 -1.076919 -0.020212 -1.440919 0.000000 0.000000
    13 -0.249534 -2.846962 -0.174215 -1.050358 -0.194024 -0.118379
    14 0.043235 -1.683940 0.096014 -1.469808 0.002823 -0.000167
    15 0.031729 -1.160831 0.058836 -1.426659 0.000642 0.008372
    16 -0.963866 -2.785142 -0.085346 -0.613115 -0.085997 -0.167478
    17 0.028479 -1.403069 0.006271 -1.214661 0.000000 0.000000
    18 0.021413 -0.957782 0.020047 -0.780553 0.000000 0.000000
    19 1.164474 -2.543938 -0.170328 -0.955776 -0.336135 0.112541
    20 0.024033 -1.129042 0.017806 -0.850024 0.000000 0.000001
    21 0.014896 -0.883989 -0.019845 -1.222491 0.000000 0.000000
    22 -0.586770 -1.264475 0.200164 -0.276792 -0.716336 -2.528363
    23 1.522835 0.058681 0.016850 -0.366483 -0.622266 0.713701
    24 1.117948 0.048424 -0.005764 -0.011592 -0.021171 0.554635
    25 -0.139399 -0.111697 0.014397 0.285382 -0.030687 1.580508
    26 -0.488517 -2.755600 -0.228261 -1.376484 -0.075298 -0.281316
    27 0.039888 -1.479789 0.029853 -0.928033 0.000000 0.000000
    28 0.028786 -1.075730 -0.023111 -1.481386 0.000000 0.000000
    29 0.250028 -2.820664 -0.238396 -1.075893 -0.014906 -0.312588
    30 -0.049759 -1.680545 0.100480 -1.463659 0.000000 -0.000002
    31 -0.034141 -1.148312 0.084779 -1.087312 0.000000 0.000000
    32 0.957766 -2.746776 -0.090301 -0.143359 -0.206189 -0.071012
    33 -0.033419 -1.397128 -0.011255 -0.779119 0.124808 -0.122316
    34 -0.022361 -0.957434 0.018783 -1.174635 0.000000 0.000000
    35 -1.180680 -2.507215 -0.193861 -1.224952 -0.001292 -0.303995
    36 -0.024966 -1.123935 0.017594 -0.977967 0.000000 0.000001
    37 -0.020057 -0.890966 0.010091 -0.933434 0.000000 0.000000
    38 0.583510 -1.197274 0.185377 0.272562 -1.003490 -0.533081
    39 1.535926 0.010244 0.005008 0.440185 -0.138733 -1.296648
    40 1.100770 0.004526 -0.010676 -0.011449 0.011491 -0.607432
    41 0.120152 -0.050266 -0.054488 0.287568 3.110905 1.561085
  time 16
    0 0.000000 0.425794 -0.113285 -0.013123 0.000000 0.000000
    1 6.650234 5.725005 -6.946960 0.769040 -1.860570 -0.716043
    2 -0.071918 -8.498732 -0.104137 -0.034493 0.286572 -0.018527
    3 1.851738 -3.358099 0.933068 -0.001979 0.003529 -3.611060
    4 0.086506 1.123207 0.000000 0.000000 0.000000 0.063337
    5 -0.795049 6.628533 0.000002 0.000001 0.000000 -0.047613
    6 -1.846357 7.578958 0.739989 0.000000 -0.000001 1.835736
    7 -1.762572 10.567569 -0.008215 0.000000 0.000000 1.835736
    8 -2.191908 -7.593779 -10.224687 -2.128314 -5.190312 -1.381951
    9 0.096944 -8.450418 -0.009364 -0.035401 -0.258137 0.300268
    10 0.447952 -2.798983 -0.200442 -1.171631 -0.187313 0.022274
    11 -0.032910 -1.480206 0.004936 -1.151858 0.000000 0.000002
    12 -0.027022 -1.076919 -0.020212 -1.405246 0.000000 0.000000
    13 -0.249534 -2.846962 -0.174215 -1.050358 -0.194024 -0.118379
    14 0.043235 -1.683940 0.096014 -1.469808 0.002823 -0.000167
    15 0.031729 -1.160831 0.058836 -1.396075 0.000642 0.008372
    16 -0.963866 -2.785142 -0.085346 -0.613115 -0.085997 -0.167478
    17 0.028479 -1.403069 0.006271 -1.209588 0.000000 0.000000
    18 0.021413 -0.957782 0.020047 -0.780553 0.000000 0.000000
    19 1.164474 -2.543938 -0.170328 -0.955776 -0.336135 0.112541
    20 0.024033 -1.129042 0.017806 -0.850024 0.000000 0.000001
    21 0.014896 -0.883989 -0.019845 -1.207185 0.000000 0.000000
    22 -0.586770 -1.264475 0.200164 -0.276792 -0.716336 -2.528363
    23 1.522835 0.058681 0.016850 -0.371099 -0.622955 0.768723
    24 1.117948 0.048424 -0.005764 -0.010789 -0.021519 0.518945
    25 -0.139399 -0.111697 0.014397 0.285382 -0.030687 1.580508
    26 -0.488517 -2.755600 -0.228261 -1.376484 -0.075298 -0.281316
    27 0.039888 -1.479789 0.029853 -0.928033 0.000000 0.000000
    28 0.028786 -1.075730 -0.023111 -1.481386 0.000000 0.000000
    29 0.250028 -2.820664 -0.238396 -1.075893 -0.014906 -0.312588
    30 -0.049759 -1.680545 0.100480 -1.463659 0.000000 -0.000002
    31 -0.034141 -1.148312 0.084779 -1.087312 0.000000 0.000000
    32 0.957766 -2.746776 -0.090301 -0.143359 -0.206189 -0.071012
    33 -0.033419 -1.397128 -0.011255 -0.779119 0.124808 -0.122316
    34 -0.022361 -0.957434 0.018783 -1.153756 0.000000 0.000000
    35 -1.180680 -2.507215 -0.193861 -1.224952 -0.001292 -0.303995
    36 -0.024966 -1.123935 0.017594 -0.977967 0.000000 0.000001
    37 -0.020057 -0.890966 0.010091 -0.933434 0.000000 0.000000
    38 0.583510 -1.197274 0.185377 0.272562 -1.003490 -0.533081
    39 1.535926 0.010244 0.005008 0.440185 -0.138733 -1.296648
    40 1.100770 0.004526 -0.010676 -0.011449 0.011491 -0.607432
    41 0.120152 -0.050266 -0.054488 0.287568 3.110905 1.561085
  time 17
    0 0.000000 0.367199 -0.121097 -0.009504 0.000000 0.000000
    1 6.650234 5.725005 -6.946960 0.769040 -1.860570 -0.716043
    2 -0.071918 -8.498732 -0.104137 -0.033429 0.286704 -0.014740
    3 1.851738 -3.358099 0.933068 -0.001979 0.003529 -3.611060
    4 0.082600 1.134926 0.000000 0.000000 0.000000 0.063337
    5 -0.795049 6.628533 0.000002 0.000001 0.000000 -0.047613
    6 -1.846357 7.578958 0.739989 0.000000 -0.000001 1.835736
    7 -1.762572 10.567569 -0.008215 0.000000 0.000000 1.835736
    8 -2.191908 -7.617218 -10.193436 -2.126398 -5.190312 -1.381951
    9 0.096944 -8.450418 -0.009364 -0.043860 -0.259925 0.300042
    10 0.447952 -2.798983 -0.200442 -1.171631 -0.187313 0.022274
    11 -0.032910 -1.480206 0.004936 -1.151858 0.000000 0.000002
    12 -0.027022 -1.076919 -0.020212 -1.368814 0.000000 0.000000
    13 -0.249534 -2.846962 -0.174215 -1.050358 -0.194024 -0.118379
    14 0.043235 -1.683940 0.096014 -1.469808 0.002823 -0.000167
    15 0.031729 -1.160831 0.058836 -1.364868 0.000642 0.008372
    16 -0.963866 -2.785142 -0.085346 -0.613115 -0.085997 -0.167478
    17 0.028479 -1.403069 0.006271 -1.204361 0.000000 0.000000
    18 0.021413 -0.957782 0.020047 -0.780553 0.000000 0.000000
    19 1.164474 -2.543938 -0.170328 -0.955776 -0.336135 0.112541
    20 0.024033 -1.129042 0.017806 -0.850024 0.000000 0.000001
    21 0.014896 -0.883989 -0.019845 -1.191611 0.000000 0.000000
    22 -0.586770 -1.264475 0.200164 -0.276792 -0.716336 -2.528363
    23 1.522835 0.058681 0.016850 -0.375802 -0.623643 0.824785
    24 1.117948 0.048424 -0.005764 -0.009951 -0.021878 0.482529
    25 -0.139399 -0.111697 0.014397 0.285382 -0.030687 1.580508
    26 -0.488517 -2.755600 -0.228261 -1.376484 -0.075298 -0.281316
    27 0.039888 -1.479789 0.029853 -0.928033 0.000000 0.000000
    28 0.028786 -1.075730 -0.023111 -1.481386 0.000000 0.000000
    29 0.250028 -2.820664 -0.238396 -1.075893 -0.014906 -0.312588
    30 -0.049759 -1.680545 0.100480 -1.463659 0.000000 -0.000002
    31 -0.034141 -1.148312 0.084779 -1.087312 0.000000 0.000000
    32 0.957766 -2.746776 -0.090301 -0.143359 -0.206189 -0.071012
    33 -0.033419 -1.397128 -0.011255 -0.779119 0.124808 -0.122316
    34 -0.022361 -0.957434 0.018783 -1.133814 0.000000 0.000000
    35 -1.180680 -2.507215 -0.193861 -1.224952 -0.001292 -0.303995
    36 -0.024966 -1.123935 0.017594 -0.977967 0.000000 0.000001
    37 -0.020057 -0.890966 0.010091 -0.933434 0.000000 0.000000
    38 0.583510 -1.197274 0.185377 0.272562 -1.003490 -0.533081
    39 1.535926 0.010244 0.005008 0.440185 -0.138733 -1.296648
    40 1.100770 0.004526 -0.010676 -0.011449 0.011491 -0.607432
    41 0.120152 -0.050266 -0.054488 0.287568 3.110905 1.561085
  time 18
    0 0.000000 0.308603 -0.128910 -0.006316 0.000000 0.000000
    1 6.650234 5.725005 -6.946960 0.769040 -1.860570 -0.716043
    2 -0.071918 -8.498732 -0.104137 -0.032391 0.286836 -0.011049
    3 1.851738 -3.358099 0.933068 -0.001979 0.003529 -3.611060
    4 0.082600 1.142739 0.000000 0.000000 0.000000 0.063337
    5 -0.795049 6.628533 0.000002 0.000001 0.000000 -0.047613
    6 -1.846357 7.578958 0.739989 0.000000 -0.000001 1.835736
    7 -1.762572 10.567569 -0.008215 0.000000 0.000000 1.835736
    8 -2.191908 -7.640656 -10.166091 -2.124550 -5.190312 -1.381951
    9 0.096944 -8.450418 -0.009364 -0.052378 -0.261689 0.299787
    10 0.447952 -2.798983 -0.200442 -1.171631 -0.187313 0.022274
    11 -0.032910 -1.480206 0.004936 -1.151858 0.000000 0.000002
    12 -0.027022 -1.076919 -0.020212 -1.332179 0.000000 0.000000
    13 -0.249534 -2.846962 -0.174215 -1.050358 -0.194024 -0.118379
    14 0.043235 -1.683940 0.096014 -1.469808 0.002823 -0.000167
    15 0.031729 -1.160831 0.058836 -1.333469 0.000642 0.008372
    16 -0.963866 -2.785142 -0.085346 -0.613115 -0.085997 -0.167478
    17 0.028479 -1.403069 0.006271 -1.199135 0.000000 0.000000
    18 0.021413 -0.957782 0.020047 -0.780553 0.000000 0.000000
    19 1.164474 -2.543938 -0.170328 -0.955776 -0.336135 0.112541
    20 0.024033 -1.129042 0.017806 -0.850024 0.000000 0.000001
    21 0.014896 -0.883989 -0.019845 -1.175923 0.000000 0.000000
    22 -0.586770 -1.264475 0.200164 -0.276792 -0.716336 -2.528363
    23 1.522835 0.058681 0.016850 -0.380550 -0.624352 0.881237
    24 1.117948 0.048424 -0.005764 -0.009124 -0.022238 0.445901
    25 -0.139399 -0.111697 0.014397 0.285382 -0.030687 1.580508
    26 -0.488517 -2.755600 -0.228261 -1.376484 -0.075298 -0.281316
    27 0.039888 -1.479789 0.029853 -0.928033 0.000000 0.000000
    28 0.028786 -1.075730 -0.023111 -1.481386 0.000000 0.000000
    29 0.250028 -2.820664 -0.238396 -1.075893 -0.014906 -0.312588
    30 -0.049759 -1.680545 0.100480 -1.463659 0.000000 -0.000002
    31 -0.034141 -1.148312 0.084779 -1.087312 0.000000 0.000000
    32 0.957766 -2.746776 -0.090301 -0.143359 -0.206189 -0.071012
    33 -0.033419 -1.397128 -0.011255 -0.779119 0.124808 -0.122316
    34 -0.022361 -0.957434 0.018783 -1.115108 0.000000 0.000000
    35 -1.180680 -2.507215 -0.193861 -1.224952 -0.001292 -0.303995
    36 -0.024966 -1.123935 0.017594 -0.977967 0.000000 0.000001
    37 -0.020057 -0.890966 0.010091 -0.933434 0.000000 0.000000
    38 0.583510 -1.197274 0.185377 0.272562 -1.003490 -0.533081
    39 1.535926 0.010244 0.005008 0.440185 -0.138733 -1.296648
    40 1.100770 0.004526 -0.010676 -0.011449 0.011491 -0.607432
    41 0.120152 -0.050266 -0.054488 0.287568 3.110905 1.561085
  time 19
    0 0.000000 0.257820 -0.132817 -0.003667 0.000000 0.000000
    1 6.650234 5.725005 -6.946960 0.769040 -1.860570 -0.716043
    2 -0.071918 -8.498732 -0.104137 -0.031390 0.286956 -0.007501
    3 1.851738 -3.358099 0.933068 -0.001979 0.003529 -3.611060
    4 0.082600 1.146645 0.000000 0.000000 0.000000 0.063337
    5 -0.795049 6.628533 0.000002 0.000001 0.000000 -0.047613
    6 -1.846357 7.578958 0.739989 0.000000 -0.000001 1.835736
    7 -1.762572 10.567569 -0.008215 0.000000 0.000000 1.835736
    8 -2.191908 -7.656281 -10.138747 -2.122702 -5.190312 -1.381951
    9 0.096944 -8.450418 -0.009364 -0.060856 -0.263452 0.299560
    10 0.447952 -2.798983 -0.200442 -1.171631 -0.187313 0.022274
    11 -0.032910 -1.480206 0.004936 -1.151858 0.000000 0.000002
    12 -0.027022 -1.076919 -0.020212 -1.295798 0.000000 0.000000
    13 -0.249534 -2.846962 -0.174215 -1.050358 -0.194024 -0.118379
    14 0.043235 -1.683940 0.096014 -1.469808 0.002823 -0.000167
    15 0.031729 -1.160831 0.058836 -1.302263 0.000642 0.008372
    16 -0.963866 -2.785142 -0.085346 -0.613115 -0.085997 -0.167478
    17 0.028479 -1.403069 0.006271 -1.193946 0.000000 0.000000
    18 0.021413 -0.957782 0.020047 -0.780553 0.000000 0.000000
    19 1.164474 -2.543938 -0.170328 -0.955776 -0.336135 0.112541
    20 0.024033 -1.129042 0.017806 -0.850024 0.000000 0.000001
    21 0.014896 -0.883989 -0.019845 -1.160311 0.000000 0.000000
    22 -0.586770 -1.264475 0.200164 -0.276792 -0.716336 -2.528363
    23 1.522835 0.058681 0.016850 -0.385254 -0.625062 0.937299
    24 1.117948 0.048424 -0.005764 -0.008297 -0.022597 0.409484
    25 -0.139399 -0.111697 0.014397 0.285382 -0.030687 1.580508
    26 -0.488517 -2.755600 -0.228261 -1.376484 -0.075298 -0.281316
    27 0.039888 -1.479789 0.029853 -0.928033 0.000000 0.000000
    28 0.028786 -1.075730 -0.023111 -1.481386 0.000000 0.000000
    29 0.250028 -2.820664 -0.238396 -1.075893 -0.014906 -0.312588
    30 -0.049759 -1.680545 0.100480 -1.463659 0.000000 -0.000002
    31 -0.034141 -1.148312 0.084779 -1.087312 0.000000 0.000000
    32 0.957766 -2.746776 -0.090301 -0.143359 -0.206189 -0.071012
    33 -0.033419 -1.397128 -0.011255 -0.779119 0.124808 -0.122316
    34 -0.022361 -0.957434 0.018783 -1.097894 0.000000 0.000000
    35 -1.180680 -2.507215 -0.193861 -1.224952 -0.001292 -0.303995
    36 -0.024966 -1.123935 0.017594 -0.977967 0.000000 0.000001
    37 -0.020057 -0.890966 0.010091 -0.933434 0.000000 0.000000
    38 0.583510 -1.197274 0.185377 0.272562 -1.003490 -0.533081
    39 1.535926 0.010244 0.005008 0.440185 -0.138733 -1.296648
    40 1.100770 0.004526 -0.010676 -0.011449 0.011491 -0.607432
    41 0.120152 -0.050266 -0.054488 0.287568 3.110905 1.561085
  time 20
    0 0.000000 0.207038 -0.136723 -0.001654 0.000000 0.000000
    1 6.650234 5.725005 -6.946960 0.769040 -1.860570 -0.716043
    2 -0.071918 -8.498732 -0.104137 -0.030451 0.287064 -0.004181
    3 1.851738 -3.358099 0.933068 -0.001979 0.003529 -3.611060
    4 0.082600 1.146645 0.000000 0.000000 0.000000 0.063337
    5 -0.795049 6.628533 0.000002 0.000001 0.000000 -0.047613
    6 -1.846357 7.578958 0.739989 0.000000 -0.000001 1.835736
    7 -1.762572 10.567569 -0.008215 0.000000 0.000000 1.835736
    8 -2.188002 -7.671907 -10.111402 -2.120923 -5.190312 -1.381951
    9 0.096944 -8.450418 -0.009364 -0.069156 -0.265192 0.299320
    10 0.447952 -2.798983 -0.200442 -1.171631 -0.187313 0.022274
    11 -0.032910 -1.480206 0.004936 -1.151858 0.000000 0.000002
    12 -0.027022 -1.076919 -0.020212 -1.260125 0.000000 0.000000
    13 -0.249534 -2.846962 -0.174215 -1.050358 -0.194024 -0.118379
    14 0.043235 -1.683940 0.096014 -1.469808 0.002823 -0.000167
    15 0.031729 -1.160831 0.058836 -1.271679 0.000642 0.008372
    16 -0.963866 -2.785142 -0.085346 -0.613115 -0.085997 -0.167478
    17 0.028479 -1.403069 0.006271 -1.188835 0.000000 0.000000
    18 0.021413 -0.957782 0.020047 -0.780553 0.000000 0.000000
    19 1.164474 -2.543938 -0.170328 -0.955776 -0.336135 0.112541
    20 0.024033 -1.129042 0.017806 -0.850024 0.000000 0.000001
    21 0.014896 -0.883989 -0.019845 -1.145004 0.000000 0.000000
    22 -0.586770 -1.264475 0.200164 -0.276792 -0.716336 -2.528363
    23 1.522835 0.058681 0.016850 -0.389870 -0.625750 0.992278
    24 1.117948 0.048424 -0.005764 -0.007482 -0.022957 0.373795
    25 -0.139399 -0.111697 0.014397 0.285382 -0.030687 1.580508
    26 -0.488517 -2.755600 -0.228261 -1.376484 -0.075298 -0.281316
    27 0.039888 -1.479789 0.029853 -0.928033 0.000000 0.000000
    28 0.028786 -1.075730 -0.023111 -1.481386 0.000000 0.000000
    29 0.250028 -2.820664 -0.238396 -1.075893 -0.014906 -0.312588
    30 -0.049759 -1.680545 0.100480 -1.463659 0.000000 -0.000002
    31 -0.034141 -1.148312 0.084779 -1.087312 0.000000 0.000000
    32 0.957766 -2.746776 -0.090301 -0.143359 -0.206189 -0.071012
    33 -0.033419 -1.397128 -0.011255 -0.779119 0.124808 -0.122316
    34 -0.022361 -0.957434 0.018783 -1.082469 0.000000 0.000000
    35 -1.180680 -2.507215 -0.193861 -1.224952 -0.001292 -0.303995
    36 -0.024966 -1.123935 0.017594 -0.977967 0.000000 0.000001
    37 -0.020057 -0.890966 0.010091 -0.933434 0.000000 0.000000
    38 0.583510 -1.197274 0.185377 0.272562 -1.003490 -0.533081
    39 1.535926 0.010244 0.005008 0.440185 -0.138733 -1.296648
    40 1.100770 0.004526 -0.010676 -0.011449 0.011491 -0.607432
    41 0.120152 -0.050266 -0.054488 0.287568 3.110905 1.561085
  time 21
    0 0.000000 0.160161 -0.140629 -0.000384 0.000000 0.000000
    1 6.650234 5.725005 -6.946960 0.769040 -1.860570 -0.716043
    2 -0.071918 -8.498732 -0.104137 -0.029588 0.287160 -0.001161
    3 1.851738 -3.358099 0.933068 -0.001979 0.003529 -3.611060
    4 0.082600 1.146645 0.000000 0.000000 0.000000 0.063337
    5 -0.795049 6.628533 0.000002 0.000001 0.000000 -0.047613
    6 -1.846357 7.578958 0.739989 0.000000 -0.000001 1.835736
    7 -1.762572 10.567569 -0.008215 0.000000 0.000000 1.835736
    8 -2.188002 -7.679720 -10.084057 -2.119281 -5.190312 -1.381951
    9 0.096944 -8.450418 -0.009364 -0.077178 -0.266859 0.299093
    10 0.447952 -2.798983 -0.200442 -1.171631 -0.187313 0.022274
    11 -0.032910 -1.480206 0.004936 -1.151858 0.000000 0.000002
    12 -0.027022 -1.076919 -0.020212 -1.225565 0.000000 0.000000
    13 -0.249534 -2.846962 -0.174215 -1.050358 -0.194024 -0.118379
    14 0.043235 -1.683940 0.096014 -1.469808 0.002823 -0.000167
    15 0.031729 -1.160831 0.058836 -1.242054 0.000642 0.008372
    16 -0.963866 -2.785142 -0.085346 -0.613115 -0.085997 -0.167478
    17 0.028479 -1.403069 0.006271 -1.183915 0.000000 0.000000
    18 0.021413 -0.957782 0.020047 -0.780553 0.000000 0.000000
    19 1.164474 -2.543938 -0.170328 -0.955776 -0.336135 0.112541
    20 0.024033 -1.129042 0.017806 -0.850024 0.000000 0.000001
    21 0.014896 -0.883989 -0.019845 -1.130196 0.000000 0.000000
    22 -0.586770 -1.264475 0.200164 -0.276792 -0.716336 -2.528363
    23 1.522835 0.058681 0.016850 -0.394331 -0.626418 1.045483
    24 1.117948 0.048424 -0.005764 -0.006691 -0.023292 0.339255
    25 -0.139399 -0.111697 0.014397 0.285382 -0.030687 1.580508
    26 -0.488517 -2.755600 -0.228261 -1.376484 -0.075298 -0.281316
    27 0.039888 -1.479789 0.029853 -0.928033 0.000000 0.000000
    28 0.028786 -1.075730 -0.023111 -1.481386 0.000000 0.000000
    29 0.250028 -2.820664 -0.238396 -1.075893 -0.014906 -0.312588
    30 -0.049759 -1.680545 0.100480 -1.463659 0.000000 -0.000002
    31 -0.034141 -1.148312 0.084779 -1.087312 0.000000 0.000000
    32 0.957766 -2.746776 -0.090301 -0.143359 -0.206189 -0.071012
    33 -0.033419 -1.397128 -0.011255 -0.779119 0.124808 -0.122316
    34 -0.022361 -0.957434 0.018783 -1.069174 0.000000 0.000000
    35 -1.180680 -2.507215 -0.193861 -1.224952 -0.001292 -0.303995
    36 -0.024966 -1.123935 0.017594 -0.977967 0.000000 0.000001
    37 -0.020057 -0.890966 0.010091 -0.933434 0.000000 0.000000
    38 0.583510 -1.197274 0.185377 0.272562 -1.003490 -0.533081
    39 1.535926 0.010244 0.005008 0.440185 -0.138733 -1.296648
    40 1.100770 0.004526 -0.010676 -0.011449 0.011491 -0.607432
    41 0.120152 -0.050266 -0.054488 0.287568 3.110905 1.561085
  time 22
    0 0.000000 0.121097 -0.140629 0.000060 0.000000 0.000000
    1 6.650234 5.725005 -6.946960 0.769040 -1.860570 -0.716043
    2 -0.071918 -8.498732 -0.104137 -0.028837 0.287255 0.001511
    3 1.851738 -3.358099 0.933068 -0.001979 0.003529 -3.611060
    4 0.082600 1.146645 0.000000 0.000000 0.000000 0.063337
    5 -0.795049 6.628533 0.000002 0.000001 0.000000 -0.047613
    6 -1.846357 7.578958 0.739989 0.000000 -0.000001 1.835736
    7 -1.762572 10.567569 -0.008215 0.000000 0.000000 1.835736
    8 -2.188002 -7.683626 -10.064526 -2.117707 -5.190312 -1.381951
    9 0.096944 -8.450418 -0.009364 -0.084825 -0.268454 0.298881
    10 0.447952 -2.798983 -0.200442 -1.171631 -0.187313 0.022274
    11 -0.032910 -1.480206 0.004936 -1.151858 0.000000 0.000002
    12 -0.027022 -1.076919 -0.020212 -1.192725 0.000000 0.000000
    13 -0.249534 -2.846962 -0.174215 -1.050358 -0.194024 -0.118379
    14 0.043235 -1.683940 0.096014 -1.469808 0.002823 -0.000167
    15 0.031729 -1.160831 0.058836 -1.213867 0.000642 0.008372
    16 -0.963866 -2.785142 -0.085346 -0.613115 -0.085997 -0.167478
    17 0.028479 -1.403069 0.006271 -1.179227 0.000000 0.000000
    18 0.021413 -0.957782 0.020047 -0.780553 0.000000 0.000000
    19 1.164474 -2.543938 -0.170328 -0.955776 -0.336135 0.112541
    20 0.024033 -1.129042 0.017806 -0.850024 0.000000 0.000001
    21 0.014896 -0.883989 -0.019845 -1.116114 0.000000 0.000000
    22 -0.586770 -1.264475 0.200164 -0.276792 -0.716336 -2.528363
    23 1.522835 0.058681 0.016850 -0.398593 -0.627043 1.096134
    24 1.117948 0.048424 -0.005764 -0.005948 -0.023616 0.306381
    25 -0.139399 -0.111697 0.014397 0.285382 -0.030687 1.580508
    26 -0.488517 -2.755600 -0.228261 -1.376484 -0.075298 -0.281316
    27 0.039888 -1.479789 0.029853 -0.928033 0.000000 0.000000
    28 0.028786 -1.075730 -0.023111 -1.481386 0.000000 0.000000
    29 0.250028 -2.820664 -0.238396 -1.075893 -0.014906 -0.312588
    30 -0.049759 -1.680545 0.100480 -1.463659 0.000000 -0.000002
    31 -0.034141 -1.148312 0.084779 -1.087312 0.000000 0.000000
    32 0.957766 -2.746776 -0.090301 -0.143359 -0.206189 -0.071012
    33 -0.033419 -1.397128 -0.011255 -0.779119 0.124808 -0.122316
    34 -0.022361 -0.957434 0.018783 -1.058309 0.000000 0.000000
    35 -1.180680 -2.507215 -0.193861 -1.224952 -0.001292 -0.303995
    36 -0.024966 -1.123935 0.017594 -0.977967 0.000000 0.000001
    37 -0.020057 -0.890966 0.010091 -0.933434 0.000000 0.000000
    38 0.583510 -1.197274 0.185377 0.272562 -1.003490 -0.533081
    39 1.535926 0.010244 0.005008 0.440185 -0.138733 -1.296648
    40 1.100770 0.004526 -0.010676 -0.011449 0.011491 -0.607432
    41 0.120152 -0.050266 -0.054488 0.287568 3.110905 1.561085
  time 23
    0 0.000000 0.085940 -0.136723 0.000060 0.000000 0.000000
    1 6.650234 5.725005 -6.946960 0.769040 -1.860570 -0.716043
    2 -0.071918 -8.498732 -0.104137 -0.028137 0.287327 0.003980
    3 1.851738 -3.358099 0.933068 -0.001979 0.003529 -3.611060
    4 0.082600 1.146645 0.000000 0.000000 0.000000 0.063337
    5 -0.795049 6.628533 0.000002 0.000001 0.000000 -0.047613
    6 -1.846357 7.578958 0.739989 0.000000 -0.000001 1.835736
    7 -1.762572 10.567569 -0.008215 0.000000 0.000000 1.835736
    8 -2.188002 -7.683626 -10.041087 -2.116270 -5.190312 -1.381951
    9 0.096944 -8.450418 -0.009364 -0.091976 -0.269952 0.298669
    10 0.447952 -2.798983 -0.200442 -1.171631 -0.187313 0.022274
    11 -0.032910 -1.480206 0.004936 -1.151858 0.000000 0.000002
    12 -0.027022 -1.076919 -0.020212 -1.161910 0.000000 0.000000
    13 -0.249534 -2.846962 -0.174215 -1.050358 -0.194024 -0.118379
    14 0.043235 -1.683940 0.096014 -1.469808 0.002823 -0.000167
    15 0.031729 -1.160831 0.058836 -1.187502 0.000642 0.008372
    16 -0.963866 -2.785142 -0.085346 -0.613115 -0.085997 -0.167478
    17 0.028479 -1.403069 0.006271 -1.174807 0.000000 0.000000
    18 0.021413 -0.957782 0.020047 -0.780553 0.000000 0.000000
    19 1.164474 -2.543938 -0.170328 -0.955776 -0.336135 0.112541
    20 0.024033 -1.129042 0.017806 -0.850024 0.000000 0.000001
    21 0.014896 -0.883989 -0.019845 -1.102951 0.000000 0.000000
    22 -0.586770 -1.264475 0.200164 -0.276792 -0.716336 -2.528363
    23 1.522835 0.058681 0.016850 -0.402568 -0.627648 1.143537
    24 1.117948 0.048424 -0.005764 -0.005241 -0.023916 0.275595
    25 -0.139399 -0.111697 0.014397 0.285382 -0.030687 1.580508
    26 -0.488517 -2.755600 -0.228261 -1.376484 -0.075298 -0.281316
    27 0.039888 -1.479789 0.029853 -0.928033 0.000000 0.000000
    28 0.028786 -1.075730 -0.023111 -1.481386 0.000000 0.000000
    29 0.250028 -2.820664 -0.238396 -1.075893 -0.014906 -0.312588
    30 -0.049759 -1.680545 0.100480 -1.463659 0.000000 -0.000002
    31 -0.034141 -1.148312 0.084779 -1.087312 0.000000 0.000000
    32 0.957766 -2.746776 -0.090301 -0.143359 -0.206189 -0.071012
    33 -0.033419 -1.397128 -0.011255 -0.779119 0.124808 -0.122316
    34 -0.022361 -0.957434 0.018783 -1.050213 0.000000 0.000000
    35 -1.180680 -2.507215 -0.193861 -1.224952 -0.001292 -0.303995
    36 -0.024966 -1.123935 0.017594 -0.977967 0.000000 0.000001
    37 -0.020057 -0.890966 0.010091 -0.933434 0.000000 0.000000
    38 0.583510 -1.197274 0.185377 0.272562 -1.003490 -0.533081
    39 1.535926 0.010244 0.005008 0.440185 -0.138733 -1.296648
    40 1.100770 0.004526 -0.010676 -0.011449 0.011491 -0.607432
    41 0.120152 -0.050266 -0.054488 0.287568 3.110905 1.561085
  time 24
    0 0.000000 0.058596 -0.117191 0.000048 0.000000 0.000000
    1 6.650234 5.725005 -6.946960 0.769040 -1.860570 -0.716043
    2 -0.071918 -8.498732 -0.104137 -0.027461 0.287399 0.006389
    3 1.851738 -3.358099 0.933068 -0.001979 0.003529 -3.611060
    4 0.082600 1.146645 0.000000 0.000000 0.000000 0.063337
    5 -0.795049 6.628533 0.000002 0.000001 0.000000 -0.047613
    6 -1.846357 7.578958 0.739989 0.000000 -0.000001 1.835736
    7 -1.762572 10.567569 -0.008215 0.000000 0.000000 1.835736
    8 -2.188002 -7.683626 -10.017649 -2.114901 -5.190312 -1.381951
    9 0.096944 -8.450418 -0.009364 -0.098532 -0.271329 0.298485
    10 0.447952 -2.798983 -0.200442 -1.171631 -0.187313 0.022274
    11 -0.032910 -1.480206 0.004936 -1.151858 0.000000 0.000002
    12 -0.027022 -1.076919 -0.020212 -1.133726 0.000000 0.000000
    13 -0.249534 -2.846962 -0.174215 -1.050358 -0.194024 -0.118379
    14 0.043235 -1.683940 0.096014 -1.469808 0.002823 -0.000167
    15 0.031729 -1.160831 0.058836 -1.163342 0.000642 0.008372
    16 -0.963866 -2.785142 -0.085346 -0.613115 -0.085997 -0.167478
    17 0.028479 -1.403069 0.006271 -1.170772 0.000000 0.000000
    18 0.021413 -0.957782 0.020047 -0.780553 0.000000 0.000000
    19 1.164474 -2.543938 -0.170328 -0.955776 -0.336135 0.112541
    20 0.024033 -1.129042 0.017806 -0.850024 0.000000 0.000001
    21 0.014896 -0.883989 -0.019845 -1.090859 0.000000 0.000000
    22 -0.586770 -1.264475 0.200164 -0.276792 -0.716336 -2.528363
    23 1.522835 0.058681 0.016850 -0.406212 -0.628191 1.186958
    24 1.117948 0.048424 -0.005764 -0.004605 -0.024203 0.247412
    25 -0.139399 -0.111697 0.014397 0.285382 -0.030687 1.580508
    26 -0.488517 -2.755600 -0.228261 -1.376484 -0.075298 -0.281316
    27 0.039888 -1.479789 0.029853 -0.928033 0.000000 0.000000
    28 0.028786 -1.075730 -0.023111 -1.481386 0.000000 0.000000
    29 0.250028 -2.820664 -0.238396 -1.075893 -0.014906 -0.312588
    30 -0.049759 -1.680545 0.100480 -1.463659 0.000000 -0.000002
    31 -0.034141 -1.148312 0.084779 -1.087312 0.000000 0.000000
    32 0.957766 -2.746776 -0.090301 -0.143359 -0.206189 -0.071012
    33 -0.033419 -1.397128 -0.011255 -0.779119 0.124808 -0.122316
    34 -0.022361 -0.957434 0.018783 -1.045099 0.000000 0.000000
    35 -1.180680 -2.507215 -0.193861 -1.224952 -0.001292 -0.303995
    36 -0.024966 -1.123935 0.017594 -0.977967 0.000000 0.000001
    37 -0.020057 -0.890966 0.010091 -0.933434 0.000000 0.000000
    38 0.583510 -1.197274 0.185377 0.272562 -1.003490 -0.533081
    39 1.535926 0.010244 0.005008 0.440185 -0.138733 -1.296648
    40 1.100770 0.004526 -0.010676 -0.011449 0.011491 -0.607432
    41 0.120152 -0.050266 -0.054488 0.287568 3.110905 1.561085
  time 25
    0 0.000000 0.039064 -0.097659 0.000036 0.000000 0.000000
    1 6.650234 5.725005 -6.946960 0.769040 -1.860570 -0.716043
    2 -0.071918 -8.498732 -0.104137 -0.026810 0.287459 0.008642
    3 1.851738 -3.358099 0.933068 -0.001979 0.003529 -3.611060
    4 0.082600 1.146645 0.000000 0.000000 0.000000 0.063337
    5 -0.795049 6.628533 0.000002 0.000001 0.000000 -0.047613
    6 -1.846357 7.578958 0.739989 0.000000 -0.000001 1.835736
    7 -1.762572 10.567569 -0.008215 0.000000 0.000000 1.835736
    8 -2.188002 -7.683626 -9.994211 -2.113738 -5.190312 -1.381951
    9 0.096944 -8.450418 -0.009364 -0.104376 -0.272537 0.298315
    10 0.447952 -2.798983 -0.200442 -1.171631 -0.187313 0.022274
    11 -0.032910 -1.480206 0.004936 -1.151858 0.000000 0.000002
    12 -0.027022 -1.076919 -0.020212 -1.108628 0.000000 0.000000
    13 -0.249534 -2.846962 -0.174215 -1.050358 -0.194024 -0.118379
    14 0.043235 -1.683940 0.096014 -1.469808 0.002823 -0.000167
    15 0.031729 -1.160831 0.058836 -1.141818 0.000642 0.008372
    16 -0.963866 -2.785142 -0.085346 -0.613115 -0.085997 -0.167478
    17 0.028479 -1.403069 0.006271 -1.167197 0.000000 0.000000
    18 0.021413 -0.957782 0.020047 -0.780553 0.000000 0.000000
    19 1.164474 -2.543938 -0.170328 -0.955776 -0.336135 0.112541
    20 0.024033 -1.129042 0.017806 -0.850024 0.000000 0.000001
    21 0.014896 -0.883989 -0.019845 -1.080069 0.000000 0.000000
    22 -0.586770 -1.264475 0.200164 -0.276792 -0.716336 -2.528363
    23 1.522835 0.058681 0.016850 -0.409480 -0.628670 1.225704
    24 1.117948 0.048424 -0.005764 -0.004030 -0.024443 0.222257
    25 -0.139399 -0.111697 0.014397 0.285382 -0.030687 1.580508
    26 -0.488517 -2.755600 -0.228261 -1.376484 -0.075298 -0.281316
    27 0.039888 -1.479789 0.029853 -0.928033 0.000000 0.000000
    28 0.028786 -1.075730 -0.023111 -1.481386 0.000000 0.000000
    29 0.250028 -2.820664 -0.238396 -1.075893 -0.014906 -0.312588
    30 -0.049759 -1.680545 0.100480 -1.463659 0.000000 -0.000002
    31 -0.034141 -1.148312 0.084779 -1.087312 0.000000 0.000000
    32 0.957766 -2.746776 -0.090301 -0.143359 -0.206189 -0.071012
    33 -0.033419 -1.397128 -0.011255 -0.779119 0.124808 -0.122316
    34 -0.022361 -0.957434 0.018783 -1.043310 0.000000 0.000000
    35 -1.180680 -2.507215 -0.193861 -1.224952 -0.001292 -0.303995
    36 -0.024966 -1.123935 0.017594 -0.977967 0.000000 0.000001
    37 -0.020057 -0.890966 0.010091 -0.933434 0.000000 0.000000
    38 0.583510 -1.197274 0.185377 0.272562 -1.003490 -0.533081
    39 1.535926 0.010244 0.005008 0.440185 -0.138733 -1.296648
    40 1.100770 0.004526 -0.010676 -0.011449 0.011491 -0.607432
    41 0.120152 -0.050266 -0.054488 0.287568 3.110905 1.561085
  time 26
    0 0.000000 0.023438 -0.070315 0.000024 0.000000 0.000000
    1 6.650234 5.725005 -6.946960 0.769040 -1.860570 -0.716043
    2 -0.071918 -8.498732 -0.104137 -0.026235 0.287507 0.010679
    3 1.851738 -3.358099 0.933068 -0.001979 0.003529 -3.611060
    4 0.082600 1.146645 0.000000 0.000000 0.000000 0.063337
    5 -0.795049 6.628533 0.000002 0.000001 0.000000 -0.047613
    6 -1.846357 7.578958 0.739989 0.000000 -0.000001 1.835736
    7 -1.762572 10.567569 -0.008215 0.000000 0.000000 1.835736
    8 -2.188002 -7.683626 -9.970773 -2.112780 -5.190312 -1.381951
    9 0.096944 -8.450418 -0.009364 -0.109407 -0.273600 0.298174
    10 0.447952 -2.798983 -0.200442 -1.171631 -0.187313 0.022274
    11 -0.032910 -1.480206 0.004936 -1.151858 0.000000 0.000002
    12 -0.027022 -1.076919 -0.020212 -1.086971 0.000000 0.000000
    13 -0.249534 -2.846962 -0.174215 -1.050358 -0.194024 -0.118379
    14 0.043235 -1.683940 0.096014 -1.469808 0.002823 -0.000167
    15 0.031729 -1.160831 0.058836 -1.123266 0.000642 0.008372
    16 -0.963866 -2.785142 -0.085346 -0.613115 -0.085997 -0.167478
    17 0.028479 -1.403069 0.006271 -1.164123 0.000000 0.000000
    18 0.021413 -0.957782 0.020047 -0.780553 0.000000 0.000000
    19 1.164474 -2.543938 -0.170328 -0.955776 -0.336135 0.112541
    20 0.024033 -1.129042 0.017806 -0.850024 0.000000 0.000001
    21 0.014896 -0.883989 -0.019845 -1.070808 0.000000 0.000000
    22 -0.586770 -1.264475 0.200164 -0.276792 -0.716336 -2.528363
    23 1.522835 0.058681 0.016850 -0.412263 -0.629088 1.258995
    24 1.117948 0.048424 -0.005764 -0.003539 -0.024659 0.200643
    25 -0.139399 -0.111697 0.014397 0.285382 -0.030687 1.580508
    26 -0.488517 -2.755600 -0.228261 -1.376484 -0.075298 -0.281316
    27 0.039888 -1.479789 0.029853 -0.928033 0.000000 0.000000
    28 0.028786 -1.075730 -0.023111 -1.481386 0.000000 0.000000
    29 0.250028 -2.820664 -0.238396 -1.075893 -0.014906 -0.312588
    30 -0.049759 -1.680545 0.100480 -1.463659 0.000000 -0.000002
    31 -0.034141 -1.148312 0.084779 -1.087312 0.000000 0.000000
    32 0.957766 -2.746776 -0.090301 -0.143359 -0.206189 -0.071012
    33 -0.033419 -1.397128 -0.011255 -0.779119 0.124808 -0.122316
    34 -0.022361 -0.957434 0.018783 -1.043310 0.000000 0.000000
    35 -1.180680 -2.507215 -0.193861 -1.224952 -0.001292 -0.303995
    36 -0.024966 -1.123935 0.017594 -0.977967 0.000000 0.000001
    37 -0.020057 -0.890966 0.010091 -0.933434 0.000000 0.000000
    38 0.583510 -1.197274 0.185377 0.272562 -1.003490 -0.533081
    39 1.535926 0.010244 0.005008 0.440185 -0.138733 -1.296648
    40 1.100770 0.004526 -0.010676 -0.011449 0.011491 -0.607432
    41 0.120152 -0.050266 -0.054488 0.287568 3.110905 1.561085
  time 27
    0 0.000000 0.011719 -0.042970 0.000012 0.000000 0.000000
    1 6.650234 5.725005 -6.946960 0.769040 -1.860570 -0.716043
    2 -0.071918 -8.498732 -0.104137 -0.025747 0.287543 0.012405
    3 1.851738 -3.358099 0.933068 -0.001979 0.003529 -3.611060
    4 0.082600 1.146645 0.000000 0.000000 0.000000 0.063337
    5 -0.795049 6.628533 0.000002 0.000001 0.000000 -0.047613
    6 -1.846357 7.578958 0.739989 0.000000 -0.000001 1.835736
    7 -1.762572 10.567569 -0.008215 0.000000 0.000000 1.835736
    8 -2.188002 -7.683626 -9.951241 -2.111959 -5.190312 -1.381951
    9 0.096944 -8.450418 -0.009364 -0.113508 -0.274446 0.298060
    10 0.447952 -2.798983 -0.200442 -1.171631 -0.187313 0.022274
    11 -0.032910 -1.480206 0.004936 -1.151858 0.000000 0.000002
    12 -0.027022 -1.076919 -0.020212 -1.069362 0.000000 0.000000
    13 -0.249534 -2.846962 -0.174215 -1.050358 -0.194024 -0.118379
    14 0.043235 -1.683940 0.096014 -1.469808 0.002823 -0.000167
    15 0.031729 -1.160831 0.058836 -1.108166 0.000642 0.008372
    16 -0.963866 -2.785142 -0.085346 -0.613115 -0.085997 -0.167478
    17 0.028479 -1.403069 0.006271 -1.161586 0.000000 0.000000
    18 0.021413 -0.957782 0.020047 -0.780553 0.000000 0.000000
    19 1.164474 -2.543938 -0.170328 -0.955776 -0.336135 0.112541
    20 0.024033 -1.129042 0.017806 -0.850024 0.000000 0.000001
    21 0.014896 -0.883989 -0.019845 -1.063270 0.000000 0.000000
    22 -0.586770 -1.264475 0.200164 -0.276792 -0.716336 -2.528363
    23 1.522835 0.058681 0.016850 -0.414537 -0.629421 1.286181
    24 1.117948 0.048424 -0.005764 -0.003131 -0.024826 0.182995
    25 -0.139399 -0.111697 0.014397 0.285382 -0.030687 1.580508
    26 -0.488517 -2.755600 -0.228261 -1.376484 -0.075298 -0.281316
    27 0.039888 -1.479789 0.029853 -0.928033 0.000000 0.000000
    28 0.028786 -1.075730 -0.023111 -1.481386 0.000000 0.000000
    29 0.250028 -2.820664 -0.238396 -1.075893 -0.014906 -0.312588
    30 -0.049759 -1.680545 0.100480 -1.463659 0.000000 -0.000002
    31 -0.034141 -1.148312 0.084779 -1.087312 0.000000 0.000000
    32 0.957766 -2.746776 -0.090301 -0.143359 -0.206189 -0.071012
    33 -0.033419 -1.397128 -0.011255 -0.779119 0.124808 -0.122316
    34 -0.022361 -0.957434 0.018783 -1.043310 0.000000 0.000000
    35 -1.180680 -2.507215 -0.193861 -1.224952 -0.001292 -0.303995
    36 -0.024966 -1.123935 0.017594 -0.977967 0.000000 0.000001
    37 -0.020057 -0.890966 0.010091 -0.933434 0.000000 0.000000
    38 0.583510 -1.197274 0.185377 0.272562 -1.003490 -0.533081
    39 1.535926 0.010244 0.005008 0.440185 -0.138733 -1.296648
    40 1.100770 0.004526 -0.010676 -0.011449 0.011491 -0.607432
    41 0.120152 -0.050266 -0.054488 0.287568 3.110905 1.561085
  time 28
    0 0.000000 0.003906 -0.019532 0.000000 0.000000 0.000000
    1 6.650234 5.725005 -6.946960 0.769040 -1.860570 -0.716043
    2 -0.071918 -8.498732 -0.104137 -0.025371 0.287567 0.013735
    3 1.851738 -3.358099 0.933068 -0.001979 0.003529 -3.611060
    4 0.082600 1.146645 0.000000 0.000000 0.000000 0.063337
    5 -0.795049 6.628533 0.000002 0.000001 0.000000 -0.047613
    6 -1.846357 7.578958 0.739989 0.000000 -0.000001 1.835736
    7 -1.762572 10.567569 -0.008215 0.000000 0.000000 1.835736
    8 -2.188002 -7.683626 -9.935615 -2.111343 -5.190312 -1.381951
    9 0.096944 -8.450418 -0.009364 -0.116558 -0.275098 0.297975
    10 0.447952 -2.798983 -0.200442 -1.171631 -0.187313 0.022274
    11 -0.032910 -1.480206 0.004936 -1.151858 0.000000 0.000002
    12 -0.027022 -1.076919 -0.020212 -1.056206 0.000000 0.000000
    13 -0.249534 -2.846962 -0.174215 -1.050358 -0.194024 -0.118379
    14 0.043235 -1.683940 0.096014 -1.469808 0.002823 -0.000167
    15 0.031729 -1.160831 0.058836 -1.096853 0.000642 0.008372
    16 -0.963866 -2.785142 -0.085346 -0.613115 -0.085997 -0.167478
    17 0.028479 -1.403069 0.006271 -1.159703 0.000000 0.000000
    18 0.021413 -0.957782 0.020047 -0.780553 0.000000 0.000000
    19 1.164474 -2.543938 -0.170328 -0.955776 -0.336135 0.112541
    20 0.024033 -1.129042 0.017806 -0.850024 0.000000 0.000001
    21 0.014896 -0.883989 -0.019845 -1.057607 0.000000 0.000000
    22 -0.586770 -1.264475 0.200164 -0.276792 -0.716336 -2.528363
    23 1.522835 0.058681 0.016850 -0.416260 -0.629693 1.306485
    24 1.117948 0.048424 -0.005764 -0.002832 -0.024958 0.169827
    25 -0.139399 -0.111697 0.014397 0.285382 -0.030687 1.580508
    26 -0.488517 -2.755600 -0.228261 -1.376484 -0.075298 -0.281316
    27 0.039888 -1.479789 0.029853 -0.928033 0.000000 0.000000
    28 0.028786 -1.075730 -0.023111 -1.481386 0.000000 0.000000
    29 0.250028 -2.820664 -0.238396 -1.075893 -0.014906 -0.312588
    30 -0.049759 -1.680545 0.100480 -1.463659 0.000000 -0.000002
    31 -0.034141 -1.148312 0.084779 -1.087312 0.000000 0.000000
    32 0.957766 -2.746776 -0.090301 -0.143359 -0.206189 -0.071012
    33 -0.033419 -1.397128 -0.011255 -0.779119 0.124808 -0.122316
    34 -0.022361 -0.957434 0.018783 -1.043310 0.000000 0.000000
    35 -1.180680 -2.507215 -0.193861 -1.224952 -0.001292 -0.303995
    36 -0.024966 -1.123935 0.017594 -0.977967 0.000000 0.000001
    37 -0.020057 -0.890966 0.010091 -0.933434 0.000000 0.000000
    38 0.583510 -1.197274 0.185377 0.272562 -1.003490 -0.533081
    39 1.535926 0.010244 0.005008 0.440185 -0.138733 -1.296648
    40 1.100770 0.004526 -0.010676 -0.011449 0.011491 -0.607432
    41 0.120152 -0.050266 -0.054488 0.287568 3.110905 1.561085
  time 29
    0 0.000000 0.000000 -0.003906 0.000000 0.000000 0.000000
    1 6.650234 5.725005 -6.946960 0.769040 -1.860570 -0.716043
    2 -0.071918 -8.498732 -0.104137 -0.025121 0.287591 0.014598
    3 1.851738 -3.358099 0.933068 -0.001979 0.003529 -3.611060
    4 0.082600 1.146645 0.000000 0.000000 0.000000 0.063337
    5 -0.795049 6.628533 0.000002 0.000001 0.000000 -0.047613
    6 -1.846357 7.578958 0.739989 0.000000 -0.000001 1.835736
    7 -1.762572 10.567569 -0.008215 0.000000 0.000000 1.835736
    8 -2.188002 -7.683626 -9.923896 -2.111001 -5.190312 -1.381951
    9 0.096944 -8.450418 -0.009364 -0.118480 -0.275485 0.297919
    10 0.447952 -2.798983 -0.200442 -1.171631 -0.187313 0.022274
    11 -0.032910 -1.480206 0.004936 -1.151858 0.000000 0.000002
    12 -0.027022 -1.076919 -0.020212 -1.047908 0.000000 0.000000
    13 -0.249534 -2.846962 -0.174215 -1.050358 -0.194024 -0.118379
    14 0.043235 -1.683940 0.096014 -1.469808 0.002823 -0.000167
    15 0.031729 -1.160831 0.058836 -1.089806 0.000642 0.008372
    16 -0.963866 -2.785142 -0.085346 -0.613115 -0.085997 -0.167478
    17 0.028479 -1.403069 0.006271 -1.158512 0.000000 0.000000
    18 0.021413 -0.957782 0.020047 -0.780553 0.000000 0.000000
    19 1.164474 -2.543938 -0.170328 -0.955776 -0.336135 0.112541
    20 0.024033 -1.129042 0.017806 -0.850024 0.000000 0.000001
    21 0.014896 -0.883989 -0.019845 -1.054087 0.000000 0.000000
    22 -0.586770 -1.264475 0.200164 -0.276792 -0.716336 -2.528363
    23 1.522835 0.058681 0.016850 -0.417320 -0.629839 1.319169
    24 1.117948 0.048424 -0.005764 -0.002652 -0.025042 0.161563
    25 -0.139399 -0.111697 0.014397 0.285382 -0.030687 1.580508
    26 -0.488517 -2.755600 -0.228261 -1.376484 -0.075298 -0.281316
    27 0.039888 -1.479789 0.029853 -0.928033 0.000000 0.000000
    28 0.028786 -1.075730 -0.023111 -1.481386 0.000000 0.000000
    29 0.250028 -2.820664 -0.238396 -1.075893 -0.014906 -0.312588
    30 -0.049759 -1.680545 0.100480 -1.463659 0.000000 -0.000002
    31 -0.034141 -1.148312 0.084779 -1.087312 0.000000 0.000000
    32 0.957766 -2.746776 -0.090301 -0.143359 -0.206189 -0.071012
    33 -0.033419 -1.397128 -0.011255 -0.779119 0.124808 -0.122316
    34 -0.022361 -0.957434 0.018783 -1.043310 0.000000 0.000000
    35 -1.180680 -2.507215 -0.193861 -1.224952 -0.001292 -0.303995
    36 -0.024966 -1.123935 0.017594 -0.977967 0.000000 0.000001
    37 -0.020057 -0.890966 0.010091 -0.933434 0.000000 0.000000
    38 0.583510 -1.197274 0.185377 0.272562 -1.003490 -0.533081
    39 1.535926 0.010244 0.005008 0.440185 -0.138733 -1.296648
    40 1.100770 0.004526 -0.010676 -0.011449 0.011491 -0.607432
    41 0.120152 -0.050266 -0.054488 0.287568 3.110905 1.561085
  time 30
    0 0.000000 0.000000 0.000000 0.000000 0.000000 0.000000
    1 6.650234 5.725005 -6.946960 0.769040 -1.860570 -0.716043
    2 -0.071918 -8.498732 -0.104137 -0.025046 0.287591 0.014898
    3 1.851738 -3.358099 0.933068 -0.001979 0.003529 -3.611060
    4 0.082600 1.146645 0.000000 0.000000 0.000000 0.063337
    5 -0.795049 6.628533 0.000002 0.000001 0.000000 -0.047613
    6 -1.846357 7.578958 0.739989 0.000000 -0.000001 1.835736
    7 -1.762572 10.567569 -0.008215 0.000000 0.000000 1.835736
    8 -2.188002 -7.683626 -9.919990 -2.110864 -5.190312 -1.381951
    9 0.096944 -8.450418 -0.009364 -0.119153 -0.275630 0.297905
    10 0.447952 -2.798983 -0.200442 -1.171631 -0.187313 0.022274
    11 -0.032910 -1.480206 0.004936 -1.151858 0.000000 0.000002
    12 -0.027022 -1.076919 -0.020212 -1.045074 0.000000 0.000000
    13 -0.249534 -2.846962 -0.174215 -1.050358 -0.194024 -0.118379
    14 0.043235 -1.683940 0.096014 -1.469808 0.002823 -0.000167
    15 0.031729 -1.160831 0.058836 -1.087362 0.000642 0.008372
    16 -0.963866 -2.785142 -0.085346 -0.613115 -0.085997 -0.167478
    17 0.028479 -1.403069 0.006271 -1.158127 0.000000 0.000000
    18 0.021413 -0.957782 0.020047 -0.780553 0.000000 0.000000
    19 1.164474 -2.543938 -0.170328 -0.955776 -0.336135 0.112541
    20 0.024033 -1.129042 0.017806 -0.850024 0.000000 0.000001
    21 0.014896 -0.883989 -0.019845 -1.052862 0.000000 0.000000
    22 -0.586770 -1.264475 0.200164 -0.276792 -0.716336 -2.528363
    23 1.522835 0.058681 0.016850 -0.417695 -0.629901 1.323585
    24 1.117948 0.048424 -0.005764 -0.002580 -0.025066 0.158718
    25 -0.139399 -0.111697 0.014397 0.285382 -0.030687 1.580508
    26 -0.488517 -2.755600 -0.228261 -1.376484 -0.075298 -0.281316
    27 0.039888 -1.479789 0.029853 -0.928033 0.000000 0.000000
    28 0.028786 -1.075730 -0.023111 -1.481386 0.000000 0.000000
    29 0.250028 -2.820664 -0.238396 -1.075893 -0.014906 -0.312588
    30 -0.049759 -1.680545 0.100480 -1.463659 0.000000 -0.000002
    31 -0.034141 -1.148312 0.084779 -1.087312 0.000000 0.000000
    32 0.957766 -2.746776 -0.090301 -0.143359 -0.206189 -0.071012
    33 -0.033419 -1.397128 -0.011255 -0.779119 0.124808 -0.122316
    34 -0.022361 -0.957434 0.018783 -1.043310 0.000000 0.000000
    35 -1.180680 -2.507215 -0.193861 -1.224952 -0.001292 -0.303995
    36 -0.024966 -1.123935 0.017594 -0.977967 0.000000 0.000001
    37 -0.020057 -0.890966 0.010091 -0.933434 0.000000 0.000000
    38 0.583510 -1.197274 0.185377 0.272562 -1.003490 -0.533081
    39 1.535926 0.010244 0.005008 0.440185 -0.138733 -1.296648
    40 1.100770 0.004526 -0.010676 -0.011449 0.011491 -0.607432
    41 0.120152 -0.050266 -0.054488 0.287568 3.110905 1.561085
end
