version 1
nodes
  0 "throwing knife-1_p" -1
end
skeleton
  time 0
    0 -1.550782 -0.527152 1.597204 -1.510105 -0.077492 -0.484638
  time 1
    0 -1.550782 -0.527152 1.597204 -1.510105 -0.077492 -0.484638
end
