// Created by Crowbar 0.71

$modelname "weapons/tfa_cso/c_g3sg1.mdl"

$include "csonline_gmod.qci"

$bodygroup "weapon"
{
	studio "f_g3sg1_template"
}

$cdmaterials "models\weapons\tfa_cso\g3sg1\"

$attachment 0 "Bone02" 0.9 -25.5 3.25 rotate 0 -90 0
//$attachment 1 "Bone52" 0 -2 0

$sequence "idle1" {
	"v_g3sg1_anims\idle1.smd"
	activity "ACT_VM_IDLE" 1
	fadein 0.2
	fadeout 0.2
	snap
	fps 16
	loop
}

$sequence "shoot" {
	"v_g3sg1_anims\shoot.smd"
	activity "ACT_VM_PRIMARYATTACK" 1
	{ event 5001 0 "22" }
	fadein 0.2
	fadeout 0.2
	snap
	fps 30
}

$sequence "shoot2" {
	"v_g3sg1_anims\shoot2.smd"
	activity "ACT_VM_PRIMARYATTACK" 1
	{ event 5001 0 "22" }
	fadein 0.2
	fadeout 0.2
	snap
	fps 30
}

$sequence "reload" {
	"v_g3sg1_anims\reload.smd"
	activity "ACT_VM_RELOAD" 1
	{ event 5004 14 "G3SG1.Slide" }
	{ event 5004 44 "G3SG1.ClipOut" }
	{ event 5004 63 "G3SG1.ClipIn" }
	{ event 5004 86 "G3SG1.Slide" }
	fadein 0.2
	fadeout 0.2
	snap
	fps 30
}

$sequence "draw" {
	"v_g3sg1_anims\draw.smd"
	activity "ACT_VM_DRAW" 1
	fadein 0.2
	fadeout 0.2
	snap
	fps 30
}