// Created by Crowbar 0.58

$modelname "weapons/tfa_cso/w_m16a4.mdl"

$bodygroup "studio"
{
	studio "w_m16a4_w_ref"
}

$collisionmodel "w_m16a4_w_ref.smd"
{
	$mass 9
}

$CDMaterials "models\weapons\tfa_cso\m16a4"

$attachment "0" "Object12" -3.30 16.50 -14.80 rotate -0 -0 -0

$sequence "idle" {
	"w_m16a4_anims\idle"
	fps 30
}
