"VertexLitGeneric"
{
	$basetexture	"models\weapons\tfa_cso\paint\$20@003_sg_2_lizard"
	$bumpmap "models\weapons\tfa_cso\paint\$20@003_sg_2_lizard_n"
	$phongexponenttexture "models\weapons\v_models\Request CSO\Dragon TMP S"
	$nocull	"1"
	$phong "1"
	$phongexponent "20"
	$phongfresnelranges "[0.15 0.65 1.00]"
	$phongalbedotint "1"
	$phongboost "128"
	$selfillum "1"
}