version 1
nodes
  0 "crow5_root" -1
  1 "megazine" 0
  2 "light" 0
  3 "light01" 0
  4 "light02" 0
  5 "lightning" 0
  6 "trigger" 0
  7 "reloader" 0
  8 "root" -1
  9 "Bone01" 8
  10 "Bone_L_Upper" 9
  11 "Bone_Lefthand" 9
  12 "Bone13" 11
  13 "Bone14" 12
  14 "Bone15" 13
  15 "Bone17" 11
  16 "Bone18" 15
  17 "Bone19" 16
  18 "Bone21" 11
  19 "Bone22" 18
  20 "Bone23" 19
  21 "Bone09" 11
  22 "Bone10" 21
  23 "Bone11" 22
  24 "Bone05" 11
  25 "Bone06" 24
  26 "Bone07" 25
  27 "Bone_Se_Hand-L" 11
  28 "Bone04" 8
  29 "Bone_Righthand" 28
  30 "Bone39" 29
  31 "Bone40" 30
  32 "Bone41" 31
  33 "Bone35" 29
  34 "Bone36" 33
  35 "Bone37" 34
  36 "Bone31" 29
  37 "Bone32" 36
  38 "Bone33" 37
  39 "Bone43" 29
  40 "Bone44" 39
  41 "Bone45" 40
  42 "Bone27" 29
  43 "Bone28" 42
  44 "Bone29" 43
  45 "Bone_Se_Hand-R" 29
  46 "Bone_R_Upper" 28
end
skeleton
  time 0
    0 0.894522 -12.219119 -6.044365 -0.979163 -0.943753 -4.370049
    1 -11.319623 5.047025 -3.719252 0.000000 -3.054548 0.150850
    2 3.259201 -0.000005 -1.130647 0.000000 0.000000 -0.000001
    3 3.225770 0.976904 2.387790 2.208361 -1.542144 -1.139077
    4 3.226806 0.995288 1.236121 -2.040361 -1.570796 0.000000
    5 3.707688 -0.036995 -1.128818 0.000000 0.000000 -0.000001
    6 1.073001 -0.000003 4.918042 0.000000 -3.141592 0.000000
    7 2.916357 0.664625 10.775771 -3.048099 0.000000 1.570796
    8 0.923057 -2.001326 -3.726057 -0.062488 -0.333819 0.188710
    9 4.063850 -6.416836 -5.378052 0.541243 -2.326419 -1.250917
    10 6.901883 4.949968 -0.294342 1.565108 -3.127219 0.712043
    11 -0.056296 -8.467485 -0.100228 -0.146504 0.419276 0.171613
    12 -0.488518 -2.755602 -0.228260 -0.926864 0.104123 -0.205670
    13 0.039887 -1.530573 0.014229 -1.473570 -0.012212 0.032731
    14 0.028786 -1.169484 -0.124675 -1.082413 -0.015161 0.023166
    15 0.250027 -2.820665 -0.238396 -0.656416 0.070401 -0.070751
    16 -0.049759 -1.594604 0.026258 -1.644847 -0.001630 -0.043494
    17 -0.034142 -1.156125 0.057437 -0.778245 0.008377 -0.019511
    18 0.957766 -2.746780 -0.090302 0.192366 -0.212660 0.232006
    19 -0.033420 -1.397129 -0.026882 -0.840549 0.006592 -0.041348
    20 -0.022360 -0.957436 -0.000748 -0.702856 0.007562 -0.034132
    21 -1.180681 -2.507217 -0.193859 -1.000921 0.270987 -0.298350
    22 -0.024967 -1.127840 0.017597 -0.956758 0.004674 -0.041010
    23 -0.020057 -0.906594 0.033528 -1.043762 0.004698 -0.042809
    24 0.603042 -1.205090 0.189285 0.170717 -0.910476 -0.421804
    25 1.485144 -0.208511 0.067511 0.044099 -0.208064 -0.737596
    26 0.975767 -0.198604 0.051823 0.125211 -0.269176 -1.206668
    27 0.120153 -0.050270 -0.054489 0.287569 3.110905 1.561085
    28 -10.622647 -1.008475 -6.056156 -0.799351 -3.305513 -0.310581
    29 0.155540 -8.512920 -0.071867 0.878705 0.028408 0.288062
    30 0.447953 -2.798986 -0.200443 -1.101992 -0.115836 0.285863
    31 -0.032909 -1.495829 0.016659 -0.937501 0.019763 -0.014176
    32 -0.027022 -1.096452 -0.028023 -0.513425 0.013471 -0.005429
    33 -0.249534 -2.846964 -0.174213 -0.697547 -0.073255 0.004835
    34 0.043235 -1.660503 0.080387 -1.000483 -0.016412 0.001535
    35 0.031729 -1.153017 0.058838 -0.444953 -0.003900 0.005867
    36 -0.963866 -2.785145 -0.085350 -0.359784 0.157230 -0.206201
    37 0.028479 -1.403067 -0.013261 -0.745223 -0.016862 -0.028979
    38 0.021413 -0.957781 0.020046 -0.180062 -0.002073 -0.008042
    39 1.164475 -2.543940 -0.170330 -1.301539 -0.214767 0.420796
    40 0.024032 -1.136855 -0.001725 -0.790707 0.004482 0.042139
    41 0.014898 -0.895708 -0.019848 -0.595607 -0.000911 0.029698
    42 -0.586770 -1.264477 0.200161 -0.075455 -0.435622 -2.773326
    43 1.557992 0.035243 0.016848 -0.014721 -0.005792 0.742981
    44 1.117947 0.048424 -0.005766 0.003173 -0.021075 -0.101614
    45 -0.037833 -0.131230 -0.106700 0.756922 0.202509 1.380917
    46 -7.569440 3.979654 -0.430845 1.575149 -0.029796 -0.572341
  time 1
    0 0.667952 -12.199587 -6.915485 -0.919239 -0.955797 -4.405776
    1 -11.370406 4.695452 -3.789567 0.000000 -3.049706 0.159227
    2 3.259201 -0.000005 -1.130647 0.000000 0.000000 -0.000001
    3 3.260927 1.355822 2.192472 2.208361 -1.542144 -1.139077
    4 3.261963 1.374206 1.040803 -2.040361 -1.570796 0.000000
    5 3.707688 -0.036995 -1.128818 0.000000 0.000000 -0.000001
    6 1.073001 -0.000003 4.918042 0.000000 -3.141592 0.000000
    7 2.713226 0.664625 8.572579 -3.048099 0.000000 1.570796
    8 0.923057 -2.001326 -3.726057 -0.062488 -0.333819 0.188710
    9 3.852906 -6.264487 -5.600715 0.452911 -2.280778 -1.210770
    10 6.706565 5.258572 -0.290436 1.565108 -3.128175 0.756706
    11 -0.060202 -8.490924 -0.096321 -0.053654 0.399616 0.255672
    12 -0.488518 -2.755602 -0.228260 -0.926864 0.104123 -0.205670
    13 0.039887 -1.530573 0.014229 -1.473570 -0.012212 0.032731
    14 0.028786 -1.169484 -0.124675 -1.082413 -0.015161 0.023166
    15 0.250027 -2.820665 -0.238396 -0.656416 0.070401 -0.070751
    16 -0.049759 -1.594604 0.026258 -1.644847 -0.001630 -0.043494
    17 -0.034142 -1.156125 0.057437 -0.778245 0.008377 -0.019511
    18 0.957766 -2.746780 -0.090302 0.192366 -0.212660 0.232006
    19 -0.033420 -1.397129 -0.026882 -0.840549 0.006592 -0.041348
    20 -0.022360 -0.957436 -0.000748 -0.702856 0.007562 -0.034132
    21 -1.180681 -2.507217 -0.193859 -1.000921 0.270987 -0.298350
    22 -0.024967 -1.127840 0.017597 -0.956758 0.004674 -0.041010
    23 -0.020057 -0.906594 0.033528 -1.043762 0.004698 -0.042809
    24 0.603042 -1.205090 0.189285 0.170717 -0.910476 -0.421804
    25 1.485144 -0.208511 0.067511 0.044099 -0.208064 -0.737596
    26 0.975767 -0.198604 0.051823 0.125211 -0.269176 -1.206668
    27 0.120153 -0.050270 -0.054489 0.287569 3.110905 1.561085
    28 -10.712494 -0.738935 -5.833493 -0.794295 -3.293925 -0.323889
    29 0.155540 -8.512920 -0.071867 0.872506 0.028954 0.280886
    30 0.447953 -2.798986 -0.200443 -1.098879 -0.115860 0.285947
    31 -0.032909 -1.495829 0.016659 -0.937501 0.019763 -0.014176
    32 -0.027022 -1.096452 -0.028023 -0.513425 0.013471 -0.005429
    33 -0.249534 -2.846964 -0.174213 -0.696268 -0.073231 0.004823
    34 0.043235 -1.660503 0.080387 -1.002532 -0.016448 0.001559
    35 0.031729 -1.153017 0.058838 -0.444953 -0.003900 0.005867
    36 -0.963866 -2.785145 -0.085350 -0.359784 0.157230 -0.206201
    37 0.028479 -1.403067 -0.013261 -0.749503 -0.017018 -0.029099
    38 0.021413 -0.957781 0.020046 -0.179456 -0.002073 -0.008018
    39 1.164475 -2.543940 -0.170330 -1.296951 -0.214983 0.420665
    40 0.024032 -1.136855 -0.001725 -0.788236 0.004422 0.042007
    41 0.014898 -0.895708 -0.019848 -0.595607 -0.000911 0.029698
    42 -0.586770 -1.264477 0.200161 -0.075119 -0.439254 -2.774504
    43 1.557992 0.035243 0.016848 -0.014637 -0.005768 0.739990
    44 1.117947 0.048424 -0.005766 0.003101 -0.021171 -0.097785
    45 -0.037833 -0.131230 -0.106700 0.756922 0.202509 1.380917
    46 -7.706163 3.635893 -0.438658 1.574286 -0.030752 -0.527195
  time 2
    0 2.125028 -12.109741 -6.720167 -1.052609 -0.906307 -4.456062
    1 -11.421189 4.343879 -3.859881 0.000000 -3.044877 0.167616
    2 3.259201 -0.000005 -1.130647 0.000000 0.000000 -0.000001
    3 3.190612 0.621425 2.571390 2.208361 -1.542144 -1.139077
    4 3.191648 0.639809 1.419721 -2.040361 -1.570796 0.000000
    5 3.707688 -0.036995 -1.128818 0.000000 0.000000 -0.000001
    6 1.073001 -0.000003 4.918042 0.000000 -3.141592 0.000000
    7 2.506188 0.664625 6.365480 -3.048099 0.000000 1.570796
    8 0.923057 -2.001326 -3.726057 -0.062488 -0.333819 0.188710
    9 4.505269 -6.143390 -5.905412 0.511214 -2.269101 -1.186169
    10 7.128453 4.547612 -0.306061 1.565299 -3.126072 0.655135
    11 -0.075827 -8.467485 -0.108040 -0.291243 0.384798 0.291872
    12 -0.488518 -2.755602 -0.228260 -0.926864 0.104123 -0.205670
    13 0.039887 -1.530573 0.014229 -1.473570 -0.012212 0.032731
    14 0.028786 -1.169484 -0.124675 -1.082413 -0.015161 0.023166
    15 0.250027 -2.820665 -0.238396 -0.656416 0.070401 -0.070751
    16 -0.049759 -1.594604 0.026258 -1.644847 -0.001630 -0.043494
    17 -0.034142 -1.156125 0.057437 -0.778245 0.008377 -0.019511
    18 0.957766 -2.746780 -0.090302 0.192366 -0.212660 0.232006
    19 -0.033420 -1.397129 -0.026882 -0.840549 0.006592 -0.041348
    20 -0.022360 -0.957436 -0.000748 -0.702856 0.007562 -0.034132
    21 -1.180681 -2.507217 -0.193859 -1.000921 0.270987 -0.298350
    22 -0.024967 -1.127840 0.017597 -0.956758 0.004674 -0.041010
    23 -0.020057 -0.906594 0.033528 -1.043762 0.004698 -0.042809
    24 0.603042 -1.205090 0.189285 0.170717 -0.910476 -0.421804
    25 1.485144 -0.208511 0.067511 0.044099 -0.208064 -0.737596
    26 0.975767 -0.198604 0.051823 0.125211 -0.269176 -1.206668
    27 0.120153 -0.050270 -0.054489 0.287569 3.110905 1.561085
    28 -10.782808 -0.473302 -5.606923 -0.787913 -3.282040 -0.337279
    29 0.155540 -8.512920 -0.071867 0.863888 0.027112 0.271171
    30 0.447953 -2.798986 -0.200443 -1.095807 -0.115884 0.286031
    31 -0.032909 -1.495829 0.016659 -0.937501 0.019763 -0.014176
    32 -0.027022 -1.096452 -0.028023 -0.513425 0.013471 -0.005429
    33 -0.249534 -2.846964 -0.174213 -0.694988 -0.073207 0.004811
    34 0.043235 -1.660503 0.080387 -1.004581 -0.016484 0.001583
    35 0.031729 -1.153017 0.058838 -0.444953 -0.003900 0.005867
    36 -0.963866 -2.785145 -0.085350 -0.359784 0.157230 -0.206201
    37 0.028479 -1.403067 -0.013261 -0.753784 -0.017174 -0.029206
    38 0.021413 -0.957781 0.020046 -0.178880 -0.002061 -0.007982
    39 1.164475 -2.543940 -0.170330 -1.292408 -0.215198 0.420521
    40 0.024032 -1.136855 -0.001725 -0.785764 0.004350 0.041887
    41 0.014898 -0.895708 -0.019848 -0.595607 -0.000911 0.029698
    42 -0.586770 -1.264477 0.200161 -0.074783 -0.442867 -2.775665
    43 1.557992 0.035243 0.016848 -0.014565 -0.005732 0.737028
    44 1.117947 0.048424 -0.005766 0.003029 -0.021267 -0.094003
    45 -0.037833 -0.131230 -0.106700 0.756922 0.202509 1.380917
    46 -7.827260 3.296039 -0.442564 1.573424 -0.031517 -0.483347
  time 3
    0 3.414130 -11.937860 -6.231871 -1.097066 -0.900553 -4.534604
    1 -11.471972 3.992305 -3.934102 0.000000 -3.040035 0.175994
    2 3.259201 -0.000005 -1.130647 0.000000 0.000000 -0.000001
    3 3.260927 1.355822 2.192472 2.208361 -1.542144 -1.139077
    4 3.261963 1.374206 1.040803 -2.040361 -1.570796 0.000000
    5 3.707688 -0.036995 -1.128818 0.000000 0.000000 -0.000001
    6 1.073001 -0.000003 4.918042 0.000000 -3.141592 0.000000
    7 2.506188 0.664625 6.365480 -3.048099 0.000000 1.570796
    8 0.923057 -2.001326 -3.726057 -0.062488 -0.333819 0.188710
    9 5.110757 -5.967603 -6.120262 0.584115 -2.272688 -1.170863
    10 7.476120 3.809309 -0.321687 1.565779 -3.123874 0.554934
    11 -0.079734 -8.447954 -0.115853 -0.466059 0.437625 0.309717
    12 -0.488518 -2.755602 -0.228260 -0.926864 0.104123 -0.205670
    13 0.039887 -1.530573 0.014229 -1.473570 -0.012212 0.032731
    14 0.028786 -1.169484 -0.124675 -1.082413 -0.015161 0.023166
    15 0.250027 -2.820665 -0.238396 -0.656416 0.070401 -0.070751
    16 -0.049759 -1.594604 0.026258 -1.644847 -0.001630 -0.043494
    17 -0.034142 -1.156125 0.057437 -0.778245 0.008377 -0.019511
    18 0.957766 -2.746780 -0.090302 0.192366 -0.212660 0.232006
    19 -0.033420 -1.397129 -0.026882 -0.840549 0.006592 -0.041348
    20 -0.022360 -0.957436 -0.000748 -0.702856 0.007562 -0.034132
    21 -1.180681 -2.507217 -0.193859 -1.000921 0.270987 -0.298350
    22 -0.024967 -1.127840 0.017597 -0.956758 0.004674 -0.041010
    23 -0.020057 -0.906594 0.033528 -1.043762 0.004698 -0.042809
    24 0.603042 -1.205090 0.189285 0.170717 -0.910476 -0.421804
    25 1.485144 -0.208511 0.067511 0.044099 -0.208064 -0.737596
    26 0.975767 -0.198604 0.051823 0.125211 -0.269176 -1.206668
    27 0.120153 -0.050270 -0.054489 0.287569 3.110905 1.561085
    28 -10.833591 -0.219388 -5.380354 -0.780229 -3.269693 -0.350834
    29 0.155540 -8.516827 -0.067961 0.852816 0.022575 0.258887
    30 0.447953 -2.798986 -0.200443 -1.092816 -0.115908 0.286115
    31 -0.032909 -1.495829 0.016659 -0.937501 0.019763 -0.014176
    32 -0.027022 -1.096452 -0.028023 -0.513425 0.013471 -0.005429
    33 -0.249534 -2.846964 -0.174213 -0.693768 -0.073195 0.004811
    34 0.043235 -1.660503 0.080387 -1.006584 -0.016520 0.001595
    35 0.031729 -1.153017 0.058838 -0.444953 -0.003900 0.005867
    36 -0.963866 -2.785145 -0.085350 -0.359784 0.157230 -0.206201
    37 0.028479 -1.403067 -0.013261 -0.757924 -0.017318 -0.029326
    38 0.021413 -0.957781 0.020046 -0.178304 -0.002049 -0.007958
    39 1.164475 -2.543940 -0.170330 -1.287999 -0.215402 0.420389
    40 0.024032 -1.136855 -0.001725 -0.783391 0.004290 0.041767
    41 0.014898 -0.895708 -0.019848 -0.595607 -0.000911 0.029698
    42 -0.586770 -1.264477 0.200161 -0.074464 -0.446359 -2.776810
    43 1.557992 0.035243 0.016848 -0.014482 -0.005708 0.734125
    44 1.117947 0.048424 -0.005766 0.002969 -0.021375 -0.090318
    45 -0.037833 -0.131230 -0.106700 0.756922 0.202509 1.380917
    46 -7.928826 2.960091 -0.450377 1.572657 -0.032283 -0.440982
  time 4
    0 3.496163 -11.840201 -5.790451 -0.824954 -0.986565 1.567623
    1 -11.522755 3.644638 -4.004417 0.000000 -3.035193 0.184371
    2 3.259201 -0.000005 -1.130647 0.000000 0.000000 -0.000001
    3 3.190612 0.621425 2.571390 2.208361 -1.542144 -1.139077
    4 3.191648 0.639809 1.419721 -2.040361 -1.570796 0.000000
    5 3.707688 -0.036995 -1.128818 0.000000 0.000000 -0.000001
    6 1.073001 -0.000003 4.918042 0.000000 -3.141592 0.000000
    7 2.506188 0.664625 6.365480 -3.048099 0.000000 1.570796
    8 0.923057 -2.001326 -3.726057 -0.062488 -0.333819 0.188710
    9 5.243573 -5.873850 -6.174951 0.616085 -2.274139 -1.178876
    10 7.569873 3.567114 -0.325593 1.565875 -3.123301 0.523382
    11 -0.044576 -8.451860 -0.096321 -0.356449 0.579759 0.321886
    12 -0.488518 -2.755602 -0.228260 -0.926864 0.104123 -0.205670
    13 0.039887 -1.530573 0.014229 -1.473570 -0.012212 0.032731
    14 0.028786 -1.169484 -0.124675 -1.082413 -0.015161 0.023166
    15 0.250027 -2.820665 -0.238396 -0.656416 0.070401 -0.070751
    16 -0.049759 -1.594604 0.026258 -1.644847 -0.001630 -0.043494
    17 -0.034142 -1.156125 0.057437 -0.778245 0.008377 -0.019511
    18 0.957766 -2.746780 -0.090302 0.192366 -0.212660 0.232006
    19 -0.033420 -1.397129 -0.026882 -0.840549 0.006592 -0.041348
    20 -0.022360 -0.957436 -0.000748 -0.702856 0.007562 -0.034132
    21 -1.180681 -2.507217 -0.193859 -1.000921 0.270987 -0.298350
    22 -0.024967 -1.127840 0.017597 -0.956758 0.004674 -0.041010
    23 -0.020057 -0.906594 0.033528 -1.043762 0.004698 -0.042809
    24 0.603042 -1.205090 0.189285 0.170717 -0.910476 -0.421804
    25 1.485144 -0.208511 0.067511 0.044099 -0.208064 -0.737596
    26 0.975767 -0.198604 0.051823 0.125211 -0.269176 -1.206668
    27 0.120153 -0.050270 -0.054489 0.287569 3.110905 1.561085
    28 -10.860936 0.030620 -5.149878 -0.771220 -3.256851 -0.364637
    29 0.151633 -8.516827 -0.067961 0.839224 0.015036 0.244001
    30 0.447953 -2.798986 -0.200443 -1.089986 -0.115932 0.286187
    31 -0.032909 -1.495829 0.016659 -0.937501 0.019763 -0.014176
    32 -0.027022 -1.096452 -0.028023 -0.513425 0.013471 -0.005429
    33 -0.249534 -2.846964 -0.174213 -0.692608 -0.073171 0.004799
    34 0.043235 -1.660503 0.080387 -1.008447 -0.016544 0.001619
    35 0.031729 -1.153017 0.058838 -0.444953 -0.003900 0.005867
    36 -0.963866 -2.785145 -0.085350 -0.359784 0.157230 -0.206201
    37 0.028479 -1.403067 -0.013261 -0.761833 -0.017462 -0.029434
    38 0.021413 -0.957781 0.020046 -0.177759 -0.002037 -0.007946
    39 1.164475 -2.543940 -0.170330 -1.283861 -0.215606 0.420269
    40 0.024032 -1.136855 -0.001725 -0.781167 0.004231 0.041659
    41 0.014898 -0.895708 -0.019848 -0.595607 -0.000911 0.029698
    42 -0.586770 -1.264477 0.200161 -0.074144 -0.449671 -2.777887
    43 1.557992 0.035243 0.016848 -0.014410 -0.005684 0.731400
    44 1.117947 0.048424 -0.005766 0.002897 -0.021459 -0.086826
    45 -0.037833 -0.131230 -0.106700 0.756922 0.202509 1.380917
    46 -8.014766 2.639769 -0.454283 1.571794 -0.033048 -0.400471
  time 5
    0 3.457100 -11.797231 -5.278717 -0.404653 -1.044613 1.274624
    1 -11.573537 3.293065 -4.078638 0.000000 -3.030363 0.192760
    2 3.259201 -0.000005 -1.130647 0.000000 0.000000 -0.000001
    3 3.260927 1.355822 2.192472 2.208361 -1.542144 -1.139077
    4 3.261963 1.374206 1.040803 -2.040361 -1.570796 0.000000
    5 3.707688 -0.036995 -1.128818 0.000000 0.000000 0.915675
    6 1.073001 -0.000003 4.918042 0.000000 -3.141592 0.000000
    7 2.506188 0.664625 6.365480 -3.048099 0.000000 1.570796
    8 0.923057 -2.001326 -3.726057 -0.062488 -0.333819 0.188710
    9 5.306075 -5.803536 -6.202296 0.645098 -2.276428 -1.192259
    10 7.632375 3.395233 -0.329500 1.566066 -3.122823 0.500907
    11 0.002300 -8.463579 -0.072883 -0.170657 0.741444 0.366574
    12 -0.488518 -2.755602 -0.228260 -0.926864 0.104123 -0.205670
    13 0.039887 -1.530573 0.014229 -1.473570 -0.012212 0.032731
    14 0.028786 -1.169484 -0.124675 -1.082413 -0.015161 0.023166
    15 0.250027 -2.820665 -0.238396 -0.656416 0.070401 -0.070751
    16 -0.049759 -1.594604 0.026258 -1.644847 -0.001630 -0.043494
    17 -0.034142 -1.156125 0.057437 -0.778245 0.008377 -0.019511
    18 0.957766 -2.746780 -0.090302 0.192366 -0.212660 0.232006
    19 -0.033420 -1.397129 -0.026882 -0.840549 0.006592 -0.041348
    20 -0.022360 -0.957436 -0.000748 -0.702856 0.007562 -0.034132
    21 -1.180681 -2.507217 -0.193859 -1.000921 0.270987 -0.298350
    22 -0.024967 -1.127840 0.017597 -0.956758 0.004674 -0.041010
    23 -0.020057 -0.906594 0.033528 -1.043762 0.004698 -0.042809
    24 0.603042 -1.205090 0.189285 0.170717 -0.910476 -0.421804
    25 1.485144 -0.208511 0.067511 0.044099 -0.208064 -0.737596
    26 0.975767 -0.198604 0.051823 0.125211 -0.269176 -1.206668
    27 0.120153 -0.050270 -0.054489 0.287569 3.110905 1.561085
    28 -10.872655 0.268908 -4.923308 -0.760911 -3.243349 -0.378689
    29 0.151633 -8.520733 -0.064054 0.823180 0.004155 0.226515
    30 0.447953 -2.798986 -0.200443 -1.087439 -0.115956 0.286259
    31 -0.032909 -1.495829 0.016659 -0.937501 0.019763 -0.014176
    32 -0.027022 -1.096452 -0.028023 -0.513425 0.013471 -0.005429
    33 -0.249534 -2.846964 -0.174213 -0.691536 -0.073159 0.004787
    34 0.043235 -1.660503 0.080387 -1.010124 -0.016568 0.001643
    35 0.031729 -1.153017 0.058838 -0.444953 -0.003900 0.005867
    36 -0.963866 -2.785145 -0.085350 -0.359784 0.157230 -0.206201
    37 0.028479 -1.403067 -0.013261 -0.765415 -0.017593 -0.029530
    38 0.021413 -0.957781 0.020046 -0.177274 -0.002037 -0.007922
    39 1.164475 -2.543940 -0.170330 -1.280037 -0.215786 0.420149
    40 0.024032 -1.136855 -0.001725 -0.779091 0.004183 0.041552
    41 0.014898 -0.895708 -0.019848 -0.595607 -0.000911 0.029698
    42 -0.586770 -1.264477 0.200161 -0.073859 -0.452682 -2.778863
    43 1.557992 0.035243 0.016848 -0.014350 -0.005660 0.728912
    44 1.117947 0.048424 -0.005766 0.002837 -0.021543 -0.083646
    45 -0.037833 -0.131230 -0.106700 0.756922 0.202509 1.380917
    46 -8.081174 2.331166 -0.458190 1.570931 -0.033622 -0.362186
  time 6
    0 3.398504 -11.816763 -4.724012 0.096688 -1.028424 0.920515
    1 -11.628227 2.941492 -4.148952 0.000000 -3.025522 0.201137
    2 3.259201 -0.000005 -1.130647 0.000000 0.000000 -0.000001
    3 3.190612 0.621425 2.571390 2.208361 -1.542144 -1.139077
    4 3.191648 0.639809 1.419721 -2.040361 -1.570796 0.000000
    5 3.707688 -0.036995 -1.128818 0.000000 0.000000 1.831351
    6 1.073001 -0.000003 4.918042 0.000000 -3.141592 0.000000
    7 2.506188 0.664625 6.365480 0.093493 -3.141592 -1.570796
    8 0.923057 -2.001326 -3.726057 -0.062488 -0.333819 0.188710
    9 5.317794 -5.748846 -6.214015 0.671154 -2.278794 -1.209007
    10 7.671438 3.278042 -0.333406 1.566162 -3.122536 0.485563
    11 0.056989 -8.487017 -0.061164 0.103162 0.899998 0.479982
    12 -0.488518 -2.755602 -0.228260 -0.926864 0.104123 -0.205670
    13 0.039887 -1.530573 0.014229 -1.473570 -0.012212 0.032731
    14 0.028786 -1.169484 -0.124675 -1.082413 -0.015161 0.023166
    15 0.250027 -2.820665 -0.238396 -0.656416 0.070401 -0.070751
    16 -0.049759 -1.594604 0.026258 -1.644847 -0.001630 -0.043494
    17 -0.034142 -1.156125 0.057437 -0.778245 0.008377 -0.019511
    18 0.957766 -2.746780 -0.090302 0.192366 -0.212660 0.232006
    19 -0.033420 -1.397129 -0.026882 -0.840549 0.006592 -0.041348
    20 -0.022360 -0.957436 -0.000748 -0.702856 0.007562 -0.034132
    21 -1.180681 -2.507217 -0.193859 -1.000921 0.270987 -0.298350
    22 -0.024967 -1.127840 0.017597 -0.956758 0.004674 -0.041010
    23 -0.020057 -0.906594 0.033528 -1.043762 0.004698 -0.042809
    24 0.603042 -1.205090 0.189285 0.170717 -0.910476 -0.421804
    25 1.485144 -0.208511 0.067511 0.044099 -0.208064 -0.737596
    26 0.975767 -0.198604 0.051823 0.125211 -0.269176 -1.206668
    27 0.120153 -0.050270 -0.054489 0.287569 3.110905 1.561085
    28 -10.868749 0.491571 -4.700645 -0.749300 -3.229153 -0.393070
    29 0.147727 -8.520733 -0.060148 0.804650 -0.010513 0.206490
    30 0.447953 -2.798986 -0.200443 -1.085135 -0.115968 0.286331
    31 -0.032909 -1.495829 0.016659 -0.937501 0.019763 -0.014176
    32 -0.027022 -1.096452 -0.028023 -0.513425 0.013471 -0.005429
    33 -0.249534 -2.846964 -0.174213 -0.690614 -0.073135 0.004787
    34 0.043235 -1.660503 0.080387 -1.011661 -0.016604 0.001655
    35 0.031729 -1.153017 0.058838 -0.444953 -0.003900 0.005867
    36 -0.963866 -2.785145 -0.085350 -0.359784 0.157230 -0.206201
    37 0.028479 -1.403067 -0.013261 -0.768579 -0.017701 -0.029614
    38 0.021413 -0.957781 0.020046 -0.176820 -0.002025 -0.007898
    39 1.164475 -2.543940 -0.170330 -1.276708 -0.215941 0.420041
    40 0.024032 -1.136855 -0.001725 -0.777262 0.004135 0.041468
    41 0.014898 -0.895708 -0.019848 -0.595607 -0.000911 0.029698
    42 -0.586770 -1.264477 0.200161 -0.073590 -0.455351 -2.779738
    43 1.557992 0.035243 0.016848 -0.014290 -0.005636 0.726721
    44 1.117947 0.048424 -0.005766 0.002789 -0.021615 -0.080852
    45 -0.037833 -0.131230 -0.106700 0.756922 0.202509 1.380917
    46 -8.135863 2.042095 -0.462096 1.570165 -0.034196 -0.326495
  time 7
    0 3.402411 -11.902703 -4.188840 0.532919 -0.932990 0.637477
    1 -11.679009 2.589919 -4.219267 0.000000 -3.020692 0.209515
    2 3.259201 -0.000005 -1.130647 0.000000 0.000000 -0.000001
    3 3.260927 1.355822 2.192472 2.208361 -1.542144 -1.139077
    4 3.261963 1.374206 1.040803 -2.040361 -1.570796 0.000000
    5 3.707688 -0.036995 -1.128818 0.000000 0.000000 2.747122
    6 1.073001 -0.000003 4.918042 0.000000 -3.141592 0.000000
    7 2.506188 0.664625 6.365480 -3.048099 0.000000 1.570796
    8 0.923057 -2.001326 -3.726057 -0.062488 -0.333819 0.188710
    9 5.302169 -5.705876 -6.210109 0.694161 -2.281007 -1.226797
    10 7.694876 3.199915 -0.333406 1.566258 -3.122249 0.475478
    11 0.115585 -8.510455 -0.065070 0.483837 1.023928 0.699843
    12 -0.488518 -2.755602 -0.228260 -0.926864 0.104123 -0.205670
    13 0.039887 -1.530573 0.014229 -1.473570 -0.012212 0.032731
    14 0.028786 -1.169484 -0.124675 -1.082413 -0.015161 0.023166
    15 0.250027 -2.820665 -0.238396 -0.656416 0.070401 -0.070751
    16 -0.049759 -1.594604 0.026258 -1.644847 -0.001630 -0.043494
    17 -0.034142 -1.156125 0.057437 -0.778245 0.008377 -0.019511
    18 0.957766 -2.746780 -0.090302 0.192366 -0.212660 0.232006
    19 -0.033420 -1.397129 -0.026882 -0.840549 0.006592 -0.041348
    20 -0.022360 -0.957436 -0.000748 -0.702856 0.007562 -0.034132
    21 -1.180681 -2.507217 -0.193859 -1.000921 0.270987 -0.298350
    22 -0.024967 -1.127840 0.017597 -0.956758 0.004674 -0.041010
    23 -0.020057 -0.906594 0.033528 -1.043762 0.004698 -0.042809
    24 0.603042 -1.205090 0.189285 0.170717 -0.910476 -0.421804
    25 1.485144 -0.208511 0.067511 0.044099 -0.208064 -0.737596
    26 0.975767 -0.198604 0.051823 0.125211 -0.269176 -1.206668
    27 0.120153 -0.050270 -0.054489 0.287569 3.110905 1.561085
    28 -10.849217 0.702515 -4.481889 -0.736413 -3.214198 -0.407948
    29 0.143820 -8.524639 -0.052335 0.783733 -0.029309 0.183958
    30 0.447953 -2.798986 -0.200443 -1.083276 -0.115992 0.286379
    31 -0.032909 -1.495829 0.016659 -0.937501 0.019763 -0.014176
    32 -0.027022 -1.096452 -0.028023 -0.513425 0.013471 -0.005429
    33 -0.249534 -2.846964 -0.174213 -0.689810 -0.073123 0.004775
    34 0.043235 -1.660503 0.080387 -1.012918 -0.016616 0.001667
    35 0.031729 -1.153017 0.058838 -0.444953 -0.003900 0.005867
    36 -0.963866 -2.785145 -0.085350 -0.359784 0.157230 -0.206201
    37 0.028479 -1.403067 -0.013261 -0.771184 -0.017797 -0.029686
    38 0.021413 -0.957781 0.020046 -0.176456 -0.002025 -0.007886
    39 1.164475 -2.543940 -0.170330 -1.273874 -0.216073 0.419958
    40 0.024032 -1.136855 -0.001725 -0.775779 0.004099 0.041396
    41 0.014898 -0.895708 -0.019848 -0.595607 -0.000911 0.029698
    42 -0.586770 -1.264477 0.200161 -0.073371 -0.457559 -2.780462
    43 1.557992 0.035243 0.016848 -0.014242 -0.005612 0.724884
    44 1.117947 0.048424 -0.005766 0.002741 -0.021675 -0.078516
    45 -0.037833 -0.131230 -0.106700 0.756922 0.202509 1.380917
    46 -8.174927 1.776462 -0.462096 1.569494 -0.034674 -0.293771
  time 8
    0 3.496163 -12.019894 -3.731794 0.845041 -0.796979 0.470527
    1 -11.729792 2.238346 -4.293488 0.000000 -3.015850 0.217904
    2 3.259201 -0.000005 -1.130647 0.000000 0.000000 -0.000001
    3 3.190612 0.621425 2.571390 2.208361 -1.542144 -1.139077
    4 3.191648 0.639809 1.419721 -2.040361 -1.570796 0.000000
    5 3.707688 -0.036995 -1.128818 0.000000 0.000000 -2.620267
    6 1.073001 -0.000003 4.918042 0.000000 -3.141592 0.000000
    7 2.506188 0.664625 6.365480 -3.048099 0.000000 1.570796
    8 0.923057 -2.001326 -3.726057 -0.062488 -0.333819 0.188710
    9 5.270918 -5.674625 -6.202296 0.713749 -2.282458 -1.243385
    10 7.710502 3.145226 -0.337312 1.566258 -3.122154 0.468707
    11 0.162461 -8.541706 -0.080696 0.942758 1.081051 1.013836
    12 -0.488518 -2.755602 -0.228260 -0.926864 0.104123 -0.205670
    13 0.039887 -1.530573 0.014229 -1.473570 -0.012212 0.032731
    14 0.028786 -1.169484 -0.124675 -1.082413 -0.015161 0.023166
    15 0.250027 -2.820665 -0.238396 -0.656416 0.070401 -0.070751
    16 -0.049759 -1.594604 0.026258 -1.644847 -0.001630 -0.043494
    17 -0.034142 -1.156125 0.057437 -0.778245 0.008377 -0.019511
    18 0.957766 -2.746780 -0.090302 0.192366 -0.212660 0.232006
    19 -0.033420 -1.397129 -0.026882 -0.840549 0.006592 -0.041348
    20 -0.022360 -0.957436 -0.000748 -0.702856 0.007562 -0.034132
    21 -1.180681 -2.507217 -0.193859 -1.000921 0.270987 -0.298350
    22 -0.024967 -1.127840 0.017597 -0.956758 0.004674 -0.041010
    23 -0.020057 -0.906594 0.033528 -1.043762 0.004698 -0.042809
    24 0.603042 -1.205090 0.189285 0.170717 -0.910476 -0.421804
    25 1.485144 -0.208511 0.067511 0.044099 -0.208064 -0.737596
    26 0.975767 -0.198604 0.051823 0.125211 -0.269176 -1.206668
    27 0.120153 -0.050270 -0.054489 0.287569 3.110905 1.561085
    28 -10.814059 0.901740 -4.274851 -0.722224 -3.198417 -0.423322
    29 0.139914 -8.528546 -0.048429 0.760595 -0.052676 0.159076
    30 0.447953 -2.798986 -0.200443 -1.081820 -0.116004 0.286415
    31 -0.032909 -1.495829 0.016659 -0.937501 0.019763 -0.014176
    32 -0.027022 -1.096452 -0.028023 -0.513425 0.013471 -0.005429
    33 -0.249534 -2.846964 -0.174213 -0.689215 -0.073111 0.004775
    34 0.043235 -1.660503 0.080387 -1.013850 -0.016640 0.001679
    35 0.031729 -1.153017 0.058838 -0.444953 -0.003900 0.005867
    36 -0.963866 -2.785145 -0.085350 -0.359784 0.157230 -0.206201
    37 0.028479 -1.403067 -0.013261 -0.773185 -0.017869 -0.029746
    38 0.021413 -0.957781 0.020046 -0.176184 -0.002013 -0.007874
    39 1.164475 -2.543940 -0.170330 -1.271760 -0.216169 0.419886
    40 0.024032 -1.136855 -0.001725 -0.774642 0.004063 0.041336
    41 0.014898 -0.895708 -0.019848 -0.595607 -0.000911 0.029698
    42 -0.586770 -1.264477 0.200161 -0.073203 -0.459245 -2.781018
    43 1.557992 0.035243 0.016848 -0.014206 -0.005600 0.723492
    44 1.117947 0.048424 -0.005766 0.002705 -0.021722 -0.076734
    45 -0.037833 -0.131230 -0.106700 0.756922 0.202509 1.380917
    46 -8.202272 1.534267 -0.466002 1.568823 -0.035056 -0.264292
  time 9
    0 3.668044 -12.125366 -3.399753 1.050468 -0.660373 0.384418
    1 -11.780575 1.886772 -4.363803 0.000000 -3.011020 0.226281
    2 3.259201 -0.000005 -1.130647 0.000000 0.000000 -0.000001
    3 3.260927 1.355822 2.192472 2.208361 -1.542144 -1.139077
    4 3.261963 1.374206 1.040803 -2.040361 -1.570796 0.000000
    5 3.707688 -0.036995 -1.128818 0.000000 0.000000 -1.704592
    6 1.073001 -0.000003 4.918042 0.000000 -3.141592 0.000000
    7 2.506188 0.664625 6.365480 -3.048099 0.000000 1.570796
    8 0.923057 -2.001326 -3.726057 -0.062488 -0.333819 0.188710
    9 5.247479 -5.639468 -6.198390 0.730011 -2.282839 -1.256286
    10 7.726127 3.106162 -0.337312 1.566354 -3.122058 0.463448
    11 0.193712 -8.569051 -0.104134 1.356587 1.070493 1.315302
    12 -0.488518 -2.755602 -0.228260 -0.926864 0.104123 -0.205670
    13 0.039887 -1.530573 0.014229 -1.473570 -0.012212 0.032731
    14 0.028786 -1.169484 -0.124675 -1.082413 -0.015161 0.023166
    15 0.250027 -2.820665 -0.238396 -0.656416 0.070401 -0.070751
    16 -0.049759 -1.594604 0.026258 -1.644847 -0.001630 -0.043494
    17 -0.034142 -1.156125 0.057437 -0.778245 0.008377 -0.019511
    18 0.957766 -2.746780 -0.090302 0.192366 -0.212660 0.232006
    19 -0.033420 -1.397129 -0.026882 -0.840549 0.006592 -0.041348
    20 -0.022360 -0.957436 -0.000748 -0.702856 0.007562 -0.034132
    21 -1.180681 -2.507217 -0.193859 -1.000921 0.270987 -0.298350
    22 -0.024967 -1.127840 0.017597 -0.956758 0.004674 -0.041010
    23 -0.020057 -0.906594 0.033528 -1.043762 0.004698 -0.042809
    24 0.603042 -1.205090 0.189285 0.170717 -0.910476 -0.421804
    25 1.485144 -0.208511 0.067511 0.044099 -0.208064 -0.737596
    26 0.975767 -0.198604 0.051823 0.125211 -0.269176 -1.206668
    27 0.120153 -0.050270 -0.054489 0.287569 3.110905 1.561085
    28 -10.774996 1.085339 -4.075626 -0.706784 -3.181845 -0.439522
    29 0.136008 -8.528546 -0.040616 0.735302 -0.081023 0.131938
    30 0.447953 -2.798986 -0.200443 -1.080931 -0.116004 0.286439
    31 -0.032909 -1.495829 0.016659 -0.937501 0.019763 -0.014176
    32 -0.027022 -1.096452 -0.028023 -0.513425 0.013471 -0.005429
    33 -0.249534 -2.846964 -0.174213 -0.688858 -0.073111 0.004775
    34 0.043235 -1.660503 0.080387 -1.014455 -0.016640 0.001691
    35 0.031729 -1.153017 0.058838 -0.444953 -0.003900 0.005867
    36 -0.963866 -2.785145 -0.085350 -0.359784 0.157230 -0.206201
    37 0.028479 -1.403067 -0.013261 -0.774441 -0.017917 -0.029770
    38 0.021413 -0.957781 0.020046 -0.176002 -0.002013 -0.007862
    39 1.164475 -2.543940 -0.170330 -1.270411 -0.216229 0.419850
    40 0.024032 -1.136855 -0.001725 -0.773901 0.004051 0.041300
    41 0.014898 -0.895708 -0.019848 -0.595607 -0.000911 0.029698
    42 -0.586770 -1.264477 0.200161 -0.073102 -0.460329 -2.781371
    43 1.557992 0.035243 0.016848 -0.014182 -0.005588 0.722633
    44 1.117947 0.048424 -0.005766 0.002681 -0.021746 -0.075626
    45 -0.037833 -0.131230 -0.106700 0.756922 0.202509 1.380917
    46 -8.217897 1.323323 -0.466002 1.568152 -0.035439 -0.238428
  time 10
    0 3.484444 -12.187868 -3.477880 1.103909 -0.608855 0.348117
    1 -11.831358 1.539105 -4.438024 0.000000 -3.006178 0.234658
    2 3.259201 -0.000005 -1.130647 0.000000 0.000000 -0.000001
    3 3.190612 0.621425 2.571390 2.208361 -1.542144 -1.139077
    4 3.191648 0.639809 1.419721 -2.040361 -1.570796 0.000000
    5 3.707688 -0.036995 -1.128818 0.000000 0.000000 -0.788820
    6 1.073001 -0.000003 4.918042 0.000000 -3.141592 0.000000
    7 2.506188 0.664625 6.365480 -3.048099 0.000000 1.570796
    8 0.923057 -2.001326 -3.726057 -0.062488 -0.333819 0.188710
    9 5.071693 -5.670719 -6.159326 0.719385 -2.273833 -1.269188
    10 7.659719 3.309293 -0.333406 1.566162 -3.122536 0.489741
    11 0.205431 -8.576864 -0.111947 1.475611 1.039328 1.420376
    12 -0.488518 -2.755602 -0.228260 -0.926864 0.104123 -0.205670
    13 0.039887 -1.530573 0.014229 -1.473570 -0.012212 0.032731
    14 0.028786 -1.169484 -0.124675 -1.082413 -0.015161 0.023166
    15 0.250027 -2.820665 -0.238396 -0.656416 0.070401 -0.070751
    16 -0.049759 -1.594604 0.026258 -1.644847 -0.001630 -0.043494
    17 -0.034142 -1.156125 0.057437 -0.778245 0.008377 -0.019511
    18 0.957766 -2.746780 -0.090302 0.192366 -0.212660 0.232006
    19 -0.033420 -1.397129 -0.026882 -0.840549 0.006592 -0.041348
    20 -0.022360 -0.957436 -0.000748 -0.702856 0.007562 -0.034132
    21 -1.180681 -2.507217 -0.193859 -1.000921 0.270987 -0.298350
    22 -0.024967 -1.127840 0.017597 -0.956758 0.004674 -0.041010
    23 -0.020057 -0.906594 0.033528 -1.043762 0.004698 -0.042809
    24 0.603042 -1.205090 0.189285 0.170717 -0.910476 -0.421804
    25 1.485144 -0.208511 0.067511 0.044099 -0.208064 -0.737596
    26 0.975767 -0.198604 0.051823 0.125211 -0.269176 -1.206668
    27 0.120153 -0.050270 -0.054489 0.287569 3.110905 1.561085
    28 -10.724213 1.253313 -3.888121 -0.690092 -3.164413 -0.456466
    29 0.128195 -8.532452 -0.032803 0.708119 -0.114794 0.102794
    30 0.447953 -2.798986 -0.200443 -1.080608 -0.116016 0.286451
    31 -0.032909 -1.495829 0.016659 -0.937501 0.019763 -0.014176
    32 -0.027022 -1.096452 -0.028023 -0.513425 0.013471 -0.005429
    33 -0.249534 -2.846964 -0.174213 -0.688709 -0.073099 0.004763
    34 0.043235 -1.660503 0.080387 -1.014688 -0.016652 0.001691
    35 0.031729 -1.153017 0.058838 -0.444953 -0.003900 0.005867
    36 -0.963866 -2.785145 -0.085350 -0.359784 0.157230 -0.206201
    37 0.028479 -1.403067 -0.013261 -0.774906 -0.017929 -0.029782
    38 0.021413 -0.957781 0.020046 -0.175941 -0.002013 -0.007862
    39 1.164475 -2.543940 -0.170330 -1.269961 -0.216253 0.419838
    40 0.024032 -1.136855 -0.001725 -0.773654 0.004039 0.041288
    41 0.014898 -0.895708 -0.019848 -0.595607 -0.000911 0.029698
    42 -0.586770 -1.264477 0.200161 -0.073069 -0.460710 -2.781506
    43 1.557992 0.035243 0.016848 -0.014170 -0.005588 0.722307
    44 1.117947 0.048424 -0.005766 0.002681 -0.021758 -0.075216
    45 -0.037833 -0.131230 -0.106700 0.756922 0.202509 1.380917
    46 -8.229616 1.143630 -0.469909 1.567673 -0.035726 -0.216551
  time 11
    0 3.445381 -12.238651 -3.622416 1.082977 -0.617053 0.330301
    1 -11.882141 1.187532 -4.508338 0.000000 -3.001349 0.243036
    2 3.259201 -0.000005 -1.130647 0.000000 0.000000 -0.000001
    3 3.260927 1.355822 2.192472 2.208361 -1.542144 -1.139077
    4 3.261963 1.374206 1.040803 -2.040361 -1.570796 0.000000
    5 3.707688 -0.036995 -1.128818 0.000000 0.000000 0.126760
    6 1.073001 -0.000003 4.918042 0.000000 -3.141592 0.000000
    7 2.506188 0.664625 6.365480 -3.048099 0.000000 1.570796
    8 0.923057 -2.001326 -3.726057 -0.062488 -0.333819 0.188710
    9 5.005285 -5.701970 -6.139794 0.701368 -2.264217 -1.257568
    10 7.597217 3.492893 -0.329500 1.565970 -3.123109 0.513729
    11 0.205431 -8.569051 -0.108040 1.447233 1.047265 1.435613
    12 -0.488518 -2.755602 -0.228260 -0.926864 0.104123 -0.205670
    13 0.039887 -1.530573 0.014229 -1.473570 -0.012212 0.032731
    14 0.028786 -1.169484 -0.124675 -1.082413 -0.015161 0.023166
    15 0.250027 -2.820665 -0.238396 -0.656416 0.070401 -0.070751
    16 -0.049759 -1.594604 0.026258 -1.644847 -0.001630 -0.043494
    17 -0.034142 -1.156125 0.057437 -0.778245 0.008377 -0.019511
    18 0.957766 -2.746780 -0.090302 0.192366 -0.212660 0.232006
    19 -0.033420 -1.397129 -0.026882 -0.840549 0.006592 -0.041348
    20 -0.022360 -0.957436 -0.000748 -0.702856 0.007562 -0.034132
    21 -1.180681 -2.507217 -0.193859 -1.000921 0.270987 -0.298350
    22 -0.024967 -1.127840 0.017597 -0.956758 0.004674 -0.041010
    23 -0.020057 -0.906594 0.033528 -1.043762 0.004698 -0.042809
    24 0.603042 -1.205090 0.189285 0.170717 -0.910476 -0.421804
    25 1.485144 -0.208511 0.067511 0.044099 -0.208064 -0.737596
    26 0.975767 -0.198604 0.051823 0.125211 -0.269176 -1.206668
    27 0.120153 -0.050270 -0.054489 0.287569 3.110905 1.561085
    28 -11.064067 0.667358 -4.005312 -0.511316 -3.085346 -0.579539
    29 0.011004 -8.536359 0.045324 0.438384 -0.648237 -0.293001
    30 0.447953 -2.798986 -0.200443 -1.080608 -0.116016 0.286451
    31 -0.032909 -1.495829 0.016659 -0.937501 0.019763 -0.014176
    32 -0.027022 -1.096452 -0.028023 -0.513425 0.013471 -0.005429
    33 -0.249534 -2.846964 -0.174213 -0.688709 -0.073099 0.004763
    34 0.043235 -1.660503 0.080387 -1.014688 -0.016652 0.001691
    35 0.031729 -1.153017 0.058838 -0.444953 -0.003900 0.005867
    36 -0.963866 -2.785145 -0.085350 -0.359784 0.157230 -0.206201
    37 0.028479 -1.403067 -0.013261 -0.774906 -0.017929 -0.029782
    38 0.021413 -0.957781 0.020046 -0.175941 -0.002013 -0.007862
    39 1.164475 -2.543940 -0.170330 -1.269961 -0.216253 0.419838
    40 0.024032 -1.136855 -0.001725 -0.773654 0.004039 0.041288
    41 0.014898 -0.895708 -0.019848 -0.595607 -0.000911 0.029698
    42 -0.586770 -1.264477 0.200161 -0.073069 -0.460710 -2.781506
    43 1.557992 0.035243 0.016848 -0.014170 -0.005588 0.722307
    44 1.117947 0.048424 -0.005766 0.002681 -0.021758 -0.075216
    45 -0.037833 -0.131230 -0.106700 0.756922 0.202509 1.380917
    46 -7.897575 3.077283 -0.446471 1.572944 -0.032091 -0.455629
  time 12
    0 3.394598 -12.254276 -3.661480 1.088627 -0.605664 0.327619
    1 -11.932923 0.835959 -4.578653 0.000000 -2.996507 0.251425
    2 3.259201 -0.000005 -1.130647 0.000000 0.000000 -0.000001
    3 3.190612 0.621425 2.571390 2.208361 -1.542144 -1.139077
    4 3.191648 0.639809 1.419721 -2.040361 -1.570796 0.000000
    5 3.707688 -0.036995 -1.128818 0.000000 0.000000 1.042531
    6 1.073001 -0.000003 4.918042 0.000000 -3.141592 0.000000
    7 2.506188 0.664625 6.365480 -3.048099 0.000000 1.570796
    8 0.923057 -2.001326 -3.726057 -0.062488 -0.333819 0.188710
    9 4.962314 -5.709783 -6.128075 0.696286 -2.261317 -1.258530
    10 7.573779 3.555395 -0.325593 1.565970 -3.123205 0.521941
    11 0.209338 -8.569051 -0.111947 1.464958 1.035542 1.454020
    12 -0.488518 -2.755602 -0.228260 -0.926864 0.104123 -0.205670
    13 0.039887 -1.530573 0.014229 -1.473570 -0.012212 0.032731
    14 0.028786 -1.169484 -0.124675 -1.082413 -0.015161 0.023166
    15 0.250027 -2.820665 -0.238396 -0.656416 0.070401 -0.070751
    16 -0.049759 -1.594604 0.026258 -1.644847 -0.001630 -0.043494
    17 -0.034142 -1.156125 0.057437 -0.778245 0.008377 -0.019511
    18 0.957766 -2.746780 -0.090302 0.192366 -0.212660 0.232006
    19 -0.033420 -1.397129 -0.026882 -0.840549 0.006592 -0.041348
    20 -0.022360 -0.957436 -0.000748 -0.702856 0.007562 -0.034132
    21 -1.180681 -2.507217 -0.193859 -1.000921 0.270987 -0.298350
    22 -0.024967 -1.127840 0.017597 -0.956758 0.004674 -0.041010
    23 -0.020057 -0.906594 0.033528 -1.043762 0.004698 -0.042809
    24 0.603042 -1.205090 0.189285 0.170717 -0.910476 -0.421804
    25 1.485144 -0.208511 0.067511 0.044099 -0.208064 -0.737596
    26 0.975767 -0.198604 0.051823 0.125211 -0.269176 -1.206668
    27 0.120153 -0.050270 -0.054489 0.287569 3.110905 1.561085
    28 -11.247666 -0.137354 -4.352979 -0.266900 -3.199012 -0.650952
    29 -0.141345 -8.430887 0.033605 0.326141 -1.415689 -0.746175
    30 0.447953 -2.798986 -0.200443 -1.080608 -0.116016 0.286451
    31 -0.032909 -1.495829 0.016659 -0.937501 0.019763 -0.014176
    32 -0.027022 -1.096452 -0.028023 -0.513425 0.013471 -0.005429
    33 -0.249534 -2.846964 -0.174213 -0.688709 -0.073099 0.004763
    34 0.043235 -1.660503 0.080387 -1.014688 -0.016652 0.001691
    35 0.031729 -1.153017 0.058838 -0.444953 -0.003900 0.005867
    36 -0.963866 -2.785145 -0.085350 -0.359784 0.157230 -0.206201
    37 0.028479 -1.403067 -0.013261 -0.774906 -0.017929 -0.029782
    38 0.021413 -0.957781 0.020046 -0.175941 -0.002013 -0.007862
    39 1.164475 -2.543940 -0.170330 -1.269961 -0.216253 0.419838
    40 0.024032 -1.136855 -0.001725 -0.773654 0.004039 0.041288
    41 0.014898 -0.895708 -0.019848 -0.595607 -0.000911 0.029698
    42 -0.586770 -1.264477 0.200161 -0.073069 -0.460710 -2.781506
    43 1.557992 0.035243 0.016848 -0.014170 -0.005588 0.722307
    44 1.117947 0.048424 -0.005766 0.002681 -0.021758 -0.075216
    45 -0.037833 -0.131230 -0.106700 0.756922 0.202509 1.380917
    46 -7.495219 4.151534 -0.426939 1.575532 -0.029413 -0.594867
  time 13
    0 3.343815 -12.262089 -3.692731 1.092980 -0.594037 0.332025
    1 -3.600638 0.582045 -2.672345 0.000000 -3.044877 0.167616
    2 3.259201 -0.000005 -1.130647 0.000000 0.000000 -0.000001
    3 3.260927 1.355822 2.192472 2.208361 -1.542144 -1.139077
    4 3.261963 1.374206 1.040803 -2.040361 -1.570796 0.000000
    5 3.707688 -0.036995 -1.128818 0.000000 0.000000 1.958207
    6 1.073001 -0.000003 4.918042 0.000000 -3.141592 0.000000
    7 2.506188 0.664625 6.365480 -3.048099 0.000000 1.570796
    8 0.923057 -2.001326 -3.726057 -0.062488 -0.333819 0.188710
    9 4.927157 -5.713689 -6.124169 0.692960 -2.259637 -1.260453
    10 7.558154 3.594458 -0.325593 1.565875 -3.123301 0.526912
    11 0.209338 -8.572957 -0.111947 1.479606 1.020178 1.464655
    12 -0.488518 -2.755602 -0.228260 -0.926864 0.104123 -0.205670
    13 0.039887 -1.530573 0.014229 -1.473570 -0.012212 0.032731
    14 0.028786 -1.169484 -0.124675 -1.082413 -0.015161 0.023166
    15 0.250027 -2.820665 -0.238396 -0.656416 0.070401 -0.070751
    16 -0.049759 -1.594604 0.026258 -1.644847 -0.001630 -0.043494
    17 -0.034142 -1.156125 0.057437 -0.778245 0.008377 -0.019511
    18 0.957766 -2.746780 -0.090302 0.192366 -0.212660 0.232006
    19 -0.033420 -1.397129 -0.026882 -0.840549 0.006592 -0.041348
    20 -0.022360 -0.957436 -0.000748 -0.702856 0.007562 -0.034132
    21 -1.180681 -2.507217 -0.193859 -1.000921 0.270987 -0.298350
    22 -0.024967 -1.127840 0.017597 -0.956758 0.004674 -0.041010
    23 -0.020057 -0.906594 0.033528 -1.043762 0.004698 -0.042809
    24 0.603042 -1.205090 0.189285 0.170717 -0.910476 -0.421804
    25 1.485144 -0.208511 0.067511 0.044099 -0.208064 -0.737596
    26 0.975767 -0.198604 0.051823 0.125211 -0.269176 -1.206668
    27 0.120153 -0.050270 -0.054489 0.287569 3.110905 1.561085
    28 -9.653868 0.542354 -5.517077 0.191419 -3.532381 0.128562
    29 -0.086655 -8.419168 0.041418 -0.307209 -1.038888 0.351521
    30 0.447953 -2.798986 -0.200443 -1.080608 -0.116016 0.286451
    31 -0.032909 -1.495829 0.016659 -0.937501 0.019763 -0.014176
    32 -0.027022 -1.096452 -0.028023 -0.513425 0.013471 -0.005429
    33 -0.249534 -2.846964 -0.174213 -0.688709 -0.073099 0.004763
    34 0.043235 -1.660503 0.080387 -1.014688 -0.016652 0.001691
    35 0.031729 -1.153017 0.058838 -0.444953 -0.003900 0.005867
    36 -0.963866 -2.785145 -0.085350 -0.359784 0.157230 -0.206201
    37 0.028479 -1.403067 -0.013261 -0.774906 -0.017929 -0.029782
    38 0.021413 -0.957781 0.020046 -0.175941 -0.002013 -0.007862
    39 1.164475 -2.543940 -0.170330 -1.269961 -0.216253 0.419838
    40 0.024032 -1.136855 -0.001725 -0.773654 0.004039 0.041288
    41 0.014898 -0.895708 -0.019848 -0.595607 -0.000911 0.029698
    42 -0.586770 -1.264477 0.200161 -0.073069 -0.460710 -2.781506
    43 1.557992 0.035243 0.016848 -0.014170 -0.005588 0.722307
    44 1.117947 0.048424 -0.005766 0.002681 -0.021758 -0.075216
    45 -0.037833 -0.131230 -0.106700 0.756922 0.202509 1.380917
    46 -6.768634 -3.977620 -0.469909 1.550611 -0.038500 0.442004
  time 14
    0 3.347721 -12.258183 -3.684918 1.092331 -0.593888 0.335473
    1 -1.467760 0.289067 -2.656719 0.000000 -3.093234 0.083808
    2 3.259201 -0.000005 -1.130647 0.000000 0.000000 -0.000001
    3 3.190612 0.621425 2.571390 2.208361 -1.542144 -1.139077
    4 3.191648 0.639809 1.419721 -2.040361 -1.570796 0.000000
    5 3.707688 -0.036995 -1.128818 0.000000 0.000000 2.873978
    6 1.073001 -0.000003 4.918042 0.000000 -3.141592 0.000000
    7 2.506188 0.664625 6.365480 -3.048099 0.000000 1.570796
    8 0.923057 -2.001326 -3.726057 -0.062488 -0.333819 0.188710
    9 4.931064 -5.713689 -6.124169 0.693884 -2.260172 -1.260934
    10 7.562060 3.582739 -0.325593 1.565875 -3.123301 0.525255
    11 0.209338 -8.572957 -0.111947 1.478412 1.018394 1.461076
    12 -0.488518 -2.755602 -0.228260 -0.926864 0.104123 -0.205670
    13 0.039887 -1.530573 0.014229 -1.473570 -0.012212 0.032731
    14 0.028786 -1.169484 -0.124675 -1.082413 -0.015161 0.023166
    15 0.250027 -2.820665 -0.238396 -0.656416 0.070401 -0.070751
    16 -0.049759 -1.594604 0.026258 -1.644847 -0.001630 -0.043494
    17 -0.034142 -1.156125 0.057437 -0.778245 0.008377 -0.019511
    18 0.957766 -2.746780 -0.090302 0.192366 -0.212660 0.232006
    19 -0.033420 -1.397129 -0.026882 -0.840549 0.006592 -0.041348
    20 -0.022360 -0.957436 -0.000748 -0.702856 0.007562 -0.034132
    21 -1.180681 -2.507217 -0.193859 -1.000921 0.270987 -0.298350
    22 -0.024967 -1.127840 0.017597 -0.956758 0.004674 -0.041010
    23 -0.020057 -0.906594 0.033528 -1.043762 0.004698 -0.042809
    24 0.603042 -1.205090 0.189285 0.170717 -0.910476 -0.421804
    25 1.485144 -0.208511 0.067511 0.044099 -0.208064 -0.737596
    26 0.975767 -0.198604 0.051823 0.125211 -0.269176 -1.206668
    27 0.120153 -0.050270 -0.054489 0.287569 3.110905 1.561085
    28 -9.411673 -0.254545 -5.935058 0.322305 -3.608741 0.572913
    29 -0.031966 -8.466044 0.053137 0.121113 -0.831487 0.113919
    30 0.447953 -2.798986 -0.200443 -1.080608 -0.116016 0.286451
    31 -0.032909 -1.495829 0.016659 -0.937501 0.019763 -0.014176
    32 -0.027022 -1.096452 -0.028023 -0.513425 0.013471 -0.005429
    33 -0.249534 -2.846964 -0.174213 -0.688709 -0.073099 0.004763
    34 0.043235 -1.660503 0.080387 -1.014688 -0.016652 0.001691
    35 0.031729 -1.153017 0.058838 -0.444953 -0.003900 0.005867
    36 -0.963866 -2.785145 -0.085350 -0.359784 0.157230 -0.206201
    37 0.028479 -1.403067 -0.013261 -0.774906 -0.017929 -0.029782
    38 0.021413 -0.957781 0.020046 -0.175941 -0.002013 -0.007862
    39 1.164475 -2.543940 -0.170330 -1.269961 -0.216253 0.419838
    40 0.024032 -1.136855 -0.001725 -0.773654 0.004039 0.041288
    41 0.014898 -0.895708 -0.019848 -0.595607 -0.000911 0.029698
    42 -0.586770 -1.264477 0.200161 -0.073069 -0.460710 -2.781506
    43 1.557992 0.035243 0.016848 -0.014170 -0.005588 0.722307
    44 1.117947 0.048424 -0.005766 0.002681 -0.021758 -0.075216
    45 -0.037833 -0.131230 -0.106700 0.756922 0.202509 1.380917
    46 -5.393592 -5.508917 -0.442564 1.544189 -0.036587 0.692670
  time 15
    0 3.445381 -12.238651 -3.622416 1.082977 -0.617053 0.330301
    1 0.661211 -0.000004 -2.641094 0.000000 -3.141592 0.000000
    2 3.259201 -0.000005 -1.130647 0.000000 0.000000 -0.000001
    3 3.260927 1.355822 2.192472 2.208361 -1.542144 -1.139077
    4 3.261963 1.374206 1.040803 -2.040361 -1.570796 0.000000
    5 3.707688 -0.036995 -1.128818 0.000000 0.000000 -2.493411
    6 1.073001 -0.000003 4.918042 0.000000 -3.141592 0.000000
    7 2.506188 0.664625 6.365480 -3.048099 0.000000 1.570796
    8 0.923057 -2.001326 -3.726057 -0.062488 -0.333819 0.188710
    9 5.005285 -5.701970 -6.139794 0.701368 -2.264217 -1.257568
    10 7.597217 3.492893 -0.329500 1.565970 -3.123109 0.513729
    11 0.205431 -8.569051 -0.108040 1.447233 1.047265 1.435613
    12 -0.488518 -2.755602 -0.228260 -0.926864 0.104123 -0.205670
    13 0.039887 -1.530573 0.014229 -1.473570 -0.012212 0.032731
    14 0.028786 -1.169484 -0.124675 -1.082413 -0.015161 0.023166
    15 0.250027 -2.820665 -0.238396 -0.656416 0.070401 -0.070751
    16 -0.049759 -1.594604 0.026258 -1.644847 -0.001630 -0.043494
    17 -0.034142 -1.156125 0.057437 -0.778245 0.008377 -0.019511
    18 0.957766 -2.746780 -0.090302 0.192366 -0.212660 0.232006
    19 -0.033420 -1.397129 -0.026882 -0.840549 0.006592 -0.041348
    20 -0.022360 -0.957436 -0.000748 -0.702856 0.007562 -0.034132
    21 -1.180681 -2.507217 -0.193859 -1.000921 0.270987 -0.298350
    22 -0.024967 -1.127840 0.017597 -0.956758 0.004674 -0.041010
    23 -0.020057 -0.906594 0.033528 -1.043762 0.004698 -0.042809
    24 0.603042 -1.205090 0.189285 0.170717 -0.910476 -0.421804
    25 1.485144 -0.208511 0.067511 0.044099 -0.208064 -0.737596
    26 0.975767 -0.198604 0.051823 0.125211 -0.269176 -1.206668
    27 0.120153 -0.050270 -0.054489 0.287569 3.110905 1.561085
    28 -9.356984 -1.340516 -6.239755 0.377167 -3.704513 0.932377
    29 0.018817 -8.532452 0.041418 0.498881 -0.624052 -0.091092
    30 0.447953 -2.798986 -0.200443 -1.080608 -0.116016 0.286451
    31 -0.032909 -1.495829 0.016659 -0.937501 0.019763 -0.014176
    32 -0.027022 -1.096452 -0.028023 -0.513425 0.013471 -0.005429
    33 -0.249534 -2.846964 -0.174213 -0.688709 -0.073099 0.004763
    34 0.043235 -1.660503 0.080387 -1.014688 -0.016652 0.001691
    35 0.031729 -1.153017 0.058838 -0.444953 -0.003900 0.005867
    36 -0.963866 -2.785145 -0.085350 -0.359784 0.157230 -0.206201
    37 0.028479 -1.403067 -0.013261 -0.774906 -0.017929 -0.029782
    38 0.021413 -0.957781 0.020046 -0.175941 -0.002013 -0.007862
    39 1.164475 -2.543940 -0.170330 -1.269961 -0.216253 0.419838
    40 0.024032 -1.136855 -0.001725 -0.773654 0.004039 0.041288
    41 0.014898 -0.895708 -0.019848 -0.595607 -0.000911 0.029698
    42 -0.586770 -1.264477 0.200161 -0.073069 -0.460710 -2.781506
    43 1.557992 0.035243 0.016848 -0.014170 -0.005588 0.722307
    44 1.117947 0.048424 -0.005766 0.002681 -0.021758 -0.075216
    45 -0.037833 -0.131230 -0.106700 0.756922 0.202509 1.380917
    46 -5.006862 -5.825333 -0.438658 1.542752 -0.035822 0.753297
  time 16
    0 4.238374 -12.133179 -3.059899 1.009624 -0.812512 0.275226
    1 0.661211 -0.000004 -2.641094 0.000000 -3.141592 0.000000
    2 3.259201 -0.000005 -1.130647 0.000000 0.000000 -0.000001
    3 3.190612 0.621425 2.571390 2.208361 -1.542144 -1.139077
    4 3.191648 0.639809 1.419721 -2.040361 -1.570796 0.000000
    5 3.707688 -0.036995 -1.128818 0.000000 0.000000 -1.577735
    6 1.073001 -0.000003 4.918042 0.000000 -3.141592 0.000000
    7 2.506188 0.664625 6.365480 -3.048099 0.000000 1.570796
    8 0.923057 -2.001326 -3.726057 -0.062488 -0.333819 0.188710
    9 5.540457 -5.662906 -6.163232 0.754681 -2.295279 -1.216139
    10 7.757378 3.004596 -0.337312 1.566450 -3.121771 0.450338
    11 0.189806 -8.506549 -0.092415 1.019444 1.276485 1.078517
    12 -0.488518 -2.755602 -0.228260 -0.926864 0.104123 -0.205670
    13 0.039887 -1.530573 0.014229 -1.473570 -0.012212 0.032731
    14 0.028786 -1.169484 -0.124675 -1.082413 -0.015161 0.023166
    15 0.250027 -2.820665 -0.238396 -0.656416 0.070401 -0.070751
    16 -0.049759 -1.594604 0.026258 -1.644847 -0.001630 -0.043494
    17 -0.034142 -1.156125 0.057437 -0.778245 0.008377 -0.019511
    18 0.957766 -2.746780 -0.090302 0.192366 -0.212660 0.232006
    19 -0.033420 -1.397129 -0.026882 -0.840549 0.006592 -0.041348
    20 -0.022360 -0.957436 -0.000748 -0.702856 0.007562 -0.034132
    21 -1.180681 -2.507217 -0.193859 -1.000921 0.270987 -0.298350
    22 -0.024967 -1.127840 0.017597 -0.956758 0.004674 -0.041010
    23 -0.020057 -0.906594 0.033528 -1.043762 0.004698 -0.042809
    24 0.603042 -1.205090 0.189285 0.170717 -0.910476 -0.421804
    25 1.485144 -0.208511 0.067511 0.044099 -0.208064 -0.737596
    26 0.975767 -0.198604 0.051823 0.125211 -0.269176 -1.206668
    27 0.120153 -0.050270 -0.054489 0.287569 3.110905 1.561085
    28 -9.364796 -2.680401 -6.290538 0.313639 -3.740564 1.136451
    29 0.038348 -8.610580 0.014073 0.960352 -0.523149 -0.206289
    30 0.447953 -2.798986 -0.200443 -1.080608 -0.116016 0.286451
    31 -0.032909 -1.495829 0.016659 -0.937501 0.019763 -0.014176
    32 -0.027022 -1.096452 -0.028023 -0.513425 0.013471 -0.005429
    33 -0.249534 -2.846964 -0.174213 -0.688709 -0.073099 0.004763
    34 0.043235 -1.660503 0.080387 -1.014688 -0.016652 0.001691
    35 0.031729 -1.153017 0.058838 -0.444953 -0.003900 0.005867
    36 -0.963866 -2.785145 -0.085350 -0.359784 0.157230 -0.206201
    37 0.028479 -1.403067 -0.013261 -0.774906 -0.017929 -0.029782
    38 0.021413 -0.957781 0.020046 -0.175941 -0.002013 -0.007862
    39 1.164475 -2.543940 -0.170330 -1.269961 -0.216253 0.419838
    40 0.024032 -1.136855 -0.001725 -0.773654 0.004039 0.041288
    41 0.014898 -0.895708 -0.019848 -0.595607 -0.000911 0.029698
    42 -0.586770 -1.264477 0.200161 -0.073069 -0.460710 -2.781506
    43 1.557992 0.035243 0.016848 -0.014170 -0.005588 0.722307
    44 1.117947 0.048424 -0.005766 0.002681 -0.021758 -0.075216
    45 -0.037833 -0.131230 -0.106700 0.756922 0.202509 1.380917
    46 -5.651412 -5.278441 -0.450377 1.545244 -0.036969 0.650768
  time 17
    0 4.742295 -11.961299 -2.888019 0.842818 -0.858187 0.429245
    1 0.661211 -0.000004 -2.641094 0.000000 -3.141592 0.000000
    2 3.259201 -0.000005 -1.130647 0.000000 0.000000 -0.000001
    3 3.260927 1.355822 2.192472 2.208361 -1.542144 -1.139077
    4 3.261963 1.374206 1.040803 -2.040361 -1.570796 0.000000
    5 3.707688 -0.036995 -1.128818 0.000000 0.000000 -0.661964
    6 1.073001 -0.000003 4.918042 0.000000 -3.141592 0.000000
    7 2.506188 0.664625 6.365480 -3.048099 0.000000 1.570796
    8 0.923057 -2.001326 -3.726057 -0.062488 -0.333819 0.188710
    9 5.938907 -5.619936 -6.206202 0.770759 -2.318786 -1.174709
    10 7.855038 2.633491 -0.345125 1.566833 -3.120816 0.403586
    11 0.170274 -8.498736 -0.080696 0.749390 1.248925 0.853644
    12 -0.488518 -2.755602 -0.228260 -0.926864 0.104123 -0.205670
    13 0.039887 -1.530573 0.014229 -1.473570 -0.012212 0.032731
    14 0.028786 -1.169484 -0.124675 -1.082413 -0.015161 0.023166
    15 0.250027 -2.820665 -0.238396 -0.656416 0.070401 -0.070751
    16 -0.049759 -1.594604 0.026258 -1.644847 -0.001630 -0.043494
    17 -0.034142 -1.156125 0.057437 -0.778245 0.008377 -0.019511
    18 0.957766 -2.746780 -0.090302 0.192366 -0.212660 0.232006
    19 -0.033420 -1.397129 -0.026882 -0.840549 0.006592 -0.041348
    20 -0.022360 -0.957436 -0.000748 -0.702856 0.007562 -0.034132
    21 -1.180681 -2.507217 -0.193859 -1.000921 0.270987 -0.298350
    22 -0.024967 -1.127840 0.017597 -0.956758 0.004674 -0.041010
    23 -0.020057 -0.906594 0.033528 -1.043762 0.004698 -0.042809
    24 0.603042 -1.205090 0.189285 0.170717 -0.910476 -0.421804
    25 1.485144 -0.208511 0.067511 0.044099 -0.208064 -0.737596
    26 0.975767 -0.198604 0.051823 0.125211 -0.269176 -1.206668
    27 0.120153 -0.050270 -0.054489 0.287569 3.110905 1.561085
    28 -9.364796 -3.633555 -6.196785 0.324882 -3.627130 0.927749
    29 -0.020247 -8.536359 0.053137 0.456881 -0.758965 -0.374510
    30 0.447953 -2.798986 -0.200443 -1.080608 -0.116016 0.286451
    31 -0.032909 -1.499736 0.020565 -1.059856 0.021273 -0.017316
    32 -0.027022 -1.104265 -0.028023 -0.673814 0.016898 -0.008449
    33 -0.249534 -2.846964 -0.174213 -0.784142 -0.074705 0.005542
    34 0.043235 -1.660503 0.080387 -1.015014 -0.016652 0.001691
    35 0.031729 -1.153017 0.058838 -0.593890 -0.005782 0.005436
    36 -0.963866 -2.785145 -0.085350 -0.575146 0.151658 -0.214195
    37 0.028479 -1.403067 -0.017167 -0.854140 -0.020901 -0.031795
    38 0.021413 -0.957781 0.020046 -0.175941 -0.002013 -0.007862
    39 1.164475 -2.543940 -0.170330 -1.269961 -0.216253 0.419838
    40 0.024032 -1.136855 -0.001725 -0.885760 0.007239 0.046717
    41 0.014898 -0.895708 -0.019848 -0.688166 0.000527 0.034695
    42 -0.586770 -1.264477 0.200161 0.115162 -0.664408 -2.746378
    43 1.557992 0.035243 0.016848 -0.014170 -0.005588 0.722307
    44 1.117947 0.048424 -0.005766 0.002681 -0.021758 -0.075216
    45 -0.112054 -0.139043 -0.059824 0.562972 -0.115814 1.587076
    46 -7.077237 -3.504950 -0.473815 1.552432 -0.038691 0.373312
  time 18
    0 5.164183 -11.789418 -2.817704 0.659342 -0.858783 0.621002
    1 0.661211 -0.000004 -2.641094 0.000000 -3.141592 0.000000
    2 3.259201 -0.000005 -1.130647 0.000000 0.000000 -0.000001
    3 3.190612 0.621425 2.571390 2.208361 -1.542144 -1.139077
    4 3.191648 0.639809 1.419721 -2.040361 -1.570796 0.000000
    5 3.707688 -0.036995 -1.128818 0.000000 0.000000 0.253616
    6 1.073001 -0.000003 4.918042 0.000000 -3.141592 0.000000
    7 2.506188 0.664625 6.365480 -3.048099 0.000000 1.570796
    8 0.923057 -2.001326 -3.726057 -0.062488 -0.333819 0.188710
    9 6.290480 -5.549622 -6.249172 0.779259 -2.339012 -1.133841
    10 7.925352 2.301450 -0.352938 1.567121 -3.120051 0.361734
    11 0.150742 -8.498736 -0.076789 0.620126 1.179205 0.764319
    12 -0.488518 -2.755602 -0.228260 -0.926864 0.104123 -0.205670
    13 0.039887 -1.530573 0.014229 -1.473570 -0.012212 0.032731
    14 0.028786 -1.169484 -0.124675 -1.082413 -0.015161 0.023166
    15 0.250027 -2.820665 -0.238396 -0.656416 0.070401 -0.070751
    16 -0.049759 -1.594604 0.026258 -1.644847 -0.001630 -0.043494
    17 -0.034142 -1.156125 0.057437 -0.778245 0.008377 -0.019511
    18 0.957766 -2.746780 -0.090302 0.192366 -0.212660 0.232006
    19 -0.033420 -1.397129 -0.026882 -0.840549 0.006592 -0.041348
    20 -0.022360 -0.957436 -0.000748 -0.702856 0.007562 -0.034132
    21 -1.180681 -2.507217 -0.193859 -1.000921 0.270987 -0.298350
    22 -0.024967 -1.127840 0.017597 -0.956758 0.004674 -0.041010
    23 -0.020057 -0.906594 0.033528 -1.043762 0.004698 -0.042809
    24 0.603042 -1.205090 0.189285 0.170717 -0.910476 -0.421804
    25 1.485144 -0.208511 0.067511 0.044099 -0.208064 -0.737596
    26 0.975767 -0.198604 0.051823 0.125211 -0.269176 -1.206668
    27 0.120153 -0.050270 -0.054489 0.287569 3.110905 1.561085
    28 -8.813998 -5.414859 -5.903807 0.402893 -3.610425 0.798642
    29 -0.000715 -8.458231 0.045324 -0.107717 -0.862119 -0.368431
    30 0.447953 -2.798986 -0.200443 -1.080608 -0.116016 0.286451
    31 -0.032909 -1.499736 0.020565 -1.147271 0.022100 -0.019665
    32 -0.027022 -1.108171 -0.028023 -0.788400 0.019032 -0.010918
    33 -0.249534 -2.846964 -0.174213 -0.852317 -0.075796 0.006189
    34 0.043235 -1.660503 0.080387 -1.015247 -0.016652 0.001703
    35 0.031729 -1.149111 0.058838 -0.700253 -0.007148 0.005304
    36 -0.963866 -2.785145 -0.085350 -0.728840 0.146696 -0.219061
    37 0.028479 -1.403067 -0.017167 -0.910716 -0.023118 -0.033077
    38 0.021413 -0.957781 0.020046 -0.175941 -0.002013 -0.007862
    39 1.164475 -2.543940 -0.170330 -1.269961 -0.216253 0.419838
    40 0.024032 -1.140761 -0.005631 -0.965836 0.009875 0.050360
    41 0.014898 -0.895708 -0.019848 -0.754271 0.001846 0.038171
    42 -0.586770 -1.264477 0.200161 0.266082 -0.811526 -2.751259
    43 1.557992 0.035243 0.016848 -0.014170 -0.005588 0.722307
    44 1.117947 0.048424 -0.005766 0.002681 -0.021758 -0.075216
    45 -0.084710 -0.135136 -0.075449 0.627632 -0.009714 1.518368
    46 -8.178833 -0.282195 -0.477722 1.563455 -0.037543 -0.043384
  time 19
    0 5.461067 -11.719104 -2.950521 0.555981 -0.885377 0.756630
    1 0.661211 -0.000004 -2.641094 0.000000 -3.141592 0.000000
    2 3.259201 -0.000005 -1.130647 0.000000 0.000000 -0.000001
    3 3.260927 1.355822 2.192472 2.208361 -1.542144 -1.139077
    4 3.261963 1.374206 1.040803 -2.040361 -1.570796 0.000000
    5 3.707688 -0.036995 -1.128818 0.000000 0.000000 1.169388
    6 1.073001 -0.000003 4.918042 0.000000 -3.141592 0.000000
    7 2.713226 0.664625 8.572579 -3.048099 0.000000 1.570796
    8 0.923057 -2.001326 -3.726057 -0.062488 -0.333819 0.188710
    9 6.419390 -5.350397 -6.366363 0.791548 -2.319779 -1.107717
    10 7.944884 2.203791 -0.352938 1.567313 -3.119764 0.349488
    11 0.131210 -8.498736 -0.068977 0.456468 1.119861 0.621665
    12 -0.488518 -2.755602 -0.228260 -0.926864 0.104123 -0.205670
    13 0.039887 -1.530573 0.014229 -1.473570 -0.012212 0.032731
    14 0.028786 -1.169484 -0.124675 -1.082413 -0.015161 0.023166
    15 0.250027 -2.820665 -0.238396 -0.656416 0.070401 -0.070751
    16 -0.049759 -1.594604 0.026258 -1.644847 -0.001630 -0.043494
    17 -0.034142 -1.156125 0.057437 -0.778245 0.008377 -0.019511
    18 0.957766 -2.746780 -0.090302 0.192366 -0.212660 0.232006
    19 -0.033420 -1.397129 -0.026882 -0.840549 0.006592 -0.041348
    20 -0.022360 -0.957436 -0.000748 -0.702856 0.007562 -0.034132
    21 -1.180681 -2.507217 -0.193859 -1.000921 0.270987 -0.298350
    22 -0.024967 -1.127840 0.017597 -0.956758 0.004674 -0.041010
    23 -0.020057 -0.906594 0.033528 -1.043762 0.004698 -0.042809
    24 0.603042 -1.205090 0.189285 0.170717 -0.910476 -0.421804
    25 1.485144 -0.208511 0.067511 0.044099 -0.208064 -0.737596
    26 0.975767 -0.198604 0.051823 0.125211 -0.269176 -1.206668
    27 0.120153 -0.050270 -0.054489 0.287569 3.110905 1.561085
    28 -8.833530 -5.270324 -6.192878 0.476411 -3.669288 0.729047
    29 0.003191 -8.442606 0.037511 -0.204844 -0.838241 -0.183256
    30 0.447953 -2.798986 -0.200443 -1.122324 -0.115669 0.285300
    31 -0.032909 -1.499736 0.020565 -1.081432 0.021500 -0.017891
    32 -0.027022 -1.104265 -0.028023 -0.665493 0.016730 -0.008269
    33 -0.249534 -2.846964 -0.174213 -0.816102 -0.075904 0.004679
    34 0.043235 -1.656596 0.080387 -1.046360 -0.017155 0.002062
    35 0.031729 -1.153017 0.058838 -0.586125 -0.005674 0.005460
    36 -0.963866 -2.785145 -0.085350 -0.591192 0.151490 -0.213787
    37 0.028479 -1.403067 -0.017167 -0.875402 -0.021728 -0.032298
    38 0.021413 -0.957781 0.020046 -0.175941 -0.002013 -0.007862
    39 1.164475 -2.543940 -0.170330 -1.314135 -0.214156 0.421168
    40 0.024032 -1.136855 -0.001725 -0.896239 0.007562 0.047208
    41 0.014898 -0.895708 -0.019848 -0.699653 0.000743 0.035307
    42 -0.586770 -1.264477 0.200161 0.098339 -0.653871 -2.734865
    43 1.557992 0.035243 0.016848 -0.014781 -0.005816 0.745380
    44 1.117947 0.048424 -0.005766 0.003029 -0.021279 -0.093666
    45 -0.061272 -0.135136 -0.091075 0.692277 0.096398 1.449648
    46 -8.178833 -0.286101 -0.477722 1.563455 -0.037543 -0.042920
  time 20
    0 5.656386 -11.754261 -3.309906 0.535605 -0.973745 0.828659
    1 0.661211 -0.000004 -2.641094 0.000000 -3.141592 0.000000
    2 3.259201 -0.000005 -1.130647 0.000000 0.000000 -0.000001
    3 3.190612 0.621425 2.571390 2.208361 -1.542144 -1.139077
    4 3.191648 0.639809 1.419721 -2.040361 -1.570796 0.000000
    5 3.707688 -0.036995 -1.128818 0.000000 0.000000 2.085063
    6 1.073001 -0.000003 4.918042 0.000000 -3.141592 0.000000
    7 2.916357 0.664625 10.775771 -3.048099 0.000000 1.570796
    8 0.923057 -2.001326 -3.726057 -0.062488 -0.333819 0.188710
    9 6.290480 -5.010543 -6.573401 0.811321 -2.253837 -1.097620
    10 7.913633 2.363952 -0.349031 1.567121 -3.120147 0.369658
    11 0.107772 -8.487017 -0.065070 0.224114 1.062738 0.390299
    12 -0.488518 -2.755602 -0.228260 -0.926864 0.104123 -0.205670
    13 0.039887 -1.530573 0.014229 -1.473570 -0.012212 0.032731
    14 0.028786 -1.169484 -0.124675 -1.082413 -0.015161 0.023166
    15 0.250027 -2.820665 -0.238396 -0.656416 0.070401 -0.070751
    16 -0.049759 -1.594604 0.026258 -1.644847 -0.001630 -0.043494
    17 -0.034142 -1.156125 0.057437 -0.778245 0.008377 -0.019511
    18 0.957766 -2.746780 -0.090302 0.192366 -0.212660 0.232006
    19 -0.033420 -1.397129 -0.026882 -0.840549 0.006592 -0.041348
    20 -0.022360 -0.957436 -0.000748 -0.702856 0.007562 -0.034132
    21 -1.180681 -2.507217 -0.193859 -1.000921 0.270987 -0.298350
    22 -0.024967 -1.127840 0.017597 -0.956758 0.004674 -0.041010
    23 -0.020057 -0.906594 0.033528 -1.043762 0.004698 -0.042809
    24 0.603042 -1.205090 0.189285 0.170717 -0.910476 -0.421804
    25 1.485144 -0.208511 0.067511 0.044099 -0.208064 -0.737596
    26 0.975767 -0.198604 0.051823 0.125211 -0.269176 -1.206668
    27 0.120153 -0.050270 -0.054489 0.287569 3.110905 1.561085
    28 -8.649931 -5.075005 -6.618673 0.522707 -3.749973 0.697308
    29 -0.012434 -8.438699 0.041418 -0.140866 -0.808734 0.018496
    30 0.447953 -2.798986 -0.200443 -1.080608 -0.116016 0.286451
    31 -0.032909 -1.495829 0.016659 -0.937501 0.019763 -0.014176
    32 -0.027022 -1.096452 -0.028023 -0.513425 0.013471 -0.005429
    33 -0.249534 -2.846964 -0.174213 -0.688709 -0.073099 0.004763
    34 0.043235 -1.660503 0.080387 -1.014688 -0.016652 0.001691
    35 0.031729 -1.153017 0.058838 -0.444953 -0.003900 0.005867
    36 -0.963866 -2.785145 -0.085350 -0.359784 0.157230 -0.206201
    37 0.028479 -1.403067 -0.013261 -0.774906 -0.017929 -0.029782
    38 0.021413 -0.957781 0.020046 -0.175941 -0.002013 -0.007862
    39 1.164475 -2.543940 -0.170330 -1.269961 -0.216253 0.419838
    40 0.024032 -1.136855 -0.001725 -0.773654 0.004039 0.041288
    41 0.014898 -0.895708 -0.019848 -0.595607 -0.000911 0.029698
    42 -0.586770 -1.264477 0.200161 -0.073069 -0.460710 -2.781506
    43 1.557992 0.035243 0.016848 -0.014170 -0.005588 0.722307
    44 1.117947 0.048424 -0.005766 0.002681 -0.021758 -0.075216
    45 -0.037833 -0.131230 -0.106700 0.756922 0.202509 1.380917
    46 -8.143676 -0.543922 -0.477722 1.562593 -0.037735 -0.011031
  time 21
    0 5.785296 -11.820669 -3.845079 0.554499 -1.091748 0.863907
    1 0.661211 -0.000004 -2.641094 0.000000 -3.141592 0.000000
    2 3.259201 -0.000005 -1.130647 0.000000 0.000000 -0.000001
    3 3.260927 1.355822 2.192472 2.208361 -1.542144 -1.139077
    4 3.261963 1.374206 1.040803 -2.040361 -1.570796 0.000000
    5 3.707688 -0.036995 -1.128818 0.000000 0.000000 3.000835
    6 1.073001 -0.000003 4.918042 0.000000 -3.141592 0.000000
    7 2.853855 0.664625 10.096063 -3.048099 0.000000 1.570796
    8 0.923057 -2.001326 -3.726057 -0.062488 -0.333819 0.188710
    9 6.024847 -4.596467 -6.811689 0.834605 -2.165915 -1.096498
    10 7.851131 2.641304 -0.345125 1.566833 -3.120816 0.404235
    11 0.080427 -8.467485 -0.065070 0.013435 0.980021 0.171613
    12 -0.488518 -2.755602 -0.228260 -0.926864 0.104123 -0.205670
    13 0.039887 -1.530573 0.014229 -1.473570 -0.012212 0.032731
    14 0.028786 -1.169484 -0.124675 -1.082413 -0.015161 0.023166
    15 0.250027 -2.820665 -0.238396 -0.656416 0.070401 -0.070751
    16 -0.049759 -1.594604 0.026258 -1.644847 -0.001630 -0.043494
    17 -0.034142 -1.156125 0.057437 -0.778245 0.008377 -0.019511
    18 0.957766 -2.746780 -0.090302 0.192366 -0.212660 0.232006
    19 -0.033420 -1.397129 -0.026882 -0.840549 0.006592 -0.041348
    20 -0.022360 -0.957436 -0.000748 -0.702856 0.007562 -0.034132
    21 -1.180681 -2.507217 -0.193859 -1.000921 0.270987 -0.298350
    22 -0.024967 -1.127840 0.017597 -0.956758 0.004674 -0.041010
    23 -0.020057 -0.906594 0.033528 -1.043762 0.004698 -0.042809
    24 0.603042 -1.205090 0.189285 0.170717 -0.910476 -0.421804
    25 1.485144 -0.208511 0.067511 0.044099 -0.208064 -0.737596
    26 0.975767 -0.198604 0.051823 0.125211 -0.269176 -1.206668
    27 0.120153 -0.050270 -0.054489 0.287569 3.110905 1.561085
    28 -8.106946 -5.801590 -6.751489 0.524401 -3.844028 0.688960
    29 -0.043685 -8.423074 0.041418 -0.195794 -0.883167 0.227361
    30 0.447953 -2.798986 -0.200443 -0.790006 -0.119648 0.293941
    31 -0.032909 -1.491923 0.012753 -0.719962 0.016191 -0.009118
    32 -0.027022 -1.096452 -0.028023 -0.483233 0.012776 -0.004926
    33 -0.249534 -2.846964 -0.174213 -0.413688 -0.065189 0.012170
    34 0.043235 -1.664409 0.088199 -0.796295 -0.012877 -0.000383
    35 0.031729 -1.156924 0.058838 -0.416940 -0.003565 0.005987
    36 -0.963866 -2.785145 -0.085350 -0.129402 0.160550 -0.203301
    37 0.028479 -1.403067 -0.009354 -0.582987 -0.011469 -0.024005
    38 0.021413 -0.957781 0.020046 -0.175941 -0.002013 -0.007862
    39 1.164475 -2.543940 -0.170330 -0.961510 -0.228957 0.408057
    40 0.024032 -1.132948 0.002182 -0.638860 0.001031 0.034337
    41 0.014898 -0.891802 -0.019848 -0.464501 -0.002157 0.022435
    42 -0.586770 -1.264477 0.200161 -0.075741 -0.426931 -2.865362
    43 1.546273 0.039149 0.016848 -0.010059 -0.003611 0.561628
    44 1.117947 0.048424 -0.005766 0.000021 -0.024922 0.053234
    45 -0.037833 -0.131230 -0.106700 0.749697 0.153181 1.371712
    46 -8.241335 0.678772 -0.473815 1.566331 -0.036395 -0.160188
  time 22
    0 5.828266 -11.879265 -4.513068 0.623592 -1.226507 0.838525
    1 0.661211 -0.000004 -2.641094 0.000000 -3.141592 0.000000
    2 3.259201 -0.000005 -1.130647 0.000000 0.000000 -0.000001
    3 3.190612 0.621425 2.571390 2.208361 -1.542144 -1.139077
    4 3.191648 0.639809 1.419721 -2.040361 -1.570796 0.000000
    5 3.707688 -0.036995 -1.128818 0.000000 0.000000 -2.366555
    6 1.073001 -0.000003 4.918042 0.000000 -3.141592 0.000000
    7 2.916357 0.664625 10.775771 -3.048099 0.000000 1.570796
    8 0.923057 -2.001326 -3.726057 -0.062488 -0.333819 0.188710
    9 5.649835 -4.155048 -7.046072 0.862602 -2.067384 -1.106595
    10 7.765191 2.969439 -0.337312 1.566450 -3.121676 0.446160
    11 0.056989 -8.444047 -0.068977 -0.151601 0.875787 -0.006730
    12 -0.488518 -2.755602 -0.228260 -0.926864 0.104123 -0.205670
    13 0.039887 -1.530573 0.014229 -1.473570 -0.012212 0.032731
    14 0.028786 -1.169484 -0.124675 -1.082413 -0.015161 0.023166
    15 0.250027 -2.820665 -0.238396 -0.656416 0.070401 -0.070751
    16 -0.049759 -1.594604 0.026258 -1.644847 -0.001630 -0.043494
    17 -0.034142 -1.156125 0.057437 -0.778245 0.008377 -0.019511
    18 0.957766 -2.746780 -0.090302 0.192366 -0.212660 0.232006
    19 -0.033420 -1.397129 -0.026882 -0.840549 0.006592 -0.041348
    20 -0.022360 -0.957436 -0.000748 -0.702856 0.007562 -0.034132
    21 -1.180681 -2.507217 -0.193859 -1.000921 0.270987 -0.298350
    22 -0.024967 -1.127840 0.017597 -0.956758 0.004674 -0.041010
    23 -0.020057 -0.906594 0.033528 -1.043762 0.004698 -0.042809
    24 0.603042 -1.205090 0.189285 0.170717 -0.910476 -0.421804
    25 1.485144 -0.208511 0.067511 0.044099 -0.208064 -0.737596
    26 0.975767 -0.198604 0.051823 0.125211 -0.269176 -1.206668
    27 0.120153 -0.050270 -0.054489 0.287569 3.110905 1.561085
    28 -7.325672 -6.727399 -6.739770 0.488881 -3.940526 0.688216
    29 -0.086655 -8.415261 0.037511 -0.307540 -0.980352 0.475430
    30 0.447953 -2.798986 -0.200443 -0.425026 -0.126958 0.301347
    31 -0.032909 -1.488017 0.008846 -0.479648 0.011074 -0.004588
    32 -0.027022 -1.096452 -0.028023 -0.488265 0.012883 -0.005010
    33 -0.249534 -2.846964 -0.174213 -0.094060 -0.058754 0.023950
    34 0.043235 -1.668316 0.092106 -0.522244 -0.007640 -0.001749
    35 0.031729 -1.156924 0.058838 -0.421592 -0.003613 0.005963
    36 -0.963866 -2.785145 -0.085350 0.102201 0.163163 -0.201407
    37 0.028479 -1.403067 -0.001542 -0.363245 -0.005585 -0.016011
    38 0.021413 -0.957781 0.020046 -0.175941 -0.002013 -0.007862
    39 1.164475 -2.543940 -0.170330 -0.573034 -0.239012 0.388558
    40 0.024032 -1.129042 0.006088 -0.499715 -0.001043 0.026799
    41 0.014898 -0.887895 -0.019848 -0.324725 -0.002445 0.014585
    42 -0.586770 -1.264477 0.200161 -0.029540 -0.434518 -2.955766
    43 1.538460 0.043056 0.016848 -0.005421 -0.000243 0.359927
    44 1.117947 0.048424 -0.005766 -0.003826 -0.028350 0.214466
    45 -0.037833 -0.131230 -0.106700 0.742473 0.103840 1.362508
    46 -8.081174 2.331166 -0.458190 1.570931 -0.033622 -0.362186
  time 23
    0 5.773577 -11.902703 -5.239653 0.795213 -1.359088 0.693318
    1 0.661211 -0.000004 -2.641094 0.000000 -3.141592 0.000000
    2 3.259201 -0.000005 -1.130647 0.000000 0.000000 -0.000001
    3 3.260927 1.355822 2.192472 2.208361 -1.542144 -1.139077
    4 3.261963 1.374206 1.040803 -2.040361 -1.570796 0.000000
    5 3.707688 -0.036995 -1.128818 0.000000 0.000000 -1.450879
    6 1.073001 -0.000003 4.918042 0.000000 -3.141592 0.000000
    7 2.916357 0.664625 10.775771 -3.048099 0.000000 1.570796
    8 0.923057 -2.001326 -3.726057 -0.062488 -0.333819 0.188710
    9 5.220135 -3.729254 -7.253109 0.898544 -1.969998 -1.130956
    10 7.663625 3.301481 -0.333406 1.566162 -3.122536 0.488517
    11 0.033551 -8.424515 -0.076789 -0.269063 0.761577 -0.139056
    12 -0.488518 -2.755602 -0.228260 -0.926864 0.104123 -0.205670
    13 0.039887 -1.530573 0.014229 -1.473570 -0.012212 0.032731
    14 0.028786 -1.169484 -0.124675 -1.082413 -0.015161 0.023166
    15 0.250027 -2.820665 -0.238396 -0.656416 0.070401 -0.070751
    16 -0.049759 -1.594604 0.026258 -1.644847 -0.001630 -0.043494
    17 -0.034142 -1.156125 0.057437 -0.778245 0.008377 -0.019511
    18 0.957766 -2.746780 -0.090302 0.192366 -0.212660 0.232006
    19 -0.033420 -1.397129 -0.026882 -0.840549 0.006592 -0.041348
    20 -0.022360 -0.957436 -0.000748 -0.702856 0.007562 -0.034132
    21 -1.180681 -2.507217 -0.193859 -1.000921 0.270987 -0.298350
    22 -0.024967 -1.127840 0.017597 -0.956758 0.004674 -0.041010
    23 -0.020057 -0.906594 0.033528 -1.043762 0.004698 -0.042809
    24 0.603042 -1.205090 0.189285 0.170717 -0.910476 -0.421804
    25 1.485144 -0.208511 0.067511 0.044099 -0.208064 -0.737596
    26 0.975767 -0.198604 0.051823 0.125211 -0.269176 -1.206668
    27 0.120153 -0.050270 -0.054489 0.287569 3.110905 1.561085
    28 -6.458458 -7.508673 -6.630392 0.431908 -4.023225 0.679206
    29 -0.125719 -8.419168 0.033605 -0.455783 -1.071533 0.712593
    30 0.447953 -2.798986 -0.200443 -0.245548 -0.131404 0.303900
    31 -0.032909 -1.488017 0.004940 -0.366262 0.008329 -0.002910
    32 -0.027022 -1.096452 -0.028023 -0.496942 0.013087 -0.005153
    33 -0.249534 -2.846964 -0.174213 0.059311 -0.057064 0.030338
    34 0.043235 -1.672222 0.096012 -0.387547 -0.004991 -0.001893
    35 0.031729 -1.153017 0.058838 -0.429624 -0.003708 0.005927
    36 -0.963866 -2.785145 -0.085350 0.207733 0.164218 -0.200676
    37 0.028479 -1.403067 -0.001542 -0.258282 -0.003428 -0.011781
    38 0.021413 -0.957781 0.020046 -0.175941 -0.002013 -0.007862
    39 1.164475 -2.543940 -0.170330 -0.381810 -0.241085 0.377856
    40 0.024032 -1.129042 0.006088 -0.435655 -0.001654 0.023251
    41 0.014898 -0.887895 -0.019848 -0.259559 -0.002193 0.010930
    42 -0.586770 -1.264477 0.200161 0.001551 -0.443971 -2.998872
    43 1.534554 0.046962 0.016848 -0.003420 0.001734 0.260795
    44 1.117947 0.048424 -0.005766 -0.005924 -0.029800 0.293757
    45 -0.037833 -0.131230 -0.106700 0.735249 0.054499 1.353292
    46 -7.620223 3.858556 -0.434751 1.574861 -0.030178 -0.556025
  time 24
    0 5.656386 -11.879265 -5.927174 1.265064 -1.461260 0.232507
    1 0.661211 -0.000004 -2.641094 0.000000 -3.141592 0.000000
    2 3.259201 -0.000005 -1.130647 0.000000 0.000000 -0.000001
    3 3.190612 0.621425 2.571390 2.208361 -1.542144 -1.139077
    4 3.191648 0.639809 1.419721 -2.040361 -1.570796 0.000000
    5 3.707688 -0.036995 -1.128818 0.000000 0.000000 -0.535108
    6 1.073001 -0.000003 4.918042 0.000000 -3.141592 0.000000
    7 2.916357 0.664625 10.775771 -3.048099 0.000000 1.570796
    8 0.923057 -2.001326 -3.726057 -0.062488 -0.333819 0.188710
    9 4.806060 -3.358148 -7.413270 0.947515 -1.885816 -1.172386
    10 7.565966 3.574926 -0.325593 1.565875 -3.123301 0.524318
    11 0.014019 -8.404984 -0.088509 -0.346622 0.650899 -0.228790
    12 -0.488518 -2.755602 -0.228260 -0.926864 0.104123 -0.205670
    13 0.039887 -1.530573 0.014229 -1.473570 -0.012212 0.032731
    14 0.028786 -1.169484 -0.124675 -1.082413 -0.015161 0.023166
    15 0.250027 -2.820665 -0.238396 -0.656416 0.070401 -0.070751
    16 -0.049759 -1.594604 0.026258 -1.644847 -0.001630 -0.043494
    17 -0.034142 -1.156125 0.057437 -0.778245 0.008377 -0.019511
    18 0.957766 -2.746780 -0.090302 0.192366 -0.212660 0.232006
    19 -0.033420 -1.397129 -0.026882 -0.840549 0.006592 -0.041348
    20 -0.022360 -0.957436 -0.000748 -0.702856 0.007562 -0.034132
    21 -1.180681 -2.507217 -0.193859 -1.000921 0.270987 -0.298350
    22 -0.024967 -1.127840 0.017597 -0.956758 0.004674 -0.041010
    23 -0.020057 -0.906594 0.033528 -1.043762 0.004698 -0.042809
    24 0.603042 -1.205090 0.189285 0.170717 -0.910476 -0.421804
    25 1.485144 -0.208511 0.067511 0.044099 -0.208064 -0.737596
    26 0.975767 -0.198604 0.051823 0.125211 -0.269176 -1.206668
    27 0.120153 -0.050270 -0.054489 0.287569 3.110905 1.561085
    28 -5.540461 -8.121973 -6.454605 0.356327 -4.094369 0.656559
    29 -0.153064 -8.426980 0.025792 -0.609695 -1.194916 0.844619
    30 0.447953 -2.798986 -0.200443 -0.628435 -0.122548 0.297548
    31 -0.032909 -1.491923 0.008846 -0.628063 0.014370 -0.007249
    32 -0.027022 -1.096452 -0.028023 -0.504510 0.013267 -0.005273
    33 -0.249534 -2.846964 -0.174213 -0.283468 -0.062001 0.017131
    34 0.043235 -1.664409 0.088199 -0.674965 -0.010600 -0.001162
    35 0.031729 -1.153017 0.058838 -0.436653 -0.003804 0.005903
    36 -0.963866 -2.785145 -0.085350 -0.052445 0.161413 -0.203708
    37 0.028479 -1.403067 -0.005448 -0.495099 -0.008905 -0.020961
    38 0.021413 -0.957781 0.020046 -0.175941 -0.002013 -0.007862
    39 1.164475 -2.543940 -0.170330 -0.789629 -0.234314 0.399931
    40 0.024032 -1.132948 0.002182 -0.590567 0.000192 0.031748
    41 0.014898 -0.891802 -0.019848 -0.413583 -0.002397 0.019583
    42 -0.586770 -1.264477 0.200161 -0.032061 -0.453444 -2.899632
    43 1.542367 0.043056 0.016848 -0.007926 -0.002233 0.472299
    44 1.117947 0.048424 -0.005766 -0.001609 -0.026516 0.124601
    45 -0.037833 -0.131230 -0.106700 0.738861 0.079176 1.357894
    46 -6.917076 5.202347 -0.407407 1.577833 -0.026257 -0.740409
  time 25
    0 5.543101 -11.812856 -6.446721 2.214028 -1.493459 -0.718904
    1 0.661211 -0.000004 -2.641094 0.000000 -3.141592 0.000000
    2 3.259201 -0.000005 -1.130647 0.000000 0.000000 -0.000001
    3 3.260927 1.355822 2.192472 2.208361 -1.542144 -1.139077
    4 3.261963 1.374206 1.040803 -2.040361 -1.570796 0.000000
    5 3.707688 -0.036995 -1.128818 0.000000 0.000000 0.380473
    6 1.073001 -0.000003 4.918042 0.000000 -3.141592 0.000000
    7 2.916357 0.664625 10.775771 -3.048099 0.000000 1.570796
    8 0.923057 -2.001326 -3.726057 -0.062488 -0.333819 0.188710
    9 4.489644 -3.080796 -7.522649 1.009144 -1.826438 -1.227358
    10 7.499558 3.742900 -0.321687 1.565779 -3.123778 0.546577
    11 0.002300 -8.389358 -0.100228 -0.392542 0.556896 -0.279359
    12 -0.488518 -2.755602 -0.228260 -0.926864 0.104123 -0.205670
    13 0.039887 -1.530573 0.014229 -1.473570 -0.012212 0.032731
    14 0.028786 -1.169484 -0.124675 -1.082413 -0.015161 0.023166
    15 0.250027 -2.820665 -0.238396 -0.656416 0.070401 -0.070751
    16 -0.049759 -1.594604 0.026258 -1.644847 -0.001630 -0.043494
    17 -0.034142 -1.156125 0.057437 -0.778245 0.008377 -0.019511
    18 0.957766 -2.746780 -0.090302 0.192366 -0.212660 0.232006
    19 -0.033420 -1.397129 -0.026882 -0.840549 0.006592 -0.041348
    20 -0.022360 -0.957436 -0.000748 -0.702856 0.007562 -0.034132
    21 -1.180681 -2.507217 -0.193859 -1.000921 0.270987 -0.298350
    22 -0.024967 -1.127840 0.017597 -0.956758 0.004674 -0.041010
    23 -0.020057 -0.906594 0.033528 -1.043762 0.004698 -0.042809
    24 0.603042 -1.205090 0.189285 0.170717 -0.910476 -0.421804
    25 1.485144 -0.208511 0.067511 0.044099 -0.208064 -0.737596
    26 0.975767 -0.198604 0.051823 0.125211 -0.269176 -1.206668
    27 0.120153 -0.050270 -0.054489 0.287569 3.110905 1.561085
    28 -4.888097 -8.465734 -6.274912 0.304213 -4.130321 0.646723
    29 -0.172595 -8.434793 0.021886 -0.740403 -1.300595 0.915505
    30 0.447953 -2.798986 -0.200443 -1.080608 -0.116016 0.286451
    31 -0.032909 -1.495829 0.016659 -0.937501 0.019763 -0.014176
    32 -0.027022 -1.096452 -0.028023 -0.513425 0.013471 -0.005429
    33 -0.249534 -2.846964 -0.174213 -0.688709 -0.073099 0.004763
    34 0.043235 -1.660503 0.080387 -1.014688 -0.016652 0.001691
    35 0.031729 -1.153017 0.058838 -0.444953 -0.003900 0.005867
    36 -0.963866 -2.785145 -0.085350 -0.359784 0.157230 -0.206201
    37 0.028479 -1.403067 -0.013261 -0.774906 -0.017929 -0.029782
    38 0.021413 -0.957781 0.020046 -0.175941 -0.002013 -0.007862
    39 1.164475 -2.543940 -0.170330 -1.269961 -0.216253 0.419838
    40 0.024032 -1.136855 -0.001725 -0.773654 0.004039 0.041288
    41 0.014898 -0.895708 -0.019848 -0.595607 -0.000911 0.029698
    42 -0.586770 -1.264477 0.200161 -0.073069 -0.460710 -2.781506
    43 1.557992 0.035243 0.016848 -0.014170 -0.005588 0.722307
    44 1.117947 0.048424 -0.005766 0.002681 -0.021758 -0.075216
    45 -0.037833 -0.131230 -0.106700 0.742473 0.103840 1.362508
    46 -6.342840 5.979715 -0.383969 1.579270 -0.023483 -0.858141
  time 26
    0 5.488412 -11.730823 -6.634227 2.746396 -1.501747 -1.258927
    1 0.661211 -0.000004 -2.641094 0.000000 -3.141592 0.000000
    2 3.259201 -0.000005 -1.130647 0.000000 0.000000 -0.000001
    3 3.260927 1.355822 2.192472 2.208361 -1.542144 -1.139077
    4 3.261963 1.374206 1.040803 -2.040361 -1.570796 0.000000
    5 3.707688 -0.036995 -1.128818 0.000000 0.000000 1.296244
    6 1.073001 -0.000003 4.918042 0.000000 -3.141592 0.000000
    7 2.916357 0.664625 10.775771 -3.048099 0.000000 1.570796
    8 0.923057 -2.001326 -3.726057 -0.062488 -0.333819 0.188710
    9 4.364640 -2.959699 -7.561712 1.060702 -1.808655 -1.272874
    10 7.499558 3.746807 -0.321687 1.565779 -3.123778 0.546793
    11 -0.009419 -8.381545 -0.104134 -0.408889 0.499700 -0.287795
    12 -0.488518 -2.755602 -0.228260 -0.926864 0.104123 -0.205670
    13 0.039887 -1.530573 0.014229 -1.473570 -0.012212 0.032731
    14 0.028786 -1.169484 -0.124675 -1.082413 -0.015161 0.023166
    15 0.250027 -2.820665 -0.238396 -0.656416 0.070401 -0.070751
    16 -0.049759 -1.594604 0.026258 -1.644847 -0.001630 -0.043494
    17 -0.034142 -1.156125 0.057437 -0.778245 0.008377 -0.019511
    18 0.957766 -2.746780 -0.090302 0.192366 -0.212660 0.232006
    19 -0.033420 -1.397129 -0.026882 -0.840549 0.006592 -0.041348
    20 -0.022360 -0.957436 -0.000748 -0.702856 0.007562 -0.034132
    21 -1.180681 -2.507217 -0.193859 -1.000921 0.270987 -0.298350
    22 -0.024967 -1.127840 0.017597 -0.956758 0.004674 -0.041010
    23 -0.020057 -0.906594 0.033528 -1.043762 0.004698 -0.042809
    24 0.603042 -1.205090 0.189285 0.170717 -0.910476 -0.421804
    25 1.485144 -0.208511 0.067511 0.044099 -0.208064 -0.737596
    26 0.975767 -0.198604 0.051823 0.125211 -0.269176 -1.206668
    27 0.120153 -0.050270 -0.054489 0.287569 3.110905 1.561085
    28 -5.032633 -8.293853 -6.509294 0.282170 -4.138376 0.623745
    29 -0.180408 -8.434793 0.017980 -0.833917 -1.344565 0.978243
    30 0.447953 -2.798986 -0.200443 -1.158826 -0.115417 0.284281
    31 -0.032909 -1.495829 0.016659 -0.991087 0.020470 -0.015518
    32 -0.027022 -1.096452 -0.028023 -0.514970 0.013507 -0.005453
    33 -0.249534 -2.846964 -0.174213 -0.758878 -0.075496 0.003133
    34 0.043235 -1.656596 0.080387 -1.073467 -0.017575 0.002386
    35 0.031729 -1.153017 0.058838 -0.446392 -0.003924 0.005867
    36 -0.963866 -2.785145 -0.085350 -0.412953 0.156440 -0.206489
    37 0.028479 -1.403067 -0.017167 -0.823293 -0.019727 -0.031040
    38 0.021413 -0.957781 0.020046 -0.175941 -0.002013 -0.007862
    39 1.164475 -2.543940 -0.170330 -1.352820 -0.212286 0.422271
    40 0.024032 -1.136855 -0.001725 -0.805289 0.004878 0.042858
    41 0.014898 -0.895708 -0.019848 -0.627086 -0.000467 0.031412
    42 -0.586770 -1.264477 0.200161 -0.080262 -0.461513 -2.760988
    43 1.557992 0.035243 0.016848 -0.015332 -0.006008 0.765580
    44 1.117947 0.048424 -0.005766 0.003316 -0.020860 -0.109804
    45 -0.037833 -0.131230 -0.106700 0.746085 0.128504 1.367110
    46 -6.569409 5.694550 -0.391781 1.578791 -0.024535 -0.813551
  time 27
    0 5.480599 -11.648789 -6.520942 0.062141 -1.598165 1.415903
    1 0.661211 -0.000004 -2.641094 0.000000 -3.141592 0.000000
    2 3.259201 -0.000005 -1.130647 0.000000 0.000000 -0.000001
    3 3.260927 1.355822 2.192472 2.208361 -1.542144 -1.139077
    4 3.261963 1.374206 1.040803 -2.040361 -1.570796 0.000000
    5 3.707688 -0.036995 -1.128818 0.000000 0.000000 2.211920
    6 1.073001 -0.000003 4.918042 0.000000 -3.141592 0.000000
    7 2.916357 0.664625 10.775771 -3.048099 0.000000 1.570796
    8 0.923057 -2.001326 -3.726057 -0.062488 -0.333819 0.188710
    9 4.403704 -2.971418 -7.546087 1.083432 -1.826972 -1.291225
    10 7.554247 3.606177 -0.325593 1.565875 -3.123396 0.528568
    11 -0.017232 -8.385452 -0.108040 -0.404802 0.477783 -0.265451
    12 -0.488518 -2.755602 -0.228260 -0.926864 0.104123 -0.205670
    13 0.039887 -1.530573 0.014229 -1.473570 -0.012212 0.032731
    14 0.028786 -1.169484 -0.124675 -1.082413 -0.015161 0.023166
    15 0.250027 -2.820665 -0.238396 -0.656416 0.070401 -0.070751
    16 -0.049759 -1.594604 0.026258 -1.644847 -0.001630 -0.043494
    17 -0.034142 -1.156125 0.057437 -0.778245 0.008377 -0.019511
    18 0.957766 -2.746780 -0.090302 0.192366 -0.212660 0.232006
    19 -0.033420 -1.397129 -0.026882 -0.840549 0.006592 -0.041348
    20 -0.022360 -0.957436 -0.000748 -0.702856 0.007562 -0.034132
    21 -1.180681 -2.507217 -0.193859 -1.000921 0.270987 -0.298350
    22 -0.024967 -1.127840 0.017597 -0.956758 0.004674 -0.041010
    23 -0.020057 -0.906594 0.033528 -1.043762 0.004698 -0.042809
    24 0.603042 -1.205090 0.189285 0.170717 -0.910476 -0.421804
    25 1.485144 -0.208511 0.067511 0.044099 -0.208064 -0.737596
    26 0.975767 -0.198604 0.051823 0.125211 -0.269176 -1.206668
    27 0.120153 -0.050270 -0.054489 0.287569 3.110905 1.561085
    28 -5.017007 -8.332917 -6.435073 0.329890 -4.127316 0.673421
    29 -0.180408 -8.438699 0.021886 -0.795563 -1.358074 0.929889
    30 0.447953 -2.798986 -0.200443 -1.150135 -0.115477 0.284521
    31 -0.032909 -1.495829 0.016659 -0.985093 0.020398 -0.015374
    32 -0.027022 -1.096452 -0.028023 -0.514812 0.013495 -0.005453
    33 -0.249534 -2.846964 -0.174213 -0.751082 -0.075220 0.003301
    34 0.043235 -1.656596 0.080387 -1.066946 -0.017479 0.002302
    35 0.031729 -1.153017 0.058838 -0.446225 -0.003924 0.005867
    36 -0.963866 -2.785145 -0.085350 -0.407043 0.156523 -0.206465
    37 0.028479 -1.403067 -0.017167 -0.817943 -0.019523 -0.030908
    38 0.021413 -0.957781 0.020046 -0.175941 -0.002013 -0.007862
    39 1.164475 -2.543940 -0.170330 -1.343599 -0.212730 0.422019
    40 0.024032 -1.136855 -0.001725 -0.801779 0.004782 0.042678
    41 0.014898 -0.895708 -0.019848 -0.623607 -0.000515 0.031220
    42 -0.586770 -1.264477 0.200161 -0.079455 -0.461432 -2.763260
    43 1.557992 0.035243 0.016848 -0.015201 -0.005960 0.760782
    44 1.117947 0.048424 -0.005766 0.003257 -0.020955 -0.105950
    45 -0.037833 -0.131230 -0.106700 0.749697 0.153181 1.371712
    46 -6.659256 5.573452 -0.395688 1.578504 -0.024918 -0.795660
  time 28
    0 5.488412 -11.562849 -6.298279 -0.741783 -1.529683 -4.073601
    1 0.661211 -0.000004 -2.641094 0.000000 -3.141592 0.000000
    2 3.259201 -0.000005 -1.130647 0.000000 0.000000 -0.000001
    3 3.260927 1.355822 2.192472 2.208361 -1.542144 -1.139077
    4 3.261963 1.374206 1.040803 -2.040361 -1.570796 0.000000
    5 3.707688 -0.036995 -1.128818 0.000000 0.000000 3.127691
    6 1.073001 -0.000003 4.918042 0.000000 -3.141592 0.000000
    7 2.916357 0.664625 10.775771 -3.048099 0.000000 1.570796
    8 0.923057 -2.001326 -3.726057 -0.062488 -0.333819 0.188710
    9 4.513082 -3.033920 -7.507023 1.090824 -1.859638 -1.295151
    10 7.624562 3.410859 -0.329500 1.566066 -3.122823 0.502996
    11 -0.021138 -8.389358 -0.108040 -0.393139 0.469700 -0.231398
    12 -0.488518 -2.755602 -0.228260 -0.926864 0.104123 -0.205670
    13 0.039887 -1.530573 0.014229 -1.473570 -0.012212 0.032731
    14 0.028786 -1.169484 -0.124675 -1.082413 -0.015161 0.023166
    15 0.250027 -2.820665 -0.238396 -0.656416 0.070401 -0.070751
    16 -0.049759 -1.594604 0.026258 -1.644847 -0.001630 -0.043494
    17 -0.034142 -1.156125 0.057437 -0.778268 0.008377 -0.019511
    18 0.957766 -2.746780 -0.090302 0.192366 -0.212660 0.232006
    19 -0.033420 -1.397129 -0.026882 -0.840549 0.006592 -0.041348
    20 -0.022360 -0.957436 -0.000748 -0.702856 0.007562 -0.034132
    21 -1.180681 -2.507217 -0.193859 -1.000921 0.270987 -0.298350
    22 -0.024967 -1.127840 0.017597 -0.956758 0.004674 -0.041010
    23 -0.020057 -0.906594 0.033528 -1.043762 0.004698 -0.042809
    24 0.603042 -1.205090 0.189285 0.170717 -0.910476 -0.421804
    25 1.485144 -0.208511 0.067511 0.044099 -0.208064 -0.737596
    26 0.975767 -0.198604 0.051823 0.125211 -0.269176 -1.206668
    27 0.120153 -0.050270 -0.054489 0.287569 3.110905 1.561085
    28 -4.946693 -8.446202 -6.239755 0.402058 -4.105197 0.748719
    29 -0.176502 -8.438699 0.021886 -0.696679 -1.358313 0.830329
    30 0.447953 -2.798986 -0.200443 -1.106681 -0.115800 0.285731
    31 -0.032909 -1.495829 0.016659 -0.955348 0.020014 -0.014619
    32 -0.027022 -1.096452 -0.028023 -0.513940 0.013483 -0.005441
    33 -0.249534 -2.846964 -0.174213 -0.712099 -0.073890 0.004200
    34 0.043235 -1.660503 0.080387 -1.034250 -0.016964 0.001918
    35 0.031729 -1.153017 0.058838 -0.445422 -0.003912 0.005867
    36 -0.963866 -2.785145 -0.085350 -0.377491 0.156967 -0.206297
    37 0.028479 -1.403067 -0.017167 -0.791051 -0.018528 -0.030213
    38 0.021413 -0.957781 0.020046 -0.175941 -0.002013 -0.007862
    39 1.164475 -2.543940 -0.170330 -1.297581 -0.214947 0.420677
    40 0.024032 -1.136855 -0.001725 -0.784182 0.004314 0.041815
    41 0.014898 -0.895708 -0.019848 -0.606100 -0.000767 0.030273
    42 -0.586770 -1.264477 0.200161 -0.075455 -0.460991 -2.774655
    43 1.557992 0.035243 0.016848 -0.014553 -0.005732 0.736732
    44 1.117947 0.048424 -0.005766 0.002897 -0.021459 -0.086753
    45 -0.037833 -0.131230 -0.106700 0.753309 0.177845 1.376315
    46 -6.706132 5.510951 -0.399594 1.578408 -0.025205 -0.786019
  time 29
    0 5.484505 -11.473002 -6.138118 -0.628326 -1.475839 -4.196970
    1 0.661211 -0.000004 -2.641094 0.000000 -3.141592 0.000000
    2 3.259201 -0.000005 -1.130647 0.000000 0.000000 -0.000001
    3 3.260927 1.355822 2.192472 2.208361 -1.542144 -1.139077
    4 3.261963 1.374206 1.040803 -2.040361 -1.570796 0.000000
    5 2.531871 -0.036995 -2.070253 0.000000 0.000000 -0.000001
    6 1.073001 -0.000003 4.918042 0.000000 -3.141592 0.000000
    7 2.916357 0.664625 10.775771 -3.048099 0.000000 1.570796
    8 0.923057 -2.001326 -3.726057 -0.062488 -0.333819 0.188710
    9 4.587303 -3.072984 -7.479679 1.102189 -1.885206 -1.302764
    10 7.683157 3.242885 -0.333406 1.566162 -3.122440 0.481097
    11 -0.028951 -8.393264 -0.108040 -0.386113 0.454446 -0.203685
    12 -0.488518 -2.755602 -0.228260 -0.926864 0.104123 -0.205670
    13 0.039887 -1.530573 0.014229 -1.473570 -0.012212 0.032731
    14 0.028786 -1.169484 -0.124675 -1.082413 -0.015161 0.023166
    15 0.250027 -2.820665 -0.238396 -0.656416 0.070401 -0.070751
    16 -0.049759 -1.594604 0.026258 -1.644847 -0.001630 -0.043494
    17 -0.034142 -1.156125 0.057437 -0.778245 0.008377 -0.019511
    18 0.957766 -2.746780 -0.090302 0.192366 -0.212660 0.232006
    19 -0.033420 -1.397129 -0.026882 -0.840549 0.006592 -0.041348
    20 -0.022360 -0.957436 -0.000748 -0.702856 0.007562 -0.034132
    21 -1.180681 -2.507217 -0.193859 -1.000921 0.270987 -0.298350
    22 -0.024967 -1.127840 0.017597 -0.956758 0.004674 -0.041010
    23 -0.020057 -0.906594 0.033528 -1.043762 0.004698 -0.042809
    24 0.603042 -1.205090 0.189285 0.170717 -0.910476 -0.421804
    25 1.485144 -0.208511 0.067511 0.044099 -0.208064 -0.737596
    26 0.975767 -0.198604 0.051823 0.125211 -0.269176 -1.206668
    27 0.120153 -0.050270 -0.054489 0.287569 3.110905 1.561085
    28 -4.907629 -8.512610 -6.103032 0.456406 -4.085026 0.805668
    29 -0.172595 -8.442606 0.025792 -0.621861 -1.363839 0.750387
    30 0.447953 -2.798986 -0.200443 -1.080608 -0.116016 0.286451
    31 -0.032909 -1.495829 0.016659 -0.937501 0.019763 -0.014176
    32 -0.027022 -1.096452 -0.028023 -0.513425 0.013471 -0.005429
    33 -0.249534 -2.846964 -0.174213 -0.688709 -0.073099 0.004763
    34 0.043235 -1.660503 0.080387 -1.014688 -0.016652 0.001691
    35 0.031729 -1.153017 0.058838 -0.444953 -0.003900 0.005867
    36 -0.963866 -2.785145 -0.085350 -0.359784 0.157230 -0.206201
    37 0.028479 -1.403067 -0.013261 -0.774906 -0.017929 -0.029782
    38 0.021413 -0.957781 0.020046 -0.175941 -0.002013 -0.007862
    39 1.164475 -2.543940 -0.170330 -1.269961 -0.216253 0.419838
    40 0.024032 -1.136855 -0.001725 -0.773654 0.004039 0.041288
    41 0.014898 -0.895708 -0.019848 -0.595607 -0.000911 0.029698
    42 -0.586770 -1.264477 0.200161 -0.073069 -0.460710 -2.781506
    43 1.557992 0.035243 0.016848 -0.014170 -0.005588 0.722307
    44 1.117947 0.048424 -0.005766 0.002681 -0.021758 -0.075216
    45 -0.037833 -0.131230 -0.106700 0.756922 0.202509 1.380917
    46 -6.776447 5.413291 -0.399594 1.578216 -0.025492 -0.771279
end
