// Created by Crowbar 0.34.0.0

$ModelName "weapons/tfa_cso/w_v2rocket.mdl"

$BodyGroup "studio"
{
	studio "v_blockar2_1"
}

$collisionmodel "v_blockar2_1.smd"
{
	$mass 9
}

$CDMaterials "models\weapons\tfa_cso\v2rocket"

$attachment "0" "root" -1.00 -13.00 4.00 rotate -0 0 0

$Sequence "idle" {
	"anims\idle.smd"
	fps 30
}