// Created by Crowbar 0.62

$modelname "weapons/tfa_cso/c_m3shark.mdl"

$Include "csonline_gmod.qci"

$bodygroup "weapon"
{
	studio "v_m3dragonm_m3_dragonm"
}

$CDMaterials "models\weapons\tfa_cso\m3shark"

$attachment 0 "Bone_muzzle" 0 0 0
//$attachment 1 "Bone_gill04" 0 0 0
//$attachment 2 "Bone_mouth1" 10 -2 2
//$attachment 3 "Bone_mouth1" 10 -2 -10
//$attachment 4 "Bone_mouth1" 5 0 2
//$attachment 5 "Bone_mouth1" 0 6 -4

$sequence "idle" {
	"v_m3dragonm_anims\idle"
	fps 30
	loop
}
$sequence "shoot1" {
	"v_m3dragonm_anims\shoot1"
	{ event 5001 0 "#I106 S0.1 R2 F0 P30 T999 A1 L0 O0 X0" }
	fps 30
}
$sequence "shooot2" {
	"v_m3dragonm_anims\shooot2"
	{ event 5001 0 "#I106 S0.1 R2 F0 P30 T999 A1 L0 O0 X0" }
	fps 37
}
$sequence "insert" {
	"v_m3dragonm_anims\insert"
	{ event 5004 1 "weapons/m3dragon_reload_insert.wav" }
	fps 65
}
$sequence "after_reload" {
	"v_m3dragonm_anims\after_reload"
	{ event 5004 1 "weapons/m3dragon_after_reload.wav" }
	fps 38
}
$sequence "before_reload" {
	"v_m3dragonm_anims\before_reload"
	fps 30
}
$sequence "draw" {
	"v_m3dragonm_anims\draw"
	{ event 5004 8 "weapons/m3dragon_after_reload.wav" }
	fps 30
}
$sequence "Secondary_ready" {
	"v_m3dragonm_anims\Secondary_ready"
	{ event 5004 1 "M3Shark.Idle" }
	fps 30
	loop
	activity "ACT_VM_IDLE" 1
	snap
}
$sequence "Secondary_shoot2" {
	"v_m3dragonm_anims\Secondary_shoot2"
	{ event 5001 0 "#I106 S0.1 R2 F0 P30 T999 A1 L0 O0 X0" }
	fps 30
}
$sequence "Secondary_insert" {
	"v_m3dragonm_anims\Secondary_insert"
	{ event 5004 1 "M3Shark.Insert" }
	fps 65
	activity "ACT_VM_RELOAD" 1
	snap
}
$sequence "Secondary_after_reload" {
	"v_m3dragonm_anims\Secondary_after_reload"
	{ event 5004 1 "M3Shark.After_Reload" }
	fps 38
	activity "ACT_SHOTGUN_RELOAD_FINISH" 1
	snap
}
$sequence "Secondary_before_reload" {
	"v_m3dragonm_anims\Secondary_before_reload"
	fps 30
	activity "ACT_SHOTGUN_RELOAD_START" 1
	snap
}
$sequence "Secondary_draw" {
	"v_m3dragonm_anims\Secondary_draw"
	{ event 5004 3 "M3Shark.Draw" }
	fps 30
	activity "ACT_VM_DRAW" 1
	snap
}
$sequence "Secondary_shoot1" {
	"v_m3dragonm_anims\Secondary_shoot1"
	{ event 5001 0 "#I106 S0.1 R2 F0 P30 T999 A1 L0 O0 X0" }
	fps 30
	activity "ACT_VM_PRIMARYATTACK" 1
	snap
}
