version 1
nodes
  0 "Bone01" -1
  1 "Bone_Lefthand" 0
  2 "Bone02" 1
  3 "Bone03" 2
  4 "Bone52" 3
  5 "Bone25" 3
  6 "Bone50" 3
  7 "Bone48" 3
  8 "Bone 04" 1
  9 "Bone13" 8
  10 "Bone14" 9
  11 "Bone15" 10
  12 "Bone17" 8
  13 "Bone18" 12
  14 "Bone19" 13
  15 "Bone21" 8
  16 "Bone22" 15
  17 "Bone23" 16
  18 "Bone05" 8
  19 "Bone06" 18
  20 "Bone07" 19
  21 "Bone09" 8
  22 "Bone10" 21
  23 "Bone11" 22
  24 "Bone04" -1
  25 "Bone_Righthand" 24
  26 "Bone26" 25
  27 "Bone35" 26
  28 "Bone36" 27
  29 "Bone37" 28
  30 "Bone31" 26
  31 "Bone32" 30
  32 "Bone33" 31
  33 "Bone39" 26
  34 "Bone40" 33
  35 "Bone41" 34
  36 "Bone43" 26
  37 "Bone44" 36
  38 "Bone45" 37
  39 "Bone27" 26
  40 "Bone28" 39
  41 "Bone29" 40
end
skeleton
  time 0
    0 3.610335 5.861051 -8.666729 -0.495141 -0.737184 0.336691
    1 -0.001748 -8.563256 -0.000751 0.407001 0.191214 -0.136236
    2 -0.219101 -3.426991 0.819250 -1.247037 1.437605 -1.233844
    3 0.000000 2.338130 0.839328 0.000000 0.000000 0.000000
    4 0.000001 -5.493101 2.360611 0.000000 0.000000 0.000000
    5 0.000001 -3.357312 1.408873 0.000000 0.000000 0.000000
    6 0.000001 -6.122600 1.221523 0.033089 0.000000 0.000000
    7 1.015656 -1.830839 -8.320438 -1.891151 0.561771 -0.255249
    8 -0.003479 -0.404829 0.000000 0.000000 0.000000 0.000000
    9 -0.519310 -2.501155 -0.278957 -1.003564 0.000000 -0.122173
    10 -0.010598 -1.208185 0.000000 -1.148417 0.000000 0.000000
    11 0.000000 -0.763066 0.000000 -0.841249 0.000000 0.000000
    12 0.105980 -2.607135 -0.278957 -0.795871 0.000000 -0.148353
    13 0.000000 -1.250579 0.000000 -1.296776 0.000000 0.000000
    14 0.000000 -0.932634 0.000000 -0.886645 0.000000 0.000000
    15 0.763063 -2.490556 -0.278957 -0.346932 0.039309 0.239193
    16 -0.012323 -1.280918 0.000000 -0.322892 0.000000 0.000000
    17 -0.001696 -0.749371 0.000000 -0.593412 0.000000 0.000000
    18 0.354566 0.016267 0.318133 0.834772 -0.606745 -1.212439
    19 1.887166 0.012878 0.000000 -0.305433 0.000000 -0.401426
    20 1.001874 -0.000270 0.000000 0.000000 0.000000 -0.488692
    21 -1.123360 -2.195093 -0.278957 -0.933751 0.000000 -0.087266
    22 0.010772 -0.963792 0.000000 -0.610865 0.000000 0.000000
    23 -0.010412 -0.631916 0.000000 -1.370074 0.000000 0.000000
    24 -12.101444 -0.829865 -11.072899 0.089520 2.956327 -5.002633
    25 0.089930 -8.543161 -0.000001 0.146632 0.007166 0.724060
    26 0.000000 -0.359712 0.000000 0.000000 0.000000 0.000000
    27 -0.170479 -2.636147 -0.277657 -0.216475 0.000000 0.000000
    28 0.010599 -1.261176 0.000002 0.040110 0.000000 0.000000
    29 -0.000001 -0.943233 -0.000002 -0.532326 0.000000 0.000000
    30 -0.827563 -2.508972 -0.277657 0.069688 0.039609 -0.158472
    31 0.000000 -1.292971 0.000001 -0.151858 0.000000 0.000000
    32 0.000000 -0.752465 0.000000 -0.445059 0.000000 0.000000
    33 0.444213 -2.561959 -0.277657 -0.250809 -0.046226 -0.024599
    34 0.021022 -1.208186 0.000001 -0.134428 0.000000 0.000000
    35 0.010597 -0.741867 -0.000001 -0.453786 0.000000 0.000000
    36 1.047445 -2.222820 -0.277657 -0.031619 -0.078971 -0.038609
    37 0.000000 -0.996224 -0.000002 -0.570745 0.000000 0.000000
    38 -0.000001 -0.614690 0.000000 -0.523599 0.000000 0.000000
    39 -0.308253 -0.007813 0.307166 -0.179973 -0.326092 -2.616278
    40 1.978376 0.019542 -0.000001 -0.084829 -0.033819 0.254889
    41 0.982425 0.003186 0.000001 0.000000 0.000000 0.326398
  time 1
    0 3.985346 5.759485 -8.545632 -0.504071 -0.787289 0.341176
    1 -0.001748 -8.563256 -0.000751 0.407353 0.261332 -0.152175
    2 -0.219101 -3.426991 0.819250 -1.247037 1.437605 -1.233844
    3 0.000000 2.338130 0.839328 0.000000 0.000000 0.000000
    4 0.000001 -5.493101 2.360611 0.000000 0.000000 0.000000
    5 0.000001 -3.357312 1.408873 0.000000 0.000000 0.000000
    6 0.000001 -6.122600 1.221523 0.033089 0.000000 0.000000
    7 1.015656 -1.830839 -8.320438 -1.891151 0.561771 -0.255249
    8 -0.003479 -0.404829 0.000000 0.000000 0.000000 0.000000
    9 -0.519310 -2.501155 -0.278957 -1.003564 0.000000 -0.122173
    10 -0.010598 -1.208185 0.000000 -1.148417 0.000000 0.000000
    11 0.000000 -0.763066 0.000000 -0.841249 0.000000 0.000000
    12 0.105980 -2.607135 -0.278957 -0.795871 0.000000 -0.148353
    13 0.000000 -1.250579 0.000000 -1.296776 0.000000 0.000000
    14 0.000000 -0.932634 0.000000 -0.886645 0.000000 0.000000
    15 0.763063 -2.490556 -0.278957 -0.346932 0.039309 0.239193
    16 -0.012323 -1.280918 0.000000 -0.322892 0.000000 0.000000
    17 -0.001696 -0.749371 0.000000 -0.593412 0.000000 0.000000
    18 0.354566 0.016267 0.318133 0.834772 -0.606745 -1.212439
    19 1.887166 0.012878 0.000000 -0.305433 0.000000 -0.401426
    20 1.001874 -0.000270 0.000000 0.000000 0.000000 -0.488692
    21 -1.123360 -2.195093 -0.278957 -0.933751 0.000000 -0.087266
    22 0.010772 -0.963792 0.000000 -0.610865 0.000000 0.000000
    23 -0.010412 -0.631916 0.000000 -1.370074 0.000000 0.000000
    24 -11.222511 -0.857210 -11.236967 0.186843 2.790788 -4.958562
    25 0.089930 -8.543161 -0.000001 0.146632 0.007166 0.724060
    26 0.000000 -0.359712 0.000000 0.000000 0.000000 0.000000
    27 -0.170479 -2.636147 -0.277657 -0.339512 0.000000 0.000000
    28 0.010599 -1.261176 0.000002 0.015695 0.000000 0.000000
    29 -0.000001 -0.943233 -0.000002 -0.532326 0.000000 0.000000
    30 -0.827563 -2.508972 -0.277657 -0.052117 0.027780 -0.149412
    31 0.000000 -1.292971 0.000001 -0.176304 0.000000 0.000000
    32 0.000000 -0.752465 0.000000 -0.445059 0.000000 0.000000
    33 0.444213 -2.561959 -0.277657 -0.373888 -0.046226 -0.024599
    34 0.021022 -1.208186 0.000001 -0.158852 0.000000 0.000000
    35 0.010597 -0.741867 -0.000001 -0.453786 0.000000 0.000000
    36 1.047445 -2.222820 -0.277657 -0.154699 -0.078971 -0.038609
    37 0.000000 -0.996224 -0.000002 -0.595170 0.000000 0.000000
    38 -0.000001 -0.614690 0.000000 -0.523599 0.000000 0.000000
    39 -0.308253 -0.007813 0.307166 -0.179973 -0.326092 -2.616278
    40 1.978376 0.019542 -0.000001 -0.084829 -0.033819 0.254889
    41 0.982425 0.003186 0.000001 0.000000 0.000000 0.326398
  time 2
    0 4.360358 5.661826 -8.420628 -0.513757 -0.837353 0.346591
    1 -0.001748 -8.563256 -0.000751 0.410021 0.297729 -0.159429
    2 -0.219101 -3.426991 0.819250 -1.247037 1.437605 -1.233844
    3 0.000000 2.338130 0.839328 0.000000 0.000000 0.000000
    4 0.000001 -5.493101 2.360611 0.000000 0.000000 0.000000
    5 0.000001 -3.357312 1.408873 0.000000 0.000000 0.000000
    6 0.000001 -6.122600 1.221523 0.033089 0.000000 0.000000
    7 1.015656 -1.830839 -8.320438 -1.891151 0.561771 -0.255249
    8 -0.003479 -0.404829 0.000000 0.000000 0.000000 0.000000
    9 -0.519310 -2.501155 -0.278957 -1.003564 0.000000 -0.122173
    10 -0.010598 -1.208185 0.000000 -1.148417 0.000000 0.000000
    11 0.000000 -0.763066 0.000000 -0.841249 0.000000 0.000000
    12 0.105980 -2.607135 -0.278957 -0.795871 0.000000 -0.148353
    13 0.000000 -1.250579 0.000000 -1.296776 0.000000 0.000000
    14 0.000000 -0.932634 0.000000 -0.886645 0.000000 0.000000
    15 0.763063 -2.490556 -0.278957 -0.346932 0.039309 0.239193
    16 -0.012323 -1.280918 0.000000 -0.322892 0.000000 0.000000
    17 -0.001696 -0.749371 0.000000 -0.593412 0.000000 0.000000
    18 0.354566 0.016267 0.318133 0.834772 -0.606745 -1.212439
    19 1.887166 0.012878 0.000000 -0.305433 0.000000 -0.401426
    20 1.001874 -0.000270 0.000000 0.000000 0.000000 -0.488692
    21 -1.123360 -2.195093 -0.278957 -0.933751 0.000000 -0.087266
    22 0.010772 -0.963792 0.000000 -0.610865 0.000000 0.000000
    23 -0.010412 -0.631916 0.000000 -1.370074 0.000000 0.000000
    24 -10.296701 -0.982213 -11.326813 0.299895 2.630722 -4.892834
    25 0.089930 -8.543161 -0.000001 0.136615 -0.041736 0.705558
    26 0.000000 -0.359712 0.000000 0.000000 0.000000 0.000000
    27 -0.170479 -2.636147 -0.277657 -0.462598 0.000000 0.000000
    28 0.010599 -1.261176 0.000002 -0.008746 0.000000 0.000000
    29 -0.000001 -0.943233 -0.000002 -0.532326 0.000000 0.000000
    30 -0.827563 -2.508972 -0.277657 -0.174019 0.017150 -0.138961
    31 0.000000 -1.292971 0.000001 -0.200751 0.000000 0.000000
    32 0.000000 -0.752465 0.000000 -0.445059 0.000000 0.000000
    33 0.444213 -2.561959 -0.277657 -0.496922 -0.046226 -0.024599
    34 0.021022 -1.208186 0.000001 -0.183276 0.000000 0.000000
    35 0.010597 -0.741867 -0.000001 -0.453786 0.000000 0.000000
    36 1.047445 -2.222820 -0.277657 -0.277734 -0.078971 -0.038609
    37 0.000000 -0.996224 -0.000002 -0.619611 0.000000 0.000000
    38 -0.000001 -0.614690 0.000000 -0.523599 0.000000 0.000000
    39 -0.308253 -0.007813 0.307166 -0.179973 -0.326092 -2.616278
    40 1.978376 0.019542 -0.000001 -0.084829 -0.033819 0.254889
    41 0.982425 0.003186 0.000001 0.000000 0.000000 0.326398
  time 3
    0 4.735369 5.560260 -8.303437 -0.524502 -0.887417 0.353022
    1 -0.001748 -8.563256 -0.000751 0.420957 0.273966 -0.148530
    2 -0.219101 -3.426991 0.819250 -1.247037 1.437605 -1.233844
    3 0.000000 2.338130 0.839328 0.000000 0.000000 0.000000
    4 0.000001 -5.493101 2.360611 0.000000 0.000000 0.000000
    5 0.000001 -3.357312 1.408873 0.000000 0.000000 0.000000
    6 0.000001 -6.122600 1.221523 0.033089 0.000000 0.000000
    7 1.015656 -1.830839 -8.320438 -1.891151 0.561771 -0.255249
    8 -0.003479 -0.404829 0.000000 0.000000 0.000000 0.000000
    9 -0.519310 -2.501155 -0.278957 -1.003564 0.000000 -0.122173
    10 -0.010598 -1.208185 0.000000 -1.148417 0.000000 0.000000
    11 0.000000 -0.763066 0.000000 -0.841249 0.000000 0.000000
    12 0.105980 -2.607135 -0.278957 -0.795871 0.000000 -0.148353
    13 0.000000 -1.250579 0.000000 -1.296776 0.000000 0.000000
    14 0.000000 -0.932634 0.000000 -0.886645 0.000000 0.000000
    15 0.763063 -2.490556 -0.278957 -0.346932 0.039309 0.239193
    16 -0.012323 -1.280918 0.000000 -0.322892 0.000000 0.000000
    17 -0.001696 -0.749371 0.000000 -0.593412 0.000000 0.000000
    18 0.354566 0.016267 0.318133 0.834772 -0.606745 -1.212439
    19 1.887166 0.012878 0.000000 -0.305433 0.000000 -0.401426
    20 1.001874 -0.000270 0.000000 0.000000 0.000000 -0.488692
    21 -1.123360 -2.195093 -0.278957 -0.933751 0.000000 -0.087266
    22 0.010772 -0.963792 0.000000 -0.610865 0.000000 0.000000
    23 -0.010412 -0.631916 0.000000 -1.370074 0.000000 0.000000
    24 -9.320109 -1.197064 -11.346345 0.438356 2.479348 -4.797788
    25 0.089930 -8.543161 -0.000001 0.127486 -0.090812 0.687504
    26 0.000000 -0.359712 0.000000 0.000000 0.000000 0.000000
    27 -0.170479 -2.636147 -0.277657 -0.585635 0.000000 0.000000
    28 0.010599 -1.261176 0.000002 -0.033186 0.000000 0.000000
    29 -0.000001 -0.943233 -0.000002 -0.532326 0.000000 0.000000
    30 -0.827563 -2.508972 -0.277657 -0.296020 0.007862 -0.127300
    31 0.000000 -1.292971 0.000001 -0.225171 0.000000 0.000000
    32 0.000000 -0.752465 0.000000 -0.445059 0.000000 0.000000
    33 0.444213 -2.561959 -0.277657 -0.619956 -0.046226 -0.024599
    34 0.021022 -1.208186 0.000001 -0.207700 0.000000 0.000000
    35 0.010597 -0.741867 -0.000001 -0.453786 0.000000 0.000000
    36 1.047445 -2.222820 -0.277657 -0.400768 -0.078971 -0.038609
    37 0.000000 -0.996224 -0.000002 -0.644036 0.000000 0.000000
    38 -0.000001 -0.614690 0.000000 -0.523599 0.000000 0.000000
    39 -0.308253 -0.007813 0.307166 -0.179973 -0.326092 -2.616278
    40 1.978376 0.019542 -0.000001 -0.084829 -0.033819 0.254889
    41 0.982425 0.003186 0.000001 0.000000 0.000000 0.326398
  time 4
    0 5.110381 5.462601 -8.178433 -0.536458 -0.937399 0.360807
    1 -0.001748 -8.563256 -0.000751 0.435295 0.235039 -0.131912
    2 -0.219101 -3.426991 0.819250 -1.247037 1.437605 -1.233844
    3 0.000000 2.338130 0.839328 0.000000 0.000000 0.000000
    4 0.000001 -5.493101 2.360611 0.000000 0.000000 0.000000
    5 0.000001 -3.357312 1.408873 0.000000 0.000000 0.000000
    6 0.000001 -6.122600 1.221523 0.033089 0.000000 0.000000
    7 1.015656 -1.830839 -8.320438 -1.891151 0.561771 -0.255249
    8 -0.003479 -0.404829 0.000000 0.000000 0.000000 0.000000
    9 -0.519310 -2.501155 -0.278957 -1.003564 0.000000 -0.122173
    10 -0.010598 -1.208185 0.000000 -1.148417 0.000000 0.000000
    11 0.000000 -0.763066 0.000000 -0.841249 0.000000 0.000000
    12 0.105980 -2.607135 -0.278957 -0.795871 0.000000 -0.148353
    13 0.000000 -1.250579 0.000000 -1.296776 0.000000 0.000000
    14 0.000000 -0.932634 0.000000 -0.886645 0.000000 0.000000
    15 0.763063 -2.490556 -0.278957 -0.346932 0.039309 0.239193
    16 -0.012323 -1.280918 0.000000 -0.322892 0.000000 0.000000
    17 -0.001696 -0.749371 0.000000 -0.593412 0.000000 0.000000
    18 0.354566 0.016267 0.318133 0.834772 -0.606745 -1.212439
    19 1.887166 0.012878 0.000000 -0.305433 0.000000 -0.401426
    20 1.001874 -0.000270 0.000000 0.000000 0.000000 -0.488692
    21 -1.123360 -2.195093 -0.278957 -0.933751 0.000000 -0.087266
    22 0.010772 -0.963792 0.000000 -0.610865 0.000000 0.000000
    23 -0.010412 -0.631916 0.000000 -1.370074 0.000000 0.000000
    24 -8.292734 -1.509573 -11.295562 -2.525799 0.799419 -1.519228
    25 0.089930 -8.543161 -0.000001 0.119191 -0.140037 0.669790
    26 0.000000 -0.359712 0.000000 0.000000 0.000000 0.000000
    27 -0.170479 -2.636147 -0.277657 -0.708673 0.000000 0.000000
    28 0.010599 -1.261176 0.000002 -0.057626 0.000000 0.000000
    29 -0.000001 -0.943233 -0.000002 -0.532326 0.000000 0.000000
    30 -0.827563 -2.508972 -0.277657 -0.418117 0.000060 -0.114609
    31 0.000000 -1.292971 0.000001 -0.249617 0.000000 0.000000
    32 0.000000 -0.752465 0.000000 -0.445059 0.000000 0.000000
    33 0.444213 -2.561959 -0.277657 -0.742990 -0.046226 -0.024599
    34 0.021022 -1.208186 0.000001 -0.232169 0.000000 0.000000
    35 0.010597 -0.741867 -0.000001 -0.453786 0.000000 0.000000
    36 1.047445 -2.222820 -0.277657 -0.523802 -0.078971 -0.038609
    37 0.000000 -0.996224 -0.000002 -0.668476 0.000000 0.000000
    38 -0.000001 -0.614690 0.000000 -0.523599 0.000000 0.000000
    39 -0.308253 -0.007813 0.307166 -0.179973 -0.326092 -2.616278
    40 1.978376 0.019542 -0.000001 -0.084829 -0.033819 0.254889
    41 0.982425 0.003186 0.000001 0.000000 0.000000 0.326398
  time 5
    0 5.481486 5.361035 -8.061242 -0.549928 -0.987340 0.370285
    1 -0.001748 -8.563256 -0.000751 0.448050 0.187179 -0.115116
    2 -0.219101 -3.426991 0.819250 -1.247037 1.437605 -1.233844
    3 0.000000 2.338130 0.839328 0.000000 0.000000 0.000000
    4 0.000001 -5.493101 2.360611 0.000000 0.000000 0.000000
    5 0.000001 -3.357312 1.408873 0.000000 0.000000 0.000000
    6 0.000001 -6.122600 1.221523 0.033089 0.000000 0.000000
    7 1.015656 -1.830839 -8.320438 -1.891151 0.561771 -0.255249
    8 -0.003479 -0.404829 0.000000 0.000000 0.000000 0.000000
    9 -0.519310 -2.501155 -0.278957 -1.003564 0.000000 -0.122173
    10 -0.010598 -1.208185 0.000000 -1.148417 0.000000 0.000000
    11 0.000000 -0.763066 0.000000 -0.841249 0.000000 0.000000
    12 0.105980 -2.607135 -0.278957 -0.795871 0.000000 -0.148353
    13 0.000000 -1.250579 0.000000 -1.296776 0.000000 0.000000
    14 0.000000 -0.932634 0.000000 -0.886645 0.000000 0.000000
    15 0.763063 -2.490556 -0.278957 -0.346932 0.039309 0.239193
    16 -0.012323 -1.280918 0.000000 -0.322892 0.000000 0.000000
    17 -0.001696 -0.749371 0.000000 -0.593412 0.000000 0.000000
    18 0.354566 0.016267 0.318133 0.834772 -0.606745 -1.212439
    19 1.887166 0.012878 0.000000 -0.305433 0.000000 -0.401426
    20 1.001874 -0.000270 0.000000 0.000000 0.000000 -0.488692
    21 -1.123360 -2.195093 -0.278957 -0.933751 0.000000 -0.087266
    22 0.010772 -0.963792 0.000000 -0.610865 0.000000 0.000000
    23 -0.010412 -0.631916 0.000000 -1.370074 0.000000 0.000000
    24 -7.218482 -1.915836 -11.170559 -2.292284 0.913131 -1.323935
    25 0.089930 -8.543161 -0.000001 0.111731 -0.189411 0.652345
    26 0.000000 -0.359712 0.000000 0.000000 0.000000 0.000000
    27 -0.170479 -2.636147 -0.277657 -0.831710 0.000000 0.000000
    28 0.010599 -1.261176 0.000002 -0.082041 0.000000 0.000000
    29 -0.000001 -0.943233 -0.000002 -0.532326 0.000000 0.000000
    30 -0.827563 -2.508972 -0.277657 -0.540264 -0.006100 -0.101042
    31 0.000000 -1.292971 0.000001 -0.274038 0.000000 0.000000
    32 0.000000 -0.752465 0.000000 -0.445059 0.000000 0.000000
    33 0.444213 -2.561959 -0.277657 -0.866024 -0.046226 -0.024599
    34 0.021022 -1.208186 0.000001 -0.256593 0.000000 0.000000
    35 0.010597 -0.741867 -0.000001 -0.453786 0.000000 0.000000
    36 1.047445 -2.222820 -0.277657 -0.646837 -0.078971 -0.038609
    37 0.000000 -0.996224 -0.000002 -0.692917 0.000000 0.000000
    38 -0.000001 -0.614690 0.000000 -0.523599 0.000000 0.000000
    39 -0.308253 -0.007813 0.307166 -0.179973 -0.326092 -2.616278
    40 1.978376 0.019542 -0.000001 -0.084829 -0.033819 0.254889
    41 0.982425 0.003186 0.000001 0.000000 0.000000 0.326398
  time 6
    0 5.856497 5.263376 -7.936238 -0.565516 -1.037157 0.381793
    1 -0.001748 -8.563256 -0.000751 0.455057 0.136815 -0.103109
    2 -0.219101 -3.426991 0.819250 -1.247037 1.437605 -1.233844
    3 0.000000 2.338130 0.839328 0.000000 0.000000 0.000000
    4 0.000001 -5.493101 2.360611 0.000000 0.000000 0.000000
    5 0.000001 -3.357312 1.408873 0.000000 0.000000 0.000000
    6 0.000001 -6.122600 1.221523 0.033089 0.000000 0.000000
    7 1.015656 -1.830839 -8.320438 -1.891151 0.561771 -0.255249
    8 -0.003479 -0.404829 0.000000 0.000000 0.000000 0.000000
    9 -0.519310 -2.501155 -0.278957 -1.003564 0.000000 -0.122173
    10 -0.010598 -1.208185 0.000000 -1.148417 0.000000 0.000000
    11 0.000000 -0.763066 0.000000 -0.841249 0.000000 0.000000
    12 0.105980 -2.607135 -0.278957 -0.795871 0.000000 -0.148353
    13 0.000000 -1.250579 0.000000 -1.296776 0.000000 0.000000
    14 0.000000 -0.932634 0.000000 -0.886645 0.000000 0.000000
    15 0.763063 -2.490556 -0.278957 -0.346932 0.039309 0.239193
    16 -0.012323 -1.280918 0.000000 -0.322892 0.000000 0.000000
    17 -0.001696 -0.749371 0.000000 -0.593412 0.000000 0.000000
    18 0.354566 0.016267 0.318133 0.834772 -0.606745 -1.212439
    19 1.887166 0.012878 0.000000 -0.305433 0.000000 -0.401426
    20 1.001874 -0.000270 0.000000 0.000000 0.000000 -0.488692
    21 -1.123360 -2.195093 -0.278957 -0.933751 0.000000 -0.087266
    22 0.010772 -0.963792 0.000000 -0.610865 0.000000 0.000000
    23 -0.010412 -0.631916 0.000000 -1.370074 0.000000 0.000000
    24 -6.093448 -2.419757 -10.979146 -1.990862 0.989100 -1.059604
    25 0.089930 -8.543161 -0.000001 0.105053 -0.238909 0.635078
    26 0.000000 -0.359712 0.000000 0.000000 0.000000 0.000000
    27 -0.170479 -2.636147 -0.277657 -0.954747 0.000000 0.000000
    28 0.010599 -1.261176 0.000002 -0.106482 0.000000 0.000000
    29 -0.000001 -0.943233 -0.000002 -0.532326 0.000000 0.000000
    30 -0.827563 -2.508972 -0.277657 -0.662556 -0.010606 -0.086828
    31 0.000000 -1.292971 0.000001 -0.298484 0.000000 0.000000
    32 0.000000 -0.752465 0.000000 -0.445059 0.000000 0.000000
    33 0.444213 -2.561959 -0.277657 -0.989058 -0.046226 -0.024599
    34 0.021022 -1.208186 0.000001 -0.281017 0.000000 0.000000
    35 0.010597 -0.741867 -0.000001 -0.453786 0.000000 0.000000
    36 1.047445 -2.222820 -0.277657 -0.769917 -0.078971 -0.038609
    37 0.000000 -0.996224 -0.000002 -0.717342 0.000000 0.000000
    38 -0.000001 -0.614690 0.000000 -0.523599 0.000000 0.000000
    39 -0.308253 -0.007813 0.307166 -0.179973 -0.326092 -2.616278
    40 1.978376 0.019542 -0.000001 -0.084829 -0.033819 0.254889
    41 0.982425 0.003186 0.000001 0.000000 0.000000 0.326398
  time 7
    0 6.231508 5.161811 -7.811234 -0.583904 -1.086893 0.396178
    1 -0.001748 -8.563256 -0.000751 0.452888 0.090572 -0.100036
    2 -0.219101 -3.426991 0.819250 -1.247037 1.437605 -1.233844
    3 0.000000 2.338130 0.839328 0.000000 0.000000 0.000000
    4 0.000001 -5.493101 2.360611 0.000000 0.000000 0.000000
    5 0.000001 -3.357312 1.408873 0.000000 0.000000 0.000000
    6 0.000001 -6.122600 1.221523 0.033089 0.000000 0.000000
    7 1.015656 -1.830839 -8.320438 -1.891151 0.561771 -0.255249
    8 -0.003479 -0.404829 0.000000 0.000000 0.000000 0.000000
    9 -0.519310 -2.501155 -0.278957 -1.003564 0.000000 -0.122173
    10 -0.010598 -1.208185 0.000000 -1.148417 0.000000 0.000000
    11 0.000000 -0.763066 0.000000 -0.841249 0.000000 0.000000
    12 0.105980 -2.607135 -0.278957 -0.795871 0.000000 -0.148353
    13 0.000000 -1.250579 0.000000 -1.296776 0.000000 0.000000
    14 0.000000 -0.932634 0.000000 -0.886645 0.000000 0.000000
    15 0.763063 -2.490556 -0.278957 -0.346932 0.039309 0.239193
    16 -0.012323 -1.280918 0.000000 -0.322892 0.000000 0.000000
    17 -0.001696 -0.749371 0.000000 -0.593412 0.000000 0.000000
    18 0.354566 0.016267 0.318133 0.834772 -0.606745 -1.212439
    19 1.887166 0.012878 0.000000 -0.305433 0.000000 -0.401426
    20 1.001874 -0.000270 0.000000 0.000000 0.000000 -0.488692
    21 -1.123360 -2.195093 -0.278957 -0.933751 0.000000 -0.087266
    22 0.010772 -0.963792 0.000000 -0.610865 0.000000 0.000000
    23 -0.010412 -0.631916 0.000000 -1.370074 0.000000 0.000000
    24 -4.921537 -3.017432 -10.709607 -1.639910 1.011794 -0.745149
    25 0.089930 -8.543161 -0.000001 0.099196 -0.288506 0.617955
    26 0.000000 -0.359712 0.000000 0.000000 0.000000 0.000000
    27 -0.170479 -2.636147 -0.277657 -1.077784 0.000000 0.000000
    28 0.010599 -1.261176 0.000002 -0.130922 0.000000 0.000000
    29 -0.000001 -0.943233 -0.000002 -0.532326 0.000000 0.000000
    30 -0.827563 -2.508972 -0.277657 -0.784849 -0.013339 -0.072171
    31 0.000000 -1.292971 0.000001 -0.322931 0.000000 0.000000
    32 0.000000 -0.752465 0.000000 -0.445059 0.000000 0.000000
    33 0.444213 -2.561959 -0.277657 -1.112138 -0.046226 -0.024599
    34 0.021022 -1.208186 0.000001 -0.305441 0.000000 0.000000
    35 0.010597 -0.741867 -0.000001 -0.453786 0.000000 0.000000
    36 1.047445 -2.222820 -0.277657 -0.892951 -0.078971 -0.038609
    37 0.000000 -0.996224 -0.000002 -0.741782 0.000000 0.000000
    38 -0.000001 -0.614690 0.000000 -0.523599 0.000000 0.000000
    39 -0.308253 -0.007813 0.307166 -0.179973 -0.326092 -2.616278
    40 1.978376 0.019542 -0.000001 -0.084829 -0.033819 0.254889
    41 0.982425 0.003186 0.000001 0.000000 0.000000 0.326398
  time 8
    0 6.606520 5.064151 -7.690137 -0.605849 -1.136465 0.414117
    1 -0.001748 -8.563256 -0.000751 0.439957 0.048363 -0.107326
    2 -0.219101 -3.426991 0.819250 -1.247037 1.437605 -1.233844
    3 0.000000 2.338130 0.839328 0.000000 0.000000 0.000000
    4 0.000001 -5.493101 2.360611 0.000000 0.000000 0.000000
    5 0.000001 -3.357312 1.408873 0.000000 0.000000 0.000000
    6 0.000001 -6.122600 1.221523 0.033089 0.000000 0.000000
    7 1.015656 -1.830839 -8.320438 -1.891151 0.561771 -0.255249
    8 -0.003479 -0.404829 0.000000 0.000000 0.000000 0.000000
    9 -0.519310 -2.501155 -0.278957 -1.003564 0.000000 -0.122173
    10 -0.010598 -1.208185 0.000000 -1.148417 0.000000 0.000000
    11 0.000000 -0.763066 0.000000 -0.841249 0.000000 0.000000
    12 0.105980 -2.607135 -0.278957 -0.795871 0.000000 -0.148353
    13 0.000000 -1.250579 0.000000 -1.296776 0.000000 0.000000
    14 0.000000 -0.932634 0.000000 -0.886645 0.000000 0.000000
    15 0.763063 -2.490556 -0.278957 -0.346932 0.039309 0.239193
    16 -0.012323 -1.280918 0.000000 -0.322892 0.000000 0.000000
    17 -0.001696 -0.749371 0.000000 -0.593412 0.000000 0.000000
    18 0.354566 0.016267 0.318133 0.834772 -0.606745 -1.212439
    19 1.887166 0.012878 0.000000 -0.305433 0.000000 -0.401426
    20 1.001874 -0.000270 0.000000 0.000000 0.000000 -0.488692
    21 -1.123360 -2.195093 -0.278957 -0.933751 0.000000 -0.087266
    22 0.010772 -0.963792 0.000000 -0.610865 0.000000 0.000000
    23 -0.010412 -0.631916 0.000000 -1.370074 0.000000 0.000000
    24 -3.694937 -3.708859 -10.373659 -1.296897 0.974855 -0.438733
    25 0.089930 -8.543161 -0.000001 0.094148 -0.338178 0.600832
    26 0.000000 -0.359712 0.000000 0.000000 0.000000 0.000000
    27 -0.170479 -2.636147 -0.277657 -1.200821 0.000000 0.000000
    28 0.010599 -1.261176 0.000002 -0.155362 0.000000 0.000000
    29 -0.000001 -0.943233 -0.000002 -0.532326 0.000000 0.000000
    30 -0.827563 -2.508972 -0.277657 -0.907190 -0.014262 -0.057298
    31 0.000000 -1.292971 0.000001 -0.347325 0.000000 0.000000
    32 0.000000 -0.752465 0.000000 -0.445059 0.000000 0.000000
    33 0.444213 -2.561959 -0.277657 -1.235172 -0.046226 -0.024599
    34 0.021022 -1.208186 0.000001 -0.329910 0.000000 0.000000
    35 0.010597 -0.741867 -0.000001 -0.453786 0.000000 0.000000
    36 1.047445 -2.222820 -0.277657 -1.015986 -0.078971 -0.038609
    37 0.000000 -0.996224 -0.000002 -0.766207 0.000000 0.000000
    38 -0.000001 -0.614690 0.000000 -0.523599 0.000000 0.000000
    39 -0.308253 -0.007813 0.307166 -0.179973 -0.326092 -2.616278
    40 1.978376 0.019542 -0.000001 -0.084829 -0.033819 0.254889
    41 0.982425 0.003186 0.000001 0.000000 0.000000 0.326398
  time 9
    0 6.981531 4.962586 -7.565133 -0.632788 -1.185873 0.437218
    1 -0.001748 -8.563256 -0.000751 0.419286 0.005698 -0.121299
    2 -0.219101 -3.426991 0.819250 -1.247037 1.437605 -1.233844
    3 0.000000 2.338130 0.839328 0.000000 0.000000 0.000000
    4 0.000001 -5.493101 2.360611 0.000000 0.000000 0.000000
    5 0.000001 -3.357312 1.408873 0.000000 0.000000 0.000000
    6 0.000001 -6.122600 1.221523 0.033089 0.000000 0.000000
    7 1.015656 -1.830839 -8.320438 -1.891151 0.561771 -0.255249
    8 -0.003479 -0.404829 0.000000 0.000000 0.000000 0.000000
    9 -0.519310 -2.501155 -0.278957 -1.003564 0.000000 -0.122173
    10 -0.010598 -1.208185 0.000000 -1.148417 0.000000 0.000000
    11 0.000000 -0.763066 0.000000 -0.841249 0.000000 0.000000
    12 0.105980 -2.607135 -0.278957 -0.795871 0.000000 -0.148353
    13 0.000000 -1.250579 0.000000 -1.296776 0.000000 0.000000
    14 0.000000 -0.932634 0.000000 -0.886645 0.000000 0.000000
    15 0.763063 -2.490556 -0.278957 -0.346932 0.039309 0.239193
    16 -0.012323 -1.280918 0.000000 -0.322892 0.000000 0.000000
    17 -0.001696 -0.749371 0.000000 -0.593412 0.000000 0.000000
    18 0.354566 0.016267 0.318133 0.834772 -0.606745 -1.212439
    19 1.887166 0.012878 0.000000 -0.305433 0.000000 -0.401426
    20 1.001874 -0.000270 0.000000 0.000000 0.000000 -0.488692
    21 -1.123360 -2.195093 -0.278957 -0.933751 0.000000 -0.087266
    22 0.010772 -0.963792 0.000000 -0.610865 0.000000 0.000000
    23 -0.010412 -0.631916 0.000000 -1.370074 0.000000 0.000000
    24 -2.425367 -4.494039 -9.963490 -1.012339 0.887942 -0.191424
    25 0.089930 -8.543161 -0.000001 0.089907 -0.387949 0.583674
    26 0.000000 -0.359712 0.000000 0.000000 0.000000 0.000000
    27 -0.170479 -2.636147 -0.277657 -1.323858 0.000000 0.000000
    28 0.010599 -1.261176 0.000002 -0.179777 0.000000 0.000000
    29 -0.000001 -0.943233 -0.000002 -0.532326 0.000000 0.000000
    30 -0.827563 -2.508972 -0.277657 -1.029531 -0.013363 -0.042425
    31 0.000000 -1.292971 0.000001 -0.371797 0.000000 0.000000
    32 0.000000 -0.752465 0.000000 -0.445059 0.000000 0.000000
    33 0.444213 -2.561959 -0.277657 -1.358205 -0.046226 -0.024599
    34 0.021022 -1.208186 0.000001 -0.354312 0.000000 0.000000
    35 0.010597 -0.741867 -0.000001 -0.453786 0.000000 0.000000
    36 1.047445 -2.222820 -0.277657 -1.139020 -0.078971 -0.038609
    37 0.000000 -0.996224 -0.000002 -0.790648 0.000000 0.000000
    38 -0.000001 -0.614690 0.000000 -0.523599 0.000000 0.000000
    39 -0.308253 -0.007813 0.307166 -0.179973 -0.326092 -2.616278
    40 1.978376 0.019542 -0.000001 -0.084829 -0.033819 0.254889
    41 0.982425 0.003186 0.000001 0.000000 0.000000 0.326398
  time 10
    0 7.356543 4.864926 -7.440129 -0.666992 -1.234912 0.467597
    1 -0.001748 -8.563256 -0.000751 0.394686 -0.037560 -0.138416
    2 -0.219101 -3.426991 0.819250 -1.247037 1.437605 -1.233844
    3 0.000000 2.338130 0.839328 0.000000 0.000000 0.000000
    4 0.000001 -5.493101 2.360611 0.000000 0.000000 0.000000
    5 0.000001 -3.357312 1.408873 0.000000 0.000000 0.000000
    6 0.000001 -6.122600 1.221523 0.033089 0.000000 0.000000
    7 1.015656 -1.830839 -8.320438 -1.891151 0.561771 -0.255249
    8 -0.003479 -0.404829 0.000000 0.000000 0.000000 0.000000
    9 -0.519310 -2.501155 -0.278957 -1.003564 0.000000 -0.122173
    10 -0.010598 -1.208185 0.000000 -1.148417 0.000000 0.000000
    11 0.000000 -0.763066 0.000000 -0.841249 0.000000 0.000000
    12 0.105980 -2.607135 -0.278957 -0.795871 0.000000 -0.148353
    13 0.000000 -1.250579 0.000000 -1.296776 0.000000 0.000000
    14 0.000000 -0.932634 0.000000 -0.886645 0.000000 0.000000
    15 0.763063 -2.490556 -0.278957 -0.346932 0.039309 0.239193
    16 -0.012323 -1.280918 0.000000 -0.322892 0.000000 0.000000
    17 -0.001696 -0.749371 0.000000 -0.593412 0.000000 0.000000
    18 0.354566 0.016267 0.318133 0.834772 -0.606745 -1.212439
    19 1.887166 0.012878 0.000000 -0.305433 0.000000 -0.401426
    20 1.001874 -0.000270 0.000000 0.000000 0.000000 -0.488692
    21 -1.123360 -2.195093 -0.278957 -0.933751 0.000000 -0.087266
    22 0.010772 -0.963792 0.000000 -0.610865 0.000000 0.000000
    23 -0.010412 -0.631916 0.000000 -1.370074 0.000000 0.000000
    24 -1.105015 -5.376879 -9.483007 -0.794327 0.767389 -0.012114
    25 0.089930 -8.543161 -0.000001 0.086529 -0.437745 0.566354
    26 0.000000 -0.359712 0.000000 0.000000 0.000000 0.000000
    27 -0.170479 -2.636147 -0.277657 -1.446895 0.000000 0.000000
    28 0.010599 -1.261176 0.000002 -0.204218 0.000000 0.000000
    29 -0.000001 -0.943233 -0.000002 -0.532326 0.000000 0.000000
    30 -0.827563 -2.508972 -0.277657 -1.151873 -0.010642 -0.027768
    31 0.000000 -1.292971 0.000001 -0.396192 0.000000 0.000000
    32 0.000000 -0.752465 0.000000 -0.445059 0.000000 0.000000
    33 0.444213 -2.561959 -0.277657 -1.481239 -0.046226 -0.024599
    34 0.021022 -1.208186 0.000001 -0.378781 0.000000 0.000000
    35 0.010597 -0.741867 -0.000001 -0.453786 0.000000 0.000000
    36 1.047445 -2.222820 -0.277657 -1.262054 -0.078971 -0.038609
    37 0.000000 -0.996224 -0.000002 -0.815073 0.000000 0.000000
    38 -0.000001 -0.614690 0.000000 -0.523599 0.000000 0.000000
    39 -0.308253 -0.007813 0.307166 -0.179973 -0.326092 -2.616278
    40 1.978376 0.019542 -0.000001 -0.084829 -0.033819 0.254889
    41 0.982425 0.003186 0.000001 0.000000 0.000000 0.326398
  time 11
    0 7.731554 4.763361 -7.322938 -0.712016 -1.283499 0.508806
    1 -0.001748 -8.563256 -0.000751 0.369705 -0.081299 -0.155427
    2 -0.219101 -3.426991 0.819250 -1.247037 1.437605 -1.233844
    3 0.000000 2.338130 0.839328 0.000000 0.000000 0.000000
    4 0.000001 -5.493101 2.360611 0.000000 0.000000 0.000000
    5 0.000001 -3.357312 1.408873 0.000000 0.000000 0.000000
    6 0.000001 -6.122600 1.221523 0.033089 0.000000 0.000000
    7 1.015656 -1.830839 -8.320438 -1.891151 0.561771 -0.255249
    8 -0.003479 -0.404829 0.000000 0.000000 0.000000 0.000000
    9 -0.519310 -2.501155 -0.278957 -1.003564 0.000000 -0.122173
    10 -0.010598 -1.208185 0.000000 -1.148417 0.000000 0.000000
    11 0.000000 -0.763066 0.000000 -0.841249 0.000000 0.000000
    12 0.105980 -2.607135 -0.278957 -0.795871 0.000000 -0.148353
    13 0.000000 -1.250579 0.000000 -1.296776 0.000000 0.000000
    14 0.000000 -0.932634 0.000000 -0.886645 0.000000 0.000000
    15 0.763063 -2.490556 -0.278957 -0.346932 0.039309 0.239193
    16 -0.012323 -1.280918 0.000000 -0.322892 0.000000 0.000000
    17 -0.001696 -0.749371 0.000000 -0.593412 0.000000 0.000000
    18 0.354566 0.016267 0.318133 0.834772 -0.606745 -1.212439
    19 1.887166 0.012878 0.000000 -0.305433 0.000000 -0.401426
    20 1.001874 -0.000270 0.000000 0.000000 0.000000 -0.488692
    21 -1.123360 -2.195093 -0.278957 -0.933751 0.000000 -0.087266
    22 0.010772 -0.963792 0.000000 -0.610865 0.000000 0.000000
    23 -0.010412 -0.631916 0.000000 -1.370074 0.000000 0.000000
    24 0.266121 -6.349565 -8.928303 -0.628189 0.625913 0.113101
    25 0.089930 -8.543161 -0.000001 0.084011 -0.487616 0.548801
    26 0.000000 -0.359712 0.000000 0.000000 0.000000 0.000000
    27 -0.170479 -2.636147 -0.277657 -1.569932 0.000000 0.000000
    28 0.010599 -1.261176 0.000002 -0.228658 0.000000 0.000000
    29 -0.000001 -0.943233 -0.000002 -0.532326 0.000000 0.000000
    30 -0.827563 -2.508972 -0.277657 -1.274117 -0.006160 -0.013555
    31 0.000000 -1.292971 0.000001 -0.420638 0.000000 0.000000
    32 0.000000 -0.752465 0.000000 -0.445059 0.000000 0.000000
    33 0.444213 -2.561959 -0.277657 -1.604273 -0.046226 -0.024599
    34 0.021022 -1.208186 0.000001 -0.403205 0.000000 0.000000
    35 0.010597 -0.741867 -0.000001 -0.453786 0.000000 0.000000
    36 1.047445 -2.222820 -0.277657 -1.385089 -0.078971 -0.038609
    37 0.000000 -0.996224 -0.000002 -0.839513 0.000000 0.000000
    38 -0.000001 -0.614690 0.000000 -0.523599 0.000000 0.000000
    39 -0.308253 -0.007813 0.307166 -0.179973 -0.326092 -2.616278
    40 1.978376 0.019542 -0.000001 -0.084829 -0.033819 0.254889
    41 0.982425 0.003186 0.000001 0.000000 0.000000 0.326398
  time 12
    0 8.106566 4.665702 -7.194028 -0.774218 -1.331349 0.567278
    1 -0.001748 -8.563256 -0.000751 0.347509 -0.125210 -0.169542
    2 -0.219101 -3.426991 0.819250 -1.247037 1.437605 -1.233844
    3 0.000000 2.338130 0.839328 0.000000 0.000000 0.000000
    4 0.000001 -5.493101 2.360611 0.000000 0.000000 0.000000
    5 0.000001 -3.357312 1.408873 0.000000 0.000000 0.000000
    6 0.000001 -6.122600 1.221523 0.033089 0.000000 0.000000
    7 1.015656 -1.830839 -8.320438 -1.891151 0.561771 -0.255249
    8 -0.003479 -0.404829 0.000000 0.000000 0.000000 0.000000
    9 -0.519310 -2.501155 -0.278957 -1.003564 0.000000 -0.122173
    10 -0.010598 -1.208185 0.000000 -1.148417 0.000000 0.000000
    11 0.000000 -0.763066 0.000000 -0.841249 0.000000 0.000000
    12 0.105980 -2.607135 -0.278957 -0.795871 0.000000 -0.148353
    13 0.000000 -1.250579 0.000000 -1.296776 0.000000 0.000000
    14 0.000000 -0.932634 0.000000 -0.886645 0.000000 0.000000
    15 0.763063 -2.490556 -0.278957 -0.346932 0.039309 0.239193
    16 -0.012323 -1.280918 0.000000 -0.322892 0.000000 0.000000
    17 -0.001696 -0.749371 0.000000 -0.593412 0.000000 0.000000
    18 0.354566 0.016267 0.318133 0.834772 -0.606745 -1.212439
    19 1.887166 0.012878 0.000000 -0.305433 0.000000 -0.401426
    20 1.001874 -0.000270 0.000000 0.000000 0.000000 -0.488692
    21 -1.123360 -2.195093 -0.278957 -0.933751 0.000000 -0.087266
    22 0.010772 -0.963792 0.000000 -0.610865 0.000000 0.000000
    23 -0.010412 -0.631916 0.000000 -1.370074 0.000000 0.000000
    24 1.688039 -7.423816 -8.307190 -0.497140 0.471883 0.200013
    25 0.089930 -8.543161 -0.000001 0.082474 -0.537511 0.530890
    26 0.000000 -0.359712 0.000000 0.000000 0.000000 0.000000
    27 -0.170479 -2.636147 -0.277657 -1.692969 0.000000 0.000000
    28 0.010599 -1.261176 0.000002 -0.253073 0.000000 0.000000
    29 -0.000001 -0.943233 -0.000002 -0.532326 0.000000 0.000000
    30 -0.827563 -2.508972 -0.277657 -1.396263 0.000000 0.000000
    31 0.000000 -1.292971 0.000001 -0.445059 0.000000 0.000000
    32 0.000000 -0.752465 0.000000 -0.445059 0.000000 0.000000
    33 0.444213 -2.561959 -0.277657 -1.727307 -0.046226 -0.024599
    34 0.021022 -1.208186 0.000001 -0.427606 0.000000 0.000000
    35 0.010597 -0.741867 -0.000001 -0.453786 0.000000 0.000000
    36 1.047445 -2.222820 -0.277657 -1.508123 -0.078971 -0.038609
    37 0.000000 -0.996224 -0.000002 -0.863938 0.000000 0.000000
    38 -0.000001 -0.614690 0.000000 -0.523599 0.000000 0.000000
    39 -0.308253 -0.007813 0.307166 -0.179973 -0.326092 -2.616278
    40 1.978376 0.019542 -0.000001 -0.084829 -0.033819 0.254889
    41 0.982425 0.003186 0.000001 0.000000 0.000000 0.326398
end
