version 1
nodes
  0 "Bone01" -1
  1 "Bone_Lefthand" 0
  2 "Bone_MP7A1_L" 1
  3 "Bone_EyeonSite_Front_L" 2
  4 "Bone_EyeonSite_Back_L" 2
  5 "Bone_Magazine_L" 2
  6 "Bone_Trigger_L" 2
  7 "Bone_Hand_Grib_L" 2
  8 "Bone_SlidingStock_L" 2
  9 "Bone_ChargeHandle_L" 2
  10 "Bone04" -1
  11 "Bone_Righthand" 10
  12 "Bone_MP7A1_R" 11
  13 "Bone_EyeonSite_Front_R" 12
  14 "Bone_EyeonSite_Back_R" 12
  15 "Bone_Magazine_R" 12
  16 "Bone_Trigger_R" 12
  17 "Bone_Hand_Grib_R" 12
  18 "Bone_Hand_GribLock_R" 17
  19 "Bone_SlidingStock_R" 12
  20 "Bone_ChargeHandle_R" 12
  21 "Bone4" 1
  22 "Bone13" 21
  23 "Bone14" 22
  24 "Bone15" 23
  25 "Bone17" 21
  26 "Bone18" 25
  27 "Bone19" 26
  28 "Bone21" 21
  29 "Bone22" 28
  30 "Bone23" 29
  31 "Bone05" 21
  32 "Bone06" 31
  33 "Bone07" 32
  34 "Bone09" 21
  35 "Bone10" 34
  36 "Bone11" 35
  37 "Bone26" 11
  38 "Bone35" 37
  39 "Bone36" 38
  40 "Bone37" 39
  41 "Bone31" 37
  42 "Bone32" 41
  43 "Bone33" 42
  44 "Bone39" 37
  45 "Bone40" 44
  46 "Bone41" 45
  47 "Bone43" 37
  48 "Bone44" 47
  49 "Bone45" 48
  50 "Bone27" 37
  51 "Bone28" 50
  52 "Bone29" 51
end
skeleton
  time 0
    0 14.150201 -3.568177 -10.871397 0.693390 -2.359612 -1.044744
    1 -0.021283 -8.563257 -0.000750 0.082256 0.721408 -0.506163
    2 -0.350898 -2.752587 0.514683 0.536110 1.767884 0.542634
    3 0.019532 -5.661438 4.971831 1.570796 0.000000 0.000000
    4 0.000000 2.240248 4.862545 -1.570796 0.000000 0.000000
    5 0.000000 2.070824 -8.775604 0.214836 0.000000 0.000000
    6 0.000000 -1.489114 1.895751 0.087266 0.000000 0.000000
    7 0.000000 -6.270583 1.350241 1.570796 0.000000 0.000000
    8 0.000000 5.114959 2.564909 0.000000 0.000000 0.000000
    9 0.000000 4.784919 4.090397 -1.570796 -3.141592 -0.000001
    10 -14.743998 -5.981083 -11.924803 0.697648 2.041932 1.107015
    11 0.089929 -8.543166 0.000003 0.194157 -0.388293 0.174606
    12 0.431291 -2.480750 0.566680 1.315037 -1.359682 -1.195261
    13 0.000000 -5.680965 4.733542 1.570796 0.000000 0.000000
    14 0.000001 2.240247 4.862545 -1.570796 0.000000 0.000000
    15 0.000000 -0.030803 -0.185497 0.000000 0.000000 0.000000
    16 0.000000 -1.489114 1.895751 0.087266 0.000000 0.000000
    17 0.000000 -6.270579 1.350240 1.570796 0.000000 0.000000
    18 0.000000 0.355522 -2.249654 -1.570796 -3.141592 1.570796
    19 0.000001 5.114957 2.564910 0.000000 0.000000 0.000000
    20 0.000001 4.784917 4.090397 -1.570796 -3.141592 -0.000001
    21 -0.003480 -0.404827 0.000000 -0.000001 0.000000 0.000000
    22 -0.519309 -2.501154 -0.278957 -0.055823 0.159103 -0.101314
    23 -0.010598 -1.208184 -0.000001 -1.297208 -0.173311 -0.018970
    24 -0.000001 -0.763066 0.000000 -0.764828 -0.064118 0.059360
    25 0.105982 -2.607132 -0.278958 -0.243330 -0.074707 0.002974
    26 0.000000 -1.250579 0.000001 -0.787802 0.000000 0.000000
    27 -0.000001 -0.932635 0.000001 -1.655650 0.000000 0.000000
    28 0.763065 -2.490555 -0.278958 -0.118666 0.173955 0.234657
    29 -0.012322 -1.280917 0.000000 0.163947 -0.078283 -0.101829
    30 -0.001695 -0.738091 0.129482 -1.218877 0.010997 0.011408
    31 0.354567 0.016267 0.318133 0.332140 -0.490594 -1.265606
    32 1.887164 0.012878 0.000000 0.115100 0.249897 -0.404322
    33 1.001873 -0.000270 0.000000 -0.034899 0.000000 -0.092945
    34 -1.123359 -2.195092 -0.278957 -0.208864 0.033771 -0.106283
    35 0.010771 -0.963791 0.000001 -0.580307 0.023406 0.035690
    36 -0.010412 -0.631916 0.000000 -1.043753 0.000000 0.000000
    37 0.000000 -0.359713 0.000000 0.000000 0.000000 0.000000
    38 -0.170478 -2.636148 -0.277655 -0.530743 0.075354 0.129527
    39 0.010599 -1.261177 0.000002 -1.252346 0.000000 0.000000
    40 -0.000002 -0.943233 0.000000 -1.208493 0.000000 0.000000
    41 -0.827562 -2.508972 -0.277656 0.032257 0.011706 -0.024514
    42 0.000001 -1.292972 0.000000 -0.322196 -0.048813 0.033389
    43 -0.000002 -0.752466 -0.000002 -0.876587 -0.009049 0.017023
    44 0.444213 -2.561962 -0.277655 -0.432451 0.143605 0.180950
    45 0.021022 -1.208187 0.000001 -0.966197 0.000000 0.000000
    46 0.010597 -0.741867 -0.000002 -1.240102 0.000000 0.000000
    47 1.047446 -2.222822 -0.277655 -0.287540 0.038255 0.161483
    48 0.000000 -0.996224 -0.000001 -0.664029 0.000000 0.000000
    49 0.000000 -0.614691 0.000000 -1.344689 0.000000 0.000000
    50 -0.308256 -0.007814 0.307165 -0.987918 -0.823553 -1.831620
    51 1.978378 0.019544 0.000000 0.099985 0.407896 0.869471
    52 0.980611 0.058421 -0.012628 0.185445 -0.212474 0.577857
  time 1
    0 14.150201 -3.568177 -10.871397 0.693390 -2.359612 -1.044744
    1 -0.021283 -8.563257 -0.000750 0.082256 0.721408 -0.506163
    2 -0.350898 -2.752587 0.514683 0.536110 1.767884 0.542634
    3 0.019532 -5.661438 4.971831 1.570796 0.000000 0.000000
    4 0.000000 2.240248 4.862545 -1.570796 0.000000 0.000000
    5 0.000000 2.070824 -8.775604 0.214836 0.000000 0.000000
    6 0.000000 -1.489114 1.895751 0.087266 0.000000 0.000000
    7 0.000000 -6.270583 1.350241 1.570796 0.000000 0.000000
    8 0.000000 5.114959 2.564909 0.000000 0.000000 0.000000
    9 0.000000 4.784919 4.090397 -1.570796 -3.141592 -0.000001
    10 -14.743998 -5.981083 -11.924803 0.697648 2.041932 1.107015
    11 0.089929 -8.543166 0.000003 0.194157 -0.388293 0.174606
    12 0.431291 -2.480750 0.566680 1.315037 -1.359682 -1.195261
    13 0.000000 -5.680965 4.733542 1.570796 0.000000 0.000000
    14 0.000001 2.240247 4.862545 -1.570796 0.000000 0.000000
    15 0.000000 -0.030803 -0.185497 0.000000 0.000000 0.000000
    16 0.000000 -1.489114 1.895751 0.087266 0.000000 0.000000
    17 0.000000 -6.270579 1.350240 1.570796 0.000000 0.000000
    18 0.000000 0.355522 -2.249654 -1.570796 -3.141592 1.570796
    19 0.000001 5.114957 2.564910 0.000000 0.000000 0.000000
    20 0.000001 4.784917 4.090397 -1.570796 -3.141592 -0.000001
    21 -0.003480 -0.404827 0.000000 -0.000001 0.000000 0.000000
    22 -0.519309 -2.501154 -0.278957 -0.055823 0.159103 -0.101314
    23 -0.010598 -1.208184 -0.000001 -1.297208 -0.173311 -0.018970
    24 -0.000001 -0.763066 0.000000 -0.764828 -0.064118 0.059360
    25 0.105982 -2.607132 -0.278958 -0.243330 -0.074707 0.002974
    26 0.000000 -1.250579 0.000001 -0.787802 0.000000 0.000000
    27 -0.000001 -0.932635 0.000001 -1.655650 0.000000 0.000000
    28 0.763065 -2.490555 -0.278958 -0.118666 0.173955 0.234657
    29 -0.012322 -1.280917 0.000000 0.163947 -0.078283 -0.101829
    30 -0.001695 -0.738091 0.129482 -1.218877 0.010997 0.011408
    31 0.354567 0.016267 0.318133 0.332140 -0.490594 -1.265606
    32 1.887164 0.012878 0.000000 0.115100 0.249897 -0.404322
    33 1.001873 -0.000270 0.000000 -0.034899 0.000000 -0.092945
    34 -1.123359 -2.195092 -0.278957 -0.208864 0.033771 -0.106283
    35 0.010771 -0.963791 0.000001 -0.580307 0.023406 0.035690
    36 -0.010412 -0.631916 0.000000 -1.043753 0.000000 0.000000
    37 0.000000 -0.359713 0.000000 0.000000 0.000000 0.000000
    38 -0.170478 -2.636148 -0.277655 -0.530743 0.075354 0.129527
    39 0.010599 -1.261177 0.000002 -1.252346 0.000000 0.000000
    40 -0.000002 -0.943233 0.000000 -1.208493 0.000000 0.000000
    41 -0.827562 -2.508972 -0.277656 0.032257 0.011706 -0.024514
    42 0.000001 -1.292972 0.000000 -0.322196 -0.048813 0.033389
    43 -0.000002 -0.752466 -0.000002 -0.876587 -0.009049 0.017023
    44 0.444213 -2.561962 -0.277655 -0.432451 0.143605 0.180950
    45 0.021022 -1.208187 0.000001 -0.966197 0.000000 0.000000
    46 0.010597 -0.741867 -0.000002 -1.240102 0.000000 0.000000
    47 1.047446 -2.222822 -0.277655 -0.287540 0.038255 0.161483
    48 0.000000 -0.996224 -0.000001 -0.664029 0.000000 0.000000
    49 0.000000 -0.614691 0.000000 -1.344689 0.000000 0.000000
    50 -0.308256 -0.007814 0.307165 -0.987918 -0.823553 -1.831620
    51 1.978378 0.019544 0.000000 0.099985 0.407896 0.869471
    52 0.980611 0.058421 -0.012628 0.185445 -0.212474 0.577857
end
