version 1
nodes
  0 "Bone02" -1
  1 "Bone03" 0
  2 "Bone50" 1
  3 "Bone52" 1
  4 "Bone48" 1
  5 "Bone25" 1
  6 "Bone54" 1
  7 "root" -1
  8 "Bone01" 7
  9 "Bone_L_Upper" 8
  10 "Bone_Lefthand" 8
  11 "Bone13" 10
  12 "Bone14" 11
  13 "Bone15" 12
  14 "Bone17" 10
  15 "Bone18" 14
  16 "Bone19" 15
  17 "Bone21" 10
  18 "Bone22" 17
  19 "Bone23" 18
  20 "Bone09" 10
  21 "Bone10" 20
  22 "Bone11" 21
  23 "Bone05" 10
  24 "Bone06" 23
  25 "Bone07" 24
  26 "Bone_Se_Hand-L" 10
  27 "Bone04" 7
  28 "Bone_Righthand" 27
  29 "Bone39" 28
  30 "Bone40" 29
  31 "Bone41" 30
  32 "Bone35" 28
  33 "Bone36" 32
  34 "Bone37" 33
  35 "Bone31" 28
  36 "Bone32" 35
  37 "Bone33" 36
  38 "Bone43" 28
  39 "Bone44" 38
  40 "Bone45" 39
  41 "Bone27" 28
  42 "Bone28" 41
  43 "Bone29" 42
  44 "Bone_Se_Hand-R" 28
  45 "Bone_R_Upper" 27
end
skeleton
  time 0
    0 4.703474 -9.587037 -5.216417 0.000011 -0.000007 -0.000090
    1 0.000000 2.286976 0.873885 0.000000 0.000000 0.000000
    2 0.000000 -0.743733 1.487464 0.000000 0.000000 0.000000
    3 0.000000 -1.227157 2.045263 0.000000 0.000000 0.000000
    4 0.000001 -1.580431 1.264344 0.000000 0.000000 0.000000
    5 0.000000 -2.844775 1.022632 0.000000 0.000000 0.000000
    6 0.024938 -1.409605 0.862229 0.000000 0.000000 0.000000
    7 1.548076 5.823131 -6.425358 0.000000 0.000000 0.216777
    8 5.337326 -5.619936 -2.499058 0.793404 -2.158397 -1.265669
    9 6.562029 5.465609 -0.282623 1.565042 -3.128866 0.787733
    10 -0.044576 -8.467485 -0.092415 0.200195 0.383982 -0.243807
    11 -0.488518 -2.755602 -0.228260 -0.317159 0.118912 -0.274953
    12 0.039887 -1.554011 0.029854 -2.186484 -0.000036 0.046957
    13 0.028786 -1.118701 -0.097330 -0.661479 -0.012416 0.012296
    14 0.250027 -2.820665 -0.238396 -0.279241 0.001645 -0.191604
    15 -0.049759 -1.598510 0.006726 -1.867416 -0.007071 -0.047137
    16 -0.034142 -1.175657 0.045718 -1.221971 0.005992 -0.032239
    17 0.957766 -2.746780 -0.090302 0.020387 -0.095283 -0.001682
    18 -0.033420 -1.397129 -0.015163 -0.231150 0.005513 -0.011051
    19 -0.022360 -0.961342 -0.004654 -0.890998 0.005405 -0.043372
    20 -1.180681 -2.507217 -0.193859 -0.363374 0.387812 -0.251394
    21 -0.024967 -1.127840 0.017597 -1.854825 -0.023885 -0.068491
    22 -0.020057 -0.902687 0.025715 -0.804503 0.007526 -0.032298
    23 0.610855 -1.189464 0.177566 0.581784 -0.757762 -0.601920
    24 1.481238 -0.212417 0.067511 0.047263 -0.212451 -0.757364
    25 1.038269 -0.155634 0.036197 0.051434 -0.205466 -0.844507
    26 0.120153 -0.050270 -0.054489 0.287569 3.110905 1.561085
    27 -1.247361 -6.317230 -6.157721 -1.146573 -5.396041 -0.865896
    28 -0.121813 -8.493389 0.053137 0.234093 -1.180747 0.135050
    29 0.447953 -2.798986 -0.200443 -0.678697 0.009067 0.255279
    30 -0.032909 -1.499736 0.020565 -1.178410 0.022351 -0.020516
    31 -0.027022 -1.100358 -0.028023 -0.639531 0.016203 -0.007754
    32 -0.249534 -2.846964 -0.174213 -0.258956 -0.005614 -0.009379
    33 0.043235 -1.656596 0.076480 -1.170445 -0.019025 0.003656
    34 0.031729 -1.141298 0.054932 -1.115535 -0.012397 0.006167
    35 -0.963866 -2.785145 -0.085350 -0.258141 0.159244 -0.202043
    36 0.028479 -1.406973 -0.021074 -1.031688 -0.028068 -0.035402
    37 0.021413 -0.949968 0.020046 -0.506666 -0.009240 -0.020889
    38 1.164475 -2.543940 -0.170330 -0.918692 -0.005888 0.531366
    39 0.024032 -1.140761 -0.005631 -1.070107 0.013746 0.054771
    40 0.014898 -0.899614 -0.015942 -0.870242 0.004710 0.044031
    41 -0.586770 -1.264477 0.200161 0.075951 -0.554112 -2.665786
    42 1.557992 0.035243 0.016848 -0.015368 -0.006020 0.767033
    43 1.114041 0.044518 -0.005766 -0.024632 -0.034810 0.905845
    44 -0.139399 -0.111698 0.014397 0.285382 -0.030687 1.580508
    45 -7.432717 4.280444 -0.426939 1.575758 -0.029064 -0.612386
end
