// Created by Crowbar 0.62
====== File Size ======
	16,004
====== File Seek Log ======
--- Summary ---
	0 - 16,004
------------------------
--- Each Section or Loop ---
	0 - 243 MDL File Header; MDL File Header
	244 - 355 theMdlFileData.theBones 1
	356 - 387 aHitboxSet.theHitboxes 1
	388 - 399 anAnimation
	400 - 403 anAnimation.theAnimationValues
	404 - 407 anAnimation.theAnimationValues
	408 - 411 anAnimation.theAnimationValues
	412 - 587 aSequence [idle]
	588 - 691 theMdlFileData.theSequenceGroups 1
	692 - 767 aBodyPart [studio]
	768 - 879 aModel [scoutred_w]
	880 - 1,211 aModel.theVertexBoneInfos 332
	1,212 - 1,408 aModel.theNormalBoneInfos 197
	1,409 - 1,411 aModel.theNormalBoneInfos alignment [ 00 00 00 ]
	1,412 - 5,395 aModel.theVertexes 332
	5,396 - 7,759 aModel.theNormals 197
	7,760 - 7,779 aMesh
	7,780 - 15,145 aMesh.theFaces 162
	15,146 - 15,147 aMesh.theFaces alignment [ 00 00 ]
	15,148 - 15,227 aTexture [#256256scout-red-p.bmp]
	15,228 - 15,229 theMdlFileData.theSkinFamilies 1
	15,230 - 15,231 theMdlFileData.theSkinFamilies alignment [ 00 00 ]
	15,232 - 16,003 aTexture.theData
	16,004 - 16,004 END OF FILE + 1 (File size)
========================
