version 1
nodes
  0 "m3_dragon" -1
  1 "lever2" 0
  2 "lever1" 0
  3 "ef" 0
  4 "bul1" -1
  5 "root" -1
  6 "Bone01" 5
  7 "Bone_L_Upper" 6
  8 "Bone_Lefthand" 6
  9 "Bone13" 8
  10 "Bone14" 9
  11 "Bone15" 10
  12 "Bone17" 8
  13 "Bone18" 12
  14 "Bone19" 13
  15 "Bone21" 8
  16 "Bone22" 15
  17 "Bone23" 16
  18 "Bone09" 8
  19 "Bone10" 18
  20 "Bone11" 19
  21 "Bone05" 8
  22 "Bone06" 21
  23 "Bone07" 22
  24 "Bone_Se_Hand-L" 8
  25 "Bone04" 5
  26 "Bone_Righthand" 25
  27 "Bone39" 26
  28 "Bone40" 27
  29 "Bone41" 28
  30 "Bone35" 26
  31 "Bone36" 30
  32 "Bone37" 31
  33 "Bone31" 26
  34 "Bone32" 33
  35 "Bone33" 34
  36 "Bone43" 26
  37 "Bone44" 36
  38 "Bone45" 37
  39 "Bone27" 26
  40 "Bone28" 39
  41 "Bone29" 40
  42 "Bone_Se_Hand-R" 26
  43 "Bone_R_Upper" 25
end
skeleton
  time 0
    0 6.950980 -2.746558 -3.883795 1.556065 -0.016430 -1.654777
    1 10.614088 -0.609828 0.000000 0.000000 0.000000 0.014651
    2 0.398844 -1.007801 0.000000 0.000002 0.000000 -1.503733
    3 14.149458 -3.406929 -5.787358 0.000000 0.000000 0.000000
    4 7.943714 -12.977682 -20.454019 1.521381 3.427642 1.494970
    5 -0.002752 -0.001265 -0.003287 0.000000 0.000000 -0.000046
    6 8.587425 9.607091 -3.377991 5.819076 -2.305733 0.357068
    7 5.546373 -5.175341 -0.423252 -1.557524 -0.033459 -3.785151
    8 0.014019 -8.471392 -0.068977 -0.080149 0.747157 0.296860
    9 -0.488518 -2.755602 -0.228260 -1.572708 -0.177718 0.023991
    10 0.039887 -1.514947 0.010322 -1.082681 -0.013842 0.022436
    11 0.028786 -1.161671 -0.124675 -1.025158 -0.015053 0.021632
    12 0.250027 -2.820665 -0.238396 -1.659225 -0.096485 0.161223
    13 -0.049759 -1.618042 0.080947 -0.884149 0.008641 -0.024211
    14 -0.034142 -1.163937 0.053531 -0.944091 0.008150 -0.024377
    15 0.957766 -2.746780 -0.090302 -0.057777 -0.183765 0.043812
    16 -0.033420 -1.397129 -0.015163 -0.283970 0.006340 -0.013592
    17 -0.022360 -0.957436 0.010971 -0.294045 0.006148 -0.013674
    18 -1.180681 -2.507217 -0.193859 -0.844729 -0.059117 0.074764
    19 -0.024967 -1.127840 0.017597 -1.583613 -0.012788 -0.063086
    20 -0.020057 -0.902687 0.021809 -0.698854 0.007958 -0.027493
    21 0.595229 -1.220715 0.251787 -0.837213 -0.216084 0.257682
    22 1.297639 -0.329608 0.106575 0.206814 -0.315410 -1.473279
    23 0.940610 -0.225949 0.012759 0.144135 -0.084877 -1.398775
    24 0.120153 -0.050270 -0.054489 0.287569 3.110905 1.561085
    25 1.596476 -5.492987 -8.962494 -0.587449 -5.356738 -0.053781
    26 -0.031966 -8.477763 0.053137 0.171389 -0.730433 -0.155124
    27 0.701867 -2.736484 -0.305915 -0.119765 0.191652 0.297526
    28 -0.032909 -1.499736 0.032285 -1.517167 0.023286 -0.030067
    29 -0.027022 -1.127703 -0.020210 -1.257311 0.024425 -0.022998
    30 0.012193 -2.843058 -0.361719 0.212929 0.247369 0.269143
    31 0.043235 -1.656596 0.068667 -1.419948 -0.022105 0.007491
    32 0.031729 -1.137392 0.051025 -1.332522 -0.014890 0.007449
    33 -0.709952 -2.839834 -0.350983 0.195385 0.261090 0.242279
    34 0.028479 -1.403067 -0.005448 -0.497875 -0.008983 -0.021057
    35 0.021413 -0.949968 0.020046 -0.474313 -0.008353 -0.019727
    36 1.387138 -2.430655 -0.182049 -0.387237 -0.142500 0.585812
    37 0.024032 -1.148574 -0.009538 -1.316363 0.024532 0.063423
    38 0.014898 -0.903521 -0.012035 -1.116566 0.012895 0.055165
    39 -0.496924 -1.315260 0.063438 0.189275 -0.614311 -2.585996
    40 1.546273 0.039149 0.016848 -0.009172 -0.003083 0.525539
    41 1.117947 0.048424 -0.005766 -0.009124 -0.031598 0.407806
    42 -0.139399 -0.111698 0.014397 0.285382 -0.030687 1.580508
    43 -7.003016 5.061718 -0.411313 1.577546 -0.026657 -0.720592
  time 1
    0 7.118954 -3.277824 -4.739290 1.342170 -0.016526 -1.779962
    1 10.614088 -0.609828 0.000000 0.000000 0.000000 0.014651
    2 0.398844 -1.007801 0.000000 0.000002 0.000000 -1.503733
    3 14.149458 -3.406929 -5.787358 0.000000 0.000000 0.000000
    4 7.943714 -12.977682 -20.454019 1.507414 3.431847 1.512782
    5 0.055843 -0.044235 -0.112666 -0.004515 0.005908 0.007145
    6 9.013219 8.915664 -4.374115 5.803451 -2.265012 0.360943
    7 6.659689 -3.866707 -0.423252 -1.561934 -0.032500 -3.573560
    8 0.037457 -8.436234 -0.072883 -0.260004 0.904904 0.236672
    9 -0.488518 -2.755602 -0.228260 -1.572708 -0.177718 0.023991
    10 0.039887 -1.514947 0.010322 -1.082681 -0.013842 0.022436
    11 0.028786 -1.161671 -0.124675 -1.025158 -0.015053 0.021632
    12 0.250027 -2.820665 -0.238396 -1.659225 -0.096485 0.161223
    13 -0.049759 -1.618042 0.080947 -0.884149 0.008641 -0.024211
    14 -0.034142 -1.163937 0.053531 -0.944119 0.008150 -0.024377
    15 0.957766 -2.746780 -0.090302 -0.057777 -0.183765 0.043812
    16 -0.033420 -1.397129 -0.015163 -0.283970 0.006340 -0.013592
    17 -0.022360 -0.957436 0.010971 -0.294045 0.006148 -0.013674
    18 -1.180681 -2.507217 -0.193859 -0.844729 -0.059117 0.074764
    19 -0.024967 -1.127840 0.017597 -1.583613 -0.012788 -0.063086
    20 -0.020057 -0.902687 0.021809 -0.698854 0.007958 -0.027493
    21 0.595229 -1.220715 0.251787 -0.837213 -0.216084 0.257682
    22 1.297639 -0.329608 0.106575 0.206814 -0.315410 -1.473279
    23 0.940610 -0.225949 0.012759 0.144135 -0.084877 -1.398775
    24 0.120153 -0.050270 -0.054489 0.287569 3.110905 1.561085
    25 1.225371 -5.153132 -9.579701 -0.626451 -5.392242 -0.228480
    26 0.026629 -8.485576 0.041418 0.245013 -0.474410 -0.003305
    27 0.694054 -2.740390 -0.294196 -0.129466 0.197848 0.292036
    28 -0.032909 -1.499736 0.032285 -1.550963 0.023202 -0.031026
    29 -0.027022 -1.127703 -0.020210 -1.290379 0.024580 -0.023933
    30 0.004380 -2.843058 -0.353906 0.210796 0.251791 0.265656
    31 0.043235 -1.656596 0.068667 -1.458260 -0.022488 0.008138
    32 0.031729 -1.137392 0.051025 -1.369473 -0.015274 0.007725
    33 -0.717765 -2.835928 -0.343170 0.198989 0.258393 0.246578
    34 0.028479 -1.403067 -0.009354 -0.512948 -0.009410 -0.021596
    35 0.021413 -0.949968 0.020046 -0.489389 -0.008761 -0.020266
    36 1.379325 -2.434562 -0.170330 -0.406520 -0.143792 0.595202
    37 0.024032 -1.148574 -0.009538 -1.340952 0.025156 0.064274
    38 0.014898 -0.903521 -0.012035 -1.141097 0.013279 0.056172
    39 -0.500830 -1.315260 0.067344 0.188656 -0.625301 -2.582905
    40 1.546273 0.039149 0.016848 -0.009220 -0.003107 0.527409
    41 1.117947 0.048424 -0.005766 -0.009112 -0.031442 0.406829
    42 -0.139399 -0.111698 0.014397 0.285382 -0.030687 1.580508
    43 -7.827260 3.296039 -0.442564 1.573426 -0.031540 -0.483365
  time 2
    0 7.189268 -3.957532 -5.684632 1.200337 -0.051610 -1.877619
    1 10.614088 -0.609828 0.000000 0.000000 0.000000 0.014651
    2 0.398844 -1.007801 0.000000 0.000002 0.000000 -1.503733
    3 14.149458 -3.406929 -5.787358 0.000000 0.000000 0.000000
    4 7.943714 -12.977682 -20.454019 1.467780 3.443794 1.563623
    5 0.212098 -0.169239 -0.425175 -0.017118 0.022387 0.027133
    6 9.286665 8.083607 -5.174921 5.793717 -2.239854 0.355472
    7 7.421431 -2.479946 -0.415440 -1.565769 -0.030774 -3.379286
    8 0.049176 -8.408890 -0.080696 -0.439348 0.996637 0.153177
    9 -0.488518 -2.755602 -0.228260 -1.572708 -0.177718 0.023991
    10 0.039887 -1.514947 0.010322 -1.082681 -0.013842 0.022436
    11 0.028786 -1.161671 -0.124675 -1.025158 -0.015053 0.021632
    12 0.250027 -2.820665 -0.238396 -1.659225 -0.096485 0.161223
    13 -0.049759 -1.618042 0.080947 -0.884149 0.008641 -0.024211
    14 -0.034142 -1.163937 0.053531 -0.944091 0.008150 -0.024377
    15 0.957766 -2.746780 -0.090302 -0.057777 -0.183765 0.043812
    16 -0.033420 -1.397129 -0.015163 -0.283970 0.006340 -0.013592
    17 -0.022360 -0.957436 0.010971 -0.294045 0.006148 -0.013674
    18 -1.180681 -2.507217 -0.193859 -0.844729 -0.059117 0.074764
    19 -0.024967 -1.127840 0.017597 -1.583613 -0.012788 -0.063086
    20 -0.020057 -0.902687 0.021809 -0.698854 0.007958 -0.027493
    21 0.595229 -1.220715 0.251787 -0.837213 -0.216084 0.257682
    22 1.297639 -0.329608 0.106575 0.206814 -0.315410 -1.473279
    23 0.940610 -0.225949 0.012759 0.144135 -0.084877 -1.398775
    24 0.120153 -0.050270 -0.054489 0.287569 3.110905 1.561085
    25 0.756606 -5.094537 -9.970338 -0.678826 -5.384928 -0.392559
    26 0.057880 -8.481669 0.025792 0.264859 -0.318631 0.068734
    27 0.678429 -2.748203 -0.262945 -0.135876 0.185528 0.285935
    28 -0.032909 -1.499736 0.032285 -1.517167 0.023286 -0.030067
    29 -0.027022 -1.127703 -0.020210 -1.257311 0.024425 -0.022998
    30 -0.011245 -2.846964 -0.322655 0.196805 0.240777 0.256679
    31 0.043235 -1.656596 0.068667 -1.419948 -0.022105 0.007491
    32 0.031729 -1.137392 0.051025 -1.332522 -0.014890 0.007449
    33 -0.733390 -2.835928 -0.319732 0.179404 0.254094 0.229635
    34 0.028479 -1.403067 -0.005448 -0.497875 -0.008983 -0.021057
    35 0.021413 -0.949968 0.020046 -0.474313 -0.008353 -0.019727
    36 1.367606 -2.442374 -0.139079 -0.404308 -0.143834 0.579690
    37 0.024032 -1.148574 -0.009538 -1.316363 0.024532 0.063423
    38 0.014898 -0.903521 -0.012035 -1.116566 0.012895 0.055165
    39 -0.508643 -1.311353 0.075157 0.209885 -0.612346 -2.606433
    40 1.546273 0.039149 0.016848 -0.009172 -0.003083 0.525539
    41 1.117947 0.048424 -0.005766 -0.009124 -0.031598 0.407806
    42 -0.139399 -0.111698 0.014397 0.285382 -0.030687 1.580508
    43 -8.100706 2.241320 -0.458190 1.570744 -0.033837 -0.351026
  time 3
    0 7.283021 -4.746619 -6.626067 1.186498 -0.093404 -1.925202
    1 10.614088 -0.609828 0.000000 0.000000 0.000000 0.014651
    2 0.398844 -1.007801 0.000000 0.000002 0.000000 -1.503733
    3 14.149458 -3.406929 -5.787358 0.000000 0.000000 0.000000
    4 7.943714 -12.977682 -20.454019 -1.735847 5.962101 -1.498283
    5 0.450386 -0.360651 -0.897846 -0.036338 0.047495 0.057541
    6 9.493703 7.208580 -5.710093 5.809855 -2.240836 0.331157
    7 7.858944 -1.159593 -0.399814 -1.568836 -0.028665 -3.208101
    8 0.041364 -8.397171 -0.088509 -0.540176 0.993088 0.110398
    9 -0.488518 -2.755602 -0.228260 -1.572708 -0.177718 0.023991
    10 0.039887 -1.514947 0.010322 -1.082681 -0.013842 0.022436
    11 0.028786 -1.161671 -0.124675 -1.025158 -0.015053 0.021632
    12 0.250027 -2.820665 -0.238396 -1.659225 -0.096485 0.161223
    13 -0.049759 -1.618042 0.080947 -0.884149 0.008641 -0.024211
    14 -0.034142 -1.163937 0.053531 -0.944119 0.008150 -0.024377
    15 0.957766 -2.746780 -0.090302 -0.057777 -0.183765 0.043812
    16 -0.033420 -1.397129 -0.015163 -0.283970 0.006340 -0.013592
    17 -0.022360 -0.957436 0.010971 -0.294045 0.006148 -0.013674
    18 -1.180681 -2.507217 -0.193859 -0.844729 -0.059117 0.074764
    19 -0.024967 -1.127840 0.017597 -1.583613 -0.012788 -0.063086
    20 -0.020057 -0.902687 0.021809 -0.698854 0.007958 -0.027493
    21 0.595229 -1.220715 0.251787 -0.837213 -0.216084 0.257682
    22 1.297639 -0.329608 0.106575 0.206814 -0.315410 -1.473279
    23 0.940610 -0.225949 0.012759 0.144135 -0.084877 -1.398775
    24 0.120153 -0.050270 -0.054489 0.287569 3.110905 1.561085
    25 0.084711 -5.192196 -10.419570 -0.616741 -5.260828 -0.402221
    26 0.057880 -8.477763 0.025792 0.146293 -0.347447 -0.080142
    27 0.654991 -2.756016 -0.212162 -0.121902 0.131633 0.288064
    28 -0.032909 -1.499736 0.024472 -1.314122 0.023118 -0.024303
    29 -0.027022 -1.119890 -0.024116 -1.058903 0.022843 -0.017581
    30 -0.034684 -2.846964 -0.279685 0.166151 0.196123 0.245450
    31 0.043235 -1.656596 0.076480 -1.190134 -0.019301 0.003932
    32 0.031729 -1.141298 0.054932 -1.111022 -0.012349 0.006143
    33 -0.756828 -2.835928 -0.284575 0.114947 0.248493 0.169617
    34 0.028479 -1.403067 -0.005448 -0.407492 -0.006631 -0.017713
    35 0.021413 -0.949968 0.020046 -0.383920 -0.006064 -0.016335
    36 1.344168 -2.458000 -0.084390 -0.335063 -0.138609 0.507071
    37 0.024032 -1.144668 -0.005631 -1.169153 0.021249 0.057994
    38 0.014898 -0.899614 -0.015942 -0.969240 0.011134 0.048921
    39 -0.524268 -1.303541 0.086876 0.264302 -0.538508 -2.673925
    40 1.546273 0.039149 0.016848 -0.008909 -0.002904 0.514278
    41 1.117947 0.048424 -0.005766 -0.009207 -0.032485 0.413667
    42 -0.139399 -0.111698 0.014397 0.285382 -0.030687 1.580508
    43 -8.022579 2.600706 -0.454283 1.571702 -0.033071 -0.395556
  time 4
    0 7.450995 -5.676335 -7.516719 1.207973 -0.139991 -1.952219
    1 10.614088 -0.609828 0.000000 0.000000 0.000000 0.014651
    2 0.398844 -1.007801 0.000000 0.000002 0.000000 -1.503733
    3 14.149458 -3.406929 -5.787358 0.000000 0.000000 0.000000
    4 7.943714 -12.977682 -20.454019 -1.817287 5.937635 -1.393916
    5 0.755083 -0.602846 -1.503333 -0.060681 0.079314 0.096115
    6 9.634332 6.228082 -6.085105 5.837775 -2.249827 0.300763
    7 8.062075 0.215449 -0.384189 1.570149 -3.115464 0.104468
    8 0.033551 -8.389358 -0.092415 -0.613544 0.966933 0.087008
    9 -0.488518 -2.755602 -0.228260 -1.572708 -0.177718 0.023991
    10 0.039887 -1.514947 0.010322 -1.082681 -0.013842 0.022436
    11 0.028786 -1.161671 -0.124675 -1.025158 -0.015053 0.021632
    12 0.250027 -2.820665 -0.238396 -1.659225 -0.096485 0.161223
    13 -0.049759 -1.618042 0.080947 -0.884177 0.008641 -0.024211
    14 -0.034142 -1.163937 0.053531 -0.944119 0.008150 -0.024377
    15 0.957766 -2.746780 -0.090302 -0.057777 -0.183765 0.043812
    16 -0.033420 -1.397129 -0.015163 -0.283970 0.006340 -0.013592
    17 -0.022360 -0.957436 0.010971 -0.294045 0.006148 -0.013674
    18 -1.180681 -2.507217 -0.193859 -0.844729 -0.059117 0.074764
    19 -0.024967 -1.127840 0.017597 -1.583613 -0.012788 -0.063086
    20 -0.020057 -0.902687 0.021809 -0.698854 0.007958 -0.027493
    21 0.595229 -1.220715 0.251787 -0.837213 -0.216084 0.257682
    22 1.297639 -0.329608 0.106575 0.206814 -0.315410 -1.473279
    23 0.940610 -0.225949 0.012759 0.144135 -0.084877 -1.398775
    24 0.120153 -0.050270 -0.054489 0.287569 3.110905 1.561085
    25 -0.567653 -5.602365 -10.622701 -0.415044 -5.124564 -0.251728
    26 0.053974 -8.481669 0.025792 0.017291 -0.413577 -0.323062
    27 0.627646 -2.767735 -0.149660 -0.103825 0.059438 0.292222
    28 -0.032909 -1.499736 0.020565 -1.043351 0.021093 -0.016884
    29 -0.027022 -1.108171 -0.028023 -0.794359 0.019127 -0.011050
    30 -0.062028 -2.850870 -0.224996 0.126369 0.136344 0.234484
    31 0.043235 -1.660503 0.084293 -0.883805 -0.014435 0.000348
    32 0.031729 -1.149111 0.058838 -0.815702 -0.008634 0.005316
    33 -0.784173 -2.832021 -0.241605 0.031093 0.235010 0.091064
    34 0.028479 -1.403067 -0.001542 -0.286963 -0.003974 -0.012955
    35 0.021413 -0.953875 0.020046 -0.263408 -0.003500 -0.011529
    36 1.316823 -2.477532 -0.014075 -0.242689 -0.127050 0.412064
    37 0.024032 -1.140761 -0.005631 -0.972764 0.018157 0.050121
    38 0.014898 -0.899614 -0.019848 -0.772853 0.010223 0.040328
    39 -0.539894 -1.295728 0.106408 0.325276 -0.435225 -2.750183
    40 1.546273 0.039149 0.016848 -0.008549 -0.002676 0.499239
    41 1.117947 0.048424 -0.005766 -0.009327 -0.033683 0.421454
    42 -0.139399 -0.111698 0.014397 0.285382 -0.030687 1.580508
    43 -7.553814 4.010905 -0.430845 1.575151 -0.029721 -0.576449
  time 5
    0 7.701003 -6.641208 -8.278461 1.249683 -0.192808 -1.961544
    1 10.614088 -0.609828 0.000000 0.000000 0.000000 0.014651
    2 0.398844 -1.007801 0.000000 0.000002 0.000000 -1.503733
    3 14.149458 -3.406929 -5.787358 0.000000 0.000000 0.000000
    4 7.943714 -12.977682 -20.454019 -1.914770 5.908199 -1.268962
    5 1.106656 -0.884104 -2.194760 -0.088703 0.115939 0.140539
    6 9.681208 5.243677 -6.296049 5.868086 -2.260404 0.271964
    7 8.038637 1.543614 -0.364657 1.568136 -3.118244 0.267296
    8 0.017925 -8.385452 -0.096321 -0.660209 0.928274 0.087131
    9 -0.488518 -2.755602 -0.228260 -1.572708 -0.177718 0.023991
    10 0.039887 -1.514947 0.010322 -1.082681 -0.013842 0.022436
    11 0.028786 -1.161671 -0.124675 -1.025158 -0.015053 0.021632
    12 0.250027 -2.820665 -0.238396 -1.659225 -0.096485 0.161223
    13 -0.049759 -1.618042 0.080947 -0.884177 0.008641 -0.024211
    14 -0.034142 -1.163937 0.053531 -0.944091 0.008150 -0.024377
    15 0.957766 -2.746780 -0.090302 -0.057777 -0.183765 0.043812
    16 -0.033420 -1.397129 -0.015163 -0.283970 0.006340 -0.013592
    17 -0.022360 -0.957436 0.010971 -0.294045 0.006148 -0.013674
    18 -1.180681 -2.507217 -0.193859 -0.844729 -0.059117 0.074764
    19 -0.024967 -1.127840 0.017597 -1.583613 -0.012788 -0.063086
    20 -0.020057 -0.902687 0.021809 -0.698854 0.007958 -0.027493
    21 0.595229 -1.220715 0.251787 -0.837213 -0.216084 0.257682
    22 1.297639 -0.329608 0.106575 0.206814 -0.315410 -1.473279
    23 0.940610 -0.225949 0.012759 0.144135 -0.084877 -1.398775
    24 0.120153 -0.050270 -0.054489 0.287569 3.110905 1.561085
    25 -1.247361 -6.426609 -10.423476 0.022097 -5.027010 0.161483
    26 0.057880 -8.493389 0.025792 -0.087831 -0.474760 -0.601479
    27 0.592489 -2.779454 -0.075439 -0.096567 -0.007460 0.293580
    28 -0.032909 -1.495829 0.012753 -0.806509 0.017749 -0.011036
    29 -0.027022 -1.096452 -0.028023 -0.562935 0.014573 -0.006304
    30 -0.097186 -2.854777 -0.162494 0.084495 0.079992 0.224237
    31 0.043235 -1.668316 0.092106 -0.615789 -0.009473 -0.001449
    32 0.031729 -1.153017 0.058838 -0.557292 -0.005314 0.005520
    33 -0.819330 -2.824209 -0.190822 -0.046745 0.212343 0.019071
    34 0.028479 -1.403067 0.002365 -0.181480 -0.002133 -0.008557
    35 0.021413 -0.957781 0.020046 -0.157939 -0.001750 -0.007095
    36 1.281666 -2.493157 0.067959 -0.170126 -0.115718 0.328367
    37 0.024032 -1.136855 -0.001725 -0.800964 0.016766 0.042846
    38 0.014898 -0.895708 -0.019848 -0.600996 0.010834 0.032790
    39 -0.559425 -1.284009 0.125940 0.378497 -0.338186 -2.812625
    40 1.542367 0.039149 0.016848 -0.008238 -0.002460 0.486108
    41 1.117947 0.048424 -0.005766 -0.009447 -0.034726 0.428293
    42 -0.139399 -0.111698 0.014397 0.285382 -0.030687 1.580508
    43 -6.116270 6.245348 -0.376156 1.579750 -0.022445 -0.900323
  time 6
    0 7.997887 -7.524047 -8.907386 1.297120 -0.254445 -1.958798
    1 10.614088 -0.609828 0.000000 0.000000 0.000000 0.014651
    2 0.398844 -1.007801 0.000000 0.000002 0.000000 -1.503733
    3 14.149458 -3.406929 -5.787358 0.000000 0.000000 0.000000
    4 7.943714 -12.977682 -20.454019 -2.025181 5.874940 -1.127538
    5 1.481668 -1.184895 -2.948690 -0.118922 0.155440 0.188437
    6 9.622613 4.345212 -6.370270 5.890798 -2.267052 0.249776
    7 7.831599 2.715525 -0.345125 1.566698 -3.121025 0.413842
    8 0.006206 -8.385452 -0.100228 -0.685380 0.886531 0.109862
    9 -0.488518 -2.755602 -0.228260 -1.572708 -0.177718 0.023991
    10 0.039887 -1.514947 0.010322 -1.082681 -0.013842 0.022436
    11 0.028786 -1.161671 -0.124675 -1.025158 -0.015053 0.021632
    12 0.250027 -2.820665 -0.238396 -1.659225 -0.096485 0.161223
    13 -0.049759 -1.618042 0.080947 -0.884177 0.008641 -0.024211
    14 -0.034142 -1.163937 0.053531 -0.944119 0.008150 -0.024377
    15 0.957766 -2.746780 -0.090302 -0.057777 -0.183765 0.043812
    16 -0.033420 -1.397129 -0.015163 -0.283970 0.006340 -0.013592
    17 -0.022360 -0.957436 0.010971 -0.294045 0.006148 -0.013674
    18 -1.180681 -2.507217 -0.193859 -0.844729 -0.059117 0.074764
    19 -0.024967 -1.127840 0.017597 -1.583613 -0.012788 -0.063086
    20 -0.020057 -0.902687 0.021809 -0.698854 0.007958 -0.027493
    21 0.595229 -1.220715 0.251787 -0.837183 -0.216084 0.257682
    22 1.297639 -0.329608 0.106575 0.206814 -0.315410 -1.473279
    23 0.940610 -0.225949 0.012759 0.144135 -0.084877 -1.398775
    24 0.120153 -0.050270 -0.054489 0.287569 3.110905 1.561085
    25 -2.087231 -7.555550 -9.513292 0.743158 -5.027010 0.884004
    26 0.061787 -8.516827 0.025792 -0.147434 -0.504914 -0.888681
    27 0.557331 -2.787267 0.010501 -0.113389 -0.045223 0.287616
    28 -0.032909 -1.491923 0.012753 -0.705054 0.015904 -0.008807
    29 -0.027022 -1.092546 -0.028023 -0.463731 0.012308 -0.004614
    30 -0.132343 -2.858683 -0.092179 0.047683 0.045309 0.212108
    31 0.043235 -1.668316 0.092106 -0.500963 -0.007220 -0.001797
    32 0.031729 -1.153017 0.058838 -0.446521 -0.003924 0.005867
    33 -0.850581 -2.816396 -0.136133 -0.095425 0.186282 -0.022220
    34 0.028479 -1.403067 0.002365 -0.136260 -0.001487 -0.006615
    35 0.021413 -0.957781 0.020046 -0.112710 -0.001139 -0.005141
    36 1.246509 -2.504876 0.161711 -0.158825 -0.119098 0.287345
    37 0.024032 -1.132948 0.002182 -0.727305 0.016563 0.039682
    38 0.014898 -0.891802 -0.019848 -0.527309 0.011481 0.029614
    39 -0.578957 -1.276196 0.145472 0.419609 -0.286604 -2.850154
    40 1.542367 0.039149 0.016848 -0.008106 -0.002376 0.480458
    41 1.117947 0.048424 -0.005766 -0.009495 -0.035169 0.431195
    42 -0.139399 -0.111698 0.014397 0.285382 -0.030687 1.580508
    43 -2.729448 8.495417 -0.274590 1.581570 -0.009426 -1.399098
  time 7
    0 8.263520 -8.231100 -9.450372 1.337302 -0.327776 -1.951453
    1 10.614088 -0.609828 0.000000 0.000000 0.000000 0.014651
    2 0.398844 -1.007801 0.000000 0.000002 0.000000 -1.503733
    3 14.149458 -3.406929 -5.787358 0.000000 0.000000 0.000000
    4 7.943714 -12.977682 -20.454019 -2.145124 5.838814 -0.973763
    5 1.868398 -1.493498 -3.718244 -0.149882 0.195900 0.237492
    6 9.462452 3.618627 -6.378083 5.896348 -2.265843 0.237543
    7 7.530809 3.664773 -0.325593 1.565835 -3.123517 0.536006
    8 -0.009419 -8.389358 -0.104134 -0.694513 0.850520 0.153589
    9 -0.488518 -2.755602 -0.228260 -1.572708 -0.177718 0.023991
    10 0.039887 -1.514947 0.010322 -1.082681 -0.013842 0.022436
    11 0.028786 -1.161671 -0.124675 -1.025158 -0.015053 0.021632
    12 0.250027 -2.820665 -0.238396 -1.659225 -0.096485 0.161223
    13 -0.049759 -1.618042 0.080947 -0.884177 0.008641 -0.024211
    14 -0.034142 -1.163937 0.053531 -0.944091 0.008150 -0.024377
    15 0.957766 -2.746780 -0.090302 -0.057777 -0.183765 0.043812
    16 -0.033420 -1.397129 -0.015163 -0.283970 0.006340 -0.013592
    17 -0.022360 -0.957436 0.010971 -0.294045 0.006148 -0.013674
    18 -1.180681 -2.507217 -0.193859 -0.844729 -0.059117 0.074764
    19 -0.024967 -1.127840 0.017597 -1.583613 -0.012788 -0.063086
    20 -0.020057 -0.902687 0.021809 -0.698854 0.007958 -0.027493
    21 0.595229 -1.220715 0.251787 -0.837183 -0.216084 0.257682
    22 1.297639 -0.329608 0.106575 0.206814 -0.315410 -1.473279
    23 0.940610 -0.225949 0.012759 0.144135 -0.084877 -1.398775
    24 0.120153 -0.050270 -0.054489 0.287569 3.110905 1.561085
    25 -2.673186 -7.395388 -9.700798 1.184120 -4.965782 1.331083
    26 0.077412 -8.509014 0.014073 -0.189944 -0.439773 -0.811391
    27 0.518268 -2.795080 0.104254 -0.163212 -0.044061 0.273498
    28 -0.032909 -1.495829 0.012753 -0.762800 0.016982 -0.010053
    29 -0.027022 -1.096452 -0.028023 -0.524121 0.013710 -0.005609
    30 -0.167500 -2.854777 -0.014052 0.014458 0.038346 0.197619
    31 0.043235 -1.668316 0.092106 -0.575079 -0.008682 -0.001605
    32 0.031729 -1.153017 0.058838 -0.525328 -0.004907 0.005604
    33 -0.885739 -2.808583 -0.081444 -0.111344 0.162974 -0.023987
    34 0.028479 -1.403067 0.002365 -0.161001 -0.001828 -0.007682
    35 0.021413 -0.957781 0.020046 -0.137450 -0.001462 -0.006208
    36 1.207445 -2.516595 0.263277 -0.234225 -0.141222 0.309642
    37 0.024032 -1.136855 -0.001725 -0.769574 0.019559 0.041600
    38 0.014898 -0.891802 -0.019848 -0.569604 0.013902 0.032155
    39 -0.594583 -1.264477 0.168910 0.456129 -0.299092 -2.873774
    40 1.542367 0.043056 0.016848 -0.007962 -0.002269 0.474084
    41 1.117947 0.048424 -0.005766 -0.009555 -0.035673 0.434499
    42 -0.139399 -0.111698 0.014397 0.285382 -0.030687 1.580508
    43 -2.725542 8.495417 -0.274590 1.581570 -0.009331 -1.399635
  time 8
    0 8.435400 -8.746741 -9.950387 1.369754 -0.412610 -1.945577
    1 10.614088 -0.609828 0.000000 0.000000 0.000000 0.014651
    2 0.398844 -1.007801 0.000000 0.000002 0.000000 -1.503733
    3 14.149458 -3.406929 -5.787358 0.000000 0.000000 0.000000
    4 7.943714 -12.977682 -20.454019 -2.271577 5.800681 -0.811753
    5 2.247316 -1.798195 -4.476080 -0.180101 0.235401 0.285390
    6 9.231976 3.083454 -6.385895 5.881747 -2.256777 0.234351
    7 7.214393 4.383545 -0.309968 1.565355 -3.125530 0.632411
    8 -0.021138 -8.397171 -0.104134 -0.688914 0.821280 0.217613
    9 -0.488518 -2.755602 -0.228260 -1.572708 -0.177718 0.023991
    10 0.039887 -1.514947 0.010322 -1.082681 -0.013842 0.022436
    11 0.028786 -1.161671 -0.124675 -1.025158 -0.015053 0.021632
    12 0.250027 -2.820665 -0.238396 -1.659225 -0.096485 0.161223
    13 -0.049759 -1.618042 0.080947 -0.884177 0.008641 -0.024211
    14 -0.034142 -1.163937 0.053531 -0.944119 0.008150 -0.024377
    15 0.957766 -2.746780 -0.090302 -0.057777 -0.183765 0.043812
    16 -0.033420 -1.397129 -0.015163 -0.283970 0.006340 -0.013592
    17 -0.022360 -0.957436 0.010971 -0.294045 0.006148 -0.013674
    18 -1.180681 -2.507217 -0.193859 -0.844729 -0.059117 0.074764
    19 -0.024967 -1.127840 0.017597 -1.583613 -0.012788 -0.063086
    20 -0.020057 -0.902687 0.021809 -0.698854 0.007958 -0.027493
    21 0.595229 -1.220715 0.251787 -0.837183 -0.216084 0.257682
    22 1.297639 -0.329608 0.106575 0.206814 -0.315410 -1.473279
    23 0.940610 -0.225949 0.012759 0.144135 -0.084877 -1.398775
    24 0.120153 -0.050270 -0.054489 0.287569 3.110905 1.561085
    25 -3.223984 -7.028190 -9.997682 -1.237669 -4.491242 -1.044760
    26 0.096944 -8.489482 0.002354 -0.211262 -0.317001 -0.623258
    27 0.483110 -2.795080 0.198007 -0.234606 -0.020355 0.252706
    28 -0.032909 -1.495829 0.016659 -0.910826 0.019391 -0.013517
    29 -0.027022 -1.104265 -0.028023 -0.676610 0.016946 -0.008497
    30 -0.198751 -2.854777 0.064076 -0.018407 0.047118 0.182003
    31 0.043235 -1.664409 0.088199 -0.760151 -0.012206 -0.000634
    32 0.031729 -1.149111 0.058838 -0.718398 -0.007376 0.005292
    33 -0.916990 -2.800771 -0.026754 -0.110419 0.142344 -0.000977
    34 0.028479 -1.403067 0.002365 -0.224916 -0.002840 -0.010391
    35 0.021413 -0.953875 0.020046 -0.201375 -0.002409 -0.008941
    36 1.172288 -2.520502 0.368749 -0.368724 -0.164907 0.376768
    37 0.024032 -1.136855 -0.001725 -0.877724 0.025923 0.045950
    38 0.014898 -0.895708 -0.019848 -0.677737 0.018924 0.037847
    39 -0.614115 -1.252758 0.188442 0.493717 -0.350722 -2.896771
    40 1.542367 0.043056 0.016848 -0.007710 -0.002089 0.463167
    41 1.117947 0.048424 -0.005766 -0.009663 -0.036535 0.440188
    42 -0.139399 -0.111698 0.014397 0.285382 -0.030687 1.580508
    43 -3.389625 8.229784 -0.294122 1.581762 -0.011724 -1.312452
  time 9
    0 8.505715 -9.125659 -10.403526 1.402397 -0.502621 -1.943725
    1 10.614088 -0.609828 0.000000 0.000000 0.000000 0.014651
    2 0.398844 -1.007801 0.000000 0.000002 0.000000 -1.503733
    3 14.149458 -3.406929 -5.787358 0.000000 0.000000 0.000000
    4 7.943714 -12.977682 -20.454019 -2.401240 5.761592 -0.645625
    5 2.594983 -2.075547 -5.183133 -0.208123 0.272014 0.329753
    6 8.950717 2.685005 -6.401521 5.853400 -2.244387 0.236555
    7 6.905790 4.938249 -0.298249 1.565164 -3.127160 0.710379
    8 -0.032857 -8.408890 -0.104134 -0.671487 0.795016 0.295828
    9 -0.488518 -2.755602 -0.228260 -1.572708 -0.177718 0.023991
    10 0.039887 -1.514947 0.010322 -1.082681 -0.013842 0.022436
    11 0.028786 -1.161671 -0.124675 -1.025158 -0.015053 0.021632
    12 0.250027 -2.820665 -0.238396 -1.659225 -0.096485 0.161223
    13 -0.049759 -1.618042 0.080947 -0.884177 0.008641 -0.024211
    14 -0.034142 -1.163937 0.053531 -0.944091 0.008150 -0.024377
    15 0.957766 -2.746780 -0.090302 -0.057777 -0.183765 0.043812
    16 -0.033420 -1.397129 -0.015163 -0.283970 0.006340 -0.013592
    17 -0.022360 -0.957436 0.010971 -0.294045 0.006148 -0.013674
    18 -1.180681 -2.507217 -0.193859 -0.844729 -0.059117 0.074764
    19 -0.024967 -1.127840 0.017597 -1.583613 -0.012788 -0.063086
    20 -0.020057 -0.902687 0.021809 -0.698854 0.007958 -0.027493
    21 0.595229 -1.220715 0.251787 -0.837183 -0.216084 0.257682
    22 1.297639 -0.329608 0.106575 0.206814 -0.315410 -1.473279
    23 0.940610 -0.225949 0.012759 0.144135 -0.084877 -1.398775
    24 0.120153 -0.050270 -0.054489 0.287569 3.110905 1.561085
    25 -3.739625 -6.493017 -10.357068 -0.621198 -4.417933 -0.337451
    26 0.108663 -8.466044 -0.013271 -0.184694 -0.152373 -0.403884
    27 0.451859 -2.791173 0.291760 -0.309934 0.009966 0.224445
    28 -0.032909 -1.499736 0.020565 -1.111210 0.021788 -0.018682
    29 -0.027022 -1.112077 -0.028023 -0.878256 0.020494 -0.013015
    30 -0.230002 -2.846964 0.142203 -0.045872 0.062578 0.163966
    31 0.043235 -1.660503 0.080387 -1.000048 -0.016412 0.001523
    32 0.031729 -1.145205 0.058838 -0.960681 -0.010492 0.005592
    33 -0.940428 -2.792958 0.031841 -0.100298 0.123297 0.034470
    34 0.028479 -1.403067 -0.001542 -0.312652 -0.004498 -0.013998
    35 0.021413 -0.953875 0.020046 -0.289078 -0.004003 -0.012584
    36 1.141037 -2.516595 0.474221 -0.521544 -0.178000 0.458400
    37 0.024032 -1.140761 -0.005631 -1.023629 0.031687 0.051007
    38 0.014898 -0.899614 -0.019848 -0.823653 0.023142 0.044163
    39 -0.629740 -1.244945 0.200161 0.526820 -0.417668 -2.913264
    40 1.542367 0.043056 0.016848 -0.007638 -0.002029 0.459922
    41 1.117947 0.048424 -0.005766 -0.009687 -0.036799 0.441883
    42 -0.139399 -0.111698 0.014397 0.285382 -0.030687 1.580508
    43 -4.424813 7.671173 -0.325373 1.581475 -0.015457 -1.169740
  time 10
    0 8.474464 -9.399105 -10.782444 1.435039 -0.592439 -1.949090
    1 10.614088 -0.609828 0.000000 0.000000 0.000000 0.014651
    2 0.398844 -1.007801 0.000000 0.000002 0.000000 -1.503733
    3 14.149458 -3.406929 -5.787358 0.000000 0.000000 0.000000
    4 7.943714 -12.977682 -20.454019 -2.530902 5.722503 -0.479497
    5 2.899680 -2.317742 -5.800339 -0.232466 0.303845 0.368388
    6 8.653833 2.392027 -6.428865 5.816002 -2.231091 0.242710
    7 6.620625 5.379669 -0.286530 1.565068 -3.128598 0.775166
    8 -0.044576 -8.420609 -0.104134 -0.648175 0.773011 0.380603
    9 -0.488518 -2.755602 -0.228260 -1.572708 -0.177718 0.023991
    10 0.039887 -1.514947 0.010322 -1.082681 -0.013842 0.022436
    11 0.028786 -1.161671 -0.124675 -1.025158 -0.015053 0.021632
    12 0.250027 -2.820665 -0.238396 -1.659225 -0.096485 0.161223
    13 -0.049759 -1.618042 0.080947 -0.884177 0.008641 -0.024211
    14 -0.034142 -1.163937 0.053531 -0.944119 0.008150 -0.024377
    15 0.957766 -2.746780 -0.090302 -0.057777 -0.183765 0.043812
    16 -0.033420 -1.397129 -0.015163 -0.283970 0.006340 -0.013592
    17 -0.022360 -0.957436 0.010971 -0.294045 0.006148 -0.013674
    18 -1.180681 -2.507217 -0.193859 -0.844729 -0.059117 0.074764
    19 -0.024967 -1.127840 0.017597 -1.583613 -0.012788 -0.063086
    20 -0.020057 -0.902687 0.021809 -0.698854 0.007958 -0.027493
    21 0.595229 -1.220715 0.251787 -0.837183 -0.216084 0.257682
    22 1.297639 -0.329608 0.106575 0.206814 -0.315410 -1.473279
    23 0.940610 -0.225949 0.012759 0.144135 -0.084877 -1.398775
    24 0.120153 -0.050270 -0.054489 0.287569 3.110905 1.561085
    25 -4.231827 -5.828934 -10.743799 -0.388539 -4.307311 0.020270
    26 0.120382 -8.450418 -0.032803 -0.107549 0.026575 -0.212944
    27 0.428421 -2.783360 0.381606 -0.371424 0.031958 0.192399
    28 -0.032909 -1.499736 0.024472 -1.325964 0.023154 -0.024638
    29 -0.027022 -1.119890 -0.024116 -1.086172 0.023118 -0.018312
    30 -0.249534 -2.846964 0.212518 -0.062853 0.075881 0.143629
    31 0.043235 -1.656596 0.076480 -1.238691 -0.019960 0.004627
    32 0.031729 -1.141298 0.054932 -1.187086 -0.013248 0.006526
    33 -0.959960 -2.785145 0.082624 -0.087403 0.104515 0.070076
    34 0.028479 -1.403067 -0.005448 -0.408746 -0.006655 -0.017761
    35 0.021413 -0.949968 0.020046 -0.385215 -0.006088 -0.016395
    36 1.109786 -2.508783 0.575787 -0.648974 -0.184205 0.522492
    37 0.024032 -1.144668 -0.005631 -1.179217 0.032670 0.056436
    38 0.014898 -0.899614 -0.015942 -0.979297 0.022603 0.049880
    39 -0.645366 -1.233226 0.219693 0.547707 -0.477183 -2.912434
    40 1.542367 0.039149 0.016848 -0.008022 -0.002304 0.476641
    41 1.117947 0.048424 -0.005766 -0.009531 -0.035469 0.433206
    42 -0.139399 -0.111698 0.014397 0.285382 -0.030687 1.580508
    43 -5.510783 6.846929 -0.356624 1.580708 -0.019861 -1.003780
  time 11
    0 8.357273 -9.590517 -11.059796 1.467300 -0.677082 -1.965249
    1 10.614088 -0.609828 0.000000 0.000000 0.000000 0.014651
    2 0.398844 -1.007801 0.000000 0.000002 0.000000 -1.503733
    3 14.149458 -3.406929 -5.787358 0.000000 0.000000 0.000000
    4 7.943714 -12.977682 -20.454019 -2.657262 5.684466 -0.317487
    5 3.141875 -2.509154 -6.296448 -0.251686 0.328953 0.398796
    6 8.349137 2.165458 -6.456210 5.774677 -2.219003 0.251220
    7 6.343273 5.754680 -0.274810 1.565068 -3.129844 0.832113
    8 -0.048483 -8.432328 -0.104134 -0.624230 0.757012 0.465583
    9 -0.488518 -2.755602 -0.228260 -1.572708 -0.177718 0.023991
    10 0.039887 -1.514947 0.010322 -1.082681 -0.013842 0.022436
    11 0.028786 -1.161671 -0.124675 -1.025158 -0.015053 0.021632
    12 0.250027 -2.820665 -0.238396 -1.659225 -0.096485 0.161223
    13 -0.049759 -1.618042 0.080947 -0.884177 0.008641 -0.024211
    14 -0.034142 -1.163937 0.053531 -0.944091 0.008150 -0.024377
    15 0.957766 -2.746780 -0.090302 -0.057777 -0.183765 0.043812
    16 -0.033420 -1.397129 -0.015163 -0.283970 0.006340 -0.013592
    17 -0.022360 -0.957436 0.010971 -0.294045 0.006148 -0.013674
    18 -1.180681 -2.507217 -0.193859 -0.844729 -0.059117 0.074764
    19 -0.024967 -1.127840 0.017597 -1.583613 -0.012788 -0.063086
    20 -0.020057 -0.902687 0.021809 -0.698854 0.007958 -0.027493
    21 0.595229 -1.220715 0.251787 -0.837183 -0.216084 0.257682
    22 1.297639 -0.329608 0.106575 0.206814 -0.315410 -1.473279
    23 0.940610 -0.225949 0.012759 0.144135 -0.084877 -1.398775
    24 0.120153 -0.050270 -0.054489 0.287569 3.110905 1.561085
    25 -4.704498 -5.125788 -11.103185 -0.354472 -4.227180 0.181957
    26 0.132101 -8.446512 -0.052335 -0.002875 0.198771 -0.107219
    27 0.408889 -2.775548 0.467546 -0.400558 0.032617 0.164237
    28 -0.032909 -1.499736 0.032285 -1.517167 0.023286 -0.030067
    29 -0.027022 -1.127703 -0.020210 -1.257311 0.024425 -0.022998
    30 -0.265159 -2.839151 0.282832 -0.063989 0.078542 0.122188
    31 0.043235 -1.656596 0.068667 -1.419948 -0.022105 0.007491
    32 0.031729 -1.137392 0.051025 -1.332522 -0.014890 0.007449
    33 -0.967772 -2.781239 0.129500 -0.077125 0.084734 0.093341
    34 0.028479 -1.403067 -0.005448 -0.497875 -0.008983 -0.021057
    35 0.021413 -0.949968 0.020046 -0.474313 -0.008353 -0.019727
    36 1.086348 -2.497064 0.669539 -0.707447 -0.201401 0.539512
    37 0.024032 -1.148574 -0.009538 -1.316363 0.024532 0.063423
    38 0.014898 -0.903521 -0.012035 -1.116566 0.012895 0.055165
    39 -0.657085 -1.225413 0.235318 0.547237 -0.506929 -2.879633
    40 1.546273 0.039149 0.016848 -0.009172 -0.003083 0.525539
    41 1.117947 0.048424 -0.005766 -0.009124 -0.031598 0.407806
    42 -0.139399 -0.111698 0.014397 0.285382 -0.030687 1.580508
    43 -6.401435 5.909400 -0.387875 1.579175 -0.023786 -0.846761
  time 12
    0 8.154141 -9.707708 -11.196519 1.498797 -0.750700 -1.996226
    1 10.614088 -0.609828 0.000000 0.000000 0.000000 0.014651
    2 0.398844 -1.007801 0.000000 0.000002 0.000000 -1.503733
    3 14.149458 -3.406929 -5.787358 0.000000 0.000000 0.000000
    4 7.943714 -12.977682 -20.454019 -2.777299 5.648244 -0.163711
    5 3.298129 -2.638064 -6.636302 -0.264289 0.345420 0.418784
    6 8.056159 1.966233 -6.467929 5.735059 -2.209937 0.259882
    7 6.062014 6.094535 -0.266998 1.565068 -3.130995 0.886217
    8 -0.052389 -8.444047 -0.104134 -0.604187 0.749477 0.545242
    9 -0.488518 -2.755602 -0.228260 -1.572708 -0.177718 0.023991
    10 0.039887 -1.514947 0.010322 -1.082681 -0.013842 0.022436
    11 0.028786 -1.161671 -0.124675 -1.025158 -0.015053 0.021632
    12 0.250027 -2.820665 -0.238396 -1.659225 -0.096485 0.161223
    13 -0.049759 -1.618042 0.080947 -0.884177 0.008641 -0.024211
    14 -0.034142 -1.163937 0.053531 -0.944091 0.008150 -0.024377
    15 0.957766 -2.746780 -0.090302 -0.057777 -0.183765 0.043812
    16 -0.033420 -1.397129 -0.015163 -0.283970 0.006340 -0.013592
    17 -0.022360 -0.957436 0.010971 -0.294045 0.006148 -0.013674
    18 -1.180681 -2.507217 -0.193859 -0.844729 -0.059117 0.074764
    19 -0.024967 -1.127840 0.017597 -1.583613 -0.012788 -0.063086
    20 -0.020057 -0.902687 0.021809 -0.698854 0.007958 -0.027493
    21 0.595229 -1.220715 0.251787 -0.837183 -0.216084 0.257682
    22 1.297639 -0.329608 0.106575 0.206814 -0.315410 -1.473279
    23 0.940610 -0.225949 0.012759 0.144135 -0.084877 -1.398775
    24 0.120153 -0.050270 -0.054489 0.287569 3.110905 1.561085
    25 -5.091228 -4.301544 -11.482102 -0.434147 -4.207209 0.220417
    26 0.155540 -8.473857 -0.075773 0.120556 0.381968 -0.141540
    27 0.393264 -2.763829 0.541767 -0.369660 0.006742 0.141802
    28 -0.032909 -1.499736 0.036191 -1.717085 0.022315 -0.035676
    29 -0.027022 -1.135516 -0.020210 -1.411315 0.024904 -0.027361
    30 -0.272972 -2.831338 0.341428 -0.030904 0.070380 0.096493
    31 0.043235 -1.656596 0.064761 -1.537608 -0.023208 0.009541
    32 0.031729 -1.137392 0.051025 -1.374336 -0.015333 0.007761
    33 -0.975585 -2.777332 0.172470 -0.060360 0.063387 0.097784
    34 0.028479 -1.403067 -0.009354 -0.596115 -0.006899 -0.026810
    35 0.021413 -0.949968 0.020046 -0.565901 -0.010978 -0.022939
    36 1.066816 -2.481438 0.755479 -0.642530 -0.249312 0.474450
    37 0.024032 -1.152480 -0.009538 -1.460853 -0.000060 0.075935
    38 0.014898 -0.903521 -0.012035 -1.261119 -0.014046 0.062344
    39 -0.660991 -1.217601 0.247037 0.513387 -0.488892 -2.778394
    40 1.554086 0.039149 0.016848 -0.011977 -0.004641 0.638030
    41 1.117947 0.048424 -0.005766 -0.008572 -0.022705 0.352983
    42 -0.139399 -0.111698 0.014397 0.285382 -0.030687 1.580508
    43 -6.960046 5.229692 -0.079272 1.577259 -0.027136 -0.702350
  time 13
    0 7.876789 -9.766303 -11.165268 1.533349 -0.806106 -2.043937
    1 10.614088 -0.609828 0.000000 0.000000 0.000000 0.014651
    2 0.398844 -1.007801 0.000000 0.000002 0.000000 -1.503733
    3 14.149458 -3.406929 -5.787358 0.000000 0.000000 0.000000
    4 7.943714 -12.977682 -20.454019 -2.887616 5.614986 -0.022288
    5 3.352819 -2.681034 -6.780838 -0.268817 0.351340 0.425975
    6 7.782713 1.759195 -6.444491 5.703297 -2.205404 0.266341
    7 5.749505 6.434389 -0.255279 1.565260 -3.132145 0.942991
    8 -0.056296 -8.451860 -0.104134 -0.589517 0.747593 0.616073
    9 -0.488518 -2.755602 -0.228260 -1.572708 -0.177718 0.023991
    10 0.039887 -1.514947 0.010322 -1.082681 -0.013842 0.022436
    11 0.028786 -1.161671 -0.124675 -1.025158 -0.015053 0.021632
    12 0.250027 -2.820665 -0.238396 -1.659225 -0.096485 0.161223
    13 -0.049759 -1.618042 0.080947 -0.884177 0.008641 -0.024211
    14 -0.034142 -1.163937 0.053531 -0.944119 0.008150 -0.024377
    15 0.957766 -2.746780 -0.090302 -0.057777 -0.183765 0.043812
    16 -0.033420 -1.397129 -0.015163 -0.283970 0.006340 -0.013592
    17 -0.022360 -0.957436 0.010971 -0.294045 0.006148 -0.013674
    18 -1.180681 -2.507217 -0.193859 -0.844729 -0.059117 0.074764
    19 -0.024967 -1.127840 0.017597 -1.583613 -0.012788 -0.063086
    20 -0.020057 -0.902687 0.021809 -0.698854 0.007958 -0.027493
    21 0.595229 -1.220715 0.251787 -0.837183 -0.216084 0.257682
    22 1.297639 -0.329608 0.106575 0.206814 -0.315410 -1.473279
    23 0.940610 -0.225949 0.012759 0.144135 -0.084877 -1.398775
    24 0.120153 -0.050270 -0.054489 0.287569 3.110905 1.561085
    25 -5.423270 -3.270262 -11.821957 -0.580365 -4.244521 0.183296
    26 0.175071 -8.528546 -0.114837 0.252375 0.599512 -0.263203
    27 0.389357 -2.752110 0.604269 -0.290263 -0.034485 0.121496
    28 -0.032909 -1.495829 0.044004 -1.941020 0.019930 -0.041573
    29 -0.027022 -1.139422 -0.016304 -1.567199 0.024700 -0.031795
    30 -0.272972 -2.823526 0.392211 0.033452 0.059019 0.067095
    31 0.043235 -1.656596 0.060855 -1.623604 -0.023855 0.011110
    32 0.031729 -1.137392 0.051025 -1.349397 -0.015070 0.007569
    33 -0.971679 -2.777332 0.207628 -0.032503 0.042624 0.091239
    34 0.028479 -1.403067 -0.013261 -0.709622 -0.002742 -0.035031
    35 0.021413 -0.946062 0.016140 -0.668248 -0.014238 -0.026222
    36 1.059003 -2.461906 0.825794 -0.472543 -0.307120 0.338744
    37 0.024032 -1.156387 -0.009538 -1.623513 -0.036409 0.097843
    38 0.014898 -0.907427 -0.008129 -1.423765 -0.054470 0.076246
    39 -0.664897 -1.213694 0.258757 0.456812 -0.435836 -2.622233
    40 1.561899 0.035243 0.016848 -0.016387 -0.006343 0.804495
    41 1.117947 0.048424 -0.005766 -0.008644 -0.009522 0.272530
    42 -0.139399 -0.111698 0.014397 0.285382 -0.030687 1.580508
    43 -7.428810 4.753115 0.635594 1.574576 -0.030391 -0.543186
  time 14
    0 7.829913 -9.785835 -11.137923 1.560646 -0.832275 -2.060670
    1 10.614088 -0.609828 0.000000 0.000000 0.000000 0.014651
    2 0.398844 -1.007801 0.000000 0.000002 0.000000 -1.503733
    3 14.149458 -3.406929 -5.787358 0.000000 0.000000 0.000000
    4 7.943714 -12.977682 -20.454019 -2.985099 5.585645 0.102576
    5 3.352819 -2.681034 -6.815995 -0.268817 0.351340 0.425975
    6 7.669428 1.610753 -6.393708 5.690575 -2.210315 0.277359
    7 5.499497 6.672677 -0.247466 1.565355 -3.133104 0.985378
    8 -0.060202 -8.459673 -0.100228 -0.570557 0.740577 0.667226
    9 -0.488518 -2.755602 -0.228260 -1.572708 -0.177718 0.023991
    10 0.039887 -1.514947 0.010322 -1.082681 -0.013842 0.022436
    11 0.028786 -1.161671 -0.124675 -1.025158 -0.015053 0.021632
    12 0.250027 -2.820665 -0.238396 -1.659225 -0.096485 0.161223
    13 -0.049759 -1.618042 0.080947 -0.884177 0.008641 -0.024211
    14 -0.034142 -1.163937 0.053531 -0.944091 0.008150 -0.024377
    15 0.957766 -2.746780 -0.090302 -0.057777 -0.183765 0.043812
    16 -0.033420 -1.397129 -0.015163 -0.283970 0.006340 -0.013592
    17 -0.022360 -0.957436 0.010971 -0.294045 0.006148 -0.013674
    18 -1.180681 -2.507217 -0.193859 -0.844729 -0.059117 0.074764
    19 -0.024967 -1.127840 0.017597 -1.583613 -0.012788 -0.063086
    20 -0.020057 -0.902687 0.021809 -0.698854 0.007958 -0.027493
    21 0.595229 -1.220715 0.251787 -0.837183 -0.216084 0.257682
    22 1.297639 -0.329608 0.106575 0.206814 -0.315410 -1.473279
    23 0.940610 -0.225949 0.012759 0.144135 -0.084877 -1.398775
    24 0.120153 -0.050270 -0.054489 0.287569 3.110905 1.561085
    25 -5.782656 -2.145228 -11.962586 -0.746960 -4.313639 0.097765
    26 0.175071 -8.579329 -0.169526 0.370301 0.838362 -0.380656
    27 0.393264 -2.740390 0.655052 -0.202521 -0.079307 0.103531
    28 -0.032909 -1.495829 0.047910 -2.125037 0.017018 -0.045935
    29 -0.027022 -1.143328 -0.012397 -1.681187 0.024113 -0.034983
    30 -0.269066 -2.819619 0.435181 0.101934 0.047154 0.040190
    31 0.043235 -1.656596 0.060855 -1.679137 -0.024202 0.012153
    32 0.031729 -1.141298 0.054932 -1.281896 -0.014339 0.007102
    33 -0.963866 -2.777332 0.238879 -0.005554 0.025464 0.082210
    34 0.028479 -1.403067 -0.017167 -0.807974 -0.005131 -0.039274
    35 0.021413 -0.946062 0.016140 -0.764353 -0.017593 -0.028979
    36 1.055097 -2.442374 0.884390 -0.272887 -0.342222 0.182822
    37 0.024032 -1.160293 -0.009538 -1.753913 -0.072159 0.125683
    38 0.014898 -0.907427 -0.004223 -1.554079 -0.095505 0.096021
    39 -0.660991 -1.213694 0.266569 0.395027 -0.373445 -2.467457
    40 1.573618 0.035243 0.016848 -0.021145 -0.007302 0.975732
    41 1.117947 0.048424 -0.005766 -0.009879 0.004044 0.184894
    42 -0.139399 -0.111698 0.014397 0.285382 -0.030687 1.580508
    43 -8.026485 3.999186 1.350459 1.570839 -0.033741 -0.354692
  time 15
    0 7.958823 -9.785835 -11.180893 -1.560534 -2.294489 -5.195597
    1 10.614088 -0.609828 0.000000 0.000000 0.000000 0.014651
    2 0.398844 -1.007801 0.000000 0.000002 0.000000 -1.503733
    3 14.149458 -3.406929 -5.787358 0.000000 0.000000 0.000000
    4 7.943714 -12.977682 -20.454019 -3.066539 5.561083 0.206943
    5 3.352819 -2.681034 -6.847246 -0.268817 0.351340 0.425975
    6 7.661616 1.524813 -6.346832 5.686220 -2.219003 0.292328
    7 5.331523 6.828932 -0.243559 1.565451 -3.133679 1.013809
    8 -0.060202 -8.467485 -0.100228 -0.549922 0.729684 0.706952
    9 -0.488518 -2.755602 -0.228260 -1.572708 -0.177718 0.023991
    10 0.039887 -1.514947 0.010322 -1.082681 -0.013842 0.022436
    11 0.028786 -1.161671 -0.124675 -1.025158 -0.015053 0.021632
    12 0.250027 -2.820665 -0.238396 -1.659225 -0.096485 0.161223
    13 -0.049759 -1.618042 0.080947 -0.884177 0.008641 -0.024211
    14 -0.034142 -1.163937 0.053531 -0.944119 0.008150 -0.024377
    15 0.957766 -2.746780 -0.090302 -0.057777 -0.183765 0.043812
    16 -0.033420 -1.397129 -0.015163 -0.283970 0.006340 -0.013592
    17 -0.022360 -0.957436 0.010971 -0.294045 0.006148 -0.013674
    18 -1.180681 -2.507217 -0.193859 -0.844729 -0.059117 0.074764
    19 -0.024967 -1.127840 0.017597 -1.583613 -0.012788 -0.063086
    20 -0.020057 -0.902687 0.021809 -0.698854 0.007958 -0.027493
    21 0.595229 -1.220715 0.251787 -0.837183 -0.216084 0.257682
    22 1.297639 -0.329608 0.106575 0.206814 -0.315410 -1.473279
    23 0.940610 -0.225949 0.012759 0.144135 -0.084877 -1.398775
    24 0.120153 -0.050270 -0.054489 0.287569 3.110905 1.561085
    25 -6.227982 -1.094415 -11.814144 -0.864364 -4.394757 0.025914
    26 0.167259 -8.602767 -0.224215 0.513259 1.066909 -0.368340
    27 0.401077 -2.728671 0.686303 -0.147441 -0.118006 0.090570
    28 -0.032909 -1.491923 0.047910 -2.205337 0.015520 -0.047649
    29 -0.027022 -1.143328 -0.012397 -1.709658 0.023909 -0.035774
    30 -0.253440 -2.815713 0.462525 0.147038 0.035433 0.021326
    31 0.043235 -1.656596 0.060855 -1.705404 -0.024346 0.012645
    32 0.031729 -1.141298 0.054932 -1.196147 -0.013356 0.006574
    33 -0.952147 -2.781239 0.258410 0.007810 0.014621 0.079009
    34 0.028479 -1.403067 -0.017167 -0.860715 -0.021160 -0.031951
    35 0.021413 -0.942156 0.016140 -0.837178 -0.020302 -0.030860
    36 1.062909 -2.426749 0.919547 -0.132522 -0.358325 0.069647
    37 0.024032 -1.160293 -0.009538 -1.800698 -0.098969 0.149425
    38 0.014898 -0.907427 -0.004223 -1.600697 -0.126809 0.113542
    39 -0.657085 -1.217601 0.274382 0.328650 -0.332218 -2.361558
    40 1.577524 0.035243 0.016848 -0.024752 -0.007494 1.102576
    41 1.117947 0.048424 -0.005766 -0.011748 0.014123 0.108407
    42 -0.139399 -0.111698 0.014397 0.285382 -0.030687 1.580508
    43 -8.635879 2.385855 1.666875 1.565378 -0.036805 -0.121936
end
