version 1
nodes
  0 "m3_dragon" -1
  1 "lever2" 0
  2 "lever1" 0
  3 "ef" 0
  4 "bul1" -1
  5 "root" -1
  6 "Bone01" 5
  7 "Bone_L_Upper" 6
  8 "Bone_Lefthand" 6
  9 "Bone13" 8
  10 "Bone14" 9
  11 "Bone15" 10
  12 "Bone17" 8
  13 "Bone18" 12
  14 "Bone19" 13
  15 "Bone21" 8
  16 "Bone22" 15
  17 "Bone23" 16
  18 "Bone09" 8
  19 "Bone10" 18
  20 "Bone11" 19
  21 "Bone05" 8
  22 "Bone06" 21
  23 "Bone07" 22
  24 "Bone_Se_Hand-L" 8
  25 "Bone04" 5
  26 "Bone_Righthand" 25
  27 "Bone39" 26
  28 "Bone40" 27
  29 "Bone41" 28
  30 "Bone35" 26
  31 "Bone36" 30
  32 "Bone37" 31
  33 "Bone31" 26
  34 "Bone32" 33
  35 "Bone33" 34
  36 "Bone43" 26
  37 "Bone44" 36
  38 "Bone45" 37
  39 "Bone27" 26
  40 "Bone28" 39
  41 "Bone29" 40
  42 "Bone_Se_Hand-R" 26
  43 "Bone_R_Upper" 25
end
skeleton
  time 0
    0 7.927572 -9.746771 -11.216051 -1.531232 -2.275509 -5.215971
    1 10.614088 -0.609828 0.000000 0.000000 0.000000 0.014651
    2 0.398844 -1.007801 0.000000 0.000002 0.000000 -1.503733
    3 14.149458 -3.406929 -5.787358 0.000000 0.000000 0.000000
    4 7.943714 -12.977682 -20.454019 -3.128728 5.542351 0.286606
    5 3.352819 -2.681034 -6.878497 -0.268817 0.351340 0.425975
    6 7.610833 1.450592 -6.315581 5.676999 -2.223687 0.302282
    7 5.179175 6.961748 -0.239653 1.565547 -3.134254 1.038448
    8 -0.060202 -8.475298 -0.100228 -0.541218 0.721657 0.745771
    9 -0.488518 -2.755602 -0.228260 -1.572708 -0.177718 0.023991
    10 0.039887 -1.514947 0.010322 -1.082681 -0.013842 0.022436
    11 0.028786 -1.161671 -0.124675 -1.025158 -0.015053 0.021632
    12 0.250027 -2.820665 -0.238396 -1.659225 -0.096485 0.161223
    13 -0.049759 -1.618042 0.080947 -0.884177 0.008641 -0.024211
    14 -0.034142 -1.163937 0.053531 -0.944119 0.008150 -0.024377
    15 0.957766 -2.746780 -0.090302 -0.057777 -0.183765 0.043812
    16 -0.033420 -1.397129 -0.015163 -0.283970 0.006340 -0.013592
    17 -0.022360 -0.957436 0.010971 -0.294045 0.006148 -0.013674
    18 -1.180681 -2.507217 -0.193859 -0.844729 -0.059117 0.074764
    19 -0.024967 -1.127840 0.017597 -1.583613 -0.012788 -0.063086
    20 -0.020057 -0.902687 0.021809 -0.698854 0.007958 -0.027493
    21 0.595229 -1.220715 0.251787 -0.837183 -0.216084 0.257682
    22 1.297639 -0.329608 0.106575 0.206814 -0.315410 -1.473279
    23 0.940610 -0.225949 0.012759 0.144135 -0.084877 -1.398775
    24 0.120153 -0.050270 -0.054489 0.287569 3.110905 1.561085
    25 -6.935035 -0.000631 -11.130529 -0.719658 -4.503324 0.179756
    26 0.167259 -8.567610 -0.278904 1.023760 1.260934 0.202034
    27 0.420608 -2.724765 0.701928 -0.157243 -0.155218 0.087744
    28 -0.032909 -1.495829 0.044004 -2.084255 0.017737 -0.045012
    29 -0.027022 -1.139422 -0.016304 -1.568244 0.024688 -0.031819
    30 -0.237815 -2.815713 0.474244 0.145184 0.015826 0.013092
    31 0.043235 -1.656596 0.060855 -1.671834 -0.024166 0.012009
    32 0.031729 -1.141298 0.058838 -1.063056 -0.011762 0.005939
    33 -0.932615 -2.785145 0.266223 -0.009315 0.011227 0.082783
    34 0.028479 -1.403067 -0.017167 -0.827226 -0.065283 -0.002529
    35 0.021413 -0.942156 0.016140 -0.868460 -0.021512 -0.031603
    36 1.074628 -2.415030 0.931266 -0.109248 -0.388387 0.034154
    37 0.024032 -1.156387 -0.009538 -1.681668 -0.117617 0.157982
    38 0.014898 -0.907427 -0.004223 -1.481286 -0.146751 0.117593
    39 -0.649272 -1.217601 0.278288 0.234274 -0.334411 -2.337661
    40 1.581431 0.035243 0.016848 -0.026167 -0.007434 1.152390
    41 1.117947 0.048424 -0.005766 -0.019227 0.023340 0.063612
    42 -0.139399 -0.111698 0.014397 0.285382 -0.030687 1.580508
    43 -8.616347 -1.008780 1.659062 1.555222 -0.038815 0.269001
  time 1
    0 7.911947 -9.754584 -11.259021 -1.523978 -2.275030 -5.216546
    1 10.614088 -0.609828 0.000000 0.000000 0.000000 0.014651
    2 0.398844 -1.007801 0.000000 0.000002 0.000000 -1.503733
    3 14.149458 -3.406929 -5.787358 0.000000 0.000000 0.000000
    4 7.943714 -12.977682 -20.454019 -3.168363 5.530405 0.337357
    5 3.352819 -2.681034 -6.909748 -0.268817 0.351340 0.425975
    6 7.603020 1.442779 -6.315581 5.675548 -2.224367 0.303726
    7 5.159643 6.977374 -0.239653 1.565547 -3.134254 1.041550
    8 -0.060202 -8.475298 -0.100228 -0.538031 0.715296 0.750969
    9 -0.488518 -2.755602 -0.228260 -1.572708 -0.177718 0.023991
    10 0.039887 -1.514947 0.010322 -1.082681 -0.013842 0.022436
    11 0.028786 -1.161671 -0.124675 -1.025158 -0.015053 0.021632
    12 0.250027 -2.820665 -0.238396 -1.659225 -0.096485 0.161223
    13 -0.049759 -1.618042 0.080947 -0.884177 0.008641 -0.024211
    14 -0.034142 -1.163937 0.053531 -0.944119 0.008150 -0.024377
    15 0.957766 -2.746780 -0.090302 -0.057777 -0.183765 0.043812
    16 -0.033420 -1.397129 -0.015163 -0.283970 0.006340 -0.013592
    17 -0.022360 -0.957436 0.010971 -0.294045 0.006148 -0.013674
    18 -1.180681 -2.507217 -0.193859 -0.844729 -0.059117 0.074764
    19 -0.024967 -1.127840 0.017597 -1.583613 -0.012788 -0.063086
    20 -0.020057 -0.902687 0.021809 -0.698854 0.007958 -0.027493
    21 0.595229 -1.220715 0.251787 -0.837183 -0.216084 0.257682
    22 1.297639 -0.329608 0.106575 0.206814 -0.315410 -1.473279
    23 0.940610 -0.225949 0.012759 0.144135 -0.084877 -1.398775
    24 0.120153 -0.050270 -0.054489 0.287569 3.110905 1.561085
    25 -7.388174 0.975961 -9.935180 0.097952 -4.569236 0.964178
    26 0.155540 -8.493389 -0.317968 1.859805 1.209124 1.196169
    27 0.444047 -2.724765 0.686303 -0.203980 -0.191196 0.094056
    28 -0.032909 -1.499736 0.040097 -1.816744 0.021416 -0.038361
    29 -0.027022 -1.131609 -0.020210 -1.300618 0.024628 -0.024221
    30 -0.214377 -2.819619 0.462525 0.116464 -0.007639 0.012829
    31 0.043235 -1.656596 0.064761 -1.585456 -0.023591 0.010403
    32 0.031729 -1.145205 0.058838 -0.883120 -0.009497 0.005412
    33 -0.909177 -2.792958 0.258410 -0.044003 0.016280 0.088930
    34 0.028479 -1.403067 -0.013261 -0.732998 -0.132200 0.037068
    35 0.021413 -0.942156 0.016140 -0.868460 -0.021512 -0.031603
    36 1.101973 -2.411124 0.915641 -0.153776 -0.429254 0.045249
    37 0.024032 -1.152480 -0.009538 -1.441758 -0.131807 0.152601
    38 0.018804 -0.903521 -0.008129 -1.240724 -0.159155 0.108712
    39 -0.637553 -1.225413 0.274382 0.111622 -0.366709 -2.361858
    40 1.581431 0.035243 0.016848 -0.026167 -0.007434 1.152352
    41 1.117947 0.048424 -0.005766 -0.026357 0.028613 0.027753
    42 -0.139399 -0.111698 0.014397 0.285382 -0.030687 1.580508
    43 -6.932702 -4.626078 1.694220 1.543341 -0.036134 0.729684
  time 2
    0 7.900227 -9.762397 -11.301991 -1.518824 -2.275989 -5.215396
    1 10.614088 -0.609828 0.000000 0.000000 0.000000 0.014651
    2 0.398844 -1.007801 0.000000 0.000002 0.000000 -1.503733
    3 14.149458 -3.406929 -5.787358 0.000000 0.000000 0.000000
    4 6.342103 -11.278411 -10.141204 -3.182235 5.526200 0.355259
    5 3.352819 -2.681034 -6.940999 -0.268817 0.351340 0.425975
    6 7.599114 1.438873 -6.311674 5.674011 -2.225047 0.305170
    7 5.144017 6.989093 -0.239653 1.565643 -3.134350 1.043531
    8 -0.064108 -8.475298 -0.100228 -0.535293 0.709289 0.753939
    9 -0.488518 -2.755602 -0.228260 -1.572708 -0.177718 0.023991
    10 0.039887 -1.514947 0.010322 -1.082681 -0.013842 0.022436
    11 0.028786 -1.161671 -0.124675 -1.025158 -0.015053 0.021632
    12 0.250027 -2.820665 -0.238396 -1.659225 -0.096485 0.161223
    13 -0.049759 -1.618042 0.080947 -0.884177 0.008641 -0.024211
    14 -0.034142 -1.163937 0.053531 -0.944091 0.008150 -0.024377
    15 0.957766 -2.746780 -0.090302 -0.057777 -0.183765 0.043812
    16 -0.033420 -1.397129 -0.015163 -0.283970 0.006340 -0.013592
    17 -0.022360 -0.957436 0.010971 -0.294045 0.006148 -0.013674
    18 -1.180681 -2.507217 -0.193859 -0.844729 -0.059117 0.074764
    19 -0.024967 -1.127840 0.017597 -1.583613 -0.012788 -0.063086
    20 -0.020057 -0.902687 0.021809 -0.698854 0.007958 -0.027493
    21 0.595229 -1.220715 0.251787 -0.837183 -0.216084 0.257682
    22 1.297639 -0.329608 0.106575 0.206814 -0.315410 -1.473279
    23 0.940610 -0.225949 0.012759 0.144135 -0.084877 -1.398775
    24 0.120153 -0.050270 -0.054489 0.287569 3.110905 1.561085
    25 -7.173323 1.456444 -9.376569 0.736233 -4.511460 1.534867
    26 0.147727 -8.462138 -0.325781 2.064735 1.109870 1.463403
    27 0.471391 -2.728671 0.643333 -0.240541 -0.212960 0.101564
    28 -0.032909 -1.499736 0.032285 -1.567529 0.023142 -0.031494
    29 -0.027022 -1.119890 -0.024116 -1.055141 0.022807 -0.017486
    30 -0.187032 -2.827432 0.427368 0.096174 -0.019384 0.015681
    31 0.043235 -1.656596 0.064761 -1.504037 -0.022920 0.008941
    32 0.031729 -1.149111 0.058838 -0.724965 -0.007460 0.005292
    33 -0.881832 -2.800771 0.234972 -0.066972 0.029877 0.095905
    34 0.028479 -1.403067 -0.009354 -0.644677 -0.194680 0.066802
    35 0.021413 -0.942156 0.016140 -0.862782 -0.021285 -0.031472
    36 1.133224 -2.415030 0.864858 -0.194794 -0.456490 0.062179
    37 0.024032 -1.144668 -0.005631 -1.219963 -0.140843 0.143540
    38 0.018804 -0.899614 -0.012035 -1.018302 -0.165651 0.097447
    39 -0.625834 -1.233226 0.266569 -0.008553 -0.403802 -2.380888
    40 1.581431 0.035243 0.016848 -0.025903 -0.007446 1.143305
    41 1.117947 0.048424 -0.005766 -0.014996 0.018594 -0.045402
    42 -0.139399 -0.111698 0.014397 0.285382 -0.030687 1.580508
    43 -5.417030 -6.090966 1.741096 1.537880 -0.032593 0.970756
  time 3
    0 7.888508 -9.778022 -11.344961 -1.515102 -2.277714 -5.213352
    1 10.614088 -0.609828 0.000000 0.000000 0.000000 0.014651
    2 0.398844 -1.007801 0.000000 0.000002 0.000000 -1.503733
    3 14.149458 -3.406929 -5.787358 0.000000 0.000000 0.000000
    4 6.314758 -11.403415 -10.828725 -3.383523 5.411705 0.525862
    5 3.352819 -2.681034 -6.968343 -0.268817 0.351340 0.425975
    6 7.599114 1.438873 -6.315581 5.672730 -2.225576 0.306385
    7 5.140111 6.992999 -0.239653 1.565643 -3.134350 1.044651
    8 -0.064108 -8.479205 -0.100228 -0.532943 0.703665 0.755342
    9 -0.488518 -2.755602 -0.228260 -1.572708 -0.177718 0.023991
    10 0.039887 -1.514947 0.010322 -1.082681 -0.013842 0.022436
    11 0.028786 -1.161671 -0.124675 -1.025158 -0.015053 0.021632
    12 0.250027 -2.820665 -0.238396 -1.659225 -0.096485 0.161223
    13 -0.049759 -1.618042 0.080947 -0.884177 0.008641 -0.024211
    14 -0.034142 -1.163937 0.053531 -0.944091 0.008150 -0.024377
    15 0.957766 -2.746780 -0.090302 -0.057777 -0.183765 0.043812
    16 -0.033420 -1.397129 -0.015163 -0.283970 0.006340 -0.013592
    17 -0.022360 -0.957436 0.010971 -0.294045 0.006148 -0.013674
    18 -1.180681 -2.507217 -0.193859 -0.844729 -0.059117 0.074764
    19 -0.024967 -1.127840 0.017597 -1.583613 -0.012788 -0.063086
    20 -0.020057 -0.902687 0.021809 -0.698854 0.007958 -0.027493
    21 0.595229 -1.220715 0.251787 -0.837183 -0.216084 0.257682
    22 1.297639 -0.329608 0.106575 0.206814 -0.315410 -1.473279
    23 0.940610 -0.225949 0.012759 0.144135 -0.084877 -1.398775
    24 0.120153 -0.050270 -0.054489 0.287569 3.110905 1.561085
    25 -6.341267 1.409568 -10.087529 -2.168545 -4.954769 -1.490596
    26 0.147727 -8.497295 -0.333594 2.022097 1.189390 1.311131
    27 0.502642 -2.740390 0.573018 -0.254040 -0.219048 0.104489
    28 -0.032909 -1.499736 0.028378 -1.385440 0.023310 -0.026316
    29 -0.027022 -1.112077 -0.028023 -0.875070 0.020446 -0.012931
    30 -0.159688 -2.835245 0.372679 0.093404 -0.016724 0.017311
    31 0.043235 -1.656596 0.068667 -1.444799 -0.022357 0.007911
    32 0.031729 -1.153017 0.058838 -0.607544 -0.005950 0.005412
    33 -0.862300 -2.812490 0.195909 -0.071203 0.050186 0.101590
    34 0.028479 -1.403067 -0.005448 -0.581042 -0.242399 0.085450
    35 0.021413 -0.942156 0.016140 -0.859726 -0.021165 -0.031400
    36 1.164475 -2.426749 0.790637 -0.209942 -0.465606 0.067601
    37 0.024032 -1.140761 -0.005631 -1.057249 -0.146584 0.135906
    38 0.018804 -0.899614 -0.015942 -0.855186 -0.169282 0.088482
    39 -0.610208 -1.244945 0.254850 -0.116426 -0.433655 -2.382756
    40 1.581431 0.035243 0.016848 -0.025771 -0.007458 1.138457
    41 1.117947 0.048424 -0.005766 0.037089 -0.015730 -0.182344
    42 -0.139399 -0.111698 0.014397 0.285382 -0.030687 1.580508
    43 -5.897514 -5.598763 1.748909 1.539700 -0.034028 0.887418
  time 4
    0 7.876789 -9.789742 -11.384024 -1.511952 -2.279727 -5.211053
    1 10.614088 -0.609828 0.000000 0.000000 0.000000 0.014651
    2 0.398844 -1.007801 0.000000 0.000002 0.000000 -1.503733
    3 14.149458 -3.406929 -5.787358 0.000000 0.000000 0.000000
    4 6.631174 -11.950307 -10.965448 -3.640772 5.298931 0.824462
    5 3.352819 -2.681034 -6.995688 -0.268817 0.351340 0.425975
    6 7.599114 1.442779 -6.315581 5.672047 -2.225878 0.307069
    7 5.136205 6.996906 -0.239653 1.565643 -3.134350 1.044996
    8 -0.064108 -8.479205 -0.100228 -0.530900 0.698423 0.755754
    9 -0.488518 -2.755602 -0.228260 -1.572708 -0.177718 0.023991
    10 0.039887 -1.514947 0.010322 -1.082681 -0.013842 0.022436
    11 0.028786 -1.161671 -0.124675 -1.025158 -0.015053 0.021632
    12 0.250027 -2.820665 -0.238396 -1.659225 -0.096485 0.161223
    13 -0.049759 -1.618042 0.080947 -0.884177 0.008641 -0.024211
    14 -0.034142 -1.163937 0.053531 -0.944119 0.008150 -0.024377
    15 0.957766 -2.746780 -0.090302 -0.057777 -0.183765 0.043812
    16 -0.033420 -1.397129 -0.015163 -0.283970 0.006340 -0.013592
    17 -0.022360 -0.957436 0.010971 -0.294045 0.006148 -0.013674
    18 -1.180681 -2.507217 -0.193859 -0.844729 -0.059117 0.074764
    19 -0.024967 -1.127840 0.017597 -1.583613 -0.012788 -0.063086
    20 -0.020057 -0.902687 0.021809 -0.698854 0.007958 -0.027493
    21 0.595229 -1.220715 0.251787 -0.837183 -0.216084 0.257682
    22 1.297639 -0.329608 0.106575 0.206814 -0.315410 -1.473279
    23 0.940610 -0.225949 0.012759 0.144135 -0.084877 -1.398775
    24 0.120153 -0.050270 -0.054489 0.287569 3.110905 1.561085
    25 -5.036539 0.792361 -11.220376 -1.894018 -4.965782 -1.365934
    26 0.143820 -8.567610 -0.329687 1.600842 1.332944 0.713092
    27 0.522174 -2.752110 0.487078 -0.261569 -0.216855 0.103543
    28 -0.032909 -1.499736 0.024472 -1.212200 0.022591 -0.021438
    29 -0.027022 -1.104265 -0.028023 -0.706543 0.017533 -0.009120
    30 -0.147968 -2.846964 0.298458 0.095517 -0.007364 0.016903
    31 0.043235 -1.656596 0.068667 -1.387631 -0.021757 0.006952
    32 0.031729 -1.153017 0.058838 -0.502966 -0.004619 0.005675
    33 -0.850581 -2.816396 0.145126 -0.068132 0.075210 0.104679
    34 0.028479 -1.403067 -0.001542 -0.518910 -0.286559 0.099256
    35 0.021413 -0.942156 0.016140 -0.852520 -0.020889 -0.031232
    36 1.187913 -2.442374 0.689071 -0.223358 -0.467154 0.072573
    37 0.024032 -1.136855 -0.001725 -0.903891 -0.148753 0.127361
    38 0.018804 -0.895708 -0.019848 -0.701563 -0.169222 0.079482
    39 -0.602395 -1.252758 0.239225 -0.223915 -0.466481 -2.384233
    40 1.581431 0.035243 0.016848 -0.025447 -0.007470 1.127006
    41 1.121853 0.048424 -0.005766 0.118740 -0.053949 -0.355892
    42 -0.139399 -0.111698 0.014397 0.285382 -0.030687 1.580508
    43 -7.163177 -3.985433 1.745003 1.545449 -0.037092 0.643038
  time 5
    0 7.865070 -9.801461 -11.415275 -1.508611 -2.281357 -5.209329
    1 10.614088 -0.609828 0.000000 0.000000 0.000000 0.014651
    2 0.398844 -1.007801 0.000000 0.000002 0.000000 -1.503733
    3 14.149458 -3.406929 -5.787358 0.000000 0.000000 0.000000
    4 7.017904 -12.563607 -10.918571 -3.996636 5.196956 1.262427
    5 3.352819 -2.681034 -7.019126 -0.268817 0.351340 0.425975
    6 7.599114 1.442779 -6.315581 5.672047 -2.225878 0.306917
    7 5.140111 6.992999 -0.239653 1.565643 -3.134350 1.044737
    8 -0.064108 -8.479205 -0.100228 -0.529102 0.693591 0.755837
    9 -0.488518 -2.755602 -0.228260 -1.572708 -0.177718 0.023991
    10 0.039887 -1.514947 0.010322 -1.082681 -0.013842 0.022436
    11 0.028786 -1.161671 -0.124675 -1.025158 -0.015053 0.021632
    12 0.250027 -2.820665 -0.238396 -1.659225 -0.096485 0.161223
    13 -0.049759 -1.618042 0.080947 -0.884177 0.008641 -0.024211
    14 -0.034142 -1.163937 0.053531 -0.944119 0.008150 -0.024377
    15 0.957766 -2.746780 -0.090302 -0.057777 -0.183765 0.043812
    16 -0.033420 -1.397129 -0.015163 -0.283970 0.006340 -0.013592
    17 -0.022360 -0.957436 0.010971 -0.294045 0.006148 -0.013674
    18 -1.180681 -2.507217 -0.193859 -0.844729 -0.059117 0.074764
    19 -0.024967 -1.127840 0.017597 -1.583613 -0.012788 -0.063086
    20 -0.020057 -0.902687 0.021809 -0.698854 0.007958 -0.027493
    21 0.595229 -1.220715 0.251787 -0.837183 -0.216084 0.257682
    22 1.297639 -0.329608 0.106575 0.206814 -0.315410 -1.473279
    23 0.940610 -0.225949 0.012759 0.144135 -0.084877 -1.398775
    24 0.120153 -0.050270 -0.054489 0.287569 3.110905 1.561085
    25 -3.645872 -0.360017 -12.017275 -1.560511 -4.974164 -1.149905
    26 0.128195 -8.637924 -0.298436 0.742197 1.289284 -0.337506
    27 0.526080 -2.767735 0.381606 -0.262553 -0.209184 0.097007
    28 -0.032909 -1.499736 0.020565 -1.052399 0.021189 -0.017112
    29 -0.027022 -1.096452 -0.028023 -0.552278 0.014346 -0.006112
    30 -0.147968 -2.850870 0.212518 0.102971 0.006682 0.012445
    31 0.043235 -1.656596 0.072574 -1.334551 -0.021158 0.006089
    32 0.031729 -1.156924 0.058838 -0.409487 -0.003469 0.006011
    33 -0.858394 -2.820302 0.082624 -0.058480 0.102856 0.104010
    34 0.028479 -1.399161 -0.001542 -0.460680 -0.327014 0.109084
    35 0.021413 -0.942156 0.016140 -0.844052 -0.020566 -0.031028
    36 1.199632 -2.469719 0.575787 -0.231196 -0.463220 0.071999
    37 0.024032 -1.132948 0.002182 -0.762992 -0.148669 0.119116
    38 0.018804 -0.891802 -0.019848 -0.560581 -0.167041 0.071320
    39 -0.598489 -1.256664 0.219693 -0.331062 -0.499199 -2.383564
    40 1.581431 0.035243 0.016848 -0.025064 -0.007482 1.113531
    41 1.125760 0.052330 -0.005766 0.191786 -0.071926 -0.527658
    42 -0.139399 -0.111698 0.014397 0.285382 -0.030687 1.580508
    43 -8.116331 -1.754896 1.752815 1.553018 -0.038815 0.350372
  time 6
    0 7.853351 -9.805367 -11.434807 -1.504412 -2.282028 -5.208818
    1 10.614088 -0.609828 0.000000 0.000000 0.000000 0.014651
    2 0.398844 -1.007801 0.000000 0.000002 0.000000 -1.503733
    3 14.149458 -3.406929 -5.787358 0.000000 0.000000 0.000000
    4 7.178066 -13.067528 -10.473245 -1.335629 4.289696 -1.322756
    5 3.352819 -2.681034 -7.046471 -0.268817 0.351340 0.425975
    6 7.599114 1.442779 -6.315581 5.673242 -2.225349 0.305550
    7 5.144017 6.989093 -0.239653 1.565643 -3.134350 1.043876
    8 -0.064108 -8.479205 -0.100228 -0.527468 0.689141 0.756125
    9 -0.488518 -2.755602 -0.228260 -1.572708 -0.177718 0.023991
    10 0.039887 -1.514947 0.010322 -1.082681 -0.013842 0.022436
    11 0.028786 -1.161671 -0.124675 -1.025158 -0.015053 0.021632
    12 0.250027 -2.820665 -0.238396 -1.659225 -0.096485 0.161223
    13 -0.049759 -1.618042 0.080947 -0.884177 0.008641 -0.024211
    14 -0.034142 -1.163937 0.053531 -0.944091 0.008150 -0.024377
    15 0.957766 -2.746780 -0.090302 -0.057777 -0.183765 0.043812
    16 -0.033420 -1.397129 -0.015163 -0.283970 0.006340 -0.013592
    17 -0.022360 -0.957436 0.010971 -0.294045 0.006148 -0.013674
    18 -1.180681 -2.507217 -0.193859 -0.844729 -0.059117 0.074764
    19 -0.024967 -1.127840 0.017597 -1.583613 -0.012788 -0.063086
    20 -0.020057 -0.902687 0.021809 -0.698854 0.007958 -0.027493
    21 0.595229 -1.220715 0.251787 -0.837183 -0.216084 0.257682
    22 1.297639 -0.329608 0.106575 0.206814 -0.315410 -1.473279
    23 0.940610 -0.225949 0.012759 0.144135 -0.084877 -1.398775
    24 0.120153 -0.050270 -0.054489 0.287569 3.110905 1.561085
    25 -2.712250 -1.547554 -12.255563 -1.391767 -5.003094 -1.034810
    26 0.108663 -8.684801 -0.259373 0.602248 1.095375 -0.643951
    27 0.510455 -2.783360 0.272228 -0.256550 -0.198710 0.083922
    28 -0.032909 -1.495829 0.016659 -0.910493 0.019379 -0.013505
    29 -0.027022 -1.092546 -0.028023 -0.414887 0.011146 -0.003859
    30 -0.167500 -2.854777 0.122671 0.115986 0.023557 0.002630
    31 0.043235 -1.656596 0.072574 -1.287575 -0.020583 0.005358
    32 0.031729 -1.156924 0.058838 -0.325442 -0.002462 0.006419
    33 -0.881832 -2.812490 0.016216 -0.043126 0.131123 0.099026
    34 0.024573 -1.399161 0.002365 -0.408885 -0.363678 0.115987
    35 0.021413 -0.942156 0.016140 -0.837178 -0.020302 -0.030860
    36 1.191820 -2.497064 0.454689 -0.230042 -0.455822 0.061532
    37 0.024032 -1.132948 0.002182 -0.637706 -0.147974 0.111901
    38 0.018804 -0.891802 -0.019848 -0.435201 -0.164500 0.064369
    39 -0.602395 -1.256664 0.200161 -0.437718 -0.527914 -2.379204
    40 1.577524 0.035243 0.016848 -0.024752 -0.007494 1.102576
    41 1.129666 0.052330 -0.005766 0.211333 -0.064172 -0.654802
    42 -0.139399 -0.111698 0.014397 0.285382 -0.030687 1.580508
    43 -8.358526 0.085004 1.772347 1.559150 -0.038528 0.122266
  time 7
    0 7.841632 -9.805367 -11.442620 -1.498399 -2.281165 -5.210223
    1 10.614088 -0.609828 0.000000 0.000000 0.000000 0.014651
    2 0.398844 -1.007801 0.000000 0.000002 0.000000 -1.503733
    3 14.149458 -3.406929 -5.787358 0.000000 0.000000 0.000000
    4 6.853837 -13.348787 -10.004481 0.370744 4.971694 -2.933014
    5 3.352819 -2.681034 -7.069909 -0.268817 0.351340 0.425975
    6 7.595207 1.438873 -6.311674 5.675718 -2.224367 0.302662
    7 5.151830 6.981280 -0.239653 1.565643 -3.134254 1.042670
    8 -0.064108 -8.483111 -0.100228 -0.525976 0.685073 0.757322
    9 -0.488518 -2.755602 -0.228260 -1.572708 -0.177718 0.023991
    10 0.039887 -1.514947 0.010322 -1.082681 -0.013842 0.022436
    11 0.028786 -1.161671 -0.124675 -1.025158 -0.015053 0.021632
    12 0.250027 -2.820665 -0.238396 -1.659225 -0.096485 0.161223
    13 -0.049759 -1.618042 0.080947 -0.884177 0.008641 -0.024211
    14 -0.034142 -1.163937 0.053531 -0.944119 0.008150 -0.024377
    15 0.957766 -2.746780 -0.090302 -0.057777 -0.183765 0.043812
    16 -0.033420 -1.397129 -0.015163 -0.283970 0.006340 -0.013592
    17 -0.022360 -0.957436 0.010971 -0.294045 0.006148 -0.013674
    18 -1.180681 -2.507217 -0.193859 -0.844729 -0.059117 0.074764
    19 -0.024967 -1.127840 0.017597 -1.583613 -0.012788 -0.063086
    20 -0.020057 -0.902687 0.021809 -0.698854 0.007958 -0.027493
    21 0.595229 -1.220715 0.251787 -0.837183 -0.216084 0.257682
    22 1.297639 -0.329608 0.106575 0.206814 -0.315410 -1.473279
    23 0.940610 -0.225949 0.012759 0.144135 -0.084877 -1.398775
    24 0.120153 -0.050270 -0.054489 0.287569 3.110905 1.561085
    25 -4.368550 -2.317108 -12.083683 0.799034 -4.276081 1.410013
    26 0.124289 -8.673082 -0.161713 1.228049 0.463002 -0.124470
    27 0.479204 -2.798986 0.158943 -0.218699 -0.170726 0.062795
    28 -0.032909 -1.495829 0.016659 -0.910493 0.019379 -0.013505
    29 -0.027022 -1.092546 -0.028023 -0.414887 0.011146 -0.003859
    30 -0.206564 -2.854777 0.028918 0.150964 0.054321 -0.010170
    31 0.043235 -1.656596 0.072574 -1.287575 -0.020583 0.005358
    32 0.031729 -1.156924 0.058838 -0.325442 -0.002462 0.006419
    33 -0.920896 -2.800771 -0.058005 -0.004928 0.158297 0.090363
    34 0.024573 -1.399161 0.002365 -0.408885 -0.363678 0.115987
    35 0.021413 -0.942156 0.016140 -0.837178 -0.020302 -0.030860
    36 1.168381 -2.528315 0.329685 -0.189745 -0.426826 0.030151
    37 0.024032 -1.132948 0.002182 -0.637706 -0.147974 0.111901
    38 0.018804 -0.891802 -0.019848 -0.435201 -0.164500 0.064369
    39 -0.614115 -1.256664 0.172816 -0.491516 -0.525541 -2.366333
    40 1.577524 0.035243 0.016848 -0.024752 -0.007494 1.102576
    41 1.117947 0.048424 -0.005766 -0.133500 0.068725 -0.513148
    42 -0.139399 -0.111698 0.014397 0.285382 -0.030687 1.580508
    43 -8.190552 -0.434543 1.791879 1.557617 -0.038719 0.180030
  time 8
    0 7.802568 -9.715521 -11.235582 -1.467665 -2.263239 -5.235515
    1 10.614088 -0.609828 0.000000 0.000000 0.000000 0.014651
    2 0.398844 -1.007801 0.000000 0.000002 0.000000 -1.503733
    3 14.149458 -3.406929 -5.787358 0.000000 0.000000 0.000000
    4 6.611642 -13.243315 -9.441964 0.113873 4.999601 -2.780312
    5 3.352819 -2.681034 -7.089441 -0.268817 0.351340 0.425975
    6 7.587395 1.399809 -6.272611 5.704322 -2.213337 0.271660
    7 5.245583 6.903153 -0.239653 1.565547 -3.133966 1.027248
    8 -0.064108 -8.483111 -0.100228 -0.525956 0.682889 0.761777
    9 -0.488518 -2.755602 -0.228260 -1.572708 -0.177718 0.023991
    10 0.039887 -1.514947 0.010322 -1.082681 -0.013842 0.022436
    11 0.028786 -1.161671 -0.124675 -1.025158 -0.015053 0.021632
    12 0.250027 -2.820665 -0.238396 -1.659225 -0.096485 0.161223
    13 -0.049759 -1.618042 0.080947 -0.884177 0.008641 -0.024211
    14 -0.034142 -1.163937 0.053531 -0.944119 0.008150 -0.024377
    15 0.957766 -2.746780 -0.090302 -0.057777 -0.183765 0.043812
    16 -0.033420 -1.397129 -0.015163 -0.283970 0.006340 -0.013592
    17 -0.022360 -0.957436 0.010971 -0.294045 0.006148 -0.013674
    18 -1.180681 -2.507217 -0.193859 -0.844729 -0.059117 0.074764
    19 -0.024967 -1.127840 0.017597 -1.583613 -0.012788 -0.063086
    20 -0.020057 -0.902687 0.021809 -0.698854 0.007958 -0.027493
    21 0.595229 -1.220715 0.251787 -0.837183 -0.216084 0.257682
    22 1.297639 -0.329608 0.106575 0.206814 -0.315410 -1.473279
    23 0.940610 -0.225949 0.012759 0.144135 -0.084877 -1.398775
    24 0.120153 -0.050270 -0.054489 0.287569 3.110905 1.561085
    25 -4.513086 -2.379610 -12.005556 0.828564 -4.213784 1.434314
    26 0.136008 -8.665269 -0.169526 1.266846 0.423940 -0.050892
    27 0.436234 -2.806799 0.049565 -0.330012 -0.164770 0.084159
    28 -0.032909 -1.495829 0.016659 -0.891533 0.019103 -0.013037
    29 -0.027022 -1.092546 -0.028023 -0.395923 0.010678 -0.003583
    30 -0.253440 -2.850870 -0.064835 0.048420 0.036356 0.023519
    31 0.043235 -1.656596 0.076480 -1.157381 -0.018833 0.003476
    32 0.031729 -1.156924 0.058838 -0.302082 -0.002186 0.006538
    33 -0.971679 -2.781239 -0.120507 -0.025218 0.245117 0.090411
    34 0.024573 -1.399161 0.002365 -0.401892 -0.363507 0.116275
    35 0.021413 -0.946062 0.016140 -0.830105 -0.020038 -0.030681
    36 1.133224 -2.551753 0.208588 -0.305394 -0.387165 0.022628
    37 0.024032 -1.132948 0.002182 -0.624051 -0.148213 0.111182
    38 0.018804 -0.887895 -0.019848 -0.421526 -0.164548 0.063602
    39 -0.633646 -1.248852 0.149378 -0.549906 -0.551691 -2.340014
    40 1.577524 0.035243 0.016848 -0.024752 -0.007494 1.102576
    41 1.117947 0.048424 -0.005766 -0.144274 0.076491 -0.467290
    42 -0.139399 -0.111698 0.014397 0.285382 -0.030687 1.580508
    43 -7.987421 -0.922840 1.807504 1.556084 -0.038815 0.235648
  time 9
    0 7.829913 -9.727240 -11.251208 -1.487899 -2.266882 -5.231875
    1 10.614088 -0.609828 0.000000 0.000000 0.000000 0.014651
    2 0.398844 -1.007801 0.000000 0.000002 0.000000 -1.503733
    3 14.149458 -3.406929 -5.787358 0.000000 0.000000 0.000000
    4 6.439762 -13.255034 -9.195863 -0.098645 5.013077 -2.718820
    5 3.352819 -2.681034 -7.108973 -0.268817 0.351340 0.425975
    6 7.587395 1.407622 -6.280423 5.703468 -2.213261 0.272040
    7 5.257302 6.895340 -0.243559 1.565547 -3.133966 1.025870
    8 -0.064108 -8.479205 -0.100228 -0.532902 0.697577 0.749731
    9 -0.488518 -2.755602 -0.228260 -1.572708 -0.177718 0.023991
    10 0.039887 -1.514947 0.010322 -1.082681 -0.013842 0.022436
    11 0.028786 -1.161671 -0.124675 -1.025158 -0.015053 0.021632
    12 0.250027 -2.820665 -0.238396 -1.659225 -0.096485 0.161223
    13 -0.049759 -1.618042 0.080947 -0.884177 0.008641 -0.024211
    14 -0.034142 -1.163937 0.053531 -0.944119 0.008150 -0.024377
    15 0.957766 -2.746780 -0.090302 -0.057777 -0.183765 0.043812
    16 -0.033420 -1.397129 -0.015163 -0.283970 0.006340 -0.013592
    17 -0.022360 -0.957436 0.010971 -0.294045 0.006148 -0.013674
    18 -1.180681 -2.507217 -0.193859 -0.844729 -0.059117 0.074764
    19 -0.024967 -1.127840 0.017597 -1.583613 -0.012788 -0.063086
    20 -0.020057 -0.902687 0.021809 -0.698854 0.007958 -0.027493
    21 0.595229 -1.220715 0.251787 -0.837183 -0.216084 0.257682
    22 1.297639 -0.329608 0.106575 0.206814 -0.315410 -1.473279
    23 0.940610 -0.225949 0.012759 0.144135 -0.084877 -1.398775
    24 0.120153 -0.050270 -0.054489 0.287569 3.110905 1.561085
    25 -4.470116 -2.235075 -12.017275 0.888978 -4.210579 1.477176
    26 0.147727 -8.649643 -0.192964 1.303658 0.466553 0.036405
    27 0.377638 -2.814611 -0.048095 -0.464931 -0.160084 0.112694
    28 -0.032909 -1.495829 0.012753 -0.868115 0.018744 -0.012474
    29 -0.027022 -1.088639 -0.028023 -0.372572 0.010091 -0.003260
    30 -0.315942 -2.843058 -0.146868 -0.076366 0.013334 0.066867
    31 0.043235 -1.660503 0.080387 -1.007078 -0.016520 0.001607
    32 0.031729 -1.156924 0.058838 -0.273319 -0.001851 0.006706
    33 -1.030274 -2.757800 -0.186916 -0.054516 0.337105 0.091143
    34 0.024573 -1.399161 0.002365 -0.393311 -0.363300 0.116634
    35 0.021413 -0.946062 0.016140 -0.821404 -0.019703 -0.030465
    36 1.086348 -2.579097 0.103116 -0.444461 -0.346511 0.016650
    37 0.024032 -1.132948 0.006088 -0.607186 -0.148513 0.110271
    38 0.018804 -0.887895 -0.019848 -0.404655 -0.164608 0.062643
    39 -0.657085 -1.241039 0.125940 -0.606053 -0.578789 -2.312311
    40 1.577524 0.035243 0.016848 -0.024752 -0.007494 1.102576
    41 1.117947 0.048424 -0.005766 -0.109483 0.061511 -0.434735
    42 -0.139399 -0.111698 0.014397 0.285382 -0.030687 1.580508
    43 -7.792103 -1.223630 1.823130 1.555222 -0.038815 0.269180
  time 10
    0 7.868976 -9.754584 -11.294178 -1.517679 -2.273880 -5.224210
    1 10.614088 -0.609828 0.000000 0.000000 0.000000 0.014651
    2 0.398844 -1.007801 0.000000 0.000002 0.000000 -1.503733
    3 14.149458 -3.406929 -5.787358 0.000000 0.000000 0.000000
    4 6.252256 -13.301911 -8.938042 -0.263885 5.008680 -2.701813
    5 3.352819 -2.681034 -7.128505 -0.268817 0.351340 0.425975
    6 7.591301 1.423247 -6.292142 5.698259 -2.214772 0.277055
    7 5.253396 6.899247 -0.243559 1.565547 -3.133966 1.026473
    8 -0.060202 -8.471392 -0.100228 -0.542260 0.716579 0.733684
    9 -0.488518 -2.755602 -0.228260 -1.572708 -0.177718 0.023991
    10 0.039887 -1.514947 0.010322 -1.082681 -0.013842 0.022436
    11 0.028786 -1.161671 -0.124675 -1.025158 -0.015053 0.021632
    12 0.250027 -2.820665 -0.238396 -1.659225 -0.096485 0.161223
    13 -0.049759 -1.618042 0.080947 -0.884177 0.008641 -0.024211
    14 -0.034142 -1.163937 0.053531 -0.944091 0.008150 -0.024377
    15 0.957766 -2.746780 -0.090302 -0.057777 -0.183765 0.043812
    16 -0.033420 -1.397129 -0.015163 -0.283970 0.006340 -0.013592
    17 -0.022360 -0.957436 0.010971 -0.294045 0.006148 -0.013674
    18 -1.180681 -2.507217 -0.193859 -0.844729 -0.059117 0.074764
    19 -0.024967 -1.127840 0.017597 -1.583613 -0.012788 -0.063086
    20 -0.020057 -0.902687 0.021809 -0.698854 0.007958 -0.027493
    21 0.595229 -1.220715 0.251787 -0.837183 -0.216084 0.257682
    22 1.297639 -0.329608 0.106575 0.206814 -0.315410 -1.473279
    23 0.940610 -0.225949 0.012759 0.144135 -0.084877 -1.398775
    24 0.120153 -0.050270 -0.054489 0.287569 3.110905 1.561085
    25 -4.349018 -1.977254 -12.052432 0.983697 -4.221838 1.530944
    26 0.155540 -8.634018 -0.220309 1.309036 0.545257 0.115280
    27 0.319043 -2.818518 -0.134035 -0.611992 -0.153180 0.146608
    28 -0.032909 -1.495829 0.012753 -0.848289 0.018432 -0.012007
    29 -0.027022 -1.088639 -0.028023 -0.352721 0.009600 -0.002996
    30 -0.374538 -2.831338 -0.213277 -0.213768 -0.009006 0.118341
    31 0.043235 -1.660503 0.084293 -0.854323 -0.013919 0.000085
    32 0.031729 -1.156924 0.058838 -0.248879 -0.001575 0.006850
    33 -1.088870 -2.730456 -0.241605 -0.092918 0.428017 0.091032
    34 0.024573 -1.399161 0.002365 -0.386039 -0.363117 0.116934
    35 0.021413 -0.946062 0.016140 -0.813999 -0.019427 -0.030285
    36 1.035565 -2.602536 0.013269 -0.594588 -0.305757 0.011480
    37 0.024032 -1.132948 0.006088 -0.592879 -0.148753 0.109504
    38 0.018804 -0.887895 -0.019848 -0.390322 -0.164632 0.061840
    39 -0.680523 -1.229320 0.102502 -0.657672 -0.605418 -2.283063
    40 1.577524 0.035243 0.016848 -0.024752 -0.007494 1.102576
    41 1.117947 0.048424 -0.005766 -0.058524 0.037110 -0.399164
    42 -0.139399 -0.111698 0.014397 0.285382 -0.030687 1.580508
    43 -7.573346 -1.540046 1.838755 1.554264 -0.038815 0.305931
  time 11
    0 7.908040 -9.781929 -11.352773 -1.544213 -2.281357 -5.216035
    1 10.614088 -0.609828 0.000000 0.000000 0.000000 0.014651
    2 0.398844 -1.007801 0.000000 0.000002 0.000000 -1.503733
    3 14.149458 -3.406929 -5.787358 0.000000 0.000000 0.000000
    4 6.076469 -13.559731 -8.488810 -0.600026 4.974657 -2.430155
    5 3.352819 -2.681034 -7.148036 -0.268817 0.351340 0.425975
    6 7.595207 1.438873 -6.303861 5.691856 -2.216812 0.283362
    7 5.241677 6.903153 -0.239653 1.565547 -3.133966 1.027851
    8 -0.060202 -8.467485 -0.100228 -0.550473 0.732113 0.719328
    9 -0.488518 -2.755602 -0.228260 -1.572708 -0.177718 0.023991
    10 0.039887 -1.514947 0.010322 -1.082681 -0.013842 0.022436
    11 0.028786 -1.161671 -0.124675 -1.025158 -0.015053 0.021632
    12 0.250027 -2.820665 -0.238396 -1.659225 -0.096485 0.161223
    13 -0.049759 -1.618042 0.080947 -0.884177 0.008641 -0.024211
    14 -0.034142 -1.163937 0.053531 -0.944119 0.008150 -0.024377
    15 0.957766 -2.746780 -0.090302 -0.057777 -0.183765 0.043812
    16 -0.033420 -1.397129 -0.015163 -0.283970 0.006340 -0.013592
    17 -0.022360 -0.957436 0.010971 -0.294045 0.006148 -0.013674
    18 -1.180681 -2.507217 -0.193859 -0.844729 -0.059117 0.074764
    19 -0.024967 -1.127840 0.017597 -1.583613 -0.012788 -0.063086
    20 -0.020057 -0.902687 0.021809 -0.698854 0.007958 -0.027493
    21 0.595229 -1.220715 0.251787 -0.837183 -0.216084 0.257682
    22 1.297639 -0.329608 0.106575 0.206814 -0.315410 -1.473279
    23 0.940610 -0.225949 0.012759 0.144135 -0.084877 -1.398775
    24 0.120153 -0.050270 -0.054489 0.287569 3.110905 1.561085
    25 -4.251359 -1.653026 -12.068058 1.081680 -4.227509 1.568065
    26 0.159446 -8.622299 -0.232028 1.246615 0.609234 0.149827
    27 0.268260 -2.818518 -0.196537 -0.759562 -0.142143 0.183310
    28 -0.032909 -1.495829 0.012753 -0.839907 0.018300 -0.011815
    29 -0.027022 -1.088639 -0.024116 -0.344310 0.009384 -0.002888
    30 -0.425321 -2.819619 -0.271872 -0.353503 -0.026395 0.174860
    31 0.043235 -1.664409 0.088199 -0.716772 -0.011403 -0.000922
    32 0.031729 -1.156924 0.058838 -0.238529 -0.001455 0.006922
    33 -1.139653 -2.703111 -0.284575 -0.141457 0.511990 0.088006
    34 0.024573 -1.399161 0.002365 -0.382946 -0.363044 0.117065
    35 0.021413 -0.946062 0.016140 -0.810877 -0.019307 -0.030201
    36 0.988688 -2.622067 -0.057045 -0.743993 -0.266565 0.007153
    37 0.024032 -1.132948 0.006088 -0.586840 -0.148849 0.109181
    38 0.018804 -0.887895 -0.019848 -0.384260 -0.164644 0.061493
    39 -0.700055 -1.221507 0.086876 -0.702436 -0.630790 -2.252476
    40 1.577524 0.035243 0.016848 -0.024752 -0.007494 1.102576
    41 1.117947 0.048424 -0.005766 -0.020233 0.017443 -0.342617
    42 -0.139399 -0.111698 0.014397 0.285382 -0.030687 1.580508
    43 -7.307713 -1.938496 1.858287 1.552922 -0.038815 0.355558
  time 12
    0 7.919759 -9.805367 -11.403556 -1.555666 -2.286341 -5.210478
    1 10.614088 -0.609828 0.000000 0.000000 0.000000 0.014651
    2 0.398844 -1.007801 0.000000 0.000002 0.000000 -1.503733
    3 14.149458 -3.406929 -5.787358 0.000000 0.000000 0.000000
    4 5.736615 -13.891772 -7.391120 -0.940980 5.370992 -1.975810
    5 3.352819 -2.681034 -7.167568 -0.268817 0.351340 0.425975
    6 7.599114 1.446686 -6.311674 5.687672 -2.218323 0.287769
    7 5.233864 6.910966 -0.239653 1.565547 -3.133966 1.029144
    8 -0.060202 -8.467485 -0.100228 -0.553211 0.736673 0.713016
    9 -0.488518 -2.755602 -0.228260 -1.572708 -0.177718 0.023991
    10 0.039887 -1.514947 0.010322 -1.082681 -0.013842 0.022436
    11 0.028786 -1.161671 -0.124675 -1.025158 -0.015053 0.021632
    12 0.250027 -2.820665 -0.238396 -1.659225 -0.096485 0.161223
    13 -0.049759 -1.618042 0.080947 -0.884177 0.008641 -0.024211
    14 -0.034142 -1.163937 0.053531 -0.944119 0.008150 -0.024377
    15 0.957766 -2.746780 -0.090302 -0.057777 -0.183765 0.043812
    16 -0.033420 -1.397129 -0.015163 -0.283970 0.006340 -0.013592
    17 -0.022360 -0.957436 0.010971 -0.294045 0.006148 -0.013674
    18 -1.180681 -2.507217 -0.193859 -0.844729 -0.059117 0.074764
    19 -0.024967 -1.127840 0.017597 -1.583613 -0.012788 -0.063086
    20 -0.020057 -0.902687 0.021809 -0.698854 0.007958 -0.027493
    21 0.595229 -1.220715 0.251787 -0.837183 -0.216084 0.257682
    22 1.297639 -0.329608 0.106575 0.206814 -0.315410 -1.473279
    23 0.940610 -0.225949 0.012759 0.144135 -0.084877 -1.398775
    24 0.120153 -0.050270 -0.054489 0.287569 3.110905 1.561085
    25 -3.946662 -0.953786 -12.028994 1.278441 -4.211072 1.506165
    26 0.167259 -8.602767 -0.161713 0.559098 0.543278 -0.142853
    27 0.233103 -2.818518 -0.235600 -0.899568 -0.122740 0.221942
    28 -0.032909 -1.495829 0.016659 -0.910493 0.019379 -0.013505
    29 -0.027022 -1.092546 -0.028023 -0.414887 0.011146 -0.003859
    30 -0.464384 -2.811807 -0.307030 -0.489251 -0.038536 0.236521
    31 0.043235 -1.664409 0.088199 -0.667724 -0.010468 -0.001198
    32 0.031729 -1.156924 0.058838 -0.325442 -0.002462 0.006419
    33 -1.174810 -2.687486 -0.315826 -0.236044 0.582480 0.065362
    34 0.024573 -1.399161 0.002365 -0.408885 -0.363678 0.115987
    35 0.021413 -0.942156 0.016140 -0.837178 -0.020302 -0.030860
    36 0.957437 -2.629880 -0.100015 -0.885176 -0.225129 0.003383
    37 0.024032 -1.132948 0.002182 -0.637706 -0.147974 0.111901
    38 0.018804 -0.891802 -0.019848 -0.435201 -0.164500 0.064369
    39 -0.711774 -1.213694 0.075157 -0.742416 -0.658702 -2.211995
    40 1.577524 0.035243 0.016848 -0.024752 -0.007494 1.102576
    41 1.117947 0.048424 -0.005766 -0.016278 0.016436 -0.141887
    42 -0.139399 -0.111698 0.014397 0.285382 -0.030687 1.580508
    43 -6.795979 -2.774459 1.877819 1.549760 -0.038336 0.472696
  time 13
    0 7.915853 -9.817086 -11.442620 -1.553185 -2.288642 -5.207349
    1 10.614088 -0.609828 0.000000 0.000000 0.000000 0.014651
    2 0.398844 -1.007801 0.000000 0.000002 0.000000 -1.503733
    3 14.149458 -3.406929 -5.787358 0.000000 0.000000 0.000000
    4 5.740522 -13.919117 -7.441903 -0.938054 5.373190 -1.973125
    5 3.352819 -2.681034 -7.183194 -0.268817 0.351340 0.425975
    6 7.603020 1.450592 -6.311674 5.685708 -2.219079 0.290049
    7 5.229957 6.918778 -0.239653 1.565547 -3.134062 1.030091
    8 -0.060202 -8.467485 -0.100228 -0.550759 0.731404 0.714213
    9 -0.488518 -2.755602 -0.228260 -1.572708 -0.177718 0.023991
    10 0.039887 -1.514947 0.010322 -1.082681 -0.013842 0.022436
    11 0.028786 -1.161671 -0.124675 -1.025158 -0.015053 0.021632
    12 0.250027 -2.820665 -0.238396 -1.659225 -0.096485 0.161223
    13 -0.049759 -1.618042 0.080947 -0.884177 0.008641 -0.024211
    14 -0.034142 -1.163937 0.053531 -0.944119 0.008150 -0.024377
    15 0.957766 -2.746780 -0.090302 -0.057777 -0.183765 0.043812
    16 -0.033420 -1.397129 -0.015163 -0.283970 0.006340 -0.013592
    17 -0.022360 -0.957436 0.010971 -0.294045 0.006148 -0.013674
    18 -1.180681 -2.507217 -0.193859 -0.844701 -0.059117 0.074764
    19 -0.024967 -1.127840 0.017597 -1.583613 -0.012788 -0.063086
    20 -0.020057 -0.902687 0.021809 -0.698854 0.007958 -0.027493
    21 0.595229 -1.220715 0.251787 -0.837183 -0.216084 0.257682
    22 1.297639 -0.329608 0.106575 0.206814 -0.315410 -1.473279
    23 0.940610 -0.225949 0.012759 0.144135 -0.084877 -1.398775
    24 0.120153 -0.050270 -0.054489 0.287569 3.110905 1.561085
    25 -4.286516 -1.481145 -12.032900 1.195582 -4.068809 1.416519
    26 0.178978 -8.540265 -0.126556 0.454488 0.418468 0.047634
    27 0.221384 -2.818518 -0.251226 -0.943727 -0.121613 0.232749
    28 -0.032909 -1.495829 0.016659 -0.934311 0.019415 -0.014284
    29 -0.027022 -1.092546 -0.028023 -0.437820 0.011481 -0.004494
    30 -0.476103 -2.807900 -0.318749 -0.530029 -0.043773 0.252437
    31 0.043235 -1.664409 0.088199 -0.719551 -0.011451 -0.000910
    32 0.031729 -1.156924 0.058838 -0.399178 -0.003337 0.006059
    33 -1.186529 -2.679673 -0.323639 -0.310074 0.594473 0.036142
    34 0.024573 -1.399161 0.002365 -0.436970 -0.374903 0.116658
    35 0.021413 -0.942156 0.016140 -0.878423 -0.021896 -0.031831
    36 0.945718 -2.633787 -0.115641 -0.928214 -0.219336 0.000959
    37 0.024032 -1.132948 0.002182 -0.639773 -0.148501 0.111961
    38 0.018804 -0.891802 -0.019848 -0.437269 -0.165028 0.064309
    39 -0.719587 -1.209788 0.071251 -0.775135 -0.667439 -2.196886
    40 1.577524 0.035243 0.016848 -0.024800 -0.007482 1.104256
    41 1.117947 0.048424 -0.005766 -0.015943 0.016460 -0.122521
    42 -0.139399 -0.111698 0.014397 0.285382 -0.030687 1.580508
    43 -6.635818 -2.797897 1.893445 1.549760 -0.038336 0.474663
  time 14
    0 7.904134 -9.828805 -11.481684 -1.546885 -2.290367 -5.204538
    1 10.614088 -0.609828 0.000000 0.000000 0.000000 0.014651
    2 0.398844 -1.007801 0.000000 0.000002 0.000000 -1.503733
    3 14.149458 -3.406929 -5.787358 0.000000 0.000000 0.000000
    4 5.744428 -13.946461 -7.484873 -0.931071 5.374432 -1.971066
    5 3.352819 -2.681034 -7.194913 -0.268817 0.351340 0.425975
    6 7.603020 1.454498 -6.315581 5.684001 -2.219834 0.292100
    7 5.222145 6.922685 -0.239653 1.565547 -3.134062 1.031125
    8 -0.060202 -8.471392 -0.100228 -0.546734 0.723131 0.717678
    9 -0.488518 -2.755602 -0.228260 -1.572708 -0.177718 0.023991
    10 0.039887 -1.514947 0.010322 -1.082681 -0.013842 0.022436
    11 0.028786 -1.161671 -0.124675 -1.025158 -0.015053 0.021632
    12 0.250027 -2.820665 -0.238396 -1.659225 -0.096485 0.161223
    13 -0.049759 -1.618042 0.080947 -0.884177 0.008641 -0.024211
    14 -0.034142 -1.163937 0.053531 -0.944119 0.008150 -0.024377
    15 0.957766 -2.746780 -0.090302 -0.057777 -0.183765 0.043812
    16 -0.033420 -1.397129 -0.015163 -0.283970 0.006340 -0.013592
    17 -0.022360 -0.957436 0.010971 -0.294045 0.006148 -0.013674
    18 -1.180681 -2.507217 -0.193859 -0.844729 -0.059117 0.074764
    19 -0.024967 -1.127840 0.017597 -1.583613 -0.012788 -0.063086
    20 -0.020057 -0.902687 0.021809 -0.698854 0.007958 -0.027493
    21 0.595229 -1.220715 0.251787 -0.837183 -0.216084 0.257682
    22 1.297639 -0.329608 0.106575 0.206814 -0.315410 -1.473279
    23 0.940610 -0.225949 0.012759 0.144135 -0.084877 -1.398775
    24 0.120153 -0.050270 -0.054489 0.287569 3.110905 1.561085
    25 -4.681060 -2.246794 -11.857114 1.118294 -3.890631 1.366291
    26 0.163352 -8.469950 -0.099211 0.402567 0.300935 0.306989
    27 0.221384 -2.818518 -0.247319 -0.985885 -0.124885 0.246419
    28 -0.032909 -1.495829 0.016659 -0.945820 0.019127 -0.014847
    29 -0.027022 -1.092546 -0.028023 -0.448477 0.011421 -0.005057
    30 -0.476103 -2.807900 -0.318749 -0.568157 -0.050664 0.268508
    31 0.043235 -1.664409 0.088199 -0.783803 -0.012637 -0.000467
    32 0.031729 -1.153017 0.058838 -0.470795 -0.004224 0.005771
    33 -1.186529 -2.679673 -0.323639 -0.392879 0.595982 0.005297
    34 0.024573 -1.399161 0.002365 -0.464692 -0.389859 0.118276
    35 0.021413 -0.942156 0.012233 -0.923719 -0.023694 -0.032814
    36 0.945718 -2.633787 -0.115641 -0.968558 -0.221054 0.005017
    37 0.024032 -1.132948 0.002182 -0.629001 -0.149220 0.111266
    38 0.018804 -0.891802 -0.019848 -0.426414 -0.165555 0.063458
    39 -0.715680 -1.209788 0.071251 -0.806273 -0.677350 -2.182931
    40 1.577524 0.035243 0.016848 -0.024836 -0.007482 1.105706
    41 1.117947 0.048424 -0.005766 -0.016099 0.016664 -0.129676
    42 -0.139399 -0.111698 0.014397 0.285382 -0.030687 1.580508
    43 -6.542065 -2.700238 1.905164 1.550240 -0.038432 0.457495
  time 15
    0 7.888508 -9.840524 -11.516841 -1.537627 -2.291517 -5.202047
    1 10.614088 -0.609828 0.000000 0.000000 0.000000 0.014651
    2 0.398844 -1.007801 0.000000 0.000002 0.000000 -1.503733
    3 14.149458 -3.406929 -5.787358 0.000000 0.000000 0.000000
    4 5.744428 -13.969900 -7.527843 -0.921068 5.375101 -1.969634
    5 3.352819 -2.681034 -7.210538 -0.268817 0.351340 0.425975
    6 7.603020 1.454498 -6.315581 5.682549 -2.220514 0.294000
    7 5.214332 6.930498 -0.239653 1.565547 -3.134062 1.032331
    8 -0.060202 -8.471392 -0.100228 -0.541586 0.712593 0.722793
    9 -0.488518 -2.755602 -0.228260 -1.572708 -0.177718 0.023991
    10 0.039887 -1.514947 0.010322 -1.082681 -0.013842 0.022436
    11 0.028786 -1.161671 -0.124675 -1.025158 -0.015053 0.021632
    12 0.250027 -2.820665 -0.238396 -1.659225 -0.096485 0.161223
    13 -0.049759 -1.618042 0.080947 -0.884177 0.008641 -0.024211
    14 -0.034142 -1.163937 0.053531 -0.944119 0.008150 -0.024377
    15 0.957766 -2.746780 -0.090302 -0.057777 -0.183765 0.043812
    16 -0.033420 -1.397129 -0.015163 -0.283970 0.006340 -0.013592
    17 -0.022360 -0.957436 0.010971 -0.294045 0.006148 -0.013674
    18 -1.180681 -2.507217 -0.193859 -0.844701 -0.059117 0.074764
    19 -0.024967 -1.127840 0.017597 -1.583613 -0.012788 -0.063086
    20 -0.020057 -0.902687 0.021809 -0.698854 0.007958 -0.027493
    21 0.595229 -1.220715 0.251787 -0.837183 -0.216084 0.257682
    22 1.297639 -0.329608 0.106575 0.206814 -0.315410 -1.473279
    23 0.940610 -0.225949 0.012759 0.144135 -0.084877 -1.398775
    24 0.120153 -0.050270 -0.054489 0.287569 3.110905 1.561085
    25 -5.040446 -2.844468 -11.521166 1.043155 -3.741382 1.339694
    26 0.136008 -8.419168 -0.075773 0.354040 0.215129 0.533880
    27 0.225290 -2.818518 -0.247319 -1.004878 -0.128840 0.253354
    28 -0.032909 -1.495829 0.016659 -0.969837 0.019199 -0.015578
    29 -0.027022 -1.092546 -0.028023 -0.471201 0.011793 -0.005621
    30 -0.472197 -2.807900 -0.314842 -0.584859 -0.055062 0.275591
    31 0.043235 -1.660503 0.084293 -0.858464 -0.013991 0.000121
    32 0.031729 -1.153017 0.058838 -0.542329 -0.005123 0.005556
    33 -1.182623 -2.683579 -0.323639 -0.455612 0.588288 -0.019274
    34 0.028479 -1.399161 0.002365 -0.494894 -0.399403 0.119498
    35 0.021413 -0.942156 0.012233 -0.964764 -0.025359 -0.033653
    36 0.949625 -2.633787 -0.111734 -0.985293 -0.224945 0.006686
    37 0.024032 -1.132948 0.002182 -0.631232 -0.150059 0.111398
    38 0.018804 -0.891802 -0.019848 -0.428669 -0.166406 0.063410
    39 -0.715680 -1.209788 0.071251 -0.823785 -0.680442 -2.175250
    40 1.577524 0.035243 0.016848 -0.024920 -0.007482 1.108493
    41 1.117947 0.048424 -0.005766 -0.016434 0.017000 -0.144445
    42 -0.139399 -0.111698 0.014397 0.285382 -0.030687 1.580508
    43 -6.448312 -2.614297 1.920789 1.550623 -0.038528 0.441579
  time 16
    0 7.868976 -9.848337 -11.555905 -1.526555 -2.292284 -5.199940
    1 10.614088 -0.609828 0.000000 0.000000 0.000000 0.014651
    2 0.398844 -1.007801 0.000000 0.000002 0.000000 -1.503733
    3 14.149458 -3.406929 -5.787358 0.000000 0.000000 0.000000
    4 5.740522 -13.989432 -7.570813 -0.908989 5.375292 -1.968560
    5 3.352819 -2.681034 -7.222257 -0.268817 0.351340 0.425975
    6 7.606926 1.454498 -6.315581 5.681268 -2.221194 0.295747
    7 5.210426 6.934404 -0.239653 1.565547 -3.134062 1.033538
    8 -0.064108 -8.475298 -0.100228 -0.535844 0.700662 0.728940
    9 -0.488518 -2.755602 -0.228260 -1.572708 -0.177718 0.023991
    10 0.039887 -1.514947 0.010322 -1.082681 -0.013842 0.022436
    11 0.028786 -1.161671 -0.124675 -1.025158 -0.015053 0.021632
    12 0.250027 -2.820665 -0.238396 -1.659225 -0.096485 0.161223
    13 -0.049759 -1.618042 0.080947 -0.884177 0.008641 -0.024211
    14 -0.034142 -1.163937 0.053531 -0.944119 0.008150 -0.024377
    15 0.957766 -2.746780 -0.090302 -0.057777 -0.183765 0.043812
    16 -0.033420 -1.397129 -0.015163 -0.283970 0.006340 -0.013592
    17 -0.022360 -0.957436 0.010971 -0.294045 0.006148 -0.013674
    18 -1.180681 -2.507217 -0.193859 -0.844729 -0.059117 0.074764
    19 -0.024967 -1.127840 0.017597 -1.583613 -0.012788 -0.063086
    20 -0.020057 -0.902687 0.021809 -0.698854 0.007958 -0.027493
    21 0.595229 -1.220715 0.251787 -0.837183 -0.216084 0.257682
    22 1.297639 -0.329608 0.106575 0.206814 -0.315410 -1.473279
    23 0.940610 -0.225949 0.012759 0.144135 -0.084877 -1.398775
    24 0.120153 -0.050270 -0.054489 0.287569 3.110905 1.561085
    25 -5.384206 -2.926502 -11.318035 0.961490 -3.685906 1.315297
    26 0.116476 -8.391823 -0.067961 0.294308 0.192949 0.635440
    27 0.233103 -2.818518 -0.243413 -0.984630 -0.131009 0.248249
    28 -0.032909 -1.499736 0.016659 -1.031110 0.020254 -0.016944
    29 -0.027022 -1.096452 -0.028023 -0.530233 0.013351 -0.006316
    30 -0.464384 -2.807900 -0.314842 -0.566522 -0.053888 0.268580
    31 0.043235 -1.660503 0.084293 -0.941409 -0.015430 0.000900
    32 0.031729 -1.153017 0.058838 -0.615649 -0.006057 0.005400
    33 -1.174810 -2.683579 -0.319732 -0.475824 0.572259 -0.029688
    34 0.028479 -1.399161 -0.001542 -0.530250 -0.394503 0.118384
    35 0.021413 -0.942156 0.012233 -0.993323 -0.026534 -0.034180
    36 0.957437 -2.629880 -0.107828 -0.962067 -0.228055 0.001767
    37 0.024032 -1.132948 0.002182 -0.672522 -0.150874 0.114022
    38 0.018804 -0.891802 -0.019848 -0.469930 -0.167868 0.065807
    39 -0.711774 -1.213694 0.071251 -0.809540 -0.671238 -2.178825
    40 1.581431 0.035243 0.016848 -0.025088 -0.007482 1.114333
    41 1.117947 0.048424 -0.005766 -0.016602 0.017395 -0.147950
    42 -0.139399 -0.111698 0.014397 0.285382 -0.030687 1.580508
    43 -6.284244 -2.665080 1.932508 1.550431 -0.038432 0.447480
  time 17
    0 7.853351 -9.860056 -11.591062 -1.514433 -2.292859 -5.198024
    1 10.614088 -0.609828 0.000000 0.000000 0.000000 0.014651
    2 0.398844 -1.007801 0.000000 0.000002 0.000000 -1.503733
    3 14.149458 -3.406929 -5.787358 0.000000 0.000000 0.000000
    4 5.736615 -14.008963 -7.605970 -0.895966 5.375006 -1.967844
    5 3.352819 -2.681034 -7.233977 -0.268817 0.351340 0.425975
    6 7.606926 1.454498 -6.315581 5.680244 -2.221798 0.297343
    7 5.202613 6.942217 -0.239653 1.565547 -3.134158 1.034657
    8 -0.064108 -8.479205 -0.100228 -0.529940 0.688103 0.735540
    9 -0.488518 -2.755602 -0.228260 -1.572708 -0.177718 0.023991
    10 0.039887 -1.514947 0.010322 -1.082681 -0.013842 0.022436
    11 0.028786 -1.161671 -0.124675 -1.025158 -0.015053 0.021632
    12 0.250027 -2.820665 -0.238396 -1.659225 -0.096485 0.161223
    13 -0.049759 -1.618042 0.080947 -0.884177 0.008641 -0.024211
    14 -0.034142 -1.163937 0.053531 -0.944119 0.008150 -0.024377
    15 0.957766 -2.746780 -0.090302 -0.057777 -0.183765 0.043812
    16 -0.033420 -1.397129 -0.015163 -0.283970 0.006340 -0.013592
    17 -0.022360 -0.957436 0.010971 -0.294045 0.006148 -0.013674
    18 -1.180681 -2.507217 -0.193859 -0.844729 -0.059117 0.074764
    19 -0.024967 -1.127840 0.017597 -1.583613 -0.012788 -0.063086
    20 -0.020057 -0.902687 0.021809 -0.698854 0.007958 -0.027493
    21 0.595229 -1.220715 0.251787 -0.837183 -0.216084 0.257682
    22 1.297639 -0.329608 0.106575 0.206814 -0.315410 -1.473279
    23 0.940610 -0.225949 0.012759 0.144135 -0.084877 -1.398775
    24 0.120153 -0.050270 -0.054489 0.287569 3.110905 1.561085
    25 -5.810000 -2.461644 -11.298503 0.857856 -3.717137 1.273010
    26 0.116476 -8.384010 -0.075773 0.218572 0.221881 0.612031
    27 0.240915 -2.818518 -0.235600 -0.932976 -0.131009 0.233247
    28 -0.032909 -1.499736 0.020565 -1.128507 0.022255 -0.018994
    29 -0.027022 -1.100358 -0.028023 -0.624108 0.016119 -0.007203
    30 -0.456572 -2.811807 -0.310936 -0.520422 -0.047224 0.250555
    31 0.043235 -1.660503 0.080387 -1.033073 -0.016940 0.001906
    32 0.031729 -1.149111 0.058838 -0.693043 -0.007052 0.005304
    33 -1.166997 -2.687486 -0.319732 -0.462068 0.550648 -0.029322
    34 0.028479 -1.403067 -0.001542 -0.571457 -0.377414 0.114693
    35 0.021413 -0.942156 0.012233 -1.012882 -0.027349 -0.034528
    36 0.961344 -2.629880 -0.100015 -0.906046 -0.229801 -0.009920
    37 0.024032 -1.132948 0.002182 -0.750099 -0.151749 0.119128
    38 0.018804 -0.891802 -0.019848 -0.547564 -0.170013 0.070637
    39 -0.711774 -1.213694 0.071251 -0.769454 -0.650912 -2.190104
    40 1.581431 0.035243 0.016848 -0.025376 -0.007470 1.124410
    41 1.117947 0.048424 -0.005766 -0.016590 0.017947 -0.139416
    42 -0.139399 -0.111698 0.014397 0.285382 -0.030687 1.580508
    43 -6.006892 -2.922901 1.948134 1.549377 -0.038240 0.487540
  time 18
    0 7.833819 -9.867869 -11.622313 -1.502216 -2.293051 -5.196427
    1 10.614088 -0.609828 0.000000 0.000000 0.000000 0.014651
    2 0.398844 -1.007801 0.000000 0.000002 0.000000 -1.503733
    3 14.149458 -3.406929 -5.787358 0.000000 0.000000 0.000000
    4 5.736615 -14.024589 -7.637221 -0.882943 5.374623 -1.967396
    5 3.352819 -2.681034 -7.245696 -0.268817 0.351340 0.425975
    6 7.606926 1.454498 -6.315581 5.679304 -2.222327 0.298787
    7 5.194800 6.946123 -0.239653 1.565547 -3.134158 1.035777
    8 -0.064108 -8.479205 -0.100228 -0.524280 0.675763 0.742058
    9 -0.488518 -2.755602 -0.228260 -1.572708 -0.177718 0.023991
    10 0.039887 -1.514947 0.010322 -1.082681 -0.013842 0.022436
    11 0.028786 -1.161671 -0.124675 -1.025158 -0.015053 0.021632
    12 0.250027 -2.820665 -0.238396 -1.659225 -0.096485 0.161223
    13 -0.049759 -1.618042 0.080947 -0.884177 0.008641 -0.024211
    14 -0.034142 -1.163937 0.053531 -0.944119 0.008150 -0.024377
    15 0.957766 -2.746780 -0.090302 -0.057777 -0.183765 0.043812
    16 -0.033420 -1.397129 -0.015163 -0.283970 0.006340 -0.013592
    17 -0.022360 -0.957436 0.010971 -0.294045 0.006148 -0.013674
    18 -1.180681 -2.507217 -0.193859 -0.844729 -0.059117 0.074764
    19 -0.024967 -1.127840 0.017597 -1.583613 -0.012788 -0.063086
    20 -0.020057 -0.902687 0.021809 -0.698854 0.007958 -0.027493
    21 0.595229 -1.220715 0.251787 -0.837183 -0.216084 0.257682
    22 1.297639 -0.329608 0.106575 0.206814 -0.315410 -1.473279
    23 0.940610 -0.225949 0.012759 0.144135 -0.084877 -1.398775
    24 0.120153 -0.050270 -0.054489 0.287569 3.110905 1.561085
    25 -6.317828 -1.695996 -11.232095 0.726363 -3.780091 1.210440
    26 0.120382 -8.384010 -0.083586 0.132208 0.263679 0.534423
    27 0.248728 -2.818518 -0.227788 -0.869145 -0.129978 0.214448
    28 -0.032909 -1.499736 0.024472 -1.241406 0.024580 -0.021486
    29 -0.027022 -1.104265 -0.028023 -0.732454 0.019391 -0.008341
    30 -0.444852 -2.811807 -0.303123 -0.463520 -0.037481 0.228420
    31 0.043235 -1.656596 0.076480 -1.132748 -0.018474 0.003141
    32 0.031729 -1.149111 0.058838 -0.774012 -0.008095 0.005292
    33 -1.159184 -2.695299 -0.315826 -0.437438 0.525832 -0.026057
    34 0.028479 -1.403067 -0.005448 -0.616286 -0.356535 0.109539
    35 0.021413 -0.942156 0.012233 -1.031379 -0.028128 -0.034839
    36 0.973063 -2.625974 -0.092203 -0.836464 -0.231221 -0.024839
    37 0.024032 -1.136855 -0.001725 -0.841765 -0.152588 0.125408
    38 0.018804 -0.895708 -0.019848 -0.639296 -0.172410 0.076653
    39 -0.707867 -1.217601 0.071251 -0.721700 -0.625157 -2.202399
    40 1.581431 0.035243 0.016848 -0.025747 -0.007458 1.137694
    41 1.117947 0.048424 -0.005766 -0.016614 0.018654 -0.130193
    42 -0.139399 -0.111698 0.014397 0.285382 -0.030687 1.580508
    43 -5.631881 -3.297912 1.959853 1.547748 -0.037858 0.551205
  time 19
    0 7.814287 -9.871775 -11.649657 -1.491049 -2.293243 -5.195022
    1 10.614088 -0.609828 0.000000 0.000000 0.000000 0.014651
    2 0.398844 -1.007801 0.000000 0.000002 0.000000 -1.503733
    3 14.149458 -3.406929 -5.787358 0.000000 0.000000 0.000000
    4 5.732709 -14.040214 -7.668472 -0.870864 5.374146 -1.967128
    5 3.352819 -2.681034 -7.253508 -0.268817 0.351340 0.425975
    6 7.606926 1.450592 -6.315581 5.678451 -2.222856 0.300079
    7 5.186987 6.953936 -0.239653 1.565547 -3.134158 1.036811
    8 -0.068015 -8.483111 -0.104134 -0.519234 0.664433 0.747999
    9 -0.488518 -2.755602 -0.228260 -1.572708 -0.177718 0.023991
    10 0.039887 -1.514947 0.010322 -1.082681 -0.013842 0.022436
    11 0.028786 -1.161671 -0.124675 -1.025158 -0.015053 0.021632
    12 0.250027 -2.820665 -0.238396 -1.659225 -0.096485 0.161223
    13 -0.049759 -1.618042 0.080947 -0.884177 0.008641 -0.024211
    14 -0.034142 -1.163937 0.053531 -0.944119 0.008150 -0.024377
    15 0.957766 -2.746780 -0.090302 -0.057777 -0.183765 0.043812
    16 -0.033420 -1.397129 -0.015163 -0.283970 0.006340 -0.013592
    17 -0.022360 -0.957436 0.010971 -0.294045 0.006148 -0.013674
    18 -1.180681 -2.507217 -0.193859 -0.844729 -0.059117 0.074764
    19 -0.024967 -1.127840 0.017597 -1.583613 -0.012788 -0.063086
    20 -0.020057 -0.902687 0.021809 -0.698854 0.007958 -0.027493
    21 0.595229 -1.220715 0.251787 -0.837183 -0.216084 0.257682
    22 1.297639 -0.329608 0.106575 0.206814 -0.315410 -1.473279
    23 0.940610 -0.225949 0.012759 0.144135 -0.084877 -1.398775
    24 0.120153 -0.050270 -0.054489 0.287569 3.110905 1.561085
    25 -6.825656 -0.758467 -11.005525 0.571549 -3.866468 1.126248
    26 0.132101 -8.391823 -0.095305 0.040403 0.307979 0.413982
    27 0.260447 -2.818518 -0.219975 -0.794122 -0.126826 0.192610
    28 -0.032909 -1.499736 0.028378 -1.365349 0.026869 -0.024459
    29 -0.027022 -1.112077 -0.028023 -0.851353 0.022891 -0.009935
    30 -0.437040 -2.815713 -0.299217 -0.396872 -0.024202 0.203216
    31 0.043235 -1.656596 0.076480 -1.236565 -0.019936 0.004591
    32 0.031729 -1.145205 0.058838 -0.856145 -0.009149 0.005364
    33 -1.147465 -2.699205 -0.311919 -0.402326 0.498281 -0.020309
    34 0.028479 -1.403067 -0.005448 -0.662843 -0.332170 0.102492
    35 0.021413 -0.942156 0.012233 -1.047220 -0.028799 -0.035103
    36 0.980876 -2.622067 -0.084390 -0.755101 -0.231207 -0.041517
    37 0.024032 -1.136855 -0.001725 -0.944420 -0.152792 0.132491
    38 0.018804 -0.895708 -0.015942 -0.742072 -0.174364 0.083640
    39 -0.703961 -1.217601 0.075157 -0.667240 -0.594848 -2.214924
    40 1.581431 0.035243 0.016848 -0.026167 -0.007434 1.152390
    41 1.117947 0.048424 -0.005766 -0.016626 0.019433 -0.119562
    42 -0.139399 -0.111698 0.014397 0.285382 -0.030687 1.580508
    43 -5.202180 -3.692455 1.975478 1.545928 -0.037187 0.624528
  time 20
    0 7.802568 -9.879588 -11.677002 -1.481695 -2.293339 -5.193872
    1 10.614088 -0.609828 0.000000 0.000000 0.000000 0.014651
    2 0.398844 -1.007801 0.000000 0.000002 0.000000 -1.503733
    3 14.149458 -3.406929 -5.787358 0.000000 0.000000 0.000000
    4 5.732709 -14.051933 -7.691910 -0.860861 5.373668 -1.966859
    5 3.352819 -2.681034 -7.261321 -0.268817 0.351340 0.425975
    6 7.610833 1.450592 -6.315581 5.677682 -2.223309 0.301218
    7 5.183081 6.957842 -0.239653 1.565547 -3.134158 1.037759
    8 -0.068015 -8.487017 -0.104134 -0.515086 0.654987 0.752908
    9 -0.488518 -2.755602 -0.228260 -1.572708 -0.177718 0.023991
    10 0.039887 -1.514947 0.010322 -1.082681 -0.013842 0.022436
    11 0.028786 -1.161671 -0.124675 -1.025158 -0.015053 0.021632
    12 0.250027 -2.820665 -0.238396 -1.659225 -0.096485 0.161223
    13 -0.049759 -1.618042 0.080947 -0.884177 0.008641 -0.024211
    14 -0.034142 -1.163937 0.053531 -0.944119 0.008150 -0.024377
    15 0.957766 -2.746780 -0.090302 -0.057777 -0.183765 0.043812
    16 -0.033420 -1.397129 -0.015163 -0.283970 0.006340 -0.013592
    17 -0.022360 -0.957436 0.010971 -0.294045 0.006148 -0.013674
    18 -1.180681 -2.507217 -0.193859 -0.844729 -0.059117 0.074764
    19 -0.024967 -1.127840 0.017597 -1.583613 -0.012788 -0.063086
    20 -0.020057 -0.902687 0.021809 -0.698854 0.007958 -0.027493
    21 0.595229 -1.220715 0.251787 -0.837183 -0.216084 0.257682
    22 1.297639 -0.329608 0.106575 0.206814 -0.315410 -1.473279
    23 0.940610 -0.225949 0.012759 0.144135 -0.084877 -1.398775
    24 0.120153 -0.050270 -0.054489 0.287569 3.110905 1.561085
    25 -7.259263 0.179062 -10.591450 0.394447 -3.965913 1.014789
    26 0.147727 -8.407448 -0.107024 -0.050571 0.347623 0.264291
    27 0.272166 -2.818518 -0.212162 -0.708925 -0.120462 0.168706
    28 -0.032909 -1.499736 0.032285 -1.495678 0.028775 -0.027898
    29 -0.027022 -1.115984 -0.028023 -0.976886 0.026270 -0.012104
    30 -0.421414 -2.819619 -0.291404 -0.321494 -0.006992 0.176071
    31 0.043235 -1.656596 0.072574 -1.340818 -0.021230 0.006185
    32 0.031729 -1.145205 0.058838 -0.937072 -0.010192 0.005520
    33 -1.135746 -2.703111 -0.308013 -0.357187 0.468410 -0.012538
    34 0.028479 -1.403067 -0.005448 -0.709205 -0.304635 0.093216
    35 0.021413 -0.942156 0.012233 -1.058842 -0.029290 -0.035283
    36 0.992595 -2.618161 -0.072671 -0.663784 -0.228878 -0.058393
    37 0.024032 -1.140761 -0.005631 -1.054910 -0.151821 0.139909
    38 0.018804 -0.899614 -0.015942 -0.852695 -0.175251 0.091251
    39 -0.696148 -1.221507 0.075157 -0.606971 -0.560884 -2.227057
    40 1.581431 0.035243 0.016848 -0.026574 -0.007410 1.166704
    41 1.117947 0.048424 -0.005766 -0.016578 0.020164 -0.106862
    42 -0.139399 -0.111698 0.014397 0.285382 -0.030687 1.580508
    43 -4.780292 -4.024497 1.991104 1.544203 -0.036517 0.693291
  time 21
    0 7.794755 -9.883494 -11.696534 -1.475205 -2.293530 -5.192850
    1 10.614088 -0.609828 0.000000 0.000000 0.000000 0.014651
    2 0.398844 -1.007801 0.000000 0.000002 0.000000 -1.503733
    3 14.149458 -3.406929 -5.787358 0.000000 0.000000 0.000000
    4 5.732709 -14.059746 -7.715349 -0.853878 5.373572 -1.966501
    5 3.352819 -2.681034 -7.269134 -0.268817 0.351340 0.425975
    6 7.610833 1.450592 -6.315581 5.676999 -2.223687 0.302282
    7 5.179175 6.961748 -0.239653 1.565547 -3.134254 1.038448
    8 -0.068015 -8.487017 -0.104134 -0.512206 0.648243 0.756332
    9 -0.488518 -2.755602 -0.228260 -1.572708 -0.177718 0.023991
    10 0.039887 -1.514947 0.010322 -1.082681 -0.013842 0.022436
    11 0.028786 -1.161671 -0.124675 -1.025158 -0.015053 0.021632
    12 0.250027 -2.820665 -0.238396 -1.659225 -0.096485 0.161223
    13 -0.049759 -1.618042 0.080947 -0.884177 0.008641 -0.024211
    14 -0.034142 -1.163937 0.053531 -0.944091 0.008150 -0.024377
    15 0.957766 -2.746780 -0.090302 -0.057777 -0.183765 0.043812
    16 -0.033420 -1.397129 -0.015163 -0.283970 0.006340 -0.013592
    17 -0.022360 -0.957436 0.010971 -0.294045 0.006148 -0.013674
    18 -1.180681 -2.507217 -0.193859 -0.844729 -0.059117 0.074764
    19 -0.024967 -1.127840 0.017597 -1.583613 -0.012788 -0.063086
    20 -0.020057 -0.902687 0.021809 -0.698854 0.007958 -0.027493
    21 0.595229 -1.220715 0.251787 -0.837183 -0.216084 0.257682
    22 1.297639 -0.329608 0.106575 0.206814 -0.315410 -1.473279
    23 0.940610 -0.225949 0.012759 0.144135 -0.084877 -1.398775
    24 0.120153 -0.050270 -0.054489 0.287569 3.110905 1.561085
    25 -7.595211 0.968148 -10.064090 0.192433 -4.065110 0.869079
    26 0.159446 -8.426980 -0.118743 -0.132453 0.380222 0.100972
    27 0.283885 -2.818518 -0.204349 -0.614672 -0.109988 0.143844
    28 -0.032909 -1.499736 0.032285 -1.628003 0.029997 -0.031673
    29 -0.027022 -1.123796 -0.024116 -1.105083 0.029206 -0.014873
    30 -0.409695 -2.819619 -0.287498 -0.238423 0.014424 0.148171
    31 0.043235 -1.656596 0.068667 -1.441802 -0.022333 0.007863
    32 0.031729 -1.145205 0.058838 -1.014424 -0.011163 0.005747
    33 -1.124027 -2.710924 -0.304107 -0.302444 0.436503 -0.003206
    34 0.028479 -1.403067 -0.009354 -0.753616 -0.274248 0.081519
    35 0.021413 -0.942156 0.012233 -1.064621 -0.029530 -0.035367
    36 1.004314 -2.614255 -0.060952 -0.564485 -0.223695 -0.073743
    37 0.024032 -1.144668 -0.005631 -1.169969 -0.149328 0.147088
    38 0.018804 -0.899614 -0.015942 -0.968065 -0.174592 0.098981
    39 -0.692242 -1.225413 0.075157 -0.541555 -0.524187 -2.238313
    40 1.585337 0.035243 0.016848 -0.026910 -0.007374 1.178804
    41 1.117947 0.048424 -0.005766 -0.016422 0.020751 -0.091346
    42 -0.139399 -0.111698 0.014397 0.285382 -0.030687 1.580508
    43 -4.440438 -4.247160 2.002823 1.542958 -0.035943 0.743455
  time 22
    0 7.786943 -9.883494 -11.700440 -1.472533 -2.293243 -5.193489
    1 10.614088 -0.609828 0.000000 0.000000 0.000000 0.014651
    2 0.398844 -1.007801 0.000000 0.000002 0.000000 -1.503733
    3 14.149458 -3.406929 -5.787358 0.000000 0.000000 0.000000
    4 5.724896 -14.055840 -7.715349 -0.851046 5.373094 -1.967307
    5 3.352819 -2.681034 -7.276947 -0.268817 0.351340 0.425975
    6 7.610833 1.450592 -6.315581 5.677682 -2.223460 0.301370
    7 5.183081 6.957842 -0.239653 1.565547 -3.134158 1.037931
    8 -0.068015 -8.487017 -0.104134 -0.511429 0.646360 0.757198
    9 -0.488518 -2.755602 -0.228260 -1.572708 -0.177718 0.023991
    10 0.039887 -1.514947 0.010322 -1.082681 -0.013842 0.022436
    11 0.028786 -1.161671 -0.124675 -1.025158 -0.015053 0.021632
    12 0.250027 -2.820665 -0.238396 -1.659225 -0.096485 0.161223
    13 -0.049759 -1.618042 0.080947 -0.884177 0.008641 -0.024211
    14 -0.034142 -1.163937 0.053531 -0.944119 0.008150 -0.024377
    15 0.957766 -2.746780 -0.090302 -0.057777 -0.183765 0.043812
    16 -0.033420 -1.397129 -0.015163 -0.283970 0.006340 -0.013592
    17 -0.022360 -0.957436 0.010971 -0.294045 0.006148 -0.013674
    18 -1.180681 -2.507217 -0.193859 -0.844729 -0.059117 0.074764
    19 -0.024967 -1.127840 0.017597 -1.583613 -0.012788 -0.063086
    20 -0.020057 -0.902687 0.021809 -0.698854 0.007958 -0.027493
    21 0.595229 -1.220715 0.251787 -0.837183 -0.216084 0.257682
    22 1.297639 -0.329608 0.106575 0.206814 -0.315410 -1.473279
    23 0.940610 -0.225949 0.012759 0.144135 -0.084877 -1.398775
    24 0.120153 -0.050270 -0.054489 0.287569 3.110905 1.561085
    25 -7.845219 1.503321 -9.571888 -0.033859 -4.149515 0.688736
    26 0.171165 -8.450418 -0.130462 -0.195833 0.409096 -0.058771
    27 0.299511 -2.818518 -0.200443 -0.512482 -0.094648 0.119317
    28 -0.032909 -1.499736 0.036191 -1.757667 0.030297 -0.035544
    29 -0.027022 -1.127703 -0.020210 -1.232131 0.031388 -0.018181
    30 -0.397976 -2.823526 -0.279685 -0.148635 0.040167 0.120738
    31 0.043235 -1.656596 0.064761 -1.535700 -0.023196 0.009505
    32 0.031729 -1.141298 0.054932 -1.085792 -0.012038 0.006023
    33 -1.112308 -2.714830 -0.300200 -0.238472 0.402899 0.007208
    34 0.028479 -1.403067 -0.009354 -0.794349 -0.241314 0.067365
    35 0.021413 -0.942156 0.012233 -1.063027 -0.029458 -0.035343
    36 1.016033 -2.610348 -0.049233 -0.459079 -0.215502 -0.085754
    37 0.024032 -1.148574 -0.005631 -1.286496 -0.145097 0.153356
    38 0.018804 -0.903521 -0.012035 -1.084892 -0.172027 0.106243
    39 -0.688336 -1.229320 0.079064 -0.471569 -0.485680 -2.248440
    40 1.585337 0.039149 0.016848 -0.027149 -0.007362 1.186935
    41 1.117947 0.048424 -0.005766 -0.016135 0.021063 -0.072296
    42 -0.139399 -0.111698 0.014397 0.285382 -0.030687 1.580508
    43 -4.268558 -4.313568 2.010636 1.542574 -0.035752 0.761160
  time 23
    0 7.783036 -9.875682 -11.696534 -1.473010 -2.292188 -5.196108
    1 10.614088 -0.609828 0.000000 0.000000 0.000000 0.014651
    2 0.398844 -1.007801 0.000000 0.000002 0.000000 -1.503733
    3 14.149458 -3.406929 -5.787358 0.000000 0.000000 0.000000
    4 5.709271 -14.044121 -7.707536 -0.851707 5.372043 -1.969813
    5 3.352819 -2.681034 -7.280853 -0.268817 0.351340 0.425975
    6 7.606926 1.446686 -6.315581 5.677938 -2.223385 0.300459
    7 5.179175 6.957842 -0.239653 1.565547 -3.134158 1.038190
    8 -0.068015 -8.487017 -0.104134 -0.512471 0.648707 0.757445
    9 -0.488518 -2.755602 -0.228260 -1.572708 -0.177718 0.023991
    10 0.039887 -1.514947 0.010322 -1.082681 -0.013842 0.022436
    11 0.028786 -1.161671 -0.124675 -1.025158 -0.015053 0.021632
    12 0.250027 -2.820665 -0.238396 -1.659225 -0.096485 0.161223
    13 -0.049759 -1.618042 0.080947 -0.884177 0.008641 -0.024211
    14 -0.034142 -1.163937 0.053531 -0.944119 0.008150 -0.024377
    15 0.957766 -2.746780 -0.090302 -0.057777 -0.183765 0.043812
    16 -0.033420 -1.397129 -0.015163 -0.283970 0.006340 -0.013592
    17 -0.022360 -0.957436 0.010971 -0.294045 0.006148 -0.013674
    18 -1.180681 -2.507217 -0.193859 -0.844729 -0.059117 0.074764
    19 -0.024967 -1.127840 0.017597 -1.583613 -0.012788 -0.063086
    20 -0.020057 -0.902687 0.021809 -0.698854 0.007958 -0.027493
    21 0.595229 -1.220715 0.251787 -0.837183 -0.216084 0.257682
    22 1.297639 -0.329608 0.106575 0.206814 -0.315410 -1.473279
    23 0.940610 -0.225949 0.012759 0.144135 -0.084877 -1.398775
    24 0.120153 -0.050270 -0.054489 0.287569 3.110905 1.561085
    25 -8.044444 1.733796 -9.290629 -0.267155 -4.207538 0.493372
    26 0.178978 -8.477763 -0.138275 -0.231685 0.441579 -0.197685
    27 0.311230 -2.818518 -0.188724 -0.403509 -0.073998 0.096571
    28 -0.032909 -1.499736 0.040097 -1.880213 0.029530 -0.039272
    29 -0.027022 -1.131609 -0.020210 -1.353955 0.032538 -0.021860
    30 -0.382351 -2.827432 -0.271872 -0.053007 0.070093 0.094983
    31 0.043235 -1.656596 0.060855 -1.618754 -0.023831 0.011015
    32 0.031729 -1.141298 0.054932 -1.148804 -0.012805 0.006323
    33 -1.096683 -2.722643 -0.296294 -0.165617 0.367880 0.018259
    34 0.028479 -1.403067 -0.013261 -0.829817 -0.206064 0.050875
    35 0.021413 -0.942156 0.012233 -1.052433 -0.029015 -0.035175
    36 1.027752 -2.606442 -0.041420 -0.349586 -0.204582 -0.092701
    37 0.024032 -1.148574 -0.009538 -1.401229 -0.139093 0.158078
    38 0.018804 -0.903521 -0.012035 -1.199980 -0.167389 0.112391
    39 -0.680523 -1.229320 0.079064 -0.397332 -0.446323 -2.257366
    40 1.585337 0.039149 0.016848 -0.027209 -0.007350 1.189225
    41 1.117947 0.048424 -0.005766 -0.015667 0.020991 -0.048993
    42 -0.139399 -0.111698 0.014397 0.285382 -0.030687 1.580508
    43 -4.346685 -4.192471 2.010636 1.543245 -0.036134 0.732188
  time 24
    0 7.779130 -9.871775 -11.692628 -1.475301 -2.290942 -5.199173
    1 10.614088 -0.609828 0.000000 0.000000 0.000000 0.014651
    2 0.398844 -1.007801 0.000000 0.000002 0.000000 -1.503733
    3 14.149458 -3.406929 -5.787358 0.000000 0.000000 0.000000
    4 5.693645 -14.024589 -7.695817 -0.854349 5.370896 -1.972498
    5 3.352819 -2.681034 -7.284759 -0.268817 0.351340 0.425975
    6 7.599114 1.442779 -6.315581 5.677768 -2.223460 0.299775
    7 5.175268 6.961748 -0.239653 1.565547 -3.134254 1.038965
    8 -0.068015 -8.487017 -0.104134 -0.514290 0.652939 0.757280
    9 -0.488518 -2.755602 -0.228260 -1.572708 -0.177718 0.023991
    10 0.039887 -1.514947 0.010322 -1.082681 -0.013842 0.022436
    11 0.028786 -1.161671 -0.124675 -1.025158 -0.015053 0.021632
    12 0.250027 -2.820665 -0.238396 -1.659225 -0.096485 0.161223
    13 -0.049759 -1.618042 0.080947 -0.884177 0.008641 -0.024211
    14 -0.034142 -1.163937 0.053531 -0.944119 0.008150 -0.024377
    15 0.957766 -2.746780 -0.090302 -0.057777 -0.183765 0.043812
    16 -0.033420 -1.397129 -0.015163 -0.283970 0.006340 -0.013592
    17 -0.022360 -0.957436 0.010971 -0.294045 0.006148 -0.013674
    18 -1.180681 -2.507217 -0.193859 -0.844729 -0.059117 0.074764
    19 -0.024967 -1.127840 0.017597 -1.583613 -0.012788 -0.063086
    20 -0.020057 -0.902687 0.021809 -0.698854 0.007958 -0.027493
    21 0.595229 -1.220715 0.251787 -0.837183 -0.216084 0.257682
    22 1.297639 -0.329608 0.106575 0.206814 -0.315410 -1.473279
    23 0.940610 -0.225949 0.012759 0.144135 -0.084877 -1.398775
    24 0.120153 -0.050270 -0.054489 0.287569 3.110905 1.561085
    25 -8.079601 1.190811 -9.970338 -0.476413 -4.296791 0.344983
    26 0.186790 -8.524639 -0.173433 -0.135654 0.598464 -0.324013
    27 0.322949 -2.814611 -0.180911 -0.237828 -0.036271 0.061761
    28 -0.032909 -1.495829 0.044004 -2.060837 0.029350 -0.044521
    29 -0.027022 -1.139422 -0.016304 -1.530056 0.035007 -0.026714
    30 -0.370631 -2.827432 -0.264059 0.092667 0.124563 0.058214
    31 0.043235 -1.656596 0.060855 -1.708184 -0.024370 0.012704
    32 0.031729 -1.141298 0.054932 -1.202049 -0.013428 0.006610
    33 -1.084963 -2.726550 -0.292388 -0.030028 0.320472 0.037368
    34 0.028479 -1.403067 -0.013261 -0.871609 -0.151678 0.026618
    35 0.021413 -0.942156 0.012233 -1.022380 -0.027744 -0.034695
    36 1.039471 -2.602536 -0.029701 -0.177820 -0.183083 -0.109918
    37 0.024032 -1.156387 -0.009538 -1.575585 -0.130860 0.165892
    38 0.018804 -0.907427 -0.008129 -1.374891 -0.161265 0.122207
    39 -0.676616 -1.233226 0.079064 -0.291360 -0.381390 -2.263318
    40 1.585337 0.039149 0.016848 -0.027629 -0.007302 1.203883
    41 1.117947 0.048424 -0.005766 -0.015140 0.021482 -0.015318
    42 -0.139399 -0.111698 0.014397 0.285382 -0.030687 1.580508
    43 -5.182648 -3.262755 1.998917 1.548227 -0.037953 0.532875
  time 25
    0 7.779130 -9.867869 -11.688721 -1.477973 -2.290175 -5.201026
    1 10.614088 -0.609828 0.000000 0.000000 0.000000 0.014651
    2 0.398844 -1.007801 0.000000 0.000002 0.000000 -1.503733
    3 14.149458 -3.406929 -5.787358 0.000000 0.000000 0.000000
    4 5.685833 -14.012870 -7.691910 -0.857275 5.370323 -1.974020
    5 3.352819 -2.681034 -7.288666 -0.268817 0.351340 0.425975
    6 7.599114 1.442779 -6.311674 5.677511 -2.223536 0.299623
    7 5.171362 6.965655 -0.239653 1.565547 -3.134254 1.039568
    8 -0.068015 -8.487017 -0.104134 -0.515842 0.656707 0.756785
    9 -0.488518 -2.755602 -0.228260 -1.572708 -0.177718 0.023991
    10 0.039887 -1.514947 0.010322 -1.082681 -0.013842 0.022436
    11 0.028786 -1.161671 -0.124675 -1.025158 -0.015053 0.021632
    12 0.250027 -2.820665 -0.238396 -1.659225 -0.096485 0.161223
    13 -0.049759 -1.618042 0.080947 -0.884177 0.008641 -0.024211
    14 -0.034142 -1.163937 0.053531 -0.944119 0.008150 -0.024377
    15 0.957766 -2.746780 -0.090302 -0.057777 -0.183765 0.043812
    16 -0.033420 -1.397129 -0.015163 -0.283970 0.006340 -0.013592
    17 -0.022360 -0.957436 0.010971 -0.294045 0.006148 -0.013674
    18 -1.180681 -2.507217 -0.193859 -0.844729 -0.059117 0.074764
    19 -0.024967 -1.127840 0.017597 -1.583613 -0.012788 -0.063086
    20 -0.020057 -0.902687 0.021809 -0.698854 0.007958 -0.027493
    21 0.595229 -1.220715 0.251787 -0.837183 -0.216084 0.257682
    22 1.297639 -0.329608 0.106575 0.206814 -0.315410 -1.473279
    23 0.940610 -0.225949 0.012759 0.144135 -0.084877 -1.398775
    24 0.120153 -0.050270 -0.054489 0.287569 3.110905 1.561085
    25 -7.325672 -0.020163 -11.189125 -0.687183 -4.389168 0.212859
    26 0.178978 -8.579329 -0.220309 0.072413 0.827826 -0.397183
    27 0.338575 -2.814611 -0.169192 -0.026971 0.023484 0.032491
    28 -0.032909 -1.491923 0.047910 -2.235342 0.026342 -0.049315
    29 -0.027022 -1.143328 -0.012397 -1.706576 0.034707 -0.032490
    30 -0.355006 -2.831338 -0.256247 0.279138 0.199442 0.025377
    31 0.043235 -1.656596 0.056948 -1.765951 -0.024634 0.013807
    32 0.031729 -1.141298 0.054932 -1.227030 -0.013716 0.006754
    33 -1.073244 -2.734362 -0.288481 0.156137 0.260732 0.058276
    34 0.028479 -1.403067 -0.017167 -0.899025 -0.081007 -0.005717
    35 0.021413 -0.942156 0.012233 -0.954868 -0.024952 -0.033449
    36 1.051190 -2.598629 -0.017982 0.030781 -0.152837 -0.110367
    37 0.027938 -1.160293 -0.009538 -1.763379 -0.117185 0.168564
    38 0.014898 -0.907427 -0.004223 -1.563290 -0.148681 0.128235
    39 -0.672710 -1.237132 0.082970 -0.156406 -0.306307 -2.267631
    40 1.585337 0.039149 0.016848 -0.027509 -0.007314 1.200028
    41 1.117947 0.048424 -0.005766 -0.014025 0.020667 0.036287
    42 -0.139399 -0.111698 0.014397 0.285382 -0.030687 1.580508
    43 -6.213930 -1.286132 1.987197 1.557521 -0.038719 0.181639
  time 26
    0 7.786943 -9.867869 -11.696534 -1.479691 -2.290463 -5.200004
    1 10.614088 -0.609828 0.000000 0.000000 0.000000 0.014651
    2 0.398844 -1.007801 0.000000 0.000002 0.000000 -1.503733
    3 14.149458 -3.406929 -5.787358 0.000000 0.000000 0.000000
    4 5.697552 -14.016776 -7.699723 -0.859162 5.370705 -1.972856
    5 3.352819 -2.681034 -7.292572 -0.268817 0.351340 0.425975
    6 7.599114 1.442779 -6.315581 5.677170 -2.223611 0.300383
    7 5.171362 6.965655 -0.239653 1.565547 -3.134254 1.039568
    8 -0.068015 -8.487017 -0.104134 -0.516149 0.657635 0.756208
    9 -0.488518 -2.755602 -0.228260 -1.572708 -0.177718 0.023991
    10 0.039887 -1.514947 0.010322 -1.082681 -0.013842 0.022436
    11 0.028786 -1.161671 -0.124675 -1.025158 -0.015053 0.021632
    12 0.250027 -2.820665 -0.238396 -1.659225 -0.096485 0.161223
    13 -0.049759 -1.618042 0.080947 -0.884177 0.008641 -0.024211
    14 -0.034142 -1.163937 0.053531 -0.944119 0.008150 -0.024377
    15 0.957766 -2.746780 -0.090302 -0.057777 -0.183765 0.043812
    16 -0.033420 -1.397129 -0.015163 -0.283970 0.006340 -0.013592
    17 -0.022360 -0.957436 0.010971 -0.294045 0.006148 -0.013674
    18 -1.180681 -2.507217 -0.193859 -0.844729 -0.059117 0.074764
    19 -0.024967 -1.127840 0.017597 -1.583613 -0.012788 -0.063086
    20 -0.020057 -0.902687 0.021809 -0.698854 0.007958 -0.027493
    21 0.595229 -1.220715 0.251787 -0.837183 -0.216084 0.257682
    22 1.297639 -0.329608 0.106575 0.206814 -0.315410 -1.473279
    23 0.940610 -0.225949 0.012759 0.144135 -0.084877 -1.398775
    24 0.120153 -0.050270 -0.054489 0.287569 3.110905 1.561085
    25 -6.227982 -1.094415 -11.814144 -0.864364 -4.394757 0.025914
    26 0.167259 -8.602767 -0.224215 0.185537 0.851751 -0.431911
    27 0.350294 -2.814611 -0.161379 0.140271 0.079512 0.045153
    28 -0.032909 -1.491923 0.047910 -2.205337 0.015520 -0.047649
    29 -0.027022 -1.143328 -0.012397 -1.709658 0.023909 -0.035774
    30 -0.343287 -2.831338 -0.252340 0.428061 0.246182 0.021434
    31 0.043235 -1.656596 0.060855 -1.705404 -0.024346 0.012645
    32 0.031729 -1.141298 0.054932 -1.196147 -0.013356 0.006574
    33 -1.057619 -2.738269 -0.284575 0.298871 0.209929 0.072194
    34 0.028479 -1.403067 -0.017167 -0.860715 -0.021160 -0.031951
    35 0.021413 -0.942156 0.016140 -0.837178 -0.020302 -0.030860
    36 1.062909 -2.594723 -0.006262 0.153114 -0.145354 -0.042218
    37 0.024032 -1.160293 -0.009538 -1.800698 -0.098969 0.149425
    38 0.014898 -0.907427 -0.004223 -1.600697 -0.126809 0.113542
    39 -0.668804 -1.237132 0.082970 -0.032964 -0.279653 -2.291320
    40 1.577524 0.035243 0.016848 -0.024752 -0.007494 1.102576
    41 1.117947 0.048424 -0.005766 -0.011748 0.014123 0.108407
    42 -0.139399 -0.111698 0.014397 0.285382 -0.030687 1.580508
    43 -6.542065 0.620176 1.971572 1.565378 -0.036805 -0.121936
  time 27
    0 7.802568 -9.871775 -11.712159 -1.479118 -2.292284 -5.194511
    1 10.614088 -0.609828 0.000000 0.000000 0.000000 0.014651
    2 0.398844 -1.007801 0.000000 0.000002 0.000000 -1.503733
    3 14.149458 -3.406929 -5.787358 0.000000 0.000000 0.000000
    4 5.732709 -14.040214 -7.723161 -0.858313 5.372521 -1.967665
    5 3.352819 -2.681034 -7.292572 -0.268817 0.351340 0.425975
    6 7.610833 1.450592 -6.315581 5.676999 -2.223687 0.302282
    7 5.179175 6.961748 -0.239653 1.565547 -3.134254 1.038448
    8 -0.068015 -8.487017 -0.104134 -0.514147 0.653431 0.755672
    9 -0.488518 -2.755602 -0.228260 -1.572708 -0.177718 0.023991
    10 0.039887 -1.514947 0.010322 -1.082681 -0.013842 0.022436
    11 0.028786 -1.161671 -0.124675 -1.025158 -0.015053 0.021632
    12 0.250027 -2.820665 -0.238396 -1.659225 -0.096485 0.161223
    13 -0.049759 -1.618042 0.080947 -0.884177 0.008641 -0.024211
    14 -0.034142 -1.163937 0.053531 -0.944119 0.008150 -0.024377
    15 0.957766 -2.746780 -0.090302 -0.057777 -0.183765 0.043812
    16 -0.033420 -1.397129 -0.015163 -0.283970 0.006340 -0.013592
    17 -0.022360 -0.957436 0.010971 -0.294045 0.006148 -0.013674
    18 -1.180681 -2.507217 -0.193859 -0.844729 -0.059117 0.074764
    19 -0.024967 -1.127840 0.017597 -1.583613 -0.012788 -0.063086
    20 -0.020057 -0.902687 0.021809 -0.698854 0.007958 -0.027493
    21 0.595229 -1.220715 0.251787 -0.837183 -0.216084 0.257682
    22 1.297639 -0.329608 0.106575 0.206814 -0.315410 -1.473279
    23 0.940610 -0.225949 0.012759 0.144135 -0.084877 -1.398775
    24 0.120153 -0.050270 -0.054489 0.287569 3.110905 1.561085
    25 -5.907660 -1.297546 -12.028994 -0.882830 -4.220195 -0.339651
    26 0.155540 -8.548078 -0.075773 -0.032965 0.224559 -0.410721
    27 0.362013 -2.814611 -0.153567 0.182021 0.111367 0.146857
    28 -0.032909 -1.499736 0.032285 -1.586689 -0.018588 -0.041896
    29 -0.027022 -1.127703 -0.020210 -1.220586 -0.012248 -0.043396
    30 -0.331568 -2.835245 -0.244528 0.461425 0.199538 0.064818
    31 0.043235 -1.656596 0.072574 -1.313897 -0.020918 0.005765
    32 0.031729 -1.145205 0.058838 -1.024442 -0.011283 0.005783
    33 -1.045900 -2.742175 -0.280668 0.322122 0.187262 0.092800
    34 0.028479 -1.403067 -0.009354 -0.623948 0.012798 -0.032874
    35 0.021413 -0.949968 0.020046 -0.567163 -0.011014 -0.022974
    36 1.070722 -2.590816 0.001550 0.009286 -0.186889 0.223378
    37 0.024032 -1.152480 -0.009538 -1.409335 -0.046860 0.082479
    38 0.014898 -0.903521 -0.012035 -1.209238 -0.061073 0.058545
    39 -0.660991 -1.241039 0.082970 0.091483 -0.394082 -2.425360
    40 1.557992 0.035243 0.016848 -0.014182 -0.005600 0.722923
    41 1.117947 0.048424 -0.005766 -0.007901 -0.010505 0.252446
    42 -0.139399 -0.111698 0.014397 0.285382 -0.030687 1.580508
    43 -6.538158 1.487390 1.916883 1.568636 -0.035177 -0.259193
end
