version 1
nodes
  0 "root" -1
  1 "Bone01" 0
  2 "Bone_Lefthand" 1
  3 "hk-g11_root" 2
  4 "hk-g11_trigger" 3
  5 "hk-g11_bullet" 3
  6 "hk-g11_handle01" 3
  7 "hk-g11_handle02" 6
  8 "Bone_L_Upper" 1
  9 "Bone13" 2
  10 "Bone14" 9
  11 "Bone15" 10
  12 "Bone17" 2
  13 "Bone18" 12
  14 "Bone19" 13
  15 "Bone21" 2
  16 "Bone22" 15
  17 "Bone23" 16
  18 "Bone09" 2
  19 "Bone10" 18
  20 "Bone11" 19
  21 "Bone05" 2
  22 "Bone06" 21
  23 "Bone07" 22
  24 "Bone_Se_Hand-L" 2
  25 "Bone04" 0
  26 "Bone_Righthand" 25
  27 "Bone39" 26
  28 "Bone40" 27
  29 "Bone41" 28
  30 "Bone35" 26
  31 "Bone36" 30
  32 "Bone37" 31
  33 "Bone31" 26
  34 "Bone32" 33
  35 "Bone33" 34
  36 "Bone43" 26
  37 "Bone44" 36
  38 "Bone45" 37
  39 "Bone27" 26
  40 "Bone28" 39
  41 "Bone29" 40
  42 "Bone_Se_Hand-R" 26
  43 "Bone_R_Upper" 25
end
skeleton
  time 0
    0 4.945132 -7.491934 -10.211464 0.000000 -0.075235 -0.000003
    1 7.384263 3.561215 -0.030885 0.750898 -2.386457 -1.389558
    2 -0.071920 -8.498735 -0.104136 0.178716 0.515885 -0.471964
    3 1.301309 -2.858450 0.533806 -0.317190 -0.156087 -3.649922
    4 -0.633172 1.164522 0.000000 0.000000 0.000000 -0.395838
    5 -2.979145 0.600881 0.000002 0.000000 0.000000 1.961197
    6 0.471631 -4.176224 -0.013908 0.390400 -1.570796 0.000000
    7 0.798002 0.010359 -0.002600 0.000002 1.570796 0.000000
    8 1.257180 8.762585 -0.153713 -1.570562 0.002683 -1.566807
    9 -0.488518 -2.755602 -0.228260 -0.721249 -0.081949 -0.452612
    10 0.039887 -1.479790 0.029854 -1.744424 0.000000 0.000001
    11 0.028786 -1.075731 -0.023109 -1.070625 0.000000 0.000000
    12 0.125023 -3.051141 -0.574344 -0.799992 -0.047048 -0.393136
    13 -0.049759 -1.680544 0.100479 -1.558614 0.000000 -0.000002
    14 -0.034142 -1.148312 0.084782 -1.112872 0.000000 0.000000
    15 0.957766 -2.746780 -0.090302 0.273204 -0.158969 -0.144550
    16 -0.033420 -1.397129 -0.011257 -1.872254 0.000000 -0.000001
    17 -0.022360 -0.957436 0.018784 -0.774559 0.000000 0.000000
    18 -1.200213 -2.612689 -0.084481 -0.819559 0.107002 -0.434663
    19 -0.024967 -1.123934 0.017597 -1.746587 0.000000 0.000001
    20 -0.020057 -0.890968 0.010090 -0.424577 0.000000 0.000000
    21 0.583510 -1.197277 0.185379 0.041775 -0.932219 -0.526993
    22 1.535927 0.010246 0.005009 -0.115188 0.228157 -1.325298
    23 1.100771 0.004527 -0.010679 -0.031080 0.118321 -0.649585
    24 0.018587 -0.093240 -0.167774 3.423244 6.142883 -1.288278
    25 -6.817844 -3.649180 0.733114 -0.988728 -5.397259 -0.067634
    26 0.096944 -8.450418 -0.009365 -0.088840 -0.882257 0.488076
    27 0.447953 -2.798986 -0.200443 -0.805857 -0.098878 0.556583
    28 -0.032909 -1.480204 0.004940 -1.135932 0.000000 0.000002
    29 -0.027022 -1.076920 -0.020210 0.165353 0.000000 0.000000
    30 -0.249534 -2.846964 -0.174213 -0.518785 -0.091543 0.444345
    31 0.043235 -1.683941 0.096012 -1.409884 0.002823 -0.000167
    32 0.031729 -1.160830 0.058838 0.106677 0.000642 0.008372
    33 -0.963866 -2.785145 -0.085350 -0.084261 0.036917 0.292995
    34 0.028479 -1.403067 0.006271 -1.244457 0.000000 0.000000
    35 0.021413 -0.957781 0.020046 -0.446116 0.000000 0.000000
    36 1.164475 -2.543940 -0.170330 -0.843965 -0.017414 0.527819
    37 0.024032 -1.129042 0.017807 -1.014874 0.000000 0.000001
    38 0.014898 -0.883989 -0.019848 0.153136 0.000000 0.000000
    39 -0.500830 -1.428545 0.403292 -0.208177 -0.003370 -2.643016
    40 1.522835 0.058681 0.016848 -0.201777 0.008548 0.227673
    41 1.117947 0.048424 -0.005766 0.000081 -0.025198 0.052245
    42 -0.115961 -0.170294 -0.005135 0.565529 0.160611 1.289258
    43 -1.393470 8.839177 -0.239433 1.580804 -0.005023 -1.566847
  time 1
    0 4.945132 -6.339555 -10.211464 0.013914 -0.075217 -0.001060
    1 7.384263 3.561215 -0.030885 0.750898 -2.386457 -1.389558
    2 -0.071920 -8.498735 -0.104136 0.178716 0.515885 -0.471964
    3 1.301309 -2.858450 0.533806 -0.317190 -0.156087 -3.649922
    4 -0.633172 1.164522 0.000000 0.000000 0.000000 -0.395838
    5 -2.979145 0.600881 0.000002 0.000000 0.000000 1.961197
    6 0.471631 -4.176224 -0.013908 0.390400 -1.570796 0.000000
    7 0.798002 0.010359 -0.002600 0.000002 1.570796 0.000000
    8 1.257180 8.762585 -0.153713 -1.570562 0.002683 -1.566807
    9 -0.488518 -2.755602 -0.228260 -0.721249 -0.081949 -0.452612
    10 0.039887 -1.479790 0.029854 -1.744424 0.000000 0.000001
    11 0.028786 -1.075731 -0.023109 -1.070625 0.000000 0.000000
    12 0.125023 -3.051141 -0.574344 -0.799992 -0.047048 -0.393136
    13 -0.049759 -1.680544 0.100479 -1.558614 0.000000 -0.000002
    14 -0.034142 -1.148312 0.084782 -1.112872 0.000000 0.000000
    15 0.957766 -2.746780 -0.090302 0.273204 -0.158969 -0.144550
    16 -0.033420 -1.397129 -0.011257 -1.872254 0.000000 -0.000001
    17 -0.022360 -0.957436 0.018784 -0.794413 0.000000 0.000000
    18 -1.200213 -2.612689 -0.084481 -0.819559 0.107002 -0.434663
    19 -0.024967 -1.123934 0.017597 -1.746587 0.000000 0.000001
    20 -0.020057 -0.890968 0.010090 -0.424577 0.000000 0.000000
    21 0.583510 -1.197277 0.185379 0.041775 -0.932219 -0.526993
    22 1.535927 0.010246 0.005009 -0.115188 0.228157 -1.325298
    23 1.100771 0.004527 -0.010679 -0.031080 0.118321 -0.649585
    24 0.018587 -0.093240 -0.167774 3.423244 6.142883 -1.288278
    25 -6.817844 -3.649180 0.733114 -0.988728 -5.397259 -0.067634
    26 0.096944 -8.450418 -0.009365 -0.088840 -0.882257 0.488076
    27 0.447953 -2.798986 -0.200443 -0.805857 -0.098878 0.556583
    28 -0.032909 -1.480204 0.004940 -1.135932 0.000000 0.000002
    29 -0.027022 -1.076920 -0.020210 0.165353 0.000000 0.000000
    30 -0.249534 -2.846964 -0.174213 -0.518785 -0.091543 0.444345
    31 0.043235 -1.683941 0.096012 -1.409884 0.002823 -0.000167
    32 0.031729 -1.160830 0.058838 0.106677 0.000642 0.008372
    33 -0.963866 -2.785145 -0.085350 -0.084261 0.036917 0.292995
    34 0.028479 -1.403067 0.006271 -1.244457 0.000000 0.000000
    35 0.021413 -0.957781 0.020046 -0.446116 0.000000 0.000000
    36 1.164475 -2.543940 -0.170330 -0.843965 -0.017414 0.527819
    37 0.024032 -1.129042 0.017807 -1.014874 0.000000 0.000001
    38 0.014898 -0.883989 -0.019848 0.153136 0.000000 0.000000
    39 -0.500830 -1.428545 0.403292 -0.208177 -0.003370 -2.643016
    40 1.522835 0.058681 0.016848 -0.201777 0.008548 0.227673
    41 1.117947 0.048424 -0.005766 0.000081 -0.025198 0.052245
    42 -0.115961 -0.170294 -0.005135 0.565529 0.160611 1.289258
    43 -1.393470 8.839177 -0.239433 1.580804 -0.005023 -1.566847
  time 2
    0 4.945132 -5.945011 -10.215370 -0.015700 -0.075180 0.001150
    1 7.384263 3.561215 -0.030885 0.750898 -2.386457 -1.389558
    2 -0.071920 -8.498735 -0.104136 0.178716 0.515885 -0.471964
    3 1.301309 -2.858450 0.533806 -0.317190 -0.156087 -3.649922
    4 -0.633172 1.164522 0.000000 0.000000 0.000000 -0.395838
    5 -2.979145 0.600881 0.000002 0.000000 0.000000 1.961197
    6 0.471631 -4.176224 -0.013908 0.390400 -1.570796 0.000000
    7 0.798002 0.010359 -0.002600 0.000002 1.570796 0.000000
    8 1.257180 8.762585 -0.153713 -1.570562 0.002683 -1.566807
    9 -0.488518 -2.755602 -0.228260 -0.721249 -0.081949 -0.452612
    10 0.039887 -1.479790 0.029854 -1.744424 0.000000 0.000001
    11 0.028786 -1.075731 -0.023109 -1.070625 0.000000 0.000000
    12 0.125023 -3.051141 -0.574344 -0.799992 -0.047048 -0.393136
    13 -0.049759 -1.680544 0.100479 -1.558614 0.000000 -0.000002
    14 -0.034142 -1.148312 0.084782 -1.112872 0.000000 0.000000
    15 0.957766 -2.746780 -0.090302 0.273204 -0.158969 -0.144550
    16 -0.033420 -1.397129 -0.011257 -1.872254 0.000000 -0.000001
    17 -0.022360 -0.957436 0.018784 -0.844048 0.000000 0.000000
    18 -1.200213 -2.612689 -0.084481 -0.819559 0.107002 -0.434663
    19 -0.024967 -1.123934 0.017597 -1.746587 0.000000 0.000001
    20 -0.020057 -0.890968 0.010090 -0.424577 0.000000 0.000000
    21 0.583510 -1.197277 0.185379 0.041775 -0.932219 -0.526993
    22 1.535927 0.010246 0.005009 -0.115188 0.228157 -1.325298
    23 1.100771 0.004527 -0.010679 -0.031080 0.118321 -0.649585
    24 0.018587 -0.093240 -0.167774 3.423244 6.142883 -1.288278
    25 -6.817844 -3.649180 0.733114 -0.988728 -5.397259 -0.067634
    26 0.096944 -8.450418 -0.009365 -0.088840 -0.882257 0.488076
    27 0.447953 -2.798986 -0.200443 -0.805857 -0.098878 0.556583
    28 -0.032909 -1.480204 0.004940 -1.135932 0.000000 0.000002
    29 -0.027022 -1.076920 -0.020210 0.165353 0.000000 0.000000
    30 -0.249534 -2.846964 -0.174213 -0.518785 -0.091543 0.444345
    31 0.043235 -1.683941 0.096012 -1.409884 0.002823 -0.000167
    32 0.031729 -1.160830 0.058838 0.106677 0.000642 0.008372
    33 -0.963866 -2.785145 -0.085350 -0.084261 0.036917 0.292995
    34 0.028479 -1.403067 0.006271 -1.244457 0.000000 0.000000
    35 0.021413 -0.957781 0.020046 -0.446116 0.000000 0.000000
    36 1.164475 -2.543940 -0.170330 -0.843965 -0.017428 0.527819
    37 0.024032 -1.129042 0.017807 -1.014874 0.000000 0.000001
    38 0.014898 -0.883989 -0.019848 0.153136 0.000000 0.000000
    39 -0.500830 -1.428545 0.403292 -0.208177 -0.003370 -2.643016
    40 1.522835 0.058681 0.016848 -0.201777 0.008548 0.227673
    41 1.117947 0.048424 -0.005766 0.000081 -0.025198 0.052245
    42 -0.115961 -0.170294 -0.005135 0.565529 0.160611 1.289258
    43 -1.393470 8.839177 -0.239433 1.580804 -0.005023 -1.566847
  time 3
    0 4.945132 -5.827820 -10.215370 -0.045338 -0.075162 0.003408
    1 7.384263 3.561215 -0.030885 0.750898 -2.386457 -1.389558
    2 -0.071920 -8.498735 -0.104136 0.178716 0.515885 -0.471964
    3 1.301309 -2.858450 0.533806 -0.317190 -0.156087 -3.649922
    4 -0.633172 1.164522 0.000000 0.000000 0.000000 -0.373972
    5 -3.291654 1.358717 0.000002 0.000000 0.000000 1.961197
    6 0.471631 -4.176224 -0.013908 0.390400 -1.570796 0.000000
    7 0.798002 0.010359 -0.002600 0.000002 1.570796 0.000000
    8 1.257180 8.762585 -0.153713 -1.570562 0.002683 -1.566807
    9 -0.488518 -2.755602 -0.228260 -0.721249 -0.081949 -0.452612
    10 0.039887 -1.479790 0.029854 -1.744424 0.000000 0.000001
    11 0.028786 -1.075731 -0.023109 -1.070625 0.000000 0.000000
    12 0.125023 -3.051141 -0.574344 -0.799992 -0.047048 -0.393136
    13 -0.049759 -1.680544 0.100479 -1.558614 0.000000 -0.000002
    14 -0.034142 -1.148312 0.084782 -1.112872 0.000000 0.000000
    15 0.957766 -2.746780 -0.090302 0.273204 -0.158969 -0.144550
    16 -0.033420 -1.397129 -0.011257 -1.758154 0.000000 -0.000001
    17 -0.022360 -0.957436 0.018784 -0.908593 0.000000 0.000000
    18 -1.200213 -2.612689 -0.084481 -0.819559 0.107002 -0.434663
    19 -0.024967 -1.123934 0.017597 -1.746587 0.000000 0.000001
    20 -0.020057 -0.890968 0.010090 -0.424577 0.000000 0.000000
    21 0.583510 -1.197277 0.185379 0.041775 -0.932219 -0.526993
    22 1.535927 0.010246 0.005009 -0.115188 0.228157 -1.325298
    23 1.100771 0.004527 -0.010679 -0.031080 0.118321 -0.649585
    24 0.018587 -0.093240 -0.167774 3.423244 6.142883 -1.288278
    25 -6.817844 -3.649180 0.733114 -0.988728 -5.397259 -0.067634
    26 0.096944 -8.450418 -0.009365 -0.088840 -0.882257 0.488076
    27 0.447953 -2.798986 -0.200443 -0.805857 -0.098878 0.556583
    28 -0.032909 -1.480204 0.004940 -1.135932 0.000000 0.000002
    29 -0.027022 -1.076920 -0.020210 0.165353 0.000000 0.000000
    30 -0.249534 -2.846964 -0.174213 -0.518785 -0.091543 0.444345
    31 0.043235 -1.683941 0.096012 -1.409884 0.002823 -0.000167
    32 0.031729 -1.160830 0.058838 0.106677 0.000642 0.008372
    33 -0.963866 -2.785145 -0.085350 -0.084261 0.036917 0.292995
    34 0.028479 -1.403067 0.006271 -1.244457 0.000000 0.000000
    35 0.021413 -0.957781 0.020046 -0.446116 0.000000 0.000000
    36 1.164475 -2.543940 -0.170330 -0.843965 -0.017414 0.527819
    37 0.024032 -1.129042 0.017807 -1.014874 0.000000 0.000001
    38 0.014898 -0.883989 -0.019848 0.153136 0.000000 0.000000
    39 -0.500830 -1.428545 0.403292 -0.208177 -0.003370 -2.643016
    40 1.522835 0.058681 0.016848 -0.201777 0.008548 0.227673
    41 1.117947 0.048424 -0.005766 0.000081 -0.025198 0.052245
    42 -0.115961 -0.170294 -0.005135 0.565529 0.160611 1.289258
    43 -1.393470 8.839177 -0.239433 1.580804 -0.005023 -1.566847
  time 4
    0 4.945132 -5.898135 -10.191932 -0.043348 -0.075162 0.003216
    1 7.384263 3.561215 -0.030885 0.750898 -2.386457 -1.389558
    2 -0.071920 -8.498735 -0.104136 0.176978 0.517491 -0.475119
    3 1.301309 -2.858450 0.533806 -0.317190 -0.156087 -3.649922
    4 -0.633172 1.164522 0.000000 0.000000 0.000000 -0.314062
    5 -3.979175 3.022830 0.000002 0.000000 0.000000 1.961197
    6 0.471631 -4.176224 -0.013908 0.390400 -1.570796 0.000000
    7 0.798002 0.010359 -0.002600 0.000002 1.570796 0.000000
    8 1.257180 8.762585 -0.153713 -1.570562 0.002683 -1.566807
    9 -0.488518 -2.755602 -0.228260 -0.721249 -0.081949 -0.452612
    10 0.039887 -1.479790 0.029854 -1.744424 0.000000 0.000001
    11 0.028786 -1.075731 -0.023109 -1.070625 0.000000 0.000000
    12 0.125023 -3.051141 -0.574344 -0.799992 -0.047048 -0.393136
    13 -0.049759 -1.680544 0.100479 -1.558614 0.000000 -0.000002
    14 -0.034142 -1.148312 0.084782 -1.112872 0.000000 0.000000
    15 0.957766 -2.746780 -0.090302 0.273204 -0.158969 -0.144550
    16 -0.033420 -1.397129 -0.011257 -1.494566 0.000000 -0.000001
    17 -0.022360 -0.957436 0.018784 -0.973139 0.000000 0.000000
    18 -1.200213 -2.612689 -0.084481 -0.819559 0.107002 -0.434663
    19 -0.024967 -1.123934 0.017597 -1.746587 0.000000 0.000001
    20 -0.020057 -0.890968 0.010090 -0.424577 0.000000 0.000000
    21 0.583510 -1.197277 0.185379 0.041775 -0.932219 -0.526993
    22 1.535927 0.010246 0.005009 -0.115188 0.228157 -1.325298
    23 1.100771 0.004527 -0.010679 -0.031080 0.118321 -0.649585
    24 0.018587 -0.093240 -0.167774 3.423244 6.142883 -1.288278
    25 -6.817844 -3.645274 0.713582 -0.988728 -5.397259 -0.067634
    26 0.096944 -8.450418 -0.009365 -0.085936 -0.886603 0.488199
    27 0.447953 -2.798986 -0.200443 -0.805857 -0.098878 0.556583
    28 -0.032909 -1.480204 0.004940 -1.135932 0.000000 0.000002
    29 -0.027022 -1.076920 -0.020210 0.165353 0.000000 0.000000
    30 -0.249534 -2.846964 -0.174213 -0.518785 -0.091543 0.444345
    31 0.043235 -1.683941 0.096012 -1.409884 0.002823 -0.000167
    32 0.031729 -1.160830 0.058838 0.106677 0.000642 0.008372
    33 -0.963866 -2.785145 -0.085350 -0.084261 0.036917 0.292995
    34 0.028479 -1.403067 0.006271 -1.244457 0.000000 0.000000
    35 0.021413 -0.957781 0.020046 -0.446116 0.000000 0.000000
    36 1.164475 -2.543940 -0.170330 -0.843965 -0.017414 0.527819
    37 0.024032 -1.129042 0.017807 -1.014874 0.000000 0.000001
    38 0.014898 -0.883989 -0.019848 0.153136 0.000000 0.000000
    39 -0.500830 -1.428545 0.403292 -0.205980 -0.003177 -2.644258
    40 1.522835 0.058681 0.016848 -0.201669 0.009166 0.230792
    41 1.117947 0.048424 -0.005766 0.000129 -0.025198 0.050358
    42 -0.115961 -0.170294 -0.005135 0.565529 0.160611 1.289258
    43 -1.393470 8.839177 -0.239433 1.580804 -0.005023 -1.566847
  time 5
    0 4.945132 -6.081734 -10.133337 -0.037919 -0.075162 0.002832
    1 7.384263 3.561215 -0.030885 0.750898 -2.386457 -1.389558
    2 -0.071920 -8.498735 -0.104136 0.172832 0.521326 -0.482635
    3 1.301309 -2.858450 0.533806 -0.317190 -0.156087 -3.649922
    4 -0.633172 1.164522 0.000000 0.000000 0.000000 -0.224507
    5 -4.662790 4.690850 0.000002 0.000000 0.000000 1.961197
    6 0.471631 -4.176224 -0.013908 0.390400 -1.570796 0.000000
    7 0.798002 0.010359 -0.002600 0.000002 1.570796 0.000000
    8 1.257180 8.762585 -0.153713 -1.570562 0.002683 -1.566807
    9 -0.488518 -2.755602 -0.228260 -0.721249 -0.081949 -0.452612
    10 0.039887 -1.479790 0.029854 -1.744424 0.000000 0.000001
    11 0.028786 -1.075731 -0.023109 -1.070625 0.000000 0.000000
    12 0.125023 -3.051141 -0.574344 -0.799992 -0.047048 -0.393136
    13 -0.049759 -1.680544 0.100479 -1.558614 0.000000 -0.000002
    14 -0.034142 -1.148312 0.084782 -1.112872 0.000000 0.000000
    15 0.957766 -2.746780 -0.090302 0.273204 -0.158969 -0.144550
    16 -0.033420 -1.397129 -0.011257 -1.199527 0.000000 -0.000001
    17 -0.022360 -0.957436 0.018784 -1.022774 0.000000 0.000000
    18 -1.200213 -2.612689 -0.084481 -0.819559 0.107002 -0.434663
    19 -0.024967 -1.123934 0.017597 -1.746587 0.000000 0.000001
    20 -0.020057 -0.890968 0.010090 -0.424577 0.000000 0.000000
    21 0.583510 -1.197277 0.185379 0.041775 -0.932219 -0.526993
    22 1.535927 0.010246 0.005009 -0.115188 0.228157 -1.325298
    23 1.100771 0.004527 -0.010679 -0.031080 0.118321 -0.649585
    24 0.018587 -0.093240 -0.167774 3.423244 6.142883 -1.288278
    25 -6.821750 -3.645274 0.666706 -0.988728 -5.397259 -0.067634
    26 0.096944 -8.450418 -0.009365 -0.078997 -0.896999 0.488461
    27 0.447953 -2.798986 -0.200443 -0.805857 -0.098878 0.556583
    28 -0.032909 -1.480204 0.004940 -1.135932 0.000000 0.000002
    29 -0.027022 -1.076920 -0.020210 0.165353 0.000000 0.000000
    30 -0.249534 -2.846964 -0.174213 -0.518785 -0.091543 0.444345
    31 0.043235 -1.683941 0.096012 -1.409884 0.002823 -0.000167
    32 0.031729 -1.160830 0.058838 0.106677 0.000642 0.008372
    33 -0.963866 -2.785145 -0.085350 -0.084261 0.036917 0.292995
    34 0.028479 -1.403067 0.006271 -1.244457 0.000000 0.000000
    35 0.021413 -0.957781 0.020046 -0.446116 0.000000 0.000000
    36 1.164475 -2.543940 -0.170330 -0.843965 -0.017414 0.527819
    37 0.024032 -1.129042 0.017807 -1.014874 0.000000 0.000001
    38 0.014898 -0.883989 -0.019848 0.153136 0.000000 0.000000
    39 -0.500830 -1.428545 0.403292 -0.199776 -0.002674 -2.647728
    40 1.522835 0.058681 0.016848 -0.201345 0.010928 0.239605
    41 1.117947 0.048424 -0.005766 0.000260 -0.025185 0.045033
    42 -0.115961 -0.170294 -0.005135 0.565529 0.160611 1.289258
    43 -1.393470 8.839177 -0.239433 1.580804 -0.005023 -1.566847
  time 6
    0 4.945132 -6.323929 -10.063022 -0.029938 -0.075162 0.002207
    1 7.384263 3.561215 -0.030885 0.750898 -2.386457 -1.389558
    2 -0.071920 -8.498735 -0.104136 0.167882 0.525893 -0.491604
    3 1.301309 -2.858450 0.533806 -0.317190 -0.156087 -3.649922
    4 -0.633172 1.164522 0.000000 0.000000 0.000000 -0.113793
    5 -4.971393 5.444779 0.000002 0.000000 0.000000 1.961197
    6 0.471631 -4.176224 -0.013908 0.390400 -1.570796 0.000000
    7 0.798002 0.010359 -0.002600 0.000002 1.570796 0.000000
    8 1.257180 8.762585 -0.153713 -1.570562 0.002683 -1.566807
    9 -0.488518 -2.755602 -0.228260 -0.721249 -0.081949 -0.452612
    10 0.039887 -1.479790 0.029854 -1.744424 0.000000 0.000001
    11 0.028786 -1.075731 -0.023109 -1.070625 0.000000 0.000000
    12 0.125023 -3.051141 -0.574344 -0.799992 -0.047048 -0.393136
    13 -0.049759 -1.680544 0.100479 -1.558614 0.000000 -0.000002
    14 -0.034142 -1.148312 0.084782 -1.112872 0.000000 0.000000
    15 0.957766 -2.746780 -0.090302 0.273204 -0.158969 -0.144550
    16 -0.033420 -1.397129 -0.011257 -0.991077 0.000000 -0.000001
    17 -0.022360 -0.957436 0.018784 -1.042628 0.000000 0.000000
    18 -1.200213 -2.612689 -0.084481 -0.819559 0.107002 -0.434663
    19 -0.024967 -1.123934 0.017597 -1.746587 0.000000 0.000001
    20 -0.020057 -0.890968 0.010090 -0.424577 0.000000 0.000000
    21 0.583510 -1.197277 0.185379 0.041775 -0.932219 -0.526993
    22 1.535927 0.010246 0.005009 -0.115188 0.228157 -1.325298
    23 1.100771 0.004527 -0.010679 -0.031080 0.118321 -0.649585
    24 0.018587 -0.093240 -0.167774 3.423244 6.142883 -1.288278
    25 -6.825656 -3.645274 0.612017 -0.988728 -5.397259 -0.067634
    26 0.096944 -8.450418 -0.009365 -0.070695 -0.909405 0.488793
    27 0.447953 -2.798986 -0.200443 -0.805857 -0.098878 0.556583
    28 -0.032909 -1.480204 0.004940 -1.135932 0.000000 0.000002
    29 -0.027022 -1.076920 -0.020210 0.165353 0.000000 0.000000
    30 -0.249534 -2.846964 -0.174213 -0.518785 -0.091543 0.444345
    31 0.043235 -1.683941 0.096012 -1.409884 0.002823 -0.000167
    32 0.031729 -1.160830 0.058838 0.106677 0.000642 0.008372
    33 -0.963866 -2.785145 -0.085350 -0.084261 0.036917 0.292995
    34 0.028479 -1.403067 0.006271 -1.244457 0.000000 0.000000
    35 0.021413 -0.957781 0.020046 -0.446116 0.000000 0.000000
    36 1.164475 -2.543940 -0.170330 -0.843965 -0.017414 0.527819
    37 0.024032 -1.129042 0.017807 -1.014874 0.000000 0.000001
    38 0.014898 -0.883989 -0.019848 0.153136 0.000000 0.000000
    39 -0.500830 -1.428545 0.403292 -0.190137 -0.001889 -2.653129
    40 1.522835 0.058681 0.016848 -0.200842 0.013684 0.253330
    41 1.117947 0.048424 -0.005766 0.000476 -0.025173 0.036743
    42 -0.115961 -0.170294 -0.005135 0.565529 0.160611 1.289258
    43 -1.393470 8.839177 -0.239433 1.580804 -0.005023 -1.566847
  time 7
    0 4.945132 -6.581750 -10.004426 -0.020242 -0.075162 0.001486
    1 7.384263 3.561215 -0.030885 0.750898 -2.386457 -1.389558
    2 -0.071920 -8.498735 -0.104136 0.163735 0.529728 -0.499120
    3 1.301309 -2.858450 0.533806 -0.317190 -0.156087 -3.649922
    4 -0.633172 1.164522 0.000000 0.000000 0.000000 0.009592
    5 -4.901078 5.268993 0.000002 0.000000 0.000000 1.961197
    6 0.471631 -4.176224 -0.013908 0.390400 -1.570796 0.000000
    7 0.798002 0.010359 -0.002600 0.000002 1.570796 0.000000
    8 1.257180 8.762585 -0.153713 -1.570562 0.002683 -1.566807
    9 -0.488518 -2.755602 -0.228260 -0.721249 -0.081949 -0.452612
    10 0.039887 -1.479790 0.029854 -1.744424 0.000000 0.000001
    11 0.028786 -1.075731 -0.023109 -1.070625 0.000000 0.000000
    12 0.125023 -3.051141 -0.574344 -0.799992 -0.047048 -0.393136
    13 -0.049759 -1.680544 0.100479 -1.558614 0.000000 -0.000002
    14 -0.034142 -1.148312 0.084782 -1.112839 0.000000 0.000000
    15 0.957766 -2.746780 -0.090302 0.273204 -0.158969 -0.144550
    16 -0.033420 -1.397129 -0.011257 -0.870722 0.000000 -0.000001
    17 -0.022360 -0.957436 0.018784 -1.027798 0.000000 0.000000
    18 -1.200213 -2.612689 -0.084481 -0.819559 0.107002 -0.434663
    19 -0.024967 -1.123934 0.017597 -1.746587 0.000000 0.000001
    20 -0.020057 -0.890968 0.010090 -0.424577 0.000000 0.000000
    21 0.583510 -1.197277 0.185379 0.041775 -0.932219 -0.526993
    22 1.535927 0.010246 0.005009 -0.115188 0.228157 -1.325298
    23 1.100771 0.004527 -0.010679 -0.031080 0.118321 -0.649585
    24 0.018587 -0.093240 -0.167774 3.423244 6.142883 -1.288278
    25 -6.829563 -3.645274 0.565140 -0.988728 -5.397259 -0.067634
    26 0.096944 -8.450418 -0.009365 -0.063756 -0.919781 0.489056
    27 0.447953 -2.798986 -0.200443 -0.805857 -0.098878 0.556583
    28 -0.032909 -1.480204 0.004940 -1.135932 0.000000 0.000002
    29 -0.027022 -1.076920 -0.020210 0.165353 0.000000 0.000000
    30 -0.249534 -2.846964 -0.174213 -0.518785 -0.091543 0.444345
    31 0.043235 -1.683941 0.096012 -1.409884 0.002823 -0.000167
    32 0.031729 -1.160830 0.058838 0.106677 0.000642 0.008372
    33 -0.963866 -2.785145 -0.085350 -0.084261 0.036917 0.292995
    34 0.028479 -1.403067 0.006271 -1.244457 0.000000 0.000000
    35 0.021413 -0.957781 0.020046 -0.446116 0.000000 0.000000
    36 1.164475 -2.543940 -0.170330 -0.843965 -0.017414 0.527819
    37 0.024032 -1.129042 0.017807 -1.014874 0.000000 0.000001
    38 0.014898 -0.883989 -0.019848 0.153136 0.000000 0.000000
    39 -0.500830 -1.428545 0.403292 -0.177620 -0.000852 -2.660136
    40 1.522835 0.058681 0.016848 -0.200183 0.017238 0.271073
    41 1.117947 0.048424 -0.005766 0.000740 -0.025147 0.025993
    42 -0.115961 -0.170294 -0.005135 0.565529 0.160611 1.289258
    43 -1.393470 8.839177 -0.239433 1.580804 -0.005023 -1.566847
  time 8
    0 4.945132 -6.796600 -9.980988 -0.009684 -0.075162 0.000718
    1 7.384263 3.561215 -0.030885 0.750898 -2.386457 -1.389558
    2 -0.071920 -8.498735 -0.104136 0.161998 0.531346 -0.502256
    3 1.301309 -2.858450 0.533806 -0.317190 -0.156087 -3.649922
    4 -0.633172 1.164522 0.000000 0.000000 0.000000 0.137221
    5 -4.764355 4.940858 0.000002 0.000000 0.000000 1.961197
    6 0.471631 -4.176224 -0.013908 0.390400 -1.570796 0.000000
    7 0.798002 0.010359 -0.002600 0.000002 1.570796 0.000000
    8 1.257180 8.762585 -0.153713 -1.570562 0.002683 -1.566807
    9 -0.488518 -2.755602 -0.228260 -0.721249 -0.081949 -0.452612
    10 0.039887 -1.479790 0.029854 -1.744424 0.000000 0.000001
    11 0.028786 -1.075731 -0.023109 -1.070625 0.000000 0.000000
    12 0.125023 -3.051141 -0.574344 -0.799992 -0.047048 -0.393136
    13 -0.049759 -1.680544 0.100479 -1.558614 0.000000 -0.000002
    14 -0.034142 -1.148312 0.084782 -1.112872 0.000000 0.000000
    15 0.957766 -2.746780 -0.090302 0.273204 -0.158969 -0.144550
    16 -0.033420 -1.397129 -0.011257 -0.762935 0.000000 -0.000001
    17 -0.022360 -0.957436 0.018784 -0.989496 0.000000 0.000000
    18 -1.200213 -2.612689 -0.084481 -0.819559 0.107002 -0.434663
    19 -0.024967 -1.123934 0.017597 -1.746587 0.000000 0.000001
    20 -0.020057 -0.890968 0.010090 -0.424577 0.000000 0.000000
    21 0.583510 -1.197277 0.185379 0.041775 -0.932219 -0.526993
    22 1.535927 0.010246 0.005009 -0.115188 0.228157 -1.325298
    23 1.100771 0.004527 -0.010679 -0.031080 0.118321 -0.649585
    24 0.018587 -0.093240 -0.167774 3.423244 6.142883 -1.288278
    25 -6.833469 -3.645274 0.545608 -0.988728 -5.397259 -0.067634
    26 0.096944 -8.450418 -0.009365 -0.060826 -0.924147 0.489161
    27 0.447953 -2.798986 -0.200443 -0.805857 -0.098878 0.556583
    28 -0.032909 -1.480204 0.004940 -1.135932 0.000000 0.000002
    29 -0.027022 -1.076920 -0.020210 0.165353 0.000000 0.000000
    30 -0.249534 -2.846964 -0.174213 -0.518785 -0.091543 0.444345
    31 0.043235 -1.683941 0.096012 -1.409884 0.002823 -0.000167
    32 0.031729 -1.160830 0.058838 0.106677 0.000642 0.008372
    33 -0.963866 -2.785145 -0.085350 -0.084261 0.036917 0.292995
    34 0.028479 -1.403067 0.006271 -1.244457 0.000000 0.000000
    35 0.021413 -0.957781 0.020046 -0.446116 0.000000 0.000000
    36 1.164475 -2.543940 -0.170330 -0.843965 -0.017414 0.527819
    37 0.024032 -1.129042 0.017807 -1.014874 0.000000 0.000001
    38 0.014898 -0.883989 -0.019848 0.153136 0.000000 0.000000
    39 -0.500830 -1.428545 0.403292 -0.162829 0.000363 -2.668439
    40 1.522835 0.058681 0.016848 -0.199416 0.021455 0.292129
    41 1.117947 0.048424 -0.005766 0.001063 -0.025122 0.013271
    42 -0.115961 -0.170294 -0.005135 0.565529 0.160611 1.289258
    43 -1.393470 8.839177 -0.239433 1.580804 -0.005023 -1.566847
  time 9
    0 4.945132 -7.003638 -10.012239 0.000851 -0.075180 -0.000099
    1 7.384263 3.561215 -0.030885 0.750898 -2.386457 -1.389558
    2 -0.071920 -8.498735 -0.104136 0.163316 0.530123 -0.499885
    3 1.301309 -2.858450 0.533806 -0.317190 -0.156087 -3.649922
    4 -0.633172 1.164522 0.000000 0.000000 0.000000 0.260607
    5 -4.694041 4.765071 0.000002 0.000000 0.000000 1.961197
    6 0.471631 -4.176224 -0.013908 0.390400 -1.570796 0.000000
    7 0.798002 0.010359 -0.002600 0.000002 1.570796 0.000000
    8 1.257180 8.762585 -0.153713 -1.570562 0.002683 -1.566807
    9 -0.488518 -2.755602 -0.228260 -0.721249 -0.081949 -0.452612
    10 0.039887 -1.479790 0.029854 -1.744424 0.000000 0.000001
    11 0.028786 -1.075731 -0.023109 -1.070625 0.000000 0.000000
    12 0.125023 -3.051141 -0.574344 -0.799992 -0.047048 -0.393136
    13 -0.049759 -1.680544 0.100479 -1.558614 0.000000 -0.000002
    14 -0.034142 -1.148312 0.084782 -1.112872 0.000000 0.000000
    15 0.957766 -2.746780 -0.090302 0.273204 -0.158969 -0.144550
    16 -0.033420 -1.397129 -0.011257 -0.669801 0.000000 -0.000001
    17 -0.022360 -0.957436 0.018784 -0.937128 0.000000 0.000000
    18 -1.200213 -2.612689 -0.084481 -0.819559 0.107002 -0.434663
    19 -0.024967 -1.123934 0.017597 -1.746587 0.000000 0.000001
    20 -0.020057 -0.890968 0.010090 -0.424577 0.000000 0.000000
    21 0.583510 -1.197277 0.185379 0.041775 -0.932219 -0.526993
    22 1.535927 0.010246 0.005009 -0.115188 0.228157 -1.325298
    23 1.100771 0.004527 -0.010679 -0.031080 0.118321 -0.649585
    24 0.018587 -0.093240 -0.167774 3.423244 6.142883 -1.288278
    25 -6.829563 -3.645274 0.561234 -0.988728 -5.397259 -0.067634
    26 0.096944 -8.450418 -0.009365 -0.063190 -0.920854 0.489108
    27 0.447953 -2.798986 -0.200443 -0.805857 -0.098878 0.556583
    28 -0.032909 -1.480204 0.004940 -1.135932 0.000000 0.000002
    29 -0.027022 -1.076920 -0.020210 0.165353 0.000000 0.000000
    30 -0.249534 -2.846964 -0.174213 -0.518785 -0.091543 0.444345
    31 0.043235 -1.683941 0.096012 -1.409884 0.002823 -0.000167
    32 0.031729 -1.160830 0.058838 0.106677 0.000642 0.008372
    33 -0.963866 -2.785145 -0.085350 -0.084261 0.036917 0.292995
    34 0.028479 -1.403067 0.006271 -1.244457 0.000000 0.000000
    35 0.021413 -0.957781 0.020046 -0.446116 0.000000 0.000000
    36 1.164475 -2.543940 -0.170330 -0.843965 -0.017414 0.527819
    37 0.024032 -1.129042 0.017807 -1.014874 0.000000 0.000001
    38 0.014898 -0.883989 -0.019848 0.153136 0.000000 0.000000
    39 -0.500830 -1.428545 0.403292 -0.146321 0.001711 -2.677687
    40 1.522835 0.058681 0.016848 -0.198553 0.026169 0.315603
    41 1.117947 0.048424 -0.005766 0.001423 -0.025083 -0.000934
    42 -0.115961 -0.170294 -0.005135 0.565529 0.160611 1.289258
    43 -1.393470 8.839177 -0.239433 1.580804 -0.005023 -1.566847
  time 10
    0 4.945132 -7.230207 -10.090367 0.010546 -0.075180 -0.000820
    1 7.384263 3.561215 -0.030885 0.750898 -2.386457 -1.389558
    2 -0.071920 -8.498735 -0.104136 0.166624 0.527091 -0.493899
    3 1.301309 -2.858450 0.533806 -0.317190 -0.156087 -3.649922
    4 -0.633172 1.164522 0.000000 0.000000 0.000000 0.371291
    5 -4.694041 4.765071 0.000002 0.000000 0.000000 1.961197
    6 0.471631 -4.176224 -0.013908 0.390400 -1.570796 0.000000
    7 0.798002 0.010359 -0.002600 0.000002 1.570796 0.000000
    8 1.257180 8.762585 -0.153713 -1.570562 0.002683 -1.566807
    9 -0.488518 -2.755602 -0.228260 -0.721249 -0.081949 -0.452612
    10 0.039887 -1.479790 0.029854 -1.744424 0.000000 0.000001
    11 0.028786 -1.075731 -0.023109 -1.070625 0.000000 0.000000
    12 0.125023 -3.051141 -0.574344 -0.799992 -0.047048 -0.393136
    13 -0.049759 -1.680544 0.100479 -1.558614 0.000000 -0.000002
    14 -0.034142 -1.148312 0.084782 -1.112872 0.000000 0.000000
    15 0.957766 -2.746780 -0.090302 0.273204 -0.158969 -0.144550
    16 -0.033420 -1.397129 -0.011257 -0.593580 0.000000 -0.000001
    17 -0.022360 -0.957436 0.018784 -0.880058 0.000000 0.000000
    18 -1.200213 -2.612689 -0.084481 -0.819559 0.107002 -0.434663
    19 -0.024967 -1.123934 0.017597 -1.746587 0.000000 0.000001
    20 -0.020057 -0.890968 0.010090 -0.424577 0.000000 0.000000
    21 0.583510 -1.197277 0.185379 0.041775 -0.932219 -0.526993
    22 1.535927 0.010246 0.005009 -0.115188 0.228157 -1.325298
    23 1.100771 0.004527 -0.010679 -0.031080 0.118321 -0.649585
    24 0.018587 -0.093240 -0.167774 3.423244 6.142883 -1.288278
    25 -6.829563 -3.645274 0.596391 -0.988728 -5.397259 -0.067634
    26 0.096944 -8.450418 -0.009365 -0.068999 -0.912583 0.488951
    27 0.447953 -2.798986 -0.200443 -0.805857 -0.098878 0.556583
    28 -0.032909 -1.480204 0.004940 -1.135932 0.000000 0.000002
    29 -0.027022 -1.076920 -0.020210 0.165353 0.000000 0.000000
    30 -0.249534 -2.846964 -0.174213 -0.518785 -0.091543 0.444345
    31 0.043235 -1.683941 0.096012 -1.409884 0.002823 -0.000167
    32 0.031729 -1.160830 0.058838 0.106677 0.000642 0.008372
    33 -0.963866 -2.785145 -0.085350 -0.084261 0.036917 0.292995
    34 0.028479 -1.403067 0.006271 -1.244457 0.000000 0.000000
    35 0.021413 -0.957781 0.020046 -0.446116 0.000000 0.000000
    36 1.164475 -2.543940 -0.170330 -0.843965 -0.017414 0.527819
    37 0.024032 -1.129042 0.017807 -1.014874 0.000000 0.000001
    38 0.014898 -0.883989 -0.019848 0.153136 0.000000 0.000000
    39 -0.500830 -1.428545 0.403292 -0.128652 0.003162 -2.687583
    40 1.522835 0.058681 0.016848 -0.197642 0.031199 0.340715
    41 1.117947 0.048424 -0.005766 0.001794 -0.025058 -0.016116
    42 -0.115961 -0.170294 -0.005135 0.565529 0.160611 1.289258
    43 -1.393470 8.839177 -0.239433 1.580804 -0.005023 -1.566847
  time 11
    0 4.945132 -7.437245 -10.184119 0.018540 -0.075180 -0.001396
    1 7.384263 3.561215 -0.030885 0.750898 -2.386457 -1.389558
    2 -0.071920 -8.498735 -0.104136 0.170950 0.523112 -0.486077
    3 1.301309 -2.858450 0.533806 -0.317190 -0.156087 -3.649922
    4 -0.633172 1.164522 0.000000 0.000000 0.000000 0.460846
    5 -4.694041 4.765071 0.000002 0.000000 0.000000 1.961197
    6 0.471631 -4.176224 -0.013908 0.390400 -1.570796 0.000000
    7 0.798002 0.010359 -0.002600 0.000002 1.570796 0.000000
    8 1.257180 8.762585 -0.153713 -1.570562 0.002683 -1.566807
    9 -0.488518 -2.755602 -0.228260 -0.721249 -0.081949 -0.452612
    10 0.039887 -1.479790 0.029854 -1.744424 0.000000 0.000001
    11 0.028786 -1.075731 -0.023109 -1.070625 0.000000 0.000000
    12 0.125023 -3.051141 -0.574344 -0.799992 -0.047060 -0.393136
    13 -0.049759 -1.680544 0.100479 -1.558614 0.000000 -0.000002
    14 -0.034142 -1.148312 0.084782 -1.112872 0.000000 0.000000
    15 0.957766 -2.746780 -0.090302 0.273204 -0.158969 -0.144550
    16 -0.033420 -1.397129 -0.011257 -0.536472 0.000000 -0.000001
    17 -0.022360 -0.957436 0.018784 -0.827731 0.000000 0.000000
    18 -1.200213 -2.612689 -0.084481 -0.819559 0.107002 -0.434663
    19 -0.024967 -1.123934 0.017597 -1.746587 0.000000 0.000001
    20 -0.020057 -0.890968 0.010090 -0.424577 0.000000 0.000000
    21 0.583510 -1.197277 0.185379 0.041775 -0.932219 -0.526993
    22 1.535927 0.010246 0.005009 -0.115188 0.228157 -1.325298
    23 1.100771 0.004527 -0.010679 -0.031080 0.118321 -0.649585
    24 0.018587 -0.093240 -0.167774 3.423244 6.142883 -1.288278
    25 -6.825656 -3.645274 0.647174 -0.988728 -5.397259 -0.067634
    26 0.096944 -8.450418 -0.009365 -0.076452 -0.901766 0.488723
    27 0.447953 -2.798986 -0.200443 -0.805857 -0.098878 0.556583
    28 -0.032909 -1.480204 0.004940 -1.135932 0.000000 0.000002
    29 -0.027022 -1.076920 -0.020210 0.165353 0.000000 0.000000
    30 -0.249534 -2.846964 -0.174213 -0.518785 -0.091543 0.444345
    31 0.043235 -1.683941 0.096012 -1.409884 0.002823 -0.000167
    32 0.031729 -1.160830 0.058838 0.106677 0.000642 0.008372
    33 -0.963866 -2.785145 -0.085350 -0.084261 0.036917 0.292995
    34 0.028479 -1.403067 0.006271 -1.244457 0.000000 0.000000
    35 0.021413 -0.957781 0.020046 -0.446116 0.000000 0.000000
    36 1.164475 -2.543940 -0.170330 -0.843965 -0.017414 0.527819
    37 0.024032 -1.129042 0.017807 -1.014874 0.000000 0.000001
    38 0.014898 -0.883989 -0.019848 0.153136 0.000000 0.000000
    39 -0.500830 -1.428545 0.403292 -0.110427 0.004658 -2.697803
    40 1.522835 0.058681 0.016848 -0.196683 0.036395 0.366606
    41 1.117947 0.048424 -0.005766 0.002190 -0.025020 -0.031804
    42 -0.115961 -0.170294 -0.005135 0.565529 0.160611 1.289258
    43 -1.393470 8.839177 -0.239433 1.580804 -0.005023 -1.566847
  time 12
    0 4.945132 -7.589593 -10.277872 0.023957 -0.075198 -0.001829
    1 7.384263 3.561215 -0.030885 0.750898 -2.386457 -1.389558
    2 -0.071920 -8.498735 -0.104136 0.175300 0.519073 -0.478179
    3 1.301309 -2.858450 0.533806 -0.317190 -0.156087 -3.649922
    4 -0.633172 1.164522 0.000000 0.000000 0.000000 0.520786
    5 -4.694041 4.765071 0.000002 0.000000 0.000000 1.961197
    6 0.471631 -4.176224 -0.013908 0.390400 -1.570796 0.000000
    7 0.798002 0.010359 -0.002600 0.000002 1.570796 0.000000
    8 1.257180 8.762585 -0.153713 -1.570562 0.002683 -1.566807
    9 -0.488518 -2.755602 -0.228260 -0.721249 -0.081949 -0.452612
    10 0.039887 -1.479790 0.029854 -1.744424 0.000000 0.000001
    11 0.028786 -1.075731 -0.023109 -1.070625 0.000000 0.000000
    12 0.125023 -3.051141 -0.574344 -0.799992 -0.047060 -0.393136
    13 -0.049759 -1.680544 0.100479 -1.558614 0.000000 -0.000002
    14 -0.034142 -1.148312 0.084782 -1.112839 0.000000 0.000000
    15 0.957766 -2.746780 -0.090302 0.273204 -0.158969 -0.144550
    16 -0.033420 -1.397129 -0.011257 -0.500562 0.000000 -0.000001
    17 -0.022360 -0.957436 0.018784 -0.789429 0.000000 0.000000
    18 -1.200213 -2.612689 -0.084481 -0.819559 0.107002 -0.434663
    19 -0.024967 -1.123934 0.017597 -1.746587 0.000000 0.000001
    20 -0.020057 -0.890968 0.010090 -0.424577 0.000000 0.000000
    21 0.583510 -1.197277 0.185379 0.041775 -0.932219 -0.526993
    22 1.535927 0.010246 0.005009 -0.115188 0.228157 -1.325298
    23 1.100771 0.004527 -0.010679 -0.031080 0.118321 -0.649585
    24 0.018587 -0.093240 -0.167774 3.423244 6.142883 -1.288278
    25 -6.821750 -3.645274 0.694050 -0.988728 -5.397259 -0.067634
    26 0.096944 -8.450418 -0.009365 -0.083674 -0.890834 0.488426
    27 0.447953 -2.798986 -0.200443 -0.805857 -0.098878 0.556583
    28 -0.032909 -1.480204 0.004940 -1.135932 0.000000 0.000002
    29 -0.027022 -1.076920 -0.020210 0.165353 0.000000 0.000000
    30 -0.249534 -2.846964 -0.174213 -0.518785 -0.091543 0.444345
    31 0.043235 -1.683941 0.096012 -1.409884 0.002823 -0.000167
    32 0.031729 -1.160830 0.058838 0.106677 0.000642 0.008372
    33 -0.963866 -2.785145 -0.085350 -0.084261 0.036917 0.292995
    34 0.028479 -1.403067 0.006271 -1.244457 0.000000 0.000000
    35 0.021413 -0.957781 0.020046 -0.446116 0.000000 0.000000
    36 1.164475 -2.543940 -0.170330 -0.843965 -0.017414 0.527819
    37 0.024032 -1.129042 0.017807 -1.014874 0.000000 0.000001
    38 0.014898 -0.883989 -0.019848 0.153136 0.000000 0.000000
    39 -0.500830 -1.428545 0.403292 -0.092185 0.006154 -2.708023
    40 1.522835 0.058681 0.016848 -0.195737 0.041591 0.392537
    41 1.117947 0.048424 -0.005766 0.002585 -0.024981 -0.047474
    42 -0.115961 -0.170294 -0.005135 0.565529 0.160611 1.289258
    43 -1.393470 8.839177 -0.239433 1.580804 -0.005023 -1.566847
  time 13
    0 4.945132 -7.652095 -10.344281 0.025959 -0.075198 -0.001973
    1 7.384263 3.561215 -0.030885 0.750898 -2.386457 -1.389558
    2 -0.071920 -8.498735 -0.104136 0.178716 0.515885 -0.471964
    3 1.301309 -2.858450 0.533806 -0.317190 -0.156087 -3.649922
    4 -0.633172 1.164522 0.000000 0.000000 0.000000 0.542622
    5 -4.694041 4.765071 0.000002 0.000000 0.000000 1.961197
    6 0.471631 -4.176224 -0.013908 0.390400 -1.570796 0.000000
    7 0.798002 0.010359 -0.002600 0.000002 1.570796 0.000000
    8 1.257180 8.762585 -0.153713 -1.570562 0.002683 -1.566807
    9 -0.488518 -2.755602 -0.228260 -0.721249 -0.081949 -0.452612
    10 0.039887 -1.479790 0.029854 -1.744424 0.000000 0.000001
    11 0.028786 -1.075731 -0.023109 -1.070625 0.000000 0.000000
    12 0.125023 -3.051141 -0.574344 -0.799992 -0.047048 -0.393136
    13 -0.049759 -1.680544 0.100479 -1.558614 0.000000 -0.000002
    14 -0.034142 -1.148312 0.084782 -1.112872 0.000000 0.000000
    15 0.957766 -2.746780 -0.090302 0.273204 -0.158969 -0.144550
    16 -0.033420 -1.397129 -0.011257 -0.488110 0.000000 -0.000001
    17 -0.022360 -0.957436 0.018784 -0.774559 0.000000 0.000000
    18 -1.200213 -2.612689 -0.084481 -0.819559 0.107002 -0.434663
    19 -0.024967 -1.123934 0.017597 -1.746587 0.000000 0.000001
    20 -0.020057 -0.890968 0.010090 -0.424577 0.000000 0.000000
    21 0.583510 -1.197277 0.185379 0.041775 -0.932219 -0.526993
    22 1.535927 0.010246 0.005009 -0.115188 0.228157 -1.325298
    23 1.100771 0.004527 -0.010679 -0.031080 0.118321 -0.649585
    24 0.018587 -0.093240 -0.167774 3.423244 6.142883 -1.288278
    25 -6.817844 -3.649180 0.733114 -0.988728 -5.397259 -0.067634
    26 0.096944 -8.450418 -0.009365 -0.088840 -0.882257 0.488076
    27 0.447953 -2.798986 -0.200443 -0.805857 -0.098878 0.556583
    28 -0.032909 -1.480204 0.004940 -1.135932 0.000000 0.000002
    29 -0.027022 -1.076920 -0.020210 0.165353 0.000000 0.000000
    30 -0.249534 -2.846964 -0.174213 -0.518785 -0.091543 0.444345
    31 0.043235 -1.683941 0.096012 -1.409884 0.002823 -0.000167
    32 0.031729 -1.160830 0.058838 0.106677 0.000642 0.008372
    33 -0.963866 -2.785145 -0.085350 -0.084261 0.036917 0.292995
    34 0.028479 -1.403067 0.006271 -1.244457 0.000000 0.000000
    35 0.021413 -0.957781 0.020046 -0.446116 0.000000 0.000000
    36 1.164475 -2.543940 -0.170330 -0.843965 -0.017414 0.527819
    37 0.024032 -1.129042 0.017807 -1.014874 0.000000 0.000001
    38 0.014898 -0.883989 -0.019848 0.153136 0.000000 0.000000
    39 -0.500830 -1.428545 0.403292 -0.074532 0.007591 -2.717920
    40 1.522835 0.058681 0.016848 -0.194814 0.046622 0.417649
    41 1.117947 0.048424 -0.005766 0.002969 -0.024956 -0.062656
    42 -0.115961 -0.170294 -0.005135 0.565529 0.160611 1.289258
    43 -1.393470 8.839177 -0.239433 1.580804 -0.005023 -1.566847
  time 14
    0 4.945132 -7.624750 -10.379438 0.025443 -0.075198 -0.001925
    1 7.384263 3.561215 -0.030885 0.750898 -2.386457 -1.389558
    2 -0.071920 -8.498735 -0.104136 0.181425 0.513285 -0.467011
    3 1.301309 -2.858450 0.533806 -0.317190 -0.156087 -3.649922
    4 -0.633172 1.164522 0.000000 0.000000 0.000000 0.542622
    5 -4.694041 4.765071 0.000002 0.000000 0.000000 1.961197
    6 0.471631 -4.176224 -0.013908 0.390400 -1.570796 0.000000
    7 0.798002 0.010359 -0.002600 0.000002 1.570796 0.000000
    8 1.257180 8.762585 -0.153713 -1.570562 0.002683 -1.566807
    9 -0.488518 -2.755602 -0.228260 -0.721249 -0.081949 -0.452612
    10 0.039887 -1.479790 0.029854 -1.744424 0.000000 0.000001
    11 0.028786 -1.075731 -0.023109 -1.070625 0.000000 0.000000
    12 0.125023 -3.051141 -0.574344 -0.799992 -0.047048 -0.393136
    13 -0.049759 -1.680544 0.100479 -1.558614 0.000000 -0.000002
    14 -0.034142 -1.148312 0.084782 -1.112872 0.000000 0.000000
    15 0.957766 -2.746780 -0.090302 0.273204 -0.158969 -0.144550
    16 -0.033420 -1.397129 -0.011257 -0.488110 0.000000 -0.000001
    17 -0.022360 -0.957436 0.018784 -0.774559 0.000000 0.000000
    18 -1.200213 -2.612689 -0.084481 -0.819559 0.107002 -0.434663
    19 -0.024967 -1.123934 0.017597 -1.746587 0.000000 0.000001
    20 -0.020057 -0.890968 0.010090 -0.424577 0.000000 0.000000
    21 0.583510 -1.197277 0.185379 0.041775 -0.932219 -0.526993
    22 1.535927 0.010246 0.005009 -0.115188 0.228157 -1.325298
    23 1.100771 0.004527 -0.010679 -0.031080 0.118321 -0.649585
    24 0.018587 -0.093240 -0.167774 3.423244 6.142883 -1.288278
    25 -6.813937 -3.645274 0.768271 -0.988728 -5.397259 -0.067634
    26 0.096944 -8.450418 -0.009365 -0.092079 -0.875384 0.487621
    27 0.447953 -2.798986 -0.200443 -0.805857 -0.098878 0.556583
    28 -0.032909 -1.480204 0.004940 -1.135932 0.000000 0.000002
    29 -0.027022 -1.076920 -0.020210 0.165353 0.000000 0.000000
    30 -0.249534 -2.846964 -0.174213 -0.518785 -0.091543 0.444345
    31 0.043235 -1.683941 0.096012 -1.409884 0.002823 -0.000167
    32 0.031729 -1.160830 0.058838 0.106677 0.000642 0.008372
    33 -0.963866 -2.785145 -0.085350 -0.084261 0.036917 0.292995
    34 0.028479 -1.403067 0.006271 -1.244457 0.000000 0.000000
    35 0.021413 -0.957781 0.020046 -0.446116 0.000000 0.000000
    36 1.164475 -2.543940 -0.170330 -0.843965 -0.017414 0.527819
    37 0.024032 -1.129042 0.017807 -1.014874 0.000000 0.000001
    38 0.014898 -0.883989 -0.019848 0.153136 0.000000 0.000000
    39 -0.500830 -1.428545 0.403292 -0.058008 0.008953 -2.727181
    40 1.522835 0.058681 0.016848 -0.193963 0.051320 0.441123
    41 1.117947 0.048424 -0.005766 0.003316 -0.024918 -0.076861
    42 -0.115961 -0.170294 -0.005135 0.565529 0.160611 1.289258
    43 -1.393470 8.839177 -0.239433 1.580804 -0.005023 -1.566847
  time 15
    0 4.945132 -7.558342 -10.406783 0.024029 -0.075198 -0.001829
    1 7.384263 3.561215 -0.030885 0.750898 -2.386457 -1.389558
    2 -0.071920 -8.498735 -0.104136 0.184169 0.510612 -0.461943
    3 1.301309 -2.858450 0.533806 -0.317190 -0.156087 -3.649922
    4 -0.633172 1.164522 0.000000 0.000000 0.000000 0.542622
    5 -4.694041 4.765071 0.000002 0.000000 0.000000 1.961197
    6 0.471631 -4.176224 -0.013908 0.390400 -1.570796 0.000000
    7 0.798002 0.010359 -0.002600 0.000002 1.570796 0.000000
    8 1.257180 8.762585 -0.153713 -1.570562 0.002683 -1.566807
    9 -0.488518 -2.755602 -0.228260 -0.721249 -0.081949 -0.452612
    10 0.039887 -1.479790 0.029854 -1.744424 0.000000 0.000001
    11 0.028786 -1.075731 -0.023109 -1.070625 0.000000 0.000000
    12 0.125023 -3.051141 -0.574344 -0.799992 -0.047048 -0.393136
    13 -0.049759 -1.680544 0.100479 -1.558614 0.000000 -0.000002
    14 -0.034142 -1.148312 0.084782 -1.112839 0.000000 0.000000
    15 0.957766 -2.746780 -0.090302 0.273204 -0.158969 -0.144550
    16 -0.033420 -1.397129 -0.011257 -0.488110 0.000000 -0.000001
    17 -0.022360 -0.957436 0.018784 -0.774559 0.000000 0.000000
    18 -1.200213 -2.612689 -0.084481 -0.819559 0.107002 -0.434663
    19 -0.024967 -1.123934 0.017597 -1.746587 0.000000 0.000001
    20 -0.020057 -0.890968 0.010090 -0.424577 0.000000 0.000000
    21 0.583510 -1.197277 0.185379 0.041775 -0.932219 -0.526993
    22 1.535927 0.010246 0.005009 -0.115188 0.228157 -1.325298
    23 1.100771 0.004527 -0.010679 -0.031080 0.118321 -0.649585
    24 0.018587 -0.093240 -0.167774 3.423244 6.142883 -1.288278
    25 -6.813937 -3.645274 0.799522 -0.988728 -5.397259 -0.067634
    26 0.096944 -8.450418 -0.009365 -0.094752 -0.868377 0.487009
    27 0.447953 -2.798986 -0.200443 -0.805857 -0.098878 0.556583
    28 -0.032909 -1.480204 0.004940 -1.135932 0.000000 0.000002
    29 -0.027022 -1.076920 -0.020210 0.165353 0.000000 0.000000
    30 -0.249534 -2.846964 -0.174213 -0.518785 -0.091543 0.444345
    31 0.043235 -1.683941 0.096012 -1.409884 0.002823 -0.000167
    32 0.031729 -1.160830 0.058838 0.106677 0.000642 0.008372
    33 -0.963866 -2.785145 -0.085350 -0.084261 0.036917 0.292995
    34 0.028479 -1.403067 0.006271 -1.244457 0.000000 0.000000
    35 0.021413 -0.957781 0.020046 -0.446116 0.000000 0.000000
    36 1.164475 -2.543940 -0.170330 -0.843965 -0.017414 0.527819
    37 0.024032 -1.129042 0.017807 -1.014874 0.000000 0.000001
    38 0.014898 -0.883989 -0.019848 0.153136 0.000000 0.000000
    39 -0.500830 -1.428545 0.403292 -0.043202 0.010168 -2.735471
    40 1.522835 0.058681 0.016848 -0.193184 0.055537 0.462140
    41 1.117947 0.048424 -0.005766 0.003640 -0.024892 -0.089583
    42 -0.115961 -0.170294 -0.005135 0.565529 0.160611 1.289258
    43 -1.393470 8.839177 -0.239433 1.580804 -0.005023 -1.566847
  time 16
    0 4.945132 -7.464589 -10.426314 0.021896 -0.075198 -0.001684
    1 7.384263 3.561215 -0.030885 0.750898 -2.386457 -1.389558
    2 -0.071920 -8.498735 -0.104136 0.186698 0.508107 -0.457257
    3 1.301309 -2.858450 0.533806 -0.317190 -0.156087 -3.649938
    4 -0.633172 1.164522 0.000000 0.000000 0.000000 0.542622
    5 -4.694041 4.765071 0.000002 0.000000 0.000000 1.961197
    6 0.471631 -4.176224 -0.013908 0.390400 -1.570796 0.000000
    7 0.798002 0.010359 -0.002600 0.000002 1.570796 0.000000
    8 1.257180 8.762585 -0.153713 -1.570562 0.002683 -1.566807
    9 -0.488518 -2.755602 -0.228260 -0.721249 -0.081949 -0.452612
    10 0.039887 -1.479790 0.029854 -1.744424 0.000000 0.000001
    11 0.028786 -1.075731 -0.023109 -1.070625 0.000000 0.000000
    12 0.125023 -3.051141 -0.574344 -0.799992 -0.047048 -0.393136
    13 -0.049759 -1.680544 0.100479 -1.558614 0.000000 -0.000002
    14 -0.034142 -1.148312 0.084782 -1.112872 0.000000 0.000000
    15 0.957766 -2.746780 -0.090302 0.273204 -0.158969 -0.144550
    16 -0.033420 -1.397129 -0.011257 -0.488110 0.000000 -0.000001
    17 -0.022360 -0.957436 0.018784 -0.774559 0.000000 0.000000
    18 -1.200213 -2.612689 -0.084481 -0.819559 0.107002 -0.434663
    19 -0.024967 -1.123934 0.017597 -1.746587 0.000000 0.000001
    20 -0.020057 -0.890968 0.010090 -0.424577 0.000000 0.000000
    21 0.583510 -1.197277 0.185379 0.041775 -0.932219 -0.526993
    22 1.535927 0.010246 0.005009 -0.115188 0.228157 -1.325298
    23 1.100771 0.004527 -0.010679 -0.031080 0.118321 -0.649585
    24 0.018587 -0.093240 -0.167774 3.423244 6.142883 -1.288278
    25 -6.810031 -3.645274 0.830773 -0.988728 -5.397259 -0.067634
    26 0.096944 -8.450418 -0.009365 -0.096808 -0.861867 0.486344
    27 0.447953 -2.798986 -0.200443 -0.805857 -0.098878 0.556583
    28 -0.032909 -1.480204 0.004940 -1.135932 0.000000 0.000002
    29 -0.027022 -1.076920 -0.020210 0.165353 0.000000 0.000000
    30 -0.249534 -2.846964 -0.174213 -0.518785 -0.091543 0.444345
    31 0.043235 -1.683941 0.096012 -1.409884 0.002823 -0.000167
    32 0.031729 -1.160830 0.058838 0.106677 0.000642 0.008372
    33 -0.963866 -2.785145 -0.085350 -0.084261 0.036917 0.292995
    34 0.028479 -1.403067 0.006271 -1.244457 0.000000 0.000000
    35 0.021413 -0.957781 0.020046 -0.446116 0.000000 0.000000
    36 1.164475 -2.543940 -0.170330 -0.843965 -0.017414 0.527819
    37 0.024032 -1.129042 0.017807 -1.014874 0.000000 0.000001
    38 0.014898 -0.883989 -0.019848 0.153136 0.000000 0.000000
    39 -0.500830 -1.428545 0.403292 -0.030700 0.011190 -2.742478
    40 1.522835 0.058681 0.016848 -0.192537 0.059107 0.479921
    41 1.117947 0.048424 -0.005766 0.003904 -0.024867 -0.100333
    42 -0.115961 -0.170294 -0.005135 0.565529 0.160611 1.289258
    43 -1.393470 8.839177 -0.239433 1.580804 -0.005023 -1.566847
  time 17
    0 4.945132 -7.355211 -10.438033 0.019223 -0.075217 -0.001492
    1 7.384263 3.561215 -0.030885 0.750898 -2.386457 -1.389558
    2 -0.071920 -8.498735 -0.104136 0.188807 0.506010 -0.453356
    3 1.301309 -2.858450 0.533806 -0.317190 -0.156087 -3.649922
    4 -0.633172 1.164522 0.000000 0.000000 0.000000 0.542622
    5 -4.694041 4.765071 0.000002 0.000000 0.000000 1.961197
    6 0.471631 -4.176224 -0.013908 0.390400 -1.570796 0.000000
    7 0.798002 0.010359 -0.002600 0.000002 1.570796 0.000000
    8 1.257180 8.762585 -0.153713 -1.570562 0.002683 -1.566807
    9 -0.488518 -2.755602 -0.228260 -0.721249 -0.081949 -0.452612
    10 0.039887 -1.479790 0.029854 -1.744424 0.000000 0.000001
    11 0.028786 -1.075731 -0.023109 -1.070625 0.000000 0.000000
    12 0.125023 -3.051141 -0.574344 -0.799992 -0.047048 -0.393136
    13 -0.049759 -1.680544 0.100479 -1.558614 0.000000 -0.000002
    14 -0.034142 -1.148312 0.084782 -1.112872 0.000000 0.000000
    15 0.957766 -2.746780 -0.090302 0.273204 -0.158969 -0.144550
    16 -0.033420 -1.397129 -0.011257 -0.488110 0.000000 -0.000001
    17 -0.022360 -0.957436 0.018784 -0.774559 0.000000 0.000000
    18 -1.200213 -2.612689 -0.084481 -0.819559 0.107002 -0.434663
    19 -0.024967 -1.123934 0.017597 -1.746587 0.000000 0.000001
    20 -0.020057 -0.890968 0.010090 -0.424577 0.000000 0.000000
    21 0.583510 -1.197277 0.185379 0.041775 -0.932219 -0.526993
    22 1.535927 0.010246 0.005009 -0.115188 0.228157 -1.325298
    23 1.100771 0.004527 -0.010679 -0.031080 0.118321 -0.649585
    24 0.018587 -0.093240 -0.167774 3.423244 6.142883 -1.288278
    25 -6.810031 -3.645274 0.858118 -0.988728 -5.397259 -0.067634
    26 0.096944 -8.450418 -0.009365 -0.098324 -0.856468 0.485767
    27 0.447953 -2.798986 -0.200443 -0.805857 -0.098878 0.556583
    28 -0.032909 -1.480204 0.004940 -1.135932 0.000000 0.000002
    29 -0.027022 -1.076920 -0.020210 0.165353 0.000000 0.000000
    30 -0.249534 -2.846964 -0.174213 -0.518785 -0.091543 0.444345
    31 0.043235 -1.683941 0.096012 -1.409884 0.002823 -0.000167
    32 0.031729 -1.160830 0.058838 0.106677 0.000642 0.008372
    33 -0.963866 -2.785145 -0.085350 -0.084261 0.036917 0.292995
    34 0.028479 -1.403067 0.006271 -1.244457 0.000000 0.000000
    35 0.021413 -0.957781 0.020046 -0.446116 0.000000 0.000000
    36 1.164475 -2.543940 -0.170330 -0.843965 -0.017414 0.527819
    37 0.024032 -1.129042 0.017807 -1.014874 0.000000 0.000001
    38 0.014898 -0.883989 -0.019848 0.153136 0.000000 0.000000
    39 -0.500830 -1.428545 0.403292 -0.021062 0.011975 -2.747878
    40 1.522835 0.058681 0.016848 -0.192033 0.061848 0.493647
    41 1.117947 0.048424 -0.005766 0.004119 -0.024854 -0.108624
    42 -0.115961 -0.170294 -0.005135 0.565529 0.160611 1.289258
    43 -1.393470 8.839177 -0.239433 1.580804 -0.005023 -1.566847
  time 18
    0 4.945132 -7.249739 -10.441940 0.016191 -0.075217 -0.001252
    1 7.384263 3.561215 -0.030885 0.750898 -2.386457 -1.389558
    2 -0.071920 -8.498735 -0.104136 0.190233 0.504584 -0.450698
    3 1.301309 -2.858450 0.533806 -0.317190 -0.156087 -3.649922
    4 -0.633172 1.164522 0.000000 0.000000 0.000000 0.542622
    5 -4.694041 4.765071 0.000002 0.000000 0.000000 1.961197
    6 0.471631 -4.176224 -0.013908 0.390400 -1.570796 0.000000
    7 0.798002 0.010359 -0.002600 0.000002 1.570796 0.000000
    8 1.257180 8.762585 -0.153713 -1.570562 0.002683 -1.566807
    9 -0.488518 -2.755602 -0.228260 -0.721249 -0.081949 -0.452612
    10 0.039887 -1.479790 0.029854 -1.744424 0.000000 0.000001
    11 0.028786 -1.075731 -0.023109 -1.070625 0.000000 0.000000
    12 0.125023 -3.051141 -0.574344 -0.799992 -0.047048 -0.393136
    13 -0.049759 -1.680544 0.100479 -1.558614 0.000000 -0.000002
    14 -0.034142 -1.148312 0.084782 -1.112872 0.000000 0.000000
    15 0.957766 -2.746780 -0.090302 0.273204 -0.158969 -0.144550
    16 -0.033420 -1.397129 -0.011257 -0.488110 0.000000 -0.000001
    17 -0.022360 -0.957436 0.018784 -0.774559 0.000000 0.000000
    18 -1.200213 -2.612689 -0.084481 -0.819559 0.107002 -0.434663
    19 -0.024967 -1.123934 0.017597 -1.746587 0.000000 0.000001
    20 -0.020057 -0.890968 0.010090 -0.424577 0.000000 0.000000
    21 0.583510 -1.197277 0.185379 0.041775 -0.932219 -0.526993
    22 1.535927 0.010246 0.005009 -0.115188 0.228157 -1.325298
    23 1.100771 0.004527 -0.010679 -0.031080 0.118321 -0.649585
    24 0.018587 -0.093240 -0.167774 3.423244 6.142883 -1.288278
    25 -6.806125 -3.645274 0.873743 -0.988728 -5.397259 -0.067634
    26 0.096944 -8.450418 -0.009365 -0.099224 -0.852773 0.485329
    27 0.447953 -2.798986 -0.200443 -0.805857 -0.098878 0.556583
    28 -0.032909 -1.480204 0.004940 -1.135932 0.000000 0.000002
    29 -0.027022 -1.076920 -0.020210 0.165353 0.000000 0.000000
    30 -0.249534 -2.846964 -0.174213 -0.518785 -0.091543 0.444345
    31 0.043235 -1.683941 0.096012 -1.409884 0.002823 -0.000167
    32 0.031729 -1.160830 0.058838 0.106677 0.000642 0.008372
    33 -0.963866 -2.785145 -0.085350 -0.084261 0.036917 0.292995
    34 0.028479 -1.403067 0.006271 -1.244457 0.000000 0.000000
    35 0.021413 -0.957781 0.020046 -0.446116 0.000000 0.000000
    36 1.164475 -2.543940 -0.170330 -0.843965 -0.017414 0.527819
    37 0.024032 -1.129042 0.017807 -1.014874 0.000000 0.000001
    38 0.014898 -0.883989 -0.019848 0.153136 0.000000 0.000000
    39 -0.500830 -1.428545 0.403292 -0.014857 0.012493 -2.751361
    40 1.522835 0.058681 0.016848 -0.191710 0.063625 0.502460
    41 1.117947 0.048424 -0.005766 0.004251 -0.024841 -0.113965
    42 -0.115961 -0.170294 -0.005135 0.565529 0.160611 1.289258
    43 -1.393470 8.839177 -0.239433 1.580804 -0.005023 -1.566847
  time 19
    0 4.945132 -7.155986 -10.441940 0.012979 -0.075217 -0.001012
    1 7.384263 3.561215 -0.030885 0.750898 -2.386457 -1.389558
    2 -0.071920 -8.498735 -0.104136 0.190761 0.504045 -0.449703
    3 1.301309 -2.858450 0.533806 -0.317190 -0.156087 -3.649938
    4 -0.633172 1.164522 0.000000 0.000000 0.000000 0.542622
    5 -4.694041 4.765071 0.000002 0.000000 0.000000 1.961197
    6 0.471631 -4.176224 -0.013908 0.390400 -1.570796 0.000000
    7 0.798002 0.010359 -0.002600 0.000002 1.570796 0.000000
    8 1.257180 8.762585 -0.153713 -1.570562 0.002683 -1.566807
    9 -0.488518 -2.755602 -0.228260 -0.721249 -0.081949 -0.452612
    10 0.039887 -1.479790 0.029854 -1.744424 0.000000 0.000001
    11 0.028786 -1.075731 -0.023109 -1.070625 0.000000 0.000000
    12 0.125023 -3.051141 -0.574344 -0.799992 -0.047048 -0.393136
    13 -0.049759 -1.680544 0.100479 -1.558614 0.000000 -0.000002
    14 -0.034142 -1.148312 0.084782 -1.112872 0.000000 0.000000
    15 0.957766 -2.746780 -0.090302 0.273204 -0.158969 -0.144550
    16 -0.033420 -1.397129 -0.011257 -0.488110 0.000000 -0.000001
    17 -0.022360 -0.957436 0.018784 -0.774559 0.000000 0.000000
    18 -1.200213 -2.612689 -0.084481 -0.819559 0.107002 -0.434663
    19 -0.024967 -1.123934 0.017597 -1.746587 0.000000 0.000001
    20 -0.020057 -0.890968 0.010090 -0.424577 0.000000 0.000000
    21 0.583510 -1.197277 0.185379 0.041775 -0.932219 -0.526993
    22 1.535927 0.010246 0.005009 -0.115188 0.228157 -1.325298
    23 1.100771 0.004527 -0.010679 -0.031080 0.118321 -0.649585
    24 0.018587 -0.093240 -0.167774 3.423244 6.142883 -1.288278
    25 -6.806125 -3.645274 0.881556 -0.988728 -5.397259 -0.067634
    26 0.096944 -8.450418 -0.009365 -0.099506 -0.851395 0.485172
    27 0.447953 -2.798986 -0.200443 -0.805857 -0.098878 0.556583
    28 -0.032909 -1.480204 0.004940 -1.135932 0.000000 0.000002
    29 -0.027022 -1.076920 -0.020210 0.165353 0.000000 0.000000
    30 -0.249534 -2.846964 -0.174213 -0.518785 -0.091543 0.444345
    31 0.043235 -1.683941 0.096012 -1.409884 0.002823 -0.000167
    32 0.031729 -1.160830 0.058838 0.106677 0.000642 0.008372
    33 -0.963866 -2.785145 -0.085350 -0.084261 0.036917 0.292995
    34 0.028479 -1.403067 0.006271 -1.244457 0.000000 0.000000
    35 0.021413 -0.957781 0.020046 -0.446116 0.000000 0.000000
    36 1.164475 -2.543940 -0.170330 -0.843965 -0.017414 0.527819
    37 0.024032 -1.129042 0.017807 -1.014874 0.000000 0.000001
    38 0.014898 -0.883989 -0.019848 0.153136 0.000000 0.000000
    39 -0.500830 -1.428545 0.403292 -0.012660 0.012671 -2.752590
    40 1.522835 0.058681 0.016848 -0.191602 0.064242 0.505579
    41 1.117947 0.048424 -0.005766 0.004299 -0.024829 -0.115852
    42 -0.115961 -0.170294 -0.005135 0.565529 0.160611 1.289258
    43 -1.393470 8.839177 -0.239433 1.580804 -0.005023 -1.566847
  time 20
    0 4.945132 -7.062233 -10.430221 0.009755 -0.075217 -0.000772
    1 7.384263 3.561215 -0.030885 0.750898 -2.386457 -1.389558
    2 -0.071920 -8.498735 -0.104136 0.189394 0.505375 -0.452208
    3 1.301309 -2.858450 0.533806 -0.317190 -0.156087 -3.649922
    4 -0.633172 1.164522 0.000000 0.000000 0.000000 0.542622
    5 -4.694041 4.765071 0.000002 0.000000 0.000000 1.961197
    6 0.471631 -4.176224 -0.013908 0.390400 -1.570796 0.000000
    7 0.798002 0.010359 -0.002600 0.000002 1.570796 0.000000
    8 1.257180 8.762585 -0.153713 -1.570562 0.002683 -1.566807
    9 -0.488518 -2.755602 -0.228260 -0.721249 -0.081949 -0.452612
    10 0.039887 -1.479790 0.029854 -1.744424 0.000000 0.000001
    11 0.028786 -1.075731 -0.023109 -1.070625 0.000000 0.000000
    12 0.125023 -3.051141 -0.574344 -0.799992 -0.047060 -0.393136
    13 -0.049759 -1.680544 0.100479 -1.558614 0.000000 -0.000002
    14 -0.034142 -1.148312 0.084782 -1.112872 0.000000 0.000000
    15 0.957766 -2.746780 -0.090302 0.273204 -0.158969 -0.144550
    16 -0.033420 -1.397129 -0.011257 -0.488110 0.000000 -0.000001
    17 -0.022360 -0.957436 0.018784 -0.774559 0.000000 0.000000
    18 -1.200213 -2.612689 -0.084481 -0.819559 0.107002 -0.434663
    19 -0.024967 -1.123934 0.017597 -1.746587 0.000000 0.000001
    20 -0.020057 -0.890968 0.010090 -0.424577 0.000000 0.000000
    21 0.583510 -1.197277 0.185379 0.041775 -0.932219 -0.526993
    22 1.535927 0.010246 0.005009 -0.115188 0.228157 -1.325298
    23 1.100771 0.004527 -0.010679 -0.031080 0.118321 -0.649585
    24 0.018587 -0.093240 -0.167774 3.423244 6.142883 -1.288278
    25 -6.806125 -3.645274 0.869837 -0.988728 -5.397259 -0.067634
    26 0.096944 -8.450418 -0.009365 -0.096885 -0.853501 0.485172
    27 0.447953 -2.798986 -0.200443 -0.805857 -0.098878 0.556583
    28 -0.032909 -1.480204 0.004940 -1.135932 0.000000 0.000002
    29 -0.027022 -1.076920 -0.020210 0.165353 0.000000 0.000000
    30 -0.249534 -2.846964 -0.174213 -0.518785 -0.091543 0.444345
    31 0.043235 -1.683941 0.096012 -1.409884 0.002823 -0.000167
    32 0.031729 -1.160830 0.058838 0.106677 0.000642 0.008372
    33 -0.963866 -2.785145 -0.085350 -0.084261 0.036917 0.292995
    34 0.028479 -1.403067 0.006271 -1.244457 0.000000 0.000000
    35 0.021413 -0.957781 0.020046 -0.446116 0.000000 0.000000
    36 1.164475 -2.543940 -0.170330 -0.843965 -0.017414 0.527819
    37 0.024032 -1.129042 0.017807 -1.014874 0.000000 0.000001
    38 0.014898 -0.883989 -0.019848 0.153136 0.000000 0.000000
    39 -0.500830 -1.428545 0.403292 -0.012660 0.012671 -2.752590
    40 1.522835 0.058681 0.016848 -0.191602 0.064242 0.505579
    41 1.117947 0.048424 -0.005766 0.004299 -0.024829 -0.115852
    42 -0.115961 -0.170294 -0.005135 0.565529 0.160611 1.289258
    43 -1.393470 8.839177 -0.239433 1.580804 -0.005023 -1.566847
  time 21
    0 4.945132 -6.952855 -10.391157 0.006723 -0.075235 -0.000531
    1 7.384263 3.561215 -0.030885 0.750898 -2.386457 -1.389558
    2 -0.071920 -8.498735 -0.104136 0.185991 0.508671 -0.458481
    3 1.301309 -2.858450 0.533806 -0.317190 -0.156087 -3.649922
    4 -0.633172 1.164522 0.000000 0.000000 0.000000 0.542622
    5 -4.694041 4.765071 0.000002 0.000000 0.000000 1.961197
    6 0.471631 -4.176224 -0.013908 0.390400 -1.570796 0.000000
    7 0.798002 0.010359 -0.002600 0.000002 1.570796 0.000000
    8 1.257180 8.762585 -0.153713 -1.570562 0.002683 -1.566807
    9 -0.488518 -2.755602 -0.228260 -0.721249 -0.081949 -0.452612
    10 0.039887 -1.479790 0.029854 -1.744424 0.000000 0.000001
    11 0.028786 -1.075731 -0.023109 -1.070625 0.000000 0.000000
    12 0.125023 -3.051141 -0.574344 -0.799992 -0.047048 -0.393136
    13 -0.049759 -1.680544 0.100479 -1.558614 0.000000 -0.000002
    14 -0.034142 -1.148312 0.084782 -1.112872 0.000000 0.000000
    15 0.957766 -2.746780 -0.090302 0.273204 -0.158969 -0.144550
    16 -0.033420 -1.397129 -0.011257 -0.488110 0.000000 -0.000001
    17 -0.022360 -0.957436 0.018784 -0.774559 0.000000 0.000000
    18 -1.200213 -2.612689 -0.084481 -0.819559 0.107002 -0.434663
    19 -0.024967 -1.123934 0.017597 -1.746587 0.000000 0.000001
    20 -0.020057 -0.890968 0.010090 -0.424577 0.000000 0.000000
    21 0.583510 -1.197277 0.185379 0.041775 -0.932219 -0.526993
    22 1.535927 0.010246 0.005009 -0.115188 0.228157 -1.325298
    23 1.100771 0.004527 -0.010679 -0.031080 0.118321 -0.649585
    24 0.018587 -0.093240 -0.167774 3.423244 6.142883 -1.288278
    25 -6.810031 -3.645274 0.838586 -0.988728 -5.397259 -0.067634
    26 0.096944 -8.450418 -0.009365 -0.090331 -0.858785 0.485172
    27 0.447953 -2.798986 -0.200443 -0.805857 -0.098878 0.556583
    28 -0.032909 -1.480204 0.004940 -1.135932 0.000000 0.000002
    29 -0.027022 -1.076920 -0.020210 0.165353 0.000000 0.000000
    30 -0.249534 -2.846964 -0.174213 -0.518785 -0.091543 0.444345
    31 0.043235 -1.683941 0.096012 -1.409884 0.002823 -0.000167
    32 0.031729 -1.160830 0.058838 0.106677 0.000642 0.008372
    33 -0.963866 -2.785145 -0.085350 -0.084261 0.036917 0.292995
    34 0.028479 -1.403067 0.006271 -1.244457 0.000000 0.000000
    35 0.021413 -0.957781 0.020046 -0.446116 0.000000 0.000000
    36 1.164475 -2.543940 -0.170330 -0.843965 -0.017414 0.527819
    37 0.024032 -1.129042 0.017807 -1.014874 0.000000 0.000001
    38 0.014898 -0.883989 -0.019848 0.153136 0.000000 0.000000
    39 -0.500830 -1.428545 0.403292 -0.012660 0.012671 -2.752590
    40 1.522835 0.058681 0.016848 -0.191602 0.064242 0.505579
    41 1.117947 0.048424 -0.005766 0.004299 -0.024829 -0.115852
    42 -0.115961 -0.170294 -0.005135 0.565529 0.160611 1.289258
    43 -1.393470 8.839177 -0.239433 1.580804 -0.005023 -1.566847
  time 22
    0 4.945132 -6.843476 -10.344281 0.004051 -0.075235 -0.000339
    1 7.384263 3.561215 -0.030885 0.750898 -2.386457 -1.389558
    2 -0.071920 -8.498735 -0.104136 0.181568 0.512961 -0.466628
    3 1.301309 -2.858450 0.533806 -0.317190 -0.156087 -3.649922
    4 -0.633172 1.164522 0.000000 0.000000 0.000000 0.542622
    5 -4.694041 4.765071 0.000002 0.000000 0.000000 1.961197
    6 0.471631 -4.176224 -0.013908 0.390400 -1.570796 0.000000
    7 0.798002 0.010359 -0.002600 0.000002 1.570796 0.000000
    8 1.257180 8.762585 -0.153713 -1.570562 0.002683 -1.566807
    9 -0.488518 -2.755602 -0.228260 -0.721249 -0.081949 -0.452612
    10 0.039887 -1.479790 0.029854 -1.744424 0.000000 0.000001
    11 0.028786 -1.075731 -0.023109 -1.070625 0.000000 0.000000
    12 0.125023 -3.051141 -0.574344 -0.799992 -0.047048 -0.393136
    13 -0.049759 -1.680544 0.100479 -1.558614 0.000000 -0.000002
    14 -0.034142 -1.148312 0.084782 -1.112872 0.000000 0.000000
    15 0.957766 -2.746780 -0.090302 0.273204 -0.158969 -0.144550
    16 -0.033420 -1.397129 -0.011257 -0.488110 0.000000 -0.000001
    17 -0.022360 -0.957436 0.018784 -0.774559 0.000000 0.000000
    18 -1.200213 -2.612689 -0.084481 -0.819559 0.107002 -0.434663
    19 -0.024967 -1.123934 0.017597 -1.746587 0.000000 0.000001
    20 -0.020057 -0.890968 0.010090 -0.424577 0.000000 0.000000
    21 0.583510 -1.197277 0.185379 0.041775 -0.932219 -0.526993
    22 1.535927 0.010246 0.005009 -0.115188 0.228157 -1.325298
    23 1.100771 0.004527 -0.010679 -0.031080 0.118321 -0.649585
    24 0.018587 -0.093240 -0.167774 3.423244 6.142883 -1.288278
    25 -6.813937 -3.645274 0.795616 -0.988728 -5.397259 -0.067634
    26 0.096944 -8.450418 -0.009365 -0.081772 -0.865696 0.485207
    27 0.447953 -2.798986 -0.200443 -0.805857 -0.098878 0.556583
    28 -0.032909 -1.480204 0.004940 -1.135932 0.000000 0.000002
    29 -0.027022 -1.076920 -0.020210 0.165353 0.000000 0.000000
    30 -0.249534 -2.846964 -0.174213 -0.518785 -0.091543 0.444345
    31 0.043235 -1.683941 0.096012 -1.409884 0.002823 -0.000167
    32 0.031729 -1.160830 0.058838 0.106677 0.000642 0.008372
    33 -0.963866 -2.785145 -0.085350 -0.084261 0.036917 0.292995
    34 0.028479 -1.403067 0.006271 -1.244457 0.000000 0.000000
    35 0.021413 -0.957781 0.020046 -0.446116 0.000000 0.000000
    36 1.164475 -2.543940 -0.170330 -0.843965 -0.017414 0.527819
    37 0.024032 -1.129042 0.017807 -1.014874 0.000000 0.000001
    38 0.014898 -0.883989 -0.019848 0.153136 0.000000 0.000000
    39 -0.500830 -1.428545 0.403292 -0.012660 0.012671 -2.752590
    40 1.522835 0.058681 0.016848 -0.191602 0.064242 0.505579
    41 1.117947 0.048424 -0.005766 0.004299 -0.024829 -0.115852
    42 -0.115961 -0.170294 -0.005135 0.565529 0.160611 1.289258
    43 -1.393470 8.839177 -0.239433 1.580804 -0.005023 -1.566847
  time 23
    0 4.945132 -6.749724 -10.297404 0.001918 -0.075235 -0.000147
    1 7.384263 3.561215 -0.030885 0.750898 -2.386457 -1.389558
    2 -0.071920 -8.498735 -0.104136 0.177134 0.517252 -0.474775
    3 1.301309 -2.858450 0.533806 -0.317190 -0.156087 -3.649922
    4 -0.633172 1.164522 0.000000 0.000000 0.000000 0.542622
    5 -4.694041 4.765071 0.000002 0.000000 0.000000 1.961197
    6 0.471631 -4.176224 -0.013908 0.390400 -1.570796 0.000000
    7 0.798002 0.010359 -0.002600 0.000002 1.570796 0.000000
    8 1.257180 8.762585 -0.153713 -1.570562 0.002683 -1.566807
    9 -0.488518 -2.755602 -0.228260 -0.721249 -0.081949 -0.452612
    10 0.039887 -1.479790 0.029854 -1.744424 0.000000 0.000001
    11 0.028786 -1.075731 -0.023109 -1.070625 0.000000 0.000000
    12 0.125023 -3.051141 -0.574344 -0.799992 -0.047048 -0.393136
    13 -0.049759 -1.680544 0.100479 -1.558614 0.000000 -0.000002
    14 -0.034142 -1.148312 0.084782 -1.112872 0.000000 0.000000
    15 0.957766 -2.746780 -0.090302 0.273204 -0.158969 -0.144550
    16 -0.033420 -1.397129 -0.011257 -0.488110 0.000000 -0.000001
    17 -0.022360 -0.957436 0.018784 -0.774559 0.000000 0.000000
    18 -1.200213 -2.612689 -0.084481 -0.819559 0.107002 -0.434663
    19 -0.024967 -1.123934 0.017597 -1.746587 0.000000 0.000001
    20 -0.020057 -0.890968 0.010090 -0.424577 0.000000 0.000000
    21 0.583510 -1.197277 0.185379 0.041775 -0.932219 -0.526993
    22 1.535927 0.010246 0.005009 -0.115188 0.228157 -1.325298
    23 1.100771 0.004527 -0.010679 -0.031080 0.118321 -0.649585
    24 0.018587 -0.093240 -0.167774 3.423244 6.142883 -1.288278
    25 -6.817844 -3.645274 0.752646 -0.988728 -5.397259 -0.067634
    26 0.096944 -8.450418 -0.009365 -0.073239 -0.872684 0.485259
    27 0.447953 -2.798986 -0.200443 -0.805857 -0.098878 0.556583
    28 -0.032909 -1.480204 0.004940 -1.135932 0.000000 0.000002
    29 -0.027022 -1.076920 -0.020210 0.165353 0.000000 0.000000
    30 -0.249534 -2.846964 -0.174213 -0.518785 -0.091543 0.444345
    31 0.043235 -1.683941 0.096012 -1.409884 0.002823 -0.000167
    32 0.031729 -1.160830 0.058838 0.106677 0.000642 0.008372
    33 -0.963866 -2.785145 -0.085350 -0.084261 0.036917 0.292995
    34 0.028479 -1.403067 0.006271 -1.244457 0.000000 0.000000
    35 0.021413 -0.957781 0.020046 -0.446116 0.000000 0.000000
    36 1.164475 -2.543940 -0.170330 -0.843965 -0.017414 0.527819
    37 0.024032 -1.129042 0.017807 -1.014874 0.000000 0.000001
    38 0.014898 -0.883989 -0.019848 0.153136 0.000000 0.000000
    39 -0.500830 -1.428545 0.403292 -0.012660 0.012671 -2.752590
    40 1.522835 0.058681 0.016848 -0.191602 0.064242 0.505579
    41 1.117947 0.048424 -0.005766 0.004299 -0.024829 -0.115852
    42 -0.115961 -0.170294 -0.005135 0.565529 0.160611 1.289258
    43 -1.393470 8.839177 -0.239433 1.580804 -0.005023 -1.566847
  time 24
    0 4.945132 -6.683315 -10.254434 0.000503 -0.075235 -0.000051
    1 7.384263 3.561215 -0.030885 0.750898 -2.386457 -1.389558
    2 -0.071920 -8.498735 -0.104136 0.173730 0.520559 -0.481048
    3 1.301309 -2.858450 0.533806 -0.317190 -0.156087 -3.649922
    4 -0.633172 1.164522 0.000000 0.000000 0.000000 0.542622
    5 -4.694041 4.765071 0.000002 0.000000 0.000000 1.961197
    6 0.471631 -4.176224 -0.013908 0.390400 -1.570796 0.000000
    7 0.798002 0.010359 -0.002600 0.000002 1.570796 0.000000
    8 1.257180 8.762585 -0.153713 -1.570562 0.002683 -1.566807
    9 -0.488518 -2.755602 -0.228260 -0.721249 -0.081949 -0.452612
    10 0.039887 -1.479790 0.029854 -1.744424 0.000000 0.000001
    11 0.028786 -1.075731 -0.023109 -1.070625 0.000000 0.000000
    12 0.125023 -3.051141 -0.574344 -0.799992 -0.047048 -0.393136
    13 -0.049759 -1.680544 0.100479 -1.558614 0.000000 -0.000002
    14 -0.034142 -1.148312 0.084782 -1.112839 0.000000 0.000000
    15 0.957766 -2.746780 -0.090302 0.273204 -0.158969 -0.144550
    16 -0.033420 -1.397129 -0.011257 -0.488110 0.000000 -0.000001
    17 -0.022360 -0.957436 0.018784 -0.774559 0.000000 0.000000
    18 -1.200213 -2.612689 -0.084481 -0.819559 0.107002 -0.434663
    19 -0.024967 -1.123934 0.017597 -1.746587 0.000000 0.000001
    20 -0.020057 -0.890968 0.010090 -0.424577 0.000000 0.000000
    21 0.583510 -1.197277 0.185379 0.041775 -0.932219 -0.526993
    22 1.535927 0.010246 0.005009 -0.115188 0.228157 -1.325298
    23 1.100771 0.004527 -0.010679 -0.031080 0.118321 -0.649585
    24 0.018587 -0.093240 -0.167774 3.423244 6.142883 -1.288278
    25 -6.817844 -3.645274 0.721395 -0.988728 -5.397259 -0.067634
    26 0.096944 -8.450418 -0.009365 -0.066660 -0.878198 0.485329
    27 0.447953 -2.798986 -0.200443 -0.805857 -0.098878 0.556583
    28 -0.032909 -1.480204 0.004940 -1.135932 0.000000 0.000002
    29 -0.027022 -1.076920 -0.020210 0.165353 0.000000 0.000000
    30 -0.249534 -2.846964 -0.174213 -0.518785 -0.091543 0.444345
    31 0.043235 -1.683941 0.096012 -1.409884 0.002823 -0.000167
    32 0.031729 -1.160830 0.058838 0.106677 0.000642 0.008372
    33 -0.963866 -2.785145 -0.085350 -0.084261 0.036917 0.292995
    34 0.028479 -1.403067 0.006271 -1.244457 0.000000 0.000000
    35 0.021413 -0.957781 0.020046 -0.446116 0.000000 0.000000
    36 1.164475 -2.543940 -0.170330 -0.843965 -0.017414 0.527819
    37 0.024032 -1.129042 0.017807 -1.014874 0.000000 0.000001
    38 0.014898 -0.883989 -0.019848 0.153136 0.000000 0.000000
    39 -0.500830 -1.428545 0.403292 -0.012660 0.012671 -2.752590
    40 1.522835 0.058681 0.016848 -0.191602 0.064242 0.505579
    41 1.117947 0.048424 -0.005766 0.004299 -0.024829 -0.115852
    42 -0.115961 -0.170294 -0.005135 0.565529 0.160611 1.289258
    43 -1.393470 8.839177 -0.239433 1.580804 -0.005023 -1.566847
  time 25
    0 4.945132 -6.655971 -10.234902 0.000000 -0.075235 -0.000003
    1 7.384263 3.561215 -0.030885 0.750898 -2.386457 -1.389558
    2 -0.071920 -8.498735 -0.104136 0.172376 0.521878 -0.483553
    3 1.301309 -2.858450 0.533806 -0.317190 -0.156087 -3.649922
    4 -0.633172 1.164522 0.000000 0.000000 0.000000 0.542622
    5 -4.694041 4.765071 0.000002 0.000000 0.000000 1.961197
    6 0.471631 -4.176224 -0.013908 0.390400 -1.570796 0.000000
    7 0.798002 0.010359 -0.002600 0.000002 1.570796 0.000000
    8 1.257180 8.762585 -0.153713 -1.570562 0.002683 -1.566807
    9 -0.488518 -2.755602 -0.228260 -0.721249 -0.081949 -0.452612
    10 0.039887 -1.479790 0.029854 -1.744424 0.000000 0.000001
    11 0.028786 -1.075731 -0.023109 -1.070625 0.000000 0.000000
    12 0.125023 -3.051141 -0.574344 -0.799992 -0.047048 -0.393136
    13 -0.049759 -1.680544 0.100479 -1.558614 0.000000 -0.000002
    14 -0.034142 -1.148312 0.084782 -1.112872 0.000000 0.000000
    15 0.957766 -2.746780 -0.090302 0.273204 -0.158969 -0.144550
    16 -0.033420 -1.397129 -0.011257 -0.488110 0.000000 -0.000001
    17 -0.022360 -0.957436 0.018784 -0.774559 0.000000 0.000000
    18 -1.200213 -2.612689 -0.084481 -0.819559 0.107002 -0.434663
    19 -0.024967 -1.123934 0.017597 -1.746587 0.000000 0.000001
    20 -0.020057 -0.890968 0.010090 -0.424577 0.000000 0.000000
    21 0.583510 -1.197277 0.185379 0.041775 -0.932219 -0.526993
    22 1.535927 0.010246 0.005009 -0.115188 0.228157 -1.325298
    23 1.100771 0.004527 -0.010679 -0.031080 0.118321 -0.649585
    24 0.018587 -0.093240 -0.167774 3.423244 6.142883 -1.288278
    25 -6.817844 -3.649180 0.709676 -0.988728 -5.397259 -0.067634
    26 0.096944 -8.450418 -0.009365 -0.064038 -0.880706 0.485452
    27 0.447953 -2.798986 -0.200443 -0.805857 -0.098878 0.556583
    28 -0.032909 -1.480204 0.004940 -1.135932 0.000000 0.000002
    29 -0.027022 -1.076920 -0.020210 0.165353 0.000000 0.000000
    30 -0.249534 -2.846964 -0.174213 -0.518785 -0.091543 0.444345
    31 0.043235 -1.683941 0.096012 -1.409884 0.002823 -0.000167
    32 0.031729 -1.160830 0.058838 0.106677 0.000642 0.008372
    33 -0.963866 -2.785145 -0.085350 -0.084261 0.036917 0.292995
    34 0.028479 -1.403067 0.006271 -1.244457 0.000000 0.000000
    35 0.021413 -0.957781 0.020046 -0.446116 0.000000 0.000000
    36 1.164475 -2.543940 -0.170330 -0.843965 -0.017414 0.527819
    37 0.024032 -1.129042 0.017807 -1.014874 0.000000 0.000001
    38 0.014898 -0.883989 -0.019848 0.153136 0.000000 0.000000
    39 -0.500830 -1.428545 0.403292 -0.012660 0.012671 -2.752590
    40 1.522835 0.058681 0.016848 -0.191602 0.064242 0.505579
    41 1.117947 0.048424 -0.005766 0.004299 -0.024829 -0.115852
    42 -0.115961 -0.170294 -0.005135 0.565529 0.160611 1.289258
    43 -1.393470 8.839177 -0.239433 1.580804 -0.005023 -1.566847
  time 26
    0 4.945132 -6.663783 -10.227090 0.000000 -0.075235 -0.000003
    1 7.384263 3.561215 -0.030885 0.750898 -2.386457 -1.389558
    2 -0.071920 -8.498735 -0.104136 0.172640 0.521614 -0.483056
    3 1.301309 -2.858450 0.533806 -0.317190 -0.156087 -3.649922
    4 -0.633172 1.164522 0.000000 0.000000 0.000000 0.542622
    5 -4.694041 4.765071 0.000002 0.000000 0.000000 1.961197
    6 0.471631 -4.176224 -0.013908 0.390400 -1.570796 0.000000
    7 0.798002 0.010359 -0.002600 0.000002 1.570796 0.000000
    8 1.257180 8.762585 -0.153713 -1.570562 0.002683 -1.566807
    9 -0.488518 -2.755602 -0.228260 -0.721249 -0.081949 -0.452612
    10 0.039887 -1.479790 0.029854 -1.744424 0.000000 0.000001
    11 0.028786 -1.075731 -0.023109 -1.070625 0.000000 0.000000
    12 0.125023 -3.051141 -0.574344 -0.799992 -0.047048 -0.393136
    13 -0.049759 -1.680544 0.100479 -1.558614 0.000000 -0.000002
    14 -0.034142 -1.148312 0.084782 -1.112839 0.000000 0.000000
    15 0.957766 -2.746780 -0.090302 0.273204 -0.158969 -0.144550
    16 -0.033420 -1.397129 -0.011257 -0.488110 0.000000 -0.000001
    17 -0.022360 -0.957436 0.018784 -0.774559 0.000000 0.000000
    18 -1.200213 -2.612689 -0.084481 -0.819559 0.107002 -0.434663
    19 -0.024967 -1.123934 0.017597 -1.746587 0.000000 0.000001
    20 -0.020057 -0.890968 0.010090 -0.424577 0.000000 0.000000
    21 0.583510 -1.197277 0.185379 0.041775 -0.932219 -0.526993
    22 1.535927 0.010246 0.005009 -0.115188 0.228157 -1.325298
    23 1.100771 0.004527 -0.010679 -0.031080 0.118321 -0.649585
    24 0.018587 -0.093240 -0.167774 3.423244 6.142883 -1.288278
    25 -6.817844 -3.649180 0.709676 -0.988728 -5.397259 -0.067634
    26 0.096944 -8.450418 -0.009365 -0.065118 -0.881146 0.485679
    27 0.447953 -2.798986 -0.200443 -0.805857 -0.098878 0.556583
    28 -0.032909 -1.480204 0.004940 -1.135932 0.000000 0.000002
    29 -0.027022 -1.076920 -0.020210 0.165353 0.000000 0.000000
    30 -0.249534 -2.846964 -0.174213 -0.518785 -0.091543 0.444345
    31 0.043235 -1.683941 0.096012 -1.409884 0.002823 -0.000167
    32 0.031729 -1.160830 0.058838 0.106677 0.000642 0.008372
    33 -0.963866 -2.785145 -0.085350 -0.084261 0.036917 0.292995
    34 0.028479 -1.403067 0.006271 -1.244457 0.000000 0.000000
    35 0.021413 -0.957781 0.020046 -0.446116 0.000000 0.000000
    36 1.164475 -2.543940 -0.170330 -0.843965 -0.017414 0.527819
    37 0.024032 -1.129042 0.017807 -1.014874 0.000000 0.000001
    38 0.014898 -0.883989 -0.019848 0.153136 0.000000 0.000000
    39 -0.500830 -1.428545 0.403292 -0.012660 0.012671 -2.752590
    40 1.522835 0.058681 0.016848 -0.191602 0.064242 0.505579
    41 1.117947 0.048424 -0.005766 0.004299 -0.024829 -0.115852
    42 -0.115961 -0.170294 -0.005135 0.565529 0.160611 1.289258
    43 -1.393470 8.839177 -0.239433 1.580804 -0.005023 -1.566847
  time 27
    0 4.945132 -6.679409 -10.223183 0.000000 -0.075235 -0.000003
    1 7.384263 3.561215 -0.030885 0.750898 -2.386457 -1.389558
    2 -0.071920 -8.498735 -0.104136 0.173359 0.520943 -0.481736
    3 1.301309 -2.858450 0.533806 -0.317190 -0.156087 -3.649938
    4 -0.633172 1.164522 0.000000 0.000000 0.000000 0.542622
    5 -4.694041 4.765071 0.000002 0.000000 0.000000 1.961197
    6 0.471631 -4.176224 -0.013908 0.390400 -1.570796 0.000000
    7 0.798002 0.010359 -0.002600 0.000002 1.570796 0.000000
    8 1.257180 8.762585 -0.153713 -1.570562 0.002683 -1.566807
    9 -0.488518 -2.755602 -0.228260 -0.721249 -0.081949 -0.452612
    10 0.039887 -1.479790 0.029854 -1.744424 0.000000 0.000001
    11 0.028786 -1.075731 -0.023109 -1.070625 0.000000 0.000000
    12 0.125023 -3.051141 -0.574344 -0.799992 -0.047060 -0.393136
    13 -0.049759 -1.680544 0.100479 -1.558614 0.000000 -0.000002
    14 -0.034142 -1.148312 0.084782 -1.112872 0.000000 0.000000
    15 0.957766 -2.746780 -0.090302 0.273204 -0.158969 -0.144550
    16 -0.033420 -1.397129 -0.011257 -0.488110 0.000000 -0.000001
    17 -0.022360 -0.957436 0.018784 -0.774559 0.000000 0.000000
    18 -1.200213 -2.612689 -0.084481 -0.819559 0.107002 -0.434663
    19 -0.024967 -1.123934 0.017597 -1.746587 0.000000 0.000001
    20 -0.020057 -0.890968 0.010090 -0.424577 0.000000 0.000000
    21 0.583510 -1.197277 0.185379 0.041775 -0.932219 -0.526993
    22 1.535927 0.010246 0.005009 -0.115188 0.228157 -1.325298
    23 1.100771 0.004527 -0.010679 -0.031080 0.118321 -0.649585
    24 0.018587 -0.093240 -0.167774 3.423244 6.142883 -1.288278
    25 -6.817844 -3.649180 0.713582 -0.988728 -5.397259 -0.067634
    26 0.096944 -8.450418 -0.009365 -0.067919 -0.881491 0.486029
    27 0.447953 -2.798986 -0.200443 -0.805857 -0.098878 0.556583
    28 -0.032909 -1.480204 0.004940 -1.135932 0.000000 0.000002
    29 -0.027022 -1.076920 -0.020210 0.165353 0.000000 0.000000
    30 -0.249534 -2.846964 -0.174213 -0.518785 -0.091543 0.444345
    31 0.043235 -1.683941 0.096012 -1.409884 0.002823 -0.000167
    32 0.031729 -1.160830 0.058838 0.106677 0.000642 0.008372
    33 -0.963866 -2.785145 -0.085350 -0.084261 0.036917 0.292995
    34 0.028479 -1.403067 0.006271 -1.244457 0.000000 0.000000
    35 0.021413 -0.957781 0.020046 -0.446116 0.000000 0.000000
    36 1.164475 -2.543940 -0.170330 -0.843965 -0.017414 0.527819
    37 0.024032 -1.129042 0.017807 -1.014874 0.000000 0.000001
    38 0.014898 -0.883989 -0.019848 0.153136 0.000000 0.000000
    39 -0.500830 -1.428545 0.403292 -0.012660 0.012671 -2.752590
    40 1.522835 0.058681 0.016848 -0.191602 0.064242 0.505579
    41 1.117947 0.048424 -0.005766 0.004299 -0.024829 -0.115852
    42 -0.115961 -0.170294 -0.005135 0.565529 0.160611 1.289258
    43 -1.393470 8.839177 -0.239433 1.580804 -0.005023 -1.566847
  time 28
    0 4.945132 -6.698941 -10.219277 0.000000 -0.075235 -0.000003
    1 7.384263 3.561215 -0.030885 0.750898 -2.386457 -1.389558
    2 -0.071920 -8.498735 -0.104136 0.174378 0.519984 -0.479881
    3 1.301309 -2.858450 0.533806 -0.317190 -0.156087 -3.649922
    4 -0.633172 1.164522 0.000000 0.000000 0.000000 0.542622
    5 -4.694041 4.765071 0.000002 0.000000 0.000000 1.961197
    6 0.471631 -4.176224 -0.013908 0.390400 -1.570796 0.000000
    7 0.798002 0.010359 -0.002600 0.000002 1.570796 0.000000
    8 1.257180 8.762585 -0.153713 -1.570562 0.002683 -1.566807
    9 -0.488518 -2.755602 -0.228260 -0.721249 -0.081949 -0.452612
    10 0.039887 -1.479790 0.029854 -1.744424 0.000000 0.000001
    11 0.028786 -1.075731 -0.023109 -1.070625 0.000000 0.000000
    12 0.125023 -3.051141 -0.574344 -0.799992 -0.047060 -0.393136
    13 -0.049759 -1.680544 0.100479 -1.558614 0.000000 -0.000002
    14 -0.034142 -1.148312 0.084782 -1.112839 0.000000 0.000000
    15 0.957766 -2.746780 -0.090302 0.273204 -0.158969 -0.144550
    16 -0.033420 -1.397129 -0.011257 -0.488110 0.000000 -0.000001
    17 -0.022360 -0.957436 0.018784 -0.774559 0.000000 0.000000
    18 -1.200213 -2.612689 -0.084481 -0.819559 0.107002 -0.434663
    19 -0.024967 -1.123934 0.017597 -1.746587 0.000000 0.000001
    20 -0.020057 -0.890968 0.010090 -0.424577 0.000000 0.000000
    21 0.583510 -1.197277 0.185379 0.041775 -0.932219 -0.526993
    22 1.535927 0.010246 0.005009 -0.115188 0.228157 -1.325298
    23 1.100771 0.004527 -0.010679 -0.031080 0.118321 -0.649585
    24 0.018587 -0.093240 -0.167774 3.423244 6.142883 -1.288278
    25 -6.817844 -3.649180 0.717489 -0.988728 -5.397259 -0.067634
    26 0.096944 -8.450418 -0.009365 -0.071877 -0.881759 0.486449
    27 0.447953 -2.798986 -0.200443 -0.805857 -0.098878 0.556583
    28 -0.032909 -1.480204 0.004940 -1.135932 0.000000 0.000002
    29 -0.027022 -1.076920 -0.020210 0.165353 0.000000 0.000000
    30 -0.249534 -2.846964 -0.174213 -0.518785 -0.091543 0.444345
    31 0.043235 -1.683941 0.096012 -1.409884 0.002823 -0.000167
    32 0.031729 -1.160830 0.058838 0.106677 0.000642 0.008372
    33 -0.963866 -2.785145 -0.085350 -0.084261 0.036917 0.292995
    34 0.028479 -1.403067 0.006271 -1.244457 0.000000 0.000000
    35 0.021413 -0.957781 0.020046 -0.446116 0.000000 0.000000
    36 1.164475 -2.543940 -0.170330 -0.843965 -0.017414 0.527819
    37 0.024032 -1.129042 0.017807 -1.014874 0.000000 0.000001
    38 0.014898 -0.883989 -0.019848 0.153136 0.000000 0.000000
    39 -0.500830 -1.428545 0.403292 -0.012660 0.012671 -2.752590
    40 1.522835 0.058681 0.016848 -0.191602 0.064242 0.505579
    41 1.117947 0.048424 -0.005766 0.004299 -0.024829 -0.115852
    42 -0.115961 -0.170294 -0.005135 0.565529 0.160611 1.289258
    43 -1.393470 8.839177 -0.239433 1.580804 -0.005023 -1.566847
  time 29
    0 4.945132 -6.726285 -10.215370 0.000000 -0.075235 -0.000003
    1 7.384263 3.561215 -0.030885 0.750898 -2.386457 -1.389558
    2 -0.071920 -8.498735 -0.104136 0.175540 0.518882 -0.477758
    3 1.301309 -2.858450 0.533806 -0.317190 -0.156087 -3.649922
    4 -0.633172 1.164522 0.000000 0.000000 0.000000 0.542622
    5 -4.694041 4.765071 0.000002 0.000000 0.000000 1.961197
    6 0.471631 -4.176224 -0.013908 0.390400 -1.570796 0.000000
    7 0.798002 0.010359 -0.002600 0.000002 1.570796 0.000000
    8 1.257180 8.762585 -0.153713 -1.570562 0.002683 -1.566807
    9 -0.488518 -2.755602 -0.228260 -0.721249 -0.081949 -0.452612
    10 0.039887 -1.479790 0.029854 -1.744424 0.000000 0.000001
    11 0.028786 -1.075731 -0.023109 -1.070625 0.000000 0.000000
    12 0.125023 -3.051141 -0.574344 -0.799992 -0.047048 -0.393136
    13 -0.049759 -1.680544 0.100479 -1.558614 0.000000 -0.000002
    14 -0.034142 -1.148312 0.084782 -1.112839 0.000000 0.000000
    15 0.957766 -2.746780 -0.090302 0.273204 -0.158969 -0.144550
    16 -0.033420 -1.397129 -0.011257 -0.488110 0.000000 -0.000001
    17 -0.022360 -0.957436 0.018784 -0.774559 0.000000 0.000000
    18 -1.200213 -2.612689 -0.084481 -0.819559 0.107002 -0.434663
    19 -0.024967 -1.123934 0.017597 -1.746587 0.000000 0.000001
    20 -0.020057 -0.890968 0.010090 -0.424577 0.000000 0.000000
    21 0.583510 -1.197277 0.185379 0.041775 -0.932219 -0.526993
    22 1.535927 0.010246 0.005009 -0.115188 0.228157 -1.325298
    23 1.100771 0.004527 -0.010679 -0.031080 0.118321 -0.649585
    24 0.018587 -0.093240 -0.167774 3.423244 6.142883 -1.288278
    25 -6.817844 -3.649180 0.721395 -0.988728 -5.397259 -0.067634
    26 0.096944 -8.450418 -0.009365 -0.076452 -0.881970 0.486904
    27 0.447953 -2.798986 -0.200443 -0.805857 -0.098878 0.556583
    28 -0.032909 -1.480204 0.004940 -1.135932 0.000000 0.000002
    29 -0.027022 -1.076920 -0.020210 0.165353 0.000000 0.000000
    30 -0.249534 -2.846964 -0.174213 -0.518785 -0.091543 0.444345
    31 0.043235 -1.683941 0.096012 -1.409884 0.002823 -0.000167
    32 0.031729 -1.160830 0.058838 0.106677 0.000642 0.008372
    33 -0.963866 -2.785145 -0.085350 -0.084261 0.036917 0.292995
    34 0.028479 -1.403067 0.006271 -1.244457 0.000000 0.000000
    35 0.021413 -0.957781 0.020046 -0.446116 0.000000 0.000000
    36 1.164475 -2.543940 -0.170330 -0.843965 -0.017414 0.527819
    37 0.024032 -1.129042 0.017807 -1.014874 0.000000 0.000001
    38 0.014898 -0.883989 -0.019848 0.153136 0.000000 0.000000
    39 -0.500830 -1.428545 0.403292 -0.012660 0.012671 -2.752590
    40 1.522835 0.058681 0.016848 -0.191602 0.064242 0.505579
    41 1.117947 0.048424 -0.005766 0.004299 -0.024829 -0.115852
    42 -0.115961 -0.170294 -0.005135 0.565529 0.160611 1.289258
    43 -1.393470 8.839177 -0.239433 1.580804 -0.005023 -1.566847
  time 30
    0 4.945132 -6.749724 -10.211464 0.000000 -0.075235 -0.000003
    1 7.384263 3.561215 -0.030885 0.750898 -2.386457 -1.389558
    2 -0.071920 -8.498735 -0.104136 0.176715 0.517779 -0.475636
    3 1.301309 -2.858450 0.533806 -0.317190 -0.156087 -3.649922
    4 -0.633172 1.164522 0.000000 0.000000 0.000000 0.542622
    5 -4.694041 4.765071 0.000002 0.000000 0.000000 1.961197
    6 0.471631 -4.176224 -0.013908 0.390400 -1.570796 0.000000
    7 0.798002 0.010359 -0.002600 0.000002 1.570796 0.000000
    8 1.257180 8.762585 -0.153713 -1.570562 0.002683 -1.566807
    9 -0.488518 -2.755602 -0.228260 -0.721249 -0.081949 -0.452612
    10 0.039887 -1.479790 0.029854 -1.744424 0.000000 0.000001
    11 0.028786 -1.075731 -0.023109 -1.070625 0.000000 0.000000
    12 0.125023 -3.051141 -0.574344 -0.799992 -0.047048 -0.393136
    13 -0.049759 -1.680544 0.100479 -1.558614 0.000000 -0.000002
    14 -0.034142 -1.148312 0.084782 -1.112872 0.000000 0.000000
    15 0.957766 -2.746780 -0.090302 0.273204 -0.158969 -0.144550
    16 -0.033420 -1.397129 -0.011257 -0.488110 0.000000 -0.000001
    17 -0.022360 -0.957436 0.018784 -0.774559 0.000000 0.000000
    18 -1.200213 -2.612689 -0.084481 -0.819559 0.107002 -0.434663
    19 -0.024967 -1.123934 0.017597 -1.746587 0.000000 0.000001
    20 -0.020057 -0.890968 0.010090 -0.424577 0.000000 0.000000
    21 0.583510 -1.197277 0.185379 0.041775 -0.932219 -0.526993
    22 1.535927 0.010246 0.005009 -0.115188 0.228157 -1.325298
    23 1.100771 0.004527 -0.010679 -0.031080 0.118321 -0.649585
    24 0.018587 -0.093240 -0.167774 3.423244 6.142883 -1.288278
    25 -6.817844 -3.649180 0.725301 -0.988728 -5.397259 -0.067634
    26 0.096944 -8.450418 -0.009365 -0.081001 -0.882104 0.487359
    27 0.447953 -2.798986 -0.200443 -0.805857 -0.098878 0.556583
    28 -0.032909 -1.480204 0.004940 -1.135932 0.000000 0.000002
    29 -0.027022 -1.076920 -0.020210 0.165353 0.000000 0.000000
    30 -0.249534 -2.846964 -0.174213 -0.518785 -0.091543 0.444345
    31 0.043235 -1.683941 0.096012 -1.409884 0.002823 -0.000167
    32 0.031729 -1.160830 0.058838 0.106677 0.000642 0.008372
    33 -0.963866 -2.785145 -0.085350 -0.084261 0.036917 0.292995
    34 0.028479 -1.403067 0.006271 -1.244457 0.000000 0.000000
    35 0.021413 -0.957781 0.020046 -0.446116 0.000000 0.000000
    36 1.164475 -2.543940 -0.170330 -0.843965 -0.017414 0.527819
    37 0.024032 -1.129042 0.017807 -1.014874 0.000000 0.000001
    38 0.014898 -0.883989 -0.019848 0.153136 0.000000 0.000000
    39 -0.500830 -1.428545 0.403292 -0.012660 0.012671 -2.752590
    40 1.522835 0.058681 0.016848 -0.191602 0.064242 0.505579
    41 1.117947 0.048424 -0.005766 0.004299 -0.024829 -0.115852
    42 -0.115961 -0.170294 -0.005135 0.565529 0.160611 1.289258
    43 -1.393470 8.839177 -0.239433 1.580804 -0.005023 -1.566847
  time 31
    0 4.945132 -6.769255 -10.211464 0.000000 -0.075235 -0.000003
    1 7.384263 3.561215 -0.030885 0.750898 -2.386457 -1.389558
    2 -0.071920 -8.498735 -0.104136 0.177721 0.516820 -0.473780
    3 1.301309 -2.858450 0.533806 -0.317190 -0.156087 -3.649922
    4 -0.633172 1.164522 0.000000 0.000000 0.000000 0.542622
    5 -4.694041 4.765071 0.000002 0.000000 0.000000 1.961197
    6 0.471631 -4.176224 -0.013908 0.390400 -1.570796 0.000000
    7 0.798002 0.010359 -0.002600 0.000002 1.570796 0.000000
    8 1.257180 8.762585 -0.153713 -1.570562 0.002683 -1.566807
    9 -0.488518 -2.755602 -0.228260 -0.721249 -0.081949 -0.452612
    10 0.039887 -1.479790 0.029854 -1.744424 0.000000 0.000001
    11 0.028786 -1.075731 -0.023109 -1.070625 0.000000 0.000000
    12 0.125023 -3.051141 -0.574344 -0.799992 -0.047048 -0.393136
    13 -0.049759 -1.680544 0.100479 -1.558614 0.000000 -0.000002
    14 -0.034142 -1.148312 0.084782 -1.112872 0.000000 0.000000
    15 0.957766 -2.746780 -0.090302 0.273204 -0.158969 -0.144550
    16 -0.033420 -1.397129 -0.011257 -0.488110 0.000000 -0.000001
    17 -0.022360 -0.957436 0.018784 -0.774559 0.000000 0.000000
    18 -1.200213 -2.612689 -0.084481 -0.819559 0.107002 -0.434663
    19 -0.024967 -1.123934 0.017597 -1.746587 0.000000 0.000001
    20 -0.020057 -0.890968 0.010090 -0.424577 0.000000 0.000000
    21 0.583510 -1.197277 0.185379 0.041775 -0.932219 -0.526993
    22 1.535927 0.010246 0.005009 -0.115188 0.228157 -1.325298
    23 1.100771 0.004527 -0.010679 -0.031080 0.118321 -0.649585
    24 0.018587 -0.093240 -0.167774 3.423244 6.142883 -1.288278
    25 -6.817844 -3.649180 0.729208 -0.988728 -5.397259 -0.067634
    26 0.096944 -8.450418 -0.009365 -0.084959 -0.882199 0.487726
    27 0.447953 -2.798986 -0.200443 -0.805857 -0.098878 0.556583
    28 -0.032909 -1.480204 0.004940 -1.135932 0.000000 0.000002
    29 -0.027022 -1.076920 -0.020210 0.165353 0.000000 0.000000
    30 -0.249534 -2.846964 -0.174213 -0.518785 -0.091543 0.444345
    31 0.043235 -1.683941 0.096012 -1.409884 0.002823 -0.000167
    32 0.031729 -1.160830 0.058838 0.106677 0.000642 0.008372
    33 -0.963866 -2.785145 -0.085350 -0.084261 0.036917 0.292995
    34 0.028479 -1.403067 0.006271 -1.244457 0.000000 0.000000
    35 0.021413 -0.957781 0.020046 -0.446116 0.000000 0.000000
    36 1.164475 -2.543940 -0.170330 -0.843965 -0.017414 0.527819
    37 0.024032 -1.129042 0.017807 -1.014874 0.000000 0.000001
    38 0.014898 -0.883989 -0.019848 0.153136 0.000000 0.000000
    39 -0.500830 -1.428545 0.403292 -0.012660 0.012671 -2.752590
    40 1.522835 0.058681 0.016848 -0.191602 0.064242 0.505579
    41 1.117947 0.048424 -0.005766 0.004299 -0.024829 -0.115852
    42 -0.115961 -0.170294 -0.005135 0.565529 0.160611 1.289258
    43 -1.393470 8.839177 -0.239433 1.580804 -0.005023 -1.566847
  time 32
    0 4.945132 -6.784881 -10.211464 0.000000 -0.075235 -0.000003
    1 7.384263 3.561215 -0.030885 0.750898 -2.386457 -1.389558
    2 -0.071920 -8.498735 -0.104136 0.178440 0.516137 -0.472461
    3 1.301309 -2.858450 0.533806 -0.317190 -0.156087 -3.649922
    4 -0.633172 1.164522 0.000000 0.000000 0.000000 0.542622
    5 -4.694041 4.765071 0.000002 0.000000 0.000000 1.961197
    6 0.471631 -4.176224 -0.013908 0.390400 -1.570796 0.000000
    7 0.798002 0.010359 -0.002600 0.000002 1.570796 0.000000
    8 1.257180 8.762585 -0.153713 -1.570562 0.002683 -1.566807
    9 -0.488518 -2.755602 -0.228260 -0.721249 -0.081949 -0.452612
    10 0.039887 -1.479790 0.029854 -1.744424 0.000000 0.000001
    11 0.028786 -1.075731 -0.023109 -1.070625 0.000000 0.000000
    12 0.125023 -3.051141 -0.574344 -0.799992 -0.047048 -0.393136
    13 -0.049759 -1.680544 0.100479 -1.558614 0.000000 -0.000002
    14 -0.034142 -1.148312 0.084782 -1.112839 0.000000 0.000000
    15 0.957766 -2.746780 -0.090302 0.273204 -0.158969 -0.144550
    16 -0.033420 -1.397129 -0.011257 -0.488110 0.000000 -0.000001
    17 -0.022360 -0.957436 0.018784 -0.774559 0.000000 0.000000
    18 -1.200213 -2.612689 -0.084481 -0.819559 0.107002 -0.434663
    19 -0.024967 -1.123934 0.017597 -1.746587 0.000000 0.000001
    20 -0.020057 -0.890968 0.010090 -0.424577 0.000000 0.000000
    21 0.583510 -1.197277 0.185379 0.041775 -0.932219 -0.526993
    22 1.535927 0.010246 0.005009 -0.115188 0.228157 -1.325298
    23 1.100771 0.004527 -0.010679 -0.031080 0.118321 -0.649585
    24 0.018587 -0.093240 -0.167774 3.423244 6.142883 -1.288278
    25 -6.817844 -3.649180 0.733114 -0.988728 -5.397259 -0.067634
    26 0.096944 -8.450418 -0.009365 -0.087786 -0.882238 0.487989
    27 0.447953 -2.798986 -0.200443 -0.805857 -0.098878 0.556583
    28 -0.032909 -1.480204 0.004940 -1.135932 0.000000 0.000002
    29 -0.027022 -1.076920 -0.020210 0.165353 0.000000 0.000000
    30 -0.249534 -2.846964 -0.174213 -0.518785 -0.091543 0.444345
    31 0.043235 -1.683941 0.096012 -1.409884 0.002823 -0.000167
    32 0.031729 -1.160830 0.058838 0.106677 0.000642 0.008372
    33 -0.963866 -2.785145 -0.085350 -0.084261 0.036917 0.292995
    34 0.028479 -1.403067 0.006271 -1.244457 0.000000 0.000000
    35 0.021413 -0.957781 0.020046 -0.446116 0.000000 0.000000
    36 1.164475 -2.543940 -0.170330 -0.843965 -0.017414 0.527819
    37 0.024032 -1.129042 0.017807 -1.014874 0.000000 0.000001
    38 0.014898 -0.883989 -0.019848 0.153136 0.000000 0.000000
    39 -0.500830 -1.428545 0.403292 -0.012660 0.012671 -2.752590
    40 1.522835 0.058681 0.016848 -0.191602 0.064242 0.505579
    41 1.117947 0.048424 -0.005766 0.004299 -0.024829 -0.115852
    42 -0.115961 -0.170294 -0.005135 0.565529 0.160611 1.289258
    43 -1.393470 8.839177 -0.239433 1.580804 -0.005023 -1.566847
  time 33
    0 4.945132 -6.792694 -10.211464 0.000000 -0.075235 -0.000003
    1 7.384263 3.561215 -0.030885 0.750898 -2.386457 -1.389558
    2 -0.071920 -8.498735 -0.104136 0.178716 0.515885 -0.471964
    3 1.301309 -2.858450 0.533806 -0.317190 -0.156087 -3.649922
    4 -0.633172 1.164522 0.000000 0.000000 0.000000 0.542622
    5 -4.694041 4.765071 0.000002 0.000000 0.000000 1.961197
    6 0.471631 -4.176224 -0.013908 0.390400 -1.570796 0.000000
    7 0.798002 0.010359 -0.002600 0.000002 1.570796 0.000000
    8 1.257180 8.762585 -0.153713 -1.570562 0.002683 -1.566807
    9 -0.488518 -2.755602 -0.228260 -0.721249 -0.081949 -0.452612
    10 0.039887 -1.479790 0.029854 -1.744424 0.000000 0.000001
    11 0.028786 -1.075731 -0.023109 -1.070625 0.000000 0.000000
    12 0.125023 -3.051141 -0.574344 -0.799992 -0.047048 -0.393136
    13 -0.049759 -1.680544 0.100479 -1.558614 0.000000 -0.000002
    14 -0.034142 -1.148312 0.084782 -1.112872 0.000000 0.000000
    15 0.957766 -2.746780 -0.090302 0.273204 -0.158969 -0.144550
    16 -0.033420 -1.397129 -0.011257 -0.488110 0.000000 -0.000001
    17 -0.022360 -0.957436 0.018784 -0.774559 0.000000 0.000000
    18 -1.200213 -2.612689 -0.084481 -0.819559 0.107002 -0.434663
    19 -0.024967 -1.123934 0.017597 -1.746587 0.000000 0.000001
    20 -0.020057 -0.890968 0.010090 -0.424577 0.000000 0.000000
    21 0.583510 -1.197277 0.185379 0.041775 -0.932219 -0.526993
    22 1.535927 0.010246 0.005009 -0.115188 0.228157 -1.325298
    23 1.100771 0.004527 -0.010679 -0.031080 0.118321 -0.649585
    24 0.018587 -0.093240 -0.167774 3.423244 6.142883 -1.288278
    25 -6.817844 -3.649180 0.733114 -0.988728 -5.397259 -0.067634
    26 0.096944 -8.450418 -0.009365 -0.088840 -0.882257 0.488076
    27 0.447953 -2.798986 -0.200443 -0.805857 -0.098878 0.556583
    28 -0.032909 -1.480204 0.004940 -1.135932 0.000000 0.000002
    29 -0.027022 -1.076920 -0.020210 0.165353 0.000000 0.000000
    30 -0.249534 -2.846964 -0.174213 -0.518785 -0.091543 0.444345
    31 0.043235 -1.683941 0.096012 -1.409884 0.002823 -0.000167
    32 0.031729 -1.160830 0.058838 0.106677 0.000642 0.008372
    33 -0.963866 -2.785145 -0.085350 -0.084261 0.036917 0.292995
    34 0.028479 -1.403067 0.006271 -1.244457 0.000000 0.000000
    35 0.021413 -0.957781 0.020046 -0.446116 0.000000 0.000000
    36 1.164475 -2.543940 -0.170330 -0.843965 -0.017414 0.527819
    37 0.024032 -1.129042 0.017807 -1.014874 0.000000 0.000001
    38 0.014898 -0.883989 -0.019848 0.153136 0.000000 0.000000
    39 -0.500830 -1.428545 0.403292 -0.012660 0.012671 -2.752590
    40 1.522835 0.058681 0.016848 -0.191602 0.064242 0.505579
    41 1.117947 0.048424 -0.005766 0.004299 -0.024829 -0.115852
    42 -0.115961 -0.170294 -0.005135 0.565529 0.160611 1.289258
    43 -1.393470 8.839177 -0.239433 1.580804 -0.005023 -1.566847
end
