version 1
nodes
  0 "20s4_root" -1
  1 "20s4_F" 0
  2 "Bone061" 1
  3 "Bone063" 2
  4 "Bone062" 3
  5 "Bone065" 4
  6 "Bone046" 1
  7 "Bone047" 6
  8 "Bone048" 7
  9 "Bone049" 8
  10 "Bone058" 1
  11 "Bone056" 10
  12 "Bone057" 11
  13 "Bone060" 12
  14 "Bone053" 1
  15 "Bone051" 14
  16 "Bone052" 15
  17 "Bone055" 16
  18 "Bone066" 0
  19 "Bone067" 18
  20 "Bone068" 19
  21 "Bone077" 0
  22 "Bone075" 21
  23 "Bone076" 22
  24 "Bone073" 0
  25 "Bone072" 24
  26 "Bone074" 25
  27 "Bone071" 0
  28 "Bone069" 27
  29 "Bone070" 28
  30 "Dummy002" -1
  31 "Dummy005" 30
  32 "Dummy003" 30
  33 "Dummy006" 30
  34 "Dummy004" 30
  35 "Dummy007" -1
  36 "Dummy011" 35
  37 "Dummy008" 35
  38 "Dummy010" 35
  39 "Dummy009" 35
  40 "chargefxr" -1
  41 "chargefxr04" 40
  42 "chargefxr01" 40
  43 "chargefxr03" 40
  44 "chargefxr02" 40
  45 "cockroot" -1
  46 "cockfx003" 45
  47 "cockfx" 45
  48 "cockfx002" 45
  49 "cockfx001" 45
  50 "cocksfx_root" -1
  51 "cocksfx004" 50
  52 "cocksfx01" 50
  53 "cocksfx003" 50
  54 "cocksfx002" 50
  55 "root" -1
  56 "Bone01" 55
  57 "Bone_L_Upper" 56
  58 "Bone_Lefthand" 56
  59 "Bone13" 58
  60 "Bone14" 59
  61 "Bone15" 60
  62 "Bone17" 58
  63 "Bone18" 62
  64 "Bone19" 63
  65 "Bone21" 58
  66 "Bone22" 65
  67 "Bone23" 66
  68 "Bone09" 58
  69 "Bone10" 68
  70 "Bone11" 69
  71 "Bone05" 58
  72 "Bone06" 71
  73 "Bone07" 72
  74 "Bone_Se_Hand-L" 58
  75 "Bone04" 55
  76 "Bone_Righthand" 75
  77 "Bone39" 76
  78 "Bone40" 77
  79 "Bone41" 78
  80 "Bone35" 76
  81 "Bone36" 80
  82 "Bone37" 81
  83 "Bone31" 76
  84 "Bone32" 83
  85 "Bone33" 84
  86 "Bone43" 76
  87 "Bone44" 86
  88 "Bone45" 87
  89 "Bone27" 76
  90 "Bone28" 89
  91 "Bone29" 90
  92 "Bone_Se_Hand-R" 76
  93 "Bone_R_Upper" 75
end
skeleton
  time 0
    0 -0.349514 -12.949614 -17.734882 -1.517079 1.381358 -4.767513
    1 14.438131 0.000002 0.000160 0.000000 0.000000 0.000000
    2 2.904447 1.883698 0.107445 -0.000043 -0.004637 0.336933
    3 2.985905 0.000000 0.000002 0.000000 0.000000 -3.578322
    4 2.248901 0.000000 0.000000 0.000000 0.000000 -1.534675
    5 2.858892 -0.000006 0.000000 0.000000 0.000000 1.205617
    6 2.904449 0.000001 1.904633 1.570797 -0.332258 0.000000
    7 2.985904 0.000000 0.000000 0.000000 0.000000 -3.578322
    8 2.248901 0.000002 0.000000 0.000000 0.000000 -1.534675
    9 2.858891 -0.000006 0.000000 0.000000 0.000000 1.205617
    10 2.904449 -1.882430 0.107445 -0.000043 3.136956 -0.336933
    11 -2.985904 0.000000 -0.000002 0.000000 0.000000 -3.578322
    12 -2.248902 0.000000 0.000000 0.000000 0.000000 -1.534675
    13 -2.858891 0.000006 -0.000002 0.000000 0.000000 1.205617
    14 2.904449 0.000001 -1.905624 1.570796 -0.332374 -3.141592
    15 -2.985904 0.000000 0.000000 0.000000 0.000000 -3.578322
    16 -2.248902 0.000000 0.000000 0.000000 0.000000 -1.534675
    17 -2.858891 0.000006 0.000000 0.000000 0.000000 1.205617
    18 14.101058 0.000003 1.794754 1.570796 -0.300741 0.000000
    19 1.743555 0.000000 0.000000 0.000000 0.000000 1.919030
    20 0.901007 -0.000101 0.000000 0.000000 0.000000 0.684407
    21 14.101059 -1.776615 0.010445 -3.141592 0.000000 -0.300741
    22 1.743555 0.000000 0.000000 0.000000 0.000000 1.919030
    23 0.901005 -0.000101 0.000000 0.000000 0.000000 0.684407
    24 14.101057 1.774123 0.010445 0.000000 0.000000 3.442315
    25 -1.743554 0.000000 0.000000 0.000000 0.000000 1.919030
    26 -0.901005 0.000102 -0.000002 0.000000 0.000000 0.684407
    27 14.101059 0.000003 -1.778564 -1.570796 3.442255 0.000000
    28 -1.743555 0.000000 0.000000 0.000000 0.000000 1.919030
    29 -0.901005 0.000101 0.000000 0.000000 0.000000 0.684407
    30 104.008194 -51.038048 0.000000 0.000000 0.000000 -1.570796
    31 0.000008 -0.000008 0.000000 0.000000 0.000000 0.000000
    32 -0.000008 -0.000008 0.000000 0.000000 0.000000 0.000000
    33 -0.000008 0.000008 0.000000 0.000000 0.000000 0.000000
    34 0.000008 0.000008 0.000000 0.000000 0.000000 0.000000
    35 24.969147 12.634089 4.041708 -1.160167 -0.197444 -1.655995
    36 0.000000 0.000000 0.000000 0.000000 0.000000 0.000000
    37 0.000002 0.000000 0.000000 0.000000 0.000000 0.000000
    38 0.000000 0.000000 0.000000 0.000000 0.000000 0.000000
    39 -0.000002 0.000000 0.000000 0.000000 0.000000 0.000000
    40 39.861595 9.218575 -9.614350 0.372214 1.184185 -1.223827
    41 0.000000 0.000000 -0.000004 -1.570796 0.000000 0.000000
    42 0.000000 0.000000 0.000006 -1.570796 0.000000 0.000000
    43 0.000000 0.000000 -0.000007 -1.570796 0.000000 0.000000
    44 0.000000 0.000000 0.000006 -1.570796 0.000000 0.000000
    45 123.305351 0.000000 0.000000 -1.570796 -1.483530 -1.570796
    46 0.000000 0.000008 0.000000 0.000000 0.000000 0.000000
    47 0.000008 0.000000 0.000000 0.000000 0.000000 0.000000
    48 -0.000008 0.000000 0.000000 0.000000 0.000000 0.000000
    49 0.000000 -0.000008 0.000000 0.000000 0.000000 0.000000
    50 123.812790 0.000000 0.000000 1.570796 0.000000 -1.570796
    51 0.000000 0.000000 0.000000 0.000000 0.000000 0.000000
    52 0.000000 0.000000 0.000000 0.000000 0.000000 0.000000
    53 0.000000 0.000000 0.000000 0.000000 0.000000 0.000000
    54 0.000000 0.000000 0.000000 0.000000 0.000000 0.000000
    55 -0.002752 -0.001265 -4.499518 0.000000 0.000000 0.000000
    56 2.552085 -6.662937 -9.803968 5.146173 -3.054029 0.044137
    57 -0.457716 8.860244 -0.126368 -1.567111 0.005559 -1.355182
    58 0.178087 -8.592489 -0.104134 0.607005 0.345669 2.085449
    59 -0.488518 -2.755602 -0.228260 -1.233104 -0.027683 -0.354338
    60 0.039887 -1.530573 0.014229 -1.483428 -0.012116 0.032983
    61 0.028786 -1.231986 -0.128581 -1.540610 -0.012835 0.035127
    62 0.250027 -2.820665 -0.238396 -0.959033 -0.055186 -0.262085
    63 -0.049759 -1.598510 0.041883 -1.452727 0.002301 -0.039455
    64 -0.034142 -1.171750 0.045718 -1.213317 0.006100 -0.031999
    65 0.957766 -2.746780 -0.090302 -0.967020 -0.142610 -0.221662
    66 -0.033420 -1.397129 -0.030789 -1.169356 -0.000348 -0.056353
    67 -0.022360 -0.961342 -0.008561 -1.040052 0.002493 -0.050311
    68 -1.180681 -2.507217 -0.193859 -1.236438 0.129161 -0.436820
    69 -0.024967 -1.127840 0.017597 -1.303785 -0.003284 -0.054613
    70 -0.020057 -0.906594 0.029622 -0.948478 0.006124 -0.038710
    71 0.579604 -1.208996 0.208817 -0.326250 -0.582726 -0.281572
    72 1.453893 -0.243668 0.079230 0.069351 -0.238661 -0.883176
    73 0.995299 -0.190791 0.047917 0.102297 -0.254160 -1.105122
    74 -0.129855 -0.120585 -0.210744 -2.424056 6.179877 -1.461872
    75 -4.059947 -5.848466 -7.903868 -0.875346 -3.149851 0.343406
    76 -0.239004 -8.594954 -0.024990 -1.494103 -2.460462 1.247114
    77 0.447953 -2.798986 -0.200443 -1.144926 0.004669 0.230027
    78 -0.032909 -1.499736 0.036191 -1.667899 0.022651 -0.034310
    79 -0.027022 -1.127703 -0.020210 -1.251207 0.024389 -0.022831
    80 -0.249534 -2.846964 -0.174213 -0.957082 0.015551 0.097919
    81 0.043235 -1.656596 0.060855 -1.674865 -0.024178 0.012069
    82 0.031729 -1.141298 0.054932 -1.274581 -0.014255 0.007054
    83 -0.963866 -2.785145 -0.085350 -0.788813 0.099597 0.033742
    84 0.028479 -1.414786 -0.028886 -1.359215 -0.042485 -0.038542
    85 0.021413 -0.942156 0.012233 -1.006015 -0.027061 -0.034408
    86 1.164475 -2.543940 -0.170330 -0.942945 -0.225421 0.300327
    87 0.024032 -1.156387 -0.009538 -1.558632 0.036889 0.069116
    88 0.014898 -0.899614 -0.015942 -0.891395 0.005297 0.045062
    89 -0.586770 -1.264477 0.200161 -0.136644 -0.848247 -2.615956
    90 1.554086 0.035243 0.016848 -0.013463 -0.005301 0.695389
    91 1.110134 0.040611 -0.005766 -0.033572 -0.033132 1.189747
    92 -0.014395 -0.092166 -0.009041 0.672740 0.073855 1.318297
    93 0.337052 8.948555 -0.196463 4.720245 -3.141717 1.363672
  time 1
    0 -0.353420 -12.949614 -17.734882 -1.517079 1.381358 -4.767513
    1 14.438131 0.000002 0.000160 0.000000 0.000000 0.000000
    2 2.904447 1.883698 0.107445 -0.000043 -0.004637 0.316846
    3 2.985905 0.000000 0.000002 0.000000 0.000000 -3.529377
    4 2.248901 0.000000 0.000000 0.000000 0.000000 -1.529178
    5 2.858892 -0.000006 0.000000 0.000000 0.000000 1.185403
    6 2.904449 0.000001 1.904633 1.570797 -0.312244 0.000000
    7 2.985904 0.000000 0.000000 0.000000 0.000000 -3.529378
    8 2.248901 0.000002 0.000000 0.000000 0.000000 -1.529178
    9 2.858891 -0.000006 0.000000 0.000000 0.000000 1.185403
    10 2.904449 -1.882430 0.107445 -0.000043 3.136956 -0.316846
    11 -2.985904 0.000000 -0.000002 0.000000 0.000000 -3.529377
    12 -2.248902 0.000000 0.000000 0.000000 0.000000 -1.529178
    13 -2.858891 0.000006 -0.000002 0.000000 0.000000 1.185403
    14 2.904449 0.000001 -1.905624 -1.570796 -2.829407 0.000000
    15 -2.985904 0.000000 0.000000 0.000000 0.000000 -3.529377
    16 -2.248902 0.000000 0.000000 0.000000 0.000000 -1.529178
    17 -2.858891 0.000006 0.000000 0.000000 0.000000 1.185403
    18 14.101058 0.000003 1.794754 1.570796 -0.271473 0.000000
    19 1.743555 0.000000 0.000000 0.000000 0.000000 1.953161
    20 0.901007 -0.000101 0.000000 0.000000 0.000000 0.677089
    21 14.101059 -1.776615 0.010445 -3.141592 0.000000 -0.271473
    22 1.743555 0.000000 0.000000 0.000000 0.000000 1.953161
    23 0.901005 -0.000101 0.000000 0.000000 0.000000 0.677089
    24 14.101057 1.774123 0.010445 0.000000 0.000000 3.413084
    25 -1.743554 0.000000 0.000000 0.000000 0.000000 1.953161
    26 -0.901005 0.000102 -0.000002 0.000000 0.000000 0.677089
    27 14.101059 0.000003 -1.778564 1.570796 -0.271494 3.141592
    28 -1.743555 0.000000 0.000000 0.000000 0.000000 1.953161
    29 -0.901005 0.000101 0.000000 0.000000 0.000000 0.677089
    30 104.008194 -51.038048 0.000000 0.000000 0.000000 -1.570796
    31 0.000008 -0.000008 0.000000 0.000000 0.000000 0.000000
    32 -0.000008 -0.000008 0.000000 0.000000 0.000000 0.000000
    33 -0.000008 0.000008 0.000000 0.000000 0.000000 0.000000
    34 0.000008 0.000008 0.000000 0.000000 0.000000 0.000000
    35 24.969147 12.634089 4.041708 -1.160167 -0.197444 -1.655995
    36 0.000000 0.000000 0.000000 0.000000 0.000000 0.000000
    37 0.000002 0.000000 0.000000 0.000000 0.000000 0.000000
    38 0.000000 0.000000 0.000000 0.000000 0.000000 0.000000
    39 -0.000002 0.000000 0.000000 0.000000 0.000000 0.000000
    40 39.861595 9.218575 -9.614350 0.372214 1.184185 -1.223827
    41 0.000000 0.000000 -0.000004 -1.570796 0.000000 0.000000
    42 0.000000 0.000000 0.000006 -1.570796 0.000000 0.000000
    43 0.000000 0.000000 -0.000007 -1.570796 0.000000 0.000000
    44 0.000000 0.000000 0.000006 -1.570796 0.000000 0.000000
    45 123.305351 0.000000 0.000000 -1.570796 -1.483530 -1.570796
    46 0.000000 0.000008 0.000000 0.000000 0.000000 0.000000
    47 0.000008 0.000000 0.000000 0.000000 0.000000 0.000000
    48 -0.000008 0.000000 0.000000 0.000000 0.000000 0.000000
    49 0.000000 -0.000008 0.000000 0.000000 0.000000 0.000000
    50 123.812790 0.000000 0.000000 1.570796 0.000000 -1.570796
    51 0.000000 0.000000 0.000000 0.000000 0.000000 0.000000
    52 0.000000 0.000000 0.000000 0.000000 0.000000 0.000000
    53 0.000000 0.000000 0.000000 0.000000 0.000000 0.000000
    54 0.000000 0.000000 0.000000 0.000000 0.000000 0.000000
    55 -0.002752 -0.001265 -4.499518 0.000000 0.000000 0.000000
    56 2.610680 -6.600435 -9.745373 5.147801 -3.053645 0.040020
    57 -0.457716 8.860244 -0.126368 -1.567111 0.005559 -1.355182
    58 0.178087 -8.592489 -0.104134 0.612917 0.353422 2.078047
    59 -0.488518 -2.755602 -0.228260 -1.234825 -0.028294 -0.355321
    60 0.039887 -1.530573 0.014229 -1.481573 -0.012140 0.032935
    61 0.028786 -1.228079 -0.132487 -1.533904 -0.012907 0.034971
    62 0.250027 -2.820665 -0.238396 -0.959386 -0.055318 -0.263212
    63 -0.049759 -1.598510 0.041883 -1.451859 0.002325 -0.039443
    64 -0.034142 -1.171750 0.045718 -1.211666 0.006112 -0.031963
    65 0.957766 -2.746780 -0.090302 -0.963865 -0.143054 -0.222450
    66 -0.033420 -1.397129 -0.030789 -1.167432 -0.000288 -0.056281
    67 -0.022360 -0.961342 -0.008561 -1.042294 0.002433 -0.050419
    68 -1.180681 -2.507217 -0.193859 -1.239635 0.128190 -0.438486
    69 -0.024967 -1.127840 0.017597 -1.300359 -0.003176 -0.054493
    70 -0.020057 -0.906594 0.029622 -0.944704 0.006172 -0.038542
    71 0.579604 -1.208996 0.208817 -0.326250 -0.582726 -0.281572
    72 1.453893 -0.243668 0.079230 0.069351 -0.238661 -0.883176
    73 0.995299 -0.190791 0.047917 0.102297 -0.254160 -1.105122
    74 -0.118136 -0.116678 -0.206837 -2.422462 6.188309 -1.469324
    75 -4.063853 -5.848466 -7.903868 -0.875346 -3.149851 0.343406
    76 -0.239004 -8.594954 -0.024990 -1.494103 -2.460462 1.247172
    77 0.447953 -2.798986 -0.200443 -1.144926 0.004669 0.230027
    78 -0.032909 -1.499736 0.036191 -1.667899 0.022651 -0.034310
    79 -0.027022 -1.127703 -0.020210 -1.251207 0.024401 -0.022831
    80 -0.249534 -2.846964 -0.174213 -0.957082 0.015551 0.097919
    81 0.043235 -1.656596 0.060855 -1.674865 -0.024178 0.012069
    82 0.031729 -1.141298 0.054932 -1.274581 -0.014255 0.007054
    83 -0.963866 -2.785145 -0.085350 -0.788813 0.099597 0.033742
    84 0.028479 -1.414786 -0.028886 -1.359215 -0.042485 -0.038542
    85 0.021413 -0.942156 0.012233 -1.006015 -0.027061 -0.034408
    86 1.164475 -2.543940 -0.170330 -0.942945 -0.225421 0.300327
    87 0.024032 -1.156387 -0.009538 -1.558632 0.036889 0.069116
    88 0.014898 -0.899614 -0.015942 -0.891395 0.005297 0.045062
    89 -0.586770 -1.264477 0.200161 -0.136644 -0.848247 -2.615956
    90 1.554086 0.035243 0.016848 -0.013463 -0.005301 0.695389
    91 1.110134 0.040611 -0.005766 -0.033572 -0.033132 1.189747
    92 -0.018302 -0.092166 -0.005135 0.660228 0.068018 1.326770
    93 0.333145 8.948555 -0.196463 4.720245 -3.141717 1.363941
  time 2
    0 -0.353420 -12.949614 -17.734882 -1.517079 1.381358 -4.767513
    1 14.438131 0.000002 0.000160 0.000000 0.000000 0.000000
    2 2.904447 1.883698 0.107445 -0.000043 -0.004637 0.297336
    3 2.985905 0.000000 0.000002 0.000000 0.000000 -3.481485
    4 2.248901 0.000000 0.000000 0.000000 0.000000 -1.523639
    5 2.858892 -0.000006 0.000000 0.000000 0.000000 1.164989
    6 2.904449 0.000001 1.904633 1.570797 -0.292706 0.000000
    7 2.985904 0.000000 0.000000 0.000000 0.000000 -3.481485
    8 2.248901 0.000002 0.000000 0.000000 0.000000 -1.523639
    9 2.858891 -0.000006 0.000000 0.000000 0.000000 1.164989
    10 2.904449 -1.882430 0.107445 -0.000043 3.136956 -0.297336
    11 -2.985904 0.000000 -0.000002 0.000000 0.000000 -3.481485
    12 -2.248902 0.000000 0.000000 0.000000 0.000000 -1.523639
    13 -2.858891 0.000006 -0.000002 0.000000 0.000000 1.164989
    14 2.904449 0.000001 -1.905624 -1.570796 -2.848961 0.000000
    15 -2.985904 0.000000 0.000000 0.000000 0.000000 -3.481485
    16 -2.248902 0.000000 0.000000 0.000000 0.000000 -1.523639
    17 -2.858891 0.000006 0.000000 0.000000 0.000000 1.164989
    18 14.101058 0.000003 1.794754 1.570796 -0.242019 0.000000
    19 1.743555 0.000000 0.000000 0.000000 0.000000 1.987579
    20 0.901007 -0.000101 0.000000 0.000000 0.000000 0.669722
    21 14.101059 -1.776615 0.010445 -3.141592 0.000000 -0.242018
    22 1.743555 0.000000 0.000000 0.000000 0.000000 1.987579
    23 0.901005 -0.000101 0.000000 0.000000 0.000000 0.669722
    24 14.101057 1.774123 0.010445 0.000000 0.000000 3.383628
    25 -1.743554 0.000000 0.000000 0.000000 0.000000 1.987579
    26 -0.901005 0.000102 -0.000002 0.000000 0.000000 0.669722
    27 14.101059 0.000003 -1.778564 -1.570796 3.383574 0.000000
    28 -1.743555 0.000000 0.000000 0.000000 0.000000 1.987579
    29 -0.901005 0.000101 0.000000 0.000000 0.000000 0.669722
    30 104.008194 -51.038048 0.000000 0.000000 0.000000 -1.570796
    31 0.000008 -0.000008 0.000000 0.000000 0.000000 0.000000
    32 -0.000008 -0.000008 0.000000 0.000000 0.000000 0.000000
    33 -0.000008 0.000008 0.000000 0.000000 0.000000 0.000000
    34 0.000008 0.000008 0.000000 0.000000 0.000000 0.000000
    35 24.969147 12.634089 4.041708 -1.160167 -0.197444 -1.655995
    36 0.000000 0.000000 0.000000 0.000000 0.000000 0.000000
    37 0.000002 0.000000 0.000000 0.000000 0.000000 0.000000
    38 0.000000 0.000000 0.000000 0.000000 0.000000 0.000000
    39 -0.000002 0.000000 0.000000 0.000000 0.000000 0.000000
    40 39.861595 9.218575 -9.614350 0.372214 1.184185 -1.223827
    41 0.000000 0.000000 -0.000004 -1.570796 0.000000 0.000000
    42 0.000000 0.000000 0.000006 -1.570796 0.000000 0.000000
    43 0.000000 0.000000 -0.000007 -1.570796 0.000000 0.000000
    44 0.000000 0.000000 0.000006 -1.570796 0.000000 0.000000
    45 123.305351 0.000000 0.000000 -1.570796 -1.483530 -1.570796
    46 0.000000 0.000008 0.000000 0.000000 0.000000 0.000000
    47 0.000008 0.000000 0.000000 0.000000 0.000000 0.000000
    48 -0.000008 0.000000 0.000000 0.000000 0.000000 0.000000
    49 0.000000 -0.000008 0.000000 0.000000 0.000000 0.000000
    50 123.812790 0.000000 0.000000 1.570796 0.000000 -1.570796
    51 0.000000 0.000000 0.000000 0.000000 0.000000 0.000000
    52 0.000000 0.000000 0.000000 0.000000 0.000000 0.000000
    53 0.000000 0.000000 0.000000 0.000000 0.000000 0.000000
    54 0.000000 0.000000 0.000000 0.000000 0.000000 0.000000
    55 -0.002752 -0.001265 -4.499518 0.000000 0.000000 0.000000
    56 2.669276 -6.541839 -9.690684 5.149047 -3.052207 0.038488
    57 -0.457716 8.860244 -0.126368 -1.567111 0.005559 -1.355182
    58 0.178087 -8.588583 -0.104134 0.616732 0.367134 2.066638
    59 -0.488518 -2.755602 -0.228260 -1.236594 -0.028906 -0.355956
    60 0.039887 -1.530573 0.014229 -1.479575 -0.012152 0.032887
    61 0.028786 -1.228079 -0.132487 -1.526152 -0.012991 0.034779
    62 0.250027 -2.820665 -0.238396 -0.959706 -0.055425 -0.264111
    63 -0.049759 -1.598510 0.041883 -1.451209 0.002337 -0.039419
    64 -0.034142 -1.171750 0.045718 -1.209584 0.006136 -0.031903
    65 0.957766 -2.746780 -0.090302 -0.960214 -0.143461 -0.222863
    66 -0.033420 -1.397129 -0.030789 -1.165902 -0.000252 -0.056209
    67 -0.022360 -0.961342 -0.008561 -1.044088 0.002397 -0.050491
    68 -1.180681 -2.507217 -0.193859 -1.243103 0.127208 -0.439852
    69 -0.024967 -1.127840 0.017597 -1.296330 -0.003056 -0.054361
    70 -0.020057 -0.906594 0.029622 -0.940807 0.006220 -0.038375
    71 0.579604 -1.208996 0.208817 -0.326250 -0.582726 -0.281572
    72 1.453893 -0.243668 0.079230 0.069351 -0.238661 -0.883176
    73 0.995299 -0.190791 0.047917 0.102297 -0.254160 -1.105122
    74 -0.110323 -0.112772 -0.202931 -2.420952 6.196645 -1.476681
    75 -4.063853 -5.848466 -7.903868 -0.875346 -3.149851 0.343406
    76 -0.239004 -8.594954 -0.024990 -1.494103 -2.460462 1.247114
    77 0.447953 -2.798986 -0.200443 -1.144926 0.004669 0.230027
    78 -0.032909 -1.499736 0.036191 -1.667899 0.022651 -0.034310
    79 -0.027022 -1.127703 -0.020210 -1.251207 0.024401 -0.022831
    80 -0.249534 -2.846964 -0.174213 -0.957082 0.015551 0.097919
    81 0.043235 -1.656596 0.060855 -1.674865 -0.024178 0.012069
    82 0.031729 -1.141298 0.054932 -1.274581 -0.014255 0.007054
    83 -0.963866 -2.785145 -0.085350 -0.788813 0.099597 0.033742
    84 0.028479 -1.414786 -0.028886 -1.359215 -0.042485 -0.038542
    85 0.021413 -0.942156 0.012233 -1.006015 -0.027061 -0.034408
    86 1.164475 -2.543940 -0.170330 -0.942945 -0.225421 0.300327
    87 0.024032 -1.156387 -0.009538 -1.558632 0.036889 0.069116
    88 0.014898 -0.899614 -0.015942 -0.891395 0.005297 0.045062
    89 -0.586770 -1.264477 0.200161 -0.136644 -0.848247 -2.615956
    90 1.554086 0.035243 0.016848 -0.013463 -0.005301 0.695389
    91 1.110134 0.040611 -0.005766 -0.033572 -0.033132 1.189747
    92 -0.022208 -0.092166 -0.005135 0.646030 0.062134 1.336382
    93 0.333145 8.948555 -0.196463 4.720245 -3.141717 1.363941
  time 3
    0 -0.353420 -12.949614 -17.734882 -1.517079 1.381358 -4.767513
    1 14.438131 0.000002 0.000160 0.000000 0.000000 0.000000
    2 2.904447 1.883698 0.107445 -0.000043 -0.004637 0.278352
    3 2.985905 0.000000 0.000002 0.000000 0.000000 -3.434739
    4 2.248901 0.000000 0.000000 0.000000 0.000000 -1.518099
    5 2.858892 -0.000006 0.000000 0.000000 0.000000 1.144416
    6 2.904449 0.000001 1.904633 1.570797 -0.273739 0.000000
    7 2.985904 0.000000 0.000000 0.000000 0.000000 -3.434739
    8 2.248901 0.000002 0.000000 0.000000 0.000000 -1.518099
    9 2.858891 -0.000006 0.000000 0.000000 0.000000 1.144416
    10 2.904449 -1.882430 0.107445 -0.000043 3.136956 -0.278352
    11 -2.985904 0.000000 -0.000002 0.000000 0.000000 -3.434739
    12 -2.248902 0.000000 0.000000 0.000000 0.000000 -1.518099
    13 -2.858891 0.000006 -0.000002 0.000000 0.000000 1.144416
    14 2.904449 0.000001 -1.905624 -1.570796 -2.867850 0.000000
    15 -2.985904 0.000000 0.000000 0.000000 0.000000 -3.434739
    16 -2.248902 0.000000 0.000000 0.000000 0.000000 -1.518099
    17 -2.858891 0.000006 0.000000 0.000000 0.000000 1.144416
    18 14.101058 0.000003 1.794754 1.570796 -0.212415 0.000000
    19 1.743555 0.000000 0.000000 0.000000 0.000000 2.022094
    20 0.901007 -0.000101 0.000000 0.000000 0.000000 0.662324
    21 14.101059 -1.776615 0.010445 -3.141592 0.000000 -0.212414
    22 1.743555 0.000000 0.000000 0.000000 0.000000 2.022094
    23 0.901005 -0.000101 0.000000 0.000000 0.000000 0.662324
    24 14.101057 1.774123 0.010445 0.000000 0.000000 3.354024
    25 -1.743554 0.000000 0.000000 0.000000 0.000000 2.022094
    26 -0.901005 0.000102 -0.000002 0.000000 0.000000 0.662324
    27 14.101059 0.000003 -1.778564 -1.570796 3.353996 0.000000
    28 -1.743555 0.000000 0.000000 0.000000 0.000000 2.022094
    29 -0.901005 0.000101 0.000000 0.000000 0.000000 0.662324
    30 104.008194 -51.038048 0.000000 0.000000 0.000000 -1.570796
    31 0.000008 -0.000008 0.000000 0.000000 0.000000 0.000000
    32 -0.000008 -0.000008 0.000000 0.000000 0.000000 0.000000
    33 -0.000008 0.000008 0.000000 0.000000 0.000000 0.000000
    34 0.000008 0.000008 0.000000 0.000000 0.000000 0.000000
    35 24.969147 12.634089 4.041708 -1.160167 -0.197444 -1.655995
    36 0.000000 0.000000 0.000000 0.000000 0.000000 0.000000
    37 0.000002 0.000000 0.000000 0.000000 0.000000 0.000000
    38 0.000000 0.000000 0.000000 0.000000 0.000000 0.000000
    39 -0.000002 0.000000 0.000000 0.000000 0.000000 0.000000
    40 39.861595 9.218575 -9.614350 0.372214 1.184185 -1.223827
    41 0.000000 0.000000 -0.000004 -1.570796 0.000000 0.000000
    42 0.000000 0.000000 0.000006 -1.570796 0.000000 0.000000
    43 0.000000 0.000000 -0.000007 -1.570796 0.000000 0.000000
    44 0.000000 0.000000 0.000006 -1.570796 0.000000 0.000000
    45 123.305351 0.000000 0.000000 -1.570796 -1.483530 -1.570796
    46 0.000000 0.000008 0.000000 0.000000 0.000000 0.000000
    47 0.000008 0.000000 0.000000 0.000000 0.000000 0.000000
    48 -0.000008 0.000000 0.000000 0.000000 0.000000 0.000000
    49 0.000000 -0.000008 0.000000 0.000000 0.000000 0.000000
    50 123.812790 0.000000 0.000000 1.570796 0.000000 -1.570796
    51 0.000000 0.000000 0.000000 0.000000 0.000000 0.000000
    52 0.000000 0.000000 0.000000 0.000000 0.000000 0.000000
    53 0.000000 0.000000 0.000000 0.000000 0.000000 0.000000
    54 0.000000 0.000000 0.000000 0.000000 0.000000 0.000000
    55 -0.002752 -0.001265 -4.499518 0.000000 0.000000 0.000000
    56 2.727871 -6.487150 -9.635994 5.150005 -3.049811 0.039637
    57 -0.457716 8.860244 -0.126368 -1.567111 0.005559 -1.355182
    58 0.174180 -8.588583 -0.100228 0.618305 0.387593 2.050679
    59 -0.488518 -2.755602 -0.228260 -1.238364 -0.029517 -0.356112
    60 0.039887 -1.530573 0.014229 -1.477530 -0.012176 0.032827
    61 0.028786 -1.228079 -0.132487 -1.517259 -0.013087 0.034552
    62 0.250027 -2.820665 -0.238396 -0.959867 -0.055485 -0.264674
    63 -0.049759 -1.598510 0.041883 -1.450775 0.002337 -0.039419
    64 -0.034142 -1.171750 0.045718 -1.206928 0.006172 -0.031831
    65 0.957766 -2.746780 -0.090302 -0.956067 -0.143809 -0.222743
    66 -0.033420 -1.397129 -0.030789 -1.164915 -0.000216 -0.056173
    67 -0.022360 -0.961342 -0.008561 -1.045209 0.002373 -0.050551
    68 -1.180681 -2.507217 -0.193859 -1.246734 0.126285 -0.440715
    69 -0.024967 -1.127840 0.017597 -1.291700 -0.002924 -0.054193
    70 -0.020057 -0.906594 0.029622 -0.936940 0.006268 -0.038207
    71 0.579604 -1.208996 0.208817 -0.326250 -0.582726 -0.281572
    72 1.453893 -0.243668 0.079230 0.069351 -0.238661 -0.883176
    73 0.995299 -0.190791 0.047917 0.102297 -0.254160 -1.105122
    74 -0.098604 -0.108866 -0.199025 -2.419359 6.204886 -1.484037
    75 -4.063853 -5.848466 -7.903868 -0.875346 -3.149851 0.343501
    76 -0.239004 -8.594954 -0.024990 -1.494103 -2.460462 1.247172
    77 0.447953 -2.798986 -0.200443 -1.144926 0.004669 0.230027
    78 -0.032909 -1.499736 0.036191 -1.667899 0.022651 -0.034310
    79 -0.027022 -1.127703 -0.020210 -1.251207 0.024401 -0.022831
    80 -0.249534 -2.846964 -0.174213 -0.957082 0.015551 0.097919
    81 0.043235 -1.656596 0.060855 -1.674865 -0.024178 0.012069
    82 0.031729 -1.141298 0.054932 -1.274581 -0.014255 0.007054
    83 -0.963866 -2.785145 -0.085350 -0.788813 0.099597 0.033742
    84 0.028479 -1.414786 -0.028886 -1.359215 -0.042485 -0.038542
    85 0.021413 -0.942156 0.012233 -1.006015 -0.027061 -0.034408
    86 1.164475 -2.543940 -0.170330 -0.942945 -0.225421 0.300327
    87 0.024032 -1.156387 -0.009538 -1.558632 0.036889 0.069116
    88 0.014898 -0.899614 -0.015942 -0.891395 0.005297 0.045062
    89 -0.586770 -1.264477 0.200161 -0.136644 -0.848247 -2.615956
    90 1.554086 0.035243 0.016848 -0.013463 -0.005301 0.695389
    91 1.110134 0.040611 -0.005766 -0.033572 -0.033132 1.189747
    92 -0.026114 -0.092166 -0.005135 0.630351 0.056225 1.346988
    93 0.333145 8.948555 -0.196463 4.720245 -3.141717 1.363941
  time 4
    0 -0.353420 -12.949614 -17.734882 -1.517079 1.381358 -4.767513
    1 14.438131 0.000002 0.000160 0.000000 0.000000 0.000000
    2 2.904447 1.883698 0.107445 -0.000043 -0.004637 0.259944
    3 2.985905 0.000000 0.000002 0.000000 0.000000 -3.389332
    4 2.248901 0.000000 0.000000 0.000000 0.000000 -1.512474
    5 2.858892 -0.000006 0.000000 0.000000 0.000000 1.123722
    6 2.904449 0.000001 1.904633 1.570797 -0.255297 0.000000
    7 2.985904 0.000000 0.000000 0.000000 0.000000 -3.389332
    8 2.248901 0.000002 0.000000 0.000000 0.000000 -1.512474
    9 2.858891 -0.000006 0.000000 0.000000 0.000000 1.123722
    10 2.904449 -1.882430 0.107445 -0.000043 3.136956 -0.259944
    11 -2.985904 0.000000 -0.000002 0.000000 0.000000 -3.389332
    12 -2.248902 0.000000 0.000000 0.000000 0.000000 -1.512474
    13 -2.858891 0.000006 -0.000002 0.000000 0.000000 1.123722
    14 2.904449 0.000001 -1.905624 -1.570796 -2.886265 0.000000
    15 -2.985904 0.000000 0.000000 0.000000 0.000000 -3.389332
    16 -2.248902 0.000000 0.000000 0.000000 0.000000 -1.512474
    17 -2.858891 0.000006 0.000000 0.000000 0.000000 1.123722
    18 14.101058 0.000003 1.794754 1.570796 -0.182811 0.000000
    19 1.743555 0.000000 0.000000 0.000000 0.000000 2.056656
    20 0.901007 -0.000101 0.000000 0.000000 0.000000 0.654909
    21 14.101059 -1.776615 0.010445 -3.141592 0.000000 -0.182811
    22 1.743555 0.000000 0.000000 0.000000 0.000000 2.056656
    23 0.901005 -0.000101 0.000000 0.000000 0.000000 0.654909
    24 14.101057 1.774123 0.010445 0.000000 0.000000 3.324382
    25 -1.743554 0.000000 0.000000 0.000000 0.000000 2.056656
    26 -0.901005 0.000102 -0.000002 0.000000 0.000000 0.654909
    27 14.101059 0.000003 -1.778564 -1.570796 3.324322 0.000000
    28 -1.743555 0.000000 0.000000 0.000000 0.000000 2.056656
    29 -0.901005 0.000101 0.000000 0.000000 0.000000 0.654909
    30 104.008194 -51.038048 0.000000 0.000000 0.000000 -1.570796
    31 0.000008 -0.000008 0.000000 0.000000 0.000000 0.000000
    32 -0.000008 -0.000008 0.000000 0.000000 0.000000 0.000000
    33 -0.000008 0.000008 0.000000 0.000000 0.000000 0.000000
    34 0.000008 0.000008 0.000000 0.000000 0.000000 0.000000
    35 24.969147 12.634089 4.041708 -1.160167 -0.197444 -1.655995
    36 0.000000 0.000000 0.000000 0.000000 0.000000 0.000000
    37 0.000002 0.000000 0.000000 0.000000 0.000000 0.000000
    38 0.000000 0.000000 0.000000 0.000000 0.000000 0.000000
    39 -0.000002 0.000000 0.000000 0.000000 0.000000 0.000000
    40 39.861595 9.218575 -9.614350 0.372214 1.184185 -1.223827
    41 0.000000 0.000000 -0.000004 -1.570796 0.000000 0.000000
    42 0.000000 0.000000 0.000006 -1.570796 0.000000 0.000000
    43 0.000000 0.000000 -0.000007 -1.570796 0.000000 0.000000
    44 0.000000 0.000000 0.000006 -1.570796 0.000000 0.000000
    45 123.305351 0.000000 0.000000 -1.570796 -1.483530 -1.570796
    46 0.000000 0.000008 0.000000 0.000000 0.000000 0.000000
    47 0.000008 0.000000 0.000000 0.000000 0.000000 0.000000
    48 -0.000008 0.000000 0.000000 0.000000 0.000000 0.000000
    49 0.000000 -0.000008 0.000000 0.000000 0.000000 0.000000
    50 123.812790 0.000000 0.000000 1.570796 0.000000 -1.570796
    51 0.000000 0.000000 0.000000 0.000000 0.000000 0.000000
    52 0.000000 0.000000 0.000000 0.000000 0.000000 0.000000
    53 0.000000 0.000000 0.000000 0.000000 0.000000 0.000000
    54 0.000000 0.000000 0.000000 0.000000 0.000000 0.000000
    55 -0.002752 -0.001265 -4.499518 0.000000 0.000000 0.000000
    56 2.790373 -6.432461 -9.585212 5.150771 -3.046264 0.043658
    57 -0.457716 8.860244 -0.126368 -1.567111 0.005559 -1.355182
    58 0.170274 -8.584677 -0.096321 0.617161 0.415878 2.028949
    59 -0.488518 -2.755602 -0.228260 -1.239989 -0.030080 -0.355609
    60 0.039887 -1.530573 0.014229 -1.475532 -0.012200 0.032779
    61 0.028786 -1.228079 -0.132487 -1.507367 -0.013183 0.034312
    62 0.250027 -2.820665 -0.238396 -0.959899 -0.055497 -0.264758
    63 -0.049759 -1.598510 0.041883 -1.450720 0.002337 -0.039407
    64 -0.034142 -1.171750 0.045718 -1.203733 0.006196 -0.031735
    65 0.957766 -2.746780 -0.090302 -0.951393 -0.144060 -0.221902
    66 -0.033420 -1.397129 -0.030789 -1.164767 -0.000216 -0.056161
    67 -0.022360 -0.961342 -0.008561 -1.045396 0.002361 -0.050551
    68 -1.180681 -2.507217 -0.193859 -1.250474 0.125470 -0.440895
    69 -0.024967 -1.127840 0.017597 -1.286468 -0.002768 -0.054014
    70 -0.020057 -0.906594 0.029622 -0.933288 0.006316 -0.038039
    71 0.579604 -1.208996 0.208817 -0.326250 -0.582726 -0.281572
    72 1.453893 -0.243668 0.079230 0.069351 -0.238661 -0.883176
    73 0.995299 -0.190791 0.047917 0.102297 -0.254160 -1.105122
    74 -0.086885 -0.101053 -0.191212 -2.417849 6.213030 -1.491203
    75 -4.063853 -5.848466 -7.903868 -0.875346 -3.149851 0.343501
    76 -0.239004 -8.594954 -0.024990 -1.494103 -2.460462 1.247172
    77 0.447953 -2.798986 -0.200443 -1.144926 0.004669 0.230027
    78 -0.032909 -1.499736 0.036191 -1.667899 0.022651 -0.034310
    79 -0.027022 -1.127703 -0.020210 -1.251207 0.024401 -0.022831
    80 -0.249534 -2.846964 -0.174213 -0.957082 0.015551 0.097919
    81 0.043235 -1.656596 0.060855 -1.674865 -0.024178 0.012069
    82 0.031729 -1.141298 0.054932 -1.274581 -0.014255 0.007054
    83 -0.963866 -2.785145 -0.085350 -0.788813 0.099597 0.033742
    84 0.028479 -1.414786 -0.028886 -1.359215 -0.042485 -0.038542
    85 0.021413 -0.942156 0.012233 -1.006015 -0.027061 -0.034408
    86 1.164475 -2.543940 -0.170330 -0.942945 -0.225421 0.300327
    87 0.024032 -1.156387 -0.009538 -1.558632 0.036889 0.069116
    88 0.014898 -0.899614 -0.015942 -0.891395 0.005297 0.045062
    89 -0.586770 -1.264477 0.200161 -0.136644 -0.848247 -2.615956
    90 1.554086 0.035243 0.016848 -0.013463 -0.005301 0.695389
    91 1.110134 0.040611 -0.005766 -0.033572 -0.033132 1.189747
    92 -0.033927 -0.092166 -0.005135 0.613370 0.050317 1.358481
    93 0.333145 8.948555 -0.196463 4.720245 -3.141717 1.363941
  time 5
    0 -0.353420 -12.949614 -17.734882 -1.517079 1.381358 -4.767513
    1 14.438131 0.000002 0.000160 0.000000 0.000000 0.000000
    2 2.904447 1.883698 0.107445 -0.000043 -0.004637 0.242111
    3 2.985905 0.000000 0.000002 0.000000 0.000000 -3.345071
    4 2.248901 0.000000 0.000000 0.000000 0.000000 -1.506850
    5 2.858892 -0.000006 0.000000 0.000000 0.000000 1.103029
    6 2.904449 0.000001 1.904633 1.570797 -0.237475 0.000000
    7 2.985904 0.000000 0.000000 0.000000 0.000000 -3.345072
    8 2.248901 0.000002 0.000000 0.000000 0.000000 -1.506850
    9 2.858891 -0.000006 0.000000 0.000000 0.000000 1.103029
    10 2.904449 -1.882430 0.107445 -0.000043 3.136956 -0.242111
    11 -2.985904 0.000000 -0.000002 0.000000 0.000000 -3.345071
    12 -2.248902 0.000000 0.000000 0.000000 0.000000 -1.506850
    13 -2.858891 0.000006 -0.000002 0.000000 0.000000 1.103029
    14 2.904449 0.000001 -1.905624 -1.570796 -2.904206 0.000000
    15 -2.985904 0.000000 0.000000 0.000000 0.000000 -3.345071
    16 -2.248902 0.000000 0.000000 0.000000 0.000000 -1.506850
    17 -2.858891 0.000006 0.000000 0.000000 0.000000 1.103029
    18 14.101058 0.000003 1.794754 1.570796 -0.153207 0.000000
    19 1.743555 0.000000 0.000000 0.000000 0.000000 2.091171
    20 0.901007 -0.000101 0.000000 0.000000 0.000000 0.647511
    21 14.101059 -1.776615 0.010445 -3.141592 0.000000 -0.153207
    22 1.743555 0.000000 0.000000 0.000000 0.000000 2.091171
    23 0.901005 -0.000101 0.000000 0.000000 0.000000 0.647511
    24 14.101057 1.774123 0.010445 0.000000 0.000000 3.294777
    25 -1.743554 0.000000 0.000000 0.000000 0.000000 2.091171
    26 -0.901005 0.000102 -0.000002 0.000000 0.000000 0.647511
    27 14.101059 0.000003 -1.778564 1.570796 -0.153180 3.141592
    28 -1.743555 0.000000 0.000000 0.000000 0.000000 2.091171
    29 -0.901005 0.000101 0.000000 0.000000 0.000000 0.647511
    30 104.008194 -51.038048 0.000000 0.000000 0.000000 -1.570796
    31 0.000008 -0.000008 0.000000 0.000000 0.000000 0.000000
    32 -0.000008 -0.000008 0.000000 0.000000 0.000000 0.000000
    33 -0.000008 0.000008 0.000000 0.000000 0.000000 0.000000
    34 0.000008 0.000008 0.000000 0.000000 0.000000 0.000000
    35 24.969147 12.634089 4.041708 -1.160167 -0.197444 -1.655995
    36 0.000000 0.000000 0.000000 0.000000 0.000000 0.000000
    37 0.000002 0.000000 0.000000 0.000000 0.000000 0.000000
    38 0.000000 0.000000 0.000000 0.000000 0.000000 0.000000
    39 -0.000002 0.000000 0.000000 0.000000 0.000000 0.000000
    40 39.861595 9.218575 -9.614350 0.372214 1.184185 -1.223827
    41 0.000000 0.000000 -0.000004 -1.570796 0.000000 0.000000
    42 0.000000 0.000000 0.000006 -1.570796 0.000000 0.000000
    43 0.000000 0.000000 -0.000007 -1.570796 0.000000 0.000000
    44 0.000000 0.000000 0.000006 -1.570796 0.000000 0.000000
    45 123.305351 0.000000 0.000000 -1.570796 -1.483530 -1.570796
    46 0.000000 0.000008 0.000000 0.000000 0.000000 0.000000
    47 0.000008 0.000000 0.000000 0.000000 0.000000 0.000000
    48 -0.000008 0.000000 0.000000 0.000000 0.000000 0.000000
    49 0.000000 -0.000008 0.000000 0.000000 0.000000 0.000000
    50 123.812790 0.000000 0.000000 1.570796 0.000000 -1.570796
    51 0.000000 0.000000 0.000000 0.000000 0.000000 0.000000
    52 0.000000 0.000000 0.000000 0.000000 0.000000 0.000000
    53 0.000000 0.000000 0.000000 0.000000 0.000000 0.000000
    54 0.000000 0.000000 0.000000 0.000000 0.000000 0.000000
    55 -0.002752 -0.001265 -4.499518 0.000000 0.000000 0.000000
    56 2.852875 -6.385585 -9.534429 5.151442 -3.041471 0.050647
    57 -0.457716 8.860244 -0.126368 -1.567111 0.005559 -1.355182
    58 0.162461 -8.580770 -0.092415 0.612441 0.452850 2.000291
    59 -0.488518 -2.755602 -0.228260 -1.241472 -0.030559 -0.354303
    60 0.039887 -1.530573 0.014229 -1.473582 -0.012212 0.032731
    61 0.028786 -1.224173 -0.132487 -1.496477 -0.013291 0.034036
    62 0.250027 -2.820665 -0.238396 -0.959739 -0.055437 -0.264242
    63 -0.049759 -1.598510 0.041883 -1.451100 0.002337 -0.039419
    64 -0.034142 -1.171750 0.045718 -1.199892 0.006244 -0.031639
    65 0.957766 -2.746780 -0.090302 -0.946253 -0.144180 -0.220207
    66 -0.033420 -1.397129 -0.030789 -1.165655 -0.000240 -0.056197
    67 -0.022360 -0.961342 -0.008561 -1.044349 0.002385 -0.050503
    68 -1.180681 -2.507217 -0.193859 -1.254267 0.124847 -0.440211
    69 -0.024967 -1.127840 0.017597 -1.280587 -0.002601 -0.053798
    70 -0.020057 -0.906594 0.029622 -0.929974 0.006352 -0.037895
    71 0.579604 -1.208996 0.208817 -0.326250 -0.582726 -0.281572
    72 1.453893 -0.243668 0.079230 0.069351 -0.238661 -0.883176
    73 0.995299 -0.190791 0.047917 0.102297 -0.254160 -1.105122
    74 -0.079072 -0.097146 -0.187306 -2.416340 6.220983 -1.498273
    75 -4.063853 -5.848466 -7.903868 -0.875346 -3.149851 0.343406
    76 -0.239004 -8.594954 -0.024990 -1.494103 -2.460462 1.247114
    77 0.447953 -2.798986 -0.200443 -1.144926 0.004669 0.230027
    78 -0.032909 -1.499736 0.036191 -1.667899 0.022651 -0.034310
    79 -0.027022 -1.127703 -0.020210 -1.251207 0.024401 -0.022831
    80 -0.249534 -2.846964 -0.174213 -0.957082 0.015551 0.097919
    81 0.043235 -1.656596 0.060855 -1.674865 -0.024178 0.012069
    82 0.031729 -1.141298 0.054932 -1.274581 -0.014255 0.007054
    83 -0.963866 -2.785145 -0.085350 -0.788813 0.099597 0.033742
    84 0.028479 -1.414786 -0.028886 -1.359215 -0.042485 -0.038542
    85 0.021413 -0.942156 0.012233 -1.006015 -0.027061 -0.034408
    86 1.164475 -2.543940 -0.170330 -0.942945 -0.225421 0.300327
    87 0.024032 -1.156387 -0.009538 -1.558632 0.036889 0.069116
    88 0.014898 -0.899614 -0.015942 -0.891395 0.005297 0.045062
    89 -0.586770 -1.264477 0.200161 -0.136644 -0.848247 -2.615956
    90 1.554086 0.035243 0.016848 -0.013463 -0.005301 0.695389
    91 1.110134 0.040611 -0.005766 -0.033572 -0.033132 1.189747
    92 -0.037833 -0.096073 -0.001228 0.595266 0.044432 1.370742
    93 0.333145 8.948555 -0.196463 4.720245 -3.141717 1.363941
  time 6
    0 -0.353420 -12.949614 -17.734882 -1.517079 1.381358 -4.767513
    1 14.438131 0.000002 0.000160 0.000000 0.000000 0.000000
    2 2.904447 1.883698 0.107445 -0.000043 -0.004637 0.224805
    3 2.985905 0.000000 0.000002 0.000000 0.000000 -3.302149
    4 2.248901 0.000000 0.000000 0.000000 0.000000 -1.501267
    5 2.858892 -0.000006 0.000000 0.000000 0.000000 1.082335
    6 2.904449 0.000001 1.904633 1.570797 -0.220176 0.000000
    7 2.985904 0.000000 0.000000 0.000000 0.000000 -3.302150
    8 2.248901 0.000002 0.000000 0.000000 0.000000 -1.501267
    9 2.858891 -0.000006 0.000000 0.000000 0.000000 1.082335
    10 2.904449 -1.882430 0.107445 -0.000043 3.136956 -0.224805
    11 -2.985904 0.000000 -0.000002 0.000000 0.000000 -3.302149
    12 -2.248902 0.000000 0.000000 0.000000 0.000000 -1.501267
    13 -2.858891 0.000006 -0.000002 0.000000 0.000000 1.082335
    14 2.904449 0.000001 -1.905624 -1.570796 -2.921482 0.000000
    15 -2.985904 0.000000 0.000000 0.000000 0.000000 -3.302149
    16 -2.248902 0.000000 0.000000 0.000000 0.000000 -1.501267
    17 -2.858891 0.000006 0.000000 0.000000 0.000000 1.082335
    18 14.101058 0.000003 1.794754 1.570796 -0.123753 0.000000
    19 1.743555 0.000000 0.000000 0.000000 0.000000 2.125542
    20 0.901007 -0.000101 0.000000 0.000000 0.000000 0.640144
    21 14.101059 -1.776615 0.010445 -3.141592 0.000000 -0.123753
    22 1.743555 0.000000 0.000000 0.000000 0.000000 2.125542
    23 0.901005 -0.000101 0.000000 0.000000 0.000000 0.640144
    24 14.101057 1.774123 0.010445 0.000000 0.000000 3.265322
    25 -1.743554 0.000000 0.000000 0.000000 0.000000 2.125542
    26 -0.901005 0.000102 -0.000002 0.000000 0.000000 0.640144
    27 14.101059 0.000003 -1.778564 -1.570796 3.265260 0.000000
    28 -1.743555 0.000000 0.000000 0.000000 0.000000 2.125542
    29 -0.901005 0.000101 0.000000 0.000000 0.000000 0.640144
    30 104.008194 -51.038048 0.000000 0.000000 0.000000 -1.570796
    31 0.000008 -0.000008 0.000000 0.000000 0.000000 0.000000
    32 -0.000008 -0.000008 0.000000 0.000000 0.000000 0.000000
    33 -0.000008 0.000008 0.000000 0.000000 0.000000 0.000000
    34 0.000008 0.000008 0.000000 0.000000 0.000000 0.000000
    35 24.969147 12.634089 4.041708 -1.160167 -0.197444 -1.655995
    36 0.000000 0.000000 0.000000 0.000000 0.000000 0.000000
    37 0.000002 0.000000 0.000000 0.000000 0.000000 0.000000
    38 0.000000 0.000000 0.000000 0.000000 0.000000 0.000000
    39 -0.000002 0.000000 0.000000 0.000000 0.000000 0.000000
    40 39.861595 9.218575 -9.614350 0.372214 1.184185 -1.223827
    41 0.000000 0.000000 -0.000004 -1.570796 0.000000 0.000000
    42 0.000000 0.000000 0.000006 -1.570796 0.000000 0.000000
    43 0.000000 0.000000 -0.000007 -1.570796 0.000000 0.000000
    44 0.000000 0.000000 0.000006 -1.570796 0.000000 0.000000
    45 123.305351 0.000000 0.000000 -1.570796 -1.483530 -1.570796
    46 0.000000 0.000008 0.000000 0.000000 0.000000 0.000000
    47 0.000008 0.000000 0.000000 0.000000 0.000000 0.000000
    48 -0.000008 0.000000 0.000000 0.000000 0.000000 0.000000
    49 0.000000 -0.000008 0.000000 0.000000 0.000000 0.000000
    50 123.812790 0.000000 0.000000 1.570796 0.000000 -1.570796
    51 0.000000 0.000000 0.000000 0.000000 0.000000 0.000000
    52 0.000000 0.000000 0.000000 0.000000 0.000000 0.000000
    53 0.000000 0.000000 0.000000 0.000000 0.000000 0.000000
    54 0.000000 0.000000 0.000000 0.000000 0.000000 0.000000
    55 -0.002752 -0.001265 -4.499518 0.000000 0.000000 0.000000
    56 2.915377 -6.346521 -9.483646 5.152112 -3.035240 0.061179
    57 -0.457716 8.860244 -0.126368 -1.567111 0.005559 -1.355182
    58 0.154648 -8.572957 -0.088509 0.602619 0.499513 1.962669
    59 -0.488518 -2.755602 -0.228260 -1.242667 -0.030943 -0.352013
    60 0.039887 -1.530573 0.014229 -1.471774 -0.012224 0.032683
    61 0.028786 -1.224173 -0.132487 -1.484587 -0.013411 0.033737
    62 0.250027 -2.820665 -0.238396 -0.959322 -0.055294 -0.262996
    63 -0.049759 -1.598510 0.041883 -1.452022 0.002313 -0.039443
    64 -0.034142 -1.171750 0.045718 -1.195406 0.006292 -0.031507
    65 0.957766 -2.746780 -0.090302 -0.940645 -0.144144 -0.217470
    66 -0.033420 -1.397129 -0.030789 -1.167777 -0.000300 -0.056293
    67 -0.022360 -0.961342 -0.008561 -1.041846 0.002445 -0.050395
    68 -1.180681 -2.507217 -0.193859 -1.257898 0.124463 -0.438462
    69 -0.024967 -1.127840 0.017597 -1.274104 -0.002421 -0.053570
    70 -0.020057 -0.906594 0.029622 -0.927182 0.006388 -0.037775
    71 0.579604 -1.208996 0.208817 -0.326250 -0.582726 -0.281572
    72 1.453893 -0.243668 0.079230 0.069351 -0.238661 -0.883176
    73 0.995299 -0.190791 0.047917 0.102297 -0.254160 -1.105122
    74 -0.071259 -0.093240 -0.183399 -2.414914 6.228744 -1.505152
    75 -4.063853 -5.848466 -7.903868 -0.875346 -3.149851 0.343406
    76 -0.239004 -8.594954 -0.024990 -1.494103 -2.460462 1.247114
    77 0.447953 -2.798986 -0.200443 -1.144926 0.004669 0.230027
    78 -0.032909 -1.499736 0.036191 -1.667899 0.022651 -0.034310
    79 -0.027022 -1.127703 -0.020210 -1.251207 0.024401 -0.022831
    80 -0.249534 -2.846964 -0.174213 -0.957082 0.015551 0.097919
    81 0.043235 -1.656596 0.060855 -1.674865 -0.024178 0.012069
    82 0.031729 -1.141298 0.054932 -1.274581 -0.014255 0.007054
    83 -0.963866 -2.785145 -0.085350 -0.788813 0.099597 0.033742
    84 0.028479 -1.414786 -0.028886 -1.359215 -0.042485 -0.038542
    85 0.021413 -0.942156 0.012233 -1.006015 -0.027061 -0.034408
    86 1.164475 -2.543940 -0.170330 -0.942945 -0.225421 0.300327
    87 0.024032 -1.156387 -0.009538 -1.558632 0.036889 0.069116
    88 0.014898 -0.899614 -0.015942 -0.891395 0.005297 0.045062
    89 -0.586770 -1.264477 0.200161 -0.136644 -0.848247 -2.615956
    90 1.554086 0.035243 0.016848 -0.013463 -0.005301 0.695389
    91 1.110134 0.040611 -0.005766 -0.033572 -0.033132 1.189747
    92 -0.045646 -0.096073 -0.001228 0.576242 0.038584 1.383613
    93 0.333145 8.948555 -0.196463 4.720245 -3.141717 1.363941
  time 7
    0 -0.353420 -12.949614 -17.734882 -1.517079 1.381358 -4.767513
    1 14.438131 0.000002 0.000160 0.000000 0.000000 0.000000
    2 2.904447 1.883698 0.107445 -0.000043 -0.004637 0.208122
    3 2.985905 0.000000 0.000002 0.000000 0.000000 -3.260470
    4 2.248901 0.000000 0.000000 0.000000 0.000000 -1.495685
    5 2.858892 -0.000006 0.000000 0.000000 0.000000 1.061762
    6 2.904449 0.000001 1.904633 1.570797 -0.203497 0.000000
    7 2.985904 0.000000 0.000000 0.000000 0.000000 -3.260470
    8 2.248901 0.000002 0.000000 0.000000 0.000000 -1.495685
    9 2.858891 -0.000006 0.000000 0.000000 0.000000 1.061762
    10 2.904449 -1.882430 0.107445 -0.000043 3.136956 -0.208122
    11 -2.985904 0.000000 -0.000002 0.000000 0.000000 -3.260470
    12 -2.248902 0.000000 0.000000 0.000000 0.000000 -1.495685
    13 -2.858891 0.000006 -0.000002 0.000000 0.000000 1.061762
    14 2.904449 0.000001 -1.905624 -1.570796 -2.938093 0.000000
    15 -2.985904 0.000000 0.000000 0.000000 0.000000 -3.260470
    16 -2.248902 0.000000 0.000000 0.000000 0.000000 -1.495685
    17 -2.858891 0.000006 0.000000 0.000000 0.000000 1.061762
    18 14.101058 0.000003 1.794754 1.570796 -0.094485 0.000000
    19 1.743555 0.000000 0.000000 0.000000 0.000000 2.159673
    20 0.901007 -0.000101 0.000000 0.000000 0.000000 0.632842
    21 14.101059 -1.776615 0.010445 -3.141592 0.000000 -0.094484
    22 1.743555 0.000000 0.000000 0.000000 0.000000 2.159673
    23 0.901005 -0.000101 0.000000 0.000000 0.000000 0.632842
    24 14.101057 1.774123 0.010445 0.000000 0.000000 3.236090
    25 -1.743554 0.000000 0.000000 0.000000 0.000000 2.159673
    26 -0.901005 0.000102 -0.000002 0.000000 0.000000 0.632842
    27 14.101059 0.000003 -1.778564 1.570796 -0.094499 3.141592
    28 -1.743555 0.000000 0.000000 0.000000 0.000000 2.159673
    29 -0.901005 0.000101 0.000000 0.000000 0.000000 0.632842
    30 104.008194 -51.038048 0.000000 0.000000 0.000000 -1.570796
    31 0.000008 -0.000008 0.000000 0.000000 0.000000 0.000000
    32 -0.000008 -0.000008 0.000000 0.000000 0.000000 0.000000
    33 -0.000008 0.000008 0.000000 0.000000 0.000000 0.000000
    34 0.000008 0.000008 0.000000 0.000000 0.000000 0.000000
    35 24.969147 12.634089 4.041708 -1.160167 -0.197444 -1.655995
    36 0.000000 0.000000 0.000000 0.000000 0.000000 0.000000
    37 0.000002 0.000000 0.000000 0.000000 0.000000 0.000000
    38 0.000000 0.000000 0.000000 0.000000 0.000000 0.000000
    39 -0.000002 0.000000 0.000000 0.000000 0.000000 0.000000
    40 39.861595 9.218575 -9.614350 0.372214 1.184185 -1.223827
    41 0.000000 0.000000 -0.000004 -1.570796 0.000000 0.000000
    42 0.000000 0.000000 0.000006 -1.570796 0.000000 0.000000
    43 0.000000 0.000000 -0.000007 -1.570796 0.000000 0.000000
    44 0.000000 0.000000 0.000006 -1.570796 0.000000 0.000000
    45 123.305351 0.000000 0.000000 -1.570796 -1.483530 -1.570796
    46 0.000000 0.000008 0.000000 0.000000 0.000000 0.000000
    47 0.000008 0.000000 0.000000 0.000000 0.000000 0.000000
    48 -0.000008 0.000000 0.000000 0.000000 0.000000 0.000000
    49 0.000000 -0.000008 0.000000 0.000000 0.000000 0.000000
    50 123.812790 0.000000 0.000000 1.570796 0.000000 -1.570796
    51 0.000000 0.000000 0.000000 0.000000 0.000000 0.000000
    52 0.000000 0.000000 0.000000 0.000000 0.000000 0.000000
    53 0.000000 0.000000 0.000000 0.000000 0.000000 0.000000
    54 0.000000 0.000000 0.000000 0.000000 0.000000 0.000000
    55 -0.002752 -0.001265 -4.499518 0.000000 0.000000 0.000000
    56 2.977879 -6.311364 -9.432863 5.152878 -3.027188 0.075540
    57 -0.457716 8.860244 -0.126368 -1.567111 0.005559 -1.355182
    58 0.142929 -8.565145 -0.080696 0.585358 0.556370 1.913367
    59 -0.488518 -2.755602 -0.228260 -1.243575 -0.031183 -0.348610
    60 0.039887 -1.530573 0.014229 -1.470205 -0.012248 0.032647
    61 0.028786 -1.220267 -0.132487 -1.471747 -0.013531 0.033425
    62 0.250027 -2.820665 -0.238396 -0.958648 -0.055042 -0.260887
    63 -0.049759 -1.598510 0.041883 -1.453595 0.002289 -0.039479
    64 -0.034142 -1.171750 0.045718 -1.190129 0.006352 -0.031376
    65 0.957766 -2.746780 -0.090302 -0.934569 -0.143941 -0.213532
    66 -0.033420 -1.397129 -0.030789 -1.171429 -0.000407 -0.056436
    67 -0.022360 -0.961342 -0.008561 -1.037661 0.002541 -0.050203
    68 -1.180681 -2.507217 -0.193859 -1.261421 0.124379 -0.435478
    69 -0.024967 -1.127840 0.017597 -1.267066 -0.002217 -0.053318
    70 -0.020057 -0.906594 0.029622 -0.925095 0.006412 -0.037680
    71 0.579604 -1.208996 0.208817 -0.326250 -0.582726 -0.281572
    72 1.453893 -0.243668 0.079230 0.069351 -0.238661 -0.883176
    73 0.995299 -0.190791 0.047917 0.102297 -0.254160 -1.105122
    74 -0.059540 -0.089334 -0.179493 -2.413488 6.236314 -1.511839
    75 -4.063853 -5.848466 -7.903868 -0.875346 -3.149851 0.343501
    76 -0.239004 -8.594954 -0.024990 -1.494103 -2.460462 1.247172
    77 0.447953 -2.798986 -0.200443 -1.144926 0.004669 0.230027
    78 -0.032909 -1.499736 0.036191 -1.667899 0.022651 -0.034310
    79 -0.027022 -1.127703 -0.020210 -1.251207 0.024401 -0.022831
    80 -0.249534 -2.846964 -0.174213 -0.957082 0.015551 0.097919
    81 0.043235 -1.656596 0.060855 -1.674865 -0.024178 0.012069
    82 0.031729 -1.141298 0.054932 -1.274581 -0.014255 0.007054
    83 -0.963866 -2.785145 -0.085350 -0.788813 0.099597 0.033742
    84 0.028479 -1.414786 -0.028886 -1.359215 -0.042485 -0.038542
    85 0.021413 -0.942156 0.012233 -1.006015 -0.027061 -0.034408
    86 1.164475 -2.543940 -0.170330 -0.942945 -0.225421 0.300327
    87 0.024032 -1.156387 -0.009538 -1.558632 0.036889 0.069116
    88 0.014898 -0.899614 -0.015942 -0.891395 0.005297 0.045062
    89 -0.586770 -1.264477 0.200161 -0.136644 -0.848247 -2.615956
    90 1.554086 0.035243 0.016848 -0.013463 -0.005301 0.695389
    91 1.110134 0.040611 -0.005766 -0.033572 -0.033132 1.189747
    92 -0.049553 -0.096073 -0.001228 0.556478 0.032819 1.397000
    93 0.333145 8.948555 -0.196463 4.720245 -3.141717 1.364030
  time 8
    0 -0.353420 -12.949614 -17.734882 -1.517079 1.381358 -4.767513
    1 14.438131 0.000002 0.000160 0.000000 0.000000 0.000000
    2 2.904447 1.883698 0.107445 -0.000043 -0.004637 0.192015
    3 2.985905 0.000000 0.000002 0.000000 0.000000 -3.220225
    4 2.248901 0.000000 0.000000 0.000000 0.000000 -1.490146
    5 2.858892 -0.000006 0.000000 0.000000 0.000000 1.041348
    6 2.904449 0.000001 1.904633 1.570797 -0.187390 0.000000
    7 2.985904 0.000000 0.000000 0.000000 0.000000 -3.220225
    8 2.248901 0.000002 0.000000 0.000000 0.000000 -1.490146
    9 2.858891 -0.000006 0.000000 0.000000 0.000000 1.041348
    10 2.904449 -1.882430 0.107445 -0.000043 3.136956 -0.192015
    11 -2.985904 0.000000 -0.000002 0.000000 0.000000 -3.220225
    12 -2.248902 0.000000 0.000000 0.000000 0.000000 -1.490146
    13 -2.858891 0.000006 -0.000002 0.000000 0.000000 1.041348
    14 2.904449 0.000001 -1.905624 -1.570796 -2.954230 0.000000
    15 -2.985904 0.000000 0.000000 0.000000 0.000000 -3.220225
    16 -2.248902 0.000000 0.000000 0.000000 0.000000 -1.490146
    17 -2.858891 0.000006 0.000000 0.000000 0.000000 1.041348
    18 14.101058 0.000003 1.794754 1.570796 -0.065515 0.000000
    19 1.743555 0.000000 0.000000 0.000000 0.000000 2.193468
    20 0.901007 -0.000101 0.000000 0.000000 0.000000 0.625603
    21 14.101059 -1.776615 0.010445 -3.141592 0.000000 -0.065515
    22 1.743555 0.000000 0.000000 0.000000 0.000000 2.193468
    23 0.901005 -0.000101 0.000000 0.000000 0.000000 0.625603
    24 14.101057 1.774123 0.010445 0.000000 0.000000 3.207119
    25 -1.743554 0.000000 0.000000 0.000000 0.000000 2.193468
    26 -0.901005 0.000102 -0.000002 0.000000 0.000000 0.625603
    27 14.101059 0.000003 -1.778564 1.570796 -0.065492 3.141592
    28 -1.743555 0.000000 0.000000 0.000000 0.000000 2.193468
    29 -0.901005 0.000101 0.000000 0.000000 0.000000 0.625603
    30 104.008194 -51.038048 0.000000 0.000000 0.000000 -1.570796
    31 0.000008 -0.000008 0.000000 0.000000 0.000000 0.000000
    32 -0.000008 -0.000008 0.000000 0.000000 0.000000 0.000000
    33 -0.000008 0.000008 0.000000 0.000000 0.000000 0.000000
    34 0.000008 0.000008 0.000000 0.000000 0.000000 0.000000
    35 24.969147 12.634089 4.041708 -1.160167 -0.197444 -1.655995
    36 0.000000 0.000000 0.000000 0.000000 0.000000 0.000000
    37 0.000002 0.000000 0.000000 0.000000 0.000000 0.000000
    38 0.000000 0.000000 0.000000 0.000000 0.000000 0.000000
    39 -0.000002 0.000000 0.000000 0.000000 0.000000 0.000000
    40 39.861595 9.218575 -9.614350 0.372214 1.184185 -1.223827
    41 0.000000 0.000000 -0.000004 -1.570796 0.000000 0.000000
    42 0.000000 0.000000 0.000006 -1.570796 0.000000 0.000000
    43 0.000000 0.000000 -0.000007 -1.570796 0.000000 0.000000
    44 0.000000 0.000000 0.000006 -1.570796 0.000000 0.000000
    45 123.305351 0.000000 0.000000 -1.570796 -1.483530 -1.570796
    46 0.000000 0.000008 0.000000 0.000000 0.000000 0.000000
    47 0.000008 0.000000 0.000000 0.000000 0.000000 0.000000
    48 -0.000008 0.000000 0.000000 0.000000 0.000000 0.000000
    49 0.000000 -0.000008 0.000000 0.000000 0.000000 0.000000
    50 123.812790 0.000000 0.000000 1.570796 0.000000 -1.570796
    51 0.000000 0.000000 0.000000 0.000000 0.000000 0.000000
    52 0.000000 0.000000 0.000000 0.000000 0.000000 0.000000
    53 0.000000 0.000000 0.000000 0.000000 0.000000 0.000000
    54 0.000000 0.000000 0.000000 0.000000 0.000000 0.000000
    55 -0.002752 -0.001265 -4.499518 0.000000 0.000000 0.000000
    56 4.059943 -6.123858 -9.421144 5.165715 -2.908226 0.039159
    57 2.093143 8.578985 -0.169338 1.569506 3.140573 1.469135
    58 0.123397 -8.565145 -0.076789 0.559611 0.625288 1.728315
    59 -0.488518 -2.755602 -0.228260 -1.244006 -0.031267 -0.343924
    60 0.039887 -1.530573 0.014229 -1.468920 -0.012260 0.032611
    61 0.028786 -1.220267 -0.132487 -1.458003 -0.013650 0.033077
    62 0.250027 -2.820665 -0.238396 -0.957622 -0.054682 -0.257795
    63 -0.049759 -1.598510 0.041883 -1.455927 0.002241 -0.039527
    64 -0.034142 -1.171750 0.045718 -1.184099 0.006412 -0.031208
    65 0.957766 -2.746780 -0.090302 -0.928056 -0.143545 -0.208232
    66 -0.033420 -1.397129 -0.030789 -1.176709 -0.000551 -0.056664
    67 -0.022360 -0.961342 -0.008561 -1.031458 0.002685 -0.049928
    68 -1.180681 -2.507217 -0.193859 -1.264618 0.124667 -0.431067
    69 -0.024967 -1.127840 0.017597 -1.259380 -0.002001 -0.053043
    70 -0.020057 -0.906594 0.029622 -0.923868 0.006424 -0.037632
    71 0.579604 -1.208996 0.208817 -0.326250 -0.582726 -0.281572
    72 1.453893 -0.243668 0.079230 0.069351 -0.238661 -0.883176
    73 0.995299 -0.190791 0.047917 0.102297 -0.254160 -1.105122
    74 -0.051727 -0.085427 -0.175586 -2.412063 6.243692 -1.518336
    75 -4.063853 -5.848466 -7.903868 -0.875346 -3.149851 0.343406
    76 -0.239004 -8.594954 -0.024990 -1.494103 -2.460462 1.247056
    77 0.447953 -2.798986 -0.200443 -1.144926 0.004669 0.230027
    78 -0.032909 -1.499736 0.036191 -1.667899 0.022651 -0.034310
    79 -0.027022 -1.127703 -0.020210 -1.251207 0.024401 -0.022831
    80 -0.249534 -2.846964 -0.174213 -0.957082 0.015551 0.097919
    81 0.043235 -1.656596 0.060855 -1.674865 -0.024178 0.012069
    82 0.031729 -1.141298 0.054932 -1.274581 -0.014255 0.007054
    83 -0.963866 -2.785145 -0.085350 -0.788813 0.099597 0.033742
    84 0.028479 -1.414786 -0.028886 -1.359215 -0.042485 -0.038542
    85 0.021413 -0.942156 0.012233 -1.006015 -0.027061 -0.034408
    86 1.164475 -2.543940 -0.170330 -0.942945 -0.225421 0.300327
    87 0.024032 -1.156387 -0.009538 -1.558632 0.036889 0.069116
    88 0.014898 -0.899614 -0.015942 -0.891395 0.005297 0.045062
    89 -0.586770 -1.264477 0.200161 -0.136644 -0.848247 -2.615956
    90 1.554086 0.035243 0.016848 -0.013463 -0.005301 0.695389
    91 1.110134 0.040611 -0.005766 -0.033572 -0.033132 1.189747
    92 -0.057365 -0.099979 0.002678 0.536139 0.027139 1.410758
    93 0.333145 8.948555 -0.196463 4.720245 -3.141717 1.363941
  time 9
    0 -0.349514 -12.949614 -17.734882 -1.517079 1.381358 -4.767513
    1 14.438131 0.000002 0.000160 0.000000 0.000000 0.000000
    2 2.904447 1.883698 0.107445 -0.000043 -0.004637 0.336933
    3 2.985905 0.000000 0.000002 0.000000 0.000000 -3.578322
    4 2.248901 0.000000 0.000000 0.000000 0.000000 -1.534675
    5 2.858892 -0.000006 0.000000 0.000000 0.000000 1.205617
    6 2.904449 0.000001 1.904633 1.570797 -0.332258 0.000000
    7 2.985904 0.000000 0.000000 0.000000 0.000000 -3.578322
    8 2.248901 0.000002 0.000000 0.000000 0.000000 -1.534675
    9 2.858891 -0.000006 0.000000 0.000000 0.000000 1.205617
    10 2.904449 -1.882430 0.107445 -0.000043 3.136956 -0.336933
    11 -2.985904 0.000000 -0.000002 0.000000 0.000000 -3.578322
    12 -2.248902 0.000000 0.000000 0.000000 0.000000 -1.534675
    13 -2.858891 0.000006 -0.000002 0.000000 0.000000 1.205617
    14 2.904449 0.000001 -1.905624 1.570796 -0.332374 -3.141592
    15 -2.985904 0.000000 0.000000 0.000000 0.000000 -3.578322
    16 -2.248902 0.000000 0.000000 0.000000 0.000000 -1.534675
    17 -2.858891 0.000006 0.000000 0.000000 0.000000 1.205617
    18 14.101058 0.000003 1.794754 1.570796 -0.300741 0.000000
    19 1.743555 0.000000 0.000000 0.000000 0.000000 1.919030
    20 0.901007 -0.000101 0.000000 0.000000 0.000000 0.684407
    21 14.101059 -1.776615 0.010445 -3.141592 0.000000 -0.300741
    22 1.743555 0.000000 0.000000 0.000000 0.000000 1.919030
    23 0.901005 -0.000101 0.000000 0.000000 0.000000 0.684407
    24 14.101057 1.774123 0.010445 0.000000 0.000000 3.442315
    25 -1.743554 0.000000 0.000000 0.000000 0.000000 1.919030
    26 -0.901005 0.000102 -0.000002 0.000000 0.000000 0.684407
    27 14.101059 0.000003 -1.778564 -1.570796 3.442255 0.000000
    28 -1.743555 0.000000 0.000000 0.000000 0.000000 1.919030
    29 -0.901005 0.000101 0.000000 0.000000 0.000000 0.684407
    30 104.008194 -51.038048 0.000000 0.000000 0.000000 -1.570796
    31 0.000008 -0.000008 0.000000 0.000000 0.000000 0.000000
    32 -0.000008 -0.000008 0.000000 0.000000 0.000000 0.000000
    33 -0.000008 0.000008 0.000000 0.000000 0.000000 0.000000
    34 0.000008 0.000008 0.000000 0.000000 0.000000 0.000000
    35 24.969147 12.634089 4.041708 -1.160167 -0.197444 -1.655995
    36 0.000000 0.000000 0.000000 0.000000 0.000000 0.000000
    37 0.000002 0.000000 0.000000 0.000000 0.000000 0.000000
    38 0.000000 0.000000 0.000000 0.000000 0.000000 0.000000
    39 -0.000002 0.000000 0.000000 0.000000 0.000000 0.000000
    40 39.861595 9.218575 -9.614350 0.372214 1.184185 -1.223827
    41 0.000000 0.000000 -0.000004 -1.570796 0.000000 0.000000
    42 0.000000 0.000000 0.000006 -1.570796 0.000000 0.000000
    43 0.000000 0.000000 -0.000007 -1.570796 0.000000 0.000000
    44 0.000000 0.000000 0.000006 -1.570796 0.000000 0.000000
    45 123.305351 0.000000 0.000000 -1.570796 -1.483530 -1.570796
    46 0.000000 0.000008 0.000000 0.000000 0.000000 0.000000
    47 0.000008 0.000000 0.000000 0.000000 0.000000 0.000000
    48 -0.000008 0.000000 0.000000 0.000000 0.000000 0.000000
    49 0.000000 -0.000008 0.000000 0.000000 0.000000 0.000000
    50 123.812790 0.000000 0.000000 1.570796 0.000000 -1.570796
    51 0.000000 0.000000 0.000000 0.000000 0.000000 0.000000
    52 0.000000 0.000000 0.000000 0.000000 0.000000 0.000000
    53 0.000000 0.000000 0.000000 0.000000 0.000000 0.000000
    54 0.000000 0.000000 0.000000 0.000000 0.000000 0.000000
    55 -0.002752 -0.001265 -4.499518 0.000000 0.000000 0.000000
    56 2.552085 -6.662937 -9.803968 5.146173 -3.054029 0.044137
    57 -0.457716 8.860244 -0.126368 -1.567111 0.005559 -1.355182
    58 0.178087 -8.592489 -0.104134 0.607005 0.345669 2.085449
    59 -0.488518 -2.755602 -0.228260 -1.233104 -0.027683 -0.354338
    60 0.039887 -1.530573 0.014229 -1.483428 -0.012116 0.032983
    61 0.028786 -1.231986 -0.128581 -1.540610 -0.012835 0.035127
    62 0.250027 -2.820665 -0.238396 -0.959033 -0.055186 -0.262085
    63 -0.049759 -1.598510 0.041883 -1.452727 0.002301 -0.039455
    64 -0.034142 -1.171750 0.045718 -1.213317 0.006100 -0.031999
    65 0.957766 -2.746780 -0.090302 -0.967020 -0.142610 -0.221662
    66 -0.033420 -1.397129 -0.030789 -1.169356 -0.000348 -0.056353
    67 -0.022360 -0.961342 -0.008561 -1.040052 0.002493 -0.050311
    68 -1.180681 -2.507217 -0.193859 -1.236438 0.129161 -0.436820
    69 -0.024967 -1.127840 0.017597 -1.303785 -0.003284 -0.054613
    70 -0.020057 -0.906594 0.029622 -0.948478 0.006124 -0.038710
    71 0.579604 -1.208996 0.208817 -0.326250 -0.582726 -0.281572
    72 1.453893 -0.243668 0.079230 0.069351 -0.238661 -0.883176
    73 0.995299 -0.190791 0.047917 0.102297 -0.254160 -1.105122
    74 -0.129855 -0.120585 -0.210744 -2.424056 6.179877 -1.461872
    75 -4.059947 -5.848466 -7.903868 -0.875346 -3.149851 0.343406
    76 -0.239004 -8.594954 -0.024990 -1.494103 -2.460462 1.247114
    77 0.447953 -2.798986 -0.200443 -1.144926 0.004669 0.230027
    78 -0.032909 -1.499736 0.036191 -1.667899 0.022651 -0.034310
    79 -0.027022 -1.127703 -0.020210 -1.251207 0.024389 -0.022831
    80 -0.249534 -2.846964 -0.174213 -0.957082 0.015551 0.097919
    81 0.043235 -1.656596 0.060855 -1.674865 -0.024178 0.012069
    82 0.031729 -1.141298 0.054932 -1.274581 -0.014255 0.007054
    83 -0.963866 -2.785145 -0.085350 -0.788813 0.099597 0.033742
    84 0.028479 -1.414786 -0.028886 -1.359215 -0.042485 -0.038542
    85 0.021413 -0.942156 0.012233 -1.006015 -0.027061 -0.034408
    86 1.164475 -2.543940 -0.170330 -0.942945 -0.225421 0.300327
    87 0.024032 -1.156387 -0.009538 -1.558632 0.036889 0.069116
    88 0.014898 -0.899614 -0.015942 -0.891395 0.005297 0.045062
    89 -0.586770 -1.264477 0.200161 -0.136644 -0.848247 -2.615956
    90 1.554086 0.035243 0.016848 -0.013463 -0.005301 0.695389
    91 1.110134 0.040611 -0.005766 -0.033572 -0.033132 1.189747
    92 -0.014395 -0.092166 -0.009041 0.672740 0.073855 1.318297
    93 0.337052 8.948555 -0.196463 4.720245 -3.141717 1.363672
end
