// Created by Crowbar 0.71

// Stored modelname (without quotes): "v_ozwpnset01.mdl"
$modelname "weapons/tfa_cso/c_ozwpnset1.mdl"

$include "csonline_gmod.qci"

$bodygroup "studio"
{
	studio "v_ozwpnset01"
}
$bodygroup "studio"
{
	studio "v_ozwpnset01_magazine"
}
$bodygroup "studio"
{
	studio "v_ozwpnset01_mask"
}

$cdmaterials "models/weapons/tfa_cso/ozwpnset1"

$attachment 0 "pipe1" -17.0 1.8 2.0 rotate 0 -180 -90
//$attachment 1 "pipe2" -0.5992 -4.7429 -3.8529
//$attachment 2 "pipe1" 0 6.8 3.4

$definebone "root" "" 0.000000 0.000000 0.000000 0.000000 0.000000 0.000000 0.000000 0.000000 0.000000 -0.000000 0.000000 0.000000
$definebone "Bone04" "root" -9.310107 0.236514 -0.105301 -0.574537 -178.904343 -179.714279 0.000000 0.000000 0.000000 0.000000 0.000000 0.000000
$definebone "Bone_Righthand" "Bone04" 0.096945 -8.450418 -0.009364 -17.068813 -0.267170 -1.888755 0.000001 0.000000 0.000000 0.000002 -0.000000 -0.000000
$definebone "ozwpnset1_root" "Bone_Righthand" -10.784122 7.894835 -2.933834 16.438734 1.982319 92.090073 0.000000 0.000000 0.000000 0.000000 -0.000002 0.000000
$definebone "pipe1" "ozwpnset1_root" -2.322148 3.262281 -0.924553 89.980217 0.000002 0.000000 0.000000 0.000000 0.000000 -0.000000 -0.000000 -0.000002
$definebone "chainF21" "ozwpnset1_root" 0.836242 6.541831 13.780924 0.000000 -89.999985 -0.000000 0.000000 0.000000 0.000000 0.000000 0.000002 -0.000000
$definebone "chainF11" "ozwpnset1_root" -0.136844 6.541831 13.780924 0.000000 -89.999985 -0.000000 0.000000 0.000000 0.000000 0.000000 0.000002 -0.000000
$definebone "chainF1" "chainF11" -0.686620 0.294763 0.000000 0.000000 0.000002 -0.000000 0.000000 0.000000 0.000000 0.000000 0.000002 -0.000000
$definebone "pipe2" "ozwpnset1_root" 1.785817 4.603365 -8.312912 89.980217 0.000002 0.000000 0.000000 0.000000 0.000000 -0.000000 -0.000000 -0.000002
$definebone "chain12" "ozwpnset1_root" 1.568528 1.140103 -0.352429 0.000000 -89.999985 -0.000000 0.000000 0.000000 0.000000 0.000000 0.000002 -0.000000
$definebone "chain11" "chain12" -0.886585 0.098894 -0.349560 0.000000 0.000002 -0.000000 0.000000 0.000000 0.000000 0.000000 0.000002 -0.000000
$definebone "chain1" "chain11" -0.523059 0.485281 -0.201933 0.000000 0.000002 -0.000000 -0.000000 0.000000 0.000000 0.000000 0.000002 -0.000000
$definebone "chain22" "ozwpnset1_root" 2.279250 1.020314 -0.233879 0.000000 -89.999985 -0.000000 0.000000 0.000000 0.000000 0.000000 0.000002 -0.000000
$definebone "chain21" "chain22" -1.006374 0.018205 -0.231159 0.000000 0.000002 -0.000000 0.000000 0.000000 0.000000 0.000000 0.000002 -0.000000
$definebone "bodycover02" "ozwpnset1_root" -0.000001 3.053805 -3.287380 0.000000 -89.999985 -0.000000 0.000000 0.000000 0.000000 0.000000 0.000002 -0.000000
$definebone "bodycover03" "ozwpnset1_root" -0.000002 3.053804 -4.941231 0.000000 -89.999985 -0.000000 0.000000 -0.000000 0.000000 0.000000 0.000002 -0.000000
$definebone "bodycover1" "ozwpnset1_root" -0.000000 3.053805 -1.401840 0.000000 -89.999985 -0.000000 0.000000 0.000000 0.000000 0.000000 0.000002 -0.000000
$definebone "magazine_Body" "ozwpnset1_root" 0.000006 7.892565 -1.494321 89.999985 89.999985 0.000000 0.000000 0.000000 0.000000 0.000000 -0.000000 0.000002
$definebone "magazine3" "magazine_Body" -0.290093 -8.517838 0.895353 0.000000 -0.000058 90.000038 0.000000 -0.000000 0.000000 -0.000000 -0.000000 -0.000002
$definebone "magazine_rot" "magazine_Body" 5.808487 -0.000115 -0.000011 -0.000000 179.999100 0.399293 0.000000 0.000000 0.000000 -0.000000 -0.000000 -0.000002
$definebone "magazine1" "magazine_rot" 6.098546 2.048650 -2.077436 -0.000036 -179.999084 90.399315 0.000000 0.000000 -0.000000 -0.000000 -0.000000 -0.000002
$definebone "magazine2" "magazine_rot" 6.098442 8.508282 -2.126517 -0.000036 -179.999084 90.399315 0.000000 0.000000 0.000000 -0.000000 -0.000000 -0.000002

$sequence "idle1" {
	"v_ozwpnset1_anims\idle1"
	activity "ACT_VM_IDLE" 1
	{ event 5004 1 "OZWPNSET1.Idle" }
	fps 30
	loop
	snap
}
$sequence "shoot1" {
	"v_ozwpnset1_anims\shoot1"
	{ event 5001 0 "22" }
	activity "ACT_VM_PRIMARYATTACK" 1
	fps 30
	snap
}
$sequence "shoot2" {
	"v_ozwpnset1_anims\shoot2"
	{ event 5001 0 "22" }
	fps 30
	snap
}
$sequence "reload_start" {
	"v_ozwpnset1_anims\reload"
	activity "ACT_SHOTGUN_RELOAD_START" 1
	{ event 5004 12 "OZWPNSET1.Reload" }
	fps 30
	snap
}
$sequence "reload" {
	"v_ozwpnset1_anims\reload"
	{ event 5004 12 "OZWPNSET1.Reload" }
	fps 30
	activity "ACT_VM_RELOAD" 1
	snap
}
$sequence "reload_full" {
	"v_ozwpnset1_anims\reload_full"
	{ event 5004 12 "OZWPNSET1.Reload" }
	{ event 5004 48 "OZWPNSET1.Reload" }
	{ event 5004 84 "OZWPNSET1.Reload" }
	{ event 5004 120 "OZWPNSET1.Reload" }
	{ event 5004 156 "OZWPNSET1.Reload" }
	fps 30
	snap
}
$sequence "draw1" {
	"v_ozwpnset1_anims\draw1"
	activity "ACT_VM_DRAW" 10
	{ event 5004 1 "OZWPNSET1.Idle" }
	fps 30
	snap
}
$sequence "draw2" {
	"v_ozwpnset1_anims\draw2"
	activity "ACT_VM_DRAW" 1
	{ event 5004 1 "OZWPNSET1.Idle" }
	fps 30
	snap
}
$sequence "shoot_empty" {
	"v_ozwpnset1_anims\shoot_empty"
	activity "ACT_VM_PRIMARYATTACK_EMPTY" 1
	{ event 5004 1 "OZWPNSET1.Shoot_Empty" }
	fps 30
	snap
}
$sequence "fire_change" {
	"v_ozwpnset1_anims\fire_change"
	fps 30
	snap
}
