// Created by Crowbar 0.68

$modelname "weapons/tfa_cso/c_divine_blaster.mdl"

$include "csonline_gmod.qci"

$bodygroup "weapon"
{
	studio "v_winggun01"
}
$bodygroup "weapon"
{
	studio "v_winggun02"
}
$bodygroup "gold"
{
	studio "v_winggun_gold"
}
$bodygroup "laser"
{
	studio "v_winggun_laser"
}
$bodygroup "ef"
{
	studio "v_winggun_ef"
}

$cdmaterials "models/weapons/tfa_cso/divine_blaster"

$attachment 0 "muzzle_bone" 0 0 -0.5
//$attachment 1 "winggun_root" -0.73 -15.08 1.07
//$attachment 2 "draw_bone" 0 0 0
//$attachment 3 "muzzle_bone" 0 2 -2
//$attachment 4 "root" 15 -33 15
//$attachment 5 "root" -17 -22 23

$sequence "idle" {
	"v_winggun_anims\idle"
	fps 30
	activity "ACT_VM_IDLE" 1
	loop
	snap
}
$sequence "shoot1" {
	"v_winggun_anims\shoot1"
	{ event 5001 0 "#I163 S0.075 R30 F0 P30 T999 A1 L0 O0 X0" }
	{ event 5001 1 "#I165 S0.075 R2 F0 P30 T999 A1 L0 O0 X0" }
	fps 30
	activity "ACT_VM_PRIMARYATTACK" 1
	snap
}
$sequence "shoot2" {
	"v_winggun_anims\shoot2"
	{ event 5001 0 "#I163 S0.075 R30 F0 P30 T999 A1 L0 O0 X0" }
	{ event 5001 1 "#I165 S0.075 R2 F0 P30 T999 A1 L0 O0 X0" }
	fps 30
	activity "ACT_VM_PRIMARYATTACK" 1
	snap
}
$sequence "reload" {
	"v_winggun_anims\reload"
	{ event 5004 1 "Divine_Blaster.ClipOut" }
	{ event 5004 42 "Divine_Blaster.ClipIn" }
	fps 30
	activity "ACT_VM_RELOAD" 1
	snap
}
$sequence "draw" {
	"v_winggun_anims\draw"
	{ event 5001 0 "#I169 S0.1 R30 F0 P30 T999 A1 L0 O0 X2" }
	{ event 5004 1 "Divine_Blaster.Draw" }
	fps 30
	activity "ACT_VM_DRAW" 1
	snap
}
$sequence "wingdraw" {
	"v_winggun_anims\wingdraw"
	{ event 5001 0 "#I169 S0.1 R30 F0 P30 T999 A1 L0 O0 X2" }
	{ event 5004 1 "Divine_Blaster.Draw" }
	{ event 5004 32 "Divine_Blaster.WingStart" }
	{ event 5004 32 "Divine_Blaster.Start" }
	fps 30
}
$sequence "wingstart" {
	"v_winggun_anims\wingstart"
	{ event 5004 1 "Divine_Blaster.WingStart" }
	{ event 5004 1 "Divine_Blaster.Start" }
	fps 30
	activity "ACT_VM_ATTACH_SILENCER" 1
	snap
}
$sequence "wingloop" {
	"v_winggun_anims\wingloop"
	{ event 5004 0 "Divine_Blaster.Loop" }
	fps 30
	activity "ACT_VM_IDLE_SILENCED" 1
	snap
}
$sequence "wingend" {
	"v_winggun_anims\wingend"
	{ event 5004 1 "Divine_Blaster.Loop_End" }
	{ event 5004 13 "Divine_Blaster.WingEnd" }
	fps 30
	activity "ACT_VM_DETACH_SILENCER" 1
	snap
}
$sequence "wingshot1" {
	"v_winggun_anims\wingshot1"
	{ event 5001 0 "#I163 S0.075 R30 F0 P30 T999 A1 L0 O0 X0" }
	{ event 5001 1 "#I165 S0.075 R2 F0 P30 T999 A1 L0 O0 X0" }
	fps 30
}
$sequence "wingshot2" {
	"v_winggun_anims\wingshot2"
	{ event 5001 0 "#I163 S0.075 R30 F0 P30 T999 A1 L0 O0 X0" }
	{ event 5001 1 "#I165 S0.075 R2 F0 P30 T999 A1 L0 O0 X0" }
	{ event 5001 6 "#I166 S0.075 R30 F0 P30 T999 A1 L0 O0 X0" }
	fps 30
}
$sequence "wingreload" {
	"v_winggun_anims\wingreload"
	{ event 5004 1 "Divine_Blaster.ClipOut" }
	{ event 5004 42 "Divine_Blaster.ClipIn" }
	fps 30
}
$sequence "wingspecialshot" {
	"v_winggun_anims\wingspecialshot"
	{ event 5001 0 "#I163 S0.09 R30 F0 P30 T999 A1 L0 O0 X0" }
	{ event 5001 1 "#I165 S0.09 R30 F0 P30 T999 A1 L0 O0 X0" }
	{ event 5001 6 "#I166 S0.1 R30 F0 P30 T999 A1 L0 O0 X0" }
	{ event 5001 2 "#I171 S0.09 R30 F0 P30 T999 A1 L0 O0 X3" }
	{ event 5004 14 "Divine_Blaster.WingEnd" }
	fps 30
	activity "ACT_VM_PRIMARYATTACK_SILENCED" 1
	snap
}
$sequence "wingspecialshot2" {
	"v_winggun_anims\wingspecialshot2"
	{ event 5001 0 "#I163 S0.09 R30 F0 P30 T999 A1 L0 O0 X0" }
	{ event 5001 1 "#I165 S0.09 R30 F0 P30 T999 A1 L0 O0 X0" }
	{ event 5001 6 "#I166 S0.1 R30 F0 P30 T999 A1 L0 O0 X0" }
	{ event 5001 2 "#I171 S0.09 R30 F0 P30 T999 A1 L0 O0 X3" }
	{ event 5004 14 "Divine_Blaster.WingEnd" }
	{ event 5004 37 "Divine_Blaster.WingStart" }
	fps 30
}
$sequence "wingreload2" {
	"v_winggun_anims\wingreload2"
	{ event 5004 1 "Divine_Blaster.ClipOut" }
	{ event 5004 42 "Divine_Blaster.ClipIn" }
	fps 30
	activity "ACT_VM_RELOAD_SILENCED" 1
	snap
}
