version 1
nodes
  0 "Bone01" -1
  1 "Bone_Lefthand" 0
  2 "NEXON_CSO_FNC_Root" 1
  3 "NEXON_CSO_FNC_Magazine" 2
  4 "NEXON_CSO_FNC_Spring_02" 2
  5 "NEXON_CSO_FNC_Spring_01" 2
  6 "NEXON_CSO_FNC_Trigger" 2
  7 "NEXON_CSO_FNC_Bullet" 2
  8 "NEXON_CSO_FNC_Plane" 2
  9 "NEXON_CSO_FNC_SP_door" 2
  10 "NEXON_CSO_FNC_Clip" 2
  11 "Bone04" -1
  12 "Bone_Righthand" 11
  13 "Bone27" 12
  14 "Bone28" 13
  15 "Bone29" 14
  16 "Bone31" 12
  17 "Bone32" 16
  18 "Bone33" 17
  19 "Bone35" 12
  20 "Bone36" 19
  21 "Bone37" 20
  22 "Bone39" 12
  23 "Bone40" 22
  24 "Bone41" 23
  25 "Bone43" 12
  26 "Bone44" 25
  27 "Bone45" 26
  28 "Bone_Se_Hand-R" 12
  29 "Bone05" 1
  30 "Bone06" 29
  31 "Bone07" 30
  32 "Bone21" 1
  33 "Bone22" 32
  34 "Bone23" 33
  35 "Bone17" 1
  36 "Bone18" 35
  37 "Bone19" 36
  38 "Bone13" 1
  39 "Bone14" 38
  40 "Bone15" 39
  41 "Bone09" 1
  42 "Bone10" 41
  43 "Bone11" 42
  44 "Bone_Se_Hand-L" 1
end
skeleton
  time 0
    0 6.896857 4.116659 -7.128826 -0.810477 -1.320356 0.584504
    1 -0.071916 -8.498730 -0.104136 0.353109 -0.156770 -0.180431
    2 0.129975 -2.388487 0.824890 -1.502018 1.440634 -1.487710
    3 -0.008696 -4.578129 1.124703 0.000000 0.000000 0.000000
    4 -0.247827 -1.150955 4.199792 1.263967 -0.000345 -1.570796
    5 -0.247888 -3.268787 4.200336 1.263967 -0.000345 -1.570796
    6 -0.000002 -1.794749 1.912829 0.248512 0.001282 0.023070
    7 -0.000005 -4.708170 3.700294 0.000000 0.000000 0.000000
    8 -0.296295 -3.447807 3.376961 0.000000 0.000000 0.000000
    9 -0.286066 -2.211739 4.024995 0.000000 0.313631 0.000000
    10 -0.000004 -18.231224 3.081039 0.000000 0.000000 0.000000
    11 -0.300303 -2.961691 -8.774516 0.669644 2.326990 0.974479
    12 0.096946 -8.450419 -0.009363 -0.029458 -0.735648 0.408681
    13 -0.586769 -1.264477 0.200164 -0.191304 -0.133537 -2.293171
    14 1.522835 0.058680 0.016850 0.501041 -0.006533 0.327430
    15 1.117947 0.048424 -0.005765 0.319581 0.126210 -0.030533
    16 -0.963867 -2.785143 -0.085346 -0.264595 0.014442 -0.052098
    17 0.028478 -1.403067 0.006272 -1.726477 0.042514 -0.050154
    18 0.021412 -0.957782 0.020047 -0.688809 -0.000003 -0.000008
    19 -0.249534 -2.846963 -0.174215 -0.924613 -0.061545 0.074434
    20 0.043235 -1.683940 0.096015 -1.707373 0.124125 -0.010522
    21 0.031729 -1.160830 0.058836 -0.480623 0.000000 0.000000
    22 0.447951 -2.798983 -0.200441 -1.048577 0.025838 0.116509
    23 -0.032909 -1.480207 0.004935 -1.789897 0.000000 0.000000
    24 -0.027023 -1.076921 -0.020212 -0.547360 0.000000 0.000000
    25 1.164474 -2.543939 -0.170327 -0.760503 -0.097052 0.109088
    26 0.024033 -1.129040 0.017807 -1.479009 0.090496 -0.010104
    27 0.014896 -0.883992 -0.019846 -1.331652 0.000000 0.000000
    28 -0.041181 -0.128692 -0.025406 0.350878 0.089487 1.418299
    29 0.583509 -1.197274 0.185379 0.310502 -0.934076 -0.996676
    30 1.535926 0.010247 0.005009 -0.303061 0.037452 -0.923896
    31 1.100770 0.004528 -0.010675 -0.009995 -0.094546 -0.796770
    32 0.957766 -2.746777 -0.090301 -0.279592 -0.023091 0.102297
    33 -0.033419 -1.397128 -0.011255 -1.057414 0.007562 -0.061002
    34 -0.022361 -0.957433 0.018783 -0.540338 0.000000 0.000000
    35 0.250029 -2.820664 -0.238396 -0.848862 -0.049350 -0.226558
    36 -0.049759 -1.680544 0.100479 -1.864034 0.000000 0.000000
    37 -0.034141 -1.148311 0.084779 -0.994530 0.000000 0.000000
    38 -0.488517 -2.755600 -0.228261 -1.058608 -0.055696 -0.251816
    39 0.039889 -1.479791 0.029854 -1.719486 0.000000 0.000000
    40 0.028785 -1.075733 -0.023110 -0.869091 0.000000 0.000000
    41 -1.180679 -2.507216 -0.193861 -0.771938 0.121797 -0.246379
    42 -0.024967 -1.123934 0.017595 -1.614968 0.000000 0.000000
    43 -0.020058 -0.890965 0.010091 -0.746271 0.011865 0.013351
    44 0.120180 -0.051600 -0.063059 0.012085 -2.987703 1.512552
  time 1
    0 6.896857 6.335477 -7.128826 -0.810665 -1.320303 0.584669
    1 -0.071916 -8.498730 -0.104136 0.332843 -0.182603 -0.105048
    2 0.129975 -2.388487 0.824890 -1.502018 1.440634 -1.487710
    3 -0.008696 -4.578129 1.124703 0.000000 0.000000 0.000000
    4 -0.247827 -1.150955 4.199792 1.248579 -0.305251 -1.470904
    5 -0.247888 -3.268787 4.200336 1.248171 0.309049 -1.672234
    6 -0.000002 -1.794749 1.912829 0.268287 0.001426 0.024832
    7 -0.000005 -4.708170 3.504976 0.000000 0.000000 0.000000
    8 -0.296295 0.915607 3.376961 0.000000 0.013003 0.000000
    9 -0.231377 -2.211739 4.192969 0.060402 0.377017 0.000000
    10 -0.000004 -18.231224 3.081039 0.000000 0.458499 0.000000
    11 -0.300303 -0.528023 -8.774516 0.735653 2.348400 1.011131
    12 0.096946 -8.450419 -0.009363 -0.029458 -0.735648 0.408681
    13 -0.586769 -1.264477 0.200164 -0.183119 -0.192581 -2.353820
    14 1.522835 0.058680 0.016850 0.500989 -0.009326 0.332510
    15 1.117947 0.048424 -0.005765 0.317676 0.131087 -0.045443
    16 -0.963867 -2.785143 -0.085346 -0.264595 0.014442 -0.052098
    17 0.028478 -1.403067 0.006272 -1.726477 0.042514 -0.050154
    18 0.021412 -0.957782 0.020047 -0.688809 -0.000003 -0.000008
    19 -0.249534 -2.846963 -0.174215 -0.924613 -0.061545 0.074434
    20 0.043235 -1.683940 0.096015 -1.707373 0.124125 -0.010522
    21 0.031729 -1.160830 0.058836 -0.480623 0.000000 0.000000
    22 0.447951 -2.798983 -0.200441 -1.048577 0.025838 0.116509
    23 -0.032909 -1.480207 0.004935 -1.789897 0.000000 0.000000
    24 -0.027023 -1.076921 -0.020212 -0.547360 0.000000 0.000000
    25 1.164474 -2.543939 -0.170327 -0.760503 -0.097052 0.109088
    26 0.024033 -1.129040 0.017807 -1.479009 0.090496 -0.010104
    27 0.014896 -0.883992 -0.019846 -1.331652 0.000000 0.000000
    28 -0.041181 -0.128692 -0.025406 0.350878 0.089487 1.418299
    29 0.583509 -1.197274 0.185379 0.310502 -0.934076 -0.996676
    30 1.535926 0.010247 0.005009 -0.303061 0.037452 -0.923896
    31 1.100770 0.004528 -0.010675 -0.009995 -0.094546 -0.796770
    32 0.957766 -2.746777 -0.090301 -0.279592 -0.023091 0.102297
    33 -0.033419 -1.397128 -0.011255 -1.068192 0.008066 -0.061625
    34 -0.022361 -0.957433 0.018783 -0.541428 0.005105 0.008761
    35 0.250029 -2.820664 -0.238396 -0.848862 -0.049350 -0.226558
    36 -0.049759 -1.680544 0.100479 -1.864034 0.000000 0.000000
    37 -0.034141 -1.148311 0.084779 -0.994530 0.000000 0.000000
    38 -0.488517 -2.755600 -0.228261 -1.058608 -0.055696 -0.251816
    39 0.039889 -1.479791 0.029854 -1.719486 0.000000 0.000000
    40 0.028785 -1.075733 -0.023110 -0.869091 0.000000 0.000000
    41 -1.180679 -2.507216 -0.193861 -0.771938 0.121797 -0.246379
    42 -0.024967 -1.123934 0.017595 -1.614968 0.000000 0.000000
    43 -0.020058 -0.890965 0.010091 -0.746271 0.011865 0.013351
    44 0.120180 -0.051600 -0.063059 0.012085 -2.987703 1.512552
  time 2
    0 6.896857 6.147971 -7.121013 -0.811040 -1.320223 0.585055
    1 -0.071916 -8.498730 -0.104136 0.338428 -0.173422 -0.125124
    2 0.129975 -2.388487 0.824890 -1.502018 1.440634 -1.487710
    3 -0.008696 -4.578129 1.124703 0.000000 0.000000 0.000000
    4 -0.247827 -1.150955 4.199792 1.240645 -0.371842 -1.447031
    5 -0.247888 -3.268787 4.200336 1.233658 0.346336 -1.683763
    6 -0.000002 -1.794749 1.912829 0.274879 0.001474 0.025419
    7 -0.000005 -4.708170 3.587009 0.000000 0.000000 0.000000
    8 -0.296295 0.915607 3.376961 0.000000 0.021680 0.000000
    9 -0.227470 -2.211739 4.212501 0.026402 0.377017 0.000000
    10 -0.000004 -18.231224 3.081039 0.020721 0.367066 0.008377
    11 -0.300303 -0.735060 -8.774516 0.721171 2.342474 1.001341
    12 0.096946 -8.450419 -0.009363 -0.029458 -0.735648 0.408681
    13 -0.586769 -1.264477 0.200164 -0.183718 -0.188803 -2.350262
    14 1.522835 0.058680 0.016850 0.500937 -0.012142 0.337649
    15 1.117947 0.048424 -0.005765 0.315566 0.136217 -0.061204
    16 -0.963867 -2.785143 -0.085346 -0.264595 0.014442 -0.052098
    17 0.028478 -1.403067 0.006272 -1.726477 0.042514 -0.050154
    18 0.021412 -0.957782 0.020047 -0.688809 -0.000003 -0.000008
    19 -0.249534 -2.846963 -0.174215 -0.924613 -0.061545 0.074434
    20 0.043235 -1.683940 0.096015 -1.707373 0.124125 -0.010522
    21 0.031729 -1.160830 0.058836 -0.480623 0.000000 0.000000
    22 0.447951 -2.798983 -0.200441 -1.048577 0.025838 0.116509
    23 -0.032909 -1.480207 0.004935 -1.789897 0.000000 0.000000
    24 -0.027023 -1.076921 -0.020212 -0.547360 0.000000 0.000000
    25 1.164474 -2.543939 -0.170327 -0.760503 -0.097052 0.109088
    26 0.024033 -1.129040 0.017807 -1.479009 0.090496 -0.010104
    27 0.014896 -0.883992 -0.019846 -1.331652 0.000000 0.000000
    28 -0.041181 -0.128692 -0.025406 0.350878 0.089487 1.418299
    29 0.583509 -1.197274 0.185379 0.310502 -0.934076 -0.996676
    30 1.535926 0.010247 0.005009 -0.303061 0.037452 -0.923896
    31 1.100770 0.004528 -0.010675 -0.009995 -0.094546 -0.796770
    32 0.957766 -2.746777 -0.090301 -0.279592 -0.023091 0.102297
    33 -0.033419 -1.397128 -0.011255 -1.086175 0.008893 -0.062691
    34 -0.022361 -0.957433 0.018783 -0.543131 0.013638 0.023370
    35 0.250029 -2.820664 -0.238396 -0.848862 -0.049350 -0.226558
    36 -0.049759 -1.680544 0.100479 -1.864034 0.000000 0.000000
    37 -0.034141 -1.148311 0.084779 -0.994530 0.000000 0.000000
    38 -0.488517 -2.755600 -0.228261 -1.058608 -0.055696 -0.251816
    39 0.039889 -1.479791 0.029854 -1.719486 0.000000 0.000000
    40 0.028785 -1.075733 -0.023110 -0.869091 0.000000 0.000000
    41 -1.180679 -2.507216 -0.193861 -0.771938 0.121797 -0.246379
    42 -0.024967 -1.123934 0.017595 -1.614968 0.000000 0.000000
    43 -0.020058 -0.890965 0.010091 -0.746271 0.011865 0.013351
    44 0.120180 -0.051600 -0.063059 0.012085 -2.987703 1.512552
  time 3
    0 6.896857 5.698738 -7.097575 -0.811307 -1.320170 0.585276
    1 -0.071916 -8.498730 -0.104136 0.346038 -0.163197 -0.153562
    2 0.129975 -2.388487 0.824890 -1.502018 1.440634 -1.487710
    3 -0.008696 -4.578129 1.124703 0.000000 0.000000 0.000000
    4 -0.247827 -1.150955 4.199792 1.246002 -0.315598 -1.466386
    5 -0.247888 -3.268787 4.200336 1.225544 0.355500 -1.686627
    6 -0.000002 -1.794749 1.912829 0.268287 0.001426 0.024832
    7 -0.000005 -4.708170 3.731545 0.000000 0.000000 0.000000
    8 -0.296295 0.915607 3.376961 0.000000 0.026007 0.000000
    9 -0.223564 -2.211739 4.220313 -0.036721 0.377017 0.000000
    10 -0.000004 -18.231224 3.081039 0.053715 -0.103755 0.022495
    11 -0.300303 -1.227263 -8.774516 0.700293 2.334446 0.987506
    12 0.096946 -8.450419 -0.009363 -0.029458 -0.735648 0.408681
    13 -0.586769 -1.264477 0.200164 -0.185216 -0.179826 -2.340623
    14 1.522835 0.058680 0.016850 0.500868 -0.014958 0.342788
    15 1.117947 0.048424 -0.005765 0.313349 0.141382 -0.077238
    16 -0.963867 -2.785143 -0.085346 -0.264595 0.014442 -0.052098
    17 0.028478 -1.403067 0.006272 -1.726477 0.042514 -0.050154
    18 0.021412 -0.957782 0.020047 -0.688809 -0.000003 -0.000008
    19 -0.249534 -2.846963 -0.174215 -0.924613 -0.061545 0.074434
    20 0.043235 -1.683940 0.096015 -1.707373 0.124125 -0.010522
    21 0.031729 -1.160830 0.058836 -0.480623 0.000000 0.000000
    22 0.447951 -2.798983 -0.200441 -1.048577 0.025838 0.116509
    23 -0.032909 -1.480207 0.004935 -1.789897 0.000000 0.000000
    24 -0.027023 -1.076921 -0.020212 -0.547360 0.000000 0.000000
    25 1.164474 -2.543939 -0.170327 -0.760503 -0.097052 0.109088
    26 0.024033 -1.129040 0.017807 -1.479009 0.090496 -0.010104
    27 0.014896 -0.883992 -0.019846 -1.331652 0.000000 0.000000
    28 -0.041181 -0.128692 -0.025406 0.350878 0.089487 1.418299
    29 0.583509 -1.197274 0.185379 0.310502 -0.934076 -0.996676
    30 1.535926 0.010247 0.005009 -0.303061 0.037452 -0.923896
    31 1.100770 0.004528 -0.010675 -0.009995 -0.094546 -0.796770
    32 0.957766 -2.746777 -0.090301 -0.279592 -0.023091 0.102297
    33 -0.033419 -1.397128 -0.011255 -1.089767 0.009048 -0.062895
    34 -0.022361 -0.957433 0.018783 -0.543472 0.015340 0.026282
    35 0.250029 -2.820664 -0.238396 -0.848862 -0.049350 -0.226558
    36 -0.049759 -1.680544 0.100479 -1.864034 0.000000 0.000000
    37 -0.034141 -1.148311 0.084779 -0.994530 0.000000 0.000000
    38 -0.488517 -2.755600 -0.228261 -1.058608 -0.055696 -0.251816
    39 0.039889 -1.479791 0.029854 -1.719486 0.000000 0.000000
    40 0.028785 -1.075733 -0.023110 -0.869091 0.000000 0.000000
    41 -1.180679 -2.507216 -0.193861 -0.771938 0.121797 -0.246379
    42 -0.024967 -1.123934 0.017595 -1.614968 0.000000 0.000000
    43 -0.020058 -0.890965 0.010091 -0.746271 0.011865 0.013351
    44 0.120180 -0.051600 -0.063059 0.012085 -2.987703 1.512552
  time 4
    0 6.896857 5.171378 -7.074136 -0.811227 -1.320170 0.585221
    1 -0.071916 -8.498730 -0.104136 0.350712 -0.162595 -0.171374
    2 0.129975 -2.388487 0.824890 -1.502018 1.440634 -1.487710
    3 -0.008696 -4.578129 1.124703 0.000000 0.000000 0.000000
    4 -0.247827 -1.150955 4.199792 1.255949 -0.211171 -1.502316
    5 -0.247888 -3.268787 4.200336 1.229703 0.352584 -1.685704
    6 -0.000002 -1.794749 1.912829 0.248512 0.001282 0.023070
    7 -0.000005 -4.708170 3.731545 0.000000 0.000000 0.000000
    8 -0.296295 0.564034 3.376961 0.000000 0.026007 0.000000
    9 -0.219658 -2.211739 4.224220 -0.070721 0.377017 0.000000
    10 -0.000004 -18.231224 3.081039 0.073573 -0.442527 0.034348
    11 -0.300303 -1.809312 -8.774516 0.686726 2.329571 0.978768
    12 0.096946 -8.450419 -0.009363 -0.029458 -0.735648 0.408681
    13 -0.586769 -1.264477 0.200164 -0.187110 -0.167518 -2.327658
    14 1.522835 0.058680 0.016850 0.500782 -0.017763 0.347927
    15 1.117947 0.048424 -0.005765 0.311108 0.146368 -0.092863
    16 -0.963867 -2.785143 -0.085346 -0.264595 0.014442 -0.052098
    17 0.028478 -1.403067 0.006272 -1.726477 0.042514 -0.050154
    18 0.021412 -0.957782 0.020047 -0.688809 -0.000003 -0.000008
    19 -0.249534 -2.846963 -0.174215 -0.924613 -0.061545 0.074434
    20 0.043235 -1.683940 0.096015 -1.707373 0.124125 -0.010522
    21 0.031729 -1.160830 0.058836 -0.480623 0.000000 0.000000
    22 0.447951 -2.798983 -0.200441 -1.048577 0.025838 0.116509
    23 -0.032909 -1.480207 0.004935 -1.789897 0.000000 0.000000
    24 -0.027023 -1.076921 -0.020212 -0.547360 0.000000 0.000000
    25 1.164474 -2.543939 -0.170327 -0.760503 -0.097052 0.109088
    26 0.024033 -1.129040 0.017807 -1.479009 0.090496 -0.010104
    27 0.014896 -0.883992 -0.019846 -1.331652 0.000000 0.000000
    28 -0.041181 -0.128692 -0.025406 0.350878 0.089487 1.418299
    29 0.583509 -1.197274 0.185379 0.310502 -0.934076 -0.996676
    30 1.535926 0.010247 0.005009 -0.303061 0.037452 -0.923896
    31 1.100770 0.004528 -0.010675 -0.009995 -0.094546 -0.796770
    32 0.957766 -2.746777 -0.090301 -0.279592 -0.023091 0.102297
    33 -0.033419 -1.397128 -0.011255 -1.057414 0.007562 -0.061002
    34 -0.022361 -0.957433 0.018783 -0.540338 0.000000 0.000000
    35 0.250029 -2.820664 -0.238396 -0.848862 -0.049350 -0.226558
    36 -0.049759 -1.680544 0.100479 -1.864034 0.000000 0.000000
    37 -0.034141 -1.148311 0.084779 -0.994530 0.000000 0.000000
    38 -0.488517 -2.755600 -0.228261 -1.058608 -0.055696 -0.251816
    39 0.039889 -1.479791 0.029854 -1.719486 0.000000 0.000000
    40 0.028785 -1.075733 -0.023110 -0.869091 0.000000 0.000000
    41 -1.180679 -2.507216 -0.193861 -0.771938 0.121797 -0.246379
    42 -0.024967 -1.123934 0.017595 -1.614968 0.000000 0.000000
    43 -0.020058 -0.890965 0.010091 -0.746271 0.011865 0.013351
    44 0.120180 -0.051600 -0.063059 0.012085 -2.987703 1.512552
  time 5
    0 6.896857 4.733865 -7.054605 -0.810477 -1.320356 0.584504
    1 -0.071916 -8.498730 -0.104136 0.355506 -0.163956 -0.189518
    2 0.129975 -2.388487 0.824890 -1.502018 1.440634 -1.487710
    3 -0.008696 -4.578129 1.124703 0.000000 0.000000 0.000000
    4 -0.247827 -1.150955 4.199792 1.261306 -0.154928 -1.521659
    5 -0.247888 -3.268787 4.200336 1.238895 0.339340 -1.681582
    6 -0.000002 -1.794749 1.912829 0.200802 0.000947 0.018828
    7 -0.000005 -4.708170 3.700294 0.000000 0.000000 0.000000
    8 -0.296295 -0.295367 3.376961 0.000000 0.021680 0.000000
    9 -0.239190 -2.211739 4.177343 -0.020386 0.377017 0.000000
    10 -0.000004 -18.231224 3.081039 0.063770 -0.401598 0.041898
    11 -0.300303 -2.285889 -8.774516 0.670487 2.323645 0.967764
    12 0.096946 -8.450419 -0.009363 -0.029458 -0.735648 0.408681
    13 -0.586769 -1.264477 0.200164 -0.188907 -0.153770 -2.314101
    14 1.522835 0.058680 0.016850 0.500696 -0.020543 0.352978
    15 1.117947 0.048424 -0.005765 0.308951 0.150982 -0.107432
    16 -0.963867 -2.785143 -0.085346 -0.264595 0.014442 -0.052098
    17 0.028478 -1.403067 0.006272 -1.726477 0.042514 -0.050154
    18 0.021412 -0.957782 0.020047 -0.688809 -0.000003 -0.000008
    19 -0.249534 -2.846963 -0.174215 -0.924613 -0.061545 0.074434
    20 0.043235 -1.683940 0.096015 -1.707373 0.124125 -0.010522
    21 0.031729 -1.160830 0.058836 -0.480623 0.000000 0.000000
    22 0.447951 -2.798983 -0.200441 -1.048577 0.025838 0.116509
    23 -0.032909 -1.480207 0.004935 -1.789897 0.000000 0.000000
    24 -0.027023 -1.076921 -0.020212 -0.547360 0.000000 0.000000
    25 1.164474 -2.543939 -0.170327 -0.760503 -0.097052 0.109088
    26 0.024033 -1.129040 0.017807 -1.479009 0.090496 -0.010104
    27 0.014896 -0.883992 -0.019846 -1.331652 0.000000 0.000000
    28 -0.041181 -0.128692 -0.025406 0.350878 0.089487 1.418299
    29 0.583509 -1.197274 0.185379 0.310502 -0.934076 -0.996676
    30 1.535926 0.010247 0.005009 -0.303061 0.037452 -0.923896
    31 1.100770 0.004528 -0.010675 -0.009995 -0.094546 -0.796770
    32 0.957766 -2.746777 -0.090301 -0.279592 -0.023091 0.102297
    33 -0.033419 -1.397128 -0.011255 -0.972558 0.003404 -0.056256
    34 -0.022361 -0.957433 0.018783 -0.530345 -0.087535 -0.152408
    35 0.250029 -2.820664 -0.238396 -0.848862 -0.049350 -0.226558
    36 -0.049759 -1.680544 0.100479 -1.864034 0.000000 0.000000
    37 -0.034141 -1.148311 0.084779 -0.994530 0.000000 0.000000
    38 -0.488517 -2.755600 -0.228261 -1.058608 -0.055696 -0.251816
    39 0.039889 -1.479791 0.029854 -1.719486 0.000000 0.000000
    40 0.028785 -1.075733 -0.023110 -0.869091 0.000000 0.000000
    41 -1.180679 -2.507216 -0.193861 -0.771938 0.121797 -0.246379
    42 -0.024967 -1.123934 0.017595 -1.614968 0.000000 0.000000
    43 -0.020058 -0.890965 0.010091 -0.746271 0.011865 0.013351
    44 0.120180 -0.051600 -0.063059 0.012085 -2.987703 1.512552
  time 6
    0 6.896857 4.440887 -7.035073 -0.809166 -1.320675 0.583291
    1 -0.071916 -8.498730 -0.104136 0.359856 -0.166141 -0.205820
    2 0.129975 -2.388487 0.824890 -1.502018 1.440634 -1.487710
    3 -0.008696 -4.578129 1.124703 0.000000 0.000000 0.000000
    4 -0.247827 -1.150955 4.199792 1.248579 -0.305251 -1.470904
    5 -0.247888 -3.268787 4.200336 1.248171 0.309049 -1.672234
    6 -0.000002 -1.794749 1.912829 0.125143 0.000395 0.012104
    7 -0.000005 -4.708170 3.688575 0.000000 0.000000 0.000000
    8 -0.296295 -1.373525 3.376961 0.000000 0.013003 0.000000
    9 -0.266534 -2.211739 4.107029 0.029938 0.377017 0.000000
    10 -0.000004 -18.231224 3.081039 0.035474 -0.177137 0.047579
    11 -0.300303 -2.606211 -8.774516 0.654178 2.317719 0.956437
    12 0.096946 -8.450419 -0.009363 -0.029458 -0.735648 0.408681
    13 -0.586769 -1.264477 0.200164 -0.190274 -0.140489 -2.302640
    14 1.522835 0.058680 0.016850 0.500575 -0.023252 0.357969
    15 1.117947 0.048424 -0.005765 0.306985 0.155033 -0.120300
    16 -0.963867 -2.785143 -0.085346 -0.264595 0.014442 -0.052098
    17 0.028478 -1.403067 0.006272 -1.726477 0.042514 -0.050154
    18 0.021412 -0.957782 0.020047 -0.688809 -0.000003 -0.000008
    19 -0.249534 -2.846963 -0.174215 -0.924613 -0.061545 0.074434
    20 0.043235 -1.683940 0.096015 -1.707373 0.124125 -0.010522
    21 0.031729 -1.160830 0.058836 -0.480623 0.000000 0.000000
    22 0.447951 -2.798983 -0.200441 -1.048577 0.025838 0.116509
    23 -0.032909 -1.480207 0.004935 -1.789897 0.000000 0.000000
    24 -0.027023 -1.076921 -0.020212 -0.547360 0.000000 0.000000
    25 1.164474 -2.543939 -0.170327 -0.760503 -0.097052 0.109088
    26 0.024033 -1.129040 0.017807 -1.479009 0.090496 -0.010104
    27 0.014896 -0.883992 -0.019846 -1.331652 0.000000 0.000000
    28 -0.041181 -0.128692 -0.025406 0.350878 0.089487 1.418299
    29 0.583509 -1.197274 0.185379 0.310502 -0.934076 -0.996676
    30 1.535926 0.010247 0.005009 -0.303061 0.037452 -0.923896
    31 1.100770 0.004528 -0.010675 -0.009995 -0.094546 -0.796770
    32 0.957766 -2.746777 -0.090301 -0.279592 -0.023091 0.102297
    33 -0.033419 -1.397128 -0.011255 -0.851140 -0.003188 -0.050120
    34 -0.022361 -0.957433 0.018783 -0.482107 -0.156099 -0.285880
    35 0.250029 -2.820664 -0.238396 -0.848862 -0.049350 -0.226558
    36 -0.049759 -1.680544 0.100479 -1.864034 0.000000 0.000000
    37 -0.034141 -1.148311 0.084779 -0.994530 0.000000 0.000000
    38 -0.488517 -2.755600 -0.228261 -1.058608 -0.055696 -0.251816
    39 0.039889 -1.479791 0.029854 -1.719486 0.000000 0.000000
    40 0.028785 -1.075733 -0.023110 -0.869091 0.000000 0.000000
    41 -1.180679 -2.507216 -0.193861 -0.771938 0.121797 -0.246379
    42 -0.024967 -1.123934 0.017595 -1.614968 0.000000 0.000000
    43 -0.020058 -0.890965 0.010091 -0.746271 0.011865 0.013351
    44 0.120180 -0.051600 -0.063059 0.012085 -2.987703 1.512552
  time 7
    0 6.896857 4.210412 -7.019447 -0.807586 -1.321047 0.581803
    1 -0.071916 -8.498730 -0.104136 0.363128 -0.168072 -0.217926
    2 0.129975 -2.388487 0.824890 -1.502018 1.440634 -1.487710
    3 -0.008696 -4.578129 1.124703 0.000000 0.000000 0.000000
    4 -0.247827 -1.150955 4.199792 1.259796 -0.125881 -1.530408
    5 -0.247888 -3.268787 4.200336 1.256333 0.170089 -1.626944
    6 -0.000002 -1.794749 1.912829 0.043696 -0.000180 0.004866
    7 -0.000005 -4.708170 3.672949 0.000000 0.000000 0.000000
    8 -0.296295 -3.447807 3.376961 0.000000 0.000000 0.000000
    9 -0.274347 -2.211739 4.075778 0.002145 0.365692 -0.000503
    10 -0.000004 -18.231224 3.081039 0.004770 0.076600 0.050191
    11 -0.300303 -2.860125 -8.774516 0.641876 2.313609 0.948184
    12 0.096946 -8.450419 -0.009363 -0.029458 -0.735648 0.408681
    13 -0.586769 -1.264477 0.200164 -0.190957 -0.129545 -2.295925
    14 1.522835 0.058680 0.016850 0.500454 -0.025900 0.362783
    15 1.117947 0.048424 -0.005765 0.305343 0.158316 -0.130819
    16 -0.963867 -2.785143 -0.085346 -0.264595 0.014442 -0.052098
    17 0.028478 -1.403067 0.006272 -1.726477 0.042514 -0.050154
    18 0.021412 -0.957782 0.020047 -0.688809 -0.000003 -0.000008
    19 -0.249534 -2.846963 -0.174215 -0.924613 -0.061545 0.074434
    20 0.043235 -1.683940 0.096015 -1.707373 0.124125 -0.010522
    21 0.031729 -1.160830 0.058836 -0.480623 0.000000 0.000000
    22 0.447951 -2.798983 -0.200441 -1.048577 0.025838 0.116509
    23 -0.032909 -1.480207 0.004935 -1.789897 0.000000 0.000000
    24 -0.027023 -1.076921 -0.020212 -0.547360 0.000000 0.000000
    25 1.164474 -2.543939 -0.170327 -0.760503 -0.097052 0.109088
    26 0.024033 -1.129040 0.017807 -1.479009 0.090496 -0.010104
    27 0.014896 -0.883992 -0.019846 -1.331652 0.000000 0.000000
    28 -0.041181 -0.128692 -0.025406 0.350878 0.089487 1.418299
    29 0.583509 -1.197274 0.185379 0.310502 -0.934076 -0.996676
    30 1.535926 0.010247 0.005009 -0.303061 0.037452 -0.923896
    31 1.100770 0.004528 -0.010675 -0.009995 -0.094546 -0.796770
    32 0.957766 -2.746777 -0.090301 -0.279592 -0.023091 0.102297
    33 -0.033419 -1.397128 -0.011255 -0.720497 -0.011086 -0.044463
    34 -0.022361 -0.957433 0.018783 -0.389764 -0.109959 -0.222985
    35 0.250029 -2.820664 -0.238396 -0.848862 -0.049350 -0.226558
    36 -0.049759 -1.680544 0.100479 -1.864034 0.000000 0.000000
    37 -0.034141 -1.148311 0.084779 -0.994530 0.000000 0.000000
    38 -0.488517 -2.755600 -0.228261 -1.058608 -0.055696 -0.251816
    39 0.039889 -1.479791 0.029854 -1.719486 0.000000 0.000000
    40 0.028785 -1.075733 -0.023110 -0.869091 0.000000 0.000000
    41 -1.180679 -2.507216 -0.193861 -0.771938 0.121797 -0.246379
    42 -0.024967 -1.123934 0.017595 -1.614968 0.000000 0.000000
    43 -0.020058 -0.890965 0.010091 -0.746271 0.011865 0.013351
    44 0.120180 -0.051600 -0.063059 0.012085 -2.987703 1.512552
  time 8
    0 6.896857 4.034625 -7.003822 -0.805819 -1.321472 0.580149
    1 -0.071916 -8.498730 -0.104136 0.364638 -0.168673 -0.223511
    2 0.129975 -2.388487 0.824890 -1.502018 1.440634 -1.487710
    3 -0.008696 -4.578129 1.124703 0.000000 0.000000 0.000000
    4 -0.247827 -1.150955 4.199792 1.262289 -0.062552 -1.550985
    5 -0.247888 -3.268787 4.200336 1.263967 -0.000345 -1.570796
    6 -0.000002 -1.794749 1.912829 -0.021404 -0.000647 -0.000911
    7 -0.000005 -4.708170 3.661230 0.000000 0.000000 0.000000
    8 -0.296295 -3.701721 3.376961 0.000000 -0.023298 0.000000
    9 -0.278253 -2.211739 4.052339 -0.030872 0.347883 -0.001103
    10 -0.000004 -18.231224 3.081039 -0.012212 0.205469 0.048514
    11 -0.300303 -3.051537 -8.774516 0.636885 2.312366 0.945514
    12 0.096946 -8.450419 -0.009363 -0.029458 -0.735648 0.408681
    13 -0.586769 -1.264477 0.200164 -0.189267 -0.123742 -2.309461
    14 1.522835 0.058680 0.016850 0.500299 -0.028992 0.368454
    15 1.117947 0.048424 -0.005765 0.304109 0.160749 -0.138648
    16 -0.963867 -2.785143 -0.085346 -0.264595 0.014442 -0.052098
    17 0.028478 -1.403067 0.006272 -1.726477 0.042514 -0.050154
    18 0.021412 -0.957782 0.020047 -0.688809 -0.000003 -0.000008
    19 -0.249534 -2.846963 -0.174215 -0.924613 -0.061545 0.074434
    20 0.043235 -1.683940 0.096015 -1.707373 0.124125 -0.010522
    21 0.031729 -1.160830 0.058836 -0.480623 0.000000 0.000000
    22 0.447951 -2.798983 -0.200441 -1.048577 0.025838 0.116509
    23 -0.032909 -1.480207 0.004935 -1.789897 0.000000 0.000000
    24 -0.027023 -1.076921 -0.020212 -0.547360 0.000000 0.000000
    25 1.164474 -2.543939 -0.170327 -0.760503 -0.097052 0.109088
    26 0.024033 -1.129040 0.017807 -1.479009 0.090496 -0.010104
    27 0.014896 -0.883992 -0.019846 -1.331652 0.000000 0.000000
    28 -0.041181 -0.128692 -0.025406 0.350878 0.089487 1.418299
    29 0.583509 -1.197274 0.185379 0.310502 -0.934076 -0.996676
    30 1.535926 0.010247 0.005009 -0.303061 0.037452 -0.923896
    31 1.100770 0.004528 -0.010675 -0.009995 -0.094546 -0.796770
    32 0.957766 -2.746777 -0.090301 -0.279592 -0.023091 0.102297
    33 -0.033419 -1.397128 -0.011255 -0.607815 -0.018504 -0.040412
    34 -0.022361 -0.957433 0.018783 -0.279775 -0.040999 -0.090268
    35 0.250029 -2.820664 -0.238396 -0.848862 -0.049350 -0.226558
    36 -0.049759 -1.680544 0.100479 -1.864034 0.000000 0.000000
    37 -0.034141 -1.148311 0.084779 -0.994530 0.000000 0.000000
    38 -0.488517 -2.755600 -0.228261 -1.058608 -0.055696 -0.251816
    39 0.039889 -1.479791 0.029854 -1.719486 0.000000 0.000000
    40 0.028785 -1.075733 -0.023110 -0.869091 0.000000 0.000000
    41 -1.180679 -2.507216 -0.193861 -0.771938 0.121797 -0.246379
    42 -0.024967 -1.123934 0.017595 -1.614968 0.000000 0.000000
    43 -0.020058 -0.890965 0.010091 -0.746271 0.011865 0.013351
    44 0.120180 -0.051600 -0.063059 0.012085 -2.987703 1.512552
  time 9
    0 6.896857 3.909621 -6.988196 -0.803891 -1.321897 0.578385
    1 -0.071916 -8.498730 -0.104136 0.364794 -0.168135 -0.224145
    2 0.129975 -2.388487 0.824890 -1.502018 1.440634 -1.487710
    3 -0.008696 -4.578129 1.124703 0.000000 0.000000 0.000000
    4 -0.247827 -1.150955 4.199792 1.263380 -0.022120 -1.563881
    5 -0.247888 -3.268787 4.200336 1.271026 -0.079630 -1.544190
    6 -0.000002 -1.794749 1.912829 -0.048034 -0.000839 -0.003272
    7 -0.000005 -4.708170 3.649511 0.000000 0.000000 0.000000
    8 -0.296295 -3.279833 3.376961 0.000000 -0.039022 0.000000
    9 -0.282160 -2.211739 4.032808 -0.020434 0.333825 -0.000875
    10 -0.000004 -18.231224 3.081039 -0.008281 0.141152 0.040903
    11 -0.300303 -3.188260 -8.774516 0.638080 2.313418 0.947780
    12 0.096946 -8.450419 -0.009363 -0.029458 -0.735648 0.408681
    13 -0.586769 -1.264477 0.200164 -0.187397 -0.119730 -2.325646
    14 1.522835 0.058680 0.016850 0.500109 -0.032540 0.374951
    15 1.117947 0.048424 -0.005765 0.303294 0.162319 -0.143721
    16 -0.963867 -2.785143 -0.085346 -0.264595 0.014442 -0.052098
    17 0.028478 -1.403067 0.006272 -1.726477 0.042514 -0.050154
    18 0.021412 -0.957782 0.020047 -0.688809 -0.000003 -0.000008
    19 -0.249534 -2.846963 -0.174215 -0.924613 -0.061545 0.074434
    20 0.043235 -1.683940 0.096015 -1.707373 0.124125 -0.010522
    21 0.031729 -1.160830 0.058836 -0.480623 0.000000 0.000000
    22 0.447951 -2.798983 -0.200441 -1.048577 0.025838 0.116509
    23 -0.032909 -1.480207 0.004935 -1.789897 0.000000 0.000000
    24 -0.027023 -1.076921 -0.020212 -0.547360 0.000000 0.000000
    25 1.164474 -2.543939 -0.170327 -0.760503 -0.097052 0.109088
    26 0.024033 -1.129040 0.017807 -1.479009 0.090496 -0.010104
    27 0.014896 -0.883992 -0.019846 -1.331652 0.000000 0.000000
    28 -0.041181 -0.128692 -0.025406 0.350878 0.089487 1.418299
    29 0.583509 -1.197274 0.185379 0.310502 -0.934076 -0.996676
    30 1.535926 0.010247 0.005009 -0.303061 0.037452 -0.923896
    31 1.100770 0.004528 -0.010675 -0.009995 -0.094546 -0.796770
    32 0.957766 -2.746777 -0.090301 -0.279592 -0.023091 0.102297
    33 -0.033419 -1.397128 -0.011255 -0.540368 -0.023262 -0.038375
    34 -0.022361 -0.957433 0.018783 -0.227608 -0.004674 -0.001618
    35 0.250029 -2.820664 -0.238396 -0.848862 -0.049350 -0.226558
    36 -0.049759 -1.680544 0.100479 -1.864034 0.000000 0.000000
    37 -0.034141 -1.148311 0.084779 -0.994530 0.000000 0.000000
    38 -0.488517 -2.755600 -0.228261 -1.058608 -0.055696 -0.251816
    39 0.039889 -1.479791 0.029854 -1.719486 0.000000 0.000000
    40 0.028785 -1.075733 -0.023110 -0.869091 0.000000 0.000000
    41 -1.180679 -2.507216 -0.193861 -0.771938 0.121797 -0.246379
    42 -0.024967 -1.123934 0.017595 -1.614968 0.000000 0.000000
    43 -0.020058 -0.890965 0.010091 -0.746271 0.011865 0.013351
    44 0.120180 -0.051600 -0.063059 0.012085 -2.987703 1.512552
  time 10
    0 6.896857 3.831494 -6.968665 -0.801856 -1.322375 0.576455
    1 -0.071916 -8.498730 -0.104136 0.364482 -0.167407 -0.223058
    2 0.129975 -2.388487 0.824890 -1.502018 1.440634 -1.487710
    3 -0.008696 -4.578129 1.124703 0.000000 0.000000 0.000000
    4 -0.247827 -1.150955 4.199792 1.263967 -0.000345 -1.570796
    5 -0.247888 -3.268787 4.200336 1.274777 -0.106945 -1.534770
    6 -0.000002 -1.794749 1.912829 -0.047723 -0.000839 -0.003260
    7 -0.000005 -4.708170 3.637792 0.000000 0.000000 0.000000
    8 -0.296295 -3.365773 3.376961 0.000000 -0.019511 0.000000
    9 -0.286066 -2.211739 4.024995 0.009947 0.321349 -0.000276
    10 -0.000004 -18.231224 3.081039 0.003967 0.003375 0.029398
    11 -0.300303 -3.274200 -8.774516 0.641666 2.315425 0.951987
    12 0.096946 -8.450419 -0.009363 -0.029458 -0.735648 0.408681
    13 -0.586769 -1.264477 0.200164 -0.187925 -0.112680 -2.321939
    14 1.522835 0.058680 0.016850 0.499902 -0.035728 0.380770
    15 1.117947 0.048424 -0.005765 0.302958 0.162942 -0.145763
    16 -0.963867 -2.785143 -0.085346 -0.264595 0.014442 -0.052098
    17 0.028478 -1.403067 0.006272 -1.726477 0.042514 -0.050154
    18 0.021412 -0.957782 0.020047 -0.688809 -0.000003 -0.000008
    19 -0.249534 -2.846963 -0.174215 -0.924613 -0.061545 0.074434
    20 0.043235 -1.683940 0.096015 -1.707373 0.124125 -0.010522
    21 0.031729 -1.160830 0.058836 -0.480623 0.000000 0.000000
    22 0.447951 -2.798983 -0.200441 -1.048577 0.025838 0.116509
    23 -0.032909 -1.480207 0.004935 -1.789897 0.000000 0.000000
    24 -0.027023 -1.076921 -0.020212 -0.547360 0.000000 0.000000
    25 1.164474 -2.543939 -0.170327 -0.760503 -0.097052 0.109088
    26 0.024033 -1.129040 0.017807 -1.479009 0.090496 -0.010104
    27 0.014896 -0.883992 -0.019846 -1.331652 0.000000 0.000000
    28 -0.041181 -0.128692 -0.025406 0.350878 0.089487 1.418299
    29 0.583509 -1.197274 0.185379 0.310502 -0.934076 -0.996676
    30 1.535926 0.010247 0.005009 -0.303061 0.037452 -0.923896
    31 1.100770 0.004528 -0.010675 -0.009995 -0.094546 -0.796770
    32 0.957766 -2.746777 -0.090301 -0.279592 -0.023091 0.102297
    33 -0.033419 -1.397128 -0.011255 -0.514924 -0.025287 -0.037620
    34 -0.022361 -0.957433 0.018783 -0.243347 0.003212 0.018288
    35 0.250029 -2.820664 -0.238396 -0.848862 -0.049350 -0.226558
    36 -0.049759 -1.680544 0.100479 -1.864034 0.000000 0.000000
    37 -0.034141 -1.148311 0.084779 -0.994530 0.000000 0.000000
    38 -0.488517 -2.755600 -0.228261 -1.058608 -0.055696 -0.251816
    39 0.039889 -1.479791 0.029854 -1.719486 0.000000 0.000000
    40 0.028785 -1.075733 -0.023110 -0.869091 0.000000 0.000000
    41 -1.180679 -2.507216 -0.193861 -0.771938 0.121797 -0.246379
    42 -0.024967 -1.123934 0.017595 -1.614968 0.000000 0.000000
    43 -0.020058 -0.890965 0.010091 -0.746271 0.011865 0.013351
    44 0.120180 -0.051600 -0.063059 0.012085 -2.987703 1.512552
  time 11
    0 6.896857 3.788524 -6.956945 -0.799768 -1.322879 0.574525
    1 -0.071916 -8.498730 -0.104136 0.363799 -0.166457 -0.220523
    2 0.129975 -2.388487 0.824890 -1.502018 1.440634 -1.487710
    3 -0.008696 -4.578129 1.124703 0.000000 0.000000 0.000000
    4 -0.247827 -1.150955 4.199792 1.264195 -0.002506 -1.570161
    5 -0.247888 -3.268787 4.200336 1.269372 -0.053635 -1.552783
    6 -0.000002 -1.794749 1.912829 -0.046812 -0.000815 -0.003188
    7 -0.000005 -4.708170 3.629979 0.000000 0.000000 0.000000
    8 -0.296295 -3.447807 3.376961 0.000000 0.000000 0.000000
    9 -0.286066 -2.211739 4.024995 0.027373 0.315968 0.000060
    10 -0.000004 -18.231224 3.081039 0.010942 -0.080249 0.018277
    11 -0.300303 -3.321077 -8.774516 0.646727 2.318101 0.957246
    12 0.096946 -8.450419 -0.009363 -0.029458 -0.735648 0.408681
    13 -0.586769 -1.264477 0.200164 -0.189087 -0.105378 -2.312469
    14 1.522835 0.058680 0.016850 0.499781 -0.037717 0.384432
    15 1.117947 0.048424 -0.005765 0.303162 0.162547 -0.144470
    16 -0.963867 -2.785143 -0.085346 -0.264595 0.014442 -0.052098
    17 0.028478 -1.403067 0.006272 -1.726477 0.042514 -0.050154
    18 0.021412 -0.957782 0.020047 -0.688809 -0.000003 -0.000008
    19 -0.249534 -2.846963 -0.174215 -0.924613 -0.061545 0.074434
    20 0.043235 -1.683940 0.096015 -1.707373 0.124125 -0.010522
    21 0.031729 -1.160830 0.058836 -0.480623 0.000000 0.000000
    22 0.447951 -2.798983 -0.200441 -1.048577 0.025838 0.116509
    23 -0.032909 -1.480207 0.004935 -1.789897 0.000000 0.000000
    24 -0.027023 -1.076921 -0.020212 -0.547360 0.000000 0.000000
    25 1.164474 -2.543939 -0.170327 -0.760503 -0.097052 0.109088
    26 0.024033 -1.129040 0.017807 -1.479009 0.090496 -0.010104
    27 0.014896 -0.883992 -0.019846 -1.331652 0.000000 0.000000
    28 -0.041181 -0.128692 -0.025406 0.350878 0.089487 1.418299
    29 0.583509 -1.197274 0.185379 0.310502 -0.934076 -0.996676
    30 1.535926 0.010247 0.005009 -0.303061 0.037452 -0.923896
    31 1.100770 0.004528 -0.010675 -0.009995 -0.094546 -0.796770
    32 0.957766 -2.746777 -0.090301 -0.279592 -0.023091 0.102297
    33 -0.033419 -1.397128 -0.011255 -0.507293 -0.026162 -0.037332
    34 -0.022361 -0.957433 0.018783 -0.274483 0.008090 0.028811
    35 0.250029 -2.820664 -0.238396 -0.848862 -0.049350 -0.226558
    36 -0.049759 -1.680544 0.100479 -1.864034 0.000000 0.000000
    37 -0.034141 -1.148311 0.084779 -0.994530 0.000000 0.000000
    38 -0.488517 -2.755600 -0.228261 -1.058608 -0.055696 -0.251816
    39 0.039889 -1.479791 0.029854 -1.719486 0.000000 0.000000
    40 0.028785 -1.075733 -0.023110 -0.869091 0.000000 0.000000
    41 -1.180679 -2.507216 -0.193861 -0.771938 0.121797 -0.246379
    42 -0.024967 -1.123934 0.017595 -1.614968 0.000000 0.000000
    43 -0.020058 -0.890965 0.010091 -0.746271 0.011865 0.013351
    44 0.120180 -0.051600 -0.063059 0.012085 -2.987703 1.512552
  time 12
    0 6.896857 3.780711 -6.941320 -0.797626 -1.323358 0.572541
    1 -0.071916 -8.498730 -0.104136 0.362793 -0.165381 -0.216870
    2 0.129975 -2.388487 0.824890 -1.502018 1.440634 -1.487710
    3 -0.008696 -4.578129 1.124703 0.000000 0.000000 0.000000
    4 -0.247827 -1.150955 4.199792 1.263943 -0.023304 -1.563545
    5 -0.247888 -3.268787 4.200336 1.263967 -0.000345 -1.570796
    6 -0.000002 -1.794749 1.912829 -0.045374 -0.000791 -0.003092
    7 -0.000005 -4.708170 3.622167 0.000000 0.000000 0.000000
    8 -0.296295 -3.447807 3.376961 0.000000 0.000000 0.000000
    9 -0.286066 -2.211739 4.024995 0.020278 0.315357 0.000048
    10 -0.000004 -18.231224 3.081039 0.005417 -0.043637 0.006759
    11 -0.300303 -3.328889 -8.774516 0.652562 2.320873 0.962910
    12 0.096946 -8.450419 -0.009363 -0.029458 -0.735648 0.408681
    13 -0.586769 -1.264477 0.200164 -0.189950 -0.102048 -2.305013
    14 1.522835 0.058680 0.016850 0.499781 -0.037705 0.384403
    15 1.117947 0.048424 -0.005765 0.303953 0.161049 -0.139602
    16 -0.963867 -2.785143 -0.085346 -0.264595 0.014442 -0.052098
    17 0.028478 -1.403067 0.006272 -1.726477 0.042514 -0.050154
    18 0.021412 -0.957782 0.020047 -0.688809 -0.000003 -0.000008
    19 -0.249534 -2.846963 -0.174215 -0.924613 -0.061545 0.074434
    20 0.043235 -1.683940 0.096015 -1.707373 0.124125 -0.010522
    21 0.031729 -1.160830 0.058836 -0.480623 0.000000 0.000000
    22 0.447951 -2.798983 -0.200441 -1.048577 0.025838 0.116509
    23 -0.032909 -1.480207 0.004935 -1.789897 0.000000 0.000000
    24 -0.027023 -1.076921 -0.020212 -0.547360 0.000000 0.000000
    25 1.164474 -2.543939 -0.170327 -0.760503 -0.097052 0.109088
    26 0.024033 -1.129040 0.017807 -1.479009 0.090496 -0.010104
    27 0.014896 -0.883992 -0.019846 -1.331652 0.000000 0.000000
    28 -0.041181 -0.128692 -0.025406 0.350878 0.089487 1.418299
    29 0.583509 -1.197274 0.185379 0.310502 -0.934076 -0.996676
    30 1.535926 0.010247 0.005009 -0.303061 0.037452 -0.923896
    31 1.100770 0.004528 -0.010675 -0.009995 -0.094546 -0.796770
    32 0.957766 -2.746777 -0.090301 -0.279592 -0.023091 0.102297
    33 -0.033419 -1.397128 -0.011255 -0.513117 -0.026126 -0.037368
    34 -0.022361 -0.957433 0.018783 -0.317021 0.010403 0.031759
    35 0.250029 -2.820664 -0.238396 -0.848862 -0.049350 -0.226558
    36 -0.049759 -1.680544 0.100479 -1.864034 0.000000 0.000000
    37 -0.034141 -1.148311 0.084779 -0.994530 0.000000 0.000000
    38 -0.488517 -2.755600 -0.228261 -1.058608 -0.055696 -0.251816
    39 0.039889 -1.479791 0.029854 -1.719486 0.000000 0.000000
    40 0.028785 -1.075733 -0.023110 -0.869091 0.000000 0.000000
    41 -1.180679 -2.507216 -0.193861 -0.771938 0.121797 -0.246379
    42 -0.024967 -1.123934 0.017595 -1.614968 0.000000 0.000000
    43 -0.020058 -0.890965 0.010091 -0.746271 0.011865 0.013351
    44 0.120180 -0.051600 -0.063059 0.012085 -2.987703 1.512552
  time 13
    0 6.896857 3.796337 -6.929601 -0.795511 -1.323836 0.570556
    1 -0.071916 -8.498730 -0.104136 0.361570 -0.164210 -0.212341
    2 0.129975 -2.388487 0.824890 -1.502018 1.440634 -1.487710
    3 -0.008696 -4.578129 1.124703 0.000000 0.000000 0.000000
    4 -0.247827 -1.150955 4.199792 1.263691 -0.042460 -1.557445
    5 -0.247888 -3.268787 4.200336 1.263967 -0.000345 -1.570796
    6 -0.000002 -1.794749 1.912829 -0.043468 -0.000755 -0.002960
    7 -0.000005 -4.708170 3.614354 0.000000 0.000000 0.000000
    8 -0.296295 -3.447807 3.376961 0.000000 0.000000 0.000000
    9 -0.286066 -2.211739 4.024995 0.007095 0.314230 0.000012
    10 -0.000004 -18.231224 3.081039 0.000000 0.000000 0.000000
    11 -0.300303 -3.313264 -8.774516 0.658326 2.323549 0.968088
    12 0.096946 -8.450419 -0.009363 -0.029458 -0.735648 0.408681
    13 -0.586769 -1.264477 0.200164 -0.190394 -0.102457 -2.301157
    14 1.522835 0.058680 0.016850 0.499884 -0.035943 0.381183
    15 1.117947 0.048424 -0.005765 0.305212 0.158580 -0.131636
    16 -0.963867 -2.785143 -0.085346 -0.264595 0.014442 -0.052098
    17 0.028478 -1.403067 0.006272 -1.726477 0.042514 -0.050154
    18 0.021412 -0.957782 0.020047 -0.688809 -0.000003 -0.000008
    19 -0.249534 -2.846963 -0.174215 -0.924613 -0.061545 0.074434
    20 0.043235 -1.683940 0.096015 -1.707373 0.124125 -0.010522
    21 0.031729 -1.160830 0.058836 -0.480623 0.000000 0.000000
    22 0.447951 -2.798983 -0.200441 -1.048577 0.025838 0.116509
    23 -0.032909 -1.480207 0.004935 -1.789897 0.000000 0.000000
    24 -0.027023 -1.076921 -0.020212 -0.547360 0.000000 0.000000
    25 1.164474 -2.543939 -0.170327 -0.760503 -0.097052 0.109088
    26 0.024033 -1.129040 0.017807 -1.479009 0.090496 -0.010104
    27 0.014896 -0.883992 -0.019846 -1.331652 0.000000 0.000000
    28 -0.041181 -0.128692 -0.025406 0.350878 0.089487 1.418299
    29 0.583509 -1.197274 0.185379 0.310502 -0.934076 -0.996676
    30 1.535926 0.010247 0.005009 -0.303061 0.037452 -0.923896
    31 1.100770 0.004528 -0.010675 -0.009995 -0.094546 -0.796770
    32 0.957766 -2.746777 -0.090301 -0.279592 -0.023091 0.102297
    33 -0.033419 -1.397128 -0.011255 -0.528061 -0.025479 -0.037632
    34 -0.022361 -0.957433 0.018783 -0.366871 0.010499 0.029099
    35 0.250029 -2.820664 -0.238396 -0.848862 -0.049350 -0.226558
    36 -0.049759 -1.680544 0.100479 -1.864034 0.000000 0.000000
    37 -0.034141 -1.148311 0.084779 -0.994530 0.000000 0.000000
    38 -0.488517 -2.755600 -0.228261 -1.058608 -0.055696 -0.251816
    39 0.039889 -1.479791 0.029854 -1.719486 0.000000 0.000000
    40 0.028785 -1.075733 -0.023110 -0.869091 0.000000 0.000000
    41 -1.180679 -2.507216 -0.193861 -0.771938 0.121797 -0.246379
    42 -0.024967 -1.123934 0.017595 -1.614968 0.000000 0.000000
    43 -0.020058 -0.890965 0.010091 -0.746271 0.011865 0.013351
    44 0.120180 -0.051600 -0.063059 0.012085 -2.987703 1.512552
  time 14
    0 6.896857 3.835400 -6.917882 -0.793476 -1.324314 0.568682
    1 -0.071916 -8.498730 -0.104136 0.360204 -0.162975 -0.207239
    2 0.129975 -2.388487 0.824890 -1.502018 1.440634 -1.487710
    3 -0.008696 -4.578129 1.124703 0.000000 0.000000 0.000000
    4 -0.247827 -1.150955 4.199792 1.263619 -0.053202 -1.554042
    5 -0.247888 -3.268787 4.200336 1.263967 -0.000345 -1.570796
    6 -0.000002 -1.794749 1.912829 -0.041155 -0.000719 -0.002804
    7 -0.000005 -4.708170 3.610448 0.000000 0.000000 0.000000
    8 -0.296295 -3.447807 3.376961 0.000000 0.000000 0.000000
    9 -0.286066 -2.211739 4.024995 0.000000 0.313631 0.000000
    10 -0.000004 -18.231224 3.081039 0.000000 0.000000 0.000000
    11 -0.300303 -3.270294 -8.774516 0.663809 2.325939 0.972699
    12 0.096946 -8.450419 -0.009363 -0.029458 -0.735648 0.408681
    13 -0.586769 -1.264477 0.200164 -0.190849 -0.103508 -2.297302
    14 1.522835 0.058680 0.016850 0.500057 -0.033379 0.376458
    15 1.117947 0.048424 -0.005765 0.306794 0.155428 -0.121560
    16 -0.963867 -2.785143 -0.085346 -0.264595 0.014442 -0.052098
    17 0.028478 -1.403067 0.006272 -1.726477 0.042514 -0.050154
    18 0.021412 -0.957782 0.020047 -0.688809 -0.000003 -0.000008
    19 -0.249534 -2.846963 -0.174215 -0.924613 -0.061545 0.074434
    20 0.043235 -1.683940 0.096015 -1.707373 0.124125 -0.010522
    21 0.031729 -1.160830 0.058836 -0.480623 0.000000 0.000000
    22 0.447951 -2.798983 -0.200441 -1.048577 0.025838 0.116509
    23 -0.032909 -1.480207 0.004935 -1.789897 0.000000 0.000000
    24 -0.027023 -1.076921 -0.020212 -0.547360 0.000000 0.000000
    25 1.164474 -2.543939 -0.170327 -0.760503 -0.097052 0.109088
    26 0.024033 -1.129040 0.017807 -1.479009 0.090496 -0.010104
    27 0.014896 -0.883992 -0.019846 -1.331652 0.000000 0.000000
    28 -0.041181 -0.128692 -0.025406 0.350878 0.089487 1.418299
    29 0.583509 -1.197274 0.185379 0.310502 -0.934076 -0.996676
    30 1.535926 0.010247 0.005009 -0.303061 0.037452 -0.923896
    31 1.100770 0.004528 -0.010675 -0.009995 -0.094546 -0.796770
    32 0.957766 -2.746777 -0.090301 -0.279592 -0.023091 0.102297
    33 -0.033419 -1.397128 -0.011255 -0.547787 -0.024497 -0.038027
    34 -0.022361 -0.957433 0.018783 -0.419924 0.008725 0.022807
    35 0.250029 -2.820664 -0.238396 -0.848862 -0.049350 -0.226558
    36 -0.049759 -1.680544 0.100479 -1.864034 0.000000 0.000000
    37 -0.034141 -1.148311 0.084779 -0.994530 0.000000 0.000000
    38 -0.488517 -2.755600 -0.228261 -1.058608 -0.055696 -0.251816
    39 0.039889 -1.479791 0.029854 -1.719486 0.000000 0.000000
    40 0.028785 -1.075733 -0.023110 -0.869091 0.000000 0.000000
    41 -1.180679 -2.507216 -0.193861 -0.771938 0.121797 -0.246379
    42 -0.024967 -1.123934 0.017595 -1.614968 0.000000 0.000000
    43 -0.020058 -0.890965 0.010091 -0.746271 0.011865 0.013351
    44 0.120180 -0.051600 -0.063059 0.012085 -2.987703 1.512552
  time 15
    0 6.896857 3.882277 -6.910069 -0.791549 -1.324739 0.566862
    1 -0.071916 -8.498730 -0.104136 0.358766 -0.161740 -0.201865
    2 0.129975 -2.388487 0.824890 -1.502018 1.440634 -1.487710
    3 -0.008696 -4.578129 1.124703 0.000000 0.000000 0.000000
    4 -0.247827 -1.150955 4.199792 1.263548 -0.062282 -1.551165
    5 -0.247888 -3.268787 4.200336 1.263967 -0.000345 -1.570796
    6 -0.000002 -1.794749 1.912829 -0.038506 -0.000671 -0.002625
    7 -0.000005 -4.708170 3.606541 0.000000 0.000000 0.000000
    8 -0.296295 -3.447807 3.376961 0.000000 0.000000 0.000000
    9 -0.286066 -2.211739 4.024995 0.000000 0.313631 0.000000
    10 -0.000004 -18.231224 3.081039 0.000000 0.000000 0.000000
    11 -0.300303 -3.219511 -8.774516 0.669081 2.328233 0.976988
    12 0.096946 -8.450419 -0.009363 -0.029458 -0.735648 0.408681
    13 -0.586769 -1.264477 0.200164 -0.191304 -0.105047 -2.293489
    14 1.522835 0.058680 0.016850 0.500247 -0.030179 0.370610
    15 1.117947 0.048424 -0.005765 0.308579 0.151773 -0.109917
    16 -0.963867 -2.785143 -0.085346 -0.264595 0.014442 -0.052098
    17 0.028478 -1.403067 0.006272 -1.726477 0.042514 -0.050154
    18 0.021412 -0.957782 0.020047 -0.688809 -0.000003 -0.000008
    19 -0.249534 -2.846963 -0.174215 -0.924613 -0.061545 0.074434
    20 0.043235 -1.683940 0.096015 -1.707373 0.124125 -0.010522
    21 0.031729 -1.160830 0.058836 -0.480623 0.000000 0.000000
    22 0.447951 -2.798983 -0.200441 -1.048577 0.025838 0.116509
    23 -0.032909 -1.480207 0.004935 -1.789897 0.000000 0.000000
    24 -0.027023 -1.076921 -0.020212 -0.547360 0.000000 0.000000
    25 1.164474 -2.543939 -0.170327 -0.760503 -0.097052 0.109088
    26 0.024033 -1.129040 0.017807 -1.479009 0.090496 -0.010104
    27 0.014896 -0.883992 -0.019846 -1.331652 0.000000 0.000000
    28 -0.041181 -0.128692 -0.025406 0.350878 0.089487 1.418299
    29 0.583509 -1.197274 0.185379 0.310502 -0.934076 -0.996676
    30 1.535926 0.010247 0.005009 -0.303061 0.037452 -0.923896
    31 1.100770 0.004528 -0.010675 -0.009995 -0.094546 -0.796770
    32 0.957766 -2.746777 -0.090301 -0.279592 -0.023091 0.102297
    33 -0.033419 -1.397128 -0.011255 -0.567938 -0.023442 -0.038471
    34 -0.022361 -0.957433 0.018783 -0.472046 0.005657 0.014825
    35 0.250029 -2.820664 -0.238396 -0.848862 -0.049350 -0.226558
    36 -0.049759 -1.680544 0.100479 -1.864034 0.000000 0.000000
    37 -0.034141 -1.148311 0.084779 -0.994530 0.000000 0.000000
    38 -0.488517 -2.755600 -0.228261 -1.058608 -0.055696 -0.251816
    39 0.039889 -1.479791 0.029854 -1.719486 0.000000 0.000000
    40 0.028785 -1.075733 -0.023110 -0.869091 0.000000 0.000000
    41 -1.180679 -2.507216 -0.193861 -0.771938 0.121797 -0.246379
    42 -0.024967 -1.123934 0.017595 -1.614968 0.000000 0.000000
    43 -0.020058 -0.890965 0.010091 -0.746271 0.011865 0.013351
    44 0.120180 -0.051600 -0.063059 0.012085 -2.987703 1.512552
  time 16
    0 6.896857 3.940872 -6.906163 -0.789781 -1.325137 0.565208
    1 -0.071916 -8.498730 -0.104136 0.357328 -0.160506 -0.196462
    2 0.129975 -2.388487 0.824890 -1.502018 1.440634 -1.487710
    3 -0.008696 -4.578129 1.124703 0.000000 0.000000 0.000000
    4 -0.247827 -1.150955 4.199792 1.263500 -0.069720 -1.548804
    5 -0.247888 -3.268787 4.200336 1.263967 -0.000345 -1.570796
    6 -0.000002 -1.794749 1.912829 -0.035582 -0.000623 -0.002421
    7 -0.000005 -4.708170 3.602635 0.000000 0.000000 0.000000
    8 -0.296295 -3.447807 3.376961 0.000000 0.000000 0.000000
    9 -0.286066 -2.211739 4.024995 0.000000 0.313631 0.000000
    10 -0.000004 -18.231224 3.081039 0.000000 0.000000 0.000000
    11 -0.300303 -3.157009 -8.774516 0.674002 2.330336 0.980871
    12 0.096946 -8.450419 -0.009363 -0.029458 -0.735648 0.408681
    13 -0.586769 -1.264477 0.200164 -0.191760 -0.106994 -2.289845
    14 1.522835 0.058680 0.016850 0.500437 -0.026547 0.363964
    15 1.117947 0.048424 -0.005765 0.310461 0.147770 -0.097254
    16 -0.963867 -2.785143 -0.085346 -0.264595 0.014442 -0.052098
    17 0.028478 -1.403067 0.006272 -1.726477 0.042514 -0.050154
    18 0.021412 -0.957782 0.020047 -0.688809 -0.000003 -0.000008
    19 -0.249534 -2.846963 -0.174215 -0.924613 -0.061545 0.074434
    20 0.043235 -1.683940 0.096015 -1.707373 0.124125 -0.010522
    21 0.031729 -1.160830 0.058836 -0.480623 0.000000 0.000000
    22 0.447951 -2.798983 -0.200441 -1.048577 0.025838 0.116509
    23 -0.032909 -1.480207 0.004935 -1.789897 0.000000 0.000000
    24 -0.027023 -1.076921 -0.020212 -0.547360 0.000000 0.000000
    25 1.164474 -2.543939 -0.170327 -0.760503 -0.097052 0.109088
    26 0.024033 -1.129040 0.017807 -1.479009 0.090496 -0.010104
    27 0.014896 -0.883992 -0.019846 -1.331652 0.000000 0.000000
    28 -0.041181 -0.128692 -0.025406 0.350878 0.089487 1.418299
    29 0.583509 -1.197274 0.185379 0.310502 -0.934076 -0.996676
    30 1.535926 0.010247 0.005009 -0.303061 0.037452 -0.923896
    31 1.100770 0.004528 -0.010675 -0.009995 -0.094546 -0.796770
    32 0.957766 -2.746777 -0.090301 -0.279592 -0.023091 0.102297
    33 -0.033419 -1.397128 -0.011255 -0.584199 -0.022603 -0.038854
    34 -0.022361 -0.957433 0.018783 -0.519148 0.002109 0.006999
    35 0.250029 -2.820664 -0.238396 -0.848862 -0.049350 -0.226558
    36 -0.049759 -1.680544 0.100479 -1.864034 0.000000 0.000000
    37 -0.034141 -1.148311 0.084779 -0.994530 0.000000 0.000000
    38 -0.488517 -2.755600 -0.228261 -1.058608 -0.055696 -0.251816
    39 0.039889 -1.479791 0.029854 -1.719486 0.000000 0.000000
    40 0.028785 -1.075733 -0.023110 -0.869091 0.000000 0.000000
    41 -1.180679 -2.507216 -0.193861 -0.771938 0.121797 -0.246379
    42 -0.024967 -1.123934 0.017595 -1.614968 0.000000 0.000000
    43 -0.020058 -0.890965 0.010091 -0.746271 0.011865 0.013351
    44 0.120180 -0.051600 -0.063059 0.012085 -2.987703 1.512552
  time 17
    0 6.896857 3.999468 -6.902256 -0.788255 -1.325509 0.563720
    1 -0.071916 -8.498730 -0.104136 0.355973 -0.159366 -0.191329
    2 0.129975 -2.388487 0.824890 -1.502018 1.440634 -1.487710
    3 -0.008696 -4.578129 1.124703 0.000000 0.000000 0.000000
    4 -0.247827 -1.150955 4.199792 1.263464 -0.075496 -1.546971
    5 -0.247888 -3.268787 4.200336 1.263967 -0.000345 -1.570796
    6 -0.000002 -1.794749 1.912829 -0.032430 -0.000563 -0.002205
    7 -0.000005 -4.708170 3.602635 0.000000 0.000000 0.000000
    8 -0.296295 -3.447807 3.376961 0.000000 0.000000 0.000000
    9 -0.286066 -2.211739 4.024995 0.000000 0.313631 0.000000
    10 -0.000004 -18.231224 3.081039 0.000000 0.000000 0.000000
    11 -0.300303 -3.090601 -8.774516 0.678290 2.332056 0.984188
    12 0.096946 -8.450419 -0.009363 -0.029458 -0.735648 0.408681
    13 -0.586769 -1.264477 0.200164 -0.192191 -0.109214 -2.286435
    14 1.522835 0.058680 0.016850 0.500609 -0.022676 0.356906
    15 1.117947 0.048424 -0.005765 0.312366 0.143587 -0.084148
    16 -0.963867 -2.785143 -0.085346 -0.264595 0.014442 -0.052098
    17 0.028478 -1.403067 0.006272 -1.726477 0.042514 -0.050154
    18 0.021412 -0.957782 0.020047 -0.688809 -0.000003 -0.000008
    19 -0.249534 -2.846963 -0.174215 -0.924613 -0.061545 0.074434
    20 0.043235 -1.683940 0.096015 -1.707373 0.124125 -0.010522
    21 0.031729 -1.160830 0.058836 -0.480623 0.000000 0.000000
    22 0.447951 -2.798983 -0.200441 -1.048577 0.025838 0.116509
    23 -0.032909 -1.480207 0.004935 -1.789897 0.000000 0.000000
    24 -0.027023 -1.076921 -0.020212 -0.547360 0.000000 0.000000
    25 1.164474 -2.543939 -0.170327 -0.760503 -0.097052 0.109088
    26 0.024033 -1.129040 0.017807 -1.479009 0.090496 -0.010104
    27 0.014896 -0.883992 -0.019846 -1.331652 0.000000 0.000000
    28 -0.041181 -0.128692 -0.025406 0.350878 0.089487 1.418299
    29 0.583509 -1.197274 0.185379 0.310502 -0.934076 -0.996676
    30 1.535926 0.010247 0.005009 -0.303061 0.037452 -0.923896
    31 1.100770 0.004528 -0.010675 -0.009995 -0.094546 -0.796770
    32 0.957766 -2.746777 -0.090301 -0.279592 -0.023091 0.102297
    33 -0.033419 -1.397128 -0.011255 -0.592234 -0.022231 -0.039034
    34 -0.022361 -0.957433 0.018783 -0.557144 -0.000851 0.001103
    35 0.250029 -2.820664 -0.238396 -0.848862 -0.049350 -0.226558
    36 -0.049759 -1.680544 0.100479 -1.864034 0.000000 0.000000
    37 -0.034141 -1.148311 0.084779 -0.994530 0.000000 0.000000
    38 -0.488517 -2.755600 -0.228261 -1.058608 -0.055696 -0.251816
    39 0.039889 -1.479791 0.029854 -1.719486 0.000000 0.000000
    40 0.028785 -1.075733 -0.023110 -0.869091 0.000000 0.000000
    41 -1.180679 -2.507216 -0.193861 -0.771938 0.121797 -0.246379
    42 -0.024967 -1.123934 0.017595 -1.614968 0.000000 0.000000
    43 -0.020058 -0.890965 0.010091 -0.746271 0.011865 0.013351
    44 0.120180 -0.051600 -0.063059 0.012085 -2.987703 1.512552
  time 18
    0 6.896857 4.050251 -6.902256 -0.786970 -1.325801 0.562507
    1 -0.071916 -8.498730 -0.104136 0.354763 -0.158321 -0.186741
    2 0.129975 -2.388487 0.824890 -1.502018 1.440634 -1.487710
    3 -0.008696 -4.578129 1.124703 0.000000 0.000000 0.000000
    4 -0.247827 -1.150955 4.199792 1.263440 -0.079631 -1.545664
    5 -0.247888 -3.268787 4.200336 1.263967 -0.000345 -1.570796
    6 -0.000002 -1.794749 1.912829 -0.029123 -0.000503 -0.001989
    7 -0.000005 -4.708170 3.602635 0.000000 0.000000 0.000000
    8 -0.296295 -3.447807 3.376961 0.000000 0.000000 0.000000
    9 -0.286066 -2.211739 4.024995 0.000000 0.313631 0.000000
    10 -0.000004 -18.231224 3.081039 0.000000 0.000000 0.000000
    11 -0.300303 -3.032005 -8.774516 0.681805 2.333585 0.986858
    12 0.096946 -8.450419 -0.009363 -0.029458 -0.735648 0.408681
    13 -0.586769 -1.264477 0.200164 -0.192587 -0.111609 -2.283320
    14 1.522835 0.058680 0.016850 0.500748 -0.018769 0.349758
    15 1.117947 0.048424 -0.005765 0.314212 0.139405 -0.071110
    16 -0.963867 -2.785143 -0.085346 -0.264595 0.014442 -0.052098
    17 0.028478 -1.403067 0.006272 -1.726477 0.042514 -0.050154
    18 0.021412 -0.957782 0.020047 -0.688809 -0.000003 -0.000008
    19 -0.249534 -2.846963 -0.174215 -0.924613 -0.061545 0.074434
    20 0.043235 -1.683940 0.096015 -1.707373 0.124125 -0.010522
    21 0.031729 -1.160830 0.058836 -0.480623 0.000000 0.000000
    22 0.447951 -2.798983 -0.200441 -1.048577 0.025838 0.116509
    23 -0.032909 -1.480207 0.004935 -1.789897 0.000000 0.000000
    24 -0.027023 -1.076921 -0.020212 -0.547360 0.000000 0.000000
    25 1.164474 -2.543939 -0.170327 -0.760503 -0.097052 0.109088
    26 0.024033 -1.129040 0.017807 -1.479009 0.090496 -0.010104
    27 0.014896 -0.883992 -0.019846 -1.331652 0.000000 0.000000
    28 -0.041181 -0.128692 -0.025406 0.350878 0.089487 1.418299
    29 0.583509 -1.197274 0.185379 0.310502 -0.934076 -0.996676
    30 1.535926 0.010247 0.005009 -0.303061 0.037452 -0.923896
    31 1.100770 0.004528 -0.010675 -0.009995 -0.094546 -0.796770
    32 0.957766 -2.746777 -0.090301 -0.279592 -0.023091 0.102297
    33 -0.033419 -1.397128 -0.011255 -0.594339 -0.022183 -0.039058
    34 -0.022361 -0.957433 0.018783 -0.581967 -0.002025 -0.001222
    35 0.250029 -2.820664 -0.238396 -0.848862 -0.049350 -0.226558
    36 -0.049759 -1.680544 0.100479 -1.864034 0.000000 0.000000
    37 -0.034141 -1.148311 0.084779 -0.994530 0.000000 0.000000
    38 -0.488517 -2.755600 -0.228261 -1.058608 -0.055696 -0.251816
    39 0.039889 -1.479791 0.029854 -1.719486 0.000000 0.000000
    40 0.028785 -1.075733 -0.023110 -0.869091 0.000000 0.000000
    41 -1.180679 -2.507216 -0.193861 -0.771938 0.121797 -0.246379
    42 -0.024967 -1.123934 0.017595 -1.614968 0.000000 0.000000
    43 -0.020058 -0.890965 0.010091 -0.746271 0.011865 0.013351
    44 0.120180 -0.051600 -0.063059 0.012085 -2.987703 1.512552
  time 19
    0 6.896857 4.093221 -6.902256 -0.785980 -1.326014 0.561570
    1 -0.071916 -8.498730 -0.104136 0.353780 -0.157435 -0.183027
    2 0.129975 -2.388487 0.824890 -1.502018 1.440634 -1.487710
    3 -0.008696 -4.578129 1.124703 0.000000 0.000000 0.000000
    4 -0.247827 -1.150955 4.199792 1.263416 -0.082103 -1.544885
    5 -0.247888 -3.268787 4.200336 1.263967 -0.000345 -1.570796
    6 -0.000002 -1.794749 1.912829 -0.025731 -0.000443 -0.001750
    7 -0.000005 -4.708170 3.602635 0.000000 0.000000 0.000000
    8 -0.296295 -3.447807 3.376961 0.000000 0.000000 0.000000
    9 -0.286066 -2.211739 4.024995 0.000000 0.313631 0.000000
    10 -0.000004 -18.231224 3.081039 0.000000 0.000000 0.000000
    11 -0.300303 -2.989035 -8.774516 0.684266 2.334541 0.988719
    12 0.096946 -8.450419 -0.009363 -0.029458 -0.735648 0.408681
    13 -0.586769 -1.264477 0.200164 -0.192946 -0.114044 -2.280630
    14 1.522835 0.058680 0.016850 0.500868 -0.015006 0.342877
    15 1.117947 0.048424 -0.005765 0.315914 0.135402 -0.058685
    16 -0.963867 -2.785143 -0.085346 -0.264595 0.014442 -0.052098
    17 0.028478 -1.403067 0.006272 -1.726477 0.042514 -0.050154
    18 0.021412 -0.957782 0.020047 -0.688809 -0.000003 -0.000008
    19 -0.249534 -2.846963 -0.174215 -0.924613 -0.061545 0.074434
    20 0.043235 -1.683940 0.096015 -1.707373 0.124125 -0.010522
    21 0.031729 -1.160830 0.058836 -0.480623 0.000000 0.000000
    22 0.447951 -2.798983 -0.200441 -1.048577 0.025838 0.116509
    23 -0.032909 -1.480207 0.004935 -1.789897 0.000000 0.000000
    24 -0.027023 -1.076921 -0.020212 -0.547360 0.000000 0.000000
    25 1.164474 -2.543939 -0.170327 -0.760503 -0.097052 0.109088
    26 0.024033 -1.129040 0.017807 -1.479009 0.090496 -0.010104
    27 0.014896 -0.883992 -0.019846 -1.331652 0.000000 0.000000
    28 -0.041181 -0.128692 -0.025406 0.350878 0.089487 1.418299
    29 0.583509 -1.197274 0.185379 0.310502 -0.934076 -0.996676
    30 1.535926 0.010247 0.005009 -0.303061 0.037452 -0.923896
    31 1.100770 0.004528 -0.010675 -0.009995 -0.094546 -0.796770
    32 0.957766 -2.746777 -0.090301 -0.279592 -0.023091 0.102297
    33 -0.033419 -1.397128 -0.011255 -0.595784 -0.022160 -0.039070
    34 -0.022361 -0.957433 0.018783 -0.596116 -0.001918 -0.001222
    35 0.250029 -2.820664 -0.238396 -0.848862 -0.049350 -0.226558
    36 -0.049759 -1.680544 0.100479 -1.864034 0.000000 0.000000
    37 -0.034141 -1.148311 0.084779 -0.994530 0.000000 0.000000
    38 -0.488517 -2.755600 -0.228261 -1.058608 -0.055696 -0.251816
    39 0.039889 -1.479791 0.029854 -1.719486 0.000000 0.000000
    40 0.028785 -1.075733 -0.023110 -0.869091 0.000000 0.000000
    41 -1.180679 -2.507216 -0.193861 -0.771938 0.121797 -0.246379
    42 -0.024967 -1.123934 0.017595 -1.614968 0.000000 0.000000
    43 -0.020058 -0.890965 0.010091 -0.746271 0.011865 0.013351
    44 0.120180 -0.051600 -0.063059 0.012085 -2.987703 1.512552
  time 20
    0 6.896857 4.116659 -6.910069 -0.785391 -1.326147 0.560963
    1 -0.071916 -8.498730 -0.104136 0.353109 -0.156770 -0.180431
    2 0.129975 -2.388487 0.824890 -1.502018 1.440634 -1.487710
    3 -0.008696 -4.578129 1.124703 0.000000 0.000000 0.000000
    4 -0.247827 -1.150955 4.199792 1.263416 -0.082934 -1.544622
    5 -0.247888 -3.268787 4.200336 1.263967 -0.000345 -1.570796
    6 -0.000002 -1.794749 1.912829 -0.022303 -0.000384 -0.001522
    7 -0.000005 -4.708170 3.606541 0.000000 0.000000 0.000000
    8 -0.296295 -3.447807 3.376961 0.000000 0.000000 0.000000
    9 -0.286066 -2.211739 4.024995 0.000000 0.313631 0.000000
    10 -0.000004 -18.231224 3.081039 0.000000 0.000000 0.000000
    11 -0.300303 -2.961691 -8.774516 0.685461 2.335115 0.989609
    12 0.096946 -8.450419 -0.009363 -0.029458 -0.735648 0.408681
    13 -0.586769 -1.264477 0.200164 -0.193246 -0.116439 -2.278448
    14 1.522835 0.058680 0.016850 0.500955 -0.011591 0.336645
    15 1.117947 0.048424 -0.005765 0.317412 0.131735 -0.047417
    16 -0.963867 -2.785143 -0.085346 -0.264595 0.014442 -0.052098
    17 0.028478 -1.403067 0.006272 -1.726477 0.042514 -0.050154
    18 0.021412 -0.957782 0.020047 -0.688809 -0.000003 -0.000008
    19 -0.249534 -2.846963 -0.174215 -0.924613 -0.061545 0.074434
    20 0.043235 -1.683940 0.096015 -1.707373 0.124125 -0.010522
    21 0.031729 -1.160830 0.058836 -0.480623 0.000000 0.000000
    22 0.447951 -2.798983 -0.200441 -1.048577 0.025838 0.116509
    23 -0.032909 -1.480207 0.004935 -1.789897 0.000000 0.000000
    24 -0.027023 -1.076921 -0.020212 -0.547360 0.000000 0.000000
    25 1.164474 -2.543939 -0.170327 -0.760503 -0.097052 0.109088
    26 0.024033 -1.129040 0.017807 -1.479009 0.090496 -0.010104
    27 0.014896 -0.883992 -0.019846 -1.331652 0.000000 0.000000
    28 -0.041181 -0.128692 -0.025406 0.350878 0.089487 1.418299
    29 0.583509 -1.197274 0.185379 0.310502 -0.934076 -0.996676
    30 1.535926 0.010247 0.005009 -0.303061 0.037452 -0.923896
    31 1.100770 0.004528 -0.010675 -0.009995 -0.094546 -0.796770
    32 0.957766 -2.746777 -0.090301 -0.279592 -0.023091 0.102297
    33 -0.033419 -1.397128 -0.011255 -0.596634 -0.022148 -0.039082
    34 -0.022361 -0.957433 0.018783 -0.605359 -0.001846 -0.001222
    35 0.250029 -2.820664 -0.238396 -0.848862 -0.049350 -0.226558
    36 -0.049759 -1.680544 0.100479 -1.864034 0.000000 0.000000
    37 -0.034141 -1.148311 0.084779 -0.994530 0.000000 0.000000
    38 -0.488517 -2.755600 -0.228261 -1.058608 -0.055696 -0.251816
    39 0.039889 -1.479791 0.029854 -1.719486 0.000000 0.000000
    40 0.028785 -1.075733 -0.023110 -0.869091 0.000000 0.000000
    41 -1.180679 -2.507216 -0.193861 -0.771938 0.121797 -0.246379
    42 -0.024967 -1.123934 0.017595 -1.614968 0.000000 0.000000
    43 -0.020058 -0.890965 0.010091 -0.746271 0.011865 0.013351
    44 0.120180 -0.051600 -0.063059 0.012085 -2.987703 1.512552
  time 21
    0 6.896857 4.116659 -6.917882 -0.785176 -1.326227 0.560688
    1 -0.071916 -8.498730 -0.104136 0.352702 -0.156327 -0.178861
    2 0.129975 -2.388487 0.824890 -1.502018 1.440634 -1.487710
    3 -0.008696 -4.578129 1.124703 0.000000 0.000000 0.000000
    4 -0.247827 -1.150955 4.199792 1.263416 -0.082103 -1.544885
    5 -0.247888 -3.268787 4.200336 1.263967 -0.000345 -1.570796
    6 -0.000002 -1.794749 1.912829 -0.018900 -0.000324 -0.001282
    7 -0.000005 -4.708170 3.610448 0.000000 0.000000 0.000000
    8 -0.296295 -3.447807 3.376961 0.000000 0.000000 0.000000
    9 -0.286066 -2.211739 4.024995 0.000000 0.313631 0.000000
    10 -0.000004 -18.231224 3.081039 0.000000 0.000000 0.000000
    11 -0.300303 -2.961691 -8.774516 0.685531 2.335210 0.989771
    12 0.096946 -8.450419 -0.009363 -0.029458 -0.735648 0.408681
    13 -0.586769 -1.264477 0.200164 -0.193474 -0.118659 -2.276817
    14 1.522835 0.058680 0.016850 0.501006 -0.008702 0.331358
    15 1.117947 0.048424 -0.005765 0.318658 0.128619 -0.037852
    16 -0.963867 -2.785143 -0.085346 -0.264595 0.014442 -0.052098
    17 0.028478 -1.403067 0.006272 -1.726477 0.042514 -0.050154
    18 0.021412 -0.957782 0.020047 -0.688809 -0.000003 -0.000008
    19 -0.249534 -2.846963 -0.174215 -0.924613 -0.061545 0.074434
    20 0.043235 -1.683940 0.096015 -1.707373 0.124125 -0.010522
    21 0.031729 -1.160830 0.058836 -0.480623 0.000000 0.000000
    22 0.447951 -2.798983 -0.200441 -1.048577 0.025838 0.116509
    23 -0.032909 -1.480207 0.004935 -1.789897 0.000000 0.000000
    24 -0.027023 -1.076921 -0.020212 -0.547360 0.000000 0.000000
    25 1.164474 -2.543939 -0.170327 -0.760503 -0.097052 0.109088
    26 0.024033 -1.129040 0.017807 -1.479009 0.090496 -0.010104
    27 0.014896 -0.883992 -0.019846 -1.331652 0.000000 0.000000
    28 -0.041181 -0.128692 -0.025406 0.350878 0.089487 1.418299
    29 0.583509 -1.197274 0.185379 0.310502 -0.934076 -0.996676
    30 1.535926 0.010247 0.005009 -0.303061 0.037452 -0.923896
    31 1.100770 0.004528 -0.010675 -0.009995 -0.094546 -0.796770
    32 0.957766 -2.746777 -0.090301 -0.279592 -0.023091 0.102297
    33 -0.033419 -1.397128 -0.011255 -0.596975 -0.022136 -0.039094
    34 -0.022361 -0.957433 0.018783 -0.610401 -0.001810 -0.001234
    35 0.250029 -2.820664 -0.238396 -0.848862 -0.049350 -0.226558
    36 -0.049759 -1.680544 0.100479 -1.864034 0.000000 0.000000
    37 -0.034141 -1.148311 0.084779 -0.994530 0.000000 0.000000
    38 -0.488517 -2.755600 -0.228261 -1.058608 -0.055696 -0.251816
    39 0.039889 -1.479791 0.029854 -1.719486 0.000000 0.000000
    40 0.028785 -1.075733 -0.023110 -0.869091 0.000000 0.000000
    41 -1.180679 -2.507216 -0.193861 -0.771938 0.121797 -0.246379
    42 -0.024967 -1.123934 0.017595 -1.614968 0.000000 0.000000
    43 -0.020058 -0.890965 0.010091 -0.746271 0.011865 0.013351
    44 0.120180 -0.051600 -0.063059 0.012085 -2.987703 1.512552
  time 22
    0 6.896857 4.104940 -6.933507 -0.785819 -1.326094 0.561239
    1 -0.071916 -8.498730 -0.104136 0.352462 -0.156074 -0.177955
    2 0.129975 -2.388487 0.824890 -1.502018 1.440634 -1.487710
    3 -0.008696 -4.578129 1.124703 0.000000 0.000000 0.000000
    4 -0.247827 -1.150955 4.199792 1.263440 -0.079631 -1.545664
    5 -0.247888 -3.268787 4.200336 1.263967 -0.000345 -1.570796
    6 -0.000002 -1.794749 1.912829 -0.015592 -0.000264 -0.001055
    7 -0.000005 -4.708170 3.614354 0.000000 0.000000 0.000000
    8 -0.296295 -3.447807 3.376961 0.000000 0.000000 0.000000
    9 -0.286066 -2.211739 4.024995 0.000000 0.313631 0.000000
    10 -0.000004 -18.231224 3.081039 0.000000 0.000000 0.000000
    11 -0.300303 -2.977316 -8.774516 0.685179 2.335019 0.989447
    12 0.096946 -8.450419 -0.009363 -0.029458 -0.735648 0.408681
    13 -0.586769 -1.264477 0.200164 -0.193617 -0.120606 -2.275843
    14 1.522835 0.058680 0.016850 0.501041 -0.006533 0.327430
    15 1.117947 0.048424 -0.005765 0.319581 0.126210 -0.030533
    16 -0.963867 -2.785143 -0.085346 -0.264595 0.014442 -0.052098
    17 0.028478 -1.403067 0.006272 -1.726477 0.042514 -0.050154
    18 0.021412 -0.957782 0.020047 -0.688809 -0.000003 -0.000008
    19 -0.249534 -2.846963 -0.174215 -0.924613 -0.061545 0.074434
    20 0.043235 -1.683940 0.096015 -1.707373 0.124125 -0.010522
    21 0.031729 -1.160830 0.058836 -0.480623 0.000000 0.000000
    22 0.447951 -2.798983 -0.200441 -1.048577 0.025838 0.116509
    23 -0.032909 -1.480207 0.004935 -1.789897 0.000000 0.000000
    24 -0.027023 -1.076921 -0.020212 -0.547360 0.000000 0.000000
    25 1.164474 -2.543939 -0.170327 -0.760503 -0.097052 0.109088
    26 0.024033 -1.129040 0.017807 -1.479009 0.090496 -0.010104
    27 0.014896 -0.883992 -0.019846 -1.331652 0.000000 0.000000
    28 -0.041181 -0.128692 -0.025406 0.350878 0.089487 1.418299
    29 0.583509 -1.197274 0.185379 0.310502 -0.934076 -0.996676
    30 1.535926 0.010247 0.005009 -0.303061 0.037452 -0.923896
    31 1.100770 0.004528 -0.010675 -0.009995 -0.094546 -0.796770
    32 0.957766 -2.746777 -0.090301 -0.279592 -0.023091 0.102297
    33 -0.033419 -1.397128 -0.011255 -0.596911 -0.022136 -0.039094
    34 -0.022361 -0.957433 0.018783 -0.611922 -0.001798 -0.001234
    35 0.250029 -2.820664 -0.238396 -0.848862 -0.049350 -0.226558
    36 -0.049759 -1.680544 0.100479 -1.864034 0.000000 0.000000
    37 -0.034141 -1.148311 0.084779 -0.994530 0.000000 0.000000
    38 -0.488517 -2.755600 -0.228261 -1.058608 -0.055696 -0.251816
    39 0.039889 -1.479791 0.029854 -1.719486 0.000000 0.000000
    40 0.028785 -1.075733 -0.023110 -0.869091 0.000000 0.000000
    41 -1.180679 -2.507216 -0.193861 -0.771938 0.121797 -0.246379
    42 -0.024967 -1.123934 0.017595 -1.614968 0.000000 0.000000
    43 -0.020058 -0.890965 0.010091 -0.746271 0.011865 0.013351
    44 0.120180 -0.051600 -0.063059 0.012085 -2.987703 1.512552
  time 23
    0 6.896857 4.097127 -6.949133 -0.787506 -1.325748 0.562728
    1 -0.071916 -8.498730 -0.104136 0.352366 -0.155979 -0.177563
    2 0.129975 -2.388487 0.824890 -1.502018 1.440634 -1.487710
    3 -0.008696 -4.578129 1.124703 0.000000 0.000000 0.000000
    4 -0.247827 -1.150955 4.199792 1.263464 -0.075496 -1.546971
    5 -0.247888 -3.268787 4.200336 1.263967 -0.000345 -1.570796
    6 -0.000002 -1.794749 1.912829 -0.012452 -0.000216 -0.000851
    7 -0.000005 -4.708170 3.622167 0.000000 0.000000 0.000000
    8 -0.296295 -3.447807 3.376961 0.000000 0.000000 0.000000
    9 -0.286066 -2.211739 4.024995 0.000000 0.313631 0.000000
    10 -0.000004 -18.231224 3.081039 0.000000 0.000000 0.000000
    11 -0.300303 -2.985129 -8.774516 0.684617 2.334637 0.988800
    12 0.096946 -8.450419 -0.009363 -0.029458 -0.735648 0.408681
    13 -0.586769 -1.264477 0.200164 -0.193617 -0.122339 -2.275906
    14 1.522835 0.058680 0.016850 0.501041 -0.005215 0.325008
    15 1.117947 0.048424 -0.005765 0.320156 0.124700 -0.025903
    16 -0.963867 -2.785143 -0.085346 -0.264595 0.014442 -0.052098
    17 0.028478 -1.403067 0.006272 -1.726477 0.042514 -0.050154
    18 0.021412 -0.957782 0.020047 -0.688809 -0.000003 -0.000008
    19 -0.249534 -2.846963 -0.174215 -0.924613 -0.061545 0.074434
    20 0.043235 -1.683940 0.096015 -1.707373 0.124125 -0.010522
    21 0.031729 -1.160830 0.058836 -0.480623 0.000000 0.000000
    22 0.447951 -2.798983 -0.200441 -1.048577 0.025838 0.116509
    23 -0.032909 -1.480207 0.004935 -1.789897 0.000000 0.000000
    24 -0.027023 -1.076921 -0.020212 -0.547360 0.000000 0.000000
    25 1.164474 -2.543939 -0.170327 -0.760503 -0.097052 0.109088
    26 0.024033 -1.129040 0.017807 -1.479009 0.090496 -0.010104
    27 0.014896 -0.883992 -0.019846 -1.331652 0.000000 0.000000
    28 -0.041181 -0.128692 -0.025406 0.350878 0.089487 1.418299
    29 0.583509 -1.197274 0.185379 0.310502 -0.934076 -0.996676
    30 1.535926 0.010247 0.005009 -0.303061 0.037452 -0.923896
    31 1.100770 0.004528 -0.010675 -0.009995 -0.094546 -0.796770
    32 0.957766 -2.746777 -0.090301 -0.279592 -0.023091 0.102297
    33 -0.033419 -1.397128 -0.011255 -0.596549 -0.022148 -0.039082
    34 -0.022361 -0.957433 0.018783 -0.610651 -0.001810 -0.001234
    35 0.250029 -2.820664 -0.238396 -0.848862 -0.049350 -0.226558
    36 -0.049759 -1.680544 0.100479 -1.864034 0.000000 0.000000
    37 -0.034141 -1.148311 0.084779 -0.994530 0.000000 0.000000
    38 -0.488517 -2.755600 -0.228261 -1.058608 -0.055696 -0.251816
    39 0.039889 -1.479791 0.029854 -1.719486 0.000000 0.000000
    40 0.028785 -1.075733 -0.023110 -0.869091 0.000000 0.000000
    41 -1.180679 -2.507216 -0.193861 -0.771938 0.121797 -0.246379
    42 -0.024967 -1.123934 0.017595 -1.614968 0.000000 0.000000
    43 -0.020058 -0.890965 0.010091 -0.746271 0.011865 0.013351
    44 0.120180 -0.051600 -0.063059 0.012085 -2.987703 1.512552
  time 24
    0 6.896857 4.089314 -6.964758 -0.790076 -1.325191 0.564933
    1 -0.071916 -8.498730 -0.104136 0.352378 -0.155979 -0.177623
    2 0.129975 -2.388487 0.824890 -1.502018 1.440634 -1.487710
    3 -0.008696 -4.578129 1.124703 0.000000 0.000000 0.000000
    4 -0.247827 -1.150955 4.199792 1.263500 -0.069720 -1.548804
    5 -0.247888 -3.268787 4.200336 1.263967 -0.000345 -1.570796
    6 -0.000002 -1.794749 1.912829 -0.009516 -0.000156 -0.000647
    7 -0.000005 -4.708170 3.629979 0.000000 0.000000 0.000000
    8 -0.296295 -3.447807 3.376961 0.000000 0.000000 0.000000
    9 -0.286066 -2.211739 4.024995 0.000000 0.313631 0.000000
    10 -0.000004 -18.231224 3.081039 0.000000 0.000000 0.000000
    11 -0.300303 -2.992942 -8.774516 0.683773 2.334159 0.987829
    12 0.096946 -8.450419 -0.009363 -0.029458 -0.735648 0.408681
    13 -0.586769 -1.264477 0.200164 -0.193462 -0.124034 -2.277156
    14 1.522835 0.058680 0.016850 0.501058 -0.004592 0.323886
    15 1.117947 0.048424 -0.005765 0.320432 0.123981 -0.023725
    16 -0.963867 -2.785143 -0.085346 -0.264595 0.014442 -0.052098
    17 0.028478 -1.403067 0.006272 -1.726477 0.042514 -0.050154
    18 0.021412 -0.957782 0.020047 -0.688809 -0.000003 -0.000008
    19 -0.249534 -2.846963 -0.174215 -0.924613 -0.061545 0.074434
    20 0.043235 -1.683940 0.096015 -1.707373 0.124125 -0.010522
    21 0.031729 -1.160830 0.058836 -0.480623 0.000000 0.000000
    22 0.447951 -2.798983 -0.200441 -1.048577 0.025838 0.116509
    23 -0.032909 -1.480207 0.004935 -1.789897 0.000000 0.000000
    24 -0.027023 -1.076921 -0.020212 -0.547360 0.000000 0.000000
    25 1.164474 -2.543939 -0.170327 -0.760503 -0.097052 0.109088
    26 0.024033 -1.129040 0.017807 -1.479009 0.090496 -0.010104
    27 0.014896 -0.883992 -0.019846 -1.331652 0.000000 0.000000
    28 -0.041181 -0.128692 -0.025406 0.350878 0.089487 1.418299
    29 0.583509 -1.197274 0.185379 0.310502 -0.934076 -0.996676
    30 1.535926 0.010247 0.005009 -0.303061 0.037452 -0.923896
    31 1.100770 0.004528 -0.010675 -0.009995 -0.094546 -0.796770
    32 0.957766 -2.746777 -0.090301 -0.279592 -0.023091 0.102297
    33 -0.033419 -1.397128 -0.011255 -0.595933 -0.022160 -0.039082
    34 -0.022361 -0.957433 0.018783 -0.607244 -0.001834 -0.001222
    35 0.250029 -2.820664 -0.238396 -0.848862 -0.049350 -0.226558
    36 -0.049759 -1.680544 0.100479 -1.864034 0.000000 0.000000
    37 -0.034141 -1.148311 0.084779 -0.994530 0.000000 0.000000
    38 -0.488517 -2.755600 -0.228261 -1.058608 -0.055696 -0.251816
    39 0.039889 -1.479791 0.029854 -1.719486 0.000000 0.000000
    40 0.028785 -1.075733 -0.023110 -0.869091 0.000000 0.000000
    41 -1.180679 -2.507216 -0.193861 -0.771938 0.121797 -0.246379
    42 -0.024967 -1.123934 0.017595 -1.614968 0.000000 0.000000
    43 -0.020058 -0.890965 0.010091 -0.746271 0.011865 0.013351
    44 0.120180 -0.051600 -0.063059 0.012085 -2.987703 1.512552
  time 25
    0 6.896857 4.085408 -6.988196 -0.793262 -1.324500 0.567744
    1 -0.071916 -8.498730 -0.104136 0.352474 -0.156105 -0.178016
    2 0.129975 -2.388487 0.824890 -1.502018 1.440634 -1.487710
    3 -0.008696 -4.578129 1.124703 0.000000 0.000000 0.000000
    4 -0.247827 -1.150955 4.199792 1.263548 -0.062282 -1.551165
    5 -0.247888 -3.268787 4.200336 1.263967 -0.000345 -1.570796
    6 -0.000002 -1.794749 1.912829 -0.006867 -0.000120 -0.000467
    7 -0.000005 -4.708170 3.637792 0.000000 0.000000 0.000000
    8 -0.296295 -3.447807 3.376961 0.000000 0.000000 0.000000
    9 -0.286066 -2.211739 4.024995 0.000000 0.313631 0.000000
    10 -0.000004 -18.231224 3.081039 0.000000 0.000000 0.000000
    11 -0.300303 -2.996848 -8.774516 0.682719 2.333394 0.986535
    12 0.096946 -8.450419 -0.009363 -0.029458 -0.735648 0.408681
    13 -0.586769 -1.264477 0.200164 -0.193186 -0.125689 -2.279296
    14 1.522835 0.058680 0.016850 0.501058 -0.004508 0.323738
    15 1.117947 0.048424 -0.005765 0.320468 0.123885 -0.023452
    16 -0.963867 -2.785143 -0.085346 -0.264595 0.014442 -0.052098
    17 0.028478 -1.403067 0.006272 -1.726477 0.042514 -0.050154
    18 0.021412 -0.957782 0.020047 -0.688809 -0.000003 -0.000008
    19 -0.249534 -2.846963 -0.174215 -0.924613 -0.061545 0.074434
    20 0.043235 -1.683940 0.096015 -1.707373 0.124125 -0.010522
    21 0.031729 -1.160830 0.058836 -0.480623 0.000000 0.000000
    22 0.447951 -2.798983 -0.200441 -1.048577 0.025838 0.116509
    23 -0.032909 -1.480207 0.004935 -1.789897 0.000000 0.000000
    24 -0.027023 -1.076921 -0.020212 -0.547360 0.000000 0.000000
    25 1.164474 -2.543939 -0.170327 -0.760503 -0.097052 0.109088
    26 0.024033 -1.129040 0.017807 -1.479009 0.090496 -0.010104
    27 0.014896 -0.883992 -0.019846 -1.331652 0.000000 0.000000
    28 -0.041181 -0.128692 -0.025406 0.350878 0.089487 1.418299
    29 0.583509 -1.197274 0.185379 0.310502 -0.934076 -0.996676
    30 1.535926 0.010247 0.005009 -0.303061 0.037452 -0.923896
    31 1.100770 0.004528 -0.010675 -0.009995 -0.094546 -0.796770
    32 0.957766 -2.746777 -0.090301 -0.279592 -0.023091 0.102297
    33 -0.033419 -1.397128 -0.011255 -0.595168 -0.022171 -0.039070
    34 -0.022361 -0.957433 0.018783 -0.602429 -0.001870 -0.001222
    35 0.250029 -2.820664 -0.238396 -0.848862 -0.049350 -0.226558
    36 -0.049759 -1.680544 0.100479 -1.864034 0.000000 0.000000
    37 -0.034141 -1.148311 0.084779 -0.994530 0.000000 0.000000
    38 -0.488517 -2.755600 -0.228261 -1.058608 -0.055696 -0.251816
    39 0.039889 -1.479791 0.029854 -1.719486 0.000000 0.000000
    40 0.028785 -1.075733 -0.023110 -0.869091 0.000000 0.000000
    41 -1.180679 -2.507216 -0.193861 -0.771938 0.121797 -0.246379
    42 -0.024967 -1.123934 0.017595 -1.614968 0.000000 0.000000
    43 -0.020058 -0.890965 0.010091 -0.746271 0.011865 0.013351
    44 0.120180 -0.051600 -0.063059 0.012085 -2.987703 1.512552
  time 26
    0 6.896857 4.085408 -7.011635 -0.796850 -1.323730 0.570942
    1 -0.071916 -8.498730 -0.104136 0.352618 -0.156263 -0.178559
    2 0.129975 -2.388487 0.824890 -1.502018 1.440634 -1.487710
    3 -0.008696 -4.578129 1.124703 0.000000 0.000000 0.000000
    4 -0.247827 -1.150955 4.199792 1.263619 -0.053202 -1.554042
    5 -0.247888 -3.268787 4.200336 1.263967 -0.000345 -1.570796
    6 -0.000002 -1.794749 1.912829 -0.004554 -0.000072 -0.000312
    7 -0.000005 -4.708170 3.649511 0.000000 0.000000 0.000000
    8 -0.296295 -3.447807 3.376961 0.000000 0.000000 0.000000
    9 -0.286066 -2.211739 4.024995 0.000000 0.313631 0.000000
    10 -0.000004 -18.231224 3.081039 0.000000 0.000000 0.000000
    11 -0.300303 -2.996848 -8.774516 0.681243 2.332534 0.984836
    12 0.096946 -8.450419 -0.009363 -0.029458 -0.735648 0.408681
    13 -0.586769 -1.264477 0.200164 -0.192826 -0.127305 -2.282071
    14 1.522835 0.058680 0.016850 0.501058 -0.004807 0.324270
    15 1.117947 0.048424 -0.005765 0.320336 0.124232 -0.024474
    16 -0.963867 -2.785143 -0.085346 -0.264595 0.014442 -0.052098
    17 0.028478 -1.403067 0.006272 -1.726477 0.042514 -0.050154
    18 0.021412 -0.957782 0.020047 -0.688809 -0.000003 -0.000008
    19 -0.249534 -2.846963 -0.174215 -0.924613 -0.061545 0.074434
    20 0.043235 -1.683940 0.096015 -1.707373 0.124125 -0.010522
    21 0.031729 -1.160830 0.058836 -0.480623 0.000000 0.000000
    22 0.447951 -2.798983 -0.200441 -1.048577 0.025838 0.116509
    23 -0.032909 -1.480207 0.004935 -1.789897 0.000000 0.000000
    24 -0.027023 -1.076921 -0.020212 -0.547360 0.000000 0.000000
    25 1.164474 -2.543939 -0.170327 -0.760503 -0.097052 0.109088
    26 0.024033 -1.129040 0.017807 -1.479009 0.090496 -0.010104
    27 0.014896 -0.883992 -0.019846 -1.331652 0.000000 0.000000
    28 -0.041181 -0.128692 -0.025406 0.350878 0.089487 1.418299
    29 0.583509 -1.197274 0.185379 0.310502 -0.934076 -0.996676
    30 1.535926 0.010247 0.005009 -0.303061 0.037452 -0.923896
    31 1.100770 0.004528 -0.010675 -0.009995 -0.094546 -0.796770
    32 0.957766 -2.746777 -0.090301 -0.279592 -0.023091 0.102297
    33 -0.033419 -1.397128 -0.011255 -0.594339 -0.022183 -0.039058
    34 -0.022361 -0.957433 0.018783 -0.596933 -0.001906 -0.001222
    35 0.250029 -2.820664 -0.238396 -0.848862 -0.049350 -0.226558
    36 -0.049759 -1.680544 0.100479 -1.864034 0.000000 0.000000
    37 -0.034141 -1.148311 0.084779 -0.994530 0.000000 0.000000
    38 -0.488517 -2.755600 -0.228261 -1.058608 -0.055696 -0.251816
    39 0.039889 -1.479791 0.029854 -1.719486 0.000000 0.000000
    40 0.028785 -1.075733 -0.023110 -0.869091 0.000000 0.000000
    41 -1.180679 -2.507216 -0.193861 -0.771938 0.121797 -0.246379
    42 -0.024967 -1.123934 0.017595 -1.614968 0.000000 0.000000
    43 -0.020058 -0.890965 0.010091 -0.746271 0.011865 0.013351
    44 0.120180 -0.051600 -0.063059 0.012085 -2.987703 1.512552
  time 27
    0 6.896857 4.089314 -7.035073 -0.800625 -1.322906 0.574305
    1 -0.071916 -8.498730 -0.104136 0.352797 -0.156453 -0.179223
    2 0.129975 -2.388487 0.824890 -1.502018 1.440634 -1.487710
    3 -0.008696 -4.578129 1.124703 0.000000 0.000000 0.000000
    4 -0.247827 -1.150955 4.199792 1.263691 -0.042460 -1.557445
    5 -0.247888 -3.268787 4.200336 1.263967 -0.000345 -1.570796
    6 -0.000002 -1.794749 1.912829 -0.002661 -0.000036 -0.000180
    7 -0.000005 -4.708170 3.661230 0.000000 0.000000 0.000000
    8 -0.296295 -3.447807 3.376961 0.000000 0.000000 0.000000
    9 -0.286066 -2.211739 4.024995 0.000000 0.313631 0.000000
    10 -0.000004 -18.231224 3.081039 0.000000 0.000000 0.000000
    11 -0.300303 -2.992942 -8.774516 0.679415 2.331387 0.982732
    12 0.096946 -8.450419 -0.009363 -0.029458 -0.735648 0.408681
    13 -0.586769 -1.264477 0.200164 -0.192407 -0.128922 -2.285227
    14 1.522835 0.058680 0.016850 0.501041 -0.005323 0.325215
    15 1.117947 0.048424 -0.005765 0.320120 0.124820 -0.026278
    16 -0.963867 -2.785143 -0.085346 -0.264595 0.014442 -0.052098
    17 0.028478 -1.403067 0.006272 -1.726477 0.042514 -0.050154
    18 0.021412 -0.957782 0.020047 -0.688809 -0.000003 -0.000008
    19 -0.249534 -2.846963 -0.174215 -0.924613 -0.061545 0.074434
    20 0.043235 -1.683940 0.096015 -1.707373 0.124125 -0.010522
    21 0.031729 -1.160830 0.058836 -0.480623 0.000000 0.000000
    22 0.447951 -2.798983 -0.200441 -1.048577 0.025838 0.116509
    23 -0.032909 -1.480207 0.004935 -1.789897 0.000000 0.000000
    24 -0.027023 -1.076921 -0.020212 -0.547360 0.000000 0.000000
    25 1.164474 -2.543939 -0.170327 -0.760503 -0.097052 0.109088
    26 0.024033 -1.129040 0.017807 -1.479009 0.090496 -0.010104
    27 0.014896 -0.883992 -0.019846 -1.331652 0.000000 0.000000
    28 -0.041181 -0.128692 -0.025406 0.350878 0.089487 1.418299
    29 0.583509 -1.197274 0.185379 0.310502 -0.934076 -0.996676
    30 1.535926 0.010247 0.005009 -0.303061 0.037452 -0.923896
    31 1.100770 0.004528 -0.010675 -0.009995 -0.094546 -0.796770
    32 0.957766 -2.746777 -0.090301 -0.279592 -0.023091 0.102297
    33 -0.033419 -1.397128 -0.011255 -0.593552 -0.022207 -0.039046
    34 -0.022361 -0.957433 0.018783 -0.591437 -0.001953 -0.001222
    35 0.250029 -2.820664 -0.238396 -0.848862 -0.049350 -0.226558
    36 -0.049759 -1.680544 0.100479 -1.864034 0.000000 0.000000
    37 -0.034141 -1.148311 0.084779 -0.994530 0.000000 0.000000
    38 -0.488517 -2.755600 -0.228261 -1.058608 -0.055696 -0.251816
    39 0.039889 -1.479791 0.029854 -1.719486 0.000000 0.000000
    40 0.028785 -1.075733 -0.023110 -0.869091 0.000000 0.000000
    41 -1.180679 -2.507216 -0.193861 -0.771938 0.121797 -0.246379
    42 -0.024967 -1.123934 0.017595 -1.614968 0.000000 0.000000
    43 -0.020058 -0.890965 0.010091 -0.746271 0.011865 0.013351
    44 0.120180 -0.051600 -0.063059 0.012085 -2.987703 1.512552
  time 28
    0 6.896857 4.097127 -7.062417 -0.804373 -1.322083 0.577613
    1 -0.071916 -8.498730 -0.104136 0.352953 -0.156612 -0.179827
    2 0.129975 -2.388487 0.824890 -1.502018 1.440634 -1.487710
    3 -0.008696 -4.578129 1.124703 0.000000 0.000000 0.000000
    4 -0.247827 -1.150955 4.199792 1.263775 -0.030077 -1.561376
    5 -0.247888 -3.268787 4.200336 1.263967 -0.000345 -1.570796
    6 -0.000002 -1.794749 1.912829 -0.001222 -0.000012 -0.000084
    7 -0.000005 -4.708170 3.672949 0.000000 0.000000 0.000000
    8 -0.296295 -3.447807 3.376961 0.000000 0.000000 0.000000
    9 -0.286066 -2.211739 4.024995 0.000000 0.313631 0.000000
    10 -0.000004 -18.231224 3.081039 0.000000 0.000000 0.000000
    11 -0.300303 -2.985129 -8.774516 0.677166 2.330049 0.980224
    12 0.096946 -8.450419 -0.009363 -0.029458 -0.735648 0.408681
    13 -0.586769 -1.264477 0.200164 -0.191964 -0.130538 -2.288447
    14 1.522835 0.058680 0.016850 0.501041 -0.005886 0.326248
    15 1.117947 0.048424 -0.005765 0.319869 0.125467 -0.028252
    16 -0.963867 -2.785143 -0.085346 -0.264595 0.014442 -0.052098
    17 0.028478 -1.403067 0.006272 -1.726477 0.042514 -0.050154
    18 0.021412 -0.957782 0.020047 -0.688809 -0.000003 -0.000008
    19 -0.249534 -2.846963 -0.174215 -0.924613 -0.061545 0.074434
    20 0.043235 -1.683940 0.096015 -1.707373 0.124125 -0.010522
    21 0.031729 -1.160830 0.058836 -0.480623 0.000000 0.000000
    22 0.447951 -2.798983 -0.200441 -1.048577 0.025838 0.116509
    23 -0.032909 -1.480207 0.004935 -1.789897 0.000000 0.000000
    24 -0.027023 -1.076921 -0.020212 -0.547360 0.000000 0.000000
    25 1.164474 -2.543939 -0.170327 -0.760503 -0.097052 0.109088
    26 0.024033 -1.129040 0.017807 -1.479009 0.090496 -0.010104
    27 0.014896 -0.883992 -0.019846 -1.331652 0.000000 0.000000
    28 -0.041181 -0.128692 -0.025406 0.350878 0.089487 1.418299
    29 0.583509 -1.197274 0.185379 0.310502 -0.934076 -0.996676
    30 1.535926 0.010247 0.005009 -0.303061 0.037452 -0.923896
    31 1.100770 0.004528 -0.010675 -0.009995 -0.094546 -0.796770
    32 0.957766 -2.746777 -0.090301 -0.279592 -0.023091 0.102297
    33 -0.033419 -1.397128 -0.011255 -0.592893 -0.022219 -0.039034
    34 -0.022361 -0.957433 0.018783 -0.586645 -0.001989 -0.001222
    35 0.250029 -2.820664 -0.238396 -0.848862 -0.049350 -0.226558
    36 -0.049759 -1.680544 0.100479 -1.864034 0.000000 0.000000
    37 -0.034141 -1.148311 0.084779 -0.994530 0.000000 0.000000
    38 -0.488517 -2.755600 -0.228261 -1.058608 -0.055696 -0.251816
    39 0.039889 -1.479791 0.029854 -1.719486 0.000000 0.000000
    40 0.028785 -1.075733 -0.023110 -0.869091 0.000000 0.000000
    41 -1.180679 -2.507216 -0.193861 -0.771938 0.121797 -0.246379
    42 -0.024967 -1.123934 0.017595 -1.614968 0.000000 0.000000
    43 -0.020058 -0.890965 0.010091 -0.746271 0.011865 0.013351
    44 0.120180 -0.051600 -0.063059 0.012085 -2.987703 1.512552
  time 29
    0 6.896857 4.104940 -7.093668 -0.807907 -1.321286 0.580755
    1 -0.071916 -8.498730 -0.104136 0.353073 -0.156738 -0.180280
    2 0.129975 -2.388487 0.824890 -1.502018 1.440634 -1.487710
    3 -0.008696 -4.578129 1.124703 0.000000 0.000000 0.000000
    4 -0.247827 -1.150955 4.199792 1.263871 -0.016032 -1.565822
    5 -0.247888 -3.268787 4.200336 1.263967 -0.000345 -1.570796
    6 -0.000002 -1.794749 1.912829 -0.000312 0.000000 -0.000012
    7 -0.000005 -4.708170 3.688575 0.000000 0.000000 0.000000
    8 -0.296295 -3.447807 3.376961 0.000000 0.000000 0.000000
    9 -0.286066 -2.211739 4.024995 0.000000 0.313631 0.000000
    10 -0.000004 -18.231224 3.081039 0.000000 0.000000 0.000000
    11 -0.300303 -2.977316 -8.774516 0.674354 2.328424 0.977149
    12 0.096946 -8.450419 -0.009363 -0.029458 -0.735648 0.408681
    13 -0.586769 -1.264477 0.200164 -0.191556 -0.132154 -2.291497
    14 1.522835 0.058680 0.016850 0.501041 -0.006341 0.327105
    15 1.117947 0.048424 -0.005765 0.319665 0.125994 -0.029852
    16 -0.963867 -2.785143 -0.085346 -0.264595 0.014442 -0.052098
    17 0.028478 -1.403067 0.006272 -1.726477 0.042514 -0.050154
    18 0.021412 -0.957782 0.020047 -0.688809 -0.000003 -0.000008
    19 -0.249534 -2.846963 -0.174215 -0.924613 -0.061545 0.074434
    20 0.043235 -1.683940 0.096015 -1.707373 0.124125 -0.010522
    21 0.031729 -1.160830 0.058836 -0.480623 0.000000 0.000000
    22 0.447951 -2.798983 -0.200441 -1.048577 0.025838 0.116509
    23 -0.032909 -1.480207 0.004935 -1.789897 0.000000 0.000000
    24 -0.027023 -1.076921 -0.020212 -0.547360 0.000000 0.000000
    25 1.164474 -2.543939 -0.170327 -0.760503 -0.097052 0.109088
    26 0.024033 -1.129040 0.017807 -1.479009 0.090496 -0.010104
    27 0.014896 -0.883992 -0.019846 -1.331652 0.000000 0.000000
    28 -0.041181 -0.128692 -0.025406 0.350878 0.089487 1.418299
    29 0.583509 -1.197274 0.185379 0.310502 -0.934076 -0.996676
    30 1.535926 0.010247 0.005009 -0.303061 0.037452 -0.923896
    31 1.100770 0.004528 -0.010675 -0.009995 -0.094546 -0.796770
    32 0.957766 -2.746777 -0.090301 -0.279592 -0.023091 0.102297
    33 -0.033419 -1.397128 -0.011255 -0.592426 -0.022231 -0.039034
    34 -0.022361 -0.957433 0.018783 -0.583238 -0.002013 -0.001222
    35 0.250029 -2.820664 -0.238396 -0.848862 -0.049350 -0.226558
    36 -0.049759 -1.680544 0.100479 -1.864034 0.000000 0.000000
    37 -0.034141 -1.148311 0.084779 -0.994530 0.000000 0.000000
    38 -0.488517 -2.755600 -0.228261 -1.058608 -0.055696 -0.251816
    39 0.039889 -1.479791 0.029854 -1.719486 0.000000 0.000000
    40 0.028785 -1.075733 -0.023110 -0.869091 0.000000 0.000000
    41 -1.180679 -2.507216 -0.193861 -0.771938 0.121797 -0.246379
    42 -0.024967 -1.123934 0.017595 -1.614968 0.000000 0.000000
    43 -0.020058 -0.890965 0.010091 -0.746271 0.011865 0.013351
    44 0.120180 -0.051600 -0.063059 0.012085 -2.987703 1.512552
  time 30
    0 6.896857 4.116659 -7.128826 -0.810986 -1.320595 0.583456
    1 -0.071916 -8.498730 -0.104136 0.353109 -0.156770 -0.180431
    2 0.129975 -2.388487 0.824890 -1.502018 1.440634 -1.487710
    3 -0.008696 -4.578129 1.124703 0.000000 0.000000 0.000000
    4 -0.247827 -1.150955 4.199792 1.263967 -0.000345 -1.570796
    5 -0.247888 -3.268787 4.200336 1.263967 -0.000345 -1.570796
    6 -0.000002 -1.794749 1.912829 0.000000 0.000000 0.000000
    7 -0.000005 -4.708170 3.700294 0.000000 0.000000 0.000000
    8 -0.296295 -3.447807 3.376961 0.000000 0.000000 0.000000
    9 -0.286066 -2.211739 4.024995 0.000000 0.313631 0.000000
    10 -0.000004 -18.231224 3.081039 0.000000 0.000000 0.000000
    11 -0.300303 -2.961691 -8.774516 0.671050 2.326512 0.973589
    12 0.096946 -8.450419 -0.009363 -0.029458 -0.735648 0.408681
    13 -0.586769 -1.264477 0.200164 -0.191197 -0.133790 -2.294103
    14 1.522835 0.058680 0.016850 0.501041 -0.006533 0.327430
    15 1.117947 0.048424 -0.005765 0.319581 0.126210 -0.030533
    16 -0.963867 -2.785143 -0.085346 -0.264595 0.014442 -0.052098
    17 0.028478 -1.403067 0.006272 -1.726477 0.042514 -0.050154
    18 0.021412 -0.957782 0.020047 -0.688809 -0.000003 -0.000008
    19 -0.249534 -2.846963 -0.174215 -0.924613 -0.061545 0.074434
    20 0.043235 -1.683940 0.096015 -1.707373 0.124125 -0.010522
    21 0.031729 -1.160830 0.058836 -0.480623 0.000000 0.000000
    22 0.447951 -2.798983 -0.200441 -1.048577 0.025838 0.116509
    23 -0.032909 -1.480207 0.004935 -1.789897 0.000000 0.000000
    24 -0.027023 -1.076921 -0.020212 -0.547360 0.000000 0.000000
    25 1.164474 -2.543939 -0.170327 -0.760503 -0.097052 0.109088
    26 0.024033 -1.129040 0.017807 -1.479009 0.090496 -0.010104
    27 0.014896 -0.883992 -0.019846 -1.331652 0.000000 0.000000
    28 -0.041181 -0.128692 -0.025406 0.350878 0.089487 1.418299
    29 0.583509 -1.197274 0.185379 0.310502 -0.934076 -0.996676
    30 1.535926 0.010247 0.005009 -0.303061 0.037452 -0.923896
    31 1.100770 0.004528 -0.010675 -0.009995 -0.094546 -0.796770
    32 0.957766 -2.746777 -0.090301 -0.279592 -0.023091 0.102297
    33 -0.033419 -1.397128 -0.011255 -0.592234 -0.022231 -0.039034
    34 -0.022361 -0.957433 0.018783 -0.581967 -0.002025 -0.001222
    35 0.250029 -2.820664 -0.238396 -0.848862 -0.049350 -0.226558
    36 -0.049759 -1.680544 0.100479 -1.864034 0.000000 0.000000
    37 -0.034141 -1.148311 0.084779 -0.994530 0.000000 0.000000
    38 -0.488517 -2.755600 -0.228261 -1.058608 -0.055696 -0.251816
    39 0.039889 -1.479791 0.029854 -1.719486 0.000000 0.000000
    40 0.028785 -1.075733 -0.023110 -0.869091 0.000000 0.000000
    41 -1.180679 -2.507216 -0.193861 -0.771938 0.121797 -0.246379
    42 -0.024967 -1.123934 0.017595 -1.614968 0.000000 0.000000
    43 -0.020058 -0.890965 0.010091 -0.746271 0.011865 0.013351
    44 0.120180 -0.051600 -0.063059 0.012085 -2.987703 1.512552
end
