version 1
nodes
  0 "Bip01 L Clavicle" -1
  1 "Bip01 L UpperArm" 0
  2 "Bip01 L Forearm" 1
  3 "Bip01 L Hand" 2
  4 "Bone_epic_root" 3
  5 "Bone_magazine_01" 4
  6 "Bone_magazine_02" 5
  7 "Bone_magazine_03" 6
  8 "Bone_magazine_04" 7
  9 "Bone_trigger" 4
  10 "Point_led" 4
  11 "crossbowex21_led" 10
  12 "Bone_epick_right" 4
  13 "Bone_epick_left" 4
  14 "Bone_bowline" 4
  15 "Point_line" -1
  16 "bow_line2" 15
  17 "root" -1
  18 "Bone01" 17
  19 "Bone_Lefthand" 18
  20 "Bone_L_Upper" 18
  21 "Bone13" 19
  22 "Bone14" 21
  23 "Bone15" 22
  24 "Bone17" 19
  25 "Bone18" 24
  26 "Bone19" 25
  27 "Bone21" 19
  28 "Bone22" 27
  29 "Bone23" 28
  30 "Bone09" 19
  31 "Bone10" 30
  32 "Bone11" 31
  33 "Bone05" 19
  34 "Bone06" 33
  35 "Bone07" 34
  36 "Bone_Se_Hand-L" 19
  37 "Bone04" 17
  38 "Bone_Righthand" 37
  39 "Bone39" 38
  40 "Bone40" 39
  41 "Bone41" 40
  42 "Bone35" 38
  43 "Bone36" 42
  44 "Bone37" 43
  45 "Bone31" 38
  46 "Bone32" 45
  47 "Bone33" 46
  48 "Bone43" 38
  49 "Bone44" 48
  50 "Bone45" 49
  51 "Bone27" 38
  52 "Bone28" 51
  53 "Bone29" 52
  54 "Bone_Se_Hand-R" 38
  55 "Bone_R_Upper" 37
end
skeleton
  time 0
    0 1.568242 2.828082 -0.495831 0.000000 0.372218 0.081720
    1 4.065896 0.000000 0.000000 0.581565 0.089607 1.001026
    2 5.727314 0.000000 0.000000 0.000000 0.000000 -2.432950
    3 9.229775 0.000001 0.000000 -2.073161 0.058763 -0.317050
    4 -4.028509 2.385202 -0.139540 -1.712325 0.032869 -0.243476
    5 19.850609 -2.919322 1.053877 -1.570796 3.141592 0.000000
    6 1.136250 -0.000008 0.000000 0.000000 0.000000 0.000000
    7 0.163969 -1.053874 0.889052 0.000000 0.000000 -0.000001
    8 5.025910 0.000002 0.000001 0.000000 0.000000 3.141592
    9 9.203299 0.828617 -0.000001 0.000000 0.000000 -1.469692
    10 12.265707 7.447968 -0.000001 -1.570796 1.570451 0.000000
    11 -0.000008 0.000090 0.000003 0.000000 0.000000 0.000000
    12 11.236527 1.770459 3.999999 -1.570796 0.000000 0.000000
    13 11.236526 1.770458 -4.000000 -1.570796 0.000000 0.000000
    14 20.099432 0.000001 0.099096 -1.570796 0.000000 0.000000
    15 6.261313 77.310570 -53.358147 0.000000 0.000000 0.000000
    16 0.000004 -0.661568 0.189796 0.000000 0.000000 0.000000
    17 -1.125736 -2.126330 -0.470109 0.000000 0.000000 0.000000
    18 8.586528 9.606782 -3.374534 5.819041 -2.305732 0.356957
    19 0.014018 -8.475293 -0.068979 -0.080153 0.747111 0.296861
    20 5.542467 -5.175341 -0.419346 -1.557620 -0.033361 -3.785134
    21 -0.488518 -2.755602 -0.228260 -1.572657 -0.177706 0.023979
    22 0.039887 -1.511041 0.010322 -1.082681 -0.013830 0.022424
    23 0.028786 -1.157765 -0.124675 -1.025127 -0.015053 0.021620
    24 0.250027 -2.820665 -0.238396 -1.659172 -0.096485 0.161223
    25 -0.049759 -1.618042 0.080947 -0.884122 0.008641 -0.024211
    26 -0.034142 -1.160031 0.053531 -0.944064 0.008150 -0.024377
    27 0.957766 -2.746780 -0.090302 -0.057777 -0.183753 0.043824
    28 -0.033420 -1.397129 -0.011257 -0.283970 0.006340 -0.013592
    29 -0.022360 -0.957436 0.010971 -0.294056 0.006136 -0.013662
    30 -1.180681 -2.507217 -0.193859 -0.844729 -0.059117 0.074747
    31 -0.024967 -1.123934 0.017597 -1.583565 -0.012788 -0.063086
    32 -0.020057 -0.898781 0.017903 -0.698835 0.007958 -0.027493
    33 0.591323 -1.216809 0.247881 -0.837213 -0.216096 0.257682
    34 1.301545 -0.325702 0.106575 0.206802 -0.315398 -1.473233
    35 0.944516 -0.225949 0.008853 0.144123 -0.084865 -1.398731
    36 0.120153 -0.050270 -0.054489 0.287569 3.110905 1.561085
    37 2.838701 -3.699963 -7.208534 -0.096673 -6.014262 0.245446
    38 0.104757 -8.395729 -0.040616 -0.214313 -0.046643 0.103790
    39 0.701867 -2.736484 -0.305915 -0.119765 0.191640 0.297512
    40 -0.032909 -1.499736 0.032285 -1.517093 0.023274 -0.030055
    41 -0.027022 -1.127703 -0.020210 -1.257302 0.024425 -0.022986
    42 0.012193 -2.846964 -0.361719 0.212911 0.247369 0.269131
    43 0.043235 -1.656596 0.068667 -1.419909 -0.022105 0.007479
    44 0.031729 -1.141298 0.051025 -1.332477 -0.014878 0.007449
    45 -0.709952 -2.835928 -0.347077 0.195392 0.261101 0.242280
    46 0.028479 -1.403067 -0.001542 -0.497878 -0.008976 -0.021057
    47 0.021413 -0.949968 0.020046 -0.474313 -0.008341 -0.019727
    48 1.387138 -2.430655 -0.178143 -0.387235 -0.142500 0.585800
    49 0.024032 -1.148574 -0.009538 -1.316396 0.024520 0.063411
    50 0.014898 -0.903521 -0.012035 -1.116529 0.012883 0.055153
    51 -0.500830 -1.315260 0.063438 0.189258 -0.614315 -2.586011
    52 1.542367 0.039149 0.016848 -0.009160 -0.003071 0.525533
    53 1.117947 0.048424 -0.005766 -0.009124 -0.031598 0.407810
    54 -0.139399 -0.111698 0.014397 0.285382 -0.030687 1.580508
    55 -7.628035 3.846837 -0.430845 1.574864 -0.030104 -0.554184
  time 1
    0 1.529178 2.847614 -0.495831 0.000000 0.372218 0.081720
    1 4.065896 0.000000 0.000000 0.581565 0.089607 1.001026
    2 5.727314 0.000000 0.000000 0.000000 0.000000 -2.432950
    3 9.229775 0.000001 0.000000 -2.149440 0.081583 -0.305693
    4 -4.028509 2.385202 -0.139540 -1.712325 0.032869 -0.243476
    5 19.850609 -2.919322 1.053877 -1.570796 3.141592 0.000000
    6 1.136250 -0.000008 0.000000 0.000000 0.000000 0.000000
    7 0.163969 -1.053874 0.889052 0.000000 0.000000 -0.000001
    8 5.025910 0.000002 0.000001 0.000000 0.000000 3.141592
    9 9.203299 0.828617 -0.000001 0.000000 0.000000 -1.469692
    10 12.265707 7.447968 -0.000001 -1.570796 1.570451 0.000000
    11 -0.000008 0.000090 0.000003 0.000000 0.000000 0.000000
    12 11.236527 1.770459 3.999999 -1.570796 0.000000 0.000000
    13 11.236526 1.770458 -4.000000 -1.570796 0.000000 0.000000
    14 20.099432 0.000001 0.099096 -1.570796 0.000000 0.000000
    15 6.261313 77.310570 -53.358147 0.000000 0.000000 0.000000
    16 0.000004 -0.661568 0.189796 0.000000 0.000000 0.000000
    17 -1.172612 -2.106798 -0.470109 0.000000 0.000000 0.000000
    18 8.586528 9.606782 -3.374534 5.819041 -2.305732 0.356957
    19 0.029644 -8.463574 -0.068979 -0.117943 0.822322 0.255035
    20 5.542467 -5.175341 -0.419346 -1.557620 -0.033361 -3.785134
    21 -0.488518 -2.755602 -0.228260 -1.572657 -0.177706 0.023979
    22 0.039887 -1.511041 0.010322 -1.082681 -0.013830 0.022424
    23 0.028786 -1.157765 -0.124675 -1.025127 -0.015053 0.021620
    24 0.250027 -2.820665 -0.238396 -1.659172 -0.096485 0.161223
    25 -0.049759 -1.618042 0.080947 -0.884122 0.008641 -0.024211
    26 -0.034142 -1.160031 0.053531 -0.944119 0.008150 -0.024377
    27 0.957766 -2.746780 -0.090302 -0.057777 -0.183753 0.043824
    28 -0.033420 -1.397129 -0.011257 -0.283970 0.006340 -0.013592
    29 -0.022360 -0.957436 0.010971 -0.294056 0.006136 -0.013662
    30 -1.180681 -2.507217 -0.193859 -0.844729 -0.059117 0.074747
    31 -0.024967 -1.123934 0.017597 -1.583565 -0.012788 -0.063086
    32 -0.020057 -0.898781 0.017903 -0.698835 0.007958 -0.027493
    33 0.591323 -1.216809 0.247881 -0.837213 -0.216096 0.257682
    34 1.301545 -0.325702 0.106575 0.206802 -0.315398 -1.473233
    35 0.944516 -0.225949 0.008853 0.144123 -0.084865 -1.398731
    36 0.120153 -0.050270 -0.054489 0.287569 3.110905 1.561085
    37 2.823076 -3.594491 -7.329632 -0.078722 -6.005079 0.233924
    38 0.104757 -8.399636 -0.048429 -0.174614 -0.003738 0.127755
    39 0.701867 -2.736484 -0.305915 -0.119765 0.191640 0.297512
    40 -0.032909 -1.499736 0.032285 -1.517093 0.023274 -0.030055
    41 -0.027022 -1.127703 -0.020210 -1.257302 0.024425 -0.022986
    42 0.012193 -2.846964 -0.361719 0.212911 0.247369 0.269131
    43 0.043235 -1.656596 0.068667 -1.419909 -0.022105 0.007479
    44 0.031729 -1.141298 0.051025 -1.332477 -0.014878 0.007449
    45 -0.709952 -2.835928 -0.347077 0.195392 0.261101 0.242280
    46 0.028479 -1.403067 -0.001542 -0.497878 -0.008976 -0.021057
    47 0.021413 -0.949968 0.020046 -0.474313 -0.008341 -0.019727
    48 1.387138 -2.430655 -0.178143 -0.387235 -0.142500 0.585800
    49 0.024032 -1.148574 -0.009538 -1.316396 0.024520 0.063411
    50 0.014898 -0.903521 -0.012035 -1.116529 0.012883 0.055153
    51 -0.500830 -1.315260 0.063438 0.189258 -0.614315 -2.586011
    52 1.542367 0.039149 0.016848 -0.009160 -0.003071 0.525533
    53 1.117947 0.048424 -0.005766 -0.009124 -0.031598 0.407810
    54 -0.139399 -0.111698 0.014397 0.285382 -0.030687 1.580508
    55 -7.725695 3.589017 -0.438658 1.574289 -0.030774 -0.521010
  time 2
    0 1.400268 2.898397 -0.495831 0.000000 0.372218 0.081720
    1 4.065896 0.000000 0.000000 0.581565 0.089607 1.001026
    2 5.727314 0.000000 0.000000 0.000000 0.000000 -2.432950
    3 9.229775 0.000001 0.000000 -2.251595 0.112849 -0.293728
    4 -4.028509 2.385202 -0.139540 -1.712325 0.032869 -0.243476
    5 19.850609 -2.919322 1.053877 -1.570796 3.141592 0.000000
    6 1.136250 -0.000008 0.000000 0.000000 0.000000 0.000000
    7 0.163969 -1.053874 0.889052 0.000000 0.000000 -0.000001
    8 5.025910 0.000002 0.000001 0.000000 0.000000 3.141592
    9 9.203299 0.828617 -0.000001 0.000000 0.000000 -1.469692
    10 12.265707 7.447968 -0.000001 -1.570796 1.570451 0.000000
    11 -0.000008 0.000090 0.000003 0.000000 0.000000 0.000000
    12 11.236527 1.770459 3.999999 -1.570796 0.000000 0.000000
    13 11.236526 1.770458 -4.000000 -1.570796 0.000000 0.000000
    14 20.099432 0.000001 0.099096 -1.570796 0.000000 0.000000
    15 6.261313 77.310570 -53.358147 0.000000 0.000000 0.000000
    16 0.000004 -0.661568 0.189796 0.000000 0.000000 0.000000
    17 -1.301522 -2.063828 -0.470109 0.000000 0.000000 0.000000
    18 8.586528 9.606782 -3.374534 5.819041 -2.305732 0.356957
    19 0.053082 -8.447949 -0.068979 -0.181378 0.921067 0.186796
    20 5.542467 -5.175341 -0.419346 -1.557620 -0.033361 -3.785134
    21 -0.488518 -2.755602 -0.228260 -1.572657 -0.177706 0.023979
    22 0.039887 -1.511041 0.010322 -1.082681 -0.013830 0.022424
    23 0.028786 -1.157765 -0.124675 -1.025127 -0.015053 0.021620
    24 0.250027 -2.820665 -0.238396 -1.659172 -0.096485 0.161223
    25 -0.049759 -1.618042 0.080947 -0.884122 0.008641 -0.024211
    26 -0.034142 -1.160031 0.053531 -0.944119 0.008150 -0.024377
    27 0.957766 -2.746780 -0.090302 -0.057777 -0.183753 0.043824
    28 -0.033420 -1.397129 -0.011257 -0.283970 0.006340 -0.013592
    29 -0.022360 -0.957436 0.010971 -0.294056 0.006136 -0.013662
    30 -1.180681 -2.507217 -0.193859 -0.844729 -0.059117 0.074747
    31 -0.024967 -1.123934 0.017597 -1.583565 -0.012788 -0.063086
    32 -0.020057 -0.898781 0.017903 -0.698835 0.007958 -0.027493
    33 0.591323 -1.216809 0.247881 -0.837213 -0.216096 0.257682
    34 1.301545 -0.325702 0.106575 0.206802 -0.315398 -1.473233
    35 0.944516 -0.225949 0.008853 0.144123 -0.084865 -1.398731
    36 0.120153 -0.050270 -0.054489 0.287569 3.110905 1.561085
    37 2.791825 -3.434330 -7.481980 -0.056697 -5.992986 0.215831
    38 0.108663 -8.399636 -0.052335 -0.119932 0.054311 0.164088
    39 0.701867 -2.736484 -0.305915 -0.119765 0.191640 0.297512
    40 -0.032909 -1.499736 0.032285 -1.517093 0.023274 -0.030055
    41 -0.027022 -1.127703 -0.020210 -1.257302 0.024425 -0.022986
    42 0.012193 -2.846964 -0.361719 0.212911 0.247369 0.269131
    43 0.043235 -1.656596 0.068667 -1.419909 -0.022105 0.007479
    44 0.031729 -1.141298 0.051025 -1.332477 -0.014878 0.007449
    45 -0.709952 -2.835928 -0.347077 0.195392 0.261101 0.242280
    46 0.028479 -1.403067 -0.001542 -0.497878 -0.008976 -0.021057
    47 0.021413 -0.949968 0.020046 -0.474313 -0.008341 -0.019727
    48 1.387138 -2.430655 -0.178143 -0.387235 -0.142500 0.585800
    49 0.024032 -1.148574 -0.009538 -1.316396 0.024520 0.063411
    50 0.014898 -0.903521 -0.012035 -1.116529 0.012883 0.055153
    51 -0.500830 -1.315260 0.063438 0.189258 -0.614315 -2.586011
    52 1.542367 0.039149 0.016848 -0.009160 -0.003071 0.525533
    53 1.117947 0.048424 -0.005766 -0.009124 -0.031598 0.407810
    54 -0.139399 -0.111698 0.014397 0.285382 -0.030687 1.580508
    55 -7.854605 3.210099 -0.446471 1.573331 -0.031731 -0.472724
  time 3
    0 1.193230 2.972618 -0.495831 0.000000 0.372218 0.081720
    1 4.065896 0.000000 0.000000 0.581565 0.089607 1.001026
    2 5.727314 0.000000 0.000000 0.000000 0.000000 -2.432950
    3 9.229775 0.000001 0.000000 -2.339066 0.142421 -0.284305
    4 -4.028509 2.385202 -0.139540 -1.712325 0.032869 -0.243476
    5 19.850609 -2.919322 1.053877 -1.570796 3.141592 0.000000
    6 1.136250 -0.000008 0.000000 0.000000 0.000000 0.000000
    7 0.163969 -1.053874 0.889052 0.000000 0.000000 -0.000001
    8 5.025910 0.000002 0.000001 0.000000 0.000000 3.141592
    9 9.203299 0.828617 -0.000001 0.000000 0.000000 -1.469692
    10 12.265707 7.447968 -0.000001 -1.570796 1.570787 0.000000
    11 -0.000008 0.000090 0.000003 0.000000 0.000000 0.000000
    12 11.236527 1.770459 3.999999 -1.570796 0.000000 0.000000
    13 11.236526 1.770458 -4.000000 -1.570796 0.000000 0.000000
    14 20.099432 0.000001 0.099096 -1.570796 0.000000 0.000000
    15 6.261313 77.310570 -53.358147 0.000000 0.000000 0.000000
    16 0.000004 -0.661568 0.189796 0.000000 0.000000 0.000000
    17 -1.504654 -1.989607 -0.470109 0.000000 0.000000 0.000000
    18 8.586528 9.606782 -3.374534 5.819041 -2.305732 0.356957
    19 0.072614 -8.432323 -0.072885 -0.256577 1.002500 0.106468
    20 5.542467 -5.175341 -0.419346 -1.557620 -0.033361 -3.785134
    21 -0.488518 -2.755602 -0.228260 -1.572657 -0.177706 0.023979
    22 0.039887 -1.511041 0.010322 -1.082681 -0.013830 0.022424
    23 0.028786 -1.157765 -0.124675 -1.025127 -0.015053 0.021620
    24 0.250027 -2.820665 -0.238396 -1.659172 -0.096485 0.161223
    25 -0.049759 -1.618042 0.080947 -0.884122 0.008641 -0.024211
    26 -0.034142 -1.160031 0.053531 -0.944119 0.008150 -0.024377
    27 0.957766 -2.746780 -0.090302 -0.057777 -0.183753 0.043824
    28 -0.033420 -1.397129 -0.011257 -0.283970 0.006340 -0.013592
    29 -0.022360 -0.957436 0.010971 -0.294056 0.006136 -0.013662
    30 -1.180681 -2.507217 -0.193859 -0.844729 -0.059117 0.074747
    31 -0.024967 -1.123934 0.017597 -1.583565 -0.012788 -0.063086
    32 -0.020057 -0.898781 0.017903 -0.698835 0.007958 -0.027493
    33 0.591323 -1.216809 0.247881 -0.837213 -0.216096 0.257682
    34 1.301545 -0.325702 0.106575 0.206802 -0.315398 -1.473233
    35 0.944516 -0.225949 0.008853 0.144123 -0.084865 -1.398731
    36 0.120153 -0.050270 -0.054489 0.287569 3.110905 1.561085
    37 2.752761 -3.278075 -7.618703 -0.036710 -5.981076 0.198977
    38 0.116476 -8.399636 -0.060148 -0.072185 0.101625 0.198627
    39 0.701867 -2.736484 -0.305915 -0.119765 0.191640 0.297512
    40 -0.032909 -1.499736 0.032285 -1.517093 0.023274 -0.030055
    41 -0.027022 -1.127703 -0.020210 -1.257302 0.024425 -0.022986
    42 0.012193 -2.846964 -0.361719 0.212911 0.247369 0.269131
    43 0.043235 -1.656596 0.068667 -1.419909 -0.022105 0.007479
    44 0.031729 -1.141298 0.051025 -1.332477 -0.014878 0.007449
    45 -0.709952 -2.835928 -0.347077 0.195392 0.261101 0.242280
    46 0.028479 -1.403067 -0.001542 -0.497878 -0.008976 -0.021057
    47 0.021413 -0.949968 0.020046 -0.474313 -0.008341 -0.019727
    48 1.387138 -2.430655 -0.178143 -0.387235 -0.142500 0.585800
    49 0.024032 -1.148574 -0.009538 -1.316396 0.024520 0.063411
    50 0.014898 -0.903521 -0.012035 -1.116529 0.012883 0.055153
    51 -0.500830 -1.315260 0.063438 0.189258 -0.614315 -2.586011
    52 1.542367 0.039149 0.016848 -0.009160 -0.003071 0.525533
    53 1.117947 0.048424 -0.005766 -0.009124 -0.031598 0.407810
    54 -0.139399 -0.111698 0.014397 0.285382 -0.030687 1.580508
    55 -7.960077 2.850713 -0.450377 1.572372 -0.032593 -0.426584
  time 4
    0 0.927597 3.070277 -0.495831 0.000000 0.372218 0.081720
    1 4.065896 0.000000 0.000000 0.581565 0.089607 1.001026
    2 5.727314 0.000000 0.000000 0.000000 0.000000 -2.432950
    3 9.229775 0.000001 0.000000 -2.371105 0.159124 -0.276591
    4 -4.028509 2.385202 -0.139540 -1.712325 0.032869 -0.243476
    5 19.850609 -2.919322 1.053877 -1.570796 3.141592 0.000000
    6 1.136250 -0.000008 0.000000 0.000000 0.000000 0.000000
    7 0.163969 -1.053874 0.889052 0.000000 0.000000 -0.000001
    8 5.025910 0.000002 0.000001 0.000000 0.000000 3.141592
    9 9.203299 0.828617 -0.000001 0.000000 0.000000 -1.469692
    10 12.265707 7.447968 -0.000001 -1.570796 1.570787 0.000000
    11 -0.000008 0.000090 0.000003 0.000000 0.000000 0.000000
    12 11.236527 1.770459 3.999999 -1.570796 0.000000 0.000000
    13 11.236526 1.770458 -4.000000 -1.570796 0.000000 0.000000
    14 20.099432 0.000001 0.099096 -1.570796 0.000000 0.000000
    15 6.261313 77.310570 -53.358147 0.000000 0.000000 0.000000
    16 0.000004 -0.661568 0.189796 0.000000 0.000000 0.000000
    17 -1.774193 -1.884135 -0.470109 0.000000 0.000000 0.000000
    18 8.586528 9.606782 -3.374534 5.819041 -2.305732 0.356957
    19 0.076520 -8.428417 -0.076791 -0.300648 1.030128 0.057208
    20 5.542467 -5.175341 -0.419346 -1.557620 -0.033361 -3.785134
    21 -0.488518 -2.755602 -0.228260 -1.572657 -0.177706 0.023979
    22 0.039887 -1.511041 0.010322 -1.082681 -0.013830 0.022424
    23 0.028786 -1.157765 -0.124675 -1.025127 -0.015053 0.021620
    24 0.250027 -2.820665 -0.238396 -1.659172 -0.096485 0.161223
    25 -0.049759 -1.618042 0.080947 -0.884122 0.008641 -0.024211
    26 -0.034142 -1.160031 0.053531 -0.944119 0.008150 -0.024377
    27 0.957766 -2.746780 -0.090302 -0.057777 -0.183753 0.043824
    28 -0.033420 -1.397129 -0.011257 -0.283970 0.006340 -0.013592
    29 -0.022360 -0.957436 0.010971 -0.294056 0.006136 -0.013662
    30 -1.180681 -2.507217 -0.193859 -0.844729 -0.059117 0.074747
    31 -0.024967 -1.123934 0.017597 -1.583565 -0.012788 -0.063086
    32 -0.020057 -0.898781 0.017903 -0.698835 0.007958 -0.027493
    33 0.591323 -1.216809 0.247881 -0.837213 -0.216096 0.257682
    34 1.301545 -0.325702 0.106575 0.206802 -0.315398 -1.473233
    35 0.944516 -0.225949 0.008853 0.144123 -0.084865 -1.398731
    36 0.120153 -0.050270 -0.054489 0.287569 3.110905 1.561085
    37 2.729323 -3.199948 -7.700737 -0.022133 -5.972620 0.193263
    38 0.116476 -8.395729 -0.060148 -0.055957 0.112443 0.211320
    39 0.701867 -2.736484 -0.305915 -0.119765 0.191640 0.297512
    40 -0.032909 -1.499736 0.032285 -1.517093 0.023274 -0.030055
    41 -0.027022 -1.127703 -0.020210 -1.257302 0.024425 -0.022986
    42 0.012193 -2.846964 -0.361719 0.212911 0.247369 0.269131
    43 0.043235 -1.656596 0.068667 -1.419909 -0.022105 0.007479
    44 0.031729 -1.141298 0.051025 -1.332477 -0.014878 0.007449
    45 -0.709952 -2.835928 -0.347077 0.195392 0.261101 0.242280
    46 0.028479 -1.403067 -0.001542 -0.497878 -0.008976 -0.021057
    47 0.021413 -0.949968 0.020046 -0.474313 -0.008341 -0.019727
    48 1.387138 -2.430655 -0.178143 -0.387235 -0.142500 0.585800
    49 0.024032 -1.148574 -0.009538 -1.316396 0.024520 0.063411
    50 0.014898 -0.903521 -0.012035 -1.116529 0.012883 0.055153
    51 -0.500830 -1.315260 0.063438 0.189258 -0.614315 -2.586011
    52 1.542367 0.039149 0.016848 -0.009160 -0.003071 0.525533
    53 1.117947 0.048424 -0.005766 -0.009124 -0.031598 0.407810
    54 -0.139399 -0.111698 0.014397 0.285382 -0.030687 1.580508
    55 -8.006953 2.678833 -0.450377 1.571893 -0.032880 -0.404945
  time 5
    0 0.599462 3.195281 -0.495831 0.000000 0.372218 0.081720
    1 4.065896 0.000000 0.000000 0.581565 0.089607 1.001026
    2 5.727314 0.000000 0.000000 0.000000 0.000000 -2.432950
    3 9.229775 0.000001 0.000000 -2.348722 0.163547 -0.267663
    4 -4.028509 2.385202 -0.139540 -1.712325 0.032869 -0.243476
    5 19.850609 -2.919322 1.053877 -1.570796 3.141592 0.000000
    6 1.136250 -0.000008 0.000000 0.000000 0.000000 0.000000
    7 0.163969 -1.053874 0.889052 0.000000 0.000000 -0.000001
    8 5.025910 0.000002 0.000001 0.000000 0.000000 3.141592
    9 9.203299 0.828617 -0.000001 0.000000 0.000000 -1.469692
    10 12.265707 7.447968 -0.000001 -1.570796 1.570451 0.000000
    11 -0.000008 0.000090 0.000003 0.000000 0.000000 0.000000
    12 11.236527 1.770459 3.999999 -1.570796 0.000000 0.000000
    13 11.236526 1.770458 -4.000000 -1.570796 0.000000 0.000000
    14 20.099432 0.000001 0.099096 -1.570796 0.000000 0.000000
    15 6.261313 77.310570 -53.358147 0.000000 0.000000 0.000000
    16 0.000004 -0.661568 0.189796 0.000000 0.000000 0.000000
    17 -2.098422 -1.766944 -0.470109 0.000000 0.000000 0.000000
    18 8.586528 9.606782 -3.374534 5.819041 -2.305732 0.356957
    19 0.072614 -8.428417 -0.076791 -0.299295 1.007690 0.052674
    20 5.542467 -5.175341 -0.419346 -1.557620 -0.033361 -3.785134
    21 -0.488518 -2.755602 -0.228260 -1.572657 -0.177706 0.023979
    22 0.039887 -1.511041 0.010322 -1.082681 -0.013830 0.022424
    23 0.028786 -1.157765 -0.124675 -1.025127 -0.015053 0.021620
    24 0.250027 -2.820665 -0.238396 -1.659172 -0.096485 0.161223
    25 -0.049759 -1.618042 0.080947 -0.884122 0.008641 -0.024211
    26 -0.034142 -1.160031 0.053531 -0.944119 0.008150 -0.024377
    27 0.957766 -2.746780 -0.090302 -0.057777 -0.183753 0.043824
    28 -0.033420 -1.397129 -0.011257 -0.283970 0.006340 -0.013592
    29 -0.022360 -0.957436 0.010971 -0.294056 0.006136 -0.013662
    30 -1.180681 -2.507217 -0.193859 -0.844729 -0.059117 0.074747
    31 -0.024967 -1.123934 0.017597 -1.583565 -0.012788 -0.063086
    32 -0.020057 -0.898781 0.017903 -0.698835 0.007958 -0.027493
    33 0.591323 -1.216809 0.247881 -0.837213 -0.216096 0.257682
    34 1.301545 -0.325702 0.106575 0.206802 -0.315398 -1.473233
    35 0.944516 -0.225949 0.008853 0.144123 -0.084865 -1.398731
    36 0.120153 -0.050270 -0.054489 0.287569 3.110905 1.561085
    37 2.721510 -3.192135 -7.747613 -0.010420 -5.966801 0.200786
    38 0.116476 -8.399636 -0.060148 -0.071706 0.086316 0.200098
    39 0.701867 -2.736484 -0.305915 -0.119765 0.191640 0.297512
    40 -0.032909 -1.499736 0.032285 -1.517093 0.023274 -0.030055
    41 -0.027022 -1.127703 -0.020210 -1.257302 0.024425 -0.022986
    42 0.012193 -2.846964 -0.361719 0.212911 0.247369 0.269131
    43 0.043235 -1.656596 0.068667 -1.419909 -0.022105 0.007479
    44 0.031729 -1.141298 0.051025 -1.332477 -0.014878 0.007449
    45 -0.709952 -2.835928 -0.347077 0.195392 0.261101 0.242280
    46 0.028479 -1.403067 -0.001542 -0.497878 -0.008976 -0.021057
    47 0.021413 -0.949968 0.020046 -0.474313 -0.008341 -0.019727
    48 1.387138 -2.430655 -0.178143 -0.387235 -0.142500 0.585800
    49 0.024032 -1.148574 -0.009538 -1.316396 0.024520 0.063411
    50 0.014898 -0.903521 -0.012035 -1.116529 0.012883 0.055153
    51 -0.500830 -1.315260 0.063438 0.189258 -0.614315 -2.586011
    52 1.542367 0.039149 0.016848 -0.009160 -0.003071 0.525533
    53 1.117947 0.048424 -0.005766 -0.009124 -0.031598 0.407810
    54 -0.139399 -0.111698 0.014397 0.285382 -0.030687 1.580508
    55 -7.995234 2.713990 -0.450377 1.571989 -0.032880 -0.409684
  time 6
    0 0.228357 3.332004 -0.495831 0.000000 0.372218 0.081720
    1 4.065896 0.000000 0.000000 0.581565 0.089607 1.001026
    2 5.727314 0.000000 0.000000 0.000000 0.000000 -2.432950
    3 9.229775 0.000001 0.000000 -2.304608 0.164088 -0.256823
    4 -4.028509 2.385202 -0.139540 -1.712325 0.032869 -0.243476
    5 19.850609 -2.919322 1.053877 -1.570796 3.141592 0.000000
    6 1.136250 -0.000008 0.000000 0.000000 0.000000 0.000000
    7 0.163969 -1.053874 0.889052 0.000000 0.000000 -0.000001
    8 5.025910 0.000002 0.000001 0.000000 0.000000 3.141592
    9 9.203299 0.828617 -0.000001 0.000000 0.000000 -1.469692
    10 12.265707 7.447968 -0.000001 -1.570796 1.570451 0.000000
    11 -0.000008 0.000090 0.000003 0.000000 0.000000 0.000000
    12 11.236527 1.770459 3.999999 -1.570796 0.000000 0.000000
    13 11.236526 1.770458 -4.000000 -1.570796 0.000000 0.000000
    14 20.099432 0.000001 0.099096 -1.570796 0.000000 0.000000
    15 6.261313 77.310570 -53.358147 0.000000 0.000000 0.000000
    16 0.000004 -0.661568 0.189796 0.000000 0.000000 0.000000
    17 -2.469527 -1.630221 -0.470109 0.000000 0.000000 0.000000
    18 8.586528 9.606782 -3.374534 5.819041 -2.305732 0.356957
    19 0.064801 -8.432323 -0.072885 -0.283228 0.965201 0.061620
    20 5.542467 -5.175341 -0.419346 -1.557620 -0.033361 -3.785134
    21 -0.488518 -2.755602 -0.228260 -1.572657 -0.177706 0.023979
    22 0.039887 -1.511041 0.010322 -1.082681 -0.013830 0.022424
    23 0.028786 -1.157765 -0.124675 -1.025127 -0.015053 0.021620
    24 0.250027 -2.820665 -0.238396 -1.659172 -0.096485 0.161223
    25 -0.049759 -1.618042 0.080947 -0.884122 0.008641 -0.024211
    26 -0.034142 -1.160031 0.053531 -0.944119 0.008150 -0.024377
    27 0.957766 -2.746780 -0.090302 -0.057777 -0.183753 0.043824
    28 -0.033420 -1.397129 -0.011257 -0.283970 0.006340 -0.013592
    29 -0.022360 -0.957436 0.010971 -0.294056 0.006136 -0.013662
    30 -1.180681 -2.507217 -0.193859 -0.844729 -0.059117 0.074747
    31 -0.024967 -1.123934 0.017597 -1.583565 -0.012788 -0.063086
    32 -0.020057 -0.898781 0.017903 -0.698835 0.007958 -0.027493
    33 0.591323 -1.216809 0.247881 -0.837213 -0.216096 0.257682
    34 1.301545 -0.325702 0.106575 0.206802 -0.315398 -1.473233
    35 0.944516 -0.225949 0.008853 0.144123 -0.084865 -1.398731
    36 0.120153 -0.050270 -0.054489 0.287569 3.110905 1.561085
    37 2.717604 -3.211667 -7.794490 0.001929 -5.961254 0.214308
    38 0.104757 -8.399636 -0.048429 -0.099795 0.043657 0.179799
    39 0.701867 -2.736484 -0.305915 -0.119765 0.191640 0.297512
    40 -0.032909 -1.499736 0.032285 -1.517093 0.023274 -0.030055
    41 -0.027022 -1.127703 -0.020210 -1.257302 0.024425 -0.022986
    42 0.012193 -2.846964 -0.361719 0.212911 0.247369 0.269131
    43 0.043235 -1.656596 0.068667 -1.419909 -0.022105 0.007479
    44 0.031729 -1.141298 0.051025 -1.332477 -0.014878 0.007449
    45 -0.709952 -2.835928 -0.347077 0.195392 0.261101 0.242280
    46 0.028479 -1.403067 -0.001542 -0.497878 -0.008976 -0.021057
    47 0.021413 -0.949968 0.020046 -0.474313 -0.008341 -0.019727
    48 1.387138 -2.430655 -0.178143 -0.387235 -0.142500 0.585800
    49 0.024032 -1.148574 -0.009538 -1.316396 0.024520 0.063411
    50 0.014898 -0.903521 -0.012035 -1.116529 0.012883 0.055153
    51 -0.500830 -1.315260 0.063438 0.189258 -0.614315 -2.586011
    52 1.542367 0.039149 0.016848 -0.009172 -0.003071 0.525533
    53 1.117947 0.048424 -0.005766 -0.009124 -0.031598 0.407810
    54 -0.139399 -0.111698 0.014397 0.285382 -0.030687 1.580508
    55 -7.963983 2.838994 -0.450377 1.572372 -0.032593 -0.425243
  time 7
    0 -0.173999 3.484352 -0.495831 0.000000 0.372218 0.081720
    1 4.065896 0.000000 0.000000 0.581565 0.089607 1.001026
    2 5.727314 0.000000 0.000000 0.000000 0.000000 -2.432950
    3 9.229775 0.000001 0.000000 -2.245621 0.161030 -0.245285
    4 -4.028509 2.385202 -0.139540 -1.712325 0.032869 -0.243476
    5 19.850609 -2.919322 1.053877 -1.570796 3.141592 0.000000
    6 1.136250 -0.000008 0.000000 0.000000 0.000000 0.000000
    7 0.163969 -1.053874 0.889052 0.000000 0.000000 -0.000001
    8 5.025910 0.000002 0.000001 0.000000 0.000000 3.141592
    9 9.203299 0.828617 -0.000001 0.000000 0.000000 -1.469692
    10 12.265707 7.447968 -0.000001 -1.570796 1.570451 0.000000
    11 -0.000008 0.000090 0.000003 0.000000 0.000000 0.000000
    12 11.236527 1.770459 3.999999 -1.570796 0.000000 0.000000
    13 11.236526 1.770458 -4.000000 -1.570796 0.000000 0.000000
    14 20.099432 0.000001 0.099096 -1.570796 0.000000 0.000000
    15 6.261313 77.310570 -53.358147 0.000000 0.000000 0.000000
    16 0.000004 -0.661568 0.189796 0.000000 0.000000 0.000000
    17 -2.879696 -1.481779 -0.470109 0.000000 0.000000 0.000000
    18 8.586528 9.606782 -3.374534 5.819041 -2.305732 0.356957
    19 0.053082 -8.436230 -0.072885 -0.259040 0.908720 0.078000
    20 5.542467 -5.175341 -0.419346 -1.557620 -0.033361 -3.785134
    21 -0.488518 -2.755602 -0.228260 -1.572657 -0.177706 0.023979
    22 0.039887 -1.511041 0.010322 -1.082650 -0.013830 0.022424
    23 0.028786 -1.157765 -0.124675 -1.025127 -0.015053 0.021620
    24 0.250027 -2.820665 -0.238396 -1.659172 -0.096485 0.161223
    25 -0.049759 -1.618042 0.080947 -0.884122 0.008641 -0.024211
    26 -0.034142 -1.160031 0.053531 -0.944119 0.008150 -0.024377
    27 0.957766 -2.746780 -0.090302 -0.057777 -0.183753 0.043824
    28 -0.033420 -1.397129 -0.011257 -0.283970 0.006340 -0.013592
    29 -0.022360 -0.957436 0.010971 -0.294056 0.006136 -0.013662
    30 -1.180681 -2.507217 -0.193859 -0.844729 -0.059117 0.074747
    31 -0.024967 -1.123934 0.017597 -1.583565 -0.012788 -0.063086
    32 -0.020057 -0.898781 0.017903 -0.698835 0.007958 -0.027493
    33 0.591323 -1.216809 0.247881 -0.837213 -0.216096 0.257682
    34 1.301545 -0.325702 0.106575 0.206802 -0.315398 -1.473233
    35 0.944516 -0.225949 0.008853 0.144123 -0.084865 -1.398731
    36 0.120153 -0.050270 -0.054489 0.287569 3.110905 1.561085
    37 2.717604 -3.254637 -7.833554 0.013514 -5.956708 0.232400
    38 0.104757 -8.399636 -0.040616 -0.135183 -0.010066 0.154388
    39 0.701867 -2.736484 -0.305915 -0.119765 0.191640 0.297512
    40 -0.032909 -1.499736 0.032285 -1.517093 0.023274 -0.030055
    41 -0.027022 -1.127703 -0.020210 -1.257302 0.024425 -0.022986
    42 0.012193 -2.846964 -0.361719 0.212911 0.247369 0.269131
    43 0.043235 -1.656596 0.068667 -1.419909 -0.022105 0.007479
    44 0.031729 -1.141298 0.051025 -1.332477 -0.014878 0.007449
    45 -0.709952 -2.835928 -0.347077 0.195392 0.261101 0.242280
    46 0.028479 -1.403067 -0.001542 -0.497878 -0.008976 -0.021057
    47 0.021413 -0.949968 0.020046 -0.474313 -0.008341 -0.019727
    48 1.387138 -2.430655 -0.178143 -0.387235 -0.142500 0.585800
    49 0.024032 -1.148574 -0.009538 -1.316396 0.024520 0.063411
    50 0.014898 -0.903521 -0.012035 -1.116529 0.012883 0.055153
    51 -0.500830 -1.315260 0.063438 0.189258 -0.614315 -2.586011
    52 1.542367 0.039149 0.016848 -0.009160 -0.003071 0.525533
    53 1.117947 0.048424 -0.005766 -0.009124 -0.031598 0.407810
    54 -0.139399 -0.111698 0.014397 0.285382 -0.030687 1.580508
    55 -7.909294 3.030406 -0.446471 1.572851 -0.032114 -0.449654
  time 8
    0 -0.611512 3.640607 -0.495831 0.000000 0.372218 0.081720
    1 4.065896 0.000000 0.000000 0.581565 0.089607 1.001026
    2 5.727314 0.000000 0.000000 0.000000 0.000000 -2.432950
    3 9.229775 0.000001 0.000000 -2.178555 0.154796 -0.234423
    4 -4.028509 2.385202 -0.139540 -1.712325 0.032869 -0.243476
    5 19.850609 -2.919322 1.053877 -1.570796 3.141592 0.000000
    6 1.136250 -0.000008 0.000000 0.000000 0.000000 0.000000
    7 0.163969 -1.053874 0.889052 0.000000 0.000000 -0.000001
    8 5.025910 0.000002 0.000001 0.000000 0.000000 3.141592
    9 9.203299 0.828617 -0.000001 0.000000 0.000000 -1.469692
    10 12.265707 7.447968 -0.000001 -1.570796 1.570787 0.000000
    11 -0.000008 0.000090 0.000003 0.000000 0.000000 0.000000
    12 11.236527 1.770459 3.999999 -1.570796 0.000000 0.000000
    13 11.236526 1.770458 -4.000000 -1.570796 0.000000 0.000000
    14 20.099432 0.000001 0.099096 -1.570796 0.000000 0.000000
    15 6.261313 77.310570 -53.358147 0.000000 0.000000 0.000000
    16 0.000004 -0.661568 0.189796 0.000000 0.000000 0.000000
    17 -3.313303 -1.313805 -0.470109 0.000000 0.000000 0.000000
    18 8.586528 9.606782 -3.374534 5.819041 -2.305732 0.356957
    19 0.037456 -8.440136 -0.072885 -0.232285 0.844437 0.096978
    20 5.542467 -5.175341 -0.419346 -1.557620 -0.033361 -3.785134
    21 -0.488518 -2.755602 -0.228260 -1.572657 -0.177706 0.023979
    22 0.039887 -1.511041 0.010322 -1.082681 -0.013830 0.022424
    23 0.028786 -1.157765 -0.124675 -1.025127 -0.015053 0.021620
    24 0.250027 -2.820665 -0.238396 -1.659172 -0.096485 0.161223
    25 -0.049759 -1.618042 0.080947 -0.884122 0.008641 -0.024211
    26 -0.034142 -1.160031 0.053531 -0.944119 0.008150 -0.024377
    27 0.957766 -2.746780 -0.090302 -0.057777 -0.183753 0.043824
    28 -0.033420 -1.397129 -0.011257 -0.283970 0.006340 -0.013592
    29 -0.022360 -0.957436 0.010971 -0.294056 0.006136 -0.013662
    30 -1.180681 -2.507217 -0.193859 -0.844729 -0.059117 0.074747
    31 -0.024967 -1.123934 0.017597 -1.583565 -0.012788 -0.063086
    32 -0.020057 -0.898781 0.017903 -0.698835 0.007958 -0.027493
    33 0.591323 -1.216809 0.247881 -0.837213 -0.216096 0.257682
    34 1.301545 -0.325702 0.106575 0.206802 -0.315398 -1.473233
    35 0.944516 -0.225949 0.008853 0.144123 -0.084865 -1.398731
    36 0.120153 -0.050270 -0.054489 0.287569 3.110905 1.561085
    37 2.721510 -3.313233 -7.860898 0.023508 -5.953890 0.253159
    38 0.096944 -8.399636 -0.036710 -0.173503 -0.068973 0.127455
    39 0.701867 -2.736484 -0.305915 -0.119765 0.191640 0.297512
    40 -0.032909 -1.499736 0.032285 -1.517093 0.023274 -0.030055
    41 -0.027022 -1.127703 -0.020210 -1.257302 0.024425 -0.022986
    42 0.012193 -2.846964 -0.361719 0.212911 0.247369 0.269131
    43 0.043235 -1.656596 0.068667 -1.419909 -0.022105 0.007479
    44 0.031729 -1.141298 0.051025 -1.332477 -0.014878 0.007449
    45 -0.709952 -2.835928 -0.347077 0.195392 0.261101 0.242280
    46 0.028479 -1.403067 -0.001542 -0.497878 -0.008976 -0.021057
    47 0.021413 -0.949968 0.020046 -0.474313 -0.008341 -0.019727
    48 1.387138 -2.430655 -0.178143 -0.387235 -0.142500 0.585800
    49 0.024032 -1.148574 -0.009538 -1.316396 0.024520 0.063411
    50 0.014898 -0.903521 -0.012035 -1.116529 0.012883 0.055153
    51 -0.500830 -1.315260 0.063438 0.189258 -0.614315 -2.586011
    52 1.542367 0.039149 0.016848 -0.009160 -0.003071 0.525533
    53 1.117947 0.048424 -0.005766 -0.009124 -0.031598 0.407810
    54 -0.139399 -0.111698 0.014397 0.285382 -0.030687 1.580508
    55 -7.835073 3.272601 -0.438658 1.573426 -0.031540 -0.480503
  time 9
    0 -1.072464 3.808581 -0.495831 0.000000 0.372218 0.081720
    1 4.065896 0.000000 0.000000 0.581565 0.089607 1.001026
    2 5.727314 0.000000 0.000000 0.000000 0.000000 -2.432950
    3 9.229775 0.000001 0.000000 -2.110207 0.146232 -0.225449
    4 -4.028509 2.385202 -0.139540 -1.712325 0.032869 -0.243476
    5 19.850609 -2.919322 1.053877 -1.570796 3.141592 0.000000
    6 1.136250 -0.000008 0.000000 0.000000 0.000000 0.000000
    7 0.163969 -1.053874 0.889052 0.000000 0.000000 -0.000001
    8 5.025910 0.000002 0.000001 0.000000 0.000000 3.141592
    9 9.203299 0.828617 -0.000001 0.000000 0.000000 -1.469692
    10 12.265707 7.447968 -0.000001 -1.570796 1.570451 0.000000
    11 -0.000008 0.000090 0.000003 0.000000 0.000000 0.000000
    12 11.236527 1.770459 3.999999 -1.570796 0.000000 0.000000
    13 11.236526 1.770458 -4.000000 -1.570796 0.000000 0.000000
    14 20.099432 0.000001 0.099096 -1.570796 0.000000 0.000000
    15 6.261313 77.310570 -53.358147 0.000000 0.000000 0.000000
    16 0.000004 -0.661568 0.189796 0.000000 0.000000 0.000000
    17 -3.770348 -1.145831 -0.470109 0.000000 0.000000 0.000000
    18 8.586528 9.606782 -3.374534 5.819041 -2.305732 0.356957
    19 0.021831 -8.444042 -0.072885 -0.206432 0.778672 0.115716
    20 5.542467 -5.175341 -0.419346 -1.557620 -0.033361 -3.785134
    21 -0.488518 -2.755602 -0.228260 -1.572657 -0.177706 0.023979
    22 0.039887 -1.511041 0.010322 -1.082681 -0.013830 0.022424
    23 0.028786 -1.157765 -0.124675 -1.025127 -0.015053 0.021620
    24 0.250027 -2.820665 -0.238396 -1.659172 -0.096485 0.161223
    25 -0.049759 -1.618042 0.080947 -0.884122 0.008641 -0.024211
    26 -0.034142 -1.160031 0.053531 -0.944119 0.008150 -0.024377
    27 0.957766 -2.746780 -0.090302 -0.057777 -0.183753 0.043824
    28 -0.033420 -1.397129 -0.011257 -0.283970 0.006340 -0.013592
    29 -0.022360 -0.957436 0.010971 -0.294056 0.006136 -0.013662
    30 -1.180681 -2.507217 -0.193859 -0.844729 -0.059117 0.074747
    31 -0.024967 -1.123934 0.017597 -1.583565 -0.012788 -0.063086
    32 -0.020057 -0.898781 0.017903 -0.698835 0.007958 -0.027493
    33 0.591323 -1.216809 0.247881 -0.837213 -0.216096 0.257682
    34 1.301545 -0.325702 0.106575 0.206802 -0.315398 -1.473233
    35 0.944516 -0.225949 0.008853 0.144123 -0.084865 -1.398731
    36 0.120153 -0.050270 -0.054489 0.287569 3.110905 1.561085
    37 2.729323 -3.395266 -7.872617 0.030510 -5.952708 0.274108
    38 0.096944 -8.399636 -0.028897 -0.211056 -0.127146 0.101944
    39 0.701867 -2.736484 -0.305915 -0.119765 0.191640 0.297512
    40 -0.032909 -1.499736 0.032285 -1.517093 0.023274 -0.030055
    41 -0.027022 -1.127703 -0.020210 -1.257302 0.024425 -0.022986
    42 0.012193 -2.846964 -0.361719 0.212911 0.247369 0.269131
    43 0.043235 -1.656596 0.068667 -1.419909 -0.022105 0.007479
    44 0.031729 -1.141298 0.051025 -1.332477 -0.014878 0.007449
    45 -0.709952 -2.835928 -0.347077 0.195392 0.261101 0.242280
    46 0.028479 -1.403067 -0.001542 -0.497878 -0.008976 -0.021057
    47 0.021413 -0.949968 0.020046 -0.474313 -0.008341 -0.019727
    48 1.387138 -2.430655 -0.178143 -0.387235 -0.142500 0.585800
    49 0.024032 -1.148574 -0.009538 -1.316396 0.024520 0.063411
    50 0.014898 -0.903521 -0.012035 -1.116529 0.012883 0.055153
    51 -0.500830 -1.315260 0.063438 0.189258 -0.614315 -2.586011
    52 1.542367 0.039149 0.016848 -0.009160 -0.003071 0.525533
    53 1.117947 0.048424 -0.005766 -0.009124 -0.031598 0.407810
    54 -0.139399 -0.111698 0.014397 0.285382 -0.030687 1.580508
    55 -7.741320 3.538234 -0.438658 1.574001 -0.030869 -0.514214
  time 10
    0 -1.537322 3.980461 -0.495831 0.000000 0.372218 0.081720
    1 4.065896 0.000000 0.000000 0.581565 0.089607 1.001026
    2 5.727314 0.000000 0.000000 0.000000 0.000000 -2.432950
    3 9.229775 0.000001 0.000000 -2.047286 0.136422 -0.219377
    4 -4.028509 2.385202 -0.139540 -1.712325 0.032869 -0.243476
    5 19.850609 -2.919322 1.053877 -1.570796 3.141592 0.000000
    6 1.136250 -0.000008 0.000000 0.000000 0.000000 0.000000
    7 0.163969 -1.053874 0.889052 0.000000 0.000000 -0.000001
    8 5.025910 0.000002 0.000001 0.000000 0.000000 3.141592
    9 9.203299 0.828617 -0.000001 0.000000 0.000000 -1.469692
    10 12.265707 7.447968 -0.000001 -1.570796 1.570451 0.000000
    11 -0.000008 0.000090 0.000003 0.000000 0.000000 0.000000
    12 11.236527 1.770459 3.999999 -1.570796 0.000000 0.000000
    13 11.236526 1.770458 -4.000000 -1.570796 0.000000 0.000000
    14 20.099432 0.000001 0.099096 -1.570796 0.000000 0.000000
    15 6.261313 77.310570 -53.358147 0.000000 0.000000 0.000000
    16 0.000004 -0.661568 0.189796 0.000000 0.000000 0.000000
    17 -4.235206 -0.973951 -0.470109 0.000000 0.000000 0.000000
    18 8.586528 9.606782 -3.374534 5.819041 -2.305732 0.356957
    19 0.006205 -8.451855 -0.076791 -0.183564 0.717806 0.132881
    20 5.542467 -5.175341 -0.419346 -1.557620 -0.033361 -3.785134
    21 -0.488518 -2.755602 -0.228260 -1.572657 -0.177706 0.023979
    22 0.039887 -1.511041 0.010322 -1.082681 -0.013830 0.022424
    23 0.028786 -1.157765 -0.124675 -1.025127 -0.015053 0.021620
    24 0.250027 -2.820665 -0.238396 -1.659172 -0.096485 0.161223
    25 -0.049759 -1.618042 0.080947 -0.884122 0.008641 -0.024211
    26 -0.034142 -1.160031 0.053531 -0.944119 0.008150 -0.024377
    27 0.957766 -2.746780 -0.090302 -0.057777 -0.183753 0.043824
    28 -0.033420 -1.397129 -0.011257 -0.283970 0.006340 -0.013592
    29 -0.022360 -0.957436 0.010971 -0.294056 0.006136 -0.013662
    30 -1.180681 -2.507217 -0.193859 -0.844729 -0.059117 0.074747
    31 -0.024967 -1.123934 0.017597 -1.583565 -0.012788 -0.063086
    32 -0.020057 -0.898781 0.017903 -0.698835 0.007958 -0.027493
    33 0.591323 -1.216809 0.247881 -0.837213 -0.216096 0.257682
    34 1.301545 -0.325702 0.106575 0.206802 -0.315398 -1.473233
    35 0.944516 -0.225949 0.008853 0.144123 -0.084865 -1.398731
    36 0.120153 -0.050270 -0.054489 0.287569 3.110905 1.561085
    37 2.741042 -3.469487 -7.864805 0.034138 -5.953162 0.292677
    38 0.089131 -8.399636 -0.021084 -0.244624 -0.178745 0.080149
    39 0.701867 -2.736484 -0.305915 -0.119765 0.191640 0.297512
    40 -0.032909 -1.499736 0.032285 -1.517093 0.023274 -0.030055
    41 -0.027022 -1.127703 -0.020210 -1.257302 0.024425 -0.022986
    42 0.012193 -2.846964 -0.361719 0.212911 0.247369 0.269131
    43 0.043235 -1.656596 0.068667 -1.419909 -0.022105 0.007479
    44 0.031729 -1.141298 0.051025 -1.332477 -0.014878 0.007449
    45 -0.709952 -2.835928 -0.347077 0.195392 0.261101 0.242280
    46 0.028479 -1.403067 -0.001542 -0.497878 -0.008976 -0.021057
    47 0.021413 -0.949968 0.020046 -0.474313 -0.008341 -0.019727
    48 1.387138 -2.430655 -0.178143 -0.387235 -0.142500 0.585800
    49 0.024032 -1.148574 -0.009538 -1.316396 0.024520 0.063411
    50 0.014898 -0.903521 -0.012035 -1.116529 0.012883 0.055153
    51 -0.500830 -1.315260 0.063438 0.189258 -0.614315 -2.586011
    52 1.542367 0.039149 0.016848 -0.009160 -0.003071 0.525533
    53 1.117947 0.048424 -0.005766 -0.009124 -0.031598 0.407810
    54 -0.139399 -0.111698 0.014397 0.285382 -0.030687 1.580508
    55 -7.651474 3.784335 -0.430845 1.574768 -0.030391 -0.546494
  time 11
    0 -1.998273 4.156248 -0.495831 0.000000 0.372218 0.081720
    1 4.065896 0.000000 0.000000 0.581565 0.089607 1.001026
    2 5.727314 0.000000 0.000000 0.000000 0.000000 -2.432950
    3 9.229775 0.000001 0.000000 -1.996356 0.126588 -0.216948
    4 -4.028509 2.385202 -0.139540 -1.712325 0.032869 -0.243476
    5 19.850609 -2.919322 1.053877 -1.570796 3.141592 0.000000
    6 1.136250 -0.000008 0.000000 0.000000 0.000000 0.000000
    7 0.163969 -1.053874 0.889052 0.000000 0.000000 -0.000001
    8 5.025910 0.000002 0.000001 0.000000 0.000000 3.141592
    9 9.203299 0.828617 -0.000001 0.000000 0.000000 -1.469692
    10 12.265707 7.447968 -0.000001 -1.570796 1.570451 0.000000
    11 -0.000008 0.000090 0.000003 0.000000 0.000000 0.000000
    12 11.236527 1.770459 3.999999 -1.570796 0.000000 0.000000
    13 11.236526 1.770458 -4.000000 -1.570796 0.000000 0.000000
    14 20.099432 0.000001 0.099096 -1.570796 0.000000 0.000000
    15 6.261313 77.310570 -53.358147 0.000000 0.000000 0.000000
    16 0.000004 -0.661568 0.189796 0.000000 0.000000 0.000000
    17 -4.700064 -0.805977 -0.470109 0.000000 0.000000 0.000000
    18 8.586528 9.606782 -3.374534 5.819041 -2.305732 0.356957
    19 -0.001607 -8.455762 -0.076791 -0.164721 0.668386 0.148173
    20 5.542467 -5.175341 -0.419346 -1.557620 -0.033361 -3.785134
    21 -0.488518 -2.755602 -0.228260 -1.572657 -0.177706 0.023979
    22 0.039887 -1.511041 0.010322 -1.082681 -0.013830 0.022424
    23 0.028786 -1.157765 -0.124675 -1.025127 -0.015053 0.021620
    24 0.250027 -2.820665 -0.238396 -1.659172 -0.096485 0.161223
    25 -0.049759 -1.618042 0.080947 -0.884122 0.008641 -0.024211
    26 -0.034142 -1.160031 0.053531 -0.944119 0.008150 -0.024377
    27 0.957766 -2.746780 -0.090302 -0.057777 -0.183753 0.043824
    28 -0.033420 -1.397129 -0.011257 -0.283970 0.006340 -0.013592
    29 -0.022360 -0.957436 0.010971 -0.294056 0.006136 -0.013662
    30 -1.180681 -2.507217 -0.193859 -0.844729 -0.059117 0.074747
    31 -0.024967 -1.123934 0.017597 -1.583565 -0.012788 -0.063086
    32 -0.020057 -0.898781 0.017903 -0.698835 0.007958 -0.027493
    33 0.591323 -1.216809 0.247881 -0.837213 -0.216096 0.257682
    34 1.301545 -0.325702 0.106575 0.206802 -0.315398 -1.473233
    35 0.944516 -0.225949 0.008853 0.144123 -0.084865 -1.398731
    36 0.120153 -0.050270 -0.054489 0.287569 3.110905 1.561085
    37 2.748855 -3.543708 -7.849179 0.033820 -5.955163 0.306484
    38 0.089131 -8.399636 -0.017178 -0.271237 -0.218058 0.063915
    39 0.701867 -2.736484 -0.305915 -0.119765 0.191640 0.297512
    40 -0.032909 -1.499736 0.032285 -1.517093 0.023274 -0.030055
    41 -0.027022 -1.127703 -0.020210 -1.257302 0.024425 -0.022986
    42 0.012193 -2.846964 -0.361719 0.212911 0.247369 0.269131
    43 0.043235 -1.656596 0.068667 -1.419909 -0.022105 0.007479
    44 0.031729 -1.141298 0.051025 -1.332477 -0.014878 0.007449
    45 -0.709952 -2.835928 -0.347077 0.195392 0.261101 0.242280
    46 0.028479 -1.403067 -0.001542 -0.497878 -0.008976 -0.021057
    47 0.021413 -0.949968 0.020046 -0.474313 -0.008341 -0.019727
    48 1.387138 -2.430655 -0.178143 -0.387235 -0.142500 0.585800
    49 0.024032 -1.148574 -0.009538 -1.316396 0.024520 0.063411
    50 0.014898 -0.903521 -0.012035 -1.116529 0.012883 0.055153
    51 -0.500830 -1.315260 0.063438 0.189258 -0.614315 -2.586011
    52 1.542367 0.039149 0.016848 -0.009160 -0.003071 0.525533
    53 1.117947 0.048424 -0.005766 -0.009124 -0.031598 0.407810
    54 -0.139399 -0.111698 0.014397 0.285382 -0.030687 1.580508
    55 -7.565533 3.991373 -0.426939 1.575151 -0.029721 -0.573230
  time 12
    0 -2.459225 4.324221 -0.495831 0.000000 0.372218 0.081720
    1 4.065896 0.000000 0.000000 0.581565 0.089607 1.001026
    2 5.727314 0.000000 0.000000 0.000000 0.000000 -2.432950
    3 9.229775 0.000001 0.000000 -1.964001 0.118001 -0.218613
    4 -4.028509 2.385202 -0.139540 -1.712325 0.032869 -0.243476
    5 19.850609 -2.919322 1.053877 -1.570796 3.141592 0.000000
    6 1.136250 -0.000008 0.000000 0.000000 0.000000 0.000000
    7 0.163969 -1.053874 0.889052 0.000000 0.000000 -0.000001
    8 5.025910 0.000002 0.000001 0.000000 0.000000 3.141592
    9 9.203299 0.828617 -0.000001 0.000000 0.000000 -1.469692
    10 12.265707 7.447968 -0.000001 -1.570796 1.570451 0.000000
    11 -0.000008 0.000090 0.000003 0.000000 0.000000 0.000000
    12 11.236527 1.770459 3.999999 -1.570796 0.000000 0.000000
    13 11.236526 1.770458 -4.000000 -1.570796 0.000000 0.000000
    14 20.099432 0.000001 0.099096 -1.570796 0.000000 0.000000
    15 6.261313 77.310570 -53.358147 0.000000 0.000000 0.000000
    16 0.000004 -0.661568 0.189796 0.000000 0.000000 0.000000
    17 -5.157109 -0.638003 -0.470109 0.000000 0.000000 0.000000
    18 8.586528 9.606782 -3.374534 5.819041 -2.305732 0.356957
    19 -0.009420 -8.459668 -0.080698 -0.150701 0.636954 0.161591
    20 5.542467 -5.175341 -0.419346 -1.557620 -0.033361 -3.785134
    21 -0.488518 -2.755602 -0.228260 -1.572657 -0.177706 0.023979
    22 0.039887 -1.511041 0.010322 -1.082681 -0.013830 0.022424
    23 0.028786 -1.157765 -0.124675 -1.025127 -0.015053 0.021620
    24 0.250027 -2.820665 -0.238396 -1.659172 -0.096485 0.161223
    25 -0.049759 -1.618042 0.080947 -0.884122 0.008641 -0.024211
    26 -0.034142 -1.160031 0.053531 -0.944119 0.008150 -0.024377
    27 0.957766 -2.746780 -0.090302 -0.057777 -0.183753 0.043824
    28 -0.033420 -1.397129 -0.011257 -0.283970 0.006340 -0.013592
    29 -0.022360 -0.957436 0.010971 -0.294056 0.006136 -0.013662
    30 -1.180681 -2.507217 -0.193859 -0.844729 -0.059117 0.074747
    31 -0.024967 -1.123934 0.017597 -1.583565 -0.012788 -0.063086
    32 -0.020057 -0.898781 0.017903 -0.698835 0.007958 -0.027493
    33 0.591323 -1.216809 0.247881 -0.837213 -0.216096 0.257682
    34 1.301545 -0.325702 0.106575 0.206802 -0.315398 -1.473233
    35 0.944516 -0.225949 0.008853 0.144123 -0.084865 -1.398731
    36 0.120153 -0.050270 -0.054489 0.287569 3.110905 1.561085
    37 2.760574 -3.594491 -7.810115 0.029427 -5.958072 0.313245
    38 0.085225 -8.395729 -0.017178 -0.287734 -0.239694 0.054688
    39 0.701867 -2.736484 -0.305915 -0.119765 0.191640 0.297512
    40 -0.032909 -1.499736 0.032285 -1.517093 0.023274 -0.030055
    41 -0.027022 -1.127703 -0.020210 -1.257302 0.024425 -0.022986
    42 0.012193 -2.846964 -0.361719 0.212911 0.247369 0.269131
    43 0.043235 -1.656596 0.068667 -1.419909 -0.022105 0.007479
    44 0.031729 -1.141298 0.051025 -1.332477 -0.014878 0.007449
    45 -0.709952 -2.835928 -0.347077 0.195392 0.261101 0.242280
    46 0.028479 -1.403067 -0.001542 -0.497878 -0.008976 -0.021057
    47 0.021413 -0.949968 0.020046 -0.474313 -0.008341 -0.019727
    48 1.387138 -2.430655 -0.178143 -0.387235 -0.142500 0.585800
    49 0.024032 -1.148574 -0.009538 -1.316396 0.024520 0.063411
    50 0.014898 -0.903521 -0.012035 -1.116529 0.012883 0.055153
    51 -0.500830 -1.315260 0.063438 0.189258 -0.614315 -2.586011
    52 1.542367 0.039149 0.016848 -0.009160 -0.003071 0.525533
    53 1.117947 0.048424 -0.005766 -0.009124 -0.031598 0.407810
    54 -0.139399 -0.111698 0.014397 0.285382 -0.030687 1.580508
    55 -7.510844 4.116377 -0.426939 1.575438 -0.029434 -0.590041
  time 13
    0 -2.892832 4.484383 -0.495831 0.000000 0.372218 0.081720
    1 4.065896 0.000000 0.000000 0.581565 0.089607 1.001026
    2 5.727314 0.000000 0.000000 0.000000 0.000000 -2.432950
    3 9.229775 0.000001 0.000000 -1.955839 0.109720 -0.227069
    4 -4.028509 2.385202 -0.139540 -1.712325 0.032869 -0.243476
    5 19.850609 -2.919322 1.053877 -1.570796 3.141592 0.000000
    6 1.136250 -0.000008 0.000000 0.000000 0.000000 0.000000
    7 0.163969 -1.053874 0.889052 0.000000 0.000000 -0.000001
    8 5.025910 0.000002 0.000001 0.000000 0.000000 3.141592
    9 9.203299 0.828617 -0.000001 0.000000 0.000000 -1.469692
    10 12.265707 7.447968 -0.000001 -1.570796 1.570787 0.000000
    11 -0.000008 0.000090 0.000003 0.000000 0.000000 0.000000
    12 11.236527 1.770459 3.999999 -1.570796 0.000000 0.000000
    13 11.236526 1.770458 -4.000000 -1.570796 0.000000 0.000000
    14 20.099432 0.000001 0.099096 -1.570796 0.000000 0.000000
    15 6.261313 77.310570 -53.358147 0.000000 0.000000 0.000000
    16 0.000004 -0.661568 0.189796 0.000000 0.000000 0.000000
    17 -5.594622 -0.470029 -0.470109 0.000000 0.000000 0.000000
    18 8.586528 9.606782 -3.374534 5.819041 -2.305732 0.356957
    19 -0.013326 -8.463574 -0.080698 -0.139597 0.629249 0.177246
    20 5.542467 -5.175341 -0.419346 -1.557620 -0.033361 -3.785134
    21 -0.488518 -2.755602 -0.228260 -1.572657 -0.177706 0.023979
    22 0.039887 -1.511041 0.010322 -1.082681 -0.013830 0.022424
    23 0.028786 -1.157765 -0.124675 -1.025127 -0.015053 0.021620
    24 0.250027 -2.820665 -0.238396 -1.659172 -0.096485 0.161223
    25 -0.049759 -1.618042 0.080947 -0.884122 0.008641 -0.024211
    26 -0.034142 -1.160031 0.053531 -0.944119 0.008150 -0.024377
    27 0.957766 -2.746780 -0.090302 -0.057777 -0.183753 0.043824
    28 -0.033420 -1.397129 -0.011257 -0.283970 0.006340 -0.013592
    29 -0.022360 -0.957436 0.010971 -0.294056 0.006136 -0.013662
    30 -1.180681 -2.507217 -0.193859 -0.844729 -0.059117 0.074747
    31 -0.024967 -1.123934 0.017597 -1.583565 -0.012788 -0.063086
    32 -0.020057 -0.898781 0.017903 -0.698835 0.007958 -0.027493
    33 0.591323 -1.216809 0.247881 -0.837213 -0.216096 0.257682
    34 1.301545 -0.325702 0.106575 0.206802 -0.315398 -1.473233
    35 0.944516 -0.225949 0.008853 0.144123 -0.084865 -1.398731
    36 0.120153 -0.050270 -0.054489 0.287569 3.110905 1.561085
    37 2.772293 -3.625742 -7.755426 0.017779 -5.963527 0.309912
    38 0.085225 -8.395729 -0.017178 -0.291067 -0.236142 0.054040
    39 0.701867 -2.736484 -0.305915 -0.119765 0.191640 0.297512
    40 -0.032909 -1.499736 0.032285 -1.517093 0.023274 -0.030055
    41 -0.027022 -1.127703 -0.020210 -1.257302 0.024425 -0.022986
    42 0.012193 -2.846964 -0.361719 0.212911 0.247369 0.269131
    43 0.043235 -1.656596 0.068667 -1.419909 -0.022105 0.007479
    44 0.031729 -1.141298 0.051025 -1.332477 -0.014878 0.007449
    45 -0.709952 -2.835928 -0.347077 0.195392 0.261101 0.242280
    46 0.028479 -1.403067 -0.001542 -0.497878 -0.008976 -0.021057
    47 0.021413 -0.949968 0.020046 -0.474313 -0.008341 -0.019727
    48 1.387138 -2.430655 -0.178143 -0.387235 -0.142500 0.585800
    49 0.024032 -1.148574 -0.009538 -1.316396 0.024520 0.063411
    50 0.014898 -0.903521 -0.012035 -1.116529 0.012883 0.055153
    51 -0.500830 -1.315260 0.063438 0.189258 -0.614315 -2.586011
    52 1.542367 0.039149 0.016848 -0.009160 -0.003071 0.525533
    53 1.117947 0.048424 -0.005766 -0.009124 -0.031598 0.407810
    54 -0.139399 -0.111698 0.014397 0.285382 -0.030687 1.580508
    55 -7.495219 4.139815 -0.426939 1.575438 -0.029434 -0.593528
  time 14
    0 -3.299094 4.636731 -0.495831 0.000000 0.372218 0.081720
    1 4.065896 0.000000 0.000000 0.581565 0.089607 1.001026
    2 5.727314 0.000000 0.000000 0.000000 0.000000 -2.432950
    3 9.229775 0.000001 0.000000 -1.968103 0.100239 -0.242721
    4 -4.028509 2.385202 -0.139540 -1.712325 0.032869 -0.243476
    5 19.850609 -2.919322 1.053877 -1.570796 3.141592 0.000000
    6 1.136250 -0.000008 0.000000 0.000000 0.000000 0.000000
    7 0.163969 -1.053874 0.889052 0.000000 0.000000 -0.000001
    8 5.025910 0.000002 0.000001 0.000000 0.000000 3.141592
    9 9.203299 0.828617 -0.000001 0.000000 0.000000 -1.469692
    10 12.265707 7.447968 -0.000001 -1.570796 1.570451 0.000000
    11 -0.000008 0.000090 0.000003 0.000000 0.000000 0.000000
    12 11.236527 1.770459 3.999999 -1.570796 0.000000 0.000000
    13 11.236526 1.770458 -4.000000 -1.570796 0.000000 0.000000
    14 20.099432 0.000001 0.099096 -1.570796 0.000000 0.000000
    15 6.261313 77.310570 -53.358147 0.000000 0.000000 0.000000
    16 0.000004 -0.661568 0.189796 0.000000 0.000000 0.000000
    17 -6.000885 -0.321587 -0.470109 0.000000 0.000000 0.000000
    18 8.586528 9.606782 -3.374534 5.819041 -2.305732 0.356957
    19 -0.009420 -8.467481 -0.076791 -0.128562 0.641725 0.198280
    20 5.542467 -5.175341 -0.419346 -1.557620 -0.033361 -3.785134
    21 -0.488518 -2.755602 -0.228260 -1.572657 -0.177706 0.023979
    22 0.039887 -1.511041 0.010322 -1.082681 -0.013830 0.022424
    23 0.028786 -1.157765 -0.124675 -1.025127 -0.015053 0.021620
    24 0.250027 -2.820665 -0.238396 -1.659172 -0.096485 0.161223
    25 -0.049759 -1.618042 0.080947 -0.884122 0.008641 -0.024211
    26 -0.034142 -1.160031 0.053531 -0.944119 0.008150 -0.024377
    27 0.957766 -2.746780 -0.090302 -0.057777 -0.183753 0.043824
    28 -0.033420 -1.397129 -0.011257 -0.283970 0.006340 -0.013592
    29 -0.022360 -0.957436 0.010971 -0.294056 0.006136 -0.013662
    30 -1.180681 -2.507217 -0.193859 -0.844729 -0.059117 0.074747
    31 -0.024967 -1.123934 0.017597 -1.583565 -0.012788 -0.063086
    32 -0.020057 -0.898781 0.017903 -0.698835 0.007958 -0.027493
    33 0.591323 -1.216809 0.247881 -0.837213 -0.216096 0.257682
    34 1.301545 -0.325702 0.106575 0.206802 -0.315398 -1.473233
    35 0.944516 -0.225949 0.008853 0.144123 -0.084865 -1.398731
    36 0.120153 -0.050270 -0.054489 0.287569 3.110905 1.561085
    37 2.784012 -3.645274 -7.657767 -0.002082 -5.971983 0.297914
    38 0.089131 -8.395729 -0.021084 -0.282944 -0.209607 0.060523
    39 0.701867 -2.736484 -0.305915 -0.119765 0.191640 0.297512
    40 -0.032909 -1.499736 0.032285 -1.517093 0.023274 -0.030055
    41 -0.027022 -1.127703 -0.020210 -1.257302 0.024425 -0.022986
    42 0.012193 -2.846964 -0.361719 0.212911 0.247369 0.269131
    43 0.043235 -1.656596 0.068667 -1.419909 -0.022105 0.007479
    44 0.031729 -1.141298 0.051025 -1.332477 -0.014878 0.007449
    45 -0.709952 -2.835928 -0.347077 0.195392 0.261101 0.242280
    46 0.028479 -1.403067 -0.001542 -0.497878 -0.008976 -0.021057
    47 0.021413 -0.949968 0.020046 -0.474313 -0.008341 -0.019727
    48 1.387138 -2.430655 -0.178143 -0.387235 -0.142500 0.585800
    49 0.024032 -1.148574 -0.009538 -1.316396 0.024520 0.063411
    50 0.014898 -0.903521 -0.012035 -1.116529 0.012883 0.055153
    51 -0.500830 -1.315260 0.063438 0.189258 -0.614315 -2.586011
    52 1.542367 0.039149 0.016848 -0.009160 -0.003071 0.525533
    53 1.117947 0.048424 -0.005766 -0.009124 -0.031598 0.407810
    54 -0.139399 -0.111698 0.014397 0.285382 -0.030687 1.580508
    55 -7.518657 4.089032 -0.426939 1.575438 -0.029434 -0.586732
  time 15
    0 -3.670199 4.773454 -0.495831 0.000000 0.372218 0.081720
    1 4.065896 0.000000 0.000000 0.581565 0.089607 1.001026
    2 5.727314 0.000000 0.000000 0.000000 0.000000 -2.432950
    3 9.229775 0.000001 0.000000 -1.993305 0.089794 -0.262400
    4 -4.028509 2.385202 -0.139540 -1.712325 0.032869 -0.243476
    5 19.850609 -2.919322 1.053877 -1.570796 3.141592 0.000000
    6 1.136250 -0.000008 0.000000 0.000000 0.000000 0.000000
    7 0.163969 -1.053874 0.889052 0.000000 0.000000 -0.000001
    8 5.025910 0.000002 0.000001 0.000000 0.000000 3.141592
    9 9.203299 0.828617 -0.000001 0.000000 0.000000 -1.469692
    10 12.265707 7.447968 -0.000001 -1.570796 1.570451 0.000000
    11 -0.000008 0.000090 0.000003 0.000000 0.000000 0.000000
    12 11.236527 1.770459 3.999999 -1.570796 0.000000 0.000000
    13 11.236526 1.770458 -4.000000 -1.570796 0.000000 0.000000
    14 20.099432 0.000001 0.099096 -1.570796 0.000000 0.000000
    15 6.261313 77.310570 -53.358147 0.000000 0.000000 0.000000
    16 0.000004 -0.661568 0.189796 0.000000 0.000000 0.000000
    17 -6.371990 -0.180958 -0.470109 0.000000 0.000000 0.000000
    18 8.586528 9.606782 -3.374534 5.819041 -2.305732 0.356957
    19 -0.005514 -8.467481 -0.076791 -0.117006 0.667064 0.223000
    20 5.542467 -5.175341 -0.419346 -1.557620 -0.033361 -3.785134
    21 -0.488518 -2.755602 -0.228260 -1.572657 -0.177706 0.023979
    22 0.039887 -1.511041 0.010322 -1.082681 -0.013830 0.022424
    23 0.028786 -1.157765 -0.124675 -1.025127 -0.015053 0.021620
    24 0.250027 -2.820665 -0.238396 -1.659172 -0.096485 0.161223
    25 -0.049759 -1.618042 0.080947 -0.884122 0.008641 -0.024211
    26 -0.034142 -1.160031 0.053531 -0.944119 0.008150 -0.024377
    27 0.957766 -2.746780 -0.090302 -0.057777 -0.183753 0.043824
    28 -0.033420 -1.397129 -0.011257 -0.283970 0.006340 -0.013592
    29 -0.022360 -0.957436 0.010971 -0.294056 0.006136 -0.013662
    30 -1.180681 -2.507217 -0.193859 -0.844729 -0.059117 0.074747
    31 -0.024967 -1.123934 0.017597 -1.583565 -0.012788 -0.063086
    32 -0.020057 -0.898781 0.017903 -0.698835 0.007958 -0.027493
    33 0.591323 -1.216809 0.247881 -0.837213 -0.216096 0.257682
    34 1.301545 -0.325702 0.106575 0.206802 -0.315398 -1.473233
    35 0.944516 -0.225949 0.008853 0.144123 -0.084865 -1.398731
    36 0.120153 -0.050270 -0.054489 0.287569 3.110905 1.561085
    37 2.803544 -3.656993 -7.544482 -0.026780 -5.982621 0.282011
    38 0.096944 -8.395729 -0.028897 -0.267118 -0.168785 0.071321
    39 0.701867 -2.736484 -0.305915 -0.119765 0.191640 0.297512
    40 -0.032909 -1.499736 0.032285 -1.517093 0.023274 -0.030055
    41 -0.027022 -1.127703 -0.020210 -1.257302 0.024425 -0.022986
    42 0.012193 -2.846964 -0.361719 0.212911 0.247369 0.269131
    43 0.043235 -1.656596 0.068667 -1.419909 -0.022105 0.007479
    44 0.031729 -1.141298 0.051025 -1.332477 -0.014878 0.007449
    45 -0.709952 -2.835928 -0.347077 0.195392 0.261101 0.242280
    46 0.028479 -1.403067 -0.001542 -0.497878 -0.008976 -0.021057
    47 0.021413 -0.949968 0.020046 -0.474313 -0.008341 -0.019727
    48 1.387138 -2.430655 -0.178143 -0.387235 -0.142500 0.585800
    49 0.024032 -1.148574 -0.009538 -1.316396 0.024520 0.063411
    50 0.014898 -0.903521 -0.012035 -1.116529 0.012883 0.055153
    51 -0.500830 -1.315260 0.063438 0.189258 -0.614315 -2.586011
    52 1.542367 0.039149 0.016848 -0.009160 -0.003071 0.525533
    53 1.117947 0.048424 -0.005766 -0.009124 -0.031598 0.407810
    54 -0.139399 -0.111698 0.014397 0.285382 -0.030687 1.580508
    55 -7.557721 4.003092 -0.426939 1.575151 -0.029721 -0.575555
  time 16
    0 -3.994428 4.898458 -0.495831 0.000000 0.372218 0.081720
    1 4.065896 0.000000 0.000000 0.581565 0.089607 1.001026
    2 5.727314 0.000000 0.000000 0.000000 0.000000 -2.432950
    3 9.229775 0.000001 0.000000 -2.024061 0.078783 -0.283180
    4 -4.028509 2.385202 -0.139540 -1.712325 0.032869 -0.243476
    5 19.850609 -2.919322 1.053877 -1.570796 3.141592 0.000000
    6 1.136250 -0.000008 0.000000 0.000000 0.000000 0.000000
    7 0.163969 -1.053874 0.889052 0.000000 0.000000 -0.000001
    8 5.025910 0.000002 0.000001 0.000000 0.000000 3.141592
    9 9.203299 0.828617 -0.000001 0.000000 0.000000 -1.469692
    10 12.265707 7.447968 -0.000001 -1.570796 1.570787 0.000000
    11 -0.000008 0.000090 0.000003 0.000000 0.000000 0.000000
    12 11.236527 1.770459 3.999999 -1.570796 0.000000 0.000000
    13 11.236526 1.770458 -4.000000 -1.570796 0.000000 0.000000
    14 20.099432 0.000001 0.099096 -1.570796 0.000000 0.000000
    15 6.261313 77.310570 -53.358147 0.000000 0.000000 0.000000
    16 0.000004 -0.661568 0.189796 0.000000 0.000000 0.000000
    17 -6.700125 -0.067673 -0.470109 0.000000 0.000000 0.000000
    18 8.586528 9.606782 -3.374534 5.819041 -2.305732 0.356957
    19 0.002299 -8.471387 -0.072885 -0.104583 0.697948 0.249474
    20 5.542467 -5.175341 -0.419346 -1.557620 -0.033361 -3.785134
    21 -0.488518 -2.755602 -0.228260 -1.572657 -0.177706 0.023979
    22 0.039887 -1.511041 0.010322 -1.082681 -0.013830 0.022424
    23 0.028786 -1.157765 -0.124675 -1.025127 -0.015053 0.021620
    24 0.250027 -2.820665 -0.238396 -1.659172 -0.096485 0.161223
    25 -0.049759 -1.618042 0.080947 -0.884122 0.008641 -0.024211
    26 -0.034142 -1.160031 0.053531 -0.944119 0.008150 -0.024377
    27 0.957766 -2.746780 -0.090302 -0.057777 -0.183753 0.043824
    28 -0.033420 -1.397129 -0.011257 -0.283970 0.006340 -0.013592
    29 -0.022360 -0.957436 0.010971 -0.294056 0.006136 -0.013662
    30 -1.180681 -2.507217 -0.193859 -0.844729 -0.059117 0.074747
    31 -0.024967 -1.123934 0.017597 -1.583565 -0.012788 -0.063086
    32 -0.020057 -0.898781 0.017903 -0.698835 0.007958 -0.027493
    33 0.591323 -1.216809 0.247881 -0.837213 -0.216096 0.257682
    34 1.301545 -0.325702 0.106575 0.206802 -0.315398 -1.473233
    35 0.944516 -0.225949 0.008853 0.144123 -0.084865 -1.398731
    36 0.120153 -0.050270 -0.054489 0.287569 3.110905 1.561085
    37 2.815263 -3.668712 -7.419478 -0.053133 -5.994259 0.266300
    38 0.096944 -8.395729 -0.036710 -0.247517 -0.122206 0.083815
    39 0.701867 -2.736484 -0.305915 -0.119765 0.191640 0.297512
    40 -0.032909 -1.499736 0.032285 -1.517093 0.023274 -0.030055
    41 -0.027022 -1.127703 -0.020210 -1.257302 0.024425 -0.022986
    42 0.012193 -2.846964 -0.361719 0.212911 0.247369 0.269131
    43 0.043235 -1.656596 0.068667 -1.419909 -0.022105 0.007479
    44 0.031729 -1.141298 0.051025 -1.332477 -0.014878 0.007449
    45 -0.709952 -2.835928 -0.347077 0.195392 0.261101 0.242280
    46 0.028479 -1.403067 -0.001542 -0.497878 -0.008976 -0.021057
    47 0.021413 -0.949968 0.020046 -0.474313 -0.008341 -0.019727
    48 1.387138 -2.430655 -0.178143 -0.387235 -0.142500 0.585800
    49 0.024032 -1.148574 -0.009538 -1.316396 0.024520 0.063411
    50 0.014898 -0.903521 -0.012035 -1.116529 0.012883 0.055153
    51 -0.500830 -1.315260 0.063438 0.189258 -0.614315 -2.586011
    52 1.542367 0.039149 0.016848 -0.009160 -0.003071 0.525533
    53 1.117947 0.048424 -0.005766 -0.009124 -0.031598 0.407810
    54 -0.139399 -0.111698 0.014397 0.285382 -0.030687 1.580508
    55 -7.588972 3.921058 -0.430845 1.574959 -0.030008 -0.564646
  time 17
    0 -4.263968 4.996117 -0.495831 0.000000 0.372218 0.081720
    1 4.065896 0.000000 0.000000 0.581565 0.089607 1.001026
    2 5.727314 0.000000 0.000000 0.000000 0.000000 -2.432950
    3 9.229775 0.000001 0.000000 -2.053092 0.068009 -0.302252
    4 -4.028509 2.385202 -0.139540 -1.712325 0.032869 -0.243476
    5 19.850609 -2.919322 1.053877 -1.570796 3.141592 0.000000
    6 1.136250 -0.000008 0.000000 0.000000 0.000000 0.000000
    7 0.163969 -1.053874 0.889052 0.000000 0.000000 -0.000001
    8 5.025910 0.000002 0.000001 0.000000 0.000000 3.141592
    9 9.203299 0.828617 -0.000001 0.000000 0.000000 -1.469692
    10 12.265707 7.447968 -0.000001 -1.570796 1.570787 0.000000
    11 -0.000008 0.000090 0.000003 0.000000 0.000000 0.000000
    12 11.236527 1.770459 3.999999 -1.570796 0.000000 0.000000
    13 11.236526 1.770458 -4.000000 -1.570796 0.000000 0.000000
    14 20.099432 0.000001 0.099096 -1.570796 0.000000 0.000000
    15 6.261313 77.310570 -53.358147 0.000000 0.000000 0.000000
    16 0.000004 -0.661568 0.189796 0.000000 0.000000 0.000000
    17 -6.965758 0.026080 -0.470109 0.000000 0.000000 0.000000
    18 8.586528 9.606782 -3.374534 5.819041 -2.305732 0.356957
    19 0.010112 -8.471387 -0.072885 -0.091812 0.727027 0.275162
    20 5.542467 -5.175341 -0.419346 -1.557620 -0.033361 -3.785134
    21 -0.488518 -2.755602 -0.228260 -1.572657 -0.177706 0.023979
    22 0.039887 -1.511041 0.010322 -1.082681 -0.013830 0.022424
    23 0.028786 -1.157765 -0.124675 -1.025127 -0.015053 0.021620
    24 0.250027 -2.820665 -0.238396 -1.659172 -0.096485 0.161223
    25 -0.049759 -1.618042 0.080947 -0.884122 0.008641 -0.024211
    26 -0.034142 -1.160031 0.053531 -0.944119 0.008150 -0.024377
    27 0.957766 -2.746780 -0.090302 -0.057777 -0.183753 0.043824
    28 -0.033420 -1.397129 -0.011257 -0.283970 0.006340 -0.013592
    29 -0.022360 -0.957436 0.010971 -0.294056 0.006136 -0.013662
    30 -1.180681 -2.507217 -0.193859 -0.844729 -0.059117 0.074747
    31 -0.024967 -1.123934 0.017597 -1.583565 -0.012788 -0.063086
    32 -0.020057 -0.898781 0.017903 -0.698835 0.007958 -0.027493
    33 0.591323 -1.216809 0.247881 -0.837213 -0.216096 0.257682
    34 1.301545 -0.325702 0.106575 0.206802 -0.315398 -1.473233
    35 0.944516 -0.225949 0.008853 0.144123 -0.084865 -1.398731
    36 0.120153 -0.050270 -0.054489 0.287569 3.110905 1.561085
    37 2.834795 -3.680431 -7.302287 -0.077449 -6.005534 0.253540
    38 0.096944 -8.395729 -0.040616 -0.228376 -0.078648 0.095486
    39 0.701867 -2.736484 -0.305915 -0.119765 0.191640 0.297512
    40 -0.032909 -1.499736 0.032285 -1.517093 0.023274 -0.030055
    41 -0.027022 -1.127703 -0.020210 -1.257302 0.024425 -0.022986
    42 0.012193 -2.846964 -0.361719 0.212911 0.247369 0.269131
    43 0.043235 -1.656596 0.068667 -1.419909 -0.022105 0.007479
    44 0.031729 -1.141298 0.051025 -1.332477 -0.014878 0.007449
    45 -0.709952 -2.835928 -0.347077 0.195392 0.261101 0.242280
    46 0.028479 -1.403067 -0.001542 -0.497878 -0.008976 -0.021057
    47 0.021413 -0.949968 0.020046 -0.474313 -0.008341 -0.019727
    48 1.387138 -2.430655 -0.178143 -0.387235 -0.142500 0.585800
    49 0.024032 -1.148574 -0.009538 -1.316396 0.024520 0.063411
    50 0.014898 -0.903521 -0.012035 -1.116529 0.012883 0.055153
    51 -0.500830 -1.315260 0.063438 0.189258 -0.614315 -2.586011
    52 1.542367 0.039149 0.016848 -0.009160 -0.003071 0.525533
    53 1.117947 0.048424 -0.005766 -0.009124 -0.031598 0.407810
    54 -0.139399 -0.111698 0.014397 0.285382 -0.030687 1.580508
    55 -7.612410 3.866369 -0.430845 1.574959 -0.030104 -0.557135
  time 18
    0 -4.467099 5.066432 -0.495831 0.000000 0.372218 0.081720
    1 4.065896 0.000000 0.000000 0.581565 0.089607 1.001026
    2 5.727314 0.000000 0.000000 0.000000 0.000000 -2.432950
    3 9.229775 0.000001 0.000000 -2.073161 0.058763 -0.317050
    4 -4.028509 2.385202 -0.139540 -1.712325 0.032869 -0.243476
    5 19.850609 -2.919322 1.053877 -1.570796 3.141592 0.000000
    6 1.136250 -0.000008 0.000000 0.000000 0.000000 0.000000
    7 0.163969 -1.053874 0.889052 0.000000 0.000000 -0.000001
    8 5.025910 0.000002 0.000001 0.000000 0.000000 3.141592
    9 9.203299 0.828617 -0.000001 0.000000 0.000000 -1.469692
    10 12.265707 7.447968 -0.000001 -1.570796 1.570451 0.000000
    11 -0.000008 0.000090 0.000003 0.000000 0.000000 0.000000
    12 11.236527 1.770459 3.999999 -1.570796 0.000000 0.000000
    13 11.236526 1.770458 -4.000000 -1.570796 0.000000 0.000000
    14 20.099432 0.000001 0.099096 -1.570796 0.000000 0.000000
    15 6.261313 77.310570 -53.358147 0.000000 0.000000 0.000000
    16 0.000004 -0.661568 0.189796 0.000000 0.000000 0.000000
    17 -7.172795 0.100301 -0.470109 0.000000 0.000000 0.000000
    18 8.586528 9.606782 -3.374534 5.819041 -2.305732 0.356957
    19 0.014018 -8.475293 -0.068979 -0.080153 0.747111 0.296861
    20 5.542467 -5.175341 -0.419346 -1.557620 -0.033361 -3.785134
    21 -0.488518 -2.755602 -0.228260 -1.572657 -0.177706 0.023979
    22 0.039887 -1.511041 0.010322 -1.082681 -0.013830 0.022424
    23 0.028786 -1.157765 -0.124675 -1.025127 -0.015053 0.021620
    24 0.250027 -2.820665 -0.238396 -1.659172 -0.096485 0.161223
    25 -0.049759 -1.618042 0.080947 -0.884122 0.008641 -0.024211
    26 -0.034142 -1.160031 0.053531 -0.944119 0.008150 -0.024377
    27 0.957766 -2.746780 -0.090302 -0.057777 -0.183753 0.043824
    28 -0.033420 -1.397129 -0.011257 -0.283970 0.006340 -0.013592
    29 -0.022360 -0.957436 0.010971 -0.294056 0.006136 -0.013662
    30 -1.180681 -2.507217 -0.193859 -0.844729 -0.059117 0.074747
    31 -0.024967 -1.123934 0.017597 -1.583565 -0.012788 -0.063086
    32 -0.020057 -0.898781 0.017903 -0.698835 0.007958 -0.027493
    33 0.591323 -1.216809 0.247881 -0.837213 -0.216096 0.257682
    34 1.301545 -0.325702 0.106575 0.206802 -0.315398 -1.473233
    35 0.944516 -0.225949 0.008853 0.144123 -0.084865 -1.398731
    36 0.120153 -0.050270 -0.054489 0.287569 3.110905 1.561085
    37 2.838701 -3.699963 -7.208534 -0.096609 -6.014444 0.245446
    38 0.104757 -8.395729 -0.040616 -0.214351 -0.046521 0.103790
    39 0.701867 -2.736484 -0.305915 -0.119765 0.191640 0.297512
    40 -0.032909 -1.499736 0.032285 -1.517093 0.023274 -0.030055
    41 -0.027022 -1.127703 -0.020210 -1.257302 0.024425 -0.022986
    42 0.012193 -2.846964 -0.361719 0.212911 0.247369 0.269131
    43 0.043235 -1.656596 0.068667 -1.419909 -0.022105 0.007479
    44 0.031729 -1.141298 0.051025 -1.332477 -0.014878 0.007449
    45 -0.709952 -2.835928 -0.347077 0.195392 0.261101 0.242280
    46 0.028479 -1.403067 -0.001542 -0.497878 -0.008976 -0.021057
    47 0.021413 -0.949968 0.020046 -0.474313 -0.008341 -0.019727
    48 1.387138 -2.430655 -0.178143 -0.387235 -0.142500 0.585800
    49 0.024032 -1.148574 -0.009538 -1.316396 0.024520 0.063411
    50 0.014898 -0.903521 -0.012035 -1.116529 0.012883 0.055153
    51 -0.500830 -1.315260 0.063438 0.189258 -0.614315 -2.586011
    52 1.542367 0.039149 0.016848 -0.009160 -0.003071 0.525533
    53 1.117947 0.048424 -0.005766 -0.009124 -0.031598 0.407810
    54 -0.139399 -0.111698 0.014397 0.285382 -0.030687 1.580508
    55 -7.628035 3.846837 -0.430845 1.574864 -0.030104 -0.554184
  time 19
    0 -4.599915 5.121121 -0.495831 0.000000 0.372218 0.081720
    1 4.065896 0.000000 0.000000 0.581565 0.089607 1.001026
    2 5.727314 0.000000 0.000000 0.000000 0.000000 -2.432950
    3 9.229775 0.000001 0.000000 -2.072088 0.050223 -0.318174
    4 -4.028509 2.385202 -0.139540 -1.712325 0.032869 -0.243476
    5 19.850609 -2.919322 1.053877 -1.570796 3.141592 0.000000
    6 1.136250 -0.000008 0.000000 0.000000 0.000000 0.000000
    7 0.163969 -1.053874 0.889052 0.000000 0.000000 -0.000001
    8 5.025910 0.000002 0.000001 0.000000 0.000000 3.141592
    9 9.203299 0.828617 -0.000001 0.000000 0.000000 -1.469692
    10 12.265707 7.447968 -0.000001 -1.570796 1.570787 0.000000
    11 -0.000008 0.000090 0.000003 0.000000 0.000000 0.000000
    12 11.236527 1.770459 3.999999 -1.570796 0.000000 0.000000
    13 11.236526 1.770458 -4.000000 -1.570796 0.000000 0.000000
    14 20.099432 0.000001 0.099096 -1.570796 0.000000 0.000000
    15 6.261313 77.310570 -53.358147 0.000000 0.000000 0.000000
    16 0.000004 -0.661568 0.189796 0.000000 0.000000 0.000000
    17 -7.301705 0.151083 -0.470109 0.000000 0.000000 0.000000
    18 8.586528 9.606782 -3.374534 5.819041 -2.305732 0.356957
    19 0.014018 -8.475293 -0.068979 -0.068389 0.746273 0.305867
    20 5.542467 -5.175341 -0.419346 -1.557620 -0.033361 -3.785134
    21 -0.488518 -2.755602 -0.228260 -1.572657 -0.177706 0.023979
    22 0.039887 -1.511041 0.010322 -1.082681 -0.013830 0.022424
    23 0.028786 -1.157765 -0.124675 -1.025127 -0.015053 0.021620
    24 0.250027 -2.820665 -0.238396 -1.659172 -0.096485 0.161223
    25 -0.049759 -1.618042 0.080947 -0.884122 0.008641 -0.024211
    26 -0.034142 -1.160031 0.053531 -0.944119 0.008150 -0.024377
    27 0.957766 -2.746780 -0.090302 -0.057777 -0.183753 0.043824
    28 -0.033420 -1.397129 -0.011257 -0.283970 0.006340 -0.013592
    29 -0.022360 -0.957436 0.010971 -0.294056 0.006136 -0.013662
    30 -1.180681 -2.507217 -0.193859 -0.844729 -0.059117 0.074747
    31 -0.024967 -1.123934 0.017597 -1.583565 -0.012788 -0.063086
    32 -0.020057 -0.898781 0.017903 -0.698835 0.007958 -0.027493
    33 0.591323 -1.216809 0.247881 -0.837213 -0.216096 0.257682
    34 1.301545 -0.325702 0.106575 0.206802 -0.315398 -1.473233
    35 0.944516 -0.225949 0.008853 0.144123 -0.084865 -1.398731
    36 0.120153 -0.050270 -0.054489 0.287569 3.110905 1.561085
    37 2.846514 -3.750746 -7.169471 -0.101383 -6.016899 0.253635
    38 0.104757 -8.399636 -0.040616 -0.214466 -0.042275 0.100673
    39 0.701867 -2.736484 -0.305915 -0.119765 0.191640 0.297512
    40 -0.032909 -1.499736 0.032285 -1.517093 0.023274 -0.030055
    41 -0.027022 -1.127703 -0.020210 -1.257302 0.024425 -0.022986
    42 0.012193 -2.846964 -0.361719 0.212911 0.247369 0.269131
    43 0.043235 -1.656596 0.068667 -1.419909 -0.022105 0.007479
    44 0.031729 -1.141298 0.051025 -1.332477 -0.014878 0.007449
    45 -0.709952 -2.835928 -0.347077 0.195392 0.261101 0.242280
    46 0.028479 -1.403067 -0.001542 -0.497878 -0.008976 -0.021057
    47 0.021413 -0.949968 0.020046 -0.474313 -0.008341 -0.019727
    48 1.387138 -2.430655 -0.178143 -0.387235 -0.142500 0.585800
    49 0.024032 -1.148574 -0.009538 -1.316396 0.024520 0.063411
    50 0.014898 -0.903521 -0.012035 -1.116529 0.012883 0.055153
    51 -0.500830 -1.315260 0.063438 0.189258 -0.614315 -2.586011
    52 1.542367 0.039149 0.016848 -0.009160 -0.003071 0.525533
    53 1.117947 0.048424 -0.005766 -0.009124 -0.031598 0.407810
    54 -0.139399 -0.111698 0.014397 0.285382 -0.030687 1.580508
    55 -7.569440 3.983560 -0.426939 1.575151 -0.029721 -0.572515
  time 20
    0 -4.642885 5.132840 -0.495831 0.000000 0.372218 0.081720
    1 4.065896 0.000000 0.000000 0.581565 0.089607 1.001026
    2 5.727314 0.000000 0.000000 0.000000 0.000000 -2.432950
    3 9.229775 0.000001 0.000000 -2.073161 0.058763 -0.317050
    4 -4.028509 2.385202 -0.139540 -1.712325 0.032869 -0.243476
    5 19.850609 -2.919322 1.053877 -1.570796 3.141592 0.000000
    6 1.136250 -0.000008 0.000000 0.000000 0.000000 0.000000
    7 0.163969 -1.053874 0.889052 0.000000 0.000000 -0.000001
    8 5.025910 0.000002 0.000001 0.000000 0.000000 3.141592
    9 9.203299 0.828617 -0.000001 0.000000 0.000000 -1.469692
    10 12.265707 7.447968 -0.000001 -1.570796 1.570451 0.000000
    11 -0.000008 0.000090 0.000003 0.000000 0.000000 0.000000
    12 11.236527 1.770459 3.999999 -1.570796 0.000000 0.000000
    13 11.236526 1.770458 -4.000000 -1.570796 0.000000 0.000000
    14 20.099432 0.000001 0.099096 -1.570796 0.000000 0.000000
    15 6.261313 77.310570 -53.358147 0.000000 0.000000 0.000000
    16 0.000004 -0.661568 0.189796 0.000000 0.000000 0.000000
    17 -7.344676 0.170615 -0.470109 0.000000 0.000000 0.000000
    18 8.586528 9.606782 -3.374534 5.819041 -2.305732 0.356957
    19 0.014018 -8.475293 -0.068979 -0.080153 0.747111 0.296861
    20 5.542467 -5.175341 -0.419346 -1.557620 -0.033361 -3.785134
    21 -0.488518 -2.755602 -0.228260 -1.572657 -0.177706 0.023979
    22 0.039887 -1.511041 0.010322 -1.082681 -0.013830 0.022424
    23 0.028786 -1.157765 -0.124675 -1.025127 -0.015053 0.021620
    24 0.250027 -2.820665 -0.238396 -1.659172 -0.096485 0.161223
    25 -0.049759 -1.618042 0.080947 -0.884122 0.008641 -0.024211
    26 -0.034142 -1.160031 0.053531 -0.944064 0.008150 -0.024377
    27 0.957766 -2.746780 -0.090302 -0.057777 -0.183753 0.043824
    28 -0.033420 -1.397129 -0.011257 -0.283970 0.006340 -0.013592
    29 -0.022360 -0.957436 0.010971 -0.294056 0.006136 -0.013662
    30 -1.180681 -2.507217 -0.193859 -0.844729 -0.059117 0.074747
    31 -0.024967 -1.123934 0.017597 -1.583565 -0.012788 -0.063086
    32 -0.020057 -0.898781 0.017903 -0.698835 0.007958 -0.027493
    33 0.591323 -1.216809 0.247881 -0.837213 -0.216096 0.257682
    34 1.301545 -0.325702 0.106575 0.206802 -0.315398 -1.473233
    35 0.944516 -0.225949 0.008853 0.144123 -0.084865 -1.398731
    36 0.120153 -0.050270 -0.054489 0.287569 3.110905 1.561085
    37 2.838701 -3.699963 -7.208534 -0.096609 -6.014444 0.245446
    38 0.104757 -8.395729 -0.040616 -0.214351 -0.046521 0.103790
    39 0.701867 -2.736484 -0.305915 -0.119765 0.191640 0.297512
    40 -0.032909 -1.499736 0.032285 -1.517093 0.023274 -0.030055
    41 -0.027022 -1.127703 -0.020210 -1.257302 0.024425 -0.022986
    42 0.012193 -2.846964 -0.361719 0.212911 0.247369 0.269131
    43 0.043235 -1.656596 0.068667 -1.419909 -0.022105 0.007479
    44 0.031729 -1.141298 0.051025 -1.332477 -0.014878 0.007449
    45 -0.709952 -2.835928 -0.347077 0.195392 0.261101 0.242280
    46 0.028479 -1.403067 -0.001542 -0.497878 -0.008976 -0.021057
    47 0.021413 -0.949968 0.020046 -0.474313 -0.008341 -0.019727
    48 1.387138 -2.430655 -0.178143 -0.387235 -0.142500 0.585800
    49 0.024032 -1.148574 -0.009538 -1.316396 0.024520 0.063411
    50 0.014898 -0.903521 -0.012035 -1.116529 0.012883 0.055153
    51 -0.500830 -1.315260 0.063438 0.189258 -0.614315 -2.586011
    52 1.542367 0.039149 0.016848 -0.009160 -0.003071 0.525533
    53 1.117947 0.048424 -0.005766 -0.009124 -0.031598 0.407810
    54 -0.139399 -0.111698 0.014397 0.285382 -0.030687 1.580508
    55 -7.628035 3.846837 -0.430845 1.574864 -0.030104 -0.554184
end
