// Created by Crowbar 0.34.0.0

$ModelName "weapons/tfa_cso/w_thunderbolt_v6.mdl"

$BodyGroup "studio"
{
	studio "v_sfsniper"
}

$collisionmodel "v_sfsniper.smd"
{
	$mass 9
}

$CDMaterials "models\weapons\tfa_cso\thunderbolt_v6"

$attachment "0" "root" -0.10 -19.50 -0.40 rotate -0 0 0

$Sequence "idle" {
	"anims\idle.smd"
	fps 30
}