// Created by Crowbar 0.49.0.0

$modelname "weapons/tfa_cso/c_mooncake.mdl"

$Include "csonline_gmod.qci"

$bodygroup "weapon"
{
	studio "v_mooncake_NEXON_June_Songpuen_REF"
}

$cdmaterials "models\weapons\tfa_cso\mooncake\"

$sequence "idle" {
	"v_mooncake_anims\idle"
	fps 9
	loop
	snap
}
$sequence "pullpin" {
	"v_mooncake_anims\pullpin"
	{ event 5004 6 "Mooncake.Pullpin1" }
	{ event 5004 30 "Mooncake.Pullpin2" }
	fps 30
	activity "ACT_VM_PULLPIN" 1
	snap
}
$sequence "throw" {
	"v_mooncake_anims\throw"
	fps 30
	activity "ACT_VM_THROW" 1
	snap
}
$sequence "deploy" {
	"v_mooncake_anims\deploy"
	fps 30
	activity "ACT_VM_DRAW" 1
	snap
}
