// Created by Crowbar 0.71

$modelname "weapons/tfa_cso/c_kingdombow.mdl"

$Include "csonline_gmod.qci"

$bodygroup "weapon"
{
	studio "v_y20s1bow"
}

$cdmaterials "models\weapons\tfa_cso\kingdom_bow\"

$attachment 0 "bow_bone01" 5.5 0 0

$sequence "idle" {
	"v_y20s1bow_anims\idle"
	activity "ACT_VM_IDLE" 1
	fps 30
	loop
	snap
}
$sequence "idle_empty" {
	"v_y20s1bow_anims\idle_empty"
	activity "ACT_VM_IDLE_EMPTY" 1
	fps 30
	loop
	snap
}
$sequence "shoot" {
	"v_y20s1bow_anims\shoot"
	activity "ACT_VM_PRIMARYATTACK" 1
	fps 30
}
$sequence "shoot_empty" {
	"v_y20s1bow_anims\shoot_empty"
	activity "ACT_VM_PRIMARYATTACK_EMPTY" 1
	fps 30
	snap
}
$sequence "draw" {
	"v_y20s1bow_anims\draw"
	activity "ACT_VM_DRAW" 1
	{ event 5004 14 "Bow.Draw" }
	fps 30
	snap
}
$sequence "draw_empty" {
	"v_y20s1bow_anims\draw_empty"
	activity "ACT_VM_DRAW_EMPTY" 1
	fps 30
	snap
}
$sequence "charge_start" {
	"v_y20s1bow_anims\charge_start"
	{ event 5004 1 "Bow.ChargeStart1" }
	{ event 5004 13 "Bow.ChargeStart2" }
	fps 30
	snap
}
$sequence "charge" {
	"v_y20s1bow_anims\charge"
	activity "ACT_VM_ATTACH_SILENCER" 1
	{ event 5004 1 "Bow.ChargeStart1" }
	{ event 5004 13 "Bow.ChargeStart2" }
	{ event 5004 33 "Bow.ChargeFinish" }
	fps 30
	snap
}
$sequence "charge_finish" {
	"v_y20s1bow_anims\charge_finish"
	{ event 5004 1 "Bow.ChargeFinish" }
	fps 30
	snap
}
$sequence "charge_idle1" {
	"v_y20s1bow_anims\charge_idle1"
	fps 30
	loop
	snap
}
$sequence "charge_idle2" {
	"v_y20s1bow_anims\charge_idle2"
	activity "ACT_VM_IDLE_SILENCED" 1
	fps 30
	loop
	snap
}
$sequence "charge_shoot1" {
	"v_y20s1bow_anims\charge_shoot1"
	fps 30
	snap
}
$sequence "charge_shoot1_empty" {
	"v_y20s1bow_anims\charge_shoot1_empty"
	fps 30
	snap
}
$sequence "charge_shoot2" {
	"v_y20s1bow_anims\charge_shoot2"
	activity "ACT_VM_PRIMARYATTACK_SILENCED" 1
	fps 30
	snap
}
$sequence "charge_shoot2_empty" {
	"v_y20s1bow_anims\charge_shoot2_empty"
	fps 30
	snap
}
