// Created by Crowbar 0.71

$modelname "weapons/tfa_cso/c_c4.mdl"

$include "csonline_gmod.qci"

$bodygroup "weapon"
{
	studio "c4_template"
}

$cdmaterials "models\weapons\tfa_cso\c4\"

$sequence "idle1" {
	"v_c4_anims\idle1"
	activity "ACT_VM_IDLE" 1
	fps 12
	snap
}
$sequence "draw" {
	"v_c4_anims\draw"
	activity "ACT_VM_DRAW" 1
	fps 30
	snap
}
$sequence "drop" {
	"v_c4_anims\drop"
	activity "ACT_VM_SECONDARYATTACK" 1
	fps 30
	snap
}
$sequence "pressbutton" {
	"v_c4_anims\pressbutton"
	activity "ACT_VM_PRIMARYATTACK" 1
	{ event 5004 39 "C4.Click" }
	{ event 5004 47 "C4.Click" }
	{ event 5004 54 "C4.Click" }
	{ event 5004 62 "C4.Click" }
	{ event 5004 70 "C4.Click" }
	{ event 5004 78 "C4.Click" }
	{ event 5004 84 "C4.Click" }
	fps 33
}
