version 1
nodes
  0 "Bone01" -1
  1 "Bone_Lefthand" 0
  2 "Bone02" 1
  3 "Bone03" 2
  4 "Bone52" 3
  5 "Bone25" 3
  6 "Bone50" 3
  7 "Bone48" 3
  8 "Bone 04" 1
  9 "Bone13" 8
  10 "Bone14" 9
  11 "Bone15" 10
  12 "Bone17" 8
  13 "Bone18" 12
  14 "Bone19" 13
  15 "Bone21" 8
  16 "Bone22" 15
  17 "Bone23" 16
  18 "Bone05" 8
  19 "Bone06" 18
  20 "Bone07" 19
  21 "Bone09" 8
  22 "Bone10" 21
  23 "Bone11" 22
  24 "Bone04" -1
  25 "Bone_Righthand" 24
  26 "Bone26" 25
  27 "Bone35" 26
  28 "Bone36" 27
  29 "Bone37" 28
  30 "Bone31" 26
  31 "Bone32" 30
  32 "Bone33" 31
  33 "Bone39" 26
  34 "Bone40" 33
  35 "Bone41" 34
  36 "Bone43" 26
  37 "Bone44" 36
  38 "Bone45" 37
  39 "Bone27" 26
  40 "Bone28" 39
  41 "Bone29" 40
end
skeleton
  time 0
    0 3.610336 5.861051 -8.666730 -0.495141 -0.737202 0.336709
    1 0.000000 -8.563282 -0.000001 0.407013 0.191203 -0.136219
    2 -0.222119 -3.429973 0.817995 -1.247038 1.437608 -1.233845
    3 0.000000 2.338128 0.839328 0.000000 0.000000 0.000000
    4 -0.000001 -5.493103 2.360612 0.000000 0.000000 0.000000
    5 0.000000 -3.357312 1.408874 0.000000 0.000000 0.000000
    6 -0.000001 -6.122600 1.221523 0.033089 0.000000 0.000000
    7 1.015656 -1.830839 -8.320437 -1.891151 0.561771 -0.255249
    8 -0.003479 -0.404829 0.000000 0.000000 0.000000 0.000000
    9 -0.519310 -2.501155 -0.278957 -1.003564 0.000000 -0.122173
    10 -0.010598 -1.208185 0.000000 -1.148417 0.000000 0.000000
    11 0.000000 -0.763066 0.000000 -0.841249 0.000000 0.000000
    12 0.105980 -2.607135 -0.278957 -0.795871 0.000000 -0.148353
    13 0.000000 -1.250579 0.000000 -1.296776 0.000000 0.000000
    14 0.000000 -0.932634 0.000000 -0.886645 0.000000 0.000000
    15 0.763063 -2.490556 -0.278957 -0.346932 0.039309 0.239193
    16 -0.012323 -1.280918 0.000000 -0.322892 0.000000 0.000000
    17 -0.001696 -0.749371 0.000000 -0.593412 0.000000 0.000000
    18 0.354566 0.016267 0.318133 0.834772 -0.606745 -1.212439
    19 1.887166 0.012878 0.000000 -0.305433 0.000000 -0.401426
    20 1.001874 -0.000270 0.000000 0.000000 0.000000 -0.488692
    21 -1.123360 -2.195093 -0.278957 -0.933751 0.000000 -0.087266
    22 0.010772 -0.963792 0.000000 -0.610865 0.000000 0.000000
    23 -0.010412 -0.631916 0.000000 -1.370074 0.000000 0.000000
    24 -12.206916 -0.829865 -11.072899 0.089520 2.956327 -5.002633
    25 0.089930 -8.539255 0.023437 0.159048 -0.011461 0.694632
    26 0.000000 -0.359712 0.000000 0.000000 0.000000 0.000000
    27 -0.170479 -2.636147 -0.277657 -0.865717 0.000000 0.000000
    28 0.010599 -1.261176 0.000002 -1.012268 0.000000 0.000000
    29 -0.000001 -0.943233 -0.000002 -1.165845 0.000000 0.000000
    30 -0.827563 -2.508972 -0.277657 -0.820333 0.000000 0.000000
    31 0.000000 -1.292971 0.000001 -1.225206 0.000000 0.000000
    32 0.000000 -0.752465 0.000000 -1.104789 0.000000 0.000000
    33 0.444213 -2.561959 -0.277657 -1.004799 -0.046226 -0.024599
    34 0.021022 -1.208186 0.000001 -1.139661 0.000000 0.000000
    35 0.010597 -0.741867 -0.000001 -1.055917 0.000000 0.000000
    36 1.047445 -2.222820 -0.277657 -0.822242 -0.078971 -0.038609
    37 0.000000 -0.996224 -0.000002 -1.110021 0.000000 0.000000
    38 -0.000001 -0.614690 0.000000 -0.890112 0.000000 0.000000
    39 -0.308253 -0.007813 0.307166 0.175718 -0.454303 -2.252111
    40 1.978376 0.019542 -0.000001 -0.087502 0.026092 0.922534
    41 0.982425 0.003186 0.000001 0.000000 0.000000 0.582925
  time 1
    0 3.633774 5.849331 -8.655010 -0.494897 -0.737259 0.336517
    1 0.000000 -8.563282 -0.000001 0.406915 0.195451 -0.137476
    2 -0.222119 -3.429973 0.817995 -1.247038 1.437608 -1.233845
    3 0.000000 2.338128 0.839328 0.000000 0.000000 0.000000
    4 -0.000001 -5.493103 2.360612 0.000000 0.000000 0.000000
    5 0.000000 -3.357312 1.408874 0.000000 0.000000 0.000000
    6 -0.000001 -6.122600 1.221523 0.031579 0.000000 0.000000
    7 0.582049 -2.471484 -7.105556 -1.614242 0.479544 -0.143267
    8 -0.003479 -0.404829 0.000000 0.000000 0.000000 0.000000
    9 -0.519310 -2.501155 -0.278957 -1.003564 0.000000 -0.122173
    10 -0.010598 -1.208185 0.000000 -1.148417 0.000000 0.000000
    11 0.000000 -0.763066 0.000000 -0.841249 0.000000 0.000000
    12 0.105980 -2.607135 -0.278957 -0.795871 0.000000 -0.148353
    13 0.000000 -1.250579 0.000000 -1.296776 0.000000 0.000000
    14 0.000000 -0.932634 0.000000 -0.886645 0.000000 0.000000
    15 0.763063 -2.490556 -0.278957 -0.346932 0.039309 0.239193
    16 -0.012323 -1.280918 0.000000 -0.322892 0.000000 0.000000
    17 -0.001696 -0.749371 0.000000 -0.593412 0.000000 0.000000
    18 0.354566 0.016267 0.318133 0.834772 -0.606745 -1.212439
    19 1.887166 0.012878 0.000000 -0.305433 0.000000 -0.401426
    20 1.001874 -0.000270 0.000000 0.000000 0.000000 -0.488692
    21 -1.123360 -2.195093 -0.278957 -0.933751 0.000000 -0.087266
    22 0.010772 -0.963792 0.000000 -0.610865 0.000000 0.000000
    23 -0.010412 -0.631916 0.000000 -1.370074 0.000000 0.000000
    24 -10.863125 -0.560326 -10.502569 0.163855 2.968881 -5.091248
    25 0.089930 -8.539255 0.023437 0.146632 0.007166 0.724060
    26 0.000000 -0.359712 0.000000 0.000000 0.000000 0.000000
    27 -0.170479 -2.636147 -0.277657 -0.872066 0.000000 0.000000
    28 0.010599 -1.261176 0.000002 -1.021455 0.000000 0.000000
    29 -0.000001 -0.943233 -0.000002 -1.171984 0.000000 0.000000
    30 -0.827563 -2.508972 -0.277657 -0.828375 0.000443 0.001067
    31 0.000000 -1.292971 0.000001 -1.234897 0.000000 0.000000
    32 0.000000 -0.752465 0.000000 -1.113100 0.000000 0.000000
    33 0.444213 -2.561959 -0.277657 -1.011658 -0.046226 -0.024599
    34 0.021022 -1.208186 0.000001 -1.143668 0.000000 0.000000
    35 0.010597 -0.741867 -0.000001 -1.058310 0.000000 0.000000
    36 1.047445 -2.222820 -0.277657 -0.827670 -0.078971 -0.038609
    37 0.000000 -0.996224 -0.000002 -1.112157 0.000000 0.000000
    38 -0.000001 -0.614690 0.000000 -0.891562 0.000000 0.000000
    39 -0.308253 -0.007813 0.307166 0.175921 -0.457659 -2.252645
    40 1.978376 0.019542 -0.000001 -0.087358 0.026583 0.928094
    41 0.982425 0.003186 0.000001 0.000000 0.000000 0.593941
  time 2
    0 3.657212 5.837612 -8.643291 -0.494653 -0.737315 0.336326
    1 0.000000 -8.563282 -0.000001 0.406751 0.199806 -0.138873
    2 -0.222119 -3.429973 0.817995 -1.247038 1.437608 -1.233845
    3 0.000000 2.338128 0.839328 0.000000 0.000000 0.000000
    4 -0.000001 -5.493103 2.360612 0.000000 0.000000 0.000000
    5 0.000000 -3.357312 1.408874 0.000000 0.000000 0.000000
    6 -0.000001 -6.122600 1.221523 0.031519 0.000000 0.000000
    7 0.136723 -3.100409 -5.789110 -1.341027 0.359392 -0.062370
    8 -0.003479 -0.404829 0.000000 0.000000 0.000000 0.000000
    9 -0.519310 -2.501155 -0.278957 -1.003564 0.000000 -0.122173
    10 -0.010598 -1.208185 0.000000 -1.148417 0.000000 0.000000
    11 0.000000 -0.763066 0.000000 -0.841249 0.000000 0.000000
    12 0.105980 -2.607135 -0.278957 -0.795871 0.000000 -0.148353
    13 0.000000 -1.250579 0.000000 -1.296776 0.000000 0.000000
    14 0.000000 -0.932634 0.000000 -0.886645 0.000000 0.000000
    15 0.763063 -2.490556 -0.278957 -0.346932 0.039309 0.239193
    16 -0.012323 -1.280918 0.000000 -0.322892 0.000000 0.000000
    17 -0.001696 -0.749371 0.000000 -0.593412 0.000000 0.000000
    18 0.354566 0.016267 0.318133 0.834772 -0.606745 -1.212439
    19 1.887166 0.012878 0.000000 -0.305433 0.000000 -0.401426
    20 1.001874 -0.000270 0.000000 0.000000 0.000000 -0.488692
    21 -1.123360 -2.195093 -0.278957 -0.933751 0.000000 -0.087266
    22 0.010772 -0.963792 0.000000 -0.610865 0.000000 0.000000
    23 -0.010412 -0.631916 0.000000 -1.370074 0.000000 0.000000
    24 -9.187292 -0.310318 -10.080682 0.243937 2.975722 -5.183741
    25 0.089930 -8.535349 0.027344 0.179719 0.011661 0.736293
    26 0.000000 -0.359712 0.000000 0.000000 0.000000 0.000000
    27 -0.170479 -2.636147 -0.277657 -0.885994 0.000000 0.000000
    28 0.010599 -1.261176 0.000002 -1.041676 0.000000 0.000000
    29 -0.000001 -0.943233 -0.000002 -1.185473 0.000000 0.000000
    30 -0.827563 -2.508972 -0.277657 -0.846068 0.001498 0.003416
    31 0.000000 -1.292971 0.000001 -1.256284 0.000000 0.000000
    32 0.000000 -0.752465 0.000000 -1.131376 0.000000 0.000000
    33 0.444213 -2.561959 -0.277657 -1.026709 -0.046226 -0.024599
    34 0.021022 -1.208186 0.000001 -1.152424 0.000000 0.000000
    35 0.010597 -0.741867 -0.000001 -1.063567 0.000000 0.000000
    36 1.047445 -2.222820 -0.277657 -0.839531 -0.078971 -0.038609
    37 0.000000 -0.996224 -0.000002 -1.116855 0.000000 0.000000
    38 -0.000001 -0.614690 0.000000 -0.894762 0.000000 0.000000
    39 -0.308253 -0.007813 0.307166 0.176437 -0.465017 -2.253854
    40 1.978376 0.019542 -0.000001 -0.087010 0.027662 0.940395
    41 0.982425 0.003186 0.000001 0.000000 0.000000 0.618140
  time 3
    0 3.680650 5.825893 -8.627666 -0.494327 -0.737428 0.336038
    1 0.000000 -8.563282 -0.000001 0.406621 0.204201 -0.140375
    2 -0.222119 -3.429973 0.817995 -1.247038 1.437608 -1.233845
    3 0.000000 2.338128 0.839328 0.000000 0.000000 0.000000
    4 -0.000001 -5.493103 2.360612 0.000000 0.000000 0.000000
    5 0.000000 -3.357312 1.408874 0.000000 0.000000 0.000000
    6 -0.000001 -6.122600 1.221523 0.032502 0.000000 0.000000
    7 -0.359386 -3.655114 -4.269532 -1.088647 0.224324 -0.020320
    8 -0.003479 -0.404829 0.000000 0.000000 0.000000 0.000000
    9 -0.519310 -2.501155 -0.278957 -1.003564 0.000000 -0.122173
    10 -0.010598 -1.208185 0.000000 -1.148417 0.000000 0.000000
    11 0.000000 -0.763066 0.000000 -0.841249 0.000000 0.000000
    12 0.105980 -2.607135 -0.278957 -0.795871 0.000000 -0.148353
    13 0.000000 -1.250579 0.000000 -1.296776 0.000000 0.000000
    14 0.000000 -0.932634 0.000000 -0.886645 0.000000 0.000000
    15 0.763063 -2.490556 -0.278957 -0.346932 0.039309 0.239193
    16 -0.012323 -1.280918 0.000000 -0.322892 0.000000 0.000000
    17 -0.001696 -0.749371 0.000000 -0.593412 0.000000 0.000000
    18 0.354566 0.016267 0.318133 0.834772 -0.606745 -1.212439
    19 1.887166 0.012878 0.000000 -0.305433 0.000000 -0.401426
    20 1.001874 -0.000270 0.000000 0.000000 0.000000 -0.488692
    21 -1.123360 -2.195093 -0.278957 -0.933751 0.000000 -0.087266
    22 0.010772 -0.963792 0.000000 -0.610865 0.000000 0.000000
    23 -0.010412 -0.631916 0.000000 -1.370074 0.000000 0.000000
    24 -7.003632 0.037349 -9.842393 0.324396 2.975239 -5.276422
    25 0.089930 -8.535349 0.027344 0.224187 0.012953 0.749942
    26 0.000000 -0.359712 0.000000 0.000000 0.000000 0.000000
    27 -0.170479 -2.636147 -0.277657 -0.899971 0.000000 0.000000
    28 0.010599 -1.261176 0.000002 -1.061897 0.000000 0.000000
    29 -0.000001 -0.943233 -0.000002 -1.198942 0.000000 0.000000
    30 -0.827563 -2.508972 -0.277657 -0.863761 0.002613 0.005741
    31 0.000000 -1.292971 0.000001 -1.277645 0.000000 0.000000
    32 0.000000 -0.752465 0.000000 -1.149673 0.000000 0.000000
    33 0.444213 -2.561959 -0.277657 -1.041806 -0.046226 -0.024599
    34 0.021022 -1.208186 0.000001 -1.161204 0.000000 0.000000
    35 0.010597 -0.741867 -0.000001 -1.068824 0.000000 0.000000
    36 1.047445 -2.222820 -0.277657 -0.851438 -0.078971 -0.038609
    37 0.000000 -0.996224 -0.000002 -1.121569 0.000000 0.000000
    38 -0.000001 -0.614690 0.000000 -0.897962 0.000000 0.000000
    39 -0.308253 -0.007813 0.307166 0.176928 -0.472364 -2.255075
    40 1.978376 0.019542 -0.000001 -0.086675 0.028729 0.952696
    41 0.982425 0.003186 0.000001 0.000000 0.000000 0.642391
  time 4
    0 3.704089 5.818081 -8.615947 -0.494083 -0.737540 0.335847
    1 0.000000 -8.563282 -0.000001 0.406424 0.208636 -0.141981
    2 -0.222119 -3.429973 0.817995 -1.247038 1.437608 -1.233845
    3 0.000000 2.338128 0.839328 0.000000 0.000000 0.000000
    4 -0.000001 -5.493103 2.360612 0.000000 0.000000 0.000000
    5 0.000000 -3.357312 1.408874 0.000000 0.000000 0.000000
    6 -0.000001 -6.122600 1.221523 0.034144 0.000000 0.000000
    7 -0.800806 -4.291852 -2.855426 -0.865008 0.098858 -0.009113
    8 -0.003479 -0.404829 0.000000 0.000000 0.000000 0.000000
    9 -0.519310 -2.501155 -0.278957 -1.003564 0.000000 -0.122173
    10 -0.010598 -1.208185 0.000000 -1.148417 0.000000 0.000000
    11 0.000000 -0.763066 0.000000 -0.841249 0.000000 0.000000
    12 0.105980 -2.607135 -0.278957 -0.795871 0.000000 -0.148353
    13 0.000000 -1.250579 0.000000 -1.296776 0.000000 0.000000
    14 0.000000 -0.932634 0.000000 -0.886645 0.000000 0.000000
    15 0.763063 -2.490556 -0.278957 -0.346932 0.039309 0.239193
    16 -0.012323 -1.280918 0.000000 -0.322892 0.000000 0.000000
    17 -0.001696 -0.749371 0.000000 -0.593412 0.000000 0.000000
    18 0.354566 0.016267 0.318133 0.834772 -0.606745 -1.212439
    19 1.887166 0.012878 0.000000 -0.305433 0.000000 -0.401426
    20 1.001874 -0.000270 0.000000 0.000000 0.000000 -0.488692
    21 -1.123360 -2.195093 -0.278957 -0.933751 0.000000 -0.087266
    22 0.010772 -0.963792 0.000000 -0.610865 0.000000 0.000000
    23 -0.010412 -0.631916 0.000000 -1.370074 0.000000 0.000000
    24 -4.859035 0.142821 -9.693951 0.399336 2.967433 -5.365604
    25 0.089930 -8.535349 0.027344 0.273929 0.012282 0.763733
    26 0.000000 -0.359712 0.000000 0.000000 0.000000 0.000000
    27 -0.170479 -2.636147 -0.277657 -0.906270 0.000000 0.000000
    28 0.010599 -1.261176 0.000002 -1.071084 0.000000 0.000000
    29 -0.000001 -0.943233 -0.000002 -1.205101 0.000000 0.000000
    30 -0.827563 -2.508972 -0.277657 -0.871804 0.003116 0.006783
    31 0.000000 -1.292971 0.000001 -1.287388 0.000000 0.000000
    32 0.000000 -0.752465 0.000000 -1.157984 0.000000 0.000000
    33 0.444213 -2.561959 -0.277657 -1.048665 -0.046226 -0.024599
    34 0.021022 -1.208186 0.000001 -1.165233 0.000000 0.000000
    35 0.010597 -0.741867 -0.000001 -1.071217 0.000000 0.000000
    36 1.047445 -2.222820 -0.277657 -0.856821 -0.078971 -0.038609
    37 0.000000 -0.996224 -0.000002 -1.123705 0.000000 0.000000
    38 -0.000001 -0.614690 0.000000 -0.899424 0.000000 0.000000
    39 -0.308253 -0.007813 0.307166 0.177180 -0.475708 -2.255623
    40 1.978376 0.019542 -0.000001 -0.086519 0.029208 0.958321
    41 0.982425 0.003186 0.000001 0.000000 0.000000 0.653381
  time 5
    0 3.727527 5.806361 -8.604228 -0.493757 -0.737653 0.335655
    1 0.000000 -8.563282 -0.000001 0.406196 0.213124 -0.143657
    2 -0.222119 -3.429973 0.817995 -1.247038 1.437608 -1.233845
    3 0.000000 2.338128 0.839328 0.000000 0.000000 0.000000
    4 -0.000001 -5.493103 2.360612 0.000000 0.000000 0.000000
    5 0.000000 -3.357312 1.408874 0.000000 0.000000 0.000000
    6 -0.000001 -6.122600 1.221523 0.036062 0.000000 0.000000
    7 -1.046907 -5.284070 -1.906179 -0.679806 0.002949 -0.011734
    8 -0.003479 -0.404829 0.000000 0.000000 0.000000 0.000000
    9 -0.519310 -2.501155 -0.278957 -1.003564 0.000000 -0.122173
    10 -0.010598 -1.208185 0.000000 -1.148417 0.000000 0.000000
    11 0.000000 -0.763066 0.000000 -0.841249 0.000000 0.000000
    12 0.105980 -2.607135 -0.278957 -0.795871 0.000000 -0.148353
    13 0.000000 -1.250579 0.000000 -1.296776 0.000000 0.000000
    14 0.000000 -0.932634 0.000000 -0.886645 0.000000 0.000000
    15 0.763063 -2.490556 -0.278957 -0.346932 0.039309 0.239193
    16 -0.012323 -1.280918 0.000000 -0.322892 0.000000 0.000000
    17 -0.001696 -0.749371 0.000000 -0.593412 0.000000 0.000000
    18 0.354566 0.016267 0.318133 0.834772 -0.606745 -1.212439
    19 1.887166 0.012878 0.000000 -0.305433 0.000000 -0.401426
    20 1.001874 -0.000270 0.000000 0.000000 0.000000 -0.488692
    21 -1.123360 -2.195093 -0.278957 -0.933751 0.000000 -0.087266
    22 0.010772 -0.963792 0.000000 -0.610865 0.000000 0.000000
    23 -0.010412 -0.631916 0.000000 -1.370074 0.000000 0.000000
    24 -3.343364 -0.490011 -9.541603 0.463083 2.953591 -5.447977
    25 0.089930 -8.535349 0.027344 0.322797 0.011065 0.776522
    26 0.000000 -0.359712 0.000000 0.000000 0.000000 0.000000
    27 -0.170479 -2.636147 -0.277657 -0.897411 0.000000 0.000000
    28 0.010599 -1.261176 0.000002 -1.058227 0.000000 0.000000
    29 -0.000001 -0.943233 -0.000002 -1.196519 0.000000 0.000000
    30 -0.827563 -2.508972 -0.277657 -0.860544 0.002409 0.005309
    31 0.000000 -1.292971 0.000001 -1.273764 0.000000 0.000000
    32 0.000000 -0.752465 0.000000 -1.146322 0.000000 0.000000
    33 0.444213 -2.561959 -0.277657 -1.039091 -0.046226 -0.024599
    34 0.021022 -1.208186 0.000001 -1.159628 0.000000 0.000000
    35 0.010597 -0.741867 -0.000001 -1.067863 0.000000 0.000000
    36 1.047445 -2.222820 -0.277657 -0.849248 -0.078971 -0.038609
    37 0.000000 -0.996224 -0.000002 -1.120715 0.000000 0.000000
    38 -0.000001 -0.614690 0.000000 -0.897374 0.000000 0.000000
    39 -0.308253 -0.007813 0.307166 0.176832 -0.471034 -2.254846
    40 1.978376 0.019542 -0.000001 -0.086747 0.028537 0.950464
    41 0.982425 0.003186 0.000001 0.000000 0.000000 0.637953
  time 6
    0 3.747059 5.798549 -8.592509 -0.493513 -0.737766 0.335272
    1 0.000000 -8.563282 -0.000001 0.405967 0.217653 -0.145369
    2 -0.222119 -3.429973 0.817995 -1.247038 1.437608 -1.233845
    3 0.000000 2.338128 0.839328 0.000000 0.000000 0.000000
    4 -0.000001 -5.493103 2.360612 0.000000 0.000000 0.000000
    5 0.000000 -3.357312 1.408874 0.000000 0.000000 0.000000
    6 -0.000001 -6.122600 1.221523 0.037823 0.000000 0.000000
    7 -1.214881 -6.245037 -1.210845 -0.549085 -0.049652 -0.007063
    8 -0.003479 -0.404829 0.000000 0.000000 0.000000 0.000000
    9 -0.519310 -2.501155 -0.278957 -1.003564 0.000000 -0.122173
    10 -0.010598 -1.208185 0.000000 -1.148417 0.000000 0.000000
    11 0.000000 -0.763066 0.000000 -0.841249 0.000000 0.000000
    12 0.105980 -2.607135 -0.278957 -0.795871 0.000000 -0.148353
    13 0.000000 -1.250579 0.000000 -1.296776 0.000000 0.000000
    14 0.000000 -0.932634 0.000000 -0.886645 0.000000 0.000000
    15 0.763063 -2.490556 -0.278957 -0.346932 0.039309 0.239193
    16 -0.012323 -1.280918 0.000000 -0.322892 0.000000 0.000000
    17 -0.001696 -0.749371 0.000000 -0.593412 0.000000 0.000000
    18 0.354566 0.016267 0.318133 0.834772 -0.606745 -1.212439
    19 1.887166 0.012878 0.000000 -0.305433 0.000000 -0.401426
    20 1.001874 -0.000270 0.000000 0.000000 0.000000 -0.488692
    21 -1.123360 -2.195093 -0.278957 -0.933751 0.000000 -0.087266
    22 0.010772 -0.963792 0.000000 -0.610865 0.000000 0.000000
    23 -0.010412 -0.631916 0.000000 -1.370074 0.000000 0.000000
    24 -2.171453 -1.286910 -9.393161 0.510497 2.936449 -5.520137
    25 0.089930 -8.535349 0.031250 0.364655 0.011065 0.787340
    26 0.000000 -0.359712 0.000000 0.000000 0.000000 0.000000
    27 -0.170479 -2.636147 -0.277657 -0.865717 0.000000 0.000000
    28 0.010599 -1.261176 0.000002 -1.012268 0.000000 0.000000
    29 -0.000001 -0.943233 -0.000002 -1.165845 0.000000 0.000000
    30 -0.827563 -2.508972 -0.277657 -0.820333 0.000000 0.000000
    31 0.000000 -1.292971 0.000001 -1.225206 0.000000 0.000000
    32 0.000000 -0.752465 0.000000 -1.104789 0.000000 0.000000
    33 0.444213 -2.561959 -0.277657 -1.004799 -0.046226 -0.024599
    34 0.021022 -1.208186 0.000001 -1.139661 0.000000 0.000000
    35 0.010597 -0.741867 -0.000001 -1.055917 0.000000 0.000000
    36 1.047445 -2.222820 -0.277657 -0.822242 -0.078971 -0.038609
    37 0.000000 -0.996224 -0.000002 -1.110021 0.000000 0.000000
    38 -0.000001 -0.614690 0.000000 -0.890112 0.000000 0.000000
    39 -0.308253 -0.007813 0.307166 0.175718 -0.454303 -2.252111
    40 1.978376 0.019542 -0.000001 -0.087502 0.026092 0.922534
    41 0.982425 0.003186 0.000001 0.000000 0.000000 0.582925
  time 7
    0 3.770497 5.790736 -8.584696 -0.493269 -0.737878 0.335080
    1 0.000000 -8.563282 -0.000001 0.405705 0.222195 -0.147150
    2 -0.222119 -3.429973 0.817995 -1.247038 1.437608 -1.233845
    3 0.000000 2.338128 0.839328 0.000000 0.000000 0.000000
    4 -0.000001 -5.493103 2.360612 0.000000 0.000000 0.000000
    5 0.000000 -3.357312 1.408874 0.000000 0.000000 0.000000
    6 -0.000001 -6.122600 1.221523 0.039094 0.000000 0.000000
    7 -1.382855 -6.788022 -0.761613 -0.460726 -0.066917 0.017387
    8 -0.003479 -0.404829 0.000000 0.000000 0.000000 0.000000
    9 -0.519310 -2.501155 -0.278957 -1.003564 0.000000 -0.122173
    10 -0.010598 -1.208185 0.000000 -1.148417 0.000000 0.000000
    11 0.000000 -0.763066 0.000000 -0.841249 0.000000 0.000000
    12 0.105980 -2.607135 -0.278957 -0.795871 0.000000 -0.148353
    13 0.000000 -1.250579 0.000000 -1.296776 0.000000 0.000000
    14 0.000000 -0.932634 0.000000 -0.886645 0.000000 0.000000
    15 0.763063 -2.490556 -0.278957 -0.346932 0.039309 0.239193
    16 -0.012323 -1.280918 0.000000 -0.322892 0.000000 0.000000
    17 -0.001696 -0.749371 0.000000 -0.593412 0.000000 0.000000
    18 0.354566 0.016267 0.318133 0.834772 -0.606745 -1.212439
    19 1.887166 0.012878 0.000000 -0.305433 0.000000 -0.401426
    20 1.001874 -0.000270 0.000000 0.000000 0.000000 -0.488692
    21 -1.123360 -2.195093 -0.278957 -0.933751 0.000000 -0.087266
    22 0.010772 -0.963792 0.000000 -0.610865 0.000000 0.000000
    23 -0.010412 -0.631916 0.000000 -1.370074 0.000000 0.000000
    24 -1.374554 -1.708798 -9.182217 0.508909 2.918342 -5.574043
    25 0.093836 -8.535349 0.031250 0.393474 0.014170 0.795310
    26 0.000000 -0.359712 0.000000 0.000000 0.000000 0.000000
    27 -0.170479 -2.636147 -0.277657 -0.808382 -0.000264 -0.000551
    28 0.010599 -1.261176 0.000002 -0.925716 0.000000 0.000000
    29 -0.000001 -0.943233 -0.000002 -1.107926 0.000000 0.000000
    30 -0.827563 -2.508972 -0.277657 -0.747756 -0.004830 -0.011242
    31 0.000000 -1.292971 0.000001 -1.133616 0.000000 0.000000
    32 0.000000 -0.752465 0.000000 -1.025464 0.000000 0.000000
    33 0.444213 -2.561959 -0.277657 -0.940130 -0.046226 -0.024599
    34 0.021022 -1.208186 0.000001 -1.110555 0.000000 0.000000
    35 0.010597 -0.741867 -0.000001 -1.038469 0.000000 0.000000
    36 1.047445 -2.222820 -0.277657 -0.772061 -0.078971 -0.038609
    37 0.000000 -0.996224 -0.000002 -1.094392 0.000000 0.000000
    38 -0.000001 -0.614690 0.000000 -0.879481 0.000000 0.000000
    39 -0.308253 -0.007813 0.307166 0.174112 -0.422975 -2.246118
    40 1.978376 0.019542 -0.000001 -0.088688 0.021610 0.871720
    41 0.982425 0.003186 0.000001 0.000000 0.000000 0.476106
  time 8
    0 3.793935 5.782923 -8.572977 -0.492943 -0.737935 0.334888
    1 0.000000 -8.563282 -0.000001 0.405444 0.226723 -0.148931
    2 -0.222119 -3.429973 0.817995 -1.247038 1.437608 -1.233845
    3 0.000000 2.338128 0.839328 0.000000 0.000000 0.000000
    4 -0.000001 -5.493103 2.360612 0.000000 0.000000 0.000000
    5 0.000000 -3.357312 1.408874 0.000000 0.000000 0.000000
    6 -0.000001 -6.122600 1.221523 0.039405 0.000000 0.000000
    7 -1.507859 -7.010685 -0.589732 -0.388411 -0.067191 0.058867
    8 -0.003479 -0.404829 0.000000 0.000000 0.000000 0.000000
    9 -0.519310 -2.501155 -0.278957 -1.003564 0.000000 -0.122173
    10 -0.010598 -1.208185 0.000000 -1.148417 0.000000 0.000000
    11 0.000000 -0.763066 0.000000 -0.841249 0.000000 0.000000
    12 0.105980 -2.607135 -0.278957 -0.795871 0.000000 -0.148353
    13 0.000000 -1.250579 0.000000 -1.296776 0.000000 0.000000
    14 0.000000 -0.932634 0.000000 -0.886645 0.000000 0.000000
    15 0.763063 -2.490556 -0.278957 -0.346932 0.039309 0.239193
    16 -0.012323 -1.280918 0.000000 -0.322892 0.000000 0.000000
    17 -0.001696 -0.749371 0.000000 -0.593412 0.000000 0.000000
    18 0.354566 0.016267 0.318133 0.834772 -0.606745 -1.212439
    19 1.887166 0.012878 0.000000 -0.305433 0.000000 -0.401426
    20 1.001874 -0.000270 0.000000 0.000000 0.000000 -0.488692
    21 -1.123360 -2.195093 -0.278957 -0.933751 0.000000 -0.087266
    22 0.010772 -0.963792 0.000000 -0.610865 0.000000 0.000000
    23 -0.010412 -0.631916 0.000000 -1.370074 0.000000 0.000000
    24 -1.038606 -1.868959 -8.908771 0.466184 2.906352 -5.603739
    25 0.093836 -8.535349 0.031250 0.403174 0.022291 0.799555
    26 0.000000 -0.359712 0.000000 0.000000 0.000000 0.000000
    27 -0.170479 -2.636147 -0.277657 -0.731902 -0.000839 -0.001953
    28 0.010599 -1.261176 0.000002 -0.806585 0.000000 0.000000
    29 -0.000001 -0.943233 -0.000002 -1.027853 0.000000 0.000000
    30 -0.827563 -2.508972 -0.277657 -0.650907 -0.011026 -0.028284
    31 0.000000 -1.292971 0.000001 -1.007426 0.000000 0.000000
    32 0.000000 -0.752465 0.000000 -0.915092 0.000000 0.000000
    33 0.444213 -2.561959 -0.277657 -0.851019 -0.046226 -0.024599
    34 0.021022 -1.208186 0.000001 -1.080661 0.000000 0.000000
    35 0.010597 -0.741867 -0.000001 -1.020531 0.000000 0.000000
    36 1.047445 -2.222820 -0.277657 -0.703632 -0.078971 -0.038609
    37 0.000000 -0.996224 -0.000002 -1.078351 0.000000 0.000000
    38 -0.000001 -0.614690 0.000000 -0.868575 0.000000 0.000000
    39 -0.308253 -0.007813 0.307166 0.172686 -0.379939 -2.237109
    40 1.978376 0.019542 -0.000001 -0.089958 0.015510 0.803732
    41 0.982425 0.003186 0.000001 0.000000 0.000000 0.325824
  time 9
    0 3.817373 5.775110 -8.561258 -0.492618 -0.738047 0.334505
    1 0.000000 -8.563282 -0.000001 0.405182 0.231265 -0.150712
    2 -0.222119 -3.429973 0.817995 -1.247038 1.437608 -1.233845
    3 0.000000 2.338128 0.839328 0.000000 0.000000 0.000000
    4 -0.000001 -5.493103 2.360612 0.000000 0.000000 0.000000
    5 0.000000 -3.357312 1.408874 0.000000 0.000000 0.000000
    6 -0.000001 -6.122600 1.221523 0.038435 0.000000 0.000000
    7 -1.609424 -7.022404 -0.562388 -0.330467 -0.055224 0.113990
    8 -0.003479 -0.404829 0.000000 0.000000 0.000000 0.000000
    9 -0.519310 -2.501155 -0.278957 -1.003564 0.000000 -0.122173
    10 -0.010598 -1.208185 0.000000 -1.148417 0.000000 0.000000
    11 0.000000 -0.763066 0.000000 -0.841249 0.000000 0.000000
    12 0.105980 -2.607135 -0.278957 -0.795871 0.000000 -0.148353
    13 0.000000 -1.250579 0.000000 -1.296776 0.000000 0.000000
    14 0.000000 -0.932634 0.000000 -0.886645 0.000000 0.000000
    15 0.763063 -2.490556 -0.278957 -0.346932 0.039309 0.239193
    16 -0.012323 -1.280918 0.000000 -0.322892 0.000000 0.000000
    17 -0.001696 -0.749371 0.000000 -0.593412 0.000000 0.000000
    18 0.354566 0.016267 0.318133 0.834772 -0.606745 -1.212439
    19 1.887166 0.012878 0.000000 -0.305433 0.000000 -0.401426
    20 1.001874 -0.000270 0.000000 0.000000 0.000000 -0.488692
    21 -1.123360 -2.195093 -0.278957 -0.933751 0.000000 -0.087266
    22 0.010772 -0.963792 0.000000 -0.610865 0.000000 0.000000
    23 -0.010412 -0.631916 0.000000 -1.370074 0.000000 0.000000
    24 -1.058138 -1.841615 -8.600168 0.438356 2.905225 -5.608468
    25 0.093836 -8.535349 0.035156 0.387644 0.037292 0.798821
    26 0.000000 -0.359712 0.000000 0.000000 0.000000 0.000000
    27 -0.170479 -2.636147 -0.277657 -0.642626 -0.001402 -0.003739
    28 0.010599 -1.261176 0.000002 -0.666984 0.000000 0.000000
    29 -0.000001 -0.943233 -0.000002 -0.934004 0.000000 0.000000
    30 -0.827563 -2.508972 -0.277657 -0.537778 -0.016263 -0.049053
    31 0.000000 -1.292971 0.000001 -0.859463 0.000000 0.000000
    32 0.000000 -0.752465 0.000000 -0.785574 0.000000 0.000000
    33 0.444213 -2.561959 -0.277657 -0.746534 -0.046226 -0.024599
    34 0.021022 -1.208186 0.000001 -1.050024 0.000000 0.000000
    35 0.010597 -0.741867 -0.000001 -1.002216 0.000000 0.000000
    36 1.047445 -2.222820 -0.277657 -0.623571 -0.078971 -0.038609
    37 0.000000 -0.996224 -0.000002 -1.061915 0.000000 0.000000
    38 -0.000001 -0.614690 0.000000 -0.857418 0.000000 0.000000
    39 -0.308253 -0.007813 0.307166 0.171643 -0.329508 -2.226650
    40 1.978376 0.019542 -0.000001 -0.090905 0.008307 0.724366
    41 0.982425 0.003186 0.000001 0.000000 0.000000 0.149176
  time 10
    0 3.836905 5.767298 -8.553445 -0.492373 -0.738160 0.334314
    1 0.000000 -8.563282 -0.000001 0.404888 0.235807 -0.152458
    2 -0.222119 -3.429973 0.817995 -1.247038 1.437608 -1.233845
    3 0.000000 2.338128 0.839328 0.000000 0.000000 0.000000
    4 -0.000001 -5.493103 2.360612 0.000000 0.000000 0.000000
    5 0.000000 -3.357312 1.408874 0.000000 0.000000 0.000000
    6 -0.000001 -6.122600 1.221523 0.035726 0.000000 0.000000
    7 -1.703177 -6.948183 -0.546762 -0.284931 -0.034753 0.178396
    8 -0.003479 -0.404829 0.000000 0.000000 0.000000 0.000000
    9 -0.519310 -2.501155 -0.278957 -1.003564 0.000000 -0.122173
    10 -0.010598 -1.208185 0.000000 -1.148417 0.000000 0.000000
    11 0.000000 -0.763066 0.000000 -0.841249 0.000000 0.000000
    12 0.105980 -2.607135 -0.278957 -0.795871 0.000000 -0.148353
    13 0.000000 -1.250579 0.000000 -1.296776 0.000000 0.000000
    14 0.000000 -0.932634 0.000000 -0.886645 0.000000 0.000000
    15 0.763063 -2.490556 -0.278957 -0.346932 0.039309 0.239193
    16 -0.012323 -1.280918 0.000000 -0.322892 0.000000 0.000000
    17 -0.001696 -0.749371 0.000000 -0.593412 0.000000 0.000000
    18 0.354566 0.016267 0.318133 0.834772 -0.606745 -1.212439
    19 1.887166 0.012878 0.000000 -0.305433 0.000000 -0.401426
    20 1.001874 -0.000270 0.000000 0.000000 0.000000 -0.488692
    21 -1.123360 -2.195093 -0.278957 -0.933751 0.000000 -0.087266
    22 0.010772 -0.963792 0.000000 -0.610865 0.000000 0.000000
    23 -0.010412 -0.631916 0.000000 -1.370074 0.000000 0.000000
    24 -1.315958 -1.697079 -8.287658 0.443422 2.915204 -5.589459
    25 0.093836 -8.531442 0.035156 0.308248 0.067890 0.785119
    26 0.000000 -0.359712 0.000000 0.000000 0.000000 0.000000
    27 -0.170479 -2.636147 -0.277657 -0.546903 -0.001750 -0.005393
    28 0.010599 -1.261176 0.000002 -0.518970 0.000000 0.000000
    29 -0.000001 -0.943233 -0.000002 -0.834652 0.000000 0.000000
    30 -0.827563 -2.508972 -0.277657 -0.416362 -0.018840 -0.071033
    31 0.000000 -1.292971 0.000001 -0.702709 0.000000 0.000000
    32 0.000000 -0.752465 0.000000 -0.648811 0.000000 0.000000
    33 0.444213 -2.561959 -0.277657 -0.635836 -0.046226 -0.024599
    34 0.021022 -1.208186 0.000001 -1.018667 0.000000 0.000000
    35 0.010597 -0.741867 -0.000001 -0.983449 0.000000 0.000000
    36 1.047445 -2.222820 -0.277657 -0.538355 -0.078971 -0.038609
    37 0.000000 -0.996224 -0.000002 -1.045099 0.000000 0.000000
    38 -0.000001 -0.614690 0.000000 -0.845985 0.000000 0.000000
    39 -0.308253 -0.007813 0.307166 0.170936 -0.275984 -2.216268
    40 1.978376 0.019542 -0.000001 -0.091289 0.000541 0.639375
    41 0.982425 0.003186 0.000001 0.000000 0.000000 -0.036635
  time 11
    0 3.860343 5.763391 -8.545632 -0.492048 -0.738216 0.334122
    1 0.000000 -8.563282 -0.000001 0.404627 0.240309 -0.154169
    2 -0.222119 -3.429973 0.817995 -1.247038 1.437608 -1.233845
    3 0.000000 2.338128 0.839328 0.000000 0.000000 0.000000
    4 -0.000001 -5.493103 2.360612 0.000000 0.000000 0.000000
    5 0.000000 -3.357312 1.408874 0.000000 0.000000 0.000000
    6 -0.000001 -6.122600 1.221523 0.030932 0.000000 0.000000
    7 -1.796930 -6.877868 -0.406133 -0.249726 -0.008967 0.247175
    8 -0.003479 -0.404829 0.000000 0.000000 0.000000 0.000000
    9 -0.519310 -2.501155 -0.278957 -1.003564 0.000000 -0.122173
    10 -0.010598 -1.208185 0.000000 -1.148417 0.000000 0.000000
    11 0.000000 -0.763066 0.000000 -0.841249 0.000000 0.000000
    12 0.105980 -2.607135 -0.278957 -0.795871 0.000000 -0.148353
    13 0.000000 -1.250579 0.000000 -1.296776 0.000000 0.000000
    14 0.000000 -0.932634 0.000000 -0.886645 0.000000 0.000000
    15 0.763063 -2.490556 -0.278957 -0.346932 0.039309 0.239193
    16 -0.012323 -1.280918 0.000000 -0.322892 0.000000 0.000000
    17 -0.001696 -0.749371 0.000000 -0.593412 0.000000 0.000000
    18 0.354566 0.016267 0.318133 0.834772 -0.606745 -1.212439
    19 1.887166 0.012878 0.000000 -0.305433 0.000000 -0.401426
    20 1.001874 -0.000270 0.000000 0.000000 0.000000 -0.488692
    21 -1.123360 -2.195093 -0.278957 -0.933751 0.000000 -0.087266
    22 0.010772 -0.963792 0.000000 -0.610865 0.000000 0.000000
    23 -0.010412 -0.631916 0.000000 -1.370074 0.000000 0.000000
    24 -1.710502 -1.517386 -7.990774 0.457488 2.931701 -5.555601
    25 0.093836 -8.531442 0.035156 0.158902 0.111824 0.751948
    26 0.000000 -0.359712 0.000000 0.000000 0.000000 0.000000
    27 -0.170479 -2.636147 -0.277657 -0.451082 -0.001738 -0.006400
    28 0.010599 -1.261176 0.000002 -0.374725 0.000000 0.000000
    29 -0.000001 -0.943233 -0.000002 -0.738072 0.000000 0.000000
    30 -0.827563 -2.508972 -0.277657 -0.294704 -0.017941 -0.091383
    31 0.000000 -1.292971 0.000001 -0.550067 0.000000 0.000000
    32 0.000000 -0.752465 0.000000 -0.516660 0.000000 0.000000
    33 0.444213 -2.561959 -0.277657 -0.528084 -0.046226 -0.024599
    34 0.021022 -1.208186 0.000001 -0.986702 0.000000 0.000000
    35 0.010597 -0.741867 -0.000001 -0.964286 0.000000 0.000000
    36 1.047445 -2.222820 -0.277657 -0.454598 -0.078971 -0.038609
    37 0.000000 -0.996224 -0.000002 -1.027951 0.000000 0.000000
    38 -0.000001 -0.614690 0.000000 -0.834336 0.000000 0.000000
    39 -0.308253 -0.007813 0.307166 0.170301 -0.223672 -2.207336
    40 1.978376 0.019542 -0.000001 -0.091001 -0.007213 0.554599
    41 0.982425 0.003186 0.000001 0.000000 0.000000 -0.214353
  time 12
    0 3.879875 5.755579 -8.537819 -0.491804 -0.738385 0.333834
    1 0.000000 -8.563282 -0.000001 0.404365 0.244757 -0.155811
    2 -0.222119 -3.429973 0.817995 -1.247038 1.437608 -1.233845
    3 0.000000 2.338128 0.839328 0.000000 0.000000 0.000000
    4 -0.000001 -5.493103 2.360612 0.000000 0.000000 0.000000
    5 0.000000 -3.357312 1.408874 0.000000 0.000000 0.000000
    6 -0.000001 -6.122600 1.221523 0.023646 0.000000 0.000000
    7 -1.945372 -6.795835 -0.120968 -0.223351 0.019271 0.315042
    8 -0.003479 -0.404829 0.000000 0.000000 0.000000 0.000000
    9 -0.519310 -2.501155 -0.278957 -1.003564 0.000000 -0.122173
    10 -0.010598 -1.208185 0.000000 -1.148417 0.000000 0.000000
    11 0.000000 -0.763066 0.000000 -0.841249 0.000000 0.000000
    12 0.105980 -2.607135 -0.278957 -0.795871 0.000000 -0.148353
    13 0.000000 -1.250579 0.000000 -1.296776 0.000000 0.000000
    14 0.000000 -0.932634 0.000000 -0.886645 0.000000 0.000000
    15 0.763063 -2.490556 -0.278957 -0.346932 0.039309 0.239193
    16 -0.012323 -1.280918 0.000000 -0.322892 0.000000 0.000000
    17 -0.001696 -0.749371 0.000000 -0.593412 0.000000 0.000000
    18 0.354566 0.016267 0.318133 0.834772 -0.606745 -1.212439
    19 1.887166 0.012878 0.000000 -0.305433 0.000000 -0.401426
    20 1.001874 -0.000270 0.000000 0.000000 0.000000 -0.488692
    21 -1.123360 -2.195093 -0.278957 -0.933751 0.000000 -0.087266
    22 0.010772 -0.963792 0.000000 -0.610865 0.000000 0.000000
    23 -0.010412 -0.631916 0.000000 -1.370074 0.000000 0.000000
    24 -2.120671 -1.365038 -7.740766 0.474048 2.951257 -5.516165
    25 0.093836 -8.531442 0.039063 -0.017540 0.154716 0.703283
    26 0.000000 -0.359712 0.000000 0.000000 0.000000 0.000000
    27 -0.170479 -2.636147 -0.277657 -0.361610 -0.001366 -0.006160
    28 0.010599 -1.261176 0.000002 -0.246358 0.000000 0.000000
    29 -0.000001 -0.943233 -0.000002 -0.652579 0.000000 0.000000
    30 -0.827563 -2.508972 -0.277657 -0.180843 -0.013734 -0.107190
    31 0.000000 -1.292971 0.000001 -0.414520 0.000000 0.000000
    32 0.000000 -0.752465 0.000000 -0.401110 0.000000 0.000000
    33 0.444213 -2.561959 -0.277657 -0.432391 -0.046226 -0.024599
    34 0.021022 -1.208186 0.000001 -0.954129 0.000000 0.000000
    35 0.010597 -0.741867 -0.000001 -0.944765 0.000000 0.000000
    36 1.047445 -2.222820 -0.277657 -0.378871 -0.078971 -0.038609
    37 0.000000 -0.996224 -0.000002 -1.010471 0.000000 0.000000
    38 -0.000001 -0.614690 0.000000 -0.822459 0.000000 0.000000
    39 -0.308253 -0.007813 0.307166 0.169282 -0.176872 -2.201228
    40 1.978376 0.019542 -0.000001 -0.090150 -0.014368 0.475770
    41 0.982425 0.003186 0.000001 0.000000 0.000000 -0.366802
  time 13
    0 3.903314 5.751672 -8.533913 -0.491559 -0.738442 0.333643
    1 0.000000 -8.563282 -0.000001 0.404104 0.249179 -0.157382
    2 -0.222119 -3.429973 0.817995 -1.247038 1.437608 -1.233845
    3 0.000000 2.338128 0.839328 0.000000 0.000000 0.000000
    4 -0.000001 -5.493103 2.360612 0.000000 0.000000 0.000000
    5 0.000000 -3.357312 1.408874 0.000000 0.000000 0.000000
    6 -0.000001 -6.122600 1.221523 0.013471 0.000000 0.000000
    7 -1.984436 -6.694269 0.160291 -0.204825 0.047251 0.376558
    8 -0.003479 -0.404829 0.000000 0.000000 0.000000 0.000000
    9 -0.519310 -2.501155 -0.278957 -1.003564 0.000000 -0.122173
    10 -0.010598 -1.208185 0.000000 -1.148417 0.000000 0.000000
    11 0.000000 -0.763066 0.000000 -0.841249 0.000000 0.000000
    12 0.105980 -2.607135 -0.278957 -0.795871 0.000000 -0.148353
    13 0.000000 -1.250579 0.000000 -1.296776 0.000000 0.000000
    14 0.000000 -0.932634 0.000000 -0.886645 0.000000 0.000000
    15 0.763063 -2.490556 -0.278957 -0.346932 0.039309 0.239193
    16 -0.012323 -1.280918 0.000000 -0.322892 0.000000 0.000000
    17 -0.001696 -0.749371 0.000000 -0.593412 0.000000 0.000000
    18 0.354566 0.016267 0.318133 0.834772 -0.606745 -1.212439
    19 1.887166 0.012878 0.000000 -0.305433 0.000000 -0.401426
    20 1.001874 -0.000270 0.000000 0.000000 0.000000 -0.488692
    21 -1.123360 -2.195093 -0.278957 -0.933751 0.000000 -0.087266
    22 0.010772 -0.963792 0.000000 -0.610865 0.000000 0.000000
    23 -0.010412 -0.631916 0.000000 -1.370074 0.000000 0.000000
    24 -2.444899 -1.322068 -7.568886 0.487055 2.969283 -5.479565
    25 0.093836 -8.531442 0.039063 -0.176121 0.187053 0.649980
    26 0.000000 -0.359712 0.000000 0.000000 0.000000 0.000000
    27 -0.170479 -2.636147 -0.277657 -0.284785 -0.000755 -0.004207
    28 0.010599 -1.261176 0.000002 -0.145900 0.000000 0.000000
    29 -0.000001 -0.943233 -0.000002 -0.586447 0.000000 0.000000
    30 -0.827563 -2.508972 -0.277657 -0.082921 -0.007263 -0.115735
    31 0.000000 -1.292971 0.000001 -0.308869 0.000000 0.000000
    32 0.000000 -0.752465 0.000000 -0.313909 0.000000 0.000000
    33 0.444213 -2.561959 -0.277657 -0.357871 -0.046226 -0.024599
    34 0.021022 -1.208186 0.000001 -0.920971 0.000000 0.000000
    35 0.010597 -0.741867 -0.000001 -0.924905 0.000000 0.000000
    36 1.047445 -2.222820 -0.277657 -0.317741 -0.078971 -0.038609
    37 0.000000 -0.996224 -0.000002 -0.992690 0.000000 0.000000
    38 -0.000001 -0.614690 0.000000 -0.810354 0.000000 0.000000
    39 -0.308253 -0.007813 0.307166 0.167221 -0.139911 -2.199371
    40 1.978376 0.019542 -0.000001 -0.088988 -0.020396 0.408748
    41 0.982425 0.003186 0.000001 0.000000 0.000000 -0.476753
  time 14
    0 3.922845 5.743860 -8.526100 -0.491315 -0.738554 0.333355
    1 0.000000 -8.563282 -0.000001 0.403875 0.253534 -0.158849
    2 -0.222119 -3.429973 0.817995 -1.247038 1.437608 -1.233845
    3 0.000000 2.338128 0.839328 0.000000 0.000000 0.000000
    4 -0.000001 -5.493103 2.360612 0.000000 0.000000 0.000000
    5 0.000000 -3.357312 1.408874 0.000000 0.000000 0.000000
    6 -0.000001 -6.122600 1.221523 0.000000 0.000000 0.000000
    7 -1.679739 -6.565359 0.394673 -0.193975 0.072146 0.426098
    8 -0.003479 -0.404829 0.000000 0.000000 0.000000 0.000000
    9 -0.519310 -2.501155 -0.278957 -1.003564 0.000000 -0.122173
    10 -0.010598 -1.208185 0.000000 -1.148417 0.000000 0.000000
    11 0.000000 -0.763066 0.000000 -0.841249 0.000000 0.000000
    12 0.105980 -2.607135 -0.278957 -0.795871 0.000000 -0.148353
    13 0.000000 -1.250579 0.000000 -1.296776 0.000000 0.000000
    14 0.000000 -0.932634 0.000000 -0.886645 0.000000 0.000000
    15 0.763063 -2.490556 -0.278957 -0.346932 0.039309 0.239193
    16 -0.012323 -1.280918 0.000000 -0.322892 0.000000 0.000000
    17 -0.001696 -0.749371 0.000000 -0.593412 0.000000 0.000000
    18 0.354566 0.016267 0.318133 0.834772 -0.606745 -1.212439
    19 1.887166 0.012878 0.000000 -0.305433 0.000000 -0.401426
    20 1.001874 -0.000270 0.000000 0.000000 0.000000 -0.488692
    21 -1.123360 -2.195093 -0.278957 -0.933751 0.000000 -0.087266
    22 0.010772 -0.963792 0.000000 -0.610865 0.000000 0.000000
    23 -0.010412 -0.631916 0.000000 -1.370074 0.000000 0.000000
    24 -2.569903 -1.458791 -7.494665 0.491139 2.980952 -5.454408
    25 0.093836 -8.531442 0.039063 -0.269470 0.207642 0.608212
    26 0.000000 -0.359712 0.000000 0.000000 0.000000 0.000000
    27 -0.170479 -2.636147 -0.277657 -0.226958 0.000000 0.000000
    28 0.010599 -1.261176 0.000002 -0.085536 0.000000 0.000000
    29 -0.000001 -0.943233 -0.000002 -0.547991 0.000000 0.000000
    30 -0.827563 -2.508972 -0.277657 -0.008834 0.000120 -0.114705
    31 0.000000 -1.292971 0.000001 -0.246122 0.000000 0.000000
    32 0.000000 -0.752465 0.000000 -0.267045 0.000000 0.000000
    33 0.444213 -2.561959 -0.277657 -0.313637 -0.046226 -0.024599
    34 0.021022 -1.208186 0.000001 -0.887295 0.000000 0.000000
    35 0.010597 -0.741867 -0.000001 -0.904725 0.000000 0.000000
    36 1.047445 -2.222820 -0.277657 -0.277734 -0.078971 -0.038609
    37 0.000000 -0.996224 -0.000002 -0.974625 0.000000 0.000000
    38 -0.000001 -0.614690 0.000000 -0.798082 0.000000 0.000000
    39 -0.308253 -0.007813 0.307166 0.163493 -0.117069 -2.203111
    40 1.978376 0.019542 -0.000001 -0.087873 -0.024783 0.359265
    41 0.982425 0.003186 0.000001 0.000000 0.000000 -0.527056
  time 15
    0 3.946284 5.739953 -8.522194 -0.491152 -0.738611 0.333259
    1 0.000000 -8.563282 -0.000001 0.403679 0.257795 -0.160176
    2 -0.222119 -3.429973 0.817995 -1.247038 1.437608 -1.233845
    3 0.000000 2.338128 0.839328 0.000000 0.000000 0.000000
    4 -0.000001 -5.493103 2.360612 0.000000 0.000000 0.000000
    5 0.000000 -3.357312 1.408874 0.000000 0.000000 0.000000
    6 -0.000001 -6.122600 1.221523 -0.031304 0.000000 0.000000
    7 -1.164098 -6.448168 0.597804 -0.190916 0.090937 0.457981
    8 -0.003479 -0.404829 0.000000 0.000000 0.000000 0.000000
    9 -0.519310 -2.501155 -0.278957 -1.003564 0.000000 -0.122173
    10 -0.010598 -1.208185 0.000000 -1.148417 0.000000 0.000000
    11 0.000000 -0.763066 0.000000 -0.841249 0.000000 0.000000
    12 0.105980 -2.607135 -0.278957 -0.795871 0.000000 -0.148353
    13 0.000000 -1.250579 0.000000 -1.296776 0.000000 0.000000
    14 0.000000 -0.932634 0.000000 -0.886645 0.000000 0.000000
    15 0.763063 -2.490556 -0.278957 -0.346932 0.039309 0.239193
    16 -0.012323 -1.280918 0.000000 -0.322892 0.000000 0.000000
    17 -0.001696 -0.749371 0.000000 -0.593412 0.000000 0.000000
    18 0.354566 0.016267 0.318133 0.834772 -0.606745 -1.212439
    19 1.887166 0.012878 0.000000 -0.305433 0.000000 -0.401426
    20 1.001874 -0.000270 0.000000 0.000000 0.000000 -0.488692
    21 -1.123360 -2.195093 -0.278957 -0.933751 0.000000 -0.087266
    22 0.010772 -0.963792 0.000000 -0.610865 0.000000 0.000000
    23 -0.010412 -0.631916 0.000000 -1.370074 0.000000 0.000000
    24 -2.546465 -1.822083 -7.557167 0.484333 2.985137 -5.439750
    25 0.093836 -8.531442 0.039063 -0.274293 0.226492 0.586647
    26 0.000000 -0.359712 0.000000 0.000000 0.000000 0.000000
    27 -0.170479 -2.636147 -0.277657 -0.185519 0.001007 0.007538
    28 0.010599 -1.261176 0.000002 -0.052059 0.000000 0.000000
    29 -0.000001 -0.943233 -0.000002 -0.528158 0.000000 0.000000
    30 -0.827563 -2.508972 -0.277657 0.044782 0.008150 -0.101617
    31 0.000000 -1.292971 0.000001 -0.212138 0.000000 0.000000
    32 0.000000 -0.752465 0.000000 -0.247203 0.000000 0.000000
    33 0.444213 -2.561959 -0.277657 -0.289795 -0.046226 -0.024599
    34 0.021022 -1.208186 0.000001 -0.853124 0.000000 0.000000
    35 0.010597 -0.741867 -0.000001 -0.884281 0.000000 0.000000
    36 1.047445 -2.222820 -0.277657 -0.251913 -0.078971 -0.038609
    37 0.000000 -0.996224 -0.000002 -0.956290 0.000000 0.000000
    38 -0.000001 -0.614690 0.000000 -0.785630 0.000000 0.000000
    39 -0.308253 -0.007813 0.307166 0.159095 -0.103850 -2.210377
    40 1.978376 0.019542 -0.000001 -0.086890 -0.028030 0.322190
    41 0.982425 0.003186 0.000001 0.000000 0.000000 -0.528962
  time 16
    0 3.965815 5.736047 -8.518288 -0.490908 -0.738723 0.332972
    1 0.000000 -8.563282 -0.000001 0.403516 0.262003 -0.161328
    2 -0.222119 -3.429973 0.817995 -1.247038 1.437608 -1.233845
    3 0.000000 2.338128 0.839328 0.000000 0.000000 0.000000
    4 -0.000001 -5.493103 2.360612 0.000000 0.000000 0.000000
    5 0.000000 -3.357312 1.408874 0.000000 0.000000 0.000000
    6 -0.000001 -6.122600 1.221523 -0.085894 0.000000 0.000000
    7 -0.695334 -6.420823 0.761871 -0.195995 0.100212 0.466582
    8 -0.003479 -0.404829 0.000000 0.000000 0.000000 0.000000
    9 -0.519310 -2.501155 -0.278957 -1.003564 0.000000 -0.122173
    10 -0.010598 -1.208185 0.000000 -1.148417 0.000000 0.000000
    11 0.000000 -0.763066 0.000000 -0.841249 0.000000 0.000000
    12 0.105980 -2.607135 -0.278957 -0.795871 0.000000 -0.148353
    13 0.000000 -1.250579 0.000000 -1.296776 0.000000 0.000000
    14 0.000000 -0.932634 0.000000 -0.886645 0.000000 0.000000
    15 0.763063 -2.490556 -0.278957 -0.346932 0.039309 0.239193
    16 -0.012323 -1.280918 0.000000 -0.322892 0.000000 0.000000
    17 -0.001696 -0.749371 0.000000 -0.593412 0.000000 0.000000
    18 0.354566 0.016267 0.318133 0.834772 -0.606745 -1.212439
    19 1.887166 0.012878 0.000000 -0.305433 0.000000 -0.401426
    20 1.001874 -0.000270 0.000000 0.000000 0.000000 -0.488692
    21 -1.123360 -2.195093 -0.278957 -0.933751 0.000000 -0.087266
    22 0.010772 -0.963792 0.000000 -0.610865 0.000000 0.000000
    23 -0.010412 -0.631916 0.000000 -1.370074 0.000000 0.000000
    24 -2.507401 -2.306473 -7.705609 0.470494 2.984654 -5.430103
    25 0.093836 -8.531442 0.042969 -0.220629 0.248149 0.578623
    26 0.000000 -0.359712 0.000000 0.000000 0.000000 0.000000
    27 -0.170479 -2.636147 -0.277657 -0.152791 0.002145 0.018468
    28 0.010599 -1.261176 0.000002 -0.023949 0.000000 0.000000
    29 -0.000001 -0.943233 -0.000002 -0.512020 0.000000 0.000000
    30 -0.827563 -2.508972 -0.277657 0.087674 0.016647 -0.077648
    31 0.000000 -1.292971 0.000001 -0.183913 0.000000 0.000000
    32 0.000000 -0.752465 0.000000 -0.232887 0.000000 0.000000
    33 0.444213 -2.561959 -0.277657 -0.270002 -0.046226 -0.024599
    34 0.021022 -1.208186 0.000001 -0.818525 0.000000 0.000000
    35 0.010597 -0.741867 -0.000001 -0.863554 0.000000 0.000000
    36 1.047445 -2.222820 -0.277657 -0.228830 -0.078971 -0.038609
    37 0.000000 -0.996224 -0.000002 -0.937734 0.000000 0.000000
    38 -0.000001 -0.614690 0.000000 -0.773010 0.000000 0.000000
    39 -0.308253 -0.007813 0.307166 0.155272 -0.092716 -2.218189
    40 1.978376 0.019542 -0.000001 -0.085908 -0.030955 0.288422
    41 0.982425 0.003186 0.000001 0.000000 0.000000 -0.507661
  time 17
    0 3.989254 5.732140 -8.510475 -0.490745 -0.738723 0.332876
    1 0.000000 -8.563282 -0.000001 0.403352 0.266104 -0.162411
    2 -0.222119 -3.429973 0.817995 -1.247038 1.437608 -1.233845
    3 0.000000 2.338128 0.839328 0.000000 0.000000 0.000000
    4 -0.000001 -5.493103 2.360612 0.000000 0.000000 0.000000
    5 0.000000 -3.357312 1.408874 0.000000 0.000000 0.000000
    6 -0.000001 -6.122600 1.221523 -0.150479 0.000000 0.000000
    7 -0.347667 -6.573172 0.871250 -0.332660 0.090628 0.331845
    8 -0.003479 -0.404829 0.000000 0.000000 0.000000 0.000000
    9 -0.519310 -2.501155 -0.278957 -1.003564 0.000000 -0.122173
    10 -0.010598 -1.208185 0.000000 -1.148417 0.000000 0.000000
    11 0.000000 -0.763066 0.000000 -0.841249 0.000000 0.000000
    12 0.105980 -2.607135 -0.278957 -0.795871 0.000000 -0.148353
    13 0.000000 -1.250579 0.000000 -1.296776 0.000000 0.000000
    14 0.000000 -0.932634 0.000000 -0.886645 0.000000 0.000000
    15 0.763063 -2.490556 -0.278957 -0.346932 0.039309 0.239193
    16 -0.012323 -1.280918 0.000000 -0.322892 0.000000 0.000000
    17 -0.001696 -0.749371 0.000000 -0.593412 0.000000 0.000000
    18 0.354566 0.016267 0.318133 0.834772 -0.606745 -1.212439
    19 1.887166 0.012878 0.000000 -0.305433 0.000000 -0.401426
    20 1.001874 -0.000270 0.000000 0.000000 0.000000 -0.488692
    21 -1.123360 -2.195093 -0.278957 -0.933751 0.000000 -0.087266
    22 0.010772 -0.963792 0.000000 -0.610865 0.000000 0.000000
    23 -0.010412 -0.631916 0.000000 -1.370074 0.000000 0.000000
    24 -2.452712 -2.724454 -7.846238 0.453404 2.980952 -5.425942
    25 0.093836 -8.531442 0.042969 -0.140862 0.266652 0.577297
    26 0.000000 -0.359712 0.000000 0.000000 0.000000 0.000000
    27 -0.170479 -2.636147 -0.277657 -0.127741 0.003308 0.031639
    28 0.010599 -1.261176 0.000002 -0.000782 0.000000 0.000000
    29 -0.000001 -0.943233 -0.000002 -0.499311 0.000000 0.000000
    30 -0.827563 -2.508972 -0.277657 0.121208 0.024856 -0.046189
    31 0.000000 -1.292971 0.000001 -0.160958 0.000000 0.000000
    32 0.000000 -0.752465 0.000000 -0.223662 0.000000 0.000000
    33 0.444213 -2.561959 -0.277657 -0.253985 -0.046226 -0.024599
    34 0.021022 -1.208186 0.000001 -0.783521 0.000000 0.000000
    35 0.010597 -0.741867 -0.000001 -0.842601 0.000000 0.000000
    36 1.047445 -2.222820 -0.277657 -0.208302 -0.078971 -0.038609
    37 0.000000 -0.996224 -0.000002 -0.918973 0.000000 0.000000
    38 -0.000001 -0.614690 0.000000 -0.760271 0.000000 0.000000
    39 -0.308253 -0.007813 0.307166 0.151808 -0.083608 -2.226574
    40 1.978376 0.019542 -0.000001 -0.084925 -0.033567 0.257873
    41 0.982425 0.003186 0.000001 0.000000 0.000000 -0.466520
  time 18
    0 4.008785 5.732140 -8.506568 -0.490582 -0.738836 0.332780
    1 0.000000 -8.563282 -0.000001 0.403254 0.270098 -0.163179
    2 -0.222119 -3.429973 0.817995 -1.247038 1.437608 -1.233845
    3 0.000000 2.338128 0.839328 0.000000 0.000000 0.000000
    4 -0.000001 -5.493103 2.360612 0.000000 0.000000 0.000000
    5 0.000000 -3.357312 1.408874 0.000000 0.000000 0.000000
    6 -0.000001 -6.122600 1.221523 -0.211792 0.000000 0.000000
    7 -0.031251 -6.830992 0.941564 -0.564206 0.020814 0.085766
    8 -0.003479 -0.404829 0.000000 0.000000 0.000000 0.000000
    9 -0.519310 -2.501155 -0.278957 -1.003564 0.000000 -0.122173
    10 -0.010598 -1.208185 0.000000 -1.148417 0.000000 0.000000
    11 0.000000 -0.763066 0.000000 -0.841249 0.000000 0.000000
    12 0.105980 -2.607135 -0.278957 -0.795871 0.000000 -0.148353
    13 0.000000 -1.250579 0.000000 -1.296776 0.000000 0.000000
    14 0.000000 -0.932634 0.000000 -0.886645 0.000000 0.000000
    15 0.763063 -2.490556 -0.278957 -0.346932 0.039309 0.239193
    16 -0.012323 -1.280918 0.000000 -0.322892 0.000000 0.000000
    17 -0.001696 -0.749371 0.000000 -0.593412 0.000000 0.000000
    18 0.354566 0.016267 0.318133 0.834772 -0.606745 -1.212439
    19 1.887166 0.012878 0.000000 -0.305433 0.000000 -0.401426
    20 1.001874 -0.000270 0.000000 0.000000 0.000000 -0.488692
    21 -1.123360 -2.195093 -0.278957 -0.933751 0.000000 -0.087266
    22 0.010772 -0.963792 0.000000 -0.610865 0.000000 0.000000
    23 -0.010412 -0.631916 0.000000 -1.370074 0.000000 0.000000
    24 -2.394116 -2.908054 -7.897021 0.436692 2.974917 -5.428023
    25 0.093836 -8.527536 0.042969 -0.068117 0.276263 0.573536
    26 0.000000 -0.359712 0.000000 0.000000 0.000000 0.000000
    27 -0.170479 -2.636147 -0.277657 -0.109334 0.004362 0.045937
    28 0.010599 -1.261176 0.000002 0.017842 0.000000 0.000000
    29 -0.000001 -0.943233 -0.000002 -0.489764 0.000000 0.000000
    30 -0.827563 -2.508972 -0.277657 0.146798 0.032418 -0.010582
    31 0.000000 -1.292971 0.000001 -0.142913 0.000000 0.000000
    32 0.000000 -0.752465 0.000000 -0.219093 0.000000 0.000000
    33 0.444213 -2.561959 -0.277657 -0.241373 -0.046226 -0.024599
    34 0.021022 -1.208186 0.000001 -0.748202 0.000000 0.000000
    35 0.010597 -0.741867 -0.000001 -0.821441 0.000000 0.000000
    36 1.047445 -2.222820 -0.277657 -0.190100 -0.078971 -0.038609
    37 0.000000 -0.996224 -0.000002 -0.900006 0.000000 0.000000
    38 -0.000001 -0.614690 0.000000 -0.747375 0.000000 0.000000
    39 -0.308253 -0.007813 0.307166 0.148561 -0.076357 -2.235532
    40 1.978376 0.019542 -0.000001 -0.083978 -0.035880 0.230480
    41 0.982425 0.003186 0.000001 0.000000 0.000000 -0.409039
  time 19
    0 4.028317 5.728234 -8.506568 -0.490420 -0.738836 0.332589
    1 0.000000 -8.563282 -0.000001 0.403221 0.273972 -0.163843
    2 -0.222119 -3.429973 0.817995 -1.247038 1.437608 -1.233845
    3 0.000000 2.338128 0.839328 0.000000 0.000000 0.000000
    4 -0.000001 -5.493103 2.360612 0.000000 0.000000 0.000000
    5 0.000000 -3.357312 1.408874 0.000000 0.000000 0.000000
    6 -0.000001 -6.122600 1.221523 -0.256542 0.000000 0.000000
    7 0.191412 -7.073187 1.011879 -0.668494 -0.051983 -0.065703
    8 -0.003479 -0.404829 0.000000 0.000000 0.000000 0.000000
    9 -0.519310 -2.501155 -0.278957 -1.003564 0.000000 -0.122173
    10 -0.010598 -1.208185 0.000000 -1.148417 0.000000 0.000000
    11 0.000000 -0.763066 0.000000 -0.841249 0.000000 0.000000
    12 0.105980 -2.607135 -0.278957 -0.795871 0.000000 -0.148353
    13 0.000000 -1.250579 0.000000 -1.296776 0.000000 0.000000
    14 0.000000 -0.932634 0.000000 -0.886645 0.000000 0.000000
    15 0.763063 -2.490556 -0.278957 -0.346932 0.039309 0.239193
    16 -0.012323 -1.280918 0.000000 -0.322892 0.000000 0.000000
    17 -0.001696 -0.749371 0.000000 -0.593412 0.000000 0.000000
    18 0.354566 0.016267 0.318133 0.834772 -0.606745 -1.212439
    19 1.887166 0.012878 0.000000 -0.305433 0.000000 -0.401426
    20 1.001874 -0.000270 0.000000 0.000000 0.000000 -0.488692
    21 -1.123360 -2.195093 -0.278957 -0.933751 0.000000 -0.087266
    22 0.010772 -0.963792 0.000000 -0.610865 0.000000 0.000000
    23 -0.010412 -0.631916 0.000000 -1.370074 0.000000 0.000000
    24 -2.370678 -2.677578 -7.826707 0.423837 2.968157 -5.436818
    25 0.093836 -8.527536 0.046875 -0.036170 0.272215 0.556736
    26 0.000000 -0.359712 0.000000 0.000000 0.000000 0.000000
    27 -0.170479 -2.636147 -0.277657 -0.096539 0.005333 0.060175
    28 0.010599 -1.261176 0.000002 0.032346 0.000000 0.000000
    29 -0.000001 -0.943233 -0.000002 -0.483050 0.000000 0.000000
    30 -0.827563 -2.508972 -0.277657 0.165709 0.039202 0.025695
    31 0.000000 -1.292971 0.000001 -0.129288 0.000000 0.000000
    32 0.000000 -0.752465 0.000000 -0.218811 0.000000 0.000000
    33 0.444213 -2.561959 -0.277657 -0.231937 -0.046226 -0.024599
    34 0.021022 -1.208186 0.000001 -0.712523 0.000000 0.000000
    35 0.010597 -0.741867 -0.000001 -0.800055 0.000000 0.000000
    36 1.047445 -2.222820 -0.277657 -0.173996 -0.078971 -0.038609
    37 0.000000 -0.996224 -0.000002 -0.880880 0.000000 0.000000
    38 -0.000001 -0.614690 0.000000 -0.734372 0.000000 0.000000
    39 -0.308253 -0.007813 0.307166 0.145373 -0.070880 -2.245138
    40 1.978376 0.019542 -0.000001 -0.083079 -0.037918 0.206114
    41 0.982425 0.003186 0.000001 0.000000 0.000000 -0.338662
  time 20
    0 4.051756 5.724328 -8.502662 -0.490338 -0.738892 0.332589
    1 0.000000 -8.563282 -0.000001 0.403254 0.277726 -0.164227
    2 -0.222119 -3.429973 0.817995 -1.247038 1.437608 -1.233845
    3 0.000000 2.338128 0.839328 0.000000 0.000000 0.000000
    4 -0.000001 -5.493103 2.360612 0.000000 0.000000 0.000000
    5 0.000000 -3.357312 1.408874 0.000000 0.000000 0.000000
    6 -0.000001 -6.122600 1.221523 -0.278941 0.000000 0.000000
    7 0.316416 -7.272412 1.097819 -0.602527 -0.068203 -0.099522
    8 -0.003479 -0.404829 0.000000 0.000000 0.000000 0.000000
    9 -0.519310 -2.501155 -0.278957 -1.003564 0.000000 -0.122173
    10 -0.010598 -1.208185 0.000000 -1.148417 0.000000 0.000000
    11 0.000000 -0.763066 0.000000 -0.841249 0.000000 0.000000
    12 0.105980 -2.607135 -0.278957 -0.795871 0.000000 -0.148353
    13 0.000000 -1.250579 0.000000 -1.296776 0.000000 0.000000
    14 0.000000 -0.932634 0.000000 -0.886645 0.000000 0.000000
    15 0.763063 -2.490556 -0.278957 -0.346932 0.039309 0.239193
    16 -0.012323 -1.280918 0.000000 -0.322892 0.000000 0.000000
    17 -0.001696 -0.749371 0.000000 -0.593412 0.000000 0.000000
    18 0.354566 0.016267 0.318133 0.834772 -0.606745 -1.212439
    19 1.887166 0.012878 0.000000 -0.305433 0.000000 -0.401426
    20 1.001874 -0.000270 0.000000 0.000000 0.000000 -0.488692
    21 -1.123360 -2.195093 -0.278957 -0.933751 0.000000 -0.087266
    22 0.010772 -0.963792 0.000000 -0.610865 0.000000 0.000000
    23 -0.010412 -0.631916 0.000000 -1.370074 0.000000 0.000000
    24 -2.339427 -2.271315 -7.689984 0.414611 2.959385 -5.455354
    25 0.093836 -8.527536 0.046875 -0.048029 0.251800 0.523296
    26 0.000000 -0.359712 0.000000 0.000000 0.000000 0.000000
    27 -0.170479 -2.636147 -0.277657 -0.088271 0.006184 0.073238
    28 0.010599 -1.261176 0.000002 0.043131 0.000000 0.000000
    29 -0.000001 -0.943233 -0.000002 -0.478985 0.000000 0.000000
    30 -0.827563 -2.508972 -0.277657 0.179211 0.045074 0.059336
    31 0.000000 -1.292971 0.000001 -0.119597 0.000000 0.000000
    32 0.000000 -0.752465 0.000000 -0.222313 0.000000 0.000000
    33 0.444213 -2.561959 -0.277657 -0.225263 -0.046226 -0.024599
    34 0.021022 -1.208186 0.000001 -0.676596 0.000000 0.000000
    35 0.010597 -0.741867 -0.000001 -0.778536 0.000000 0.000000
    36 1.047445 -2.222820 -0.277657 -0.159854 -0.078971 -0.038609
    37 0.000000 -0.996224 -0.000002 -0.861628 0.000000 0.000000
    38 -0.000001 -0.614690 0.000000 -0.721285 0.000000 0.000000
    39 -0.308253 -0.007813 0.307166 0.142029 -0.067069 -2.255419
    40 1.978376 0.019542 -0.000001 -0.082240 -0.039691 0.184647
    41 0.982425 0.003186 0.000001 0.000000 0.000000 -0.258808
  time 21
    0 4.071287 5.724328 -8.498756 -0.490257 -0.738892 0.332493
    1 0.000000 -8.563282 -0.000001 0.403352 0.281346 -0.164332
    2 -0.222119 -3.429973 0.817995 -1.247038 1.437608 -1.233845
    3 0.000000 2.338128 0.839328 0.000000 0.000000 0.000000
    4 -0.000001 -5.493103 2.360612 0.000000 0.000000 0.000000
    5 0.000000 -3.357312 1.408874 0.000000 0.000000 0.000000
    6 -0.000001 -6.122600 1.221523 -0.279960 0.000000 0.000000
    7 0.316416 -7.463824 1.187666 -0.469210 -0.071512 -0.107482
    8 -0.003479 -0.404829 0.000000 0.000000 0.000000 0.000000
    9 -0.519310 -2.501155 -0.278957 -1.003564 0.000000 -0.122173
    10 -0.010598 -1.208185 0.000000 -1.148417 0.000000 0.000000
    11 0.000000 -0.763066 0.000000 -0.841249 0.000000 0.000000
    12 0.105980 -2.607135 -0.278957 -0.795871 0.000000 -0.148353
    13 0.000000 -1.250579 0.000000 -1.296776 0.000000 0.000000
    14 0.000000 -0.932634 0.000000 -0.886645 0.000000 0.000000
    15 0.763063 -2.490556 -0.278957 -0.346932 0.039309 0.239193
    16 -0.012323 -1.280918 0.000000 -0.322892 0.000000 0.000000
    17 -0.001696 -0.749371 0.000000 -0.593412 0.000000 0.000000
    18 0.354566 0.016267 0.318133 0.834772 -0.606745 -1.212439
    19 1.887166 0.012878 0.000000 -0.305433 0.000000 -0.401426
    20 1.001874 -0.000270 0.000000 0.000000 0.000000 -0.488692
    21 -1.123360 -2.195093 -0.278957 -0.933751 0.000000 -0.087266
    22 0.010772 -0.963792 0.000000 -0.610865 0.000000 0.000000
    23 -0.010412 -0.631916 0.000000 -1.370074 0.000000 0.000000
    24 -2.194892 -2.126780 -7.522010 0.405915 2.948038 -5.483253
    25 0.097743 -8.527536 0.046875 -0.078691 0.218147 0.480739
    26 0.000000 -0.359712 0.000000 0.000000 0.000000 0.000000
    27 -0.170479 -2.636147 -0.277657 -0.083546 0.006891 0.083964
    28 0.010599 -1.261176 0.000002 0.050620 0.000000 0.000000
    29 -0.000001 -0.943233 -0.000002 -0.477178 0.000000 0.000000
    30 -0.827563 -2.508972 -0.277657 0.188520 0.050012 0.086960
    31 0.000000 -1.292971 0.000001 -0.113505 0.000000 0.000000
    32 0.000000 -0.752465 0.000000 -0.229232 0.000000 0.000000
    33 0.444213 -2.561959 -0.277657 -0.221074 -0.046226 -0.024599
    34 0.021022 -1.208186 0.000001 -0.640444 0.000000 0.000000
    35 0.010597 -0.741867 -0.000001 -0.756886 0.000000 0.000000
    36 1.047445 -2.222820 -0.277657 -0.147355 -0.078971 -0.038609
    37 0.000000 -0.996224 -0.000002 -0.842234 0.000000 0.000000
    38 -0.000001 -0.614690 0.000000 -0.708102 0.000000 0.000000
    39 -0.308253 -0.007813 0.307166 0.138374 -0.064828 -2.266412
    40 1.978376 0.019542 -0.000001 -0.081485 -0.041213 0.166013
    41 0.982425 0.003186 0.000001 0.000000 0.000000 -0.173030
  time 22
    0 4.090819 5.724328 -8.498756 -0.490257 -0.738949 0.332493
    1 0.000000 -8.563282 -0.000001 0.403516 0.284806 -0.164227
    2 -0.222119 -3.429973 0.817995 -1.247038 1.437608 -1.233845
    3 0.000000 2.338128 0.839328 0.000000 0.000000 0.000000
    4 -0.000001 -5.493103 2.360612 0.000000 0.000000 0.000000
    5 0.000000 -3.357312 1.408874 0.000000 0.000000 0.000000
    6 -0.000001 -6.122600 1.221523 -0.256542 0.000000 0.000000
    7 0.253914 -7.635704 1.277512 -0.309978 -0.064962 -0.094709
    8 -0.003479 -0.404829 0.000000 0.000000 0.000000 0.000000
    9 -0.519310 -2.501155 -0.278957 -1.003564 0.000000 -0.122173
    10 -0.010598 -1.208185 0.000000 -1.148417 0.000000 0.000000
    11 0.000000 -0.763066 0.000000 -0.841249 0.000000 0.000000
    12 0.105980 -2.607135 -0.278957 -0.795871 0.000000 -0.148353
    13 0.000000 -1.250579 0.000000 -1.296776 0.000000 0.000000
    14 0.000000 -0.932634 0.000000 -0.886645 0.000000 0.000000
    15 0.763063 -2.490556 -0.278957 -0.346932 0.039309 0.239193
    16 -0.012323 -1.280918 0.000000 -0.322892 0.000000 0.000000
    17 -0.001696 -0.749371 0.000000 -0.593412 0.000000 0.000000
    18 0.354566 0.016267 0.318133 0.834772 -0.606745 -1.212439
    19 1.887166 0.012878 0.000000 -0.305433 0.000000 -0.401426
    20 1.001874 -0.000270 0.000000 0.000000 0.000000 -0.488692
    21 -1.123360 -2.195093 -0.278957 -0.933751 0.000000 -0.087266
    22 0.010772 -0.963792 0.000000 -0.610865 0.000000 0.000000
    23 -0.010412 -0.631916 0.000000 -1.370074 0.000000 0.000000
    24 -1.901914 -2.392413 -7.342317 0.397975 2.935806 -5.515597
    25 0.097743 -8.527536 0.046875 -0.119608 0.175007 0.435657
    26 0.000000 -0.359712 0.000000 0.000000 0.000000 0.000000
    27 -0.170479 -2.636147 -0.277657 -0.081233 0.007383 0.091263
    28 0.010599 -1.261176 0.000002 0.055238 0.000000 0.000000
    29 -0.000001 -0.943233 -0.000002 -0.477363 0.000000 0.000000
    30 -0.827563 -2.508972 -0.277657 0.194857 0.053787 0.105249
    31 0.000000 -1.292971 0.000001 -0.110497 0.000000 0.000000
    32 0.000000 -0.752465 0.000000 -0.239131 0.000000 0.000000
    33 0.444213 -2.561959 -0.277657 -0.219141 -0.046226 -0.024599
    34 0.021022 -1.208186 0.000001 -0.604112 0.000000 0.000000
    35 0.010597 -0.741867 -0.000001 -0.735123 0.000000 0.000000
    36 1.047445 -2.222820 -0.277657 -0.136315 -0.078971 -0.038609
    37 0.000000 -0.996224 -0.000002 -0.822745 0.000000 0.000000
    38 -0.000001 -0.614690 0.000000 -0.694859 0.000000 0.000000
    39 -0.308253 -0.007813 0.307166 0.134239 -0.064025 -2.278169
    40 1.978376 0.019542 -0.000001 -0.080826 -0.042520 0.150148
    41 0.982425 0.003186 0.000001 0.000000 0.000000 -0.084667
  time 23
    0 4.110351 5.736047 -8.498756 -0.490338 -0.738892 0.332589
    1 0.000000 -8.563282 -0.000001 0.403777 0.288092 -0.163808
    2 -0.222119 -3.429973 0.817995 -1.247038 1.437608 -1.233845
    3 0.000000 2.338128 0.839328 0.000000 0.000000 0.000000
    4 -0.000001 -5.493103 2.360612 0.000000 0.000000 0.000000
    5 0.000000 -3.357312 1.408874 0.000000 0.000000 0.000000
    6 -0.000001 -6.122600 1.221523 -0.200035 0.000000 0.000000
    7 0.148442 -7.795865 1.363452 -0.165810 -0.051898 -0.066927
    8 -0.003479 -0.404829 0.000000 0.000000 0.000000 0.000000
    9 -0.519310 -2.501155 -0.278957 -1.003564 0.000000 -0.122173
    10 -0.010598 -1.208185 0.000000 -1.148417 0.000000 0.000000
    11 0.000000 -0.763066 0.000000 -0.841249 0.000000 0.000000
    12 0.105980 -2.607135 -0.278957 -0.795871 0.000000 -0.148353
    13 0.000000 -1.250579 0.000000 -1.296776 0.000000 0.000000
    14 0.000000 -0.932634 0.000000 -0.886645 0.000000 0.000000
    15 0.763063 -2.490556 -0.278957 -0.346932 0.039309 0.239193
    16 -0.012323 -1.280918 0.000000 -0.322892 0.000000 0.000000
    17 -0.001696 -0.749371 0.000000 -0.593412 0.000000 0.000000
    18 0.354566 0.016267 0.318133 0.834772 -0.606745 -1.212439
    19 1.887166 0.012878 0.000000 -0.305433 0.000000 -0.401426
    20 1.001874 -0.000270 0.000000 0.000000 0.000000 -0.488692
    21 -1.123360 -2.195093 -0.278957 -0.933751 0.000000 -0.087266
    22 0.010772 -0.963792 0.000000 -0.610865 0.000000 0.000000
    23 -0.010412 -0.631916 0.000000 -1.370074 0.000000 0.000000
    24 -1.663625 -2.650233 -7.248564 0.390639 2.924378 -5.547657
    25 0.097743 -8.527536 0.050782 -0.163215 0.126974 0.393727
    26 0.000000 -0.359712 0.000000 0.000000 0.000000 0.000000
    27 -0.170479 -2.636147 -0.277657 -0.080396 0.007562 0.093923
    28 0.010599 -1.261176 0.000002 0.057385 0.000000 0.000000
    29 -0.000001 -0.943233 -0.000002 -0.479293 0.000000 0.000000
    30 -0.827563 -2.508972 -0.277657 0.199292 0.056172 0.110822
    31 0.000000 -1.292971 0.000001 -0.110163 0.000000 0.000000
    32 0.000000 -0.752465 0.000000 -0.251576 0.000000 0.000000
    33 0.444213 -2.561959 -0.277657 -0.219141 -0.046226 -0.024599
    34 0.021022 -1.208186 0.000001 -0.567667 0.000000 0.000000
    35 0.010597 -0.741867 -0.000001 -0.713304 0.000000 0.000000
    36 1.047445 -2.222820 -0.277657 -0.126598 -0.078971 -0.038609
    37 0.000000 -0.996224 -0.000002 -0.803177 0.000000 0.000000
    38 -0.000001 -0.614690 0.000000 -0.681568 0.000000 0.000000
    39 -0.308253 -0.007813 0.307166 0.129433 -0.064600 -2.290727
    40 1.978376 0.019542 -0.000001 -0.080275 -0.043574 0.136945
    41 0.982425 0.003186 0.000001 0.000000 0.000000 0.002731
  time 24
    0 4.125977 5.751672 -8.498756 -0.490501 -0.738836 0.332685
    1 0.000000 -8.563282 -0.000001 0.405117 0.289268 -0.158849
    2 -0.222119 -3.429973 0.817995 -1.247038 1.437608 -1.233845
    3 0.000000 2.338128 0.839328 0.000000 0.000000 0.000000
    4 -0.000001 -5.493103 2.360612 0.000000 0.000000 0.000000
    5 0.000000 -3.357312 1.408874 0.000000 0.000000 0.000000
    6 -0.000001 -6.122600 1.221523 -0.121080 0.000000 0.000000
    7 0.050783 -7.940401 1.437673 -0.076990 -0.031941 -0.031769
    8 -0.003479 -0.404829 0.000000 0.000000 0.000000 0.000000
    9 -0.519310 -2.501155 -0.278957 -1.003564 0.000000 -0.122173
    10 -0.010598 -1.208185 0.000000 -1.148417 0.000000 0.000000
    11 0.000000 -0.763066 0.000000 -0.841249 0.000000 0.000000
    12 0.105980 -2.607135 -0.278957 -0.795871 0.000000 -0.148353
    13 0.000000 -1.250579 0.000000 -1.296776 0.000000 0.000000
    14 0.000000 -0.932634 0.000000 -0.886645 0.000000 0.000000
    15 0.763063 -2.490556 -0.278957 -0.346932 0.039309 0.239193
    16 -0.012323 -1.280918 0.000000 -0.322892 0.000000 0.000000
    17 -0.001696 -0.749371 0.000000 -0.593412 0.000000 0.000000
    18 0.354566 0.016267 0.318133 0.834772 -0.606745 -1.212439
    19 1.887166 0.012878 0.000000 -0.305433 0.000000 -0.401426
    20 1.001874 -0.000270 0.000000 0.000000 0.000000 -0.488692
    21 -1.123360 -2.195093 -0.278957 -0.933751 0.000000 -0.087266
    22 0.010772 -0.963792 0.000000 -0.610865 0.000000 0.000000
    23 -0.010412 -0.631916 0.000000 -1.370074 0.000000 0.000000
    24 -1.480026 -2.872896 -7.236845 0.384590 2.915043 -5.574516
    25 0.097743 -8.527536 0.050782 -0.202993 0.079761 0.359356
    26 0.000000 -0.359712 0.000000 0.000000 0.000000 0.000000
    27 -0.170479 -2.636147 -0.277657 -0.081774 0.007526 0.092677
    28 0.010599 -1.261176 0.000002 0.057460 0.000000 0.000000
    29 -0.000001 -0.943233 -0.000002 -0.482660 0.000000 0.000000
    30 -0.827563 -2.508972 -0.277657 0.200803 0.057502 0.105644
    31 0.000000 -1.292971 0.000001 -0.111988 0.000000 0.000000
    32 0.000000 -0.752465 0.000000 -0.266153 0.000000 0.000000
    33 0.444213 -2.561959 -0.277657 -0.220614 -0.046226 -0.024599
    34 0.021022 -1.208186 0.000001 -0.531065 0.000000 0.000000
    35 0.010597 -0.741867 -0.000001 -0.691390 0.000000 0.000000
    36 1.047445 -2.222820 -0.277657 -0.117885 -0.078971 -0.038609
    37 0.000000 -0.996224 -0.000002 -0.783561 0.000000 0.000000
    38 -0.000001 -0.614690 0.000000 -0.668217 0.000000 0.000000
    39 -0.308253 -0.007813 0.307166 0.123824 -0.066434 -2.304126
    40 1.978376 0.019542 -0.000001 -0.079783 -0.044425 0.126276
    41 0.982425 0.003186 0.000001 0.000000 0.000000 0.085768
  time 25
    0 4.149415 5.724328 -8.498756 -0.490745 -0.738723 0.332876
    1 0.000000 -8.563282 -0.000001 0.408026 0.287411 -0.147953
    2 -0.222119 -3.429973 0.817995 -1.247038 1.437608 -1.233845
    3 0.000000 2.338128 0.839328 0.000000 0.000000 0.000000
    4 -0.000001 -5.493103 2.360612 0.000000 0.000000 0.000000
    5 0.000000 -3.357312 1.408874 0.000000 0.000000 0.000000
    6 -0.000001 -6.122600 1.221523 -0.045733 0.000000 0.000000
    7 0.000000 -8.049779 1.496269 -0.083684 0.000000 0.000000
    8 -0.003479 -0.404829 0.000000 0.000000 0.000000 0.000000
    9 -0.519310 -2.501155 -0.278957 -1.003564 0.000000 -0.122173
    10 -0.010598 -1.208185 0.000000 -1.148417 0.000000 0.000000
    11 0.000000 -0.763066 0.000000 -0.841249 0.000000 0.000000
    12 0.105980 -2.607135 -0.278957 -0.795871 0.000000 -0.148353
    13 0.000000 -1.250579 0.000000 -1.296776 0.000000 0.000000
    14 0.000000 -0.932634 0.000000 -0.886645 0.000000 0.000000
    15 0.763063 -2.490556 -0.278957 -0.346932 0.039309 0.239193
    16 -0.012323 -1.280918 0.000000 -0.322892 0.000000 0.000000
    17 -0.001696 -0.749371 0.000000 -0.593412 0.000000 0.000000
    18 0.354566 0.016267 0.318133 0.834772 -0.606745 -1.212439
    19 1.887166 0.012878 0.000000 -0.305433 0.000000 -0.401426
    20 1.001874 -0.000270 0.000000 0.000000 0.000000 -0.488692
    21 -1.123360 -2.195093 -0.278957 -0.933751 0.000000 -0.087266
    22 0.010772 -0.963792 0.000000 -0.610865 0.000000 0.000000
    23 -0.010412 -0.631916 0.000000 -1.370074 0.000000 0.000000
    24 -1.366741 -2.997900 -7.248564 0.380204 2.909490 -5.591066
    25 0.097743 -8.527536 0.050782 -0.233323 0.039751 0.335911
    26 0.000000 -0.359712 0.000000 0.000000 0.000000 0.000000
    27 -0.170479 -2.636147 -0.277657 -0.086646 0.007454 0.089117
    28 0.010599 -1.261176 0.000002 0.055887 0.000000 0.000000
    29 -0.000001 -0.943233 -0.000002 -0.487177 0.000000 0.000000
    30 -0.827563 -2.508972 -0.277657 0.198123 0.058413 0.094463
    31 0.000000 -1.292971 0.000001 -0.115639 0.000000 0.000000
    32 0.000000 -0.752465 0.000000 -0.282427 0.000000 0.000000
    33 0.444213 -2.561959 -0.277657 -0.223376 -0.046226 -0.024599
    34 0.021022 -1.208186 0.000001 -0.494440 0.000000 0.000000
    35 0.010597 -0.741867 -0.000001 -0.669438 0.000000 0.000000
    36 1.047445 -2.222820 -0.277657 -0.110038 -0.078971 -0.038609
    37 0.000000 -0.996224 -0.000002 -0.763898 0.000000 0.000000
    38 -0.000001 -0.614690 0.000000 -0.654866 0.000000 0.000000
    39 -0.308253 -0.007813 0.307166 0.117221 -0.069478 -2.318402
    40 1.978376 0.019542 -0.000001 -0.079436 -0.045085 0.118054
    41 0.982425 0.003186 0.000001 0.000000 0.000000 0.160975
  time 26
    0 4.176759 5.587605 -8.498756 -0.491071 -0.738611 0.333164
    1 0.000000 -8.563282 -0.000001 0.411458 0.284245 -0.135066
    2 -0.222119 -3.429973 0.817995 -1.247038 1.437608 -1.233845
    3 0.000000 2.338128 0.839328 0.000000 0.000000 0.000000
    4 -0.000001 -5.493103 2.360612 0.000000 0.000000 0.000000
    5 0.000000 -3.357312 1.408874 0.000000 0.000000 0.000000
    6 -0.000001 -6.122600 1.221523 0.000000 0.000000 0.000000
    7 -0.011719 -8.143532 1.539239 -0.169793 0.045828 0.024934
    8 -0.003479 -0.404829 0.000000 0.000000 0.000000 0.000000
    9 -0.519310 -2.501155 -0.278957 -1.003564 0.000000 -0.122173
    10 -0.010598 -1.208185 0.000000 -1.148417 0.000000 0.000000
    11 0.000000 -0.763066 0.000000 -0.841249 0.000000 0.000000
    12 0.105980 -2.607135 -0.278957 -0.795871 0.000000 -0.148353
    13 0.000000 -1.250579 0.000000 -1.296776 0.000000 0.000000
    14 0.000000 -0.932634 0.000000 -0.886645 0.000000 0.000000
    15 0.763063 -2.490556 -0.278957 -0.346932 0.039309 0.239193
    16 -0.012323 -1.280918 0.000000 -0.322892 0.000000 0.000000
    17 -0.001696 -0.749371 0.000000 -0.593412 0.000000 0.000000
    18 0.354566 0.016267 0.318133 0.834772 -0.606745 -1.212439
    19 1.887166 0.012878 0.000000 -0.305433 0.000000 -0.401426
    20 1.001874 -0.000270 0.000000 0.000000 0.000000 -0.488692
    21 -1.123360 -2.195093 -0.278957 -0.933751 0.000000 -0.087266
    22 0.010772 -0.963792 0.000000 -0.610865 0.000000 0.000000
    23 -0.010412 -0.631916 0.000000 -1.370074 0.000000 0.000000
    24 -1.300333 -2.982275 -7.260283 0.383531 2.907398 -5.601375
    25 0.097743 -8.523630 0.054688 -0.259691 0.007861 0.329714
    26 0.000000 -0.359712 0.000000 0.000000 0.000000 0.000000
    27 -0.170479 -2.636147 -0.277657 -0.094422 0.007335 0.083616
    28 0.010599 -1.261176 0.000002 0.053066 0.000000 0.000000
    29 -0.000001 -0.943233 -0.000002 -0.492577 0.000000 0.000000
    30 -0.827563 -2.508972 -0.277657 0.191542 0.058808 0.078104
    31 0.000000 -1.292971 0.000001 -0.120548 0.000000 0.000000
    32 0.000000 -0.752465 0.000000 -0.299963 0.000000 0.000000
    33 0.444213 -2.561959 -0.277657 -0.227058 -0.046226 -0.024599
    34 0.021022 -1.208186 0.000001 -0.457793 0.000000 0.000000
    35 0.010597 -0.741867 -0.000001 -0.647506 0.000000 0.000000
    36 1.047445 -2.222820 -0.277657 -0.102830 -0.078971 -0.038609
    37 0.000000 -0.996224 -0.000002 -0.744250 0.000000 0.000000
    38 -0.000001 -0.614690 0.000000 -0.641503 0.000000 0.000000
    39 -0.308253 -0.007813 0.307166 0.109443 -0.073637 -2.333607
    40 1.978376 0.019542 -0.000001 -0.079160 -0.045552 0.112258
    41 0.982425 0.003186 0.000001 0.000000 0.000000 0.224878
  time 27
    0 4.208010 5.411818 -8.498756 -0.491478 -0.738498 0.333451
    1 0.000000 -8.563282 -0.000001 0.414465 0.281533 -0.124240
    2 -0.222119 -3.429973 0.817995 -1.247038 1.437608 -1.233845
    3 0.000000 2.338128 0.839328 0.000000 0.000000 0.000000
    4 -0.000001 -5.493103 2.360612 0.000000 0.000000 0.000000
    5 0.000000 -3.357312 1.408874 0.000000 0.000000 0.000000
    6 -0.000001 -6.122600 1.221523 0.018360 0.000000 0.000000
    7 -0.031251 -8.217753 1.574396 -0.288336 0.102235 0.046393
    8 -0.003479 -0.404829 0.000000 0.000000 0.000000 0.000000
    9 -0.519310 -2.501155 -0.278957 -1.003564 0.000000 -0.122173
    10 -0.010598 -1.208185 0.000000 -1.148417 0.000000 0.000000
    11 0.000000 -0.763066 0.000000 -0.841249 0.000000 0.000000
    12 0.105980 -2.607135 -0.278957 -0.795871 0.000000 -0.148353
    13 0.000000 -1.250579 0.000000 -1.296776 0.000000 0.000000
    14 0.000000 -0.932634 0.000000 -0.886645 0.000000 0.000000
    15 0.763063 -2.490556 -0.278957 -0.346932 0.039309 0.239193
    16 -0.012323 -1.280918 0.000000 -0.322892 0.000000 0.000000
    17 -0.001696 -0.749371 0.000000 -0.593412 0.000000 0.000000
    18 0.354566 0.016267 0.318133 0.834772 -0.606745 -1.212439
    19 1.887166 0.012878 0.000000 -0.305433 0.000000 -0.401426
    20 1.001874 -0.000270 0.000000 0.000000 0.000000 -0.488692
    21 -1.123360 -2.195093 -0.278957 -0.933751 0.000000 -0.087266
    22 0.010772 -0.963792 0.000000 -0.610865 0.000000 0.000000
    23 -0.010412 -0.631916 0.000000 -1.370074 0.000000 0.000000
    24 -1.339397 -2.911960 -7.334504 0.394799 2.907639 -5.608373
    25 0.097743 -8.523630 0.054688 -0.287888 -0.019582 0.338508
    26 0.000000 -0.359712 0.000000 0.000000 0.000000 0.000000
    27 -0.170479 -2.636147 -0.277657 -0.104757 0.007107 0.076474
    28 0.010599 -1.261176 0.000002 0.049422 0.000000 0.000000
    29 -0.000001 -0.943233 -0.000002 -0.498531 0.000000 0.000000
    30 -0.827563 -2.508972 -0.277657 0.181940 0.058713 0.057430
    31 0.000000 -1.292971 0.000001 -0.126409 0.000000 0.000000
    32 0.000000 -0.752465 0.000000 -0.318369 0.000000 0.000000
    33 0.444213 -2.561959 -0.277657 -0.231339 -0.046226 -0.024599
    34 0.021022 -1.208186 0.000001 -0.421258 0.000000 0.000000
    35 0.010597 -0.741867 -0.000001 -0.625554 0.000000 0.000000
    36 1.047445 -2.222820 -0.277657 -0.096079 -0.078971 -0.038609
    37 0.000000 -0.996224 -0.000002 -0.724603 0.000000 0.000000
    38 -0.000001 -0.614690 0.000000 -0.628165 0.000000 0.000000
    39 -0.308253 -0.007813 0.307166 0.100323 -0.078862 -2.349753
    40 1.978376 0.019542 -0.000001 -0.078993 -0.045828 0.108673
    41 0.982425 0.003186 0.000001 0.000000 0.000000 0.274059
  time 28
    0 4.282231 5.337597 -8.498756 -0.491885 -0.738385 0.333834
    1 0.000000 -8.563282 -0.000001 0.416197 0.280999 -0.119386
    2 -0.222119 -3.429973 0.817995 -1.247038 1.437608 -1.233845
    3 0.000000 2.338128 0.839328 0.000000 0.000000 0.000000
    4 -0.000001 -5.493103 2.360612 0.000000 0.000000 0.000000
    5 0.000000 -3.357312 1.408874 0.000000 0.000000 0.000000
    6 -0.000001 -6.122600 1.221523 0.029866 0.000000 0.000000
    7 -0.039064 -8.264629 1.601741 -0.434351 0.167643 0.059793
    8 -0.003479 -0.404829 0.000000 0.000000 0.000000 0.000000
    9 -0.519310 -2.501155 -0.278957 -1.003564 0.000000 -0.122173
    10 -0.010598 -1.208185 0.000000 -1.148417 0.000000 0.000000
    11 0.000000 -0.763066 0.000000 -0.841249 0.000000 0.000000
    12 0.105980 -2.607135 -0.278957 -0.795871 0.000000 -0.148353
    13 0.000000 -1.250579 0.000000 -1.296776 0.000000 0.000000
    14 0.000000 -0.932634 0.000000 -0.886645 0.000000 0.000000
    15 0.763063 -2.490556 -0.278957 -0.346932 0.039309 0.239193
    16 -0.012323 -1.280918 0.000000 -0.322892 0.000000 0.000000
    17 -0.001696 -0.749371 0.000000 -0.593412 0.000000 0.000000
    18 0.354566 0.016267 0.318133 0.834772 -0.606745 -1.212439
    19 1.887166 0.012878 0.000000 -0.305433 0.000000 -0.401426
    20 1.001874 -0.000270 0.000000 0.000000 0.000000 -0.488692
    21 -1.123360 -2.195093 -0.278957 -0.933751 0.000000 -0.087266
    22 0.010772 -0.963792 0.000000 -0.610865 0.000000 0.000000
    23 -0.010412 -0.631916 0.000000 -1.370074 0.000000 0.000000
    24 -1.421430 -2.892428 -7.518103 0.405461 2.910939 -5.605252
    25 0.097743 -8.523630 0.054688 -0.312640 -0.043102 0.351762
    26 0.000000 -0.359712 0.000000 0.000000 0.000000 0.000000
    27 -0.170479 -2.636147 -0.277657 -0.117012 0.006723 0.068025
    28 0.010599 -1.261176 0.000002 0.045377 0.000000 0.000000
    29 -0.000001 -0.943233 -0.000002 -0.504752 0.000000 0.000000
    30 -0.827563 -2.508972 -0.277657 0.169901 0.057993 0.033329
    31 0.000000 -1.292971 0.000001 -0.132707 0.000000 0.000000
    32 0.000000 -0.752465 0.000000 -0.337167 0.000000 0.000000
    33 0.444213 -2.561959 -0.277657 -0.235987 -0.046226 -0.024599
    34 0.021022 -1.208186 0.000001 -0.384678 0.000000 0.000000
    35 0.010597 -0.741867 -0.000001 -0.603659 0.000000 0.000000
    36 1.047445 -2.222820 -0.277657 -0.089510 -0.078971 -0.038609
    37 0.000000 -0.996224 -0.000002 -0.705003 0.000000 0.000000
    38 -0.000001 -0.614690 0.000000 -0.614838 0.000000 0.000000
    39 -0.308253 -0.007813 0.307166 0.089716 -0.085082 -2.366879
    40 1.978376 0.019542 -0.000001 -0.080251 -0.043610 0.136516
    41 0.982425 0.003186 0.000001 0.000000 0.000000 0.306689
  time 29
    0 4.442392 5.446975 -8.494849 -0.492373 -0.738160 0.334314
    1 0.000000 -8.563282 -0.000001 0.415347 0.288760 -0.128955
    2 -0.222119 -3.429973 0.817995 -1.247038 1.437608 -1.233845
    3 0.000000 2.338128 0.839328 0.000000 0.000000 0.000000
    4 -0.000001 -5.493103 2.360612 0.000000 0.000000 0.000000
    5 0.000000 -3.357312 1.408874 0.000000 0.000000 0.000000
    6 -0.000001 -6.122600 1.221523 0.035834 0.000000 0.000000
    7 -0.042970 -8.295880 1.617366 -0.603739 0.239292 0.060989
    8 -0.003479 -0.404829 0.000000 0.000000 0.000000 0.000000
    9 -0.519310 -2.501155 -0.278957 -1.003564 0.000000 -0.122173
    10 -0.010598 -1.208185 0.000000 -1.148417 0.000000 0.000000
    11 0.000000 -0.763066 0.000000 -0.841249 0.000000 0.000000
    12 0.105980 -2.607135 -0.278957 -0.795871 0.000000 -0.148353
    13 0.000000 -1.250579 0.000000 -1.296776 0.000000 0.000000
    14 0.000000 -0.932634 0.000000 -0.886645 0.000000 0.000000
    15 0.763063 -2.490556 -0.278957 -0.346932 0.039309 0.239193
    16 -0.012323 -1.280918 0.000000 -0.322892 0.000000 0.000000
    17 -0.001696 -0.749371 0.000000 -0.593412 0.000000 0.000000
    18 0.354566 0.016267 0.318133 0.834772 -0.606745 -1.212439
    19 1.887166 0.012878 0.000000 -0.305433 0.000000 -0.401426
    20 1.001874 -0.000270 0.000000 0.000000 0.000000 -0.488692
    21 -1.123360 -2.195093 -0.278957 -0.933751 0.000000 -0.087266
    22 0.010772 -0.963792 0.000000 -0.610865 0.000000 0.000000
    23 -0.010412 -0.631916 0.000000 -1.370074 0.000000 0.000000
    24 -1.573779 -2.888522 -7.799362 0.407276 2.918101 -5.585203
    25 0.097743 -8.523630 0.054688 -0.327984 -0.063915 0.358837
    26 0.000000 -0.359712 0.000000 0.000000 0.000000 0.000000
    27 -0.170479 -2.636147 -0.277657 -0.130743 0.006196 0.058593
    28 0.010599 -1.261176 0.000002 0.041333 0.000000 0.000000
    29 -0.000001 -0.943233 -0.000002 -0.511014 0.000000 0.000000
    30 -0.827563 -2.508972 -0.277657 0.156010 0.056663 0.006675
    31 0.000000 -1.292971 0.000001 -0.138980 0.000000 0.000000
    32 0.000000 -0.752465 0.000000 -0.355965 0.000000 0.000000
    33 0.444213 -2.561959 -0.277657 -0.240590 -0.046226 -0.024599
    34 0.021022 -1.208186 0.000001 -0.348256 0.000000 0.000000
    35 0.010597 -0.741867 -0.000001 -0.581840 0.000000 0.000000
    36 1.047445 -2.222820 -0.277657 -0.082941 -0.078971 -0.038609
    37 0.000000 -0.996224 -0.000002 -0.685450 0.000000 0.000000
    38 -0.000001 -0.614690 0.000000 -0.601559 0.000000 0.000000
    39 -0.308253 -0.007813 0.307166 0.077444 -0.092273 -2.385011
    40 1.978376 0.019542 -0.000001 -0.082947 -0.038193 0.202787
    41 0.982425 0.003186 0.000001 0.000000 0.000000 0.325484
  time 30
    0 4.579115 5.603230 -8.498756 -0.492862 -0.737991 0.334697
    1 0.000000 -8.563282 -0.000001 0.412438 0.299380 -0.147848
    2 -0.222119 -3.429973 0.817995 -1.247038 1.437608 -1.233845
    3 0.000000 2.338128 0.839328 0.000000 0.000000 0.000000
    4 -0.000001 -5.493103 2.360612 0.000000 0.000000 0.000000
    5 0.000000 -3.357312 1.408874 0.000000 0.000000 0.000000
    6 -0.000001 -6.122600 1.221523 0.037680 0.000000 0.000000
    7 -0.050783 -8.311506 1.621273 -0.793155 0.313255 0.046650
    8 -0.003479 -0.404829 0.000000 0.000000 0.000000 0.000000
    9 -0.519310 -2.501155 -0.278957 -1.003564 0.000000 -0.122173
    10 -0.010598 -1.208185 0.000000 -1.148417 0.000000 0.000000
    11 0.000000 -0.763066 0.000000 -0.841249 0.000000 0.000000
    12 0.105980 -2.607135 -0.278957 -0.795871 0.000000 -0.148353
    13 0.000000 -1.250579 0.000000 -1.296776 0.000000 0.000000
    14 0.000000 -0.932634 0.000000 -0.886645 0.000000 0.000000
    15 0.763063 -2.490556 -0.278957 -0.346932 0.039309 0.239193
    16 -0.012323 -1.280918 0.000000 -0.322892 0.000000 0.000000
    17 -0.001696 -0.749371 0.000000 -0.593412 0.000000 0.000000
    18 0.354566 0.016267 0.318133 0.834772 -0.606745 -1.212439
    19 1.887166 0.012878 0.000000 -0.305433 0.000000 -0.401426
    20 1.001874 -0.000270 0.000000 0.000000 0.000000 -0.488692
    21 -1.123360 -2.195093 -0.278957 -0.933751 0.000000 -0.087266
    22 0.010772 -0.963792 0.000000 -0.610865 0.000000 0.000000
    23 -0.010412 -0.631916 0.000000 -1.370074 0.000000 0.000000
    24 -2.026918 -2.833833 -8.162654 0.391320 2.929207 -5.541321
    25 0.097743 -8.523630 0.058595 -0.327679 -0.083510 0.348860
    26 0.000000 -0.359712 0.000000 0.000000 0.000000 0.000000
    27 -0.170479 -2.636147 -0.277657 -0.145458 0.005501 0.048526
    28 0.010599 -1.261176 0.000002 0.037688 0.000000 0.000000
    29 -0.000001 -0.943233 -0.000002 -0.516927 0.000000 0.000000
    30 -0.827563 -2.508972 -0.277657 0.140900 0.054722 -0.021632
    31 0.000000 -1.292971 0.000001 -0.144789 0.000000 0.000000
    32 0.000000 -0.752465 0.000000 -0.374371 0.000000 0.000000
    33 0.444213 -2.561959 -0.277657 -0.244917 -0.046226 -0.024599
    34 0.021022 -1.208186 0.000001 -0.311969 0.000000 0.000000
    35 0.010597 -0.741867 -0.000001 -0.560114 0.000000 0.000000
    36 1.047445 -2.222820 -0.277657 -0.076143 -0.078971 -0.038609
    37 0.000000 -0.996224 -0.000002 -0.665993 0.000000 0.000000
    38 -0.000001 -0.614690 0.000000 -0.588328 0.000000 0.000000
    39 -0.308253 -0.007813 0.307166 0.063326 -0.100386 -2.404147
    40 1.978376 0.019542 -0.000001 -0.085452 -0.032177 0.274146
    41 0.982425 0.003186 0.000001 0.000000 0.000000 0.333629
  time 31
    0 4.579115 5.700889 -8.518288 -0.493350 -0.737822 0.335176
    1 0.000000 -8.563282 -0.000001 0.410020 0.297737 -0.159442
    2 -0.222119 -3.429973 0.817995 -1.247038 1.437608 -1.233845
    3 0.000000 2.338128 0.839328 0.000000 0.000000 0.000000
    4 -0.000001 -5.493103 2.360612 0.000000 0.000000 0.000000
    5 0.000000 -3.357312 1.408874 0.000000 0.000000 0.000000
    6 -0.000001 -6.122600 1.221523 0.036757 0.000000 0.000000
    7 -0.042970 -8.295880 1.617366 -0.999480 0.384698 0.014710
    8 -0.003479 -0.404829 0.000000 0.000000 0.000000 0.000000
    9 -0.519310 -2.501155 -0.278957 -1.003564 0.000000 -0.122173
    10 -0.010598 -1.208185 0.000000 -1.148417 0.000000 0.000000
    11 0.000000 -0.763066 0.000000 -0.841249 0.000000 0.000000
    12 0.105980 -2.607135 -0.278957 -0.795871 0.000000 -0.148353
    13 0.000000 -1.250579 0.000000 -1.296776 0.000000 0.000000
    14 0.000000 -0.932634 0.000000 -0.886645 0.000000 0.000000
    15 0.763063 -2.490556 -0.278957 -0.346932 0.039309 0.239193
    16 -0.012323 -1.280918 0.000000 -0.322892 0.000000 0.000000
    17 -0.001696 -0.749371 0.000000 -0.593412 0.000000 0.000000
    18 0.354566 0.016267 0.318133 0.834772 -0.606745 -1.212439
    19 1.887166 0.012878 0.000000 -0.305433 0.000000 -0.401426
    20 1.001874 -0.000270 0.000000 0.000000 0.000000 -0.488692
    21 -1.123360 -2.195093 -0.278957 -0.933751 0.000000 -0.087266
    22 0.010772 -0.963792 0.000000 -0.610865 0.000000 0.000000
    23 -0.010412 -0.631916 0.000000 -1.370074 0.000000 0.000000
    24 -3.023042 -2.658046 -8.596261 0.352376 2.943612 -5.465473
    25 0.097743 -8.523630 0.058595 -0.289690 -0.097319 0.302381
    26 0.000000 -0.359712 0.000000 0.000000 0.000000 0.000000
    27 -0.170479 -2.636147 -0.277657 -0.160666 0.004602 0.038135
    28 0.010599 -1.261176 0.000002 0.034867 0.000000 0.000000
    29 -0.000001 -0.943233 -0.000002 -0.522327 0.000000 0.000000
    30 -0.827563 -2.508972 -0.277657 0.125303 0.052193 -0.050815
    31 0.000000 -1.292971 0.000001 -0.149750 0.000000 0.000000
    32 0.000000 -0.752465 0.000000 -0.391907 0.000000 0.000000
    33 0.444213 -2.561959 -0.277657 -0.248599 -0.046226 -0.024599
    34 0.021022 -1.208186 0.000001 -0.275907 0.000000 0.000000
    35 0.010597 -0.741867 -0.000001 -0.538521 0.000000 0.000000
    36 1.047445 -2.222820 -0.277657 -0.068936 -0.078971 -0.038609
    37 0.000000 -0.996224 -0.000002 -0.646646 0.000000 0.000000
    38 -0.000001 -0.614690 0.000000 -0.575181 0.000000 0.000000
    39 -0.308253 -0.007813 0.307166 0.047231 -0.109411 -2.424314
    40 1.978376 0.019542 -0.000001 -0.086759 -0.028450 0.317510
    41 0.982425 0.003186 0.000001 0.000000 0.000000 0.334281
  time 32
    0 4.481456 5.775110 -8.537819 -0.493757 -0.737653 0.335559
    1 0.000000 -8.563282 -0.000001 0.409137 0.278848 -0.158255
    2 -0.222119 -3.429973 0.817995 -1.247038 1.437608 -1.233845
    3 0.000000 2.338128 0.839328 0.000000 0.000000 0.000000
    4 -0.000001 -5.493103 2.360612 0.000000 0.000000 0.000000
    5 0.000000 -3.357312 1.408874 0.000000 0.000000 0.000000
    6 -0.000001 -6.122600 1.221523 0.034468 0.000000 0.000000
    7 -0.039064 -8.264629 1.601741 -1.219021 0.448614 -0.034959
    8 -0.003479 -0.404829 0.000000 0.000000 0.000000 0.000000
    9 -0.519310 -2.501155 -0.278957 -1.003564 0.000000 -0.122173
    10 -0.010598 -1.208185 0.000000 -1.148417 0.000000 0.000000
    11 0.000000 -0.763066 0.000000 -0.841249 0.000000 0.000000
    12 0.105980 -2.607135 -0.278957 -0.795871 0.000000 -0.148353
    13 0.000000 -1.250579 0.000000 -1.296776 0.000000 0.000000
    14 0.000000 -0.932634 0.000000 -0.886645 0.000000 0.000000
    15 0.763063 -2.490556 -0.278957 -0.346932 0.039309 0.239193
    16 -0.012323 -1.280918 0.000000 -0.322892 0.000000 0.000000
    17 -0.001696 -0.749371 0.000000 -0.593412 0.000000 0.000000
    18 0.354566 0.016267 0.318133 0.834772 -0.606745 -1.212439
    19 1.887166 0.012878 0.000000 -0.305433 0.000000 -0.401426
    20 1.001874 -0.000270 0.000000 0.000000 0.000000 -0.488692
    21 -1.123360 -2.195093 -0.278957 -0.933751 0.000000 -0.087266
    22 0.010772 -0.963792 0.000000 -0.610865 0.000000 0.000000
    23 -0.010412 -0.631916 0.000000 -1.370074 0.000000 0.000000
    24 -4.593402 -2.349443 -9.100183 0.295131 2.957454 -5.362105
    25 0.097743 -8.523630 0.058595 -0.218390 -0.100523 0.226546
    26 0.000000 -0.359712 0.000000 0.000000 0.000000 0.000000
    27 -0.170479 -2.636147 -0.277657 -0.175873 0.003559 0.027756
    28 0.010599 -1.261176 0.000002 0.033295 0.000000 0.000000
    29 -0.000001 -0.943233 -0.000002 -0.526844 0.000000 0.000000
    30 -0.827563 -2.508972 -0.277657 0.109754 0.049221 -0.079913
    31 0.000000 -1.292971 0.000001 -0.153401 0.000000 0.000000
    32 0.000000 -0.752465 0.000000 -0.408181 0.000000 0.000000
    33 0.444213 -2.561959 -0.277657 -0.251361 -0.046226 -0.024599
    34 0.021022 -1.208186 0.000001 -0.240070 0.000000 0.000000
    35 0.010597 -0.741867 -0.000001 -0.517040 0.000000 0.000000
    36 1.047445 -2.222820 -0.277657 -0.061089 -0.078971 -0.038609
    37 0.000000 -0.996224 -0.000002 -0.627410 0.000000 0.000000
    38 -0.000001 -0.614690 0.000000 -0.562118 0.000000 0.000000
    39 -0.308253 -0.007813 0.307166 0.011289 -0.136568 -2.458834
    40 1.978376 0.019542 -0.000001 -0.086866 -0.028138 0.320924
    41 0.982425 0.003186 0.000001 0.000000 0.000000 0.330731
  time 33
    0 4.290044 5.825893 -8.572977 -0.494246 -0.737484 0.336038
    1 0.000000 -8.563282 -0.000001 0.408582 0.251343 -0.151899
    2 -0.222119 -3.429973 0.817995 -1.247038 1.437608 -1.233845
    3 0.000000 2.338128 0.839328 0.000000 0.000000 0.000000
    4 -0.000001 -5.493103 2.360612 0.000000 0.000000 0.000000
    5 0.000000 -3.357312 1.408874 0.000000 0.000000 0.000000
    6 -0.000001 -6.122600 1.221523 0.032179 0.000000 0.000000
    7 -0.031251 -8.217753 1.574396 -1.446239 0.500666 -0.100035
    8 -0.003479 -0.404829 0.000000 0.000000 0.000000 0.000000
    9 -0.519310 -2.501155 -0.278957 -1.003564 0.000000 -0.122173
    10 -0.010598 -1.208185 0.000000 -1.148417 0.000000 0.000000
    11 0.000000 -0.763066 0.000000 -0.841249 0.000000 0.000000
    12 0.105980 -2.607135 -0.278957 -0.795871 0.000000 -0.148353
    13 0.000000 -1.250579 0.000000 -1.296776 0.000000 0.000000
    14 0.000000 -0.932634 0.000000 -0.886645 0.000000 0.000000
    15 0.763063 -2.490556 -0.278957 -0.346932 0.039309 0.239193
    16 -0.012323 -1.280918 0.000000 -0.322892 0.000000 0.000000
    17 -0.001696 -0.749371 0.000000 -0.593412 0.000000 0.000000
    18 0.354566 0.016267 0.318133 0.834772 -0.606745 -1.212439
    19 1.887166 0.012878 0.000000 -0.305433 0.000000 -0.401426
    20 1.001874 -0.000270 0.000000 0.000000 0.000000 -0.488692
    21 -1.123360 -2.195093 -0.278957 -0.933751 0.000000 -0.087266
    22 0.010772 -0.963792 0.000000 -0.610865 0.000000 0.000000
    23 -0.010412 -0.631916 0.000000 -1.370074 0.000000 0.000000
    24 -6.632527 -1.943180 -9.682232 0.226846 2.965501 -5.242754
    25 0.097743 -8.523630 0.058595 -0.147036 -0.098337 0.150639
    26 0.000000 -0.359712 0.000000 0.000000 0.000000 0.000000
    27 -0.170479 -2.636147 -0.277657 -0.190588 0.002409 0.017725
    28 0.010599 -1.261176 0.000002 0.033369 0.000000 0.000000
    29 -0.000001 -0.943233 -0.000002 -0.530211 0.000000 0.000000
    30 -0.827563 -2.508972 -0.277657 0.094937 0.045961 -0.108137
    31 0.000000 -1.292971 0.000001 -0.155251 0.000000 0.000000
    32 0.000000 -0.752465 0.000000 -0.422758 0.000000 0.000000
    33 0.444213 -2.561959 -0.277657 -0.252834 -0.046226 -0.024599
    34 0.021022 -1.208186 0.000001 -0.204526 0.000000 0.000000
    35 0.010597 -0.741867 -0.000001 -0.495748 0.000000 0.000000
    36 1.047445 -2.222820 -0.277657 -0.052421 -0.078971 -0.038609
    37 0.000000 -0.996224 -0.000002 -0.608348 0.000000 0.000000
    38 -0.000001 -0.614690 0.000000 -0.549138 0.000000 0.000000
    39 -0.308253 -0.007813 0.307166 -0.049832 -0.191110 -2.511052
    40 1.978376 0.019542 -0.000001 -0.086351 -0.029684 0.303148
    41 0.982425 0.003186 0.000001 0.000000 0.000000 0.326085
  time 34
    0 3.997066 5.853238 -8.615947 -0.494653 -0.737315 0.336422
    1 0.000000 -8.563282 -0.000001 0.407928 0.220418 -0.143553
    2 -0.222119 -3.429973 0.817995 -1.247038 1.437608 -1.233845
    3 0.000000 2.338128 0.839328 0.000000 0.000000 0.000000
    4 -0.000001 -5.493103 2.360612 0.000000 0.000000 0.000000
    5 0.000000 -3.357312 1.408874 0.000000 0.000000 0.000000
    6 -0.000001 -6.122600 1.221523 0.031268 0.000000 0.000000
    7 -0.011719 -8.143532 1.539239 -1.673398 0.538351 -0.175648
    8 -0.003479 -0.404829 0.000000 0.000000 0.000000 0.000000
    9 -0.519310 -2.501155 -0.278957 -1.003564 0.000000 -0.122173
    10 -0.010598 -1.208185 0.000000 -1.148417 0.000000 0.000000
    11 0.000000 -0.763066 0.000000 -0.841249 0.000000 0.000000
    12 0.105980 -2.607135 -0.278957 -0.795871 0.000000 -0.148353
    13 0.000000 -1.250579 0.000000 -1.296776 0.000000 0.000000
    14 0.000000 -0.932634 0.000000 -0.886645 0.000000 0.000000
    15 0.763063 -2.490556 -0.278957 -0.346932 0.039309 0.239193
    16 -0.012323 -1.280918 0.000000 -0.322892 0.000000 0.000000
    17 -0.001696 -0.749371 0.000000 -0.593412 0.000000 0.000000
    18 0.354566 0.016267 0.318133 0.834772 -0.606745 -1.212439
    19 1.887166 0.012878 0.000000 -0.305433 0.000000 -0.401426
    20 1.001874 -0.000270 0.000000 0.000000 0.000000 -0.488692
    21 -1.123360 -2.195093 -0.278957 -0.933751 0.000000 -0.087266
    22 0.010772 -0.963792 0.000000 -0.610865 0.000000 0.000000
    23 -0.010412 -0.631916 0.000000 -1.370074 0.000000 0.000000
    24 -9.136510 -1.435352 -10.342408 0.155612 2.965260 -5.119147
    25 0.097743 -8.523630 0.058595 -0.147036 -0.098337 0.150639
    26 0.000000 -0.359712 0.000000 0.000000 0.000000 0.000000
    27 -0.170479 -2.636147 -0.277657 -0.204270 0.001186 0.008353
    28 0.010599 -1.261176 0.000002 0.035516 0.000000 0.000000
    29 -0.000001 -0.943233 -0.000002 -0.532141 0.000000 0.000000
    30 -0.827563 -2.508972 -0.277657 0.081386 0.042653 -0.134611
    31 0.000000 -1.292971 0.000001 -0.154891 0.000000 0.000000
    32 0.000000 -0.752465 0.000000 -0.435181 0.000000 0.000000
    33 0.444213 -2.561959 -0.277657 -0.252788 -0.046226 -0.024599
    34 0.021022 -1.208186 0.000001 -0.169274 0.000000 0.000000
    35 0.010597 -0.741867 -0.000001 -0.474645 0.000000 0.000000
    36 1.047445 -2.222820 -0.277657 -0.042659 -0.078971 -0.038609
    37 0.000000 -0.996224 -0.000002 -0.589444 0.000000 0.000000
    38 -0.000001 -0.614690 0.000000 -0.536303 0.000000 0.000000
    39 -0.308253 -0.007813 0.307166 -0.118660 -0.259721 -2.567151
    40 1.978376 0.019542 -0.000001 -0.085536 -0.031949 0.276915
    41 0.982425 0.003186 0.000001 0.000000 0.000000 0.323579
  time 35
    0 3.610336 5.861051 -8.666730 -0.495141 -0.737202 0.336709
    1 0.000000 -8.563282 -0.000001 0.407013 0.191203 -0.136219
    2 -0.222119 -3.429973 0.817995 -1.247038 1.437608 -1.233845
    3 0.000000 2.338128 0.839328 0.000000 0.000000 0.000000
    4 -0.000001 -5.493103 2.360612 0.000000 0.000000 0.000000
    5 0.000000 -3.357312 1.408874 0.000000 0.000000 0.000000
    6 -0.000001 -6.122600 1.221523 0.033089 0.000000 0.000000
    7 0.000000 -8.049779 1.496269 -1.891151 0.561771 -0.255249
    8 -0.003479 -0.404829 0.000000 0.000000 0.000000 0.000000
    9 -0.519310 -2.501155 -0.278957 -1.003564 0.000000 -0.122173
    10 -0.010598 -1.208185 0.000000 -1.148417 0.000000 0.000000
    11 0.000000 -0.763066 0.000000 -0.841249 0.000000 0.000000
    12 0.105980 -2.607135 -0.278957 -0.795871 0.000000 -0.148353
    13 0.000000 -1.250579 0.000000 -1.296776 0.000000 0.000000
    14 0.000000 -0.932634 0.000000 -0.886645 0.000000 0.000000
    15 0.763063 -2.490556 -0.278957 -0.346932 0.039309 0.239193
    16 -0.012323 -1.280918 0.000000 -0.322892 0.000000 0.000000
    17 -0.001696 -0.749371 0.000000 -0.593412 0.000000 0.000000
    18 0.354566 0.016267 0.318133 0.834772 -0.606745 -1.212439
    19 1.887166 0.012878 0.000000 -0.305433 0.000000 -0.401426
    20 1.001874 -0.000270 0.000000 0.000000 0.000000 -0.488692
    21 -1.123360 -2.195093 -0.278957 -0.933751 0.000000 -0.087266
    22 0.010772 -0.963792 0.000000 -0.610865 0.000000 0.000000
    23 -0.010412 -0.631916 0.000000 -1.370074 0.000000 0.000000
    24 -12.101444 -0.829865 -11.072899 0.089823 2.957454 -5.003579
    25 0.097743 -8.523630 0.058595 -0.147036 -0.098337 0.150639
    26 0.000000 -0.359712 0.000000 0.000000 0.000000 0.000000
    27 -0.170479 -2.636147 -0.277657 -0.216475 0.000000 0.000000
    28 0.010599 -1.261176 0.000002 0.040110 0.000000 0.000000
    29 -0.000001 -0.943233 -0.000002 -0.532326 0.000000 0.000000
    30 -0.827563 -2.508972 -0.277657 0.069688 0.039609 -0.158472
    31 0.000000 -1.292971 0.000001 -0.151858 0.000000 0.000000
    32 0.000000 -0.752465 0.000000 -0.445059 0.000000 0.000000
    33 0.444213 -2.561959 -0.277657 -0.250809 -0.046226 -0.024599
    34 0.021022 -1.208186 0.000001 -0.134428 0.000000 0.000000
    35 0.010597 -0.741867 -0.000001 -0.453786 0.000000 0.000000
    36 1.047445 -2.222820 -0.277657 -0.031619 -0.078971 -0.038609
    37 0.000000 -0.996224 -0.000002 -0.570745 0.000000 0.000000
    38 -0.000001 -0.614690 0.000000 -0.523599 0.000000 0.000000
    39 -0.308253 -0.007813 0.307166 -0.179973 -0.326092 -2.616278
    40 1.978376 0.019542 -0.000001 -0.084829 -0.033819 0.254889
    41 0.982425 0.003186 0.000001 0.000000 0.000000 0.326398
end
