// Created by Crowbar 0.34.0.0

$ModelName "weapons/tfa_cso/w_gunkata.mdl"

$BodyGroup "studio"
{
	studio "v_gunkata_ref_right2"
}

$collisionmodel "v_gunkata_ref_right2.smd"
{
	$mass 9
}

$CDMaterials "models\weapons\tfa_cso\gunkata"

$attachment "0" "root" 0.00 -8.70 0.80 rotate -0 0 0
$attachment "1" "root" 16.00 -8.70 2.80 rotate -0 0 0
$attachment "2" "root" 16.00 -8.70 2.80 rotate -0 0 0
$attachment "3" "root" 16.00 -8.70 2.80 rotate -0 0 0
$attachment "4" "root" 16.00 -8.70 2.80 rotate -0 0 0
$attachment "5" "root" 16.00 -8.70 2.80 rotate -0 0 0

$Sequence "idle" {
	"anims\idle.smd"
	fps 30
}