// Created by Crowbar 0.58

$modelname "weapons/tfa_cso/c_needler.mdl"

$Include "csonline_gmod.qci"

$bodygroup "weapon"
{
	studio "v_coilgun"
}

$CDMaterials "models\weapons\tfa_cso\needler\"

$attachment 0 "shoot" 0 0 0

$definebone "root" "" 0.000000 0.000000 0.000000 0.000000 0.000000 0.000000 0.000000 0.000000 0.000000 -0.000000 0.000000 0.000000
$definebone "Bone01" "root" 9.213061 4.025732 -7.904157 -87.597498 177.381763 171.407643 0.000001 0.000000 0.000000 -0.000000 0.000000 -0.000001
$definebone "Bone_Lefthand" "Bone01" -0.071918 -8.498732 -0.104137 16.186515 3.297717 8.666100 -0.000000 -0.000000 0.000000 0.000001 0.000000 -0.000000
$definebone "coilgun_root" "Bone_Lefthand" 1.866656 -2.694575 1.223083 14.096770 179.366958 -3.079705 0.000000 0.000000 0.000000 0.000002 0.000001 -0.000000
$definebone "shoot" "coilgun_root" -1.040147 15.798657 0.000139 -0.000515 89.770113 0.000117 0.000000 0.000000 0.000000 0.000000 -0.000001 0.000002
$definebone "reload02" "coilgun_root" -3.055029 9.115474 0.000080 -0.000000 -89.999983 -0.000002 0.000000 0.000000 0.000000 -0.000000 -0.000001 -0.000002
$definebone "reload01" "reload02" 0.016596 -0.003077 0.000006 -0.000458 179.770158 0.000117 0.000000 0.000000 0.000000 0.000000 -0.000001 0.000002
$definebone "reload03" "reload02" 2.244833 -0.591284 -0.000012 0.000400 -22.686778 -0.000289 0.000001 0.000000 0.000000 -0.000001 0.000003 -0.000002
$definebone "trigger" "coilgun_root" 0.752643 1.995336 -0.000002 0.000002 0.000001 -0.000000 0.000000 0.000000 0.000000 0.000002 0.000001 -0.000000
$definebone "magazine" "coilgun_root" 0.837524 6.776001 0.000056 0.000117 -0.229870 0.000515 0.000000 0.000000 0.000000 0.000002 0.000001 -0.000000
$definebone "coil" "" -0.000001 -12.168914 -15.134835 -0.000036 -90.000017 90.000017 0.000000 0.000000 0.000000 -0.000000 -0.000000 0.000000

$sequence "idle1" {
	"v_coilgun_anims\idle1"
	fps 16
	loop
	activity "ACT_VM_IDLE" 1
	snap
}
$sequence "shoot" {
	"v_coilgun_anims\shoot"
	{ event 5001 0 "100112" }
	fps 30
	activity "ACT_VM_PRIMARYATTACK" 1
	snap
}
$sequence "shoot2" {
	"v_coilgun_anims\shoot2"
	{ event 5001 0 "100112" }
	fps 30
	activity "ACT_VM_PRIMARYATTACK" 1
	snap
}
$sequence "reload" {
	"v_coilgun_anims\reload"
	{ event 5004 16 "Needler.Clipout" }
	{ event 5004 53 "Needler.Clipin1" }
	{ event 5004 83 "Needler.Clipin2" }
	fps 30
	activity "ACT_VM_RELOAD" 1
	snap
}
$sequence "draw" {
	"v_coilgun_anims\draw"
	fps 30
	activity "ACT_VM_DRAW" 1
	snap
}
