version 1
nodes
  0 "scar3_root" -1
  1 "Bone002" 0
  2 "Bone001" 0
  3 "root" -1
  4 "Bone01" 3
  5 "Bone_L_Upper" 4
  6 "Bone_Lefthand" 4
  7 "Bone13" 6
  8 "Bone14" 7
  9 "Bone15" 8
  10 "Bone17" 6
  11 "Bone18" 10
  12 "Bone19" 11
  13 "Bone21" 6
  14 "Bone22" 13
  15 "Bone23" 14
  16 "Bone09" 6
  17 "Bone10" 16
  18 "Bone11" 17
  19 "Bone05" 6
  20 "Bone06" 19
  21 "Bone07" 20
  22 "Bone_Se_Hand-L" 6
  23 "Bone04" 3
  24 "Bone_Righthand" 23
  25 "Bone39" 24
  26 "Bone40" 25
  27 "Bone41" 26
  28 "Bone35" 24
  29 "Bone36" 28
  30 "Bone37" 29
  31 "Bone31" 24
  32 "Bone32" 31
  33 "Bone33" 32
  34 "Bone43" 24
  35 "Bone44" 34
  36 "Bone45" 35
  37 "Bone27" 24
  38 "Bone28" 37
  39 "Bone29" 38
  40 "Bone_Se_Hand-R" 24
  41 "Bone_R_Upper" 23
end
skeleton
  time 0
    0 6.078310 -10.457350 -5.336100 -0.489239 -1.538689 -4.287646
    1 -2.415508 0.000001 1.305888 -1.570796 3.141592 0.000000
    2 1.183939 0.257944 3.973099 -1.570796 -3.141592 -1.570796
    3 -0.862154 -0.856760 -1.276764 -0.003020 -0.360401 0.288652
    4 6.645960 0.845105 -7.440615 5.843000 -1.922944 0.025924
    5 8.073794 1.000629 -0.372470 1.568905 -3.117099 0.200717
    6 0.033551 -8.518268 -0.065070 0.236128 0.732272 0.540571
    7 -0.488518 -2.755602 -0.228260 -1.042173 -0.057752 -0.506027
    8 0.039887 -1.550105 0.025948 -1.996582 -0.004231 0.044080
    9 0.028786 -1.118701 -0.097330 -0.653179 -0.012308 0.012104
    10 0.250027 -2.820665 -0.238396 0.202503 -0.031217 -0.360323
    11 -0.049759 -1.594604 0.030164 -1.602210 -0.000683 -0.042667
    12 -0.034142 -1.167844 0.049625 -1.079647 0.007371 -0.028284
    13 0.957766 -2.746780 -0.090302 0.273190 -0.169144 0.055161
    14 -0.033420 -1.397129 -0.030789 -1.176205 -0.000539 -0.056640
    15 -0.022360 -0.957436 -0.000748 -0.836415 0.006208 -0.040736
    16 -1.180681 -2.507217 -0.193859 -1.147225 0.159961 -0.616589
    17 -0.024967 -1.127840 0.017597 -1.674946 -0.016359 -0.065243
    18 -0.020057 -0.906594 0.025715 -0.860044 0.007095 -0.034791
    19 0.614761 -1.197277 0.181473 0.632188 -0.960454 -0.780394
    20 1.446081 -0.251481 0.079230 0.075978 -0.245324 -0.917782
    21 0.999205 -0.186885 0.044010 0.095681 -0.249174 -1.074443
    22 0.120153 -0.050270 -0.054489 0.287569 3.110905 1.561085
    23 -3.911505 -6.325043 -7.208534 -0.046235 -4.318568 0.265873
    24 -0.141345 -8.450418 0.037511 -0.266793 -1.253565 0.433843
    25 0.447953 -2.798986 -0.200443 -1.405552 0.042672 0.291160
    26 -0.032909 -1.495829 0.016659 -0.877586 0.018888 -0.012702
    27 -0.027022 -1.088639 -0.028023 -0.386457 0.010439 -0.003452
    28 -0.249534 -2.846964 -0.174213 -1.168910 0.058647 0.186330
    29 0.043235 -1.660503 0.084293 -0.971763 -0.015945 0.001223
    30 0.031729 -1.153017 0.058838 -0.499826 -0.004583 0.005675
    31 -0.963866 -2.785145 -0.085350 -0.887999 0.139385 0.068522
    32 0.028479 -1.403067 -0.013261 -0.776171 -0.017977 -0.029818
    33 0.021413 -0.949968 0.020046 -0.553433 -0.010594 -0.022507
    34 1.164475 -2.543940 -0.170330 -1.416413 -0.167668 0.428443
    35 0.024032 -1.136855 -0.001725 -0.849910 0.006148 0.045015
    36 0.014898 -0.887895 -0.019848 -0.326469 -0.002445 0.014681
    37 -0.586770 -1.264477 0.200161 0.369015 -0.510030 -2.918133
    38 1.534554 0.046962 0.016848 -0.004786 0.000344 0.329167
    39 1.114041 0.048424 -0.005766 -0.012719 -0.033084 0.528902
    40 0.059826 -0.053102 -0.052011 0.740776 0.171397 1.433098
    41 -4.866232 7.370382 -0.337092 1.581283 -0.017259 -1.104715
  time 1
    0 6.179876 -8.746361 -5.382977 0.504143 -1.554569 1.058677
    1 -2.415508 0.000001 1.305888 -1.570796 3.141592 0.000000
    2 1.183939 0.257944 2.058978 -1.570796 -3.141592 -1.570796
    3 -0.862154 -0.856760 -1.276764 -0.003020 -0.360401 0.288652
    4 7.103005 2.481874 -6.999195 5.636791 -1.926321 0.198329
    5 7.886289 -1.046308 -0.399814 -1.569028 -0.028407 -3.193755
    6 0.037457 -8.537800 -0.065070 0.325121 0.701499 0.612028
    7 -0.488518 -2.755602 -0.228260 -1.042173 -0.057752 -0.506027
    8 0.039887 -1.550105 0.025948 -1.996582 -0.004231 0.044080
    9 0.028786 -1.118701 -0.097330 -0.653199 -0.012308 0.012104
    10 0.250027 -2.820665 -0.238396 0.202503 -0.031217 -0.360323
    11 -0.049759 -1.594604 0.030164 -1.602210 -0.000683 -0.042667
    12 -0.034142 -1.167844 0.049625 -1.079647 0.007371 -0.028284
    13 0.957766 -2.746780 -0.090302 0.273190 -0.169144 0.055161
    14 -0.033420 -1.397129 -0.030789 -1.176205 -0.000539 -0.056640
    15 -0.022360 -0.965249 -0.008561 -1.078835 0.001570 -0.052037
    16 -1.180681 -2.507217 -0.193859 -1.147225 0.159961 -0.616589
    17 -0.024967 -1.127840 0.017597 -1.674946 -0.016359 -0.065243
    18 -0.020057 -0.906594 0.025715 -0.860044 0.007095 -0.034791
    19 0.614761 -1.197277 0.181473 0.632188 -0.960454 -0.780381
    20 1.446081 -0.251481 0.079230 0.075978 -0.245324 -0.917782
    21 0.999205 -0.186885 0.044010 0.095681 -0.249174 -1.074443
    22 0.120153 -0.050270 -0.054489 0.287569 3.110905 1.561085
    23 -4.208389 -5.184383 -8.271067 0.193520 -4.336607 0.609240
    24 -0.145251 -8.462138 0.041418 -0.170674 -1.237807 0.492338
    25 0.447953 -2.798986 -0.200443 -1.405552 0.042672 0.291160
    26 -0.032909 -1.495829 0.016659 -0.877586 0.018888 -0.012702
    27 -0.027022 -1.088639 -0.028023 -0.386457 0.010439 -0.003452
    28 -0.249534 -2.846964 -0.174213 -1.168910 0.058647 0.186330
    29 0.043235 -1.660503 0.084293 -0.971763 -0.015945 0.001223
    30 0.031729 -1.153017 0.058838 -0.499826 -0.004583 0.005675
    31 -0.963866 -2.785145 -0.085350 -0.887999 0.139385 0.068522
    32 0.028479 -1.403067 -0.013261 -0.776171 -0.017977 -0.029818
    33 0.021413 -0.949968 0.020046 -0.553433 -0.010594 -0.022507
    34 1.164475 -2.543940 -0.170330 -1.416413 -0.167668 0.428443
    35 0.024032 -1.136855 -0.001725 -0.849910 0.006148 0.045015
    36 0.014898 -0.887895 -0.019848 -0.326469 -0.002445 0.014681
    37 -0.586770 -1.264477 0.200161 0.369015 -0.510030 -2.918133
    38 1.534554 0.046962 0.016848 -0.004786 0.000344 0.329167
    39 1.114041 0.048424 -0.005766 -0.012719 -0.033084 0.528902
    40 0.059826 -0.053102 -0.052011 0.740776 0.171397 1.433098
    41 -7.069425 4.960153 -0.411313 1.577245 -0.027063 -0.705781
  time 2
    0 6.136906 -8.652608 -5.089999 0.375944 -1.518699 1.177088
    1 -2.415508 0.000001 1.305888 -1.570796 3.141592 0.000000
    2 1.183939 0.257944 0.140951 -1.570796 -3.141592 -1.570796
    3 -0.862154 -0.856760 -1.276764 -0.003020 -0.360401 0.288652
    4 7.118630 2.505312 -6.975757 5.670137 -1.921861 0.167501
    5 7.855038 -1.179125 -0.399814 -1.568741 -0.028693 -3.210649
    6 0.041364 -8.541706 -0.065070 0.338892 0.705597 0.644916
    7 -0.488518 -2.755602 -0.228260 -1.042173 -0.057752 -0.506027
    8 0.039887 -1.550105 0.025948 -1.996582 -0.004231 0.044080
    9 0.028786 -1.118701 -0.097330 -0.653179 -0.012308 0.012104
    10 0.250027 -2.820665 -0.238396 0.202503 -0.031217 -0.360323
    11 -0.049759 -1.594604 0.030164 -1.602210 -0.000683 -0.042667
    12 -0.034142 -1.167844 0.049625 -1.079647 0.007371 -0.028284
    13 0.957766 -2.746780 -0.090302 0.273190 -0.169144 0.055161
    14 -0.033420 -1.397129 -0.030789 -1.176205 -0.000539 -0.056640
    15 -0.022360 -0.961342 -0.008561 -1.021972 0.002900 -0.049496
    16 -1.180681 -2.507217 -0.193859 -1.147225 0.159961 -0.616589
    17 -0.024967 -1.127840 0.017597 -1.674946 -0.016359 -0.065243
    18 -0.020057 -0.906594 0.025715 -0.860044 0.007095 -0.034791
    19 0.614761 -1.197277 0.181473 0.632188 -0.960454 -0.780381
    20 1.446081 -0.251481 0.079230 0.075978 -0.245324 -0.917782
    21 0.999205 -0.186885 0.044010 0.095681 -0.249174 -1.074443
    22 0.120153 -0.050270 -0.054489 0.287569 3.110905 1.561085
    23 -4.216202 -5.223447 -8.200752 0.309665 -4.319222 0.726650
    24 -0.141345 -8.462138 0.045324 -0.145419 -1.213013 0.496050
    25 0.447953 -2.798986 -0.200443 -1.405552 0.042672 0.291160
    26 -0.032909 -1.495829 0.016659 -0.877586 0.018888 -0.012702
    27 -0.027022 -1.088639 -0.028023 -0.386457 0.010439 -0.003452
    28 -0.249534 -2.846964 -0.174213 -1.168910 0.058647 0.186330
    29 0.043235 -1.660503 0.084293 -0.971763 -0.015945 0.001223
    30 0.031729 -1.153017 0.058838 -0.499826 -0.004583 0.005675
    31 -0.963866 -2.785145 -0.085350 -0.887999 0.139385 0.068522
    32 0.028479 -1.403067 -0.013261 -0.776171 -0.017977 -0.029818
    33 0.021413 -0.949968 0.020046 -0.553433 -0.010594 -0.022507
    34 1.164475 -2.543940 -0.170330 -1.416413 -0.167668 0.428443
    35 0.024032 -1.136855 -0.001725 -0.849910 0.006148 0.045015
    36 0.014898 -0.887895 -0.019848 -0.326469 -0.002445 0.014681
    37 -0.586770 -1.264477 0.200161 0.369015 -0.510030 -2.918133
    38 1.534554 0.046962 0.016848 -0.004786 0.000344 0.329167
    39 1.114041 0.048424 -0.005766 -0.012719 -0.033084 0.528902
    40 0.059826 -0.053102 -0.052011 0.740776 0.171397 1.433098
    41 -7.229586 4.674988 -0.419126 1.576633 -0.027926 -0.666021
  time 3
    0 6.082217 -8.836207 -4.785302 0.286327 -1.476729 1.243741
    1 -2.415508 0.000001 1.305888 -1.570796 3.141592 0.000000
    2 1.183939 0.257944 1.133169 -1.570796 -3.141592 -1.570796
    3 -0.862154 -0.856760 -1.276764 -0.003020 -0.360401 0.288652
    4 7.063941 2.235772 -7.069510 5.749094 -1.917210 0.096893
    5 7.901914 -0.964275 -0.399814 -1.569220 -0.028312 -3.183344
    6 0.041364 -8.537800 -0.065070 0.339117 0.716639 0.670062
    7 -0.488518 -2.755602 -0.228260 -1.042173 -0.057752 -0.506027
    8 0.039887 -1.550105 0.025948 -1.996582 -0.004231 0.044080
    9 0.028786 -1.118701 -0.097330 -0.653179 -0.012308 0.012104
    10 0.250027 -2.820665 -0.238396 0.202503 -0.031217 -0.360323
    11 -0.049759 -1.594604 0.030164 -1.602210 -0.000683 -0.042667
    12 -0.034142 -1.167844 0.049625 -1.079647 0.007371 -0.028284
    13 0.957766 -2.746780 -0.090302 0.273190 -0.169144 0.055161
    14 -0.033420 -1.397129 -0.030789 -1.176205 -0.000539 -0.056640
    15 -0.022360 -0.961342 -0.004654 -0.911252 0.005069 -0.044343
    16 -1.180681 -2.507217 -0.193859 -1.147225 0.159961 -0.616589
    17 -0.024967 -1.127840 0.017597 -1.674946 -0.016359 -0.065243
    18 -0.020057 -0.906594 0.025715 -0.860044 0.007095 -0.034791
    19 0.614761 -1.197277 0.181473 0.632188 -0.960454 -0.780394
    20 1.446081 -0.251481 0.079230 0.075978 -0.245324 -0.917782
    21 0.999205 -0.186885 0.044010 0.095681 -0.249174 -1.074443
    22 0.120153 -0.050270 -0.054489 0.287569 3.110905 1.561085
    23 -4.192764 -5.450016 -7.985902 0.395152 -4.296539 0.795838
    24 -0.133532 -8.462138 0.045324 -0.131221 -1.187118 0.489002
    25 0.447953 -2.798986 -0.200443 -1.405552 0.042672 0.291160
    26 -0.032909 -1.495829 0.016659 -0.877586 0.018888 -0.012702
    27 -0.027022 -1.088639 -0.028023 -0.386457 0.010439 -0.003452
    28 -0.249534 -2.846964 -0.174213 -1.168910 0.058647 0.186330
    29 0.043235 -1.660503 0.084293 -0.971763 -0.015945 0.001223
    30 0.031729 -1.153017 0.058838 -0.499826 -0.004583 0.005675
    31 -0.963866 -2.785145 -0.085350 -0.887999 0.139385 0.068522
    32 0.028479 -1.403067 -0.013261 -0.776171 -0.017977 -0.029818
    33 0.021413 -0.949968 0.020046 -0.553433 -0.010594 -0.022507
    34 1.164475 -2.543940 -0.170330 -1.416413 -0.167668 0.428443
    35 0.024032 -1.136855 -0.001725 -0.849910 0.006148 0.045015
    36 0.014898 -0.887895 -0.019848 -0.326469 -0.002445 0.014681
    37 -0.586770 -1.264477 0.200161 0.369015 -0.510030 -2.918133
    38 1.534554 0.046962 0.016848 -0.004786 0.000344 0.329167
    39 1.114041 0.048424 -0.005766 -0.012719 -0.033084 0.528902
    40 0.059826 -0.053102 -0.052011 0.740776 0.171397 1.433098
    41 -7.178803 4.768740 -0.415220 1.576849 -0.027638 -0.679414
  time 4
    0 6.047060 -9.027619 -4.640767 0.258958 -1.458656 1.257110
    1 -2.415508 0.000001 1.305888 -1.570796 3.141592 0.000000
    2 1.183939 0.257944 2.980881 -1.570796 -3.141592 -1.570796
    3 -0.862154 -0.856760 -1.276764 -0.003020 -0.360401 0.288652
    4 7.013158 2.013109 -7.143731 5.803904 -1.915107 0.047944
    5 7.944884 -0.749424 -0.395908 -1.569603 -0.027930 -3.156850
    6 0.045270 -8.537800 -0.065070 0.333507 0.725531 0.673680
    7 -0.488518 -2.755602 -0.228260 -1.042173 -0.057752 -0.506027
    8 0.039887 -1.550105 0.025948 -1.996582 -0.004231 0.044080
    9 0.028786 -1.118701 -0.097330 -0.653199 -0.012308 0.012104
    10 0.250027 -2.820665 -0.238396 0.202503 -0.031217 -0.360323
    11 -0.049759 -1.594604 0.030164 -1.602210 -0.000683 -0.042667
    12 -0.034142 -1.167844 0.049625 -1.079647 0.007371 -0.028284
    13 0.957766 -2.746780 -0.090302 0.273190 -0.169144 0.055161
    14 -0.033420 -1.397129 -0.030789 -1.176205 -0.000539 -0.056640
    15 -0.022360 -0.957436 -0.000748 -0.836415 0.006208 -0.040736
    16 -1.180681 -2.507217 -0.193859 -1.147225 0.159961 -0.616589
    17 -0.024967 -1.127840 0.017597 -1.674946 -0.016359 -0.065243
    18 -0.020057 -0.906594 0.025715 -0.860044 0.007095 -0.034791
    19 0.614761 -1.197277 0.181473 0.632188 -0.960454 -0.780381
    20 1.446081 -0.251481 0.079230 0.075978 -0.245324 -0.917782
    21 0.999205 -0.186885 0.044010 0.095681 -0.249174 -1.074443
    22 0.120153 -0.050270 -0.054489 0.287569 3.110905 1.561085
    23 -4.169325 -5.614084 -7.833554 0.420791 -4.286774 0.807274
    24 -0.129625 -8.458231 0.045324 -0.131786 -1.176209 0.485432
    25 0.447953 -2.798986 -0.200443 -1.405552 0.042672 0.291160
    26 -0.032909 -1.495829 0.016659 -0.877586 0.018888 -0.012702
    27 -0.027022 -1.088639 -0.028023 -0.386457 0.010439 -0.003452
    28 -0.249534 -2.846964 -0.174213 -1.168910 0.058647 0.186330
    29 0.043235 -1.660503 0.084293 -0.971763 -0.015945 0.001223
    30 0.031729 -1.153017 0.058838 -0.499826 -0.004583 0.005675
    31 -0.963866 -2.785145 -0.085350 -0.887999 0.139385 0.068522
    32 0.028479 -1.403067 -0.013261 -0.776171 -0.017977 -0.029818
    33 0.021413 -0.949968 0.020046 -0.553433 -0.010594 -0.022507
    34 1.164475 -2.543940 -0.170330 -1.416413 -0.167668 0.428443
    35 0.024032 -1.136855 -0.001725 -0.849910 0.006148 0.045015
    36 0.014898 -0.887895 -0.019848 -0.326469 -0.002445 0.014681
    37 -0.586770 -1.264477 0.200161 0.369015 -0.510030 -2.918133
    38 1.534554 0.046962 0.016848 -0.004786 0.000344 0.329167
    39 1.114041 0.048424 -0.005766 -0.012719 -0.033084 0.528902
    40 0.059826 -0.053102 -0.052011 0.740776 0.171397 1.433098
    41 -7.065518 4.964059 -0.411313 1.577257 -0.027039 -0.706619
  time 5
    0 6.047060 -9.144810 -4.691549 0.279960 -1.470113 1.236961
    1 -2.415508 0.000001 1.305888 -1.570796 3.141592 0.000000
    2 1.183939 0.257944 3.973099 -1.570796 -3.141592 -1.570796
    3 -0.862154 -0.856760 -1.276764 -0.003020 -0.360401 0.288652
    4 6.993626 1.938888 -7.167169 5.816361 -1.914279 0.036103
    5 7.960510 -0.671297 -0.395908 -1.569795 -0.027739 -3.146938
    6 0.045270 -8.533894 -0.065070 0.325766 0.730471 0.654757
    7 -0.488518 -2.755602 -0.228260 -1.042173 -0.057752 -0.506027
    8 0.039887 -1.550105 0.025948 -1.996582 -0.004231 0.044080
    9 0.028786 -1.118701 -0.097330 -0.653199 -0.012308 0.012104
    10 0.250027 -2.820665 -0.238396 0.202503 -0.031217 -0.360323
    11 -0.049759 -1.594604 0.030164 -1.602210 -0.000683 -0.042667
    12 -0.034142 -1.167844 0.049625 -1.079647 0.007371 -0.028284
    13 0.957766 -2.746780 -0.090302 0.273190 -0.169144 0.055161
    14 -0.033420 -1.397129 -0.030789 -1.176205 -0.000539 -0.056640
    15 -0.022360 -0.957436 -0.000748 -0.817714 0.006448 -0.039825
    16 -1.180681 -2.507217 -0.193859 -1.147225 0.159961 -0.616589
    17 -0.024967 -1.127840 0.017597 -1.674946 -0.016359 -0.065243
    18 -0.020057 -0.906594 0.025715 -0.860044 0.007095 -0.034791
    19 0.614761 -1.197277 0.181473 0.632188 -0.960454 -0.780381
    20 1.446081 -0.251481 0.079230 0.075978 -0.245324 -0.917782
    21 0.999205 -0.186885 0.044010 0.095681 -0.249174 -1.074443
    22 0.120153 -0.050270 -0.054489 0.287569 3.110905 1.561085
    23 -4.165419 -5.649241 -7.810115 0.391663 -4.292014 0.772204
    24 -0.133532 -8.458231 0.045324 -0.146110 -1.183151 0.491963
    25 0.447953 -2.798986 -0.200443 -1.405552 0.042672 0.291160
    26 -0.032909 -1.495829 0.016659 -0.877586 0.018888 -0.012702
    27 -0.027022 -1.088639 -0.028023 -0.386457 0.010439 -0.003452
    28 -0.249534 -2.846964 -0.174213 -1.168910 0.058647 0.186330
    29 0.043235 -1.660503 0.084293 -0.971763 -0.015945 0.001223
    30 0.031729 -1.153017 0.058838 -0.499826 -0.004583 0.005675
    31 -0.963866 -2.785145 -0.085350 -0.887999 0.139385 0.068522
    32 0.028479 -1.403067 -0.013261 -0.776171 -0.017977 -0.029818
    33 0.021413 -0.949968 0.020046 -0.553433 -0.010594 -0.022507
    34 1.164475 -2.543940 -0.170330 -1.416413 -0.167668 0.428443
    35 0.024032 -1.136855 -0.001725 -0.849910 0.006148 0.045015
    36 0.014898 -0.887895 -0.019848 -0.326469 -0.002445 0.014681
    37 -0.586770 -1.264477 0.200161 0.369015 -0.510030 -2.918133
    38 1.534554 0.046962 0.016848 -0.004786 0.000344 0.329167
    39 1.114041 0.048424 -0.005766 -0.012719 -0.033084 0.528902
    40 0.059826 -0.053102 -0.052011 0.740776 0.171397 1.433098
    41 -6.963953 5.124220 -0.407407 1.577592 -0.026523 -0.729429
  time 6
    0 6.054872 -9.269814 -4.816553 0.336505 -1.492716 1.185587
    1 -2.415508 0.000001 1.305888 -1.570796 3.141592 0.000000
    2 1.183939 0.257944 3.973099 -1.570796 -3.141592 -1.570796
    3 -0.862154 -0.856760 -1.276764 -0.003020 -0.360401 0.288652
    4 6.974095 1.892012 -7.182795 5.818661 -1.913642 0.032999
    5 7.972229 -0.604889 -0.395908 -1.569891 -0.027644 -3.138522
    6 0.041364 -8.533894 -0.065070 0.315193 0.735265 0.624944
    7 -0.488518 -2.755602 -0.228260 -1.042173 -0.057752 -0.506027
    8 0.039887 -1.550105 0.025948 -1.996582 -0.004231 0.044080
    9 0.028786 -1.118701 -0.097330 -0.653199 -0.012308 0.012104
    10 0.250027 -2.820665 -0.238396 0.202503 -0.031217 -0.360323
    11 -0.049759 -1.594604 0.030164 -1.602210 -0.000683 -0.042667
    12 -0.034142 -1.167844 0.049625 -1.079647 0.007371 -0.028284
    13 0.957766 -2.746780 -0.090302 0.273190 -0.169144 0.055161
    14 -0.033420 -1.397129 -0.030789 -1.176205 -0.000539 -0.056640
    15 -0.022360 -0.957436 -0.000748 -0.812493 0.006520 -0.039573
    16 -1.180681 -2.507217 -0.193859 -1.147225 0.159961 -0.616589
    17 -0.024967 -1.127840 0.017597 -1.674946 -0.016359 -0.065243
    18 -0.020057 -0.906594 0.025715 -0.860044 0.007095 -0.034791
    19 0.614761 -1.197277 0.181473 0.632188 -0.960454 -0.780381
    20 1.446081 -0.251481 0.079230 0.075978 -0.245324 -0.917782
    21 0.999205 -0.186885 0.044010 0.095681 -0.249174 -1.074443
    22 0.120153 -0.050270 -0.054489 0.287569 3.110905 1.561085
    23 -4.165419 -5.660960 -7.821834 0.336161 -4.302016 0.711974
    24 -0.137438 -8.458231 0.045324 -0.168915 -1.196870 0.503521
    25 0.447953 -2.798986 -0.200443 -1.405552 0.042672 0.291160
    26 -0.032909 -1.495829 0.016659 -0.877586 0.018888 -0.012702
    27 -0.027022 -1.088639 -0.028023 -0.386457 0.010439 -0.003452
    28 -0.249534 -2.846964 -0.174213 -1.168910 0.058647 0.186330
    29 0.043235 -1.660503 0.084293 -0.971763 -0.015945 0.001223
    30 0.031729 -1.153017 0.058838 -0.499826 -0.004583 0.005675
    31 -0.963866 -2.785145 -0.085350 -0.887999 0.139385 0.068522
    32 0.028479 -1.403067 -0.013261 -0.776171 -0.017977 -0.029818
    33 0.021413 -0.949968 0.020046 -0.553433 -0.010594 -0.022507
    34 1.164475 -2.543940 -0.170330 -1.416413 -0.167668 0.428443
    35 0.024032 -1.136855 -0.001725 -0.849910 0.006148 0.045015
    36 0.014898 -0.887895 -0.019848 -0.326469 -0.002445 0.014681
    37 -0.586770 -1.264477 0.200161 0.369015 -0.510030 -2.918133
    38 1.534554 0.046962 0.016848 -0.004786 0.000344 0.329167
    39 1.114041 0.048424 -0.005766 -0.012719 -0.033084 0.528902
    40 0.059826 -0.053102 -0.052011 0.740776 0.171397 1.433098
    41 -6.838949 5.315632 -0.403501 1.577988 -0.025888 -0.757401
  time 7
    0 6.066591 -9.390912 -4.984527 0.463944 -1.520784 1.065553
    1 -2.415508 0.000001 1.305888 -1.570796 3.141592 0.000000
    2 1.183939 0.257944 3.973099 -1.570796 -3.141592 -1.570796
    3 -0.862154 -0.856760 -1.276764 -0.003020 -0.360401 0.288652
    4 6.958469 1.852948 -7.198420 5.814541 -1.913259 0.035670
    5 7.980041 -0.538480 -0.395908 -1.570083 -0.027549 -3.130355
    6 0.041364 -8.529987 -0.065070 0.302852 0.739188 0.589487
    7 -0.488518 -2.755602 -0.228260 -1.042173 -0.057752 -0.506027
    8 0.039887 -1.550105 0.025948 -1.996582 -0.004231 0.044080
    9 0.028786 -1.118701 -0.097330 -0.653199 -0.012308 0.012104
    10 0.250027 -2.820665 -0.238396 0.202503 -0.031217 -0.360323
    11 -0.049759 -1.594604 0.030164 -1.602210 -0.000683 -0.042667
    12 -0.034142 -1.167844 0.049625 -1.079647 0.007371 -0.028284
    13 0.957766 -2.746780 -0.090302 0.273190 -0.169144 0.055161
    14 -0.033420 -1.397129 -0.030789 -1.176205 -0.000539 -0.056640
    15 -0.022360 -0.957436 -0.000748 -0.816227 0.006472 -0.039753
    16 -1.180681 -2.507217 -0.193859 -1.147225 0.159961 -0.616589
    17 -0.024967 -1.127840 0.017597 -1.674946 -0.016359 -0.065243
    18 -0.020057 -0.906594 0.025715 -0.860044 0.007095 -0.034791
    19 0.614761 -1.197277 0.181473 0.632188 -0.960454 -0.780381
    20 1.446081 -0.251481 0.079230 0.075978 -0.245324 -0.917782
    21 0.999205 -0.186885 0.044010 0.095681 -0.249174 -1.074443
    22 0.120153 -0.050270 -0.054489 0.287569 3.110905 1.561085
    23 -4.161513 -5.657054 -7.853085 0.262179 -4.313150 0.633923
    24 -0.141345 -8.458231 0.041418 -0.197876 -1.214170 0.518462
    25 0.447953 -2.798986 -0.200443 -1.405552 0.042672 0.291160
    26 -0.032909 -1.495829 0.016659 -0.877586 0.018888 -0.012702
    27 -0.027022 -1.088639 -0.028023 -0.386457 0.010439 -0.003452
    28 -0.249534 -2.846964 -0.174213 -1.168910 0.058647 0.186330
    29 0.043235 -1.660503 0.084293 -0.971763 -0.015945 0.001223
    30 0.031729 -1.153017 0.058838 -0.499826 -0.004583 0.005675
    31 -0.963866 -2.785145 -0.085350 -0.887999 0.139385 0.068522
    32 0.028479 -1.403067 -0.013261 -0.776171 -0.017977 -0.029818
    33 0.021413 -0.949968 0.020046 -0.553433 -0.010594 -0.022507
    34 1.164475 -2.543940 -0.170330 -1.416413 -0.167668 0.428443
    35 0.024032 -1.136855 -0.001725 -0.849910 0.006148 0.045015
    36 0.014898 -0.887895 -0.019848 -0.326469 -0.002445 0.014681
    37 -0.586770 -1.264477 0.200161 0.369015 -0.510030 -2.918133
    38 1.534554 0.046962 0.016848 -0.004786 0.000344 0.329167
    39 1.114041 0.048424 -0.005766 -0.012719 -0.033084 0.528902
    40 0.059826 -0.053102 -0.052011 0.740776 0.171397 1.433098
    41 -6.690507 5.534389 -0.399594 1.578407 -0.025157 -0.789209
  time 8
    0 6.082217 -9.508103 -5.168126 0.851395 -1.547474 0.685780
    1 -2.415508 0.000001 1.305888 -1.570796 3.141592 0.000000
    2 1.183939 0.257944 3.973099 -1.570796 -3.141592 -1.570796
    3 -0.862154 -0.856760 -1.276764 -0.003020 -0.360401 0.288652
    4 6.942844 1.817791 -7.217952 5.807833 -1.913196 0.040868
    5 7.991760 -0.464259 -0.392002 -1.570179 -0.027358 -3.121004
    6 0.041364 -8.526081 -0.065070 0.289866 0.741571 0.553777
    7 -0.488518 -2.755602 -0.228260 -1.042173 -0.057752 -0.506027
    8 0.039887 -1.550105 0.025948 -1.996582 -0.004231 0.044080
    9 0.028786 -1.118701 -0.097330 -0.653199 -0.012308 0.012104
    10 0.250027 -2.820665 -0.238396 0.202503 -0.031217 -0.360323
    11 -0.049759 -1.594604 0.030164 -1.602210 -0.000683 -0.042667
    12 -0.034142 -1.167844 0.049625 -1.079647 0.007371 -0.028284
    13 0.957766 -2.746780 -0.090302 0.273190 -0.169144 0.055161
    14 -0.033420 -1.397129 -0.030789 -1.176205 -0.000539 -0.056640
    15 -0.022360 -0.957436 -0.000748 -0.824454 0.006364 -0.040160
    16 -1.180681 -2.507217 -0.193859 -1.147225 0.159961 -0.616589
    17 -0.024967 -1.127840 0.017597 -1.674946 -0.016359 -0.065243
    18 -0.020057 -0.906594 0.025715 -0.860044 0.007095 -0.034791
    19 0.614761 -1.197277 0.181473 0.632188 -0.960454 -0.780381
    20 1.446081 -0.251481 0.079230 0.075978 -0.245324 -0.917782
    21 0.999205 -0.186885 0.044010 0.095681 -0.249174 -1.074443
    22 0.120153 -0.050270 -0.054489 0.287569 3.110905 1.561085
    23 -4.157606 -5.657054 -7.880430 0.179507 -4.322557 0.547676
    24 -0.145251 -8.454325 0.041418 -0.229979 -1.232132 0.534389
    25 0.447953 -2.798986 -0.200443 -1.405552 0.042672 0.291160
    26 -0.032909 -1.495829 0.016659 -0.877586 0.018888 -0.012702
    27 -0.027022 -1.088639 -0.028023 -0.386457 0.010439 -0.003452
    28 -0.249534 -2.846964 -0.174213 -1.168910 0.058647 0.186330
    29 0.043235 -1.660503 0.084293 -0.971763 -0.015945 0.001223
    30 0.031729 -1.153017 0.058838 -0.499826 -0.004583 0.005675
    31 -0.963866 -2.785145 -0.085350 -0.887999 0.139385 0.068522
    32 0.028479 -1.403067 -0.013261 -0.776171 -0.017977 -0.029818
    33 0.021413 -0.949968 0.020046 -0.553433 -0.010594 -0.022507
    34 1.164475 -2.543940 -0.170330 -1.416413 -0.167668 0.428443
    35 0.024032 -1.136855 -0.001725 -0.849910 0.006148 0.045015
    36 0.014898 -0.887895 -0.019848 -0.326469 -0.002445 0.014681
    37 -0.586770 -1.264477 0.200161 0.369015 -0.510030 -2.918133
    38 1.534554 0.046962 0.016848 -0.004786 0.000344 0.329167
    39 1.114041 0.048424 -0.005766 -0.012719 -0.033084 0.528902
    40 0.059826 -0.053102 -0.052011 0.740776 0.171397 1.433098
    41 -6.518626 5.760958 -0.391781 1.578851 -0.024342 -0.823739
  time 9
    0 6.093936 -9.625294 -5.332194 2.228901 -1.556343 -0.685965
    1 -2.415508 0.000001 1.305888 -1.570796 3.141592 0.000000
    2 1.183939 0.257944 3.973099 -1.570796 -3.141592 -1.570796
    3 -0.862154 -0.856760 -1.276764 -0.003020 -0.360401 0.288652
    4 6.919405 1.763102 -7.237484 5.802467 -1.913450 0.045417
    5 8.007386 -0.366600 -0.392002 -1.570370 -0.027263 -3.109160
    6 0.037457 -8.522175 -0.065070 0.277497 0.741920 0.523312
    7 -0.488518 -2.755602 -0.228260 -1.042173 -0.057752 -0.506027
    8 0.039887 -1.550105 0.025948 -1.996582 -0.004231 0.044080
    9 0.028786 -1.118701 -0.097330 -0.653199 -0.012308 0.012104
    10 0.250027 -2.820665 -0.238396 0.202503 -0.031217 -0.360323
    11 -0.049759 -1.594604 0.030164 -1.602210 -0.000683 -0.042667
    12 -0.034142 -1.167844 0.049625 -1.079647 0.007371 -0.028284
    13 0.957766 -2.746780 -0.090302 0.273190 -0.169144 0.055161
    14 -0.033420 -1.397129 -0.030789 -1.176205 -0.000539 -0.056640
    15 -0.022360 -0.957436 -0.000748 -0.832681 0.006256 -0.040556
    16 -1.180681 -2.507217 -0.193859 -1.147225 0.159961 -0.616589
    17 -0.024967 -1.127840 0.017597 -1.674946 -0.016359 -0.065243
    18 -0.020057 -0.906594 0.025715 -0.860044 0.007095 -0.034791
    19 0.614761 -1.197277 0.181473 0.632188 -0.960454 -0.780381
    20 1.446081 -0.251481 0.079230 0.075978 -0.245324 -0.917782
    21 0.999205 -0.186885 0.044010 0.095681 -0.249174 -1.074443
    22 0.120153 -0.050270 -0.054489 0.287569 3.110905 1.561085
    23 -4.141981 -5.672680 -7.892149 0.101118 -4.328391 0.465527
    24 -0.149157 -8.454325 0.037511 -0.260825 -1.248055 0.547404
    25 0.447953 -2.798986 -0.200443 -1.405552 0.042672 0.291160
    26 -0.032909 -1.495829 0.016659 -0.877586 0.018888 -0.012702
    27 -0.027022 -1.088639 -0.028023 -0.386457 0.010439 -0.003452
    28 -0.249534 -2.846964 -0.174213 -1.168910 0.058647 0.186330
    29 0.043235 -1.660503 0.084293 -0.971763 -0.015945 0.001223
    30 0.031729 -1.153017 0.058838 -0.499826 -0.004583 0.005675
    31 -0.963866 -2.785145 -0.085350 -0.887999 0.139385 0.068522
    32 0.028479 -1.403067 -0.013261 -0.776171 -0.017977 -0.029818
    33 0.021413 -0.949968 0.020046 -0.553433 -0.010594 -0.022507
    34 1.164475 -2.543940 -0.170330 -1.416413 -0.167668 0.428443
    35 0.024032 -1.136855 -0.001725 -0.849910 0.006148 0.045015
    36 0.014898 -0.887895 -0.019848 -0.326469 -0.002445 0.014681
    37 -0.586770 -1.264477 0.200161 0.369015 -0.510030 -2.918133
    38 1.534554 0.046962 0.016848 -0.004786 0.000344 0.329167
    39 1.114041 0.048424 -0.005766 -0.012719 -0.033084 0.528902
    40 0.059826 -0.053102 -0.052011 0.740776 0.171397 1.433098
    41 -6.335027 5.991434 -0.383969 1.579270 -0.023479 -0.859523
  time 10
    0 6.101749 -9.738578 -5.437666 2.948492 -1.547953 -1.403589
    1 -2.415508 0.000001 1.305888 -1.570796 3.141592 0.000000
    2 1.183939 0.257944 3.973099 -1.570796 -3.141592 -1.570796
    3 -0.862154 -0.856760 -1.276764 -0.003020 -0.360401 0.288652
    4 6.895967 1.684974 -7.260922 5.802084 -1.914088 0.046211
    5 8.023011 -0.241596 -0.392002 -1.570562 -0.026977 -3.093512
    6 0.037457 -8.522175 -0.065070 0.267036 0.739886 0.503594
    7 -0.488518 -2.755602 -0.228260 -1.042173 -0.057752 -0.506027
    8 0.039887 -1.550105 0.025948 -1.996582 -0.004231 0.044080
    9 0.028786 -1.118701 -0.097330 -0.653179 -0.012308 0.012104
    10 0.250027 -2.820665 -0.238396 0.202503 -0.031217 -0.360323
    11 -0.049759 -1.594604 0.030164 -1.602210 -0.000683 -0.042667
    12 -0.034142 -1.167844 0.049625 -1.079647 0.007371 -0.028284
    13 0.957766 -2.746780 -0.090302 0.273190 -0.169144 0.055161
    14 -0.033420 -1.397129 -0.030789 -1.176205 -0.000539 -0.056640
    15 -0.022360 -0.957436 -0.000748 -0.836415 0.006208 -0.040736
    16 -1.180681 -2.507217 -0.193859 -1.147225 0.159961 -0.616589
    17 -0.024967 -1.127840 0.017597 -1.674946 -0.016359 -0.065243
    18 -0.020057 -0.906594 0.025715 -0.860044 0.007095 -0.034791
    19 0.614761 -1.197277 0.181473 0.632188 -0.960454 -0.780381
    20 1.446081 -0.251481 0.079230 0.075978 -0.245324 -0.917782
    21 0.999205 -0.186885 0.044010 0.095681 -0.249174 -1.074443
    22 0.120153 -0.050270 -0.054489 0.287569 3.110905 1.561085
    23 -4.118543 -5.719556 -7.864805 0.041639 -4.330475 0.401200
    24 -0.149157 -8.450418 0.037511 -0.284258 -1.259570 0.552056
    25 0.447953 -2.798986 -0.200443 -1.405552 0.042672 0.291160
    26 -0.032909 -1.495829 0.016659 -0.877586 0.018888 -0.012702
    27 -0.027022 -1.088639 -0.028023 -0.386457 0.010439 -0.003452
    28 -0.249534 -2.846964 -0.174213 -1.168910 0.058647 0.186330
    29 0.043235 -1.660503 0.084293 -0.971763 -0.015945 0.001223
    30 0.031729 -1.153017 0.058838 -0.499826 -0.004583 0.005675
    31 -0.963866 -2.785145 -0.085350 -0.887999 0.139385 0.068522
    32 0.028479 -1.403067 -0.013261 -0.776171 -0.017977 -0.029818
    33 0.021413 -0.949968 0.020046 -0.553433 -0.010594 -0.022507
    34 1.164475 -2.543940 -0.170330 -1.416413 -0.167668 0.428443
    35 0.024032 -1.136855 -0.001725 -0.849910 0.006148 0.045015
    36 0.014898 -0.887895 -0.019848 -0.326469 -0.002445 0.014681
    37 -0.586770 -1.264477 0.200161 0.369015 -0.510030 -2.918133
    38 1.534554 0.046962 0.016848 -0.004786 0.000344 0.329167
    39 1.114041 0.048424 -0.005766 -0.012719 -0.033084 0.528902
    40 0.059826 -0.053102 -0.052011 0.740776 0.171397 1.433098
    41 -6.143615 6.214097 -0.380062 1.579653 -0.022616 -0.895099
  time 11
    0 6.093936 -9.859676 -5.484542 0.211726 -1.594993 1.330926
    1 -2.415508 0.000001 1.305888 -1.570796 3.141592 0.000000
    2 1.183939 0.257944 3.973099 -1.570796 -3.141592 -1.570796
    3 -0.862154 -0.856760 -1.276764 -0.003020 -0.360401 0.288652
    4 6.860810 1.567783 -7.296079 5.806971 -1.915234 0.043395
    5 8.042543 -0.065810 -0.388095 1.570726 -3.114905 0.069679
    6 0.033551 -8.522175 -0.065070 0.258201 0.733987 0.496032
    7 -0.488518 -2.755602 -0.228260 -1.042173 -0.057752 -0.506027
    8 0.039887 -1.550105 0.025948 -1.996582 -0.004231 0.044080
    9 0.028786 -1.118701 -0.097330 -0.653179 -0.012308 0.012104
    10 0.250027 -2.820665 -0.238396 0.202503 -0.031217 -0.360323
    11 -0.049759 -1.594604 0.030164 -1.602210 -0.000683 -0.042667
    12 -0.034142 -1.167844 0.049625 -1.079647 0.007371 -0.028284
    13 0.957766 -2.746780 -0.090302 0.273190 -0.169144 0.055161
    14 -0.033420 -1.397129 -0.030789 -1.176205 -0.000539 -0.056640
    15 -0.022360 -0.957436 -0.000748 -0.836415 0.006208 -0.040736
    16 -1.180681 -2.507217 -0.193859 -1.147225 0.159961 -0.616589
    17 -0.024967 -1.127840 0.017597 -1.674946 -0.016359 -0.065243
    18 -0.020057 -0.906594 0.025715 -0.860044 0.007095 -0.034791
    19 0.614761 -1.197277 0.181473 0.632188 -0.960454 -0.780394
    20 1.446081 -0.251481 0.079230 0.075978 -0.245324 -0.917782
    21 0.999205 -0.186885 0.044010 0.095681 -0.249174 -1.074443
    22 0.120153 -0.050270 -0.054489 0.287569 3.110905 1.561085
    23 -4.083385 -5.801590 -7.794490 0.002536 -4.329820 0.355455
    24 -0.153064 -8.450418 0.037511 -0.298205 -1.267394 0.543739
    25 0.447953 -2.798986 -0.200443 -1.405552 0.042672 0.291160
    26 -0.032909 -1.495829 0.016659 -0.877586 0.018888 -0.012702
    27 -0.027022 -1.088639 -0.028023 -0.386457 0.010439 -0.003452
    28 -0.249534 -2.846964 -0.174213 -1.168910 0.058647 0.186330
    29 0.043235 -1.660503 0.084293 -0.971763 -0.015945 0.001223
    30 0.031729 -1.153017 0.058838 -0.499826 -0.004583 0.005675
    31 -0.963866 -2.785145 -0.085350 -0.887999 0.139385 0.068522
    32 0.028479 -1.403067 -0.013261 -0.776171 -0.017977 -0.029818
    33 0.021413 -0.949968 0.020046 -0.553433 -0.010594 -0.022507
    34 1.164475 -2.543940 -0.170330 -1.416413 -0.167668 0.428443
    35 0.024032 -1.136855 -0.001725 -0.849910 0.006148 0.045015
    36 0.014898 -0.887895 -0.019848 -0.326469 -0.002445 0.014681
    37 -0.586770 -1.264477 0.200161 0.369015 -0.510030 -2.918133
    38 1.534554 0.046962 0.016848 -0.004786 0.000344 0.329167
    39 1.114041 0.048424 -0.005766 -0.012719 -0.033084 0.528902
    40 0.059826 -0.053102 -0.052011 0.740776 0.171397 1.433098
    41 -5.932671 6.440666 -0.372250 1.580037 -0.021670 -0.933185
  time 12
    0 6.074404 -9.992492 -5.488449 0.807014 -1.594909 0.730375
    1 -2.415508 0.000001 1.305888 -1.570796 3.141592 0.000000
    2 1.183939 0.257944 3.973099 -1.570796 -3.141592 -1.570796
    3 -0.862154 -0.856760 -1.276764 -0.003020 -0.360401 0.288652
    4 6.817840 1.419341 -7.335143 5.814157 -1.916827 0.039569
    5 8.058169 0.156853 -0.384189 1.570247 -3.115287 0.096797
    6 0.033551 -8.522175 -0.065070 0.249983 0.724339 0.496647
    7 -0.488518 -2.755602 -0.228260 -1.042173 -0.057752 -0.506027
    8 0.039887 -1.550105 0.025948 -1.996582 -0.004231 0.044080
    9 0.028786 -1.118701 -0.097330 -0.653199 -0.012308 0.012104
    10 0.250027 -2.820665 -0.238396 0.202503 -0.031217 -0.360323
    11 -0.049759 -1.594604 0.030164 -1.602210 -0.000683 -0.042667
    12 -0.034142 -1.167844 0.049625 -1.079647 0.007371 -0.028284
    13 0.957766 -2.746780 -0.090302 0.273190 -0.169144 0.055161
    14 -0.033420 -1.397129 -0.030789 -1.176205 -0.000539 -0.056640
    15 -0.022360 -0.957436 -0.000748 -0.836415 0.006208 -0.040736
    16 -1.180681 -2.507217 -0.193859 -1.147225 0.159961 -0.616589
    17 -0.024967 -1.127840 0.017597 -1.674946 -0.016359 -0.065243
    18 -0.020057 -0.906594 0.025715 -0.860044 0.007095 -0.034791
    19 0.614761 -1.197277 0.181473 0.632188 -0.960454 -0.780394
    20 1.446081 -0.251481 0.079230 0.075978 -0.245324 -0.917782
    21 0.999205 -0.186885 0.044010 0.095681 -0.249174 -1.074443
    22 0.120153 -0.050270 -0.054489 0.287569 3.110905 1.561085
    23 -4.036509 -5.918781 -7.685112 -0.026775 -4.327915 0.318098
    24 -0.153064 -8.450418 0.037511 -0.306121 -1.273785 0.524570
    25 0.447953 -2.798986 -0.200443 -1.405552 0.042672 0.291160
    26 -0.032909 -1.495829 0.016659 -0.877586 0.018888 -0.012702
    27 -0.027022 -1.088639 -0.028023 -0.386457 0.010439 -0.003452
    28 -0.249534 -2.846964 -0.174213 -1.168910 0.058647 0.186330
    29 0.043235 -1.660503 0.084293 -0.971763 -0.015945 0.001223
    30 0.031729 -1.153017 0.058838 -0.499826 -0.004583 0.005675
    31 -0.963866 -2.785145 -0.085350 -0.887999 0.139385 0.068522
    32 0.028479 -1.403067 -0.013261 -0.776171 -0.017977 -0.029818
    33 0.021413 -0.949968 0.020046 -0.553433 -0.010594 -0.022507
    34 1.164475 -2.543940 -0.170330 -1.416413 -0.167668 0.428443
    35 0.024032 -1.136855 -0.001725 -0.849910 0.006148 0.045015
    36 0.014898 -0.887895 -0.019848 -0.326469 -0.002445 0.014681
    37 -0.586770 -1.264477 0.200161 0.369015 -0.510030 -2.918133
    38 1.534554 0.046962 0.016848 -0.004786 0.000344 0.329167
    39 1.114041 0.048424 -0.005766 -0.012719 -0.033084 0.528902
    40 0.059826 -0.053102 -0.052011 0.740776 0.171397 1.433098
    41 -5.678757 6.690674 -0.364437 1.580420 -0.020591 -0.976155
  time 13
    0 6.050966 -10.125309 -5.468917 1.418743 -1.601920 0.111777
    1 -2.415508 0.000001 1.305888 -1.570796 3.141592 0.000000
    2 1.183939 0.257944 3.973099 -1.570796 -3.141592 -1.570796
    3 -0.862154 -0.856760 -1.276764 -0.003020 -0.360401 0.288652
    4 6.770963 1.259180 -7.370300 5.822398 -1.918675 0.035454
    5 8.073794 0.395142 -0.380282 1.569863 -3.115764 0.126408
    6 0.029645 -8.522175 -0.065070 0.242523 0.713094 0.502653
    7 -0.488518 -2.755602 -0.228260 -1.042173 -0.057752 -0.506027
    8 0.039887 -1.550105 0.025948 -1.996582 -0.004231 0.044080
    9 0.028786 -1.118701 -0.097330 -0.653179 -0.012308 0.012104
    10 0.250027 -2.820665 -0.238396 0.202503 -0.031217 -0.360323
    11 -0.049759 -1.594604 0.030164 -1.602210 -0.000683 -0.042667
    12 -0.034142 -1.167844 0.049625 -1.079647 0.007371 -0.028284
    13 0.957766 -2.746780 -0.090302 0.273190 -0.169144 0.055161
    14 -0.033420 -1.397129 -0.030789 -1.176205 -0.000539 -0.056640
    15 -0.022360 -0.957436 -0.000748 -0.836415 0.006208 -0.040736
    16 -1.180681 -2.507217 -0.193859 -1.147225 0.159961 -0.616589
    17 -0.024967 -1.127840 0.017597 -1.674946 -0.016359 -0.065243
    18 -0.020057 -0.906594 0.025715 -0.860044 0.007095 -0.034791
    19 0.614761 -1.197277 0.181473 0.632188 -0.960454 -0.780381
    20 1.446081 -0.251481 0.079230 0.075978 -0.245324 -0.917782
    21 0.999205 -0.186885 0.044010 0.095681 -0.249174 -1.074443
    22 0.120153 -0.050270 -0.054489 0.287569 3.110905 1.561085
    23 -3.985726 -6.043785 -7.552295 -0.048682 -4.325414 0.287316
    24 -0.153064 -8.450418 0.037511 -0.309136 -1.278689 0.498587
    25 0.447953 -2.798986 -0.200443 -1.405552 0.042672 0.291160
    26 -0.032909 -1.495829 0.016659 -0.877586 0.018888 -0.012702
    27 -0.027022 -1.088639 -0.028023 -0.386457 0.010439 -0.003452
    28 -0.249534 -2.846964 -0.174213 -1.168910 0.058647 0.186330
    29 0.043235 -1.660503 0.084293 -0.971763 -0.015945 0.001223
    30 0.031729 -1.153017 0.058838 -0.499826 -0.004583 0.005675
    31 -0.963866 -2.785145 -0.085350 -0.887999 0.139385 0.068522
    32 0.028479 -1.403067 -0.013261 -0.776171 -0.017977 -0.029818
    33 0.021413 -0.949968 0.020046 -0.553433 -0.010594 -0.022507
    34 1.164475 -2.543940 -0.170330 -1.416413 -0.167668 0.428443
    35 0.024032 -1.136855 -0.001725 -0.849910 0.006148 0.045015
    36 0.014898 -0.887895 -0.019848 -0.326469 -0.002445 0.014681
    37 -0.586770 -1.264477 0.200161 0.369015 -0.510030 -2.918133
    38 1.534554 0.046962 0.016848 -0.004786 0.000344 0.329167
    39 1.114041 0.048424 -0.005766 -0.012719 -0.033084 0.528902
    40 0.059826 -0.053102 -0.052011 0.740776 0.171397 1.433098
    41 -5.405311 6.940682 -0.352718 1.580780 -0.019428 -1.021287
  time 14
    0 6.027528 -10.254219 -5.437666 -1.364209 -1.526597 -3.395844
    1 -2.415508 0.000001 1.305888 -1.570796 3.141592 0.000000
    2 1.183939 0.257944 3.973099 -1.570796 -3.141592 -1.570796
    3 -0.862154 -0.856760 -1.276764 -0.003020 -0.360401 0.288652
    4 6.720181 1.095112 -7.401551 5.830639 -1.920459 0.031555
    5 8.077701 0.633430 -0.380282 1.569480 -3.116240 0.155583
    6 0.025738 -8.522175 -0.065070 0.235960 0.702342 0.511336
    7 -0.488518 -2.755602 -0.228260 -1.042173 -0.057752 -0.506027
    8 0.039887 -1.550105 0.025948 -1.996582 -0.004231 0.044080
    9 0.028786 -1.118701 -0.097330 -0.653199 -0.012308 0.012104
    10 0.250027 -2.820665 -0.238396 0.202503 -0.031217 -0.360323
    11 -0.049759 -1.594604 0.030164 -1.602210 -0.000683 -0.042667
    12 -0.034142 -1.167844 0.049625 -1.079647 0.007371 -0.028284
    13 0.957766 -2.746780 -0.090302 0.273190 -0.169144 0.055161
    14 -0.033420 -1.397129 -0.030789 -1.176205 -0.000539 -0.056640
    15 -0.022360 -0.957436 -0.000748 -0.836415 0.006208 -0.040736
    16 -1.180681 -2.507217 -0.193859 -1.147225 0.159961 -0.616589
    17 -0.024967 -1.127840 0.017597 -1.674946 -0.016359 -0.065243
    18 -0.020057 -0.906594 0.025715 -0.860044 0.007095 -0.034791
    19 0.614761 -1.197277 0.181473 0.632188 -0.960454 -0.780394
    20 1.446081 -0.251481 0.079230 0.075978 -0.245324 -0.917782
    21 0.999205 -0.186885 0.044010 0.095681 -0.249174 -1.074443
    22 0.120153 -0.050270 -0.054489 0.287569 3.110905 1.561085
    23 -3.934943 -6.172695 -7.407759 -0.065511 -4.322854 0.261585
    24 -0.149157 -8.450418 0.037511 -0.308696 -1.282105 0.470209
    25 0.447953 -2.798986 -0.200443 -1.405552 0.042672 0.291160
    26 -0.032909 -1.495829 0.016659 -0.877586 0.018888 -0.012702
    27 -0.027022 -1.088639 -0.028023 -0.386457 0.010439 -0.003452
    28 -0.249534 -2.846964 -0.174213 -1.168910 0.058647 0.186330
    29 0.043235 -1.660503 0.084293 -0.971763 -0.015945 0.001223
    30 0.031729 -1.153017 0.058838 -0.499826 -0.004583 0.005675
    31 -0.963866 -2.785145 -0.085350 -0.887999 0.139385 0.068522
    32 0.028479 -1.403067 -0.013261 -0.776171 -0.017977 -0.029818
    33 0.021413 -0.949968 0.020046 -0.553433 -0.010594 -0.022507
    34 1.164475 -2.543940 -0.170330 -1.416413 -0.167668 0.428443
    35 0.024032 -1.136855 -0.001725 -0.849910 0.006148 0.045015
    36 0.014898 -0.887895 -0.019848 -0.326469 -0.002445 0.014681
    37 -0.586770 -1.264477 0.200161 0.369015 -0.510030 -2.918133
    38 1.534554 0.046962 0.016848 -0.004786 0.000344 0.329167
    39 1.114041 0.048424 -0.005766 -0.012719 -0.033084 0.528902
    40 0.059826 -0.053102 -0.052011 0.740776 0.171397 1.433098
    41 -5.124053 7.175064 -0.344905 1.581056 -0.018290 -1.065373
  time 15
    0 6.007996 -10.363598 -5.398602 -1.184502 -1.513606 -3.582340
    1 -2.415508 0.000001 1.305888 -1.570796 3.141592 0.000000
    2 1.183939 0.257944 3.973099 -1.570796 -3.141592 -1.570796
    3 -0.862154 -0.856760 -1.276764 -0.003020 -0.360401 0.288652
    4 6.677211 0.950577 -7.424989 5.837825 -1.921924 0.028234
    5 8.077701 0.844374 -0.376376 1.569192 -3.116717 0.181330
    6 0.025738 -8.522175 -0.065070 0.230519 0.694119 0.519984
    7 -0.488518 -2.755602 -0.228260 -1.042173 -0.057752 -0.506027
    8 0.039887 -1.550105 0.025948 -1.996582 -0.004231 0.044080
    9 0.028786 -1.118701 -0.097330 -0.653179 -0.012308 0.012104
    10 0.250027 -2.820665 -0.238396 0.202503 -0.031217 -0.360323
    11 -0.049759 -1.594604 0.030164 -1.602210 -0.000683 -0.042667
    12 -0.034142 -1.167844 0.049625 -1.079647 0.007371 -0.028284
    13 0.957766 -2.746780 -0.090302 0.273190 -0.169144 0.055161
    14 -0.033420 -1.397129 -0.030789 -1.176205 -0.000539 -0.056640
    15 -0.022360 -0.957436 -0.000748 -0.836415 0.006208 -0.040736
    16 -1.180681 -2.507217 -0.193859 -1.147225 0.159961 -0.616589
    17 -0.024967 -1.127840 0.017597 -1.674946 -0.016359 -0.065243
    18 -0.020057 -0.906594 0.025715 -0.860044 0.007095 -0.034791
    19 0.614761 -1.197277 0.181473 0.632188 -0.960454 -0.780381
    20 1.446081 -0.251481 0.079230 0.075978 -0.245324 -0.917782
    21 0.999205 -0.186885 0.044010 0.095681 -0.249174 -1.074443
    22 0.120153 -0.050270 -0.054489 0.287569 3.110905 1.561085
    23 -3.891973 -6.282073 -7.274943 -0.079218 -4.320592 0.239951
    24 -0.149157 -8.446512 0.037511 -0.306498 -1.283868 0.444179
    25 0.447953 -2.798986 -0.200443 -1.405552 0.042672 0.291160
    26 -0.032909 -1.495829 0.016659 -0.877586 0.018888 -0.012702
    27 -0.027022 -1.088639 -0.028023 -0.386457 0.010439 -0.003452
    28 -0.249534 -2.846964 -0.174213 -1.168910 0.058647 0.186330
    29 0.043235 -1.660503 0.084293 -0.971763 -0.015945 0.001223
    30 0.031729 -1.153017 0.058838 -0.499826 -0.004583 0.005675
    31 -0.963866 -2.785145 -0.085350 -0.887999 0.139385 0.068522
    32 0.028479 -1.403067 -0.013261 -0.776171 -0.017977 -0.029818
    33 0.021413 -0.949968 0.020046 -0.553433 -0.010594 -0.022507
    34 1.164475 -2.543940 -0.170330 -1.416413 -0.167668 0.428443
    35 0.024032 -1.136855 -0.001725 -0.849910 0.006148 0.045015
    36 0.014898 -0.887895 -0.019848 -0.326469 -0.002445 0.014681
    37 -0.586770 -1.264477 0.200161 0.369015 -0.510030 -2.918133
    38 1.534554 0.046962 0.016848 -0.004786 0.000344 0.329167
    39 1.114041 0.048424 -0.005766 -0.012719 -0.033084 0.528902
    40 0.059826 -0.053102 -0.052011 0.740776 0.171397 1.433098
    41 -4.866232 7.370382 -0.337092 1.581283 -0.017259 -1.104854
  time 16
    0 5.996277 -10.453444 -5.375164 -1.097451 -1.505672 -3.674299
    1 -2.415508 0.000001 1.305888 -1.570796 3.141592 0.000000
    2 1.183939 0.257944 3.973099 -1.570796 -3.141592 -1.570796
    3 -0.862154 -0.856760 -1.276764 -0.003020 -0.360401 0.288652
    4 6.645960 0.845105 -7.440615 5.843000 -1.922944 0.025924
    5 8.073794 1.000629 -0.372470 1.568905 -3.117099 0.200717
    6 0.021832 -8.522175 -0.065070 0.226536 0.690428 0.525953
    7 -0.488518 -2.755602 -0.228260 -1.042173 -0.057752 -0.506027
    8 0.039887 -1.550105 0.025948 -1.996582 -0.004231 0.044080
    9 0.028786 -1.118701 -0.097330 -0.653199 -0.012308 0.012104
    10 0.250027 -2.820665 -0.238396 0.202503 -0.031217 -0.360323
    11 -0.049759 -1.594604 0.030164 -1.602210 -0.000683 -0.042667
    12 -0.034142 -1.167844 0.049625 -1.079647 0.007371 -0.028284
    13 0.957766 -2.746780 -0.090302 0.273190 -0.169144 0.055161
    14 -0.033420 -1.397129 -0.030789 -1.176205 -0.000539 -0.056640
    15 -0.022360 -0.957436 -0.000748 -0.836415 0.006208 -0.040736
    16 -1.180681 -2.507217 -0.193859 -1.147225 0.159961 -0.616589
    17 -0.024967 -1.127840 0.017597 -1.674946 -0.016359 -0.065243
    18 -0.020057 -0.906594 0.025715 -0.860044 0.007095 -0.034791
    19 0.614761 -1.197277 0.181473 0.632188 -0.960454 -0.780381
    20 1.446081 -0.251481 0.079230 0.075978 -0.245324 -0.917782
    21 0.999205 -0.186885 0.044010 0.095681 -0.249174 -1.074443
    22 0.120153 -0.050270 -0.054489 0.287569 3.110905 1.561085
    23 -3.856816 -6.360201 -7.169471 -0.091089 -4.318746 0.221749
    24 -0.149157 -8.446512 0.037511 -0.304236 -1.284089 0.425667
    25 0.447953 -2.798986 -0.200443 -1.405552 0.042672 0.291160
    26 -0.032909 -1.495829 0.016659 -0.877586 0.018888 -0.012702
    27 -0.027022 -1.088639 -0.028023 -0.386457 0.010439 -0.003452
    28 -0.249534 -2.846964 -0.174213 -1.168910 0.058647 0.186330
    29 0.043235 -1.660503 0.084293 -0.971763 -0.015945 0.001223
    30 0.031729 -1.153017 0.058838 -0.499826 -0.004583 0.005675
    31 -0.963866 -2.785145 -0.085350 -0.887999 0.139385 0.068522
    32 0.028479 -1.403067 -0.013261 -0.776171 -0.017977 -0.029818
    33 0.021413 -0.949968 0.020046 -0.553433 -0.010594 -0.022507
    34 1.164475 -2.543940 -0.170330 -1.416413 -0.167668 0.428443
    35 0.024032 -1.136855 -0.001725 -0.849910 0.006148 0.045015
    36 0.014898 -0.887895 -0.019848 -0.326469 -0.002445 0.014681
    37 -0.586770 -1.264477 0.200161 0.369015 -0.510030 -2.918133
    38 1.534554 0.046962 0.016848 -0.004786 0.000344 0.329167
    39 1.114041 0.048424 -0.005766 -0.012719 -0.033084 0.528902
    40 0.059826 -0.053102 -0.052011 0.740776 0.171397 1.433098
    41 -4.659195 7.518824 -0.329279 1.581427 -0.016444 -1.135617
  time 17
    0 6.004089 -10.492508 -5.359539 -1.034539 -1.507541 -3.739998
    1 -2.415508 0.000001 1.305888 -1.570796 3.141592 0.000000
    2 1.183939 0.257944 3.973099 -1.570796 -3.141592 -1.570796
    3 -0.862154 -0.856760 -1.276764 -0.003020 -0.360401 0.288652
    4 6.630334 0.798228 -7.444521 5.845204 -1.923390 0.024913
    5 8.073794 1.070944 -0.372470 1.568809 -3.117194 0.209320
    6 0.025738 -8.522175 -0.065070 0.225779 0.694613 0.529608
    7 -0.488518 -2.755602 -0.228260 -1.042173 -0.057752 -0.506027
    8 0.039887 -1.550105 0.025948 -1.996582 -0.004231 0.044080
    9 0.028786 -1.118701 -0.097330 -0.653199 -0.012308 0.012104
    10 0.250027 -2.820665 -0.238396 0.202503 -0.031217 -0.360323
    11 -0.049759 -1.594604 0.030164 -1.602210 -0.000683 -0.042667
    12 -0.034142 -1.167844 0.049625 -1.079647 0.007371 -0.028284
    13 0.957766 -2.746780 -0.090302 0.273190 -0.169144 0.055161
    14 -0.033420 -1.397129 -0.030789 -1.176205 -0.000539 -0.056640
    15 -0.022360 -0.957436 -0.000748 -0.836415 0.006208 -0.040736
    16 -1.180681 -2.507217 -0.193859 -1.147225 0.159961 -0.616589
    17 -0.024967 -1.127840 0.017597 -1.674946 -0.016359 -0.065243
    18 -0.020057 -0.906594 0.025715 -0.860044 0.007095 -0.034791
    19 0.614761 -1.197277 0.181473 0.632188 -0.960454 -0.780381
    20 1.446081 -0.251481 0.079230 0.075978 -0.245324 -0.917782
    21 0.999205 -0.186885 0.044010 0.095681 -0.249174 -1.074443
    22 0.120153 -0.050270 -0.054489 0.287569 3.110905 1.561085
    23 -3.849003 -6.391451 -7.126501 -0.092558 -4.317913 0.217365
    24 -0.145251 -8.446512 0.037511 -0.298959 -1.280397 0.419090
    25 0.447953 -2.798986 -0.200443 -1.405552 0.042672 0.291160
    26 -0.032909 -1.495829 0.016659 -0.877586 0.018888 -0.012702
    27 -0.027022 -1.088639 -0.028023 -0.386457 0.010439 -0.003452
    28 -0.249534 -2.846964 -0.174213 -1.168910 0.058647 0.186330
    29 0.043235 -1.660503 0.084293 -0.971763 -0.015945 0.001223
    30 0.031729 -1.153017 0.058838 -0.499826 -0.004583 0.005675
    31 -0.963866 -2.785145 -0.085350 -0.887999 0.139385 0.068522
    32 0.028479 -1.403067 -0.013261 -0.776171 -0.017977 -0.029818
    33 0.021413 -0.949968 0.020046 -0.553433 -0.010594 -0.022507
    34 1.164475 -2.543940 -0.170330 -1.416413 -0.167668 0.428443
    35 0.024032 -1.136855 -0.001725 -0.849910 0.006148 0.045015
    36 0.014898 -0.887895 -0.019848 -0.326469 -0.002445 0.014681
    37 -0.586770 -1.264477 0.200161 0.369015 -0.510030 -2.918133
    38 1.534554 0.046962 0.016848 -0.004786 0.000344 0.329167
    39 1.114041 0.048424 -0.005766 -0.012719 -0.033084 0.528902
    40 0.059826 -0.053102 -0.052011 0.740776 0.171397 1.433098
    41 -4.588880 7.565701 -0.329279 1.581463 -0.016169 -1.146150
  time 18
    0 6.023621 -10.488601 -5.351726 -0.934754 -1.517513 -3.840837
    1 -2.415508 0.000001 1.305888 -1.570796 3.141592 0.000000
    2 1.183939 0.257944 3.973099 -1.570796 -3.141592 -1.570796
    3 -0.862154 -0.856760 -1.276764 -0.003020 -0.360401 0.288652
    4 6.634241 0.802135 -7.444521 5.845012 -1.923326 0.025057
    5 8.073794 1.063131 -0.372470 1.568809 -3.117194 0.208323
    6 0.025738 -8.522175 -0.065070 0.228443 0.705771 0.533153
    7 -0.488518 -2.755602 -0.228260 -1.042173 -0.057752 -0.506027
    8 0.039887 -1.550105 0.025948 -1.996582 -0.004231 0.044080
    9 0.028786 -1.118701 -0.097330 -0.653179 -0.012308 0.012104
    10 0.250027 -2.820665 -0.238396 0.202503 -0.031217 -0.360323
    11 -0.049759 -1.594604 0.030164 -1.602210 -0.000683 -0.042667
    12 -0.034142 -1.167844 0.049625 -1.079647 0.007371 -0.028284
    13 0.957766 -2.746780 -0.090302 0.273190 -0.169144 0.055161
    14 -0.033420 -1.397129 -0.030789 -1.176205 -0.000539 -0.056640
    15 -0.022360 -0.957436 -0.000748 -0.836415 0.006208 -0.040736
    16 -1.180681 -2.507217 -0.193859 -1.147225 0.159961 -0.616589
    17 -0.024967 -1.127840 0.017597 -1.674946 -0.016359 -0.065243
    18 -0.020057 -0.906594 0.025715 -0.860044 0.007095 -0.034791
    19 0.614761 -1.197277 0.181473 0.632188 -0.960454 -0.780394
    20 1.446081 -0.251481 0.079230 0.075978 -0.245324 -0.917782
    21 0.999205 -0.186885 0.044010 0.095681 -0.249174 -1.074443
    22 0.120153 -0.050270 -0.054489 0.287569 3.110905 1.561085
    23 -3.864629 -6.379732 -7.142126 -0.079646 -4.318032 0.230421
    24 -0.145251 -8.446512 0.037511 -0.288907 -1.272298 0.421956
    25 0.447953 -2.798986 -0.200443 -1.405552 0.042672 0.291160
    26 -0.032909 -1.495829 0.016659 -0.877586 0.018888 -0.012702
    27 -0.027022 -1.088639 -0.028023 -0.386457 0.010439 -0.003452
    28 -0.249534 -2.846964 -0.174213 -1.168910 0.058647 0.186330
    29 0.043235 -1.660503 0.084293 -0.971763 -0.015945 0.001223
    30 0.031729 -1.153017 0.058838 -0.499826 -0.004583 0.005675
    31 -0.963866 -2.785145 -0.085350 -0.887999 0.139385 0.068522
    32 0.028479 -1.403067 -0.013261 -0.776171 -0.017977 -0.029818
    33 0.021413 -0.949968 0.020046 -0.553433 -0.010594 -0.022507
    34 1.164475 -2.543940 -0.170330 -1.416413 -0.167668 0.428443
    35 0.024032 -1.136855 -0.001725 -0.849910 0.006148 0.045015
    36 0.014898 -0.887895 -0.019848 -0.326469 -0.002445 0.014681
    37 -0.586770 -1.264477 0.200161 0.369015 -0.510030 -2.918133
    38 1.534554 0.046962 0.016848 -0.004786 0.000344 0.329167
    39 1.114041 0.048424 -0.005766 -0.012719 -0.033084 0.528902
    40 0.059826 -0.053102 -0.052011 0.740776 0.171397 1.433098
    41 -4.655288 7.518824 -0.329279 1.581427 -0.016432 -1.136035
  time 19
    0 6.054872 -10.469069 -5.343913 -0.759893 -1.529881 -4.016257
    1 -2.415508 0.000001 1.305888 -1.570796 3.141592 0.000000
    2 1.183939 0.257944 3.973099 -1.570796 -3.141592 -1.570796
    3 -0.862154 -0.856760 -1.276764 -0.003020 -0.360401 0.288652
    4 6.642053 0.829479 -7.440615 5.843766 -1.923135 0.025563
    5 8.073794 1.024067 -0.372470 1.568905 -3.117099 0.203585
    6 0.029645 -8.522175 -0.065070 0.232566 0.719719 0.536808
    7 -0.488518 -2.755602 -0.228260 -1.042173 -0.057752 -0.506027
    8 0.039887 -1.550105 0.025948 -1.996582 -0.004231 0.044080
    9 0.028786 -1.118701 -0.097330 -0.653199 -0.012308 0.012104
    10 0.250027 -2.820665 -0.238396 0.202503 -0.031217 -0.360323
    11 -0.049759 -1.594604 0.030164 -1.602210 -0.000683 -0.042667
    12 -0.034142 -1.167844 0.049625 -1.079647 0.007371 -0.028284
    13 0.957766 -2.746780 -0.090302 0.273190 -0.169144 0.055161
    14 -0.033420 -1.397129 -0.030789 -1.176205 -0.000539 -0.056640
    15 -0.022360 -0.957436 -0.000748 -0.836415 0.006208 -0.040736
    16 -1.180681 -2.507217 -0.193859 -1.147225 0.159961 -0.616589
    17 -0.024967 -1.127840 0.017597 -1.674946 -0.016359 -0.065243
    18 -0.020057 -0.906594 0.025715 -0.860044 0.007095 -0.034791
    19 0.614761 -1.197277 0.181473 0.632188 -0.960454 -0.780381
    20 1.446081 -0.251481 0.079230 0.075978 -0.245324 -0.917782
    21 0.999205 -0.186885 0.044010 0.095681 -0.249174 -1.074443
    22 0.120153 -0.050270 -0.054489 0.287569 3.110905 1.561085
    23 -3.891973 -6.348481 -7.181190 -0.061411 -4.318448 0.249958
    24 -0.145251 -8.446512 0.037511 -0.277222 -1.262490 0.428721
    25 0.447953 -2.798986 -0.200443 -1.405552 0.042672 0.291160
    26 -0.032909 -1.495829 0.016659 -0.877586 0.018888 -0.012702
    27 -0.027022 -1.088639 -0.028023 -0.386457 0.010439 -0.003452
    28 -0.249534 -2.846964 -0.174213 -1.168910 0.058647 0.186330
    29 0.043235 -1.660503 0.084293 -0.971763 -0.015945 0.001223
    30 0.031729 -1.153017 0.058838 -0.499826 -0.004583 0.005675
    31 -0.963866 -2.785145 -0.085350 -0.887999 0.139385 0.068522
    32 0.028479 -1.403067 -0.013261 -0.776171 -0.017977 -0.029818
    33 0.021413 -0.949968 0.020046 -0.553433 -0.010594 -0.022507
    34 1.164475 -2.543940 -0.170330 -1.416413 -0.167668 0.428443
    35 0.024032 -1.136855 -0.001725 -0.849910 0.006148 0.045015
    36 0.014898 -0.887895 -0.019848 -0.326469 -0.002445 0.014681
    37 -0.586770 -1.264477 0.200161 0.369015 -0.510030 -2.918133
    38 1.534554 0.046962 0.016848 -0.004786 0.000344 0.329167
    39 1.114041 0.048424 -0.005766 -0.012719 -0.033084 0.528902
    40 0.059826 -0.053102 -0.052011 0.740776 0.171397 1.433098
    41 -4.776386 7.436791 -0.333186 1.581343 -0.016912 -1.118178
  time 20
    0 6.078310 -10.457350 -5.336100 -0.489239 -1.538689 -4.287646
    1 -2.415508 0.000001 1.305888 -1.570796 3.141592 0.000000
    2 1.183939 0.257944 3.973099 -1.570796 -3.141592 -1.570796
    3 -0.862154 -0.856760 -1.276764 -0.003020 -0.360401 0.288652
    4 6.645960 0.845105 -7.440615 5.843000 -1.922944 0.025924
    5 8.073794 1.000629 -0.372470 1.568905 -3.117099 0.200717
    6 0.033551 -8.518268 -0.065070 0.236128 0.732272 0.540571
    7 -0.488518 -2.755602 -0.228260 -1.042173 -0.057752 -0.506027
    8 0.039887 -1.550105 0.025948 -1.996582 -0.004231 0.044080
    9 0.028786 -1.118701 -0.097330 -0.653179 -0.012308 0.012104
    10 0.250027 -2.820665 -0.238396 0.202503 -0.031217 -0.360323
    11 -0.049759 -1.594604 0.030164 -1.602210 -0.000683 -0.042667
    12 -0.034142 -1.167844 0.049625 -1.079647 0.007371 -0.028284
    13 0.957766 -2.746780 -0.090302 0.273190 -0.169144 0.055161
    14 -0.033420 -1.397129 -0.030789 -1.176205 -0.000539 -0.056640
    15 -0.022360 -0.957436 -0.000748 -0.836415 0.006208 -0.040736
    16 -1.180681 -2.507217 -0.193859 -1.147225 0.159961 -0.616589
    17 -0.024967 -1.127840 0.017597 -1.674946 -0.016359 -0.065243
    18 -0.020057 -0.906594 0.025715 -0.860044 0.007095 -0.034791
    19 0.614761 -1.197277 0.181473 0.632188 -0.960454 -0.780394
    20 1.446081 -0.251481 0.079230 0.075978 -0.245324 -0.917782
    21 0.999205 -0.186885 0.044010 0.095681 -0.249174 -1.074443
    22 0.120153 -0.050270 -0.054489 0.287569 3.110905 1.561085
    23 -3.911505 -6.325043 -7.208534 -0.046235 -4.318568 0.265873
    24 -0.141345 -8.450418 0.037511 -0.266793 -1.253565 0.433890
    25 0.447953 -2.798986 -0.200443 -1.405552 0.042672 0.291160
    26 -0.032909 -1.495829 0.016659 -0.877586 0.018888 -0.012702
    27 -0.027022 -1.088639 -0.028023 -0.386457 0.010439 -0.003452
    28 -0.249534 -2.846964 -0.174213 -1.168910 0.058647 0.186330
    29 0.043235 -1.660503 0.084293 -0.971763 -0.015945 0.001223
    30 0.031729 -1.153017 0.058838 -0.499826 -0.004583 0.005675
    31 -0.963866 -2.785145 -0.085350 -0.887999 0.139385 0.068522
    32 0.028479 -1.403067 -0.013261 -0.776171 -0.017977 -0.029818
    33 0.021413 -0.949968 0.020046 -0.553433 -0.010594 -0.022507
    34 1.164475 -2.543940 -0.170330 -1.416413 -0.167668 0.428443
    35 0.024032 -1.136855 -0.001725 -0.849910 0.006148 0.045015
    36 0.014898 -0.887895 -0.019848 -0.326469 -0.002445 0.014681
    37 -0.586770 -1.264477 0.200161 0.369015 -0.510030 -2.918133
    38 1.534554 0.046962 0.016848 -0.004786 0.000344 0.329167
    39 1.114041 0.048424 -0.005766 -0.012719 -0.033084 0.528902
    40 0.059826 -0.053102 -0.052011 0.740776 0.171397 1.433098
    41 -4.866232 7.370382 -0.337092 1.581283 -0.017259 -1.104715
end
