version 1
nodes
  0 "root" -1
  1 "Bone01" 0
  2 "Bone_Lefthand" 1
  3 "bendita_root" 2
  4 "trigger" 3
  5 "reload" 3
  6 "magazine" 3
  7 "Bone_L_Upper" 1
  8 "Bone13" 2
  9 "Bone14" 8
  10 "Bone15" 9
  11 "Bone17" 2
  12 "Bone18" 11
  13 "Bone19" 12
  14 "Bone21" 2
  15 "Bone22" 14
  16 "Bone23" 15
  17 "Bone09" 2
  18 "Bone10" 17
  19 "Bone11" 18
  20 "Bone05" 2
  21 "Bone06" 20
  22 "Bone07" 21
  23 "Bone_Se_Hand-L" 2
  24 "Bone04" 0
  25 "Bone_Righthand" 24
  26 "Bone39" 25
  27 "Bone40" 26
  28 "Bone41" 27
  29 "Bone35" 25
  30 "Bone36" 29
  31 "Bone37" 30
  32 "Bone31" 25
  33 "Bone32" 32
  34 "Bone33" 33
  35 "Bone43" 25
  36 "Bone44" 35
  37 "Bone45" 36
  38 "Bone27" 25
  39 "Bone28" 38
  40 "Bone29" 39
  41 "Bone_Se_Hand-R" 25
  42 "Bone_R_Upper" 24
end
skeleton
  time 0
    0 0.000000 0.000000 -11.105808 0.000000 0.000000 0.000000
    1 11.046367 0.298815 -6.445671 0.069689 -1.262433 -0.764951
    2 -0.071918 -8.498730 -0.104136 0.104826 0.326749 -0.122871
    3 1.066394 -2.853785 1.145319 -0.068397 0.250151 2.999456
    4 -0.138642 1.369231 -0.000001 0.000000 0.000000 0.005300
    5 -2.544339 6.190367 -0.177679 0.000000 -1.570796 0.000000
    6 -0.956247 5.815759 -0.075912 0.000001 0.000000 0.000000
    7 1.257180 8.762585 -0.153713 -1.570562 0.002683 -1.566807
    8 -0.488518 -2.755602 -0.228260 -1.119640 -0.066262 -0.107564
    9 0.039887 -1.479790 0.029854 -1.451658 0.000000 0.000001
    10 0.028786 -1.075731 -0.023109 -0.870565 0.000000 0.000000
    11 0.250027 -2.820665 -0.238396 -0.916633 -0.083577 -0.024886
    12 -0.049759 -1.680544 0.100479 -1.550922 0.000000 -0.000002
    13 -0.034142 -1.148312 0.084782 -1.087313 0.000000 0.000000
    14 0.957766 -2.746780 -0.090302 -0.432127 -0.184437 0.072455
    15 -0.033420 -1.397129 -0.011257 -0.247860 0.000000 -0.000001
    16 -0.022360 -0.957436 0.018784 -0.956058 0.000000 0.000000
    17 -1.180681 -2.507217 -0.193859 -0.747365 0.130012 -0.054388
    18 -0.024967 -1.123934 0.017597 -1.414285 0.000000 0.000001
    19 -0.020057 -0.890968 0.010090 -0.846171 0.000000 0.000000
    20 0.583510 -1.197277 0.185379 0.631273 -1.323162 -0.918160
    21 1.535927 0.010246 0.005009 -0.124883 0.065220 -0.956793
    22 1.100771 0.004527 -0.010679 -0.014685 0.006877 -0.956472
    23 0.120153 -0.050270 -0.054489 0.287569 3.110905 1.561085
    24 -4.942786 -14.239347 -10.661765 -0.465649 -6.140944 0.615662
    25 0.096944 -8.450418 -0.009365 -0.188013 -0.016304 -0.349214
    26 0.447953 -2.798986 -0.200443 -0.349647 -0.190644 0.074012
    27 -0.032909 -1.480204 0.004940 -0.942464 0.000000 0.000002
    28 -0.027022 -1.076920 -0.020210 -0.662192 0.000000 0.000000
    29 -0.249534 -2.846964 -0.174213 -0.098514 -0.103121 -0.050246
    30 0.043235 -1.683941 0.096012 -1.267720 0.002823 -0.000167
    31 0.031729 -1.160830 0.058838 -0.617400 0.000642 0.008372
    32 -0.963866 -2.785145 -0.085350 -0.117652 -0.009415 -0.128649
    33 0.028479 -1.403067 0.006271 -1.188388 0.000000 0.000000
    34 0.021413 -0.957781 0.020046 0.273320 0.000000 0.000000
    35 1.164475 -2.543940 -0.170330 -0.040218 -0.282959 -0.086049
    36 0.024032 -1.129042 0.017807 -0.704161 0.018648 0.065233
    37 0.014898 -0.883989 -0.019848 -0.747697 0.001234 -0.004794
    38 -0.586770 -1.264477 0.200161 0.011762 -0.354218 -2.645762
    39 1.522835 0.058681 0.016848 0.105065 -0.485843 0.707579
    40 1.117947 0.048424 -0.005766 -0.027951 -0.003314 1.625083
    41 -0.139399 -0.111698 0.014397 0.285382 -0.030687 1.580508
    42 -1.393470 8.839177 -0.239433 1.580804 -0.005023 -1.566847
  time 1
    0 0.000000 0.000000 -10.961272 0.000000 0.000000 0.000000
    1 11.093243 0.412100 -6.465202 0.060232 -1.261281 -0.757251
    2 -0.071918 -8.498730 -0.104136 0.124731 0.326137 -0.118229
    3 1.066394 -2.853785 1.145319 -0.068397 0.250151 2.999456
    4 -0.138642 1.369231 -0.000001 0.000000 0.000000 0.005300
    5 -2.544339 6.096614 -0.177679 -0.116394 -1.570796 0.000000
    6 -0.956247 5.815759 -0.075912 0.000001 0.000000 0.000000
    7 1.257180 8.762585 -0.153713 -1.570562 0.002683 -1.566807
    8 -0.488518 -2.755602 -0.228260 -1.119640 -0.066262 -0.107564
    9 0.039887 -1.479790 0.029854 -1.451658 0.000000 0.000001
    10 0.028786 -1.075731 -0.023109 -0.870565 0.000000 0.000000
    11 0.250027 -2.820665 -0.238396 -0.916633 -0.083577 -0.024886
    12 -0.049759 -1.680544 0.100479 -1.550922 0.000000 -0.000002
    13 -0.034142 -1.148312 0.084782 -1.087313 0.000000 0.000000
    14 0.957766 -2.746780 -0.090302 -0.432127 -0.184437 0.072455
    15 -0.033420 -1.397129 -0.011257 -0.247860 0.000000 -0.000001
    16 -0.022360 -0.957436 0.018784 -0.956058 0.000000 0.000000
    17 -1.180681 -2.507217 -0.193859 -0.747365 0.130012 -0.054388
    18 -0.024967 -1.123934 0.017597 -1.414285 0.000000 0.000001
    19 -0.020057 -0.890968 0.010090 -0.846171 0.000000 0.000000
    20 0.583510 -1.197277 0.185379 0.631273 -1.323162 -0.918160
    21 1.535927 0.010246 0.005009 -0.124883 0.065220 -0.956793
    22 1.100771 0.004527 -0.010679 -0.014685 0.006877 -0.956472
    23 0.120153 -0.050270 -0.054489 0.287569 3.110905 1.561085
    24 -4.942786 -14.239347 -10.661765 -0.465649 -6.140944 0.615662
    25 0.096944 -8.450418 -0.009365 -0.198422 -0.032338 -0.297581
    26 0.447953 -2.798986 -0.200443 -0.472661 -0.190644 0.074012
    27 -0.032909 -1.480204 0.004940 -0.989367 0.000000 0.000002
    28 -0.027022 -1.076920 -0.020210 -0.664269 0.000000 0.000000
    29 -0.249534 -2.846964 -0.174213 -0.205387 -0.107783 -0.047610
    30 0.043235 -1.683941 0.096012 -1.319387 0.002823 -0.000167
    31 0.031729 -1.160830 0.058838 -0.619496 0.000642 0.008372
    32 -0.963866 -2.785145 -0.085350 -0.227425 -0.022191 -0.123975
    33 0.028479 -1.403067 0.006271 -1.243244 0.000000 0.000000
    34 0.021413 -0.957781 0.020046 0.271019 0.000000 0.000000
    35 1.164475 -2.543940 -0.170330 -0.100590 -0.282959 -0.086049
    36 0.024032 -1.129042 0.017807 -0.706086 0.016707 0.058450
    37 0.014898 -0.883989 -0.019848 -0.747177 0.001222 -0.004782
    38 -0.586770 -1.264477 0.200161 0.011762 -0.354218 -2.645762
    39 1.522835 0.058681 0.016848 0.105065 -0.485843 0.707579
    40 1.117947 0.048424 -0.005766 -0.027951 -0.003314 1.625083
    41 -0.139399 -0.111698 0.014397 0.285382 -0.030687 1.580508
    42 -1.393470 8.839177 -0.239433 1.580804 -0.005023 -1.566847
  time 2
    0 0.000000 0.000000 -10.558916 0.000000 0.000000 0.000000
    1 11.202622 0.677733 -6.531611 0.033360 -1.258160 -0.734699
    2 -0.071918 -8.498730 -0.104136 0.172193 0.324400 -0.105310
    3 1.066394 -2.853785 1.145319 -0.068397 0.250151 2.999456
    4 -0.138642 1.369231 -0.000001 0.000000 0.000000 0.005300
    5 -2.544339 5.862232 -0.177679 -0.407284 -1.570460 0.000000
    6 -0.956247 5.815759 -0.075912 0.000001 0.000000 0.000000
    7 1.257180 8.762585 -0.153713 -1.570562 0.002683 -1.566807
    8 -0.488518 -2.755602 -0.228260 -1.119640 -0.066262 -0.107564
    9 0.039887 -1.479790 0.029854 -1.451658 0.000000 0.000001
    10 0.028786 -1.075731 -0.023109 -0.870565 0.000000 0.000000
    11 0.250027 -2.820665 -0.238396 -0.916633 -0.083577 -0.024886
    12 -0.049759 -1.680544 0.100479 -1.550922 0.000000 -0.000002
    13 -0.034142 -1.148312 0.084782 -1.087313 0.000000 0.000000
    14 0.957766 -2.746780 -0.090302 -0.432127 -0.184437 0.072455
    15 -0.033420 -1.397129 -0.011257 -0.247860 0.000000 -0.000001
    16 -0.022360 -0.957436 0.018784 -0.956058 0.000000 0.000000
    17 -1.180681 -2.507217 -0.193859 -0.747365 0.130012 -0.054388
    18 -0.024967 -1.123934 0.017597 -1.414285 0.000000 0.000001
    19 -0.020057 -0.890968 0.010090 -0.846171 0.000000 0.000000
    20 0.583510 -1.197277 0.185379 0.631273 -1.323162 -0.918160
    21 1.535927 0.010246 0.005009 -0.124883 0.065220 -0.956793
    22 1.100771 0.004527 -0.010679 -0.014685 0.006877 -0.956472
    23 0.120153 -0.050270 -0.054489 0.287569 3.110905 1.561085
    24 -4.942786 -14.239347 -10.661765 -0.465649 -6.140944 0.615662
    25 0.096944 -8.450418 -0.009365 -0.225274 -0.073684 -0.164402
    26 0.447953 -2.798986 -0.200443 -0.765895 -0.190644 0.074012
    27 -0.032909 -1.480204 0.004940 -1.101164 0.000000 0.000002
    28 -0.027022 -1.076920 -0.020210 -0.670381 0.000000 0.000000
    29 -0.249534 -2.846964 -0.174213 -0.460234 -0.118892 -0.041306
    30 0.043235 -1.683941 0.096012 -1.442484 0.002823 -0.000167
    31 0.031729 -1.160830 0.058838 -0.625624 0.000642 0.008372
    32 -0.963866 -2.785145 -0.085350 -0.489158 -0.052656 -0.112805
    33 0.028479 -1.403067 0.006271 -1.374126 0.000000 0.000000
    34 0.021413 -0.957781 0.020046 0.264340 0.000000 0.000000
    35 1.164475 -2.543940 -0.170330 -0.244527 -0.282959 -0.086049
    36 0.024032 -1.129042 0.017807 -0.710843 0.012080 0.042271
    37 0.014898 -0.883989 -0.019848 -0.745620 0.001210 -0.004734
    38 -0.586770 -1.264477 0.200161 0.011762 -0.354218 -2.645762
    39 1.522835 0.058681 0.016848 0.105065 -0.485843 0.707579
    40 1.117947 0.048424 -0.005766 -0.027951 -0.003314 1.625083
    41 -0.139399 -0.111698 0.014397 0.285382 -0.030687 1.580508
    42 -1.393470 8.839177 -0.239433 1.580804 -0.005023 -1.566847
  time 3
    0 0.000000 0.000000 -9.933897 0.000000 0.000000 0.000000
    1 11.331532 1.001961 -6.637083 -0.008603 -1.253662 -0.697972
    2 -0.071918 -8.498730 -0.104136 0.228839 0.321727 -0.085616
    3 1.066394 -2.853785 1.145319 -0.068397 0.250151 2.999456
    4 -0.138642 1.369231 -0.000001 0.000000 0.000000 0.005300
    5 -2.544339 5.557535 -0.177679 -0.785422 -1.570460 0.000000
    6 -0.956247 5.815759 -0.075912 0.000001 0.000000 0.000000
    7 1.257180 8.762585 -0.153713 -1.570562 0.002683 -1.566807
    8 -0.488518 -2.755602 -0.228260 -1.119640 -0.066262 -0.107564
    9 0.039887 -1.479790 0.029854 -1.451658 0.000000 0.000001
    10 0.028786 -1.075731 -0.023109 -0.870565 0.000000 0.000000
    11 0.250027 -2.820665 -0.238396 -0.916633 -0.083577 -0.024886
    12 -0.049759 -1.680544 0.100479 -1.550922 0.000000 -0.000002
    13 -0.034142 -1.148312 0.084782 -1.087281 0.000000 0.000000
    14 0.957766 -2.746780 -0.090302 -0.432127 -0.184437 0.072455
    15 -0.033420 -1.397129 -0.011257 -0.247860 0.000000 -0.000001
    16 -0.022360 -0.957436 0.018784 -0.956058 0.000000 0.000000
    17 -1.180681 -2.507217 -0.193859 -0.747365 0.130012 -0.054388
    18 -0.024967 -1.123934 0.017597 -1.414285 0.000000 0.000001
    19 -0.020057 -0.890968 0.010090 -0.846171 0.000000 0.000000
    20 0.583510 -1.197277 0.185379 0.631273 -1.323162 -0.918160
    21 1.535927 0.010246 0.005009 -0.124883 0.065220 -0.956793
    22 1.100771 0.004527 -0.010679 -0.014685 0.006877 -0.956472
    23 0.120153 -0.050270 -0.054489 0.287569 3.110905 1.561085
    24 -4.942786 -14.239347 -10.661765 -0.465649 -6.140944 0.615662
    25 0.096944 -8.450418 -0.009365 -0.262006 -0.130244 0.017665
    26 0.447953 -2.798986 -0.200443 -1.115886 -0.190644 0.074012
    27 -0.032909 -1.480204 0.004940 -1.234609 0.000000 0.000002
    28 -0.027022 -1.076920 -0.020210 -0.680208 0.000000 0.000000
    29 -0.249534 -2.846964 -0.174213 -0.764454 -0.132147 -0.033791
    30 0.043235 -1.683941 0.096012 -1.589481 0.002823 -0.000167
    31 0.031729 -1.160830 0.058838 -0.635461 0.000642 0.008372
    32 -0.963866 -2.785145 -0.085350 -0.801580 -0.089005 -0.099490
    33 0.028479 -1.403067 0.006271 -1.530297 0.000000 0.000000
    34 0.021413 -0.957781 0.020046 0.253570 0.000000 0.000000
    35 1.164475 -2.543940 -0.170330 -0.416305 -0.282959 -0.086049
    36 0.024032 -1.129042 0.017807 -0.716997 0.006556 0.022951
    37 0.014898 -0.883989 -0.019848 -0.743103 0.001198 -0.004662
    38 -0.586770 -1.264477 0.200161 0.011762 -0.354218 -2.645762
    39 1.522835 0.058681 0.016848 0.105065 -0.485843 0.707579
    40 1.117947 0.048424 -0.005766 -0.027951 -0.003314 1.625083
    41 -0.139399 -0.111698 0.014397 0.285382 -0.030687 1.580508
    42 -1.393470 8.839177 -0.239433 1.580804 -0.005023 -1.566847
  time 4
    0 0.000000 0.000000 -9.125278 0.000000 0.000000 0.000000
    1 11.440910 1.271501 -6.777712 -0.063254 -1.248332 -0.647875
    2 -0.071918 -8.498730 -0.104136 0.276280 0.318288 -0.060614
    3 1.066394 -2.853785 1.145319 -0.068397 0.250151 2.999456
    4 -0.138642 1.369231 -0.000001 0.000000 0.000000 0.005300
    5 -2.540433 5.252839 -0.177679 -1.163560 -1.570796 0.000000
    6 -0.956247 5.815759 -0.075912 0.000001 0.000000 0.000000
    7 1.257180 8.762585 -0.153713 -1.570562 0.002683 -1.566807
    8 -0.488518 -2.755602 -0.228260 -1.119640 -0.066262 -0.107564
    9 0.039887 -1.479790 0.029854 -1.451658 0.000000 0.000001
    10 0.028786 -1.075731 -0.023109 -0.870565 0.000000 0.000000
    11 0.250027 -2.820665 -0.238396 -0.916633 -0.083577 -0.024886
    12 -0.049759 -1.680544 0.100479 -1.550922 0.000000 -0.000002
    13 -0.034142 -1.148312 0.084782 -1.087281 0.000000 0.000000
    14 0.957766 -2.746780 -0.090302 -0.432127 -0.184437 0.072455
    15 -0.033420 -1.397129 -0.011257 -0.247860 0.000000 -0.000001
    16 -0.022360 -0.957436 0.018784 -0.956058 0.000000 0.000000
    17 -1.180681 -2.507217 -0.193859 -0.747365 0.130012 -0.054388
    18 -0.024967 -1.123934 0.017597 -1.414285 0.000000 0.000001
    19 -0.020057 -0.890968 0.010090 -0.846171 0.000000 0.000000
    20 0.583510 -1.197277 0.185379 0.631273 -1.323162 -0.918160
    21 1.535927 0.010246 0.005009 -0.124883 0.065220 -0.956793
    22 1.100771 0.004527 -0.010679 -0.014685 0.006877 -0.956472
    23 0.120153 -0.050270 -0.054489 0.287569 3.110905 1.561085
    24 -4.942786 -14.239347 -10.661765 -0.465649 -6.140944 0.615662
    25 0.096944 -8.450418 -0.009365 -0.301986 -0.191867 0.216070
    26 0.447953 -2.798986 -0.200443 -1.409120 -0.190644 0.074012
    27 -0.032909 -1.480204 0.004940 -1.346405 0.000000 0.000002
    28 -0.027022 -1.076920 -0.020210 -0.693511 0.000000 0.000000
    29 -0.249534 -2.846964 -0.174213 -1.019302 -0.143257 -0.027487
    30 0.043235 -1.683941 0.096012 -1.712577 0.002823 -0.000167
    31 0.031729 -1.160830 0.058838 -0.648724 0.000642 0.008372
    32 -0.963866 -2.785145 -0.085350 -1.063313 -0.119470 -0.088333
    33 0.028479 -1.403067 0.006271 -1.661179 0.000000 0.000000
    34 0.021413 -0.957781 0.020046 0.239029 0.000000 0.000000
    35 1.164475 -2.543940 -0.170330 -0.560242 -0.282959 -0.086049
    36 0.024032 -1.129042 0.017807 -0.723113 0.001930 0.006784
    37 0.014898 -0.883989 -0.019848 -0.739747 0.001174 -0.004566
    38 -0.586770 -1.264477 0.200161 0.011762 -0.354218 -2.645762
    39 1.522835 0.058681 0.016848 0.105065 -0.485843 0.707579
    40 1.117947 0.048424 -0.005766 -0.027951 -0.003314 1.625083
    41 -0.139399 -0.111698 0.014397 0.285382 -0.030687 1.580508
    42 -1.393470 8.839177 -0.239433 1.580804 -0.005023 -1.566847
  time 5
    0 0.000000 0.000000 -8.164312 0.000000 0.000000 0.000000
    1 11.487787 1.384786 -6.953499 -0.128307 -1.242729 -0.585149
    2 -0.071918 -8.498730 -0.104136 0.296185 0.314261 -0.031823
    3 1.066394 -2.853785 1.145319 -0.068397 0.250151 2.999456
    4 -0.138642 1.369231 -0.000001 0.000000 0.000000 0.005300
    5 -2.540433 5.018456 -0.177679 -1.454450 -1.570796 0.000000
    6 -0.956247 5.815759 -0.075912 0.000001 0.000000 0.000000
    7 1.257180 8.762585 -0.153713 -1.570562 0.002683 -1.566807
    8 -0.488518 -2.755602 -0.228260 -1.119640 -0.066262 -0.107564
    9 0.039887 -1.479790 0.029854 -1.451658 0.000000 0.000001
    10 0.028786 -1.075731 -0.023109 -0.870565 0.000000 0.000000
    11 0.250027 -2.820665 -0.238396 -0.916633 -0.083577 -0.024886
    12 -0.049759 -1.680544 0.100479 -1.550922 0.000000 -0.000002
    13 -0.034142 -1.148312 0.084782 -1.087281 0.000000 0.000000
    14 0.957766 -2.746780 -0.090302 -0.432127 -0.184437 0.072455
    15 -0.033420 -1.397129 -0.011257 -0.247860 0.000000 -0.000001
    16 -0.022360 -0.957436 0.018784 -0.956058 0.000000 0.000000
    17 -1.180681 -2.507217 -0.193859 -0.747365 0.130012 -0.054388
    18 -0.024967 -1.123934 0.017597 -1.414285 0.000000 0.000001
    19 -0.020057 -0.890968 0.010090 -0.846171 0.000000 0.000000
    20 0.583510 -1.197277 0.185379 0.631273 -1.323162 -0.918160
    21 1.535927 0.010246 0.005009 -0.124883 0.065220 -0.956793
    22 1.100771 0.004527 -0.010679 -0.014685 0.006877 -0.956472
    23 0.120153 -0.050270 -0.054489 0.287569 3.110905 1.561085
    24 -4.942786 -14.239347 -10.661765 -0.465649 -6.140944 0.615662
    25 0.096944 -8.450418 -0.009365 -0.338684 -0.248427 0.398156
    26 0.447953 -2.798986 -0.200443 -1.532084 -0.190644 0.074012
    27 -0.032909 -1.480204 0.004940 -1.393260 0.000000 0.000002
    28 -0.027022 -1.076920 -0.020210 -0.709929 0.000000 0.000000
    29 -0.249534 -2.846964 -0.174213 -1.126174 -0.147919 -0.024851
    30 0.043235 -1.683941 0.096012 -1.764190 0.002823 -0.000167
    31 0.031729 -1.160830 0.058838 -0.665132 0.000642 0.008372
    32 -0.963866 -2.785145 -0.085350 -1.173086 -0.132233 -0.083647
    33 0.028479 -1.403067 0.006271 -1.716034 0.000000 0.000000
    34 0.021413 -0.957781 0.020046 0.221037 0.000000 0.000000
    35 1.164475 -2.543940 -0.170330 -0.620614 -0.282959 -0.086049
    36 0.024032 -1.129042 0.017807 -0.727681 0.000000 0.000001
    37 0.014898 -0.883989 -0.019848 -0.735593 0.001139 -0.004434
    38 -0.586770 -1.264477 0.200161 0.011762 -0.354218 -2.645762
    39 1.522835 0.058681 0.016848 0.105065 -0.485843 0.707579
    40 1.117947 0.048424 -0.005766 -0.027951 -0.003314 1.625083
    41 -0.139399 -0.111698 0.014397 0.285382 -0.030687 1.580508
    42 -1.393470 8.839177 -0.239433 1.580804 -0.005023 -1.566847
  time 6
    0 0.000000 0.000000 -7.097873 0.000000 0.000000 0.000000
    1 11.448723 1.212905 -7.207413 -0.201397 -1.237383 -0.510471
    2 -0.071918 -8.498730 -0.104136 0.284309 0.307813 0.013420
    3 1.066394 -2.853785 1.145319 -0.068397 0.250151 2.999456
    4 -0.138642 1.369231 -0.000001 0.000000 0.000000 0.005300
    5 -2.540433 4.924704 -0.177679 -1.570796 -1.570796 0.000000
    6 -0.956247 5.815759 -0.075912 0.000001 0.000000 0.000000
    7 1.257180 8.762585 -0.153713 -1.570562 0.002683 -1.566807
    8 -0.488518 -2.755602 -0.228260 -1.119640 -0.066262 -0.107564
    9 0.039887 -1.479790 0.029854 -1.451658 0.000000 0.000001
    10 0.028786 -1.075731 -0.023109 -0.870565 0.000000 0.000000
    11 0.250027 -2.820665 -0.238396 -0.916633 -0.083577 -0.024886
    12 -0.049759 -1.680544 0.100479 -1.550922 0.000000 -0.000002
    13 -0.034142 -1.148312 0.084782 -1.087281 0.000000 0.000000
    14 0.957766 -2.746780 -0.090302 -0.432127 -0.184437 0.072455
    15 -0.033420 -1.397129 -0.011257 -0.247860 0.000000 -0.000001
    16 -0.022360 -0.957436 0.018784 -0.956058 0.000000 0.000000
    17 -1.180681 -2.507217 -0.193859 -0.747365 0.130012 -0.054388
    18 -0.024967 -1.123934 0.017597 -1.414285 0.000000 0.000001
    19 -0.020057 -0.890968 0.010090 -0.846171 0.000000 0.000000
    20 0.583510 -1.197277 0.185379 0.631273 -1.323162 -0.918160
    21 1.535927 0.010246 0.005009 -0.124883 0.065220 -0.956793
    22 1.100771 0.004527 -0.010679 -0.014685 0.006877 -0.956472
    23 0.120153 -0.050270 -0.054489 0.287569 3.110905 1.561085
    24 -4.942786 -14.239347 -10.661765 -0.465649 -6.140944 0.615662
    25 0.096944 -8.450418 -0.009365 -0.365536 -0.289773 0.531335
    26 0.447953 -2.798986 -0.200443 -1.528434 -0.190644 0.074012
    27 -0.032909 -1.480204 0.004940 -1.389067 0.000000 0.000002
    28 -0.027022 -1.076920 -0.020210 -0.729224 0.000000 0.000000
    29 -0.249534 -2.846964 -0.174213 -1.122360 -0.147416 -0.025126
    30 0.043235 -1.683941 0.096012 -1.760379 0.002823 -0.000167
    31 0.031729 -1.160830 0.058838 -0.684442 0.000642 0.008372
    32 -0.963866 -2.785145 -0.085350 -1.167266 -0.130867 -0.084150
    33 0.028479 -1.403067 0.006271 -1.712075 0.000000 0.000000
    34 0.021413 -0.957781 0.020046 0.199913 0.000000 0.000000
    35 1.164475 -2.543940 -0.170330 -0.620109 -0.282959 -0.086049
    36 0.024032 -1.129042 0.017807 -0.731079 0.000000 0.000001
    37 0.014898 -0.883989 -0.019848 -0.730719 0.001103 -0.004290
    38 -0.586770 -1.264477 0.200161 0.011762 -0.354218 -2.645762
    39 1.522835 0.058681 0.016848 0.104166 -0.483819 0.706059
    40 1.117947 0.048424 -0.005766 -0.027844 -0.003410 1.618419
    41 -0.139399 -0.111698 0.014397 0.285382 -0.030687 1.580508
    42 -1.393470 8.839177 -0.239433 1.580804 -0.005023 -1.566847
  time 7
    0 0.000000 0.000000 -5.953307 0.000000 0.000000 0.000000
    1 11.351064 0.841800 -7.543360 -0.280201 -1.232885 -0.424646
    2 -0.071918 -8.498730 -0.104136 0.255429 0.299172 0.073664
    3 1.066394 -2.853785 1.145319 -0.068397 0.250151 2.999456
    4 -0.138642 1.369231 -0.000001 0.000000 0.000000 0.005300
    5 -2.540433 5.252839 -0.177679 -1.570796 -1.570796 0.000000
    6 -0.956247 5.815759 -0.075912 0.000001 0.000000 0.000000
    7 1.257180 8.762585 -0.153713 -1.570562 0.002683 -1.566807
    8 -0.488518 -2.755602 -0.228260 -1.119640 -0.066262 -0.107564
    9 0.039887 -1.479790 0.029854 -1.451658 0.000000 0.000001
    10 0.028786 -1.075731 -0.023109 -0.870565 0.000000 0.000000
    11 0.250027 -2.820665 -0.238396 -0.916633 -0.083577 -0.024886
    12 -0.049759 -1.680544 0.100479 -1.550922 0.000000 -0.000002
    13 -0.034142 -1.148312 0.084782 -1.087281 0.000000 0.000000
    14 0.957766 -2.746780 -0.090302 -0.432127 -0.184437 0.072455
    15 -0.033420 -1.397129 -0.011257 -0.247860 0.000000 -0.000001
    16 -0.022360 -0.957436 0.018784 -0.956058 0.000000 0.000000
    17 -1.180681 -2.507217 -0.193859 -0.747365 0.130012 -0.054388
    18 -0.024967 -1.123934 0.017597 -1.414285 0.000000 0.000001
    19 -0.020057 -0.890968 0.010090 -0.846171 0.000000 0.000000
    20 0.583510 -1.197277 0.185379 0.631273 -1.323162 -0.918160
    21 1.535927 0.010246 0.005009 -0.124883 0.065220 -0.956793
    22 1.100771 0.004527 -0.010679 -0.014685 0.006877 -0.956472
    23 0.120153 -0.050270 -0.054489 0.287569 3.110905 1.561085
    24 -4.942786 -14.239347 -10.661765 -0.465649 -6.140944 0.615662
    25 0.096944 -8.450418 -0.009365 -0.375946 -0.305778 0.582985
    26 0.447953 -2.798986 -0.200443 -1.517832 -0.190644 0.074012
    27 -0.032909 -1.480204 0.004940 -1.376878 0.000000 0.000002
    28 -0.027022 -1.076920 -0.020210 -0.751075 0.000000 0.000000
    29 -0.249534 -2.846964 -0.174213 -1.111273 -0.145965 -0.025953
    30 0.043235 -1.683941 0.096012 -1.749218 0.002823 -0.000167
    31 0.031729 -1.160830 0.058838 -0.706293 0.000642 0.008372
    32 -0.963866 -2.785145 -0.085350 -1.150475 -0.126888 -0.085612
    33 0.028479 -1.403067 0.006271 -1.700459 0.000000 0.000000
    34 0.021413 -0.957781 0.020046 0.175976 0.000000 0.000000
    35 1.164475 -2.543940 -0.170330 -0.618685 -0.282959 -0.086049
    36 0.024032 -1.129042 0.017807 -0.734665 0.000000 0.000001
    37 0.014898 -0.883989 -0.019848 -0.725166 0.001055 -0.004135
    38 -0.586770 -1.264477 0.200161 0.008814 -0.527339 -2.650933
    39 1.522835 0.058681 0.016848 0.101565 -0.477960 0.701585
    40 1.117947 0.048424 -0.005766 -0.027508 -0.003710 1.599284
    41 -0.139399 -0.111698 0.014397 0.285382 -0.030687 1.580508
    42 -1.393470 8.839177 -0.239433 1.580804 -0.005023 -1.566847
  time 8
    0 0.000000 0.000000 -4.769677 0.000000 0.000000 0.000000
    1 11.210434 0.466789 -7.883214 -0.362394 -1.229780 -0.328414
    2 -0.071918 -8.498730 -0.104136 0.219801 0.291610 0.126364
    3 1.066394 -2.853785 1.145319 -0.068397 0.250151 2.999456
    4 -0.138642 1.369231 -0.000001 0.000000 0.000000 0.005300
    5 -2.544339 5.862232 -0.177679 -1.570796 -1.570796 0.000000
    6 -0.956247 5.815759 -0.075912 0.000001 0.000000 0.000000
    7 1.257180 8.762585 -0.153713 -1.570562 0.002683 -1.566807
    8 -0.488518 -2.755602 -0.228260 -1.119640 -0.066262 -0.107564
    9 0.039887 -1.479790 0.029854 -1.451658 0.000000 0.000001
    10 0.028786 -1.075731 -0.023109 -0.870565 0.000000 0.000000
    11 0.250027 -2.820665 -0.238396 -0.916633 -0.083577 -0.024886
    12 -0.049759 -1.680544 0.100479 -1.550922 0.000000 -0.000002
    13 -0.034142 -1.148312 0.084782 -1.087313 0.000000 0.000000
    14 0.957766 -2.746780 -0.090302 -0.432127 -0.184437 0.072455
    15 -0.033420 -1.397129 -0.011257 -0.247860 0.000000 -0.000001
    16 -0.022360 -0.957436 0.018784 -0.956058 0.000000 0.000000
    17 -1.180681 -2.507217 -0.193859 -0.747365 0.130012 -0.054388
    18 -0.024967 -1.123934 0.017597 -1.414285 0.000000 0.000001
    19 -0.020057 -0.890968 0.010090 -0.846171 0.000000 0.000000
    20 0.583510 -1.197277 0.185379 0.631273 -1.323162 -0.918160
    21 1.535927 0.010246 0.005009 -0.124883 0.065220 -0.956793
    22 1.100771 0.004527 -0.010679 -0.014685 0.006877 -0.956472
    23 0.120153 -0.050270 -0.054489 0.287569 3.110905 1.561085
    24 -4.942786 -14.239347 -10.661765 -0.465649 -6.140944 0.615662
    25 0.096944 -8.450418 -0.009365 -0.135667 -0.122841 0.550309
    26 0.447953 -2.798986 -0.200443 -1.500880 -0.190644 0.074012
    27 -0.032909 -1.480204 0.004940 -1.357473 0.000000 0.000002
    28 -0.027022 -1.076920 -0.020210 -0.775243 0.000000 0.000000
    29 -0.249534 -2.846964 -0.174213 -1.093592 -0.143652 -0.027272
    30 0.043235 -1.683941 0.096012 -1.731469 0.002823 -0.000167
    31 0.031729 -1.160830 0.058838 -0.730441 0.000642 0.008372
    32 -0.963866 -2.785145 -0.085350 -1.123667 -0.120536 -0.087937
    33 0.028479 -1.403067 0.006271 -1.681981 0.000000 0.000000
    34 0.021413 -0.957781 0.020046 0.149515 0.000000 0.000000
    35 1.164475 -2.543940 -0.170330 -0.616405 -0.282959 -0.086049
    36 0.024032 -1.129042 0.017807 -0.738365 0.000000 0.000001
    37 0.014898 -0.883989 -0.019848 -0.719055 0.001007 -0.003955
    38 -0.586770 -1.264477 0.200161 0.000169 -0.908179 -2.662311
    39 1.522835 0.058681 0.016848 0.097419 -0.468597 0.694548
    40 1.117947 0.048424 -0.005766 -0.026993 -0.004177 1.568726
    41 -0.139399 -0.111698 0.014397 0.285382 -0.030687 1.580508
    42 -1.393470 8.839177 -0.239433 1.580804 -0.005023 -1.566847
  time 9
    0 0.000000 0.000000 -3.589953 0.000000 0.000000 0.000000
    1 11.046367 0.298815 -8.148848 -0.445651 -1.228627 -0.222453
    2 -0.071918 -8.498730 -0.104136 0.187600 0.288362 0.148943
    3 1.066394 -2.853785 1.145319 -0.068397 0.250151 2.999456
    4 -0.138642 1.369231 -0.000001 0.000000 0.000000 0.005300
    5 -2.544339 6.190367 -0.177679 -1.570796 -1.570796 0.000000
    6 -0.956247 5.815759 -0.075912 0.000001 0.000000 0.000000
    7 1.257180 8.762585 -0.153713 -1.570562 0.002683 -1.566807
    8 -0.488518 -2.755602 -0.228260 -1.119640 -0.066262 -0.107564
    9 0.039887 -1.479790 0.029854 -1.451658 0.000000 0.000001
    10 0.028786 -1.075731 -0.023109 -0.870565 0.000000 0.000000
    11 0.250027 -2.820665 -0.238396 -0.916633 -0.083577 -0.024886
    12 -0.049759 -1.680544 0.100479 -1.550922 0.000000 -0.000002
    13 -0.034142 -1.148312 0.084782 -1.087313 0.000000 0.000000
    14 0.957766 -2.746780 -0.090302 -0.432127 -0.184437 0.072455
    15 -0.033420 -1.397129 -0.011257 -0.247860 0.000000 -0.000001
    16 -0.022360 -0.957436 0.018784 -0.956058 0.000000 0.000000
    17 -1.180681 -2.507217 -0.193859 -0.747365 0.130012 -0.054388
    18 -0.024967 -1.123934 0.017597 -1.414285 0.000000 0.000001
    19 -0.020057 -0.890968 0.010090 -0.846171 0.000000 0.000000
    20 0.583510 -1.197277 0.185379 0.631273 -1.323162 -0.918160
    21 1.535927 0.010246 0.005009 -0.124883 0.065220 -0.956793
    22 1.100771 0.004527 -0.010679 -0.014685 0.006877 -0.956472
    23 0.120153 -0.050270 -0.054489 0.287569 3.110905 1.561085
    24 -4.778719 -14.102624 -10.536761 -0.465649 -6.140944 0.615662
    25 0.096944 -8.450418 -0.009365 0.104579 0.063285 0.475237
    26 0.447953 -2.798986 -0.200443 -1.478228 -0.190644 0.074012
    27 -0.032909 -1.480204 0.004940 -1.331437 0.000000 0.000002
    28 -0.027022 -1.076920 -0.020210 -0.801449 0.000000 0.000000
    29 -0.249534 -2.846964 -0.174213 -1.069886 -0.140548 -0.029021
    30 0.043235 -1.683941 0.096012 -1.707677 0.002823 -0.000167
    31 0.031729 -1.160830 0.058838 -0.756605 0.000642 0.008372
    32 -0.963866 -2.785145 -0.085350 -1.087793 -0.112027 -0.091053
    33 0.028479 -1.403067 0.006271 -1.657219 0.000000 0.000000
    34 0.021413 -0.957781 0.020046 0.120881 0.000000 0.000000
    35 1.164475 -2.543940 -0.170330 -0.613336 -0.282959 -0.086049
    36 0.024032 -1.129042 0.017807 -0.742216 0.000000 0.000001
    37 0.014898 -0.883989 -0.019848 -0.712423 0.000959 -0.003751
    38 -0.586770 -1.264477 0.200161 -0.013804 -1.289050 -2.673667
    39 1.522835 0.058681 0.016848 0.091870 -0.456063 0.685035
    40 1.117947 0.048424 -0.005766 -0.026298 -0.004800 1.527839
    41 -0.139399 -0.111698 0.014397 0.285382 -0.030687 1.580508
    42 -1.393470 8.839177 -0.239433 1.580804 -0.005023 -1.566847
  time 10
    0 0.000000 0.000000 -2.445387 0.000000 0.000000 0.000000
    1 10.878393 0.369130 -8.351979 -0.544747 -1.233750 -0.085500
    2 -0.071918 -8.498730 -0.104136 0.160758 0.296691 0.146451
    3 1.066394 -2.853785 1.145319 -0.068397 0.250151 2.999456
    4 -0.138642 1.369231 -0.000001 0.000000 0.000000 0.005300
    5 -2.544339 6.190367 -0.177679 -1.570796 -1.570796 0.000000
    6 -0.956247 5.815759 -0.075912 0.000001 0.000000 0.000000
    7 1.257180 8.762585 -0.153713 -1.570562 0.002683 -1.566807
    8 -0.488518 -2.755602 -0.228260 -1.119640 -0.066262 -0.107564
    9 0.039887 -1.479790 0.029854 -1.451658 0.000000 0.000001
    10 0.028786 -1.075731 -0.023109 -0.870565 0.000000 0.000000
    11 0.250027 -2.820665 -0.238396 -0.916633 -0.083577 -0.024886
    12 -0.049759 -1.680544 0.100479 -1.550922 0.000000 -0.000002
    13 -0.034142 -1.148312 0.084782 -1.087313 0.000000 0.000000
    14 0.957766 -2.746780 -0.090302 -0.432127 -0.184437 0.072455
    15 -0.033420 -1.397129 -0.011257 -0.247860 0.000000 -0.000001
    16 -0.022360 -0.957436 0.018784 -0.956058 0.000000 0.000000
    17 -1.180681 -2.507217 -0.193859 -0.747365 0.130012 -0.054388
    18 -0.024967 -1.123934 0.017597 -1.414285 0.000000 0.000001
    19 -0.020057 -0.890968 0.010090 -0.846171 0.000000 0.000000
    20 0.583510 -1.197277 0.185379 0.631273 -1.323162 -0.918160
    21 1.535927 0.010246 0.005009 -0.124883 0.065220 -0.956793
    22 1.100771 0.004527 -0.010679 -0.014685 0.006877 -0.956472
    23 0.120153 -0.050270 -0.054489 0.287569 3.110905 1.561085
    24 -4.345112 -13.735426 -10.216439 -0.465649 -6.140944 0.615662
    25 0.096944 -8.450418 -0.009365 0.101595 0.069196 0.376312
    26 0.447953 -2.798986 -0.200443 -1.450425 -0.190644 0.074012
    27 -0.032909 -1.480204 0.004940 -1.299502 0.000000 0.000002
    28 -0.027022 -1.076920 -0.020210 -0.829332 0.000000 0.000000
    29 -0.249534 -2.846964 -0.174213 -1.040833 -0.136749 -0.031179
    30 0.043235 -1.683941 0.096012 -1.678496 0.002823 -0.000167
    31 0.031729 -1.160830 0.058838 -0.784502 0.000642 0.008372
    32 -0.963866 -2.785145 -0.085350 -1.043771 -0.101613 -0.094876
    33 0.028479 -1.403067 0.006271 -1.626914 0.000000 0.000000
    34 0.021413 -0.957781 0.020046 0.090329 0.000000 0.000000
    35 1.164475 -2.543940 -0.170330 -0.609587 -0.282959 -0.086049
    36 0.024032 -1.129042 0.017807 -0.746142 0.000000 0.000001
    37 0.014898 -0.883989 -0.019848 -0.705353 0.000911 -0.003547
    38 -0.586770 -1.264477 0.200161 -0.032851 -1.462203 -2.678839
    39 1.522835 0.058681 0.016848 0.085062 -0.440705 0.673438
    40 1.117947 0.048424 -0.005766 -0.025447 -0.005555 1.477670
    41 -0.139399 -0.111698 0.014397 0.285382 -0.030687 1.580508
    42 -1.393470 8.839177 -0.239433 1.580804 -0.005023 -1.566847
  time 11
    0 0.000000 0.000000 -1.375042 0.000000 0.000000 0.000000
    1 10.718232 0.568354 -8.547297 -0.669533 -1.247819 0.093915
    2 -0.071918 -8.498730 -0.104136 0.134211 0.318216 0.139471
    3 1.066394 -2.853785 1.145319 -0.068397 0.250151 2.999456
    4 -0.138642 1.369231 -0.000001 0.000000 0.000000 0.005300
    5 -2.544339 6.190367 -0.177679 -1.570796 -1.570796 0.000000
    6 -0.956247 5.815759 -0.075912 0.000001 0.000000 0.000000
    7 1.257180 8.762585 -0.153713 -1.570562 0.002683 -1.566807
    8 -0.488518 -2.755602 -0.228260 -1.119640 -0.066262 -0.107564
    9 0.039887 -1.479790 0.029854 -1.451658 0.000000 0.000001
    10 0.028786 -1.075731 -0.023109 -0.870565 0.000000 0.000000
    11 0.250027 -2.820665 -0.238396 -0.916633 -0.083577 -0.024886
    12 -0.049759 -1.680544 0.100479 -1.550922 0.000000 -0.000002
    13 -0.034142 -1.148312 0.084782 -1.087281 0.000000 0.000000
    14 0.957766 -2.746780 -0.090302 -0.432127 -0.184437 0.072455
    15 -0.033420 -1.397129 -0.011257 -0.247860 0.000000 -0.000001
    16 -0.022360 -0.957436 0.018784 -0.956058 0.000000 0.000000
    17 -1.180681 -2.507217 -0.193859 -0.747365 0.130012 -0.054388
    18 -0.024967 -1.123934 0.017597 -1.414285 0.000000 0.000001
    19 -0.020057 -0.890968 0.010090 -0.846171 0.000000 0.000000
    20 0.583510 -1.197277 0.185379 0.631273 -1.323162 -0.918160
    21 1.535927 0.010246 0.005009 -0.124883 0.065220 -0.956793
    22 1.100771 0.004527 -0.010679 -0.014685 0.006877 -0.956472
    23 0.120153 -0.050270 -0.054489 0.287569 3.110905 1.561085
    24 -3.731812 -13.215878 -9.775019 -0.465649 -6.140944 0.615662
    25 0.096944 -8.450418 -0.009365 0.093672 0.074111 0.259130
    26 0.447953 -2.798986 -0.200443 -1.418121 -0.190644 0.074012
    27 -0.032909 -1.480204 0.004940 -1.262399 0.000000 0.000002
    28 -0.027022 -1.076920 -0.020210 -0.858654 0.000000 0.000000
    29 -0.249534 -2.846964 -0.174213 -1.007074 -0.132327 -0.033695
    30 0.043235 -1.683941 0.096012 -1.644577 0.002823 -0.000167
    31 0.031729 -1.160830 0.058838 -0.813811 0.000642 0.008372
    32 -0.963866 -2.785145 -0.085350 -0.992624 -0.089484 -0.099311
    33 0.028479 -1.403067 0.006271 -1.591593 0.000000 0.000000
    34 0.021413 -0.957781 0.020046 0.058243 0.000000 0.000000
    35 1.164475 -2.543940 -0.170330 -0.605225 -0.282959 -0.086049
    36 0.024032 -1.129042 0.017807 -0.750144 0.000000 0.000001
    37 0.014898 -0.883989 -0.019848 -0.697922 0.000851 -0.003332
    38 -0.586770 -1.264477 0.200161 -0.058417 -1.427733 -2.666691
    39 1.522835 0.058681 0.016848 0.077141 -0.422840 0.659929
    40 1.117947 0.048424 -0.005766 -0.024452 -0.006454 1.419362
    41 -0.139399 -0.111698 0.014397 0.285382 -0.030687 1.580508
    42 -1.393470 8.839177 -0.239433 1.580804 -0.005023 -1.566847
  time 12
    0 0.000000 0.000000 -0.414075 0.000000 0.000000 0.000000
    1 10.558071 0.861332 -8.738709 -0.809962 -1.268868 0.300069
    2 -0.071918 -8.498730 -0.104136 0.107748 0.347734 0.128839
    3 1.066394 -2.853785 1.145319 -0.068397 0.250151 2.999456
    4 -0.138642 1.369231 -0.000001 0.000000 0.000000 0.005300
    5 -2.544339 6.190367 -0.177679 -1.570796 -1.570796 0.000000
    6 -0.956247 5.815759 -0.075912 0.000001 0.000000 0.000000
    7 1.257180 8.762585 -0.153713 -1.570562 0.002683 -1.566807
    8 -0.488518 -2.755602 -0.228260 -1.119640 -0.066262 -0.107564
    9 0.039887 -1.479790 0.029854 -1.451658 0.000000 0.000001
    10 0.028786 -1.075731 -0.023109 -0.870565 0.000000 0.000000
    11 0.250027 -2.820665 -0.238396 -0.916633 -0.083577 -0.024886
    12 -0.049759 -1.680544 0.100479 -1.550922 0.000000 -0.000002
    13 -0.034142 -1.148312 0.084782 -1.087313 0.000000 0.000000
    14 0.957766 -2.746780 -0.090302 -0.432127 -0.184437 0.072455
    15 -0.033420 -1.397129 -0.011257 -0.247860 0.000000 -0.000001
    16 -0.022360 -0.957436 0.018784 -0.956058 0.000000 0.000000
    17 -1.180681 -2.507217 -0.193859 -0.747365 0.130012 -0.054388
    18 -0.024967 -1.123934 0.017597 -1.414285 0.000000 0.000001
    19 -0.020057 -0.890968 0.010090 -0.846171 0.000000 0.000000
    20 0.583510 -1.197277 0.185379 0.631273 -1.323162 -0.918160
    21 1.535927 0.010246 0.005009 -0.124883 0.065220 -0.956793
    22 1.100771 0.004527 -0.010679 -0.014685 0.006877 -0.956472
    23 0.120153 -0.050270 -0.054489 0.287569 3.110905 1.561085
    24 -3.036478 -12.602579 -9.298442 -0.465649 -6.140944 0.615662
    25 0.096944 -8.450418 -0.009365 0.082368 0.078003 0.138505
    26 0.447953 -2.798986 -0.200443 -1.381917 -0.190644 0.074012
    27 -0.032909 -1.480204 0.004940 -1.220811 0.000000 0.000002
    28 -0.027022 -1.076920 -0.020210 -0.889094 0.000000 0.000000
    29 -0.249534 -2.846964 -0.174213 -0.969216 -0.127365 -0.036500
    30 0.043235 -1.683941 0.096012 -1.606576 0.002823 -0.000167
    31 0.031729 -1.160830 0.058838 -0.844248 0.000642 0.008372
    32 -0.963866 -2.785145 -0.085350 -0.935269 -0.075894 -0.104296
    33 0.028479 -1.403067 0.006271 -1.552049 0.000000 0.000000
    34 0.021413 -0.957781 0.020046 0.024879 0.000000 0.000000
    35 1.164475 -2.543940 -0.170330 -0.600336 -0.282959 -0.086049
    36 0.024032 -1.129042 0.017807 -0.754184 0.000000 0.000001
    37 0.014898 -0.883989 -0.019848 -0.690212 0.000791 -0.003104
    38 -0.586770 -1.264477 0.200161 -0.090247 -1.336968 -2.634669
    39 1.522835 0.058681 0.016848 0.068272 -0.402800 0.644813
    40 1.117947 0.048424 -0.005766 -0.023337 -0.007449 1.354009
    41 -0.139399 -0.111698 0.014397 0.285382 -0.030687 1.580508
    42 -1.393470 8.839177 -0.239433 1.580804 -0.005023 -1.566847
  time 13
    0 0.000000 0.000000 0.390637 0.000000 0.000000 0.000000
    1 10.394003 1.232437 -8.918402 -0.956104 -1.294879 0.517468
    2 -0.071918 -8.498730 -0.104136 0.081137 0.380044 0.115374
    3 1.066394 -2.853785 1.145319 -0.068397 0.250151 2.999456
    4 -0.138642 1.369231 -0.000001 0.000000 0.000000 0.005300
    5 -2.544339 6.190367 -0.177679 -1.570796 -1.570796 0.000000
    6 -0.956247 5.815759 -0.075912 0.000001 0.000000 0.000000
    7 1.257180 8.762585 -0.153713 -1.570562 0.002683 -1.566807
    8 -0.488518 -2.755602 -0.228260 -1.119640 -0.066262 -0.107564
    9 0.039887 -1.479790 0.029854 -1.451658 0.000000 0.000001
    10 0.028786 -1.075731 -0.023109 -0.870565 0.000000 0.000000
    11 0.250027 -2.820665 -0.238396 -0.916633 -0.083577 -0.024886
    12 -0.049759 -1.680544 0.100479 -1.550922 0.000000 -0.000002
    13 -0.034142 -1.148312 0.084782 -1.087281 0.000000 0.000000
    14 0.957766 -2.746780 -0.090302 -0.432127 -0.184437 0.072455
    15 -0.033420 -1.397129 -0.011257 -0.247860 0.000000 -0.000001
    16 -0.022360 -0.957436 0.018784 -0.956058 0.000000 0.000000
    17 -1.180681 -2.507217 -0.193859 -0.747365 0.130012 -0.054388
    18 -0.024967 -1.123934 0.017597 -1.414285 0.000000 0.000001
    19 -0.020057 -0.890968 0.010090 -0.846171 0.000000 0.000000
    20 0.583510 -1.197277 0.185379 0.631273 -1.323162 -0.918160
    21 1.535927 0.010246 0.005009 -0.124883 0.065220 -0.956793
    22 1.100771 0.004527 -0.010679 -0.014685 0.006877 -0.956472
    23 0.120153 -0.050270 -0.054489 0.287569 3.110905 1.561085
    24 -2.341145 -11.973653 -8.857022 -0.465649 -6.140944 0.615662
    25 0.096944 -8.450418 -0.009365 0.069173 0.080841 0.029268
    26 0.447953 -2.798986 -0.200443 -1.342362 -0.190644 0.074012
    27 -0.032909 -1.480204 0.004940 -1.175419 0.000000 0.000002
    28 -0.027022 -1.076920 -0.020210 -0.920452 0.000000 0.000000
    29 -0.249534 -2.846964 -0.174213 -0.927865 -0.121960 -0.039568
    30 0.043235 -1.683941 0.096012 -1.565090 0.002823 -0.000167
    31 0.031729 -1.160830 0.058838 -0.875572 0.000642 0.008372
    32 -0.963866 -2.785145 -0.085350 -0.872657 -0.061069 -0.109725
    33 0.028479 -1.403067 0.006271 -1.508862 0.000000 0.000000
    34 0.021413 -0.957781 0.020046 -0.009380 0.000000 0.000000
    35 1.164475 -2.543940 -0.170330 -0.595009 -0.282959 -0.086049
    36 0.024032 -1.129042 0.017807 -0.758223 0.000000 0.000001
    37 0.014898 -0.883989 -0.019848 -0.682263 0.000731 -0.002876
    38 -0.586770 -1.264477 0.200161 -0.125336 -1.208588 -2.589404
    39 1.522835 0.058681 0.016848 0.058576 -0.380949 0.628263
    40 1.117947 0.048424 -0.005766 -0.022115 -0.008527 1.282611
    41 -0.139399 -0.111698 0.014397 0.285382 -0.030687 1.580508
    42 -1.393470 8.839177 -0.239433 1.580804 -0.005023 -1.566847
  time 14
    0 0.000000 0.000000 1.015656 0.000000 0.000000 0.000000
    1 10.218217 1.646512 -9.086376 -1.097991 -1.323899 0.730356
    2 -0.071918 -8.498730 -0.104136 0.054212 0.409946 0.099895
    3 1.066394 -2.853785 1.145319 -0.068397 0.250151 2.999456
    4 -0.138642 1.369231 -0.000001 0.000000 0.000000 0.005300
    5 -2.544339 6.190367 -0.177679 -1.570796 -1.570796 0.000000
    6 -0.956247 5.815759 -0.075912 0.000001 0.000000 0.000000
    7 1.257180 8.762585 -0.153713 -1.570562 0.002683 -1.566807
    8 -0.488518 -2.755602 -0.228260 -1.119640 -0.066262 -0.107564
    9 0.039887 -1.479790 0.029854 -1.451658 0.000000 0.000001
    10 0.028786 -1.075731 -0.023109 -0.870565 0.000000 0.000000
    11 0.250027 -2.820665 -0.238396 -0.916633 -0.083577 -0.024886
    12 -0.049759 -1.680544 0.100479 -1.550922 0.000000 -0.000002
    13 -0.034142 -1.148312 0.084782 -1.087281 0.000000 0.000000
    14 0.957766 -2.746780 -0.090302 -0.432127 -0.184437 0.072455
    15 -0.033420 -1.397129 -0.011257 -0.247860 0.000000 -0.000001
    16 -0.022360 -0.957436 0.018784 -0.956058 0.000000 0.000000
    17 -1.180681 -2.507217 -0.193859 -0.747365 0.130012 -0.054388
    18 -0.024967 -1.123934 0.017597 -1.414285 0.000000 0.000001
    19 -0.020057 -0.890968 0.010090 -0.846171 0.000000 0.000000
    20 0.583510 -1.197277 0.185379 0.631273 -1.323162 -0.918177
    21 1.535927 0.010246 0.005009 -0.124883 0.065220 -0.956793
    22 1.100771 0.004527 -0.010679 -0.014685 0.006877 -0.956472
    23 0.120153 -0.050270 -0.054489 0.287569 3.110905 1.561085
    24 -1.747376 -11.395510 -8.536700 -0.465649 -6.140944 0.615662
    25 0.096944 -8.450418 -0.009365 0.055648 0.082568 -0.053731
    26 0.447953 -2.798986 -0.200443 -1.300057 -0.190644 0.074012
    27 -0.032909 -1.480204 0.004940 -1.126858 0.000000 0.000002
    28 -0.027022 -1.076920 -0.020210 -0.952330 0.000000 0.000000
    29 -0.249534 -2.846964 -0.174213 -0.883697 -0.116184 -0.042852
    30 0.043235 -1.683941 0.096012 -1.520719 0.002823 -0.000167
    31 0.031729 -1.160830 0.058838 -0.907461 0.000642 0.008372
    32 -0.963866 -2.785145 -0.085350 -0.805742 -0.045213 -0.115538
    33 0.028479 -1.403067 0.006271 -1.462718 0.000000 0.000000
    34 0.021413 -0.957781 0.020046 -0.044310 0.000000 0.000000
    35 1.164475 -2.543940 -0.170330 -0.589310 -0.282959 -0.086049
    36 0.024032 -1.129042 0.017807 -0.762263 0.000000 0.000001
    37 0.014898 -0.883989 -0.019848 -0.674194 0.000671 -0.002637
    38 -0.586770 -1.264477 0.200161 -0.160708 -1.061432 -2.537508
    39 1.522835 0.058681 0.016848 0.048222 -0.357572 0.610584
    40 1.117947 0.048424 -0.005766 -0.020821 -0.009702 1.206359
    41 -0.139399 -0.111698 0.014397 0.285382 -0.030687 1.580508
    42 -1.393470 8.839177 -0.239433 1.580804 -0.005023 -1.566847
  time 15
    0 0.000000 0.000000 1.418012 0.000000 0.000000 0.000000
    1 10.018992 2.076213 -9.246537 -1.225693 -1.353927 0.923173
    2 -0.071918 -8.498730 -0.104136 0.026697 0.432237 0.083221
    3 1.066394 -2.853785 1.145319 -0.068397 0.250151 2.999456
    4 -0.138642 1.369231 -0.000001 0.000000 0.000000 0.005300
    5 -2.544339 6.190367 -0.177679 -1.570796 -1.570796 0.000000
    6 -0.956247 5.815759 -0.075912 0.000001 0.000000 0.000000
    7 1.257180 8.762585 -0.153713 -1.570562 0.002683 -1.566807
    8 -0.488518 -2.755602 -0.228260 -1.119640 -0.066262 -0.107564
    9 0.039887 -1.479790 0.029854 -1.451658 0.000000 0.000001
    10 0.028786 -1.075731 -0.023109 -0.870565 0.000000 0.000000
    11 0.250027 -2.820665 -0.238396 -0.916633 -0.083577 -0.024886
    12 -0.049759 -1.680544 0.100479 -1.550922 0.000000 -0.000002
    13 -0.034142 -1.148312 0.084782 -1.087281 0.000000 0.000000
    14 0.957766 -2.746780 -0.090302 -0.432127 -0.184437 0.072455
    15 -0.033420 -1.397129 -0.011257 -0.247860 0.000000 -0.000001
    16 -0.022360 -0.957436 0.018784 -0.956058 0.000000 0.000000
    17 -1.180681 -2.507217 -0.193859 -0.747365 0.130012 -0.054388
    18 -0.024967 -1.123934 0.017597 -1.414285 0.000000 0.000001
    19 -0.020057 -0.890968 0.010090 -0.846171 0.000000 0.000000
    20 0.583510 -1.197277 0.185379 0.631273 -1.323162 -0.918160
    21 1.535927 0.010246 0.005009 -0.124883 0.065220 -0.956793
    22 1.100771 0.004527 -0.010679 -0.014685 0.006877 -0.956472
    23 0.120153 -0.050270 -0.054489 0.287569 3.110905 1.561085
    24 -1.333301 -10.934559 -8.411696 -0.465649 -6.140944 0.615662
    25 0.096944 -8.450418 -0.009365 0.043316 0.083153 -0.095715
    26 0.447953 -2.798986 -0.200443 -1.255702 -0.190644 0.074012
    27 -0.032909 -1.480204 0.004940 -1.075909 0.000000 0.000002
    28 -0.027022 -1.076920 -0.020210 -0.984528 0.000000 0.000000
    29 -0.249534 -2.846964 -0.174213 -0.837319 -0.110108 -0.046291
    30 0.043235 -1.683941 0.096012 -1.474170 0.002823 -0.000167
    31 0.031729 -1.160830 0.058838 -0.939631 0.000642 0.008372
    32 -0.963866 -2.785145 -0.085350 -0.735477 -0.028567 -0.121638
    33 0.028479 -1.403067 0.006271 -1.414251 0.000000 0.000000
    34 0.021413 -0.957781 0.020046 -0.079559 0.000000 0.000000
    35 1.164475 -2.543940 -0.170330 -0.583325 -0.282959 -0.086049
    36 0.024032 -1.129042 0.017807 -0.766265 0.000000 0.000001
    37 0.014898 -0.883989 -0.019848 -0.666044 0.000611 -0.002397
    38 -0.586770 -1.264477 0.200161 -0.193417 -0.914277 -2.485631
    39 1.522835 0.058681 0.016848 0.037352 -0.333047 0.592080
    40 1.117947 0.048424 -0.005766 -0.019454 -0.010912 1.126298
    41 -0.139399 -0.111698 0.014397 0.285382 -0.030687 1.580508
    42 -1.393470 8.839177 -0.239433 1.580804 -0.005023 -1.566847
  time 16
    0 0.000000 0.000000 1.558641 0.000000 0.000000 0.000000
    1 9.800235 2.502007 -9.394979 -1.329241 -1.383011 1.080261
    2 -0.071918 -8.498730 -0.104136 -0.001594 0.441705 0.066172
    3 1.066394 -2.853785 1.145319 -0.068397 0.250151 2.999456
    4 -0.138642 1.369231 -0.000001 0.000000 0.000000 0.005300
    5 -2.544339 6.190367 -0.177679 -1.570796 -1.570796 0.000000
    6 -0.956247 5.815759 -0.075912 0.000001 0.000000 0.000000
    7 1.257180 8.762585 -0.153713 -1.570562 0.002683 -1.566807
    8 -0.488518 -2.755602 -0.228260 -1.119640 -0.066262 -0.107564
    9 0.039887 -1.479790 0.029854 -1.451658 0.000000 0.000001
    10 0.028786 -1.075731 -0.023109 -0.870565 0.000000 0.000000
    11 0.250027 -2.820665 -0.238396 -0.916633 -0.083577 -0.024886
    12 -0.049759 -1.680544 0.100479 -1.550922 0.000000 -0.000002
    13 -0.034142 -1.148312 0.084782 -1.087281 0.000000 0.000000
    14 0.957766 -2.746780 -0.090302 -0.432127 -0.184437 0.072455
    15 -0.033420 -1.397129 -0.011257 -0.247860 0.000000 -0.000001
    16 -0.022360 -0.957436 0.018784 -0.956087 0.000000 0.000000
    17 -1.180681 -2.507217 -0.193859 -0.747365 0.130012 -0.054388
    18 -0.024967 -1.123934 0.017597 -1.414285 0.000000 0.000001
    19 -0.020057 -0.890968 0.010090 -0.846171 0.000000 0.000000
    20 0.583510 -1.197277 0.185379 0.631273 -1.323162 -0.918160
    21 1.535927 0.010246 0.005009 -0.124883 0.065220 -0.956793
    22 1.100771 0.004527 -0.010679 -0.014685 0.006877 -0.956472
    23 0.120153 -0.050270 -0.054489 0.287569 3.110905 1.561085
    24 -1.075481 -10.540016 -8.474198 -0.448365 -6.148515 0.584079
    25 0.096944 -8.450418 -0.009365 0.031182 0.081046 -0.109416
    26 0.447953 -2.798986 -0.200443 -1.209847 -0.190644 0.074012
    27 -0.032909 -1.480204 0.004940 -1.023253 0.000000 0.000002
    28 -0.027022 -1.076920 -0.020210 -1.016726 0.000000 0.000000
    29 -0.249534 -2.846964 -0.174213 -0.789372 -0.103828 -0.049851
    30 0.043235 -1.683941 0.096012 -1.425987 0.002823 -0.000167
    31 0.031729 -1.160830 0.058838 -0.971802 0.000642 0.008372
    32 -0.963866 -2.785145 -0.085350 -0.662847 -0.011357 -0.127942
    33 0.028479 -1.403067 0.006271 -1.364147 0.000000 0.000000
    34 0.021413 -0.957781 0.020046 -0.114777 0.000000 0.000000
    35 1.164475 -2.543940 -0.170330 -0.577121 -0.282959 -0.086049
    36 0.024032 -1.129042 0.017807 -0.770191 0.000000 0.000001
    37 0.014898 -0.883989 -0.019848 -0.657895 0.000551 -0.002157
    38 -0.586770 -1.264477 0.200161 -0.220485 -0.785929 -2.440366
    39 1.522835 0.058681 0.016848 0.026110 -0.307676 0.572881
    40 1.117947 0.048424 -0.005766 -0.018040 -0.012183 1.043476
    41 -0.139399 -0.111698 0.014397 0.285382 -0.030687 1.580508
    42 -1.393470 8.839177 -0.239433 1.580804 -0.005023 -1.566847
  time 17
    0 0.054689 0.000000 1.492233 0.000000 0.000000 0.000000
    1 9.546321 2.888738 -9.535609 -1.398668 -1.409150 1.185964
    2 -0.071918 -8.498730 -0.104136 -0.037642 0.442771 0.040402
    3 1.066394 -2.853785 1.145319 -0.068397 0.250151 2.999456
    4 -0.138642 1.369231 -0.000001 0.000000 0.000000 0.005300
    5 -2.544339 6.190367 -0.177679 -1.570796 -1.570796 0.000000
    6 -0.956247 5.815759 -0.075912 0.000001 0.000000 0.000000
    7 1.257180 8.762585 -0.153713 -1.570562 0.002683 -1.566807
    8 -0.488518 -2.755602 -0.228260 -1.119640 -0.066262 -0.107564
    9 0.039887 -1.479790 0.029854 -1.451658 0.000000 0.000001
    10 0.028786 -1.075731 -0.023109 -0.870565 0.000000 0.000000
    11 0.250027 -2.820665 -0.238396 -0.916633 -0.083577 -0.024886
    12 -0.049759 -1.680544 0.100479 -1.550922 0.000000 -0.000002
    13 -0.034142 -1.148312 0.084782 -1.087313 0.000000 0.000000
    14 0.957766 -2.746780 -0.090302 -0.432127 -0.184437 0.072455
    15 -0.033420 -1.397129 -0.011257 -0.247860 0.000000 -0.000001
    16 -0.022360 -0.957436 0.018784 -0.956058 0.000000 0.000000
    17 -1.180681 -2.507217 -0.193859 -0.747365 0.130012 -0.054388
    18 -0.024967 -1.123934 0.017597 -1.414285 0.000000 0.000001
    19 -0.020057 -0.890968 0.010090 -0.846171 0.000000 0.000000
    20 0.583510 -1.197277 0.185379 0.631273 -1.323162 -0.918160
    21 1.535927 0.010246 0.005009 -0.124883 0.065220 -0.956793
    22 1.100771 0.004527 -0.010679 -0.014685 0.006877 -0.956472
    23 0.120153 -0.050270 -0.054489 0.287569 3.110905 1.561085
    24 -0.872350 -10.129847 -8.638266 -0.404701 -6.167396 0.508894
    25 0.096944 -8.450418 -0.009365 0.017889 0.075604 -0.118240
    26 0.447953 -2.798986 -0.200443 -1.163041 -0.190644 0.074012
    27 -0.032909 -1.480204 0.004940 -0.969524 0.000000 0.000002
    28 -0.027022 -1.076920 -0.020210 -1.048604 0.000000 0.000000
    29 -0.249534 -2.846964 -0.174213 -0.740499 -0.097428 -0.053482
    30 0.043235 -1.683941 0.096012 -1.376879 0.002823 -0.000167
    31 0.031729 -1.160830 0.058838 -1.003731 0.000642 0.008372
    32 -0.963866 -2.785145 -0.085350 -0.588772 0.006189 -0.134366
    33 0.028479 -1.403067 0.006271 -1.313093 0.000000 0.000000
    34 0.021413 -0.957781 0.020046 -0.149707 0.000000 0.000000
    35 1.164475 -2.543940 -0.170330 -0.570808 -0.282959 -0.086049
    36 0.024032 -1.129042 0.017807 -0.774042 0.000000 0.000001
    37 0.014898 -0.883989 -0.019848 -0.649786 0.000491 -0.001918
    38 -0.586770 -1.264477 0.200161 -0.238908 -0.695132 -2.408344
    39 1.522835 0.058681 0.016848 0.014653 -0.281808 0.553334
    40 1.117947 0.048424 -0.005766 -0.016614 -0.013465 0.959037
    41 -0.139399 -0.111698 0.014397 0.285382 -0.030687 1.580508
    42 -1.393470 8.839177 -0.239433 1.580804 -0.005023 -1.566847
  time 18
    0 0.203131 0.000000 1.316446 0.000000 0.000000 0.000000
    1 9.257250 3.216873 -9.660612 -1.424043 -1.430375 1.224689
    2 -0.071918 -8.498730 -0.104136 -0.079576 0.443383 0.005757
    3 1.066394 -2.853785 1.145319 -0.068397 0.250151 2.999456
    4 -0.138642 1.369231 -0.000001 0.000000 0.000000 0.005300
    5 -2.544339 6.190367 -0.177679 -1.570796 -1.570796 0.000000
    6 -0.956247 5.815759 -0.075912 0.000001 0.000000 0.000000
    7 1.257180 8.762585 -0.153713 -1.570562 0.002683 -1.566807
    8 -0.488518 -2.755602 -0.228260 -1.119640 -0.066262 -0.107564
    9 0.039887 -1.479790 0.029854 -1.451658 0.000000 0.000001
    10 0.028786 -1.075731 -0.023109 -0.870565 0.000000 0.000000
    11 0.250027 -2.820665 -0.238396 -0.916633 -0.083577 -0.024886
    12 -0.049759 -1.680544 0.100479 -1.550922 0.000000 -0.000002
    13 -0.034142 -1.148312 0.084782 -1.087281 0.000000 0.000000
    14 0.957766 -2.746780 -0.090302 -0.432127 -0.184437 0.072455
    15 -0.033420 -1.397129 -0.011257 -0.247860 0.000000 -0.000001
    16 -0.022360 -0.957436 0.018784 -0.956058 0.000000 0.000000
    17 -1.180681 -2.507217 -0.193859 -0.747365 0.130012 -0.054388
    18 -0.024967 -1.123934 0.017597 -1.414285 0.000000 0.000001
    19 -0.020057 -0.890968 0.010090 -0.846171 0.000000 0.000000
    20 0.583510 -1.197277 0.185379 0.631273 -1.323162 -0.918160
    21 1.535927 0.010246 0.005009 -0.124883 0.065220 -0.956793
    22 1.100771 0.004527 -0.010679 -0.014685 0.006877 -0.956472
    23 0.120153 -0.050270 -0.054489 0.287569 3.110905 1.561085
    24 -0.712189 -9.719678 -8.880461 -0.346610 -6.192123 0.419175
    25 0.096944 -8.450418 -0.009365 0.004463 0.067937 -0.123226
    26 0.447953 -2.798986 -0.200443 -1.115936 -0.190644 0.074012
    27 -0.032909 -1.480204 0.004940 -0.915454 0.000000 0.000002
    28 -0.027022 -1.076920 -0.020210 -1.079963 0.000000 0.000000
    29 -0.249534 -2.846964 -0.174213 -0.691269 -0.090992 -0.057137
    30 0.043235 -1.683941 0.096012 -1.327499 0.002823 -0.000167
    31 0.031729 -1.160830 0.058838 -1.035015 0.000642 0.008372
    32 -0.963866 -2.785145 -0.085350 -0.514238 0.023854 -0.140837
    33 0.028479 -1.403067 0.006271 -1.261670 0.000000 0.000000
    34 0.021413 -0.957781 0.020046 -0.184030 0.000000 0.000000
    35 1.164475 -2.543940 -0.170330 -0.564472 -0.282959 -0.086049
    36 0.024032 -1.129042 0.017807 -0.777742 0.000000 0.000001
    37 0.014898 -0.883989 -0.019848 -0.641876 0.000431 -0.001690
    38 -0.586770 -1.264477 0.200161 -0.245710 -0.660694 -2.396197
    39 1.522835 0.058681 0.016848 0.003124 -0.255773 0.533657
    40 1.117947 0.048424 -0.005766 -0.015164 -0.014759 0.874073
    41 -0.139399 -0.111698 0.014397 0.285382 -0.030687 1.580508
    42 -1.393470 8.839177 -0.239433 1.580804 -0.005023 -1.566847
  time 19
    0 0.402356 0.000000 1.070345 0.000000 0.000000 0.000000
    1 8.843175 3.505944 -9.769991 -1.400126 -1.449102 1.203909
    2 -0.071918 -8.498730 -0.104136 -0.114300 0.443658 -0.024655
    3 1.066394 -2.853785 1.145319 -0.068397 0.250151 2.999456
    4 -0.138642 1.369231 -0.000001 0.000000 0.000000 0.005300
    5 -2.544339 6.190367 -0.177679 -1.570796 -1.570796 0.000000
    6 -0.956247 5.815759 -0.075912 0.000001 0.000000 0.000000
    7 1.257180 8.762585 -0.153713 -1.570562 0.002683 -1.566807
    8 -0.488518 -2.755602 -0.228260 -1.119640 -0.066262 -0.107564
    9 0.039887 -1.479790 0.029854 -1.451658 0.000000 0.000001
    10 0.028786 -1.075731 -0.023109 -0.870565 0.000000 0.000000
    11 0.250027 -2.820665 -0.238396 -0.916633 -0.083577 -0.024886
    12 -0.049759 -1.680544 0.100479 -1.550922 0.000000 -0.000002
    13 -0.034142 -1.148312 0.084782 -1.087281 0.000000 0.000000
    14 0.957766 -2.746780 -0.090302 -0.432127 -0.184437 0.072455
    15 -0.033420 -1.397129 -0.011257 -0.247860 0.000000 -0.000001
    16 -0.022360 -0.957436 0.018784 -0.956058 0.000000 0.000000
    17 -1.180681 -2.507217 -0.193859 -0.747365 0.130012 -0.054388
    18 -0.024967 -1.123934 0.017597 -1.414285 0.000000 0.000001
    19 -0.020057 -0.890968 0.010090 -0.846171 0.000000 0.000000
    20 0.583510 -1.197277 0.185379 0.631273 -1.323162 -0.918160
    21 1.535927 0.010246 0.005009 -0.124883 0.065220 -0.956793
    22 1.100771 0.004527 -0.010679 -0.014685 0.006877 -0.956472
    23 0.120153 -0.050270 -0.054489 0.287569 3.110905 1.561085
    24 -0.594998 -9.325135 -9.165625 -0.286281 -6.216945 0.343897
    25 0.096944 -8.450418 -0.009365 -0.008135 0.059276 -0.125449
    26 0.447953 -2.798986 -0.200443 -1.069180 -0.190644 0.074012
    27 -0.032909 -1.480204 0.004940 -0.861725 0.000000 0.000002
    28 -0.027022 -1.076920 -0.020210 -1.110402 0.000000 0.000000
    29 -0.249534 -2.846964 -0.174213 -0.642396 -0.084592 -0.060769
    30 0.043235 -1.683941 0.096012 -1.278391 0.002823 -0.000167
    31 0.031729 -1.160830 0.058838 -1.065492 0.000642 0.008372
    32 -0.963866 -2.785145 -0.085350 -0.440162 0.041399 -0.147273
    33 0.028479 -1.403067 0.006271 -1.210563 0.000000 0.000000
    34 0.021413 -0.957781 0.020046 -0.217362 0.000000 0.000000
    35 1.164475 -2.543940 -0.170330 -0.558159 -0.282959 -0.086049
    36 0.024032 -1.129042 0.017807 -0.781328 0.000000 0.000001
    37 0.014898 -0.883989 -0.019848 -0.634166 0.000372 -0.001462
    38 -0.586770 -1.264477 0.200161 -0.243216 -0.662074 -2.400476
    39 1.522835 0.058681 0.016848 -0.008333 -0.229904 0.514110
    40 1.117947 0.048424 -0.005766 -0.013726 -0.016054 0.789634
    41 -0.139399 -0.111698 0.014397 0.285382 -0.030687 1.580508
    42 -1.393470 8.839177 -0.239433 1.580804 -0.005023 -1.566847
  time 20
    0 0.621113 0.000000 0.792993 0.000000 0.000000 0.000000
    1 8.280658 3.779390 -9.848118 -1.334048 -1.468742 1.146467
    2 -0.071918 -8.498730 -0.104136 -0.128782 0.443718 -0.037711
    3 1.066394 -2.853785 1.145319 -0.068397 0.250151 2.999456
    4 -0.138642 1.369231 -0.000001 0.000000 0.000000 0.005300
    5 -2.544339 6.190367 -0.177679 -1.570796 -1.570796 0.000000
    6 -0.956247 5.815759 -0.075912 0.000001 0.000000 0.000000
    7 1.257180 8.762585 -0.153713 -1.570562 0.002683 -1.566807
    8 -0.488518 -2.755602 -0.228260 -1.119640 -0.066262 -0.107564
    9 0.039887 -1.479790 0.029854 -1.451658 0.000000 0.000001
    10 0.028786 -1.075731 -0.023109 -0.870565 0.000000 0.000000
    11 0.250027 -2.820665 -0.238396 -0.916633 -0.083577 -0.024886
    12 -0.049759 -1.680544 0.100479 -1.550922 0.000000 -0.000002
    13 -0.034142 -1.148312 0.084782 -1.087281 0.000000 0.000000
    14 0.957766 -2.746780 -0.090302 -0.432127 -0.184437 0.072455
    15 -0.033420 -1.397129 -0.011257 -0.247860 0.000000 -0.000001
    16 -0.022360 -0.957436 0.018784 -0.956058 0.000000 0.000000
    17 -1.180681 -2.507217 -0.193859 -0.747365 0.130012 -0.054388
    18 -0.024967 -1.123934 0.017597 -1.414285 0.000000 0.000001
    19 -0.020057 -0.890968 0.010090 -0.846171 0.000000 0.000000
    20 0.583510 -1.197277 0.185379 0.631273 -1.323162 -0.918160
    21 1.535927 0.010246 0.005009 -0.124883 0.065220 -0.956793
    22 1.100771 0.004527 -0.010679 -0.014685 0.006877 -0.956472
    23 0.120153 -0.050270 -0.054489 0.287569 3.110905 1.561085
    24 -0.505151 -8.961842 -9.466416 -0.235713 -6.236113 0.312407
    25 0.096944 -8.450418 -0.009365 -0.018876 0.050791 -0.125952
    26 0.447953 -2.798986 -0.200443 -1.023275 -0.190644 0.074012
    27 -0.032909 -1.480204 0.004940 -0.809069 0.000000 0.000002
    28 -0.027022 -1.076920 -0.020210 -1.139724 0.000000 0.000000
    29 -0.249534 -2.846964 -0.174213 -0.594413 -0.078312 -0.064328
    30 0.043235 -1.683941 0.096012 -1.230209 0.002823 -0.000167
    31 0.031729 -1.160830 0.058838 -1.094801 0.000642 0.008372
    32 -0.963866 -2.785145 -0.085350 -0.367533 0.058609 -0.153577
    33 0.028479 -1.403067 0.006271 -1.160512 0.000000 0.000000
    34 0.021413 -0.957781 0.020046 -0.249479 0.000000 0.000000
    35 1.164475 -2.543940 -0.170330 -0.551955 -0.282959 -0.086049
    36 0.024032 -1.129042 0.017807 -0.784726 0.000000 0.000001
    37 0.014898 -0.883989 -0.019848 -0.626736 0.000312 -0.001234
    38 -0.586770 -1.264477 0.200161 -0.236357 -0.665925 -2.412279
    39 1.522835 0.058681 0.016848 -0.019575 -0.204549 0.494911
    40 1.117947 0.048424 -0.005766 -0.012311 -0.017312 0.706860
    41 -0.139399 -0.111698 0.014397 0.285382 -0.030687 1.580508
    42 -1.393470 8.839177 -0.239433 1.580804 -0.005023 -1.566847
  time 21
    0 0.820338 0.000000 0.523453 0.000000 0.000000 0.000000
    1 7.663451 4.041117 -9.906714 -1.234243 -1.488815 1.059739
    2 -0.071918 -8.498730 -0.104136 -0.121236 0.411923 -0.033103
    3 1.066394 -2.853785 1.145319 -0.068397 0.250151 2.999456
    4 -0.138642 1.369231 -0.000001 0.000000 0.000000 0.005300
    5 -2.544339 6.190367 -0.177679 -1.570796 -1.570796 0.000000
    6 -0.956247 5.815759 -0.075912 0.000001 0.000000 0.000000
    7 1.257180 8.762585 -0.153713 -1.570562 0.002683 -1.566807
    8 -0.488518 -2.755602 -0.228260 -1.119640 -0.066262 -0.107564
    9 0.039887 -1.479790 0.029854 -1.451658 0.000000 0.000001
    10 0.028786 -1.075731 -0.023109 -0.870565 0.000000 0.000000
    11 0.250027 -2.820665 -0.238396 -0.916633 -0.083577 -0.024886
    12 -0.049759 -1.680544 0.100479 -1.550922 0.000000 -0.000002
    13 -0.034142 -1.148312 0.084782 -1.087313 0.000000 0.000000
    14 0.957766 -2.746780 -0.090302 -0.432127 -0.184437 0.072455
    15 -0.033420 -1.397129 -0.011257 -0.247860 0.000000 -0.000001
    16 -0.022360 -0.957436 0.018784 -0.956058 0.000000 0.000000
    17 -1.180681 -2.507217 -0.193859 -0.747365 0.130012 -0.054388
    18 -0.024967 -1.123934 0.017597 -1.414285 0.000000 0.000001
    19 -0.020057 -0.890968 0.010090 -0.846171 0.000000 0.000000
    20 0.583510 -1.197277 0.185379 0.631273 -1.323162 -0.918160
    21 1.535927 0.010246 0.005009 -0.124883 0.065220 -0.956793
    22 1.100771 0.004527 -0.010679 -0.014685 0.006877 -0.956472
    23 0.120153 -0.050270 -0.054489 0.287569 3.110905 1.561085
    24 -0.446555 -8.653239 -9.751581 -0.189621 -6.249914 0.312966
    25 0.096944 -8.450418 -0.009365 -0.028788 0.041866 -0.120428
    26 0.447953 -2.798986 -0.200443 -0.978920 -0.190644 0.074012
    27 -0.032909 -1.480204 0.004940 -0.758119 0.000000 0.000002
    28 -0.027022 -1.076920 -0.020210 -1.167607 0.000000 0.000000
    29 -0.249534 -2.846964 -0.174213 -0.548071 -0.072248 -0.067768
    30 0.043235 -1.683941 0.096012 -1.183660 0.002823 -0.000167
    31 0.031729 -1.160830 0.058838 -1.122698 0.000642 0.008372
    32 -0.963866 -2.785145 -0.085350 -0.297267 0.075256 -0.159677
    33 0.028479 -1.403067 0.006271 -1.112045 0.000000 0.000000
    34 0.021413 -0.957781 0.020046 -0.279999 0.000000 0.000000
    35 1.164475 -2.543940 -0.170330 -0.545971 -0.282959 -0.086049
    36 0.024032 -1.129042 0.017807 -0.787935 0.000000 0.000001
    37 0.014898 -0.883989 -0.019848 -0.619665 0.000264 -0.001031
    38 -0.586770 -1.264477 0.200161 -0.226012 -0.671734 -2.430145
    39 1.522835 0.058681 0.016848 -0.030445 -0.180009 0.476363
    40 1.117947 0.048424 -0.005766 -0.010945 -0.018535 0.626799
    41 -0.139399 -0.111698 0.014397 0.285382 -0.030687 1.580508
    42 -1.393470 8.839177 -0.239433 1.580804 -0.005023 -1.566847
  time 22
    0 0.964873 0.000000 0.308603 0.000000 0.000000 0.000000
    1 7.085309 4.271592 -9.941871 -1.109102 -1.508823 0.950976
    2 -0.071918 -8.498730 -0.104136 -0.102024 0.336025 -0.020713
    3 1.066394 -2.853785 1.145319 -0.068397 0.250151 2.999456
    4 -0.138642 1.369231 -0.000001 0.000000 0.000000 0.005300
    5 -2.544339 6.190367 -0.177679 -1.570796 -1.570796 0.000000
    6 -0.956247 5.815759 -0.075912 0.000001 0.000000 0.000000
    7 1.257180 8.762585 -0.153713 -1.570562 0.002683 -1.566807
    8 -0.488518 -2.755602 -0.228260 -1.119640 -0.066262 -0.107564
    9 0.039887 -1.479790 0.029854 -1.451658 0.000000 0.000001
    10 0.028786 -1.075731 -0.023109 -0.870565 0.000000 0.000000
    11 0.250027 -2.820665 -0.238396 -0.916633 -0.083577 -0.024886
    12 -0.049759 -1.680544 0.100479 -1.550922 0.000000 -0.000002
    13 -0.034142 -1.148312 0.084782 -1.087281 0.000000 0.000000
    14 0.957766 -2.746780 -0.090302 -0.432127 -0.184437 0.072455
    15 -0.033420 -1.397129 -0.011257 -0.247860 0.000000 -0.000001
    16 -0.022360 -0.957436 0.018784 -0.956087 0.000000 0.000000
    17 -1.180681 -2.507217 -0.193859 -0.747365 0.130012 -0.054388
    18 -0.024967 -1.123934 0.017597 -1.414285 0.000000 0.000001
    19 -0.020057 -0.890968 0.010090 -0.846171 0.000000 0.000000
    20 0.583510 -1.197277 0.185379 0.631273 -1.323162 -0.918160
    21 1.535927 0.010246 0.005009 -0.124883 0.065220 -0.956793
    22 1.100771 0.004527 -0.010679 -0.014685 0.006877 -0.956472
    23 0.120153 -0.050270 -0.054489 0.287569 3.110905 1.561085
    24 -0.403585 -8.407138 -9.989869 -0.142387 -6.261319 0.316320
    25 0.096944 -8.450418 -0.009365 -0.039297 0.031450 -0.105435
    26 0.447953 -2.798986 -0.200443 -0.936615 -0.190644 0.074012
    27 -0.032909 -1.480204 0.004940 -0.709607 0.000000 0.000002
    28 -0.027022 -1.076920 -0.020210 -1.193813 0.000000 0.000000
    29 -0.249534 -2.846964 -0.174213 -0.503903 -0.066460 -0.071051
    30 0.043235 -1.683941 0.096012 -1.139288 0.002823 -0.000167
    31 0.031729 -1.160830 0.058838 -1.148862 0.000642 0.008372
    32 -0.963866 -2.785145 -0.085350 -0.230353 0.091111 -0.165490
    33 0.028479 -1.403067 0.006271 -1.065901 0.000000 0.000000
    34 0.021413 -0.957781 0.020046 -0.308665 0.000000 0.000000
    35 1.164475 -2.543940 -0.170330 -0.540271 -0.282959 -0.086049
    36 0.024032 -1.129042 0.017807 -0.790917 0.000000 0.000001
    37 0.014898 -0.883989 -0.019848 -0.613034 0.000216 -0.000839
    38 -0.586770 -1.264477 0.200161 -0.213030 -0.679020 -2.452514
    39 1.522835 0.058681 0.016848 -0.040800 -0.156647 0.458728
    40 1.117947 0.048424 -0.005766 -0.009651 -0.019697 0.550499
    41 -0.139399 -0.111698 0.014397 0.285382 -0.030687 1.580508
    42 -1.393470 8.839177 -0.239433 1.580804 -0.005023 -1.566847
  time 23
    0 1.023469 0.000000 0.175787 0.000000 0.000000 0.000000
    1 6.632170 4.466911 -9.961403 -0.967137 -1.528303 0.827586
    2 -0.071918 -8.498730 -0.104136 -0.076444 0.245253 -0.002605
    3 1.066394 -2.853785 1.145319 -0.068397 0.250151 2.999456
    4 -0.138642 1.369231 -0.000001 0.000000 0.000000 0.005300
    5 -2.544339 6.190367 -0.177679 -1.570796 -1.570796 0.000000
    6 -0.956247 5.815759 -0.075912 0.000001 0.000000 0.000000
    7 1.257180 8.762585 -0.153713 -1.570562 0.002683 -1.566807
    8 -0.488518 -2.755602 -0.228260 -1.119640 -0.066262 -0.107564
    9 0.039887 -1.479790 0.029854 -1.451658 0.000000 0.000001
    10 0.028786 -1.075731 -0.023109 -0.870565 0.000000 0.000000
    11 0.250027 -2.820665 -0.238396 -0.916633 -0.083577 -0.024886
    12 -0.049759 -1.680544 0.100479 -1.550922 0.000000 -0.000002
    13 -0.034142 -1.148312 0.084782 -1.087281 0.000000 0.000000
    14 0.957766 -2.746780 -0.090302 -0.432127 -0.184437 0.072455
    15 -0.033420 -1.397129 -0.011257 -0.247860 0.000000 -0.000001
    16 -0.022360 -0.957436 0.018784 -0.956058 0.000000 0.000000
    17 -1.180681 -2.507217 -0.193859 -0.747365 0.130012 -0.054388
    18 -0.024967 -1.123934 0.017597 -1.414285 0.000000 0.000001
    19 -0.020057 -0.890968 0.010090 -0.846171 0.000000 0.000000
    20 0.583510 -1.197277 0.185379 0.631273 -1.323162 -0.918160
    21 1.535927 0.010246 0.005009 -0.124883 0.065220 -0.956793
    22 1.100771 0.004527 -0.010679 -0.014685 0.006877 -0.956472
    23 0.120153 -0.050270 -0.054489 0.287569 3.110905 1.561085
    24 -0.376241 -8.250883 -10.157843 -0.105627 -6.269178 0.325357
    25 0.096944 -8.450418 -0.009365 -0.050071 0.020097 -0.083358
    26 0.447953 -2.798986 -0.200443 -0.897060 -0.190644 0.074012
    27 -0.032909 -1.480204 0.004940 -0.664167 0.000000 0.000002
    28 -0.027022 -1.076920 -0.020210 -1.217981 0.000000 0.000000
    29 -0.249534 -2.846964 -0.174213 -0.462552 -0.061055 -0.074119
    30 0.043235 -1.683941 0.096012 -1.097802 0.002823 -0.000167
    31 0.031729 -1.160830 0.058838 -1.173010 0.000642 0.008372
    32 -0.963866 -2.785145 -0.085350 -0.167741 0.105936 -0.170919
    33 0.028479 -1.403067 0.006271 -1.022714 0.000000 0.000000
    34 0.021413 -0.957781 0.020046 -0.335127 0.000000 0.000000
    35 1.164475 -2.543940 -0.170330 -0.534944 -0.282959 -0.086049
    36 0.024032 -1.129042 0.017807 -0.793636 0.000000 0.000001
    37 0.014898 -0.883989 -0.019848 -0.606922 0.000168 -0.000659
    38 -0.586770 -1.264477 0.200161 -0.198292 -0.687268 -2.477925
    39 1.522835 0.058681 0.016848 -0.050483 -0.134780 0.442178
    40 1.117947 0.048424 -0.005766 -0.008428 -0.020788 0.479148
    41 -0.139399 -0.111698 0.014397 0.285382 -0.030687 1.580508
    42 -1.393470 8.839177 -0.239433 1.580804 -0.005023 -1.566847
  time 24
    0 0.964873 0.000000 0.113285 0.000000 0.000000 0.000000
    1 6.401694 4.619259 -9.965309 -0.816700 -1.546742 0.696850
    2 -0.071918 -8.498730 -0.104136 -0.049665 0.168852 0.019120
    3 1.066394 -2.853785 1.145319 -0.068397 0.250151 2.999456
    4 -0.138642 1.369231 -0.000001 0.000000 0.000000 0.005300
    5 -2.544339 6.190367 -0.177679 -1.570796 -1.570796 0.000000
    6 -0.956247 5.815759 -0.075912 0.000001 0.000000 0.000000
    7 1.257180 8.762585 -0.153713 -1.570562 0.002683 -1.566807
    8 -0.488518 -2.755602 -0.228260 -1.119640 -0.066262 -0.107564
    9 0.039887 -1.479790 0.029854 -1.451658 0.000000 0.000001
    10 0.028786 -1.075731 -0.023109 -0.870565 0.000000 0.000000
    11 0.250027 -2.820665 -0.238396 -0.916633 -0.083577 -0.024886
    12 -0.049759 -1.680544 0.100479 -1.550922 0.000000 -0.000002
    13 -0.034142 -1.148312 0.084782 -1.087281 0.000000 0.000000
    14 0.957766 -2.746780 -0.090302 -0.432127 -0.184437 0.072455
    15 -0.033420 -1.397129 -0.011257 -0.247860 0.000000 -0.000001
    16 -0.022360 -0.957436 0.018784 -0.956058 0.000000 0.000000
    17 -1.180681 -2.507217 -0.193859 -0.747365 0.130012 -0.054388
    18 -0.024967 -1.123934 0.017597 -1.414285 0.000000 0.000001
    19 -0.020057 -0.890968 0.010090 -0.846171 0.000000 0.000000
    20 0.583510 -1.197277 0.185379 0.631273 -1.323162 -0.918177
    21 1.535927 0.010246 0.005009 -0.124883 0.065220 -0.956793
    22 1.100771 0.004527 -0.010679 -0.014685 0.006877 -0.956472
    23 0.120153 -0.050270 -0.054489 0.287569 3.110905 1.561085
    24 -0.352803 -8.192288 -10.220345 -0.090771 -6.272053 0.342686
    25 0.096944 -8.450418 -0.009365 -0.060679 0.008422 -0.056546
    26 0.447953 -2.798986 -0.200443 -0.860856 -0.190644 0.074012
    27 -0.032909 -1.480204 0.004940 -0.622578 0.000000 0.000002
    28 -0.027022 -1.076920 -0.020210 -1.239832 0.000000 0.000000
    29 -0.249534 -2.846964 -0.174213 -0.424693 -0.056093 -0.076924
    30 0.043235 -1.683941 0.096012 -1.059747 0.002823 -0.000167
    31 0.031729 -1.160830 0.058838 -1.194861 0.000642 0.008372
    32 -0.963866 -2.785145 -0.085350 -0.110386 0.119527 -0.175892
    33 0.028479 -1.403067 0.006271 -0.983169 0.000000 0.000000
    34 0.021413 -0.957781 0.020046 -0.359063 0.000000 0.000000
    35 1.164475 -2.543940 -0.170330 -0.530056 -0.282959 -0.086049
    36 0.024032 -1.129042 0.017807 -0.796090 0.000000 0.000001
    37 0.014898 -0.883989 -0.019848 -0.601369 0.000120 -0.000491
    38 -0.586770 -1.264477 0.200161 -0.182675 -0.696030 -2.504816
    39 1.522835 0.058681 0.016848 -0.059364 -0.114756 0.427062
    40 1.117947 0.048424 -0.005766 -0.007326 -0.021782 0.413748
    41 -0.139399 -0.111698 0.014397 0.285382 -0.030687 1.580508
    42 -1.393470 8.839177 -0.239433 1.580804 -0.005023 -1.566847
  time 25
    0 0.820338 0.000000 0.066408 0.000000 0.000000 0.000000
    1 6.327473 4.724731 -9.832493 -0.666263 -1.563693 0.566115
    2 -0.071918 -8.498730 -0.104136 -0.026944 0.136050 0.042364
    3 1.066394 -2.853785 1.145319 -0.068397 0.250151 2.999456
    4 -0.138642 1.369231 -0.000001 0.000000 0.000000 0.005300
    5 -2.544339 6.190367 -0.177679 -1.570796 -1.570796 0.000000
    6 -0.956247 5.815759 -0.075912 0.000001 0.000000 0.000000
    7 1.257180 8.762585 -0.153713 -1.570562 0.002683 -1.566807
    8 -0.488518 -2.755602 -0.228260 -1.119640 -0.066262 -0.107564
    9 0.039887 -1.479790 0.029854 -1.451658 0.000000 0.000001
    10 0.028786 -1.075731 -0.023109 -0.870565 0.000000 0.000000
    11 0.250027 -2.820665 -0.238396 -0.916633 -0.083577 -0.024886
    12 -0.049759 -1.680544 0.100479 -1.550922 0.000000 -0.000002
    13 -0.034142 -1.148312 0.084782 -1.087281 0.000000 0.000000
    14 0.957766 -2.746780 -0.090302 -0.432127 -0.184437 0.072455
    15 -0.033420 -1.397129 -0.011257 -0.247860 0.000000 -0.000001
    16 -0.022360 -0.957436 0.018784 -0.956058 0.000000 0.000000
    17 -1.180681 -2.507217 -0.193859 -0.747365 0.130012 -0.054388
    18 -0.024967 -1.123934 0.017597 -1.414285 0.000000 0.000001
    19 -0.020057 -0.890968 0.010090 -0.846171 0.000000 0.000000
    20 0.583510 -1.197277 0.185379 0.631273 -1.323162 -0.918160
    21 1.535927 0.010246 0.005009 -0.124883 0.065220 -0.956793
    22 1.100771 0.004527 -0.010679 -0.014685 0.006877 -0.956472
    23 0.120153 -0.050270 -0.054489 0.287569 3.110905 1.561085
    24 -0.333271 -8.192288 -10.150030 -0.105818 -6.266686 0.375573
    25 0.096944 -8.450418 -0.009365 -0.070724 -0.003019 -0.027368
    26 0.447953 -2.798986 -0.200443 -0.828552 -0.190644 0.074012
    27 -0.032909 -1.480204 0.004940 -0.585475 0.000000 0.000002
    28 -0.027022 -1.076920 -0.020210 -1.259127 0.000000 0.000000
    29 -0.249534 -2.846964 -0.174213 -0.390899 -0.051683 -0.079429
    30 0.043235 -1.683941 0.096012 -1.025828 0.002823 -0.000167
    31 0.031729 -1.160830 0.058838 -1.214171 0.000642 0.008372
    32 -0.963866 -2.785145 -0.085350 -0.059238 0.131655 -0.180338
    33 0.028479 -1.403067 0.006271 -0.947849 0.000000 0.000000
    34 0.021413 -0.957781 0.020046 -0.380187 0.000000 0.000000
    35 1.164475 -2.543940 -0.170330 -0.525693 -0.282959 -0.086049
    36 0.024032 -1.129042 0.017807 -0.798204 0.000000 0.000001
    37 0.014898 -0.883989 -0.019848 -0.596496 0.000084 -0.000348
    38 -0.586770 -1.264477 0.200161 -0.167057 -0.704792 -2.531728
    39 1.522835 0.058681 0.016848 -0.067274 -0.096891 0.413553
    40 1.117947 0.048424 -0.005766 -0.006331 -0.022669 0.355440
    41 -0.139399 -0.111698 0.014397 0.285382 -0.030687 1.580508
    42 -1.393470 8.839177 -0.239433 1.580804 -0.005023 -1.566847
  time 26
    0 0.621113 0.000000 0.035157 0.000000 0.000000 0.000000
    1 6.272784 4.795046 -9.496545 -0.524297 -1.578644 0.442725
    2 -0.071918 -8.498730 -0.104136 -0.008846 0.135223 0.084433
    3 1.066394 -2.853785 1.145319 -0.068397 0.250151 2.999456
    4 -0.138642 1.369231 -0.000001 0.000000 0.000000 0.005300
    5 -2.544339 6.190367 -0.177679 -1.570796 -1.570796 0.000000
    6 -0.956247 5.815759 -0.075912 0.000001 0.000000 0.000000
    7 1.257180 8.762585 -0.153713 -1.570562 0.002683 -1.566807
    8 -0.488518 -2.755602 -0.228260 -1.119640 -0.066262 -0.107564
    9 0.039887 -1.479790 0.029854 -1.451658 0.000000 0.000001
    10 0.028786 -1.075731 -0.023109 -0.870565 0.000000 0.000000
    11 0.250027 -2.820665 -0.238396 -0.916633 -0.083577 -0.024886
    12 -0.049759 -1.680544 0.100479 -1.550922 0.000000 -0.000002
    13 -0.034142 -1.148312 0.084782 -1.087281 0.000000 0.000000
    14 0.957766 -2.746780 -0.090302 -0.432127 -0.184437 0.072455
    15 -0.033420 -1.397129 -0.011257 -0.247860 0.000000 -0.000001
    16 -0.022360 -0.957436 0.018784 -0.956058 0.000000 0.000000
    17 -1.180681 -2.507217 -0.193859 -0.747365 0.130012 -0.054388
    18 -0.024967 -1.123934 0.017597 -1.414285 0.000000 0.000001
    19 -0.020057 -0.890968 0.010090 -0.846171 0.000000 0.000000
    20 0.583510 -1.197277 0.185379 0.631273 -1.323162 -0.918160
    21 1.535927 0.010246 0.005009 -0.124883 0.065220 -0.956793
    22 1.100771 0.004527 -0.010679 -0.014685 0.006877 -0.956472
    23 0.120153 -0.050270 -0.054489 0.287569 3.110905 1.561085
    24 -0.321552 -8.192288 -9.978150 -0.143434 -6.253269 0.423181
    25 0.096944 -8.450418 -0.009365 -0.079807 -0.013670 0.001775
    26 0.447953 -2.798986 -0.200443 -0.800749 -0.190644 0.074012
    27 -0.032909 -1.480204 0.004940 -0.553589 0.000000 0.000002
    28 -0.027022 -1.076920 -0.020210 -1.275545 0.000000 0.000000
    29 -0.249534 -2.846964 -0.174213 -0.361882 -0.047872 -0.081586
    30 0.043235 -1.683941 0.096012 -0.996701 0.002823 -0.000167
    31 0.031729 -1.160830 0.058838 -1.230579 0.000642 0.008372
    32 -0.963866 -2.785145 -0.085350 -0.015252 0.142082 -0.184162
    33 0.028479 -1.403067 0.006271 -0.917544 0.000000 0.000000
    34 0.021413 -0.957781 0.020046 -0.398180 0.000000 0.000000
    35 1.164475 -2.543940 -0.170330 -0.521945 -0.282959 -0.086049
    36 0.024032 -1.129042 0.017807 -0.800016 0.000000 0.000001
    37 0.014898 -0.883989 -0.019848 -0.592301 0.000060 -0.000228
    38 -0.586770 -1.264477 0.200161 -0.152347 -0.713073 -2.557118
    39 1.522835 0.058681 0.016848 -0.074081 -0.081518 0.401912
    40 1.117947 0.048424 -0.005766 -0.005468 -0.023436 0.305271
    41 -0.139399 -0.111698 0.014397 0.285382 -0.030687 1.580508
    42 -1.393470 8.839177 -0.239433 1.580804 -0.005023 -1.566847
  time 27
    0 0.402356 0.000000 0.015625 0.000000 0.000000 0.000000
    1 6.241533 4.838016 -9.055125 -0.399156 -1.591113 0.333961
    2 -0.071918 -8.498730 -0.104136 0.003808 0.135031 0.125494
    3 1.066394 -2.853785 1.145319 -0.068397 0.250151 2.999456
    4 -0.138642 1.369231 -0.000001 0.000000 0.000000 0.005300
    5 -2.544339 6.190367 -0.177679 -1.570796 -1.570796 0.000000
    6 -0.956247 5.815759 -0.075912 0.000001 0.000000 0.000000
    7 1.257180 8.762585 -0.153713 -1.570562 0.002683 -1.566807
    8 -0.488518 -2.755602 -0.228260 -1.119640 -0.066262 -0.107564
    9 0.039887 -1.479790 0.029854 -1.451658 0.000000 0.000001
    10 0.028786 -1.075731 -0.023109 -0.870565 0.000000 0.000000
    11 0.250027 -2.820665 -0.238396 -0.916633 -0.083577 -0.024886
    12 -0.049759 -1.680544 0.100479 -1.550922 0.000000 -0.000002
    13 -0.034142 -1.148312 0.084782 -1.087313 0.000000 0.000000
    14 0.957766 -2.746780 -0.090302 -0.432127 -0.184437 0.072455
    15 -0.033420 -1.397129 -0.011257 -0.247860 0.000000 -0.000001
    16 -0.022360 -0.957436 0.018784 -0.956058 0.000000 0.000000
    17 -1.180681 -2.507217 -0.193859 -0.747365 0.130012 -0.054388
    18 -0.024967 -1.123934 0.017597 -1.414285 0.000000 0.000001
    19 -0.020057 -0.890968 0.010090 -0.846171 0.000000 0.000000
    20 0.583510 -1.197277 0.185379 0.631273 -1.323162 -0.918160
    21 1.535927 0.010246 0.005009 -0.124883 0.065220 -0.956793
    22 1.100771 0.004527 -0.010679 -0.014685 0.006877 -0.956472
    23 0.120153 -0.050270 -0.054489 0.287569 3.110905 1.561085
    24 -0.313739 -8.192288 -9.755487 -0.192335 -6.235826 0.476286
    25 0.096944 -8.450418 -0.009365 -0.087565 -0.022946 0.028587
    26 0.447953 -2.798986 -0.200443 -0.778097 -0.190644 0.074012
    27 -0.032909 -1.480204 0.004940 -0.527553 0.000000 0.000002
    28 -0.027022 -1.076920 -0.020210 -1.288848 0.000000 0.000000
    29 -0.249534 -2.846964 -0.174213 -0.338176 -0.044780 -0.083348
    30 0.043235 -1.683941 0.096012 -0.972909 0.002823 -0.000167
    31 0.031729 -1.160830 0.058838 -1.243842 0.000642 0.008372
    32 -0.963866 -2.785145 -0.085350 0.020622 0.150579 -0.187278
    33 0.028479 -1.403067 0.006271 -0.892782 0.000000 0.000000
    34 0.021413 -0.957781 0.020046 -0.412689 0.000000 0.000000
    35 1.164475 -2.543940 -0.170330 -0.518876 -0.282959 -0.086049
    36 0.024032 -1.129042 0.017807 -0.801488 0.000000 0.000001
    37 0.014898 -0.883989 -0.019848 -0.588946 0.000024 -0.000132
    38 -0.586770 -1.264477 0.200161 -0.139366 -0.720326 -2.579507
    39 1.522835 0.058681 0.016848 -0.079642 -0.068999 0.392443
    40 1.117947 0.048424 -0.005766 -0.004773 -0.024059 0.264384
    41 -0.139399 -0.111698 0.014397 0.285382 -0.030687 1.580508
    42 -1.393470 8.839177 -0.239433 1.580804 -0.005023 -1.566847
  time 28
    0 0.203131 0.000000 0.003906 0.000000 0.000000 0.000000
    1 6.218095 4.861454 -8.617612 -0.299351 -1.600621 0.247234
    2 -0.071918 -8.498730 -0.104136 0.009777 0.174784 0.141058
    3 1.066394 -2.853785 1.145319 -0.068397 0.250151 2.999456
    4 -0.138642 1.369231 -0.000001 0.000000 0.000000 0.005300
    5 -2.544339 6.190367 -0.177679 -1.570796 -1.570796 0.000000
    6 -0.956247 5.815759 -0.075912 0.000001 0.000000 0.000000
    7 1.257180 8.762585 -0.153713 -1.570562 0.002683 -1.566807
    8 -0.488518 -2.755602 -0.228260 -1.119640 -0.066262 -0.107564
    9 0.039887 -1.479790 0.029854 -1.451658 0.000000 0.000001
    10 0.028786 -1.075731 -0.023109 -0.870565 0.000000 0.000000
    11 0.250027 -2.820665 -0.238396 -0.916633 -0.083577 -0.024886
    12 -0.049759 -1.680544 0.100479 -1.550922 0.000000 -0.000002
    13 -0.034142 -1.148312 0.084782 -1.087281 0.000000 0.000000
    14 0.957766 -2.746780 -0.090302 -0.432127 -0.184437 0.072455
    15 -0.033420 -1.397129 -0.011257 -0.247860 0.000000 -0.000001
    16 -0.022360 -0.957436 0.018784 -0.956058 0.000000 0.000000
    17 -1.180681 -2.507217 -0.193859 -0.747365 0.130012 -0.054388
    18 -0.024967 -1.123934 0.017597 -1.414285 0.000000 0.000001
    19 -0.020057 -0.890968 0.010090 -0.846171 0.000000 0.000000
    20 0.583510 -1.197277 0.185379 0.631273 -1.323162 -0.918160
    21 1.535927 0.010246 0.005009 -0.124883 0.065220 -0.956793
    22 1.100771 0.004527 -0.010679 -0.014685 0.006877 -0.956472
    23 0.120153 -0.050270 -0.054489 0.287569 3.110905 1.561085
    24 -0.309833 -8.192288 -9.528918 -0.241237 -6.218383 0.525571
    25 0.096944 -8.450418 -0.009365 -0.093598 -0.030290 0.050682
    26 0.447953 -2.798986 -0.200443 -0.761145 -0.190644 0.074012
    27 -0.032909 -1.480204 0.004940 -0.508100 0.000000 0.000002
    28 -0.027022 -1.076920 -0.020210 -1.298675 0.000000 0.000000
    29 -0.249534 -2.846964 -0.174213 -0.320494 -0.042455 -0.084666
    30 0.043235 -1.683941 0.096012 -0.955106 0.002823 -0.000167
    31 0.031729 -1.160830 0.058838 -1.253679 0.000642 0.008372
    32 -0.963866 -2.785145 -0.085350 0.047430 0.156931 -0.189603
    33 0.028479 -1.403067 0.006271 -0.874303 0.000000 0.000000
    34 0.021413 -0.957781 0.020046 -0.423458 0.000000 0.000000
    35 1.164475 -2.543940 -0.170330 -0.516596 -0.282959 -0.086049
    36 0.024032 -1.129042 0.017807 -0.802545 0.000000 0.000001
    37 0.014898 -0.883989 -0.019848 -0.586469 0.000012 -0.000060
    38 -0.586770 -1.264477 0.200161 -0.129020 -0.726168 -2.597354
    39 1.522835 0.058681 0.016848 -0.083788 -0.059636 0.385363
    40 1.117947 0.048424 -0.005766 -0.004258 -0.024527 0.233826
    41 -0.139399 -0.111698 0.014397 0.285382 -0.030687 1.580508
    42 -1.393470 8.839177 -0.239433 1.580804 -0.005023 -1.566847
  time 29
    0 0.054689 0.000000 0.000000 0.000000 0.000000 0.000000
    1 6.210282 4.869267 -8.281664 -0.233274 -1.606687 0.189792
    2 -0.071918 -8.498730 -0.104136 0.012467 0.248609 0.147612
    3 1.066394 -2.853785 1.145319 -0.068397 0.250151 2.999456
    4 -0.138642 1.369231 -0.000001 0.000000 0.000000 0.005300
    5 -2.544339 6.190367 -0.177679 -1.570796 -1.570796 0.000000
    6 -0.956247 5.815759 -0.075912 0.000001 0.000000 0.000000
    7 1.257180 8.762585 -0.153713 -1.570562 0.002683 -1.566807
    8 -0.488518 -2.755602 -0.228260 -1.119640 -0.066262 -0.107564
    9 0.039887 -1.479790 0.029854 -1.451658 0.000000 0.000001
    10 0.028786 -1.075731 -0.023109 -0.870565 0.000000 0.000000
    11 0.250027 -2.820665 -0.238396 -0.916633 -0.083577 -0.024886
    12 -0.049759 -1.680544 0.100479 -1.550922 0.000000 -0.000002
    13 -0.034142 -1.148312 0.084782 -1.087281 0.000000 0.000000
    14 0.957766 -2.746780 -0.090302 -0.432127 -0.184437 0.072455
    15 -0.033420 -1.397129 -0.011257 -0.247860 0.000000 -0.000001
    16 -0.022360 -0.957436 0.018784 -0.956058 0.000000 0.000000
    17 -1.180681 -2.507217 -0.193859 -0.747365 0.130012 -0.054388
    18 -0.024967 -1.123934 0.017597 -1.414285 0.000000 0.000001
    19 -0.020057 -0.890968 0.010090 -0.846171 0.000000 0.000000
    20 0.583510 -1.197277 0.185379 0.631273 -1.323162 -0.918160
    21 1.535927 0.010246 0.005009 -0.124883 0.065220 -0.956793
    22 1.100771 0.004527 -0.010679 -0.014685 0.006877 -0.956472
    23 0.120153 -0.050270 -0.054489 0.287569 3.110905 1.561085
    24 -0.305926 -8.192288 -9.357038 -0.278805 -6.205061 0.561999
    25 0.096944 -8.450418 -0.009365 -0.097510 -0.035118 0.065657
    26 0.447953 -2.798986 -0.200443 -0.750543 -0.190644 0.074012
    27 -0.032909 -1.480204 0.004940 -0.495911 0.000000 0.000002
    28 -0.027022 -1.076920 -0.020210 -1.304787 0.000000 0.000000
    29 -0.249534 -2.846964 -0.174213 -0.309408 -0.041004 -0.085481
    30 0.043235 -1.683941 0.096012 -0.944000 0.002823 -0.000167
    31 0.031729 -1.160830 0.058838 -1.259807 0.000642 0.008372
    32 -0.963866 -2.785145 -0.085350 0.064221 0.160910 -0.191053
    33 0.028479 -1.403067 0.006271 -0.862688 0.000000 0.000000
    34 0.021413 -0.957781 0.020046 -0.430170 0.000000 0.000000
    35 1.164475 -2.543940 -0.170330 -0.515171 -0.282959 -0.086049
    36 0.024032 -1.129042 0.017807 -0.803225 0.000000 0.000001
    37 0.014898 -0.883989 -0.019848 -0.584911 0.000000 -0.000012
    38 -0.586770 -1.264477 0.200161 -0.122161 -0.729987 -2.609177
    39 1.522835 0.058681 0.016848 -0.086377 -0.053761 0.380932
    40 1.117947 0.048424 -0.005766 -0.003934 -0.024814 0.214691
    41 -0.139399 -0.111698 0.014397 0.285382 -0.030687 1.580508
    42 -1.393470 8.839177 -0.239433 1.580804 -0.005023 -1.566847
  time 30
    0 0.000000 0.000000 0.000000 0.000000 0.000000 0.000000
    1 6.210282 4.869267 -8.148848 -0.209396 -1.608800 0.169044
    2 -0.071918 -8.498730 -0.104136 0.013077 0.288362 0.148943
    3 1.066394 -2.853785 1.145319 -0.068397 0.250151 2.999456
    4 -0.138642 1.369231 -0.000001 0.000000 0.000000 0.005300
    5 -2.544339 6.190367 -0.177679 -1.570796 -1.570796 0.000000
    6 -0.956247 5.815759 -0.075912 0.000001 0.000000 0.000000
    7 1.257180 8.762585 -0.153713 -1.570562 0.002683 -1.566807
    8 -0.488518 -2.755602 -0.228260 -1.119640 -0.066262 -0.107564
    9 0.039887 -1.479790 0.029854 -1.451658 0.000000 0.000001
    10 0.028786 -1.075731 -0.023109 -0.870565 0.000000 0.000000
    11 0.250027 -2.820665 -0.238396 -0.916633 -0.083577 -0.024886
    12 -0.049759 -1.680544 0.100479 -1.550922 0.000000 -0.000002
    13 -0.034142 -1.148312 0.084782 -1.087281 0.000000 0.000000
    14 0.957766 -2.746780 -0.090302 -0.432127 -0.184437 0.072455
    15 -0.033420 -1.397129 -0.011257 -0.247860 0.000000 -0.000001
    16 -0.022360 -0.957436 0.018784 -0.956058 0.000000 0.000000
    17 -1.180681 -2.507217 -0.193859 -0.747365 0.130012 -0.054388
    18 -0.024967 -1.123934 0.017597 -1.414285 0.000000 0.000001
    19 -0.020057 -0.890968 0.010090 -0.846171 0.000000 0.000000
    20 0.583510 -1.197277 0.185379 0.631273 -1.323162 -0.918160
    21 1.535927 0.010246 0.005009 -0.124883 0.065220 -0.956793
    22 1.100771 0.004527 -0.010679 -0.014685 0.006877 -0.956472
    23 0.120153 -0.050270 -0.054489 0.287569 3.110905 1.561085
    24 -0.305926 -8.192288 -9.290629 -0.293852 -6.199694 0.576160
    25 0.096944 -8.450418 -0.009365 -0.098902 -0.036844 0.071180
    26 0.447953 -2.798986 -0.200443 -0.746893 -0.190644 0.074012
    27 -0.032909 -1.480204 0.004940 -0.491718 0.000000 0.000002
    28 -0.027022 -1.076920 -0.020210 -1.306864 0.000000 0.000000
    29 -0.249534 -2.846964 -0.174213 -0.305558 -0.040513 -0.085769
    30 0.043235 -1.683941 0.096012 -0.940134 0.002823 -0.000167
    31 0.031729 -1.160830 0.058838 -1.261903 0.000642 0.008372
    32 -0.963866 -2.785145 -0.085350 0.070006 0.162276 -0.191556
    33 0.028479 -1.403067 0.006271 -0.858676 0.000000 0.000000
    34 0.021413 -0.957781 0.020046 -0.432470 0.000000 0.000000
    35 1.164475 -2.543940 -0.170330 -0.514667 -0.282959 -0.086049
    36 0.024032 -1.129042 0.017807 -0.803451 0.000000 0.000001
    37 0.014898 -0.883989 -0.019848 -0.584392 0.000000 0.000000
    38 -0.586770 -1.264477 0.200161 -0.119695 -0.731399 -2.613436
    39 1.522835 0.058681 0.016848 -0.087276 -0.051738 0.379412
    40 1.117947 0.048424 -0.005766 -0.003814 -0.024910 0.208075
    41 -0.139399 -0.111698 0.014397 0.285382 -0.030687 1.580508
    42 -1.393470 8.839177 -0.239433 1.580804 -0.005023 -1.566847
end
