// Created by Crowbar 0.34.0.0

$ModelName "weapons/tfa_cso/w_hwando.mdl"

$BodyGroup "studio"
{
	studio "v_y20s1sword_ref_20s1sword"
}

$collisionmodel "v_y20s1sword_ref_20s1sword.smd"
{
	$mass 6
}

$CDMaterials "models\weapons\tfa_cso\hwando\"

$Sequence "idle" {
	"anims\idle.smd"
	fps 30
}