// Created by Crowbar 0.34.0.0

$ModelName "weapons/tfa_cso/w_trg42.mdl"

$BodyGroup "studio"
{
	studio "v_trg42_TRG42_template_Alone"
}

$collisionmodel "v_trg42_TRG42_template_Alone.smd"
{
	$mass 9
}

$CDMaterials "models\weapons\tfa_cso\trg42"

$attachment "0" "root" 0.00 -18.70 0.20 rotate -0 0 0

$Sequence "idle" {
	"anims\idle.smd"
	fps 30
}