// Created by Crowbar 0.56

$modelname "weapons/tfa_cso/c_starchasersr.mdl"

$include "csonline_gmod.qci"

$bodygroup "weapon"
{
	studio "v_starchasersr"
}

$CDMaterials "models\weapons\tfa_cso\star_chaser_sr\"

$attachment 0 "starchasers_root" 0.5 -28 0
//$attachment 1 "starchasers_root" 3 0 0
//$attachment 2 "starchasers_root" 3.6 0 -0.4

$MostlyOpaque

$sequence "idle1" {
	"v_starchasersr_anims\idle1"
	fps 70
	loop
	activity "ACT_VM_IDLE" 1
	snap
	{ event 5004 1 "StarChaserSR.Idle" }
}
$sequence "shoot1" {
	"v_starchasersr_anims\shoot1"
	{ event 5001 0 "#I73 S0.06 R2 F0 P30 T999 A1 L0 O0 X0" }
	fps 30
	activity "ACT_VM_PRIMARYATTACK" 1
	snap
}
$sequence "shoot2" {
	"v_starchasersr_anims\shoot2"
	{ event 5001 0 "#I73 S0.06 R2 F0 P30 T999 A1 L0 O0 X0" }
	fps 30
	activity "ACT_VM_PRIMARYATTACK" 1
	snap
}
$sequence "reload" {
	"v_starchasersr_anims\reload"
	{ event 5004 43 "StarChaserSR.ClipOut" }
	{ event 5004 73 "StarChaserSR.ClipIn" }
	fps 30
	activity "ACT_VM_RELOAD" 1
	snap
}
$sequence "draw" {
	"v_starchasersr_anims\draw"
	fps 30
	activity "ACT_VM_DRAW" 1
	snap
}
