// Created by Crowbar 0.49.0.0

$modelname "weapons/tfa_cso/c_m950_v8.mdl"

$Include "csonline_gmod.qci"

$bodygroup "weapon"
{
	studio "v_m950"
}

$CDMaterials "models\weapons\tfa_cso\m950_v8"

$attachment 0 "Bone02" 10 0 0
//$attachment 1 "Bone02" 0 0 -0.5

$definebone "root" "" -1.000000 -0.370843 1.941027 0.000000 0.000000 0.000000 0.000000 0.000000 0.000000 -0.000000 0.000000 0.000000
$definebone "Bone01" "root" 8.542158 0.689384 -8.602877 -87.597498 177.381763 171.407643 0.000000 0.000000 0.000000 -0.000000 0.000000 -0.000001
$definebone "Bone_Lefthand" "Bone01" -0.071918 -8.498732 -0.104137 15.343352 2.401095 8.596487 0.000000 -0.000000 0.000000 0.000001 0.000000 -0.000000
$definebone "Bone02" "Bone_Lefthand" 2.326608 -5.978028 1.161003 2.872409 -89.428856 13.139582 0.000000 0.000000 0.000000 -0.000000 -0.000000 0.000001
$definebone "Bone24" "Bone02" 8.068351 -0.889454 0.636832 0.000001 -89.999983 0.000000 0.000000 0.000000 0.000000 0.000001 0.000000 0.000000
$definebone "Bone16" "Bone02" -1.093080 -1.020534 0.000000 0.000001 -89.999983 0.000000 0.000000 0.000000 0.000000 0.000001 0.000000 0.000000
$definebone "Bone26" "Bone02" 0.332523 0.688256 1.169537 0.000001 -90.000038 0.000000 0.000000 0.000000 0.000000 0.000001 0.000000 0.000000
$definebone "Bone34" "Bone02" -3.883945 0.696199 1.094116 -0.000001 89.999983 -0.000000 0.000000 0.000000 0.000000 -0.000001 0.000000 -0.000000
$definebone "Dummy01" "Bone02" -2.125081 1.560641 0.000000 -0.000001 89.999983 -0.000000 0.000000 0.000000 0.000000 -0.000001 0.000000 -0.000000
$definebone "Bone08" "Dummy01" 0.000000 0.000000 0.000000 -0.000001 0.000000 -0.000000 0.000000 0.000000 0.000000 -0.000001 0.000000 -0.000000
$definebone "Bone03" "Bone02" 2.303348 -0.775169 0.632548 -89.999983 179.999966 0.000000 0.000000 0.000000 0.000000 -0.000000 -0.000001 0.000000

$sequence "idle1" {
	"v_m950_anims\idle1"
	fps 30
	loop
	activity "ACT_VM_IDLE" 1
	snap
}
$sequence "reload" {
	"v_m950_anims\reload"
	{ event 5004 11 "M950.ClipOut" }
	{ event 5004 51 "M950.ClipIn" }
	{ event 5004 70 "M950.Boltpull" }
	fps 30
	activity "ACT_VM_RELOAD" 1
	snap
}
$sequence "draw" {
	"v_m950_anims\draw"
	{ event 5004 7 "M950.Boltpull" }
	fps 30
	activity "ACT_VM_DRAW" 1
	snap
}
$sequence "shoot1" {
	"v_m950_anims\shoot1"
	{ event 5001 0 "21" }
	fps 30
	activity "ACT_VM_PRIMARYATTACK" 1
	snap
}
$sequence "shoot2" {
	"v_m950_anims\shoot2"
	{ event 5001 0 "21" }
	fps 30
	activity "ACT_VM_PRIMARYATTACK" 2
	snap
}
$sequence "shoot3" {
	"v_m950_anims\shoot3"
	{ event 5001 0 "21" }
	fps 30
	activity "ACT_VM_PRIMARYATTACK" 3
	snap
}
