version 1
nodes
  0 "mgsm_cannon1" -1
  1 "mgsm_cannon2" 0
end
skeleton
  time 0
    0 -11.509657 -10.273751 12.295430 -0.003639 0.027460 -1.575406
    1 12.090058 0.000002 0.000000 0.000000 0.000000 0.000000
  time 1
    0 -11.509657 -10.273751 12.295430 -0.003639 0.027460 -1.575406
    1 12.090058 0.000002 0.000000 0.000000 0.000000 0.000000
end
