version 1
nodes
  0 "root" -1
  1 "Bone01" 0
  2 "Bone_Lefthand" 1
  3 "janus1_root" 2
  4 "janus1_handle01" 3
  5 "janus1_body_bottom01" 4
  6 "janus1_spark_side11" 5
  7 "janus1_spark_bottom02" 5
  8 "janus1_spark_side12" 5
  9 "janus1_spark_bottom01" 5
  10 "janu1_key01" 4
  11 "janu1_key02" 10
  12 "janus1_trigger" 4
  13 "janus1_body_root" 4
  14 "janus1_body_top" 13
  15 "janus1_face_root02" 14
  16 "janus1_face_root01" 15
  17 "janus1_face" 16
  18 "janus1_spark_top01" 14
  19 "janus1_spark_top02" 14
  20 "janus1_spark_top04" 14
  21 "janus1_spark_top03" 14
  22 "janus1_spark_top05" 14
  23 "janus1_spark_top08" 14
  24 "janus1_spark_side03" 14
  25 "janus1_spark_side05" 14
  26 "janus1_spark_top07" 14
  27 "janus1_spark_side04" 14
  28 "janus1_spark_side06" 14
  29 "janus1_body_L" 13
  30 "janus1_spark_side02" 29
  31 "janus1_spark_side08" 29
  32 "janus1_spark_side10" 29
  33 "janus1_spark_side002" 29
  34 "janus1_body_R" 13
  35 "janus1_spark_side07" 34
  36 "janus1_spark_side09" 34
  37 "janus1_spark_side01" 34
  38 "janus1_spark_side001" 34
  39 "janus1_body_bottom02" 13
  40 "janus1_spark_bottom04" 39
  41 "janus1_spark_bottom03" 39
  42 "janus1_gunbody01" 13
  43 "janus1_handle02" 4
  44 "Dummy10" 17
  45 "Bone49" 44
  46 "Bone46" 44
  47 "Bone53" 44
  48 "Bone51" 44
  49 "Bone46(mirrored)" 44
  50 "Bone53(mirrored)" 44
  51 "Bone51(mirrored)" 44
  52 "Bone49(mirrored)" 44
  53 "janus1_S_root" 42
  54 "janus1_S01" 53
  55 "janus1_S10" 54
  56 "janus1_S02" 53
  57 "janus1_S06" 56
  58 "janus1_S03" 53
  59 "janus1_S07" 58
  60 "janus1_S04" 53
  61 "janus1_S08" 60
  62 "janus1_S05" 53
  63 "janus1_S09" 62
  64 "janus1_S11" 53
  65 "janus1_S17" 64
  66 "janus1_S12" 53
  67 "janus1_S18" 66
  68 "janus1_S13" 53
  69 "janus1_S19" 68
  70 "janus1_S14" 53
  71 "janus1_S20" 70
  72 "janus1_S15" 53
  73 "janus1_S16" 72
  74 "janus1_bullet01" 13
  75 "janus1_bullet" 3
  76 "Bone13" 2
  77 "Bone14" 76
  78 "Bone15" 77
  79 "Bone17" 2
  80 "Bone18" 79
  81 "Bone19" 80
  82 "Bone21" 2
  83 "Bone22" 82
  84 "Bone23" 83
  85 "Bone09" 2
  86 "Bone10" 85
  87 "Bone11" 86
  88 "Bone05" 2
  89 "Bone06" 88
  90 "Bone07" 89
  91 "Bone_Se_Hand-L" 2
  92 "Bone04" 0
  93 "Bone_Righthand" 92
  94 "Bone39" 93
  95 "Bone40" 94
  96 "Bone41" 95
  97 "Bone35" 93
  98 "Bone36" 97
  99 "Bone37" 98
  100 "Bone31" 93
  101 "Bone32" 100
  102 "Bone33" 101
  103 "Bone43" 93
  104 "Bone44" 103
  105 "Bone45" 104
  106 "Bone27" 93
  107 "Bone28" 106
  108 "Bone29" 107
  109 "Bone_Se_Hand-R" 93
end
skeleton
  time 0
    0 0.000000 0.000000 -15.471057 0.000000 0.000000 0.000000
    1 0.496437 0.183051 -0.013821 3.138933 -0.000224 -1.566807
    2 -0.071919 -8.498733 -0.104137 -0.025046 0.287591 0.014898
    3 3.358087 9.391057 -13.809402 -1.538797 -0.287160 -0.018777
    4 -2.914634 0.679474 0.000000 -0.000087 0.000000 -1.575147
    5 0.080090 2.877381 0.000253 0.000000 -0.000088 1.573902
    6 2.944060 0.804383 1.057531 0.000000 -0.793402 0.928270
    7 2.094329 -0.195975 0.502426 0.000001 -0.270831 -1.916361
    8 2.944059 0.804382 -1.047167 3.141592 0.793403 0.928270
    9 2.094329 -0.195975 -0.492062 -0.000001 2.870762 1.225231
    10 -0.874935 2.164593 0.663205 -3.141534 -1.568783 -1.566823
    11 0.189546 -0.000707 0.041175 -1.570858 -1.568843 0.000031
    12 0.148912 1.782521 0.000156 0.000090 -0.000002 0.033657
    13 -0.121541 6.507638 0.000571 -0.000088 0.000000 -3.137738
    14 1.916277 3.116313 0.000000 0.000000 0.000000 -1.570082
    15 2.685215 0.363636 0.000000 0.000000 0.000000 1.570306
    16 0.009843 0.558818 0.000000 0.000000 0.000001 1.570635
    17 1.720444 -0.636467 0.000000 0.000001 0.000000 -1.666235
    18 6.089385 0.390219 0.647105 0.000000 -0.220447 1.328098
    19 5.205439 0.127231 -0.773134 0.000002 2.695014 -1.225273
    20 6.089385 0.390218 -0.636743 3.141592 0.220449 1.328098
    21 5.205439 0.127231 0.783495 -0.000001 -0.446577 1.916319
    22 5.752405 0.092806 0.694621 0.000000 -0.139525 -1.018984
    23 6.701536 -0.215519 0.916581 -0.000001 -0.378407 2.180226
    24 4.930563 -0.301526 0.993266 0.000000 -0.274705 -1.112916
    25 4.337999 -0.496789 1.111214 -0.000091 -1.519080 1.881390
    26 6.701536 -0.215519 -0.906219 0.000002 2.763185 -0.961367
    27 4.930563 -0.301526 -0.982904 3.141592 0.274705 -1.112916
    28 4.337998 -0.496790 -1.100851 0.000123 1.622514 -1.260169
    29 1.147804 1.496010 -0.847732 1.565411 1.571888 1.565626
    30 0.290424 -4.879862 -0.018054 1.545528 2.718641 1.510392
    31 0.304245 -1.950889 0.100802 1.802243 -0.866914 1.272076
    32 0.224187 -1.943797 0.058185 -1.301252 1.892501 -1.286317
    33 0.236155 -5.008121 0.266270 -1.555910 0.000915 -0.060630
    34 1.147804 1.496009 0.849409 -1.565361 -1.569705 -1.575963
    35 0.312933 1.950890 0.100593 -1.802291 -0.867017 -1.272039
    36 0.232875 1.943794 0.057976 1.301348 1.892605 1.286408
    37 0.299114 4.879850 -0.018580 -1.545521 2.718534 -1.510389
    38 0.228919 5.004998 0.265779 1.555802 0.000922 0.060632
    39 -0.165447 -0.381364 0.000000 0.000000 0.000000 -1.569651
    40 2.449982 -0.182583 0.516023 0.000000 -0.400239 -1.026545
    41 2.449983 -0.182584 -0.505661 3.141592 0.400239 -1.026546
    42 1.123442 -2.666879 -0.000001 0.000000 0.000000 -1.570572
    43 -2.104451 2.877258 0.000252 0.000000 0.000088 -1.566717
    44 0.000000 0.000000 0.000000 0.000001 0.000001 1.658062
    45 -0.069316 -0.033319 -0.188284 -1.570798 -0.832484 -1.570795
    46 -0.132158 0.009151 -0.190273 1.570795 2.215171 1.570796
    47 -0.113889 0.026625 -0.166067 -1.570795 2.421040 -1.570795
    48 -0.053432 0.015422 -0.173360 1.570799 -1.060192 1.570795
    49 -0.141174 -0.000506 0.179737 -1.570799 -0.926422 -1.570794
    50 -0.127294 0.024481 0.148436 1.570798 -0.720551 1.570795
    51 -0.043554 0.012160 0.176427 -1.570794 2.081400 -1.570794
    52 -0.072322 -0.028736 0.195275 1.570795 2.309110 1.570796
    53 0.000000 0.000000 0.000000 0.000000 -0.000001 0.000000
    54 1.006889 -0.121316 0.037376 -3.141592 -0.768790 1.570796
    55 0.421125 0.000000 0.000000 0.000000 0.000000 0.000000
    56 1.134283 0.249041 -0.050440 0.000001 -1.307425 -1.570796
    57 0.421125 0.000000 0.000000 0.000000 0.000000 0.000000
    58 0.280565 -0.632223 -0.127140 0.000001 -1.154902 -1.570796
    59 0.421125 0.000000 0.000000 0.000000 0.000000 0.000000
    60 0.304318 -0.255167 -0.042492 -3.141592 -1.235562 1.570796
    61 0.421125 0.000000 -0.000001 0.000000 0.000000 0.000000
    62 1.024069 0.009359 -0.029211 0.000001 -0.645605 -1.570796
    63 0.421125 0.000000 0.000000 0.000000 0.000000 0.000000
    64 0.261680 -0.537455 0.105631 0.000001 1.049147 -1.570797
    65 0.421125 0.000000 0.000000 0.000000 0.000000 0.000000
    66 0.984310 -0.052468 0.049011 0.000001 0.739690 -1.570796
    67 0.421125 0.000000 0.000000 0.000000 0.000000 0.000000
    68 0.260684 0.246704 0.031580 0.000001 1.308370 -1.570796
    69 0.421125 0.000000 -0.000001 0.000000 0.000000 0.000000
    70 1.091212 -0.090658 -0.110405 -3.141592 0.768278 1.570796
    71 0.421125 0.000000 0.000000 0.000000 0.000000 0.000000
    72 1.131269 -0.071420 0.045394 -3.141592 1.470694 1.570796
    73 0.421125 0.000000 0.000000 0.000000 0.000000 0.000000
    74 1.061765 3.148856 -0.000003 0.000000 0.000001 -1.571135
    75 1.149205 -14.507888 0.000002 -1.570796 0.000000 -0.000271
    76 -0.488517 -2.755600 -0.228261 0.106454 0.010332 -0.264490
    77 0.039887 -1.479789 0.029853 -0.055395 0.000000 0.000000
    78 0.028785 -1.075730 -0.023111 0.002099 0.000000 0.000001
    79 0.250028 -2.820663 -0.238396 0.041826 -0.002921 0.008443
    80 -0.049759 -1.680545 0.100480 0.019826 0.000000 -0.000002
    81 -0.034141 -1.148311 0.084779 -0.040115 0.000000 0.000000
    82 0.957766 -2.746777 -0.090301 -0.017221 -0.162277 0.191558
    83 -0.033419 -1.397127 -0.011255 0.013931 0.000000 -0.000001
    84 -0.022360 -0.957435 0.018783 0.003845 0.000000 0.000000
    85 -1.180680 -2.507215 -0.193861 0.082999 0.013293 -0.477915
    86 -0.024966 -1.123933 0.017594 -0.018065 0.000000 0.000001
    87 -0.020057 -0.890966 0.010091 -0.060797 0.000000 0.000000
    88 0.583510 -1.197274 0.185377 0.158049 -0.404973 -0.364290
    89 1.535926 0.010245 0.005008 -0.002964 -0.012979 0.000887
    90 1.100770 0.004527 -0.010676 -0.002796 0.015973 0.003458
    91 0.120152 -0.050266 -0.054488 0.287568 3.110905 1.561085
    92 -0.497809 0.651412 22.559568 0.004985 -3.131565 -1.566847
    93 0.096944 -8.450418 -0.009364 -0.032965 -0.297907 -0.004663
    94 0.447952 -2.798983 -0.200442 0.106456 -0.010396 0.265094
    95 -0.032910 -1.480207 0.004936 -0.055403 0.000000 0.000002
    96 -0.027022 -1.076920 -0.020212 0.002094 0.000000 0.000000
    97 -0.249534 -2.846962 -0.174216 0.041903 -0.000125 -0.008396
    98 0.043235 -1.683940 0.096014 0.019757 0.002823 -0.000167
    99 0.031730 -1.160831 0.058836 -0.040181 0.000642 0.008372
    100 -0.963866 -2.785142 -0.085346 -0.017227 0.162276 -0.191556
    101 0.028479 -1.403069 0.006271 0.013941 0.000000 0.000000
    102 0.021413 -0.957782 0.020047 0.003851 0.000000 0.000000
    103 1.164475 -2.543938 -0.170328 0.083003 -0.013294 0.477915
    104 0.024033 -1.129041 0.017806 -0.018074 0.000000 0.000001
    105 0.014896 -0.883990 -0.019845 -0.060801 0.000000 0.000000
    106 -0.586770 -1.264475 0.200164 -0.152092 -0.410513 -2.814817
    107 1.522835 0.058681 0.016850 0.001410 0.008985 -0.046880
    108 1.117948 0.048424 -0.005764 -0.000243 -0.025198 0.065422
    109 -0.139399 -0.111697 0.014397 0.285382 -0.030687 1.580508
end
triangles
windleo_m79_grenade.BMP
  74 0.630000 0.608516 0.802614 0.985727 0.116837 -0.121205 0.698039 0.062745
  74 0.470000 0.608713 0.452614 0.726317 0.116972 -0.677334 0.631373 0.062745
  74 0.680000 0.708516 0.802671 0.861624 0.496428 -0.105657 0.698039 0.031373
windleo_m79_grenade.BMP
  74 0.680000 0.708516 0.802671 0.861624 0.496428 -0.105657 0.698039 0.031373
  74 0.470000 0.608713 0.452614 0.726317 0.116972 -0.677334 0.631373 0.062745
  74 0.500000 0.708730 0.422671 0.635039 0.496173 -0.592063 0.631373 0.031373
windleo_m79_grenade.BMP
  74 0.470000 0.608713 0.452614 0.726317 0.116972 -0.677334 0.631373 0.062745
  74 0.130000 0.608821 0.262614 0.189658 0.116929 -0.974863 0.564706 0.062745
  74 0.500000 0.708730 0.422671 0.635039 0.496173 -0.592063 0.631373 0.031373
windleo_m79_grenade.BMP
  74 0.500000 0.708730 0.422671 0.635039 0.496173 -0.592063 0.631373 0.031373
  74 0.130000 0.608821 0.262614 0.189658 0.116929 -0.974863 0.564706 0.062745
  74 0.140000 0.708843 0.222671 0.165596 0.496286 -0.852220 0.564706 0.031373
windleo_m79_grenade.BMP
  74 0.130000 0.608821 0.262614 0.189658 0.116929 -0.974863 0.564706 0.062745
  74 -0.240000 0.608792 0.312614 -0.419670 0.116842 -0.900125 0.498039 0.062745
  74 0.140000 0.708843 0.222671 0.165596 0.496286 -0.852220 0.564706 0.031373
windleo_m79_grenade.BMP
  74 0.140000 0.708843 0.222671 0.165596 0.496286 -0.852220 0.564706 0.031373
  74 -0.240000 0.608792 0.312614 -0.419670 0.116842 -0.900125 0.498039 0.062745
  74 -0.260000 0.708815 0.272670 -0.366884 0.496419 -0.786743 0.498039 0.031373
windleo_m79_grenade.BMP
  74 -0.240000 0.608792 0.312614 -0.419670 0.116842 -0.900125 0.498039 0.062745
  74 -0.530000 0.608640 0.582614 -0.868615 0.116883 -0.481504 0.431373 0.062745
  74 -0.260000 0.708815 0.272670 -0.366884 0.496419 -0.786743 0.498039 0.031373
windleo_m79_grenade.BMP
  74 -0.260000 0.708815 0.272670 -0.366884 0.496419 -0.786743 0.498039 0.031373
  74 -0.530000 0.608640 0.582614 -0.868615 0.116883 -0.481504 0.431373 0.062745
  74 -0.560000 0.708651 0.562670 -0.759237 0.496352 -0.420944 0.431373 0.031373
windleo_m79_grenade.BMP
  74 -0.530000 0.608640 0.582614 -0.868615 0.116883 -0.481504 0.431373 0.062745
  74 -0.600000 0.608431 0.952614 -0.985755 0.116858 0.120960 0.364706 0.062745
  74 -0.560000 0.708651 0.562670 -0.759237 0.496352 -0.420944 0.431373 0.031373
windleo_m79_grenade.BMP
  74 -0.560000 0.708651 0.562670 -0.759237 0.496352 -0.420944 0.431373 0.031373
  74 -0.600000 0.608431 0.952614 -0.985755 0.116858 0.120960 0.364706 0.062745
  74 -0.640000 0.708431 0.952670 -0.861622 0.496393 0.105841 0.364706 0.031373
windleo_m79_grenade.BMP
  74 -0.600000 0.608431 0.952614 -0.985755 0.116858 0.120960 0.364706 0.062745
  74 -0.440000 0.608234 1.302614 -0.726379 0.116834 0.677291 0.298039 0.062745
  74 -0.640000 0.708431 0.952670 -0.861622 0.496393 0.105841 0.364706 0.031373
windleo_m79_grenade.BMP
  74 -0.640000 0.708431 0.952670 -0.861622 0.496393 0.105841 0.364706 0.031373
  74 -0.440000 0.608234 1.302614 -0.726379 0.116834 0.677291 0.298039 0.062745
  74 -0.470001 0.708222 1.322670 -0.634799 0.496452 0.592086 0.298039 0.031373
windleo_m79_grenade.BMP
  74 -0.440000 0.608234 1.302614 -0.726379 0.116834 0.677291 0.298039 0.062745
  74 -0.100001 0.608132 1.482614 -0.189297 0.116791 0.974949 0.227451 0.062745
  74 -0.470001 0.708222 1.322670 -0.634799 0.496452 0.592086 0.298039 0.031373
windleo_m79_grenade.BMP
  74 -0.470001 0.708222 1.322670 -0.634799 0.496452 0.592086 0.298039 0.031373
  74 -0.100001 0.608132 1.482614 -0.189297 0.116791 0.974949 0.227451 0.062745
  74 -0.100001 0.708109 1.522670 -0.165695 0.496517 0.852066 0.227451 0.031373
windleo_m79_grenade.BMP
  74 -0.100001 0.608132 1.482614 -0.189297 0.116791 0.974949 0.227451 0.062745
  74 0.279999 0.608155 1.442614 0.419895 0.116766 0.900030 0.160784 0.062745
  74 -0.100001 0.708109 1.522670 -0.165695 0.496517 0.852066 0.227451 0.031373
windleo_m79_grenade.BMP
  74 -0.100001 0.708109 1.522670 -0.165695 0.496517 0.852066 0.227451 0.031373
  74 0.279999 0.608155 1.442614 0.419895 0.116766 0.900030 0.160784 0.062745
  74 0.289999 0.708138 1.472670 0.366737 0.496565 0.786719 0.160784 0.031373
windleo_m79_grenade.BMP
  74 0.279999 0.608155 1.442614 0.419895 0.116766 0.900030 0.160784 0.062745
  74 0.560000 0.608307 1.172614 0.868757 0.116730 0.481286 0.094118 0.062745
  74 0.289999 0.708138 1.472670 0.366737 0.496565 0.786719 0.160784 0.031373
windleo_m79_grenade.BMP
  74 0.289999 0.708138 1.472670 0.366737 0.496565 0.786719 0.160784 0.031373
  74 0.560000 0.608307 1.172614 0.868757 0.116730 0.481286 0.094118 0.062745
  74 0.600000 0.708296 1.192671 0.759110 0.496621 0.420856 0.094118 0.031373
windleo_m79_grenade.BMP
  74 0.560000 0.608307 1.172614 0.868757 0.116730 0.481286 0.094118 0.062745
  74 0.630000 0.608516 0.802614 0.985727 0.116837 -0.121205 0.027451 0.062745
  74 0.600000 0.708296 1.192671 0.759110 0.496621 0.420856 0.094118 0.031373
windleo_m79_grenade.BMP
  74 0.600000 0.708296 1.192671 0.759110 0.496621 0.420856 0.094118 0.031373
  74 0.630000 0.608516 0.802614 0.985727 0.116837 -0.121205 0.027451 0.062745
  74 0.680000 0.708516 0.802671 0.861624 0.496428 -0.105657 0.027451 0.031373
windleo_m79_grenade.BMP
  75 -0.080003 -0.090005 -16.101054 -0.121204 0.116836 -0.985728 0.698039 0.062745
  75 -0.430003 -0.090005 -15.941055 -0.677333 0.116973 -0.726317 0.631373 0.062745
  75 -0.080003 -0.000005 -16.151054 -0.105659 0.496428 -0.861624 0.698039 0.031373
windleo_m79_grenade.BMP
  75 -0.080003 -0.000005 -16.151054 -0.105659 0.496428 -0.861624 0.698039 0.031373
  75 -0.430003 -0.090005 -15.941055 -0.677333 0.116973 -0.726317 0.631373 0.062745
  75 -0.460003 -0.000005 -15.971055 -0.592062 0.496172 -0.635040 0.631373 0.031373
windleo_m79_grenade.BMP
  75 -0.430003 -0.090005 -15.941055 -0.677333 0.116973 -0.726317 0.631373 0.062745
  75 -0.620003 -0.090006 -15.601055 -0.974863 0.116927 -0.189657 0.564706 0.062745
  75 -0.460003 -0.000005 -15.971055 -0.592062 0.496172 -0.635040 0.631373 0.031373
windleo_m79_grenade.BMP
  75 -0.460003 -0.000005 -15.971055 -0.592062 0.496172 -0.635040 0.631373 0.031373
  75 -0.620003 -0.090006 -15.601055 -0.974863 0.116927 -0.189657 0.564706 0.062745
  75 -0.660003 -0.000006 -15.611055 -0.852218 0.496288 -0.165596 0.564706 0.031373
windleo_m79_grenade.BMP
  75 -0.620003 -0.090006 -15.601055 -0.974863 0.116927 -0.189657 0.564706 0.062745
  75 -0.570003 -0.090006 -15.231055 -0.900124 0.116844 0.419671 0.498039 0.062745
  75 -0.660003 -0.000006 -15.611055 -0.852218 0.496288 -0.165596 0.564706 0.031373
windleo_m79_grenade.BMP
  75 -0.660003 -0.000006 -15.611055 -0.852218 0.496288 -0.165596 0.564706 0.031373
  75 -0.570003 -0.090006 -15.231055 -0.900124 0.116844 0.419671 0.498039 0.062745
  75 -0.610003 -0.000006 -15.211055 -0.786738 0.496425 0.366885 0.498039 0.031373
windleo_m79_grenade.BMP
  75 -0.570003 -0.090006 -15.231055 -0.900124 0.116844 0.419671 0.498039 0.062745
  75 -0.300003 -0.090006 -14.941055 -0.481504 0.116884 0.868615 0.431373 0.062745
  75 -0.610003 -0.000006 -15.211055 -0.786738 0.496425 0.366885 0.498039 0.031373
windleo_m79_grenade.BMP
  75 -0.610003 -0.000006 -15.211055 -0.786738 0.496425 0.366885 0.498039 0.031373
  75 -0.300003 -0.090006 -14.941055 -0.481504 0.116884 0.868615 0.431373 0.062745
  75 -0.320003 -0.000006 -14.911054 -0.420942 0.496354 0.759237 0.431373 0.031373
windleo_m79_grenade.BMP
  75 -0.300003 -0.090006 -14.941055 -0.481504 0.116884 0.868615 0.431373 0.062745
  75 0.069997 -0.090006 -14.871054 0.120960 0.116859 0.985755 0.364706 0.062745
  75 -0.320003 -0.000006 -14.911054 -0.420942 0.496354 0.759237 0.431373 0.031373
windleo_m79_grenade.BMP
  75 -0.320003 -0.000006 -14.911054 -0.420942 0.496354 0.759237 0.431373 0.031373
  75 0.069997 -0.090006 -14.871054 0.120960 0.116859 0.985755 0.364706 0.062745
  75 0.069997 -0.000006 -14.831054 0.105841 0.496394 0.861621 0.364706 0.031373
windleo_m79_grenade.BMP
  75 0.069997 -0.090006 -14.871054 0.120960 0.116859 0.985755 0.364706 0.062745
  75 0.419997 -0.090006 -15.031054 0.677292 0.116834 0.726378 0.298039 0.062745
  75 0.069997 -0.000006 -14.831054 0.105841 0.496394 0.861621 0.364706 0.031373
windleo_m79_grenade.BMP
  75 0.069997 -0.000006 -14.831054 0.105841 0.496394 0.861621 0.364706 0.031373
  75 0.419997 -0.090006 -15.031054 0.677292 0.116834 0.726378 0.298039 0.062745
  75 0.439997 -0.000006 -15.001054 0.592087 0.496450 0.634799 0.298039 0.031373
windleo_m79_grenade.BMP
  75 0.419997 -0.090006 -15.031054 0.677292 0.116834 0.726378 0.298039 0.062745
  75 0.599997 -0.090006 -15.371054 0.974950 0.116792 0.189294 0.227451 0.062745
  75 0.439997 -0.000006 -15.001054 0.592087 0.496450 0.634799 0.298039 0.031373
windleo_m79_grenade.BMP
  75 0.439997 -0.000006 -15.001054 0.592087 0.496450 0.634799 0.298039 0.031373
  75 0.599997 -0.090006 -15.371054 0.974950 0.116792 0.189294 0.227451 0.062745
  75 0.649997 -0.000006 -15.371054 0.852066 0.496517 0.165694 0.227451 0.031373
windleo_m79_grenade.BMP
  75 0.599997 -0.090006 -15.371054 0.974950 0.116792 0.189294 0.227451 0.062745
  75 0.559997 -0.090006 -15.751054 0.900029 0.116768 -0.419896 0.160784 0.062745
  75 0.649997 -0.000006 -15.371054 0.852066 0.496517 0.165694 0.227451 0.031373
windleo_m79_grenade.BMP
  75 0.649997 -0.000006 -15.371054 0.852066 0.496517 0.165694 0.227451 0.031373
  75 0.559997 -0.090006 -15.751054 0.900029 0.116768 -0.419896 0.160784 0.062745
  75 0.589997 -0.000005 -15.761054 0.786721 0.496562 -0.366738 0.160784 0.031373
windleo_m79_grenade.BMP
  75 0.559997 -0.090006 -15.751054 0.900029 0.116768 -0.419896 0.160784 0.062745
  75 0.289997 -0.090005 -16.031054 0.481281 0.116729 -0.868759 0.094118 0.062745
  75 0.589997 -0.000005 -15.761054 0.786721 0.496562 -0.366738 0.160784 0.031373
windleo_m79_grenade.BMP
  75 0.589997 -0.000005 -15.761054 0.786721 0.496562 -0.366738 0.160784 0.031373
  75 0.289997 -0.090005 -16.031054 0.481281 0.116729 -0.868759 0.094118 0.062745
  75 0.309997 -0.000005 -16.071054 0.420856 0.496623 -0.759109 0.094118 0.031373
windleo_m79_grenade.BMP
  75 0.289997 -0.090005 -16.031054 0.481281 0.116729 -0.868759 0.094118 0.062745
  75 -0.080003 -0.090005 -16.101054 -0.121204 0.116836 -0.985728 0.027451 0.062745
  75 0.309997 -0.000005 -16.071054 0.420856 0.496623 -0.759109 0.094118 0.031373
windleo_m79_grenade.BMP
  75 0.309997 -0.000005 -16.071054 0.420856 0.496623 -0.759109 0.094118 0.031373
  75 -0.080003 -0.090005 -16.101054 -0.121204 0.116836 -0.985728 0.027451 0.062745
  75 -0.080003 -0.000005 -16.151054 -0.105659 0.496428 -0.861624 0.027451 0.031373
windleo_m79_grenade.BMP
  75 -0.290003 -3.250006 -15.541056 -0.556488 -0.823804 -0.108021 0.141176 0.709804
  75 -0.260003 -3.250006 -15.371056 -0.513842 -0.823766 0.239535 0.098039 0.764706
  75 -0.460003 -3.030006 -15.281056 -0.733703 -0.586975 0.342258 0.019608 0.737255
windleo_m79_grenade.BMP
  75 -0.460003 -3.030006 -15.281056 -0.733703 -0.586975 0.342258 0.019608 0.737255
  75 -0.260003 -3.250006 -15.371056 -0.513842 -0.823766 0.239535 0.098039 0.764706
  75 -0.250003 -3.030006 -15.051056 -0.392478 -0.586895 0.708177 0.011765 0.854902
windleo_m79_grenade.BMP
  75 -0.260003 -3.250006 -15.371056 -0.513842 -0.823766 0.239535 0.098039 0.764706
  75 -0.140003 -3.250006 -15.241056 -0.274809 -0.823767 0.495871 0.094118 0.835294
  75 -0.250003 -3.030006 -15.051056 -0.392478 -0.586895 0.708177 0.011765 0.854902
windleo_m79_grenade.BMP
  75 -0.250003 -3.030006 -15.051056 -0.392478 -0.586895 0.708177 0.011765 0.854902
  75 -0.140003 -3.250006 -15.241056 -0.274809 -0.823767 0.495871 0.094118 0.835294
  75 0.049997 -3.030006 -14.991056 0.098720 -0.586952 0.803580 0.082353 0.956863
windleo_m79_grenade.BMP
  75 -0.140003 -3.250006 -15.241056 -0.274809 -0.823767 0.495871 0.094118 0.835294
  75 0.019997 -3.250006 -15.201056 0.069219 -0.823766 0.562688 0.133333 0.890196
  75 0.049997 -3.030006 -14.991056 0.098720 -0.586952 0.803580 0.082353 0.956863
windleo_m79_grenade.BMP
  75 0.049997 -3.030006 -14.991056 0.098720 -0.586952 0.803580 0.082353 0.956863
  75 0.019997 -3.250006 -15.201056 0.069219 -0.823766 0.562688 0.133333 0.890196
  75 0.339997 -3.030006 -15.121056 0.552183 -0.586853 0.592198 0.196078 1.000000
windleo_m79_grenade.BMP
  75 0.019997 -3.250006 -15.201056 0.069219 -0.823766 0.562688 0.133333 0.890196
  75 0.189997 -3.250006 -15.281056 0.386670 -0.823768 0.414600 0.200000 0.913725
  75 0.339997 -3.030006 -15.121056 0.552183 -0.586853 0.592198 0.196078 1.000000
windleo_m79_grenade.BMP
  75 0.339997 -3.030006 -15.121056 0.552183 -0.586853 0.592198 0.196078 1.000000
  75 0.189997 -3.250006 -15.281056 0.386670 -0.823768 0.414600 0.200000 0.913725
  75 0.489997 -3.030006 -15.401056 0.794810 -0.586861 0.154502 0.309804 0.964706
windleo_m79_grenade.BMP
  75 0.189997 -3.250006 -15.281056 0.386670 -0.823768 0.414600 0.200000 0.913725
  75 0.279997 -3.250006 -15.441056 0.556566 -0.823729 0.108190 0.262745 0.894118
  75 0.489997 -3.030006 -15.401056 0.794810 -0.586861 0.154502 0.309804 0.964706
windleo_m79_grenade.BMP
  75 0.489997 -3.030006 -15.401056 0.794810 -0.586861 0.154502 0.309804 0.964706
  75 0.279997 -3.250006 -15.441056 0.556566 -0.823729 0.108190 0.262745 0.894118
  75 0.449997 -3.030006 -15.701056 0.733775 -0.586915 -0.342206 0.384314 0.870588
windleo_m79_grenade.BMP
  75 0.279997 -3.250006 -15.441056 0.556566 -0.823729 0.108190 0.262745 0.894118
  75 0.249997 -3.250006 -15.611056 0.513816 -0.823738 -0.239685 0.305882 0.839216
  75 0.449997 -3.030006 -15.701056 0.733775 -0.586915 -0.342206 0.384314 0.870588
windleo_m79_grenade.BMP
  75 0.449997 -3.030006 -15.701056 0.733775 -0.586915 -0.342206 0.384314 0.870588
  75 0.249997 -3.250006 -15.611056 0.513816 -0.823738 -0.239685 0.305882 0.839216
  75 0.239997 -3.030005 -15.931056 0.392620 -0.586886 -0.708106 0.392157 0.749020
windleo_m79_grenade.BMP
  75 0.249997 -3.250006 -15.611056 0.513816 -0.823738 -0.239685 0.305882 0.839216
  75 0.129997 -3.250006 -15.741056 0.274857 -0.823758 -0.495860 0.309804 0.772549
  75 0.239997 -3.030005 -15.931056 0.392620 -0.586886 -0.708106 0.392157 0.749020
windleo_m79_grenade.BMP
  75 0.239997 -3.030005 -15.931056 0.392620 -0.586886 -0.708106 0.392157 0.749020
  75 0.129997 -3.250006 -15.741056 0.274857 -0.823758 -0.495860 0.309804 0.772549
  75 -0.060003 -3.030005 -15.991056 -0.098665 -0.586933 -0.803601 0.321569 0.647059
windleo_m79_grenade.BMP
  75 0.129997 -3.250006 -15.741056 0.274857 -0.823758 -0.495860 0.309804 0.772549
  75 -0.040003 -3.250005 -15.771056 -0.069098 -0.823785 -0.562676 0.270588 0.713725
  75 -0.060003 -3.030005 -15.991056 -0.098665 -0.586933 -0.803601 0.321569 0.647059
windleo_m79_grenade.BMP
  75 -0.060003 -3.030005 -15.991056 -0.098665 -0.586933 -0.803601 0.321569 0.647059
  75 -0.040003 -3.250005 -15.771056 -0.069098 -0.823785 -0.562676 0.270588 0.713725
  75 -0.350003 -3.030005 -15.851056 -0.552216 -0.586956 -0.592064 0.207843 0.607843
windleo_m79_grenade.BMP
  75 -0.040003 -3.250005 -15.771056 -0.069098 -0.823785 -0.562676 0.270588 0.713725
  75 -0.200003 -3.250006 -15.701056 -0.386621 -0.823732 -0.414716 0.203922 0.690196
  75 -0.350003 -3.030005 -15.851056 -0.552216 -0.586956 -0.592064 0.207843 0.607843
windleo_m79_grenade.BMP
  75 -0.350003 -3.030005 -15.851056 -0.552216 -0.586956 -0.592064 0.207843 0.607843
  75 -0.200003 -3.250006 -15.701056 -0.386621 -0.823732 -0.414716 0.203922 0.690196
  75 -0.500003 -3.030006 -15.581056 -0.794772 -0.586934 -0.154421 0.094118 0.639216
windleo_m79_grenade.BMP
  75 -0.200003 -3.250006 -15.701056 -0.386621 -0.823732 -0.414716 0.203922 0.690196
  75 -0.290003 -3.250006 -15.541056 -0.556488 -0.823804 -0.108021 0.141176 0.709804
  75 -0.500003 -3.030006 -15.581056 -0.794772 -0.586934 -0.154421 0.094118 0.639216
windleo_m79_grenade.BMP
  75 -0.500003 -3.030006 -15.581056 -0.794772 -0.586934 -0.154421 0.094118 0.639216
  75 -0.290003 -3.250006 -15.541056 -0.556488 -0.823804 -0.108021 0.141176 0.709804
  75 -0.460003 -3.030006 -15.281056 -0.733703 -0.586975 0.342258 0.019608 0.737255
windleo_m79_grenade.BMP
  74 0.680000 -1.271484 0.801553 0.992564 0.000000 -0.121725 0.698039 0.400000
  74 0.500000 -1.271269 0.421553 0.731379 0.000000 -0.681972 0.631373 0.400000
  74 0.500000 0.548730 0.422580 0.702840 0.276731 -0.655313 0.631373 0.078431
windleo_m79_grenade.BMP
  74 0.500000 0.548730 0.422580 0.702840 0.276731 -0.655313 0.631373 0.078431
  74 0.500000 -1.271269 0.421553 0.731379 0.000000 -0.681972 0.631373 0.400000
  74 0.140000 0.548843 0.222580 0.183291 0.276638 -0.943332 0.564706 0.078431
windleo_m79_grenade.BMP
  74 0.500000 -1.271269 0.421553 0.731379 0.000000 -0.681972 0.631373 0.400000
  74 0.140000 -1.271157 0.221553 0.190751 0.000000 -0.981638 0.564706 0.400000
  74 0.140000 0.548843 0.222580 0.183291 0.276638 -0.943332 0.564706 0.078431
windleo_m79_grenade.BMP
  74 0.140000 0.548843 0.222580 0.183291 0.276638 -0.943332 0.564706 0.078431
  74 0.140000 -1.271157 0.221553 0.190751 0.000000 -0.981638 0.564706 0.400000
  74 -0.260000 0.548815 0.272580 -0.406151 0.276421 -0.870995 0.498039 0.078431
windleo_m79_grenade.BMP
  74 0.140000 -1.271157 0.221553 0.190751 0.000000 -0.981638 0.564706 0.400000
  74 -0.260000 -1.271190 0.281553 -0.422592 0.000000 -0.906320 0.498039 0.400000
  74 -0.260000 0.548815 0.272580 -0.406151 0.276421 -0.870995 0.498039 0.078431
windleo_m79_grenade.BMP
  74 -0.260000 0.548815 0.272580 -0.406151 0.276421 -0.870995 0.498039 0.078431
  74 -0.260000 -1.271190 0.281553 -0.422592 0.000000 -0.906320 0.498039 0.400000
  74 -0.560000 0.548651 0.562580 -0.840484 0.276518 -0.465967 0.431373 0.078431
windleo_m79_grenade.BMP
  74 -0.260000 -1.271190 0.281553 -0.422592 0.000000 -0.906320 0.498039 0.400000
  74 -0.560000 -1.271348 0.561553 -0.874598 0.000000 -0.484849 0.431373 0.400000
  74 -0.560000 0.548651 0.562580 -0.840484 0.276518 -0.465967 0.431373 0.078431
windleo_m79_grenade.BMP
  74 -0.560000 0.548651 0.562580 -0.840484 0.276518 -0.465967 0.431373 0.078431
  74 -0.560000 -1.271348 0.561553 -0.874598 0.000000 -0.484849 0.431373 0.400000
  74 -0.640000 0.548431 0.952580 -0.953863 0.276436 0.117171 0.364706 0.078431
windleo_m79_grenade.BMP
  74 -0.560000 -1.271348 0.561553 -0.874598 0.000000 -0.484849 0.431373 0.400000
  74 -0.640000 -1.271569 0.951553 -0.992541 0.000000 0.121908 0.364706 0.400000
  74 -0.640000 0.548431 0.952580 -0.953863 0.276436 0.117171 0.364706 0.078431
windleo_m79_grenade.BMP
  74 -0.640000 0.548431 0.952580 -0.953863 0.276436 0.117171 0.364706 0.078431
  74 -0.640000 -1.271569 0.951553 -0.992541 0.000000 0.121908 0.364706 0.400000
  74 -0.470001 0.548222 1.322580 -0.702803 0.276391 0.655496 0.298039 0.078431
windleo_m79_grenade.BMP
  74 -0.640000 -1.271569 0.951553 -0.992541 0.000000 0.121908 0.364706 0.400000
  74 -0.470000 -1.271783 1.331553 -0.731309 0.000000 0.682046 0.298039 0.400000
  74 -0.470001 0.548222 1.322580 -0.702803 0.276391 0.655496 0.298039 0.078431
windleo_m79_grenade.BMP
  74 -0.470001 0.548222 1.322580 -0.702803 0.276391 0.655496 0.298039 0.078431
  74 -0.470000 -1.271783 1.331553 -0.731309 0.000000 0.682046 0.298039 0.400000
  74 -0.100001 0.548104 1.532580 -0.183434 0.276280 0.943409 0.227451 0.078431
windleo_m79_grenade.BMP
  74 -0.470000 -1.271783 1.331553 -0.731309 0.000000 0.682046 0.298039 0.400000
  74 -0.100001 -1.271896 1.531553 -0.190809 0.000000 0.981627 0.227451 0.400000
  74 -0.100001 0.548104 1.532580 -0.183434 0.276280 0.943409 0.227451 0.078431
windleo_m79_grenade.BMP
  74 -0.100001 0.548104 1.532580 -0.183434 0.276280 0.943409 0.227451 0.078431
  74 -0.100001 -1.271896 1.531553 -0.190809 0.000000 0.981627 0.227451 0.400000
  74 0.289999 0.548138 1.472580 0.406099 0.276212 0.871086 0.160784 0.078431
windleo_m79_grenade.BMP
  74 -0.100001 -1.271896 1.531553 -0.190809 0.000000 0.981627 0.227451 0.400000
  74 0.289999 -1.271868 1.481553 0.422592 0.000000 0.906320 0.160784 0.400000
  74 0.289999 0.548138 1.472580 0.406099 0.276212 0.871086 0.160784 0.078431
windleo_m79_grenade.BMP
  74 0.289999 0.548138 1.472580 0.406099 0.276212 0.871086 0.160784 0.078431
  74 0.289999 -1.271868 1.481553 0.422592 0.000000 0.906320 0.160784 0.400000
  74 0.600000 0.548296 1.192580 0.840574 0.276130 0.466034 0.094118 0.078431
windleo_m79_grenade.BMP
  74 0.289999 -1.271868 1.481553 0.422592 0.000000 0.906320 0.160784 0.400000
  74 0.600000 -1.271704 1.191553 0.874587 0.000000 0.484868 0.094118 0.400000
  74 0.600000 0.548296 1.192580 0.840574 0.276130 0.466034 0.094118 0.078431
windleo_m79_grenade.BMP
  74 0.600000 0.548296 1.192580 0.840574 0.276130 0.466034 0.094118 0.078431
  74 0.600000 -1.271704 1.191553 0.874587 0.000000 0.484868 0.094118 0.400000
  74 0.680000 0.548516 0.802580 0.953892 0.276422 -0.116962 0.027451 0.078431
windleo_m79_grenade.BMP
  74 0.600000 -1.271704 1.191553 0.874587 0.000000 0.484868 0.094118 0.400000
  74 0.680000 -1.271484 0.801553 0.992564 0.000000 -0.121725 0.027451 0.400000
  74 0.680000 0.548516 0.802580 0.953892 0.276422 -0.116962 0.027451 0.078431
windleo_m79_grenade.BMP
  74 0.680000 0.548516 0.802580 0.953892 0.276422 -0.116962 0.698039 0.078431
  74 0.500000 0.548730 0.422580 0.702840 0.276731 -0.655313 0.631373 0.078431
  74 0.470000 0.608713 0.452614 0.726317 0.116972 -0.677334 0.631373 0.062745
windleo_m79_grenade.BMP
  74 0.470000 0.608713 0.452614 0.726317 0.116972 -0.677334 0.631373 0.062745
  74 0.500000 0.548730 0.422580 0.702840 0.276731 -0.655313 0.631373 0.078431
  74 0.130000 0.608821 0.262614 0.189658 0.116929 -0.974863 0.564706 0.062745
windleo_m79_grenade.BMP
  74 0.500000 0.548730 0.422580 0.702840 0.276731 -0.655313 0.631373 0.078431
  74 0.140000 0.548843 0.222580 0.183291 0.276638 -0.943332 0.564706 0.078431
  74 0.130000 0.608821 0.262614 0.189658 0.116929 -0.974863 0.564706 0.062745
windleo_m79_grenade.BMP
  74 0.130000 0.608821 0.262614 0.189658 0.116929 -0.974863 0.564706 0.062745
  74 0.140000 0.548843 0.222580 0.183291 0.276638 -0.943332 0.564706 0.078431
  74 -0.240000 0.608792 0.312614 -0.419670 0.116842 -0.900125 0.498039 0.062745
windleo_m79_grenade.BMP
  74 0.140000 0.548843 0.222580 0.183291 0.276638 -0.943332 0.564706 0.078431
  74 -0.260000 0.548815 0.272580 -0.406151 0.276421 -0.870995 0.498039 0.078431
  74 -0.240000 0.608792 0.312614 -0.419670 0.116842 -0.900125 0.498039 0.062745
windleo_m79_grenade.BMP
  74 -0.240000 0.608792 0.312614 -0.419670 0.116842 -0.900125 0.498039 0.062745
  74 -0.260000 0.548815 0.272580 -0.406151 0.276421 -0.870995 0.498039 0.078431
  74 -0.530000 0.608640 0.582614 -0.868615 0.116883 -0.481504 0.431373 0.062745
windleo_m79_grenade.BMP
  74 -0.260000 0.548815 0.272580 -0.406151 0.276421 -0.870995 0.498039 0.078431
  74 -0.560000 0.548651 0.562580 -0.840484 0.276518 -0.465967 0.431373 0.078431
  74 -0.530000 0.608640 0.582614 -0.868615 0.116883 -0.481504 0.431373 0.062745
windleo_m79_grenade.BMP
  74 -0.530000 0.608640 0.582614 -0.868615 0.116883 -0.481504 0.431373 0.062745
  74 -0.560000 0.548651 0.562580 -0.840484 0.276518 -0.465967 0.431373 0.078431
  74 -0.600000 0.608431 0.952614 -0.985755 0.116858 0.120960 0.364706 0.062745
windleo_m79_grenade.BMP
  74 -0.560000 0.548651 0.562580 -0.840484 0.276518 -0.465967 0.431373 0.078431
  74 -0.640000 0.548431 0.952580 -0.953863 0.276436 0.117171 0.364706 0.078431
  74 -0.600000 0.608431 0.952614 -0.985755 0.116858 0.120960 0.364706 0.062745
windleo_m79_grenade.BMP
  74 -0.600000 0.608431 0.952614 -0.985755 0.116858 0.120960 0.364706 0.062745
  74 -0.640000 0.548431 0.952580 -0.953863 0.276436 0.117171 0.364706 0.078431
  74 -0.440000 0.608234 1.302614 -0.726379 0.116834 0.677291 0.298039 0.062745
windleo_m79_grenade.BMP
  74 -0.640000 0.548431 0.952580 -0.953863 0.276436 0.117171 0.364706 0.078431
  74 -0.470001 0.548222 1.322580 -0.702803 0.276391 0.655496 0.298039 0.078431
  74 -0.440000 0.608234 1.302614 -0.726379 0.116834 0.677291 0.298039 0.062745
windleo_m79_grenade.BMP
  74 -0.440000 0.608234 1.302614 -0.726379 0.116834 0.677291 0.298039 0.062745
  74 -0.470001 0.548222 1.322580 -0.702803 0.276391 0.655496 0.298039 0.078431
  74 -0.100001 0.608132 1.482614 -0.189297 0.116791 0.974949 0.227451 0.062745
windleo_m79_grenade.BMP
  74 -0.470001 0.548222 1.322580 -0.702803 0.276391 0.655496 0.298039 0.078431
  74 -0.100001 0.548104 1.532580 -0.183434 0.276280 0.943409 0.227451 0.078431
  74 -0.100001 0.608132 1.482614 -0.189297 0.116791 0.974949 0.227451 0.062745
windleo_m79_grenade.BMP
  74 -0.100001 0.608132 1.482614 -0.189297 0.116791 0.974949 0.227451 0.062745
  74 -0.100001 0.548104 1.532580 -0.183434 0.276280 0.943409 0.227451 0.078431
  74 0.279999 0.608155 1.442614 0.419895 0.116766 0.900030 0.160784 0.062745
windleo_m79_grenade.BMP
  74 -0.100001 0.548104 1.532580 -0.183434 0.276280 0.943409 0.227451 0.078431
  74 0.289999 0.548138 1.472580 0.406099 0.276212 0.871086 0.160784 0.078431
  74 0.279999 0.608155 1.442614 0.419895 0.116766 0.900030 0.160784 0.062745
windleo_m79_grenade.BMP
  74 0.279999 0.608155 1.442614 0.419895 0.116766 0.900030 0.160784 0.062745
  74 0.289999 0.548138 1.472580 0.406099 0.276212 0.871086 0.160784 0.078431
  74 0.560000 0.608307 1.172614 0.868757 0.116730 0.481286 0.094118 0.062745
windleo_m79_grenade.BMP
  74 0.289999 0.548138 1.472580 0.406099 0.276212 0.871086 0.160784 0.078431
  74 0.600000 0.548296 1.192580 0.840574 0.276130 0.466034 0.094118 0.078431
  74 0.560000 0.608307 1.172614 0.868757 0.116730 0.481286 0.094118 0.062745
windleo_m79_grenade.BMP
  74 0.560000 0.608307 1.172614 0.868757 0.116730 0.481286 0.094118 0.062745
  74 0.600000 0.548296 1.192580 0.840574 0.276130 0.466034 0.094118 0.078431
  74 0.630000 0.608516 0.802614 0.985727 0.116837 -0.121205 0.027451 0.062745
windleo_m79_grenade.BMP
  74 0.600000 0.548296 1.192580 0.840574 0.276130 0.466034 0.094118 0.078431
  74 0.680000 0.548516 0.802580 0.953892 0.276422 -0.116962 0.027451 0.078431
  74 0.630000 0.608516 0.802614 0.985727 0.116837 -0.121205 0.027451 0.062745
windleo_m79_grenade.BMP
  75 -0.080002 -2.800005 -16.121056 -0.116236 -0.300581 -0.946647 0.698039 0.552941
  75 -0.440003 -2.800005 -15.951056 -0.650463 -0.300717 -0.697472 0.631373 0.552941
  75 -0.460003 -2.570005 -15.971056 -0.680508 -0.065877 -0.729773 0.631373 0.505882
windleo_m79_grenade.BMP
  75 -0.460003 -2.570005 -15.971056 -0.680508 -0.065877 -0.729773 0.631373 0.505882
  75 -0.440003 -2.800005 -15.951056 -0.650463 -0.300717 -0.697472 0.631373 0.552941
  75 -0.660003 -2.570006 -15.611056 -0.979508 -0.065860 -0.190335 0.564706 0.505882
windleo_m79_grenade.BMP
  75 -0.440003 -2.800005 -15.951056 -0.650463 -0.300717 -0.697472 0.631373 0.552941
  75 -0.630003 -2.800006 -15.601056 -0.936215 -0.300611 -0.182029 0.564706 0.552941
  75 -0.660003 -2.570006 -15.611056 -0.979508 -0.065860 -0.190335 0.564706 0.505882
windleo_m79_grenade.BMP
  75 -0.660003 -2.570006 -15.611056 -0.979508 -0.065860 -0.190335 0.564706 0.505882
  75 -0.630003 -2.800006 -15.601056 -0.936215 -0.300611 -0.182029 0.564706 0.552941
  75 -0.610003 -2.570006 -15.211056 -0.904360 -0.065807 0.421667 0.498039 0.505882
windleo_m79_grenade.BMP
  75 -0.630003 -2.800006 -15.601056 -0.936215 -0.300611 -0.182029 0.564706 0.552941
  75 -0.580003 -2.800006 -15.221056 -0.864399 -0.300620 0.403040 0.498039 0.552941
  75 -0.610003 -2.570006 -15.211056 -0.904360 -0.065807 0.421667 0.498039 0.505882
windleo_m79_grenade.BMP
  75 -0.610003 -2.570006 -15.211056 -0.904360 -0.065807 0.421667 0.498039 0.505882
  75 -0.580003 -2.800006 -15.221056 -0.864399 -0.300620 0.403040 0.498039 0.552941
  75 -0.320003 -2.570006 -14.911056 -0.483780 -0.065903 0.872705 0.431373 0.505882
windleo_m79_grenade.BMP
  75 -0.580003 -2.800006 -15.221056 -0.864399 -0.300620 0.403040 0.498039 0.552941
  75 -0.310003 -2.800006 -14.931056 -0.462403 -0.300656 0.834140 0.431373 0.552941
  75 -0.320003 -2.570006 -14.911056 -0.483780 -0.065903 0.872705 0.431373 0.505882
windleo_m79_grenade.BMP
  75 -0.320003 -2.570006 -14.911056 -0.483780 -0.065903 0.872705 0.431373 0.505882
  75 -0.310003 -2.800006 -14.931056 -0.462403 -0.300656 0.834140 0.431373 0.552941
  75 0.069997 -2.570006 -14.831056 0.121637 -0.065835 0.990389 0.364706 0.505882
windleo_m79_grenade.BMP
  75 -0.310003 -2.800006 -14.931056 -0.462403 -0.300656 0.834140 0.431373 0.552941
  75 0.069997 -2.800006 -14.861056 0.116241 -0.300676 0.946616 0.364706 0.552941
  75 0.069997 -2.570006 -14.831056 0.121637 -0.065835 0.990389 0.364706 0.505882
windleo_m79_grenade.BMP
  75 0.069997 -2.570006 -14.831056 0.121637 -0.065835 0.990389 0.364706 0.505882
  75 0.069997 -2.800006 -14.861056 0.116241 -0.300676 0.946616 0.364706 0.552941
  75 0.439997 -2.570006 -15.001056 0.680570 -0.065892 0.729714 0.298039 0.505882
windleo_m79_grenade.BMP
  75 0.069997 -2.800006 -14.861056 0.116241 -0.300676 0.946616 0.364706 0.552941
  75 0.419997 -2.800006 -15.031056 0.650507 -0.300688 0.697443 0.298039 0.552941
  75 0.439997 -2.570006 -15.001056 0.680570 -0.065892 0.729714 0.298039 0.505882
windleo_m79_grenade.BMP
  75 0.439997 -2.570006 -15.001056 0.680570 -0.065892 0.729714 0.298039 0.505882
  75 0.419997 -2.800006 -15.031056 0.650507 -0.300688 0.697443 0.298039 0.552941
  75 0.649997 -2.570006 -15.371056 0.979491 -0.065884 0.190414 0.227451 0.505882
windleo_m79_grenade.BMP
  75 0.419997 -2.800006 -15.031056 0.650507 -0.300688 0.697443 0.298039 0.552941
  75 0.619997 -2.800006 -15.371056 0.936225 -0.300628 0.181948 0.227451 0.552941
  75 0.649997 -2.570006 -15.371056 0.979491 -0.065884 0.190414 0.227451 0.505882
windleo_m79_grenade.BMP
  75 0.649997 -2.570006 -15.371056 0.979491 -0.065884 0.190414 0.227451 0.505882
  75 0.619997 -2.800006 -15.371056 0.936225 -0.300628 0.181948 0.227451 0.552941
  75 0.589997 -2.570005 -15.761056 0.904358 -0.065803 -0.421671 0.160784 0.505882
windleo_m79_grenade.BMP
  75 0.619997 -2.800006 -15.371056 0.936225 -0.300628 0.181948 0.227451 0.552941
  75 0.569997 -2.800005 -15.751056 0.864419 -0.300603 -0.403010 0.160784 0.552941
  75 0.589997 -2.570005 -15.761056 0.904358 -0.065803 -0.421671 0.160784 0.505882
windleo_m79_grenade.BMP
  75 0.589997 -2.570005 -15.761056 0.904358 -0.065803 -0.421671 0.160784 0.505882
  75 0.569997 -2.800005 -15.751056 0.864419 -0.300603 -0.403010 0.160784 0.552941
  75 0.309997 -2.570005 -16.071056 0.483846 -0.065743 -0.872680 0.094118 0.505882
windleo_m79_grenade.BMP
  75 0.569997 -2.800005 -15.751056 0.864419 -0.300603 -0.403010 0.160784 0.552941
  75 0.299997 -2.800005 -16.041056 0.462387 -0.300567 -0.834181 0.094118 0.552941
  75 0.309997 -2.570005 -16.071056 0.483846 -0.065743 -0.872680 0.094118 0.505882
windleo_m79_grenade.BMP
  75 0.309997 -2.570005 -16.071056 0.483846 -0.065743 -0.872680 0.094118 0.505882
  75 0.299997 -2.800005 -16.041056 0.462387 -0.300567 -0.834181 0.094118 0.552941
  75 -0.080002 -2.570005 -16.151056 -0.121464 -0.065767 -0.990415 0.027451 0.505882
windleo_m79_grenade.BMP
  75 0.299997 -2.800005 -16.041056 0.462387 -0.300567 -0.834181 0.094118 0.552941
  75 -0.080002 -2.800005 -16.121056 -0.116236 -0.300581 -0.946647 0.027451 0.552941
  75 -0.080002 -2.570005 -16.151056 -0.121464 -0.065767 -0.990415 0.027451 0.505882
windleo_m79_grenade.BMP
  75 -0.060003 -3.030005 -15.991056 -0.098665 -0.586933 -0.803601 0.698039 0.603922
  75 -0.350003 -3.030005 -15.851056 -0.552216 -0.586956 -0.592064 0.631373 0.603922
  75 -0.440003 -2.800005 -15.951056 -0.650463 -0.300717 -0.697472 0.631373 0.552941
windleo_m79_grenade.BMP
  75 -0.440003 -2.800005 -15.951056 -0.650463 -0.300717 -0.697472 0.631373 0.552941
  75 -0.350003 -3.030005 -15.851056 -0.552216 -0.586956 -0.592064 0.631373 0.603922
  75 -0.630003 -2.800006 -15.601056 -0.936215 -0.300611 -0.182029 0.564706 0.552941
windleo_m79_grenade.BMP
  75 -0.350003 -3.030005 -15.851056 -0.552216 -0.586956 -0.592064 0.631373 0.603922
  75 -0.500003 -3.030006 -15.581056 -0.794772 -0.586934 -0.154421 0.564706 0.603922
  75 -0.630003 -2.800006 -15.601056 -0.936215 -0.300611 -0.182029 0.564706 0.552941
windleo_m79_grenade.BMP
  75 -0.630003 -2.800006 -15.601056 -0.936215 -0.300611 -0.182029 0.564706 0.552941
  75 -0.500003 -3.030006 -15.581056 -0.794772 -0.586934 -0.154421 0.564706 0.603922
  75 -0.580003 -2.800006 -15.221056 -0.864399 -0.300620 0.403040 0.498039 0.552941
windleo_m79_grenade.BMP
  75 -0.500003 -3.030006 -15.581056 -0.794772 -0.586934 -0.154421 0.564706 0.603922
  75 -0.460003 -3.030006 -15.281056 -0.733703 -0.586975 0.342258 0.498039 0.603922
  75 -0.580003 -2.800006 -15.221056 -0.864399 -0.300620 0.403040 0.498039 0.552941
windleo_m79_grenade.BMP
  75 -0.580003 -2.800006 -15.221056 -0.864399 -0.300620 0.403040 0.498039 0.552941
  75 -0.460003 -3.030006 -15.281056 -0.733703 -0.586975 0.342258 0.498039 0.603922
  75 -0.310003 -2.800006 -14.931056 -0.462403 -0.300656 0.834140 0.431373 0.552941
windleo_m79_grenade.BMP
  75 -0.460003 -3.030006 -15.281056 -0.733703 -0.586975 0.342258 0.498039 0.603922
  75 -0.250003 -3.030006 -15.051056 -0.392478 -0.586895 0.708177 0.431373 0.603922
  75 -0.310003 -2.800006 -14.931056 -0.462403 -0.300656 0.834140 0.431373 0.552941
windleo_m79_grenade.BMP
  75 -0.310003 -2.800006 -14.931056 -0.462403 -0.300656 0.834140 0.431373 0.552941
  75 -0.250003 -3.030006 -15.051056 -0.392478 -0.586895 0.708177 0.431373 0.603922
  75 0.069997 -2.800006 -14.861056 0.116241 -0.300676 0.946616 0.364706 0.552941
windleo_m79_grenade.BMP
  75 -0.250003 -3.030006 -15.051056 -0.392478 -0.586895 0.708177 0.431373 0.603922
  75 0.049997 -3.030006 -14.991056 0.098720 -0.586952 0.803580 0.364706 0.603922
  75 0.069997 -2.800006 -14.861056 0.116241 -0.300676 0.946616 0.364706 0.552941
windleo_m79_grenade.BMP
  75 0.069997 -2.800006 -14.861056 0.116241 -0.300676 0.946616 0.364706 0.552941
  75 0.049997 -3.030006 -14.991056 0.098720 -0.586952 0.803580 0.364706 0.603922
  75 0.419997 -2.800006 -15.031056 0.650507 -0.300688 0.697443 0.298039 0.552941
windleo_m79_grenade.BMP
  75 0.049997 -3.030006 -14.991056 0.098720 -0.586952 0.803580 0.364706 0.603922
  75 0.339997 -3.030006 -15.121056 0.552183 -0.586853 0.592198 0.298039 0.603922
  75 0.419997 -2.800006 -15.031056 0.650507 -0.300688 0.697443 0.298039 0.552941
windleo_m79_grenade.BMP
  75 0.419997 -2.800006 -15.031056 0.650507 -0.300688 0.697443 0.298039 0.552941
  75 0.339997 -3.030006 -15.121056 0.552183 -0.586853 0.592198 0.298039 0.603922
  75 0.619997 -2.800006 -15.371056 0.936225 -0.300628 0.181948 0.227451 0.552941
windleo_m79_grenade.BMP
  75 0.339997 -3.030006 -15.121056 0.552183 -0.586853 0.592198 0.298039 0.603922
  75 0.489997 -3.030006 -15.401056 0.794810 -0.586861 0.154502 0.227451 0.603922
  75 0.619997 -2.800006 -15.371056 0.936225 -0.300628 0.181948 0.227451 0.552941
windleo_m79_grenade.BMP
  75 0.619997 -2.800006 -15.371056 0.936225 -0.300628 0.181948 0.227451 0.552941
  75 0.489997 -3.030006 -15.401056 0.794810 -0.586861 0.154502 0.227451 0.603922
  75 0.569997 -2.800005 -15.751056 0.864419 -0.300603 -0.403010 0.160784 0.552941
windleo_m79_grenade.BMP
  75 0.489997 -3.030006 -15.401056 0.794810 -0.586861 0.154502 0.227451 0.603922
  75 0.449997 -3.030006 -15.701056 0.733775 -0.586915 -0.342206 0.160784 0.603922
  75 0.569997 -2.800005 -15.751056 0.864419 -0.300603 -0.403010 0.160784 0.552941
windleo_m79_grenade.BMP
  75 0.569997 -2.800005 -15.751056 0.864419 -0.300603 -0.403010 0.160784 0.552941
  75 0.449997 -3.030006 -15.701056 0.733775 -0.586915 -0.342206 0.160784 0.603922
  75 0.299997 -2.800005 -16.041056 0.462387 -0.300567 -0.834181 0.094118 0.552941
windleo_m79_grenade.BMP
  75 0.449997 -3.030006 -15.701056 0.733775 -0.586915 -0.342206 0.160784 0.603922
  75 0.239997 -3.030005 -15.931056 0.392620 -0.586886 -0.708106 0.094118 0.603922
  75 0.299997 -2.800005 -16.041056 0.462387 -0.300567 -0.834181 0.094118 0.552941
windleo_m79_grenade.BMP
  75 0.299997 -2.800005 -16.041056 0.462387 -0.300567 -0.834181 0.094118 0.552941
  75 0.239997 -3.030005 -15.931056 0.392620 -0.586886 -0.708106 0.094118 0.603922
  75 -0.080002 -2.800005 -16.121056 -0.116236 -0.300581 -0.946647 0.027451 0.552941
windleo_m79_grenade.BMP
  75 0.239997 -3.030005 -15.931056 0.392620 -0.586886 -0.708106 0.094118 0.603922
  75 -0.060003 -3.030005 -15.991056 -0.098665 -0.586933 -0.803601 0.027451 0.603922
  75 -0.080002 -2.800005 -16.121056 -0.116236 -0.300581 -0.946647 0.027451 0.552941
windleo_m79_grenade.BMP
  75 -0.080002 -1.970005 -16.151056 -0.121726 0.000000 -0.992564 0.698039 0.400000
  75 -0.460003 -1.970005 -15.971056 -0.681972 0.000000 -0.731378 0.631373 0.400000
  75 -0.460003 -0.150005 -15.971055 -0.655312 0.276733 -0.702841 0.631373 0.078431
windleo_m79_grenade.BMP
  75 -0.460003 -0.150005 -15.971055 -0.655312 0.276733 -0.702841 0.631373 0.078431
  75 -0.460003 -1.970005 -15.971056 -0.681972 0.000000 -0.731378 0.631373 0.400000
  75 -0.660003 -0.150006 -15.611055 -0.943333 0.276634 -0.183292 0.564706 0.078431
windleo_m79_grenade.BMP
  75 -0.460003 -1.970005 -15.971056 -0.681972 0.000000 -0.731378 0.631373 0.400000
  75 -0.660003 -1.970006 -15.611056 -0.981638 0.000000 -0.190751 0.564706 0.400000
  75 -0.660003 -0.150006 -15.611055 -0.943333 0.276634 -0.183292 0.564706 0.078431
windleo_m79_grenade.BMP
  75 -0.660003 -0.150006 -15.611055 -0.943333 0.276634 -0.183292 0.564706 0.078431
  75 -0.660003 -1.970006 -15.611056 -0.981638 0.000000 -0.190751 0.564706 0.400000
  75 -0.610003 -0.150006 -15.211055 -0.870996 0.276417 0.406153 0.498039 0.078431
windleo_m79_grenade.BMP
  75 -0.660003 -1.970006 -15.611056 -0.981638 0.000000 -0.190751 0.564706 0.400000
  75 -0.610003 -1.970006 -15.211056 -0.906320 0.000000 0.422592 0.498039 0.400000
  75 -0.610003 -0.150006 -15.211055 -0.870996 0.276417 0.406153 0.498039 0.078431
windleo_m79_grenade.BMP
  75 -0.610003 -0.150006 -15.211055 -0.870996 0.276417 0.406153 0.498039 0.078431
  75 -0.610003 -1.970006 -15.211056 -0.906320 0.000000 0.422592 0.498039 0.400000
  75 -0.320003 -0.150006 -14.911055 -0.465965 0.276516 0.840485 0.431373 0.078431
windleo_m79_grenade.BMP
  75 -0.610003 -1.970006 -15.211056 -0.906320 0.000000 0.422592 0.498039 0.400000
  75 -0.320003 -1.970006 -14.911056 -0.484849 0.000000 0.874598 0.431373 0.400000
  75 -0.320003 -0.150006 -14.911055 -0.465965 0.276516 0.840485 0.431373 0.078431
windleo_m79_grenade.BMP
  75 -0.320003 -0.150006 -14.911055 -0.465965 0.276516 0.840485 0.431373 0.078431
  75 -0.320003 -1.970006 -14.911056 -0.484849 0.000000 0.874598 0.431373 0.400000
  75 0.069997 -0.150006 -14.831054 0.117171 0.276435 0.953863 0.364706 0.078431
windleo_m79_grenade.BMP
  75 -0.320003 -1.970006 -14.911056 -0.484849 0.000000 0.874598 0.431373 0.400000
  75 0.069997 -1.970006 -14.831056 0.121908 0.000000 0.992541 0.364706 0.400000
  75 0.069997 -0.150006 -14.831054 0.117171 0.276435 0.953863 0.364706 0.078431
windleo_m79_grenade.BMP
  75 0.069997 -0.150006 -14.831054 0.117171 0.276435 0.953863 0.364706 0.078431
  75 0.069997 -1.970006 -14.831056 0.121908 0.000000 0.992541 0.364706 0.400000
  75 0.439997 -0.150006 -15.001054 0.655497 0.276391 0.702803 0.298039 0.078431
windleo_m79_grenade.BMP
  75 0.069997 -1.970006 -14.831056 0.121908 0.000000 0.992541 0.364706 0.400000
  75 0.439997 -1.970006 -15.001055 0.682047 0.000000 0.731309 0.298039 0.400000
  75 0.439997 -0.150006 -15.001054 0.655497 0.276391 0.702803 0.298039 0.078431
windleo_m79_grenade.BMP
  75 0.439997 -0.150006 -15.001054 0.655497 0.276391 0.702803 0.298039 0.078431
  75 0.439997 -1.970006 -15.001055 0.682047 0.000000 0.731309 0.298039 0.400000
  75 0.649997 -0.150006 -15.371054 0.943409 0.276281 0.183433 0.227451 0.078431
windleo_m79_grenade.BMP
  75 0.439997 -1.970006 -15.001055 0.682047 0.000000 0.731309 0.298039 0.400000
  75 0.649997 -1.970006 -15.371055 0.981627 0.000000 0.190809 0.227451 0.400000
  75 0.649997 -0.150006 -15.371054 0.943409 0.276281 0.183433 0.227451 0.078431
windleo_m79_grenade.BMP
  75 0.649997 -0.150006 -15.371054 0.943409 0.276281 0.183433 0.227451 0.078431
  75 0.649997 -1.970006 -15.371055 0.981627 0.000000 0.190809 0.227451 0.400000
  75 0.589997 -0.150006 -15.761054 0.871084 0.276217 -0.406099 0.160784 0.078431
windleo_m79_grenade.BMP
  75 0.649997 -1.970006 -15.371055 0.981627 0.000000 0.190809 0.227451 0.400000
  75 0.589997 -1.970006 -15.761055 0.906320 0.000000 -0.422592 0.160784 0.400000
  75 0.589997 -0.150006 -15.761054 0.871084 0.276217 -0.406099 0.160784 0.078431
windleo_m79_grenade.BMP
  75 0.589997 -0.150006 -15.761054 0.871084 0.276217 -0.406099 0.160784 0.078431
  75 0.589997 -1.970006 -15.761055 0.906320 0.000000 -0.422592 0.160784 0.400000
  75 0.309997 -0.150005 -16.071054 0.466035 0.276128 -0.840574 0.094118 0.078431
windleo_m79_grenade.BMP
  75 0.589997 -1.970006 -15.761055 0.906320 0.000000 -0.422592 0.160784 0.400000
  75 0.309997 -1.970005 -16.071055 0.484869 0.000000 -0.874587 0.094118 0.400000
  75 0.309997 -0.150005 -16.071054 0.466035 0.276128 -0.840574 0.094118 0.078431
windleo_m79_grenade.BMP
  75 0.309997 -0.150005 -16.071054 0.466035 0.276128 -0.840574 0.094118 0.078431
  75 0.309997 -1.970005 -16.071055 0.484869 0.000000 -0.874587 0.094118 0.400000
  75 -0.080003 -0.150005 -16.151054 -0.116961 0.276421 -0.953893 0.027451 0.078431
windleo_m79_grenade.BMP
  75 0.309997 -1.970005 -16.071055 0.484869 0.000000 -0.874587 0.094118 0.400000
  75 -0.080002 -1.970005 -16.151056 -0.121726 0.000000 -0.992564 0.027451 0.400000
  75 -0.080003 -0.150005 -16.151054 -0.116961 0.276421 -0.953893 0.027451 0.078431
windleo_m79_grenade.BMP
  75 -0.080003 -0.150005 -16.151054 -0.116961 0.276421 -0.953893 0.698039 0.078431
  75 -0.460003 -0.150005 -15.971055 -0.655312 0.276733 -0.702841 0.631373 0.078431
  75 -0.430003 -0.090005 -15.941055 -0.677333 0.116973 -0.726317 0.631373 0.062745
windleo_m79_grenade.BMP
  75 -0.430003 -0.090005 -15.941055 -0.677333 0.116973 -0.726317 0.631373 0.062745
  75 -0.460003 -0.150005 -15.971055 -0.655312 0.276733 -0.702841 0.631373 0.078431
  75 -0.620003 -0.090006 -15.601055 -0.974863 0.116927 -0.189657 0.564706 0.062745
windleo_m79_grenade.BMP
  75 -0.460003 -0.150005 -15.971055 -0.655312 0.276733 -0.702841 0.631373 0.078431
  75 -0.660003 -0.150006 -15.611055 -0.943333 0.276634 -0.183292 0.564706 0.078431
  75 -0.620003 -0.090006 -15.601055 -0.974863 0.116927 -0.189657 0.564706 0.062745
windleo_m79_grenade.BMP
  75 -0.620003 -0.090006 -15.601055 -0.974863 0.116927 -0.189657 0.564706 0.062745
  75 -0.660003 -0.150006 -15.611055 -0.943333 0.276634 -0.183292 0.564706 0.078431
  75 -0.570003 -0.090006 -15.231055 -0.900124 0.116844 0.419671 0.498039 0.062745
windleo_m79_grenade.BMP
  75 -0.660003 -0.150006 -15.611055 -0.943333 0.276634 -0.183292 0.564706 0.078431
  75 -0.610003 -0.150006 -15.211055 -0.870996 0.276417 0.406153 0.498039 0.078431
  75 -0.570003 -0.090006 -15.231055 -0.900124 0.116844 0.419671 0.498039 0.062745
windleo_m79_grenade.BMP
  75 -0.570003 -0.090006 -15.231055 -0.900124 0.116844 0.419671 0.498039 0.062745
  75 -0.610003 -0.150006 -15.211055 -0.870996 0.276417 0.406153 0.498039 0.078431
  75 -0.300003 -0.090006 -14.941055 -0.481504 0.116884 0.868615 0.431373 0.062745
windleo_m79_grenade.BMP
  75 -0.610003 -0.150006 -15.211055 -0.870996 0.276417 0.406153 0.498039 0.078431
  75 -0.320003 -0.150006 -14.911055 -0.465965 0.276516 0.840485 0.431373 0.078431
  75 -0.300003 -0.090006 -14.941055 -0.481504 0.116884 0.868615 0.431373 0.062745
windleo_m79_grenade.BMP
  75 -0.300003 -0.090006 -14.941055 -0.481504 0.116884 0.868615 0.431373 0.062745
  75 -0.320003 -0.150006 -14.911055 -0.465965 0.276516 0.840485 0.431373 0.078431
  75 0.069997 -0.090006 -14.871054 0.120960 0.116859 0.985755 0.364706 0.062745
windleo_m79_grenade.BMP
  75 -0.320003 -0.150006 -14.911055 -0.465965 0.276516 0.840485 0.431373 0.078431
  75 0.069997 -0.150006 -14.831054 0.117171 0.276435 0.953863 0.364706 0.078431
  75 0.069997 -0.090006 -14.871054 0.120960 0.116859 0.985755 0.364706 0.062745
windleo_m79_grenade.BMP
  75 0.069997 -0.090006 -14.871054 0.120960 0.116859 0.985755 0.364706 0.062745
  75 0.069997 -0.150006 -14.831054 0.117171 0.276435 0.953863 0.364706 0.078431
  75 0.419997 -0.090006 -15.031054 0.677292 0.116834 0.726378 0.298039 0.062745
windleo_m79_grenade.BMP
  75 0.069997 -0.150006 -14.831054 0.117171 0.276435 0.953863 0.364706 0.078431
  75 0.439997 -0.150006 -15.001054 0.655497 0.276391 0.702803 0.298039 0.078431
  75 0.419997 -0.090006 -15.031054 0.677292 0.116834 0.726378 0.298039 0.062745
windleo_m79_grenade.BMP
  75 0.419997 -0.090006 -15.031054 0.677292 0.116834 0.726378 0.298039 0.062745
  75 0.439997 -0.150006 -15.001054 0.655497 0.276391 0.702803 0.298039 0.078431
  75 0.599997 -0.090006 -15.371054 0.974950 0.116792 0.189294 0.227451 0.062745
windleo_m79_grenade.BMP
  75 0.439997 -0.150006 -15.001054 0.655497 0.276391 0.702803 0.298039 0.078431
  75 0.649997 -0.150006 -15.371054 0.943409 0.276281 0.183433 0.227451 0.078431
  75 0.599997 -0.090006 -15.371054 0.974950 0.116792 0.189294 0.227451 0.062745
windleo_m79_grenade.BMP
  75 0.599997 -0.090006 -15.371054 0.974950 0.116792 0.189294 0.227451 0.062745
  75 0.649997 -0.150006 -15.371054 0.943409 0.276281 0.183433 0.227451 0.078431
  75 0.559997 -0.090006 -15.751054 0.900029 0.116768 -0.419896 0.160784 0.062745
windleo_m79_grenade.BMP
  75 0.649997 -0.150006 -15.371054 0.943409 0.276281 0.183433 0.227451 0.078431
  75 0.589997 -0.150006 -15.761054 0.871084 0.276217 -0.406099 0.160784 0.078431
  75 0.559997 -0.090006 -15.751054 0.900029 0.116768 -0.419896 0.160784 0.062745
windleo_m79_grenade.BMP
  75 0.559997 -0.090006 -15.751054 0.900029 0.116768 -0.419896 0.160784 0.062745
  75 0.589997 -0.150006 -15.761054 0.871084 0.276217 -0.406099 0.160784 0.078431
  75 0.289997 -0.090005 -16.031054 0.481281 0.116729 -0.868759 0.094118 0.062745
windleo_m79_grenade.BMP
  75 0.589997 -0.150006 -15.761054 0.871084 0.276217 -0.406099 0.160784 0.078431
  75 0.309997 -0.150005 -16.071054 0.466035 0.276128 -0.840574 0.094118 0.078431
  75 0.289997 -0.090005 -16.031054 0.481281 0.116729 -0.868759 0.094118 0.062745
windleo_m79_grenade.BMP
  75 0.289997 -0.090005 -16.031054 0.481281 0.116729 -0.868759 0.094118 0.062745
  75 0.309997 -0.150005 -16.071054 0.466035 0.276128 -0.840574 0.094118 0.078431
  75 -0.080003 -0.090005 -16.101054 -0.121204 0.116836 -0.985728 0.027451 0.062745
windleo_m79_grenade.BMP
  75 0.309997 -0.150005 -16.071054 0.466035 0.276128 -0.840574 0.094118 0.078431
  75 -0.080003 -0.150005 -16.151054 -0.116961 0.276421 -0.953893 0.027451 0.078431
  75 -0.080003 -0.090005 -16.101054 -0.121204 0.116836 -0.985728 0.027451 0.062745
windleo_m79_grenade.BMP
  75 -0.080002 -2.570005 -16.151056 -0.121464 -0.065767 -0.990415 0.698039 0.505882
  75 -0.460003 -2.570005 -15.971056 -0.680508 -0.065877 -0.729773 0.631373 0.505882
  75 -0.460003 -1.970005 -15.971056 -0.681972 0.000000 -0.731378 0.631373 0.400000
windleo_m79_grenade.BMP
  75 -0.460003 -1.970005 -15.971056 -0.681972 0.000000 -0.731378 0.631373 0.400000
  75 -0.460003 -2.570005 -15.971056 -0.680508 -0.065877 -0.729773 0.631373 0.505882
  75 -0.660003 -1.970006 -15.611056 -0.981638 0.000000 -0.190751 0.564706 0.400000
windleo_m79_grenade.BMP
  75 -0.460003 -2.570005 -15.971056 -0.680508 -0.065877 -0.729773 0.631373 0.505882
  75 -0.660003 -2.570006 -15.611056 -0.979508 -0.065860 -0.190335 0.564706 0.505882
  75 -0.660003 -1.970006 -15.611056 -0.981638 0.000000 -0.190751 0.564706 0.400000
windleo_m79_grenade.BMP
  75 -0.660003 -1.970006 -15.611056 -0.981638 0.000000 -0.190751 0.564706 0.400000
  75 -0.660003 -2.570006 -15.611056 -0.979508 -0.065860 -0.190335 0.564706 0.505882
  75 -0.610003 -1.970006 -15.211056 -0.906320 0.000000 0.422592 0.498039 0.400000
windleo_m79_grenade.BMP
  75 -0.660003 -2.570006 -15.611056 -0.979508 -0.065860 -0.190335 0.564706 0.505882
  75 -0.610003 -2.570006 -15.211056 -0.904360 -0.065807 0.421667 0.498039 0.505882
  75 -0.610003 -1.970006 -15.211056 -0.906320 0.000000 0.422592 0.498039 0.400000
windleo_m79_grenade.BMP
  75 -0.610003 -1.970006 -15.211056 -0.906320 0.000000 0.422592 0.498039 0.400000
  75 -0.610003 -2.570006 -15.211056 -0.904360 -0.065807 0.421667 0.498039 0.505882
  75 -0.320003 -1.970006 -14.911056 -0.484849 0.000000 0.874598 0.431373 0.400000
windleo_m79_grenade.BMP
  75 -0.610003 -2.570006 -15.211056 -0.904360 -0.065807 0.421667 0.498039 0.505882
  75 -0.320003 -2.570006 -14.911056 -0.483780 -0.065903 0.872705 0.431373 0.505882
  75 -0.320003 -1.970006 -14.911056 -0.484849 0.000000 0.874598 0.431373 0.400000
windleo_m79_grenade.BMP
  75 -0.320003 -1.970006 -14.911056 -0.484849 0.000000 0.874598 0.431373 0.400000
  75 -0.320003 -2.570006 -14.911056 -0.483780 -0.065903 0.872705 0.431373 0.505882
  75 0.069997 -1.970006 -14.831056 0.121908 0.000000 0.992541 0.364706 0.400000
windleo_m79_grenade.BMP
  75 -0.320003 -2.570006 -14.911056 -0.483780 -0.065903 0.872705 0.431373 0.505882
  75 0.069997 -2.570006 -14.831056 0.121637 -0.065835 0.990389 0.364706 0.505882
  75 0.069997 -1.970006 -14.831056 0.121908 0.000000 0.992541 0.364706 0.400000
windleo_m79_grenade.BMP
  75 0.069997 -1.970006 -14.831056 0.121908 0.000000 0.992541 0.364706 0.400000
  75 0.069997 -2.570006 -14.831056 0.121637 -0.065835 0.990389 0.364706 0.505882
  75 0.439997 -1.970006 -15.001055 0.682047 0.000000 0.731309 0.298039 0.400000
windleo_m79_grenade.BMP
  75 0.069997 -2.570006 -14.831056 0.121637 -0.065835 0.990389 0.364706 0.505882
  75 0.439997 -2.570006 -15.001056 0.680570 -0.065892 0.729714 0.298039 0.505882
  75 0.439997 -1.970006 -15.001055 0.682047 0.000000 0.731309 0.298039 0.400000
windleo_m79_grenade.BMP
  75 0.439997 -1.970006 -15.001055 0.682047 0.000000 0.731309 0.298039 0.400000
  75 0.439997 -2.570006 -15.001056 0.680570 -0.065892 0.729714 0.298039 0.505882
  75 0.649997 -1.970006 -15.371055 0.981627 0.000000 0.190809 0.227451 0.400000
windleo_m79_grenade.BMP
  75 0.439997 -2.570006 -15.001056 0.680570 -0.065892 0.729714 0.298039 0.505882
  75 0.649997 -2.570006 -15.371056 0.979491 -0.065884 0.190414 0.227451 0.505882
  75 0.649997 -1.970006 -15.371055 0.981627 0.000000 0.190809 0.227451 0.400000
windleo_m79_grenade.BMP
  75 0.649997 -1.970006 -15.371055 0.981627 0.000000 0.190809 0.227451 0.400000
  75 0.649997 -2.570006 -15.371056 0.979491 -0.065884 0.190414 0.227451 0.505882
  75 0.589997 -1.970006 -15.761055 0.906320 0.000000 -0.422592 0.160784 0.400000
windleo_m79_grenade.BMP
  75 0.649997 -2.570006 -15.371056 0.979491 -0.065884 0.190414 0.227451 0.505882
  75 0.589997 -2.570005 -15.761056 0.904358 -0.065803 -0.421671 0.160784 0.505882
  75 0.589997 -1.970006 -15.761055 0.906320 0.000000 -0.422592 0.160784 0.400000
windleo_m79_grenade.BMP
  75 0.589997 -1.970006 -15.761055 0.906320 0.000000 -0.422592 0.160784 0.400000
  75 0.589997 -2.570005 -15.761056 0.904358 -0.065803 -0.421671 0.160784 0.505882
  75 0.309997 -1.970005 -16.071055 0.484869 0.000000 -0.874587 0.094118 0.400000
windleo_m79_grenade.BMP
  75 0.589997 -2.570005 -15.761056 0.904358 -0.065803 -0.421671 0.160784 0.505882
  75 0.309997 -2.570005 -16.071056 0.483846 -0.065743 -0.872680 0.094118 0.505882
  75 0.309997 -1.970005 -16.071055 0.484869 0.000000 -0.874587 0.094118 0.400000
windleo_m79_grenade.BMP
  75 0.309997 -1.970005 -16.071055 0.484869 0.000000 -0.874587 0.094118 0.400000
  75 0.309997 -2.570005 -16.071056 0.483846 -0.065743 -0.872680 0.094118 0.505882
  75 -0.080002 -1.970005 -16.151056 -0.121726 0.000000 -0.992564 0.027451 0.400000
windleo_m79_grenade.BMP
  75 0.309997 -2.570005 -16.071056 0.483846 -0.065743 -0.872680 0.094118 0.505882
  75 -0.080002 -2.570005 -16.151056 -0.121464 -0.065767 -0.990415 0.027451 0.505882
  75 -0.080002 -1.970005 -16.151056 -0.121726 0.000000 -0.992564 0.027451 0.400000
windleo_m79_grenade.BMP
  75 -0.000003 -3.360006 -15.481056 0.000033 -1.000000 -0.000039 0.200000 0.803922
  75 -0.260003 -3.250006 -15.371056 -0.513842 -0.823766 0.239535 0.098039 0.764706
  75 -0.290003 -3.250006 -15.541056 -0.556488 -0.823804 -0.108021 0.141176 0.709804
windleo_m79_grenade.BMP
  75 -0.000003 -3.360006 -15.481056 0.000033 -1.000000 -0.000039 0.200000 0.803922
  75 -0.140003 -3.250006 -15.241056 -0.274809 -0.823767 0.495871 0.094118 0.835294
  75 -0.260003 -3.250006 -15.371056 -0.513842 -0.823766 0.239535 0.098039 0.764706
windleo_m79_grenade.BMP
  75 -0.000003 -3.360006 -15.481056 0.000033 -1.000000 -0.000039 0.200000 0.803922
  75 0.019997 -3.250006 -15.201056 0.069219 -0.823766 0.562688 0.133333 0.890196
  75 -0.140003 -3.250006 -15.241056 -0.274809 -0.823767 0.495871 0.094118 0.835294
windleo_m79_grenade.BMP
  75 -0.000003 -3.360006 -15.481056 0.000033 -1.000000 -0.000039 0.200000 0.803922
  75 0.189997 -3.250006 -15.281056 0.386670 -0.823768 0.414600 0.200000 0.913725
  75 0.019997 -3.250006 -15.201056 0.069219 -0.823766 0.562688 0.133333 0.890196
windleo_m79_grenade.BMP
  75 -0.000003 -3.360006 -15.481056 0.000033 -1.000000 -0.000039 0.200000 0.803922
  75 0.279997 -3.250006 -15.441056 0.556566 -0.823729 0.108190 0.262745 0.894118
  75 0.189997 -3.250006 -15.281056 0.386670 -0.823768 0.414600 0.200000 0.913725
windleo_m79_grenade.BMP
  75 -0.000003 -3.360006 -15.481056 0.000033 -1.000000 -0.000039 0.200000 0.803922
  75 0.249997 -3.250006 -15.611056 0.513816 -0.823738 -0.239685 0.305882 0.839216
  75 0.279997 -3.250006 -15.441056 0.556566 -0.823729 0.108190 0.262745 0.894118
windleo_m79_grenade.BMP
  75 -0.000003 -3.360006 -15.481056 0.000033 -1.000000 -0.000039 0.200000 0.803922
  75 0.129997 -3.250006 -15.741056 0.274857 -0.823758 -0.495860 0.309804 0.772549
  75 0.249997 -3.250006 -15.611056 0.513816 -0.823738 -0.239685 0.305882 0.839216
windleo_m79_grenade.BMP
  75 -0.000003 -3.360006 -15.481056 0.000033 -1.000000 -0.000039 0.200000 0.803922
  75 -0.040003 -3.250005 -15.771056 -0.069098 -0.823785 -0.562676 0.270588 0.713725
  75 0.129997 -3.250006 -15.741056 0.274857 -0.823758 -0.495860 0.309804 0.772549
windleo_m79_grenade.BMP
  75 -0.000003 -3.360006 -15.481056 0.000033 -1.000000 -0.000039 0.200000 0.803922
  75 -0.200003 -3.250006 -15.701056 -0.386621 -0.823732 -0.414716 0.203922 0.690196
  75 -0.040003 -3.250005 -15.771056 -0.069098 -0.823785 -0.562676 0.270588 0.713725
windleo_m79_grenade.BMP
  75 -0.000003 -3.360006 -15.481056 0.000033 -1.000000 -0.000039 0.200000 0.803922
  75 -0.290003 -3.250006 -15.541056 -0.556488 -0.823804 -0.108021 0.141176 0.709804
  75 -0.200003 -3.250006 -15.701056 -0.386621 -0.823732 -0.414716 0.203922 0.690196
windleo_m79_grenade.BMP
  74 0.500000 0.708730 0.422671 0.635039 0.496173 -0.592063 0.596078 0.854902
  74 0.600000 0.708296 1.192671 0.759110 0.496621 0.420856 0.666667 0.639216
  74 0.680000 0.708516 0.802671 0.861624 0.496428 -0.105657 0.596078 0.733333
windleo_m79_grenade.BMP
  74 0.500000 0.708730 0.422671 0.635039 0.496173 -0.592063 0.596078 0.854902
  74 0.289999 0.708138 1.472670 0.366737 0.496565 0.786719 0.780392 0.603922
  74 0.600000 0.708296 1.192671 0.759110 0.496621 0.420856 0.666667 0.639216
windleo_m79_grenade.BMP
  74 0.500000 0.708730 0.422671 0.635039 0.496173 -0.592063 0.596078 0.854902
  74 -0.100001 0.708109 1.522670 -0.165695 0.496517 0.852066 0.894118 0.639216
  74 0.289999 0.708138 1.472670 0.366737 0.496565 0.786719 0.780392 0.603922
windleo_m79_grenade.BMP
  74 0.500000 0.708730 0.422671 0.635039 0.496173 -0.592063 0.596078 0.854902
  74 -0.470001 0.708222 1.322670 -0.634799 0.496452 0.592086 0.960784 0.733333
  74 -0.100001 0.708109 1.522670 -0.165695 0.496517 0.852066 0.894118 0.639216
windleo_m79_grenade.BMP
  74 0.500000 0.708730 0.422671 0.635039 0.496173 -0.592063 0.596078 0.854902
  74 -0.640000 0.708431 0.952670 -0.861622 0.496393 0.105841 0.960784 0.854902
  74 -0.470001 0.708222 1.322670 -0.634799 0.496452 0.592086 0.960784 0.733333
windleo_m79_grenade.BMP
  74 0.500000 0.708730 0.422671 0.635039 0.496173 -0.592063 0.596078 0.854902
  74 -0.560000 0.708651 0.562670 -0.759237 0.496352 -0.420944 0.894118 0.949020
  74 -0.640000 0.708431 0.952670 -0.861622 0.496393 0.105841 0.960784 0.854902
windleo_m79_grenade.BMP
  74 0.500000 0.708730 0.422671 0.635039 0.496173 -0.592063 0.596078 0.854902
  74 -0.260000 0.708815 0.272670 -0.366884 0.496419 -0.786743 0.780392 0.984314
  74 -0.560000 0.708651 0.562670 -0.759237 0.496352 -0.420944 0.894118 0.949020
windleo_m79_grenade.BMP
  74 0.500000 0.708730 0.422671 0.635039 0.496173 -0.592063 0.596078 0.854902
  74 0.140000 0.708843 0.222671 0.165596 0.496286 -0.852220 0.666667 0.949020
  74 -0.260000 0.708815 0.272670 -0.366884 0.496419 -0.786743 0.780392 0.984314
windleo_m79_grenade.BMP
  75 -0.460003 -0.000005 -15.971055 -0.592062 0.496172 -0.635040 0.596078 0.854902
  75 0.309997 -0.000005 -16.071054 0.420856 0.496623 -0.759109 0.666667 0.639216
  75 -0.080003 -0.000005 -16.151054 -0.105659 0.496428 -0.861624 0.596078 0.733333
windleo_m79_grenade.BMP
  75 -0.460003 -0.000005 -15.971055 -0.592062 0.496172 -0.635040 0.596078 0.854902
  75 0.589997 -0.000005 -15.761054 0.786721 0.496562 -0.366738 0.780392 0.603922
  75 0.309997 -0.000005 -16.071054 0.420856 0.496623 -0.759109 0.666667 0.639216
windleo_m79_grenade.BMP
  75 -0.460003 -0.000005 -15.971055 -0.592062 0.496172 -0.635040 0.596078 0.854902
  75 0.649997 -0.000006 -15.371054 0.852066 0.496517 0.165694 0.894118 0.639216
  75 0.589997 -0.000005 -15.761054 0.786721 0.496562 -0.366738 0.780392 0.603922
windleo_m79_grenade.BMP
  75 -0.460003 -0.000005 -15.971055 -0.592062 0.496172 -0.635040 0.596078 0.854902
  75 0.439997 -0.000006 -15.001054 0.592087 0.496450 0.634799 0.960784 0.733333
  75 0.649997 -0.000006 -15.371054 0.852066 0.496517 0.165694 0.894118 0.639216
windleo_m79_grenade.BMP
  75 -0.460003 -0.000005 -15.971055 -0.592062 0.496172 -0.635040 0.596078 0.854902
  75 0.069997 -0.000006 -14.831054 0.105841 0.496394 0.861621 0.960784 0.854902
  75 0.439997 -0.000006 -15.001054 0.592087 0.496450 0.634799 0.960784 0.733333
windleo_m79_grenade.BMP
  75 -0.460003 -0.000005 -15.971055 -0.592062 0.496172 -0.635040 0.596078 0.854902
  75 -0.320003 -0.000006 -14.911054 -0.420942 0.496354 0.759237 0.894118 0.949020
  75 0.069997 -0.000006 -14.831054 0.105841 0.496394 0.861621 0.960784 0.854902
windleo_m79_grenade.BMP
  75 -0.460003 -0.000005 -15.971055 -0.592062 0.496172 -0.635040 0.596078 0.854902
  75 -0.610003 -0.000006 -15.211055 -0.786738 0.496425 0.366885 0.780392 0.984314
  75 -0.320003 -0.000006 -14.911054 -0.420942 0.496354 0.759237 0.894118 0.949020
windleo_m79_grenade.BMP
  75 -0.460003 -0.000005 -15.971055 -0.592062 0.496172 -0.635040 0.596078 0.854902
  75 -0.660003 -0.000006 -15.611055 -0.852218 0.496288 -0.165596 0.666667 0.949020
  75 -0.610003 -0.000006 -15.211055 -0.786738 0.496425 0.366885 0.780392 0.984314
windleo_m79_grenade.BMP
  74 0.680000 0.548516 0.802580 0.953892 0.276422 -0.116962 0.698039 0.078431
  74 0.680000 -1.271484 0.801553 0.992564 0.000000 -0.121725 0.698039 0.400000
  74 0.500000 0.548730 0.422580 0.702840 0.276731 -0.655313 0.631373 0.078431
windleo_m79_grenade.BMP
  74 0.630000 0.608516 0.802614 0.985727 0.116837 -0.121205 0.698039 0.062745
  74 0.680000 0.548516 0.802580 0.953892 0.276422 -0.116962 0.698039 0.078431
  74 0.470000 0.608713 0.452614 0.726317 0.116972 -0.677334 0.631373 0.062745
windleo_m79_grenade.BMP
  75 -0.080002 -2.800005 -16.121056 -0.116236 -0.300581 -0.946647 0.698039 0.552941
  75 -0.460003 -2.570005 -15.971056 -0.680508 -0.065877 -0.729773 0.631373 0.505882
  75 -0.080002 -2.570005 -16.151056 -0.121464 -0.065767 -0.990415 0.698039 0.505882
windleo_m79_grenade.BMP
  75 -0.060003 -3.030005 -15.991056 -0.098665 -0.586933 -0.803601 0.698039 0.603922
  75 -0.440003 -2.800005 -15.951056 -0.650463 -0.300717 -0.697472 0.631373 0.552941
  75 -0.080002 -2.800005 -16.121056 -0.116236 -0.300581 -0.946647 0.698039 0.552941
windleo_m79_grenade.BMP
  75 -0.080002 -1.970005 -16.151056 -0.121726 0.000000 -0.992564 0.698039 0.400000
  75 -0.460003 -0.150005 -15.971055 -0.655312 0.276733 -0.702841 0.631373 0.078431
  75 -0.080003 -0.150005 -16.151054 -0.116961 0.276421 -0.953893 0.698039 0.078431
windleo_m79_grenade.BMP
  75 -0.080003 -0.150005 -16.151054 -0.116961 0.276421 -0.953893 0.698039 0.078431
  75 -0.430003 -0.090005 -15.941055 -0.677333 0.116973 -0.726317 0.631373 0.062745
  75 -0.080003 -0.090005 -16.101054 -0.121204 0.116836 -0.985728 0.698039 0.062745
windleo_m79_grenade.BMP
  75 -0.080002 -2.570005 -16.151056 -0.121464 -0.065767 -0.990415 0.698039 0.505882
  75 -0.460003 -1.970005 -15.971056 -0.681972 0.000000 -0.731378 0.631373 0.400000
  75 -0.080002 -1.970005 -16.151056 -0.121726 0.000000 -0.992564 0.698039 0.400000
janus1_eyes.bmp
  47 0.166064 0.156198 2.711141 0.645860 0.088666 -0.758289 0.015873 0.015873
  48 0.173357 0.216560 2.722848 0.919066 0.176577 -0.352333 0.984127 0.015873
  46 0.190270 0.137784 2.728462 0.837977 0.146825 -0.525583 0.015873 0.984127
janus1_eyes.bmp
  46 0.190270 0.137784 2.728462 0.837977 0.146825 -0.525583 0.015873 0.984127
  48 0.173357 0.216560 2.722848 0.919066 0.176577 -0.352333 0.984127 0.015873
  45 0.188281 0.200270 2.771455 0.962279 0.197486 -0.187131 0.984127 0.984127
janus1_eyes.bmp
  50 -0.148439 0.142777 2.713174 -0.624970 -0.074099 -0.777124 0.015873 0.015873
  49 -0.179740 0.128689 2.738044 -0.745433 -0.056555 -0.664177 0.015873 0.984127
  51 -0.176430 0.226411 2.726192 -0.847045 -0.037071 -0.530226 0.984127 0.015873
janus1_eyes.bmp
  51 -0.176430 0.226411 2.726192 -0.847045 -0.037071 -0.530226 0.984127 0.015873
  49 -0.179740 0.128689 2.738044 -0.745433 -0.056555 -0.664177 0.015873 0.984127
  52 -0.195278 0.197303 2.766847 -0.922535 -0.017124 -0.385534 0.984127 0.984127
janus1_spark.bmp
  54 0.041677 -6.114161 0.888197 0.472969 -0.418500 0.775343 0.190476 0.873016
  55 -0.330180 -6.114161 1.114402 0.326584 -0.686097 0.650087 0.190476 0.063492
  54 0.012926 -6.184161 0.860386 0.327762 -0.684442 0.651238 0.269841 0.873016
janus1_spark.bmp
  54 0.012926 -6.184161 0.860386 0.327762 -0.684442 0.651238 0.269841 0.873016
  55 -0.330180 -6.114161 1.114402 0.326584 -0.686097 0.650087 0.190476 0.063492
  54 -0.037386 -6.224161 0.811718 0.146465 -0.877735 0.456211 0.301587 0.857143
janus1_spark.bmp
  54 0.041677 -6.114161 0.888197 0.466009 0.432306 0.771976 0.190476 0.873016
  54 0.012927 -6.044161 0.860387 0.314050 0.700676 0.640644 0.126984 0.873016
  55 -0.330180 -6.114161 1.114402 0.310752 0.705107 0.637383 0.190476 0.063492
janus1_spark.bmp
  55 -0.330180 -6.114161 1.114402 0.310752 0.705107 0.637383 0.190476 0.063492
  54 0.012927 -6.044161 0.860387 0.314050 0.700676 0.640644 0.126984 0.873016
  54 -0.037386 -6.014161 0.811718 0.124784 0.891762 0.434959 0.111111 0.857143
janus1_spark.bmp
  54 -0.116449 -6.114161 0.735239 -0.790622 -0.418504 -0.446958 0.190476 0.873016
  54 -0.087699 -6.184161 0.763049 -0.661763 -0.684443 -0.305953 0.269841 0.873016
  55 -0.330180 -6.114161 1.114402 -0.660574 -0.686097 -0.304815 0.190476 0.063492
janus1_spark.bmp
  55 -0.330180 -6.114161 1.114402 -0.660574 -0.686097 -0.304815 0.190476 0.063492
  54 -0.087699 -6.184161 0.763049 -0.661763 -0.684443 -0.305953 0.269841 0.873016
  54 -0.037386 -6.224161 0.811718 -0.460826 -0.877734 -0.131236 0.301587 0.857143
janus1_spark.bmp
  54 -0.116449 -6.114161 0.735239 -0.787027 0.432305 -0.440115 0.190476 0.873016
  55 -0.330180 -6.114161 1.114402 -0.647351 0.705109 -0.289411 0.190476 0.063492
  54 -0.087699 -6.044161 0.763049 -0.650720 0.700677 -0.292601 0.126984 0.873016
janus1_spark.bmp
  54 -0.087699 -6.044161 0.763049 -0.650720 0.700677 -0.292601 0.126984 0.873016
  55 -0.330180 -6.114161 1.114402 -0.647351 0.705109 -0.289411 0.190476 0.063492
  54 -0.037386 -6.014161 0.811718 -0.438862 0.891763 -0.110269 0.111111 0.857143
janus1_spark.bmp
  56 0.021792 -6.241556 1.288282 -0.449405 -0.418499 0.789236 0.190476 0.873016
  57 -0.356174 -6.241555 1.072440 -0.410686 -0.686096 0.600508 0.190476 0.063492
  56 0.032206 -6.311556 1.249661 -0.411122 -0.684444 0.602092 0.269841 0.873016
janus1_spark.bmp
  56 0.032206 -6.311556 1.249661 -0.411122 -0.684444 0.602092 0.269841 0.873016
  57 -0.356174 -6.241555 1.072440 -0.410686 -0.686096 0.600508 0.190476 0.063492
  56 0.050429 -6.351556 1.182075 -0.328256 -0.877738 0.349032 0.301587 0.857143
janus1_spark.bmp
  56 0.021792 -6.241556 1.288282 -0.449827 0.432307 0.781515 0.190476 0.873016
  56 0.032206 -6.171556 1.249661 -0.408490 0.700679 0.584966 0.126984 0.873016
  57 -0.356174 -6.241555 1.072440 -0.407234 0.705109 0.580501 0.190476 0.063492
janus1_spark.bmp
  57 -0.356174 -6.241555 1.072440 -0.407234 0.705109 0.580501 0.190476 0.063492
  56 0.032206 -6.171556 1.249661 -0.408490 0.700679 0.584966 0.126984 0.873016
  56 0.050430 -6.141556 1.182075 -0.320157 0.891765 0.319773 0.111111 0.857143
janus1_spark.bmp
  56 0.079067 -6.241556 1.075868 0.008277 -0.418502 -0.908178 0.190476 0.873016
  56 0.068653 -6.311556 1.114489 -0.052710 -0.684445 -0.727157 0.269841 0.873016
  57 -0.356174 -6.241555 1.072440 -0.053129 -0.686097 -0.725568 0.190476 0.063492
janus1_spark.bmp
  57 -0.356174 -6.241555 1.072440 -0.053129 -0.686097 -0.725568 0.190476 0.063492
  56 0.068653 -6.311556 1.114489 -0.052710 -0.684445 -0.727157 0.269841 0.873016
  56 0.050429 -6.351556 1.182075 -0.108295 -0.877738 -0.466742 0.301587 0.857143
janus1_spark.bmp
  56 0.079067 -6.241556 1.075868 0.004030 0.432307 -0.901718 0.190476 0.873016
  57 -0.356174 -6.241555 1.072440 -0.060204 0.705109 -0.706538 0.190476 0.063492
  56 0.068653 -6.171556 1.114489 -0.059045 0.700679 -0.711030 0.126984 0.873016
janus1_spark.bmp
  56 0.068653 -6.171556 1.114489 -0.059045 0.700679 -0.711030 0.126984 0.873016
  57 -0.356174 -6.241555 1.072440 -0.060204 0.705109 -0.706538 0.190476 0.063492
  56 0.050430 -6.141556 1.182075 -0.116003 0.891764 -0.437378 0.111111 0.857143
janus1_spark.bmp
  58 0.082691 -5.387837 0.401435 -0.564099 -0.418499 0.711794 0.190476 0.873016
  59 -0.258095 -5.387836 0.130674 -0.497155 -0.686096 0.531139 0.190476 0.063492
  58 0.098851 -5.457837 0.364845 -0.497828 -0.684441 0.532642 0.269841 0.873016
janus1_spark.bmp
  58 0.098851 -5.457837 0.364845 -0.497828 -0.684441 0.532642 0.269841 0.873016
  59 -0.258095 -5.387836 0.130674 -0.497155 -0.686096 0.531139 0.190476 0.063492
  58 0.127131 -5.497837 0.300812 -0.377479 -0.877734 0.295113 0.301587 0.857143
janus1_spark.bmp
  58 0.082691 -5.387837 0.401435 -0.563343 0.432304 0.704101 0.190476 0.873016
  58 0.098851 -5.317837 0.364845 -0.492624 0.700676 0.516115 0.126984 0.873016
  59 -0.258095 -5.387836 0.130674 -0.490703 0.705108 0.511892 0.190476 0.063492
janus1_spark.bmp
  59 -0.258095 -5.387836 0.130674 -0.490703 0.705108 0.511892 0.190476 0.063492
  58 0.098851 -5.317837 0.364845 -0.492624 0.700676 0.516115 0.126984 0.873016
  58 0.127132 -5.287837 0.300812 -0.365026 0.891763 0.267423 0.111111 0.857143
janus1_spark.bmp
  58 0.171572 -5.387837 0.200189 0.146163 -0.418507 -0.896375 0.190476 0.873016
  58 0.155412 -5.457837 0.236779 0.058382 -0.684443 -0.726725 0.269841 0.873016
  59 -0.258095 -5.387836 0.130674 0.057726 -0.686095 -0.725218 0.190476 0.063492
janus1_spark.bmp
  59 -0.258095 -5.387836 0.130674 0.057726 -0.686095 -0.725218 0.190476 0.063492
  58 0.155412 -5.457837 0.236779 0.058382 -0.684443 -0.726725 0.269841 0.873016
  58 0.127131 -5.497837 0.300812 -0.036121 -0.877732 -0.477788 0.301587 0.857143
janus1_spark.bmp
  58 0.171572 -5.387837 0.200189 0.140985 0.432307 -0.890637 0.190476 0.873016
  59 -0.258095 -5.387836 0.130674 0.047844 0.705108 -0.707484 0.190476 0.063492
  58 0.155412 -5.317837 0.236779 0.049672 0.700677 -0.711747 0.126984 0.873016
janus1_spark.bmp
  58 0.155412 -5.317837 0.236779 0.049672 0.700677 -0.711747 0.126984 0.873016
  59 -0.258095 -5.387836 0.130674 0.047844 0.705108 -0.707484 0.190476 0.063492
  58 0.127132 -5.287837 0.300812 -0.048201 0.891763 -0.449929 0.111111 0.857143
janus1_spark.bmp
  60 0.078672 -5.411590 0.781745 0.073463 -0.418502 0.905240 0.190476 0.873016
  61 -0.355199 -5.411589 0.816413 -0.000897 -0.686096 0.727511 0.190476 0.063492
  60 0.065513 -5.481590 0.743971 -0.000365 -0.684444 0.729065 0.269841 0.873016
janus1_spark.bmp
  60 0.065513 -5.481590 0.743971 -0.000365 -0.684444 0.729065 0.269841 0.873016
  61 -0.355199 -5.411589 0.816413 -0.000897 -0.686096 0.727511 0.190476 0.063492
  60 0.042483 -5.521590 0.677868 -0.074505 -0.877737 0.473315 0.301587 0.857143
janus1_spark.bmp
  60 0.078672 -5.411590 0.781745 0.068765 0.432306 0.899101 0.190476 0.873016
  60 0.065513 -5.341590 0.743971 -0.007838 0.700678 0.713435 0.126984 0.873016
  61 -0.355199 -5.411589 0.816413 -0.009316 0.705108 0.709039 0.190476 0.063492
janus1_spark.bmp
  61 -0.355199 -5.411589 0.816413 -0.009316 0.705108 0.709039 0.190476 0.063492
  60 0.065513 -5.341590 0.743971 -0.007838 0.700678 0.713435 0.126984 0.873016
  60 0.042484 -5.311590 0.677868 -0.084298 0.891764 0.444579 0.111111 0.857143
janus1_spark.bmp
  60 0.006294 -5.411590 0.573991 -0.504912 -0.418506 -0.754928 0.190476 0.873016
  60 0.019454 -5.481590 0.611764 -0.453291 -0.684446 -0.571017 0.269841 0.873016
  61 -0.355199 -5.411589 0.816413 -0.452743 -0.686097 -0.569469 0.190476 0.063492
janus1_spark.bmp
  61 -0.355199 -5.411589 0.816413 -0.452743 -0.686097 -0.569469 0.190476 0.063492
  60 0.019454 -5.481590 0.611764 -0.453291 -0.684446 -0.571017 0.269841 0.873016
  60 0.042483 -5.521590 0.677868 -0.352472 -0.877737 -0.324563 0.301587 0.857143
janus1_spark.bmp
  60 0.006294 -5.411590 0.573991 -0.504780 0.432307 -0.747200 0.190476 0.873016
  61 -0.355199 -5.411589 0.816413 -0.447862 0.705111 -0.549762 0.190476 0.063492
  60 0.019454 -5.341590 0.611765 -0.449436 0.700679 -0.554126 0.126984 0.873016
janus1_spark.bmp
  60 0.019454 -5.341590 0.611765 -0.449436 0.700679 -0.554126 0.126984 0.873016
  61 -0.355199 -5.411589 0.816413 -0.447862 0.705111 -0.549762 0.190476 0.063492
  60 0.042484 -5.311590 0.677868 -0.342289 0.891765 -0.295960 0.111111 0.857143
janus1_spark.bmp
  62 -0.058660 -6.131341 1.008578 -0.839552 -0.418500 0.346425 0.190476 0.873016
  63 -0.224182 -6.131340 0.606025 -0.693027 -0.686093 0.221338 0.190476 0.063492
  62 -0.026711 -6.201341 0.984511 -0.694346 -0.684439 0.222321 0.269841 0.873016
janus1_spark.bmp
  62 -0.026711 -6.201341 0.984511 -0.694346 -0.684439 0.222321 0.269841 0.873016
  63 -0.224182 -6.131340 0.606025 -0.693027 -0.686093 0.221338 0.190476 0.063492
  62 0.029201 -6.241341 0.942393 -0.473464 -0.877731 0.073618 0.301587 0.857143
janus1_spark.bmp
  62 -0.058660 -6.131341 1.008578 -0.835139 0.432310 0.340075 0.190476 0.873016
  62 -0.026711 -6.061341 0.984511 -0.681737 0.700682 0.210426 0.126984 0.873016
  63 -0.224182 -6.131340 0.606025 -0.678003 0.705112 0.207676 0.190476 0.063492
janus1_spark.bmp
  63 -0.224182 -6.131340 0.606025 -0.678003 0.705112 0.207676 0.190476 0.063492
  62 -0.026711 -6.061341 0.984511 -0.681737 0.700682 0.210426 0.126984 0.873016
  62 0.029201 -6.031341 0.942393 -0.449078 0.891767 0.055507 0.111111 0.857143
janus1_spark.bmp
  62 0.117062 -6.131342 0.876208 0.564653 -0.418505 -0.711352 0.190476 0.873016
  62 0.085112 -6.201341 0.900275 0.405298 -0.684441 -0.606031 0.269841 0.873016
  63 -0.224182 -6.131340 0.606025 0.403990 -0.686094 -0.605035 0.190476 0.063492
janus1_spark.bmp
  63 -0.224182 -6.131340 0.606025 0.403990 -0.686094 -0.605035 0.190476 0.063492
  62 0.085112 -6.201341 0.900275 0.405298 -0.684441 -0.606031 0.269841 0.873016
  62 0.029201 -6.241341 0.942393 0.201416 -0.877731 -0.434764 0.301587 0.857143
janus1_spark.bmp
  62 0.117062 -6.131342 0.876208 0.557335 0.432304 -0.708866 0.190476 0.873016
  63 -0.224182 -6.131340 0.606025 0.386713 0.705110 -0.594367 0.190476 0.063492
  62 0.085113 -6.061341 0.900275 0.390387 0.700680 -0.597198 0.126984 0.873016
janus1_spark.bmp
  62 0.085113 -6.061341 0.900275 0.390387 0.700680 -0.597198 0.126984 0.873016
  63 -0.224182 -6.131340 0.606025 0.386713 0.705110 -0.594367 0.190476 0.063492
  62 0.029201 -6.031341 0.942393 0.177278 0.891767 -0.416322 0.111111 0.857143
janus1_spark.bmp
  72 -0.034411 -6.238541 0.752164 0.315141 -0.418509 -0.851784 0.190476 0.873016
  73 0.373612 -6.238542 0.903699 0.307613 -0.686097 -0.659277 0.190476 0.063492
  72 -0.038409 -6.308541 0.791964 0.307786 -0.684444 -0.660912 0.269841 0.873016
janus1_spark.bmp
  72 -0.038409 -6.308541 0.791964 0.307786 -0.684444 -0.660912 0.269841 0.873016
  73 0.373612 -6.238542 0.903699 0.307613 -0.686097 -0.659277 0.190476 0.063492
  72 -0.045405 -6.348541 0.861613 0.267157 -0.877733 -0.397758 0.301587 0.857143
janus1_spark.bmp
  72 -0.034411 -6.238541 0.752164 0.316818 0.432301 -0.844241 0.190476 0.873016
  72 -0.038409 -6.168541 0.791964 0.307979 0.700675 -0.643586 0.126984 0.873016
  73 0.373612 -6.238542 0.903699 0.307465 0.705108 -0.638974 0.190476 0.063492
janus1_spark.bmp
  73 0.373612 -6.238542 0.903699 0.307465 0.705108 -0.638974 0.190476 0.063492
  72 -0.038409 -6.168541 0.791964 0.307979 0.700675 -0.643586 0.126984 0.873016
  72 -0.045404 -6.138541 0.861614 0.263926 0.891763 -0.367561 0.111111 0.857143
janus1_spark.bmp
  72 -0.056397 -6.238541 0.971063 0.139449 -0.418507 0.897444 0.190476 0.873016
  72 -0.052400 -6.308541 0.931263 0.170200 -0.684445 0.708920 0.269841 0.873016
  73 0.373612 -6.238542 0.903699 0.170356 -0.686098 0.707282 0.190476 0.063492
janus1_spark.bmp
  73 0.373612 -6.238542 0.903699 0.170356 -0.686098 0.707282 0.190476 0.063492
  72 -0.052400 -6.308541 0.931263 0.170200 -0.684445 0.708920 0.269841 0.873016
  72 -0.045405 -6.348541 0.861613 0.182717 -0.877735 0.442940 0.301587 0.857143
janus1_spark.bmp
  72 -0.056397 -6.238541 0.971063 0.142592 0.432308 0.890381 0.190476 0.873016
  73 0.373612 -6.238542 0.903699 0.174247 0.705107 0.687359 0.190476 0.063492
  72 -0.052400 -6.168541 0.931263 0.173833 0.700677 0.691978 0.126984 0.873016
janus1_spark.bmp
  72 -0.052400 -6.168541 0.931263 0.173833 0.700677 0.691978 0.126984 0.873016
  73 0.373612 -6.238542 0.903699 0.174247 0.705107 0.687359 0.190476 0.063492
  72 -0.045404 -6.138541 0.861614 0.185555 0.891761 0.412712 0.111111 0.857143
janus1_spark.bmp
  64 -0.160454 -5.368951 0.300210 -0.239965 -0.418508 -0.875938 0.190476 0.873016
  65 0.259475 -5.368952 0.185729 -0.133956 -0.686096 -0.715072 0.190476 0.063492
  64 -0.140521 -5.438951 0.334890 -0.134768 -0.684443 -0.716502 0.269841 0.873016
janus1_spark.bmp
  64 -0.140521 -5.438951 0.334890 -0.134768 -0.684443 -0.716502 0.269841 0.873016
  65 0.259475 -5.368952 0.185729 -0.133956 -0.686096 -0.715072 0.190476 0.063492
  64 -0.105640 -5.478951 0.395580 -0.014516 -0.877733 -0.478931 0.301587 0.857143
janus1_spark.bmp
  64 -0.160454 -5.368951 0.300210 -0.234209 0.432307 -0.870779 0.190476 0.873016
  64 -0.140521 -5.298951 0.334890 -0.124522 0.700678 -0.702527 0.126984 0.873016
  65 0.259475 -5.368952 0.185729 -0.122254 0.705110 -0.698480 0.190476 0.063492
janus1_spark.bmp
  65 0.259475 -5.368952 0.185729 -0.122254 0.705110 -0.698480 0.190476 0.063492
  64 -0.140521 -5.298951 0.334890 -0.124522 0.700678 -0.702527 0.126984 0.873016
  64 -0.105639 -5.268951 0.395580 0.000442 0.891764 -0.452501 0.111111 0.857143
janus1_spark.bmp
  64 -0.050825 -5.368952 0.490950 0.636079 -0.418507 0.648271 0.190476 0.873016
  64 -0.070758 -5.438952 0.456270 0.551268 -0.684444 0.477116 0.269841 0.873016
  65 0.259475 -5.368952 0.185729 0.550440 -0.686098 0.475694 0.190476 0.063492
janus1_spark.bmp
  65 0.259475 -5.368952 0.185729 0.550440 -0.686098 0.475694 0.190476 0.063492
  64 -0.070758 -5.438952 0.456270 0.551268 -0.684444 0.477116 0.269841 0.873016
  64 -0.105640 -5.478951 0.395580 0.406520 -0.877735 0.253621 0.301587 0.857143
janus1_spark.bmp
  64 -0.050825 -5.368952 0.490950 0.634518 0.432308 0.640700 0.190476 0.873016
  65 0.259475 -5.368952 0.185729 0.541997 0.705106 0.457236 0.190476 0.063492
  64 -0.070758 -5.298952 0.456270 0.544351 0.700677 0.461230 0.126984 0.873016
janus1_spark.bmp
  64 -0.070758 -5.298952 0.456270 0.544351 0.700677 0.461230 0.126984 0.873016
  65 0.259475 -5.368952 0.185729 0.541997 0.705106 0.457236 0.190476 0.063492
  64 -0.105639 -5.268951 0.395580 0.391217 0.891761 0.227400 0.111111 0.857143
janus1_spark.bmp
  66 -0.130276 -6.091582 0.806419 -0.495326 -0.418509 -0.761251 0.190476 0.873016
  67 0.234842 -6.091582 0.569490 -0.345363 -0.686095 -0.640311 0.190476 0.063492
  66 -0.100729 -6.161582 0.833382 -0.346572 -0.684443 -0.641425 0.269841 0.873016
janus1_spark.bmp
  66 -0.100729 -6.161582 0.833382 -0.346572 -0.684443 -0.641425 0.269841 0.873016
  67 0.234842 -6.091582 0.569490 -0.345363 -0.686095 -0.640311 0.190476 0.063492
  66 -0.049021 -6.201582 0.880566 -0.159682 -0.877732 -0.451761 0.301587 0.857143
janus1_spark.bmp
  66 -0.130276 -6.091582 0.806419 -0.488273 0.432303 -0.758092 0.190476 0.873016
  66 -0.100728 -6.021582 0.833382 -0.332553 0.700679 -0.631234 0.126984 0.873016
  67 0.234842 -6.091582 0.569490 -0.329160 0.705111 -0.628070 0.190476 0.063492
janus1_spark.bmp
  67 0.234842 -6.091582 0.569490 -0.329160 0.705111 -0.628070 0.190476 0.063492
  66 -0.100728 -6.021582 0.833382 -0.332553 0.700679 -0.631234 0.126984 0.873016
  66 -0.049021 -5.991582 0.880566 -0.137378 0.891767 -0.431137 0.111111 0.857143
janus1_spark.bmp
  66 0.032233 -6.091582 0.954712 0.803292 -0.418502 0.423766 0.190476 0.873016
  66 0.002686 -6.161582 0.927750 0.670385 -0.684443 0.286570 0.269841 0.873016
  67 0.234842 -6.091582 0.569490 0.669164 -0.686096 0.285467 0.190476 0.063492
janus1_spark.bmp
  67 0.234842 -6.091582 0.569490 0.669164 -0.686096 0.285467 0.190476 0.063492
  66 0.002686 -6.161582 0.927750 0.670385 -0.684443 0.286570 0.269841 0.873016
  66 -0.049021 -6.201582 0.880566 0.464448 -0.877734 0.117772 0.301587 0.857143
janus1_spark.bmp
  66 0.032233 -6.091582 0.954712 0.799499 0.432306 0.417029 0.190476 0.873016
  67 0.234842 -6.091582 0.569490 0.655498 0.705108 0.270454 0.190476 0.063492
  66 0.002687 -6.021582 0.927750 0.658957 0.700679 0.273542 0.126984 0.873016
janus1_spark.bmp
  66 0.002687 -6.021582 0.927750 0.658957 0.700679 0.273542 0.126984 0.873016
  67 0.234842 -6.091582 0.569490 0.655498 0.705108 0.270454 0.190476 0.063492
  66 -0.049021 -5.991582 0.880566 0.441883 0.891764 0.097451 0.111111 0.857143
janus1_spark.bmp
  68 -0.060125 -5.367956 1.073505 -0.007419 -0.418504 -0.908185 0.190476 0.873016
  69 0.375119 -5.367957 1.070490 0.053813 -0.686096 -0.725518 0.190476 0.063492
  68 -0.049749 -5.437956 1.112135 0.053396 -0.684444 -0.727108 0.269841 0.873016
janus1_spark.bmp
  68 -0.049749 -5.437956 1.112135 0.053396 -0.684444 -0.727108 0.269841 0.873016
  69 0.375119 -5.367957 1.070490 0.053813 -0.686096 -0.725518 0.190476 0.063492
  68 -0.031589 -5.477957 1.179739 0.108734 -0.877735 -0.466645 0.301587 0.857143
janus1_spark.bmp
  68 -0.060125 -5.367956 1.073505 -0.003176 0.432308 -0.901720 0.190476 0.873016
  68 -0.049748 -5.297956 1.112136 0.059719 0.700680 -0.710972 0.126984 0.873016
  69 0.375119 -5.367957 1.070490 0.060873 0.705110 -0.706481 0.190476 0.063492
janus1_spark.bmp
  69 0.375119 -5.367957 1.070490 0.060873 0.705110 -0.706481 0.190476 0.063492
  68 -0.049748 -5.297956 1.112136 0.059719 0.700680 -0.710972 0.126984 0.873016
  68 -0.031589 -5.267957 1.179739 0.116419 0.891765 -0.437267 0.111111 0.857143
janus1_spark.bmp
  68 -0.003052 -5.367957 1.285973 0.448657 -0.418501 0.789660 0.190476 0.873016
  68 -0.013429 -5.437957 1.247342 0.410551 -0.684444 0.602482 0.269841 0.873016
  69 0.375119 -5.367957 1.070490 0.410116 -0.686096 0.600897 0.190476 0.063492
janus1_spark.bmp
  69 0.375119 -5.367957 1.070490 0.410116 -0.686096 0.600897 0.190476 0.063492
  68 -0.013429 -5.437957 1.247342 0.410551 -0.684444 0.602482 0.269841 0.873016
  68 -0.031589 -5.477957 1.179739 0.327926 -0.877736 0.349347 0.301587 0.857143
janus1_spark.bmp
  68 -0.003052 -5.367957 1.285973 0.449089 0.432307 0.781940 0.190476 0.873016
  69 0.375119 -5.367957 1.070490 0.406686 0.705108 0.580887 0.190476 0.063492
  68 -0.013429 -5.297957 1.247342 0.407938 0.700678 0.585352 0.126984 0.873016
janus1_spark.bmp
  68 -0.013429 -5.297957 1.247342 0.407938 0.700678 0.585352 0.126984 0.873016
  69 0.375119 -5.367957 1.070490 0.406686 0.705108 0.580887 0.190476 0.063492
  68 -0.031589 -5.267957 1.179739 0.319858 0.891763 0.320078 0.111111 0.857143
janus1_spark.bmp
  70 0.189497 -6.198484 0.765937 0.790851 -0.418504 -0.446553 0.190476 0.873016
  71 0.403034 -6.198486 1.145210 0.660733 -0.686094 -0.304478 0.190476 0.063492
  70 0.160732 -6.268484 0.793733 0.661920 -0.684443 -0.305613 0.269841 0.873016
janus1_spark.bmp
  70 0.160732 -6.268484 0.793733 0.661920 -0.684443 -0.305613 0.269841 0.873016
  71 0.403034 -6.198486 1.145210 0.660733 -0.686094 -0.304478 0.190476 0.063492
  70 0.110395 -6.308484 0.842376 0.460894 -0.877734 -0.130998 0.301587 0.857143
janus1_spark.bmp
  70 0.189497 -6.198484 0.765937 0.787253 0.432302 -0.439713 0.190476 0.873016
  70 0.160732 -6.128484 0.793733 0.650869 0.700677 -0.292268 0.126984 0.873016
  71 0.403034 -6.198486 1.145210 0.647499 0.705109 -0.289080 0.190476 0.063492
janus1_spark.bmp
  71 0.403034 -6.198486 1.145210 0.647499 0.705109 -0.289080 0.190476 0.063492
  70 0.160732 -6.128484 0.793733 0.650869 0.700677 -0.292268 0.126984 0.873016
  70 0.110395 -6.098484 0.842376 0.438915 0.891765 -0.110043 0.111111 0.857143
janus1_spark.bmp
  70 0.031293 -6.198484 0.918815 -0.473366 -0.418501 0.775101 0.190476 0.873016
  70 0.060057 -6.268484 0.891019 -0.328094 -0.684442 0.651071 0.269841 0.873016
  71 0.403034 -6.198486 1.145210 -0.326917 -0.686095 0.649922 0.190476 0.063492
janus1_spark.bmp
  71 0.403034 -6.198486 1.145210 -0.326917 -0.686095 0.649922 0.190476 0.063492
  70 0.060057 -6.268484 0.891019 -0.328094 -0.684442 0.651071 0.269841 0.873016
  70 0.110395 -6.308484 0.842376 -0.146699 -0.877734 0.456139 0.301587 0.857143
janus1_spark.bmp
  70 0.031293 -6.198484 0.918815 -0.466403 0.432311 0.771735 0.190476 0.873016
  71 0.403034 -6.198486 1.145210 -0.311077 0.705110 0.637222 0.190476 0.063492
  70 0.060057 -6.128484 0.891019 -0.314377 0.700679 0.640481 0.126984 0.873016
janus1_spark.bmp
  70 0.060057 -6.128484 0.891019 -0.314377 0.700679 0.640481 0.126984 0.873016
  71 0.403034 -6.198486 1.145210 -0.311077 0.705110 0.637222 0.190476 0.063492
  70 0.110395 -6.098484 0.842376 -0.125006 0.891763 0.434892 0.111111 0.857143
end
