// Created by Crowbar 0.34.0.0

$ModelName "weapons/tfa_cso/w_xm1014red.mdl"

$BodyGroup "studio"
{
	studio "v_xm1014red_v_ref"
}

$collisionmodel "v_xm1014red_v_ref.smd"
{
	$mass 9
}

$CDMaterials "models\weapons\tfa_cso\xm1014_red"

$attachment "0" "root" 0.00 -13.70 0.20 rotate -0 0 0

$Sequence "idle" {
	"anims\idle.smd"
	fps 30
}