// Created by Crowbar 0.49.0.0

$modelname "weapons/tfa_cso/c_skull11.mdl"

$Include "csonline_gmod.qci"

$bodygroup "weapon"
{
	studio "v_skull11_v_skull"
}

$CDMaterials "models\weapons\tfa_cso\skull11"

$attachment 0 "Bone02" 23 0 0
//$attachment 1 "Bone02" 5.2 0 0.3

$definebone "root" "" -1.000000 1.629157 0.541027 0.000000 0.000000 0.000000 0.000000 0.000000 0.000000 -0.000000 0.000000 0.000000
$definebone "Bone01" "root" 9.213061 3.032097 -9.113669 -87.597498 177.381763 171.407697 0.000000 0.000000 0.000000 -0.000000 0.000000 -0.000002
$definebone "Bone_Lefthand" "Bone01" -0.071918 -8.498730 -0.104136 16.231550 3.070194 8.658137 0.000000 0.000000 0.000000 -0.000000 0.000000 0.000000
$definebone "Dummy02" "Bone_Lefthand" 2.895287 -1.754041 1.313273 2.986944 -89.882237 14.116305 0.000000 0.000000 0.000000 0.000000 -0.000000 -0.000001
$definebone "Bone02" "Dummy02" 0.000002 0.000000 0.000000 0.000000 -0.000057 -0.000001 0.000000 -0.000000 0.000000 0.000000 -0.000000 -0.000001
$definebone "Dummy01" "Bone02" 6.494405 -3.211588 0.000000 -0.000001 -86.015176 -0.000058 0.000000 0.000001 0.000000 -0.000001 -0.000000 -0.000000
$definebone "Bone08" "Dummy01" -0.000002 0.000003 0.000000 -0.000001 -0.000000 -0.000000 0.000000 0.000000 0.000000 -0.000001 -0.000000 -0.000000
$definebone "Bone03" "Dummy01" 11.096338 -0.772984 0.000007 -0.000001 -0.000000 0.000114 -0.000002 0.000000 0.000000 -0.000001 -0.000000 -0.000000
$definebone "Bone24" "Bone02" 5.464947 0.934905 0.501474 -0.000001 -89.999983 -89.999983 0.000000 0.000000 0.000000 -0.000000 -0.000001 0.000000
$definebone "Bone16" "Bone02" 14.981815 0.785508 0.038393 -89.999983 -90.000038 0.000000 0.000000 0.000000 0.000000 0.000001 -0.000000 -0.000000
$definebone "Bone26" "Bone02" 2.962811 -1.683645 0.000000 -0.000001 -89.999983 -0.000000 0.000000 0.000000 0.000000 -0.000001 0.000000 -0.000000

$sequence "usas_idle" {
	"v_skull11_anims\usas_idle"
	fps 30
	loop
	activity "ACT_VM_IDLE" 1
	snap
}
$sequence "usas_shoot1" {
	"v_skull11_anims\usas_shoot1"
	{ event 5001 1 "31" }
	fps 30
	activity "ACT_VM_PRIMARYATTACK" 1
	snap
}
$sequence "usas_shoot2" {
	"v_skull11_anims\usas_shoot2"
	{ event 5001 1 "33" }
	fps 30
	activity "ACT_VM_SECONDARYATTACK" 1
	snap
}
$sequence "usas_reload" {
	"v_skull11_anims\usas_reload"
	{ event 5004 34 "Skull11.ClipOut" }
	{ event 5004 56 "Skull11.ClipIn" }
	{ event 5004 80 "Skull11.BoltPull" }
	fps 30
	activity "ACT_VM_RELOAD" 1
	snap
}
$sequence "usas_draw" {
	"v_skull11_anims\usas_draw"
	{ event 5004 15 "Skull11.BoltPull" }
	fps 30
	activity "ACT_VM_DRAW" 1
	snap
}
