version 1
nodes
  0 "Bone01" -1
  1 "Bone_Lefthand" 0
  2 "Bone02" 1
  3 "Bone03" 2
  4 "Bone25" 3
  5 "Bone52" 3
  6 "Bone50" 3
  7 "Bone48" 3
  8 "Bone54" 3
  9 "Bone 04" 1
  10 "Bone13" 9
  11 "Bone14" 10
  12 "Bone15" 11
  13 "Bone17" 9
  14 "Bone18" 13
  15 "Bone19" 14
  16 "Bone21" 9
  17 "Bone22" 16
  18 "Bone23" 17
  19 "Bone05" 9
  20 "Bone06" 19
  21 "Bone07" 20
  22 "Bone09" 9
  23 "Bone10" 22
  24 "Bone11" 23
  25 "Bone04" -1
  26 "Bone_Righthand" 25
  27 "Bone26" 26
  28 "Bone35" 27
  29 "Bone36" 28
  30 "Bone37" 29
  31 "Bone31" 27
  32 "Bone32" 31
  33 "Bone33" 32
  34 "Bone39" 27
  35 "Bone40" 34
  36 "Bone41" 35
  37 "Bone43" 27
  38 "Bone44" 37
  39 "Bone45" 38
  40 "Bone27" 27
  41 "Bone28" 40
  42 "Bone29" 41
end
skeleton
  time 0
    0 5.184602 -1.510268 -14.502845 -1.445436 -0.396637 0.611688
    1 -0.000001 -8.563283 0.000000 0.365558 0.575738 -0.160685
    2 -0.293234 -3.282020 0.672796 -1.247037 1.437608 -1.233844
    3 -0.000002 2.163130 0.753818 0.000000 0.000000 0.000000
    4 0.000002 -3.052707 1.526597 0.000000 0.000000 0.000000
    5 0.000003 -10.293062 1.701879 0.000000 0.000000 0.000000
    6 0.000000 -4.967293 1.445704 0.000000 0.000000 0.000000
    7 0.000000 -5.102123 2.443444 0.000000 0.000000 0.000000
    8 -8.167455 5.953095 -7.839671 0.000000 0.000000 0.000000
    9 -0.003480 -0.404829 0.000000 0.000000 0.000000 0.000000
    10 -0.519310 -2.501155 -0.278957 -1.375314 0.000000 -0.122173
    11 -0.010598 -1.208185 0.000000 -0.907575 0.000000 0.000000
    12 0.000000 -0.763066 0.000000 -1.144947 0.000000 0.000000
    13 0.105980 -2.607134 -0.278957 -0.869181 0.000000 -0.148353
    14 -0.000001 -1.250579 0.000000 -1.385786 0.000000 0.000000
    15 0.000000 -0.932634 0.000000 -0.902353 0.000000 0.000000
    16 0.763064 -2.490556 -0.278957 -0.340544 0.078175 0.347833
    17 -0.012322 -1.280917 0.000000 -0.553262 0.000000 0.000000
    18 -0.001697 -0.749371 0.000000 -0.593412 0.000000 0.000000
    19 0.354567 0.016267 0.318132 0.386384 -0.406183 -1.191370
    20 1.887164 0.012878 0.000000 -0.304306 0.026726 -0.316515
    21 1.001874 -0.000270 0.000000 0.000000 0.000000 -0.886628
    22 -1.123360 -2.195093 -0.278957 -1.206017 0.000000 -0.087266
    23 0.010772 -0.963791 0.000000 -0.778410 0.000000 0.000000
    24 -0.010412 -0.631916 -0.000001 -1.003573 0.000000 0.000000
    25 -10.808434 11.057217 -16.409001 0.688727 -2.960252 -5.583372
    26 0.089929 -8.543160 0.000000 0.656900 0.106853 0.643457
    27 0.000000 -0.359712 0.000000 0.000000 0.000000 0.000000
    28 -0.170480 -2.636147 -0.277655 -1.080323 0.000000 0.000000
    29 0.010599 -1.261177 0.000001 -0.270235 0.000000 0.000000
    30 -0.000001 -0.943233 -0.000001 -0.570869 0.000000 0.000000
    31 -0.827563 -2.508973 -0.277656 -0.799356 0.000000 -0.000036
    32 0.000000 -1.292972 0.000001 -0.413627 0.000000 0.000000
    33 0.000000 -0.752466 0.000000 -0.721973 0.000000 0.000000
    34 0.444213 -2.561959 -0.277655 -1.823191 -0.046226 -0.024599
    35 0.021022 -1.208185 -0.000001 -0.239112 0.000000 0.000000
    36 0.010597 -0.741867 -0.000001 -0.572278 0.000000 0.000000
    37 1.047445 -2.222821 -0.277655 -1.605131 -0.078971 -0.038609
    38 0.000000 -0.996222 0.000000 -0.863938 0.000000 0.000000
    39 -0.000001 -0.614690 0.000000 -0.523599 0.000000 0.000000
    40 -0.308254 -0.007814 0.307166 0.258505 -0.091973 -2.472810
    41 1.978379 0.019544 0.000000 -0.103836 0.013256 0.676442
    42 0.982426 0.003186 0.000000 0.000000 0.000000 -0.773097
  time 1
    0 5.184602 -1.510268 -14.502845 -1.448677 -0.390593 0.609592
    1 -0.000001 -8.563283 0.000000 0.366244 0.597564 -0.160244
    2 -0.293234 -3.282020 0.672796 -1.247037 1.437608 -1.233844
    3 -0.000002 2.163130 0.753818 0.000000 0.000000 0.000000
    4 0.000002 -3.052707 1.526597 0.000000 0.000000 0.000000
    5 0.000003 -10.293062 1.701879 0.000000 0.000000 0.000000
    6 0.000000 -4.967293 1.445704 0.000000 0.000000 0.000000
    7 0.000000 -5.102123 2.443444 0.000000 0.000000 0.000000
    8 -7.366650 4.874937 -7.120900 -0.107853 0.015820 0.070074
    9 -0.003480 -0.404829 0.000000 0.000000 0.000000 0.000000
    10 -0.519310 -2.501155 -0.278957 -1.375314 0.000000 -0.122173
    11 -0.010598 -1.208185 0.000000 -0.907575 0.000000 0.000000
    12 0.000000 -0.763066 0.000000 -1.144947 0.000000 0.000000
    13 0.105980 -2.607134 -0.278957 -0.869181 0.000000 -0.148353
    14 -0.000001 -1.250579 0.000000 -1.385786 0.000000 0.000000
    15 0.000000 -0.932634 0.000000 -0.902353 0.000000 0.000000
    16 0.763064 -2.490556 -0.278957 -0.340544 0.078175 0.347833
    17 -0.012322 -1.280917 0.000000 -0.553262 0.000000 0.000000
    18 -0.001697 -0.749371 0.000000 -0.593412 0.000000 0.000000
    19 0.354567 0.016267 0.318132 0.386384 -0.406183 -1.191370
    20 1.887164 0.012878 0.000000 -0.304306 0.026726 -0.316515
    21 1.001874 -0.000270 0.000000 0.000000 0.000000 -0.886628
    22 -1.123360 -2.195093 -0.278957 -1.206017 0.000000 -0.087266
    23 0.010772 -0.963791 0.000000 -0.778410 0.000000 0.000000
    24 -0.010412 -0.631916 -0.000001 -1.003573 0.000000 0.000000
    25 -10.452954 9.924370 -15.514443 0.732637 -2.872306 -5.627327
    26 0.089929 -8.543160 0.000000 0.558357 0.167053 0.599401
    27 0.000000 -0.359712 0.000000 0.000000 0.000000 0.000000
    28 -0.170480 -2.636147 -0.277655 -1.064905 0.000000 0.000000
    29 0.010599 -1.261177 0.000001 -0.271098 0.000000 0.000000
    30 -0.000001 -0.943233 -0.000001 -0.571192 0.000000 0.000000
    31 -0.827563 -2.508973 -0.277656 -0.788383 0.000155 0.000216
    32 0.000000 -1.292972 0.000001 -0.411861 0.000000 0.000000
    33 0.000000 -0.752466 0.000000 -0.725340 0.000000 0.000000
    34 0.444213 -2.561959 -0.277655 -1.827990 -0.046226 -0.024599
    35 0.021022 -1.208185 -0.000001 -0.239112 0.000000 0.000000
    36 0.010597 -0.741867 -0.000001 -0.571882 0.000000 0.000000
    37 1.047445 -2.222821 -0.277655 -1.610023 -0.078971 -0.038609
    38 0.000000 -0.996222 0.000000 -0.863938 0.000000 0.000000
    39 -0.000001 -0.614690 0.000000 -0.523599 0.000000 0.000000
    40 -0.308254 -0.007814 0.307166 0.270238 -0.086137 -2.469826
    41 1.978379 0.019544 0.000000 -0.103669 0.014766 0.690999
    42 0.982426 0.003186 0.000000 0.000000 0.000000 -0.812480
  time 2
    0 5.184602 -1.510268 -14.502845 -1.450770 -0.386500 0.608271
    1 -0.000001 -8.563283 0.000000 0.366568 0.611969 -0.160286
    2 -0.293234 -3.282020 0.672796 -1.247037 1.437608 -1.233844
    3 -0.000002 2.163130 0.753818 0.000000 0.000000 0.000000
    4 0.000002 -3.052707 1.526597 0.000000 0.000000 0.000000
    5 0.000003 -10.293062 1.701879 0.000000 0.000000 0.000000
    6 0.000000 -4.967293 1.445704 0.000000 0.000000 0.000000
    7 0.000000 -5.102123 2.443444 0.000000 0.000000 0.000000
    8 -5.472061 2.273295 -5.402097 -0.227097 0.043900 0.148597
    9 -0.003480 -0.404829 0.000000 0.000000 0.000000 0.000000
    10 -0.519310 -2.501155 -0.278957 -1.375314 0.000000 -0.122173
    11 -0.010598 -1.208185 0.000000 -0.907575 0.000000 0.000000
    12 0.000000 -0.763066 0.000000 -1.144947 0.000000 0.000000
    13 0.105980 -2.607134 -0.278957 -0.869181 0.000000 -0.148353
    14 -0.000001 -1.250579 0.000000 -1.385786 0.000000 0.000000
    15 0.000000 -0.932634 0.000000 -0.902353 0.000000 0.000000
    16 0.763064 -2.490556 -0.278957 -0.340544 0.078175 0.347833
    17 -0.012322 -1.280917 0.000000 -0.553262 0.000000 0.000000
    18 -0.001697 -0.749371 0.000000 -0.593412 0.000000 0.000000
    19 0.354567 0.016267 0.318132 0.386384 -0.406183 -1.191370
    20 1.887164 0.012878 0.000000 -0.304306 0.026726 -0.316515
    21 1.001874 -0.000270 0.000000 0.000000 0.000000 -0.886628
    22 -1.123360 -2.195093 -0.278957 -1.206017 0.000000 -0.087266
    23 0.010772 -0.963791 0.000000 -0.778410 0.000000 0.000000
    24 -0.010412 -0.631916 -0.000001 -1.003573 0.000000 0.000000
    25 -9.585740 6.338323 -13.748764 -5.493502 -2.843819 -5.606432
    26 0.089929 -8.543160 0.000000 0.356946 0.241221 0.472101
    27 0.000000 -0.359712 0.000000 0.000000 0.000000 0.000000
    28 -0.170480 -2.636147 -0.277655 -1.057882 0.000000 0.000000
    29 0.010599 -1.261177 0.000001 -0.271721 0.000000 0.000000
    30 -0.000001 -0.943233 -0.000001 -0.571492 0.000000 0.000000
    31 -0.827563 -2.508973 -0.277656 -0.782570 0.000671 0.000779
    32 0.000000 -1.292972 0.000001 -0.414691 0.000000 0.000000
    33 0.000000 -0.752466 0.000000 -0.727809 0.000000 0.000000
    34 0.444213 -2.561959 -0.277655 -1.831498 -0.046226 -0.024599
    35 0.021022 -1.208185 -0.000001 -0.239112 0.000000 0.000000
    36 0.010597 -0.741867 -0.000001 -0.571643 0.000000 0.000000
    37 1.047445 -2.222821 -0.277655 -1.613618 -0.078971 -0.038609
    38 0.000000 -0.996222 0.000000 -0.863938 0.000000 0.000000
    39 -0.000001 -0.614690 0.000000 -0.523599 0.000000 0.000000
    40 -0.308254 -0.007814 0.307166 0.278184 -0.082302 -2.467285
    41 1.978379 0.019544 0.000000 -0.103525 0.015749 0.700490
    42 0.982426 0.003186 0.000000 0.000000 0.000000 -0.847609
  time 3
    0 5.184602 -1.510268 -14.502845 -1.451918 -0.384307 0.607417
    1 -0.000001 -8.563283 0.000000 0.366490 0.619873 -0.160685
    2 -0.293234 -3.282020 0.672796 -1.247037 1.437608 -1.233844
    3 -0.000002 2.163130 0.753818 0.000000 0.000000 0.000000
    4 0.000002 -3.052707 1.526597 0.000000 0.000000 0.000000
    5 0.000003 -10.293062 1.701879 0.000000 0.000000 0.000000
    6 0.000000 -4.967293 1.445704 0.000000 0.000000 0.000000
    7 0.000000 -5.102123 2.443444 0.000000 0.000000 0.000000
    8 -3.206366 -0.828362 -3.359066 -0.349284 0.081735 0.224975
    9 -0.003480 -0.404829 0.000000 0.000000 0.000000 0.000000
    10 -0.519310 -2.501155 -0.278957 -1.375314 0.000000 -0.122173
    11 -0.010598 -1.208185 0.000000 -0.907575 0.000000 0.000000
    12 0.000000 -0.763066 0.000000 -1.144947 0.000000 0.000000
    13 0.105980 -2.607134 -0.278957 -0.869181 0.000000 -0.148353
    14 -0.000001 -1.250579 0.000000 -1.385786 0.000000 0.000000
    15 0.000000 -0.932634 0.000000 -0.902353 0.000000 0.000000
    16 0.763064 -2.490556 -0.278957 -0.340544 0.078175 0.347833
    17 -0.012322 -1.280917 0.000000 -0.553262 0.000000 0.000000
    18 -0.001697 -0.749371 0.000000 -0.593412 0.000000 0.000000
    19 0.354567 0.016267 0.318132 0.386384 -0.406183 -1.191370
    20 1.887164 0.012878 0.000000 -0.304306 0.026726 -0.316515
    21 1.001874 -0.000270 0.000000 0.000000 0.000000 -0.886628
    22 -1.123360 -2.195093 -0.278957 -1.206017 0.000000 -0.087266
    23 0.010772 -0.963791 0.000000 -0.778410 0.000000 0.000000
    24 -0.010412 -0.631916 -0.000001 -1.003573 0.000000 0.000000
    25 -8.667743 2.002253 -11.764328 -5.433677 -2.845922 -5.546946
    26 0.089929 -8.543160 0.000000 0.094792 0.284853 0.289635
    27 0.000000 -0.359712 0.000000 0.000000 0.000000 0.000000
    28 -0.170480 -2.636147 -0.277655 -1.057674 0.000000 0.000000
    29 0.010599 -1.261177 0.000001 -0.272056 0.000000 0.000000
    30 -0.000001 -0.943233 -0.000001 -0.571624 0.000000 0.000000
    31 -0.827563 -2.508973 -0.277656 -0.780970 0.001366 0.001642
    32 0.000000 -1.292972 0.000001 -0.421015 0.000000 0.000000
    33 0.000000 -0.752466 0.000000 -0.729211 0.000000 0.000000
    34 0.444213 -2.561959 -0.277655 -1.833434 -0.046226 -0.024599
    35 0.021022 -1.208185 -0.000001 -0.239112 0.000000 0.000000
    36 0.010597 -0.741867 -0.000001 -0.571511 0.000000 0.000000
    37 1.047445 -2.222821 -0.277655 -1.615617 -0.078971 -0.038609
    38 0.000000 -0.996222 0.000000 -0.863938 0.000000 0.000000
    39 -0.000001 -0.614690 0.000000 -0.523599 0.000000 0.000000
    40 -0.308254 -0.007814 0.307166 0.282858 -0.080144 -2.465284
    41 1.978379 0.019544 0.000000 -0.103441 0.016288 0.705672
    42 0.982426 0.003186 0.000000 0.000000 0.000000 -0.877778
  time 4
    0 5.184602 -1.510268 -14.502845 -1.452256 -0.383722 0.607184
    1 -0.000001 -8.563283 0.000000 0.366179 0.622421 -0.161315
    2 -0.293234 -3.282020 0.672796 -1.247037 1.437608 -1.233844
    3 -0.000002 2.163130 0.753818 0.000000 0.000000 0.000000
    4 0.000002 -3.052707 1.526597 0.000000 0.000000 0.000000
    5 0.000003 -10.293062 1.701879 0.000000 0.000000 0.000000
    6 0.000000 -4.967293 1.445704 0.000000 0.000000 0.000000
    7 0.000000 -5.102123 2.443444 0.000000 0.000000 0.000000
    8 -1.303965 -3.430004 -1.648076 -0.467133 0.123405 0.290039
    9 -0.003480 -0.404829 0.000000 0.000000 0.000000 0.000000
    10 -0.519310 -2.501155 -0.278957 -1.375314 0.000000 -0.122173
    11 -0.010598 -1.208185 0.000000 -0.907575 0.000000 0.000000
    12 0.000000 -0.763066 0.000000 -1.144947 0.000000 0.000000
    13 0.105980 -2.607134 -0.278957 -0.869181 0.000000 -0.148353
    14 -0.000001 -1.250579 0.000000 -1.385786 0.000000 0.000000
    15 0.000000 -0.932634 0.000000 -0.902353 0.000000 0.000000
    16 0.763064 -2.490556 -0.278957 -0.340544 0.078175 0.347833
    17 -0.012322 -1.280917 0.000000 -0.553262 0.000000 0.000000
    18 -0.001697 -0.749371 0.000000 -0.593412 0.000000 0.000000
    19 0.354567 0.016267 0.318132 0.386384 -0.406183 -1.191370
    20 1.887164 0.012878 0.000000 -0.304306 0.026726 -0.316515
    21 1.001874 -0.000270 0.000000 0.000000 0.000000 -0.886628
    22 -1.123360 -2.195093 -0.278957 -1.206017 0.000000 -0.087266
    23 0.010772 -0.963791 0.000000 -0.778410 0.000000 0.000000
    24 -0.010412 -0.631916 -0.000001 -1.003573 0.000000 0.000000
    25 -8.109133 -1.743955 -10.197874 -5.377303 -2.852805 -5.478424
    26 0.089929 -8.543160 0.000000 -0.167920 0.277846 0.102906
    27 0.000000 -0.359712 0.000000 0.000000 0.000000 0.000000
    28 -0.170480 -2.636147 -0.277655 -1.062682 0.000000 0.000000
    29 0.010599 -1.261177 0.000001 -0.272116 0.000000 0.000000
    30 -0.000001 -0.943233 -0.000001 -0.571648 0.000000 0.000000
    31 -0.827563 -2.508973 -0.277656 -0.782756 0.002193 0.002685
    32 0.000000 -1.292972 0.000001 -0.429580 0.000000 0.000000
    33 0.000000 -0.752466 0.000000 -0.729451 0.000000 0.000000
    34 0.444213 -2.561959 -0.277655 -1.833827 -0.046226 -0.024599
    35 0.021022 -1.208185 -0.000001 -0.239112 0.000000 0.000000
    36 0.010597 -0.741867 -0.000001 -0.571487 0.000000 0.000000
    37 1.047445 -2.222821 -0.277655 -1.615936 -0.078971 -0.038609
    38 0.000000 -0.996222 0.000000 -0.863938 0.000000 0.000000
    39 -0.000001 -0.614690 0.000000 -0.523599 0.000000 0.000000
    40 -0.308254 -0.007814 0.307166 0.284703 -0.079449 -2.463762
    41 1.978379 0.019544 0.000000 -0.103417 0.016456 0.707257
    42 0.982426 0.003186 0.000000 0.000000 0.000000 -0.902454
  time 5
    0 5.184602 -1.510268 -14.502845 -1.451986 -0.384307 0.607417
    1 -0.000001 -8.563283 0.000000 0.365713 0.620708 -0.162030
    2 -0.293234 -3.282020 0.672796 -1.247037 1.437608 -1.233844
    3 -0.000002 2.163130 0.753818 0.000000 0.000000 0.000000
    4 0.000002 -3.052707 1.526597 0.000000 0.000000 0.000000
    5 0.000003 -10.293062 1.701879 0.000000 0.000000 0.000000
    6 0.000000 -4.967293 1.445704 0.000000 0.000000 0.000000
    7 0.000000 -5.102123 2.443444 0.000000 0.000000 0.000000
    8 -0.499253 -4.515975 -0.929304 -0.574757 0.160486 0.336779
    9 -0.003480 -0.404829 0.000000 0.000000 0.000000 0.000000
    10 -0.519310 -2.501155 -0.278957 -1.375314 0.000000 -0.122173
    11 -0.010598 -1.208185 0.000000 -0.907575 0.000000 0.000000
    12 0.000000 -0.763066 0.000000 -1.144947 0.000000 0.000000
    13 0.105980 -2.607134 -0.278957 -0.869181 0.000000 -0.148353
    14 -0.000001 -1.250579 0.000000 -1.385786 0.000000 0.000000
    15 0.000000 -0.932634 0.000000 -0.902353 0.000000 0.000000
    16 0.763064 -2.490556 -0.278957 -0.340544 0.078175 0.347833
    17 -0.012322 -1.280917 0.000000 -0.553262 0.000000 0.000000
    18 -0.001697 -0.749371 0.000000 -0.593412 0.000000 0.000000
    19 0.354567 0.016267 0.318132 0.386384 -0.406183 -1.191370
    20 1.887164 0.012878 0.000000 -0.304306 0.026726 -0.316515
    21 1.001874 -0.000270 0.000000 0.000000 0.000000 -0.886628
    22 -1.123360 -2.195093 -0.278957 -1.206017 0.000000 -0.087266
    23 0.010772 -0.963791 0.000000 -0.778410 0.000000 0.000000
    24 -0.010412 -0.631916 -0.000001 -1.003573 0.000000 0.000000
    25 -7.784904 -4.443256 -9.037683 -5.332243 -2.842194 -5.432115
    26 0.089929 -8.543160 0.000000 -0.368424 0.242399 -0.034569
    27 0.000000 -0.359712 0.000000 0.000000 0.000000 0.000000
    28 -0.170480 -2.636147 -0.277655 -1.071325 0.000000 0.000000
    29 0.010599 -1.261177 0.000001 -0.271853 0.000000 0.000000
    30 -0.000001 -0.943233 -0.000001 -0.571540 0.000000 0.000000
    31 -0.827563 -2.508973 -0.277656 -0.786903 0.003068 0.003691
    32 0.000000 -1.292972 0.000001 -0.439235 0.000000 0.000000
    33 0.000000 -0.752466 0.000000 -0.728288 0.000000 0.000000
    34 0.444213 -2.561959 -0.277655 -1.832143 -0.046226 -0.024599
    35 0.021022 -1.208185 -0.000001 -0.239112 0.000000 0.000000
    36 0.010597 -0.741867 -0.000001 -0.571607 0.000000 0.000000
    37 1.047445 -2.222821 -0.277655 -1.614277 -0.078971 -0.038609
    38 0.000000 -0.996222 0.000000 -0.863938 0.000000 0.000000
    39 -0.000001 -0.614690 0.000000 -0.523599 0.000000 0.000000
    40 -0.308254 -0.007814 0.307166 0.284296 -0.079953 -2.462731
    41 1.978379 0.019544 0.000000 -0.103429 0.016324 0.705937
    42 0.982426 0.003186 0.000000 0.000000 0.000000 -0.920978
  time 6
    0 5.184602 -1.510268 -14.502845 -1.451175 -0.385769 0.607961
    1 -0.000001 -8.563283 0.000000 0.365195 0.615657 -0.162807
    2 -0.293234 -3.282020 0.672796 -1.247037 1.437608 -1.233844
    3 -0.000002 2.163130 0.753818 0.000000 0.000000 0.000000
    4 0.000002 -3.052707 1.526597 0.000000 0.000000 0.000000
    5 0.000003 -10.293062 1.701879 0.000000 0.000000 0.000000
    6 0.000000 -4.967293 1.445704 0.000000 0.000000 0.000000
    7 0.000000 -5.102123 2.443444 0.000000 0.000000 0.000000
    8 -0.499253 -4.750357 -0.737892 -0.686542 0.183963 0.366549
    9 -0.003480 -0.404829 0.000000 0.000000 0.000000 0.000000
    10 -0.519310 -2.501155 -0.278957 -1.375314 0.000000 -0.122173
    11 -0.010598 -1.208185 0.000000 -0.907575 0.000000 0.000000
    12 0.000000 -0.763066 0.000000 -1.144947 0.000000 0.000000
    13 0.105980 -2.607134 -0.278957 -0.869181 0.000000 -0.148353
    14 -0.000001 -1.250579 0.000000 -1.385786 0.000000 0.000000
    15 0.000000 -0.932634 0.000000 -0.902353 0.000000 0.000000
    16 0.763064 -2.490556 -0.278957 -0.340544 0.078175 0.347833
    17 -0.012322 -1.280917 0.000000 -0.553262 0.000000 0.000000
    18 -0.001697 -0.749371 0.000000 -0.593412 0.000000 0.000000
    19 0.354567 0.016267 0.318132 0.386384 -0.406183 -1.191370
    20 1.887164 0.012878 0.000000 -0.304306 0.026726 -0.316515
    21 1.001874 -0.000270 0.000000 0.000000 0.000000 -0.886628
    22 -1.123360 -2.195093 -0.278957 -1.206017 0.000000 -0.087266
    23 0.010772 -0.963791 0.000000 -0.778410 0.000000 0.000000
    24 -0.010412 -0.631916 -0.000001 -1.003573 0.000000 0.000000
    25 -7.710683 -5.119058 -8.510323 -5.310671 -2.810935 -5.406325
    26 0.089929 -8.543160 0.000000 -0.491760 0.205346 -0.121141
    27 0.000000 -0.359712 0.000000 0.000000 0.000000 0.000000
    28 -0.170480 -2.636147 -0.277655 -1.082110 0.000000 0.000000
    29 0.010599 -1.261177 0.000001 -0.271182 0.000000 0.000000
    30 -0.000001 -0.943233 -0.000001 -0.571228 0.000000 0.000000
    31 -0.827563 -2.508973 -0.277656 -0.792623 0.003871 0.004650
    32 0.000000 -1.292972 0.000001 -0.448752 0.000000 0.000000
    33 0.000000 -0.752466 0.000000 -0.725712 0.000000 0.000000
    34 0.444213 -2.561959 -0.277655 -1.828495 -0.046226 -0.024599
    35 0.021022 -1.208185 -0.000001 -0.239112 0.000000 0.000000
    36 0.010597 -0.741867 -0.000001 -0.571846 0.000000 0.000000
    37 1.047445 -2.222821 -0.277655 -1.610555 -0.078971 -0.038609
    38 0.000000 -0.996222 0.000000 -0.863938 0.000000 0.000000
    39 -0.000001 -0.614690 0.000000 -0.523599 0.000000 0.000000
    40 -0.308254 -0.007814 0.307166 0.282079 -0.081283 -2.462264
    41 1.978379 0.019544 0.000000 -0.103489 0.015977 0.702421
    42 0.982426 0.003186 0.000000 0.000000 0.000000 -0.932720
  time 7
    0 5.184602 -1.510268 -14.502845 -1.450095 -0.387815 0.608660
    1 -0.000001 -8.563283 0.000000 0.364690 0.608367 -0.163416
    2 -0.293234 -3.282020 0.672796 -1.247037 1.437608 -1.233844
    3 -0.000002 2.163130 0.753818 0.000000 0.000000 0.000000
    4 0.000002 -3.052707 1.526597 0.000000 0.000000 0.000000
    5 0.000003 -10.293062 1.701879 0.000000 0.000000 0.000000
    6 0.000000 -4.967293 1.445704 0.000000 0.000000 0.000000
    7 0.000000 -5.102123 2.443444 0.000000 0.000000 0.000000
    8 -0.499253 -5.172245 -0.355068 -0.788407 0.186996 0.372277
    9 -0.003480 -0.404829 0.000000 0.000000 0.000000 0.000000
    10 -0.519310 -2.501155 -0.278957 -1.375314 0.000000 -0.122173
    11 -0.010598 -1.208185 0.000000 -0.907575 0.000000 0.000000
    12 0.000000 -0.763066 0.000000 -1.144947 0.000000 0.000000
    13 0.105980 -2.607134 -0.278957 -0.869181 0.000000 -0.148353
    14 -0.000001 -1.250579 0.000000 -1.385786 0.000000 0.000000
    15 0.000000 -0.932634 0.000000 -0.902353 0.000000 0.000000
    16 0.763064 -2.490556 -0.278957 -0.340544 0.078175 0.347833
    17 -0.012322 -1.280917 0.000000 -0.553262 0.000000 0.000000
    18 -0.001697 -0.749371 0.000000 -0.593412 0.000000 0.000000
    19 0.354567 0.016267 0.318132 0.386384 -0.406183 -1.191370
    20 1.887164 0.012878 0.000000 -0.304306 0.026726 -0.316515
    21 1.001874 -0.000270 0.000000 0.000000 0.000000 -0.886628
    22 -1.123360 -2.195093 -0.278957 -1.206017 0.000000 -0.087266
    23 0.010772 -0.963791 0.000000 -0.778410 0.000000 0.000000
    24 -0.010412 -0.631916 -0.000001 -1.003573 0.000000 0.000000
    25 -7.491926 -5.775328 -7.725142 -5.306453 -2.781014 -5.384300
    26 0.089929 -8.543160 0.000000 -0.554247 0.177885 -0.164454
    27 0.000000 -0.359712 0.000000 0.000000 0.000000 0.000000
    28 -0.170480 -2.636147 -0.277655 -1.093268 0.000000 0.000000
    29 0.010599 -1.261177 0.000001 -0.270115 0.000000 0.000000
    30 -0.000001 -0.943233 -0.000001 -0.570821 0.000000 0.000000
    31 -0.827563 -2.508973 -0.277656 -0.798916 0.004542 0.005417
    32 0.000000 -1.292972 0.000001 -0.457029 0.000000 0.000000
    33 0.000000 -0.752466 0.000000 -0.721457 0.000000 0.000000
    34 0.444213 -2.561959 -0.277655 -1.822489 -0.046226 -0.024599
    35 0.021022 -1.208185 -0.000001 -0.239112 0.000000 0.000000
    36 0.010597 -0.741867 -0.000001 -0.572338 0.000000 0.000000
    37 1.047445 -2.222821 -0.277655 -1.604429 -0.078971 -0.038609
    38 0.000000 -0.996222 0.000000 -0.863938 0.000000 0.000000
    39 -0.000001 -0.614690 0.000000 -0.523599 0.000000 0.000000
    40 -0.308254 -0.007814 0.307166 0.278555 -0.083188 -2.462276
    41 1.978379 0.019544 0.000000 -0.103573 0.015450 0.697453
    42 0.982426 0.003186 0.000000 0.000000 0.000000 -0.937096
  time 8
    0 5.184602 -1.510268 -14.502845 -1.448880 -0.390203 0.609514
    1 -0.000001 -8.563283 0.000000 0.364341 0.600001 -0.163795
    2 -0.293234 -3.282020 0.672796 -1.247037 1.437608 -1.233844
    3 -0.000002 2.163130 0.753818 0.000000 0.000000 0.000000
    4 0.000002 -3.052707 1.526597 0.000000 0.000000 0.000000
    5 0.000003 -10.293062 1.701879 0.000000 0.000000 0.000000
    6 0.000000 -4.967293 1.445704 0.000000 0.000000 0.000000
    7 0.000000 -5.102123 2.443444 0.000000 0.000000 0.000000
    8 -0.499253 -5.398814 -0.155843 -0.831360 0.160486 0.336779
    9 -0.003480 -0.404829 0.000000 0.000000 0.000000 0.000000
    10 -0.519310 -2.501155 -0.278957 -1.375314 0.000000 -0.122173
    11 -0.010598 -1.208185 0.000000 -0.907575 0.000000 0.000000
    12 0.000000 -0.763066 0.000000 -1.144947 0.000000 0.000000
    13 0.105980 -2.607134 -0.278957 -0.869181 0.000000 -0.148353
    14 -0.000001 -1.250579 0.000000 -1.385786 0.000000 0.000000
    15 0.000000 -0.932634 0.000000 -0.902353 0.000000 0.000000
    16 0.763064 -2.490556 -0.278957 -0.340544 0.078175 0.347833
    17 -0.012322 -1.280917 0.000000 -0.553262 0.000000 0.000000
    18 -0.001697 -0.749371 0.000000 -0.593412 0.000000 0.000000
    19 0.354567 0.016267 0.318132 0.386384 -0.406183 -1.191370
    20 1.887164 0.012878 0.000000 -0.304306 0.026726 -0.316515
    21 1.001874 -0.000270 0.000000 0.000000 0.000000 -0.886628
    22 -1.123360 -2.195093 -0.278957 -1.206017 0.000000 -0.087266
    23 0.010772 -0.963791 0.000000 -0.778410 0.000000 0.000000
    24 -0.010412 -0.631916 -0.000001 -1.003573 0.000000 0.000000
    25 -7.613024 -5.818298 -7.404820 -5.298016 -2.770212 -5.376582
    26 0.089929 -8.543160 0.000000 -0.552817 0.180241 -0.140061
    27 0.000000 -0.359712 0.000000 0.000000 0.000000 0.000000
    28 -0.170480 -2.636147 -0.277655 -1.103242 0.000000 0.000000
    29 0.010599 -1.261177 0.000001 -0.268593 0.000000 0.000000
    30 -0.000001 -0.943233 -0.000001 -0.570161 0.000000 0.000000
    31 -0.827563 -2.508973 -0.277656 -0.804969 0.004937 0.005909
    32 0.000000 -1.292972 0.000001 -0.462827 0.000000 0.000000
    33 0.000000 -0.752466 0.000000 -0.715501 0.000000 0.000000
    34 0.444213 -2.561959 -0.277655 -1.813929 -0.046226 -0.024599
    35 0.021022 -1.208185 -0.000001 -0.239112 0.000000 0.000000
    36 0.010597 -0.741867 -0.000001 -0.572949 0.000000 0.000000
    37 1.047445 -2.222821 -0.277655 -1.595857 -0.078971 -0.038609
    38 0.000000 -0.996222 0.000000 -0.863938 0.000000 0.000000
    39 -0.000001 -0.614690 0.000000 -0.523599 0.000000 0.000000
    40 -0.308254 -0.007814 0.307166 0.274277 -0.085466 -2.462755
    41 1.978379 0.019544 0.000000 -0.103657 0.014838 0.691709
    42 0.982426 0.003186 0.000000 0.000000 0.000000 -0.933401
  time 9
    0 5.184602 -1.510268 -14.502845 -1.447664 -0.392592 0.610291
    1 -0.000001 -8.563283 0.000000 0.364160 0.591460 -0.163816
    2 -0.293234 -3.282020 0.672796 -1.247037 1.437608 -1.233844
    3 -0.000002 2.163130 0.753818 0.000000 0.000000 0.000000
    4 0.000002 -3.052707 1.526597 0.000000 0.000000 0.000000
    5 0.000003 -10.293062 1.701879 0.000000 0.000000 0.000000
    6 0.000000 -4.967293 1.445704 -0.088350 0.000000 0.000000
    7 0.000000 -5.102123 2.443444 0.000000 0.000000 0.000000
    8 -0.331279 -5.558975 0.172292 -0.783688 0.087488 0.220109
    9 -0.003480 -0.404829 0.000000 0.000000 0.000000 0.000000
    10 -0.519310 -2.501155 -0.278957 -1.375314 0.000000 -0.122173
    11 -0.010598 -1.208185 0.000000 -0.907575 0.000000 0.000000
    12 0.000000 -0.763066 0.000000 -1.144947 0.000000 0.000000
    13 0.105980 -2.607134 -0.278957 -0.869181 0.000000 -0.148353
    14 -0.000001 -1.250579 0.000000 -1.385786 0.000000 0.000000
    15 0.000000 -0.932634 0.000000 -0.902353 0.000000 0.000000
    16 0.763064 -2.490556 -0.278957 -0.340544 0.078175 0.347833
    17 -0.012322 -1.280917 0.000000 -0.553262 0.000000 0.000000
    18 -0.001697 -0.749371 0.000000 -0.593412 0.000000 0.000000
    19 0.354567 0.016267 0.318132 0.386384 -0.406183 -1.191370
    20 1.887164 0.012878 0.000000 -0.304306 0.026726 -0.316515
    21 1.001874 -0.000270 0.000000 0.000000 0.000000 -0.886628
    22 -1.123360 -2.195093 -0.278957 -1.206017 0.000000 -0.087266
    23 0.010772 -0.963791 0.000000 -0.778410 0.000000 0.000000
    24 -0.010412 -0.631916 -0.000001 -1.003573 0.000000 0.000000
    25 -7.195042 -5.818298 -7.709517 -5.278553 -2.781396 -5.385336
    26 0.089929 -8.543160 0.000000 -0.489528 0.206845 -0.043892
    27 0.000000 -0.359712 0.000000 0.000000 0.000000 0.000000
    28 -0.170480 -2.636147 -0.277655 -1.110576 0.000000 0.000000
    29 0.010599 -1.261177 0.000001 -0.266568 0.000000 0.000000
    30 -0.000001 -0.943233 -0.000001 -0.569346 0.000000 0.000000
    31 -0.827563 -2.508973 -0.277656 -0.809862 0.005009 0.005969
    32 0.000000 -1.292972 0.000001 -0.465018 0.000000 0.000000
    33 0.000000 -0.752466 0.000000 -0.707639 0.000000 0.000000
    34 0.444213 -2.561959 -0.277655 -1.802816 -0.046226 -0.024599
    35 0.021022 -1.208185 -0.000001 -0.239112 0.000000 0.000000
    36 0.010597 -0.741867 -0.000001 -0.573812 0.000000 0.000000
    37 1.047445 -2.222821 -0.277655 -1.584584 -0.078971 -0.038609
    38 0.000000 -0.996222 0.000000 -0.863938 0.000000 0.000000
    39 -0.000001 -0.614690 0.000000 -0.523599 0.000000 0.000000
    40 -0.308254 -0.007814 0.307166 0.269662 -0.087779 -2.463798
    41 1.978379 0.019544 0.000000 -0.103741 0.014227 0.685916
    42 0.982426 0.003186 0.000000 0.000000 0.000000 -0.921100
  time 10
    0 5.184602 -1.510268 -14.502845 -1.446517 -0.394590 0.611067
    1 -0.000001 -8.563283 0.000000 0.364224 0.583840 -0.163353
    2 -0.293234 -3.282020 0.672796 -1.247037 1.437608 -1.233844
    3 -0.000002 2.163130 0.753818 0.000000 0.000000 0.000000
    4 0.000002 -3.052707 1.526597 0.000000 0.000000 0.000000
    5 0.000003 -10.293062 1.701879 0.000000 0.000000 0.000000
    6 0.000000 -4.967293 1.445704 -0.136708 0.000000 0.000000
    7 0.000000 -5.102123 2.443444 0.000000 0.000000 0.000000
    8 -0.014863 -5.851953 0.785592 -0.662465 0.002948 0.053236
    9 -0.003480 -0.404829 0.000000 0.000000 0.000000 0.000000
    10 -0.519310 -2.501155 -0.278957 -1.375314 0.000000 -0.122173
    11 -0.010598 -1.208185 0.000000 -0.907575 0.000000 0.000000
    12 0.000000 -0.763066 0.000000 -1.144947 0.000000 0.000000
    13 0.105980 -2.607134 -0.278957 -0.869181 0.000000 -0.148353
    14 -0.000001 -1.250579 0.000000 -1.385786 0.000000 0.000000
    15 0.000000 -0.932634 0.000000 -0.902353 0.000000 0.000000
    16 0.763064 -2.490556 -0.278957 -0.340544 0.078175 0.347833
    17 -0.012322 -1.280917 0.000000 -0.553262 0.000000 0.000000
    18 -0.001697 -0.749371 0.000000 -0.593412 0.000000 0.000000
    19 0.354567 0.016267 0.318132 0.386384 -0.406183 -1.191370
    20 1.887164 0.012878 0.000000 -0.304306 0.026726 -0.316515
    21 1.001874 -0.000270 0.000000 0.000000 0.000000 -0.886628
    22 -1.123360 -2.195093 -0.278957 -1.206017 0.000000 -0.087266
    23 0.010772 -0.963791 0.000000 -0.778410 0.000000 0.000000
    24 -0.010412 -0.631916 -0.000001 -1.003573 0.000000 0.000000
    25 -6.499708 -5.849549 -8.252502 -5.256598 -2.803287 -5.401243
    26 0.089929 -8.543160 0.000000 -0.382895 0.233587 0.096086
    27 0.000000 -0.359712 0.000000 0.000000 0.000000 0.000000
    28 -0.170480 -2.636147 -0.277655 -1.113465 0.000000 0.000000
    29 0.010599 -1.261177 0.000001 -0.264075 0.000000 0.000000
    30 -0.000001 -0.943233 -0.000001 -0.568328 0.000000 0.000000
    31 -0.827563 -2.508973 -0.277656 -0.812622 0.004674 0.005489
    32 0.000000 -1.292972 0.000001 -0.462351 0.000000 0.000000
    33 0.000000 -0.752466 0.000000 -0.697752 0.000000 0.000000
    34 0.444213 -2.561959 -0.277655 -1.788699 -0.046226 -0.024599
    35 0.021022 -1.208185 -0.000001 -0.239112 0.000000 0.000000
    36 0.010597 -0.741867 -0.000001 -0.574855 0.000000 0.000000
    37 1.047445 -2.222821 -0.277655 -1.570333 -0.078971 -0.038609
    38 0.000000 -0.996222 0.000000 -0.863938 0.000000 0.000000
    39 -0.000001 -0.614690 0.000000 -0.523599 0.000000 0.000000
    40 -0.308254 -0.007814 0.307166 0.265288 -0.089852 -2.465296
    41 1.978379 0.019544 0.000000 -0.103788 0.013724 0.680766
    42 0.982426 0.003186 0.000000 0.000000 0.000000 -0.899561
  time 11
    0 5.184602 -1.510268 -14.502845 -1.445706 -0.396100 0.611533
    1 -0.000001 -8.563283 0.000000 0.364664 0.578241 -0.162366
    2 -0.293234 -3.282020 0.672796 -1.247037 1.437608 -1.233844
    3 -0.000002 2.163130 0.753818 0.000000 0.000000 0.000000
    4 0.000002 -3.052707 1.526597 0.000000 0.000000 0.000000
    5 0.000003 -10.293062 1.701879 0.000000 0.000000 0.000000
    6 0.000000 -4.967293 1.445704 -0.225143 0.000000 0.000000
    7 0.000000 -5.102123 2.443444 0.000000 0.000000 0.000000
    8 0.149205 -6.012114 1.113727 -0.511786 -0.038495 -0.068456
    9 -0.003480 -0.404829 0.000000 0.000000 0.000000 0.000000
    10 -0.519310 -2.501155 -0.278957 -1.375314 0.000000 -0.122173
    11 -0.010598 -1.208185 0.000000 -0.907575 0.000000 0.000000
    12 0.000000 -0.763066 0.000000 -1.144947 0.000000 0.000000
    13 0.105980 -2.607134 -0.278957 -0.869181 0.000000 -0.148353
    14 -0.000001 -1.250579 0.000000 -1.385786 0.000000 0.000000
    15 0.000000 -0.932634 0.000000 -0.902353 0.000000 0.000000
    16 0.763064 -2.490556 -0.278957 -0.340544 0.078175 0.347833
    17 -0.012322 -1.280917 0.000000 -0.553262 0.000000 0.000000
    18 -0.001697 -0.749371 0.000000 -0.593412 0.000000 0.000000
    19 0.354567 0.016267 0.318132 0.386384 -0.406183 -1.191370
    20 1.887164 0.012878 0.000000 -0.304306 0.026726 -0.316515
    21 1.001874 -0.000270 0.000000 0.000000 0.000000 -0.886628
    22 -1.123360 -2.195093 -0.278957 -1.206017 0.000000 -0.087266
    23 0.010772 -0.963791 0.000000 -0.778410 0.000000 0.000000
    24 -0.010412 -0.631916 -0.000001 -1.003573 0.000000 0.000000
    25 -5.675465 -6.126902 -8.600169 -5.234356 -2.830818 -5.420067
    26 0.089929 -8.543160 0.000000 -0.255340 0.249513 0.257184
    27 0.000000 -0.359712 0.000000 0.000000 0.000000 0.000000
    28 -0.170480 -2.636147 -0.277655 -1.110473 0.000000 0.000000
    29 0.010599 -1.261177 0.000001 -0.261007 0.000000 0.000000
    30 -0.000001 -0.943233 -0.000001 -0.567021 0.000000 0.000000
    31 -0.827563 -2.508973 -0.277656 -0.812408 0.003763 0.004435
    32 0.000000 -1.292972 0.000001 -0.453698 0.000000 0.000000
    33 0.000000 -0.752466 0.000000 -0.685659 0.000000 0.000000
    34 0.444213 -2.561959 -0.277655 -1.771552 -0.046226 -0.024599
    35 0.021022 -1.208185 -0.000001 -0.239112 0.000000 0.000000
    36 0.010597 -0.741867 -0.000001 -0.576149 0.000000 0.000000
    37 1.047445 -2.222821 -0.277655 -1.552955 -0.078971 -0.038609
    38 0.000000 -0.996222 0.000000 -0.863938 0.000000 0.000000
    39 -0.000001 -0.614690 0.000000 -0.523599 0.000000 0.000000
    40 -0.308254 -0.007814 0.307166 0.261657 -0.091446 -2.467261
    41 1.978379 0.019544 0.000000 -0.103836 0.013304 0.677003
    42 0.982426 0.003186 0.000000 0.000000 0.000000 -0.868103
  time 12
    0 5.184602 -1.510268 -14.502845 -1.445436 -0.396637 0.611688
    1 -0.000001 -8.563283 0.000000 0.365558 0.575738 -0.160685
    2 -0.293234 -3.282020 0.672796 -1.247037 1.437608 -1.233844
    3 -0.000002 2.163130 0.753818 0.000000 0.000000 0.000000
    4 0.000002 -3.052707 1.526597 0.000000 0.000000 0.000000
    5 0.000003 -10.293062 1.701879 0.000000 0.000000 0.000000
    6 0.000000 -4.967293 1.445704 -0.225143 0.000000 0.000000
    7 0.000000 -5.102123 2.443444 0.000000 0.000000 0.000000
    8 0.149205 -6.371500 1.273888 -0.323228 -0.029446 -0.082118
    9 -0.003480 -0.404829 0.000000 0.000000 0.000000 0.000000
    10 -0.519310 -2.501155 -0.278957 -1.375314 0.000000 -0.122173
    11 -0.010598 -1.208185 0.000000 -0.907575 0.000000 0.000000
    12 0.000000 -0.763066 0.000000 -1.144947 0.000000 0.000000
    13 0.105980 -2.607134 -0.278957 -0.869181 0.000000 -0.148353
    14 -0.000001 -1.250579 0.000000 -1.385786 0.000000 0.000000
    15 0.000000 -0.932634 0.000000 -0.902353 0.000000 0.000000
    16 0.763064 -2.490556 -0.278957 -0.340544 0.078175 0.347833
    17 -0.012322 -1.280917 0.000000 -0.553262 0.000000 0.000000
    18 -0.001697 -0.749371 0.000000 -0.593412 0.000000 0.000000
    19 0.354567 0.016267 0.318132 0.386384 -0.406183 -1.191370
    20 1.887164 0.012878 0.000000 -0.304306 0.026726 -0.316515
    21 1.001874 -0.000270 0.000000 0.000000 0.000000 -0.886628
    22 -1.123360 -2.195093 -0.278957 -1.206017 0.000000 -0.087266
    23 0.010772 -0.963791 0.000000 -0.778410 0.000000 0.000000
    24 -0.010412 -0.631916 -0.000001 -1.003573 0.000000 0.000000
    25 -4.741842 -6.521445 -8.912679 -5.213934 -2.858158 -5.438045
    26 0.089929 -8.543160 0.000000 -0.132039 0.254286 0.414130
    27 0.000000 -0.359712 0.000000 0.000000 0.000000 0.000000
    28 -0.170480 -2.636147 -0.277655 -1.099959 0.000000 0.000000
    29 0.010599 -1.261177 0.000001 -0.257327 0.000000 0.000000
    30 -0.000001 -0.943233 -0.000001 -0.565511 0.000000 0.000000
    31 -0.827563 -2.508973 -0.277656 -0.808289 0.002229 0.002661
    32 0.000000 -1.292972 0.000001 -0.437870 0.000000 0.000000
    33 0.000000 -0.752466 0.000000 -0.671302 0.000000 0.000000
    34 0.444213 -2.561959 -0.277655 -1.751149 -0.046226 -0.024599
    35 0.021022 -1.208185 -0.000001 -0.239112 0.000000 0.000000
    36 0.010597 -0.741867 -0.000001 -0.577683 0.000000 0.000000
    37 1.047445 -2.222821 -0.277655 -1.532259 -0.078971 -0.038609
    38 0.000000 -0.996222 0.000000 -0.863938 0.000000 0.000000
    39 -0.000001 -0.614690 0.000000 -0.523599 0.000000 0.000000
    40 -0.308254 -0.007814 0.307166 0.259212 -0.092249 -2.469778
    41 1.978379 0.019544 0.000000 -0.103848 0.013136 0.675336
    42 0.982426 0.003186 0.000000 0.000000 0.000000 -0.826191
  time 13
    0 5.184602 -1.510268 -14.463781 -1.444829 -0.396442 0.610213
    1 -0.000001 -8.563283 0.000000 0.368134 0.574201 -0.155936
    2 -0.293234 -3.282020 0.672796 -1.247037 1.437608 -1.233844
    3 -0.000002 2.163130 0.753818 0.000000 0.000000 0.000000
    4 0.000002 -3.052707 1.526597 0.000000 0.000000 0.000000
    5 0.000003 -10.293062 1.701879 0.000000 0.000000 0.000000
    6 0.000000 -4.967293 1.445704 -0.225143 0.000000 0.000000
    7 0.000000 -5.102123 2.443444 0.000000 0.000000 0.000000
    8 0.149205 -7.035583 1.582491 -0.117113 -0.008293 -0.036026
    9 -0.003480 -0.404829 0.000000 0.000000 0.000000 0.000000
    10 -0.519310 -2.501155 -0.278957 -1.375314 0.000000 -0.122173
    11 -0.010598 -1.208185 0.000000 -0.907575 0.000000 0.000000
    12 0.000000 -0.763066 0.000000 -1.144947 0.000000 0.000000
    13 0.105980 -2.607134 -0.278957 -0.869181 0.000000 -0.148353
    14 -0.000001 -1.250579 0.000000 -1.385786 0.000000 0.000000
    15 0.000000 -0.932634 0.000000 -0.902353 0.000000 0.000000
    16 0.763064 -2.490556 -0.278957 -0.340544 0.078175 0.347833
    17 -0.012322 -1.280917 0.000000 -0.553262 0.000000 0.000000
    18 -0.001697 -0.749371 0.000000 -0.593412 0.000000 0.000000
    19 0.354567 0.016267 0.318132 0.386384 -0.406183 -1.191370
    20 1.887164 0.012878 0.000000 -0.304306 0.026726 -0.316515
    21 1.001874 -0.000270 0.000000 0.000000 0.000000 -0.886628
    22 -1.123360 -2.195093 -0.278957 -1.206017 0.000000 -0.087266
    23 0.010772 -0.963791 0.000000 -0.778410 0.000000 0.000000
    24 -0.010412 -0.631916 -0.000001 -1.003573 0.000000 0.000000
    25 -3.941037 -6.787078 -9.131435 -5.196294 -2.880144 -5.451316
    26 0.089929 -8.543160 0.000000 -0.036669 0.259809 0.542695
    27 0.000000 -0.359712 0.000000 0.000000 0.000000 0.000000
    28 -0.170480 -2.636147 -0.277655 -1.080323 0.000000 0.000000
    29 0.010599 -1.261177 0.000001 -0.253073 0.000000 0.000000
    30 -0.000001 -0.943233 -0.000001 -0.563774 0.000000 0.000000
    31 -0.827563 -2.508973 -0.277656 -0.799356 0.000000 -0.000036
    32 0.000000 -1.292972 0.000001 -0.413627 0.000000 0.000000
    33 0.000000 -0.752466 0.000000 -0.654463 0.000000 0.000000
    34 0.444213 -2.561959 -0.277655 -1.727238 -0.046226 -0.024599
    35 0.021022 -1.208185 -0.000001 -0.239112 0.000000 0.000000
    36 0.010597 -0.741867 -0.000001 -0.579469 0.000000 0.000000
    37 1.047445 -2.222821 -0.277655 -1.508096 -0.078971 -0.038609
    38 0.000000 -0.996222 0.000000 -0.863938 0.000000 0.000000
    39 -0.000001 -0.614690 0.000000 -0.523599 0.000000 0.000000
    40 -0.308254 -0.007814 0.307166 0.258505 -0.091973 -2.472810
    41 1.978379 0.019544 0.000000 -0.103836 0.013256 0.676442
    42 0.982426 0.003186 0.000000 0.000000 0.000000 -0.773097
  time 14
    0 5.184602 -1.510268 -14.346590 -1.443276 -0.395906 0.606175
    1 -0.000001 -8.563283 0.000000 0.372627 0.571478 -0.147574
    2 -0.293234 -3.282020 0.672796 -1.247037 1.437608 -1.233844
    3 -0.000002 2.163130 0.753818 0.000000 0.000000 0.000000
    4 0.000002 -3.052707 1.526597 0.000000 0.000000 0.000000
    5 0.000003 -10.293062 1.701879 0.000000 0.000000 0.000000
    6 0.000000 -4.967293 1.445704 -0.225143 0.000000 0.000000
    7 0.000000 -5.102123 2.443444 0.000000 0.000000 0.000000
    8 0.149205 -7.394969 1.750465 0.000000 0.000000 0.000000
    9 -0.003480 -0.404829 0.000000 0.000000 0.000000 0.000000
    10 -0.519310 -2.501155 -0.278957 -1.375314 0.000000 -0.122173
    11 -0.010598 -1.208185 0.000000 -0.907575 0.000000 0.000000
    12 0.000000 -0.763066 0.000000 -1.144947 0.000000 0.000000
    13 0.105980 -2.607134 -0.278957 -0.869181 0.000000 -0.148353
    14 -0.000001 -1.250579 0.000000 -1.385786 0.000000 0.000000
    15 0.000000 -0.932634 0.000000 -0.902353 0.000000 0.000000
    16 0.763064 -2.490556 -0.278957 -0.340544 0.078175 0.347833
    17 -0.012322 -1.280917 0.000000 -0.553262 0.000000 0.000000
    18 -0.001697 -0.749371 0.000000 -0.593412 0.000000 0.000000
    19 0.354567 0.016267 0.318132 0.386384 -0.406183 -1.191370
    20 1.887164 0.012878 0.000000 -0.304306 0.026726 -0.316515
    21 1.001874 -0.000270 0.000000 0.000000 0.000000 -0.886628
    22 -1.123360 -2.195093 -0.278957 -1.206017 0.000000 -0.087266
    23 0.010772 -0.963791 0.000000 -0.778410 0.000000 0.000000
    24 -0.010412 -0.631916 -0.000001 -1.003573 0.000000 0.000000
    25 -3.327737 -6.783172 -9.201750 -5.182008 -2.896395 -5.460635
    26 0.089929 -8.543160 0.000000 0.032375 0.288861 0.646537
    27 0.000000 -0.359712 0.000000 0.000000 0.000000 0.000000
    28 -0.170480 -2.636147 -0.277655 -1.023597 0.000000 0.000000
    29 0.010599 -1.261177 0.000001 -0.235935 0.000000 0.000000
    30 -0.000001 -0.943233 -0.000001 -0.555181 0.000000 0.000000
    31 -0.827563 -2.508973 -0.277656 -0.773077 -0.005717 -0.007071
    32 0.000000 -1.292972 0.000001 -0.344817 0.000000 0.000000
    33 0.000000 -0.752466 0.000000 -0.587434 0.000000 0.000000
    34 0.444213 -2.561959 -0.277655 -1.639144 -0.046226 -0.024599
    35 0.021022 -1.208185 -0.000001 -0.239112 0.000000 0.000000
    36 0.010597 -0.741867 -0.000001 -0.583100 0.000000 0.000000
    37 1.047445 -2.222821 -0.277655 -1.402149 -0.078971 -0.038609
    38 0.000000 -0.996222 0.000000 -0.863938 0.000000 0.000000
    39 -0.000001 -0.614690 0.000000 -0.523599 0.000000 0.000000
    40 -0.308254 -0.007814 0.307166 0.259667 -0.088534 -2.485993
    41 1.978379 0.019544 0.000000 -0.103729 0.014910 0.692617
    42 0.982426 0.003186 0.000000 0.000000 0.000000 -0.593515
  time 15
    0 5.184602 -1.510268 -14.221586 -1.440913 -0.394980 0.600117
    1 -0.000001 -8.563283 0.000000 0.377755 0.568360 -0.138098
    2 -0.293234 -3.282020 0.672796 -1.247037 1.437608 -1.233844
    3 -0.000002 2.163130 0.753818 0.000000 0.000000 0.000000
    4 0.000002 -3.052707 1.526597 0.000000 0.000000 0.000000
    5 0.000003 -10.293062 1.701879 0.000000 0.000000 0.000000
    6 0.000000 -4.967293 1.445704 -0.225143 0.000000 0.000000
    7 0.000000 -5.102123 2.443444 0.000000 0.000000 0.000000
    8 0.149205 -7.394969 1.750465 0.030268 0.001115 0.004506
    9 -0.003480 -0.404829 0.000000 0.000000 0.000000 0.000000
    10 -0.519310 -2.501155 -0.278957 -1.375314 0.000000 -0.122173
    11 -0.010598 -1.208185 0.000000 -0.907575 0.000000 0.000000
    12 0.000000 -0.763066 0.000000 -1.144947 0.000000 0.000000
    13 0.105980 -2.607134 -0.278957 -0.869181 0.000000 -0.148353
    14 -0.000001 -1.250579 0.000000 -1.385786 0.000000 0.000000
    15 0.000000 -0.932634 0.000000 -0.902353 0.000000 0.000000
    16 0.763064 -2.490556 -0.278957 -0.340544 0.078175 0.347833
    17 -0.012322 -1.280917 0.000000 -0.553262 0.000000 0.000000
    18 -0.001697 -0.749371 0.000000 -0.593412 0.000000 0.000000
    19 0.354567 0.016267 0.318132 0.386384 -0.406183 -1.191370
    20 1.887164 0.012878 0.000000 -0.304306 0.026726 -0.316515
    21 1.001874 -0.000270 0.000000 0.000000 0.000000 -0.886628
    22 -1.123360 -2.195093 -0.278957 -1.206017 0.000000 -0.087266
    23 0.010772 -0.963791 0.000000 -0.778410 0.000000 0.000000
    24 -0.010412 -0.631916 -0.000001 -1.003573 0.000000 0.000000
    25 -2.839440 -6.615198 -9.158780 -5.170120 -2.909492 -5.467788
    26 0.089929 -8.543160 0.000000 0.089875 0.340050 0.739077
    27 0.000000 -0.359712 0.000000 0.000000 0.000000 0.000000
    28 -0.170480 -2.636147 -0.277655 -0.922030 0.000000 0.000000
    29 0.010599 -1.261177 0.000001 -0.201096 0.000000 0.000000
    30 -0.000001 -0.943233 -0.000001 -0.537731 0.000000 0.000000
    31 -0.827563 -2.508973 -0.277656 -0.725959 -0.015496 -0.019954
    32 0.000000 -1.292972 0.000001 -0.221034 0.000000 0.000000
    33 0.000000 -0.752466 0.000000 -0.451217 0.000000 0.000000
    34 0.444213 -2.561959 -0.277655 -1.459756 -0.046226 -0.024599
    35 0.021022 -1.208185 -0.000001 -0.239112 0.000000 0.000000
    36 0.010597 -0.741867 -0.000001 -0.589560 0.000000 0.000000
    37 1.047445 -2.222821 -0.277655 -1.187107 -0.078971 -0.038609
    38 0.000000 -0.996222 0.000000 -0.863938 0.000000 0.000000
    39 -0.000001 -0.614690 0.000000 -0.523599 0.000000 0.000000
    40 -0.308254 -0.007814 0.307166 0.261681 -0.082326 -2.509315
    41 1.978379 0.019544 0.000000 -0.103417 0.017787 0.720676
    42 0.982426 0.003186 0.000000 0.000000 0.000000 -0.269626
  time 16
    0 5.184602 -1.510268 -14.155178 -1.437942 -0.393859 0.592739
    1 -0.000001 -8.563283 0.000000 0.382053 0.565637 -0.130051
    2 -0.293234 -3.282020 0.672796 -1.247037 1.437608 -1.233844
    3 -0.000002 2.163130 0.753818 0.000000 0.000000 0.000000
    4 0.000002 -3.052707 1.526597 0.000000 0.000000 0.000000
    5 0.000003 -10.293062 1.701879 0.000000 0.000000 0.000000
    6 0.000000 -4.967293 1.445704 -0.225143 0.000000 0.000000
    7 0.000000 -5.102123 2.443444 0.000000 0.000000 0.000000
    8 0.149205 -7.394969 1.750465 0.049017 0.001738 0.007383
    9 -0.003480 -0.404829 0.000000 0.000000 0.000000 0.000000
    10 -0.519310 -2.501155 -0.278957 -1.375314 0.000000 -0.122173
    11 -0.010598 -1.208185 0.000000 -0.907575 0.000000 0.000000
    12 0.000000 -0.763066 0.000000 -1.144947 0.000000 0.000000
    13 0.105980 -2.607134 -0.278957 -0.869181 0.000000 -0.148353
    14 -0.000001 -1.250579 0.000000 -1.385786 0.000000 0.000000
    15 0.000000 -0.932634 0.000000 -0.902353 0.000000 0.000000
    16 0.763064 -2.490556 -0.278957 -0.340544 0.078175 0.347833
    17 -0.012322 -1.280917 0.000000 -0.553262 0.000000 0.000000
    18 -0.001697 -0.749371 0.000000 -0.593412 0.000000 0.000000
    19 0.354567 0.016267 0.318132 0.386384 -0.406183 -1.191370
    20 1.887164 0.012878 0.000000 -0.304306 0.026726 -0.316515
    21 1.001874 -0.000270 0.000000 0.000000 0.000000 -0.886628
    22 -1.123360 -2.195093 -0.278957 -1.206017 0.000000 -0.087266
    23 0.010772 -0.963791 0.000000 -0.778410 0.000000 0.000000
    24 -0.010412 -0.631916 -0.000001 -1.003573 0.000000 0.000000
    25 -2.503493 -6.384722 -9.100184 -5.159766 -2.918477 -5.472306
    26 0.089929 -8.543160 0.000000 0.130185 0.396854 0.809231
    27 0.000000 -0.359712 0.000000 0.000000 0.000000 0.000000
    28 -0.170480 -2.636147 -0.277655 -0.804277 0.000000 0.000000
    29 0.010599 -1.261177 0.000001 -0.159677 0.000000 0.000000
    30 -0.000001 -0.943233 -0.000001 -0.518352 0.000000 0.000000
    31 -0.827563 -2.508973 -0.277656 -0.670868 -0.026151 -0.035714
    32 0.000000 -1.292972 0.000001 -0.079783 0.000000 0.000000
    33 0.000000 -0.752466 0.000000 -0.288813 0.000000 0.000000
    34 0.444213 -2.561959 -0.277655 -1.239590 -0.046226 -0.024599
    35 0.021022 -1.208185 -0.000001 -0.239112 0.000000 0.000000
    36 0.010597 -0.741867 -0.000001 -0.598141 0.000000 0.000000
    37 1.047445 -2.222821 -0.277655 -0.939181 -0.078971 -0.038609
    38 0.000000 -0.996222 0.000000 -0.863938 0.000000 0.000000
    39 -0.000001 -0.614690 0.000000 -0.523599 0.000000 0.000000
    40 -0.308254 -0.007814 0.307166 0.263191 -0.077196 -2.528359
    41 1.978379 0.019544 0.000000 -0.103081 0.019620 0.738369
    42 0.982426 0.003186 0.000000 0.000000 0.000000 0.052464
  time 17
    0 5.184602 -1.521987 -14.135646 -1.434971 -0.392786 0.584507
    1 -0.000001 -8.563283 0.000000 0.384241 0.564254 -0.125975
    2 -0.293234 -3.282020 0.672796 -1.247037 1.437608 -1.233844
    3 -0.000002 2.163130 0.753818 0.000000 0.000000 0.000000
    4 0.000002 -3.052707 1.526597 0.000000 0.000000 0.000000
    5 0.000003 -10.293062 1.701879 0.000000 0.000000 0.000000
    6 0.000000 -4.967293 1.445704 -0.225143 0.000000 0.000000
    7 0.000000 -5.102123 2.443444 0.000000 0.000000 0.000000
    8 0.149205 -7.394969 1.750465 0.058100 0.001989 0.008761
    9 -0.003480 -0.404829 0.000000 0.000000 0.000000 0.000000
    10 -0.519310 -2.501155 -0.278957 -1.375314 0.000000 -0.122173
    11 -0.010598 -1.208185 0.000000 -0.907575 0.000000 0.000000
    12 0.000000 -0.763066 0.000000 -1.144947 0.000000 0.000000
    13 0.105980 -2.607134 -0.278957 -0.869181 0.000000 -0.148353
    14 -0.000001 -1.250579 0.000000 -1.385786 0.000000 0.000000
    15 0.000000 -0.932634 0.000000 -0.902353 0.000000 0.000000
    16 0.763064 -2.490556 -0.278957 -0.340544 0.078175 0.347833
    17 -0.012322 -1.280917 0.000000 -0.553262 0.000000 0.000000
    18 -0.001697 -0.749371 0.000000 -0.593412 0.000000 0.000000
    19 0.354567 0.016267 0.318132 0.386384 -0.406183 -1.191370
    20 1.887164 0.012878 0.000000 -0.304306 0.026726 -0.316515
    21 1.001874 -0.000270 0.000000 0.000000 0.000000 -0.886628
    22 -1.123360 -2.195093 -0.278957 -1.206017 0.000000 -0.087266
    23 0.010772 -0.963791 0.000000 -0.778410 0.000000 0.000000
    24 -0.010412 -0.631916 -0.000001 -1.003573 0.000000 0.000000
    25 -2.374583 -6.205029 -9.143155 -5.149028 -2.921728 -5.473906
    26 0.089929 -8.543160 0.000000 0.142006 0.443377 0.841379
    27 0.000000 -0.359712 0.000000 0.000000 0.000000 0.000000
    28 -0.170480 -2.636147 -0.277655 -0.699116 0.000000 0.000000
    29 0.010599 -1.261177 0.000001 -0.122692 0.000000 0.000000
    30 -0.000001 -0.943233 -0.000001 -0.503827 0.000000 0.000000
    31 -0.827563 -2.508973 -0.277656 -0.620737 -0.035115 -0.050683
    32 0.000000 -1.292972 0.000001 0.041320 0.000000 0.000000
    33 0.000000 -0.752466 0.000000 -0.143297 0.000000 0.000000
    34 0.444213 -2.561959 -0.277655 -1.029134 -0.046226 -0.024599
    35 0.021022 -1.208185 -0.000001 -0.239112 0.000000 0.000000
    36 0.010597 -0.741867 -0.000001 -0.608064 0.000000 0.000000
    37 1.047445 -2.222821 -0.277655 -0.734625 -0.078971 -0.038609
    38 0.000000 -0.996222 0.000000 -0.863938 0.000000 0.000000
    39 -0.000001 -0.614690 0.000000 -0.523599 0.000000 0.000000
    40 -0.308254 -0.007814 0.307166 0.263215 -0.077112 -2.528671
    41 1.978379 0.019544 0.000000 -0.103093 0.018110 0.723333
    42 0.982426 0.003186 0.000000 0.000000 0.000000 0.226867
  time 18
    0 5.184602 -1.533706 -14.166897 -1.431595 -0.391373 0.576120
    1 -0.000001 -8.563283 0.000000 0.382934 0.565110 -0.128475
    2 -0.293234 -3.282020 0.672796 -1.247037 1.437608 -1.233844
    3 -0.000002 2.163130 0.753818 0.000000 0.000000 0.000000
    4 0.000002 -3.052707 1.526597 0.000000 0.000000 0.000000
    5 0.000003 -10.293062 1.701879 0.000000 0.000000 0.000000
    6 0.000000 -4.967293 1.445704 -0.225143 0.000000 0.000000
    7 0.000000 -5.102123 2.443444 0.000000 0.000000 0.000000
    8 0.149205 -7.394969 1.750465 0.059343 0.002025 0.008941
    9 -0.003480 -0.404829 0.000000 0.000000 0.000000 0.000000
    10 -0.519310 -2.501155 -0.278957 -1.375314 0.000000 -0.122173
    11 -0.010598 -1.208185 0.000000 -0.907575 0.000000 0.000000
    12 0.000000 -0.763066 0.000000 -1.144947 0.000000 0.000000
    13 0.105980 -2.607134 -0.278957 -0.869181 0.000000 -0.148353
    14 -0.000001 -1.250579 0.000000 -1.385786 0.000000 0.000000
    15 0.000000 -0.932634 0.000000 -0.902353 0.000000 0.000000
    16 0.763064 -2.490556 -0.278957 -0.340544 0.078175 0.347833
    17 -0.012322 -1.280917 0.000000 -0.553262 0.000000 0.000000
    18 -0.001697 -0.749371 0.000000 -0.593412 0.000000 0.000000
    19 0.354567 0.016267 0.318132 0.386384 -0.406183 -1.191370
    20 1.887164 0.012878 0.000000 -0.304306 0.026726 -0.316515
    21 1.001874 -0.000270 0.000000 0.000000 0.000000 -0.886628
    22 -1.123360 -2.195093 -0.278957 -1.206017 0.000000 -0.087266
    23 0.010772 -0.963791 0.000000 -0.778410 0.000000 0.000000
    24 -0.010412 -0.631916 -0.000001 -1.003573 0.000000 0.000000
    25 -2.480054 -6.267531 -9.318941 -5.128511 -2.914080 -5.468823
    26 0.089929 -8.543160 0.000000 0.085029 0.489747 0.803703
    27 0.000000 -0.359712 0.000000 0.000000 0.000000 0.000000
    28 -0.170480 -2.636147 -0.277655 -0.635346 0.000000 0.000000
    29 0.010599 -1.261177 0.000001 -0.101240 0.000000 0.000000
    30 -0.000001 -0.943233 -0.000001 -0.500914 0.000000 0.000000
    31 -0.827563 -2.508973 -0.277656 -0.588725 -0.040712 -0.060917
    32 0.000000 -1.292972 0.000001 0.104720 0.000000 0.000000
    33 0.000000 -0.752466 0.000000 -0.057631 0.000000 0.000000
    34 0.444213 -2.561959 -0.277655 -0.879101 -0.046226 -0.024599
    35 0.021022 -1.208185 -0.000001 -0.239112 0.000000 0.000000
    36 0.010597 -0.741867 -0.000001 -0.618502 0.000000 0.000000
    37 1.047445 -2.222821 -0.277655 -0.649459 -0.078971 -0.038609
    38 0.000000 -0.996222 0.000000 -0.863938 0.000000 0.000000
    39 -0.000001 -0.614690 0.000000 -0.523599 0.000000 0.000000
    40 -0.308254 -0.007814 0.307166 0.263730 -0.081654 -2.506799
    41 1.978379 0.019544 0.000000 -0.103273 0.012945 0.671639
    42 0.982426 0.003186 0.000000 0.000000 0.000000 0.240287
  time 19
    0 5.184602 -1.553238 -14.221586 -1.428624 -0.390203 0.568120
    1 -0.000001 -8.563283 0.000000 0.378985 0.567636 -0.135808
    2 -0.293234 -3.282020 0.672796 -1.247037 1.437608 -1.233844
    3 -0.000002 2.163130 0.753818 0.000000 0.000000 0.000000
    4 0.000002 -3.052707 1.526597 0.000000 0.000000 0.000000
    5 0.000003 -10.293062 1.701879 0.000000 0.000000 0.000000
    6 0.000000 -4.967293 1.445704 -0.225143 0.000000 0.000000
    7 0.000000 -5.102123 2.443444 0.000000 0.000000 0.000000
    8 0.149205 -7.394969 1.750465 0.054472 0.001918 0.008173
    9 -0.003480 -0.404829 0.000000 0.000000 0.000000 0.000000
    10 -0.519310 -2.501155 -0.278957 -1.375314 0.000000 -0.122173
    11 -0.010598 -1.208185 0.000000 -0.907575 0.000000 0.000000
    12 0.000000 -0.763066 0.000000 -1.144947 0.000000 0.000000
    13 0.105980 -2.607134 -0.278957 -0.869181 0.000000 -0.148353
    14 -0.000001 -1.250579 0.000000 -1.385786 0.000000 0.000000
    15 0.000000 -0.932634 0.000000 -0.902353 0.000000 0.000000
    16 0.763064 -2.490556 -0.278957 -0.340544 0.078175 0.347833
    17 -0.012322 -1.280917 0.000000 -0.553262 0.000000 0.000000
    18 -0.001697 -0.749371 0.000000 -0.593412 0.000000 0.000000
    19 0.354567 0.016267 0.318132 0.386384 -0.406183 -1.191370
    20 1.887164 0.012878 0.000000 -0.304306 0.026726 -0.316515
    21 1.001874 -0.000270 0.000000 0.000000 0.000000 -0.886628
    22 -1.123360 -2.195093 -0.278957 -1.206017 0.000000 -0.087266
    23 0.010772 -0.963791 0.000000 -0.778410 0.000000 0.000000
    24 -0.010412 -0.631916 -0.000001 -1.003573 0.000000 0.000000
    25 -2.784751 -6.447224 -9.537698 -5.102146 -2.897734 -5.459223
    26 0.089929 -8.543160 0.000000 -0.032345 0.534159 0.703766
    27 0.000000 -0.359712 0.000000 0.000000 0.000000 0.000000
    28 -0.170480 -2.636147 -0.277655 -0.617227 0.000000 0.000000
    29 0.010599 -1.261177 0.000001 -0.099131 0.000000 0.000000
    30 -0.000001 -0.943233 -0.000001 -0.515739 0.000000 0.000000
    31 -0.827563 -2.508973 -0.277656 -0.574739 -0.043037 -0.065663
    32 0.000000 -1.292972 0.000001 0.092874 0.000000 0.000000
    33 0.000000 -0.752466 0.000000 -0.045418 0.000000 0.000000
    34 0.444213 -2.561959 -0.277655 -0.787246 -0.046226 -0.024599
    35 0.021022 -1.208185 -0.000001 -0.239112 0.000000 0.000000
    36 0.010597 -0.741867 -0.000001 -0.628797 0.000000 0.000000
    37 1.047445 -2.222821 -0.277655 -0.653628 -0.078971 -0.038609
    38 0.000000 -0.996222 0.000000 -0.863938 0.000000 0.000000
    39 -0.000001 -0.614690 0.000000 -0.523599 0.000000 0.000000
    40 -0.308254 -0.007814 0.307166 0.266199 -0.087767 -2.472667
    41 1.978379 0.019544 0.000000 -0.103069 0.005694 0.600055
    42 0.982426 0.003186 0.000000 0.000000 0.000000 0.191666
  time 20
    0 5.184602 -1.564957 -14.284088 -1.425856 -0.388936 0.561053
    1 -0.000001 -8.563283 0.000000 0.374544 0.570314 -0.144002
    2 -0.293234 -3.282020 0.672796 -1.247037 1.437608 -1.233844
    3 -0.000002 2.163130 0.753818 0.000000 0.000000 0.000000
    4 0.000002 -3.052707 1.526597 0.000000 0.000000 0.000000
    5 0.000003 -10.293062 1.701879 0.000000 0.000000 0.000000
    6 0.000000 -4.967293 1.445704 -0.136708 0.000000 0.000000
    7 0.000000 -5.102123 2.443444 0.000000 0.000000 0.000000
    8 0.149205 -7.394969 1.750465 0.045389 0.001618 0.006795
    9 -0.003480 -0.404829 0.000000 0.000000 0.000000 0.000000
    10 -0.519310 -2.501155 -0.278957 -1.375314 0.000000 -0.122173
    11 -0.010598 -1.208185 0.000000 -0.907575 0.000000 0.000000
    12 0.000000 -0.763066 0.000000 -1.144947 0.000000 0.000000
    13 0.105980 -2.607134 -0.278957 -0.869181 0.000000 -0.148353
    14 -0.000001 -1.250579 0.000000 -1.385786 0.000000 0.000000
    15 0.000000 -0.932634 0.000000 -0.902353 0.000000 0.000000
    16 0.763064 -2.490556 -0.278957 -0.340544 0.078175 0.347833
    17 -0.012322 -1.280917 0.000000 -0.553262 0.000000 0.000000
    18 -0.001697 -0.749371 0.000000 -0.593412 0.000000 0.000000
    19 0.354567 0.016267 0.318132 0.386384 -0.406183 -1.191370
    20 1.887164 0.012878 0.000000 -0.304306 0.026726 -0.316515
    21 1.001874 -0.000270 0.000000 0.000000 0.000000 -0.886628
    22 -1.123360 -2.195093 -0.278957 -1.206017 0.000000 -0.087266
    23 0.010772 -0.963791 0.000000 -0.778410 0.000000 0.000000
    24 -0.010412 -0.631916 -0.000001 -1.003573 0.000000 0.000000
    25 -3.241796 -6.415973 -9.850207 -5.088532 -2.882630 -5.451693
    26 0.089929 -8.543160 0.000000 -0.139605 0.551370 0.596101
    27 0.000000 -0.359712 0.000000 0.000000 0.000000 0.000000
    28 -0.170480 -2.636147 -0.277655 -0.625684 0.000000 0.000000
    29 0.010599 -1.261177 0.000001 -0.108862 0.000000 0.000000
    30 -0.000001 -0.943233 -0.000001 -0.543711 0.000000 0.000000
    31 -0.827563 -2.508973 -0.277656 -0.570126 -0.043624 -0.067329
    32 0.000000 -1.292972 0.000001 0.030939 0.000000 0.000000
    33 0.000000 -0.752466 0.000000 -0.078004 0.000000 0.000000
    34 0.444213 -2.561959 -0.277655 -0.720032 -0.046226 -0.024599
    35 0.021022 -1.208185 -0.000001 -0.239112 0.000000 0.000000
    36 0.010597 -0.741867 -0.000001 -0.638133 0.000000 0.000000
    37 1.047445 -2.222821 -0.277655 -0.665752 -0.078971 -0.038609
    38 0.000000 -0.996222 0.000000 -0.863938 0.000000 0.000000
    39 -0.000001 -0.614690 0.000000 -0.523599 0.000000 0.000000
    40 -0.308254 -0.007814 0.307166 0.268572 -0.095245 -2.432087
    41 1.978379 0.019544 0.000000 -0.102230 -0.002563 0.517281
    42 0.982426 0.003186 0.000000 0.000000 0.000000 0.103224
  time 21
    0 5.184602 -1.572770 -14.315339 -1.423696 -0.388157 0.555695
    1 -0.000001 -8.563283 0.000000 0.371825 0.571983 -0.149108
    2 -0.293234 -3.282020 0.672796 -1.247037 1.437608 -1.233844
    3 -0.000002 2.163130 0.753818 0.000000 0.000000 0.000000
    4 0.000002 -3.052707 1.526597 0.000000 0.000000 0.000000
    5 0.000003 -10.293062 1.701879 0.000000 0.000000 0.000000
    6 0.000000 -4.967293 1.445704 -0.088350 0.000000 0.000000
    7 0.000000 -5.102123 2.443444 0.000000 0.000000 0.000000
    8 0.149205 -7.394969 1.750465 0.033896 0.001198 0.005057
    9 -0.003480 -0.404829 0.000000 0.000000 0.000000 0.000000
    10 -0.519310 -2.501155 -0.278957 -1.375314 0.000000 -0.122173
    11 -0.010598 -1.208185 0.000000 -0.907575 0.000000 0.000000
    12 0.000000 -0.763066 0.000000 -1.144947 0.000000 0.000000
    13 0.105980 -2.607134 -0.278957 -0.869181 0.000000 -0.148353
    14 -0.000001 -1.250579 0.000000 -1.385786 0.000000 0.000000
    15 0.000000 -0.932634 0.000000 -0.902353 0.000000 0.000000
    16 0.763064 -2.490556 -0.278957 -0.340544 0.078175 0.347833
    17 -0.012322 -1.280917 0.000000 -0.553262 0.000000 0.000000
    18 -0.001697 -0.749371 0.000000 -0.593412 0.000000 0.000000
    19 0.354567 0.016267 0.318132 0.386384 -0.406183 -1.191370
    20 1.887164 0.012878 0.000000 -0.304306 0.026726 -0.316515
    21 1.001874 -0.000270 0.000000 0.000000 0.000000 -0.886628
    22 -1.123360 -2.195093 -0.278957 -1.206017 0.000000 -0.087266
    23 0.010772 -0.963791 0.000000 -0.778410 0.000000 0.000000
    24 -0.010412 -0.631916 -0.000001 -1.003573 0.000000 0.000000
    25 -3.804314 -5.861268 -10.287721 -5.106843 -2.879284 -5.453199
    26 0.089929 -8.543160 0.000000 -0.155750 0.537280 0.545995
    27 0.000000 -0.359712 0.000000 0.000000 0.000000 0.000000
    28 -0.170480 -2.636147 -0.277655 -0.654130 0.000000 0.000000
    29 0.010599 -1.261177 0.000001 -0.124958 0.000000 0.000000
    30 -0.000001 -0.943233 -0.000001 -0.575794 0.000000 0.000000
    31 -0.827563 -2.508973 -0.277656 -0.575139 -0.043109 -0.066610
    32 0.000000 -1.292972 0.000001 -0.054951 0.000000 0.000000
    33 0.000000 -0.752466 0.000000 -0.135027 0.000000 0.000000
    34 0.444213 -2.561959 -0.277655 -0.680349 -0.046226 -0.024599
    35 0.021022 -1.208185 -0.000001 -0.239112 0.000000 0.000000
    36 0.010597 -0.741867 -0.000001 -0.645707 0.000000 0.000000
    37 1.047445 -2.222821 -0.277655 -0.685193 -0.078971 -0.038609
    38 0.000000 -0.996222 0.000000 -0.863938 0.000000 0.000000
    39 -0.000001 -0.614690 0.000000 -0.523599 0.000000 0.000000
    40 -0.308254 -0.007814 0.307166 0.268955 -0.103790 -2.390776
    41 1.978379 0.019544 0.000000 -0.100672 -0.011000 0.432097
    42 0.982426 0.003186 0.000000 0.000000 0.000000 -0.002673
  time 22
    0 5.184602 -1.572770 -14.330965 -1.422480 -0.387621 0.552433
    1 -0.000001 -8.563283 0.000000 0.371048 0.572422 -0.150600
    2 -0.293234 -3.282020 0.672796 -1.247037 1.437608 -1.233844
    3 -0.000002 2.163130 0.753818 0.000000 0.000000 0.000000
    4 0.000002 -3.052707 1.526597 0.000000 0.000000 0.000000
    5 0.000003 -10.293062 1.701879 0.000000 0.000000 0.000000
    6 0.000000 -4.967293 1.445704 0.000000 0.000000 0.000000
    7 0.000000 -5.102123 2.443444 0.000000 0.000000 0.000000
    8 0.149205 -7.394969 1.750465 0.021794 0.000815 0.003272
    9 -0.003480 -0.404829 0.000000 0.000000 0.000000 0.000000
    10 -0.519310 -2.501155 -0.278957 -1.375314 0.000000 -0.122173
    11 -0.010598 -1.208185 0.000000 -0.907575 0.000000 0.000000
    12 0.000000 -0.763066 0.000000 -1.144947 0.000000 0.000000
    13 0.105980 -2.607134 -0.278957 -0.869181 0.000000 -0.148353
    14 -0.000001 -1.250579 0.000000 -1.385786 0.000000 0.000000
    15 0.000000 -0.932634 0.000000 -0.902353 0.000000 0.000000
    16 0.763064 -2.490556 -0.278957 -0.340544 0.078175 0.347833
    17 -0.012322 -1.280917 0.000000 -0.553262 0.000000 0.000000
    18 -0.001697 -0.749371 0.000000 -0.593412 0.000000 0.000000
    19 0.354567 0.016267 0.318132 0.386384 -0.406183 -1.191370
    20 1.887164 0.012878 0.000000 -0.304306 0.026726 -0.316515
    21 1.001874 -0.000270 0.000000 0.000000 0.000000 -0.886628
    22 -1.123360 -2.195093 -0.278957 -1.206017 0.000000 -0.087266
    23 0.010772 -0.963791 0.000000 -0.778410 0.000000 0.000000
    24 -0.010412 -0.631916 -0.000001 -1.003573 0.000000 0.000000
    25 -4.796531 -3.771361 -11.221343 -5.157177 -2.881674 -5.477859
    26 0.089929 -8.543160 0.000000 -0.072306 0.502093 0.558508
    27 0.000000 -0.359712 0.000000 0.000000 0.000000 0.000000
    28 -0.170480 -2.636147 -0.277655 -0.696187 0.000000 0.000000
    29 0.010599 -1.261177 0.000001 -0.141700 0.000000 0.000000
    30 -0.000001 -0.943233 -0.000001 -0.602939 0.000000 0.000000
    31 -0.827563 -2.508973 -0.277656 -0.590005 -0.041946 -0.064225
    32 0.000000 -1.292972 0.000001 -0.138575 0.000000 0.000000
    33 0.000000 -0.752466 0.000000 -0.196113 0.000000 0.000000
    34 0.444213 -2.561959 -0.277655 -0.671312 -0.046226 -0.024599
    35 0.021022 -1.208185 -0.000001 -0.239112 0.000000 0.000000
    36 0.010597 -0.741867 -0.000001 -0.650873 0.000000 0.000000
    37 1.047445 -2.222821 -0.277655 -0.711270 -0.078971 -0.038609
    38 0.000000 -0.996222 0.000000 -0.863938 0.000000 0.000000
    39 -0.000001 -0.614690 0.000000 -0.523599 0.000000 0.000000
    40 -0.308254 -0.007814 0.307166 0.265660 -0.112886 -2.354439
    41 1.978379 0.019544 0.000000 -0.098635 -0.018731 0.353152
    42 0.982426 0.003186 0.000000 0.000000 0.000000 -0.103804
  time 23
    0 5.184602 -1.564957 -14.334871 -1.422278 -0.387426 0.551967
    1 -0.000001 -8.563283 0.000000 0.370685 0.572686 -0.151188
    2 -0.293234 -3.282020 0.672796 -1.247037 1.437608 -1.233844
    3 -0.000002 2.163130 0.753818 0.000000 0.000000 0.000000
    4 0.000002 -3.052707 1.526597 0.000000 0.000000 0.000000
    5 0.000003 -10.293062 1.701879 0.000000 0.000000 0.000000
    6 0.000000 -4.967293 1.445704 0.000000 0.000000 0.000000
    7 0.000000 -5.102123 2.443444 0.000000 0.000000 0.000000
    8 0.149205 -7.394969 1.750465 0.010859 0.000384 0.001630
    9 -0.003480 -0.404829 0.000000 0.000000 0.000000 0.000000
    10 -0.519310 -2.501155 -0.278957 -1.375314 0.000000 -0.122173
    11 -0.010598 -1.208185 0.000000 -0.907575 0.000000 0.000000
    12 0.000000 -0.763066 0.000000 -1.144947 0.000000 0.000000
    13 0.105980 -2.607134 -0.278957 -0.869181 0.000000 -0.148353
    14 -0.000001 -1.250579 0.000000 -1.385786 0.000000 0.000000
    15 0.000000 -0.932634 0.000000 -0.902353 0.000000 0.000000
    16 0.763064 -2.490556 -0.278957 -0.340544 0.078175 0.347833
    17 -0.012322 -1.280917 0.000000 -0.553262 0.000000 0.000000
    18 -0.001697 -0.749371 0.000000 -0.593412 0.000000 0.000000
    19 0.354567 0.016267 0.318132 0.386384 -0.406183 -1.191370
    20 1.887164 0.012878 0.000000 -0.304306 0.026726 -0.316515
    21 1.001874 -0.000270 0.000000 0.000000 0.000000 -0.886628
    22 -1.123360 -2.195093 -0.278957 -1.206017 0.000000 -0.087266
    23 0.010772 -0.963791 0.000000 -0.778410 0.000000 0.000000
    24 -0.010412 -0.631916 -0.000001 -1.003573 0.000000 0.000000
    25 -6.347360 -0.025153 -12.768265 -5.223426 -2.878137 -5.524921
    26 0.089929 -8.543160 0.000000 0.053122 0.453046 0.588401
    27 0.000000 -0.359712 0.000000 0.000000 0.000000 0.000000
    28 -0.170480 -2.636147 -0.277655 -0.745307 0.000000 0.000000
    29 0.010599 -1.261177 0.000001 -0.153637 0.000000 0.000000
    30 -0.000001 -0.943233 -0.000001 -0.616098 0.000000 0.000000
    31 -0.827563 -2.508973 -0.277656 -0.614884 -0.040712 -0.060917
    32 0.000000 -1.292972 0.000001 -0.193748 0.000000 0.000000
    33 0.000000 -0.752466 0.000000 -0.240863 0.000000 0.000000
    34 0.444213 -2.561959 -0.277655 -0.695840 -0.046226 -0.024599
    35 0.021022 -1.208185 -0.000001 -0.239112 0.000000 0.000000
    36 0.010597 -0.741867 -0.000001 -0.652706 0.000000 0.000000
    37 1.047445 -2.222821 -0.277655 -0.743367 -0.078971 -0.038609
    38 0.000000 -0.996222 0.000000 -0.863938 0.000000 0.000000
    39 -0.000001 -0.614690 0.000000 -0.523599 0.000000 0.000000
    40 -0.308254 -0.007814 0.307166 0.256971 -0.122090 -2.328887
    41 1.978379 0.019544 0.000000 -0.096670 -0.024879 0.289277
    42 0.982426 0.003186 0.000000 0.000000 0.000000 -0.177806
  time 24
    0 5.184602 -1.553238 -14.334871 -1.423425 -0.388010 0.554840
    1 -0.000001 -8.563283 0.000000 0.370763 0.572664 -0.151104
    2 -0.293234 -3.282020 0.672796 -1.247037 1.437608 -1.233844
    3 -0.000002 2.163130 0.753818 0.000000 0.000000 0.000000
    4 0.000002 -3.052707 1.526597 0.000000 0.000000 0.000000
    5 0.000003 -10.293062 1.701879 0.000000 0.000000 0.000000
    6 0.000000 -4.967293 1.445704 0.000000 0.000000 0.000000
    7 0.000000 -5.102123 2.443444 0.000000 0.000000 0.000000
    8 0.149205 -7.394969 1.750465 0.002994 0.000108 0.000407
    9 -0.003480 -0.404829 0.000000 0.000000 0.000000 0.000000
    10 -0.519310 -2.501155 -0.278957 -1.375314 0.000000 -0.122173
    11 -0.010598 -1.208185 0.000000 -0.907575 0.000000 0.000000
    12 0.000000 -0.763066 0.000000 -1.144947 0.000000 0.000000
    13 0.105980 -2.607134 -0.278957 -0.869181 0.000000 -0.148353
    14 -0.000001 -1.250579 0.000000 -1.385786 0.000000 0.000000
    15 0.000000 -0.932634 0.000000 -0.902353 0.000000 0.000000
    16 0.763064 -2.490556 -0.278957 -0.340544 0.078175 0.347833
    17 -0.012322 -1.280917 0.000000 -0.553262 0.000000 0.000000
    18 -0.001697 -0.749371 0.000000 -0.593412 0.000000 0.000000
    19 0.354567 0.016267 0.318132 0.386384 -0.406183 -1.191370
    20 1.887164 0.012878 0.000000 -0.304306 0.026726 -0.316515
    21 1.001874 -0.000270 0.000000 0.000000 0.000000 -0.886628
    22 -1.123360 -2.195093 -0.278957 -1.206017 0.000000 -0.087266
    23 0.010772 -0.963791 0.000000 -0.778410 0.000000 0.000000
    24 -0.010412 -0.631916 -0.000001 -1.003573 0.000000 0.000000
    25 -8.140383 4.455453 -14.565195 -5.299837 -2.871732 -5.579136
    26 0.089929 -8.543160 0.000000 0.199019 0.390352 0.622144
    27 0.000000 -0.359712 0.000000 0.000000 0.000000 0.000000
    28 -0.170480 -2.636147 -0.277655 -0.797046 0.000000 0.000000
    29 0.010599 -1.261177 0.000001 -0.161067 0.000000 0.000000
    30 -0.000001 -0.943233 -0.000001 -0.618339 0.000000 0.000000
    31 -0.827563 -2.508973 -0.277656 -0.645909 -0.039526 -0.057226
    32 0.000000 -1.292972 0.000001 -0.224778 0.000000 0.000000
    33 0.000000 -0.752466 0.000000 -0.270417 0.000000 0.000000
    34 0.444213 -2.561959 -0.277655 -0.741726 -0.046226 -0.024599
    35 0.021022 -1.208185 -0.000001 -0.239112 0.000000 0.000000
    36 0.010597 -0.741867 -0.000001 -0.652083 0.000000 0.000000
    37 1.047445 -2.222821 -0.277655 -0.780824 -0.078971 -0.038609
    38 0.000000 -0.996222 0.000000 -0.863938 0.000000 0.000000
    39 -0.000001 -0.614690 0.000000 -0.523599 0.000000 0.000000
    40 -0.308254 -0.007814 0.307166 0.241439 -0.130911 -2.319707
    41 1.978379 0.019544 0.000000 -0.095315 -0.028726 0.249136
    42 0.982426 0.003186 0.000000 0.000000 0.000000 -0.202432
  time 25
    0 5.184602 -1.541519 -14.330965 -1.426059 -0.389083 0.561597
    1 -0.000001 -8.563283 0.000000 0.371048 0.572422 -0.150600
    2 -0.293234 -3.282020 0.672796 -1.247037 1.437608 -1.233844
    3 -0.000002 2.163130 0.753818 0.000000 0.000000 0.000000
    4 0.000002 -3.052707 1.526597 0.000000 0.000000 0.000000
    5 0.000003 -10.293062 1.701879 0.000000 0.000000 0.000000
    6 0.000000 -4.967293 1.445704 0.000000 0.000000 0.000000
    7 0.000000 -5.102123 2.443444 0.000000 0.000000 0.000000
    8 0.149205 -7.394969 1.750465 0.000000 0.000000 0.000000
    9 -0.003480 -0.404829 0.000000 0.000000 0.000000 0.000000
    10 -0.519310 -2.501155 -0.278957 -1.375314 0.000000 -0.122173
    11 -0.010598 -1.208185 0.000000 -0.907575 0.000000 0.000000
    12 0.000000 -0.763066 0.000000 -1.144947 0.000000 0.000000
    13 0.105980 -2.607134 -0.278957 -0.869181 0.000000 -0.148353
    14 -0.000001 -1.250579 0.000000 -1.385786 0.000000 0.000000
    15 0.000000 -0.932634 0.000000 -0.902353 0.000000 0.000000
    16 0.763064 -2.490556 -0.278957 -0.340544 0.078175 0.347833
    17 -0.012322 -1.280917 0.000000 -0.553262 0.000000 0.000000
    18 -0.001697 -0.749371 0.000000 -0.593412 0.000000 0.000000
    19 0.354567 0.016267 0.318132 0.386384 -0.406183 -1.191370
    20 1.887164 0.012878 0.000000 -0.304306 0.026726 -0.316515
    21 1.001874 -0.000270 0.000000 0.000000 0.000000 -0.886628
    22 -1.123360 -2.195093 -0.278957 -1.206017 0.000000 -0.087266
    23 0.010772 -0.963791 0.000000 -0.778410 0.000000 0.000000
    24 -0.010412 -0.631916 -0.000001 -1.003573 0.000000 0.000000
    25 -9.816216 8.744646 -16.198057 -5.381138 -2.867813 -5.625068
    26 0.089929 -8.543160 0.000000 0.346764 0.317393 0.648847
    27 0.000000 -0.359712 0.000000 0.000000 0.000000 0.000000
    28 -0.170480 -2.636147 -0.277655 -0.851071 0.000000 0.000000
    29 0.010599 -1.261177 0.000001 -0.168342 0.000000 0.000000
    30 -0.000001 -0.943233 -0.000001 -0.619059 0.000000 0.000000
    31 -0.827563 -2.508973 -0.277656 -0.678921 -0.038063 -0.053307
    32 0.000000 -1.292972 0.000001 -0.253592 0.000000 0.000000
    33 0.000000 -0.752466 0.000000 -0.299444 0.000000 0.000000
    34 0.444213 -2.561959 -0.277655 -0.793785 -0.046226 -0.024599
    35 0.021022 -1.208185 -0.000001 -0.239112 0.000000 0.000000
    36 0.010597 -0.741867 -0.000001 -0.650298 0.000000 0.000000
    37 1.047445 -2.222821 -0.277655 -0.823024 -0.078971 -0.038609
    38 0.000000 -0.996222 0.000000 -0.863938 0.000000 0.000000
    39 -0.000001 -0.614690 0.000000 -0.523599 0.000000 0.000000
    40 -0.308254 -0.007814 0.307166 0.220909 -0.139684 -2.322691
    41 1.978379 0.019544 0.000000 -0.094668 -0.030943 0.226738
    42 0.982426 0.003186 0.000000 0.000000 0.000000 -0.190204
  time 26
    0 5.184602 -1.529800 -14.315339 -1.430447 -0.390935 0.572935
    1 -0.000001 -8.563283 0.000000 0.371384 0.572247 -0.149864
    2 -0.293234 -3.282020 0.672796 -1.247037 1.437608 -1.233844
    3 -0.000002 2.163130 0.753818 0.000000 0.000000 0.000000
    4 0.000002 -3.052707 1.526597 0.000000 0.000000 0.000000
    5 0.000003 -10.293062 1.701879 0.000000 0.000000 0.000000
    6 0.000000 -4.967293 1.445704 0.000000 0.000000 0.000000
    7 0.000000 -5.102123 2.443444 0.000000 0.000000 0.000000
    8 0.149205 2.136572 1.750465 0.000000 0.000000 0.000000
    9 -0.003480 -0.404829 0.000000 0.000000 0.000000 0.000000
    10 -0.519310 -2.501155 -0.278957 -1.375314 0.000000 -0.122173
    11 -0.010598 -1.208185 0.000000 -0.907575 0.000000 0.000000
    12 0.000000 -0.763066 0.000000 -1.144947 0.000000 0.000000
    13 0.105980 -2.607134 -0.278957 -0.869181 0.000000 -0.148353
    14 -0.000001 -1.250579 0.000000 -1.385786 0.000000 0.000000
    15 0.000000 -0.932634 0.000000 -0.902353 0.000000 0.000000
    16 0.763064 -2.490556 -0.278957 -0.340544 0.078175 0.347833
    17 -0.012322 -1.280917 0.000000 -0.553262 0.000000 0.000000
    18 -0.001697 -0.749371 0.000000 -0.593412 0.000000 0.000000
    19 0.354567 0.016267 0.318132 0.386384 -0.406183 -1.191370
    20 1.887164 0.012878 0.000000 -0.304306 0.026726 -0.316515
    21 1.001874 -0.000270 0.000000 0.000000 0.000000 -0.886628
    22 -1.123360 -2.195093 -0.278957 -1.206017 0.000000 -0.087266
    23 0.010772 -0.963791 0.000000 -0.778410 0.000000 0.000000
    24 -0.010412 -0.631916 -0.000001 -1.003573 0.000000 0.000000
    25 -11.046722 11.893180 -17.315279 -5.461864 -2.874218 -5.649164
    26 0.089929 -8.543160 0.000000 0.480875 0.240456 0.661993
    27 0.000000 -0.359712 0.000000 0.000000 0.000000 0.000000
    28 -0.170480 -2.636147 -0.277655 -0.907132 0.000000 0.000000
    29 0.010599 -1.261177 0.000001 -0.175377 0.000000 0.000000
    30 -0.000001 -0.943233 -0.000001 -0.618316 0.000000 0.000000
    31 -0.827563 -2.508973 -0.277656 -0.713706 -0.036422 -0.049221
    32 0.000000 -1.292972 0.000001 -0.280452 0.000000 0.000000
    33 0.000000 -0.752466 0.000000 -0.327955 0.000000 0.000000
    34 0.444213 -2.561959 -0.277655 -0.851542 -0.046226 -0.024599
    35 0.021022 -1.208185 -0.000001 -0.239112 0.000000 0.000000
    36 0.010597 -0.741867 -0.000001 -0.647433 0.000000 0.000000
    37 1.047445 -2.222821 -0.277655 -0.869308 -0.078971 -0.038609
    38 0.000000 -0.996222 0.000000 -0.863938 0.000000 0.000000
    39 -0.000001 -0.614690 0.000000 -0.523599 0.000000 0.000000
    40 -0.308254 -0.007814 0.307166 0.198462 -0.148708 -2.329439
    41 1.978379 0.019544 0.000000 -0.094273 -0.032657 0.209754
    42 0.982426 0.003186 0.000000 0.000000 0.000000 -0.169200
  time 27
    0 5.184602 -1.518081 -14.315339 -1.436794 -0.393420 0.589400
    1 -0.000001 -8.563283 0.000000 0.371708 0.572071 -0.149318
    2 -0.293234 -3.282020 0.672796 -1.247037 1.437608 -1.233844
    3 -0.000002 2.163130 0.753818 0.000000 0.000000 0.000000
    4 0.000002 -3.052707 1.526597 0.000000 0.000000 0.000000
    5 0.000003 -10.293062 1.701879 0.000000 0.000000 0.000000
    6 0.000000 -4.967293 1.445704 0.000000 0.000000 0.000000
    7 0.000000 -5.102123 2.443444 0.000000 0.000000 0.000000
    8 0.004669 5.953095 -2.702796 0.000000 0.000000 0.000000
    9 -0.003480 -0.404829 0.000000 0.000000 0.000000 0.000000
    10 -0.519310 -2.501155 -0.278957 -1.375314 0.000000 -0.122173
    11 -0.010598 -1.208185 0.000000 -0.907575 0.000000 0.000000
    12 0.000000 -0.763066 0.000000 -1.144947 0.000000 0.000000
    13 0.105980 -2.607134 -0.278957 -0.869181 0.000000 -0.148353
    14 -0.000001 -1.250579 0.000000 -1.385786 0.000000 0.000000
    15 0.000000 -0.932634 0.000000 -0.902353 0.000000 0.000000
    16 0.763064 -2.490556 -0.278957 -0.340544 0.078175 0.347833
    17 -0.012322 -1.280917 0.000000 -0.553262 0.000000 0.000000
    18 -0.001697 -0.749371 0.000000 -0.593412 0.000000 0.000000
    19 0.354567 0.016267 0.318132 0.386384 -0.406183 -1.191370
    20 1.887164 0.012878 0.000000 -0.304306 0.026726 -0.316515
    21 1.001874 -0.000270 0.000000 0.000000 0.000000 -0.886628
    22 -1.123360 -2.195093 -0.278957 -1.206017 0.000000 -0.087266
    23 0.010772 -0.963791 0.000000 -0.778410 0.000000 0.000000
    24 -0.010412 -0.631916 -0.000001 -1.003573 0.000000 0.000000
    25 -11.492048 12.975244 -17.506691 -5.536070 -2.901366 -5.638810
    26 0.089929 -8.543160 0.000000 0.588380 0.167604 0.659820
    27 0.000000 -0.359712 0.000000 0.000000 0.000000 0.000000
    28 -0.170480 -2.636147 -0.277655 -0.964980 0.000000 0.000000
    29 0.010599 -1.261177 0.000001 -0.182184 0.000000 0.000000
    30 -0.000001 -0.943233 -0.000001 -0.616398 0.000000 0.000000
    31 -0.827563 -2.508973 -0.277656 -0.749958 -0.034540 -0.044954
    32 0.000000 -1.292972 0.000001 -0.305597 0.000000 0.000000
    33 0.000000 -0.752466 0.000000 -0.356047 0.000000 0.000000
    34 0.444213 -2.561959 -0.277655 -0.914210 -0.046226 -0.024599
    35 0.021022 -1.208185 -0.000001 -0.239112 0.000000 0.000000
    36 0.010597 -0.741867 -0.000001 -0.643718 0.000000 0.000000
    37 1.047445 -2.222821 -0.277655 -0.918953 -0.078971 -0.038609
    38 0.000000 -0.996222 0.000000 -0.863938 0.000000 0.000000
    39 -0.000001 -0.614690 0.000000 -0.523599 0.000000 0.000000
    40 -0.308254 -0.007814 0.307166 0.174385 -0.158188 -2.339362
    41 1.978379 0.019544 0.000000 -0.094057 -0.033927 0.197557
    42 0.982426 0.003186 0.000000 0.000000 0.000000 -0.140489
end
