// Created by Crowbar 0.34.0.0

$ModelName "weapons/tfa_cso/w_horseaxe.mdl"

$BodyGroup "studio"
{
	studio "v_ref"
}

$collisionmodel "v_ref.smd"
{
	$mass 9
}

$CDMaterials "models\weapons\tfa_cso\horseaxe\"

$Sequence "idle" {
	"anims\idle.smd"
	fps 30
}