version 1
nodes
  0 "smdimport" -1
end
skeleton
  time 0
    0 0.000000 0.000000 3.709898 0.000000 0.000000 1.570796
  time 1
    0 0.000000 0.000000 3.729430 0.000000 0.000000 1.570796
  time 2
    0 0.000000 0.000000 3.791932 0.000000 0.000000 1.570796
  time 3
    0 0.000000 0.000000 3.885685 0.000000 0.000000 1.570796
  time 4
    0 0.000000 0.000000 4.006782 0.000000 0.000000 1.570796
  time 5
    0 0.000000 0.000000 4.147411 0.000000 0.000000 1.570796
  time 6
    0 0.000000 0.000000 4.307572 0.000000 0.000000 1.570796
  time 7
    0 0.000000 0.000000 4.475546 0.000000 0.000000 1.570796
  time 8
    0 0.000000 0.000000 4.643520 0.000000 0.000000 1.570796
  time 9
    0 0.000000 0.000000 4.811494 0.000000 0.000000 1.570796
  time 10
    0 0.000000 0.000000 4.967749 0.000000 0.000000 1.570796
  time 11
    0 0.000000 0.000000 5.112285 0.000000 0.000000 1.570796
  time 12
    0 0.000000 0.000000 5.233382 0.000000 0.000000 1.570796
  time 13
    0 0.000000 0.000000 5.327135 0.000000 0.000000 1.570796
  time 14
    0 0.000000 0.000000 5.389637 0.000000 0.000000 1.570796
  time 15
    0 0.000000 0.000000 5.409169 0.000000 0.000000 1.570796
  time 16
    0 0.000000 0.000000 5.389637 0.000000 0.000000 1.570796
  time 17
    0 0.000000 0.000000 5.327135 0.000000 0.000000 1.570796
  time 18
    0 0.000000 0.000000 5.233382 0.000000 0.000000 1.570796
  time 19
    0 0.000000 0.000000 5.112285 0.000000 0.000000 1.570796
  time 20
    0 0.000000 0.000000 4.967749 0.000000 0.000000 1.570796
  time 21
    0 0.000000 0.000000 4.811494 0.000000 0.000000 1.570796
  time 22
    0 0.000000 0.000000 4.643520 0.000000 0.000000 1.570796
  time 23
    0 0.000000 0.000000 4.475546 0.000000 0.000000 1.570796
  time 24
    0 0.000000 0.000000 4.307572 0.000000 0.000000 1.570796
  time 25
    0 0.000000 0.000000 4.147411 0.000000 0.000000 1.570796
  time 26
    0 0.000000 0.000000 4.006782 0.000000 0.000000 1.570796
  time 27
    0 0.000000 0.000000 3.885685 0.000000 0.000000 1.570796
  time 28
    0 0.000000 0.000000 3.791932 0.000000 0.000000 1.570796
  time 29
    0 0.000000 0.000000 3.729430 0.000000 0.000000 1.570796
  time 30
    0 0.000000 0.000000 3.709898 0.000000 0.000000 1.570796
end
