// Created by Crowbar 0.34.0.0

$ModelName "weapons/tfa_cso/w_ancient_keeper.mdl"

$BodyGroup "studio"
{
	studio "v_refB"
}

$collisionmodel "v_refB.smd"
{
	$mass 9
}

$CDMaterials "models\weapons\tfa_cso\ancient_keeper\"

$attachment "0" "root" -0.40 -21.00 0.00 rotate -0 -90 0

$Sequence "idle" {
	"anims\idle.smd"
	fps 30
}