// Created by Crowbar 0.34.0.0

$ModelName "weapons/tfa_cso/w_ballista.mdl"

$BodyGroup "studio"
{
	studio "v_sgmissilem01"
}

$collisionmodel "v_sgmissilem01.smd"
{
	$mass 9
}

$CDMaterials "models\weapons\tfa_cso\ballista\"

$attachment "0" "root" -0.10 -12.70 -0.60 rotate -0 0 0

$Sequence "idle" {
	"anims\idle.smd"
	fps 30
}