// Created by Crowbar 0.34.0.0

$ModelName "weapons/tfa_cso/w_crossbow.mdl"

$BodyGroup "studio"
{
	studio "v_crossbow_v_ref"
}

$collisionmodel "v_crossbow_v_ref.smd"
{
	$mass 9
}

$CDMaterials "models\weapons\tfa_cso\crossbow"

$attachment "0" "root" 0.00 -14.00 -0.20 rotate -0 0 0

$Sequence "idle" {
	"anims\idle.smd"
	fps 30
}