version 1
nodes
  0 "root" -1
  1 "Bone01" 0
  2 "Bone_Lefthand" 1
  3 "M60E4_Root" 2
  4 "M60E4_Magazine" 3
  5 "M60E4_Bullet01" 4
  6 "M60E4_Bullet02" 5
  7 "M60E4_Bullet03" 6
  8 "M60E4_Bullet04" 7
  9 "M60E4_Bullet05" 8
  10 "M60E4_Bullet06" 9
  11 "M60E4_Bullet07" 10
  12 "M60E4_Bullet08" 11
  13 "M60E4_Trigger" 3
  14 "M60E4_Cover" 3
  15 "M60E4_Handle" 3
  16 "M60E4_Sight" 3
  17 "M60E4_Tripod01" 3
  18 "Bone_L_Upper" 1
  19 "Bone13" 2
  20 "Bone14" 19
  21 "Bone15" 20
  22 "Bone17" 2
  23 "Bone18" 22
  24 "Bone19" 23
  25 "Bone21" 2
  26 "Bone22" 25
  27 "Bone23" 26
  28 "Bone09" 2
  29 "Bone10" 28
  30 "Bone11" 29
  31 "Bone05" 2
  32 "Bone06" 31
  33 "Bone07" 32
  34 "Bone_Se_Hand-L" 2
  35 "Bone04" 0
  36 "Bone_Righthand" 35
  37 "Bone39" 36
  38 "Bone40" 37
  39 "Bone41" 38
  40 "Bone35" 36
  41 "Bone36" 40
  42 "Bone37" 41
  43 "Bone31" 36
  44 "Bone32" 43
  45 "Bone33" 44
  46 "Bone43" 36
  47 "Bone44" 46
  48 "Bone45" 47
  49 "Bone27" 36
  50 "Bone28" 49
  51 "Bone29" 50
  52 "Bone_Se_Hand-R" 36
  53 "Bone_R_Upper" 35
end
skeleton
  time 0
    0 1.476696 42.313427 -39.163345 0.000000 0.000000 0.000000
    1 11.266297 -43.426086 26.145898 0.623782 -2.425725 -1.034271
    2 -0.071918 -8.498733 -0.104137 -0.148492 0.625264 -0.499698
    3 1.179526 -3.387610 0.368453 -0.367238 -0.179600 -3.536014
    4 -1.301709 0.985929 3.177480 -1.570796 0.000000 0.321751
    5 -1.505133 2.820176 -1.031096 1.570796 -1.570796 0.000000
    6 0.000000 0.007813 0.355483 0.016575 0.000000 0.000000
    7 0.000000 -0.131061 0.756870 0.013495 0.002385 0.073585
    8 0.000001 0.012484 0.416368 -0.157568 0.011925 0.171188
    9 -0.000001 -0.021249 0.542012 0.289297 -0.055453 0.056987
    10 0.000000 -0.144519 0.417405 0.975419 -0.082035 0.072495
    11 0.000001 0.000160 0.527705 0.049118 -0.037680 -0.043444
    12 0.000001 -0.266081 0.483583 -0.288146 -0.077708 -0.163997
    13 -0.221091 0.924087 -0.007814 0.000000 0.000000 0.152918
    14 -4.059096 1.933378 -0.000001 0.000000 0.000000 -1.250151
    15 -4.705892 5.891053 -0.000003 -0.035367 0.000000 -1.249451
    16 -4.346755 2.840777 -0.000002 0.000000 0.000000 -2.820401
    17 -5.098958 12.305957 1.028684 0.093081 -0.398269 0.086091
    18 1.343120 8.715708 1.092419 -1.422480 0.140206 -1.590417
    19 -0.488518 -2.755602 -0.228260 -0.097080 0.157299 -0.471464
    20 0.039887 -1.479790 0.029854 -2.051479 0.000000 0.000001
    21 0.028786 -1.075731 -0.023109 -0.970641 0.000000 0.000000
    22 0.250027 -2.820665 -0.238396 0.052169 0.095808 -0.372295
    23 -0.049759 -1.680544 0.100479 -2.080775 0.000000 -0.000002
    24 -0.034142 -1.148312 0.084782 -1.112900 0.000000 0.000000
    25 0.957766 -2.746780 -0.090302 0.258287 -0.031657 -0.256482
    26 -0.033420 -1.397129 -0.011257 -1.322326 0.000000 -0.000001
    27 -0.022360 -0.957436 0.018784 -1.608384 0.000000 0.000000
    28 -1.180681 -2.507217 -0.193859 -0.301383 0.279795 -0.312504
    29 -0.024967 -1.123934 0.017597 -1.604726 0.072770 -0.281625
    30 -0.020057 -0.890968 0.010090 -1.249147 0.000000 0.000000
    31 0.583510 -1.197277 0.185379 0.231467 -0.888500 -0.482506
    32 1.535927 0.010246 0.005009 0.009296 0.084096 -0.993218
    33 1.100771 0.004527 -0.010679 -0.014852 0.006493 -0.982291
    34 -0.067353 -0.065895 -0.195118 -2.500880 -0.001025 -1.473281
    35 0.901142 -56.174221 22.405650 0.915397 -3.608831 1.112242
    36 0.096944 -8.450418 -0.009365 -0.076160 -0.414903 0.720498
    37 0.447953 -2.798986 -0.200443 -1.256332 0.039448 0.150461
    38 -0.032909 -1.480204 0.004940 -1.615703 0.000000 0.000002
    39 -0.027022 -1.076920 -0.020210 -0.294437 0.000000 0.000000
    40 -0.249534 -2.846964 -0.174213 -1.062156 0.058623 0.101443
    41 0.043235 -1.683941 0.096012 -1.653380 0.002823 -0.000167
    42 0.031729 -1.160830 0.058838 -0.649575 0.000642 0.008372
    43 -0.963866 -2.785145 -0.085350 -0.205071 0.160754 0.088998
    44 0.028479 -1.403067 0.006271 -1.219102 0.000000 0.000000
    45 0.021413 -0.957781 0.020046 -0.902852 0.000000 0.000000
    46 1.164475 -2.543940 -0.170330 -1.111380 0.022983 0.043056
    47 0.024032 -1.129042 0.017807 -1.186514 0.000000 0.000001
    48 0.014898 -0.883989 -0.019848 -0.761021 0.000000 0.000000
    49 -0.586770 -1.264477 0.200161 -0.783836 -0.899837 -2.444635
    50 1.522835 0.058681 0.016848 0.447361 -0.239893 0.980788
    51 1.117947 0.048424 -0.005766 -0.095820 0.009797 0.694413
    52 0.079358 -0.185919 -0.087169 0.431558 0.118246 1.207667
    53 -1.393470 8.839177 -0.239433 1.580804 -0.005023 -1.566847
  time 1
    0 1.476696 42.313427 -39.163345 0.000000 0.000000 0.000000
    1 11.266297 -44.594091 25.981831 0.623782 -2.425725 -1.034271
    2 -0.071918 -8.498733 -0.104137 -0.125963 0.616737 -0.461828
    3 1.179526 -3.387610 0.368453 -0.367238 -0.179600 -3.536014
    4 -1.301709 0.985929 3.177480 -1.570796 0.000000 0.321751
    5 -1.520758 2.753767 -1.031096 1.570796 -1.570796 0.000000
    6 0.000000 -0.003906 0.355483 -0.020769 0.000000 0.000000
    7 0.000000 -0.134968 0.694368 -0.032421 0.001402 0.043600
    8 0.000001 -0.237524 0.330427 -0.175419 0.016491 0.052457
    9 -0.000001 0.006096 0.549825 0.428081 -0.004350 0.007526
    10 0.000000 -0.167957 0.448656 0.924487 -0.048538 0.090556
    11 0.000001 -0.070154 0.512080 0.224723 0.000000 0.000000
    12 0.000001 -0.277800 0.440613 -0.294461 -0.046045 -0.097183
    13 -0.256248 1.060810 -0.000001 0.000000 0.000000 0.152918
    14 -4.059096 1.933378 -0.000001 0.000000 0.000000 -1.250151
    15 -4.705892 5.891053 -0.000003 0.209179 0.000000 -1.249451
    16 -4.346755 2.840777 -0.000002 0.000000 0.000000 -2.820401
    17 -5.098958 12.305957 1.028684 0.069227 -0.412442 0.138106
    18 1.343120 8.715708 1.092419 -1.422480 0.140206 -1.590417
    19 -0.488518 -2.755602 -0.228260 -0.097080 0.157299 -0.471464
    20 0.039887 -1.479790 0.029854 -2.051479 0.000000 0.000001
    21 0.028786 -1.075731 -0.023109 -0.970641 0.000000 0.000000
    22 0.250027 -2.820665 -0.238396 0.052169 0.095808 -0.372295
    23 -0.049759 -1.680544 0.100479 -2.080775 0.000000 -0.000002
    24 -0.034142 -1.148312 0.084782 -1.112900 0.000000 0.000000
    25 0.957766 -2.746780 -0.090302 0.258287 -0.031657 -0.256482
    26 -0.033420 -1.397129 -0.011257 -1.322326 0.000000 -0.000001
    27 -0.022360 -0.957436 0.018784 -1.608433 0.000000 0.000000
    28 -1.180681 -2.507217 -0.193859 -0.301383 0.279795 -0.312504
    29 -0.024967 -1.123934 0.017597 -1.604726 0.072770 -0.281625
    30 -0.020057 -0.890968 0.010090 -1.249147 0.000000 0.000000
    31 0.583510 -1.197277 0.185379 0.231467 -0.888485 -0.482506
    32 1.535927 0.010246 0.005009 0.009296 0.084096 -0.993218
    33 1.100771 0.004527 -0.010679 -0.014852 0.006493 -0.982291
    34 -0.067353 -0.065895 -0.195118 -2.500880 -0.001025 -1.473281
    35 0.901142 -57.310974 22.698628 0.915397 -3.608831 1.112242
    36 0.096944 -8.450418 -0.009365 -0.072075 -0.412079 0.704520
    37 0.447953 -2.798986 -0.200443 -1.256332 0.039448 0.150461
    38 -0.032909 -1.480204 0.004940 -1.615703 0.000000 0.000002
    39 -0.027022 -1.076920 -0.020210 -0.294437 0.000000 0.000000
    40 -0.249534 -2.846964 -0.174213 -1.062156 0.058623 0.101443
    41 0.043235 -1.683941 0.096012 -1.653380 0.002823 -0.000167
    42 0.031729 -1.160830 0.058838 -0.649575 0.000642 0.008372
    43 -0.963866 -2.785145 -0.085350 -0.205071 0.160754 0.088998
    44 0.028479 -1.403067 0.006271 -1.219102 0.000000 0.000000
    45 0.021413 -0.957781 0.020046 -0.902852 0.000000 0.000000
    46 1.164475 -2.543940 -0.170330 -1.111380 0.022983 0.043056
    47 0.024032 -1.129042 0.017807 -1.186514 0.000000 0.000001
    48 0.014898 -0.883989 -0.019848 -0.761021 0.000000 0.000000
    49 -0.586770 -1.264477 0.200161 -0.783836 -0.899837 -2.444635
    50 1.522835 0.058681 0.016848 0.447361 -0.239893 0.980788
    51 1.117947 0.048424 -0.005766 -0.095820 0.009797 0.694413
    52 0.079358 -0.185919 -0.087169 0.431558 0.118246 1.207655
    53 -1.393470 8.839177 -0.239433 1.580804 -0.005023 -1.566847
  time 2
    0 1.476696 42.313427 -39.163345 0.000000 0.000000 0.000000
    1 11.266297 -45.187859 25.845108 0.623782 -2.425725 -1.034271
    2 -0.071918 -8.498733 -0.104137 -0.116714 0.613032 -0.446229
    3 1.179526 -3.387610 0.368453 -0.367238 -0.179600 -3.536014
    4 -1.301709 0.985929 3.177480 -1.570796 0.000000 0.321751
    5 -1.540290 2.663921 -1.031096 1.570796 -1.570796 0.000000
    6 0.000000 -0.015625 0.355483 -0.065028 0.000000 0.000000
    7 0.000000 -0.142781 0.616241 -0.065091 0.000431 0.013626
    8 0.023439 -0.217992 0.412461 -0.189265 0.020158 -0.066275
    9 -0.000001 -0.103283 0.553731 0.598281 0.046740 -0.041922
    10 0.000000 -0.191395 0.483813 0.858645 -0.010786 0.103211
    11 0.000001 -0.140469 0.496454 0.145356 0.000000 0.000000
    12 0.000001 -0.289519 0.401549 -0.300765 -0.014382 -0.030369
    13 -0.267967 1.115499 -0.000001 0.000000 0.000000 0.152918
    14 -4.059096 1.933378 -0.000001 0.000000 0.000000 -1.250151
    15 -4.705892 5.891053 -0.000003 0.340878 0.000000 -1.249451
    16 -4.346755 2.840777 -0.000002 0.000000 0.000000 -2.820401
    17 -5.098958 12.305957 1.028684 0.010878 -0.432953 0.270025
    18 1.343120 8.715708 1.092419 -1.422480 0.140206 -1.590417
    19 -0.488518 -2.755602 -0.228260 -0.097080 0.157299 -0.471464
    20 0.039887 -1.479790 0.029854 -2.051479 0.000000 0.000001
    21 0.028786 -1.075731 -0.023109 -0.970641 0.000000 0.000000
    22 0.250027 -2.820665 -0.238396 0.052169 0.095808 -0.372295
    23 -0.049759 -1.680544 0.100479 -2.080775 0.000000 -0.000002
    24 -0.034142 -1.148312 0.084782 -1.112900 0.000000 0.000000
    25 0.957766 -2.746780 -0.090302 0.258287 -0.031657 -0.256482
    26 -0.033420 -1.397129 -0.011257 -1.322326 0.000000 -0.000001
    27 -0.022360 -0.957436 0.018784 -1.608433 0.000000 0.000000
    28 -1.180681 -2.507217 -0.193859 -0.301383 0.279795 -0.312504
    29 -0.024967 -1.123934 0.017597 -1.604726 0.072770 -0.281625
    30 -0.020057 -0.890968 0.010090 -1.249147 0.000000 0.000000
    31 0.583510 -1.197277 0.185379 0.231467 -0.888485 -0.482506
    32 1.535927 0.010246 0.005009 0.009296 0.084096 -0.993218
    33 1.100771 0.004527 -0.010679 -0.014852 0.006493 -0.982291
    34 -0.067353 -0.065895 -0.195118 -2.500880 -0.001025 -1.473281
    35 0.901142 -57.834428 22.811913 0.915397 -3.608831 1.112242
    36 0.096944 -8.450418 -0.009365 -0.068919 -0.410529 0.695941
    37 0.447953 -2.798986 -0.200443 -1.256332 0.039448 0.150461
    38 -0.032909 -1.480204 0.004940 -1.615703 0.000000 0.000002
    39 -0.027022 -1.076920 -0.020210 -0.294437 0.000000 0.000000
    40 -0.249534 -2.846964 -0.174213 -1.062156 0.058623 0.101443
    41 0.043235 -1.683941 0.096012 -1.653380 0.002823 -0.000167
    42 0.031729 -1.160830 0.058838 -0.649575 0.000642 0.008372
    43 -0.963866 -2.785145 -0.085350 -0.205071 0.160754 0.088998
    44 0.028479 -1.403067 0.006271 -1.219102 0.000000 0.000000
    45 0.021413 -0.957781 0.020046 -0.902852 0.000000 0.000000
    46 1.164475 -2.543940 -0.170330 -1.111380 0.022983 0.043056
    47 0.024032 -1.129042 0.017807 -1.186514 0.000000 0.000001
    48 0.014898 -0.883989 -0.019848 -0.761021 0.000000 0.000000
    49 -0.586770 -1.264477 0.200161 -0.783836 -0.899837 -2.444635
    50 1.522835 0.058681 0.016848 0.447361 -0.239893 0.980788
    51 1.117947 0.048424 -0.005766 -0.095820 0.009797 0.694413
    52 0.079358 -0.185919 -0.087169 0.431558 0.118246 1.207655
    53 -1.393470 8.839177 -0.239433 1.580804 -0.005023 -1.566847
  time 3
    0 1.476696 42.313427 -39.163345 0.000000 0.000000 0.000000
    1 11.266297 -45.113638 25.766981 0.623782 -2.425725 -1.034271
    2 -0.071918 -8.498733 -0.104137 -0.119623 0.614163 -0.451080
    3 1.179526 -3.387610 0.368453 -0.367238 -0.179600 -3.536014
    4 -1.301709 0.985929 3.177480 -1.570796 0.000000 0.321751
    5 -1.563728 2.562355 -1.031096 1.570796 -1.570796 0.000000
    6 0.000000 -0.019532 0.355483 -0.101462 0.000000 0.000000
    7 0.000000 -0.162312 0.545926 -0.077526 0.000000 0.000000
    8 0.046877 -0.198460 0.494495 -0.228456 0.021656 -0.120241
    9 -0.000001 -0.236099 0.553731 0.749774 0.069978 -0.064405
    10 0.000000 -0.199208 0.499439 0.793485 0.016395 0.107981
    11 0.000001 -0.171720 0.492548 0.066014 0.000000 0.000000
    12 0.000001 -0.297332 0.382017 -0.303642 0.000000 0.000000
    13 -0.267967 1.115499 -0.000001 0.000000 0.000000 0.152918
    14 -4.059096 1.933378 -0.000001 0.000000 0.000000 -1.250151
    15 -4.705892 5.891053 -0.000003 0.305104 0.000000 -1.249451
    16 -4.346755 2.840777 -0.000002 0.000000 0.000000 -2.820401
    17 -5.098958 12.305957 1.028684 -0.056626 -0.431044 0.436510
    18 1.343120 8.715708 1.092419 -1.422480 0.140206 -1.590417
    19 -0.488518 -2.755602 -0.228260 -0.097080 0.157299 -0.471464
    20 0.039887 -1.479790 0.029854 -2.051418 0.000000 0.000001
    21 0.028786 -1.075731 -0.023109 -0.970641 0.000000 0.000000
    22 0.250027 -2.820665 -0.238396 0.052169 0.095808 -0.372295
    23 -0.049759 -1.680544 0.100479 -2.080775 0.000000 -0.000002
    24 -0.034142 -1.148312 0.084782 -1.112900 0.000000 0.000000
    25 0.957766 -2.746780 -0.090302 0.258287 -0.031657 -0.256482
    26 -0.033420 -1.397129 -0.011257 -1.322326 0.000000 -0.000001
    27 -0.022360 -0.957436 0.018784 -1.608433 0.000000 0.000000
    28 -1.180681 -2.507217 -0.193859 -0.301383 0.279795 -0.312504
    29 -0.024967 -1.123934 0.017597 -1.604726 0.072770 -0.281625
    30 -0.020057 -0.890968 0.010090 -1.249147 0.000000 0.000000
    31 0.583510 -1.197277 0.185379 0.231467 -0.888485 -0.482506
    32 1.535927 0.010246 0.005009 0.009296 0.084096 -0.993218
    33 1.100771 0.004527 -0.010679 -0.014852 0.006493 -0.982291
    34 -0.067353 -0.065895 -0.195118 -2.500880 -0.001025 -1.473281
    35 0.901142 -57.740675 22.694722 0.915397 -3.608831 1.112242
    36 0.096944 -8.450418 -0.009365 -0.064849 -0.411649 0.696544
    37 0.447953 -2.798986 -0.200443 -1.256332 0.039448 0.150461
    38 -0.032909 -1.480204 0.004940 -1.615703 0.000000 0.000002
    39 -0.027022 -1.076920 -0.020210 -0.294437 0.000000 0.000000
    40 -0.249534 -2.846964 -0.174213 -1.062156 0.058623 0.101443
    41 0.043235 -1.683941 0.096012 -1.653380 0.002823 -0.000167
    42 0.031729 -1.160830 0.058838 -0.649575 0.000642 0.008372
    43 -0.963866 -2.785145 -0.085350 -0.205071 0.160754 0.088998
    44 0.028479 -1.403067 0.006271 -1.219102 0.000000 0.000000
    45 0.021413 -0.957781 0.020046 -0.902852 0.000000 0.000000
    46 1.164475 -2.543940 -0.170330 -1.111380 0.022983 0.043056
    47 0.024032 -1.129042 0.017807 -1.186514 0.000000 0.000001
    48 0.014898 -0.883989 -0.019848 -0.761021 0.000000 0.000000
    49 -0.586770 -1.264477 0.200161 -0.783836 -0.899837 -2.444635
    50 1.522835 0.058681 0.016848 0.447361 -0.239893 0.980788
    51 1.117947 0.048424 -0.005766 -0.095820 0.009797 0.694413
    52 0.079358 -0.185919 -0.087169 0.431558 0.118246 1.207667
    53 -1.393470 8.839177 -0.239433 1.580804 -0.005023 -1.566847
  time 4
    0 1.476696 42.313427 -39.163345 0.000000 0.000000 0.000000
    1 11.266297 -44.961290 25.712291 0.623782 -2.425725 -1.034271
    2 -0.071918 -8.498733 -0.104137 -0.127111 0.617032 -0.463592
    3 1.179526 -3.387610 0.368453 -0.367238 -0.179600 -3.536014
    4 -1.301709 0.985929 3.177480 -1.570796 0.000000 0.321751
    5 -1.591073 2.460790 -1.031096 1.570796 -1.570796 0.000000
    6 0.000000 -0.023438 0.375015 -0.130596 0.000000 0.000000
    7 0.000000 -0.205282 0.479518 -0.063038 0.002445 0.000959
    8 0.039065 -0.237524 0.459338 -0.321172 0.012859 -0.102456
    9 -0.000001 -0.290788 0.510761 0.896289 0.059036 -0.054338
    10 0.000000 -0.183582 0.499439 0.742987 0.029506 0.088374
    11 0.000001 -0.171720 0.492548 0.066014 0.000000 0.000000
    12 0.000001 -0.297332 0.382017 -0.303642 0.000000 0.000000
    13 -0.267967 1.115499 -0.000001 0.000000 0.000000 0.152918
    14 -4.059096 1.933378 -0.000001 0.000000 0.000000 -1.250151
    15 -4.705892 5.891053 -0.000003 0.215663 0.000000 -1.249451
    16 -4.346755 2.840777 -0.000002 0.000000 0.000000 -2.820401
    17 -5.098958 12.305957 1.028684 -0.105588 -0.406730 0.577550
    18 1.343120 8.715708 1.092419 -1.422480 0.140206 -1.590417
    19 -0.488518 -2.755602 -0.228260 -0.097080 0.157299 -0.471464
    20 0.039887 -1.479790 0.029854 -2.051479 0.000000 0.000001
    21 0.028786 -1.075731 -0.023109 -0.970641 0.000000 0.000000
    22 0.250027 -2.820665 -0.238396 0.052169 0.095808 -0.372295
    23 -0.049759 -1.680544 0.100479 -2.080775 0.000000 -0.000002
    24 -0.034142 -1.148312 0.084782 -1.112900 0.000000 0.000000
    25 0.957766 -2.746780 -0.090302 0.258287 -0.031657 -0.256482
    26 -0.033420 -1.397129 -0.011257 -1.322326 0.000000 -0.000001
    27 -0.022360 -0.957436 0.018784 -1.608384 0.000000 0.000000
    28 -1.180681 -2.507217 -0.193859 -0.301383 0.279795 -0.312504
    29 -0.024967 -1.123934 0.017597 -1.604726 0.072770 -0.281625
    30 -0.020057 -0.890968 0.010090 -1.249147 0.000000 0.000000
    31 0.583510 -1.197277 0.185379 0.231467 -0.888485 -0.482506
    32 1.535927 0.010246 0.005009 0.009296 0.084096 -0.993218
    33 1.100771 0.004527 -0.010679 -0.014852 0.006493 -0.982291
    34 -0.067353 -0.065895 -0.195118 -2.500880 -0.001025 -1.473281
    35 0.901142 -57.537544 22.448621 0.915397 -3.608831 1.112242
    36 0.096944 -8.450418 -0.009365 -0.059302 -0.413939 0.698932
    37 0.447953 -2.798986 -0.200443 -1.256332 0.039448 0.150461
    38 -0.032909 -1.480204 0.004940 -1.615703 0.000000 0.000002
    39 -0.027022 -1.076920 -0.020210 -0.294437 0.000000 0.000000
    40 -0.249534 -2.846964 -0.174213 -1.062156 0.058623 0.101443
    41 0.043235 -1.683941 0.096012 -1.653380 0.002823 -0.000167
    42 0.031729 -1.160830 0.058838 -0.649575 0.000642 0.008372
    43 -0.963866 -2.785145 -0.085350 -0.205071 0.160754 0.088998
    44 0.028479 -1.403067 0.006271 -1.219102 0.000000 0.000000
    45 0.021413 -0.957781 0.020046 -0.902852 0.000000 0.000000
    46 1.164475 -2.543940 -0.170330 -1.111380 0.022983 0.043056
    47 0.024032 -1.129042 0.017807 -1.186514 0.000000 0.000001
    48 0.014898 -0.883989 -0.019848 -0.761021 0.000000 0.000000
    49 -0.586770 -1.264477 0.200161 -0.783836 -0.899837 -2.444635
    50 1.522835 0.058681 0.016848 0.447361 -0.239893 0.980788
    51 1.117947 0.048424 -0.005766 -0.095820 0.009797 0.694413
    52 0.079358 -0.185919 -0.087169 0.431558 0.118246 1.207655
    53 -1.393470 8.839177 -0.239433 1.580804 -0.005023 -1.566847
  time 5
    0 1.476696 42.313427 -39.163345 0.000000 0.000000 0.000000
    1 11.266297 -44.828473 25.688853 0.623782 -2.425725 -1.034271
    2 -0.071918 -8.498733 -0.104137 -0.137338 0.620918 -0.480763
    3 1.179526 -3.387610 0.368453 -0.367238 -0.179600 -3.536014
    4 -1.301709 0.985929 3.177480 -1.570796 0.000000 0.321751
    5 -1.610605 2.367037 -1.031096 1.570796 -1.570796 0.000000
    6 -0.003906 -0.023438 0.429704 -0.158820 0.000000 0.000000
    7 -0.003906 -0.271691 0.405297 -0.028447 0.007850 0.003080
    8 0.019533 -0.315651 0.381210 -0.444926 -0.006496 -0.063123
    9 -0.000001 -0.325946 0.420915 1.055476 0.034983 -0.032203
    10 0.000000 -0.140612 0.499439 0.695590 0.036289 0.045230
    11 0.000001 -0.171720 0.492548 0.066014 0.000000 0.000000
    12 0.000001 -0.297332 0.382017 -0.303642 0.000000 0.000000
    13 -0.267967 1.115499 -0.000001 0.000000 0.000000 0.152918
    14 -4.059096 1.933378 -0.000001 0.000000 0.000000 -1.250151
    15 -4.705892 5.891053 -0.000003 0.099400 0.000000 -1.249451
    16 -4.346755 2.840777 -0.000002 0.000000 0.000000 -2.820401
    17 -5.098958 12.305957 1.028684 -0.122817 -0.390535 0.635842
    18 1.343120 8.715708 1.092419 -1.422480 0.140206 -1.590417
    19 -0.488518 -2.755602 -0.228260 -0.097080 0.157299 -0.471464
    20 0.039887 -1.479790 0.029854 -2.051418 0.000000 0.000001
    21 0.028786 -1.075731 -0.023109 -0.970641 0.000000 0.000000
    22 0.250027 -2.820665 -0.238396 0.052169 0.095808 -0.372295
    23 -0.049759 -1.680544 0.100479 -2.080775 0.000000 -0.000002
    24 -0.034142 -1.148312 0.084782 -1.112900 0.000000 0.000000
    25 0.957766 -2.746780 -0.090302 0.258287 -0.031657 -0.256482
    26 -0.033420 -1.397129 -0.011257 -1.322326 0.000000 -0.000001
    27 -0.022360 -0.957436 0.018784 -1.608433 0.000000 0.000000
    28 -1.180681 -2.507217 -0.193859 -0.301383 0.279795 -0.312504
    29 -0.024967 -1.123934 0.017597 -1.604726 0.072770 -0.281625
    30 -0.020057 -0.890968 0.010090 -1.249147 0.000000 0.000000
    31 0.583510 -1.197277 0.185379 0.231467 -0.888485 -0.482506
    32 1.535927 0.010246 0.005009 0.009296 0.084096 -0.993218
    33 1.100771 0.004527 -0.010679 -0.014852 0.006493 -0.982291
    34 -0.067353 -0.065895 -0.195118 -2.500880 -0.001025 -1.473281
    35 0.901142 -57.350038 22.233770 0.915397 -3.608831 1.112242
    36 0.096944 -8.450418 -0.009365 -0.057322 -0.415833 0.703864
    37 0.447953 -2.798986 -0.200443 -1.256332 0.039448 0.150461
    38 -0.032909 -1.480204 0.004940 -1.615703 0.000000 0.000002
    39 -0.027022 -1.076920 -0.020210 -0.294437 0.000000 0.000000
    40 -0.249534 -2.846964 -0.174213 -1.062156 0.058623 0.101443
    41 0.043235 -1.683941 0.096012 -1.653380 0.002823 -0.000167
    42 0.031729 -1.160830 0.058838 -0.649575 0.000642 0.008372
    43 -0.963866 -2.785145 -0.085350 -0.205071 0.160754 0.088998
    44 0.028479 -1.403067 0.006271 -1.219102 0.000000 0.000000
    45 0.021413 -0.957781 0.020046 -0.902852 0.000000 0.000000
    46 1.164475 -2.543940 -0.170330 -1.111380 0.022983 0.043056
    47 0.024032 -1.129042 0.017807 -1.186514 0.000000 0.000001
    48 0.014898 -0.883989 -0.019848 -0.761021 0.000000 0.000000
    49 -0.586770 -1.264477 0.200161 -0.783836 -0.899837 -2.444635
    50 1.522835 0.058681 0.016848 0.447361 -0.239893 0.980788
    51 1.117947 0.048424 -0.005766 -0.095820 0.009797 0.694413
    52 0.079358 -0.185919 -0.087169 0.431558 0.118246 1.207667
    53 -1.393470 8.839177 -0.239433 1.580804 -0.005023 -1.566847
  time 6
    0 1.476696 42.313427 -39.163345 0.000000 0.000000 0.000000
    1 11.266297 -44.738626 25.743542 0.623782 -2.425725 -1.034271
    2 -0.071918 -8.498733 -0.104137 -0.148478 0.625083 -0.499505
    3 1.179526 -3.387610 0.368453 -0.367238 -0.179600 -3.536014
    4 -1.301709 0.985929 3.177480 -1.570796 0.000000 0.321751
    5 -1.626230 2.304535 -1.031096 1.570796 -1.570796 0.000000
    6 -0.003906 -0.023438 0.484393 -0.180128 0.000000 0.000000
    7 -0.003906 -0.330286 0.350608 0.012916 0.013243 0.005213
    8 0.000001 -0.397685 0.306989 -0.553290 -0.025863 -0.023298
    9 -0.000001 -0.349384 0.334974 1.183324 0.010930 -0.010055
    10 0.000000 -0.093736 0.495532 0.628477 0.038842 0.002085
    11 0.000001 -0.171720 0.492548 0.066014 0.000000 0.000000
    12 0.000001 -0.297332 0.382017 -0.303642 0.000000 0.000000
    13 -0.267967 1.115499 -0.000001 0.000000 0.000000 0.152918
    14 -4.059096 1.933378 -0.000001 0.000000 0.000000 -1.250151
    15 -4.705892 5.891053 -0.000003 -0.016862 0.000000 -1.249451
    16 -4.346755 2.840777 -0.000002 0.000000 0.000000 -2.820401
    17 -5.098958 12.305957 1.028684 -0.115806 -0.395948 0.613239
    18 1.343120 8.715708 1.092419 -1.422480 0.140206 -1.590417
    19 -0.488518 -2.755602 -0.228260 -0.097080 0.157299 -0.471464
    20 0.039887 -1.479790 0.029854 -2.051418 0.000000 0.000001
    21 0.028786 -1.075731 -0.023109 -0.970641 0.000000 0.000000
    22 0.250027 -2.820665 -0.238396 0.052169 0.095808 -0.372295
    23 -0.049759 -1.680544 0.100479 -2.080775 0.000000 -0.000002
    24 -0.034142 -1.148312 0.084782 -1.112900 0.000000 0.000000
    25 0.957766 -2.746780 -0.090302 0.261031 -0.031657 -0.256482
    26 -0.033420 -1.397129 -0.011257 -1.314415 0.000000 -0.000001
    27 -0.022360 -0.957436 0.018784 -1.599183 0.000000 0.000000
    28 -1.180681 -2.507217 -0.193859 -0.301383 0.279795 -0.312504
    29 -0.024967 -1.123934 0.017597 -1.604726 0.072770 -0.281625
    30 -0.020057 -0.890968 0.010090 -1.249147 0.000000 0.000000
    31 0.583510 -1.197277 0.185379 0.231467 -0.888485 -0.482506
    32 1.535927 0.010246 0.005009 0.009296 0.084096 -0.993218
    33 1.100771 0.004527 -0.010679 -0.014852 0.006493 -0.982291
    34 -0.067353 -0.065895 -0.195118 -2.500880 -0.001025 -1.473281
    35 0.901142 -57.240659 22.136111 0.915397 -3.608831 1.112242
    36 0.096944 -8.450418 -0.009365 -0.061338 -0.415851 0.716589
    37 0.447953 -2.798986 -0.200443 -1.256332 0.039448 0.150461
    38 -0.032909 -1.480204 0.004940 -1.615703 0.000000 0.000002
    39 -0.027022 -1.076920 -0.020210 -0.294437 0.000000 0.000000
    40 -0.249534 -2.846964 -0.174213 -1.062156 0.058623 0.101443
    41 0.043235 -1.683941 0.096012 -1.653380 0.002823 -0.000167
    42 0.031729 -1.160830 0.058838 -0.649575 0.000642 0.008372
    43 -0.963866 -2.785145 -0.085350 -0.205071 0.160754 0.088998
    44 0.028479 -1.403067 0.006271 -1.219102 0.000000 0.000000
    45 0.021413 -0.957781 0.020046 -0.902852 0.000000 0.000000
    46 1.164475 -2.543940 -0.170330 -1.111380 0.022983 0.043056
    47 0.024032 -1.129042 0.017807 -1.186514 0.000000 0.000001
    48 0.014898 -0.883989 -0.019848 -0.761021 0.000000 0.000000
    49 -0.586770 -1.264477 0.200161 -0.783836 -0.899837 -2.444635
    50 1.522835 0.058681 0.016848 0.447361 -0.239893 0.980788
    51 1.117947 0.048424 -0.005766 -0.095820 0.009797 0.694413
    52 0.079358 -0.185919 -0.087169 0.431558 0.118246 1.207667
    53 -1.393470 8.839177 -0.239433 1.580804 -0.005023 -1.566847
  time 7
    0 1.476696 42.313427 -39.163345 0.000000 0.000000 0.000000
    1 11.266297 -44.656593 25.884172 0.623782 -2.425725 -1.034271
    2 -0.071918 -8.498733 -0.104137 -0.158693 0.628838 -0.516730
    3 1.179526 -3.387610 0.368453 -0.367238 -0.179600 -3.536014
    4 -1.301709 0.985929 3.177480 -1.570796 0.000000 0.321751
    5 -1.630137 2.281097 -1.031096 1.570796 -1.570796 0.000000
    6 -0.007813 -0.023438 0.523457 -0.188566 0.000000 0.000000
    7 -0.007813 -0.353725 0.327169 0.047771 0.015700 0.006172
    8 -0.003905 -0.436749 0.271832 -0.599748 -0.034659 -0.004003
    9 -0.000001 -0.357197 0.295911 1.235745 0.000000 0.000000
    10 0.000000 -0.054672 0.487720 0.518833 0.039226 -0.017521
    11 0.000001 -0.171720 0.492548 0.066014 0.000000 0.000000
    12 0.000001 -0.297332 0.382017 -0.303642 0.000000 0.000000
    13 -0.267967 1.115499 -0.000001 0.000000 0.000000 0.152918
    14 -4.059096 1.933378 -0.000001 0.000000 0.000000 -1.250151
    15 -4.705892 5.891053 -0.000003 -0.106291 0.000000 -1.249451
    16 -4.346755 2.840777 -0.000002 0.000000 0.000000 -2.820401
    17 -5.098958 12.305957 1.028684 -0.096318 -0.407542 0.554550
    18 1.343120 8.715708 1.092419 -1.422480 0.140206 -1.590417
    19 -0.488518 -2.755602 -0.228260 -0.097080 0.157299 -0.471464
    20 0.039887 -1.479790 0.029854 -2.051479 0.000000 0.000001
    21 0.028786 -1.075731 -0.023109 -0.970641 0.000000 0.000000
    22 0.250027 -2.820665 -0.238396 0.052169 0.095808 -0.372295
    23 -0.049759 -1.680544 0.100479 -2.080775 0.000000 -0.000002
    24 -0.034142 -1.148312 0.084782 -1.112900 0.000000 0.000000
    25 0.957766 -2.746780 -0.090302 0.268842 -0.031657 -0.256482
    26 -0.033420 -1.397129 -0.011257 -1.291985 0.000000 -0.000001
    27 -0.022360 -0.957436 0.018784 -1.573105 0.000000 0.000000
    28 -1.180681 -2.507217 -0.193859 -0.301383 0.279795 -0.312504
    29 -0.024967 -1.123934 0.017597 -1.604726 0.072770 -0.281625
    30 -0.020057 -0.890968 0.010090 -1.249147 0.000000 0.000000
    31 0.583510 -1.197277 0.185379 0.231467 -0.888485 -0.482506
    32 1.535927 0.010246 0.005009 0.009296 0.084096 -0.993218
    33 1.100771 0.004527 -0.010679 -0.014852 0.006493 -0.982291
    34 -0.067353 -0.065895 -0.195118 -2.500880 -0.001025 -1.473281
    35 0.901142 -57.146907 22.112673 0.915397 -3.608831 1.112242
    36 0.096944 -8.450418 -0.009365 -0.068114 -0.414903 0.734745
    37 0.447953 -2.798986 -0.200443 -1.256332 0.039448 0.150461
    38 -0.032909 -1.480204 0.004940 -1.615703 0.000000 0.000002
    39 -0.027022 -1.076920 -0.020210 -0.294437 0.000000 0.000000
    40 -0.249534 -2.846964 -0.174213 -1.062156 0.058623 0.101443
    41 0.043235 -1.683941 0.096012 -1.653380 0.002823 -0.000167
    42 0.031729 -1.160830 0.058838 -0.649575 0.000642 0.008372
    43 -0.963866 -2.785145 -0.085350 -0.205071 0.160754 0.088998
    44 0.028479 -1.403067 0.006271 -1.219102 0.000000 0.000000
    45 0.021413 -0.957781 0.020046 -0.902852 0.000000 0.000000
    46 1.164475 -2.543940 -0.170330 -1.111380 0.022983 0.043056
    47 0.024032 -1.129042 0.017807 -1.186514 0.000000 0.000001
    48 0.014898 -0.883989 -0.019848 -0.761021 0.000000 0.000000
    49 -0.586770 -1.264477 0.200161 -0.783836 -0.899837 -2.444635
    50 1.522835 0.058681 0.016848 0.447361 -0.239893 0.980788
    51 1.117947 0.048424 -0.005766 -0.095820 0.009797 0.694413
    52 0.079358 -0.185919 -0.087169 0.431558 0.118246 1.207655
    53 -1.393470 8.839177 -0.239433 1.580804 -0.005023 -1.566847
  time 8
    0 1.476696 42.313427 -39.163345 0.000000 0.000000 0.000000
    1 11.266297 -44.578465 26.063865 0.623782 -2.425725 -1.034271
    2 -0.071918 -8.498733 -0.104137 -0.166155 0.631544 -0.529326
    3 1.179526 -3.387610 0.368453 -0.367238 -0.179600 -3.536014
    4 -1.301709 0.985929 3.177480 -1.570796 0.000000 0.321751
    5 -1.618417 2.304535 -1.031096 1.570796 -1.570796 0.000000
    6 -0.003906 -0.023438 0.542989 -0.168959 0.000000 0.000000
    7 -0.003906 -0.345912 0.338889 0.077560 0.014058 0.005537
    8 -0.003905 -0.425030 0.279645 -0.487007 -0.031052 -0.002301
    9 -0.000001 -0.306414 0.311536 1.112423 0.000000 0.000000
    10 0.000000 -0.027328 0.472094 0.329118 0.035139 -0.015700
    11 0.000001 -0.199064 0.480829 0.100431 0.001774 -0.000144
    12 0.000001 -0.297332 0.382017 -0.303642 0.000000 0.000000
    13 -0.267967 1.115499 -0.000001 0.000000 0.000000 0.152918
    14 -4.059096 1.933378 -0.000001 0.000000 0.000000 -1.250151
    15 -4.705892 5.891053 -0.000003 -0.142065 0.000000 -1.249451
    16 -4.346755 2.840777 -0.000002 0.000000 0.000000 -2.820401
    17 -5.098958 12.305957 1.028684 -0.066882 -0.417698 0.474182
    18 1.343120 8.715708 1.092419 -1.422480 0.140206 -1.590417
    19 -0.488518 -2.755602 -0.228260 -0.097080 0.157299 -0.471464
    20 0.039887 -1.479790 0.029854 -2.051479 0.000000 0.000001
    21 0.028786 -1.075731 -0.023109 -0.970641 0.000000 0.000000
    22 0.250027 -2.820665 -0.238396 0.052169 0.095808 -0.372295
    23 -0.049759 -1.680544 0.100479 -2.080775 0.000000 -0.000002
    24 -0.034142 -1.148312 0.084782 -1.112900 0.000000 0.000000
    25 0.957766 -2.746780 -0.090302 0.280964 -0.031657 -0.256482
    26 -0.033420 -1.397129 -0.011257 -1.257118 0.000000 -0.000001
    27 -0.022360 -0.957436 0.018784 -1.532611 0.000000 0.000000
    28 -1.180681 -2.507217 -0.193859 -0.301383 0.279795 -0.312504
    29 -0.024967 -1.123934 0.017597 -1.604726 0.072770 -0.281625
    30 -0.020057 -0.890968 0.010090 -1.249147 0.000000 0.000000
    31 0.583510 -1.197277 0.185379 0.231467 -0.888485 -0.482506
    32 1.535927 0.010246 0.005009 0.009296 0.084096 -0.993218
    33 1.100771 0.004527 -0.010679 -0.014852 0.006493 -0.982291
    34 -0.067353 -0.065895 -0.195118 -2.500880 -0.001025 -1.473281
    35 0.901142 -57.033622 22.186894 0.915397 -3.608831 1.112242
    36 0.096944 -8.450418 -0.009365 -0.078427 -0.413664 0.758332
    37 0.447953 -2.798986 -0.200443 -1.256332 0.039448 0.150461
    38 -0.032909 -1.480204 0.004940 -1.615703 0.000000 0.000002
    39 -0.027022 -1.076920 -0.020210 -0.294437 0.000000 0.000000
    40 -0.249534 -2.846964 -0.174213 -1.062156 0.058623 0.101443
    41 0.043235 -1.683941 0.096012 -1.653380 0.002823 -0.000167
    42 0.031729 -1.160830 0.058838 -0.649575 0.000642 0.008372
    43 -0.963866 -2.785145 -0.085350 -0.205071 0.160754 0.088998
    44 0.028479 -1.403067 0.006271 -1.219102 0.000000 0.000000
    45 0.021413 -0.957781 0.020046 -0.902852 0.000000 0.000000
    46 1.164475 -2.543940 -0.170330 -1.111380 0.022983 0.043056
    47 0.024032 -1.129042 0.017807 -1.186514 0.000000 0.000001
    48 0.014898 -0.883989 -0.019848 -0.761021 0.000000 0.000000
    49 -0.586770 -1.264477 0.200161 -0.783836 -0.899837 -2.444635
    50 1.522835 0.058681 0.016848 0.447361 -0.239893 0.980788
    51 1.117947 0.048424 -0.005766 -0.095820 0.009797 0.694413
    52 0.079358 -0.185919 -0.087169 0.431558 0.118246 1.207655
    53 -1.393470 8.839177 -0.239433 1.580804 -0.005023 -1.566847
  time 9
    0 1.476696 42.313427 -39.163345 0.000000 0.000000 0.000000
    1 11.266297 -44.508151 26.243558 0.623782 -2.425725 -1.034271
    2 -0.071918 -8.498733 -0.104137 -0.169051 0.632577 -0.534232
    3 1.179526 -3.387610 0.368453 -0.367238 -0.179600 -3.536014
    4 -1.301709 0.985929 3.177480 -1.570796 0.000000 0.321751
    5 -1.583260 2.367037 -1.031096 1.570796 -1.570796 0.000000
    6 -0.003906 -0.015625 0.554708 -0.122183 0.000000 0.000000
    7 -0.003906 -0.326380 0.370140 0.109285 0.010175 0.004003
    8 0.000001 -0.389872 0.303083 -0.218244 -0.022459 -0.001151
    9 -0.000001 -0.193129 0.354506 0.818412 0.000000 0.000000
    10 0.000000 0.000017 0.448656 0.077033 0.025419 -0.011349
    11 0.000001 -0.269379 0.453484 0.182519 0.006028 -0.000503
    12 0.000001 -0.297332 0.382017 -0.303642 0.000000 0.000000
    13 -0.267967 1.115499 -0.000001 0.000000 0.000000 0.152918
    14 -4.059096 1.933378 -0.000001 0.000000 0.000000 -1.250151
    15 -4.705892 5.891053 -0.000003 -0.106627 0.000000 -1.249451
    16 -4.346755 2.840777 -0.000002 0.000000 0.000000 -2.820401
    17 -5.098958 12.305957 1.028684 -0.032135 -0.421159 0.387271
    18 1.343120 8.715708 1.092419 -1.422480 0.140206 -1.590417
    19 -0.488518 -2.755602 -0.228260 -0.097080 0.157299 -0.471464
    20 0.039887 -1.479790 0.029854 -2.051479 0.000000 0.000001
    21 0.028786 -1.075731 -0.023109 -0.970641 0.000000 0.000000
    22 0.250027 -2.820665 -0.238396 0.052169 0.095808 -0.372295
    23 -0.049759 -1.680544 0.100479 -2.080839 0.000000 -0.000002
    24 -0.034142 -1.148312 0.084782 -1.112900 0.000000 0.000000
    25 0.957766 -2.746780 -0.090302 0.296664 -0.031657 -0.256482
    26 -0.033420 -1.397129 -0.011257 -1.211933 0.000000 -0.000001
    27 -0.022360 -0.957436 0.018784 -1.480063 0.000000 0.000000
    28 -1.180681 -2.507217 -0.193859 -0.301383 0.279795 -0.312504
    29 -0.024967 -1.123934 0.017597 -1.604726 0.072770 -0.281625
    30 -0.020057 -0.890968 0.010090 -1.249147 0.000000 0.000000
    31 0.583510 -1.197277 0.185379 0.231467 -0.888485 -0.482506
    32 1.535927 0.010246 0.005009 0.009296 0.084096 -0.993218
    33 1.100771 0.004527 -0.010679 -0.014852 0.006493 -0.982291
    34 -0.067353 -0.065895 -0.195118 -2.500880 -0.001025 -1.473281
    35 0.901142 -56.928150 22.319710 0.915397 -3.608831 1.112242
    36 0.096944 -8.450418 -0.009365 -0.085203 -0.412768 0.773234
    37 0.447953 -2.798986 -0.200443 -1.256332 0.039448 0.150461
    38 -0.032909 -1.480204 0.004940 -1.615703 0.000000 0.000002
    39 -0.027022 -1.076920 -0.020210 -0.294437 0.000000 0.000000
    40 -0.249534 -2.846964 -0.174213 -1.062156 0.058623 0.101443
    41 0.043235 -1.683941 0.096012 -1.653380 0.002823 -0.000167
    42 0.031729 -1.160830 0.058838 -0.649575 0.000642 0.008372
    43 -0.963866 -2.785145 -0.085350 -0.205071 0.160754 0.088998
    44 0.028479 -1.403067 0.006271 -1.219102 0.000000 0.000000
    45 0.021413 -0.957781 0.020046 -0.902852 0.000000 0.000000
    46 1.164475 -2.543940 -0.170330 -1.111380 0.022983 0.043056
    47 0.024032 -1.129042 0.017807 -1.186514 0.000000 0.000001
    48 0.014898 -0.883989 -0.019848 -0.761021 0.000000 0.000000
    49 -0.586770 -1.264477 0.200161 -0.783836 -0.899837 -2.444635
    50 1.522835 0.058681 0.016848 0.447361 -0.239893 0.980788
    51 1.117947 0.048424 -0.005766 -0.095820 0.009797 0.694413
    52 0.079358 -0.185919 -0.087169 0.431558 0.118246 1.207667
    53 -1.393470 8.839177 -0.239433 1.580804 -0.005023 -1.566847
  time 10
    0 1.476696 42.313427 -39.163345 0.000000 0.000000 0.000000
    1 11.266297 -44.445649 26.380281 0.623782 -2.425725 -1.034271
    2 -0.071918 -8.498733 -0.104137 -0.168229 0.632298 -0.532826
    3 1.179526 -3.387610 0.368453 -0.367238 -0.179600 -3.536014
    4 -1.301709 0.985929 3.177480 -1.570796 0.000000 0.321751
    5 -1.548103 2.437352 -1.031096 1.570796 -1.570796 0.000000
    6 0.000000 -0.007813 0.562521 -0.066371 0.000000 0.000000
    7 0.000000 -0.302942 0.405297 0.138031 0.005525 0.002169
    8 0.000001 -0.354715 0.326521 0.102528 -0.012200 -0.000443
    9 -0.000001 -0.052500 0.397476 0.467491 0.000000 0.000000
    10 0.000000 0.023455 0.417405 -0.177346 0.013806 -0.006160
    11 0.000001 -0.347506 0.422233 0.280479 0.011098 -0.000923
    12 0.000001 -0.297332 0.382017 -0.303642 0.000000 0.000000
    13 -0.267967 1.115499 -0.000001 0.000000 0.000000 0.152918
    14 -4.059096 1.933378 -0.000001 0.000000 0.000000 -1.250151
    15 -4.705892 5.891053 -0.000003 -0.028667 0.000000 -1.249451
    16 -4.346755 2.840777 -0.000002 0.000000 0.000000 -2.820401
    17 -5.098958 12.305957 1.028684 0.001221 -0.417399 0.309217
    18 1.343120 8.715708 1.092419 -1.422480 0.140206 -1.590417
    19 -0.488518 -2.755602 -0.228260 -0.097080 0.157299 -0.471464
    20 0.039887 -1.479790 0.029854 -2.051479 0.000000 0.000001
    21 0.028786 -1.075731 -0.023109 -0.970641 0.000000 0.000000
    22 0.250027 -2.820665 -0.238396 0.052169 0.095808 -0.372295
    23 -0.049759 -1.680544 0.100479 -2.080775 0.000000 -0.000002
    24 -0.034142 -1.148312 0.084782 -1.112900 0.000000 0.000000
    25 0.957766 -2.746780 -0.090302 0.315265 -0.031657 -0.256482
    26 -0.033420 -1.397129 -0.011257 -1.158429 0.000000 -0.000001
    27 -0.022360 -0.957436 0.018784 -1.417920 0.000000 0.000000
    28 -1.180681 -2.507217 -0.193859 -0.301383 0.279795 -0.312504
    29 -0.024967 -1.123934 0.017597 -1.604726 0.072770 -0.281625
    30 -0.020057 -0.890968 0.010090 -1.249147 0.000000 0.000000
    31 0.583510 -1.197277 0.185379 0.231467 -0.888485 -0.482506
    32 1.535927 0.010246 0.005009 0.009296 0.084096 -0.993218
    33 1.100771 0.004527 -0.010679 -0.014852 0.006493 -0.982291
    34 -0.067353 -0.065895 -0.195118 -2.500880 -0.001025 -1.473281
    35 0.901142 -56.857835 22.464246 0.915397 -3.608831 1.112242
    36 0.096944 -8.450418 -0.009365 -0.083973 -0.412716 0.771004
    37 0.447953 -2.798986 -0.200443 -1.256332 0.039448 0.150461
    38 -0.032909 -1.480204 0.004940 -1.615703 0.000000 0.000002
    39 -0.027022 -1.076920 -0.020210 -0.294437 0.000000 0.000000
    40 -0.249534 -2.846964 -0.174213 -1.062156 0.058623 0.101443
    41 0.043235 -1.683941 0.096012 -1.653380 0.002823 -0.000167
    42 0.031729 -1.160830 0.058838 -0.649575 0.000642 0.008372
    43 -0.963866 -2.785145 -0.085350 -0.205071 0.160754 0.088998
    44 0.028479 -1.403067 0.006271 -1.219102 0.000000 0.000000
    45 0.021413 -0.957781 0.020046 -0.902852 0.000000 0.000000
    46 1.164475 -2.543940 -0.170330 -1.111380 0.022983 0.043056
    47 0.024032 -1.129042 0.017807 -1.186514 0.000000 0.000001
    48 0.014898 -0.883989 -0.019848 -0.761021 0.000000 0.000000
    49 -0.586770 -1.264477 0.200161 -0.783836 -0.899837 -2.444635
    50 1.522835 0.058681 0.016848 0.447361 -0.239893 0.980788
    51 1.117947 0.048424 -0.005766 -0.095820 0.009797 0.694413
    52 0.079358 -0.185919 -0.087169 0.431558 0.118246 1.207667
    53 -1.393470 8.839177 -0.239433 1.580804 -0.005023 -1.566847
  time 11
    0 1.476696 42.313427 -39.163345 0.000000 0.000000 0.000000
    1 11.266297 -44.387053 26.434970 0.623782 -2.425725 -1.034271
    2 -0.071918 -8.498733 -0.104137 -0.165933 0.631494 -0.528995
    3 1.179526 -3.387610 0.368453 -0.367238 -0.179600 -3.536014
    4 -1.301709 0.985929 3.177480 -1.570796 0.000000 0.321751
    5 -1.512945 2.499853 -1.031096 1.570796 -1.570796 0.000000
    6 0.000000 0.000000 0.566427 -0.019607 0.000000 0.000000
    7 0.000000 -0.283410 0.436548 0.158894 0.001630 0.000635
    8 0.000001 -0.319558 0.346053 0.371320 -0.003595 -0.000096
    9 -0.000001 0.060785 0.440446 0.173480 0.000000 0.000000
    10 0.000000 0.039081 0.393967 -0.374036 0.004075 -0.001822
    11 0.000001 -0.417821 0.394889 0.362566 0.015340 -0.001282
    12 0.000001 -0.297332 0.382017 -0.303642 0.000000 0.000000
    13 -0.267967 1.115499 -0.000001 0.000000 0.000000 0.152918
    14 -4.059096 1.933378 -0.000001 0.000000 0.000000 -1.250151
    15 -4.705892 5.891053 -0.000003 0.049281 0.000000 -1.249451
    16 -4.346755 2.840777 -0.000002 0.000000 0.000000 -2.820401
    17 -5.098958 12.305957 1.028684 0.025963 -0.410548 0.253700
    18 1.343120 8.715708 1.092419 -1.422480 0.140206 -1.590417
    19 -0.488518 -2.755602 -0.228260 -0.097080 0.157299 -0.471464
    20 0.039887 -1.479790 0.029854 -2.051479 0.000000 0.000001
    21 0.028786 -1.075731 -0.023109 -0.970641 0.000000 0.000000
    22 0.250027 -2.820665 -0.238396 0.052169 0.095808 -0.372295
    23 -0.049759 -1.680544 0.100479 -2.080775 0.000000 -0.000002
    24 -0.034142 -1.148312 0.084782 -1.112900 0.000000 0.000000
    25 0.957766 -2.746780 -0.090302 0.336008 -0.031657 -0.256482
    26 -0.033420 -1.397129 -0.011257 -1.098726 0.000000 -0.000001
    27 -0.022360 -0.957436 0.018784 -1.348494 0.000000 0.000000
    28 -1.180681 -2.507217 -0.193859 -0.301383 0.279795 -0.312504
    29 -0.024967 -1.123934 0.017597 -1.604726 0.072770 -0.281625
    30 -0.020057 -0.890968 0.010090 -1.249147 0.000000 0.000000
    31 0.583510 -1.197277 0.185379 0.231467 -0.888485 -0.482506
    32 1.535927 0.010246 0.005009 0.009296 0.084096 -0.993218
    33 1.100771 0.004527 -0.010679 -0.014852 0.006493 -0.982291
    34 -0.067353 -0.065895 -0.195118 -2.500880 -0.001025 -1.473281
    35 0.901142 -56.810959 22.577531 0.915397 -3.608831 1.112242
    36 0.096944 -8.450418 -0.009365 -0.080572 -0.412596 0.764839
    37 0.447953 -2.798986 -0.200443 -1.256332 0.039448 0.150461
    38 -0.032909 -1.480204 0.004940 -1.615703 0.000000 0.000002
    39 -0.027022 -1.076920 -0.020210 -0.294437 0.000000 0.000000
    40 -0.249534 -2.846964 -0.174213 -1.062156 0.058623 0.101443
    41 0.043235 -1.683941 0.096012 -1.653380 0.002823 -0.000167
    42 0.031729 -1.160830 0.058838 -0.649575 0.000642 0.008372
    43 -0.963866 -2.785145 -0.085350 -0.205071 0.160754 0.088998
    44 0.028479 -1.403067 0.006271 -1.219102 0.000000 0.000000
    45 0.021413 -0.957781 0.020046 -0.902852 0.000000 0.000000
    46 1.164475 -2.543940 -0.170330 -1.111380 0.022983 0.043056
    47 0.024032 -1.129042 0.017807 -1.186514 0.000000 0.000001
    48 0.014898 -0.883989 -0.019848 -0.761021 0.000000 0.000000
    49 -0.586770 -1.264477 0.200161 -0.783836 -0.899837 -2.444635
    50 1.522835 0.058681 0.016848 0.447361 -0.239893 0.980788
    51 1.117947 0.048424 -0.005766 -0.095820 0.009797 0.694413
    52 0.079358 -0.185919 -0.087169 0.431558 0.118246 1.207655
    53 -1.393470 8.839177 -0.239433 1.580804 -0.005023 -1.566847
  time 12
    0 1.476696 42.313427 -39.163345 0.000000 0.000000 0.000000
    1 11.266297 -44.332364 26.434970 0.623782 -2.425725 -1.034271
    2 -0.071918 -8.498733 -0.104137 -0.162476 0.630281 -0.523207
    3 1.179526 -3.387610 0.368453 -0.367238 -0.179600 -3.536014
    4 -1.301709 0.985929 3.177480 -1.570796 0.000000 0.321751
    5 -1.501226 2.523292 -1.031096 1.570796 -1.570796 0.000000
    6 0.000000 0.000000 0.566427 0.000000 0.000000 0.000000
    7 0.000000 -0.275597 0.448267 0.166942 0.000000 0.000000
    8 0.000001 -0.307838 0.357772 0.484032 0.000000 0.000000
    9 -0.000001 0.111568 0.456072 0.050158 0.000000 0.000000
    10 0.000000 0.042987 0.382248 -0.452929 0.000000 0.000000
    11 0.000001 -0.445166 0.383170 0.396984 0.017126 -0.001438
    12 0.000001 -0.297332 0.382017 -0.303642 0.000000 0.000000
    13 -0.267967 1.115499 -0.000001 0.000000 0.000000 0.152918
    14 -4.059096 1.933378 -0.000001 0.000000 0.000000 -1.250151
    15 -4.705892 5.891053 -0.000003 0.084719 0.000000 -1.249451
    16 -4.346755 2.840777 -0.000002 0.000000 0.000000 -2.820401
    17 -5.098958 12.305957 1.028684 0.035562 -0.406972 0.232683
    18 1.343120 8.715708 1.092419 -1.422480 0.140206 -1.590417
    19 -0.488518 -2.755602 -0.228260 -0.097080 0.157299 -0.471464
    20 0.039887 -1.479790 0.029854 -2.051418 0.000000 0.000001
    21 0.028786 -1.075731 -0.023109 -0.970641 0.000000 0.000000
    22 0.250027 -2.820665 -0.238396 0.052169 0.095808 -0.372295
    23 -0.049759 -1.680544 0.100479 -2.080775 0.000000 -0.000002
    24 -0.034142 -1.148312 0.084782 -1.112900 0.000000 0.000000
    25 0.957766 -2.746780 -0.090302 0.358187 -0.031657 -0.256482
    26 -0.033420 -1.397129 -0.011257 -1.034905 0.000000 -0.000001
    27 -0.022360 -0.957436 0.018784 -1.274297 0.000000 0.000000
    28 -1.180681 -2.507217 -0.193859 -0.301383 0.279795 -0.312504
    29 -0.024967 -1.123934 0.017597 -1.604726 0.072770 -0.281625
    30 -0.020057 -0.890968 0.010090 -1.249147 0.000000 0.000000
    31 0.583510 -1.197277 0.185379 0.231467 -0.888485 -0.482506
    32 1.535927 0.010246 0.005009 0.009296 0.084096 -0.993218
    33 1.100771 0.004527 -0.010679 -0.014852 0.006493 -0.982291
    34 -0.067353 -0.065895 -0.195118 -2.500880 -0.001025 -1.473281
    35 0.901142 -56.771895 22.640033 0.915397 -3.608831 1.112242
    36 0.096944 -8.450418 -0.009365 -0.075422 -0.412372 0.755551
    37 0.447953 -2.798986 -0.200443 -1.256332 0.039448 0.150461
    38 -0.032909 -1.480204 0.004940 -1.615703 0.000000 0.000002
    39 -0.027022 -1.076920 -0.020210 -0.294437 0.000000 0.000000
    40 -0.249534 -2.846964 -0.174213 -1.062156 0.058623 0.101443
    41 0.043235 -1.683941 0.096012 -1.653380 0.002823 -0.000167
    42 0.031729 -1.160830 0.058838 -0.649575 0.000642 0.008372
    43 -0.963866 -2.785145 -0.085350 -0.205071 0.160754 0.088998
    44 0.028479 -1.403067 0.006271 -1.219102 0.000000 0.000000
    45 0.021413 -0.957781 0.020046 -0.902852 0.000000 0.000000
    46 1.164475 -2.543940 -0.170330 -1.111380 0.022983 0.043056
    47 0.024032 -1.129042 0.017807 -1.186514 0.000000 0.000001
    48 0.014898 -0.883989 -0.019848 -0.761021 0.000000 0.000000
    49 -0.586770 -1.264477 0.200161 -0.783836 -0.899837 -2.444635
    50 1.522835 0.058681 0.016848 0.447361 -0.239893 0.980788
    51 1.117947 0.048424 -0.005766 -0.095820 0.009797 0.694413
    52 0.079358 -0.185919 -0.087169 0.431558 0.118246 1.207655
    53 -1.393470 8.839177 -0.239433 1.580804 -0.005023 -1.566847
  time 13
    0 1.476696 42.313427 -39.163345 0.000000 0.000000 0.000000
    1 11.266297 -44.277675 26.431063 0.623782 -2.425725 -1.034271
    2 -0.071918 -8.498733 -0.104137 -0.158145 0.628756 -0.515931
    3 1.179526 -3.387610 0.368453 -0.367238 -0.179600 -3.536014
    4 -1.301709 0.985929 3.177480 -1.570796 0.000000 0.321751
    5 -1.501226 2.523292 -1.031096 1.570796 -1.570796 0.000000
    6 0.000000 0.000000 0.566427 0.000000 0.000000 0.000000
    7 0.000000 -0.275597 0.448267 0.166942 0.000000 0.000000
    8 0.000001 -0.307838 0.357772 0.484032 0.000000 0.000000
    9 -0.000001 0.099848 0.456072 0.050158 0.000000 0.000000
    10 0.000000 0.035174 0.386154 -0.452929 0.000000 0.000000
    11 0.000001 -0.437353 0.387076 0.385628 0.016539 -0.001390
    12 0.000001 -0.297332 0.382017 -0.303642 0.000000 0.000000
    13 -0.267967 1.115499 -0.000001 0.000000 0.000000 0.152918
    14 -4.059096 1.933378 -0.000001 0.000000 0.000000 -1.250151
    15 -4.705892 5.891053 -0.000003 0.081819 0.000000 -1.249451
    16 -4.346755 2.840777 -0.000002 0.000000 0.000000 -2.820401
    17 -5.098958 12.305957 1.028684 0.033321 -0.407457 0.238036
    18 1.343120 8.715708 1.092419 -1.422480 0.140206 -1.590417
    19 -0.488518 -2.755602 -0.228260 -0.097080 0.157299 -0.471464
    20 0.039887 -1.479790 0.029854 -2.051418 0.000000 0.000001
    21 0.028786 -1.075731 -0.023109 -0.970641 0.000000 0.000000
    22 0.250027 -2.820665 -0.238396 0.052169 0.095808 -0.372295
    23 -0.049759 -1.680544 0.100479 -2.080775 0.000000 -0.000002
    24 -0.034142 -1.148312 0.084782 -1.112900 0.000000 0.000000
    25 0.957766 -2.746780 -0.090302 0.381099 -0.031657 -0.256482
    26 -0.033420 -1.397129 -0.011257 -0.968962 0.000000 -0.000001
    27 -0.022360 -0.957436 0.018784 -1.197737 0.000000 0.000000
    28 -1.180681 -2.507217 -0.193859 -0.301383 0.279795 -0.312504
    29 -0.024967 -1.123934 0.017597 -1.604726 0.072770 -0.281625
    30 -0.020057 -0.890968 0.010090 -1.249147 0.000000 0.000000
    31 0.583510 -1.197277 0.185379 0.231467 -0.888485 -0.482506
    32 1.535927 0.010246 0.005009 0.009296 0.084096 -0.993218
    33 1.100771 0.004527 -0.010679 -0.014852 0.006493 -0.982291
    34 -0.067353 -0.065895 -0.195118 -2.500880 -0.001025 -1.473281
    35 0.901142 -56.728925 22.702535 0.915397 -3.608831 1.112242
    36 0.096944 -8.450418 -0.009365 -0.068933 -0.412079 0.743875
    37 0.447953 -2.798986 -0.200443 -1.256332 0.039448 0.150461
    38 -0.032909 -1.480204 0.004940 -1.615703 0.000000 0.000002
    39 -0.027022 -1.076920 -0.020210 -0.294437 0.000000 0.000000
    40 -0.249534 -2.846964 -0.174213 -1.062156 0.058623 0.101443
    41 0.043235 -1.683941 0.096012 -1.653380 0.002823 -0.000167
    42 0.031729 -1.160830 0.058838 -0.649575 0.000642 0.008372
    43 -0.963866 -2.785145 -0.085350 -0.205071 0.160754 0.088998
    44 0.028479 -1.403067 0.006271 -1.219102 0.000000 0.000000
    45 0.021413 -0.957781 0.020046 -0.902852 0.000000 0.000000
    46 1.164475 -2.543940 -0.170330 -1.111380 0.022983 0.043056
    47 0.024032 -1.129042 0.017807 -1.186514 0.000000 0.000001
    48 0.014898 -0.883989 -0.019848 -0.761021 0.000000 0.000000
    49 -0.586770 -1.264477 0.200161 -0.783836 -0.899837 -2.444635
    50 1.522835 0.058681 0.016848 0.447361 -0.239893 0.980788
    51 1.117947 0.048424 -0.005766 -0.095820 0.009797 0.694413
    52 0.079358 -0.185919 -0.087169 0.431558 0.118246 1.207655
    53 -1.393470 8.839177 -0.239433 1.580804 -0.005023 -1.566847
  time 14
    0 1.476696 42.313427 -39.163345 0.000000 0.000000 0.000000
    1 11.266297 -44.222986 26.423251 0.623782 -2.425725 -1.034271
    2 -0.071918 -8.498733 -0.104137 -0.153214 0.627018 -0.507690
    3 1.179526 -3.387610 0.368453 -0.367238 -0.179600 -3.536014
    4 -1.301709 0.985929 3.177480 -1.570796 0.000000 0.321751
    5 -1.501226 2.523292 -1.031096 1.570796 -1.570796 0.000000
    6 0.000000 0.000000 0.566427 0.000000 0.000000 0.000000
    7 0.000000 -0.275597 0.448267 0.166942 0.000000 0.000000
    8 0.000001 -0.307838 0.357772 0.484032 0.000000 0.000000
    9 -0.000001 0.068597 0.452165 0.050158 0.000000 0.000000
    10 0.000000 0.011736 0.397873 -0.452929 0.000000 0.000000
    11 0.000001 -0.410008 0.394889 0.355229 0.014957 -0.001258
    12 0.000001 -0.297332 0.382017 -0.303642 0.000000 0.000000
    13 -0.267967 1.115499 -0.000001 0.000000 0.000000 0.152918
    14 -4.059096 1.933378 -0.000001 0.000000 0.000000 -1.250151
    15 -4.705892 5.891053 -0.000003 0.074029 0.000000 -1.249451
    16 -4.346755 2.840777 -0.000002 0.000000 0.000000 -2.820401
    17 -5.098958 12.305957 1.028684 0.027353 -0.408610 0.252444
    18 1.343120 8.715708 1.092419 -1.422480 0.140206 -1.590417
    19 -0.488518 -2.755602 -0.228260 -0.097080 0.157299 -0.471464
    20 0.039887 -1.479790 0.029854 -2.051479 0.000000 0.000001
    21 0.028786 -1.075731 -0.023109 -0.970641 0.000000 0.000000
    22 0.250027 -2.820665 -0.238396 0.052169 0.095808 -0.372295
    23 -0.049759 -1.680544 0.100479 -2.080775 0.000000 -0.000002
    24 -0.034142 -1.148312 0.084782 -1.112900 0.000000 0.000000
    25 0.957766 -2.746780 -0.090302 0.404010 -0.031657 -0.256482
    26 -0.033420 -1.397129 -0.011257 -0.903061 0.000000 -0.000001
    27 -0.022360 -0.957436 0.018784 -1.121128 0.000000 0.000000
    28 -1.180681 -2.507217 -0.193859 -0.301383 0.279795 -0.312504
    29 -0.024967 -1.123934 0.017597 -1.604726 0.072770 -0.281625
    30 -0.020057 -0.890968 0.010090 -1.249147 0.000000 0.000000
    31 0.583510 -1.197277 0.185379 0.231467 -0.888485 -0.482506
    32 1.535927 0.010246 0.005009 0.009296 0.084096 -0.993218
    33 1.100771 0.004527 -0.010679 -0.014852 0.006493 -0.982291
    34 -0.067353 -0.065895 -0.195118 -2.500880 -0.001025 -1.473281
    35 0.901142 -56.685955 22.765036 0.915397 -3.608831 1.112242
    36 0.096944 -8.450418 -0.009365 -0.061529 -0.411735 0.730626
    37 0.447953 -2.798986 -0.200443 -1.256332 0.039448 0.150461
    38 -0.032909 -1.480204 0.004940 -1.615703 0.000000 0.000002
    39 -0.027022 -1.076920 -0.020210 -0.294437 0.000000 0.000000
    40 -0.249534 -2.846964 -0.174213 -1.062156 0.058623 0.101443
    41 0.043235 -1.683941 0.096012 -1.653380 0.002823 -0.000167
    42 0.031729 -1.160830 0.058838 -0.649575 0.000642 0.008372
    43 -0.963866 -2.785145 -0.085350 -0.205071 0.160754 0.088998
    44 0.028479 -1.403067 0.006271 -1.219102 0.000000 0.000000
    45 0.021413 -0.957781 0.020046 -0.902852 0.000000 0.000000
    46 1.164475 -2.543940 -0.170330 -1.111380 0.022983 0.043056
    47 0.024032 -1.129042 0.017807 -1.186514 0.000000 0.000001
    48 0.014898 -0.883989 -0.019848 -0.761021 0.000000 0.000000
    49 -0.586770 -1.264477 0.200161 -0.783836 -0.899837 -2.444635
    50 1.522835 0.058681 0.016848 0.447361 -0.239893 0.980788
    51 1.117947 0.048424 -0.005766 -0.095820 0.009797 0.694413
    52 0.079358 -0.185919 -0.087169 0.431558 0.118246 1.207655
    53 -1.393470 8.839177 -0.239433 1.580804 -0.005023 -1.566847
  time 15
    0 1.476696 42.313427 -39.163345 0.000000 0.000000 0.000000
    1 11.266297 -44.168297 26.419344 0.623782 -2.425725 -1.034271
    2 -0.071918 -8.498733 -0.104137 -0.147996 0.625149 -0.498953
    3 1.179526 -3.387610 0.368453 -0.367238 -0.179600 -3.536014
    4 -1.301709 0.985929 3.177480 -1.570796 0.000000 0.321751
    5 -1.501226 2.523292 -1.031096 1.570796 -1.570796 0.000000
    6 0.000000 0.000000 0.566427 0.000000 0.000000 0.000000
    7 0.000000 -0.275597 0.448267 0.166942 0.000000 0.000000
    8 0.000001 -0.307838 0.357772 0.484032 0.000000 0.000000
    9 -0.000001 0.021721 0.452165 0.050158 0.000000 0.000000
    10 0.000000 -0.019515 0.413499 -0.452929 0.000000 0.000000
    11 0.000001 -0.374851 0.410514 0.311178 0.012680 -0.001067
    12 0.000001 -0.297332 0.382017 -0.303642 0.000000 0.000000
    13 -0.267967 1.115499 -0.000001 0.000000 0.000000 0.152918
    14 -4.059096 1.933378 -0.000001 0.000000 0.000000 -1.250151
    15 -4.705892 5.891053 -0.000003 0.062751 0.000000 -1.249451
    16 -4.346755 2.840777 -0.000002 0.000000 0.000000 -2.820401
    17 -5.098958 12.305957 1.028684 0.018720 -0.409835 0.273395
    18 1.343120 8.715708 1.092419 -1.422480 0.140206 -1.590417
    19 -0.488518 -2.755602 -0.228260 -0.097080 0.157299 -0.471464
    20 0.039887 -1.479790 0.029854 -2.051418 0.000000 0.000001
    21 0.028786 -1.075731 -0.023109 -0.970641 0.000000 0.000000
    22 0.250027 -2.820665 -0.238396 0.052169 0.095808 -0.372295
    23 -0.049759 -1.680544 0.100479 -2.080839 0.000000 -0.000002
    24 -0.034142 -1.148312 0.084782 -1.112900 0.000000 0.000000
    25 0.957766 -2.746780 -0.090302 0.426215 -0.031657 -0.256482
    26 -0.033420 -1.397129 -0.011257 -0.839239 0.000000 -0.000001
    27 -0.022360 -0.957436 0.018784 -1.046930 0.000000 0.000000
    28 -1.180681 -2.507217 -0.193859 -0.301383 0.279795 -0.312504
    29 -0.024967 -1.123934 0.017597 -1.604726 0.072770 -0.281625
    30 -0.020057 -0.890968 0.010090 -1.249147 0.000000 0.000000
    31 0.583510 -1.197277 0.185379 0.231467 -0.888485 -0.482506
    32 1.535927 0.010246 0.005009 0.009296 0.084096 -0.993218
    33 1.100771 0.004527 -0.010679 -0.014852 0.006493 -0.982291
    34 -0.067353 -0.065895 -0.195118 -2.500880 -0.001025 -1.473281
    35 0.901142 -56.642985 22.827538 0.915397 -3.608831 1.112242
    36 0.096944 -8.450418 -0.009365 -0.053661 -0.411322 0.716589
    37 0.447953 -2.798986 -0.200443 -1.256332 0.039448 0.150461
    38 -0.032909 -1.480204 0.004940 -1.615703 0.000000 0.000002
    39 -0.027022 -1.076920 -0.020210 -0.294437 0.000000 0.000000
    40 -0.249534 -2.846964 -0.174213 -1.062156 0.058623 0.101443
    41 0.043235 -1.683941 0.096012 -1.653380 0.002823 -0.000167
    42 0.031729 -1.160830 0.058838 -0.649575 0.000642 0.008372
    43 -0.963866 -2.785145 -0.085350 -0.205071 0.160754 0.088998
    44 0.028479 -1.403067 0.006271 -1.219102 0.000000 0.000000
    45 0.021413 -0.957781 0.020046 -0.902852 0.000000 0.000000
    46 1.164475 -2.543940 -0.170330 -1.111380 0.022983 0.043056
    47 0.024032 -1.129042 0.017807 -1.186514 0.000000 0.000001
    48 0.014898 -0.883989 -0.019848 -0.761021 0.000000 0.000000
    49 -0.586770 -1.264477 0.200161 -0.783836 -0.899837 -2.444635
    50 1.522835 0.058681 0.016848 0.447361 -0.239893 0.980788
    51 1.117947 0.048424 -0.005766 -0.095820 0.009797 0.694413
    52 0.079358 -0.185919 -0.087169 0.431558 0.118246 1.207667
    53 -1.393470 8.839177 -0.239433 1.580804 -0.005023 -1.566847
  time 16
    0 1.476696 42.313427 -39.163345 0.000000 0.000000 0.000000
    1 11.266297 -44.117514 26.411532 0.623782 -2.425725 -1.034271
    2 -0.071918 -8.498733 -0.104137 -0.142778 0.623280 -0.490244
    3 1.179526 -3.387610 0.368453 -0.367238 -0.179600 -3.536014
    4 -1.301709 0.985929 3.177480 -1.570796 0.000000 0.321751
    5 -1.501226 2.523292 -1.031096 1.570796 -1.570796 0.000000
    6 0.000000 0.000000 0.566427 0.000000 0.000000 0.000000
    7 0.000000 -0.275597 0.448267 0.166942 0.000000 0.000000
    8 0.000001 -0.307838 0.357772 0.484032 0.000000 0.000000
    9 -0.000001 -0.032968 0.448259 0.050158 0.000000 0.000000
    10 0.000000 -0.058579 0.433031 -0.452929 0.000000 0.000000
    11 0.000001 -0.331881 0.430046 0.258965 0.009983 -0.000839
    12 0.000001 -0.297332 0.382017 -0.303642 0.000000 0.000000
    13 -0.267967 1.115499 -0.000001 0.000000 0.000000 0.152918
    14 -4.059096 1.933378 -0.000001 0.000000 0.000000 -1.250151
    15 -4.705892 5.891053 -0.000003 0.049388 0.000000 -1.249451
    16 -4.346755 2.840777 -0.000002 0.000000 0.000000 -2.820401
    17 -5.098958 12.305957 1.028684 0.008560 -0.410661 0.298510
    18 1.343120 8.715708 1.092419 -1.422480 0.140206 -1.590417
    19 -0.488518 -2.755602 -0.228260 -0.097080 0.157299 -0.471464
    20 0.039887 -1.479790 0.029854 -2.051479 0.000000 0.000001
    21 0.028786 -1.075731 -0.023109 -0.970641 0.000000 0.000000
    22 0.250027 -2.820665 -0.238396 0.052169 0.095808 -0.372295
    23 -0.049759 -1.680544 0.100479 -2.080839 0.000000 -0.000002
    24 -0.034142 -1.148312 0.084782 -1.112900 0.000000 0.000000
    25 0.957766 -2.746780 -0.090302 0.446958 -0.031657 -0.256482
    26 -0.033420 -1.397129 -0.011257 -0.779537 0.000000 -0.000001
    27 -0.022360 -0.957436 0.018784 -0.977554 0.000000 0.000000
    28 -1.180681 -2.507217 -0.193859 -0.301383 0.279795 -0.312504
    29 -0.024967 -1.123934 0.017597 -1.604726 0.072770 -0.281625
    30 -0.020057 -0.890968 0.010090 -1.249147 0.000000 0.000000
    31 0.583510 -1.197277 0.185379 0.231467 -0.888485 -0.482506
    32 1.535927 0.010246 0.005009 0.009296 0.084096 -0.993218
    33 1.100771 0.004527 -0.010679 -0.014852 0.006493 -0.982291
    34 -0.067353 -0.065895 -0.195118 -2.500880 -0.001025 -1.473281
    35 0.901142 -56.600015 22.882228 0.915397 -3.608831 1.112242
    36 0.096944 -8.450418 -0.009365 -0.045751 -0.410857 0.702526
    37 0.447953 -2.798986 -0.200443 -1.256332 0.039448 0.150461
    38 -0.032909 -1.480204 0.004940 -1.615703 0.000000 0.000002
    39 -0.027022 -1.076920 -0.020210 -0.294437 0.000000 0.000000
    40 -0.249534 -2.846964 -0.174213 -1.062156 0.058623 0.101443
    41 0.043235 -1.683941 0.096012 -1.653380 0.002823 -0.000167
    42 0.031729 -1.160830 0.058838 -0.649575 0.000642 0.008372
    43 -0.963866 -2.785145 -0.085350 -0.205071 0.160754 0.088998
    44 0.028479 -1.403067 0.006271 -1.219102 0.000000 0.000000
    45 0.021413 -0.957781 0.020046 -0.902852 0.000000 0.000000
    46 1.164475 -2.543940 -0.170330 -1.111380 0.022983 0.043056
    47 0.024032 -1.129042 0.017807 -1.186514 0.000000 0.000001
    48 0.014898 -0.883989 -0.019848 -0.761021 0.000000 0.000000
    49 -0.586770 -1.264477 0.200161 -0.783836 -0.899837 -2.444635
    50 1.522835 0.058681 0.016848 0.447361 -0.239893 0.980788
    51 1.117947 0.048424 -0.005766 -0.095820 0.009797 0.694413
    52 0.079358 -0.185919 -0.087169 0.431558 0.118246 1.207655
    53 -1.393470 8.839177 -0.239433 1.580804 -0.005023 -1.566847
  time 17
    0 1.476696 42.313427 -39.163345 0.000000 0.000000 0.000000
    1 11.266297 -44.074544 26.403719 0.623782 -2.425725 -1.034271
    2 -0.071918 -8.498733 -0.104137 -0.137834 0.621476 -0.482031
    3 1.179526 -3.387610 0.368453 -0.367238 -0.179600 -3.536014
    4 -1.301709 0.985929 3.177480 -1.570796 0.000000 0.321751
    5 -1.501226 2.523292 -1.031096 1.570796 -1.570796 0.000000
    6 0.000000 0.000000 0.566427 0.000000 0.000000 0.000000
    7 0.000000 -0.275597 0.448267 0.166942 0.000000 0.000000
    8 0.000001 -0.307838 0.357772 0.484032 0.000000 0.000000
    9 -0.000001 -0.091564 0.444353 0.050158 0.000000 0.000000
    10 0.000000 -0.101549 0.448656 -0.452929 0.000000 0.000000
    11 0.000001 -0.285004 0.445671 0.204032 0.007143 -0.000599
    12 0.000001 -0.297332 0.382017 -0.303642 0.000000 0.000000
    13 -0.267967 1.115499 -0.000001 0.000000 0.000000 0.152918
    14 -4.059096 1.933378 -0.000001 0.000000 0.000000 -1.250151
    15 -4.705892 5.891053 -0.000003 0.035331 0.000000 -1.249451
    16 -4.346755 2.840777 -0.000002 0.000000 0.000000 -2.820401
    17 -5.098958 12.305957 1.028684 -0.002024 -0.410761 0.325079
    18 1.343120 8.715708 1.092419 -1.422480 0.140206 -1.590417
    19 -0.488518 -2.755602 -0.228260 -0.097080 0.157299 -0.471464
    20 0.039887 -1.479790 0.029854 -2.051418 0.000000 0.000001
    21 0.028786 -1.075731 -0.023109 -0.970641 0.000000 0.000000
    22 0.250027 -2.820665 -0.238396 0.052169 0.095808 -0.372295
    23 -0.049759 -1.680544 0.100479 -2.080775 0.000000 -0.000002
    24 -0.034142 -1.148312 0.084782 -1.112900 0.000000 0.000000
    25 0.957766 -2.746780 -0.090302 0.465559 -0.031657 -0.256482
    26 -0.033420 -1.397129 -0.011257 -0.726033 0.000000 -0.000001
    27 -0.022360 -0.957436 0.018784 -0.915362 0.000000 0.000000
    28 -1.180681 -2.507217 -0.193859 -0.301383 0.279795 -0.312504
    29 -0.024967 -1.123934 0.017597 -1.604726 0.072770 -0.281625
    30 -0.020057 -0.890968 0.010090 -1.249147 0.000000 0.000000
    31 0.583510 -1.197277 0.185379 0.231467 -0.888485 -0.482506
    32 1.535927 0.010246 0.005009 0.009296 0.084096 -0.993218
    33 1.100771 0.004527 -0.010679 -0.014852 0.006493 -0.982291
    34 -0.067353 -0.065895 -0.195118 -2.500880 -0.001025 -1.473281
    35 0.901142 -56.560951 22.933010 0.915397 -3.608831 1.112242
    36 0.096944 -8.450418 -0.009365 -0.038252 -0.410392 0.689276
    37 0.447953 -2.798986 -0.200443 -1.256332 0.039448 0.150461
    38 -0.032909 -1.480204 0.004940 -1.615703 0.000000 0.000002
    39 -0.027022 -1.076920 -0.020210 -0.294437 0.000000 0.000000
    40 -0.249534 -2.846964 -0.174213 -1.062156 0.058623 0.101443
    41 0.043235 -1.683941 0.096012 -1.653380 0.002823 -0.000167
    42 0.031729 -1.160830 0.058838 -0.649575 0.000642 0.008372
    43 -0.963866 -2.785145 -0.085350 -0.205071 0.160754 0.088998
    44 0.028479 -1.403067 0.006271 -1.219102 0.000000 0.000000
    45 0.021413 -0.957781 0.020046 -0.902852 0.000000 0.000000
    46 1.164475 -2.543940 -0.170330 -1.111380 0.022983 0.043056
    47 0.024032 -1.129042 0.017807 -1.186514 0.000000 0.000001
    48 0.014898 -0.883989 -0.019848 -0.761021 0.000000 0.000000
    49 -0.586770 -1.264477 0.200161 -0.783836 -0.899837 -2.444635
    50 1.522835 0.058681 0.016848 0.447361 -0.239893 0.980788
    51 1.117947 0.048424 -0.005766 -0.095820 0.009797 0.694413
    52 0.079358 -0.185919 -0.087169 0.431558 0.118246 1.207667
    53 -1.393470 8.839177 -0.239433 1.580804 -0.005023 -1.566847
  time 18
    0 1.476696 42.313427 -39.163345 0.000000 0.000000 0.000000
    1 11.266297 -44.035480 26.395906 0.623782 -2.425725 -1.034271
    2 -0.071918 -8.498733 -0.104137 -0.133490 0.619885 -0.474782
    3 1.179526 -3.387610 0.368453 -0.367238 -0.179600 -3.536014
    4 -1.301709 0.985929 3.177480 -1.570796 0.000000 0.321751
    5 -1.501226 2.523292 -1.031096 1.570796 -1.570796 0.000000
    6 0.000000 0.000000 0.566427 0.000000 0.000000 0.000000
    7 0.000000 -0.275597 0.448267 0.166942 0.000000 0.000000
    8 0.000001 -0.307838 0.357772 0.484032 0.000000 0.000000
    9 -0.000001 -0.146253 0.444353 0.050158 0.000000 0.000000
    10 0.000000 -0.136706 0.468188 -0.452929 0.000000 0.000000
    11 0.000001 -0.242034 0.461297 0.151820 0.004434 -0.000372
    12 0.000001 -0.297332 0.382017 -0.303642 0.000000 0.000000
    13 -0.267967 1.115499 -0.000001 0.000000 0.000000 0.152918
    14 -4.059096 1.933378 -0.000001 0.000000 0.000000 -1.250151
    15 -4.705892 5.891053 -0.000003 0.021956 0.000000 -1.249451
    16 -4.346755 2.840777 -0.000002 0.000000 0.000000 -2.820401
    17 -5.098958 12.305957 1.028684 -0.011952 -0.410134 0.350524
    18 1.343120 8.715708 1.092419 -1.422480 0.140206 -1.590417
    19 -0.488518 -2.755602 -0.228260 -0.097080 0.157299 -0.471464
    20 0.039887 -1.479790 0.029854 -2.051479 0.000000 0.000001
    21 0.028786 -1.075731 -0.023109 -0.970641 0.000000 0.000000
    22 0.250027 -2.820665 -0.238396 0.052169 0.095808 -0.372295
    23 -0.049759 -1.680544 0.100479 -2.080775 0.000000 -0.000002
    24 -0.034142 -1.148312 0.084782 -1.112900 0.000000 0.000000
    25 0.957766 -2.746780 -0.090302 0.481260 -0.031657 -0.256482
    26 -0.033420 -1.397129 -0.011257 -0.680848 0.000000 -0.000001
    27 -0.022360 -0.957436 0.018784 -0.862813 0.000000 0.000000
    28 -1.180681 -2.507217 -0.193859 -0.301383 0.279795 -0.312504
    29 -0.024967 -1.123934 0.017597 -1.604726 0.072770 -0.281625
    30 -0.020057 -0.890968 0.010090 -1.249147 0.000000 0.000000
    31 0.583510 -1.197277 0.185379 0.231467 -0.888485 -0.482506
    32 1.535927 0.010246 0.005009 0.009296 0.084096 -0.993218
    33 1.100771 0.004527 -0.010679 -0.014852 0.006493 -0.982291
    34 -0.067353 -0.065895 -0.195118 -2.500880 -0.001025 -1.473281
    35 0.901142 -56.529700 22.975980 0.915397 -3.608831 1.112242
    36 0.096944 -8.450418 -0.009365 -0.031640 -0.409961 0.677575
    37 0.447953 -2.798986 -0.200443 -1.256332 0.039448 0.150461
    38 -0.032909 -1.480204 0.004940 -1.615703 0.000000 0.000002
    39 -0.027022 -1.076920 -0.020210 -0.294437 0.000000 0.000000
    40 -0.249534 -2.846964 -0.174213 -1.062156 0.058623 0.101443
    41 0.043235 -1.683941 0.096012 -1.653380 0.002823 -0.000167
    42 0.031729 -1.160830 0.058838 -0.649575 0.000642 0.008372
    43 -0.963866 -2.785145 -0.085350 -0.205071 0.160754 0.088998
    44 0.028479 -1.403067 0.006271 -1.219102 0.000000 0.000000
    45 0.021413 -0.957781 0.020046 -0.902852 0.000000 0.000000
    46 1.164475 -2.543940 -0.170330 -1.111380 0.022983 0.043056
    47 0.024032 -1.129042 0.017807 -1.186514 0.000000 0.000001
    48 0.014898 -0.883989 -0.019848 -0.761021 0.000000 0.000000
    49 -0.586770 -1.264477 0.200161 -0.783836 -0.899837 -2.444635
    50 1.522835 0.058681 0.016848 0.447361 -0.239893 0.980788
    51 1.117947 0.048424 -0.005766 -0.095820 0.009797 0.694413
    52 0.079358 -0.185919 -0.087169 0.431558 0.118246 1.207667
    53 -1.393470 8.839177 -0.239433 1.580804 -0.005023 -1.566847
  time 19
    0 1.476696 42.313427 -39.163345 0.000000 0.000000 0.000000
    1 11.266297 -44.008135 26.392000 0.623782 -2.425725 -1.034271
    2 -0.071918 -8.498733 -0.104137 -0.130020 0.618623 -0.469022
    3 1.179526 -3.387610 0.368453 -0.367238 -0.179600 -3.536014
    4 -1.301709 0.985929 3.177480 -1.570796 0.000000 0.321751
    5 -1.501226 2.523292 -1.031096 1.570796 -1.570796 0.000000
    6 0.000000 0.000000 0.566427 0.000000 0.000000 0.000000
    7 0.000000 -0.275597 0.448267 0.166942 0.000000 0.000000
    8 0.000001 -0.307838 0.357772 0.484032 0.000000 0.000000
    9 -0.000001 -0.193129 0.440446 0.050158 0.000000 0.000000
    10 0.000000 -0.167957 0.483813 -0.452929 0.000000 0.000000
    11 0.000001 -0.206877 0.476922 0.107769 0.002157 -0.000180
    12 0.000001 -0.297332 0.382017 -0.303642 0.000000 0.000000
    13 -0.267967 1.115499 -0.000001 0.000000 0.000000 0.152918
    14 -4.059096 1.933378 -0.000001 0.000000 0.000000 -1.250151
    15 -4.705892 5.891053 -0.000003 0.010690 0.000000 -1.249451
    16 -4.346755 2.840777 -0.000002 0.000000 0.000000 -2.820401
    17 -5.098958 12.305957 1.028684 -0.020199 -0.409038 0.372070
    18 1.343120 8.715708 1.092419 -1.422480 0.140206 -1.590417
    19 -0.488518 -2.755602 -0.228260 -0.097080 0.157299 -0.471464
    20 0.039887 -1.479790 0.029854 -2.051418 0.000000 0.000001
    21 0.028786 -1.075731 -0.023109 -0.970641 0.000000 0.000000
    22 0.250027 -2.820665 -0.238396 0.052169 0.095808 -0.372295
    23 -0.049759 -1.680544 0.100479 -2.080839 0.000000 -0.000002
    24 -0.034142 -1.148312 0.084782 -1.112900 0.000000 0.000000
    25 0.957766 -2.746780 -0.090302 0.493381 -0.031657 -0.256482
    26 -0.033420 -1.397129 -0.011257 -0.645980 0.000000 -0.000001
    27 -0.022360 -0.957436 0.018784 -0.822320 0.000000 0.000000
    28 -1.180681 -2.507217 -0.193859 -0.301383 0.279795 -0.312504
    29 -0.024967 -1.123934 0.017597 -1.604726 0.072770 -0.281625
    30 -0.020057 -0.890968 0.010090 -1.249147 0.000000 0.000000
    31 0.583510 -1.197277 0.185379 0.231467 -0.888485 -0.482506
    32 1.535927 0.010246 0.005009 0.009296 0.084096 -0.993218
    33 1.100771 0.004527 -0.010679 -0.014852 0.006493 -0.982291
    34 -0.067353 -0.065895 -0.195118 -2.500880 -0.001025 -1.473281
    35 0.901142 -56.502356 23.011138 0.915397 -3.608831 1.112242
    36 0.096944 -8.450418 -0.009365 -0.026326 -0.409599 0.668261
    37 0.447953 -2.798986 -0.200443 -1.256332 0.039448 0.150461
    38 -0.032909 -1.480204 0.004940 -1.615703 0.000000 0.000002
    39 -0.027022 -1.076920 -0.020210 -0.294437 0.000000 0.000000
    40 -0.249534 -2.846964 -0.174213 -1.062156 0.058623 0.101443
    41 0.043235 -1.683941 0.096012 -1.653380 0.002823 -0.000167
    42 0.031729 -1.160830 0.058838 -0.649575 0.000642 0.008372
    43 -0.963866 -2.785145 -0.085350 -0.205071 0.160754 0.088998
    44 0.028479 -1.403067 0.006271 -1.219102 0.000000 0.000000
    45 0.021413 -0.957781 0.020046 -0.902852 0.000000 0.000000
    46 1.164475 -2.543940 -0.170330 -1.111380 0.022983 0.043056
    47 0.024032 -1.129042 0.017807 -1.186514 0.000000 0.000001
    48 0.014898 -0.883989 -0.019848 -0.761021 0.000000 0.000000
    49 -0.586770 -1.264477 0.200161 -0.783836 -0.899837 -2.444635
    50 1.522835 0.058681 0.016848 0.447361 -0.239893 0.980788
    51 1.117947 0.048424 -0.005766 -0.095820 0.009797 0.694413
    52 0.079358 -0.185919 -0.087169 0.431558 0.118246 1.207655
    53 -1.393470 8.839177 -0.239433 1.580804 -0.005023 -1.566847
  time 20
    0 1.476696 42.313427 -39.163345 0.000000 0.000000 0.000000
    1 11.266297 -43.988604 26.388093 0.623782 -2.425725 -1.034271
    2 -0.071918 -8.498733 -0.104137 -0.127724 0.617770 -0.465191
    3 1.179526 -3.387610 0.368453 -0.367238 -0.179600 -3.536014
    4 -1.301709 0.985929 3.177480 -1.570796 0.000000 0.321751
    5 -1.501226 2.523292 -1.031096 1.570796 -1.570796 0.000000
    6 0.000000 0.000000 0.566427 0.000000 0.000000 0.000000
    7 0.000000 -0.275597 0.448267 0.166942 0.000000 0.000000
    8 0.000001 -0.307838 0.357772 0.484032 0.000000 0.000000
    9 -0.000001 -0.220474 0.440446 0.050158 0.000000 0.000000
    10 0.000000 -0.191395 0.495532 -0.452929 0.000000 0.000000
    11 0.000001 -0.183439 0.488642 0.077345 0.000575 -0.000048
    12 0.000001 -0.297332 0.382017 -0.303642 0.000000 0.000000
    13 -0.267967 1.115499 -0.000001 0.000000 0.000000 0.152918
    14 -4.059096 1.933378 -0.000001 0.000000 0.000000 -1.250151
    15 -4.705892 5.891053 -0.000003 0.002900 0.000000 -1.249451
    16 -4.346755 2.840777 -0.000002 0.000000 0.000000 -2.820401
    17 -5.098958 12.305957 1.028684 -0.025800 -0.407998 0.386941
    18 1.343120 8.715708 1.092419 -1.422480 0.140206 -1.590417
    19 -0.488518 -2.755602 -0.228260 -0.097080 0.157299 -0.471464
    20 0.039887 -1.479790 0.029854 -2.051418 0.000000 0.000001
    21 0.028786 -1.075731 -0.023109 -0.970641 0.000000 0.000000
    22 0.250027 -2.820665 -0.238396 0.052169 0.095808 -0.372295
    23 -0.049759 -1.680544 0.100479 -2.080775 0.000000 -0.000002
    24 -0.034142 -1.148312 0.084782 -1.112900 0.000000 0.000000
    25 0.957766 -2.746780 -0.090302 0.501193 -0.031657 -0.256482
    26 -0.033420 -1.397129 -0.011257 -0.623551 0.000000 -0.000001
    27 -0.022360 -0.957436 0.018784 -0.796242 0.000000 0.000000
    28 -1.180681 -2.507217 -0.193859 -0.301383 0.279795 -0.312504
    29 -0.024967 -1.123934 0.017597 -1.604726 0.072770 -0.281625
    30 -0.020057 -0.890968 0.010090 -1.249147 0.000000 0.000000
    31 0.583510 -1.197277 0.185379 0.231467 -0.888485 -0.482506
    32 1.535927 0.010246 0.005009 0.009296 0.084096 -0.993218
    33 1.100771 0.004527 -0.010679 -0.014852 0.006493 -0.982291
    34 -0.067353 -0.065895 -0.195118 -2.500880 -0.001025 -1.473281
    35 0.901142 -56.486730 23.030670 0.915397 -3.608831 1.112242
    36 0.096944 -8.450418 -0.009365 -0.022802 -0.409341 0.662069
    37 0.447953 -2.798986 -0.200443 -1.256332 0.039448 0.150461
    38 -0.032909 -1.480204 0.004940 -1.615703 0.000000 0.000002
    39 -0.027022 -1.076920 -0.020210 -0.294437 0.000000 0.000000
    40 -0.249534 -2.846964 -0.174213 -1.062156 0.058623 0.101443
    41 0.043235 -1.683941 0.096012 -1.653380 0.002823 -0.000167
    42 0.031729 -1.160830 0.058838 -0.649575 0.000642 0.008372
    43 -0.963866 -2.785145 -0.085350 -0.205071 0.160754 0.088998
    44 0.028479 -1.403067 0.006271 -1.219102 0.000000 0.000000
    45 0.021413 -0.957781 0.020046 -0.902852 0.000000 0.000000
    46 1.164475 -2.543940 -0.170330 -1.111380 0.022983 0.043056
    47 0.024032 -1.129042 0.017807 -1.186514 0.000000 0.000001
    48 0.014898 -0.883989 -0.019848 -0.761021 0.000000 0.000000
    49 -0.586770 -1.264477 0.200161 -0.783836 -0.899837 -2.444635
    50 1.522835 0.058681 0.016848 0.447361 -0.239893 0.980788
    51 1.117947 0.048424 -0.005766 -0.095820 0.009797 0.694413
    52 0.079358 -0.185919 -0.087169 0.431558 0.118246 1.207667
    53 -1.393470 8.839177 -0.239433 1.580804 -0.005023 -1.566847
  time 21
    0 1.476696 42.313427 -39.163345 0.000000 0.000000 0.000000
    1 11.266297 -43.980791 26.384187 0.623782 -2.425725 -1.034271
    2 -0.071918 -8.498733 -0.104137 -0.126889 0.617459 -0.463813
    3 1.179526 -3.387610 0.368453 -0.367238 -0.179600 -3.536014
    4 -1.301709 0.985929 3.177480 -1.570796 0.000000 0.321751
    5 -1.501226 2.523292 -1.031096 1.570796 -1.570796 0.000000
    6 0.000000 0.000000 0.566427 0.000000 0.000000 0.000000
    7 0.000000 -0.275597 0.448267 0.166942 0.000000 0.000000
    8 0.000001 -0.307838 0.357772 0.484032 0.000000 0.000000
    9 -0.000001 -0.232193 0.440446 0.050158 0.000000 0.000000
    10 0.000000 -0.199208 0.499439 -0.452929 0.000000 0.000000
    11 0.000001 -0.171720 0.492548 0.066014 0.000000 0.000000
    12 0.000001 -0.297332 0.382017 -0.303642 0.000000 0.000000
    13 -0.267967 1.115499 -0.000001 0.000000 0.000000 0.152918
    14 -4.059096 1.933378 -0.000001 0.000000 0.000000 -1.250151
    15 -4.705892 5.891053 -0.000003 0.000000 0.000000 -1.249451
    16 -4.346755 2.840777 -0.000002 0.000000 0.000000 -2.820401
    17 -5.098958 12.305957 1.028684 -0.027886 -0.407542 0.392559
    18 1.343120 8.715708 1.092419 -1.422480 0.140206 -1.590417
    19 -0.488518 -2.755602 -0.228260 -0.097080 0.157299 -0.471464
    20 0.039887 -1.479790 0.029854 -2.051418 0.000000 0.000001
    21 0.028786 -1.075731 -0.023109 -0.970641 0.000000 0.000000
    22 0.250027 -2.820665 -0.238396 0.052169 0.095808 -0.372295
    23 -0.049759 -1.680544 0.100479 -2.080775 0.000000 -0.000002
    24 -0.034142 -1.148312 0.084782 -1.112900 0.000000 0.000000
    25 0.957766 -2.746780 -0.090302 0.503936 -0.031657 -0.256482
    26 -0.033420 -1.397129 -0.011257 -0.615599 0.000000 -0.000001
    27 -0.022360 -0.957436 0.018784 -0.787041 0.000000 0.000000
    28 -1.180681 -2.507217 -0.193859 -0.301383 0.279795 -0.312504
    29 -0.024967 -1.123934 0.017597 -1.604726 0.072770 -0.281625
    30 -0.020057 -0.890968 0.010090 -1.249147 0.000000 0.000000
    31 0.583510 -1.197277 0.185379 0.231467 -0.888485 -0.482506
    32 1.535927 0.010246 0.005009 0.009296 0.084096 -0.993218
    33 1.100771 0.004527 -0.010679 -0.014852 0.006493 -0.982291
    34 -0.067353 -0.065895 -0.195118 -2.500880 -0.001025 -1.473281
    35 0.901142 -56.478917 23.038482 0.915397 -3.608831 1.112242
    36 0.096944 -8.450418 -0.009365 -0.021531 -0.409255 0.659839
    37 0.447953 -2.798986 -0.200443 -1.256332 0.039448 0.150461
    38 -0.032909 -1.480204 0.004940 -1.615703 0.000000 0.000002
    39 -0.027022 -1.076920 -0.020210 -0.294437 0.000000 0.000000
    40 -0.249534 -2.846964 -0.174213 -1.062156 0.058623 0.101443
    41 0.043235 -1.683941 0.096012 -1.653380 0.002823 -0.000167
    42 0.031729 -1.160830 0.058838 -0.649575 0.000642 0.008372
    43 -0.963866 -2.785145 -0.085350 -0.205071 0.160754 0.088998
    44 0.028479 -1.403067 0.006271 -1.219102 0.000000 0.000000
    45 0.021413 -0.957781 0.020046 -0.902852 0.000000 0.000000
    46 1.164475 -2.543940 -0.170330 -1.111380 0.022983 0.043056
    47 0.024032 -1.129042 0.017807 -1.186514 0.000000 0.000001
    48 0.014898 -0.883989 -0.019848 -0.761021 0.000000 0.000000
    49 -0.586770 -1.264477 0.200161 -0.783836 -0.899837 -2.444635
    50 1.522835 0.058681 0.016848 0.447361 -0.239893 0.980788
    51 1.117947 0.048424 -0.005766 -0.095820 0.009797 0.694413
    52 0.079358 -0.185919 -0.087169 0.431558 0.118246 1.207655
    53 -1.393470 8.839177 -0.239433 1.580804 -0.005023 -1.566847
end
