version 1
nodes
  0 "root" -1
  1 "Bone01" 0
  2 "Bone_Lefthand" 1
  3 "M60E4_Root" 2
  4 "M60E4_Magazine" 3
  5 "M60E4_Bullet01" 4
  6 "M60E4_Bullet02" 5
  7 "M60E4_Bullet03" 6
  8 "M60E4_Bullet04" 7
  9 "M60E4_Bullet05" 8
  10 "M60E4_Bullet06" 9
  11 "M60E4_Bullet07" 10
  12 "M60E4_Bullet08" 11
  13 "M60E4_Trigger" 3
  14 "M60E4_Cover" 3
  15 "M60E4_Handle" 3
  16 "M60E4_Sight" 3
  17 "M60E4_Tripod01" 3
  18 "Bone_L_Upper" 1
  19 "Bone13" 2
  20 "Bone14" 19
  21 "Bone15" 20
  22 "Bone17" 2
  23 "Bone18" 22
  24 "Bone19" 23
  25 "Bone21" 2
  26 "Bone22" 25
  27 "Bone23" 26
  28 "Bone09" 2
  29 "Bone10" 28
  30 "Bone11" 29
  31 "Bone05" 2
  32 "Bone06" 31
  33 "Bone07" 32
  34 "Bone_Se_Hand-L" 2
  35 "Bone04" 0
  36 "Bone_Righthand" 35
  37 "Bone39" 36
  38 "Bone40" 37
  39 "Bone41" 38
  40 "Bone35" 36
  41 "Bone36" 40
  42 "Bone37" 41
  43 "Bone31" 36
  44 "Bone32" 43
  45 "Bone33" 44
  46 "Bone43" 36
  47 "Bone44" 46
  48 "Bone45" 47
  49 "Bone27" 36
  50 "Bone28" 49
  51 "Bone29" 50
  52 "Bone_Se_Hand-R" 36
  53 "Bone_R_Upper" 35
end
skeleton
  time 0
    0 1.476696 42.313427 -39.163345 0.000000 0.000000 0.000000
    1 11.266297 -43.687813 26.079490 0.623782 -2.425725 -1.034271
    2 -0.071918 -8.498733 -0.104137 -0.124267 0.616065 -0.458990
    3 1.179526 -3.387610 0.368453 -0.367238 -0.179600 -3.536014
    4 -1.301709 0.985929 3.177480 -1.570796 0.000000 0.321751
    5 -1.501226 2.437352 -1.031096 1.570796 -1.570796 0.000000
    6 0.000000 0.089846 0.457049 -0.075551 0.000000 0.000000
    7 0.000000 0.075976 0.604522 0.166428 0.000000 0.000000
    8 0.000001 -0.167209 0.377304 0.208117 0.000000 0.000000
    9 -0.000001 -0.388448 0.366225 0.391462 0.000000 0.000000
    10 0.000000 -0.296867 0.448656 0.037912 0.000000 0.000000
    11 0.000001 -0.070154 0.512080 -0.033918 0.000000 0.000000
    12 0.000001 -0.277800 0.440613 -0.303642 0.000000 0.000000
    13 -0.221091 0.924087 -0.007814 0.000000 0.000000 0.152918
    14 -4.059096 1.933378 -0.000001 0.000000 0.000000 -1.250151
    15 -4.705892 5.891053 -0.000003 -0.035367 0.000000 -1.249451
    16 -4.346755 2.840777 -0.000002 0.000000 0.000000 -2.820401
    17 -5.098958 12.305957 1.028684 0.093081 -0.398269 0.086091
    18 1.343120 8.715708 1.092419 -1.422480 0.140206 -1.590417
    19 -0.488518 -2.755602 -0.228260 -0.097080 0.157299 -0.471464
    20 0.039887 -1.479790 0.029854 -2.051418 0.000000 0.000001
    21 0.028786 -1.075731 -0.023109 -0.970641 0.000000 0.000000
    22 0.250027 -2.820665 -0.238396 0.052169 0.095808 -0.372295
    23 -0.049759 -1.680544 0.100479 -2.080775 0.000000 -0.000002
    24 -0.034142 -1.148312 0.084782 -1.112900 0.000000 0.000000
    25 0.957766 -2.746780 -0.090302 0.258287 -0.031657 -0.256482
    26 -0.033420 -1.397129 -0.011257 -1.322326 0.000000 -0.000001
    27 -0.022360 -0.957436 0.018784 -1.608433 0.000000 0.000000
    28 -1.180681 -2.507217 -0.193859 -0.301383 0.279795 -0.312504
    29 -0.024967 -1.123934 0.017597 -1.604726 0.072770 -0.281625
    30 -0.020057 -0.890968 0.010090 -1.249147 0.000000 0.000000
    31 0.583510 -1.197277 0.185379 0.231467 -0.888485 -0.482506
    32 1.535927 0.010246 0.005009 0.009296 0.084096 -0.993218
    33 1.100771 0.004527 -0.010679 -0.014852 0.006493 -0.982291
    34 -0.067353 -0.065895 -0.195118 -2.500880 -0.001025 -1.473281
    35 0.901142 -56.283599 22.858789 0.915397 -3.608831 1.112242
    36 0.096944 -8.450418 -0.009365 -0.072540 -0.416419 0.703339
    37 0.447953 -2.798986 -0.200443 -1.256332 0.039448 0.150461
    38 -0.032909 -1.480204 0.004940 -1.615703 0.000000 0.000002
    39 -0.027022 -1.076920 -0.020210 -0.294437 0.000000 0.000000
    40 -0.249534 -2.846964 -0.174213 -1.062156 0.058623 0.101443
    41 0.043235 -1.683941 0.096012 -1.653380 0.002823 -0.000167
    42 0.031729 -1.160830 0.058838 -0.649575 0.000642 0.008372
    43 -0.963866 -2.785145 -0.085350 -0.205071 0.160754 0.088998
    44 0.028479 -1.403067 0.006271 -1.219102 0.000000 0.000000
    45 0.021413 -0.957781 0.020046 -0.902852 0.000000 0.000000
    46 1.164475 -2.543940 -0.170330 -1.111380 0.022983 0.043056
    47 0.024032 -1.129042 0.017807 -1.186514 0.000000 0.000001
    48 0.014898 -0.883989 -0.019848 -0.761021 0.000000 0.000000
    49 -0.586770 -1.264477 0.200161 -0.783836 -0.899837 -2.444635
    50 1.522835 0.058681 0.016848 0.447361 -0.239893 0.980788
    51 1.117947 0.048424 -0.005766 -0.095820 0.009797 0.694413
    52 0.079358 -0.185919 -0.087169 0.431558 0.118246 1.207655
    53 -1.393470 8.839177 -0.239433 1.580804 -0.005023 -1.566847
  time 1
    0 1.476696 42.313427 -39.163345 0.000000 0.000000 0.000000
    1 11.266297 -44.726907 25.946674 0.623782 -2.425725 -1.034271
    2 -0.071918 -8.498733 -0.104137 -0.140925 0.622427 -0.486937
    3 1.179526 -3.387610 0.368453 -0.367238 -0.179600 -3.536014
    4 -1.301709 0.985929 3.177480 -1.570796 0.000000 0.321751
    5 -1.501226 2.843614 -1.031096 1.570796 -1.570796 0.000000
    6 0.000000 0.027345 0.355483 0.032298 0.000000 0.000000
    7 0.000000 -0.111530 0.784215 0.065588 0.000000 0.000000
    8 0.000001 0.258585 0.506214 -0.106132 0.000000 0.000000
    9 -0.000001 -0.115002 0.518574 0.246832 0.000000 0.000000
    10 0.000000 -0.132800 0.401780 1.015749 0.000000 0.000000
    11 0.000001 0.035318 0.531612 -0.133850 0.000000 0.000000
    12 0.000001 -0.258268 0.499208 -0.303642 0.000000 0.000000
    13 -0.256248 1.060810 -0.000001 0.000000 0.000000 0.152918
    14 -4.059096 1.933378 -0.000001 0.000000 0.000000 -1.250151
    15 -4.705892 5.891053 -0.000003 0.209179 0.000000 -1.249451
    16 -4.346755 2.840777 -0.000002 0.000000 0.000000 -2.820401
    17 -5.098958 12.305957 1.028684 0.069227 -0.412442 0.138106
    18 1.343120 8.715708 1.092419 -1.422480 0.140206 -1.590417
    19 -0.488518 -2.755602 -0.228260 -0.097080 0.157299 -0.471464
    20 0.039887 -1.479790 0.029854 -2.051479 0.000000 0.000001
    21 0.028786 -1.075731 -0.023109 -0.970641 0.000000 0.000000
    22 0.250027 -2.820665 -0.238396 0.052169 0.095808 -0.372295
    23 -0.049759 -1.680544 0.100479 -2.080775 0.000000 -0.000002
    24 -0.034142 -1.148312 0.084782 -1.112900 0.000000 0.000000
    25 0.957766 -2.746780 -0.090302 0.258287 -0.031657 -0.256482
    26 -0.033420 -1.397129 -0.011257 -1.322326 0.000000 -0.000001
    27 -0.022360 -0.957436 0.018784 -1.608433 0.000000 0.000000
    28 -1.180681 -2.507217 -0.193859 -0.301383 0.279795 -0.312504
    29 -0.024967 -1.123934 0.017597 -1.604726 0.072770 -0.281625
    30 -0.020057 -0.890968 0.010090 -1.249147 0.000000 0.000000
    31 0.583510 -1.197277 0.185379 0.231467 -0.888485 -0.482506
    32 1.535927 0.010246 0.005009 0.009296 0.084096 -0.993218
    33 1.100771 0.004527 -0.010679 -0.014852 0.006493 -0.982291
    34 -0.067353 -0.065895 -0.195118 -2.500880 -0.001025 -1.473281
    35 0.901142 -57.217221 22.522842 0.915397 -3.608831 1.112242
    36 0.096944 -8.450418 -0.009365 -0.107469 -0.414387 0.762267
    37 0.447953 -2.798986 -0.200443 -1.256332 0.039448 0.150461
    38 -0.032909 -1.480204 0.004940 -1.615703 0.000000 0.000002
    39 -0.027022 -1.076920 -0.020210 -0.294437 0.000000 0.000000
    40 -0.249534 -2.846964 -0.174213 -1.062156 0.058623 0.101443
    41 0.043235 -1.683941 0.096012 -1.653380 0.002823 -0.000167
    42 0.031729 -1.160830 0.058838 -0.649575 0.000642 0.008372
    43 -0.963866 -2.785145 -0.085350 -0.205071 0.160754 0.088998
    44 0.028479 -1.403067 0.006271 -1.219102 0.000000 0.000000
    45 0.021413 -0.957781 0.020046 -0.902852 0.000000 0.000000
    46 1.164475 -2.543940 -0.170330 -1.111380 0.022983 0.043056
    47 0.024032 -1.129042 0.017807 -1.186514 0.000000 0.000001
    48 0.014898 -0.883989 -0.019848 -0.761021 0.000000 0.000000
    49 -0.586770 -1.264477 0.200161 -0.783836 -0.899837 -2.444635
    50 1.522835 0.058681 0.016848 0.447361 -0.239893 0.980788
    51 1.117947 0.048424 -0.005766 -0.095820 0.009797 0.694413
    52 0.079358 -0.185919 -0.087169 0.431558 0.118246 1.207667
    53 -1.393470 8.839177 -0.239433 1.580804 -0.005023 -1.566847
  time 2
    0 1.476696 42.313427 -39.163345 0.000000 0.000000 0.000000
    1 11.266297 -45.187859 25.845108 0.623782 -2.425725 -1.034271
    2 -0.071918 -8.498733 -0.104137 -0.152509 0.626723 -0.506422
    3 1.179526 -3.387610 0.368453 -0.367238 -0.179600 -3.536014
    4 -1.301709 0.985929 3.177480 -1.570796 0.000000 0.321751
    5 -1.505133 2.820176 -1.031096 1.570796 -1.570796 0.000000
    6 0.000000 0.019532 0.390640 0.016575 0.000000 0.000000
    7 0.000000 -0.134968 0.752964 0.022751 0.000000 0.000000
    8 0.000001 0.059360 0.443712 -0.168238 0.000000 0.000000
    9 -0.000001 -0.021249 0.542012 0.303289 0.000000 0.000000
    10 0.000000 -0.144519 0.417405 1.011967 0.000000 0.000000
    11 0.000001 0.000160 0.527705 0.045424 0.000000 0.000000
    12 0.000001 -0.266081 0.483583 -0.303642 0.000000 0.000000
    13 -0.267967 1.115499 -0.000001 0.000000 0.000000 0.152918
    14 -4.059096 1.933378 -0.000001 0.000000 0.000000 -1.250151
    15 -4.705892 5.891053 -0.000003 0.340878 0.000000 -1.249451
    16 -4.346755 2.840777 -0.000002 0.000000 0.000000 -2.820401
    17 -5.098958 12.305957 1.028684 0.010878 -0.432953 0.270025
    18 1.343120 8.715708 1.092419 -1.422480 0.140206 -1.590417
    19 -0.488518 -2.755602 -0.228260 -0.097080 0.157299 -0.471464
    20 0.039887 -1.479790 0.029854 -2.051418 0.000000 0.000001
    21 0.028786 -1.075731 -0.023109 -0.970641 0.000000 0.000000
    22 0.250027 -2.820665 -0.238396 0.052169 0.095808 -0.372295
    23 -0.049759 -1.680544 0.100479 -2.080775 0.000000 -0.000002
    24 -0.034142 -1.148312 0.084782 -1.112900 0.000000 0.000000
    25 0.957766 -2.746780 -0.090302 0.258287 -0.031657 -0.256482
    26 -0.033420 -1.397129 -0.011257 -1.322326 0.000000 -0.000001
    27 -0.022360 -0.957436 0.018784 -1.608433 0.000000 0.000000
    28 -1.180681 -2.507217 -0.193859 -0.301383 0.279795 -0.312504
    29 -0.024967 -1.123934 0.017597 -1.604726 0.072770 -0.281625
    30 -0.020057 -0.890968 0.010090 -1.249147 0.000000 0.000000
    31 0.583510 -1.197277 0.185379 0.231467 -0.888485 -0.482506
    32 1.535927 0.010246 0.005009 0.009296 0.084096 -0.993218
    33 1.100771 0.004527 -0.010679 -0.014852 0.006493 -0.982291
    34 -0.067353 -0.065895 -0.195118 -2.500880 -0.001025 -1.473281
    35 0.901142 -57.623484 22.304085 0.915397 -3.608831 1.112242
    36 0.096944 -8.450418 -0.009365 -0.124818 -0.412114 0.795352
    37 0.447953 -2.798986 -0.200443 -1.256332 0.039448 0.150461
    38 -0.032909 -1.480204 0.004940 -1.615703 0.000000 0.000002
    39 -0.027022 -1.076920 -0.020210 -0.294437 0.000000 0.000000
    40 -0.249534 -2.846964 -0.174213 -1.062156 0.058623 0.101443
    41 0.043235 -1.683941 0.096012 -1.653380 0.002823 -0.000167
    42 0.031729 -1.160830 0.058838 -0.649575 0.000642 0.008372
    43 -0.963866 -2.785145 -0.085350 -0.205071 0.160754 0.088998
    44 0.028479 -1.403067 0.006271 -1.219102 0.000000 0.000000
    45 0.021413 -0.957781 0.020046 -0.902852 0.000000 0.000000
    46 1.164475 -2.543940 -0.170330 -1.111380 0.022983 0.043056
    47 0.024032 -1.129042 0.017807 -1.186514 0.000000 0.000001
    48 0.014898 -0.883989 -0.019848 -0.761021 0.000000 0.000000
    49 -0.586770 -1.264477 0.200161 -0.783836 -0.899837 -2.444635
    50 1.522835 0.058681 0.016848 0.447361 -0.239893 0.980788
    51 1.117947 0.048424 -0.005766 -0.095820 0.009797 0.694413
    52 0.079358 -0.185919 -0.087169 0.431558 0.118246 1.207667
    53 -1.393470 8.839177 -0.239433 1.580804 -0.005023 -1.566847
  time 3
    0 1.476696 42.313427 -39.163345 0.000000 0.000000 0.000000
    1 11.266297 -45.086293 25.778700 0.623782 -2.425725 -1.034271
    2 -0.071918 -8.498733 -0.104137 -0.156932 0.628297 -0.513836
    3 1.179526 -3.387610 0.368453 -0.367238 -0.179600 -3.536014
    4 -1.301709 0.985929 3.177480 -1.570796 0.000000 0.321751
    5 -1.520758 2.753767 -1.031096 1.570796 -1.570796 0.000000
    6 0.000000 0.015625 0.464862 -0.020769 0.000000 0.000000
    7 0.000000 -0.146687 0.682649 -0.007518 0.000000 0.000000
    8 0.000001 -0.237524 0.330427 -0.205027 0.000000 0.000000
    9 -0.000001 0.006096 0.549825 0.439810 0.000000 0.000000
    10 0.000000 -0.167957 0.448656 0.987044 0.000000 0.000000
    11 0.000001 -0.070154 0.512080 0.224723 0.000000 0.000000
    12 0.000001 -0.277800 0.440613 -0.303642 0.000000 0.000000
    13 -0.267967 1.115499 -0.000001 0.000000 0.000000 0.152918
    14 -4.059096 1.933378 -0.000001 0.000000 0.000000 -1.250151
    15 -4.705892 5.891053 -0.000003 0.305104 0.000000 -1.249451
    16 -4.346755 2.840777 -0.000002 0.000000 0.000000 -2.820401
    17 -5.098958 12.305957 1.028684 -0.056626 -0.431044 0.436510
    18 1.343120 8.715708 1.092419 -1.422480 0.140206 -1.590417
    19 -0.488518 -2.755602 -0.228260 -0.097080 0.157299 -0.471464
    20 0.039887 -1.479790 0.029854 -2.051418 0.000000 0.000001
    21 0.028786 -1.075731 -0.023109 -0.970641 0.000000 0.000000
    22 0.250027 -2.820665 -0.238396 0.052169 0.095808 -0.372295
    23 -0.049759 -1.680544 0.100479 -2.080775 0.000000 -0.000002
    24 -0.034142 -1.148312 0.084782 -1.112900 0.000000 0.000000
    25 0.957766 -2.746780 -0.090302 0.258287 -0.031657 -0.256482
    26 -0.033420 -1.397129 -0.011257 -1.322326 0.000000 -0.000001
    27 -0.022360 -0.957436 0.018784 -1.608433 0.000000 0.000000
    28 -1.180681 -2.507217 -0.193859 -0.301383 0.279795 -0.312504
    29 -0.024967 -1.123934 0.017597 -1.604726 0.072770 -0.281625
    30 -0.020057 -0.890968 0.010090 -1.249147 0.000000 0.000000
    31 0.583510 -1.197277 0.185379 0.231467 -0.888485 -0.482506
    32 1.535927 0.010246 0.005009 0.009296 0.084096 -0.993218
    33 1.100771 0.004527 -0.010679 -0.014852 0.006493 -0.982291
    34 -0.067353 -0.065895 -0.195118 -2.500880 -0.001025 -1.473281
    35 0.893329 -57.478948 22.218145 0.915397 -3.608831 1.112242
    36 0.096944 -8.450418 -0.009365 -0.123029 -0.408756 0.796638
    37 0.447953 -2.798986 -0.200443 -1.256332 0.039448 0.150461
    38 -0.032909 -1.480204 0.004940 -1.615703 0.000000 0.000002
    39 -0.027022 -1.076920 -0.020210 -0.294437 0.000000 0.000000
    40 -0.249534 -2.846964 -0.174213 -1.062156 0.058623 0.101443
    41 0.043235 -1.683941 0.096012 -1.653380 0.002823 -0.000167
    42 0.031729 -1.160830 0.058838 -0.649575 0.000642 0.008372
    43 -0.963866 -2.785145 -0.085350 -0.205071 0.160754 0.088998
    44 0.028479 -1.403067 0.006271 -1.219102 0.000000 0.000000
    45 0.021413 -0.957781 0.020046 -0.902852 0.000000 0.000000
    46 1.164475 -2.543940 -0.170330 -1.111380 0.022983 0.043056
    47 0.024032 -1.129042 0.017807 -1.186514 0.000000 0.000001
    48 0.014898 -0.883989 -0.019848 -0.761021 0.000000 0.000000
    49 -0.586770 -1.264477 0.200161 -0.783836 -0.899837 -2.444635
    50 1.522835 0.058681 0.016848 0.447361 -0.239893 0.980788
    51 1.117947 0.048424 -0.005766 -0.095820 0.009797 0.694413
    52 0.079358 -0.185919 -0.087169 0.431558 0.118246 1.207655
    53 -1.393470 8.839177 -0.239433 1.580804 -0.005023 -1.566847
  time 4
    0 1.476696 42.313427 -39.163345 0.000000 0.000000 0.000000
    1 11.266297 -44.836286 25.727917 0.623782 -2.425725 -1.034271
    2 -0.071918 -8.498733 -0.104137 -0.160897 0.629707 -0.520479
    3 1.179526 -3.387610 0.368453 -0.367238 -0.179600 -3.536014
    4 -1.301709 0.985929 3.177480 -1.570796 0.000000 0.321751
    5 -1.540290 2.663921 -1.031096 1.570796 -1.570796 0.000000
    6 0.000000 0.011719 0.531270 -0.065028 0.000000 0.000000
    7 0.000000 -0.154500 0.604522 -0.037008 0.000000 0.000000
    8 0.000001 -0.428936 0.205424 -0.222620 0.000000 0.000000
    9 -0.000001 -0.091564 0.553731 0.607256 0.000000 0.000000
    10 0.000000 -0.191395 0.483813 0.920675 0.000000 0.000000
    11 0.000001 -0.140469 0.496454 0.145356 0.000000 0.000000
    12 0.000001 -0.289519 0.401549 -0.303642 0.000000 0.000000
    13 -0.267967 1.115499 -0.000001 0.000000 0.000000 0.152918
    14 -4.059096 1.933378 -0.000001 0.000000 0.000000 -1.250151
    15 -4.705892 5.891053 -0.000003 0.215663 0.000000 -1.249451
    16 -4.346755 2.840777 -0.000002 0.000000 0.000000 -2.820401
    17 -5.098958 12.305957 1.028684 -0.105588 -0.406730 0.577550
    18 1.343120 8.715708 1.092419 -1.422480 0.140206 -1.590417
    19 -0.488518 -2.755602 -0.228260 -0.097080 0.157299 -0.471464
    20 0.039887 -1.479790 0.029854 -2.051479 0.000000 0.000001
    21 0.028786 -1.075731 -0.023109 -0.970641 0.000000 0.000000
    22 0.250027 -2.820665 -0.238396 0.052169 0.095808 -0.372295
    23 -0.049759 -1.680544 0.100479 -2.080775 0.000000 -0.000002
    24 -0.034142 -1.148312 0.084782 -1.112900 0.000000 0.000000
    25 0.957766 -2.746780 -0.090302 0.258287 -0.031657 -0.256482
    26 -0.033420 -1.397129 -0.011257 -1.322326 0.000000 -0.000001
    27 -0.022360 -0.957436 0.018784 -1.608384 0.000000 0.000000
    28 -1.180681 -2.507217 -0.193859 -0.301383 0.279795 -0.312504
    29 -0.024967 -1.123934 0.017597 -1.604726 0.072770 -0.281625
    30 -0.020057 -0.890968 0.010090 -1.249147 0.000000 0.000000
    31 0.583510 -1.197277 0.185379 0.231467 -0.888485 -0.482506
    32 1.535927 0.010246 0.005009 0.009296 0.084096 -0.993218
    33 1.100771 0.004527 -0.010679 -0.014852 0.006493 -0.982291
    34 -0.067353 -0.065895 -0.195118 -2.500880 -0.001025 -1.473281
    35 0.873797 -57.143000 22.171268 0.915397 -3.608831 1.112242
    36 0.096944 -8.450418 -0.009365 -0.118179 -0.402160 0.795956
    37 0.447953 -2.798986 -0.200443 -1.256332 0.039448 0.150461
    38 -0.032909 -1.480204 0.004940 -1.615703 0.000000 0.000002
    39 -0.027022 -1.076920 -0.020210 -0.294437 0.000000 0.000000
    40 -0.249534 -2.846964 -0.174213 -1.062156 0.058623 0.101443
    41 0.043235 -1.683941 0.096012 -1.653380 0.002823 -0.000167
    42 0.031729 -1.160830 0.058838 -0.649575 0.000642 0.008372
    43 -0.963866 -2.785145 -0.085350 -0.205071 0.160754 0.088998
    44 0.028479 -1.403067 0.006271 -1.219102 0.000000 0.000000
    45 0.021413 -0.957781 0.020046 -0.902852 0.000000 0.000000
    46 1.164475 -2.543940 -0.170330 -1.111380 0.022983 0.043056
    47 0.024032 -1.129042 0.017807 -1.186514 0.000000 0.000001
    48 0.014898 -0.883989 -0.019848 -0.761021 0.000000 0.000000
    49 -0.586770 -1.264477 0.200161 -0.783836 -0.899837 -2.444635
    50 1.522835 0.058681 0.016848 0.447361 -0.239893 0.980788
    51 1.117947 0.048424 -0.005766 -0.095820 0.009797 0.694413
    52 0.079358 -0.185919 -0.087169 0.431558 0.118246 1.207667
    53 -1.393470 8.839177 -0.239433 1.580804 -0.005023 -1.566847
  time 5
    0 1.476696 42.313427 -39.163345 0.000000 0.000000 0.000000
    1 11.266297 -44.547214 25.700572 0.623782 -2.425725 -1.034271
    2 -0.071918 -8.498733 -0.104137 -0.164420 0.630920 -0.526377
    3 1.179526 -3.387610 0.368453 -0.367238 -0.179600 -3.536014
    4 -1.301709 0.985929 3.177480 -1.570796 0.000000 0.321751
    5 -1.563728 2.562355 -1.031096 1.570796 -1.570796 0.000000
    6 0.000000 0.000000 0.566427 -0.101462 0.000000 0.000000
    7 0.000000 -0.162312 0.545926 -0.077526 0.000000 0.000000
    8 0.000001 -0.526595 0.119484 -0.227140 0.000000 0.000000
    9 -0.000001 -0.236099 0.553731 0.756412 0.000000 0.000000
    10 0.000000 -0.199208 0.499439 0.792524 0.000000 0.000000
    11 0.000001 -0.171720 0.492548 0.066014 0.000000 0.000000
    12 0.000001 -0.297332 0.382017 -0.303642 0.000000 0.000000
    13 -0.267967 1.115499 -0.000001 0.000000 0.000000 0.152918
    14 -4.059096 1.933378 -0.000001 0.000000 0.000000 -1.250151
    15 -4.705892 5.891053 -0.000003 0.099400 0.000000 -1.249451
    16 -4.346755 2.840777 -0.000002 0.000000 0.000000 -2.820401
    17 -5.098958 12.305957 1.028684 -0.122817 -0.390535 0.635842
    18 1.343120 8.715708 1.092419 -1.422480 0.140206 -1.590417
    19 -0.488518 -2.755602 -0.228260 -0.097080 0.157299 -0.471464
    20 0.039887 -1.479790 0.029854 -2.051418 0.000000 0.000001
    21 0.028786 -1.075731 -0.023109 -0.970641 0.000000 0.000000
    22 0.250027 -2.820665 -0.238396 0.052169 0.095808 -0.372295
    23 -0.049759 -1.680544 0.100479 -2.080839 0.000000 -0.000002
    24 -0.034142 -1.148312 0.084782 -1.112900 0.000000 0.000000
    25 0.957766 -2.746780 -0.090302 0.258287 -0.031657 -0.256482
    26 -0.033420 -1.397129 -0.011257 -1.322326 0.000000 -0.000001
    27 -0.022360 -0.957436 0.018784 -1.608433 0.000000 0.000000
    28 -1.180681 -2.507217 -0.193859 -0.301383 0.279795 -0.312504
    29 -0.024967 -1.123934 0.017597 -1.604726 0.072770 -0.281625
    30 -0.020057 -0.890968 0.010090 -1.249147 0.000000 0.000000
    31 0.583510 -1.197277 0.185379 0.231467 -0.888500 -0.482506
    32 1.535927 0.010246 0.005009 0.009296 0.084096 -0.993218
    33 1.100771 0.004527 -0.010679 -0.014852 0.006493 -0.982291
    34 -0.067353 -0.065895 -0.195118 -2.500880 -0.001025 -1.473281
    35 0.850359 -56.760176 22.151736 0.915397 -3.608831 1.112242
    36 0.096944 -8.450418 -0.009365 -0.112701 -0.395651 0.794880
    37 0.447953 -2.798986 -0.200443 -1.256332 0.039448 0.150461
    38 -0.032909 -1.480204 0.004940 -1.615703 0.000000 0.000002
    39 -0.027022 -1.076920 -0.020210 -0.294437 0.000000 0.000000
    40 -0.249534 -2.846964 -0.174213 -1.062156 0.058623 0.101443
    41 0.043235 -1.683941 0.096012 -1.653380 0.002823 -0.000167
    42 0.031729 -1.160830 0.058838 -0.649575 0.000642 0.008372
    43 -0.963866 -2.785145 -0.085350 -0.205071 0.160754 0.088998
    44 0.028479 -1.403067 0.006271 -1.219102 0.000000 0.000000
    45 0.021413 -0.957781 0.020046 -0.902852 0.000000 0.000000
    46 1.164475 -2.543940 -0.170330 -1.111380 0.022983 0.043056
    47 0.024032 -1.129042 0.017807 -1.186514 0.000000 0.000001
    48 0.014898 -0.883989 -0.019848 -0.761021 0.000000 0.000000
    49 -0.586770 -1.264477 0.200161 -0.783836 -0.899837 -2.444635
    50 1.522835 0.058681 0.016848 0.447361 -0.239893 0.980788
    51 1.117947 0.048424 -0.005766 -0.095820 0.009797 0.694413
    52 0.079358 -0.185919 -0.087169 0.431558 0.118246 1.207667
    53 -1.393470 8.839177 -0.239433 1.580804 -0.005023 -1.566847
  time 6
    0 1.476696 42.313427 -39.163345 0.000000 0.000000 0.000000
    1 11.266297 -44.308926 25.688853 0.623782 -2.425725 -1.034271
    2 -0.071918 -8.498733 -0.104137 -0.167472 0.631970 -0.531503
    3 1.179526 -3.387610 0.368453 -0.367238 -0.179600 -3.536014
    4 -1.301709 0.985929 3.177480 -1.570796 0.000000 0.321751
    5 -1.591073 2.460790 -1.031096 1.570796 -1.570796 0.000000
    6 0.000000 -0.042970 0.558614 -0.130596 0.000000 0.000000
    7 0.000000 -0.174032 0.518582 -0.145697 0.000000 0.000000
    8 0.000001 -0.518782 0.119484 -0.180339 0.000000 0.000000
    9 -0.000001 -0.349384 0.479510 0.900815 0.000000 0.000000
    10 0.000000 -0.179676 0.499439 0.498962 0.000000 0.000000
    11 0.000001 -0.171720 0.492548 0.066014 0.000000 0.000000
    12 0.000001 -0.297332 0.382017 -0.303642 0.000000 0.000000
    13 -0.267967 1.115499 -0.000001 0.000000 0.000000 0.152918
    14 -4.059096 1.933378 -0.000001 0.000000 0.000000 -1.250151
    15 -4.705892 5.891053 -0.000003 -0.016862 0.000000 -1.249451
    16 -4.346755 2.840777 -0.000002 0.000000 0.000000 -2.820401
    17 -5.098958 12.305957 1.028684 -0.115806 -0.395948 0.613239
    18 1.343120 8.715708 1.092419 -1.422480 0.140206 -1.590417
    19 -0.488518 -2.755602 -0.228260 -0.097080 0.157299 -0.471464
    20 0.039887 -1.479790 0.029854 -2.051479 0.000000 0.000001
    21 0.028786 -1.075731 -0.023109 -0.970641 0.000000 0.000000
    22 0.250027 -2.820665 -0.238396 0.052169 0.095808 -0.372295
    23 -0.049759 -1.680544 0.100479 -2.080775 0.000000 -0.000002
    24 -0.034142 -1.148312 0.084782 -1.112900 0.000000 0.000000
    25 0.957766 -2.746780 -0.090302 0.261031 -0.031657 -0.256482
    26 -0.033420 -1.397129 -0.011257 -1.314415 0.000000 -0.000001
    27 -0.022360 -0.957436 0.018784 -1.599183 0.000000 0.000000
    28 -1.180681 -2.507217 -0.193859 -0.301383 0.279795 -0.312504
    29 -0.024967 -1.123934 0.017597 -1.604726 0.072770 -0.281625
    30 -0.020057 -0.890968 0.010090 -1.249147 0.000000 0.000000
    31 0.583510 -1.197277 0.185379 0.231467 -0.888485 -0.482506
    32 1.535927 0.010246 0.005009 0.009296 0.084096 -0.993218
    33 1.100771 0.004527 -0.010679 -0.014852 0.006493 -0.982291
    34 -0.067353 -0.065895 -0.195118 -2.500880 -0.001025 -1.473281
    35 0.842546 -56.471105 22.147830 0.915397 -3.608831 1.112242
    36 0.096944 -8.450418 -0.009365 -0.109013 -0.392568 0.794959
    37 0.447953 -2.798986 -0.200443 -1.256332 0.039448 0.150461
    38 -0.032909 -1.480204 0.004940 -1.615703 0.000000 0.000002
    39 -0.027022 -1.076920 -0.020210 -0.294437 0.000000 0.000000
    40 -0.249534 -2.846964 -0.174213 -1.062156 0.058623 0.101443
    41 0.043235 -1.683941 0.096012 -1.653380 0.002823 -0.000167
    42 0.031729 -1.160830 0.058838 -0.649575 0.000642 0.008372
    43 -0.963866 -2.785145 -0.085350 -0.205071 0.160754 0.088998
    44 0.028479 -1.403067 0.006271 -1.219102 0.000000 0.000000
    45 0.021413 -0.957781 0.020046 -0.902852 0.000000 0.000000
    46 1.164475 -2.543940 -0.170330 -1.111380 0.022983 0.043056
    47 0.024032 -1.129042 0.017807 -1.186514 0.000000 0.000001
    48 0.014898 -0.883989 -0.019848 -0.761021 0.000000 0.000000
    49 -0.586770 -1.264477 0.200161 -0.783836 -0.899837 -2.444635
    50 1.522835 0.058681 0.016848 0.447361 -0.239893 0.980788
    51 1.117947 0.048424 -0.005766 -0.095820 0.009797 0.694413
    52 0.079358 -0.185919 -0.087169 0.431558 0.118246 1.207667
    53 -1.393470 8.839177 -0.239433 1.580804 -0.005023 -1.566847
  time 7
    0 1.476696 42.313427 -39.163345 0.000000 0.000000 0.000000
    1 11.266297 -44.121420 25.743542 0.623782 -2.425725 -1.034271
    2 -0.071918 -8.498733 -0.104137 -0.170081 0.632855 -0.535858
    3 1.179526 -3.387610 0.368453 -0.367238 -0.179600 -3.536014
    4 -1.301709 0.985929 3.177480 -1.570796 0.000000 0.321751
    5 -1.610605 2.367037 -1.031096 1.570796 -1.570796 0.000000
    6 0.000000 -0.109378 0.546895 -0.158820 0.000000 0.000000
    7 0.000000 -0.185751 0.502956 -0.230725 0.000000 0.000000
    8 0.000001 -0.499251 0.123390 -0.066225 0.000000 0.000000
    9 -0.000001 -0.466575 0.327162 1.057890 0.000000 0.000000
    10 0.000000 -0.136706 0.495532 0.068787 0.000000 0.000000
    11 0.000001 -0.171720 0.492548 0.066014 0.000000 0.000000
    12 0.000001 -0.297332 0.382017 -0.303642 0.000000 0.000000
    13 -0.267967 1.115499 -0.000001 0.000000 0.000000 0.152918
    14 -4.059096 1.933378 -0.000001 0.000000 0.000000 -1.250151
    15 -4.705892 5.891053 -0.000003 -0.106291 0.000000 -1.249451
    16 -4.346755 2.840777 -0.000002 0.000000 0.000000 -2.820401
    17 -5.098958 12.305957 1.028684 -0.096318 -0.407542 0.554550
    18 1.343120 8.715708 1.092419 -1.422480 0.140206 -1.590417
    19 -0.488518 -2.755602 -0.228260 -0.097080 0.157299 -0.471464
    20 0.039887 -1.479790 0.029854 -2.051479 0.000000 0.000001
    21 0.028786 -1.075731 -0.023109 -0.970641 0.000000 0.000000
    22 0.250027 -2.820665 -0.238396 0.052169 0.095808 -0.372295
    23 -0.049759 -1.680544 0.100479 -2.080839 0.000000 -0.000002
    24 -0.034142 -1.148312 0.084782 -1.112900 0.000000 0.000000
    25 0.957766 -2.746780 -0.090302 0.268842 -0.031657 -0.256482
    26 -0.033420 -1.397129 -0.011257 -1.291985 0.000000 -0.000001
    27 -0.022360 -0.957436 0.018784 -1.573105 0.000000 0.000000
    28 -1.180681 -2.507217 -0.193859 -0.301383 0.279795 -0.312504
    29 -0.024967 -1.123934 0.017597 -1.604726 0.072770 -0.281625
    30 -0.020057 -0.890968 0.010090 -1.249147 0.000000 0.000000
    31 0.583510 -1.197277 0.185379 0.231467 -0.888485 -0.482506
    32 1.535927 0.010246 0.005009 0.009296 0.084096 -0.993218
    33 1.100771 0.004527 -0.010679 -0.014852 0.006493 -0.982291
    34 -0.067353 -0.065895 -0.195118 -2.500880 -0.001025 -1.473281
    35 0.850359 -56.279693 22.186894 0.915397 -3.608831 1.112242
    36 0.096944 -8.450418 -0.009365 -0.107893 -0.394738 0.797005
    37 0.447953 -2.798986 -0.200443 -1.256332 0.039448 0.150461
    38 -0.032909 -1.480204 0.004940 -1.615703 0.000000 0.000002
    39 -0.027022 -1.076920 -0.020210 -0.294437 0.000000 0.000000
    40 -0.249534 -2.846964 -0.174213 -1.062156 0.058623 0.101443
    41 0.043235 -1.683941 0.096012 -1.653380 0.002823 -0.000167
    42 0.031729 -1.160830 0.058838 -0.649575 0.000642 0.008372
    43 -0.963866 -2.785145 -0.085350 -0.205071 0.160754 0.088998
    44 0.028479 -1.403067 0.006271 -1.219102 0.000000 0.000000
    45 0.021413 -0.957781 0.020046 -0.902852 0.000000 0.000000
    46 1.164475 -2.543940 -0.170330 -1.111380 0.022983 0.043056
    47 0.024032 -1.129042 0.017807 -1.186514 0.000000 0.000001
    48 0.014898 -0.883989 -0.019848 -0.761021 0.000000 0.000000
    49 -0.586770 -1.264477 0.200161 -0.783836 -0.899837 -2.444635
    50 1.522835 0.058681 0.016848 0.447361 -0.239893 0.980788
    51 1.117947 0.048424 -0.005766 -0.095820 0.009797 0.694413
    52 0.079358 -0.185919 -0.087169 0.431558 0.118246 1.207655
    53 -1.393470 8.839177 -0.239433 1.580804 -0.005023 -1.566847
  time 8
    0 1.476696 42.313427 -39.163345 0.000000 0.000000 0.000000
    1 11.266297 -43.926102 25.884172 0.623782 -2.425725 -1.034271
    2 -0.071918 -8.498733 -0.104137 -0.172221 0.633560 -0.539413
    3 1.179526 -3.387610 0.368453 -0.367238 -0.179600 -3.536014
    4 -1.301709 0.985929 3.177480 -1.570796 0.000000 0.321751
    5 -1.626230 2.304535 -1.031096 1.570796 -1.570796 0.000000
    6 0.000000 -0.171880 0.531270 -0.180128 0.000000 0.000000
    7 0.000000 -0.189657 0.495143 -0.303267 0.000000 0.000000
    8 0.000001 -0.471906 0.131203 0.075809 0.000000 0.000000
    9 -0.000001 -0.560328 0.170907 1.184003 0.000000 0.000000
    10 0.000000 -0.089830 0.491626 -0.319880 0.000000 0.000000
    11 0.000001 -0.171720 0.492548 0.066014 0.000000 0.000000
    12 0.000001 -0.297332 0.382017 -0.303642 0.000000 0.000000
    13 -0.267967 1.115499 -0.000001 0.000000 0.000000 0.152918
    14 -4.059096 1.933378 -0.000001 0.000000 0.000000 -1.250151
    15 -4.705892 5.891053 -0.000003 -0.142065 0.000000 -1.249451
    16 -4.346755 2.840777 -0.000002 0.000000 0.000000 -2.820401
    17 -5.098958 12.305957 1.028684 -0.066882 -0.417698 0.474182
    18 1.343120 8.715708 1.092419 -1.422480 0.140206 -1.590417
    19 -0.488518 -2.755602 -0.228260 -0.097080 0.157299 -0.471464
    20 0.039887 -1.479790 0.029854 -2.051479 0.000000 0.000001
    21 0.028786 -1.075731 -0.023109 -0.970641 0.000000 0.000000
    22 0.250027 -2.820665 -0.238396 0.052169 0.095808 -0.372295
    23 -0.049759 -1.680544 0.100479 -2.080775 0.000000 -0.000002
    24 -0.034142 -1.148312 0.084782 -1.112900 0.000000 0.000000
    25 0.957766 -2.746780 -0.090302 0.280964 -0.031657 -0.256482
    26 -0.033420 -1.397129 -0.011257 -1.257118 0.000000 -0.000001
    27 -0.022360 -0.957436 0.018784 -1.532611 0.000000 0.000000
    28 -1.180681 -2.507217 -0.193859 -0.301383 0.279795 -0.312504
    29 -0.024967 -1.123934 0.017597 -1.604726 0.072770 -0.281625
    30 -0.020057 -0.890968 0.010090 -1.249147 0.000000 0.000000
    31 0.583510 -1.197277 0.185379 0.231467 -0.888485 -0.482506
    32 1.535927 0.010246 0.005009 0.009296 0.084096 -0.993218
    33 1.100771 0.004527 -0.010679 -0.014852 0.006493 -0.982291
    34 -0.067353 -0.065895 -0.195118 -2.500880 -0.001025 -1.473281
    35 0.873797 -56.100000 22.284553 0.915397 -3.608831 1.112242
    36 0.096944 -8.450418 -0.009365 -0.108030 -0.400541 0.800258
    37 0.447953 -2.798986 -0.200443 -1.256332 0.039448 0.150461
    38 -0.032909 -1.480204 0.004940 -1.615703 0.000000 0.000002
    39 -0.027022 -1.076920 -0.020210 -0.294437 0.000000 0.000000
    40 -0.249534 -2.846964 -0.174213 -1.062156 0.058623 0.101443
    41 0.043235 -1.683941 0.096012 -1.653380 0.002823 -0.000167
    42 0.031729 -1.160830 0.058838 -0.649575 0.000642 0.008372
    43 -0.963866 -2.785145 -0.085350 -0.205071 0.160754 0.088998
    44 0.028479 -1.403067 0.006271 -1.219102 0.000000 0.000000
    45 0.021413 -0.957781 0.020046 -0.902852 0.000000 0.000000
    46 1.164475 -2.543940 -0.170330 -1.111380 0.022983 0.043056
    47 0.024032 -1.129042 0.017807 -1.186514 0.000000 0.000001
    48 0.014898 -0.883989 -0.019848 -0.761021 0.000000 0.000000
    49 -0.586770 -1.264477 0.200161 -0.783836 -0.899837 -2.444635
    50 1.522835 0.058681 0.016848 0.447361 -0.239893 0.980788
    51 1.117947 0.048424 -0.005766 -0.095820 0.009797 0.694413
    52 0.079358 -0.185919 -0.087169 0.431558 0.118246 1.207667
    53 -1.393470 8.839177 -0.239433 1.580804 -0.005023 -1.566847
  time 9
    0 1.476696 42.313427 -39.163345 0.000000 0.000000 0.000000
    1 11.266297 -43.738596 26.063865 0.623782 -2.425725 -1.034271
    2 -0.071918 -8.498733 -0.104137 -0.173890 0.634101 -0.542197
    3 1.179526 -3.387610 0.368453 -0.367238 -0.179600 -3.536014
    4 -1.301709 0.985929 3.177480 -1.570796 0.000000 0.321751
    5 -1.630137 2.281097 -1.031096 1.570796 -1.570796 0.000000
    6 0.000000 -0.199225 0.523457 -0.188566 0.000000 0.000000
    7 0.000000 -0.201376 0.483424 -0.333983 0.000000 0.000000
    8 0.000001 -0.436749 0.142922 0.206486 0.000000 0.000000
    9 -0.000001 -0.595485 0.096686 1.235745 0.000000 0.000000
    10 0.000000 -0.054672 0.487720 -0.489043 0.000000 0.000000
    11 0.000001 -0.171720 0.492548 0.066014 0.000000 0.000000
    12 0.000001 -0.297332 0.382017 -0.303642 0.000000 0.000000
    13 -0.267967 1.115499 -0.000001 0.000000 0.000000 0.152918
    14 -4.059096 1.933378 -0.000001 0.000000 0.000000 -1.250151
    15 -4.705892 5.891053 -0.000003 -0.106627 0.000000 -1.249451
    16 -4.346755 2.840777 -0.000002 0.000000 0.000000 -2.820401
    17 -5.098958 12.305957 1.028684 -0.032135 -0.421159 0.387271
    18 1.343120 8.715708 1.092419 -1.422480 0.140206 -1.590417
    19 -0.488518 -2.755602 -0.228260 -0.097080 0.157299 -0.471464
    20 0.039887 -1.479790 0.029854 -2.051418 0.000000 0.000001
    21 0.028786 -1.075731 -0.023109 -0.970641 0.000000 0.000000
    22 0.250027 -2.820665 -0.238396 0.052169 0.095808 -0.372295
    23 -0.049759 -1.680544 0.100479 -2.080775 0.000000 -0.000002
    24 -0.034142 -1.148312 0.084782 -1.112900 0.000000 0.000000
    25 0.957766 -2.746780 -0.090302 0.296664 -0.031657 -0.256482
    26 -0.033420 -1.397129 -0.011257 -1.211933 0.000000 -0.000001
    27 -0.022360 -0.957436 0.018784 -1.480063 0.000000 0.000000
    28 -1.180681 -2.507217 -0.193859 -0.301383 0.279795 -0.312504
    29 -0.024967 -1.123934 0.017597 -1.604726 0.072770 -0.281625
    30 -0.020057 -0.890968 0.010090 -1.249147 0.000000 0.000000
    31 0.583510 -1.197277 0.185379 0.231467 -0.888485 -0.482506
    32 1.535927 0.010246 0.005009 0.009296 0.084096 -0.993218
    33 1.100771 0.004527 -0.010679 -0.014852 0.006493 -0.982291
    34 -0.067353 -0.065895 -0.195118 -2.500880 -0.001025 -1.473281
    35 0.905048 -55.939839 22.413463 0.915397 -3.608831 1.112242
    36 0.096944 -8.450418 -0.009365 -0.108713 -0.408222 0.804063
    37 0.447953 -2.798986 -0.200443 -1.256332 0.039448 0.150461
    38 -0.032909 -1.480204 0.004940 -1.615703 0.000000 0.000002
    39 -0.027022 -1.076920 -0.020210 -0.294437 0.000000 0.000000
    40 -0.249534 -2.846964 -0.174213 -1.062156 0.058623 0.101443
    41 0.043235 -1.683941 0.096012 -1.653380 0.002823 -0.000167
    42 0.031729 -1.160830 0.058838 -0.649575 0.000642 0.008372
    43 -0.963866 -2.785145 -0.085350 -0.205071 0.160754 0.088998
    44 0.028479 -1.403067 0.006271 -1.219102 0.000000 0.000000
    45 0.021413 -0.957781 0.020046 -0.902852 0.000000 0.000000
    46 1.164475 -2.543940 -0.170330 -1.111380 0.022983 0.043056
    47 0.024032 -1.129042 0.017807 -1.186514 0.000000 0.000001
    48 0.014898 -0.883989 -0.019848 -0.761021 0.000000 0.000000
    49 -0.586770 -1.264477 0.200161 -0.783836 -0.899837 -2.444635
    50 1.522835 0.058681 0.016848 0.447361 -0.239893 0.980788
    51 1.117947 0.048424 -0.005766 -0.095820 0.009797 0.694413
    52 0.079358 -0.185919 -0.087169 0.431558 0.118246 1.207667
    53 -1.393470 8.839177 -0.239433 1.580804 -0.005023 -1.566847
  time 10
    0 1.476696 42.313427 -39.163345 0.000000 0.000000 0.000000
    1 11.266297 -43.578435 26.243558 0.623782 -2.425725 -1.034271
    2 -0.071918 -8.498733 -0.104137 -0.175090 0.634495 -0.544209
    3 1.179526 -3.387610 0.368453 -0.367238 -0.179600 -3.536014
    4 -1.301709 0.985929 3.177480 -1.570796 0.000000 0.321751
    5 -1.618417 2.304535 -1.031096 1.570796 -1.570796 0.000000
    6 0.000000 -0.164068 0.527363 -0.168959 0.000000 0.000000
    7 0.000000 -0.205282 0.475611 -0.281874 0.000000 0.000000
    8 0.000001 -0.393779 0.185892 0.337678 0.000000 0.000000
    9 -0.000001 -0.548609 0.143562 1.093076 0.000000 0.000000
    10 0.000000 -0.039047 0.479907 -0.468180 0.000000 0.000000
    11 0.000001 -0.171720 0.492548 0.066014 0.000000 0.000000
    12 0.000001 -0.297332 0.382017 -0.303642 0.000000 0.000000
    13 -0.267967 1.115499 -0.000001 0.000000 0.000000 0.152918
    14 -4.059096 1.933378 -0.000001 0.000000 0.000000 -1.250151
    15 -4.705892 5.891053 -0.000003 -0.028667 0.000000 -1.249451
    16 -4.346755 2.840777 -0.000002 0.000000 0.000000 -2.820401
    17 -5.098958 12.305957 1.028684 0.001221 -0.417399 0.309217
    18 1.343120 8.715708 1.092419 -1.422480 0.140206 -1.590417
    19 -0.488518 -2.755602 -0.228260 -0.097080 0.157299 -0.471464
    20 0.039887 -1.479790 0.029854 -2.051418 0.000000 0.000001
    21 0.028786 -1.075731 -0.023109 -0.970641 0.000000 0.000000
    22 0.250027 -2.820665 -0.238396 0.052169 0.095808 -0.372295
    23 -0.049759 -1.680544 0.100479 -2.080775 0.000000 -0.000002
    24 -0.034142 -1.148312 0.084782 -1.112900 0.000000 0.000000
    25 0.957766 -2.746780 -0.090302 0.315265 -0.031657 -0.256482
    26 -0.033420 -1.397129 -0.011257 -1.158429 0.000000 -0.000001
    27 -0.022360 -0.957436 0.018784 -1.417920 0.000000 0.000000
    28 -1.180681 -2.507217 -0.193859 -0.301383 0.279795 -0.312504
    29 -0.024967 -1.123934 0.017597 -1.604726 0.072770 -0.281625
    30 -0.020057 -0.890968 0.010090 -1.249147 0.000000 0.000000
    31 0.583510 -1.197277 0.185379 0.231467 -0.888485 -0.482506
    32 1.535927 0.010246 0.005009 0.009296 0.084096 -0.993218
    33 1.100771 0.004527 -0.010679 -0.014852 0.006493 -0.982291
    34 -0.067353 -0.065895 -0.195118 -2.500880 -0.001025 -1.473281
    35 0.936299 -55.810928 22.546280 0.915397 -3.608831 1.112242
    36 0.096944 -8.450418 -0.009365 -0.109177 -0.415919 0.807657
    37 0.447953 -2.798986 -0.200443 -1.256332 0.039448 0.150461
    38 -0.032909 -1.480204 0.004940 -1.615703 0.000000 0.000002
    39 -0.027022 -1.076920 -0.020210 -0.294437 0.000000 0.000000
    40 -0.249534 -2.846964 -0.174213 -1.062156 0.058623 0.101443
    41 0.043235 -1.683941 0.096012 -1.653380 0.002823 -0.000167
    42 0.031729 -1.160830 0.058838 -0.649575 0.000642 0.008372
    43 -0.963866 -2.785145 -0.085350 -0.205071 0.160754 0.088998
    44 0.028479 -1.403067 0.006271 -1.219102 0.000000 0.000000
    45 0.021413 -0.957781 0.020046 -0.902852 0.000000 0.000000
    46 1.164475 -2.543940 -0.170330 -1.111380 0.022983 0.043056
    47 0.024032 -1.129042 0.017807 -1.186514 0.000000 0.000001
    48 0.014898 -0.883989 -0.019848 -0.761021 0.000000 0.000000
    49 -0.586770 -1.264477 0.200161 -0.783836 -0.899837 -2.444635
    50 1.522835 0.058681 0.016848 0.447361 -0.239893 0.980788
    51 1.117947 0.048424 -0.005766 -0.095820 0.009797 0.694413
    52 0.079358 -0.185919 -0.087169 0.431558 0.118246 1.207667
    53 -1.393470 8.839177 -0.239433 1.580804 -0.005023 -1.566847
  time 11
    0 1.476696 42.313427 -39.163345 0.000000 0.000000 0.000000
    1 11.266297 -43.469056 26.380281 0.623782 -2.425725 -1.034271
    2 -0.071918 -8.498733 -0.104137 -0.175821 0.634724 -0.545394
    3 1.179526 -3.387610 0.368453 -0.367238 -0.179600 -3.536014
    4 -1.301709 0.985929 3.177480 -1.570796 0.000000 0.321751
    5 -1.583260 2.367037 -1.031096 1.570796 -1.570796 0.000000
    6 0.000000 -0.082034 0.539083 -0.122183 0.000000 0.000000
    7 0.000000 -0.209189 0.467799 -0.157652 0.000000 0.000000
    8 0.000001 -0.331277 0.264019 0.488752 0.000000 0.000000
    9 -0.000001 -0.435324 0.252941 0.752904 0.000000 0.000000
    10 0.000000 -0.027328 0.468188 -0.418426 0.000000 0.000000
    11 0.000001 -0.171720 0.492548 0.066014 0.000000 0.000000
    12 0.000001 -0.297332 0.382017 -0.303642 0.000000 0.000000
    13 -0.267967 1.115499 -0.000001 0.000000 0.000000 0.152918
    14 -4.059096 1.933378 -0.000001 0.000000 0.000000 -1.250151
    15 -4.705892 5.891053 -0.000003 0.049281 0.000000 -1.249451
    16 -4.346755 2.840777 -0.000002 0.000000 0.000000 -2.820401
    17 -5.098958 12.305957 1.028684 0.025963 -0.410548 0.253700
    18 1.343120 8.715708 1.092419 -1.422480 0.140206 -1.590417
    19 -0.488518 -2.755602 -0.228260 -0.097080 0.157299 -0.471464
    20 0.039887 -1.479790 0.029854 -2.051418 0.000000 0.000001
    21 0.028786 -1.075731 -0.023109 -0.970641 0.000000 0.000000
    22 0.250027 -2.820665 -0.238396 0.052169 0.095808 -0.372295
    23 -0.049759 -1.680544 0.100479 -2.080775 0.000000 -0.000002
    24 -0.034142 -1.148312 0.084782 -1.112900 0.000000 0.000000
    25 0.957766 -2.746780 -0.090302 0.336008 -0.031657 -0.256482
    26 -0.033420 -1.397129 -0.011257 -1.098726 0.000000 -0.000001
    27 -0.022360 -0.957436 0.018784 -1.348494 0.000000 0.000000
    28 -1.180681 -2.507217 -0.193859 -0.301383 0.279795 -0.312504
    29 -0.024967 -1.123934 0.017597 -1.604726 0.072770 -0.281625
    30 -0.020057 -0.890968 0.010090 -1.249147 0.000000 0.000000
    31 0.583510 -1.197277 0.185379 0.231467 -0.888485 -0.482506
    32 1.535927 0.010246 0.005009 0.009296 0.084096 -0.993218
    33 1.100771 0.004527 -0.010679 -0.014852 0.006493 -0.982291
    34 -0.067353 -0.065895 -0.195118 -2.500880 -0.001025 -1.473281
    35 0.959737 -55.728895 22.659564 0.915397 -3.608831 1.112242
    36 0.096944 -8.450418 -0.009365 -0.108699 -0.421878 0.810360
    37 0.447953 -2.798986 -0.200443 -1.256332 0.039448 0.150461
    38 -0.032909 -1.480204 0.004940 -1.615703 0.000000 0.000002
    39 -0.027022 -1.076920 -0.020210 -0.294437 0.000000 0.000000
    40 -0.249534 -2.846964 -0.174213 -1.062156 0.058623 0.101443
    41 0.043235 -1.683941 0.096012 -1.653380 0.002823 -0.000167
    42 0.031729 -1.160830 0.058838 -0.649575 0.000642 0.008372
    43 -0.963866 -2.785145 -0.085350 -0.205071 0.160754 0.088998
    44 0.028479 -1.403067 0.006271 -1.219102 0.000000 0.000000
    45 0.021413 -0.957781 0.020046 -0.902852 0.000000 0.000000
    46 1.164475 -2.543940 -0.170330 -1.111380 0.022983 0.043056
    47 0.024032 -1.129042 0.017807 -1.186514 0.000000 0.000001
    48 0.014898 -0.883989 -0.019848 -0.761021 0.000000 0.000000
    49 -0.586770 -1.264477 0.200161 -0.783836 -0.899837 -2.444635
    50 1.522835 0.058681 0.016848 0.447361 -0.239893 0.980788
    51 1.117947 0.048424 -0.005766 -0.095820 0.009797 0.694413
    52 0.079358 -0.185919 -0.087169 0.431558 0.118246 1.207667
    53 -1.393470 8.839177 -0.239433 1.580804 -0.005023 -1.566847
  time 12
    0 1.476696 42.313427 -39.163345 0.000000 0.000000 0.000000
    1 11.266297 -43.429993 26.434970 0.623782 -2.425725 -1.034271
    2 -0.071918 -8.498733 -0.104137 -0.176056 0.634806 -0.545807
    3 1.179526 -3.387610 0.368453 -0.367238 -0.179600 -3.536014
    4 -1.301709 0.985929 3.177480 -1.570796 0.000000 0.321751
    5 -1.548103 2.437352 -1.031096 1.570796 -1.570796 0.000000
    6 0.000000 0.015625 0.550802 -0.066371 0.000000 0.000000
    7 0.000000 -0.213095 0.463892 -0.009372 0.000000 0.000000
    8 0.000001 -0.272681 0.349959 0.631559 0.000000 0.000000
    9 -0.000001 -0.298601 0.381851 0.346923 0.000000 0.000000
    10 0.000000 -0.023421 0.456469 -0.359032 0.000000 0.000000
    11 0.000001 -0.171720 0.492548 0.066014 0.000000 0.000000
    12 0.000001 -0.297332 0.382017 -0.303642 0.000000 0.000000
    13 -0.267967 1.115499 -0.000001 0.000000 0.000000 0.152918
    14 -4.059096 1.933378 -0.000001 0.000000 0.000000 -1.250151
    15 -4.705892 5.891053 -0.000003 0.084719 0.000000 -1.249451
    16 -4.346755 2.840777 -0.000002 0.000000 0.000000 -2.820401
    17 -5.098958 12.305957 1.028684 0.035562 -0.406972 0.232683
    18 1.343120 8.715708 1.092419 -1.422480 0.140206 -1.590417
    19 -0.488518 -2.755602 -0.228260 -0.097080 0.157299 -0.471464
    20 0.039887 -1.479790 0.029854 -2.051479 0.000000 0.000001
    21 0.028786 -1.075731 -0.023109 -0.970641 0.000000 0.000000
    22 0.250027 -2.820665 -0.238396 0.052169 0.095808 -0.372295
    23 -0.049759 -1.680544 0.100479 -2.080775 0.000000 -0.000002
    24 -0.034142 -1.148312 0.084782 -1.112900 0.000000 0.000000
    25 0.957766 -2.746780 -0.090302 0.358187 -0.031657 -0.256482
    26 -0.033420 -1.397129 -0.011257 -1.034905 0.000000 -0.000001
    27 -0.022360 -0.957436 0.018784 -1.274297 0.000000 0.000000
    28 -1.180681 -2.507217 -0.193859 -0.301383 0.279795 -0.312504
    29 -0.024967 -1.123934 0.017597 -1.604726 0.072770 -0.281625
    30 -0.020057 -0.890968 0.010090 -1.249147 0.000000 0.000000
    31 0.583510 -1.197277 0.185379 0.231467 -0.888485 -0.482506
    32 1.535927 0.010246 0.005009 0.009296 0.084096 -0.993218
    33 1.100771 0.004527 -0.010679 -0.014852 0.006493 -0.982291
    34 -0.067353 -0.065895 -0.195118 -2.500880 -0.001025 -1.473281
    35 0.967550 -55.697644 22.725973 0.915397 -3.608831 1.112242
    36 0.096944 -8.450418 -0.009365 -0.106472 -0.424254 0.811409
    37 0.447953 -2.798986 -0.200443 -1.256332 0.039448 0.150461
    38 -0.032909 -1.480204 0.004940 -1.615703 0.000000 0.000002
    39 -0.027022 -1.076920 -0.020210 -0.294437 0.000000 0.000000
    40 -0.249534 -2.846964 -0.174213 -1.062156 0.058623 0.101443
    41 0.043235 -1.683941 0.096012 -1.653380 0.002823 -0.000167
    42 0.031729 -1.160830 0.058838 -0.649575 0.000642 0.008372
    43 -0.963866 -2.785145 -0.085350 -0.205071 0.160754 0.088998
    44 0.028479 -1.403067 0.006271 -1.219102 0.000000 0.000000
    45 0.021413 -0.957781 0.020046 -0.902852 0.000000 0.000000
    46 1.164475 -2.543940 -0.170330 -1.111380 0.022983 0.043056
    47 0.024032 -1.129042 0.017807 -1.186514 0.000000 0.000001
    48 0.014898 -0.883989 -0.019848 -0.761021 0.000000 0.000000
    49 -0.586770 -1.264477 0.200161 -0.783836 -0.899837 -2.444635
    50 1.522835 0.058681 0.016848 0.447361 -0.239893 0.980788
    51 1.117947 0.048424 -0.005766 -0.095820 0.009797 0.694413
    52 0.079358 -0.185919 -0.087169 0.431558 0.118246 1.207667
    53 -1.393470 8.839177 -0.239433 1.580804 -0.005023 -1.566847
  time 13
    0 1.476696 42.313427 -39.163345 0.000000 0.000000 0.000000
    1 11.266297 -43.445618 26.434970 0.623782 -2.425725 -1.034271
    2 -0.071918 -8.498733 -0.104137 -0.174373 0.634233 -0.542996
    3 1.179526 -3.387610 0.368453 -0.367238 -0.179600 -3.536014
    4 -1.301709 0.985929 3.177480 -1.570796 0.000000 0.321751
    5 -1.512945 2.499853 -1.031096 1.570796 -1.570796 0.000000
    6 0.000000 0.101566 0.562521 -0.019607 0.000000 0.000000
    7 0.000000 -0.217002 0.459986 0.114849 0.000000 0.000000
    8 0.000001 -0.233617 0.424180 0.737892 0.000000 0.000000
    9 -0.000001 -0.189223 0.491229 0.006751 0.000000 0.000000
    10 0.000000 -0.019515 0.448656 -0.309247 0.000000 0.000000
    11 0.000001 -0.171720 0.492548 0.066014 0.000000 0.000000
    12 0.000001 -0.297332 0.382017 -0.303642 0.000000 0.000000
    13 -0.267967 1.115499 -0.000001 0.000000 0.000000 0.152918
    14 -4.059096 1.933378 -0.000001 0.000000 0.000000 -1.250151
    15 -4.705892 5.891053 -0.000003 0.081819 0.000000 -1.249451
    16 -4.346755 2.840777 -0.000002 0.000000 0.000000 -2.820401
    17 -5.098958 12.305957 1.028684 0.033321 -0.407457 0.238036
    18 1.343120 8.715708 1.092419 -1.422480 0.140206 -1.590417
    19 -0.488518 -2.755602 -0.228260 -0.097080 0.157299 -0.471464
    20 0.039887 -1.479790 0.029854 -2.051479 0.000000 0.000001
    21 0.028786 -1.075731 -0.023109 -0.970641 0.000000 0.000000
    22 0.250027 -2.820665 -0.238396 0.052169 0.095808 -0.372295
    23 -0.049759 -1.680544 0.100479 -2.080775 0.000000 -0.000002
    24 -0.034142 -1.148312 0.084782 -1.112900 0.000000 0.000000
    25 0.957766 -2.746780 -0.090302 0.381099 -0.031657 -0.256482
    26 -0.033420 -1.397129 -0.011257 -0.968962 0.000000 -0.000001
    27 -0.022360 -0.957436 0.018784 -1.197737 0.000000 0.000000
    28 -1.180681 -2.507217 -0.193859 -0.301383 0.279795 -0.312504
    29 -0.024967 -1.123934 0.017597 -1.604726 0.072770 -0.281625
    30 -0.020057 -0.890968 0.010090 -1.249147 0.000000 0.000000
    31 0.583510 -1.197277 0.185379 0.231467 -0.888485 -0.482506
    32 1.535927 0.010246 0.005009 0.009296 0.084096 -0.993218
    33 1.100771 0.004527 -0.010679 -0.014852 0.006493 -0.982291
    34 -0.067353 -0.065895 -0.195118 -2.500880 -0.001025 -1.473281
    35 0.967550 -55.752333 22.745505 0.915397 -3.608831 1.112242
    36 0.096944 -8.450418 -0.009365 -0.096459 -0.422343 0.799655
    37 0.447953 -2.798986 -0.200443 -1.256332 0.039448 0.150461
    38 -0.032909 -1.480204 0.004940 -1.615703 0.000000 0.000002
    39 -0.027022 -1.076920 -0.020210 -0.294437 0.000000 0.000000
    40 -0.249534 -2.846964 -0.174213 -1.062156 0.058623 0.101443
    41 0.043235 -1.683941 0.096012 -1.653380 0.002823 -0.000167
    42 0.031729 -1.160830 0.058838 -0.649575 0.000642 0.008372
    43 -0.963866 -2.785145 -0.085350 -0.205071 0.160754 0.088998
    44 0.028479 -1.403067 0.006271 -1.219102 0.000000 0.000000
    45 0.021413 -0.957781 0.020046 -0.902852 0.000000 0.000000
    46 1.164475 -2.543940 -0.170330 -1.111380 0.022983 0.043056
    47 0.024032 -1.129042 0.017807 -1.186514 0.000000 0.000001
    48 0.014898 -0.883989 -0.019848 -0.761021 0.000000 0.000000
    49 -0.586770 -1.264477 0.200161 -0.783836 -0.899837 -2.444635
    50 1.522835 0.058681 0.016848 0.447361 -0.239893 0.980788
    51 1.117947 0.048424 -0.005766 -0.095820 0.009797 0.694413
    52 0.079358 -0.185919 -0.087169 0.431558 0.118246 1.207655
    53 -1.393470 8.839177 -0.239433 1.580804 -0.005023 -1.566847
  time 14
    0 1.476696 42.313427 -39.163345 0.000000 0.000000 0.000000
    1 11.266297 -43.500307 26.427157 0.623782 -2.425725 -1.034271
    2 -0.071918 -8.498733 -0.104137 -0.169872 0.632691 -0.535417
    3 1.179526 -3.387610 0.368453 -0.367238 -0.179600 -3.536014
    4 -1.301709 0.985929 3.177480 -1.570796 0.000000 0.321751
    5 -1.501226 2.523292 -1.031096 1.570796 -1.570796 0.000000
    6 0.000000 0.136723 0.566427 0.000000 0.000000 0.000000
    7 0.000000 -0.220908 0.456080 0.166942 0.000000 0.000000
    8 0.000001 -0.214086 0.451525 0.779601 0.000000 0.000000
    9 -0.000001 -0.138440 0.538106 -0.135880 0.000000 0.000000
    10 0.000000 -0.019515 0.448656 -0.288385 0.000000 0.000000
    11 0.000001 -0.171720 0.492548 0.066014 0.000000 0.000000
    12 0.000001 -0.297332 0.382017 -0.303642 0.000000 0.000000
    13 -0.267967 1.115499 -0.000001 0.000000 0.000000 0.152918
    14 -4.059096 1.933378 -0.000001 0.000000 0.000000 -1.250151
    15 -4.705892 5.891053 -0.000003 0.074029 0.000000 -1.249451
    16 -4.346755 2.840777 -0.000002 0.000000 0.000000 -2.820401
    17 -5.098958 12.305957 1.028684 0.027353 -0.408610 0.252444
    18 1.343120 8.715708 1.092419 -1.422480 0.140206 -1.590417
    19 -0.488518 -2.755602 -0.228260 -0.097080 0.157299 -0.471464
    20 0.039887 -1.479790 0.029854 -2.051479 0.000000 0.000001
    21 0.028786 -1.075731 -0.023109 -0.970641 0.000000 0.000000
    22 0.250027 -2.820665 -0.238396 0.052169 0.095808 -0.372295
    23 -0.049759 -1.680544 0.100479 -2.080775 0.000000 -0.000002
    24 -0.034142 -1.148312 0.084782 -1.112900 0.000000 0.000000
    25 0.957766 -2.746780 -0.090302 0.404010 -0.031657 -0.256482
    26 -0.033420 -1.397129 -0.011257 -0.903061 0.000000 -0.000001
    27 -0.022360 -0.957436 0.018784 -1.121128 0.000000 0.000000
    28 -1.180681 -2.507217 -0.193859 -0.301383 0.279795 -0.312504
    29 -0.024967 -1.123934 0.017597 -1.604726 0.072770 -0.281625
    30 -0.020057 -0.890968 0.010090 -1.249147 0.000000 0.000000
    31 0.583510 -1.197277 0.185379 0.231467 -0.888485 -0.482506
    32 1.535927 0.010246 0.005009 0.009296 0.084096 -0.993218
    33 1.100771 0.004527 -0.010679 -0.014852 0.006493 -0.982291
    34 -0.067353 -0.065895 -0.195118 -2.500880 -0.001025 -1.473281
    35 0.959737 -55.869524 22.749411 0.915397 -3.608831 1.112242
    36 0.096944 -8.450418 -0.009365 -0.079547 -0.418434 0.774651
    37 0.447953 -2.798986 -0.200443 -1.256332 0.039448 0.150461
    38 -0.032909 -1.480204 0.004940 -1.615703 0.000000 0.000002
    39 -0.027022 -1.076920 -0.020210 -0.294437 0.000000 0.000000
    40 -0.249534 -2.846964 -0.174213 -1.062156 0.058623 0.101443
    41 0.043235 -1.683941 0.096012 -1.653380 0.002823 -0.000167
    42 0.031729 -1.160830 0.058838 -0.649575 0.000642 0.008372
    43 -0.963866 -2.785145 -0.085350 -0.205071 0.160754 0.088998
    44 0.028479 -1.403067 0.006271 -1.219102 0.000000 0.000000
    45 0.021413 -0.957781 0.020046 -0.902852 0.000000 0.000000
    46 1.164475 -2.543940 -0.170330 -1.111380 0.022983 0.043056
    47 0.024032 -1.129042 0.017807 -1.186514 0.000000 0.000001
    48 0.014898 -0.883989 -0.019848 -0.761021 0.000000 0.000000
    49 -0.586770 -1.264477 0.200161 -0.783836 -0.899837 -2.444635
    50 1.522835 0.058681 0.016848 0.447361 -0.239893 0.980788
    51 1.117947 0.048424 -0.005766 -0.095820 0.009797 0.694413
    52 0.079358 -0.185919 -0.087169 0.431558 0.118246 1.207667
    53 -1.393470 8.839177 -0.239433 1.580804 -0.005023 -1.566847
  time 15
    0 1.476696 42.313427 -39.163345 0.000000 0.000000 0.000000
    1 11.266297 -43.570622 26.423251 0.623782 -2.425725 -1.034271
    2 -0.071918 -8.498733 -0.104137 -0.163337 0.630445 -0.524475
    3 1.179526 -3.387610 0.368453 -0.367238 -0.179600 -3.536014
    4 -1.301709 0.985929 3.177480 -1.570796 0.000000 0.321751
    5 -1.501226 2.523292 -1.031096 1.570796 -1.570796 0.000000
    6 0.000000 0.128910 0.566427 0.000000 0.000000 0.000000
    7 0.000000 -0.228721 0.456080 0.166942 0.000000 0.000000
    8 0.000001 -0.217992 0.447619 0.763209 0.000000 0.000000
    9 -0.000001 -0.146253 0.534199 -0.125547 0.000000 0.000000
    10 0.000000 -0.027328 0.448656 -0.297499 0.000000 0.000000
    11 0.000001 -0.171720 0.492548 0.066014 0.000000 0.000000
    12 0.000001 -0.297332 0.382017 -0.303642 0.000000 0.000000
    13 -0.267967 1.115499 -0.000001 0.000000 0.000000 0.152918
    14 -4.059096 1.933378 -0.000001 0.000000 0.000000 -1.250151
    15 -4.705892 5.891053 -0.000003 0.062751 0.000000 -1.249451
    16 -4.346755 2.840777 -0.000002 0.000000 0.000000 -2.820401
    17 -5.098958 12.305957 1.028684 0.018720 -0.409835 0.273395
    18 1.343120 8.715708 1.092419 -1.422480 0.140206 -1.590417
    19 -0.488518 -2.755602 -0.228260 -0.097080 0.157299 -0.471464
    20 0.039887 -1.479790 0.029854 -2.051418 0.000000 0.000001
    21 0.028786 -1.075731 -0.023109 -0.970641 0.000000 0.000000
    22 0.250027 -2.820665 -0.238396 0.052169 0.095808 -0.372295
    23 -0.049759 -1.680544 0.100479 -2.080775 0.000000 -0.000002
    24 -0.034142 -1.148312 0.084782 -1.112900 0.000000 0.000000
    25 0.957766 -2.746780 -0.090302 0.426215 -0.031657 -0.256482
    26 -0.033420 -1.397129 -0.011257 -0.839239 0.000000 -0.000001
    27 -0.022360 -0.957436 0.018784 -1.046930 0.000000 0.000000
    28 -1.180681 -2.507217 -0.193859 -0.301383 0.279795 -0.312504
    29 -0.024967 -1.123934 0.017597 -1.604726 0.072770 -0.281625
    30 -0.020057 -0.890968 0.010090 -1.249147 0.000000 0.000000
    31 0.583510 -1.197277 0.185379 0.231467 -0.888485 -0.482506
    32 1.535927 0.010246 0.005009 0.009296 0.084096 -0.993218
    33 1.100771 0.004527 -0.010679 -0.014852 0.006493 -0.982291
    34 -0.067353 -0.065895 -0.195118 -2.500880 -0.001025 -1.473281
    35 0.955831 -55.982809 22.765036 0.915397 -3.608831 1.112242
    36 0.096944 -8.450418 -0.009365 -0.065463 -0.415386 0.751694
    37 0.447953 -2.798986 -0.200443 -1.256332 0.039448 0.150461
    38 -0.032909 -1.480204 0.004940 -1.615703 0.000000 0.000002
    39 -0.027022 -1.076920 -0.020210 -0.294437 0.000000 0.000000
    40 -0.249534 -2.846964 -0.174213 -1.062156 0.058623 0.101443
    41 0.043235 -1.683941 0.096012 -1.653380 0.002823 -0.000167
    42 0.031729 -1.160830 0.058838 -0.649575 0.000642 0.008372
    43 -0.963866 -2.785145 -0.085350 -0.205071 0.160754 0.088998
    44 0.028479 -1.403067 0.006271 -1.219102 0.000000 0.000000
    45 0.021413 -0.957781 0.020046 -0.902852 0.000000 0.000000
    46 1.164475 -2.543940 -0.170330 -1.111380 0.022983 0.043056
    47 0.024032 -1.129042 0.017807 -1.186514 0.000000 0.000001
    48 0.014898 -0.883989 -0.019848 -0.761021 0.000000 0.000000
    49 -0.586770 -1.264477 0.200161 -0.783836 -0.899837 -2.444635
    50 1.522835 0.058681 0.016848 0.447361 -0.239893 0.980788
    51 1.117947 0.048424 -0.005766 -0.095820 0.009797 0.694413
    52 0.079358 -0.185919 -0.087169 0.431558 0.118246 1.207667
    53 -1.393470 8.839177 -0.239433 1.580804 -0.005023 -1.566847
  time 16
    0 1.476696 42.313427 -39.163345 0.000000 0.000000 0.000000
    1 11.266297 -43.660469 26.415438 0.623782 -2.425725 -1.034271
    2 -0.071918 -8.498733 -0.104137 -0.155588 0.627739 -0.511521
    3 1.179526 -3.387610 0.368453 -0.367238 -0.179600 -3.536014
    4 -1.301709 0.985929 3.177480 -1.570796 0.000000 0.321751
    5 -1.501226 2.523292 -1.031096 1.570796 -1.570796 0.000000
    6 0.000000 0.109378 0.566427 0.000000 0.000000 0.000000
    7 0.000000 -0.240440 0.452173 0.166942 0.000000 0.000000
    8 0.000001 -0.233617 0.431993 0.720985 0.000000 0.000000
    9 -0.000001 -0.157972 0.518574 -0.098997 0.000000 0.000000
    10 0.000000 -0.054672 0.456469 -0.320996 0.000000 0.000000
    11 0.000001 -0.171720 0.492548 0.066014 0.000000 0.000000
    12 0.000001 -0.297332 0.382017 -0.303642 0.000000 0.000000
    13 -0.267967 1.115499 -0.000001 0.000000 0.000000 0.152918
    14 -4.059096 1.933378 -0.000001 0.000000 0.000000 -1.250151
    15 -4.705892 5.891053 -0.000003 0.049388 0.000000 -1.249451
    16 -4.346755 2.840777 -0.000002 0.000000 0.000000 -2.820401
    17 -5.098958 12.305957 1.028684 0.008560 -0.410661 0.298510
    18 1.343120 8.715708 1.092419 -1.422480 0.140206 -1.590417
    19 -0.488518 -2.755602 -0.228260 -0.097080 0.157299 -0.471464
    20 0.039887 -1.479790 0.029854 -2.051418 0.000000 0.000001
    21 0.028786 -1.075731 -0.023109 -0.970641 0.000000 0.000000
    22 0.250027 -2.820665 -0.238396 0.052169 0.095808 -0.372295
    23 -0.049759 -1.680544 0.100479 -2.080775 0.000000 -0.000002
    24 -0.034142 -1.148312 0.084782 -1.112900 0.000000 0.000000
    25 0.957766 -2.746780 -0.090302 0.446958 -0.031657 -0.256482
    26 -0.033420 -1.397129 -0.011257 -0.779537 0.000000 -0.000001
    27 -0.022360 -0.957436 0.018784 -0.977554 0.000000 0.000000
    28 -1.180681 -2.507217 -0.193859 -0.301383 0.279795 -0.312504
    29 -0.024967 -1.123934 0.017597 -1.604726 0.072770 -0.281625
    30 -0.020057 -0.890968 0.010090 -1.249147 0.000000 0.000000
    31 0.583510 -1.197277 0.185379 0.231467 -0.888485 -0.482506
    32 1.535927 0.010246 0.005009 0.009296 0.084096 -0.993218
    33 1.100771 0.004527 -0.010679 -0.014852 0.006493 -0.982291
    34 -0.067353 -0.065895 -0.195118 -2.500880 -0.001025 -1.473281
    35 0.944112 -56.080468 22.811913 0.915397 -3.608831 1.112242
    36 0.096944 -8.450418 -0.009365 -0.055710 -0.413836 0.733197
    37 0.447953 -2.798986 -0.200443 -1.256332 0.039448 0.150461
    38 -0.032909 -1.480204 0.004940 -1.615703 0.000000 0.000002
    39 -0.027022 -1.076920 -0.020210 -0.294437 0.000000 0.000000
    40 -0.249534 -2.846964 -0.174213 -1.062156 0.058623 0.101443
    41 0.043235 -1.683941 0.096012 -1.653380 0.002823 -0.000167
    42 0.031729 -1.160830 0.058838 -0.649575 0.000642 0.008372
    43 -0.963866 -2.785145 -0.085350 -0.205071 0.160754 0.088998
    44 0.028479 -1.403067 0.006271 -1.219102 0.000000 0.000000
    45 0.021413 -0.957781 0.020046 -0.902852 0.000000 0.000000
    46 1.164475 -2.543940 -0.170330 -1.111380 0.022983 0.043056
    47 0.024032 -1.129042 0.017807 -1.186514 0.000000 0.000001
    48 0.014898 -0.883989 -0.019848 -0.761021 0.000000 0.000000
    49 -0.586770 -1.264477 0.200161 -0.783836 -0.899837 -2.444635
    50 1.522835 0.058681 0.016848 0.447361 -0.239893 0.980788
    51 1.117947 0.048424 -0.005766 -0.095820 0.009797 0.694413
    52 0.079358 -0.185919 -0.087169 0.431558 0.118246 1.207667
    53 -1.393470 8.839177 -0.239433 1.580804 -0.005023 -1.566847
  time 17
    0 1.476696 42.313427 -39.163345 0.000000 0.000000 0.000000
    1 11.266297 -43.750315 26.407625 0.623782 -2.425725 -1.034271
    2 -0.071918 -8.498733 -0.104137 -0.147422 0.624870 -0.497934
    3 1.179526 -3.387610 0.368453 -0.367238 -0.179600 -3.536014
    4 -1.301709 0.985929 3.177480 -1.570796 0.000000 0.321751
    5 -1.501226 2.523292 -1.031096 1.570796 -1.570796 0.000000
    6 0.000000 0.082034 0.566427 0.000000 0.000000 0.000000
    7 0.000000 -0.248253 0.452173 0.166942 0.000000 0.000000
    8 0.000001 -0.253149 0.416368 0.663256 0.000000 0.000000
    9 -0.000001 -0.177504 0.499042 -0.062641 0.000000 0.000000
    10 0.000000 -0.089830 0.468188 -0.353142 0.000000 0.000000
    11 0.000001 -0.171720 0.492548 0.066014 0.000000 0.000000
    12 0.000001 -0.297332 0.382017 -0.303642 0.000000 0.000000
    13 -0.267967 1.115499 -0.000001 0.000000 0.000000 0.152918
    14 -4.059096 1.933378 -0.000001 0.000000 0.000000 -1.250151
    15 -4.705892 5.891053 -0.000003 0.035331 0.000000 -1.249451
    16 -4.346755 2.840777 -0.000002 0.000000 0.000000 -2.820401
    17 -5.098958 12.305957 1.028684 -0.002024 -0.410761 0.325079
    18 1.343120 8.715708 1.092419 -1.422480 0.140206 -1.590417
    19 -0.488518 -2.755602 -0.228260 -0.097080 0.157299 -0.471464
    20 0.039887 -1.479790 0.029854 -2.051479 0.000000 0.000001
    21 0.028786 -1.075731 -0.023109 -0.970641 0.000000 0.000000
    22 0.250027 -2.820665 -0.238396 0.052169 0.095808 -0.372295
    23 -0.049759 -1.680544 0.100479 -2.080775 0.000000 -0.000002
    24 -0.034142 -1.148312 0.084782 -1.112900 0.000000 0.000000
    25 0.957766 -2.746780 -0.090302 0.465559 -0.031657 -0.256482
    26 -0.033420 -1.397129 -0.011257 -0.726033 0.000000 -0.000001
    27 -0.022360 -0.957436 0.018784 -0.915362 0.000000 0.000000
    28 -1.180681 -2.507217 -0.193859 -0.301383 0.279795 -0.312504
    29 -0.024967 -1.123934 0.017597 -1.604726 0.072770 -0.281625
    30 -0.020057 -0.890968 0.010090 -1.249147 0.000000 0.000000
    31 0.583510 -1.197277 0.185379 0.231467 -0.888485 -0.482506
    32 1.535927 0.010246 0.005009 0.009296 0.084096 -0.993218
    33 1.100771 0.004527 -0.010679 -0.014852 0.006493 -0.982291
    34 -0.067353 -0.065895 -0.195118 -2.500880 -0.001025 -1.473281
    35 0.932393 -56.189846 22.866602 0.915397 -3.608831 1.112242
    36 0.096944 -8.450418 -0.009365 -0.045779 -0.412424 0.712916
    37 0.447953 -2.798986 -0.200443 -1.256332 0.039448 0.150461
    38 -0.032909 -1.480204 0.004940 -1.615703 0.000000 0.000002
    39 -0.027022 -1.076920 -0.020210 -0.294437 0.000000 0.000000
    40 -0.249534 -2.846964 -0.174213 -1.062156 0.058623 0.101443
    41 0.043235 -1.683941 0.096012 -1.653380 0.002823 -0.000167
    42 0.031729 -1.160830 0.058838 -0.649575 0.000642 0.008372
    43 -0.963866 -2.785145 -0.085350 -0.205071 0.160754 0.088998
    44 0.028479 -1.403067 0.006271 -1.219102 0.000000 0.000000
    45 0.021413 -0.957781 0.020046 -0.902852 0.000000 0.000000
    46 1.164475 -2.543940 -0.170330 -1.111380 0.022983 0.043056
    47 0.024032 -1.129042 0.017807 -1.186514 0.000000 0.000001
    48 0.014898 -0.883989 -0.019848 -0.761021 0.000000 0.000000
    49 -0.586770 -1.264477 0.200161 -0.783836 -0.899837 -2.444635
    50 1.522835 0.058681 0.016848 0.447361 -0.239893 0.980788
    51 1.117947 0.048424 -0.005766 -0.095820 0.009797 0.694413
    52 0.079358 -0.185919 -0.087169 0.431558 0.118246 1.207655
    53 -1.393470 8.839177 -0.239433 1.580804 -0.005023 -1.566847
  time 18
    0 1.476696 42.313427 -39.163345 0.000000 0.000000 0.000000
    1 11.266297 -43.840162 26.399812 0.623782 -2.425725 -1.034271
    2 -0.071918 -8.498733 -0.104137 -0.139660 0.622099 -0.485007
    3 1.179526 -3.387610 0.368453 -0.367238 -0.179600 -3.536014
    4 -1.301709 0.985929 3.177480 -1.570796 0.000000 0.321751
    5 -1.501226 2.523292 -1.031096 1.570796 -1.570796 0.000000
    6 0.000000 0.054689 0.566427 0.000000 0.000000 0.000000
    7 0.000000 -0.259972 0.448267 0.166942 0.000000 0.000000
    8 0.000001 -0.268775 0.392929 0.600349 0.000000 0.000000
    9 -0.000001 -0.197036 0.479510 -0.023043 0.000000 0.000000
    10 0.000000 -0.128893 0.479907 -0.388171 0.000000 0.000000
    11 0.000001 -0.171720 0.492548 0.066014 0.000000 0.000000
    12 0.000001 -0.297332 0.382017 -0.303642 0.000000 0.000000
    13 -0.267967 1.115499 -0.000001 0.000000 0.000000 0.152918
    14 -4.059096 1.933378 -0.000001 0.000000 0.000000 -1.250151
    15 -4.705892 5.891053 -0.000003 0.021956 0.000000 -1.249451
    16 -4.346755 2.840777 -0.000002 0.000000 0.000000 -2.820401
    17 -5.098958 12.305957 1.028684 -0.011952 -0.410134 0.350524
    18 1.343120 8.715708 1.092419 -1.422480 0.140206 -1.590417
    19 -0.488518 -2.755602 -0.228260 -0.097080 0.157299 -0.471464
    20 0.039887 -1.479790 0.029854 -2.051479 0.000000 0.000001
    21 0.028786 -1.075731 -0.023109 -0.970641 0.000000 0.000000
    22 0.250027 -2.820665 -0.238396 0.052169 0.095808 -0.372295
    23 -0.049759 -1.680544 0.100479 -2.080775 0.000000 -0.000002
    24 -0.034142 -1.148312 0.084782 -1.112900 0.000000 0.000000
    25 0.957766 -2.746780 -0.090302 0.481260 -0.031657 -0.256482
    26 -0.033420 -1.397129 -0.011257 -0.680848 0.000000 -0.000001
    27 -0.022360 -0.957436 0.018784 -0.862813 0.000000 0.000000
    28 -1.180681 -2.507217 -0.193859 -0.301383 0.279795 -0.312504
    29 -0.024967 -1.123934 0.017597 -1.604726 0.072770 -0.281625
    30 -0.020057 -0.890968 0.010090 -1.249147 0.000000 0.000000
    31 0.583510 -1.197277 0.185379 0.231467 -0.888485 -0.482506
    32 1.535927 0.010246 0.005009 0.009296 0.084096 -0.993218
    33 1.100771 0.004527 -0.010679 -0.014852 0.006493 -0.982291
    34 -0.067353 -0.065895 -0.195118 -2.500880 -0.001025 -1.473281
    35 0.920674 -56.299224 22.929104 0.915397 -3.608831 1.112242
    36 0.096944 -8.450418 -0.009365 -0.036517 -0.411184 0.693159
    37 0.447953 -2.798986 -0.200443 -1.256332 0.039448 0.150461
    38 -0.032909 -1.480204 0.004940 -1.615703 0.000000 0.000002
    39 -0.027022 -1.076920 -0.020210 -0.294437 0.000000 0.000000
    40 -0.249534 -2.846964 -0.174213 -1.062156 0.058623 0.101443
    41 0.043235 -1.683941 0.096012 -1.653380 0.002823 -0.000167
    42 0.031729 -1.160830 0.058838 -0.649575 0.000642 0.008372
    43 -0.963866 -2.785145 -0.085350 -0.205071 0.160754 0.088998
    44 0.028479 -1.403067 0.006271 -1.219102 0.000000 0.000000
    45 0.021413 -0.957781 0.020046 -0.902852 0.000000 0.000000
    46 1.164475 -2.543940 -0.170330 -1.111380 0.022983 0.043056
    47 0.024032 -1.129042 0.017807 -1.186514 0.000000 0.000001
    48 0.014898 -0.883989 -0.019848 -0.761021 0.000000 0.000000
    49 -0.586770 -1.264477 0.200161 -0.783836 -0.899837 -2.444635
    50 1.522835 0.058681 0.016848 0.447361 -0.239893 0.980788
    51 1.117947 0.048424 -0.005766 -0.095820 0.009797 0.694413
    52 0.079358 -0.185919 -0.087169 0.431558 0.118246 1.207667
    53 -1.393470 8.839177 -0.239433 1.580804 -0.005023 -1.566847
  time 19
    0 1.476696 42.313427 -39.163345 0.000000 0.000000 0.000000
    1 11.266297 -43.914383 26.392000 0.623782 -2.425725 -1.034271
    2 -0.071918 -8.498733 -0.104137 -0.133111 0.619722 -0.474121
    3 1.179526 -3.387610 0.368453 -0.367238 -0.179600 -3.536014
    4 -1.301709 0.985929 3.177480 -1.570796 0.000000 0.321751
    5 -1.501226 2.523292 -1.031096 1.570796 -1.570796 0.000000
    6 0.000000 0.027345 0.566427 0.000000 0.000000 0.000000
    7 0.000000 -0.267784 0.448267 0.166942 0.000000 0.000000
    8 0.000001 -0.288307 0.373398 0.542620 0.000000 0.000000
    9 -0.000001 -0.212661 0.459978 0.013275 0.000000 0.000000
    10 0.000000 -0.164051 0.487720 -0.420317 0.000000 0.000000
    11 0.000001 -0.171720 0.492548 0.066014 0.000000 0.000000
    12 0.000001 -0.297332 0.382017 -0.303642 0.000000 0.000000
    13 -0.267967 1.115499 -0.000001 0.000000 0.000000 0.152918
    14 -4.059096 1.933378 -0.000001 0.000000 0.000000 -1.250151
    15 -4.705892 5.891053 -0.000003 0.010690 0.000000 -1.249451
    16 -4.346755 2.840777 -0.000002 0.000000 0.000000 -2.820401
    17 -5.098958 12.305957 1.028684 -0.020180 -0.409038 0.372070
    18 1.343120 8.715708 1.092419 -1.422480 0.140206 -1.590417
    19 -0.488518 -2.755602 -0.228260 -0.097080 0.157299 -0.471464
    20 0.039887 -1.479790 0.029854 -2.051418 0.000000 0.000001
    21 0.028786 -1.075731 -0.023109 -0.970641 0.000000 0.000000
    22 0.250027 -2.820665 -0.238396 0.052169 0.095808 -0.372295
    23 -0.049759 -1.680544 0.100479 -2.080775 0.000000 -0.000002
    24 -0.034142 -1.148312 0.084782 -1.112900 0.000000 0.000000
    25 0.957766 -2.746780 -0.090302 0.493381 -0.031657 -0.256482
    26 -0.033420 -1.397129 -0.011257 -0.645980 0.000000 -0.000001
    27 -0.022360 -0.957436 0.018784 -0.822320 0.000000 0.000000
    28 -1.180681 -2.507217 -0.193859 -0.301383 0.279795 -0.312504
    29 -0.024967 -1.123934 0.017597 -1.604726 0.072770 -0.281625
    30 -0.020057 -0.890968 0.010090 -1.249147 0.000000 0.000000
    31 0.583510 -1.197277 0.185379 0.231467 -0.888485 -0.482506
    32 1.535927 0.010246 0.005009 0.009296 0.084096 -0.993218
    33 1.100771 0.004527 -0.010679 -0.014852 0.006493 -0.982291
    34 -0.067353 -0.065895 -0.195118 -2.500880 -0.001025 -1.473281
    35 0.912861 -56.389071 22.983793 0.915397 -3.608831 1.112242
    36 0.096944 -8.450418 -0.009365 -0.028799 -0.410168 0.676184
    37 0.447953 -2.798986 -0.200443 -1.256332 0.039448 0.150461
    38 -0.032909 -1.480204 0.004940 -1.615703 0.000000 0.000002
    39 -0.027022 -1.076920 -0.020210 -0.294437 0.000000 0.000000
    40 -0.249534 -2.846964 -0.174213 -1.062156 0.058623 0.101443
    41 0.043235 -1.683941 0.096012 -1.653380 0.002823 -0.000167
    42 0.031729 -1.160830 0.058838 -0.649575 0.000642 0.008372
    43 -0.963866 -2.785145 -0.085350 -0.205071 0.160754 0.088998
    44 0.028479 -1.403067 0.006271 -1.219102 0.000000 0.000000
    45 0.021413 -0.957781 0.020046 -0.902852 0.000000 0.000000
    46 1.164475 -2.543940 -0.170330 -1.111380 0.022983 0.043056
    47 0.024032 -1.129042 0.017807 -1.186514 0.000000 0.000001
    48 0.014898 -0.883989 -0.019848 -0.761021 0.000000 0.000000
    49 -0.586770 -1.264477 0.200161 -0.783836 -0.899837 -2.444635
    50 1.522835 0.058681 0.016848 0.447361 -0.239893 0.980788
    51 1.117947 0.048424 -0.005766 -0.095820 0.009797 0.694413
    52 0.079358 -0.185919 -0.087169 0.431558 0.118246 1.207667
    53 -1.393470 8.839177 -0.239433 1.580804 -0.005023 -1.566847
  time 20
    0 1.476696 42.313427 -39.163345 0.000000 0.000000 0.000000
    1 11.266297 -43.965165 26.388093 0.623782 -2.425725 -1.034271
    2 -0.071918 -8.498733 -0.104137 -0.128585 0.618082 -0.466624
    3 1.179526 -3.387610 0.368453 -0.367238 -0.179600 -3.536014
    4 -1.301709 0.985929 3.177480 -1.570796 0.000000 0.321751
    5 -1.501226 2.523292 -1.031096 1.570796 -1.570796 0.000000
    6 0.000000 0.003906 0.566427 0.000000 0.000000 0.000000
    7 0.000000 -0.275597 0.448267 0.166942 0.000000 0.000000
    8 0.000001 -0.303932 0.361678 0.500395 0.000000 0.000000
    9 -0.000001 -0.224380 0.444353 0.039863 0.000000 0.000000
    10 0.000000 -0.191395 0.495532 -0.443815 0.000000 0.000000
    11 0.000001 -0.171720 0.492548 0.066014 0.000000 0.000000
    12 0.000001 -0.297332 0.382017 -0.303642 0.000000 0.000000
    13 -0.267967 1.115499 -0.000001 0.000000 0.000000 0.152918
    14 -4.059096 1.933378 -0.000001 0.000000 0.000000 -1.250151
    15 -4.705892 5.891053 -0.000003 0.002900 0.000000 -1.249451
    16 -4.346755 2.840777 -0.000002 0.000000 0.000000 -2.820401
    17 -5.098958 12.305957 1.028684 -0.025800 -0.407998 0.386941
    18 1.343120 8.715708 1.092419 -1.422480 0.140206 -1.590417
    19 -0.488518 -2.755602 -0.228260 -0.097080 0.157299 -0.471464
    20 0.039887 -1.479790 0.029854 -2.051418 0.000000 0.000001
    21 0.028786 -1.075731 -0.023109 -0.970641 0.000000 0.000000
    22 0.250027 -2.820665 -0.238396 0.052169 0.095808 -0.372295
    23 -0.049759 -1.680544 0.100479 -2.080775 0.000000 -0.000002
    24 -0.034142 -1.148312 0.084782 -1.112900 0.000000 0.000000
    25 0.957766 -2.746780 -0.090302 0.501193 -0.031657 -0.256482
    26 -0.033420 -1.397129 -0.011257 -0.623551 0.000000 -0.000001
    27 -0.022360 -0.957436 0.018784 -0.796242 0.000000 0.000000
    28 -1.180681 -2.507217 -0.193859 -0.301383 0.279795 -0.312504
    29 -0.024967 -1.123934 0.017597 -1.604726 0.072770 -0.281625
    30 -0.020057 -0.890968 0.010090 -1.249147 0.000000 0.000000
    31 0.583510 -1.197277 0.185379 0.231467 -0.888485 -0.482506
    32 1.535927 0.010246 0.005009 0.009296 0.084096 -0.993218
    33 1.100771 0.004527 -0.010679 -0.014852 0.006493 -0.982291
    34 -0.067353 -0.065895 -0.195118 -2.500880 -0.001025 -1.473281
    35 0.905048 -56.455479 23.022857 0.915397 -3.608831 1.112242
    36 0.096944 -8.450418 -0.009365 -0.023498 -0.409496 0.664299
    37 0.447953 -2.798986 -0.200443 -1.256332 0.039448 0.150461
    38 -0.032909 -1.480204 0.004940 -1.615703 0.000000 0.000002
    39 -0.027022 -1.076920 -0.020210 -0.294437 0.000000 0.000000
    40 -0.249534 -2.846964 -0.174213 -1.062156 0.058623 0.101443
    41 0.043235 -1.683941 0.096012 -1.653380 0.002823 -0.000167
    42 0.031729 -1.160830 0.058838 -0.649575 0.000642 0.008372
    43 -0.963866 -2.785145 -0.085350 -0.205071 0.160754 0.088998
    44 0.028479 -1.403067 0.006271 -1.219102 0.000000 0.000000
    45 0.021413 -0.957781 0.020046 -0.902852 0.000000 0.000000
    46 1.164475 -2.543940 -0.170330 -1.111380 0.022983 0.043056
    47 0.024032 -1.129042 0.017807 -1.186514 0.000000 0.000001
    48 0.014898 -0.883989 -0.019848 -0.761021 0.000000 0.000000
    49 -0.586770 -1.264477 0.200161 -0.783836 -0.899837 -2.444635
    50 1.522835 0.058681 0.016848 0.447361 -0.239893 0.980788
    51 1.117947 0.048424 -0.005766 -0.095820 0.009797 0.694413
    52 0.079358 -0.185919 -0.087169 0.431558 0.118246 1.207667
    53 -1.393470 8.839177 -0.239433 1.580804 -0.005023 -1.566847
  time 21
    0 1.476696 42.313427 -39.163345 0.000000 0.000000 0.000000
    1 11.266297 -43.980791 26.384187 0.623782 -2.425725 -1.034271
    2 -0.071918 -8.498733 -0.104137 -0.126889 0.617459 -0.463813
    3 1.179526 -3.387610 0.368453 -0.367238 -0.179600 -3.536014
    4 -1.301709 0.985929 3.177480 -1.570796 0.000000 0.321751
    5 -1.501226 2.523292 -1.031096 1.570796 -1.570796 0.000000
    6 0.000000 0.000000 0.566427 0.000000 0.000000 0.000000
    7 0.000000 -0.275597 0.448267 0.166942 0.000000 0.000000
    8 0.000001 -0.307838 0.357772 0.484032 0.000000 0.000000
    9 -0.000001 -0.232193 0.440446 0.050158 0.000000 0.000000
    10 0.000000 -0.199208 0.499439 -0.452929 0.000000 0.000000
    11 0.000001 -0.171720 0.492548 0.066014 0.000000 0.000000
    12 0.000001 -0.297332 0.382017 -0.303642 0.000000 0.000000
    13 -0.267967 1.115499 -0.000001 0.000000 0.000000 0.152918
    14 -4.059096 1.933378 -0.000001 0.000000 0.000000 -1.250151
    15 -4.705892 5.891053 -0.000003 0.000000 0.000000 -1.249451
    16 -4.346755 2.840777 -0.000002 0.000000 0.000000 -2.820401
    17 -5.098958 12.305957 1.028684 -0.027886 -0.407542 0.392559
    18 1.343120 8.715708 1.092419 -1.422480 0.140206 -1.590417
    19 -0.488518 -2.755602 -0.228260 -0.097080 0.157299 -0.471464
    20 0.039887 -1.479790 0.029854 -2.051418 0.000000 0.000001
    21 0.028786 -1.075731 -0.023109 -0.970641 0.000000 0.000000
    22 0.250027 -2.820665 -0.238396 0.052169 0.095808 -0.372295
    23 -0.049759 -1.680544 0.100479 -2.080775 0.000000 -0.000002
    24 -0.034142 -1.148312 0.084782 -1.112900 0.000000 0.000000
    25 0.957766 -2.746780 -0.090302 0.503936 -0.031657 -0.256482
    26 -0.033420 -1.397129 -0.011257 -0.615599 0.000000 -0.000001
    27 -0.022360 -0.957436 0.018784 -0.787041 0.000000 0.000000
    28 -1.180681 -2.507217 -0.193859 -0.301383 0.279795 -0.312504
    29 -0.024967 -1.123934 0.017597 -1.604726 0.072770 -0.281625
    30 -0.020057 -0.890968 0.010090 -1.249147 0.000000 0.000000
    31 0.583510 -1.197277 0.185379 0.231467 -0.888485 -0.482506
    32 1.535927 0.010246 0.005009 0.009296 0.084096 -0.993218
    33 1.100771 0.004527 -0.010679 -0.014852 0.006493 -0.982291
    34 -0.067353 -0.065895 -0.195118 -2.500880 -0.001025 -1.473281
    35 0.901142 -56.478917 23.038482 0.915397 -3.608831 1.112242
    36 0.096944 -8.450418 -0.009365 -0.021531 -0.409255 0.659839
    37 0.447953 -2.798986 -0.200443 -1.256332 0.039448 0.150461
    38 -0.032909 -1.480204 0.004940 -1.615703 0.000000 0.000002
    39 -0.027022 -1.076920 -0.020210 -0.294437 0.000000 0.000000
    40 -0.249534 -2.846964 -0.174213 -1.062156 0.058623 0.101443
    41 0.043235 -1.683941 0.096012 -1.653380 0.002823 -0.000167
    42 0.031729 -1.160830 0.058838 -0.649575 0.000642 0.008372
    43 -0.963866 -2.785145 -0.085350 -0.205071 0.160754 0.088998
    44 0.028479 -1.403067 0.006271 -1.219102 0.000000 0.000000
    45 0.021413 -0.957781 0.020046 -0.902852 0.000000 0.000000
    46 1.164475 -2.543940 -0.170330 -1.111380 0.022983 0.043056
    47 0.024032 -1.129042 0.017807 -1.186514 0.000000 0.000001
    48 0.014898 -0.883989 -0.019848 -0.761021 0.000000 0.000000
    49 -0.586770 -1.264477 0.200161 -0.783836 -0.899837 -2.444635
    50 1.522835 0.058681 0.016848 0.447361 -0.239893 0.980788
    51 1.117947 0.048424 -0.005766 -0.095820 0.009797 0.694413
    52 0.079358 -0.185919 -0.087169 0.431558 0.118246 1.207655
    53 -1.393470 8.839177 -0.239433 1.580804 -0.005023 -1.566847
end
