"VertexLitGeneric"
{
    $basetexture    "models\weapons\tfa_cso\holybomb\holywater_f"
    $alphatest		"0"
	$allowalphatocoverage "1"
	$bumpmap "models\weapons\tfa_cso\holybomb\holywater_n"
	$phongexponenttexture "models\weapons\v_models\Request CSO\Dragon TMP S"
	$phong "1"
	$phongexponent "20"
	$phongfresnelranges "[0.15 0.65 1.00]"
	$phongalbedotint "1"
	$phongboost "32"
}