version 1
nodes
  0 "root" -1
  1 "Bone04" 0
  2 "Bone_Righthand" 1
  3 "Dummy01" 2
  4 "Bone25" 3
  5 "Bone03" 4
  6 "Bone08" 5
  7 "Bone47" 4
  8 "Dummy03" 7
  9 "Bone16" 4
  10 "Bone20" 9
  11 "Bone26" 4
  12 "Dummy04" 11
  13 "Bone02" 4
  14 "Bone12" 13
  15 "Bone42" 4
  16 "Bone34" 4
  17 "Bone50" 4
  18 "Dummy02" 3
  19 "Bone01" 0
  20 "Bone_L_Upper" 19
  21 "Bone_Lefthand" 19
  22 "Bone13" 21
  23 "Bone14" 22
  24 "Bone15" 23
  25 "Bone17" 21
  26 "Bone18" 25
  27 "Bone19" 26
  28 "Bone21" 21
  29 "Bone22" 28
  30 "Bone23" 29
  31 "Bone09" 21
  32 "Bone10" 31
  33 "Bone11" 32
  34 "Bone05" 21
  35 "Bone06" 34
  36 "Bone07" 35
  37 "Bone_Se_Hand-L" 21
  38 "Bone39" 2
  39 "Bone40" 38
  40 "Bone41" 39
  41 "Bone35" 2
  42 "Bone36" 41
  43 "Bone37" 42
  44 "Bone31" 2
  45 "Bone32" 44
  46 "Bone33" 45
  47 "Bone43" 2
  48 "Bone44" 47
  49 "Bone45" 48
  50 "Bone27" 2
  51 "Bone28" 50
  52 "Bone29" 51
  53 "Bone_Se_Hand-R" 2
  54 "Bone_R_Upper" 1
end
skeleton
  time 0
    0 0.000201 1.628956 0.541027 0.000000 0.000000 0.000000
    1 0.115431 -2.500916 -5.538912 0.044745 2.862630 0.151334
    2 0.096946 -8.450417 -0.009364 0.092655 -0.025528 0.151275
    3 -2.955449 -2.412914 0.841363 3.098278 0.057471 -1.531951
    4 0.000000 0.000000 0.000000 0.000000 0.000000 0.000000
    5 2.268322 4.124472 -0.062954 0.000001 0.000000 1.353835
    6 3.295875 -0.000002 0.000000 0.000000 0.000000 0.751368
    7 4.887199 7.610152 -0.062954 3.141592 0.000000 -0.470059
    8 -8.677812 -0.055529 -0.003085 -3.141592 0.000000 -0.557319
    9 2.244080 -6.395751 -0.062954 0.000000 0.000000 -1.352526
    10 3.333881 0.000002 0.000000 0.000000 0.000000 -0.747276
    11 4.887201 -9.910490 -0.062952 0.000000 0.000000 -2.671532
    12 8.666410 0.037216 0.003086 0.000000 0.000000 2.584272
    13 -15.726743 0.000530 0.000723 0.000000 0.000000 0.000000
    14 18.423281 0.000008 -0.000001 0.000000 0.000000 0.000000
    15 0.863905 0.359274 0.381193 0.822813 0.000000 -3.141592
    16 0.863905 0.348448 -0.360363 -0.788634 -3.141592 0.000001
    17 1.069544 -0.585928 0.017010 -1.570796 -0.000002 -3.141592
    18 -15.209689 0.052788 -0.063186 0.000000 -3.141592 0.000000
    19 11.814086 9.017229 -14.503330 4.346517 -0.846474 1.191981
    20 1.257180 8.762585 -0.153713 -1.570562 0.002683 -1.566807
    21 -0.071921 -8.498736 -0.104134 0.462579 0.407593 -0.216357
    22 -0.488518 -2.755602 -0.228260 -0.994044 -0.049100 -0.303116
    23 0.039887 -1.479790 0.029854 -1.787404 0.000000 0.000001
    24 0.028786 -1.075731 -0.023109 -1.477381 0.000000 0.000000
    25 0.250027 -2.820665 -0.238396 -0.630435 -0.172479 -0.156417
    26 -0.049759 -1.680544 0.100479 -1.899210 0.000000 -0.000002
    27 -0.034142 -1.148312 0.084782 -1.711774 0.000000 0.000000
    28 0.957766 -2.746780 -0.090302 -0.319622 -0.278599 -0.051549
    29 -0.033420 -1.397129 -0.011257 -1.363671 0.000000 -0.000001
    30 -0.022360 -0.957436 0.018784 -1.378387 0.000000 0.000000
    31 -1.180681 -2.507217 -0.193859 -0.904725 0.015547 -0.451705
    32 -0.024967 -1.123934 0.017597 -1.855824 0.000000 0.000001
    33 -0.020057 -0.890968 0.010090 -1.671895 0.000000 0.000000
    34 0.583510 -1.197277 0.185379 0.048210 -0.366994 -0.814622
    35 1.535927 0.010246 0.005009 -0.002964 -0.012979 -0.998522
    36 1.100771 0.004527 -0.010679 -0.002520 0.016009 0.021008
    37 0.120153 -0.050270 -0.054489 0.307128 3.311263 1.416131
    38 0.447953 -2.798986 -0.200443 -0.653159 0.087866 0.178829
    39 -0.032909 -1.480204 0.004940 -1.833494 0.000000 0.000002
    40 -0.027022 -1.076920 -0.020210 -0.930273 0.000000 0.000000
    41 -0.249534 -2.846964 -0.174213 -0.609311 0.058647 0.154463
    42 0.043235 -1.683941 0.096012 -1.902768 0.002823 -0.000167
    43 0.031729 -1.160830 0.058838 -1.001327 0.000642 0.008372
    44 -0.963866 -2.785145 -0.085350 -0.589404 0.158501 0.157028
    45 0.028479 -1.403067 0.006271 -1.731640 0.000000 0.000000
    46 0.021413 -0.957781 0.020046 -0.780749 0.000000 0.000000
    47 1.164475 -2.543940 -0.170330 -0.674602 -0.089480 0.155889
    48 0.024032 -1.129042 0.017807 -1.450287 0.000000 0.000001
    49 0.014898 -0.883989 -0.019848 -1.242513 0.000000 0.000000
    50 -0.586770 -1.264477 0.200161 0.400179 -0.823031 -2.840439
    51 1.522835 0.058681 0.016848 0.001410 0.008985 1.232395
    52 1.117947 0.048424 -0.005766 -0.021300 -0.013465 1.063049
    53 -0.139399 -0.111698 0.014397 0.283596 0.044588 1.324529
    54 -1.393470 8.839177 -0.239433 1.580804 -0.005023 -1.566847
  time 1
    0 0.000201 1.628956 0.541027 0.000000 0.000000 0.000000
    1 0.115431 -0.657110 -5.628758 0.044029 2.924884 0.148478
    2 0.096946 -8.450417 -0.009364 0.093156 0.061732 0.150256
    3 -2.955449 -2.412914 0.841363 3.098278 0.057471 -1.531951
    4 0.000000 0.000000 0.000000 0.000000 0.000000 0.000000
    5 2.268322 4.124472 -0.062954 0.000001 0.000000 1.310211
    6 3.295875 -0.000002 0.000000 0.000000 0.000000 1.013164
    7 4.887199 7.610152 -0.062954 3.141592 0.000000 -0.339163
    8 -8.677812 -0.055529 -0.003085 -3.141592 0.000000 0.489847
    9 2.244080 -6.395751 -0.062954 0.000000 0.000000 -1.308902
    10 3.333881 0.000002 0.000000 0.000000 0.000000 -1.009063
    11 4.887201 -9.910490 -0.062952 0.000000 0.000000 -2.802427
    12 8.666410 0.037216 0.003086 0.000000 0.000000 3.631437
    13 -15.726743 0.000530 0.000723 0.000000 0.000000 0.000000
    14 18.423281 0.000008 -0.000001 0.000000 0.000000 0.000000
    15 0.863905 0.359274 0.381193 1.196741 -0.373929 -3.926991
    16 0.863905 0.348448 -0.360363 -0.797287 -3.233310 -0.093910
    17 1.069544 -0.585928 0.017010 -1.570796 -0.000002 -2.748905
    18 -15.209689 0.052788 -0.063186 0.000000 -3.141592 0.000000
    19 10.345291 10.751657 -16.237758 4.535836 -0.773697 1.052342
    20 1.257180 8.762585 -0.153713 -1.570562 0.002683 -1.566807
    21 -0.071921 -8.498736 -0.104134 0.462579 0.407593 -0.216357
    22 -0.488518 -2.755602 -0.228260 -0.994044 -0.049100 -0.303116
    23 0.039887 -1.479790 0.029854 -1.787404 0.000000 0.000001
    24 0.028786 -1.075731 -0.023109 -1.477381 0.000000 0.000000
    25 0.250027 -2.820665 -0.238396 -0.630435 -0.172479 -0.156417
    26 -0.049759 -1.680544 0.100479 -1.899210 0.000000 -0.000002
    27 -0.034142 -1.148312 0.084782 -1.711774 0.000000 0.000000
    28 0.957766 -2.746780 -0.090302 -0.319622 -0.278599 -0.051549
    29 -0.033420 -1.397129 -0.011257 -1.363671 0.000000 -0.000001
    30 -0.022360 -0.957436 0.018784 -1.378387 0.000000 0.000000
    31 -1.180681 -2.507217 -0.193859 -0.904725 0.015547 -0.451705
    32 -0.024967 -1.123934 0.017597 -1.855824 0.000000 0.000001
    33 -0.020057 -0.890968 0.010090 -1.671895 0.000000 0.000000
    34 0.583510 -1.197277 0.185379 0.048210 -0.366994 -0.814622
    35 1.535927 0.010246 0.005009 -0.002964 -0.012979 -0.998522
    36 1.100771 0.004527 -0.010679 -0.002520 0.016009 0.021008
    37 0.120153 -0.050270 -0.054489 0.307128 3.311263 1.416131
    38 0.447953 -2.798986 -0.200443 -0.653159 0.087866 0.178829
    39 -0.032909 -1.480204 0.004940 -1.833494 0.000000 0.000002
    40 -0.027022 -1.076920 -0.020210 -0.930273 0.000000 0.000000
    41 -0.249534 -2.846964 -0.174213 -0.609311 0.058647 0.154463
    42 0.043235 -1.683941 0.096012 -1.902768 0.002823 -0.000167
    43 0.031729 -1.160830 0.058838 -1.001327 0.000642 0.008372
    44 -0.963866 -2.785145 -0.085350 -0.589404 0.158501 0.157028
    45 0.028479 -1.403067 0.006271 -1.731640 0.000000 0.000000
    46 0.021413 -0.957781 0.020046 -0.780749 0.000000 0.000000
    47 1.164475 -2.543940 -0.170330 -0.674602 -0.089480 0.155889
    48 0.024032 -1.129042 0.017807 -1.450287 0.000000 0.000001
    49 0.014898 -0.883989 -0.019848 -1.242513 0.000000 0.000000
    50 -0.586770 -1.264477 0.200161 0.400179 -0.823031 -2.840439
    51 1.522835 0.058681 0.016848 0.001410 0.008985 1.232395
    52 1.117947 0.048424 -0.005766 -0.021300 -0.013465 1.063049
    53 -0.139399 -0.111698 0.014397 0.283596 0.044588 1.324529
    54 -1.393470 8.839177 -0.239433 1.580804 -0.005023 -1.566847
  time 2
    0 0.000201 1.628956 0.541027 0.000000 0.000000 0.000000
    1 0.115431 -0.496949 -5.691260 0.011486 2.877284 0.151528
    2 0.096946 -8.450417 -0.009364 0.093048 0.036732 0.149093
    3 -2.955449 -2.412914 0.841363 3.098278 0.057471 -1.531951
    4 0.000000 0.000000 0.000000 0.000000 0.000000 0.000000
    5 2.268322 4.124472 -0.062954 0.000001 0.000000 1.266575
    6 3.295875 -0.000002 0.000000 0.000000 0.000000 1.274961
    7 4.887199 7.610152 -0.062954 3.141592 0.000000 -0.208256
    8 -8.677812 -0.055529 -0.003085 -3.141592 0.000000 0.489847
    9 2.244080 -6.395751 -0.062954 0.000000 0.000000 -1.265266
    10 3.333881 0.000002 0.000000 0.000000 0.000000 -1.270877
    11 4.887201 -9.910490 -0.062952 0.000000 0.000000 -2.933335
    12 8.666410 0.037216 0.003086 0.000000 0.000000 3.631437
    13 -15.726743 0.000530 0.000723 0.000000 0.000000 0.000000
    14 18.423281 0.000008 -0.000001 0.000000 0.000000 0.000000
    15 0.863905 0.359274 0.381193 -1.570723 -2.393610 -1.570843
    16 0.863905 0.348448 -0.360363 -0.805952 -3.325028 -0.187833
    17 1.069544 -0.585928 0.017010 -1.570796 -0.000002 -2.356193
    18 -15.209689 0.052788 -0.063186 0.000000 -3.141592 0.000000
    19 10.884370 11.415740 -15.175226 4.476026 -0.839089 1.107262
    20 1.257180 8.762585 -0.153713 -1.570562 0.002683 -1.566807
    21 -0.071921 -8.498736 -0.104134 0.462579 0.407593 -0.216357
    22 -0.488518 -2.755602 -0.228260 -0.994044 -0.049100 -0.303116
    23 0.039887 -1.479790 0.029854 -1.787404 0.000000 0.000001
    24 0.028786 -1.075731 -0.023109 -1.477381 0.000000 0.000000
    25 0.250027 -2.820665 -0.238396 -0.630435 -0.172479 -0.156417
    26 -0.049759 -1.680544 0.100479 -1.899210 0.000000 -0.000002
    27 -0.034142 -1.148312 0.084782 -1.711774 0.000000 0.000000
    28 0.957766 -2.746780 -0.090302 -0.319622 -0.278599 -0.051549
    29 -0.033420 -1.397129 -0.011257 -1.363671 0.000000 -0.000001
    30 -0.022360 -0.957436 0.018784 -1.378387 0.000000 0.000000
    31 -1.180681 -2.507217 -0.193859 -0.904725 0.015547 -0.451705
    32 -0.024967 -1.123934 0.017597 -1.855824 0.000000 0.000001
    33 -0.020057 -0.890968 0.010090 -1.671895 0.000000 0.000000
    34 0.583510 -1.197277 0.185379 0.048210 -0.366994 -0.814622
    35 1.535927 0.010246 0.005009 -0.002964 -0.012979 -0.998522
    36 1.100771 0.004527 -0.010679 -0.002520 0.016009 0.021008
    37 0.120153 -0.050270 -0.054489 0.307128 3.311263 1.416131
    38 0.447953 -2.798986 -0.200443 -0.653159 0.087866 0.178829
    39 -0.032909 -1.480204 0.004940 -1.833494 0.000000 0.000002
    40 -0.027022 -1.076920 -0.020210 -0.930273 0.000000 0.000000
    41 -0.249534 -2.846964 -0.174213 -0.609311 0.058647 0.154463
    42 0.043235 -1.683941 0.096012 -1.902768 0.002823 -0.000167
    43 0.031729 -1.160830 0.058838 -1.001327 0.000642 0.008372
    44 -0.963866 -2.785145 -0.085350 -0.589404 0.158501 0.157028
    45 0.028479 -1.403067 0.006271 -1.731640 0.000000 0.000000
    46 0.021413 -0.957781 0.020046 -0.780749 0.000000 0.000000
    47 1.164475 -2.543940 -0.170330 -0.674602 -0.089480 0.155889
    48 0.024032 -1.129042 0.017807 -1.450287 0.000000 0.000001
    49 0.014898 -0.883989 -0.019848 -1.242513 0.000000 0.000000
    50 -0.586770 -1.264477 0.200161 0.400179 -0.823031 -2.840439
    51 1.522835 0.058681 0.016848 0.001410 0.008985 1.232395
    52 1.117947 0.048424 -0.005766 -0.021300 -0.013465 1.063049
    53 -0.139399 -0.111698 0.014397 0.283596 0.044588 1.324529
    54 -1.393470 8.839177 -0.239433 1.580804 -0.005023 -1.566847
  time 3
    0 0.000201 1.628956 0.541027 0.000000 0.000000 0.000000
    1 0.115431 -0.762582 -5.726417 -0.011821 2.826764 0.153027
    2 0.096946 -8.450417 -0.009364 0.092899 -0.008270 0.147943
    3 -2.955449 -2.412914 0.841363 3.098278 0.057471 -1.531951
    4 0.000000 0.000000 0.000000 0.000000 0.000000 0.000000
    5 2.268322 4.124472 -0.062954 0.000001 0.000000 1.266575
    6 3.295875 -0.000002 0.000000 0.000000 0.000000 1.274961
    7 4.887199 7.610152 -0.062954 3.141592 0.000000 -0.208256
    8 -8.677812 -0.055529 -0.003085 -3.141592 0.000000 0.489847
    9 2.244080 -6.395751 -0.062954 0.000000 0.000000 -1.265266
    10 3.333881 0.000002 0.000000 0.000000 0.000000 -1.270877
    11 4.887201 -9.910490 -0.062952 0.000000 0.000000 -2.933335
    12 8.666410 0.037216 0.003086 0.000000 0.000000 3.631437
    13 -15.726743 0.000530 0.000723 0.000000 0.000000 0.000000
    14 18.423281 0.000008 -0.000001 0.000000 0.000000 0.000000
    15 0.863905 0.359274 0.381193 1.490099 -0.744424 -4.593602
    16 0.863905 0.348448 -0.360363 -0.796280 -3.264278 -0.124435
    17 1.069544 -0.585928 0.017010 -1.570796 -0.000002 -2.443465
    18 -15.209689 0.052788 -0.063186 0.000000 -3.141592 0.000000
    19 11.607049 11.497774 -13.878311 4.364869 -0.903789 1.199813
    20 1.257180 8.762585 -0.153713 -1.570562 0.002683 -1.566807
    21 -0.071921 -8.498736 -0.104134 0.462579 0.407593 -0.216357
    22 -0.488518 -2.755602 -0.228260 -0.994044 -0.049100 -0.303116
    23 0.039887 -1.479790 0.029854 -1.787404 0.000000 0.000001
    24 0.028786 -1.075731 -0.023109 -1.477381 0.000000 0.000000
    25 0.250027 -2.820665 -0.238396 -0.630435 -0.172479 -0.156417
    26 -0.049759 -1.680544 0.100479 -1.899210 0.000000 -0.000002
    27 -0.034142 -1.148312 0.084782 -1.711774 0.000000 0.000000
    28 0.957766 -2.746780 -0.090302 -0.319622 -0.278599 -0.051549
    29 -0.033420 -1.397129 -0.011257 -1.363671 0.000000 -0.000001
    30 -0.022360 -0.957436 0.018784 -1.378387 0.000000 0.000000
    31 -1.180681 -2.507217 -0.193859 -0.904725 0.015547 -0.451705
    32 -0.024967 -1.123934 0.017597 -1.855824 0.000000 0.000001
    33 -0.020057 -0.890968 0.010090 -1.671895 0.000000 0.000000
    34 0.583510 -1.197277 0.185379 0.048210 -0.366994 -0.814622
    35 1.535927 0.010246 0.005009 -0.002964 -0.012979 -0.998522
    36 1.100771 0.004527 -0.010679 -0.002520 0.016009 0.021008
    37 0.120153 -0.050270 -0.054489 0.307128 3.311263 1.416131
    38 0.447953 -2.798986 -0.200443 -0.653159 0.087866 0.178829
    39 -0.032909 -1.480204 0.004940 -1.833494 0.000000 0.000002
    40 -0.027022 -1.076920 -0.020210 -0.930273 0.000000 0.000000
    41 -0.249534 -2.846964 -0.174213 -0.609311 0.058647 0.154463
    42 0.043235 -1.683941 0.096012 -1.902768 0.002823 -0.000167
    43 0.031729 -1.160830 0.058838 -1.001327 0.000642 0.008372
    44 -0.963866 -2.785145 -0.085350 -0.589404 0.158501 0.157028
    45 0.028479 -1.403067 0.006271 -1.731640 0.000000 0.000000
    46 0.021413 -0.957781 0.020046 -0.780749 0.000000 0.000000
    47 1.164475 -2.543940 -0.170330 -0.674602 -0.089480 0.155889
    48 0.024032 -1.129042 0.017807 -1.450287 0.000000 0.000001
    49 0.014898 -0.883989 -0.019848 -1.242513 0.000000 0.000000
    50 -0.586770 -1.264477 0.200161 0.400179 -0.823031 -2.840439
    51 1.522835 0.058681 0.016848 0.001410 0.008985 1.232395
    52 1.117947 0.048424 -0.005766 -0.021300 -0.013465 1.063049
    53 -0.139399 -0.111698 0.014397 0.283596 0.044588 1.324529
    54 -1.393470 8.839177 -0.239433 1.580804 -0.005023 -1.566847
  time 4
    0 0.000201 1.628956 0.541027 0.000000 0.000000 0.000000
    1 0.115431 -1.121968 -5.726417 0.013072 2.832810 0.152851
    2 0.096946 -8.450417 -0.009364 0.092804 -0.036697 0.147475
    3 -2.955449 -2.412914 0.841363 3.098278 0.057471 -1.531951
    4 0.000000 0.000000 0.000000 0.000000 0.000000 0.000000
    5 2.268322 4.124472 -0.062954 0.000001 0.000000 1.266575
    6 3.295875 -0.000002 0.000000 0.000000 0.000000 1.274961
    7 4.887199 7.610152 -0.062954 3.141592 0.000000 -0.208256
    8 -8.677812 -0.055529 -0.003085 -3.141592 0.000000 0.489847
    9 2.244080 -6.395751 -0.062954 0.000000 0.000000 -1.265266
    10 3.333881 0.000002 0.000000 0.000000 0.000000 -1.270877
    11 4.887201 -9.910490 -0.062952 0.000000 0.000000 -2.933335
    12 8.666410 0.037216 0.003086 0.000000 0.000000 3.631437
    13 -15.726743 0.000530 0.000723 0.000000 0.000000 0.000000
    14 18.423281 0.000008 -0.000001 0.000000 0.000000 0.000000
    15 0.863905 0.359274 0.381193 1.530421 -0.746177 -4.652995
    16 0.863905 0.348448 -0.360363 -0.801122 -3.294659 -0.156134
    17 1.069544 -0.585928 0.017010 -1.570796 -0.000002 -2.399841
    18 -15.209689 0.052788 -0.063186 0.000000 -3.141592 0.000000
    19 11.931277 10.841504 -13.893937 4.312286 -0.890249 1.232288
    20 1.257180 8.762585 -0.153713 -1.570562 0.002683 -1.566807
    21 -0.071921 -8.498736 -0.104134 0.462579 0.407593 -0.216357
    22 -0.488518 -2.755602 -0.228260 -0.994044 -0.049100 -0.303116
    23 0.039887 -1.479790 0.029854 -1.787404 0.000000 0.000001
    24 0.028786 -1.075731 -0.023109 -1.477381 0.000000 0.000000
    25 0.250027 -2.820665 -0.238396 -0.630435 -0.172479 -0.156417
    26 -0.049759 -1.680544 0.100479 -1.899210 0.000000 -0.000002
    27 -0.034142 -1.148312 0.084782 -1.711774 0.000000 0.000000
    28 0.957766 -2.746780 -0.090302 -0.319622 -0.278599 -0.051549
    29 -0.033420 -1.397129 -0.011257 -1.363671 0.000000 -0.000001
    30 -0.022360 -0.957436 0.018784 -1.378387 0.000000 0.000000
    31 -1.180681 -2.507217 -0.193859 -0.904725 0.015547 -0.451705
    32 -0.024967 -1.123934 0.017597 -1.855824 0.000000 0.000001
    33 -0.020057 -0.890968 0.010090 -1.671895 0.000000 0.000000
    34 0.583510 -1.197277 0.185379 0.048210 -0.366994 -0.814622
    35 1.535927 0.010246 0.005009 -0.002964 -0.012979 -0.998522
    36 1.100771 0.004527 -0.010679 -0.002520 0.016009 0.021008
    37 0.120153 -0.050270 -0.054489 0.307128 3.311263 1.416131
    38 0.447953 -2.798986 -0.200443 -0.653159 0.087866 0.178829
    39 -0.032909 -1.480204 0.004940 -1.833494 0.000000 0.000002
    40 -0.027022 -1.076920 -0.020210 -0.930273 0.000000 0.000000
    41 -0.249534 -2.846964 -0.174213 -0.609311 0.058647 0.154463
    42 0.043235 -1.683941 0.096012 -1.902768 0.002823 -0.000167
    43 0.031729 -1.160830 0.058838 -1.001327 0.000642 0.008372
    44 -0.963866 -2.785145 -0.085350 -0.589404 0.158501 0.157028
    45 0.028479 -1.403067 0.006271 -1.731640 0.000000 0.000000
    46 0.021413 -0.957781 0.020046 -0.780749 0.000000 0.000000
    47 1.164475 -2.543940 -0.170330 -0.674602 -0.089480 0.155889
    48 0.024032 -1.129042 0.017807 -1.450287 0.000000 0.000001
    49 0.014898 -0.883989 -0.019848 -1.242513 0.000000 0.000000
    50 -0.586770 -1.264477 0.200161 0.400179 -0.823031 -2.840439
    51 1.522835 0.058681 0.016848 0.001410 0.008985 1.232395
    52 1.117947 0.048424 -0.005766 -0.021300 -0.013465 1.063049
    53 -0.139399 -0.111698 0.014397 0.283596 0.044588 1.324529
    54 -1.393470 8.839177 -0.239433 1.580804 -0.005023 -1.566847
  time 5
    0 0.000201 1.628956 0.541027 0.000000 0.000000 0.000000
    1 0.115431 -1.575107 -5.710792 0.044848 2.854176 0.151740
    2 0.096946 -8.450417 -0.009364 0.092777 -0.042438 0.147655
    3 -2.955449 -2.412914 0.841363 3.098278 0.057471 -1.531951
    4 0.000000 0.000000 0.000000 0.000000 0.000000 0.000000
    5 2.268322 4.124472 -0.062954 0.000001 0.000000 1.266575
    6 3.295875 -0.000002 0.000000 0.000000 0.000000 1.274961
    7 4.887199 7.610152 -0.062954 3.141592 0.000000 -0.208256
    8 -8.677812 -0.055529 -0.003085 -3.141592 0.000000 0.489847
    9 2.244080 -6.395751 -0.062954 0.000000 0.000000 -1.265266
    10 3.333881 0.000002 0.000000 0.000000 0.000000 -1.270877
    11 4.887201 -9.910490 -0.062952 0.000000 0.000000 -2.933335
    12 8.666410 0.037216 0.003086 0.000000 0.000000 3.631437
    13 -15.726743 0.000530 0.000723 0.000000 0.000000 0.000000
    14 18.423281 0.000008 -0.000001 0.000000 0.000000 0.000000
    15 0.863905 0.359274 0.381193 -1.570723 -2.393610 -1.570843
    16 0.863905 0.348448 -0.360363 -0.805952 -3.325028 -0.187833
    17 1.069544 -0.585928 0.017010 -1.570796 -0.000002 -2.356193
    18 -15.209689 0.052788 -0.063186 0.000000 -3.141592 0.000000
    19 11.970341 9.986009 -14.405671 4.310669 -0.855398 1.222832
    20 1.257180 8.762585 -0.153713 -1.570562 0.002683 -1.566807
    21 -0.071921 -8.498736 -0.104134 0.462579 0.407593 -0.216357
    22 -0.488518 -2.755602 -0.228260 -0.994044 -0.049100 -0.303116
    23 0.039887 -1.479790 0.029854 -1.787404 0.000000 0.000001
    24 0.028786 -1.075731 -0.023109 -1.477381 0.000000 0.000000
    25 0.250027 -2.820665 -0.238396 -0.630435 -0.172479 -0.156417
    26 -0.049759 -1.680544 0.100479 -1.899210 0.000000 -0.000002
    27 -0.034142 -1.148312 0.084782 -1.711774 0.000000 0.000000
    28 0.957766 -2.746780 -0.090302 -0.319622 -0.278599 -0.051549
    29 -0.033420 -1.397129 -0.011257 -1.363671 0.000000 -0.000001
    30 -0.022360 -0.957436 0.018784 -1.378387 0.000000 0.000000
    31 -1.180681 -2.507217 -0.193859 -0.904725 0.015547 -0.451705
    32 -0.024967 -1.123934 0.017597 -1.855824 0.000000 0.000001
    33 -0.020057 -0.890968 0.010090 -1.671895 0.000000 0.000000
    34 0.583510 -1.197277 0.185379 0.048210 -0.366994 -0.814622
    35 1.535927 0.010246 0.005009 -0.002964 -0.012979 -0.998522
    36 1.100771 0.004527 -0.010679 -0.002520 0.016009 0.021008
    37 0.120153 -0.050270 -0.054489 0.307128 3.311263 1.416131
    38 0.447953 -2.798986 -0.200443 -0.653159 0.087866 0.178829
    39 -0.032909 -1.480204 0.004940 -1.833494 0.000000 0.000002
    40 -0.027022 -1.076920 -0.020210 -0.930273 0.000000 0.000000
    41 -0.249534 -2.846964 -0.174213 -0.609311 0.058647 0.154463
    42 0.043235 -1.683941 0.096012 -1.902768 0.002823 -0.000167
    43 0.031729 -1.160830 0.058838 -1.001327 0.000642 0.008372
    44 -0.963866 -2.785145 -0.085350 -0.589404 0.158501 0.157028
    45 0.028479 -1.403067 0.006271 -1.731640 0.000000 0.000000
    46 0.021413 -0.957781 0.020046 -0.780749 0.000000 0.000000
    47 1.164475 -2.543940 -0.170330 -0.674602 -0.089480 0.155889
    48 0.024032 -1.129042 0.017807 -1.450287 0.000000 0.000001
    49 0.014898 -0.883989 -0.019848 -1.242513 0.000000 0.000000
    50 -0.586770 -1.264477 0.200161 0.400179 -0.823031 -2.840439
    51 1.522835 0.058681 0.016848 0.001410 0.008985 1.232395
    52 1.117947 0.048424 -0.005766 -0.021300 -0.013465 1.063049
    53 -0.139399 -0.111698 0.014397 0.283596 0.044588 1.324529
    54 -1.393470 8.839177 -0.239433 1.580804 -0.005023 -1.566847
  time 6
    0 0.000201 1.628956 0.541027 0.000000 0.000000 0.000000
    1 0.115431 -2.004808 -5.687354 0.048173 2.870213 0.150911
    2 0.096946 -8.450417 -0.009364 0.092750 -0.044403 0.147991
    3 -2.955449 -2.412914 0.841363 3.098278 0.057471 -1.531951
    4 0.000000 0.000000 0.000000 0.000000 0.000000 0.000000
    5 2.268322 4.124472 -0.062954 0.000001 0.000000 1.266575
    6 3.295875 -0.000002 0.000000 0.000000 0.000000 1.274961
    7 4.887199 7.610152 -0.062954 3.141592 0.000000 -0.208256
    8 -8.677812 -0.055529 -0.003085 -3.141592 0.000000 0.489847
    9 2.244080 -6.395751 -0.062954 0.000000 0.000000 -1.265266
    10 3.333881 0.000002 0.000000 0.000000 0.000000 -1.270877
    11 4.887201 -9.910490 -0.062952 0.000000 0.000000 -2.933335
    12 8.666410 0.037216 0.003086 0.000000 0.000000 3.631437
    13 -15.726743 0.000530 0.000723 0.000000 0.000000 0.000000
    14 18.423281 0.000008 -0.000001 0.000000 0.000000 0.000000
    15 0.863905 0.359274 0.381193 1.490099 -0.744424 -4.593602
    16 0.863905 0.348448 -0.360363 -0.796280 -3.264278 -0.124435
    17 1.069544 -0.585928 0.017010 -1.570796 -0.000002 -2.443465
    18 -15.209689 0.052788 -0.063186 0.000000 -3.141592 0.000000
    19 11.876588 9.482087 -14.604896 4.326929 -0.845628 1.208600
    20 1.257180 8.762585 -0.153713 -1.570562 0.002683 -1.566807
    21 -0.071921 -8.498736 -0.104134 0.462579 0.407593 -0.216357
    22 -0.488518 -2.755602 -0.228260 -0.994044 -0.049100 -0.303116
    23 0.039887 -1.479790 0.029854 -1.787404 0.000000 0.000001
    24 0.028786 -1.075731 -0.023109 -1.477381 0.000000 0.000000
    25 0.250027 -2.820665 -0.238396 -0.630435 -0.172479 -0.156417
    26 -0.049759 -1.680544 0.100479 -1.899210 0.000000 -0.000002
    27 -0.034142 -1.148312 0.084782 -1.711774 0.000000 0.000000
    28 0.957766 -2.746780 -0.090302 -0.319622 -0.278599 -0.051549
    29 -0.033420 -1.397129 -0.011257 -1.363671 0.000000 -0.000001
    30 -0.022360 -0.957436 0.018784 -1.378387 0.000000 0.000000
    31 -1.180681 -2.507217 -0.193859 -0.904725 0.015547 -0.451705
    32 -0.024967 -1.123934 0.017597 -1.855824 0.000000 0.000001
    33 -0.020057 -0.890968 0.010090 -1.671895 0.000000 0.000000
    34 0.583510 -1.197277 0.185379 0.048210 -0.366994 -0.814622
    35 1.535927 0.010246 0.005009 -0.002964 -0.012979 -0.998522
    36 1.100771 0.004527 -0.010679 -0.002520 0.016009 0.021008
    37 0.120153 -0.050270 -0.054489 0.307128 3.311263 1.416131
    38 0.447953 -2.798986 -0.200443 -0.653159 0.087866 0.178829
    39 -0.032909 -1.480204 0.004940 -1.833494 0.000000 0.000002
    40 -0.027022 -1.076920 -0.020210 -0.930273 0.000000 0.000000
    41 -0.249534 -2.846964 -0.174213 -0.609311 0.058647 0.154463
    42 0.043235 -1.683941 0.096012 -1.902768 0.002823 -0.000167
    43 0.031729 -1.160830 0.058838 -1.001327 0.000642 0.008372
    44 -0.963866 -2.785145 -0.085350 -0.589404 0.158501 0.157028
    45 0.028479 -1.403067 0.006271 -1.731640 0.000000 0.000000
    46 0.021413 -0.957781 0.020046 -0.780749 0.000000 0.000000
    47 1.164475 -2.543940 -0.170330 -0.674602 -0.089480 0.155889
    48 0.024032 -1.129042 0.017807 -1.450287 0.000000 0.000001
    49 0.014898 -0.883989 -0.019848 -1.242513 0.000000 0.000000
    50 -0.586770 -1.264477 0.200161 0.400179 -0.823031 -2.840439
    51 1.522835 0.058681 0.016848 0.001410 0.008985 1.232395
    52 1.117947 0.048424 -0.005766 -0.021300 -0.013465 1.063049
    53 -0.139399 -0.111698 0.014397 0.283596 0.044588 1.324529
    54 -1.393470 8.839177 -0.239433 1.580804 -0.005023 -1.566847
  time 7
    0 0.000201 1.628956 0.541027 0.000000 0.000000 0.000000
    1 0.115431 -2.301692 -5.667822 0.044541 2.878872 0.150594
    2 0.096946 -8.450417 -0.009364 0.092723 -0.043445 0.148458
    3 -2.955449 -2.412914 0.841363 3.098278 0.057471 -1.531951
    4 0.000000 0.000000 0.000000 0.000000 0.000000 0.000000
    5 2.268322 4.124472 -0.062954 0.000001 0.000000 1.266575
    6 3.295875 -0.000002 0.000000 0.000000 0.000000 1.274961
    7 4.887199 7.610152 -0.062954 3.141592 0.000000 -0.208256
    8 -8.677812 -0.055529 -0.003085 -3.141592 0.000000 0.489847
    9 2.244080 -6.395751 -0.062954 0.000000 0.000000 -1.265266
    10 3.333881 0.000002 0.000000 0.000000 0.000000 -1.270877
    11 4.887201 -9.910490 -0.062952 0.000000 0.000000 -2.933335
    12 8.666410 0.037216 0.003086 0.000000 0.000000 3.631437
    13 -15.726743 0.000530 0.000723 0.000000 0.000000 0.000000
    14 18.423281 0.000008 -0.000001 0.000000 0.000000 0.000000
    15 0.863905 0.359274 0.381193 -1.570723 -2.393610 -1.570843
    16 0.863905 0.348448 -0.360363 -0.805952 -3.325028 -0.187833
    17 1.069544 -0.585928 0.017010 -1.570796 -0.000002 -2.356193
    18 -15.209689 0.052788 -0.063186 0.000000 -3.141592 0.000000
    19 11.786741 9.208641 -14.671304 4.342333 -0.844166 1.197234
    20 1.257180 8.762585 -0.153713 -1.570562 0.002683 -1.566807
    21 -0.071921 -8.498736 -0.104134 0.462579 0.407593 -0.216357
    22 -0.488518 -2.755602 -0.228260 -0.994044 -0.049100 -0.303116
    23 0.039887 -1.479790 0.029854 -1.787404 0.000000 0.000001
    24 0.028786 -1.075731 -0.023109 -1.477381 0.000000 0.000000
    25 0.250027 -2.820665 -0.238396 -0.630435 -0.172479 -0.156417
    26 -0.049759 -1.680544 0.100479 -1.899210 0.000000 -0.000002
    27 -0.034142 -1.148312 0.084782 -1.711774 0.000000 0.000000
    28 0.957766 -2.746780 -0.090302 -0.319622 -0.278599 -0.051549
    29 -0.033420 -1.397129 -0.011257 -1.363671 0.000000 -0.000001
    30 -0.022360 -0.957436 0.018784 -1.378387 0.000000 0.000000
    31 -1.180681 -2.507217 -0.193859 -0.904725 0.015547 -0.451705
    32 -0.024967 -1.123934 0.017597 -1.855824 0.000000 0.000001
    33 -0.020057 -0.890968 0.010090 -1.671895 0.000000 0.000000
    34 0.583510 -1.197277 0.185379 0.048210 -0.366994 -0.814622
    35 1.535927 0.010246 0.005009 -0.002964 -0.012979 -0.998522
    36 1.100771 0.004527 -0.010679 -0.002520 0.016009 0.021008
    37 0.120153 -0.050270 -0.054489 0.307128 3.311263 1.416131
    38 0.447953 -2.798986 -0.200443 -0.653159 0.087866 0.178829
    39 -0.032909 -1.480204 0.004940 -1.833494 0.000000 0.000002
    40 -0.027022 -1.076920 -0.020210 -0.930273 0.000000 0.000000
    41 -0.249534 -2.846964 -0.174213 -0.609311 0.058647 0.154463
    42 0.043235 -1.683941 0.096012 -1.902768 0.002823 -0.000167
    43 0.031729 -1.160830 0.058838 -1.001327 0.000642 0.008372
    44 -0.963866 -2.785145 -0.085350 -0.589404 0.158501 0.157028
    45 0.028479 -1.403067 0.006271 -1.731640 0.000000 0.000000
    46 0.021413 -0.957781 0.020046 -0.780749 0.000000 0.000000
    47 1.164475 -2.543940 -0.170330 -0.674602 -0.089480 0.155889
    48 0.024032 -1.129042 0.017807 -1.450287 0.000000 0.000001
    49 0.014898 -0.883989 -0.019848 -1.242513 0.000000 0.000000
    50 -0.586770 -1.264477 0.200161 0.400179 -0.823031 -2.840439
    51 1.522835 0.058681 0.016848 0.001410 0.008985 1.232395
    52 1.117947 0.048424 -0.005766 -0.021300 -0.013465 1.063049
    53 -0.139399 -0.111698 0.014397 0.283596 0.044588 1.324529
    54 -1.393470 8.839177 -0.239433 1.580804 -0.005023 -1.566847
  time 8
    0 0.000201 1.628956 0.541027 0.000000 0.000000 0.000000
    1 0.115431 -2.454040 -5.644384 0.044720 2.863399 0.151299
    2 0.096946 -8.450417 -0.009364 0.092696 -0.040437 0.148997
    3 -2.955449 -2.412914 0.841363 3.098278 0.057471 -1.531951
    4 0.000000 0.000000 0.000000 0.000000 0.000000 0.000000
    5 2.268322 4.124472 -0.062954 0.000001 0.000000 1.266575
    6 3.295875 -0.000002 0.000000 0.000000 0.000000 1.274961
    7 4.887199 7.610152 -0.062954 3.141592 0.000000 -0.208256
    8 -8.677812 -0.055529 -0.003085 -3.141592 0.000000 0.489847
    9 2.244080 -6.395751 -0.062954 0.000000 0.000000 -1.265266
    10 3.333881 0.000002 0.000000 0.000000 0.000000 -1.270877
    11 4.887201 -9.910490 -0.062952 0.000000 0.000000 -2.933335
    12 8.666410 0.037216 0.003086 0.000000 0.000000 3.631437
    13 -15.726743 0.000530 0.000723 0.000000 0.000000 0.000000
    14 18.423281 0.000008 -0.000001 0.000000 0.000000 0.000000
    15 0.863905 0.359274 0.381193 -1.570723 -2.393610 -1.570843
    16 0.863905 0.348448 -0.360363 -0.805952 -3.325028 -0.187833
    17 1.069544 -0.585928 0.017010 -1.570796 -0.000002 -2.356193
    18 -15.209689 0.052788 -0.063186 0.000000 -3.141592 0.000000
    19 11.900026 9.079731 -14.472080 4.326169 -0.850783 1.209556
    20 1.257180 8.762585 -0.153713 -1.570562 0.002683 -1.566807
    21 -0.071921 -8.498736 -0.104134 0.462579 0.407593 -0.216357
    22 -0.488518 -2.755602 -0.228260 -0.994044 -0.049100 -0.303116
    23 0.039887 -1.479790 0.029854 -1.787404 0.000000 0.000001
    24 0.028786 -1.075731 -0.023109 -1.477381 0.000000 0.000000
    25 0.250027 -2.820665 -0.238396 -0.630435 -0.172479 -0.156417
    26 -0.049759 -1.680544 0.100479 -1.899210 0.000000 -0.000002
    27 -0.034142 -1.148312 0.084782 -1.711774 0.000000 0.000000
    28 0.957766 -2.746780 -0.090302 -0.319622 -0.278599 -0.051549
    29 -0.033420 -1.397129 -0.011257 -1.363671 0.000000 -0.000001
    30 -0.022360 -0.957436 0.018784 -1.378387 0.000000 0.000000
    31 -1.180681 -2.507217 -0.193859 -0.904725 0.015547 -0.451705
    32 -0.024967 -1.123934 0.017597 -1.855824 0.000000 0.000001
    33 -0.020057 -0.890968 0.010090 -1.671895 0.000000 0.000000
    34 0.583510 -1.197277 0.185379 0.048210 -0.366994 -0.814622
    35 1.535927 0.010246 0.005009 -0.002964 -0.012979 -0.998522
    36 1.100771 0.004527 -0.010679 -0.002520 0.016009 0.021008
    37 0.120153 -0.050270 -0.054489 0.307128 3.311263 1.416131
    38 0.447953 -2.798986 -0.200443 -0.653159 0.087866 0.178829
    39 -0.032909 -1.480204 0.004940 -1.833494 0.000000 0.000002
    40 -0.027022 -1.076920 -0.020210 -0.930273 0.000000 0.000000
    41 -0.249534 -2.846964 -0.174213 -0.609311 0.058647 0.154463
    42 0.043235 -1.683941 0.096012 -1.902768 0.002823 -0.000167
    43 0.031729 -1.160830 0.058838 -1.001327 0.000642 0.008372
    44 -0.963866 -2.785145 -0.085350 -0.589404 0.158501 0.157028
    45 0.028479 -1.403067 0.006271 -1.731640 0.000000 0.000000
    46 0.021413 -0.957781 0.020046 -0.780749 0.000000 0.000000
    47 1.164475 -2.543940 -0.170330 -0.674625 -0.089480 0.155889
    48 0.024032 -1.129042 0.017807 -1.450287 0.000000 0.000001
    49 0.014898 -0.883989 -0.019848 -1.242513 0.000000 0.000000
    50 -0.586770 -1.264477 0.200161 0.400179 -0.823031 -2.840439
    51 1.522835 0.058681 0.016848 0.001410 0.008985 1.232395
    52 1.117947 0.048424 -0.005766 -0.021300 -0.013465 1.063049
    53 -0.139399 -0.111698 0.014397 0.283596 0.044588 1.324529
    54 -1.393470 8.839177 -0.239433 1.580804 -0.005023 -1.566847
  time 9
    0 0.000201 1.628956 0.541027 0.000000 0.000000 0.000000
    1 0.115431 -2.528261 -5.620945 0.044950 2.847105 0.152057
    2 0.096946 -8.450417 -0.009364 0.092682 -0.036278 0.149585
    3 -2.955449 -2.412914 0.841363 3.098278 0.057471 -1.531951
    4 0.000000 0.000000 0.000000 0.000000 0.000000 0.000000
    5 2.268322 4.124472 -0.062954 0.000001 0.000000 1.266575
    6 3.295875 -0.000002 0.000000 0.000000 0.000000 1.274961
    7 4.887199 7.610152 -0.062954 3.141592 0.000000 -0.208256
    8 -8.677812 -0.055529 -0.003085 -3.141592 0.000000 0.489847
    9 2.244080 -6.395751 -0.062954 0.000000 0.000000 -1.265266
    10 3.333881 0.000002 0.000000 0.000000 0.000000 -1.270877
    11 4.887201 -9.910490 -0.062952 0.000000 0.000000 -2.933335
    12 8.666410 0.037216 0.003086 0.000000 0.000000 3.631437
    13 -15.726743 0.000530 0.000723 0.000000 0.000000 0.000000
    14 18.423281 0.000008 -0.000001 0.000000 0.000000 0.000000
    15 0.863905 0.359274 0.381193 -1.570723 -2.393610 -1.570843
    16 0.863905 0.348448 -0.360363 -0.805952 -3.325028 -0.187833
    17 1.069544 -0.585928 0.017010 -1.570796 -0.000002 -2.356193
    18 -15.209689 0.052788 -0.063186 0.000000 -3.141592 0.000000
    19 12.005498 9.028948 -14.272855 4.310384 -0.857245 1.221495
    20 1.257180 8.762585 -0.153713 -1.570562 0.002683 -1.566807
    21 -0.071921 -8.498736 -0.104134 0.462579 0.407593 -0.216357
    22 -0.488518 -2.755602 -0.228260 -0.994044 -0.049100 -0.303116
    23 0.039887 -1.479790 0.029854 -1.787404 0.000000 0.000001
    24 0.028786 -1.075731 -0.023109 -1.477381 0.000000 0.000000
    25 0.250027 -2.820665 -0.238396 -0.630435 -0.172479 -0.156417
    26 -0.049759 -1.680544 0.100479 -1.899210 0.000000 -0.000002
    27 -0.034142 -1.148312 0.084782 -1.711774 0.000000 0.000000
    28 0.957766 -2.746780 -0.090302 -0.319622 -0.278599 -0.051549
    29 -0.033420 -1.397129 -0.011257 -1.363671 0.000000 -0.000001
    30 -0.022360 -0.957436 0.018784 -1.378387 0.000000 0.000000
    31 -1.180681 -2.507217 -0.193859 -0.904725 0.015547 -0.451705
    32 -0.024967 -1.123934 0.017597 -1.855824 0.000000 0.000001
    33 -0.020057 -0.890968 0.010090 -1.671895 0.000000 0.000000
    34 0.583510 -1.197277 0.185379 0.048210 -0.366994 -0.814622
    35 1.535927 0.010246 0.005009 -0.002964 -0.012979 -0.998522
    36 1.100771 0.004527 -0.010679 -0.002520 0.016009 0.021008
    37 0.120153 -0.050270 -0.054489 0.307128 3.311263 1.416131
    38 0.447953 -2.798986 -0.200443 -0.653159 0.087866 0.178829
    39 -0.032909 -1.480204 0.004940 -1.833494 0.000000 0.000002
    40 -0.027022 -1.076920 -0.020210 -0.930273 0.000000 0.000000
    41 -0.249534 -2.846964 -0.174213 -0.609311 0.058647 0.154463
    42 0.043235 -1.683941 0.096012 -1.902768 0.002823 -0.000167
    43 0.031729 -1.160830 0.058838 -1.001327 0.000642 0.008372
    44 -0.963866 -2.785145 -0.085350 -0.589404 0.158501 0.157028
    45 0.028479 -1.403067 0.006271 -1.731640 0.000000 0.000000
    46 0.021413 -0.957781 0.020046 -0.780749 0.000000 0.000000
    47 1.164475 -2.543940 -0.170330 -0.674602 -0.089480 0.155889
    48 0.024032 -1.129042 0.017807 -1.450287 0.000000 0.000001
    49 0.014898 -0.883989 -0.019848 -1.242513 0.000000 0.000000
    50 -0.586770 -1.264477 0.200161 0.400179 -0.823031 -2.840439
    51 1.522835 0.058681 0.016848 0.001410 0.008985 1.232395
    52 1.117947 0.048424 -0.005766 -0.021300 -0.013465 1.063049
    53 -0.139399 -0.111698 0.014397 0.283596 0.044588 1.324529
    54 -1.393470 8.839177 -0.239433 1.580804 -0.005023 -1.566847
  time 10
    0 0.000201 1.628956 0.541027 0.000000 0.000000 0.000000
    1 0.115431 -2.551699 -5.593601 0.044924 2.848540 0.152004
    2 0.096946 -8.450417 -0.009364 0.092668 -0.031820 0.150184
    3 -2.955449 -2.412914 0.841363 3.098278 0.057471 -1.531951
    4 0.000000 0.000000 0.000000 0.000000 0.000000 0.000000
    5 2.268322 4.124472 -0.062954 0.000001 0.000000 1.266575
    6 3.295875 -0.000002 0.000000 0.000000 0.000000 1.274961
    7 4.887199 7.610152 -0.062954 3.141592 0.000000 -0.208256
    8 -8.677812 -0.055529 -0.003085 -3.141592 0.000000 0.489847
    9 2.244080 -6.395751 -0.062954 0.000000 0.000000 -1.265266
    10 3.333881 0.000002 0.000000 0.000000 0.000000 -1.270877
    11 4.887201 -9.910490 -0.062952 0.000000 0.000000 -2.933335
    12 8.666410 0.037216 0.003086 0.000000 0.000000 3.631437
    13 -15.726743 0.000530 0.000723 0.000000 0.000000 0.000000
    14 18.423281 0.000008 -0.000001 0.000000 0.000000 0.000000
    15 0.863905 0.359274 0.381193 -1.570723 -2.393610 -1.570843
    16 0.863905 0.348448 -0.360363 -0.805952 -3.325028 -0.187833
    17 1.069544 -0.585928 0.017010 -1.570796 -0.000002 -2.356193
    18 -15.209689 0.052788 -0.063186 0.000000 -3.141592 0.000000
    19 11.966434 8.997697 -14.311918 4.318752 -0.855245 1.214522
    20 1.257180 8.762585 -0.153713 -1.570562 0.002683 -1.566807
    21 -0.071921 -8.498736 -0.104134 0.462579 0.407593 -0.216357
    22 -0.488518 -2.755602 -0.228260 -0.994044 -0.049100 -0.303116
    23 0.039887 -1.479790 0.029854 -1.787404 0.000000 0.000001
    24 0.028786 -1.075731 -0.023109 -1.477381 0.000000 0.000000
    25 0.250027 -2.820665 -0.238396 -0.630435 -0.172479 -0.156417
    26 -0.049759 -1.680544 0.100479 -1.899210 0.000000 -0.000002
    27 -0.034142 -1.148312 0.084782 -1.711774 0.000000 0.000000
    28 0.957766 -2.746780 -0.090302 -0.319622 -0.278599 -0.051549
    29 -0.033420 -1.397129 -0.011257 -1.363671 0.000000 -0.000001
    30 -0.022360 -0.957436 0.018784 -1.378387 0.000000 0.000000
    31 -1.180681 -2.507217 -0.193859 -0.904725 0.015547 -0.451705
    32 -0.024967 -1.123934 0.017597 -1.855824 0.000000 0.000001
    33 -0.020057 -0.890968 0.010090 -1.671895 0.000000 0.000000
    34 0.583510 -1.197277 0.185379 0.048210 -0.366994 -0.814622
    35 1.535927 0.010246 0.005009 -0.002964 -0.012979 -0.998522
    36 1.100771 0.004527 -0.010679 -0.002520 0.016009 0.021008
    37 0.120153 -0.050270 -0.054489 0.307128 3.311263 1.416131
    38 0.447953 -2.798986 -0.200443 -0.653159 0.087866 0.178829
    39 -0.032909 -1.480204 0.004940 -1.833494 0.000000 0.000002
    40 -0.027022 -1.076920 -0.020210 -0.930273 0.000000 0.000000
    41 -0.249534 -2.846964 -0.174213 -0.609311 0.058647 0.154463
    42 0.043235 -1.683941 0.096012 -1.902768 0.002823 -0.000167
    43 0.031729 -1.160830 0.058838 -1.001327 0.000642 0.008372
    44 -0.963866 -2.785145 -0.085350 -0.589404 0.158501 0.157028
    45 0.028479 -1.403067 0.006271 -1.731640 0.000000 0.000000
    46 0.021413 -0.957781 0.020046 -0.780749 0.000000 0.000000
    47 1.164475 -2.543940 -0.170330 -0.674625 -0.089480 0.155889
    48 0.024032 -1.129042 0.017807 -1.450287 0.000000 0.000001
    49 0.014898 -0.883989 -0.019848 -1.242513 0.000000 0.000000
    50 -0.586770 -1.264477 0.200161 0.400179 -0.823031 -2.840439
    51 1.522835 0.058681 0.016848 0.001410 0.008985 1.232395
    52 1.117947 0.048424 -0.005766 -0.021300 -0.013465 1.063049
    53 -0.139399 -0.111698 0.014397 0.283596 0.044588 1.324529
    54 -1.393470 8.839177 -0.239433 1.580804 -0.005023 -1.566847
  time 11
    0 0.000201 1.628956 0.541027 0.000000 0.000000 0.000000
    1 0.115431 -2.536074 -5.566256 0.044822 2.855560 0.151669
    2 0.096946 -8.450417 -0.009364 0.092668 -0.027949 0.150759
    3 -2.955449 -2.412914 0.841363 3.098278 0.057471 -1.531951
    4 0.000000 0.000000 0.000000 0.000000 0.000000 0.000000
    5 2.268322 4.124472 -0.062954 0.000001 0.000000 1.266575
    6 3.295875 -0.000002 0.000000 0.000000 0.000000 1.274961
    7 4.887199 7.610152 -0.062954 3.141592 0.000000 -0.208256
    8 -8.677812 -0.055529 -0.003085 -3.141592 0.000000 0.489847
    9 2.244080 -6.395751 -0.062954 0.000000 0.000000 -1.265266
    10 3.333881 0.000002 0.000000 0.000000 0.000000 -1.270877
    11 4.887201 -9.910490 -0.062952 0.000000 0.000000 -2.933335
    12 8.666410 0.037216 0.003086 0.000000 0.000000 3.631437
    13 -15.726743 0.000530 0.000723 0.000000 0.000000 0.000000
    14 18.423281 0.000008 -0.000001 0.000000 0.000000 0.000000
    15 0.863905 0.359274 0.381193 1.570743 -0.747930 -4.712341
    16 0.863905 0.348448 -0.360363 -0.805952 -3.325028 -0.187833
    17 1.069544 -0.585928 0.017010 -1.570796 -0.000002 -2.356193
    18 -15.209689 0.052788 -0.063186 0.000000 -3.141592 0.000000
    19 11.884401 8.997697 -14.413484 4.333776 -0.850629 1.202392
    20 1.257180 8.762585 -0.153713 -1.570562 0.002683 -1.566807
    21 -0.071921 -8.498736 -0.104134 0.462579 0.407593 -0.216357
    22 -0.488518 -2.755602 -0.228260 -0.994044 -0.049100 -0.303116
    23 0.039887 -1.479790 0.029854 -1.787404 0.000000 0.000001
    24 0.028786 -1.075731 -0.023109 -1.477381 0.000000 0.000000
    25 0.250027 -2.820665 -0.238396 -0.630435 -0.172479 -0.156417
    26 -0.049759 -1.680544 0.100479 -1.899210 0.000000 -0.000002
    27 -0.034142 -1.148312 0.084782 -1.711774 0.000000 0.000000
    28 0.957766 -2.746780 -0.090302 -0.319622 -0.278599 -0.051549
    29 -0.033420 -1.397129 -0.011257 -1.363671 0.000000 -0.000001
    30 -0.022360 -0.957436 0.018784 -1.378387 0.000000 0.000000
    31 -1.180681 -2.507217 -0.193859 -0.904725 0.015547 -0.451705
    32 -0.024967 -1.123934 0.017597 -1.855824 0.000000 0.000001
    33 -0.020057 -0.890968 0.010090 -1.671895 0.000000 0.000000
    34 0.583510 -1.197277 0.185379 0.048210 -0.366994 -0.814622
    35 1.535927 0.010246 0.005009 -0.002964 -0.012979 -0.998522
    36 1.100771 0.004527 -0.010679 -0.002520 0.016009 0.021008
    37 0.120153 -0.050270 -0.054489 0.307128 3.311263 1.416131
    38 0.447953 -2.798986 -0.200443 -0.653159 0.087866 0.178829
    39 -0.032909 -1.480204 0.004940 -1.833494 0.000000 0.000002
    40 -0.027022 -1.076920 -0.020210 -0.930273 0.000000 0.000000
    41 -0.249534 -2.846964 -0.174213 -0.609311 0.058647 0.154463
    42 0.043235 -1.683941 0.096012 -1.902768 0.002823 -0.000167
    43 0.031729 -1.160830 0.058838 -1.001327 0.000642 0.008372
    44 -0.963866 -2.785145 -0.085350 -0.589404 0.158501 0.157028
    45 0.028479 -1.403067 0.006271 -1.731640 0.000000 0.000000
    46 0.021413 -0.957781 0.020046 -0.780749 0.000000 0.000000
    47 1.164475 -2.543940 -0.170330 -0.674625 -0.089480 0.155889
    48 0.024032 -1.129042 0.017807 -1.450287 0.000000 0.000001
    49 0.014898 -0.883989 -0.019848 -1.242513 0.000000 0.000000
    50 -0.586770 -1.264477 0.200161 0.400179 -0.823031 -2.840439
    51 1.522835 0.058681 0.016848 0.001410 0.008985 1.232395
    52 1.117947 0.048424 -0.005766 -0.021300 -0.013465 1.063049
    53 -0.139399 -0.111698 0.014397 0.283596 0.044588 1.324529
    54 -1.393470 8.839177 -0.239433 1.580804 -0.005023 -1.566847
  time 12
    0 0.000201 1.628956 0.541027 0.000000 0.000000 0.000000
    1 0.115431 -2.500916 -5.538912 0.044745 2.862630 0.151334
    2 0.096946 -8.450417 -0.009364 0.092655 -0.025528 0.151275
    3 -2.955449 -2.412914 0.841363 3.098278 0.057471 -1.531951
    4 0.000000 0.000000 0.000000 0.000000 0.000000 0.000000
    5 2.268322 4.124472 -0.062954 0.000001 0.000000 1.266575
    6 3.295875 -0.000002 0.000000 0.000000 0.000000 1.274961
    7 4.887199 7.610152 -0.062954 3.141592 0.000000 -0.208256
    8 -8.677812 -0.055529 -0.003085 -3.141592 0.000000 0.489847
    9 2.244080 -6.395751 -0.062954 0.000000 0.000000 -1.265266
    10 3.333881 0.000002 0.000000 0.000000 0.000000 -1.270877
    11 4.887201 -9.910490 -0.062952 0.000000 0.000000 -2.933335
    12 8.666410 0.037216 0.003086 0.000000 0.000000 3.631437
    13 -15.726743 0.000530 0.000723 0.000000 0.000000 0.000000
    14 18.423281 0.000008 -0.000001 0.000000 0.000000 0.000000
    15 0.863905 0.359274 0.381193 -1.570723 -2.393610 -1.570843
    16 0.863905 0.348448 -0.360363 -0.805952 -3.325028 -0.187833
    17 1.069544 -0.585928 0.017010 -1.570796 -0.000002 -2.356193
    18 -15.209689 0.052788 -0.063186 0.000000 -3.141592 0.000000
    19 11.814086 9.017229 -14.503330 4.346517 -0.846474 1.191981
    20 1.257180 8.762585 -0.153713 -1.570562 0.002683 -1.566807
    21 -0.071921 -8.498736 -0.104134 0.462579 0.407593 -0.216357
    22 -0.488518 -2.755602 -0.228260 -0.994044 -0.049100 -0.303116
    23 0.039887 -1.479790 0.029854 -1.787404 0.000000 0.000001
    24 0.028786 -1.075731 -0.023109 -1.477381 0.000000 0.000000
    25 0.250027 -2.820665 -0.238396 -0.630435 -0.172479 -0.156417
    26 -0.049759 -1.680544 0.100479 -1.899210 0.000000 -0.000002
    27 -0.034142 -1.148312 0.084782 -1.711774 0.000000 0.000000
    28 0.957766 -2.746780 -0.090302 -0.319622 -0.278599 -0.051549
    29 -0.033420 -1.397129 -0.011257 -1.363671 0.000000 -0.000001
    30 -0.022360 -0.957436 0.018784 -1.378387 0.000000 0.000000
    31 -1.180681 -2.507217 -0.193859 -0.904725 0.015547 -0.451705
    32 -0.024967 -1.123934 0.017597 -1.855824 0.000000 0.000001
    33 -0.020057 -0.890968 0.010090 -1.671895 0.000000 0.000000
    34 0.583510 -1.197277 0.185379 0.048210 -0.366994 -0.814622
    35 1.535927 0.010246 0.005009 -0.002964 -0.012979 -0.998522
    36 1.100771 0.004527 -0.010679 -0.002520 0.016009 0.021008
    37 0.120153 -0.050270 -0.054489 0.307128 3.311263 1.416131
    38 0.447953 -2.798986 -0.200443 -0.653159 0.087866 0.178829
    39 -0.032909 -1.480204 0.004940 -1.833494 0.000000 0.000002
    40 -0.027022 -1.076920 -0.020210 -0.930273 0.000000 0.000000
    41 -0.249534 -2.846964 -0.174213 -0.609311 0.058647 0.154463
    42 0.043235 -1.683941 0.096012 -1.902768 0.002823 -0.000167
    43 0.031729 -1.160830 0.058838 -1.001327 0.000642 0.008372
    44 -0.963866 -2.785145 -0.085350 -0.589404 0.158501 0.157028
    45 0.028479 -1.403067 0.006271 -1.731640 0.000000 0.000000
    46 0.021413 -0.957781 0.020046 -0.780749 0.000000 0.000000
    47 1.164475 -2.543940 -0.170330 -0.674602 -0.089480 0.155889
    48 0.024032 -1.129042 0.017807 -1.450287 0.000000 0.000001
    49 0.014898 -0.883989 -0.019848 -1.242513 0.000000 0.000000
    50 -0.586770 -1.264477 0.200161 0.400179 -0.823031 -2.840439
    51 1.522835 0.058681 0.016848 0.001410 0.008985 1.232395
    52 1.117947 0.048424 -0.005766 -0.021300 -0.013465 1.063049
    53 -0.139399 -0.111698 0.014397 0.283596 0.044588 1.324529
    54 -1.393470 8.839177 -0.239433 1.580804 -0.005023 -1.566847
end
