version 1
nodes
0 "root" -1
end
skeleton
time 0
0 0 0 0 0 0 0
end
triangles
cso_butterflyknife
0  1.707930 4.919281 -1.014393  -0.926297 0.339430 0.163590  0.126984 0.666667 0
0  1.272156 3.610232 -0.792374  -0.912350 0.378193 0.156805  0.253968 0.533333 0
0  1.772156 4.949088 -0.712585  -0.926297 0.339430 0.163590  0.095238 0.633333 0
cso_butterflyknife
0  1.772156 4.949088 -0.712585  -0.926310 0.339387 0.163605  0.095238 0.633333 0
0  1.272156 3.610232 -0.792374  -0.912347 0.378195 0.156815  0.253968 0.533333 0
0  1.336380 3.640039 -0.490566  -0.912351 0.378194 0.156797  0.222222 0.516667 0
cso_butterflyknife
0  1.272156 3.610232 -0.792374  -0.912337 0.378231 0.156789  0.253968 0.533333 0
0  0.691536 2.280269 -0.537464  -0.880259 0.452561 0.142594  0.380952 0.400000 0
0  1.336380 3.640039 -0.490566  -0.912333 0.378233 0.156808  0.222222 0.516667 0
cso_butterflyknife
0  1.336380 3.640039 -0.490566  -0.912353 0.378187 0.156799  0.222222 0.516667 0
0  0.691536 2.280269 -0.537464  -0.880261 0.452560 0.142586  0.380952 0.400000 0
0  0.755760 2.310076 -0.235661  -0.880253 0.452564 0.142623  0.349206 0.366667 0
cso_butterflyknife
0  0.691536 2.280269 -0.537464  -0.880257 0.452554 0.142624  0.380952 0.400000 0
0  0.115452 1.194945 -0.307682  -0.880264 0.452551 0.142590  0.492063 0.283333 0
0  0.755760 2.310076 -0.235661  -0.880264 0.452551 0.142594  0.349206 0.366667 0
cso_butterflyknife
0  0.755760 2.310076 -0.235661  -0.880243 0.452594 0.142587  0.349206 0.366667 0
0  0.115452 1.194945 -0.307682  -0.880243 0.452594 0.142585  0.492063 0.283333 0
0  0.179676 1.224752 -0.005878  -0.880243 0.452594 0.142587  0.460317 0.250000 0
cso_butterflyknife
0  0.115452 1.194945 -0.307682  -0.880265 0.452551 0.142589  0.492063 0.283333 0
0  -0.104912 0.642899 -0.206268  -0.841701 0.524723 0.127297  0.539683 0.233333 0
0  0.179676 1.224752 -0.005878  -0.880263 0.452552 0.142599  0.460317 0.250000 0
cso_butterflyknife
0  0.179676 1.224752 -0.005878  -0.880244 0.452590 0.142592  0.460317 0.250000 0
0  -0.104912 0.642899 -0.206268  -0.841705 0.524718 0.127296  0.539683 0.233333 0
0  -0.040684 0.672706 0.095535  -0.841703 0.524719 0.127304  0.523810 0.200000 0
cso_butterflyknife
0  -0.104912 0.642899 -0.206268  -0.841709 0.524708 0.127305  0.539683 0.233333 0
0  -0.324863 0.349011 -0.130436  -0.821113 0.558095 0.119601  0.587302 0.200000 0
0  -0.040684 0.672706 0.095535  -0.841711 0.524707 0.127299  0.523810 0.200000 0
cso_butterflyknife
0  -0.040684 0.672706 0.095535  -0.841710 0.524707 0.127306  0.523810 0.200000 0
0  -0.324863 0.349011 -0.130436  -0.821086 0.558133 0.119601  0.587302 0.200000 0
0  -0.260635 0.378817 0.171368  -0.821084 0.558135 0.119614  0.555556 0.166667 0
cso_butterflyknife
0  -0.324863 0.349011 -0.130436  -0.821105 0.558108 0.119593  0.587302 0.200000 0
0  -0.669441 -0.291544 0.006153  -0.862952 0.486755 0.135585  0.650794 0.133333 0
0  -0.260635 0.378817 0.171368  -0.821102 0.558110 0.119607  0.555556 0.166667 0
cso_butterflyknife
0  -0.260635 0.378817 0.171368  -0.821102 0.558110 0.119599  0.555556 0.166667 0
0  -0.669441 -0.291544 0.006153  -0.862951 0.486757 0.135587  0.650794 0.133333 0
0  -0.605213 -0.261737 0.307961  -0.862951 0.486757 0.135587  0.619048 0.100000 0
cso_butterflyknife
0  2.237389 4.671088 -1.102554  -0.899350 0.410367 0.150891  0.031746 0.666667 0
0  1.718668 3.374259 -0.864090  -0.899350 0.410367 0.150891  0.174603 0.516667 0
0  2.301615 4.700894 -0.800747  -0.899350 0.410367 0.150891  0.000000 0.633333 0
cso_butterflyknife
0  2.301615 4.700894 -0.800747  -0.899330 0.410411 0.150890  0.000000 0.633333 0
0  1.718668 3.374259 -0.864090  -0.899330 0.410411 0.150893  0.174603 0.516667 0
0  1.782894 3.404066 -0.562283  -0.899339 0.410407 0.150852  0.142857 0.483333 0
cso_butterflyknife
0  1.718668 3.374259 -0.864090  -0.899358 0.410361 0.150860  0.174603 0.516667 0
0  1.116177 2.045171 -0.604614  -0.880251 0.452578 0.142589  0.333333 0.350000 0
0  1.782894 3.404066 -0.562283  -0.899351 0.410365 0.150893  0.142857 0.483333 0
cso_butterflyknife
0  1.782894 3.404066 -0.562283  -0.899350 0.410366 0.150893  0.142857 0.483333 0
0  1.116177 2.045171 -0.604614  -0.880250 0.452579 0.142592  0.333333 0.350000 0
0  1.180401 2.074978 -0.302807  -0.880245 0.452581 0.142617  0.301587 0.316667 0
cso_butterflyknife
0  1.116177 2.045171 -0.604614  -0.880251 0.452569 0.142620  0.333333 0.350000 0
0  0.466225 0.753592 -0.338741  -0.862988 0.486687 0.135600  0.492063 0.200000 0
0  1.180401 2.074978 -0.302807  -0.880256 0.452566 0.142594  0.301587 0.316667 0
cso_butterflyknife
0  1.180401 2.074978 -0.302807  -0.880258 0.452563 0.142592  0.301587 0.316667 0
0  0.466225 0.753592 -0.338741  -0.862990 0.486684 0.135599  0.492063 0.200000 0
0  0.530453 0.783398 -0.036938  -0.862991 0.486683 0.135592  0.460317 0.166667 0
cso_butterflyknife
0  0.466225 0.753592 -0.338741  -0.862985 0.486696 0.135589  0.492063 0.200000 0
0  -0.248928 -0.513123 -0.061451  -0.841712 0.524705 0.127301  0.650794 0.033333 0
0  0.530453 0.783398 -0.036938  -0.862983 0.486697 0.135598  0.460317 0.166667 0
cso_butterflyknife
0  0.530453 0.783398 -0.036938  -0.862984 0.486696 0.135594  0.460317 0.166667 0
0  -0.248928 -0.513123 -0.061451  -0.841712 0.524705 0.127299  0.650794 0.033333 0
0  -0.184700 -0.483317 0.240353  -0.841710 0.524706 0.127308  0.619048 0.000000 0
cso_butterflyknife
0  0.158794 -0.716386 -0.128143  0.868385 -0.476372 -0.137756  0.650794 0.133333 0
0  0.869408 0.541608 -0.403606  0.868377 -0.476376 -0.137795  0.507937 0.266667 0
0  0.223022 -0.686579 0.173660  0.868377 -0.476376 -0.137797  0.619048 0.100000 0
cso_butterflyknife
0  0.223022 -0.686579 0.173660  0.868354 -0.476418 -0.137793  0.619048 0.100000 0
0  0.869408 0.541608 -0.403606  0.868354 -0.476418 -0.137791  0.507937 0.266667 0
0  0.933636 0.571415 -0.101803  0.868354 -0.476418 -0.137792  0.492063 0.233333 0
cso_butterflyknife
0  0.869408 0.541608 -0.403606  0.868380 -0.476370 -0.137795  0.507937 0.266667 0
0  1.523897 1.841909 -0.671307  0.868380 -0.476370 -0.137794  0.380952 0.400000 0
0  0.933636 0.571415 -0.101803  0.868380 -0.476370 -0.137795  0.492063 0.233333 0
cso_butterflyknife
0  0.933636 0.571415 -0.101803  0.868380 -0.476369 -0.137801  0.492063 0.233333 0
0  1.523897 1.841909 -0.671307  0.868380 -0.476369 -0.137800  0.380952 0.400000 0
0  1.588123 1.871715 -0.369499  0.868390 -0.476365 -0.137753  0.349206 0.366667 0
cso_butterflyknife
0  1.523897 1.841909 -0.671307  0.868362 -0.476402 -0.137800  0.380952 0.400000 0
0  2.121849 3.162275 -0.928955  0.898817 -0.411636 -0.150608  0.253968 0.533333 0
0  1.588123 1.871715 -0.369499  0.868361 -0.476402 -0.137802  0.349206 0.366667 0
cso_butterflyknife
0  1.588123 1.871715 -0.369499  0.868384 -0.476360 -0.137802  0.349206 0.366667 0
0  2.121849 3.162275 -0.928955  0.898819 -0.411636 -0.150599  0.253968 0.533333 0
0  2.186077 3.192082 -0.627148  0.898820 -0.411636 -0.150597  0.222222 0.516667 0
cso_butterflyknife
0  2.121849 3.162275 -0.928955  0.898839 -0.411587 -0.150611  0.253968 0.533333 0
0  2.659140 4.516228 -1.177010  0.898839 -0.411587 -0.150612  0.126984 0.666667 0
0  2.186077 3.192082 -0.627148  0.898839 -0.411587 -0.150612  0.222222 0.516667 0
cso_butterflyknife
0  2.186077 3.192082 -0.627148  0.898841 -0.411587 -0.150604  0.222222 0.516667 0
0  2.659140 4.516228 -1.177010  0.898840 -0.411587 -0.150605  0.126984 0.666667 0
0  2.723368 4.546034 -0.875206  0.898834 -0.411590 -0.150636  0.095238 0.633333 0
cso_butterflyknife
0  -0.265846 -0.481288 -0.060993  0.868374 -0.476398 -0.137741  0.650794 0.033333 0
0  0.423309 0.799821 -0.334175  0.868363 -0.476403 -0.137789  0.492063 0.200000 0
0  -0.201622 -0.451481 0.240810  0.868364 -0.476402 -0.137788  0.619048 0.000000 0
cso_butterflyknife
0  -0.201622 -0.451481 0.240810  0.868362 -0.476403 -0.137797  0.619048 0.000000 0
0  0.423309 0.799821 -0.334175  0.868362 -0.476403 -0.137797  0.492063 0.200000 0
0  0.487534 0.829628 -0.032372  0.868361 -0.476403 -0.137797  0.460317 0.166667 0
cso_butterflyknife
0  0.423309 0.799821 -0.334175  0.868370 -0.476388 -0.137802  0.492063 0.200000 0
0  1.055927 2.100996 -0.597305  0.898825 -0.411621 -0.150607  0.333333 0.350000 0
0  0.487534 0.829628 -0.032372  0.868369 -0.476388 -0.137802  0.460317 0.166667 0
cso_butterflyknife
0  0.487534 0.829628 -0.032372  0.868394 -0.476344 -0.137796  0.460317 0.166667 0
0  1.055927 2.100996 -0.597305  0.898827 -0.411620 -0.150595  0.333333 0.350000 0
0  1.120152 2.130803 -0.295502  0.898828 -0.411619 -0.150593  0.301587 0.316667 0
cso_butterflyknife
0  1.055927 2.100996 -0.597305  0.898812 -0.411646 -0.150613  0.333333 0.350000 0
0  1.636545 3.430959 -0.852211  0.898814 -0.411645 -0.150603  0.174603 0.516667 0
0  1.120152 2.130803 -0.295502  0.898814 -0.411645 -0.150603  0.301587 0.316667 0
cso_butterflyknife
0  1.120152 2.130803 -0.295502  0.898815 -0.411646 -0.150594  0.301587 0.316667 0
0  1.636545 3.430959 -0.852211  0.898815 -0.411646 -0.150594  0.174603 0.516667 0
0  1.700773 3.460766 -0.550407  0.898815 -0.411646 -0.150595  0.142857 0.483333 0
cso_butterflyknife
0  1.636545 3.430959 -0.852211  0.898832 -0.411610 -0.150596  0.174603 0.516667 0
0  2.156504 4.794507 -1.097530  0.913023 -0.376430 -0.157126  0.031746 0.666667 0
0  1.700773 3.460766 -0.550407  0.898831 -0.411610 -0.150601  0.142857 0.483333 0
cso_butterflyknife
0  1.700773 3.460766 -0.550407  0.898830 -0.411610 -0.150606  0.142857 0.483333 0
0  2.156504 4.794507 -1.097530  0.913024 -0.376429 -0.157125  0.031746 0.666667 0
0  2.220732 4.824314 -0.795723  0.913024 -0.376429 -0.157125  0.000000 0.633333 0
cso_butterflyknife
0  0.192467 -0.460431 0.137287  0.909350 0.310780 0.276584  0.031746 0.033333 0
0  0.014603 -0.373193 0.166523  -0.174997 0.874890 0.451601  0.190476 0.066667 0
0  0.118233 -0.406683 0.209404  0.449612 0.687129 0.570703  0.111111 0.050000 0
cso_butterflyknife
0  0.118233 -0.406683 0.209404  0.449612 0.687092 0.570748  0.111111 0.050000 0
0  0.014603 -0.373193 0.166523  -0.174906 0.874896 0.451625  0.190476 0.066667 0
0  -0.018360 -0.454634 0.243210  -0.465910 0.388169 0.795143  0.174603 0.133333 0
cso_butterflyknife
0  0.014603 -0.373193 0.166523  -0.175001 0.874876 0.451626  0.190476 0.066667 0
0  -0.071644 -0.538892 0.201241  -0.707283 -0.217087 0.672773  0.158730 0.216667 0
0  -0.018360 -0.454634 0.243210  -0.465969 0.388179 0.795104  0.174603 0.133333 0
cso_butterflyknife
0  -0.018360 -0.454634 0.243210  -0.465940 0.388244 0.795089  0.174603 0.133333 0
0  -0.071644 -0.538892 0.201241  -0.707296 -0.216964 0.672799  0.158730 0.216667 0
0  0.027447 -0.581102 0.245949  -0.153427 -0.549605 0.821216  0.095238 0.200000 0
cso_butterflyknife
0  -0.071644 -0.538892 0.201241  -0.707308 -0.216920 0.672801  0.158730 0.216667 0
0  0.101677 -0.634850 0.173832  0.376843 -0.781206 0.497701  0.015873 0.200000 0
0  0.027447 -0.581102 0.245949  -0.153424 -0.549604 0.821217  0.095238 0.200000 0
cso_butterflyknife
0  0.027447 -0.581102 0.245949  -0.153539 -0.549645 0.821168  0.095238 0.200000 0
0  0.101677 -0.634850 0.173832  0.376822 -0.781196 0.497732  0.015873 0.200000 0
0  0.159500 -0.541871 0.213974  0.762024 -0.250891 0.596970  0.015873 0.116667 0
cso_butterflyknife
0  0.101677 -0.634850 0.173832  0.376949 -0.781115 0.497763  0.015873 0.200000 0
0  0.192467 -0.460431 0.137287  0.909382 0.310680 0.276591  0.031746 0.033333 0
0  0.159500 -0.541871 0.213974  0.762115 -0.250771 0.596904  0.015873 0.116667 0
cso_butterflyknife
0  0.159500 -0.541871 0.213974  0.762109 -0.250790 0.596904  0.015873 0.116667 0
0  0.192467 -0.460431 0.137287  0.909380 0.310719 0.276554  0.031746 0.033333 0
0  0.118233 -0.406683 0.209404  0.449630 0.687125 0.570694  0.111111 0.050000 0
cso_butterflyknife
0  -0.826111 -0.708199 0.255257  0.127614 -0.061764 0.989899  0.142857 0.716667 0
0  -0.258240 -0.744542 0.179089  0.146999 0.117785 0.982099  0.190476 0.833333 0
0  -0.767082 -0.579384 0.250519  0.146116 0.017713 0.989109  0.111111 0.733333 0
cso_butterflyknife
0  -0.767082 -0.579384 0.250519  0.146096 0.017678 0.989112  0.111111 0.733333 0
0  -0.258240 -0.744542 0.179089  0.147012 0.117809 0.982094  0.190476 0.833333 0
0  -0.635025 -0.540154 0.218540  0.190912 0.133999 0.972418  0.111111 0.766667 0
cso_butterflyknife
0  -0.258240 -0.744542 0.179089  0.146993 0.117802 0.982098  0.190476 0.833333 0
0  0.189487 0.014434 -0.011692  0.190894 0.134003 0.972421  0.063492 1.000000 0
0  -0.635025 -0.540154 0.218540  0.190894 0.134003 0.972421  0.111111 0.766667 0
cso_butterflyknife
0  -0.635025 -0.540154 0.218540  0.190910 0.134011 0.972417  0.111111 0.766667 0
0  0.189487 0.014434 -0.011692  0.190912 0.134012 0.972416  0.063492 1.000000 0
0  -0.658550 -0.392321 0.208946  0.207180 0.096151 0.973566  0.079365 0.766667 0
cso_butterflyknife
0  0.189487 0.014434 -0.011692  0.190897 0.133998 0.972421  0.063492 1.000000 0
0  -0.481518 -0.052203 0.137684  0.207183 0.096145 0.973566  0.031746 0.833333 0
0  -0.658550 -0.392321 0.208946  0.207183 0.096145 0.973566  0.079365 0.766667 0
cso_butterflyknife
0  -0.658550 -0.392321 0.208946  0.207182 0.096145 0.973566  0.079365 0.766667 0
0  -0.481518 -0.052203 0.137684  0.207182 0.096145 0.973566  0.031746 0.833333 0
0  -0.802574 -0.132837 0.213970  0.207182 0.096145 0.973566  0.015873 0.766667 0
cso_butterflyknife
0  -0.481518 -0.052203 0.137684  0.207177 0.096164 0.973566  0.031746 0.833333 0
0  -0.735722 -0.068742 0.193413  0.207177 0.096164 0.973566  0.015873 0.783333 0
0  -0.802574 -0.132837 0.213970  0.207177 0.096164 0.973566  0.015873 0.766667 0
cso_butterflyknife
0  -2.314613 -3.797799 0.856609  0.111748 0.141382 0.983628  0.698413 0.150000 0
0  -1.941936 -3.973226 0.835712  0.111748 0.141382 0.983628  0.777778 0.216667 0
0  -2.190403 -3.473373 0.798138  0.111748 0.141382 0.983628  0.650794 0.200000 0
cso_butterflyknife
0  -2.190403 -3.473373 0.798138  0.111736 0.141388 0.983628  0.650794 0.200000 0
0  -1.941936 -3.973226 0.835712  0.111736 0.141389 0.983628  0.777778 0.216667 0
0  -2.044319 -3.149822 0.735096  0.111736 0.141388 0.983628  0.587302 0.266667 0
cso_butterflyknife
0  -1.941936 -3.973226 0.835712  0.111737 0.141355 0.983633  0.777778 0.216667 0
0  -0.948219 -2.070130 0.456837  0.111737 0.141355 0.983633  0.428571 0.583333 0
0  -2.044319 -3.149822 0.735096  0.111738 0.141355 0.983633  0.587302 0.266667 0
cso_butterflyknife
0  -2.044319 -3.149822 0.735096  0.111684 0.141426 0.983629  0.587302 0.266667 0
0  -0.948219 -2.070130 0.456837  0.111683 0.141425 0.983629  0.428571 0.583333 0
0  -1.359291 -1.855195 0.461456  0.111684 0.141426 0.983629  0.349206 0.500000 0
cso_butterflyknife
0  -0.948219 -2.070130 0.456837  0.111700 0.141403 0.983630  0.428571 0.583333 0
0  -0.258240 -0.744542 0.179089  0.146981 0.117812 0.982098  0.190476 0.833333 0
0  -1.359291 -1.855195 0.461456  0.111698 0.141401 0.983631  0.349206 0.500000 0
cso_butterflyknife
0  -1.359291 -1.855195 0.461456  0.111693 0.141427 0.983628  0.349206 0.500000 0
0  -0.258240 -0.744542 0.179089  0.147010 0.117808 0.982094  0.190476 0.833333 0
0  -0.793114 -0.831792 0.239899  0.104109 0.057030 0.992930  0.174603 0.716667 0
cso_butterflyknife
0  -0.258240 -0.744542 0.179089  0.146995 0.117805 0.982097  0.190476 0.833333 0
0  -0.826111 -0.708199 0.255257  0.127613 -0.061806 0.989896  0.142857 0.716667 0
0  -0.793114 -0.831792 0.239899  0.104112 0.057010 0.992930  0.174603 0.716667 0
cso_butterflyknife
0  0.376022 -0.785355 0.027599  0.868396 -0.476343 -0.137790  0.285714 0.216667 0
0  0.380898 -0.705924 -0.073727  0.968992 0.116857 -0.217713  0.285714 0.283333 0
0  0.399544 -0.697270 0.013893  0.968980 0.116851 -0.217769  0.253968 0.250000 0
cso_butterflyknife
0  0.399544 -0.697270 0.013893  0.969001 0.116788 -0.217710  0.253968 0.250000 0
0  0.380898 -0.705924 -0.073727  0.969003 0.116789 -0.217699  0.285714 0.283333 0
0  0.272438 -0.469622 0.018459  0.881808 0.412607 -0.228408  0.174603 0.333333 0
cso_butterflyknife
0  0.380898 -0.705924 -0.073727  0.968993 0.116734 -0.217772  0.285714 0.283333 0
0  0.253792 -0.478276 -0.069160  0.881834 0.412567 -0.228381  0.206349 0.366667 0
0  0.272438 -0.469622 0.018459  0.881833 0.412567 -0.228382  0.174603 0.333333 0
cso_butterflyknife
0  0.272438 -0.469622 0.018459  0.881832 0.412571 -0.228380  0.174603 0.333333 0
0  0.253792 -0.478276 -0.069160  0.881831 0.412571 -0.228385  0.206349 0.366667 0
0  0.176285 -0.225407 0.014805  0.968992 0.116789 -0.217748  0.095238 0.416667 0
cso_butterflyknife
0  0.253792 -0.478276 -0.069160  0.881789 0.412653 -0.228399  0.206349 0.366667 0
0  0.157639 -0.234061 -0.072819  0.968994 0.116836 -0.217716  0.126984 0.450000 0
0  0.176285 -0.225407 0.014805  0.968994 0.116836 -0.217716  0.095238 0.416667 0
cso_butterflyknife
0  0.176285 -0.225407 0.014805  0.968998 0.116815 -0.217711  0.095238 0.416667 0
0  0.157639 -0.234061 -0.072819  0.968996 0.116814 -0.217719  0.126984 0.450000 0
0  0.189487 0.014434 -0.011692  0.808160 0.544001 -0.225698  0.015873 0.500000 0
cso_butterflyknife
0  0.157639 -0.234061 -0.072819  0.969003 0.116772 -0.217708  0.126984 0.450000 0
0  0.172913 0.006742 -0.089577  0.778409 0.617600 -0.112472  0.047619 0.533333 0
0  0.189487 0.014434 -0.011692  0.808179 0.543963 -0.225724  0.015873 0.500000 0
cso_butterflyknife
0  -0.258240 -0.744542 0.179089  0.270215 0.060902 0.960872  0.190476 0.833333 0
0  0.176285 -0.225407 0.014805  0.246029 0.097006 0.964396  0.111111 0.966667 0
0  0.189487 0.014434 -0.011692  0.246029 0.097006 0.964396  0.063492 1.000000 0
cso_butterflyknife
0  -0.258240 -0.744542 0.179089  0.270202 0.060886 0.960876  0.190476 0.833333 0
0  0.272438 -0.469622 0.018459  0.207166 0.096186 0.973566  0.174603 0.983333 0
0  0.176285 -0.225407 0.014805  0.245997 0.097005 0.964404  0.111111 0.966667 0
cso_butterflyknife
0  -0.258240 -0.744542 0.179089  0.270205 0.060882 0.960876  0.190476 0.833333 0
0  0.376022 -0.785355 0.027599  0.207185 0.096192 0.973561  0.238095 0.983333 0
0  0.272438 -0.469622 0.018459  0.207185 0.096193 0.973561  0.174603 0.983333 0
cso_butterflyknife
0  -0.258240 -0.744542 0.179089  0.270177 0.060892 0.960883  0.190476 0.833333 0
0  0.095406 -0.809740 0.089725  0.227796 -0.058823 0.971931  0.238095 0.916667 0
0  0.376022 -0.785355 0.027599  0.207192 0.096213 0.973558  0.238095 0.983333 0
cso_butterflyknife
0  -0.258240 -0.744542 0.179089  0.270229 0.060887 0.960869  0.190476 0.833333 0
0  -0.037064 -0.871211 0.123985  0.254328 0.028986 0.966684  0.238095 0.883333 0
0  0.095406 -0.809740 0.089725  0.227842 -0.058809 0.971921  0.238095 0.916667 0
cso_butterflyknife
0  -0.258240 -0.744542 0.179089  0.270168 0.060909 0.960885  0.190476 0.833333 0
0  -0.718376 -2.201597 0.400364  0.270168 0.060909 0.960885  0.476190 0.633333 0
0  -0.037064 -0.871211 0.123985  0.254288 0.029006 0.966694  0.238095 0.883333 0
cso_butterflyknife
0  -0.258240 -0.744542 0.179089  0.270174 0.060917 0.960882  0.190476 0.833333 0
0  -0.948219 -2.070130 0.456837  0.270174 0.060917 0.960882  0.428571 0.583333 0
0  -0.718376 -2.201597 0.400364  0.270174 0.060917 0.960882  0.476190 0.633333 0
cso_butterflyknife
0  -0.821220 -0.141491 0.126350  -0.880266 0.452548 0.142586  0.253968 0.216667 0
0  -0.735722 -0.068742 0.193413  -0.405830 0.913940 -0.003908  0.206349 0.216667 0
0  -0.754368 -0.077396 0.105793  -0.405826 0.913942 -0.003889  0.222222 0.250000 0
cso_butterflyknife
0  -0.754368 -0.077396 0.105793  -0.405782 0.913962 -0.003900  0.222222 0.250000 0
0  -0.735722 -0.068742 0.193413  -0.405783 0.913961 -0.003906  0.206349 0.216667 0
0  -0.500164 -0.060856 0.050060  -0.174277 0.982868 -0.059988  0.158730 0.300000 0
cso_butterflyknife
0  -0.735722 -0.068742 0.193413  -0.405772 0.913966 -0.003877  0.206349 0.216667 0
0  -0.481518 -0.052203 0.137684  -0.174274 0.982868 -0.059999  0.142857 0.283333 0
0  -0.500164 -0.060856 0.050060  -0.174274 0.982868 -0.059996  0.158730 0.300000 0
cso_butterflyknife
0  -0.500164 -0.060856 0.050060  -0.174271 0.982868 -0.059998  0.158730 0.300000 0
0  -0.481518 -0.052203 0.137684  -0.174270 0.982869 -0.059990  0.142857 0.283333 0
0  -0.152279 0.049864 -0.034904  -0.174267 0.982870 -0.059976  0.095238 0.383333 0
cso_butterflyknife
0  -0.481518 -0.052203 0.137684  -0.174318 0.982861 -0.059977  0.142857 0.283333 0
0  -0.133633 0.058518 0.052715  -0.174319 0.982861 -0.059984  0.079365 0.350000 0
0  -0.152279 0.049864 -0.034904  -0.174321 0.982859 -0.059994  0.095238 0.383333 0
cso_butterflyknife
0  -0.152279 0.049864 -0.034904  -0.174281 0.982867 -0.059989  0.095238 0.383333 0
0  -0.133633 0.058518 0.052715  -0.174282 0.982867 -0.059992  0.079365 0.350000 0
0  0.037212 0.065038 0.015717  0.134177 0.982965 -0.125603  0.031746 0.400000 0
cso_butterflyknife
0  0.380898 -0.705924 -0.073727  -0.207199 -0.096161 -0.973561  0.222222 0.983333 0
0  0.357376 -0.794008 -0.060020  -0.207199 -0.096161 -0.973561  0.238095 0.983333 0
0  0.253792 -0.478276 -0.069160  -0.207199 -0.096161 -0.973561  0.174603 0.983333 0
cso_butterflyknife
0  0.253792 -0.478276 -0.069160  -0.208271 -0.096317 -0.973317  0.174603 0.983333 0
0  0.357376 -0.794008 -0.060020  -0.208271 -0.096317 -0.973317  0.238095 0.983333 0
0  0.157639 -0.234061 -0.072819  -0.208271 -0.096317 -0.973317  0.111111 0.966667 0
cso_butterflyknife
0  0.357376 -0.794008 -0.060020  -0.207183 -0.096156 -0.973565  0.238095 0.983333 0
0  0.076759 -0.818394 0.002106  -0.207183 -0.096156 -0.973565  0.238095 0.916667 0
0  0.157639 -0.234061 -0.072819  -0.207183 -0.096156 -0.973565  0.111111 0.966667 0
cso_butterflyknife
0  0.157639 -0.234061 -0.072819  -0.206292 -0.096205 -0.973750  0.111111 0.966667 0
0  0.076759 -0.818394 0.002106  -0.206292 -0.096205 -0.973750  0.238095 0.916667 0
0  0.179508 0.000982 -0.100685  -0.206292 -0.096205 -0.973750  0.063492 1.000000 0
cso_butterflyknife
0  0.076759 -0.818394 0.002106  -0.207169 -0.096155 -0.973568  0.238095 0.916667 0
0  -0.055710 -0.879864 0.036366  -0.142493 -0.131222 -0.981059  0.238095 0.883333 0
0  0.179508 0.000982 -0.100685  -0.207169 -0.096155 -0.973568  0.063492 1.000000 0
cso_butterflyknife
0  0.179508 0.000982 -0.100685  -0.207178 -0.096190 -0.973563  0.063492 1.000000 0
0  -0.055710 -0.879864 0.036366  -0.142497 -0.131211 -0.981060  0.238095 0.883333 0
0  -0.285172 -0.757041 0.052525  -0.207179 -0.096192 -0.973563  0.190476 0.833333 0
cso_butterflyknife
0  0.223022 -0.686579 0.173660  0.131435 -0.988872 0.069693  0.619048 0.100000 0
0  0.043095 -0.710541 0.214317  -0.152716 -0.979772 0.129320  0.634921 0.083333 0
0  0.158794 -0.716386 -0.128143  0.131433 -0.988873 0.069688  0.650794 0.133333 0
cso_butterflyknife
0  0.158794 -0.716386 -0.128143  0.131437 -0.988872 0.069689  0.650794 0.133333 0
0  0.043095 -0.710541 0.214317  -0.152721 -0.979777 0.129283  0.634921 0.083333 0
0  -0.021130 -0.740348 -0.087486  -0.152721 -0.979777 0.129282  0.666667 0.116667 0
cso_butterflyknife
0  0.043095 -0.710541 0.214317  -0.152684 -0.979768 0.129393  0.634921 0.083333 0
0  -0.091434 -0.647293 0.236702  -0.661178 -0.719707 0.211814  0.650794 0.066667 0
0  -0.021130 -0.740348 -0.087486  -0.152702 -0.979776 0.129308  0.666667 0.116667 0
cso_butterflyknife
0  -0.021130 -0.740348 -0.087486  -0.152704 -0.979779 0.129281  0.666667 0.116667 0
0  -0.091434 -0.647293 0.236702  -0.661216 -0.719680 0.211789  0.650794 0.066667 0
0  -0.155663 -0.677100 -0.065105  -0.661212 -0.719678 0.211804  0.682540 0.100000 0
cso_butterflyknife
0  -0.091434 -0.647293 0.236702  -0.661219 -0.719680 0.211778  0.650794 0.066667 0
0  -0.184700 -0.483317 0.240353  -0.841715 -0.489659 0.227486  0.666667 0.050000 0
0  -0.155663 -0.677100 -0.065105  -0.661211 -0.719676 0.211817  0.682540 0.100000 0
cso_butterflyknife
0  -0.155663 -0.677100 -0.065105  -0.661211 -0.719678 0.211807  0.682540 0.100000 0
0  -0.184700 -0.483317 0.240353  -0.841712 -0.489660 0.227496  0.666667 0.050000 0
0  -0.248928 -0.513123 -0.061451  -0.841714 -0.489660 0.227487  0.698413 0.083333 0
cso_butterflyknife
0  -0.201622 -0.451481 0.240810  0.131390 -0.988877 0.069704  0.666667 0.050000 0
0  -0.372879 -0.480241 0.280094  -0.152718 -0.979775 0.129302  0.650794 0.066667 0
0  -0.265846 -0.481288 -0.060993  0.131389 -0.988878 0.069697  0.698413 0.083333 0
cso_butterflyknife
0  -0.265846 -0.481288 -0.060993  0.131385 -0.988878 0.069702  0.698413 0.083333 0
0  -0.372879 -0.480241 0.280094  -0.152672 -0.979780 0.129315  0.650794 0.066667 0
0  -0.437103 -0.510047 -0.021709  -0.152682 -0.979785 0.129270  0.682540 0.100000 0
cso_butterflyknife
0  -0.372879 -0.480241 0.280094  -0.152706 -0.979784 0.129245  0.650794 0.066667 0
0  -0.507412 -0.416993 0.302479  -0.661172 -0.719715 0.211808  0.634921 0.083333 0
0  -0.437103 -0.510047 -0.021709  -0.152693 -0.979778 0.129304  0.682540 0.100000 0
cso_butterflyknife
0  -0.437103 -0.510047 -0.021709  -0.152695 -0.979777 0.129314  0.682540 0.100000 0
0  -0.507412 -0.416993 0.302479  -0.661217 -0.719682 0.211779  0.634921 0.083333 0
0  -0.571636 -0.446799 0.000671  -0.661185 -0.719667 0.211929  0.666667 0.116667 0
cso_butterflyknife
0  -0.507412 -0.416993 0.302479  -0.661199 -0.719702 0.211765  0.634921 0.083333 0
0  -0.605213 -0.261737 0.307961  -0.841746 -0.489601 0.227494  0.619048 0.100000 0
0  -0.571636 -0.446799 0.000671  -0.661191 -0.719698 0.211804  0.666667 0.116667 0
cso_butterflyknife
0  -0.571636 -0.446799 0.000671  -0.661179 -0.719713 0.211793  0.666667 0.116667 0
0  -0.605213 -0.261737 0.307961  -0.841763 -0.489578 0.227483  0.619048 0.100000 0
0  -0.669441 -0.291544 0.006153  -0.841761 -0.489578 0.227490  0.650794 0.133333 0
cso_butterflyknife
0  -0.785728 -0.588038 0.162895  -0.266189 -0.173604 -0.948159  0.111111 0.733333 0
0  -0.285172 -0.757041 0.052525  -0.300799 -0.095507 -0.948893  0.190476 0.833333 0
0  -0.836468 -0.713007 0.206581  -0.280290 -0.251076 -0.926498  0.142857 0.716667 0
cso_butterflyknife
0  -0.836468 -0.713007 0.206581  -0.280301 -0.251123 -0.926482  0.142857 0.716667 0
0  -0.285172 -0.757041 0.052525  -0.300792 -0.095494 -0.948897  0.190476 0.833333 0
0  -0.793114 -0.831792 0.239899  -0.306224 -0.137205 -0.942020  0.174603 0.716667 0
cso_butterflyknife
0  -0.285172 -0.757041 0.052525  -0.300794 -0.095505 -0.948895  0.190476 0.833333 0
0  -0.975151 -2.082630 0.330273  -0.307294 -0.057697 -0.949864  0.428571 0.583333 0
0  -0.793114 -0.831792 0.239899  -0.306215 -0.137200 -0.942024  0.174603 0.716667 0
cso_butterflyknife
0  -0.793114 -0.831792 0.239899  -0.306209 -0.137231 -0.942021  0.174603 0.716667 0
0  -0.975151 -2.082630 0.330273  -0.307289 -0.057706 -0.949865  0.428571 0.583333 0
0  -1.359291 -1.855195 0.461456  -0.307286 -0.057704 -0.949866  0.349206 0.500000 0
cso_butterflyknife
0  -0.975151 -2.082630 0.330273  -0.307301 -0.057680 -0.949863  0.428571 0.583333 0
0  -2.044319 -3.149822 0.735096  -0.307299 -0.057678 -0.949863  0.587302 0.266667 0
0  -1.359291 -1.855195 0.461456  -0.307300 -0.057679 -0.949863  0.349206 0.500000 0
cso_butterflyknife
0  -2.190403 -3.473373 0.798138  -0.307320 -0.057685 -0.949856  0.650794 0.200000 0
0  -1.960583 -3.981880 0.748093  -0.300810 -0.095498 -0.948891  0.777778 0.216667 0
0  -2.314613 -3.797799 0.856609  -0.307321 -0.057685 -0.949856  0.698413 0.150000 0
cso_butterflyknife
0  -2.314613 -3.797799 0.856609  -0.307351 -0.057703 -0.949845  0.698413 0.150000 0
0  -1.960583 -3.981880 0.748093  -0.300816 -0.095490 -0.948890  0.777778 0.216667 0
0  -2.417366 -4.145340 0.912800  -0.300816 -0.095490 -0.948890  0.777778 0.100000 0
cso_butterflyknife
0  -1.960583 -3.981880 0.748093  -0.300767 -0.095492 -0.948905  0.777778 0.216667 0
0  -2.138840 -4.373275 0.845222  -0.300767 -0.095492 -0.948905  0.841270 0.150000 0
0  -2.417366 -4.145340 0.912800  -0.300767 -0.095492 -0.948905  0.777778 0.100000 0
cso_butterflyknife
0  -2.417366 -4.145340 0.912800  -0.300824 -0.095513 -0.948885  0.777778 0.100000 0
0  -2.138840 -4.373275 0.845222  -0.300823 -0.095514 -0.948885  0.841270 0.150000 0
0  -2.475552 -4.450150 0.955284  -0.300823 -0.095514 -0.948885  0.841270 0.066667 0
cso_butterflyknife
0  -2.138840 -4.373275 0.845222  -0.300817 -0.095520 -0.948886  0.841270 0.150000 0
0  -2.502789 -4.738394 0.989548  -0.300818 -0.095519 -0.948886  0.888889 0.033333 0
0  -2.475552 -4.450150 0.955284  -0.300818 -0.095519 -0.948886  0.841270 0.066667 0
cso_butterflyknife
0  -0.767082 -0.579384 0.250519  -0.645114 0.761562 0.062049  0.349206 0.083333 0
0  -0.635025 -0.540154 0.218540  -0.841733 0.524672 0.127302  0.317460 0.100000 0
0  -0.785728 -0.588038 0.162895  -0.645136 0.761538 0.062124  0.365079 0.100000 0
cso_butterflyknife
0  -0.785728 -0.588038 0.162895  -0.645075 0.761594 0.062073  0.365079 0.100000 0
0  -0.635025 -0.540154 0.218540  -0.841703 0.524712 0.127328  0.317460 0.100000 0
0  -0.653671 -0.548807 0.130920  -0.841711 0.524709 0.127292  0.349206 0.116667 0
cso_butterflyknife
0  -0.635025 -0.540154 0.218540  -0.841718 0.524695 0.127304  0.317460 0.100000 0
0  -0.658550 -0.392321 0.208946  -0.895512 -0.382018 0.228301  0.285714 0.133333 0
0  -0.653671 -0.548807 0.130920  -0.841716 0.524696 0.127315  0.349206 0.116667 0
cso_butterflyknife
0  -0.653671 -0.548807 0.130920  -0.841715 0.524696 0.127314  0.349206 0.116667 0
0  -0.658550 -0.392321 0.208946  -0.895505 -0.382014 0.228335  0.285714 0.133333 0
0  -0.677197 -0.400974 0.121326  -0.895512 -0.382017 0.228300  0.317460 0.150000 0
cso_butterflyknife
0  -0.658550 -0.392321 0.208946  -0.895492 -0.382047 0.228330  0.285714 0.133333 0
0  -0.826996 -0.216931 0.135029  -0.943499 -0.243570 0.224683  0.269841 0.200000 0
0  -0.677197 -0.400974 0.121326  -0.895496 -0.382049 0.228311  0.317460 0.150000 0
cso_butterflyknife
0  2.537664 4.682550 -0.849167  0.207190 0.096144 0.973565  0.365079 0.983333 0
0  1.782894 3.404066 -0.562283  0.207190 0.096144 0.973565  0.492063 0.800000 0
0  2.723368 4.546034 -0.875206  0.207190 0.096144 0.973565  0.396825 1.000000 0
cso_butterflyknife
0  2.723368 4.546034 -0.875206  0.207183 0.096151 0.973566  0.396825 1.000000 0
0  1.782894 3.404066 -0.562283  0.207183 0.096151 0.973566  0.492063 0.800000 0
0  2.186077 3.192082 -0.627148  0.207183 0.096151 0.973566  0.539683 0.850000 0
cso_butterflyknife
0  1.782894 3.404066 -0.562283  0.207183 0.096149 0.973566  0.492063 0.800000 0
0  1.180401 2.074978 -0.302807  0.207183 0.096149 0.973566  0.634921 0.633333 0
0  2.186077 3.192082 -0.627148  0.207183 0.096149 0.973566  0.539683 0.850000 0
cso_butterflyknife
0  2.186077 3.192082 -0.627148  0.207183 0.096149 0.973566  0.539683 0.850000 0
0  1.180401 2.074978 -0.302807  0.207183 0.096149 0.973566  0.634921 0.633333 0
0  1.588123 1.871715 -0.369499  0.207183 0.096149 0.973566  0.698413 0.683333 0
cso_butterflyknife
0  1.180401 2.074978 -0.302807  0.207182 0.096149 0.973566  0.634921 0.633333 0
0  0.933636 0.571415 -0.101803  0.207182 0.096149 0.973566  0.841270 0.516667 0
0  1.588123 1.871715 -0.369499  0.207182 0.096149 0.973566  0.698413 0.683333 0
cso_butterflyknife
0  0.869408 0.541608 -0.403606  -0.207184 -0.096150 -0.973566  0.841270 0.516667 0
0  1.116177 2.045171 -0.604614  -0.207184 -0.096150 -0.973566  0.634921 0.633333 0
0  1.523897 1.841909 -0.671307  -0.207184 -0.096150 -0.973566  0.698413 0.683333 0
cso_butterflyknife
0  1.523897 1.841909 -0.671307  -0.207183 -0.096149 -0.973566  0.698413 0.683333 0
0  1.116177 2.045171 -0.604614  -0.207183 -0.096149 -0.973566  0.634921 0.633333 0
0  2.121849 3.162275 -0.928955  -0.207183 -0.096149 -0.973566  0.539683 0.850000 0
cso_butterflyknife
0  1.116177 2.045171 -0.604614  -0.207184 -0.096149 -0.973566  0.634921 0.633333 0
0  1.718668 3.374259 -0.864090  -0.207184 -0.096149 -0.973566  0.492063 0.800000 0
0  2.121849 3.162275 -0.928955  -0.207184 -0.096149 -0.973566  0.539683 0.850000 0
cso_butterflyknife
0  2.121849 3.162275 -0.928955  -0.207183 -0.096148 -0.973566  0.539683 0.850000 0
0  1.718668 3.374259 -0.864090  -0.207183 -0.096148 -0.973566  0.492063 0.800000 0
0  2.659140 4.516228 -1.177010  -0.207183 -0.096148 -0.973566  0.396825 1.000000 0
cso_butterflyknife
0  1.718668 3.374259 -0.864090  -0.207178 -0.096152 -0.973567  0.492063 0.800000 0
0  2.473438 4.652743 -1.150974  -0.207178 -0.096152 -0.973567  0.365079 0.983333 0
0  2.659140 4.516228 -1.177010  -0.207178 -0.096152 -0.973567  0.396825 1.000000 0
cso_butterflyknife
0  0.530453 0.783398 -0.036938  0.207182 0.096149 0.973566  0.777778 0.466667 0
0  0.933636 0.571415 -0.101803  0.207182 0.096149 0.973566  0.841270 0.516667 0
0  1.180401 2.074978 -0.302807  0.207182 0.096149 0.973566  0.634921 0.633333 0
cso_butterflyknife
0  0.530453 0.783398 -0.036938  0.207182 0.096149 0.973566  0.777778 0.466667 0
0  0.223022 -0.686579 0.173660  0.207182 0.096149 0.973566  0.968254 0.333333 0
0  0.933636 0.571415 -0.101803  0.207182 0.096149 0.973566  0.841270 0.516667 0
cso_butterflyknife
0  0.530453 0.783398 -0.036938  0.207185 0.096148 0.973566  0.777778 0.466667 0
0  0.043095 -0.710541 0.214317  0.207185 0.096148 0.973566  0.968254 0.316667 0
0  0.223022 -0.686579 0.173660  0.207185 0.096148 0.973566  0.968254 0.333333 0
cso_butterflyknife
0  0.530453 0.783398 -0.036938  0.207195 0.096145 0.973564  0.777778 0.466667 0
0  -0.091434 -0.647293 0.236702  0.207195 0.096145 0.973564  0.952381 0.300000 0
0  0.043095 -0.710541 0.214317  0.207195 0.096145 0.973564  0.968254 0.316667 0
cso_butterflyknife
0  0.530453 0.783398 -0.036938  0.207168 0.096157 0.973568  0.777778 0.466667 0
0  -0.184700 -0.483317 0.240353  0.207168 0.096157 0.973568  0.920635 0.283333 0
0  -0.091434 -0.647293 0.236702  0.207168 0.096157 0.973568  0.952381 0.300000 0
cso_butterflyknife
0  0.466225 0.753592 -0.338741  -0.207188 -0.096146 -0.973565  0.777778 0.466667 0
0  -0.155663 -0.677100 -0.065105  -0.207188 -0.096146 -0.973565  0.952381 0.300000 0
0  -0.248928 -0.513123 -0.061451  -0.207188 -0.096146 -0.973565  0.920635 0.283333 0
cso_butterflyknife
0  0.466225 0.753592 -0.338741  -0.207168 -0.096155 -0.973569  0.777778 0.466667 0
0  -0.021130 -0.740348 -0.087486  -0.207168 -0.096155 -0.973569  0.968254 0.316667 0
0  -0.155663 -0.677100 -0.065105  -0.207168 -0.096155 -0.973569  0.952381 0.300000 0
cso_butterflyknife
0  0.466225 0.753592 -0.338741  -0.207190 -0.096147 -0.973565  0.777778 0.466667 0
0  0.158794 -0.716386 -0.128143  -0.207190 -0.096147 -0.973565  0.968254 0.333333 0
0  -0.021130 -0.740348 -0.087486  -0.207190 -0.096147 -0.973565  0.968254 0.316667 0
cso_butterflyknife
0  0.466225 0.753592 -0.338741  -0.207183 -0.096149 -0.973566  0.777778 0.466667 0
0  0.869408 0.541608 -0.403606  -0.207183 -0.096149 -0.973566  0.841270 0.516667 0
0  0.158794 -0.716386 -0.128143  -0.207183 -0.096149 -0.973566  0.968254 0.333333 0
cso_butterflyknife
0  0.466225 0.753592 -0.338741  -0.207183 -0.096150 -0.973566  0.777778 0.466667 0
0  1.116177 2.045171 -0.604614  -0.207183 -0.096150 -0.973566  0.634921 0.633333 0
0  0.869408 0.541608 -0.403606  -0.207183 -0.096150 -0.973566  0.841270 0.516667 0
cso_butterflyknife
0  2.030487 4.952108 -0.767860  0.207176 0.096155 0.973567  0.285714 0.916667 0
0  1.336380 3.640039 -0.490566  0.207176 0.096155 0.973567  0.428571 0.750000 0
0  2.220732 4.824314 -0.795723  0.207176 0.096155 0.973567  0.317460 0.933333 0
cso_butterflyknife
0  2.220732 4.824314 -0.795723  0.207183 0.096149 0.973566  0.317460 0.933333 0
0  1.336380 3.640039 -0.490566  0.207183 0.096149 0.973566  0.428571 0.750000 0
0  1.700773 3.460766 -0.550407  0.207183 0.096149 0.973566  0.476190 0.783333 0
cso_butterflyknife
0  1.336380 3.640039 -0.490566  0.207183 0.096148 0.973566  0.428571 0.750000 0
0  0.755760 2.310076 -0.235661  0.207183 0.096148 0.973566  0.587302 0.583333 0
0  1.700773 3.460766 -0.550407  0.207183 0.096148 0.973566  0.476190 0.783333 0
cso_butterflyknife
0  1.700773 3.460766 -0.550407  0.207184 0.096147 0.973566  0.476190 0.783333 0
0  0.755760 2.310076 -0.235661  0.207184 0.096147 0.973566  0.587302 0.583333 0
0  1.120152 2.130803 -0.295502  0.207184 0.096147 0.973566  0.634921 0.633333 0
cso_butterflyknife
0  0.755760 2.310076 -0.235661  0.207184 0.096149 0.973566  0.587302 0.583333 0
0  0.487534 0.829628 -0.032372  0.207184 0.096149 0.973566  0.777778 0.466667 0
0  1.120152 2.130803 -0.295502  0.207184 0.096149 0.973566  0.634921 0.633333 0
cso_butterflyknife
0  0.423309 0.799821 -0.334175  -0.207184 -0.096149 -0.973566  0.777778 0.466667 0
0  0.691536 2.280269 -0.537464  -0.207184 -0.096149 -0.973566  0.587302 0.583333 0
0  1.055927 2.100996 -0.597305  -0.207184 -0.096149 -0.973566  0.634921 0.633333 0
cso_butterflyknife
0  1.055927 2.100996 -0.597305  -0.207184 -0.096148 -0.973566  0.634921 0.633333 0
0  0.691536 2.280269 -0.537464  -0.207184 -0.096148 -0.973566  0.587302 0.583333 0
0  1.636545 3.430959 -0.852211  -0.207184 -0.096148 -0.973566  0.476190 0.783333 0
cso_butterflyknife
0  0.691536 2.280269 -0.537464  -0.207177 -0.096153 -0.973567  0.587302 0.583333 0
0  1.272156 3.610232 -0.792374  -0.207177 -0.096153 -0.973567  0.428571 0.750000 0
0  1.636545 3.430959 -0.852211  -0.207177 -0.096153 -0.973567  0.476190 0.783333 0
cso_butterflyknife
0  1.636545 3.430959 -0.852211  -0.207178 -0.096154 -0.973567  0.476190 0.783333 0
0  1.272156 3.610232 -0.792374  -0.207178 -0.096154 -0.973567  0.428571 0.750000 0
0  2.156504 4.794507 -1.097530  -0.207178 -0.096154 -0.973567  0.317460 0.933333 0
cso_butterflyknife
0  1.272156 3.610232 -0.792374  -0.207191 -0.096145 -0.973565  0.428571 0.750000 0
0  1.966261 4.922302 -1.069664  -0.207191 -0.096145 -0.973565  0.285714 0.916667 0
0  2.156504 4.794507 -1.097530  -0.207191 -0.096145 -0.973565  0.317460 0.933333 0
cso_butterflyknife
0  -0.324863 0.349011 -0.130436  -0.207187 -0.096146 -0.973566  0.793651 0.333333 0
0  -0.571636 -0.446799 0.000671  -0.207187 -0.096146 -0.973566  0.888889 0.250000 0
0  -0.669441 -0.291544 0.006153  -0.207187 -0.096146 -0.973566  0.857143 0.233333 0
cso_butterflyknife
0  -0.324863 0.349011 -0.130436  -0.207166 -0.096152 -0.973569  0.793651 0.333333 0
0  -0.437103 -0.510047 -0.021709  -0.207166 -0.096152 -0.973569  0.904762 0.250000 0
0  -0.571636 -0.446799 0.000671  -0.207166 -0.096152 -0.973569  0.888889 0.250000 0
cso_butterflyknife
0  -0.324863 0.349011 -0.130436  -0.207175 -0.096151 -0.973567  0.793651 0.333333 0
0  -0.265846 -0.481288 -0.060993  -0.207175 -0.096151 -0.973567  0.920635 0.283333 0
0  -0.437103 -0.510047 -0.021709  -0.207175 -0.096151 -0.973567  0.904762 0.250000 0
cso_butterflyknife
0  -0.324863 0.349011 -0.130436  -0.207182 -0.096151 -0.973566  0.793651 0.333333 0
0  0.423309 0.799821 -0.334175  -0.207182 -0.096151 -0.973566  0.777778 0.466667 0
0  -0.265846 -0.481288 -0.060993  -0.207182 -0.096151 -0.973566  0.920635 0.283333 0
cso_butterflyknife
0  -0.324863 0.349011 -0.130436  -0.207181 -0.096152 -0.973566  0.793651 0.333333 0
0  -0.104912 0.642899 -0.206268  -0.207181 -0.096152 -0.973566  0.761905 0.366667 0
0  0.423309 0.799821 -0.334175  -0.207181 -0.096152 -0.973566  0.777778 0.466667 0
cso_butterflyknife
0  -0.260635 0.378817 0.171368  0.207183 0.096151 0.973566  0.793651 0.333333 0
0  0.487534 0.829628 -0.032372  0.207183 0.096151 0.973566  0.777778 0.466667 0
0  -0.040684 0.672706 0.095535  0.207183 0.096151 0.973566  0.761905 0.366667 0
cso_butterflyknife
0  -0.260635 0.378817 0.171368  0.207183 0.096151 0.973566  0.793651 0.333333 0
0  -0.201622 -0.451481 0.240810  0.207183 0.096151 0.973566  0.920635 0.283333 0
0  0.487534 0.829628 -0.032372  0.207183 0.096151 0.973566  0.777778 0.466667 0
cso_butterflyknife
0  -0.260635 0.378817 0.171368  0.207174 0.096150 0.973568  0.793651 0.333333 0
0  -0.372879 -0.480241 0.280094  0.207174 0.096150 0.973568  0.904762 0.250000 0
0  -0.201622 -0.451481 0.240810  0.207174 0.096150 0.973568  0.920635 0.283333 0
cso_butterflyknife
0  -0.260635 0.378817 0.171368  0.207191 0.096148 0.973564  0.793651 0.333333 0
0  -0.507412 -0.416993 0.302479  0.207191 0.096148 0.973564  0.888889 0.250000 0
0  -0.372879 -0.480241 0.280094  0.207191 0.096148 0.973564  0.904762 0.250000 0
cso_butterflyknife
0  -0.260635 0.378817 0.171368  0.207196 0.096146 0.973563  0.793651 0.333333 0
0  -0.605213 -0.261737 0.307961  0.207196 0.096146 0.973563  0.857143 0.233333 0
0  -0.507412 -0.416993 0.302479  0.207196 0.096146 0.973563  0.888889 0.250000 0
cso_butterflyknife
0  -0.821220 -0.141491 0.126350  -0.207167 -0.096137 -0.973570  0.015873 0.766667 0
0  -0.677197 -0.400974 0.121326  -0.306275 -0.137211 -0.942003  0.079365 0.766667 0
0  -0.826996 -0.216931 0.135029  -0.207167 -0.096137 -0.973570  0.031746 0.750000 0
cso_butterflyknife
0  -0.821220 -0.141491 0.126350  -0.207138 -0.096196 -0.973571  0.015873 0.766667 0
0  -0.285172 -0.757041 0.052525  -0.207138 -0.096196 -0.973571  0.190476 0.833333 0
0  -0.677197 -0.400974 0.121326  -0.306234 -0.137203 -0.942017  0.079365 0.766667 0
cso_butterflyknife
0  -0.821220 -0.141491 0.126350  -0.207191 -0.096215 -0.973558  0.015873 0.766667 0
0  0.018566 0.056384 -0.071907  -0.207191 -0.096215 -0.973558  0.031746 0.966667 0
0  -0.285172 -0.757041 0.052525  -0.207192 -0.096216 -0.973557  0.190476 0.833333 0
cso_butterflyknife
0  -0.821220 -0.141491 0.126350  -0.207200 -0.095207 -0.973655  0.015873 0.766667 0
0  -0.500164 -0.060856 0.050060  -0.207200 -0.095207 -0.973655  0.031746 0.833333 0
0  0.018566 0.056384 -0.071907  -0.207200 -0.095207 -0.973655  0.031746 0.966667 0
cso_butterflyknife
0  -0.821220 -0.141491 0.126350  -0.207192 -0.096148 -0.973564  0.015873 0.766667 0
0  -0.754368 -0.077396 0.105793  -0.207192 -0.096148 -0.973564  0.015873 0.783333 0
0  -0.500164 -0.060856 0.050060  -0.207192 -0.096148 -0.973564  0.031746 0.833333 0
cso_butterflyknife
0  -0.223511 -0.230130 0.203064  0.892085 0.306476 0.332050  0.031746 0.033333 0
0  -0.250694 -0.236131 0.271072  0.668778 0.189794 0.718828  0.047619 0.066667 0
0  -0.305630 -0.409348 0.238239  0.253447 -0.290435 0.922720  0.015873 0.200000 0
cso_butterflyknife
0  -0.305630 -0.409348 0.238239  0.253502 -0.290403 0.922715  0.015873 0.200000 0
0  -0.250694 -0.236131 0.271072  0.668810 0.189771 0.718804  0.047619 0.066667 0
0  -0.478954 -0.313389 0.265648  -0.140823 -0.085203 0.986362  0.158730 0.216667 0
cso_butterflyknife
0  -0.250694 -0.236131 0.271072  0.668771 0.189775 0.718840  0.047619 0.066667 0
0  -0.372021 -0.168960 0.290257  -0.031429 0.554200 0.831790  0.158730 0.083333 0
0  -0.478954 -0.313389 0.265648  -0.140835 -0.085199 0.986360  0.158730 0.216667 0
cso_butterflyknife
0  -0.478954 -0.313389 0.265648  -0.140782 -0.085150 0.986372  0.158730 0.216667 0
0  -0.372021 -0.168960 0.290257  -0.031270 0.554172 0.831815  0.158730 0.083333 0
0  -0.401371 -0.142893 0.232300  -0.154993 0.851406 0.501083  0.190476 0.066667 0
cso_butterflyknife
0  -0.372021 -0.168960 0.290257  -0.031322 0.554171 0.831814  0.158730 0.083333 0
0  -0.223511 -0.230130 0.203064  0.892132 0.306425 0.331969  0.031746 0.033333 0
0  -0.401371 -0.142893 0.232300  -0.155051 0.851396 0.501083  0.190476 0.066667 0
cso_butterflyknife
0  -2.314613 -3.797799 0.856609  0.111718 0.141358 0.983635  0.698413 0.150000 0
0  -2.417366 -4.145340 0.912800  0.147021 0.117797 0.982094  0.777778 0.100000 0
0  -1.941936 -3.973226 0.835712  0.111720 0.141358 0.983634  0.777778 0.216667 0
cso_butterflyknife
0  -1.941936 -3.973226 0.835712  0.111702 0.141376 0.983634  0.777778 0.216667 0
0  -2.417366 -4.145340 0.912800  0.146990 0.117798 0.982099  0.777778 0.100000 0
0  -2.128479 -4.368468 0.893902  0.146990 0.117798 0.982099  0.841270 0.150000 0
cso_butterflyknife
0  -2.417366 -4.145340 0.912800  0.147002 0.117780 0.982099  0.777778 0.100000 0
0  -2.475552 -4.450150 0.955284  0.147003 0.117780 0.982099  0.841270 0.066667 0
0  -2.128479 -4.368468 0.893902  0.147002 0.117780 0.982099  0.841270 0.150000 0
cso_butterflyknife
0  -2.128479 -4.368468 0.893902  0.147020 0.117788 0.982095  0.841270 0.150000 0
0  -2.475552 -4.450150 0.955284  0.147020 0.117788 0.982095  0.841270 0.066667 0
0  -2.502789 -4.738394 0.989548  0.147019 0.117788 0.982095  0.888889 0.033333 0
cso_butterflyknife
0  0.326912 -0.836806 0.043133  0.347965 -0.937326 0.018476  0.317460 0.183333 0
0  0.357376 -0.794008 -0.060020  0.868361 -0.476406 -0.137788  0.317460 0.250000 0
0  0.376022 -0.785355 0.027599  0.868367 -0.476404 -0.137764  0.285714 0.216667 0
cso_butterflyknife
0  0.326912 -0.836806 0.043133  0.348107 -0.937273 0.018468  0.317460 0.183333 0
0  0.308266 -0.845459 -0.044491  0.348112 -0.937270 0.018495  0.349206 0.216667 0
0  0.357376 -0.794008 -0.060020  0.868434 -0.476273 -0.137788  0.317460 0.250000 0
cso_butterflyknife
0  0.326912 -0.836806 0.043133  0.347987 -0.937317 0.018491  0.317460 0.183333 0
0  0.076759 -0.818394 0.002106  -0.061900 -0.991877 0.111121  0.428571 0.150000 0
0  0.308266 -0.845459 -0.044491  0.347995 -0.937314 0.018526  0.349206 0.216667 0
cso_butterflyknife
0  0.326912 -0.836806 0.043133  0.347987 -0.937316 0.018520  0.317460 0.183333 0
0  0.095406 -0.809740 0.089725  -0.061910 -0.991879 0.111103  0.396825 0.116667 0
0  0.076759 -0.818394 0.002106  -0.061910 -0.991879 0.111101  0.428571 0.150000 0
cso_butterflyknife
0  0.018566 0.056384 -0.071907  0.134411 0.982933 -0.125605  0.047619 0.416667 0
0  0.172913 0.006742 -0.089577  0.778551 0.617412 -0.112517  0.015873 0.450000 0
0  0.170841 0.005780 -0.099316  0.436675 0.881434 -0.179969  0.015873 0.450000 0
cso_butterflyknife
0  0.018566 0.056384 -0.071907  0.134219 0.982959 -0.125602  0.047619 0.416667 0
0  0.189487 0.014434 -0.011692  0.808191 0.543948 -0.225717  0.000000 0.433333 0
0  0.172913 0.006742 -0.089577  0.778431 0.617573 -0.112463  0.015873 0.450000 0
cso_butterflyknife
0  0.018566 0.056384 -0.071907  0.134170 0.982966 -0.125606  0.047619 0.416667 0
0  0.037212 0.065038 0.015717  0.134164 0.982962 -0.125639  0.031746 0.400000 0
0  0.189487 0.014434 -0.011692  0.808178 0.543994 -0.225653  0.000000 0.433333 0
cso_butterflyknife
0  0.018566 0.056384 -0.071907  0.134171 0.982963 -0.125625  0.047619 0.416667 0
0  -0.152279 0.049864 -0.034904  -0.174285 0.982865 -0.060004  0.095238 0.383333 0
0  0.037212 0.065038 0.015717  0.134177 0.982966 -0.125599  0.031746 0.400000 0
cso_butterflyknife
0  -2.469357 -5.060223 1.014217  0.285016 0.010220 0.958468  0.968254 0.016667 0
0  -2.000561 -4.441398 0.863609  0.285016 0.010221 0.958468  0.873016 0.166667 0
0  -2.128479 -4.368468 0.893902  0.285014 0.010218 0.958469  0.841270 0.150000 0
cso_butterflyknife
0  -2.128479 -4.368468 0.893902  0.285060 0.010197 0.958455  0.841270 0.150000 0
0  -2.000561 -4.441398 0.863609  0.285061 0.010199 0.958455  0.873016 0.166667 0
0  -1.941936 -3.973226 0.835712  0.285060 0.010196 0.958456  0.777778 0.216667 0
cso_butterflyknife
0  -2.000561 -4.441398 0.863609  0.284968 0.010193 0.958483  0.873016 0.166667 0
0  -1.731499 -4.096059 0.772247  0.284968 0.010193 0.958483  0.809524 0.266667 0
0  -1.941936 -3.973226 0.835712  0.284969 0.010192 0.958483  0.777778 0.216667 0
cso_butterflyknife
0  -1.941936 -3.973226 0.835712  0.284960 0.010182 0.958485  0.777778 0.216667 0
0  -1.731499 -4.096059 0.772247  0.284963 0.010180 0.958485  0.809524 0.266667 0
0  -0.948219 -2.070130 0.456837  0.284960 0.010182 0.958485  0.428571 0.583333 0
cso_butterflyknife
0  -2.469357 -5.060223 1.014217  -0.127897 -0.180085 -0.975301  0.968254 0.016667 0
0  -2.138840 -4.373275 0.845222  -0.127771 -0.179843 -0.975362  0.841270 0.150000 0
0  -2.006775 -4.444283 0.834404  -0.127897 -0.180085 -0.975301  0.873016 0.166667 0
cso_butterflyknife
0  -2.006775 -4.444283 0.834404  -0.127909 -0.180085 -0.975299  0.873016 0.166667 0
0  -2.138840 -4.373275 0.845222  -0.127912 -0.180087 -0.975298  0.841270 0.150000 0
0  -1.737713 -4.098943 0.743042  -0.127909 -0.180085 -0.975299  0.809524 0.266667 0
cso_butterflyknife
0  -2.138840 -4.373275 0.845222  -0.127874 -0.180123 -0.975297  0.841270 0.150000 0
0  -1.960583 -3.981880 0.748093  -0.127874 -0.180123 -0.975297  0.777778 0.216667 0
0  -1.737713 -4.098943 0.743042  -0.127874 -0.180123 -0.975297  0.809524 0.266667 0
cso_butterflyknife
0  -1.737713 -4.098943 0.743042  -0.127873 -0.180090 -0.975303  0.809524 0.266667 0
0  -1.960583 -3.981880 0.748093  -0.127873 -0.180090 -0.975303  0.777778 0.216667 0
0  -0.786526 -2.268500 0.349571  -0.127872 -0.180091 -0.975303  0.476190 0.616667 0
cso_butterflyknife
0  2.659140 4.516228 -1.177010  0.548507 0.812612 -0.196981  0.126984 0.666667 0
0  2.473438 4.652743 -1.150974  0.323793 0.932331 -0.160991  0.095238 0.683333 0
0  2.723368 4.546034 -0.875206  0.548503 0.812611 -0.196999  0.095238 0.633333 0
cso_butterflyknife
0  2.723368 4.546034 -0.875206  0.548535 0.812585 -0.197014  0.095238 0.633333 0
0  2.473438 4.652743 -1.150974  0.323828 0.932315 -0.161012  0.095238 0.683333 0
0  2.537664 4.682550 -0.849167  0.323814 0.932308 -0.161082  0.079365 0.666667 0
cso_butterflyknife
0  2.473438 4.652743 -1.150974  0.323833 0.932319 -0.160974  0.095238 0.683333 0
0  2.237389 4.671088 -1.102554  0.077797 0.990385 -0.114393  0.079365 0.716667 0
0  2.537664 4.682550 -0.849167  0.323824 0.932314 -0.161021  0.079365 0.666667 0
cso_butterflyknife
0  2.537664 4.682550 -0.849167  0.323820 0.932317 -0.161015  0.079365 0.666667 0
0  2.237389 4.671088 -1.102554  0.077791 0.990384 -0.114400  0.079365 0.716667 0
0  2.301615 4.700894 -0.800747  0.077798 0.990388 -0.114367  0.047619 0.683333 0
cso_butterflyknife
0  2.156504 4.794507 -1.097530  0.548488 0.812620 -0.197002  0.079365 0.716667 0
0  1.966261 4.922302 -1.069664  0.259429 0.954136 -0.149400  0.095238 0.683333 0
0  2.220732 4.824314 -0.795723  0.548489 0.812620 -0.196998  0.047619 0.683333 0
cso_butterflyknife
0  2.220732 4.824314 -0.795723  0.548485 0.812624 -0.196996  0.047619 0.683333 0
0  1.966261 4.922302 -1.069664  0.259381 0.954153 -0.149377  0.095238 0.683333 0
0  2.030487 4.952108 -0.767860  0.259367 0.954147 -0.149441  0.079365 0.666667 0
cso_butterflyknife
0  1.966261 4.922302 -1.069664  0.259427 0.954133 -0.149424  0.095238 0.683333 0
0  1.707930 4.919281 -1.014393  -0.040568 0.995150 -0.089615  0.126984 0.666667 0
0  2.030487 4.952108 -0.767860  0.259429 0.954135 -0.149408  0.079365 0.666667 0
cso_butterflyknife
0  2.030487 4.952108 -0.767860  0.259437 0.954137 -0.149385  0.079365 0.666667 0
0  1.707930 4.919281 -1.014393  -0.040563 0.995151 -0.089608  0.126984 0.666667 0
0  1.772156 4.949088 -0.712585  -0.040564 0.995151 -0.089609  0.095238 0.633333 0
cso_butterflyknife
0  -0.793114 -0.831792 0.239899  -0.943477 -0.243548 0.224800  0.412698 0.033333 0
0  -0.826111 -0.708199 0.255257  -0.971718 0.135502 0.193397  0.380952 0.050000 0
0  -0.836468 -0.713007 0.206581  -0.971710 0.135506 0.193435  0.396825 0.050000 0
cso_butterflyknife
0  -0.836468 -0.713007 0.206581  -0.971710 0.135574 0.193388  0.396825 0.050000 0
0  -0.826111 -0.708199 0.255257  -0.971714 0.135572 0.193368  0.380952 0.050000 0
0  -0.785728 -0.588038 0.162895  -0.645093 0.761581 0.062051  0.365079 0.100000 0
cso_butterflyknife
0  -0.826111 -0.708199 0.255257  -0.971700 0.135591 0.193426  0.380952 0.050000 0
0  -0.767082 -0.579384 0.250519  -0.645114 0.761560 0.062079  0.349206 0.083333 0
0  -0.785728 -0.588038 0.162895  -0.645104 0.761565 0.062127  0.365079 0.100000 0
cso_butterflyknife
0  -0.808350 -0.208278 0.222649  -0.943496 -0.243466 0.224810  0.238095 0.183333 0
0  -0.802574 -0.132837 0.213970  -0.880231 0.452618 0.142587  0.222222 0.200000 0
0  -0.826996 -0.216931 0.135029  -0.943497 -0.243467 0.224804  0.269841 0.200000 0
cso_butterflyknife
0  -0.826996 -0.216931 0.135029  -0.943510 -0.243422 0.224800  0.269841 0.200000 0
0  -0.802574 -0.132837 0.213970  -0.880232 0.452616 0.142582  0.222222 0.200000 0
0  -0.821220 -0.141491 0.126350  -0.880221 0.452621 0.142635  0.253968 0.216667 0
cso_butterflyknife
0  -0.802574 -0.132837 0.213970  -0.880262 0.452549 0.142614  0.222222 0.200000 0
0  -0.735722 -0.068742 0.193413  -0.405792 0.913957 -0.003928  0.206349 0.216667 0
0  -0.821220 -0.141491 0.126350  -0.880270 0.452545 0.142577  0.253968 0.216667 0
cso_butterflyknife
0  -2.469357 -5.060223 1.014217  0.768653 -0.631610 -0.101201  0.968254 0.016667 0
0  -2.006775 -4.444283 0.834404  0.768652 -0.631610 -0.101204  0.873016 0.183333 0
0  -2.000561 -4.441398 0.863609  0.768610 -0.631629 -0.101409  0.873016 0.166667 0
cso_butterflyknife
0  -2.000561 -4.441398 0.863609  0.768632 -0.631646 -0.101140  0.873016 0.166667 0
0  -2.006775 -4.444283 0.834404  0.768632 -0.631646 -0.101139  0.873016 0.183333 0
0  -1.731499 -4.096059 0.772247  0.768634 -0.631645 -0.101130  0.809524 0.266667 0
cso_butterflyknife
0  -2.006775 -4.444283 0.834404  0.768623 -0.631646 -0.101204  0.873016 0.183333 0
0  -1.737713 -4.098943 0.743042  0.768623 -0.631646 -0.101204  0.825397 0.266667 0
0  -1.731499 -4.096059 0.772247  0.768623 -0.631646 -0.101204  0.809524 0.266667 0
cso_butterflyknife
0  -0.737022 -2.210251 0.312744  -0.142651 -0.131611 -0.980984  0.476190 0.633333 0
0  -0.975151 -2.082630 0.330273  -0.142651 -0.131611 -0.980984  0.428571 0.583333 0
0  -0.055710 -0.879864 0.036366  -0.142651 -0.131611 -0.980984  0.238095 0.883333 0
cso_butterflyknife
0  -0.055710 -0.879864 0.036366  -0.142508 -0.131174 -0.981063  0.238095 0.883333 0
0  -0.975151 -2.082630 0.330273  -0.142508 -0.131174 -0.981063  0.428571 0.583333 0
0  -0.285172 -0.757041 0.052525  -0.142508 -0.131174 -0.981063  0.190476 0.833333 0
cso_butterflyknife
0  -0.037064 -0.871211 0.123985  0.868388 -0.476355 -0.137800  0.238095 0.883333 0
0  -0.718376 -2.201597 0.400364  0.868388 -0.476355 -0.137800  0.476190 0.633333 0
0  -0.055710 -0.879864 0.036366  0.868388 -0.476355 -0.137800  0.253968 0.883333 0
cso_butterflyknife
0  -0.055710 -0.879864 0.036366  0.868385 -0.476356 -0.137817  0.253968 0.883333 0
0  -0.718376 -2.201597 0.400364  0.868384 -0.476356 -0.137817  0.476190 0.633333 0
0  -0.737022 -2.210251 0.312744  0.868385 -0.476356 -0.137817  0.492063 0.633333 0
cso_butterflyknife
0  -0.975151 -2.082630 0.330273  -0.307305 -0.057677 -0.949862  0.428571 0.583333 0
0  -1.960583 -3.981880 0.748093  -0.300802 -0.095498 -0.948893  0.777778 0.216667 0
0  -2.044319 -3.149822 0.735096  -0.307306 -0.057677 -0.949861  0.587302 0.266667 0
cso_butterflyknife
0  -2.044319 -3.149822 0.735096  -0.307208 -0.057656 -0.949894  0.587302 0.266667 0
0  -1.960583 -3.981880 0.748093  -0.300756 -0.095511 -0.948906  0.777778 0.216667 0
0  -2.190403 -3.473373 0.798138  -0.307254 -0.057660 -0.949879  0.650794 0.200000 0
cso_butterflyknife
0  0.037212 0.065038 0.015717  0.207173 0.096098 0.973573  0.031746 0.966667 0
0  -0.133633 0.058518 0.052715  0.207173 0.096098 0.973573  0.031746 0.916667 0
0  0.189487 0.014434 -0.011692  0.190920 0.133965 0.972421  0.063492 1.000000 0
cso_butterflyknife
0  0.189487 0.014434 -0.011692  0.190907 0.134024 0.972416  0.063492 1.000000 0
0  -0.133633 0.058518 0.052715  0.207180 0.096165 0.973565  0.031746 0.916667 0
0  -0.481518 -0.052203 0.137684  0.207180 0.096165 0.973565  0.031746 0.833333 0
cso_butterflyknife
0  0.095406 -0.809740 0.089725  0.409550 -0.912283 0.002947  0.396825 0.116667 0
0  -0.037064 -0.871211 0.123985  0.409539 -0.912288 0.002895  0.460317 0.033333 0
0  0.076759 -0.818394 0.002106  0.409539 -0.912288 0.002896  0.428571 0.150000 0
cso_butterflyknife
0  0.076759 -0.818394 0.002106  0.409489 -0.912311 0.002892  0.428571 0.150000 0
0  -0.037064 -0.871211 0.123985  0.409488 -0.912311 0.002892  0.460317 0.033333 0
0  -0.055710 -0.879864 0.036366  0.409489 -0.912311 0.002892  0.492063 0.066667 0
cso_butterflyknife
0  -1.731499 -4.096059 0.772247  0.868368 -0.476405 -0.137753  0.809524 0.266667 0
0  -1.737713 -4.098943 0.743042  0.868368 -0.476405 -0.137753  0.825397 0.266667 0
0  -0.776165 -2.263692 0.398251  0.868368 -0.476405 -0.137753  0.476190 0.616667 0
cso_butterflyknife
0  -0.776165 -2.263692 0.398251  0.868315 -0.476492 -0.137783  0.476190 0.616667 0
0  -1.737713 -4.098943 0.743042  0.868319 -0.476490 -0.137766  0.825397 0.266667 0
0  -0.786526 -2.268500 0.349571  0.868315 -0.476492 -0.137783  0.492063 0.616667 0
cso_butterflyknife
0  -0.776165 -2.263692 0.398251  0.712026 -0.697268 -0.082689  0.476190 0.616667 0
0  -0.786526 -2.268500 0.349571  0.712025 -0.697268 -0.082691  0.492063 0.616667 0
0  -0.718376 -2.201597 0.400364  0.712026 -0.697268 -0.082689  0.476190 0.633333 0
cso_butterflyknife
0  -0.718376 -2.201597 0.400364  0.711978 -0.697315 -0.082699  0.476190 0.633333 0
0  -0.786526 -2.268500 0.349571  0.711978 -0.697315 -0.082701  0.492063 0.616667 0
0  -0.737022 -2.210251 0.312744  0.711978 -0.697315 -0.082699  0.492063 0.633333 0
cso_butterflyknife
0  0.691536 2.280269 -0.537464  -0.207185 -0.096148 -0.973566  0.587302 0.583333 0
0  0.423309 0.799821 -0.334175  -0.207185 -0.096148 -0.973566  0.777778 0.466667 0
0  0.115452 1.194945 -0.307682  -0.207185 -0.096148 -0.973566  0.698413 0.433333 0
cso_butterflyknife
0  0.115452 1.194945 -0.307682  -0.207182 -0.096147 -0.973566  0.698413 0.433333 0
0  0.423309 0.799821 -0.334175  -0.207182 -0.096147 -0.973566  0.777778 0.466667 0
0  -0.104912 0.642899 -0.206268  -0.207182 -0.096147 -0.973566  0.761905 0.366667 0
cso_butterflyknife
0  0.755760 2.310076 -0.235661  0.207184 0.096148 0.973566  0.587302 0.583333 0
0  0.179676 1.224752 -0.005878  0.207184 0.096148 0.973566  0.698413 0.433333 0
0  0.487534 0.829628 -0.032372  0.207184 0.096148 0.973566  0.777778 0.466667 0
cso_butterflyknife
0  0.487534 0.829628 -0.032372  0.207184 0.096148 0.973566  0.777778 0.466667 0
0  0.179676 1.224752 -0.005878  0.207184 0.096148 0.973566  0.698413 0.433333 0
0  -0.040684 0.672706 0.095535  0.207184 0.096148 0.973566  0.761905 0.366667 0
cso_butterflyknife
0  0.018566 0.056384 -0.071907  -0.207168 -0.096181 -0.973566  0.031746 0.966667 0
0  0.170841 0.005780 -0.099316  -0.207169 -0.096181 -0.973566  0.063492 1.000000 0
0  -0.285172 -0.757041 0.052525  -0.207167 -0.096182 -0.973566  0.190476 0.833333 0
cso_butterflyknife
0  -0.285172 -0.757041 0.052525  -0.207901 -0.096264 -0.973401  0.190476 0.833333 0
0  0.170841 0.005780 -0.099316  -0.207901 -0.096264 -0.973401  0.063492 1.000000 0
0  0.179508 0.000982 -0.100685  -0.207901 -0.096264 -0.973401  0.063492 1.000000 0
cso_butterflyknife
0  -0.018360 -0.454634 0.243210  -0.465970 0.388197 0.795095  0.174603 0.133333 0
0  0.027447 -0.581102 0.245949  -0.153391 -0.549626 0.821208  0.095238 0.200000 0
0  0.118233 -0.406683 0.209404  0.449569 0.687111 0.570759  0.111111 0.050000 0
cso_butterflyknife
0  0.118233 -0.406683 0.209404  0.449666 0.687123 0.570668  0.111111 0.050000 0
0  0.027447 -0.581102 0.245949  -0.153423 -0.549564 0.821243  0.095238 0.200000 0
0  0.159500 -0.541871 0.213974  0.762118 -0.250816 0.596882  0.015873 0.116667 0
cso_butterflyknife
0  -2.138840 -4.373275 0.845222  -0.300824 -0.095492 -0.948887  0.841270 0.150000 0
0  -2.469357 -5.060223 1.014217  -0.300825 -0.095495 -0.948886  0.968254 0.016667 0
0  -2.502789 -4.738394 0.989548  -0.300825 -0.095493 -0.948887  0.888889 0.033333 0
cso_butterflyknife
0  -0.653671 -0.548807 0.130920  -0.226381 -0.039337 -0.973244  0.111111 0.766667 0
0  -0.285172 -0.757041 0.052525  -0.300779 -0.095526 -0.948898  0.190476 0.833333 0
0  -0.785728 -0.588038 0.162895  -0.266149 -0.173608 -0.948169  0.111111 0.733333 0
cso_butterflyknife
0  0.172913 0.006742 -0.089577  0.778342 0.617673 -0.112534  0.015873 0.450000 0
0  0.179508 0.000982 -0.100685  0.944670 0.308831 0.110558  0.015873 0.450000 0
0  0.170841 0.005780 -0.099316  0.436405 0.881561 -0.180001  0.015873 0.450000 0
cso_butterflyknife
0  -0.826996 -0.216931 0.135029  -0.943503 -0.243467 0.224780  0.269841 0.200000 0
0  -0.658550 -0.392321 0.208946  -0.895518 -0.382005 0.228299  0.285714 0.133333 0
0  -0.808350 -0.208278 0.222649  -0.943497 -0.243464 0.224807  0.238095 0.183333 0
cso_butterflyknife
0  0.076759 -0.818394 0.002106  -0.207190 -0.096092 -0.973570  0.238095 0.916667 0
0  0.357376 -0.794008 -0.060020  -0.207190 -0.096092 -0.973570  0.238095 0.983333 0
0  0.308266 -0.845459 -0.044491  -0.207190 -0.096092 -0.973570  0.253968 0.966667 0
cso_butterflyknife
0  -0.658550 -0.392321 0.208946  0.206341 0.096493 0.973711  0.079365 0.766667 0
0  -0.802574 -0.132837 0.213970  0.206341 0.096493 0.973711  0.015873 0.766667 0
0  -0.808350 -0.208278 0.222649  0.206341 0.096493 0.973711  0.031746 0.750000 0
cso_butterflyknife
0  0.179508 0.000982 -0.100685  0.944709 0.308702 0.110583  0.047619 0.533333 0
0  0.172913 0.006742 -0.089577  0.778398 0.617607 -0.112514  0.047619 0.533333 0
0  0.157639 -0.234061 -0.072819  0.968999 0.116748 -0.217741  0.126984 0.450000 0
cso_butterflyknife
0  0.380898 -0.705924 -0.073727  0.969003 0.116809 -0.217688  0.285714 0.283333 0
0  0.376022 -0.785355 0.027599  0.868368 -0.476389 -0.137807  0.285714 0.216667 0
0  0.357376 -0.794008 -0.060020  0.868356 -0.476395 -0.137861  0.317460 0.250000 0
cso_butterflyknife
0  -0.786526 -2.268500 0.349571  -0.097221 -0.162591 -0.981892  0.476190 0.616667 0
0  -1.960583 -3.981880 0.748093  -0.097220 -0.162589 -0.981893  0.777778 0.216667 0
0  -0.975151 -2.082630 0.330273  -0.097222 -0.162593 -0.981892  0.428571 0.583333 0
cso_butterflyknife
0  -0.948219 -2.070130 0.456837  0.315310 0.029714 0.948523  0.428571 0.583333 0
0  -1.731499 -4.096059 0.772247  0.315309 0.029713 0.948524  0.809524 0.266667 0
0  -0.776165 -2.263692 0.398251  0.315310 0.029714 0.948524  0.476190 0.616667 0
cso_butterflyknife
0  -0.737022 -2.210251 0.312744  -0.228617 -0.297697 -0.926882  0.476190 0.633333 0
0  -0.786526 -2.268500 0.349571  -0.228615 -0.297698 -0.926882  0.476190 0.616667 0
0  -0.975151 -2.082630 0.330273  -0.228619 -0.297696 -0.926882  0.428571 0.583333 0
cso_butterflyknife
0  -0.948219 -2.070130 0.456837  0.176902 -0.109566 0.978111  0.428571 0.583333 0
0  -0.776165 -2.263692 0.398251  0.176899 -0.109565 0.978112  0.476190 0.616667 0
0  -0.718376 -2.201597 0.400364  0.176896 -0.109563 0.978112  0.476190 0.633333 0
cso_butterflyknife
0  -2.128479 -4.368468 0.893902  0.146937 0.117803 0.982106  0.841270 0.150000 0
0  -2.502789 -4.738394 0.989548  0.146937 0.117803 0.982106  0.888889 0.033333 0
0  -2.469357 -5.060223 1.014217  0.146938 0.117803 0.982106  0.968254 0.016667 0
cso_butterflyknife
0  1.718668 3.374259 -0.864090  -0.207178 -0.096153 -0.973567  0.492063 0.800000 0
0  2.237389 4.671088 -1.102554  -0.207178 -0.096153 -0.973567  0.349206 0.950000 0
0  2.473438 4.652743 -1.150974  -0.207178 -0.096153 -0.973567  0.365079 0.983333 0
cso_butterflyknife
0  2.537664 4.682550 -0.849167  0.207177 0.096154 0.973567  0.365079 0.983333 0
0  2.301615 4.700894 -0.800747  0.207177 0.096154 0.973567  0.349206 0.950000 0
0  1.782894 3.404066 -0.562283  0.207177 0.096154 0.973567  0.492063 0.800000 0
cso_butterflyknife
0  1.272156 3.610232 -0.792374  -0.207175 -0.096153 -0.973567  0.428571 0.750000 0
0  1.707930 4.919281 -1.014393  -0.207175 -0.096153 -0.973567  0.285714 0.883333 0
0  1.966261 4.922302 -1.069664  -0.207175 -0.096153 -0.973567  0.285714 0.916667 0
cso_butterflyknife
0  2.030487 4.952108 -0.767860  0.207189 0.096148 0.973565  0.285714 0.916667 0
0  1.772156 4.949088 -0.712585  0.207189 0.096148 0.973565  0.285714 0.883333 0
0  1.336380 3.640039 -0.490566  0.207189 0.096148 0.973565  0.428571 0.750000 0
cso_butterflyknife
0  0.376022 -0.785355 0.027599  0.207182 0.096169 0.973564  0.238095 0.983333 0
0  0.095406 -0.809740 0.089725  0.227813 -0.058814 0.971927  0.238095 0.916667 0
0  0.326912 -0.836806 0.043133  0.207182 0.096169 0.973564  0.253968 0.966667 0
cso_butterflyknife
0  0.272438 -0.469622 0.018459  0.206154 0.096457 0.973754  0.174603 0.983333 0
0  0.376022 -0.785355 0.027599  0.206154 0.096457 0.973754  0.238095 0.983333 0
0  0.399544 -0.697270 0.013893  0.206154 0.096458 0.973754  0.222222 0.983333 0
cso_butterflyknife
0  -0.677197 -0.400974 0.121326  -0.306264 -0.137211 -0.942006  0.079365 0.766667 0
0  -0.285172 -0.757041 0.052525  -0.207239 -0.096205 -0.973548  0.190476 0.833333 0
0  -0.653671 -0.548807 0.130920  -0.260860 -0.104837 -0.959667  0.111111 0.766667 0
cso_butterflyknife
0  0.018566 0.056384 -0.071907  -0.207204 -0.097046 -0.973472  0.031746 0.966667 0
0  -0.500164 -0.060856 0.050060  -0.207204 -0.097046 -0.973472  0.031746 0.833333 0
0  -0.152279 0.049864 -0.034904  -0.207204 -0.097046 -0.973472  0.031746 0.916667 0
cso_butterflyknife
0  -0.250694 -0.236131 0.271072  0.668825 0.189811 0.718781  0.047619 0.066667 0
0  -0.223511 -0.230130 0.203064  0.892105 0.306488 0.331985  0.031746 0.033333 0
0  -0.372021 -0.168960 0.290257  -0.031422 0.554206 0.831786  0.158730 0.083333 0
end
