version 1
nodes
  0 "root_y23s1sfsmg" -1
  1 "Bone_a3" 0
  2 "Bone_a4" 0
  3 "Bone_b2" 0
  4 "Bone_b3" 0
  5 "Bone_b4" 0
  6 "Bone_a2" 0
  7 "Bone_b1" 0
  8 "Bone_a1" 0
  9 "Bone_trigger" 0
  10 "Bone_megazine" 0
  11 "Bone_wa1" 0
  12 "Bone_wa2" 11
  13 "Bone_wb1" 0
  14 "Bone_wb2" 13
  15 "Bone_r" 0
  16 "Bone_raser_h" 0
  17 "Bone_tb" 0
  18 "Bone_ta" 0
  19 "root" -1
  20 "Bone01" 19
  21 "Bone_L_Upper" 20
  22 "Bone_Lefthand" 20
  23 "Bone13" 22
  24 "Bone14" 23
  25 "Bone15" 24
  26 "Bone17" 22
  27 "Bone18" 26
  28 "Bone19" 27
  29 "Bone21" 22
  30 "Bone22" 29
  31 "Bone23" 30
  32 "Bone09" 22
  33 "Bone10" 32
  34 "Bone11" 33
  35 "Bone05" 22
  36 "Bone06" 35
  37 "Bone07" 36
  38 "Bone_Se_Hand-L" 22
  39 "Bone04" 19
  40 "Bone_Righthand" 39
  41 "Bone39" 40
  42 "Bone40" 41
  43 "Bone41" 42
  44 "Bone35" 40
  45 "Bone36" 44
  46 "Bone37" 45
  47 "Bone31" 40
  48 "Bone32" 47
  49 "Bone33" 48
  50 "Bone43" 40
  51 "Bone44" 50
  52 "Bone45" 51
  53 "Bone27" 40
  54 "Bone28" 53
  55 "Bone29" 54
  56 "Bone_Se_Hand-R" 40
  57 "Bone_R_Upper" 39
end
skeleton
  time 0
    0 0.005053 -7.511914 -5.711179 -0.231816 -1.489552 -4.492968
    1 2.567376 -0.598482 -0.149315 0.000000 0.000000 -1.047199
    2 2.567376 -0.598482 0.643831 0.000000 0.000000 -1.047199
    3 2.567376 0.712990 -0.942461 0.000000 0.000000 1.047196
    4 2.567376 0.712990 -0.149315 0.000000 0.000000 1.047196
    5 2.567376 0.712990 0.643831 0.000000 0.000000 1.047196
    6 2.567376 -0.598482 -0.942461 0.000000 0.000000 -1.047199
    7 2.567376 0.712989 -1.732171 0.000000 0.000000 1.047196
    8 2.567376 -0.598482 -1.732171 0.000000 0.000000 -1.047199
    9 0.653969 -0.004337 1.861727 -1.570796 -3.137038 0.000000
    10 0.637047 -0.005665 -8.009020 -1.570796 -2.855082 0.000000
    11 2.761088 -0.640694 5.497070 0.000000 0.000000 -0.785400
    12 1.330222 0.000004 0.000000 0.000000 0.000000 0.523599
    13 2.761092 0.632874 5.497070 0.000000 0.000000 0.785394
    14 1.330217 0.000004 0.000000 0.000000 0.000000 -0.523596
    15 2.093581 -0.601854 0.039718 1.570796 3.141592 1.570796
    16 3.740130 -0.003742 2.325377 -3.141592 -1.570796 0.000000
    17 3.363113 1.065599 -0.727189 0.000001 0.000000 -0.000001
    18 3.363113 -1.073231 -0.727189 0.000001 0.000000 -0.000001
    19 -0.002752 5.034045 -2.003348 0.000000 0.000000 0.312869
    20 4.247449 -3.487059 -5.510869 6.203151 -1.386418 -0.740082
    21 8.007386 1.805341 -0.360751 1.567811 -3.118887 0.299739
    22 -0.146142 -8.553426 -0.201793 0.324109 -0.255157 0.182897
    23 -0.488518 -2.755602 -0.228260 -0.109580 0.016121 -0.337980
    24 0.039887 -1.538386 0.018135 -1.675126 -0.009851 0.037585
    25 0.028786 -1.235892 -0.128581 -1.581930 -0.012356 0.036134
    26 0.250027 -2.820665 -0.238396 -0.067366 -0.061190 -0.288152
    27 -0.049759 -1.598510 0.034071 -1.510173 0.001210 -0.040750
    28 -0.034142 -1.187376 0.041812 -1.500892 0.001738 -0.039226
    29 0.957766 -2.746780 -0.090302 0.027242 -0.082328 0.063143
    30 -0.033420 -1.393223 -0.019070 -0.517087 0.008329 -0.025169
    31 -0.022360 -0.961342 -0.004654 -0.897607 0.005297 -0.043696
    32 -1.180681 -2.507217 -0.193859 0.075183 -0.001303 -0.232435
    33 -0.024967 -1.123934 0.017597 -0.592079 0.007526 -0.024711
    34 -0.020057 -0.906594 0.029622 -0.984442 0.005633 -0.040268
    35 0.603042 -1.193371 0.177566 0.490262 -0.748763 -0.632062
    36 1.500770 -0.181166 0.059698 0.028388 -0.182980 -0.629592
    37 0.979674 -0.194698 0.047917 0.117326 -0.264383 -1.172447
    38 0.120153 -0.050270 -0.054489 0.287569 3.110905 1.561085
    39 -6.407675 -7.918842 -6.360852 0.745316 -4.345722 0.689208
    40 -0.207753 -8.360572 -0.044522 1.427479 -2.063001 -1.455520
    41 0.447953 -2.798986 -0.200443 -1.198499 -0.012901 0.146483
    42 -0.032909 -1.499736 0.020565 -1.169246 0.022279 -0.020264
    43 -0.027022 -1.073014 -0.016304 0.139040 -0.003883 0.000216
    44 -0.249534 -2.846964 -0.174213 -0.706889 0.005532 0.015513
    45 0.043235 -1.656596 0.068667 -1.456795 -0.022476 0.008114
    46 0.031729 -1.160830 0.058838 0.057371 0.001553 0.009235
    47 -0.963866 -2.785145 -0.085350 -0.517058 0.108333 -0.060301
    48 0.028479 -1.403067 -0.013261 -0.735119 -0.016503 -0.028691
    49 0.021413 -0.946062 0.016140 -0.693972 -0.015113 -0.026989
    50 1.164475 -2.543940 -0.170330 -1.409131 -0.127124 0.527280
    51 0.024032 -1.136855 -0.001725 -0.833781 0.005681 0.044248
    52 0.014898 -0.883989 -0.019848 0.054434 0.002253 -0.006064
    53 -0.586770 -1.264477 0.200161 0.017814 -0.477271 -2.824056
    54 1.538460 0.043056 0.016848 -0.006044 -0.000782 0.388543
    55 1.117947 0.048424 -0.005766 -0.007266 -0.030615 0.342362
    56 -0.139399 -0.111698 0.014397 0.802675 0.019732 1.231984
    57 -6.983484 5.092969 -0.407407 1.577545 -0.026562 -0.725189
  time 1
    0 0.059742 -7.465038 -5.812744 -0.461545 -1.493082 -4.290038
    1 2.567376 -0.598482 -0.149315 0.000000 0.000000 -1.047199
    2 2.567376 -0.598482 0.643831 0.000000 0.000000 -1.047199
    3 2.567376 0.712990 -0.942461 0.000000 0.000000 1.047196
    4 2.567376 0.712990 -0.149315 0.000000 0.000000 1.047196
    5 2.567376 0.712990 0.643831 0.000000 0.000000 1.047196
    6 2.567376 -0.598482 -0.942461 0.000000 0.000000 -1.047199
    7 2.567376 0.712989 -1.732171 0.000000 0.000000 1.047196
    8 2.567376 -0.598482 -1.732171 0.000000 0.000000 -1.047199
    9 0.653969 -0.004337 1.861727 -1.570796 -3.137038 0.000000
    10 0.637047 -0.005665 -8.009020 -1.570796 -2.855082 0.000000
    11 2.761088 -0.640694 5.497070 0.000000 0.000000 -0.785400
    12 1.330222 0.000004 0.000000 0.000000 0.000000 0.523599
    13 2.761092 0.632874 5.497070 0.000000 0.000000 0.785394
    14 1.330217 0.000004 0.000000 0.000000 0.000000 -0.523596
    15 2.093581 -0.601854 0.039718 1.570796 3.141592 1.570796
    16 3.435433 -0.003742 2.501164 -3.141592 -1.570796 0.000000
    17 3.363113 1.065599 -0.727189 0.000001 0.000000 -0.000001
    18 3.363113 -1.073231 -0.727189 0.000001 0.000000 -0.000001
    19 -0.002752 5.034045 -2.003348 0.000000 0.000000 0.312869
    20 4.345108 -3.447995 -5.530400 6.224358 -1.392388 -0.750953
    21 8.023011 1.680337 -0.360751 1.567907 -3.118601 0.284427
    22 -0.150048 -8.545613 -0.201793 0.289405 -0.252777 0.173753
    23 -0.488518 -2.755602 -0.228260 -0.109580 0.016121 -0.337980
    24 0.039887 -1.538386 0.018135 -1.675126 -0.009851 0.037585
    25 0.028786 -1.235892 -0.128581 -1.581930 -0.012356 0.036134
    26 0.250027 -2.820665 -0.238396 -0.067366 -0.061190 -0.288152
    27 -0.049759 -1.598510 0.034071 -1.510173 0.001210 -0.040750
    28 -0.034142 -1.187376 0.041812 -1.500892 0.001738 -0.039226
    29 0.957766 -2.746780 -0.090302 0.027242 -0.082328 0.063143
    30 -0.033420 -1.393223 -0.019070 -0.517087 0.008329 -0.025169
    31 -0.022360 -0.961342 -0.004654 -0.897607 0.005297 -0.043696
    32 -1.180681 -2.507217 -0.193859 0.075183 -0.001303 -0.232435
    33 -0.024967 -1.123934 0.017597 -0.592079 0.007526 -0.024711
    34 -0.020057 -0.906594 0.029622 -0.984442 0.005633 -0.040268
    35 0.603042 -1.193371 0.177566 0.490262 -0.748763 -0.632062
    36 1.500770 -0.181166 0.059698 0.028388 -0.182980 -0.629592
    37 0.979674 -0.194698 0.047917 0.117326 -0.264383 -1.172447
    38 0.120153 -0.050270 -0.054489 0.287569 3.110905 1.561085
    39 -6.427207 -7.797744 -6.478043 0.731629 -4.350448 0.674676
    40 -0.211659 -8.364478 -0.040616 1.395386 -2.037071 -1.422031
    41 0.447953 -2.798986 -0.200443 -1.198499 -0.012901 0.146483
    42 -0.032909 -1.499736 0.020565 -1.169246 0.022279 -0.020264
    43 -0.027022 -1.073014 -0.016304 0.139040 -0.003883 0.000216
    44 -0.249534 -2.846964 -0.174213 -0.706889 0.005532 0.015513
    45 0.043235 -1.656596 0.068667 -1.456795 -0.022476 0.008114
    46 0.031729 -1.160830 0.058838 0.057371 0.001553 0.009235
    47 -0.963866 -2.785145 -0.085350 -0.517058 0.108333 -0.060301
    48 0.028479 -1.403067 -0.013261 -0.735119 -0.016503 -0.028691
    49 0.021413 -0.946062 0.016140 -0.693972 -0.015113 -0.026989
    50 1.164475 -2.543940 -0.170330 -1.409131 -0.127124 0.527280
    51 0.024032 -1.136855 -0.001725 -0.833781 0.005681 0.044248
    52 0.014898 -0.883989 -0.019848 0.054434 0.002253 -0.006064
    53 -0.586770 -1.264477 0.200161 0.017814 -0.477271 -2.824056
    54 1.538460 0.043056 0.016848 -0.006044 -0.000782 0.388543
    55 1.117947 0.048424 -0.005766 -0.007266 -0.030615 0.342362
    56 -0.139399 -0.111698 0.014397 0.802675 0.019732 1.231984
    57 -7.077237 4.940621 -0.411313 1.577257 -0.027040 -0.703197
  time 2
    0 0.087087 -7.422068 -5.894778 -0.643619 -1.494239 -4.130600
    1 2.567376 -0.598482 -0.149315 0.000000 0.000000 -1.047199
    2 2.567376 -0.598482 0.643831 0.000000 0.000000 -1.047199
    3 2.567376 0.712990 -0.942461 0.000000 0.000000 1.047196
    4 2.567376 0.712990 -0.149315 0.000000 0.000000 1.047196
    5 2.567376 0.712990 0.643831 0.000000 0.000000 1.047196
    6 2.567376 -0.598482 -0.942461 0.000000 0.000000 -1.047199
    7 2.567376 0.712989 -1.732171 0.000000 0.000000 1.047196
    8 2.567376 -0.598482 -1.732171 0.000000 0.000000 -1.047199
    9 0.653969 -0.004337 1.861727 -1.570796 -3.137038 0.000000
    10 0.637047 -0.005665 -8.009020 -1.570796 -2.855082 0.000000
    11 2.761088 -0.640694 5.497070 0.000000 0.000000 -0.785400
    12 1.330222 0.000004 0.000000 0.000000 0.000000 0.523599
    13 2.761092 0.632874 5.497070 0.000000 0.000000 0.785394
    14 1.330217 0.000004 0.000000 0.000000 0.000000 -0.523596
    15 2.093581 -0.601854 0.039718 1.570796 3.141592 1.570796
    16 3.536999 -0.003742 2.508977 -3.141592 -1.570796 0.000000
    17 3.363113 1.010910 -0.727189 0.000001 0.000000 -0.000001
    18 3.363113 -1.018542 -0.727189 0.000001 0.000000 -0.000001
    19 -0.002752 5.034045 -2.003348 0.000000 0.000000 0.312869
    20 4.419329 -3.420650 -5.546026 6.241745 -1.397133 -0.761391
    21 8.034731 1.590491 -0.364657 1.568099 -3.118411 0.273470
    22 -0.150048 -8.541706 -0.201793 0.261866 -0.250071 0.166655
    23 -0.488518 -2.755602 -0.228260 -0.109580 0.016121 -0.337980
    24 0.039887 -1.538386 0.018135 -1.675126 -0.009851 0.037585
    25 0.028786 -1.235892 -0.128581 -1.581930 -0.012356 0.036134
    26 0.250027 -2.820665 -0.238396 -0.067366 -0.061190 -0.288152
    27 -0.049759 -1.598510 0.034071 -1.510173 0.001210 -0.040750
    28 -0.034142 -1.187376 0.041812 -1.500892 0.001738 -0.039226
    29 0.957766 -2.746780 -0.090302 0.027242 -0.082328 0.063143
    30 -0.033420 -1.393223 -0.019070 -0.517087 0.008329 -0.025169
    31 -0.022360 -0.961342 -0.004654 -0.897607 0.005297 -0.043696
    32 -1.180681 -2.507217 -0.193859 0.075183 -0.001303 -0.232435
    33 -0.024967 -1.123934 0.017597 -0.592079 0.007526 -0.024711
    34 -0.020057 -0.906594 0.029622 -0.984442 0.005633 -0.040268
    35 0.603042 -1.193371 0.177566 0.490262 -0.748763 -0.632062
    36 1.500770 -0.181166 0.059698 0.028388 -0.182980 -0.629592
    37 0.979674 -0.194698 0.047917 0.117326 -0.264383 -1.172447
    38 0.120153 -0.050270 -0.054489 0.287569 3.110905 1.561085
    39 -6.446739 -7.688366 -6.575703 0.721277 -4.353570 0.662534
    40 -0.215566 -8.368385 -0.040616 1.368571 -2.017121 -1.392636
    41 0.447953 -2.798986 -0.200443 -1.198499 -0.012901 0.146483
    42 -0.032909 -1.499736 0.020565 -1.169246 0.022279 -0.020264
    43 -0.027022 -1.073014 -0.016304 0.139040 -0.003883 0.000216
    44 -0.249534 -2.846964 -0.174213 -0.706889 0.005532 0.015513
    45 0.043235 -1.656596 0.068667 -1.456795 -0.022476 0.008114
    46 0.031729 -1.160830 0.058838 0.057371 0.001553 0.009235
    47 -0.963866 -2.785145 -0.085350 -0.517058 0.108333 -0.060301
    48 0.028479 -1.403067 -0.013261 -0.735119 -0.016503 -0.028691
    49 0.021413 -0.946062 0.016140 -0.693972 -0.015113 -0.026989
    50 1.164475 -2.543940 -0.170330 -1.409131 -0.127124 0.527280
    51 0.024032 -1.136855 -0.001725 -0.833781 0.005681 0.044248
    52 0.014898 -0.883989 -0.019848 0.054434 0.002253 -0.006064
    53 -0.586770 -1.264477 0.200161 0.017814 -0.477271 -2.824056
    54 1.538460 0.043056 0.016848 -0.006044 -0.000782 0.388543
    55 1.117947 0.048424 -0.005766 -0.007266 -0.030615 0.342362
    56 -0.139399 -0.111698 0.014397 0.802675 0.019732 1.231984
    57 -7.163177 4.796085 -0.415220 1.576970 -0.027519 -0.682883
  time 3
    0 0.032397 -7.410349 -5.898684 -0.623020 -1.498174 -4.159371
    1 2.567376 -0.598482 -0.149315 0.000000 0.000000 -1.047199
    2 2.567376 -0.598482 0.643831 0.000000 0.000000 -1.047199
    3 2.567376 0.712990 -0.942461 0.000000 0.000000 1.047196
    4 2.567376 0.712990 -0.149315 0.000000 0.000000 1.047196
    5 2.567376 0.712990 0.643831 0.000000 0.000000 1.047196
    6 2.567376 -0.598482 -0.942461 0.000000 0.000000 -1.047199
    7 2.567376 0.712989 -1.732171 0.000000 0.000000 1.047196
    8 2.567376 -0.598482 -1.732171 0.000000 0.000000 -1.047199
    9 0.653969 -0.004337 1.861727 -1.570796 -3.137038 0.000000
    10 0.637047 -0.005665 -8.009020 -1.570796 -2.855082 0.000000
    11 2.761088 -0.640694 5.497070 0.000000 0.000000 -0.785400
    12 1.330222 0.000004 0.000000 0.000000 0.000000 0.523599
    13 2.761092 0.632874 5.497070 0.000000 0.000000 0.785394
    14 1.330217 0.000004 0.000000 0.000000 0.000000 -0.523596
    15 2.093581 -0.601854 0.039718 1.570796 3.141592 1.570796
    16 3.536999 -0.003742 2.508977 -3.141592 -1.570796 0.000000
    17 3.363113 0.882000 -0.727189 0.000001 0.000000 -0.000001
    18 3.363113 -0.889632 -0.727189 0.000001 0.000000 -0.000001
    19 -0.002752 5.034045 -2.003348 0.000000 0.000000 0.312869
    20 4.407610 -3.428463 -5.542120 6.244038 -1.397239 -0.767516
    21 8.030824 1.621742 -0.364657 1.568003 -3.118411 0.277077
    22 -0.150048 -8.541706 -0.201793 0.258358 -0.245173 0.166568
    23 -0.488518 -2.755602 -0.228260 -0.109580 0.016121 -0.337980
    24 0.039887 -1.538386 0.018135 -1.675126 -0.009851 0.037585
    25 0.028786 -1.235892 -0.128581 -1.581930 -0.012356 0.036134
    26 0.250027 -2.820665 -0.238396 -0.067366 -0.061190 -0.288152
    27 -0.049759 -1.598510 0.034071 -1.510173 0.001210 -0.040750
    28 -0.034142 -1.187376 0.041812 -1.500892 0.001738 -0.039226
    29 0.957766 -2.746780 -0.090302 0.027242 -0.082328 0.063143
    30 -0.033420 -1.393223 -0.019070 -0.517087 0.008329 -0.025169
    31 -0.022360 -0.961342 -0.004654 -0.897607 0.005297 -0.043696
    32 -1.180681 -2.507217 -0.193859 0.075183 -0.001303 -0.232435
    33 -0.024967 -1.123934 0.017597 -0.592079 0.007526 -0.024711
    34 -0.020057 -0.906594 0.029622 -0.984442 0.005633 -0.040268
    35 0.603042 -1.193371 0.177566 0.490262 -0.748763 -0.632062
    36 1.500770 -0.181166 0.059698 0.028388 -0.182980 -0.629592
    37 0.979674 -0.194698 0.047917 0.117326 -0.264383 -1.172447
    38 0.120153 -0.050270 -0.054489 0.287569 3.110905 1.561085
    39 -6.485802 -7.637583 -6.606954 0.724123 -4.351038 0.658997
    40 -0.215566 -8.372291 -0.040616 1.372388 -2.016795 -1.390152
    41 0.447953 -2.798986 -0.200443 -1.198499 -0.012901 0.146483
    42 -0.032909 -1.499736 0.020565 -1.169246 0.022279 -0.020264
    43 -0.027022 -1.073014 -0.016304 0.139040 -0.003883 0.000216
    44 -0.249534 -2.846964 -0.174213 -0.706889 0.005532 0.015513
    45 0.043235 -1.656596 0.068667 -1.456795 -0.022476 0.008114
    46 0.031729 -1.160830 0.058838 0.057371 0.001553 0.009235
    47 -0.963866 -2.785145 -0.085350 -0.517058 0.108333 -0.060301
    48 0.028479 -1.403067 -0.013261 -0.735119 -0.016503 -0.028691
    49 0.021413 -0.946062 0.016140 -0.693972 -0.015113 -0.026989
    50 1.164475 -2.543940 -0.170330 -1.409131 -0.127124 0.527280
    51 0.024032 -1.136855 -0.001725 -0.833781 0.005681 0.044248
    52 0.014898 -0.883989 -0.019848 0.054434 0.002253 -0.006064
    53 -0.586770 -1.264477 0.200161 0.017814 -0.477271 -2.824056
    54 1.538460 0.043056 0.016848 -0.006044 -0.000782 0.388543
    55 1.117947 0.048424 -0.005766 -0.007266 -0.030615 0.342362
    56 -0.139399 -0.111698 0.014397 0.802675 0.019732 1.231984
    57 -7.210054 4.710145 -0.419126 1.576778 -0.027806 -0.671234
  time 4
    0 -0.026198 -7.410349 -5.879152 -0.553057 -1.501067 -4.230392
    1 2.567376 -0.598482 -0.149315 0.000000 0.000000 -1.047199
    2 2.567376 -0.598482 0.643831 0.000000 0.000000 -1.047199
    3 2.567376 0.712990 -0.942461 0.000000 0.000000 1.047196
    4 2.567376 0.712990 -0.149315 0.000000 0.000000 1.047196
    5 2.567376 0.712990 0.643831 0.000000 0.000000 1.047196
    6 2.567376 -0.598482 -0.942461 0.000000 0.000000 -1.047199
    7 2.567376 0.712989 -1.732171 0.000000 0.000000 1.047196
    8 2.567376 -0.598482 -1.732171 0.000000 0.000000 -1.047199
    9 0.653969 -0.004337 1.861727 -1.570796 -3.137038 0.000000
    10 0.637047 -0.005665 -8.009020 -1.570796 -2.855082 0.000000
    11 2.761088 -0.640694 5.497070 0.000000 0.000000 -0.785400
    12 1.330222 0.000004 0.000000 0.000000 0.000000 0.523599
    13 2.761092 0.632874 5.497070 0.000000 0.000000 0.785394
    14 1.330217 0.000004 0.000000 0.000000 0.000000 -0.523596
    15 2.093581 -0.601854 0.039718 1.570796 3.141592 1.570796
    16 3.536999 -0.003742 2.508977 -3.141592 -1.570796 0.000000
    17 3.363113 0.714026 -0.727189 0.000001 0.000000 -0.000001
    18 3.363113 -0.721658 -0.727189 0.000001 0.000000 -0.000001
    19 -0.002752 5.034045 -2.003348 0.000000 0.000000 0.312869
    20 4.376359 -3.440182 -5.538213 6.241172 -1.396013 -0.769846
    21 8.026918 1.668618 -0.360751 1.568003 -3.118506 0.283134
    22 -0.150048 -8.541706 -0.197887 0.262690 -0.241907 0.168353
    23 -0.488518 -2.755602 -0.228260 -0.109580 0.016121 -0.337980
    24 0.039887 -1.538386 0.018135 -1.675126 -0.009851 0.037585
    25 0.028786 -1.235892 -0.128581 -1.581930 -0.012356 0.036134
    26 0.250027 -2.820665 -0.238396 -0.067366 -0.061190 -0.288152
    27 -0.049759 -1.598510 0.034071 -1.510173 0.001210 -0.040750
    28 -0.034142 -1.187376 0.041812 -1.500892 0.001738 -0.039226
    29 0.957766 -2.746780 -0.090302 0.027242 -0.082328 0.063143
    30 -0.033420 -1.393223 -0.019070 -0.517087 0.008329 -0.025169
    31 -0.022360 -0.961342 -0.004654 -0.897607 0.005297 -0.043696
    32 -1.180681 -2.507217 -0.193859 0.075183 -0.001303 -0.232435
    33 -0.024967 -1.123934 0.017597 -0.592079 0.007526 -0.024711
    34 -0.020057 -0.906594 0.029622 -0.984442 0.005633 -0.040268
    35 0.603042 -1.193371 0.177566 0.490262 -0.748763 -0.632062
    36 1.500770 -0.181166 0.059698 0.028388 -0.182980 -0.629592
    37 0.979674 -0.194698 0.047917 0.117326 -0.264383 -1.172447
    38 0.120153 -0.050270 -0.054489 0.287569 3.110905 1.561085
    39 -6.513147 -7.625864 -6.606954 0.729127 -4.348000 0.658997
    40 -0.215566 -8.372291 -0.040616 1.382332 -2.021742 -1.395534
    41 0.447953 -2.798986 -0.200443 -1.198499 -0.012901 0.146483
    42 -0.032909 -1.499736 0.020565 -1.169246 0.022279 -0.020264
    43 -0.027022 -1.073014 -0.016304 0.139040 -0.003883 0.000216
    44 -0.249534 -2.846964 -0.174213 -0.706889 0.005532 0.015513
    45 0.043235 -1.656596 0.068667 -1.456795 -0.022476 0.008114
    46 0.031729 -1.160830 0.058838 0.057371 0.001553 0.009235
    47 -0.963866 -2.785145 -0.085350 -0.517058 0.108333 -0.060301
    48 0.028479 -1.403067 -0.013261 -0.735119 -0.016503 -0.028691
    49 0.021413 -0.946062 0.016140 -0.693972 -0.015113 -0.026989
    50 1.164475 -2.543940 -0.170330 -1.409131 -0.127124 0.527280
    51 0.024032 -1.136855 -0.001725 -0.833781 0.005681 0.044248
    52 0.014898 -0.883989 -0.019848 0.054434 0.002253 -0.006064
    53 -0.586770 -1.264477 0.200161 0.017814 -0.477271 -2.824056
    54 1.538460 0.043056 0.016848 -0.006044 -0.000782 0.388543
    55 1.117947 0.048424 -0.005766 -0.007266 -0.030615 0.342362
    56 -0.139399 -0.111698 0.014397 0.802675 0.019732 1.231984
    57 -7.229586 4.678894 -0.419126 1.576682 -0.027902 -0.666762
  time 5
    0 -0.065262 -7.410349 -5.875246 -0.578498 -1.497422 -4.202767
    1 2.567376 -0.598482 -0.149315 0.000000 0.000000 -1.047199
    2 2.567376 -0.598482 0.643831 0.000000 0.000000 -1.047199
    3 2.567376 0.712990 -0.942461 0.000000 0.000000 1.047196
    4 2.567376 0.712990 -0.149315 0.000000 0.000000 1.047196
    5 2.567376 0.712990 0.643831 0.000000 0.000000 1.047196
    6 2.567376 -0.598482 -0.942461 0.000000 0.000000 -1.047199
    7 2.567376 0.712989 -1.732171 0.000000 0.000000 1.047196
    8 2.567376 -0.598482 -1.732171 0.000000 0.000000 -1.047199
    9 0.653969 -0.004337 1.861727 -1.570796 -3.137038 0.000000
    10 0.637047 -0.005665 -8.009020 -1.570796 -2.855082 0.000000
    11 2.761088 -0.640694 5.497070 0.000000 0.000000 -0.703715
    12 1.330222 0.000004 0.000000 0.000000 0.000000 0.387838
    13 2.761092 0.632874 5.497070 0.000000 0.000000 0.703707
    14 1.330217 0.000004 0.000000 0.000000 0.000000 -0.387839
    15 2.093581 -0.601854 0.039718 1.570796 3.141592 1.570796
    16 3.536999 -0.003742 2.508977 -3.141592 -1.570796 0.000000
    17 3.363113 0.546052 -0.727189 0.000001 0.000000 -0.000001
    18 3.363113 -0.553684 -0.727189 0.000001 0.000000 -0.000001
    19 -0.002752 5.034045 -2.003348 0.000000 0.000000 0.312869
    20 4.356827 -3.451901 -5.538213 6.242223 -1.395427 -0.774073
    21 8.019105 1.707682 -0.360751 1.567907 -3.118601 0.287557
    22 -0.150048 -8.541706 -0.201793 0.267002 -0.247412 0.168788
    23 -0.488518 -2.755602 -0.228260 -0.109580 0.016121 -0.337980
    24 0.039887 -1.538386 0.018135 -1.675175 -0.009851 0.037585
    25 0.028786 -1.235892 -0.128581 -1.581930 -0.012356 0.036134
    26 0.250027 -2.820665 -0.238396 -0.067366 -0.061190 -0.288152
    27 -0.049759 -1.598510 0.034071 -1.510173 0.001210 -0.040750
    28 -0.034142 -1.187376 0.041812 -1.500892 0.001738 -0.039226
    29 0.957766 -2.746780 -0.090302 0.027242 -0.082328 0.063143
    30 -0.033420 -1.393223 -0.019070 -0.517087 0.008329 -0.025169
    31 -0.022360 -0.961342 -0.004654 -0.897607 0.005297 -0.043696
    32 -1.180681 -2.507217 -0.193859 0.075183 -0.001303 -0.232435
    33 -0.024967 -1.123934 0.017597 -0.592079 0.007526 -0.024711
    34 -0.020057 -0.906594 0.029622 -0.984442 0.005633 -0.040268
    35 0.603042 -1.193371 0.177566 0.490262 -0.748763 -0.632062
    36 1.500770 -0.181166 0.059698 0.028388 -0.182980 -0.629592
    37 0.979674 -0.194698 0.047917 0.117326 -0.264383 -1.172447
    38 0.120153 -0.050270 -0.054489 0.287569 3.110905 1.561085
    39 -6.524866 -7.625864 -6.603047 0.729225 -4.347241 0.656989
    40 -0.215566 -8.368385 -0.040616 1.374273 -2.024949 -1.391762
    41 0.447953 -2.798986 -0.200443 -1.198499 -0.012901 0.146483
    42 -0.032909 -1.499736 0.020565 -1.169246 0.022279 -0.020264
    43 -0.027022 -1.073014 -0.016304 0.139040 -0.003883 0.000216
    44 -0.249534 -2.846964 -0.174213 -0.706889 0.005532 0.015513
    45 0.043235 -1.656596 0.068667 -1.456795 -0.022476 0.008114
    46 0.031729 -1.160830 0.058838 0.057371 0.001553 0.009235
    47 -0.963866 -2.785145 -0.085350 -0.517058 0.108333 -0.060301
    48 0.028479 -1.403067 -0.013261 -0.735119 -0.016503 -0.028691
    49 0.021413 -0.946062 0.016140 -0.693972 -0.015113 -0.026989
    50 1.164475 -2.543940 -0.170330 -1.409131 -0.127124 0.527280
    51 0.024032 -1.136855 -0.001725 -0.833781 0.005681 0.044248
    52 0.014898 -0.883989 -0.019848 0.054434 0.002253 -0.006064
    53 -0.586770 -1.264477 0.200161 0.017814 -0.477271 -2.824056
    54 1.538460 0.043056 0.016848 -0.006044 -0.000782 0.388543
    55 1.117947 0.048424 -0.005766 -0.007266 -0.030615 0.342362
    56 -0.139399 -0.111698 0.014397 0.802675 0.019732 1.231984
    57 -7.225679 4.682800 -0.419126 1.576682 -0.027902 -0.667134
  time 6
    0 -0.139483 -7.418161 -5.871340 -0.619792 -1.490073 -4.157173
    1 2.567376 -0.598482 -0.149315 0.000000 0.000000 -1.047199
    2 2.567376 -0.598482 0.643831 0.000000 0.000000 -1.047199
    3 2.567376 0.712990 -0.942461 0.000000 0.000000 1.047196
    4 2.567376 0.712990 -0.149315 0.000000 0.000000 1.047196
    5 2.567376 0.712990 0.643831 0.000000 0.000000 1.047196
    6 2.567376 -0.598482 -0.942461 0.000000 0.000000 -1.047199
    7 2.567376 0.712989 -1.732171 0.000000 0.000000 1.047196
    8 2.567376 -0.598482 -1.732171 0.000000 0.000000 -1.047199
    9 0.653969 -0.004337 1.861727 -1.570796 -3.137038 0.000000
    10 0.637047 -0.005665 -8.009020 -1.570796 -2.855082 0.000000
    11 2.761088 -0.640694 5.497070 0.000000 0.000000 -0.508924
    12 1.330222 0.000004 0.000000 0.000000 0.000000 0.135746
    13 2.761092 0.632874 5.497070 0.000000 0.000000 0.508934
    14 1.330217 0.000004 0.000000 0.000000 0.000000 -0.135739
    15 2.093581 -0.601854 0.039718 1.570796 3.141592 1.570796
    16 3.591688 -0.003742 1.844894 -3.141592 -1.570796 0.000000
    17 3.363113 0.417142 -0.727189 0.000001 0.000000 -0.000001
    18 3.363113 -0.424774 -0.727189 0.000001 0.000000 -0.000001
    19 -0.002752 5.034045 -2.003348 0.000000 0.000000 0.312869
    20 4.321670 -3.467527 -5.530400 6.244229 -1.394254 -0.781923
    21 8.011292 1.774090 -0.360751 1.567811 -3.118792 0.296064
    22 -0.150048 -8.545613 -0.201793 0.275519 -0.258143 0.169746
    23 -0.488518 -2.755602 -0.228260 -0.109580 0.016121 -0.337980
    24 0.039887 -1.538386 0.018135 -1.675126 -0.009851 0.037585
    25 0.028786 -1.235892 -0.128581 -1.581930 -0.012356 0.036134
    26 0.250027 -2.820665 -0.238396 -0.067366 -0.061190 -0.288152
    27 -0.049759 -1.598510 0.034071 -1.510173 0.001210 -0.040750
    28 -0.034142 -1.187376 0.041812 -1.500892 0.001738 -0.039226
    29 0.957766 -2.746780 -0.090302 0.027242 -0.082328 0.063143
    30 -0.033420 -1.393223 -0.019070 -0.517087 0.008329 -0.025169
    31 -0.022360 -0.961342 -0.004654 -0.897607 0.005297 -0.043696
    32 -1.180681 -2.507217 -0.193859 0.075183 -0.001303 -0.232435
    33 -0.024967 -1.123934 0.017597 -0.592079 0.007526 -0.024711
    34 -0.020057 -0.906594 0.029622 -0.984442 0.005633 -0.040268
    35 0.603042 -1.193371 0.177566 0.490262 -0.748763 -0.632062
    36 1.500770 -0.181166 0.059698 0.028388 -0.182980 -0.629592
    37 0.979674 -0.194698 0.047917 0.117326 -0.264383 -1.172447
    38 0.120153 -0.050270 -0.054489 0.287569 3.110905 1.561085
    39 -6.544398 -7.629771 -6.591328 0.729813 -4.345975 0.653643
    40 -0.215566 -8.368385 -0.040616 1.359287 -2.031255 -1.385275
    41 0.447953 -2.798986 -0.200443 -1.198499 -0.012901 0.146483
    42 -0.032909 -1.499736 0.020565 -1.169246 0.022279 -0.020264
    43 -0.027022 -1.073014 -0.016304 0.139040 -0.003883 0.000216
    44 -0.249534 -2.846964 -0.174213 -0.706889 0.005532 0.015513
    45 0.043235 -1.656596 0.068667 -1.456795 -0.022476 0.008114
    46 0.031729 -1.160830 0.058838 0.057371 0.001553 0.009235
    47 -0.963866 -2.785145 -0.085350 -0.517058 0.108333 -0.060301
    48 0.028479 -1.403067 -0.013261 -0.735119 -0.016503 -0.028691
    49 0.021413 -0.946062 0.016140 -0.693972 -0.015113 -0.026989
    50 1.164475 -2.543940 -0.170330 -1.409131 -0.127124 0.527280
    51 0.024032 -1.136855 -0.001725 -0.833781 0.005681 0.044248
    52 0.014898 -0.883989 -0.019848 0.054434 0.002253 -0.006064
    53 -0.586770 -1.264477 0.200161 0.017814 -0.477271 -2.824056
    54 1.538460 0.043056 0.016848 -0.006044 -0.000782 0.388543
    55 1.117947 0.048424 -0.005766 -0.007266 -0.030615 0.342362
    56 -0.139399 -0.111698 0.014397 0.802675 0.019732 1.231984
    57 -7.221773 4.690613 -0.419126 1.576682 -0.027806 -0.668439
  time 7
    0 -0.178547 -7.422068 -5.867433 -0.655960 -1.483476 -4.116740
    1 2.567376 -0.598482 -0.149315 0.000000 0.000000 -1.047199
    2 2.567376 -0.598482 0.643831 0.000000 0.000000 -1.047199
    3 2.567376 0.712990 -0.942461 0.000000 0.000000 1.047196
    4 2.567376 0.712990 -0.149315 0.000000 0.000000 1.047196
    5 2.567376 0.712990 0.643831 0.000000 0.000000 1.047196
    6 2.567376 -0.598482 -0.942461 0.000000 0.000000 -1.047199
    7 2.567376 0.712989 -1.732171 0.000000 0.000000 1.047196
    8 2.567376 -0.598482 -1.732171 0.000000 0.000000 -1.047199
    9 0.653969 -0.004337 1.861727 -1.570796 -3.137038 0.000000
    10 0.637047 -0.005665 -8.009020 -1.570796 -2.855082 0.000000
    11 2.761088 -0.640694 5.497070 0.000000 0.000000 -0.276454
    12 1.330222 0.000004 0.000000 0.000000 0.000000 0.000000
    13 2.761092 0.632874 5.497070 0.000000 0.000000 0.276433
    14 1.330217 0.000004 0.000000 0.000000 0.000000 0.000002
    15 2.093581 -0.601854 0.039718 1.570796 3.141592 1.570796
    16 3.638564 -0.003742 1.184717 -3.141592 -1.570796 0.000000
    17 3.363113 0.366359 -0.727189 0.000001 0.000000 -0.000001
    18 3.363113 -0.373991 -0.727189 0.000001 0.000000 -0.000001
    19 -0.002752 5.034045 -2.003348 0.000000 0.000000 0.312869
    20 4.298232 -3.479246 -5.526494 6.245757 -1.393508 -0.786927
    21 8.007386 1.817060 -0.360751 1.567811 -3.118887 0.301373
    22 -0.150048 -8.545613 -0.205700 0.281839 -0.267381 0.170138
    23 -0.488518 -2.755602 -0.228260 -0.109580 0.016121 -0.337980
    24 0.039887 -1.538386 0.018135 -1.675126 -0.009851 0.037585
    25 0.028786 -1.235892 -0.128581 -1.581930 -0.012356 0.036134
    26 0.250027 -2.820665 -0.238396 -0.067366 -0.061190 -0.288152
    27 -0.049759 -1.598510 0.034071 -1.510173 0.001210 -0.040750
    28 -0.034142 -1.187376 0.041812 -1.500892 0.001738 -0.039226
    29 0.957766 -2.746780 -0.090302 0.027242 -0.082328 0.063143
    30 -0.033420 -1.393223 -0.019070 -0.517087 0.008329 -0.025169
    31 -0.022360 -0.961342 -0.004654 -0.897607 0.005297 -0.043696
    32 -1.180681 -2.507217 -0.193859 0.075183 -0.001303 -0.232435
    33 -0.024967 -1.123934 0.017597 -0.592079 0.007526 -0.024711
    34 -0.020057 -0.906594 0.029622 -0.984442 0.005633 -0.040268
    35 0.603042 -1.193371 0.177566 0.490262 -0.748763 -0.632062
    36 1.500770 -0.181166 0.059698 0.028388 -0.182980 -0.629592
    37 0.979674 -0.194698 0.047917 0.117326 -0.264383 -1.172447
    38 0.120153 -0.050270 -0.054489 0.287569 3.110905 1.561085
    39 -6.552211 -7.641490 -6.579609 0.729372 -4.345553 0.651540
    40 -0.215566 -8.368385 -0.044522 1.345997 -2.035441 -1.379663
    41 0.447953 -2.798986 -0.200443 -1.198499 -0.012901 0.146483
    42 -0.032909 -1.499736 0.020565 -1.169246 0.022279 -0.020264
    43 -0.027022 -1.073014 -0.016304 0.139040 -0.003883 0.000216
    44 -0.249534 -2.846964 -0.174213 -0.706889 0.005532 0.015513
    45 0.043235 -1.656596 0.068667 -1.456795 -0.022476 0.008114
    46 0.031729 -1.160830 0.058838 0.057371 0.001553 0.009235
    47 -0.963866 -2.785145 -0.085350 -0.517058 0.108333 -0.060301
    48 0.028479 -1.403067 -0.013261 -0.735119 -0.016503 -0.028691
    49 0.021413 -0.946062 0.016140 -0.693972 -0.015113 -0.026989
    50 1.164475 -2.543940 -0.170330 -1.409131 -0.127124 0.527280
    51 0.024032 -1.136855 -0.001725 -0.833781 0.005681 0.044248
    52 0.014898 -0.883989 -0.019848 0.054434 0.002253 -0.006064
    53 -0.586770 -1.264477 0.200161 0.017814 -0.477271 -2.824056
    54 1.538460 0.043056 0.016848 -0.006044 -0.000782 0.388543
    55 1.117947 0.048424 -0.005766 -0.007266 -0.030615 0.342362
    56 -0.139399 -0.111698 0.014397 0.802675 0.019732 1.231984
    57 -7.210054 4.710145 -0.419126 1.576778 -0.027806 -0.671048
  time 8
    0 -0.127764 -7.425974 -5.875246 -0.679693 -1.482261 -4.091123
    1 2.567376 -0.598482 -0.149315 0.000000 0.000000 -1.047199
    2 2.567376 -0.598482 0.643831 0.000000 0.000000 -1.047199
    3 2.567376 0.712990 -0.942461 0.000000 0.000000 1.047196
    4 2.567376 0.712990 -0.149315 0.000000 0.000000 1.047196
    5 2.567376 0.712990 0.643831 0.000000 0.000000 1.047196
    6 2.567376 -0.598482 -0.942461 0.000000 0.000000 -1.047199
    7 2.567376 0.712989 -1.732171 0.000000 0.000000 1.047196
    8 2.567376 -0.598482 -1.732171 0.000000 0.000000 -1.047199
    9 0.653969 -0.004337 1.861727 -1.570796 -3.137038 0.000000
    10 0.637047 -0.005665 -8.009020 1.570796 -0.286510 3.141592
    11 2.761088 -0.640694 5.497070 0.000000 0.000000 -0.081662
    12 1.330222 0.000004 0.000000 0.000000 0.000000 0.000000
    13 2.761092 0.632874 5.497070 0.000000 0.000000 0.081659
    14 1.330217 0.000004 0.000000 0.000000 0.000000 0.000002
    15 2.093581 -0.601854 0.039718 1.570796 3.141592 1.570796
    16 3.634658 -0.003742 1.286283 -3.141592 -1.570796 0.000000
    17 3.363113 0.366359 -0.727189 0.000001 0.000000 -0.000001
    18 3.363113 -0.373991 -0.727189 0.000001 0.000000 -0.000001
    19 -0.002752 5.034045 -2.003348 0.000000 0.000000 0.312869
    20 4.317764 -3.471433 -5.530400 6.245471 -1.394094 -0.782355
    21 8.011292 1.777997 -0.360751 1.567811 -3.118792 0.296268
    22 -0.150048 -8.545613 -0.205700 0.279556 -0.268407 0.169006
    23 -0.488518 -2.755602 -0.228260 -0.109580 0.016121 -0.337980
    24 0.039887 -1.538386 0.018135 -1.675126 -0.009851 0.037585
    25 0.028786 -1.235892 -0.128581 -1.581930 -0.012356 0.036134
    26 0.250027 -2.820665 -0.238396 -0.067366 -0.061190 -0.288152
    27 -0.049759 -1.598510 0.034071 -1.510173 0.001210 -0.040750
    28 -0.034142 -1.187376 0.041812 -1.500892 0.001738 -0.039226
    29 0.957766 -2.746780 -0.090302 0.027242 -0.082328 0.063143
    30 -0.033420 -1.393223 -0.019070 -0.517087 0.008329 -0.025169
    31 -0.022360 -0.961342 -0.004654 -0.897607 0.005297 -0.043696
    32 -1.180681 -2.507217 -0.193859 0.075183 -0.001303 -0.232435
    33 -0.024967 -1.123934 0.017597 -0.592079 0.007526 -0.024711
    34 -0.020057 -0.906594 0.029622 -0.984442 0.005633 -0.040268
    35 0.603042 -1.193371 0.177566 0.490262 -0.748763 -0.632062
    36 1.500770 -0.181166 0.059698 0.028388 -0.182980 -0.629592
    37 0.979674 -0.194698 0.047917 0.117326 -0.264383 -1.172447
    38 0.120153 -0.050270 -0.054489 0.287569 3.110905 1.561085
    39 -6.528772 -7.657115 -6.575703 0.725644 -4.347578 0.652592
    40 -0.215566 -8.368385 -0.044522 1.342321 -2.032342 -1.378329
    41 0.447953 -2.798986 -0.200443 -1.198499 -0.012901 0.146483
    42 -0.032909 -1.499736 0.020565 -1.169246 0.022279 -0.020264
    43 -0.027022 -1.073014 -0.016304 0.139040 -0.003883 0.000216
    44 -0.249534 -2.846964 -0.174213 -0.706889 0.005532 0.015513
    45 0.043235 -1.656596 0.068667 -1.456795 -0.022476 0.008114
    46 0.031729 -1.160830 0.058838 0.057371 0.001553 0.009235
    47 -0.963866 -2.785145 -0.085350 -0.517058 0.108333 -0.060301
    48 0.028479 -1.403067 -0.013261 -0.735119 -0.016503 -0.028691
    49 0.021413 -0.946062 0.016140 -0.693972 -0.015113 -0.026989
    50 1.164475 -2.543940 -0.170330 -1.409131 -0.127124 0.527280
    51 0.024032 -1.136855 -0.001725 -0.833781 0.005681 0.044248
    52 0.014898 -0.883989 -0.019848 0.054434 0.002253 -0.006064
    53 -0.586770 -1.264477 0.200161 0.017814 -0.477271 -2.824056
    54 1.538460 0.043056 0.016848 -0.006044 -0.000782 0.388543
    55 1.117947 0.048424 -0.005766 -0.007266 -0.030615 0.342362
    56 -0.139399 -0.111698 0.014397 0.802675 0.019732 1.231984
    57 -7.190522 4.745302 -0.415220 1.576874 -0.027710 -0.675987
  time 9
    0 0.083180 -7.422068 -5.898684 -0.685863 -1.491056 -4.087681
    1 2.567376 -0.598482 -0.149315 0.000000 0.000000 -1.047199
    2 2.567376 -0.598482 0.643831 0.000000 0.000000 -1.047199
    3 2.567376 0.712990 -0.942461 0.000000 0.000000 1.047196
    4 2.567376 0.712990 -0.149315 0.000000 0.000000 1.047196
    5 2.567376 0.712990 0.643831 0.000000 0.000000 1.047196
    6 2.567376 -0.598482 -0.942461 0.000000 0.000000 -1.047199
    7 2.567376 0.712989 -1.732171 0.000000 0.000000 1.047196
    8 2.567376 -0.598482 -1.732171 0.000000 0.000000 -1.047199
    9 0.653969 -0.004337 1.861727 -1.570796 -3.137038 0.000000
    10 0.637047 -0.005665 -8.009020 1.570796 -0.286510 3.141592
    11 2.761088 -0.640694 5.497070 0.000000 0.000000 -0.000002
    12 1.330222 0.000004 0.000000 0.000000 0.000000 0.000000
    13 2.761092 0.632874 5.497070 0.000000 0.000000 -0.000004
    14 1.330217 0.000004 0.000000 0.000000 0.000000 0.000002
    15 2.093581 -0.601854 0.039718 1.570796 3.141592 1.570796
    16 3.634658 -0.003742 1.286283 -3.141592 -1.570796 0.000000
    17 3.363113 0.366359 -0.727189 0.000001 0.000000 -0.000001
    18 3.363113 -0.373991 -0.727189 0.000001 0.000000 -0.000001
    19 -0.002752 5.034045 -2.003348 0.000000 0.000000 0.312869
    20 4.419329 -3.420650 -5.546026 6.241745 -1.397133 -0.761391
    21 8.034731 1.590491 -0.364657 1.568099 -3.118411 0.273470
    22 -0.150048 -8.541706 -0.201793 0.262204 -0.254550 0.165261
    23 -0.488518 -2.755602 -0.228260 -0.109580 0.016121 -0.337980
    24 0.039887 -1.538386 0.018135 -1.675126 -0.009851 0.037585
    25 0.028786 -1.235892 -0.128581 -1.581930 -0.012356 0.036134
    26 0.250027 -2.820665 -0.238396 -0.067366 -0.061190 -0.288152
    27 -0.049759 -1.598510 0.034071 -1.510173 0.001210 -0.040750
    28 -0.034142 -1.187376 0.041812 -1.500892 0.001738 -0.039226
    29 0.957766 -2.746780 -0.090302 0.027242 -0.082328 0.063143
    30 -0.033420 -1.393223 -0.019070 -0.517087 0.008329 -0.025169
    31 -0.022360 -0.961342 -0.004654 -0.897607 0.005297 -0.043696
    32 -1.180681 -2.507217 -0.193859 0.075183 -0.001303 -0.232435
    33 -0.024967 -1.123934 0.017597 -0.592079 0.007526 -0.024711
    34 -0.020057 -0.906594 0.029622 -0.984442 0.005633 -0.040268
    35 0.603042 -1.193371 0.177566 0.490262 -0.748763 -0.632062
    36 1.500770 -0.181166 0.059698 0.028388 -0.182980 -0.629592
    37 0.979674 -0.194698 0.047917 0.117326 -0.264383 -1.172447
    38 0.120153 -0.050270 -0.054489 0.287569 3.110905 1.561085
    39 -6.450645 -7.688366 -6.575703 0.717255 -4.353486 0.658997
    40 -0.215566 -8.368385 -0.040616 1.356318 -2.016740 -1.384401
    41 0.447953 -2.798986 -0.200443 -1.198499 -0.012901 0.146483
    42 -0.032909 -1.499736 0.020565 -1.169246 0.022279 -0.020264
    43 -0.027022 -1.073014 -0.016304 0.139040 -0.003883 0.000216
    44 -0.249534 -2.846964 -0.174213 -0.706889 0.005532 0.015513
    45 0.043235 -1.656596 0.068667 -1.456795 -0.022476 0.008114
    46 0.031729 -1.160830 0.058838 0.057371 0.001553 0.009235
    47 -0.963866 -2.785145 -0.085350 -0.517058 0.108333 -0.060301
    48 0.028479 -1.403067 -0.013261 -0.735119 -0.016503 -0.028691
    49 0.021413 -0.946062 0.016140 -0.693972 -0.015113 -0.026989
    50 1.164475 -2.543940 -0.170330 -1.409131 -0.127124 0.527280
    51 0.024032 -1.136855 -0.001725 -0.833781 0.005681 0.044248
    52 0.014898 -0.883989 -0.019848 0.054434 0.002253 -0.006064
    53 -0.586770 -1.264477 0.200161 0.017814 -0.477271 -2.824056
    54 1.538460 0.043056 0.016848 -0.006044 -0.000782 0.388543
    55 1.117947 0.048424 -0.005766 -0.007266 -0.030615 0.342362
    56 -0.139399 -0.111698 0.014397 0.802675 0.019732 1.231984
    57 -7.159271 4.803898 -0.415220 1.576970 -0.027519 -0.683908
  time 10
    0 0.544132 -7.383004 -5.922123 -0.604414 -1.519584 -4.184510
    1 2.567376 -0.598482 -0.149315 0.000000 0.000000 -1.047199
    2 2.567376 -0.598482 0.643831 0.000000 0.000000 -1.047199
    3 2.567376 0.712990 -0.942461 0.000000 0.000000 1.047196
    4 2.567376 0.712990 -0.149315 0.000000 0.000000 1.047196
    5 2.567376 0.712990 0.643831 0.000000 0.000000 1.047196
    6 2.567376 -0.598482 -0.942461 0.000000 0.000000 -1.047199
    7 2.567376 0.712989 -1.732171 0.000000 0.000000 0.989159
    8 2.567376 -0.598482 -1.732171 0.000000 0.000000 -0.989163
    9 0.653969 -0.004337 1.861727 -1.570796 -3.137038 0.000000
    10 0.637047 -0.005665 -8.009020 -1.570796 -2.855082 0.000000
    11 2.761088 -0.640694 5.497070 0.000000 0.000000 -0.000002
    12 1.330222 0.000004 0.000000 0.000000 0.000000 0.000000
    13 2.761092 0.632874 5.497070 0.000000 0.000000 -0.000004
    14 1.330217 0.000004 0.000000 0.000000 0.000000 0.000002
    15 2.093581 -0.601854 0.039718 1.570796 3.141592 1.570796
    16 3.634658 -0.003742 1.286283 -3.141592 -1.570796 0.000000
    17 3.363113 0.366359 -0.727189 0.000001 0.000000 -0.000001
    18 3.363113 -0.373991 -0.727189 0.000001 0.000000 -0.000001
    19 -0.002752 5.034045 -2.003348 0.000000 0.000000 0.312869
    20 4.645899 -3.303459 -5.565558 6.221492 -1.405129 -0.703418
    21 8.069888 1.156884 -0.368563 1.568674 -3.117363 0.219638
    22 -0.146142 -8.529987 -0.193980 0.216975 -0.211020 0.154244
    23 -0.488518 -2.755602 -0.228260 -0.109580 0.016121 -0.337980
    24 0.039887 -1.538386 0.018135 -1.675126 -0.009851 0.037585
    25 0.028786 -1.235892 -0.128581 -1.581930 -0.012356 0.036134
    26 0.250027 -2.820665 -0.238396 -0.067366 -0.061190 -0.288152
    27 -0.049759 -1.598510 0.034071 -1.510173 0.001210 -0.040750
    28 -0.034142 -1.187376 0.041812 -1.500892 0.001738 -0.039226
    29 0.957766 -2.746780 -0.090302 0.027242 -0.082328 0.063143
    30 -0.033420 -1.393223 -0.019070 -0.517087 0.008329 -0.025169
    31 -0.022360 -0.961342 -0.004654 -0.897607 0.005297 -0.043696
    32 -1.180681 -2.507217 -0.193859 0.075183 -0.001303 -0.232435
    33 -0.024967 -1.123934 0.017597 -0.592079 0.007526 -0.024711
    34 -0.020057 -0.906594 0.029622 -0.984442 0.005633 -0.040268
    35 0.603042 -1.193371 0.177566 0.490262 -0.748763 -0.632062
    36 1.500770 -0.181166 0.059698 0.028388 -0.182980 -0.629592
    37 0.979674 -0.194698 0.047917 0.117326 -0.264383 -1.172447
    38 0.120153 -0.050270 -0.054489 0.287569 3.110905 1.561085
    39 -6.278765 -7.711804 -6.603047 0.727508 -4.367833 0.695135
    40 -0.203846 -8.376197 -0.024990 1.511222 -1.979177 -1.512057
    41 0.447953 -2.798986 -0.200443 -1.198499 -0.012901 0.146483
    42 -0.032909 -1.499736 0.020565 -1.169246 0.022279 -0.020264
    43 -0.027022 -1.073014 -0.016304 0.139040 -0.003883 0.000216
    44 -0.249534 -2.846964 -0.174213 -0.706889 0.005532 0.015513
    45 0.043235 -1.656596 0.068667 -1.456795 -0.022476 0.008114
    46 0.031729 -1.160830 0.058838 0.057371 0.001553 0.009235
    47 -0.963866 -2.785145 -0.085350 -0.517058 0.108333 -0.060301
    48 0.028479 -1.403067 -0.013261 -0.735119 -0.016503 -0.028691
    49 0.021413 -0.946062 0.016140 -0.693972 -0.015113 -0.026989
    50 1.164475 -2.543940 -0.170330 -1.409131 -0.127124 0.527280
    51 0.024032 -1.136855 -0.001725 -0.833781 0.005681 0.044248
    52 0.014898 -0.883989 -0.019848 0.054434 0.002253 -0.006064
    53 -0.586770 -1.264477 0.200161 0.027209 -0.476421 -2.844010
    54 1.534554 0.046962 0.016848 -0.004415 0.000704 0.311068
    55 1.117947 0.048424 -0.005766 -0.005444 -0.029500 0.276099
    56 -0.139399 -0.111698 0.014397 0.802675 0.019732 1.231984
    57 -7.143646 4.831242 -0.415220 1.577066 -0.027423 -0.687915
  time 11
    0 1.204308 -7.281438 -5.922123 0.233907 -1.554941 1.234377
    1 2.567376 -0.598482 -0.149315 0.000000 0.000000 -1.047199
    2 2.567376 -0.598482 0.643831 0.000000 0.000000 -1.047199
    3 2.567376 0.712990 -0.942461 0.000000 0.000000 1.002198
    4 2.567376 0.712990 -0.149315 0.000000 0.000000 1.047196
    5 2.567376 0.712990 0.643831 0.000000 0.000000 1.047196
    6 2.567376 -0.598482 -0.942461 0.000000 0.000000 -1.002170
    7 2.567376 0.712989 -1.732171 0.000000 0.000000 0.839559
    8 2.567376 -0.598482 -1.732171 0.000000 0.000000 -0.839568
    9 0.653969 -0.004337 1.861727 -1.570796 -3.137038 0.000000
    10 0.637047 -0.005665 -8.009020 -1.570796 -2.855082 0.000000
    11 2.761088 -0.640694 5.497070 0.000000 0.000000 -0.000002
    12 1.330222 0.000004 0.000000 0.000000 0.000000 0.000000
    13 2.761092 0.632874 5.497070 0.000000 0.000000 -0.000004
    14 1.330217 0.000004 0.000000 0.000000 0.000000 0.000002
    15 2.093581 -0.601854 0.039718 1.570796 3.141592 1.570796
    16 3.634658 -0.003742 1.286283 -3.141592 -1.570796 0.000000
    17 3.363113 0.366359 -0.727189 0.000001 0.000000 -0.000001
    18 3.363113 -0.373991 -0.727189 0.000001 0.000000 -0.000001
    19 -0.002752 5.034045 -2.003348 0.000000 0.000000 0.312869
    20 4.977940 -3.108141 -5.573370 6.178504 -1.420162 -0.605501
    21 8.077701 0.500614 -0.380282 1.569728 -3.116029 0.139402
    22 -0.142236 -8.514362 -0.178355 0.148116 -0.144256 0.133908
    23 -0.488518 -2.755602 -0.228260 -0.109580 0.016121 -0.337980
    24 0.039887 -1.538386 0.018135 -1.675126 -0.009851 0.037585
    25 0.028786 -1.235892 -0.128581 -1.581930 -0.012356 0.036134
    26 0.250027 -2.820665 -0.238396 -0.067366 -0.061190 -0.288152
    27 -0.049759 -1.598510 0.034071 -1.510173 0.001210 -0.040750
    28 -0.034142 -1.187376 0.041812 -1.500892 0.001738 -0.039226
    29 0.957766 -2.746780 -0.090302 0.027242 -0.082328 0.063143
    30 -0.033420 -1.393223 -0.019070 -0.517087 0.008329 -0.025169
    31 -0.022360 -0.961342 -0.004654 -0.897607 0.005297 -0.043696
    32 -1.180681 -2.507217 -0.193859 0.075183 -0.001303 -0.232435
    33 -0.024967 -1.123934 0.017597 -0.592079 0.007526 -0.024711
    34 -0.020057 -0.906594 0.029622 -0.984442 0.005633 -0.040268
    35 0.603042 -1.193371 0.177566 0.490262 -0.748763 -0.632062
    36 1.500770 -0.181166 0.059698 0.028388 -0.182980 -0.629592
    37 0.979674 -0.194698 0.047917 0.117326 -0.264383 -1.172447
    38 0.120153 -0.050270 -0.054489 0.287569 3.110905 1.561085
    39 -5.962349 -7.711804 -6.665549 0.812770 -4.397032 0.810720
    40 -0.184315 -8.384010 -0.009365 -1.276816 -1.183444 1.325899
    41 0.447953 -2.798986 -0.200443 -1.198499 -0.012901 0.146483
    42 -0.032909 -1.499736 0.020565 -1.169246 0.022279 -0.020264
    43 -0.027022 -1.073014 -0.016304 0.139040 -0.003883 0.000216
    44 -0.249534 -2.846964 -0.174213 -0.706889 0.005532 0.015513
    45 0.043235 -1.656596 0.068667 -1.456795 -0.022476 0.008114
    46 0.031729 -1.160830 0.058838 0.057371 0.001553 0.009235
    47 -0.963866 -2.785145 -0.085350 -0.517058 0.108333 -0.060301
    48 0.028479 -1.403067 -0.013261 -0.735119 -0.016503 -0.028691
    49 0.021413 -0.946062 0.016140 -0.693972 -0.015113 -0.026989
    50 1.164475 -2.543940 -0.170330 -1.409131 -0.127124 0.527280
    51 0.024032 -1.136855 -0.001725 -0.833781 0.005681 0.044248
    52 0.014898 -0.883989 -0.019848 0.054434 0.002253 -0.006064
    53 -0.586770 -1.264477 0.200161 0.045294 -0.474308 -2.882553
    54 1.530648 0.050868 0.016848 -0.001838 0.003628 0.173912
    55 1.117947 0.048424 -0.005766 -0.002220 -0.027056 0.150117
    56 -0.139399 -0.111698 0.014397 0.802675 0.019732 1.231984
    57 -7.170990 4.776553 -0.415220 1.576874 -0.027615 -0.680460
  time 12
    0 1.934799 -7.117371 -5.883059 1.809163 -1.539432 -0.364496
    1 2.567376 -0.598482 -0.149315 0.000000 0.000000 -1.047199
    2 2.567376 -0.598482 0.643831 0.000000 0.000000 -1.047199
    3 2.567376 0.712990 -0.942461 0.000000 0.000000 0.883566
    4 2.567376 0.712990 -0.149315 0.000000 0.000000 1.047196
    5 2.567376 0.712990 0.643831 0.000000 0.000000 1.047196
    6 2.567376 -0.598482 -0.942461 0.000000 0.000000 -0.883542
    7 2.567376 0.712989 -1.732171 0.000000 0.000000 0.635022
    8 2.567376 -0.598482 -1.732171 0.000000 0.000000 -0.635005
    9 0.653969 -0.004337 1.861727 -1.570796 -3.137038 0.000000
    10 0.637047 -0.005665 -8.009020 -1.570796 -2.855082 0.000000
    11 2.761088 -0.640694 5.497070 0.000000 0.000000 -0.000002
    12 1.330222 0.000004 0.000000 0.000000 0.000000 0.000000
    13 2.761092 0.632874 5.497070 0.000000 0.000000 -0.000004
    14 1.330217 0.000004 0.000000 0.000000 0.000000 0.000002
    15 2.093581 -0.601854 0.039718 1.570796 3.141592 1.570796
    16 3.634658 -0.003742 1.286283 -3.141592 -1.570796 0.000000
    17 3.363113 0.366359 -0.727189 0.000001 0.000000 -0.000001
    18 3.363113 -0.373991 -0.727189 0.000001 0.000000 -0.000001
    19 -0.002752 5.034045 -2.003348 0.000000 0.000000 0.312869
    20 5.341232 -2.881571 -5.549932 6.117937 -1.441859 -0.484292
    21 8.026918 -0.210345 -0.388095 -1.570562 -0.026946 -3.089743
    22 -0.134423 -8.498736 -0.166636 0.074797 -0.078984 0.109740
    23 -0.488518 -2.755602 -0.228260 -0.109580 0.016121 -0.337980
    24 0.039887 -1.538386 0.018135 -1.675126 -0.009851 0.037585
    25 0.028786 -1.235892 -0.128581 -1.581930 -0.012356 0.036134
    26 0.250027 -2.820665 -0.238396 -0.067366 -0.061190 -0.288152
    27 -0.049759 -1.598510 0.034071 -1.510173 0.001210 -0.040750
    28 -0.034142 -1.187376 0.041812 -1.500892 0.001738 -0.039226
    29 0.957766 -2.746780 -0.090302 0.027242 -0.082328 0.063143
    30 -0.033420 -1.393223 -0.019070 -0.517087 0.008329 -0.025169
    31 -0.022360 -0.961342 -0.004654 -0.897607 0.005297 -0.043696
    32 -1.180681 -2.507217 -0.193859 0.075183 -0.001303 -0.232435
    33 -0.024967 -1.123934 0.017597 -0.592079 0.007526 -0.024711
    34 -0.020057 -0.906594 0.029622 -0.984442 0.005633 -0.040268
    35 0.603042 -1.193371 0.177566 0.490262 -0.748763 -0.632062
    36 1.500770 -0.181166 0.059698 0.028388 -0.182980 -0.629592
    37 0.979674 -0.194698 0.047917 0.117326 -0.264383 -1.172447
    38 0.120153 -0.050270 -0.054489 0.287569 3.110905 1.561085
    39 -5.477959 -7.696179 -6.735864 1.040350 -4.440073 1.065599
    40 -0.160876 -8.395729 0.010167 -0.924594 -1.155176 1.034384
    41 0.447953 -2.798986 -0.200443 -1.198499 -0.012901 0.146483
    42 -0.032909 -1.499736 0.020565 -1.169246 0.022279 -0.020264
    43 -0.027022 -1.073014 -0.016304 0.139040 -0.003883 0.000216
    44 -0.249534 -2.846964 -0.174213 -0.706889 0.005532 0.015513
    45 0.043235 -1.656596 0.068667 -1.456795 -0.022476 0.008114
    46 0.031729 -1.160830 0.058838 0.057371 0.001553 0.009235
    47 -0.963866 -2.785145 -0.085350 -0.517058 0.108333 -0.060301
    48 0.028479 -1.403067 -0.013261 -0.735119 -0.016503 -0.028691
    49 0.021413 -0.946062 0.016140 -0.693972 -0.015113 -0.026989
    50 1.164475 -2.543940 -0.170330 -1.409131 -0.127124 0.527280
    51 0.024032 -1.136855 -0.001725 -0.833781 0.005681 0.044248
    52 0.014898 -0.883989 -0.019848 0.054434 0.002253 -0.006064
    53 -0.586770 -1.264477 0.200161 0.057087 -0.472594 -2.907768
    54 1.526741 0.054775 0.016848 -0.000927 0.004874 0.119955
    55 1.117947 0.048424 -0.005766 -0.000423 -0.025378 0.073584
    56 -0.139399 -0.111698 0.014397 0.802675 0.019732 1.231984
    57 -7.221773 4.690613 -0.419126 1.576682 -0.027806 -0.668066
  time 13
    0 2.614507 -6.945491 -5.840089 2.085218 -1.530290 -0.647623
    1 2.567376 -0.598482 -0.149315 0.000000 0.000000 -1.047199
    2 2.567376 -0.598482 0.643831 0.000000 0.000000 -1.047199
    3 2.567376 0.712990 -0.942461 0.000000 0.000000 0.715846
    4 2.567376 0.712990 -0.149315 0.000000 0.000000 1.047196
    5 2.567376 0.712990 0.643831 0.000000 0.000000 1.047196
    6 2.567376 -0.598482 -0.942461 0.000000 0.000000 -0.715827
    7 2.567376 0.712989 -1.732171 0.000000 0.000000 0.412141
    8 2.567376 -0.598482 -1.732171 0.000000 0.000000 -0.412163
    9 0.653969 -0.004337 1.861727 -1.570796 -3.137038 0.000000
    10 0.637047 -0.005665 -8.009020 -1.570796 -2.855082 0.000000
    11 2.761088 -0.640694 5.497070 0.000000 0.000000 -0.000002
    12 1.330222 0.000004 0.000000 0.000000 0.000000 0.000000
    13 2.761092 0.632874 5.497070 0.000000 0.000000 -0.000004
    14 1.330217 0.000004 0.000000 0.000000 0.000000 0.000002
    15 2.093581 -0.601854 0.039718 1.570796 3.141592 1.570796
    16 3.634658 -0.003742 1.286283 -3.141592 -1.570796 0.000000
    17 3.363113 0.366359 -0.727189 0.000001 0.000000 -0.000001
    18 3.363113 -0.373991 -0.727189 0.000001 0.000000 -0.000001
    19 -0.002752 5.034045 -2.003348 0.000000 0.000000 0.312869
    20 5.665461 -2.666721 -5.503056 6.055269 -1.467447 -0.365585
    21 7.933165 -0.819739 -0.395908 -1.569507 -0.028090 -3.165352
    22 -0.126610 -8.487017 -0.158823 0.017415 -0.038207 0.092366
    23 -0.488518 -2.755602 -0.228260 -0.109580 0.016121 -0.337980
    24 0.039887 -1.538386 0.018135 -1.675126 -0.009851 0.037585
    25 0.028786 -1.235892 -0.128581 -1.581930 -0.012356 0.036134
    26 0.250027 -2.820665 -0.238396 -0.067366 -0.061190 -0.288152
    27 -0.049759 -1.598510 0.034071 -1.510173 0.001210 -0.040750
    28 -0.034142 -1.187376 0.041812 -1.500892 0.001738 -0.039226
    29 0.957766 -2.746780 -0.090302 0.027242 -0.082328 0.063143
    30 -0.033420 -1.393223 -0.019070 -0.517087 0.008329 -0.025169
    31 -0.022360 -0.961342 -0.004654 -0.897607 0.005297 -0.043696
    32 -1.180681 -2.507217 -0.193859 0.075183 -0.001303 -0.232435
    33 -0.024967 -1.123934 0.017597 -0.592079 0.007526 -0.024711
    34 -0.020057 -0.906594 0.029622 -0.984442 0.005633 -0.040268
    35 0.603042 -1.193371 0.177566 0.490262 -0.748763 -0.632062
    36 1.500770 -0.181166 0.059698 0.028388 -0.182980 -0.629592
    37 0.979674 -0.194698 0.047917 0.117326 -0.264383 -1.172447
    38 0.120153 -0.050270 -0.054489 0.287569 3.110905 1.561085
    39 -4.794344 -7.696179 -6.731957 -1.602543 -4.946850 -1.561015
    40 -0.137438 -8.399636 0.021886 -0.692686 -1.094619 0.844580
    41 0.447953 -2.798986 -0.200443 -1.198499 -0.012901 0.146483
    42 -0.032909 -1.499736 0.020565 -1.169246 0.022279 -0.020264
    43 -0.027022 -1.073014 -0.016304 0.139040 -0.003883 0.000216
    44 -0.249534 -2.846964 -0.174213 -0.706889 0.005532 0.015513
    45 0.043235 -1.656596 0.068667 -1.456795 -0.022476 0.008114
    46 0.031729 -1.160830 0.058838 0.057371 0.001553 0.009235
    47 -0.963866 -2.785145 -0.085350 -0.517058 0.108333 -0.060301
    48 0.028479 -1.403067 -0.013261 -0.735119 -0.016503 -0.028691
    49 0.021413 -0.946062 0.016140 -0.693972 -0.015113 -0.026989
    50 1.164475 -2.543940 -0.170330 -1.409131 -0.127124 0.527280
    51 0.024032 -1.136855 -0.001725 -0.833781 0.005681 0.044248
    52 0.014898 -0.883989 -0.019848 0.054434 0.002253 -0.006064
    53 -0.586770 -1.264477 0.200161 0.058214 -0.472414 -2.910177
    54 1.530648 0.050868 0.016848 -0.002533 0.002753 0.213123
    55 1.117947 0.048424 -0.005766 -0.000627 -0.025593 0.082812
    56 -0.139399 -0.111698 0.014397 0.802675 0.019732 1.231984
    57 -7.198335 4.729677 -0.415220 1.576778 -0.027710 -0.673844
  time 14
    0 3.337186 -6.800955 -5.863527 0.224509 -1.588735 1.243745
    1 2.567376 -0.598482 -0.149315 0.000000 0.000000 -0.989163
    2 2.567376 -0.598482 0.643831 0.000000 0.000000 -1.047199
    3 2.567376 0.712990 -0.942461 0.000000 0.000000 0.523582
    4 2.567376 0.712990 -0.149315 0.000000 0.000000 0.989159
    5 2.567376 0.712990 0.643831 0.000000 0.000000 1.047196
    6 2.567376 -0.598482 -0.942461 0.000000 0.000000 -0.523568
    7 2.567376 0.712989 -1.732171 0.000000 0.000000 0.207604
    8 2.567376 -0.598482 -1.732171 0.000000 0.000000 -0.207600
    9 0.653969 -0.004337 1.861727 -1.570796 -3.137038 0.000000
    10 0.637047 -0.005665 -8.009020 -1.570796 -2.855082 0.000000
    11 2.761088 -0.640694 5.497070 0.000000 0.000000 -0.000002
    12 1.330222 0.000004 0.000000 0.000000 0.000000 0.000000
    13 2.761092 0.632874 5.497070 0.000000 0.000000 -0.000004
    14 1.330217 0.000004 0.000000 0.000000 0.000000 0.000002
    15 2.093581 -0.601854 0.039718 1.570796 3.141592 1.570796
    16 3.634658 -0.003742 1.286283 -3.141592 -1.570796 0.000000
    17 3.363113 0.366359 -0.727189 0.000001 0.000000 -0.000001
    18 3.363113 -0.373991 -0.727189 0.000001 0.000000 -0.000001
    19 -0.002752 5.034045 -2.003348 0.000000 0.000000 0.312869
    20 5.962345 -2.463590 -5.440554 6.042086 -1.500552 -0.295620
    21 7.823787 -1.300222 -0.403721 -1.568453 -0.028852 -3.225785
    22 -0.130517 -8.483111 -0.162730 -0.009998 -0.041893 0.094979
    23 -0.488518 -2.755602 -0.228260 -0.109580 0.016121 -0.337980
    24 0.039887 -1.538386 0.018135 -1.675126 -0.009851 0.037585
    25 0.028786 -1.235892 -0.128581 -1.581930 -0.012356 0.036134
    26 0.250027 -2.820665 -0.238396 -0.067366 -0.061190 -0.288152
    27 -0.049759 -1.598510 0.034071 -1.510173 0.001210 -0.040750
    28 -0.034142 -1.187376 0.041812 -1.500892 0.001738 -0.039226
    29 0.957766 -2.746780 -0.090302 0.027242 -0.082328 0.063143
    30 -0.033420 -1.393223 -0.019070 -0.517087 0.008329 -0.025169
    31 -0.022360 -0.961342 -0.004654 -0.897607 0.005297 -0.043696
    32 -1.180681 -2.507217 -0.193859 0.075183 -0.001303 -0.232435
    33 -0.024967 -1.123934 0.017597 -0.592079 0.007526 -0.024711
    34 -0.020057 -0.906594 0.029622 -0.984442 0.005633 -0.040268
    35 0.603042 -1.193371 0.177566 0.490262 -0.748763 -0.632062
    36 1.500770 -0.181166 0.059698 0.028388 -0.182980 -0.629592
    37 0.979674 -0.194698 0.047917 0.117326 -0.264383 -1.172447
    38 0.120153 -0.050270 -0.054489 0.287569 3.110905 1.561085
    39 -3.958381 -7.825089 -6.493669 -0.913575 -4.966429 -0.847812
    40 -0.114000 -8.391823 0.025792 -0.582929 -1.024221 0.707678
    41 0.447953 -2.798986 -0.200443 -1.198499 -0.012901 0.146483
    42 -0.032909 -1.499736 0.020565 -1.169246 0.022279 -0.020264
    43 -0.027022 -1.073014 -0.016304 0.139040 -0.003883 0.000216
    44 -0.249534 -2.846964 -0.174213 -0.706889 0.005532 0.015513
    45 0.043235 -1.656596 0.068667 -1.456795 -0.022476 0.008114
    46 0.031729 -1.160830 0.058838 0.057371 0.001553 0.009235
    47 -0.963866 -2.785145 -0.085350 -0.517058 0.108333 -0.060301
    48 0.028479 -1.403067 -0.013261 -0.735119 -0.016503 -0.028691
    49 0.021413 -0.946062 0.016140 -0.693972 -0.015113 -0.026989
    50 1.164475 -2.543940 -0.170330 -1.409131 -0.127124 0.527280
    51 0.024032 -1.136855 -0.001725 -0.833781 0.005681 0.044248
    52 0.014898 -0.883989 -0.019848 0.054434 0.002253 -0.006064
    53 -0.586770 -1.264477 0.200161 0.055289 -0.472877 -2.903897
    54 1.538460 0.043056 0.016848 -0.005769 -0.000543 0.376103
    55 1.117947 0.048424 -0.005766 -0.001669 -0.026564 0.127023
    56 -0.139399 -0.111698 0.014397 0.802675 0.019732 1.231984
    57 -6.870200 5.272662 -0.403501 1.577928 -0.025987 -0.751188
  time 15
    0 4.071583 -6.660326 -5.910403 1.515357 -1.642029 0.004563
    1 2.567376 -0.598482 -0.149315 0.000000 0.000000 -0.839568
    2 2.567376 -0.598482 0.643831 0.000000 0.000000 -0.989163
    3 2.567376 0.712990 -0.942461 0.000000 0.000000 0.331317
    4 2.567376 0.712990 -0.149315 0.000000 0.000000 0.839559
    5 2.567376 0.712990 0.643831 0.000000 0.000000 0.989159
    6 2.567376 -0.598482 -0.942461 0.000000 0.000000 -0.331309
    7 2.567376 0.712989 -1.732171 0.000000 0.000000 0.058004
    8 2.567376 -0.598482 -1.732171 0.000000 0.000000 -0.058005
    9 0.653969 -0.004337 1.861727 -1.570796 -3.137038 0.000000
    10 0.637047 -0.005665 -8.009020 1.570796 -0.286510 3.141592
    11 2.761088 -0.640694 5.497070 0.000000 0.000000 -0.000002
    12 1.330222 0.000004 0.000000 0.000000 0.000000 0.000000
    13 2.761092 0.632874 5.497070 0.000000 0.000000 -0.000004
    14 1.330217 0.000004 0.000000 0.000000 0.000000 0.000002
    15 2.093581 -0.601854 0.039718 1.570796 3.141592 1.570796
    16 3.634658 -0.003742 1.286283 -3.141592 -1.570796 0.000000
    17 3.363113 0.366359 -0.727189 0.000001 0.000000 -0.000001
    18 3.363113 -0.373991 -0.727189 0.000001 0.000000 -0.000001
    19 -0.002752 5.034045 -2.003348 0.000000 0.000000 0.312869
    20 6.239697 -2.268271 -5.362427 6.099404 -1.539255 -0.296569
    21 7.710502 -1.694766 -0.407627 -1.567590 -0.029519 -3.276350
    22 -0.134423 -8.487017 -0.170542 -0.019572 -0.072079 0.111700
    23 -0.488518 -2.755602 -0.228260 -0.109580 0.016121 -0.337980
    24 0.039887 -1.538386 0.018135 -1.675126 -0.009851 0.037585
    25 0.028786 -1.235892 -0.128581 -1.581930 -0.012356 0.036134
    26 0.250027 -2.820665 -0.238396 -0.067366 -0.061190 -0.288152
    27 -0.049759 -1.598510 0.034071 -1.510173 0.001210 -0.040750
    28 -0.034142 -1.187376 0.041812 -1.500892 0.001738 -0.039226
    29 0.957766 -2.746780 -0.090302 0.027242 -0.082328 0.063143
    30 -0.033420 -1.393223 -0.019070 -0.517087 0.008329 -0.025169
    31 -0.022360 -0.961342 -0.004654 -0.897607 0.005297 -0.043696
    32 -1.180681 -2.507217 -0.193859 0.075183 -0.001303 -0.232435
    33 -0.024967 -1.123934 0.017597 -0.592079 0.007526 -0.024711
    34 -0.020057 -0.906594 0.029622 -0.984442 0.005633 -0.040268
    35 0.603042 -1.193371 0.177566 0.490262 -0.748763 -0.632062
    36 1.500770 -0.181166 0.059698 0.028388 -0.182980 -0.629592
    37 0.979674 -0.194698 0.047917 0.117326 -0.264383 -1.172447
    38 0.120153 -0.050270 -0.054489 0.287569 3.110905 1.561085
    39 -3.216171 -8.024314 -6.052249 -0.433740 -5.053945 -0.329736
    40 -0.090562 -8.384010 0.021886 -0.560025 -0.966218 0.606198
    41 0.447953 -2.798986 -0.200443 -1.198499 -0.012901 0.146483
    42 -0.032909 -1.499736 0.020565 -1.169246 0.022279 -0.020264
    43 -0.027022 -1.073014 -0.016304 0.139040 -0.003883 0.000216
    44 -0.249534 -2.846964 -0.174213 -0.706889 0.005532 0.015513
    45 0.043235 -1.656596 0.068667 -1.456795 -0.022476 0.008114
    46 0.031729 -1.160830 0.058838 0.057371 0.001553 0.009235
    47 -0.963866 -2.785145 -0.085350 -0.517058 0.108333 -0.060301
    48 0.028479 -1.403067 -0.013261 -0.735119 -0.016503 -0.028691
    49 0.021413 -0.946062 0.016140 -0.693972 -0.015113 -0.026989
    50 1.164475 -2.543940 -0.170330 -1.409131 -0.127124 0.527280
    51 0.024032 -1.136855 -0.001725 -0.833781 0.005681 0.044248
    52 0.014898 -0.883989 -0.019848 0.054434 0.002253 -0.006064
    53 -0.586770 -1.264477 0.200161 0.050016 -0.473663 -2.892644
    54 1.546273 0.039149 0.016848 -0.009520 -0.003299 0.539868
    55 1.117947 0.048424 -0.005766 -0.003071 -0.027763 0.184693
    56 -0.139399 -0.111698 0.014397 0.802675 0.019732 1.231984
    57 -6.202211 6.147689 -0.380062 1.579558 -0.022828 -0.884351
  time 16
    0 4.555973 -6.531416 -5.918216 -1.493047 -1.450145 -3.236963
    1 2.567376 -0.598482 -0.149315 0.000000 0.000000 -0.635005
    2 2.567376 -0.598482 0.643831 0.000000 0.000000 -0.839568
    3 2.567376 0.712990 -0.942461 0.000000 0.000000 0.163597
    4 2.567376 0.712990 -0.149315 0.000000 0.000000 0.635022
    5 2.567376 0.712990 0.643831 0.000000 0.000000 0.839559
    6 2.567376 -0.598482 -0.942461 0.000000 0.000000 -0.163626
    7 2.567376 0.712989 -1.732171 0.000000 0.000000 -0.000001
    8 2.567376 -0.598482 -1.732171 0.000000 0.000000 -0.000001
    9 0.653969 -0.004337 1.861727 -1.570796 -3.137038 0.000000
    10 0.637047 -0.005665 -8.009020 -1.570796 -2.855082 0.000000
    11 2.761088 -0.640694 5.497070 0.000000 0.000000 -0.000002
    12 1.330222 0.000004 0.000000 0.000000 0.000000 0.000000
    13 2.761092 0.632874 5.497070 0.000000 0.000000 -0.000004
    14 1.330217 0.000004 0.000000 0.000000 0.000000 0.000002
    15 2.093581 -0.601854 0.039718 1.570796 3.141592 1.570796
    16 3.634658 -0.003742 1.286283 -3.141592 -1.570796 0.000000
    17 3.363113 0.366359 -0.727189 0.000001 0.000000 -0.000001
    18 3.363113 -0.373991 -0.727189 0.000001 0.000000 -0.000001
    19 -0.002752 5.034045 -2.003348 0.000000 0.000000 0.312869
    20 6.419390 -2.127642 -5.296018 0.430806 -1.567722 -0.872593
    21 7.624562 -1.960399 -0.411533 -1.567015 -0.029995 -3.310786
    22 -0.138329 -8.490924 -0.174449 -0.028301 -0.093354 0.126985
    23 -0.488518 -2.755602 -0.228260 -0.109580 0.016121 -0.337980
    24 0.039887 -1.538386 0.018135 -1.675126 -0.009851 0.037585
    25 0.028786 -1.235892 -0.128581 -1.581930 -0.012356 0.036134
    26 0.250027 -2.820665 -0.238396 -0.067366 -0.061190 -0.288152
    27 -0.049759 -1.598510 0.034071 -1.510173 0.001210 -0.040750
    28 -0.034142 -1.187376 0.041812 -1.500892 0.001738 -0.039226
    29 0.957766 -2.746780 -0.090302 0.027242 -0.082328 0.063143
    30 -0.033420 -1.393223 -0.019070 -0.517087 0.008329 -0.025169
    31 -0.022360 -0.961342 -0.004654 -0.897607 0.005297 -0.043696
    32 -1.180681 -2.507217 -0.193859 0.075183 -0.001303 -0.232435
    33 -0.024967 -1.123934 0.017597 -0.592079 0.007526 -0.024711
    34 -0.020057 -0.906594 0.029622 -0.984442 0.005633 -0.040268
    35 0.603042 -1.193371 0.177566 0.490262 -0.748763 -0.632062
    36 1.500770 -0.181166 0.059698 0.028388 -0.182980 -0.629592
    37 0.979674 -0.194698 0.047917 0.117326 -0.264383 -1.172447
    38 0.120153 -0.050270 -0.054489 0.287569 3.110905 1.561085
    39 -2.778658 -8.141505 -5.685050 -0.238539 -5.142641 -0.106406
    40 -0.074936 -8.380104 0.021886 -0.557339 -0.922730 0.543037
    41 0.447953 -2.798986 -0.200443 -1.198499 -0.012901 0.146483
    42 -0.032909 -1.499736 0.020565 -1.169246 0.022279 -0.020264
    43 -0.027022 -1.073014 -0.016304 0.139040 -0.003883 0.000216
    44 -0.249534 -2.846964 -0.174213 -0.706889 0.005532 0.015513
    45 0.043235 -1.656596 0.068667 -1.456795 -0.022476 0.008114
    46 0.031729 -1.160830 0.058838 0.057371 0.001553 0.009235
    47 -0.963866 -2.785145 -0.085350 -0.517058 0.108333 -0.060301
    48 0.028479 -1.403067 -0.013261 -0.735119 -0.016503 -0.028691
    49 0.021413 -0.946062 0.016140 -0.693972 -0.015113 -0.026989
    50 1.164475 -2.543940 -0.170330 -1.409131 -0.127124 0.527280
    51 0.024032 -1.136855 -0.001725 -0.833781 0.005681 0.044248
    52 0.014898 -0.883989 -0.019848 0.054434 0.002253 -0.006064
    53 -0.586770 -1.264477 0.200161 0.044144 -0.474462 -2.880096
    54 1.554086 0.039149 0.016848 -0.011905 -0.004606 0.635390
    55 1.117947 0.048424 -0.005766 -0.004342 -0.028733 0.234297
    56 -0.139399 -0.111698 0.014397 0.802675 0.019732 1.231984
    57 -5.639693 6.729738 -0.360530 1.580516 -0.020339 -0.982570
  time 17
    0 4.665351 -6.468914 -5.894778 -1.446152 -1.443085 -3.286668
    1 2.567376 -0.598482 -0.149315 0.000000 0.000000 -0.412163
    2 2.567376 -0.598482 0.643831 0.000000 0.000000 -0.635005
    3 2.567376 0.712990 -0.942461 0.000000 0.000000 0.044965
    4 2.567376 0.712990 -0.149315 0.000000 0.000000 0.412141
    5 2.567376 0.712990 0.643831 0.000000 0.000000 0.635022
    6 2.567376 -0.598482 -0.942461 0.000000 0.000000 -0.044998
    7 2.567376 0.712989 -1.732171 0.000000 0.000000 -0.000001
    8 2.567376 -0.598482 -1.732171 0.000000 0.000000 -0.000001
    9 0.653969 -0.004337 1.861727 -1.570796 -3.137038 0.000000
    10 0.637047 -0.005665 -8.009020 -1.570796 -2.855082 0.000000
    11 2.761088 -0.640694 5.497070 0.000000 0.000000 -0.000002
    12 1.330222 0.000004 0.000000 0.000000 0.000000 0.000000
    13 2.761092 0.632874 5.497070 0.000000 0.000000 -0.000004
    14 1.330217 0.000004 0.000000 0.000000 0.000000 0.000002
    15 2.093581 -0.601854 0.039718 1.570796 3.141592 1.570796
    16 3.634658 -0.003742 1.286283 -3.141592 -1.570796 0.000000
    17 3.363113 0.366359 -0.727189 0.000001 0.000000 -0.000001
    18 3.363113 -0.373991 -0.727189 0.000001 0.000000 -0.000001
    19 -0.002752 5.034045 -2.003348 0.000000 0.000000 0.312869
    20 6.474079 -2.084672 -5.276486 5.856565 -1.576784 -0.004632
    21 7.593311 -2.042433 -0.411533 -1.566823 -0.030090 -3.321539
    22 -0.138329 -8.490924 -0.174449 -0.041870 -0.090415 0.135258
    23 -0.488518 -2.755602 -0.228260 -0.109580 0.016121 -0.337980
    24 0.039887 -1.538386 0.018135 -1.675126 -0.009851 0.037585
    25 0.028786 -1.235892 -0.128581 -1.581930 -0.012356 0.036134
    26 0.250027 -2.820665 -0.238396 -0.067366 -0.061190 -0.288152
    27 -0.049759 -1.598510 0.034071 -1.510173 0.001210 -0.040750
    28 -0.034142 -1.187376 0.041812 -1.500892 0.001738 -0.039226
    29 0.957766 -2.746780 -0.090302 0.027242 -0.082328 0.063143
    30 -0.033420 -1.393223 -0.019070 -0.517087 0.008329 -0.025169
    31 -0.022360 -0.961342 -0.004654 -0.897607 0.005297 -0.043696
    32 -1.180681 -2.507217 -0.193859 0.075183 -0.001303 -0.232435
    33 -0.024967 -1.123934 0.017597 -0.592079 0.007526 -0.024711
    34 -0.020057 -0.906594 0.029622 -0.984442 0.005633 -0.040268
    35 0.603042 -1.193371 0.177566 0.490262 -0.748763 -0.632062
    36 1.500770 -0.181166 0.059698 0.028388 -0.182980 -0.629592
    37 0.979674 -0.194698 0.047917 0.117326 -0.264383 -1.172447
    38 0.120153 -0.050270 -0.054489 0.287569 3.110905 1.561085
    39 -2.661467 -8.110254 -5.634268 -0.223773 -5.174542 -0.090440
    40 -0.071030 -8.380104 0.021886 -0.539714 -0.904084 0.523164
    41 0.447953 -2.798986 -0.200443 -1.198499 -0.012901 0.146483
    42 -0.032909 -1.499736 0.020565 -1.169246 0.022279 -0.020264
    43 -0.027022 -1.073014 -0.016304 0.139040 -0.003883 0.000216
    44 -0.249534 -2.846964 -0.174213 -0.706889 0.005532 0.015513
    45 0.043235 -1.656596 0.068667 -1.456795 -0.022476 0.008114
    46 0.031729 -1.160830 0.058838 0.057371 0.001553 0.009235
    47 -0.963866 -2.785145 -0.085350 -0.517058 0.108333 -0.060301
    48 0.028479 -1.403067 -0.013261 -0.735119 -0.016503 -0.028691
    49 0.021413 -0.946062 0.016140 -0.693972 -0.015113 -0.026989
    50 1.164475 -2.543940 -0.170330 -1.409131 -0.127124 0.527280
    51 0.024032 -1.136855 -0.001725 -0.833781 0.005681 0.044248
    52 0.014898 -0.883989 -0.019848 0.054434 0.002253 -0.006064
    53 -0.586770 -1.264477 0.200161 0.035575 -0.475532 -2.861820
    54 1.550180 0.039149 0.016848 -0.010886 -0.004078 0.595303
    55 1.117947 0.048424 -0.005766 -0.005456 -0.029500 0.276375
    56 -0.139399 -0.111698 0.014397 0.802675 0.019732 1.231984
    57 -5.659225 6.710206 -0.364437 1.580516 -0.020435 -0.979215
  time 18
    0 4.563786 -6.461101 -5.867433 -1.390808 -1.456857 -3.360460
    1 2.567376 -0.598482 -0.149315 0.000000 0.000000 -0.207600
    2 2.567376 -0.598482 0.643831 0.000000 0.000000 -0.412163
    3 2.567376 0.712990 -0.942461 0.000000 0.000000 -0.000001
    4 2.567376 0.712990 -0.149315 0.000000 0.000000 0.207604
    5 2.567376 0.712990 0.643831 0.000000 0.000000 0.412141
    6 2.567376 -0.598482 -0.942461 0.000000 0.000000 -0.000001
    7 2.567376 0.712989 -1.732171 0.000000 0.000000 -0.000001
    8 2.567376 -0.598482 -1.732171 0.000000 0.000000 -0.000001
    9 0.653969 -0.004337 1.861727 -1.570796 -3.137038 0.000000
    10 0.637047 -0.005665 -8.009020 -1.570796 -2.855082 0.000000
    11 2.761088 -0.640694 5.497070 0.000000 0.000000 -0.000002
    12 1.330222 0.000004 0.000000 0.000000 0.000000 0.000000
    13 2.761092 0.632874 5.497070 0.000000 0.000000 -0.000004
    14 1.330217 0.000004 0.000000 0.000000 0.000000 0.000002
    15 2.093581 -0.601854 0.039718 1.570796 3.141592 1.570796
    16 3.634658 -0.003742 1.286283 -3.141592 -1.570796 0.000000
    17 3.363113 0.366359 -0.727189 0.000001 0.000000 -0.000001
    18 3.363113 -0.373991 -0.727189 0.000001 0.000000 -0.000001
    19 -0.002752 5.034045 -2.003348 0.000000 0.000000 0.312869
    20 6.446735 -2.104204 -5.288206 5.320925 -1.573106 0.525670
    21 7.608936 -2.003369 -0.411533 -1.566919 -0.029995 -3.316162
    22 -0.134423 -8.487017 -0.170542 -0.054001 -0.078658 0.141572
    23 -0.488518 -2.755602 -0.228260 -0.109580 0.016121 -0.337980
    24 0.039887 -1.538386 0.018135 -1.675126 -0.009851 0.037585
    25 0.028786 -1.235892 -0.128581 -1.581930 -0.012356 0.036134
    26 0.250027 -2.820665 -0.238396 -0.067366 -0.061190 -0.288152
    27 -0.049759 -1.598510 0.034071 -1.510173 0.001210 -0.040750
    28 -0.034142 -1.187376 0.041812 -1.500892 0.001738 -0.039226
    29 0.957766 -2.746780 -0.090302 0.027242 -0.082328 0.063143
    30 -0.033420 -1.393223 -0.019070 -0.517087 0.008329 -0.025169
    31 -0.022360 -0.961342 -0.004654 -0.897607 0.005297 -0.043696
    32 -1.180681 -2.507217 -0.193859 0.075183 -0.001303 -0.232435
    33 -0.024967 -1.123934 0.017597 -0.592079 0.007526 -0.024711
    34 -0.020057 -0.906594 0.029622 -0.984442 0.005633 -0.040268
    35 0.603042 -1.193371 0.177566 0.490262 -0.748763 -0.632062
    36 1.500770 -0.181166 0.059698 0.028388 -0.182980 -0.629592
    37 0.979674 -0.194698 0.047917 0.117326 -0.264383 -1.172483
    38 0.120153 -0.050270 -0.054489 0.287569 3.110905 1.561085
    39 -2.716156 -8.028220 -5.755365 -0.280042 -5.163992 -0.158032
    40 -0.071030 -8.380104 0.021886 -0.520439 -0.906748 0.527580
    41 0.447953 -2.798986 -0.200443 -1.198499 -0.012901 0.146483
    42 -0.032909 -1.499736 0.020565 -1.169246 0.022279 -0.020264
    43 -0.027022 -1.073014 -0.016304 0.139040 -0.003883 0.000216
    44 -0.249534 -2.846964 -0.174213 -0.706889 0.005532 0.015513
    45 0.043235 -1.656596 0.068667 -1.456795 -0.022476 0.008114
    46 0.031729 -1.160830 0.058838 0.057371 0.001553 0.009235
    47 -0.963866 -2.785145 -0.085350 -0.517058 0.108333 -0.060301
    48 0.028479 -1.403067 -0.013261 -0.735119 -0.016503 -0.028691
    49 0.021413 -0.946062 0.016140 -0.693972 -0.015113 -0.026989
    50 1.164475 -2.543940 -0.170330 -1.409131 -0.127124 0.527280
    51 0.024032 -1.136855 -0.001725 -0.833781 0.005681 0.044248
    52 0.014898 -0.883989 -0.019848 0.054434 0.002253 -0.006064
    53 -0.586770 -1.264477 0.200161 0.024872 -0.476653 -2.839049
    54 1.542367 0.039149 0.016848 -0.007974 -0.002281 0.474787
    55 1.117947 0.048424 -0.005766 -0.006559 -0.030196 0.316871
    56 -0.139399 -0.111698 0.014397 0.802675 0.019732 1.231984
    57 -5.956109 6.417228 -0.372250 1.580037 -0.021775 -0.928801
  time 19
    0 4.473939 -6.457195 -5.843995 -1.331192 -1.468604 -3.435018
    1 2.567376 -0.598482 -0.149315 0.000000 0.000000 -0.058005
    2 2.567376 -0.598482 0.643831 0.000000 0.000000 -0.207600
    3 2.567376 0.712990 -0.942461 0.000000 0.000000 -0.000001
    4 2.567376 0.712990 -0.149315 0.000000 0.000000 0.058004
    5 2.567376 0.712990 0.643831 0.000000 0.000000 0.207604
    6 2.567376 -0.598482 -0.942461 0.000000 0.000000 -0.000001
    7 2.567376 0.712989 -1.732171 0.000000 0.000000 -0.000001
    8 2.567376 -0.598482 -1.732171 0.000000 0.000000 -0.000001
    9 0.653969 -0.004337 1.861727 -1.570796 -3.137038 0.000000
    10 0.637047 -0.005665 -8.009020 -1.570796 -2.855082 0.000000
    11 2.761088 -0.640694 5.497070 0.000000 0.000000 -0.000002
    12 1.330222 0.000004 0.000000 0.000000 0.000000 0.000000
    13 2.761092 0.632874 5.497070 0.000000 0.000000 -0.000004
    14 1.330217 0.000004 0.000000 0.000000 0.000000 0.000002
    15 2.093581 -0.601854 0.039718 1.570796 3.141592 1.570796
    16 3.634658 -0.003742 1.286283 -3.141592 -1.570796 0.000000
    17 3.363113 0.366359 -0.727189 0.000001 0.000000 -0.000001
    18 3.363113 -0.373991 -0.727189 0.000001 0.000000 -0.000001
    19 -0.002752 5.034045 -2.003348 0.000000 0.000000 0.312869
    20 6.419390 -2.127642 -5.296018 0.430806 -1.567722 -0.872593
    21 7.624562 -1.960399 -0.411533 -1.567015 -0.029995 -3.310786
    22 -0.134423 -8.487017 -0.170542 -0.062730 -0.069000 0.146406
    23 -0.488518 -2.755602 -0.228260 -0.109580 0.016121 -0.337980
    24 0.039887 -1.538386 0.018135 -1.675126 -0.009851 0.037585
    25 0.028786 -1.235892 -0.128581 -1.581930 -0.012356 0.036134
    26 0.250027 -2.820665 -0.238396 -0.067366 -0.061190 -0.288152
    27 -0.049759 -1.598510 0.034071 -1.510173 0.001210 -0.040750
    28 -0.034142 -1.187376 0.041812 -1.500892 0.001738 -0.039226
    29 0.957766 -2.746780 -0.090302 0.027242 -0.082328 0.063143
    30 -0.033420 -1.393223 -0.019070 -0.517087 0.008329 -0.025169
    31 -0.022360 -0.961342 -0.004654 -0.897607 0.005297 -0.043696
    32 -1.180681 -2.507217 -0.193859 0.075183 -0.001303 -0.232435
    33 -0.024967 -1.123934 0.017597 -0.592079 0.007526 -0.024711
    34 -0.020057 -0.906594 0.029622 -0.984442 0.005633 -0.040268
    35 0.603042 -1.193371 0.177566 0.490262 -0.748763 -0.632062
    36 1.500770 -0.181166 0.059698 0.028388 -0.182980 -0.629592
    37 0.979674 -0.194698 0.047917 0.117326 -0.264383 -1.172447
    38 0.120153 -0.050270 -0.054489 0.287569 3.110905 1.561085
    39 -2.774752 -7.965718 -5.853024 -0.330424 -5.153443 -0.217210
    40 -0.074936 -8.384010 0.021886 -0.505736 -0.910281 0.532180
    41 0.447953 -2.798986 -0.200443 -1.198499 -0.012901 0.146483
    42 -0.032909 -1.499736 0.020565 -1.169246 0.022279 -0.020264
    43 -0.027022 -1.073014 -0.016304 0.139040 -0.003883 0.000216
    44 -0.249534 -2.846964 -0.174213 -0.706889 0.005532 0.015513
    45 0.043235 -1.656596 0.068667 -1.456795 -0.022476 0.008114
    46 0.031729 -1.160830 0.058838 0.057371 0.001553 0.009235
    47 -0.963866 -2.785145 -0.085350 -0.517058 0.108333 -0.060301
    48 0.028479 -1.403067 -0.013261 -0.735119 -0.016503 -0.028691
    49 0.021413 -0.946062 0.016140 -0.693972 -0.015113 -0.026989
    50 1.164475 -2.543940 -0.170330 -1.409131 -0.127124 0.527280
    51 0.024032 -1.136855 -0.001725 -0.833781 0.005681 0.044248
    52 0.014898 -0.883989 -0.019848 0.054434 0.002253 -0.006064
    53 -0.586770 -1.264477 0.200161 0.017814 -0.477271 -2.824056
    54 1.538460 0.043056 0.016848 -0.006044 -0.000782 0.388543
    55 1.117947 0.048424 -0.005766 -0.007266 -0.030615 0.342362
    56 -0.139399 -0.111698 0.014397 0.802675 0.019732 1.231984
    57 -6.178772 6.175033 -0.380062 1.579654 -0.022733 -0.889104
  time 20
    0 4.473939 -6.453288 -5.836182 -1.304612 -1.470051 -3.462833
    1 2.567376 -0.598482 -0.149315 0.000000 0.000000 -0.000001
    2 2.567376 -0.598482 0.643831 0.000000 0.000000 -0.058005
    3 2.567376 0.712990 -0.942461 0.000000 0.000000 -0.000001
    4 2.567376 0.712990 -0.149315 0.000000 0.000000 -0.000001
    5 2.567376 0.712990 0.643831 0.000000 0.000000 0.058004
    6 2.567376 -0.598482 -0.942461 0.000000 0.000000 -0.000001
    7 2.567376 0.712989 -1.732171 0.000000 0.000000 -0.000001
    8 2.567376 -0.598482 -1.732171 0.000000 0.000000 -0.000001
    9 0.653969 -0.004337 1.861727 -1.570796 -3.137038 0.000000
    10 0.637047 -0.005665 -8.009020 -1.570796 -2.855082 0.000000
    11 2.761088 -0.640694 5.497070 0.000000 0.000000 -0.000002
    12 1.330222 0.000004 0.000000 0.000000 0.000000 0.000000
    13 2.761092 0.632874 5.497070 0.000000 0.000000 -0.000004
    14 1.330217 0.000004 0.000000 0.000000 0.000000 0.000002
    15 2.093581 -0.601854 0.039718 1.570796 3.141592 1.570796
    16 3.634658 -0.003742 1.286283 -3.141592 -1.570796 0.000000
    17 3.363113 0.366359 -0.727189 0.000001 0.000000 -0.000001
    18 3.363113 -0.373991 -0.727189 0.000001 0.000000 -0.000001
    19 -0.002752 5.034045 -2.003348 0.000000 0.000000 0.312869
    20 6.419390 -2.127642 -5.296018 0.413993 -1.567722 -0.855770
    21 7.624562 -1.960399 -0.411533 -1.567015 -0.029995 -3.310786
    22 -0.134423 -8.487017 -0.170542 -0.063850 -0.066854 0.148845
    23 -0.488518 -2.755602 -0.228260 -0.109580 0.016121 -0.337980
    24 0.039887 -1.538386 0.018135 -1.675126 -0.009851 0.037585
    25 0.028786 -1.235892 -0.128581 -1.581930 -0.012356 0.036134
    26 0.250027 -2.820665 -0.238396 -0.067366 -0.061190 -0.288152
    27 -0.049759 -1.598510 0.034071 -1.510173 0.001210 -0.040750
    28 -0.034142 -1.187376 0.041812 -1.500892 0.001738 -0.039226
    29 0.957766 -2.746780 -0.090302 0.027242 -0.082328 0.063143
    30 -0.033420 -1.393223 -0.019070 -0.517087 0.008329 -0.025169
    31 -0.022360 -0.961342 -0.004654 -0.897607 0.005297 -0.043696
    32 -1.180681 -2.507217 -0.193859 0.075183 -0.001303 -0.232435
    33 -0.024967 -1.123934 0.017597 -0.592079 0.007526 -0.024711
    34 -0.020057 -0.906594 0.029622 -0.984442 0.005633 -0.040268
    35 0.603042 -1.193371 0.177566 0.490262 -0.748763 -0.632062
    36 1.500770 -0.181166 0.059698 0.028388 -0.182980 -0.629592
    37 0.979674 -0.194698 0.047917 0.117326 -0.264383 -1.172447
    38 0.120153 -0.050270 -0.054489 0.287569 3.110905 1.561085
    39 -2.774752 -7.961812 -5.853024 -0.336998 -5.154541 -0.224285
    40 -0.071030 -8.384010 0.021886 -0.502201 -0.907944 0.531168
    41 0.447953 -2.798986 -0.200443 -1.198499 -0.012901 0.146483
    42 -0.032909 -1.499736 0.020565 -1.169246 0.022279 -0.020264
    43 -0.027022 -1.073014 -0.016304 0.139040 -0.003883 0.000216
    44 -0.249534 -2.846964 -0.174213 -0.706889 0.005532 0.015513
    45 0.043235 -1.656596 0.068667 -1.456795 -0.022476 0.008114
    46 0.031729 -1.160830 0.058838 0.057371 0.001553 0.009235
    47 -0.963866 -2.785145 -0.085350 -0.517058 0.108333 -0.060301
    48 0.028479 -1.403067 -0.013261 -0.735119 -0.016503 -0.028691
    49 0.021413 -0.946062 0.016140 -0.693972 -0.015113 -0.026989
    50 1.164475 -2.543940 -0.170330 -1.409131 -0.127124 0.527280
    51 0.024032 -1.136855 -0.001725 -0.833781 0.005681 0.044248
    52 0.014898 -0.883989 -0.019848 0.054434 0.002253 -0.006064
    53 -0.586770 -1.264477 0.200161 0.015692 -0.477439 -2.819562
    54 1.538460 0.043056 0.016848 -0.005613 -0.000411 0.368810
    55 1.117947 0.048424 -0.005766 -0.007506 -0.030747 0.351003
    56 -0.139399 -0.111698 0.014397 0.802675 0.019732 1.231984
    57 -6.202211 6.147689 -0.380062 1.579558 -0.022828 -0.884817
  time 21
    0 4.481752 -6.457195 -5.832276 -1.298632 -1.468951 -3.465414
    1 2.567376 -0.598482 -0.149315 0.000000 0.000000 -0.000001
    2 2.567376 -0.598482 0.643831 0.000000 0.000000 -0.000001
    3 2.567376 0.712990 -0.942461 0.000000 0.000000 -0.000001
    4 2.567376 0.712990 -0.149315 0.000000 0.000000 -0.000001
    5 2.567376 0.712990 0.643831 0.000000 0.000000 -0.000001
    6 2.567376 -0.598482 -0.942461 0.000000 0.000000 -0.000001
    7 2.567376 0.712989 -1.732171 0.000000 0.000000 -0.000001
    8 2.567376 -0.598482 -1.732171 0.000000 0.000000 -0.000001
    9 0.653969 -0.004337 1.861727 -1.570796 -3.137038 0.000000
    10 0.637047 -0.005665 -8.009020 -1.570796 -2.855082 0.000000
    11 2.761088 -0.640694 5.497070 0.000000 0.000000 -0.000002
    12 1.330222 0.000004 0.000000 0.000000 0.000000 0.000000
    13 2.761092 0.632874 5.497070 0.000000 0.000000 -0.000004
    14 1.330217 0.000004 0.000000 0.000000 0.000000 0.000002
    15 2.093581 -0.601854 0.039718 1.570796 3.141592 1.570796
    16 3.634658 -0.003742 1.286283 -3.141592 -1.570796 0.000000
    17 3.363113 0.366359 -0.727189 0.000001 0.000000 -0.000001
    18 3.363113 -0.373991 -0.727189 0.000001 0.000000 -0.000001
    19 -0.002752 5.034045 -2.003348 0.000000 0.000000 0.312869
    20 6.419390 -2.127642 -5.296018 0.400045 -1.567775 -0.841881
    21 7.624562 -1.960399 -0.411533 -1.567015 -0.029995 -3.310786
    22 -0.134423 -8.487017 -0.170542 -0.060574 -0.068300 0.149367
    23 -0.488518 -2.755602 -0.228260 -0.109580 0.016121 -0.337980
    24 0.039887 -1.538386 0.018135 -1.675126 -0.009851 0.037585
    25 0.028786 -1.235892 -0.128581 -1.581930 -0.012356 0.036134
    26 0.250027 -2.820665 -0.238396 -0.067366 -0.061190 -0.288152
    27 -0.049759 -1.598510 0.034071 -1.510173 0.001210 -0.040750
    28 -0.034142 -1.187376 0.041812 -1.500892 0.001738 -0.039226
    29 0.957766 -2.746780 -0.090302 0.027242 -0.082328 0.063143
    30 -0.033420 -1.393223 -0.019070 -0.517087 0.008329 -0.025169
    31 -0.022360 -0.961342 -0.004654 -0.897607 0.005297 -0.043696
    32 -1.180681 -2.507217 -0.193859 0.075183 -0.001303 -0.232435
    33 -0.024967 -1.123934 0.017597 -0.592079 0.007526 -0.024711
    34 -0.020057 -0.906594 0.029622 -0.984442 0.005633 -0.040268
    35 0.603042 -1.193371 0.177566 0.490262 -0.748763 -0.632062
    36 1.500770 -0.181166 0.059698 0.028388 -0.182980 -0.629592
    37 0.979674 -0.194698 0.047917 0.117326 -0.264383 -1.172447
    38 0.120153 -0.050270 -0.054489 0.287569 3.110905 1.561085
    39 -2.770845 -7.977437 -5.833493 -0.333123 -5.154203 -0.218453
    40 -0.071030 -8.384010 0.021886 -0.505547 -0.907237 0.531628
    41 0.447953 -2.798986 -0.200443 -1.198499 -0.012901 0.146483
    42 -0.032909 -1.499736 0.020565 -1.169246 0.022279 -0.020264
    43 -0.027022 -1.073014 -0.016304 0.139040 -0.003883 0.000216
    44 -0.249534 -2.846964 -0.174213 -0.706889 0.005532 0.015513
    45 0.043235 -1.656596 0.068667 -1.456795 -0.022476 0.008114
    46 0.031729 -1.160830 0.058838 0.057371 0.001553 0.009235
    47 -0.963866 -2.785145 -0.085350 -0.517058 0.108333 -0.060301
    48 0.028479 -1.403067 -0.013261 -0.735119 -0.016503 -0.028691
    49 0.021413 -0.946062 0.016140 -0.693972 -0.015113 -0.026989
    50 1.164475 -2.543940 -0.170330 -1.409131 -0.127124 0.527280
    51 0.024032 -1.136855 -0.001725 -0.833781 0.005681 0.044248
    52 0.014898 -0.883989 -0.019848 0.054434 0.002253 -0.006064
    53 -0.586770 -1.264477 0.200161 0.015429 -0.477452 -2.818999
    54 1.538460 0.043056 0.016848 -0.005565 -0.000363 0.366341
    55 1.117947 0.048424 -0.005766 -0.007530 -0.030771 0.352081
    56 -0.139399 -0.111698 0.014397 0.802675 0.019732 1.231984
    57 -6.163147 6.190659 -0.380062 1.579654 -0.022637 -0.891806
  time 22
    0 4.489565 -6.461101 -5.836182 -1.298727 -1.465769 -3.461208
    1 2.567376 -0.598482 -0.149315 0.000000 0.000000 -0.000001
    2 2.567376 -0.598482 0.643831 0.000000 0.000000 -0.000001
    3 2.567376 0.712990 -0.942461 0.000000 0.000000 -0.000001
    4 2.567376 0.712990 -0.149315 0.000000 0.000000 -0.000001
    5 2.567376 0.712990 0.643831 0.000000 0.000000 -0.000001
    6 2.567376 -0.598482 -0.942461 0.000000 0.000000 -0.000001
    7 2.567376 0.712989 -1.732171 0.000000 0.000000 -0.000001
    8 2.567376 -0.598482 -1.732171 0.000000 0.000000 -0.000001
    9 0.653969 -0.004337 1.861727 -1.570796 -3.137038 0.000000
    10 0.637047 -0.005665 -8.009020 -1.570796 -2.855082 0.000000
    11 2.761088 -0.640694 5.497070 0.000000 0.000000 -0.000002
    12 1.330222 0.000004 0.000000 0.000000 0.000000 0.000000
    13 2.761092 0.632874 5.497070 0.000000 0.000000 -0.000004
    14 1.330217 0.000004 0.000000 0.000000 0.000000 0.000002
    15 2.093581 -0.601854 0.039718 1.570796 3.141592 1.570796
    16 3.634658 -0.003742 1.286283 -3.141592 -1.570796 0.000000
    17 3.363113 0.366359 -0.727189 0.000001 0.000000 -0.000001
    18 3.363113 -0.373991 -0.727189 0.000001 0.000000 -0.000001
    19 -0.002752 5.034045 -2.003348 0.000000 0.000000 0.312869
    20 6.419390 -2.127642 -5.296018 0.392785 -1.567775 -0.834634
    21 7.624562 -1.960399 -0.411533 -1.567015 -0.029995 -3.310786
    22 -0.134423 -8.490924 -0.170542 -0.057003 -0.072033 0.149715
    23 -0.488518 -2.755602 -0.228260 -0.109580 0.016121 -0.337980
    24 0.039887 -1.538386 0.018135 -1.675126 -0.009851 0.037585
    25 0.028786 -1.235892 -0.128581 -1.581930 -0.012356 0.036134
    26 0.250027 -2.820665 -0.238396 -0.067366 -0.061190 -0.288152
    27 -0.049759 -1.598510 0.034071 -1.510173 0.001210 -0.040750
    28 -0.034142 -1.187376 0.041812 -1.500892 0.001738 -0.039226
    29 0.957766 -2.746780 -0.090302 0.027242 -0.082328 0.063143
    30 -0.033420 -1.393223 -0.019070 -0.517087 0.008329 -0.025169
    31 -0.022360 -0.961342 -0.004654 -0.897607 0.005297 -0.043696
    32 -1.180681 -2.507217 -0.193859 0.075183 -0.001303 -0.232435
    33 -0.024967 -1.123934 0.017597 -0.592079 0.007526 -0.024711
    34 -0.020057 -0.906594 0.029622 -0.984442 0.005633 -0.040268
    35 0.603042 -1.193371 0.177566 0.490262 -0.748763 -0.632062
    36 1.500770 -0.181166 0.059698 0.028388 -0.182980 -0.629592
    37 0.979674 -0.194698 0.047917 0.117326 -0.264383 -1.172447
    38 0.120153 -0.050270 -0.054489 0.287569 3.110905 1.561085
    39 -2.770845 -7.996969 -5.813961 -0.327285 -5.153528 -0.210422
    40 -0.071030 -8.384010 0.021886 -0.511580 -0.907944 0.532503
    41 0.447953 -2.798986 -0.200443 -1.198499 -0.012901 0.146483
    42 -0.032909 -1.499736 0.020565 -1.169246 0.022279 -0.020264
    43 -0.027022 -1.073014 -0.016304 0.139040 -0.003883 0.000216
    44 -0.249534 -2.846964 -0.174213 -0.706889 0.005532 0.015513
    45 0.043235 -1.656596 0.068667 -1.456795 -0.022476 0.008114
    46 0.031729 -1.160830 0.058838 0.057371 0.001553 0.009235
    47 -0.963866 -2.785145 -0.085350 -0.517058 0.108333 -0.060301
    48 0.028479 -1.403067 -0.013261 -0.735119 -0.016503 -0.028691
    49 0.021413 -0.946062 0.016140 -0.693972 -0.015113 -0.026989
    50 1.164475 -2.543940 -0.170330 -1.409131 -0.127124 0.527280
    51 0.024032 -1.136855 -0.001725 -0.833781 0.005681 0.044248
    52 0.014898 -0.883989 -0.019848 0.054434 0.002253 -0.006064
    53 -0.586770 -1.264477 0.200161 0.016220 -0.477400 -2.820688
    54 1.538460 0.043056 0.016848 -0.005721 -0.000507 0.373749
    55 1.117947 0.048424 -0.005766 -0.007446 -0.030711 0.348846
    56 -0.139399 -0.111698 0.014397 0.802675 0.019732 1.231984
    57 -6.116270 6.245348 -0.376156 1.579750 -0.022445 -0.900286
  time 23
    0 4.497377 -6.468914 -5.840089 -1.303378 -1.461660 -3.451745
    1 2.567376 -0.598482 -0.149315 0.000000 0.000000 -0.000001
    2 2.567376 -0.598482 0.643831 0.000000 0.000000 -0.000001
    3 2.567376 0.712990 -0.942461 0.000000 0.000000 -0.000001
    4 2.567376 0.712990 -0.149315 0.000000 0.000000 -0.000001
    5 2.567376 0.712990 0.643831 0.000000 0.000000 -0.000001
    6 2.567376 -0.598482 -0.942461 0.000000 0.000000 -0.000001
    7 2.567376 0.712989 -1.732171 0.000000 0.000000 -0.000001
    8 2.567376 -0.598482 -1.732171 0.000000 0.000000 -0.000001
    9 0.653969 -0.004337 1.861727 -1.570796 -3.137038 0.000000
    10 0.637047 -0.005665 -8.009020 -1.570796 -2.855082 0.000000
    11 2.761088 -0.640694 5.497070 0.000000 0.000000 -0.000002
    12 1.330222 0.000004 0.000000 0.000000 0.000000 0.000000
    13 2.761092 0.632874 5.497070 0.000000 0.000000 -0.000004
    14 1.330217 0.000004 0.000000 0.000000 0.000000 0.000002
    15 2.093581 -0.601854 0.039718 1.570796 3.141592 1.570796
    16 3.634658 -0.003742 1.286283 -3.141592 -1.570796 0.000000
    17 3.363113 0.366359 -0.727189 0.000001 0.000000 -0.000001
    18 3.363113 -0.373991 -0.727189 0.000001 0.000000 -0.000001
    19 -0.002752 5.034045 -2.003348 0.000000 0.000000 0.312869
    20 6.419390 -2.127642 -5.296018 0.392498 -1.567775 -0.834376
    21 7.624562 -1.960399 -0.411533 -1.567015 -0.029995 -3.310786
    22 -0.134423 -8.490924 -0.170542 -0.052818 -0.076838 0.149672
    23 -0.488518 -2.755602 -0.228260 -0.109580 0.016121 -0.337980
    24 0.039887 -1.538386 0.018135 -1.675126 -0.009851 0.037585
    25 0.028786 -1.235892 -0.128581 -1.581930 -0.012356 0.036134
    26 0.250027 -2.820665 -0.238396 -0.067366 -0.061190 -0.288152
    27 -0.049759 -1.598510 0.034071 -1.510173 0.001210 -0.040750
    28 -0.034142 -1.187376 0.041812 -1.500892 0.001738 -0.039226
    29 0.957766 -2.746780 -0.090302 0.027242 -0.082328 0.063143
    30 -0.033420 -1.393223 -0.019070 -0.517087 0.008329 -0.025169
    31 -0.022360 -0.961342 -0.004654 -0.897607 0.005297 -0.043696
    32 -1.180681 -2.507217 -0.193859 0.075183 -0.001303 -0.232435
    33 -0.024967 -1.123934 0.017597 -0.592079 0.007526 -0.024711
    34 -0.020057 -0.906594 0.029622 -0.984442 0.005633 -0.040268
    35 0.603042 -1.193371 0.177566 0.490262 -0.748763 -0.632062
    36 1.500770 -0.181166 0.059698 0.028388 -0.182980 -0.629592
    37 0.979674 -0.194698 0.047917 0.117326 -0.264383 -1.172447
    38 0.120153 -0.050270 -0.054489 0.287569 3.110905 1.561085
    39 -2.766939 -8.020407 -5.790522 -0.319484 -5.152599 -0.200002
    40 -0.071030 -8.380104 0.021886 -0.519167 -0.909248 0.533653
    41 0.447953 -2.798986 -0.200443 -1.198499 -0.012901 0.146483
    42 -0.032909 -1.499736 0.020565 -1.169246 0.022279 -0.020264
    43 -0.027022 -1.073014 -0.016304 0.139040 -0.003883 0.000216
    44 -0.249534 -2.846964 -0.174213 -0.706889 0.005532 0.015513
    45 0.043235 -1.656596 0.068667 -1.456795 -0.022476 0.008114
    46 0.031729 -1.160830 0.058838 0.057371 0.001553 0.009235
    47 -0.963866 -2.785145 -0.085350 -0.517058 0.108333 -0.060301
    48 0.028479 -1.403067 -0.013261 -0.735119 -0.016503 -0.028691
    49 0.021413 -0.946062 0.016140 -0.693972 -0.015113 -0.026989
    50 1.164475 -2.543940 -0.170330 -1.409131 -0.127124 0.527280
    51 0.024032 -1.136855 -0.001725 -0.833781 0.005681 0.044248
    52 0.014898 -0.883989 -0.019848 0.054434 0.002253 -0.006064
    53 -0.586770 -1.264477 0.200161 0.017274 -0.477310 -2.822930
    54 1.538460 0.043056 0.016848 -0.005937 -0.000687 0.383627
    55 1.117947 0.048424 -0.005766 -0.007326 -0.030651 0.344519
    56 -0.139399 -0.111698 0.014397 0.802675 0.019732 1.231984
    57 -6.057675 6.307850 -0.376156 1.579845 -0.022158 -0.910630
  time 24
    0 4.501284 -6.468914 -5.840089 -1.306131 -1.459519 -3.446584
    1 2.567376 -0.598482 -0.149315 0.000000 0.000000 -0.000001
    2 2.567376 -0.598482 0.643831 0.000000 0.000000 -0.000001
    3 2.567376 0.712990 -0.942461 0.000000 0.000000 -0.000001
    4 2.567376 0.712990 -0.149315 0.000000 0.000000 -0.000001
    5 2.567376 0.712990 0.643831 0.000000 0.000000 -0.000001
    6 2.567376 -0.598482 -0.942461 0.000000 0.000000 -0.000001
    7 2.567376 0.712989 -1.732171 0.000000 0.000000 -0.000001
    8 2.567376 -0.598482 -1.732171 0.000000 0.000000 -0.000001
    9 0.653969 -0.004337 1.861727 -1.570796 -3.137038 0.000000
    10 0.637047 -0.005665 -8.009020 -1.570796 -2.855082 0.000000
    11 2.761088 -0.640694 5.497070 0.000000 0.000000 -0.000002
    12 1.330222 0.000004 0.000000 0.000000 0.000000 0.000000
    13 2.761092 0.632874 5.497070 0.000000 0.000000 -0.000004
    14 1.330217 0.000004 0.000000 0.000000 0.000000 0.000002
    15 2.093581 -0.601854 0.039718 1.570796 3.141592 1.570796
    16 3.634658 -0.003742 1.286283 -3.141592 -1.570796 0.000000
    17 3.363113 0.366359 -0.727189 0.000001 0.000000 -0.000001
    18 3.363113 -0.373991 -0.727189 0.000001 0.000000 -0.000001
    19 -0.002752 5.034045 -2.003348 0.000000 0.000000 0.312869
    20 6.419390 -2.127642 -5.296018 0.430806 -1.567722 -0.872593
    21 7.624562 -1.960399 -0.411533 -1.567015 -0.029995 -3.310786
    22 -0.134423 -8.490924 -0.170542 -0.050725 -0.079311 0.149759
    23 -0.488518 -2.755602 -0.228260 -0.109580 0.016121 -0.337980
    24 0.039887 -1.538386 0.018135 -1.675126 -0.009851 0.037585
    25 0.028786 -1.235892 -0.128581 -1.581930 -0.012356 0.036134
    26 0.250027 -2.820665 -0.238396 -0.067366 -0.061190 -0.288152
    27 -0.049759 -1.598510 0.034071 -1.510173 0.001210 -0.040750
    28 -0.034142 -1.187376 0.041812 -1.500892 0.001738 -0.039226
    29 0.957766 -2.746780 -0.090302 0.027242 -0.082328 0.063143
    30 -0.033420 -1.393223 -0.019070 -0.517087 0.008329 -0.025169
    31 -0.022360 -0.961342 -0.004654 -0.897607 0.005297 -0.043696
    32 -1.180681 -2.507217 -0.193859 0.075183 -0.001303 -0.232435
    33 -0.024967 -1.123934 0.017597 -0.592079 0.007526 -0.024711
    34 -0.020057 -0.906594 0.029622 -0.984442 0.005633 -0.040268
    35 0.603042 -1.193371 0.177566 0.490262 -0.748763 -0.632062
    36 1.500770 -0.181166 0.059698 0.028388 -0.182980 -0.629592
    37 0.979674 -0.194698 0.047917 0.117326 -0.264383 -1.172483
    38 0.120153 -0.050270 -0.054489 0.287569 3.110905 1.561085
    39 -2.766939 -8.032127 -5.778803 -0.315364 -5.152093 -0.194648
    40 -0.071030 -8.380104 0.021886 -0.523125 -0.910009 0.534251
    41 0.447953 -2.798986 -0.200443 -1.198499 -0.012901 0.146483
    42 -0.032909 -1.499736 0.020565 -1.169246 0.022279 -0.020264
    43 -0.027022 -1.073014 -0.016304 0.139040 -0.003883 0.000216
    44 -0.249534 -2.846964 -0.174213 -0.706889 0.005532 0.015513
    45 0.043235 -1.656596 0.068667 -1.456795 -0.022476 0.008114
    46 0.031729 -1.160830 0.058838 0.057371 0.001553 0.009235
    47 -0.963866 -2.785145 -0.085350 -0.517058 0.108333 -0.060301
    48 0.028479 -1.403067 -0.013261 -0.735119 -0.016503 -0.028691
    49 0.021413 -0.946062 0.016140 -0.693972 -0.015113 -0.026989
    50 1.164475 -2.543940 -0.170330 -1.409131 -0.127124 0.527280
    51 0.024032 -1.136855 -0.001725 -0.833781 0.005681 0.044248
    52 0.014898 -0.883989 -0.019848 0.054434 0.002253 -0.006064
    53 -0.586770 -1.264477 0.200161 0.017814 -0.477271 -2.824056
    54 1.538460 0.043056 0.016848 -0.006044 -0.000782 0.388543
    55 1.117947 0.048424 -0.005766 -0.007266 -0.030615 0.342362
    56 -0.139399 -0.111698 0.014397 0.802675 0.019732 1.231984
    57 -6.030330 6.339101 -0.376156 1.579941 -0.022063 -0.915662
end
