version 1
nodes
  0 "root" -1
  1 "Bone01" 0
  2 "Bone_L_Upper" 1
  3 "Bone_Lefthand" 1
  4 "Bone13" 3
  5 "Bone14" 4
  6 "Bone15" 5
  7 "Bone17" 3
  8 "Bone18" 7
  9 "Bone19" 8
  10 "Bone21" 3
  11 "Bone22" 10
  12 "Bone23" 11
  13 "Bone09" 3
  14 "Bone10" 13
  15 "Bone11" 14
  16 "Bone05" 3
  17 "Bone06" 16
  18 "Bone07" 17
  19 "Bone_Se_Hand-L" 3
  20 "Bone04" 0
  21 "Bone_Righthand" 20
  22 "Bone39" 21
  23 "Bone40" 22
  24 "Bone41" 23
  25 "Bone35" 21
  26 "Bone36" 25
  27 "Bone37" 26
  28 "Bone31" 21
  29 "Bone32" 28
  30 "Bone33" 29
  31 "Bone43" 21
  32 "Bone44" 31
  33 "Bone45" 32
  34 "Bone27" 21
  35 "Bone28" 34
  36 "Bone29" 35
  37 "Bone_Se_Hand-R" 21
  38 "Bone_R_Upper" 20
  39 "thanatos3_root" -1
  40 "thanatos3_01" 39
  41 "wr" 39
  42 "wr_01" 41
  43 "wr_02" 42
  44 "wr_03" 43
  45 "wr_05" 43
  46 "wr_06" 43
  47 "wr_04" 43
  48 "t_bone04" 39
  49 "t_bone03" 39
  50 "t_bone02" 39
  51 "t_bone01" 39
  52 "wl" 39
  53 "wl_01" 52
  54 "wl_02" 53
  55 "wl_03" 54
  56 "wl_04" 54
  57 "wl_05" 54
  58 "wl_06" 54
  59 "triger" 39
  60 "Megazine" 39
  61 "thanatos3_02" 39
  62 "t_bone08" 39
  63 "t_bone07" 39
  64 "t_bone06" 39
  65 "t_bone05" 39
  66 "knife01" 55
  67 "wl_bone06" 66
  68 "wl_bone06_t" 67
  69 "ef_knife01" 66
  70 "knife02" 54
  71 "wl_bone04" 70
  72 "wl_bone04_t" 71
  73 "wl_bone05" 70
  74 "wl_bone05_t" 73
  75 "ef_knife02" 70
  76 "knife03" 53
  77 "wl_bone01" 76
  78 "wl_bone01_t" 77
  79 "wl_bone02" 76
  80 "wl_bone02_t" 79
  81 "wl_bone03" 76
  82 "wl_bone03_t" 81
  83 "ef_knife03" 76
  84 "knife06" 44
  85 "wr_bone06" 84
  86 "wr_bone06_t" 85
  87 "ef_knife06" 84
  88 "knife05" 43
  89 "wr_bone05" 88
  90 "wr_bone05_t" 89
  91 "wr_bone04" 88
  92 "wr_bone04_t" 91
  93 "ef_knife05" 88
  94 "knife04" 42
  95 "wr_bone03" 94
  96 "wr_bone03_t" 95
  97 "wr_bone02" 94
  98 "wr_bone02_t" 97
  99 "wr_bone01" 94
  100 "wr_bone01_t" 99
  101 "ef_knife04" 94
end
skeleton
  time 0
    0 0.477731 3.362119 -1.772872 0.000000 0.000000 0.000000
    1 8.321792 -1.748724 -3.721751 5.945551 -2.011848 -0.041195
    2 8.065982 1.192041 -0.368563 1.568660 -3.117487 0.224126
    3 -0.001606 -8.533894 -0.072883 0.299303 0.574520 0.325336
    4 -0.488518 -2.755602 -0.228260 -0.311239 -0.109538 -0.260223
    5 0.039887 -1.534479 0.014229 -1.583330 -0.011050 0.035439
    6 0.028786 -1.212454 -0.132487 -1.415017 -0.014010 0.031975
    7 0.250027 -2.820665 -0.238396 -0.273856 -0.256227 -0.147141
    8 -0.049759 -1.598510 0.041883 -1.441502 0.002505 -0.039204
    9 -0.034142 -1.179563 0.045718 -1.331130 0.004566 -0.035115
    10 0.957766 -2.746780 -0.090302 -0.004290 -0.208897 0.116786
    11 -0.033420 -1.397129 -0.015163 -0.407059 0.007730 -0.019644
    12 -0.022360 -0.957436 0.010971 -0.359202 0.006927 -0.016874
    13 -1.180681 -2.507217 -0.193859 -0.088237 0.129772 -0.147787
    14 -0.024967 -1.127840 0.017597 -1.126773 0.001366 -0.048021
    15 -0.020057 -0.906594 0.037435 -1.249453 0.000324 -0.051102
    16 0.618667 -1.201183 0.189285 0.712155 -1.154109 -0.951250
    17 1.481238 -0.212417 0.067511 0.047072 -0.212187 -0.756152
    18 1.034363 -0.159541 0.036197 0.054227 -0.208894 -0.860802
    19 0.120153 -0.050270 -0.054489 0.589772 3.217556 1.464753
    20 -1.223923 -7.485235 -6.767115 -0.943375 -4.969578 -0.493194
    21 0.022723 -8.403542 0.014073 -0.202708 -0.567380 0.256462
    22 0.447953 -2.798986 -0.200443 -0.762104 -0.398723 -0.003996
    23 -0.032909 -1.499736 0.020565 -1.140704 0.022052 -0.019485
    24 -0.027022 -1.123796 -0.024116 -1.160053 0.023789 -0.020302
    25 -0.249534 -2.846964 -0.174213 -0.469218 -0.245869 -0.208874
    26 0.043235 -1.656596 0.072574 -1.351121 -0.021350 0.006353
    27 0.031729 -1.145205 0.058838 -1.033434 -0.011403 0.005819
    28 -0.963866 -2.785145 -0.085350 0.251745 0.089649 -0.093306
    29 0.028479 -1.403067 -0.013261 -0.756216 -0.017258 -0.029278
    30 0.021413 -0.942156 0.012233 -1.061266 -0.029386 -0.035319
    31 1.164475 -2.543940 -0.170330 -1.012242 -0.632537 0.144275
    32 0.024032 -1.132948 0.002182 -0.722672 0.002792 0.038699
    33 0.014898 -0.899614 -0.015942 -0.908381 0.005789 0.045877
    34 -0.586770 -1.264477 0.200161 -0.276060 -0.126372 -2.529235
    35 1.546273 0.039149 0.016848 -0.009508 -0.003287 0.539173
    36 1.117947 0.048424 -0.005766 0.005162 -0.017815 -0.220205
    37 -0.049553 0.185186 0.260498 0.391233 0.025629 1.274553
    38 -6.424874 5.882056 -0.387875 1.579078 -0.023887 -0.842747
    39 4.476699 -11.097995 -5.543139 1.617801 -1.561395 -0.055981
    40 2.674608 0.548968 -2.262515 -1.570796 1.570796 0.000000
    41 2.167578 -0.043464 4.830877 3.141592 0.000001 1.570794
    42 0.534988 0.018297 -0.023263 -1.570794 -1.506920 -0.000003
    43 3.266718 0.000000 0.000000 0.000000 0.000000 2.850907
    44 3.495342 -0.000001 0.000000 0.000000 0.000000 -2.920270
    45 3.495343 -0.000001 0.000000 0.000000 0.000000 3.140458
    46 3.495342 -0.000001 0.000000 0.000000 0.000000 3.136970
    47 3.495342 -0.000001 0.000000 0.000000 0.000000 3.140275
    48 2.167577 -0.526180 -4.048347 -0.000001 -0.000002 1.570797
    49 2.167578 -0.117887 -2.533408 -0.000001 -0.000002 1.570797
    50 2.167578 0.521323 -4.048346 3.141592 0.000001 1.570794
    51 2.167578 0.113227 -2.533408 3.141592 0.000001 1.570794
    52 2.167578 -0.705793 4.830842 3.141592 0.000001 1.570794
    53 0.215461 0.018273 -0.007649 -1.570795 -1.647430 -0.000003
    54 3.264326 0.000000 0.000000 0.000000 0.000000 -2.857501
    55 3.517676 0.000002 0.000000 0.000000 0.000000 2.937446
    56 3.517676 0.000001 0.000000 0.000000 0.000000 -3.057610
    57 3.517676 0.000002 0.000000 0.000000 0.000000 -3.052469
    58 3.517676 0.000002 0.000000 0.000000 0.000000 -3.063513
    59 1.042816 0.000000 -0.359884 0.000001 3.141592 0.000000
    60 0.710891 0.000000 -1.631585 0.000001 3.141592 0.000000
    61 2.938107 -0.003140 -4.189798 -1.570796 1.570796 0.000000
    62 3.289057 0.000000 -2.644778 -1.570796 0.000000 0.000000
    63 2.885600 -0.000001 -0.932851 -1.570796 0.000000 0.000000
    64 2.647849 0.000000 0.829686 -1.570796 0.000000 0.000000
    65 2.424506 0.000000 2.419790 -1.570796 0.000000 0.000000
    66 5.962649 -0.010698 0.568543 1.422128 -1.570317 0.000000
    67 -0.095711 -55.699737 -9.066104 -1.570758 1.252308 -1.570750
    68 -0.000002 0.000001 0.000000 0.000000 0.000000 2.603953
    69 -2.894556 -37.962873 -12.822670 -0.689760 -2.251347 -1.566561
    70 3.489016 0.014759 0.568545 1.965618 -1.570796 0.000000
    71 0.173809 50.970972 -32.098642 -1.570763 -1.292844 -1.570815
    72 -0.000002 0.000001 0.000000 0.000000 0.000000 2.645099
    73 0.173818 50.414509 -32.259640 -1.570787 -0.352534 -1.570786
    74 -0.000002 0.000000 0.000000 0.000000 0.000000 2.753138
    75 -2.840650 41.717048 -23.140340 -0.652421 0.139557 -1.573453
    76 3.272459 -0.033361 0.568545 1.223770 -1.570796 0.000000
    77 0.173820 -54.091337 -27.131083 1.570781 0.519677 1.570798
    78 -0.000002 0.000000 0.000000 0.000000 0.000000 2.456145
    79 0.173826 -54.610961 -27.182867 1.570757 1.238153 1.570768
    80 -0.000002 0.000000 0.000000 0.000000 0.000000 2.652798
    81 0.173827 -55.140890 -26.862091 -1.570770 1.053172 -1.570764
    82 -0.000002 0.000000 0.000000 0.000000 0.000000 2.492011
    83 -2.808526 -41.486483 -19.948671 -0.741418 -1.975369 -1.563921
    84 5.975039 -0.006454 0.568522 -1.421459 -1.570796 0.000000
    85 -0.095714 55.840278 -8.012039 1.570757 1.258724 1.570748
    86 0.000001 0.000000 0.000000 0.000000 0.000000 -2.603130
    87 -2.660180 38.374102 -12.077699 -0.792180 0.593724 -1.574073
    88 3.482349 -0.011764 0.568522 -1.968015 -1.570796 0.000000
    89 0.318348 -48.293754 -35.326992 -1.570787 -2.720892 -1.570787
    90 0.000000 0.000000 0.000000 0.000000 0.000000 -2.648115
    91 0.318357 -48.862291 -35.188469 1.570820 -1.183344 1.570788
    92 0.000000 0.000001 0.000000 0.000000 0.000000 -2.388463
    93 -2.715080 -40.918657 -24.669410 -0.828464 -1.777684 -1.557548
    94 3.286241 0.007806 0.568521 -1.235318 -1.570796 0.000000
    95 0.318361 56.482937 -23.271265 1.570768 1.102123 1.570762
    96 0.000000 0.000000 0.000000 0.000000 0.000000 -2.448053
    97 0.318361 55.947920 -23.603284 -1.570738 1.340014 -1.570749
    98 0.000000 0.000000 0.000000 0.000000 0.000000 -2.650298
    99 0.318355 55.426431 -23.554808 -1.570782 0.461098 -1.570799
    100 -0.000001 0.000000 0.000000 0.000000 0.000000 -2.408331
    101 -2.746032 42.317260 -18.236151 -0.736431 0.339987 -1.573647
  time 1
    0 0.477731 3.362119 -1.772872 0.000000 0.000000 0.000000
    1 8.517110 -0.944012 -3.588935 5.921010 -1.999754 -0.035428
    2 8.046450 -0.003308 -0.388095 1.570577 -3.114997 0.077513
    3 0.002300 -8.545613 -0.072883 0.331535 0.567191 0.433018
    4 -0.488518 -2.755602 -0.228260 -0.311239 -0.109538 -0.260223
    5 0.039887 -1.534479 0.014229 -1.583330 -0.011050 0.035439
    6 0.028786 -1.212454 -0.132487 -1.415017 -0.014010 0.031975
    7 0.250027 -2.820665 -0.238396 -0.273856 -0.256227 -0.147141
    8 -0.049759 -1.598510 0.041883 -1.441502 0.002505 -0.039204
    9 -0.034142 -1.179563 0.045718 -1.331130 0.004566 -0.035115
    10 0.957766 -2.746780 -0.090302 -0.004290 -0.208897 0.116786
    11 -0.033420 -1.393223 -0.022976 -0.718012 0.007862 -0.035296
    12 -0.022360 -0.957436 0.003159 -0.670119 0.007754 -0.032490
    13 -1.180681 -2.507217 -0.193859 -0.088237 0.129772 -0.147787
    14 -0.024967 -1.127840 0.017597 -1.126773 0.001366 -0.048021
    15 -0.020057 -0.906594 0.037435 -1.249453 0.000324 -0.051102
    16 0.618667 -1.201183 0.189285 0.712155 -1.154109 -0.951250
    17 1.481238 -0.212417 0.067511 0.047072 -0.212187 -0.756152
    18 1.034363 -0.159541 0.036197 0.054227 -0.208894 -0.860802
    19 0.120153 -0.050270 -0.054489 0.589772 3.217556 1.464753
    20 -1.262987 -6.836778 -7.196815 -1.141050 -5.087951 -0.668068
    21 0.034442 -8.403542 0.010167 -0.141217 -0.485618 0.307189
    22 0.447953 -2.798986 -0.200443 -0.762104 -0.398723 -0.003996
    23 -0.032909 -1.499736 0.020565 -1.140704 0.022052 -0.019485
    24 -0.027022 -1.123796 -0.024116 -1.160053 0.023789 -0.020302
    25 -0.249534 -2.846964 -0.174213 -0.469218 -0.245869 -0.208874
    26 0.043235 -1.656596 0.072574 -1.351121 -0.021350 0.006353
    27 0.031729 -1.145205 0.058838 -1.033434 -0.011403 0.005819
    28 -0.963866 -2.785145 -0.085350 0.251745 0.089649 -0.093306
    29 0.028479 -1.403067 -0.013261 -0.756216 -0.017258 -0.029278
    30 0.021413 -0.942156 0.012233 -1.061266 -0.029386 -0.035319
    31 1.164475 -2.543940 -0.170330 -1.012242 -0.632537 0.144275
    32 0.024032 -1.132948 0.002182 -0.722672 0.002792 0.038699
    33 0.014898 -0.899614 -0.015942 -0.908381 0.005789 0.045877
    34 -0.586770 -1.264477 0.200161 -0.276060 -0.126387 -2.529235
    35 1.546273 0.039149 0.016848 -0.009508 -0.003287 0.539173
    36 1.117947 0.048424 -0.005766 0.005162 -0.017815 -0.220205
    37 -0.049553 0.185186 0.260498 0.391233 0.025629 1.274553
    38 -7.557721 4.006998 -0.430845 1.575135 -0.029807 -0.575995
    39 4.461074 -10.101871 -5.035311 0.640533 -1.475891 0.894588
    40 2.674608 0.548968 -2.262515 -1.570796 1.570796 0.000000
    41 2.167578 -0.043464 4.830877 3.141592 0.000001 1.570794
    42 0.534988 0.018297 -0.023263 -1.570794 -1.506920 -0.000003
    43 3.266718 0.000000 0.000000 0.000000 0.000000 2.850907
    44 3.495342 -0.000001 0.000000 0.000000 0.000000 -2.920270
    45 3.495343 -0.000001 0.000000 0.000000 0.000000 3.140458
    46 3.495342 -0.000001 0.000000 0.000000 0.000000 3.136970
    47 3.495342 -0.000001 0.000000 0.000000 0.000000 3.140275
    48 2.167577 -0.526180 -4.048347 -0.000001 -0.000002 1.570797
    49 2.167578 -0.117887 -2.533408 -0.000001 -0.000002 1.570797
    50 2.167578 0.521323 -4.048346 3.141592 0.000001 1.570794
    51 2.167578 0.113227 -2.533408 3.141592 0.000001 1.570794
    52 2.167578 -0.705793 4.830842 3.141592 0.000001 1.570794
    53 0.215461 0.018273 -0.007649 1.570796 -1.494180 -3.141499
    54 3.264326 0.000000 0.000000 0.000000 0.000000 -2.857501
    55 3.517676 0.000002 0.000000 0.000000 0.000000 2.937446
    56 3.517676 0.000001 0.000000 0.000000 0.000000 -3.057610
    57 3.517676 0.000002 0.000000 0.000000 0.000000 -3.052469
    58 3.517676 0.000002 0.000000 0.000000 0.000000 -3.063513
    59 1.042816 0.000000 -0.359884 0.000001 2.496771 0.000000
    60 0.710891 0.000000 -1.631585 0.000001 3.141592 0.000000
    61 2.938107 -0.003140 -4.189798 -1.570796 1.570796 0.000000
    62 3.289057 0.000000 -2.644778 -1.570796 0.000000 0.000000
    63 2.885600 -0.000001 -0.932851 -1.570796 0.000000 0.000000
    64 2.647849 0.000000 0.829686 -1.570796 0.000000 0.000000
    65 2.424506 0.000000 2.419790 -1.570796 0.000000 0.000000
    66 5.962649 -0.010698 0.568543 1.422128 -1.570796 0.000000
    67 -0.095711 -55.699737 -9.066104 -1.570758 1.252308 -1.570750
    68 -0.000002 0.000001 0.000000 0.000000 0.000000 2.603953
    69 -0.738240 -36.603456 -13.705510 -0.631114 -2.223389 -1.530737
    70 3.489016 0.014759 0.568545 1.965618 -1.570796 0.000000
    71 0.173809 50.970972 -32.098642 -1.570763 -1.292844 -1.570815
    72 -0.000002 0.000001 0.000000 0.000000 0.000000 2.645099
    73 0.173818 50.414509 -32.259640 -1.570787 -0.352534 -1.570786
    74 -0.000002 0.000000 0.000000 0.000000 0.000000 2.753138
    75 -0.391357 41.404538 -21.542635 -0.569212 0.167910 -1.595678
    76 3.272459 -0.033361 0.568545 1.223770 -1.570796 0.000000
    77 0.173820 -54.091337 -27.131083 1.570781 0.519677 1.570798
    78 -0.000002 0.000000 0.000000 0.000000 0.000000 2.456145
    79 0.173826 -54.610961 -27.182867 1.570757 1.238153 1.570768
    80 -0.000002 0.000000 0.000000 0.000000 0.000000 2.652798
    81 0.173827 -55.140890 -26.862091 -1.570770 1.053172 -1.570764
    82 -0.000002 0.000000 0.000000 0.000000 0.000000 2.492011
    83 -0.077974 -39.986437 -20.593222 -0.710069 -1.947724 -1.504064
    84 5.975039 -0.006454 0.568522 -1.421459 -1.570796 0.000000
    85 -0.095714 55.840278 -8.012039 1.570757 1.258724 1.570748
    86 0.000001 0.000000 0.000000 0.000000 0.000000 -2.603130
    87 0.054747 37.577203 -10.843287 -0.721273 0.621861 -1.601467
    88 3.482349 -0.011764 0.568522 -1.968015 -1.570796 0.000000
    89 0.318348 -48.293754 -35.326992 -1.570787 -2.720892 -1.570787
    90 0.000000 0.000000 0.000000 0.000000 0.000000 -2.648115
    91 0.318357 -48.862291 -35.188469 1.570820 -1.183344 1.570788
    92 0.000000 0.000001 0.000000 0.000000 0.000000 -2.388463
    93 0.015472 -39.402986 -25.005357 -0.865050 -1.750966 -1.432039
    94 3.286241 0.007806 0.568521 -1.235318 -1.570796 0.000000
    95 0.318361 56.482937 -23.271265 1.570768 1.102123 1.570762
    96 0.000000 0.000000 0.000000 0.000000 0.000000 -2.448053
    97 0.318361 55.947920 -23.603284 -1.570738 1.340014 -1.570749
    98 0.000000 0.000000 0.000000 0.000000 0.000000 -2.650298
    99 0.318355 55.426431 -23.554808 -1.570782 0.461098 -1.570799
    100 -0.000001 0.000000 0.000000 0.000000 0.000000 -2.408331
    101 -0.007667 41.766462 -16.697041 -0.658108 0.368236 -1.597399
  time 2
    0 0.477731 3.362119 -1.772872 0.000000 0.000000 0.000000
    1 8.521017 -0.897136 -3.585029 5.909986 -1.999329 -0.025979
    2 8.042543 -0.034559 -0.388095 1.570673 -3.114901 0.073373
    3 0.002300 -8.545613 -0.072883 0.332297 0.560799 0.427559
    4 -0.488518 -2.755602 -0.228260 -0.311239 -0.109538 -0.260223
    5 0.039887 -1.534479 0.014229 -1.583330 -0.011050 0.035439
    6 0.028786 -1.212454 -0.132487 -1.415017 -0.014010 0.031975
    7 0.250027 -2.820665 -0.238396 -0.273856 -0.256227 -0.147141
    8 -0.049759 -1.598510 0.041883 -1.441502 0.002505 -0.039204
    9 -0.034142 -1.179563 0.045718 -1.331130 0.004566 -0.035115
    10 0.957766 -2.746780 -0.090302 -0.004290 -0.208897 0.116786
    11 -0.033420 -1.393223 -0.022976 -0.715335 0.007886 -0.035152
    12 -0.022360 -0.957436 0.003159 -0.667452 0.007778 -0.032358
    13 -1.180681 -2.507217 -0.193859 -0.088237 0.129772 -0.147787
    14 -0.024967 -1.127840 0.017597 -1.126773 0.001366 -0.048021
    15 -0.020057 -0.906594 0.037435 -1.249453 0.000324 -0.051102
    16 0.618667 -1.201183 0.189285 0.712155 -1.154109 -0.951250
    17 1.481238 -0.212417 0.067511 0.047072 -0.212187 -0.756152
    18 1.034363 -0.159541 0.036197 0.054227 -0.208894 -0.860802
    19 0.120153 -0.050270 -0.054489 0.589772 3.217556 1.464753
    20 -1.266893 -6.793808 -7.235879 -1.133370 -5.082445 -0.658496
    21 0.034442 -8.403542 0.010167 -0.143145 -0.494442 0.304229
    22 0.447953 -2.798986 -0.200443 -0.762104 -0.398723 -0.003996
    23 -0.032909 -1.499736 0.020565 -1.140704 0.022052 -0.019485
    24 -0.027022 -1.123796 -0.024116 -1.160053 0.023789 -0.020302
    25 -0.249534 -2.846964 -0.174213 -0.469218 -0.245869 -0.208874
    26 0.043235 -1.656596 0.072574 -1.351121 -0.021350 0.006353
    27 0.031729 -1.145205 0.058838 -1.033434 -0.011403 0.005819
    28 -0.963866 -2.785145 -0.085350 0.251745 0.089649 -0.093306
    29 0.028479 -1.403067 -0.013261 -0.756216 -0.017258 -0.029278
    30 0.021413 -0.942156 0.012233 -1.061266 -0.029386 -0.035319
    31 1.164475 -2.543940 -0.170330 -1.012242 -0.632537 0.144275
    32 0.024032 -1.132948 0.002182 -0.722672 0.002792 0.038699
    33 0.014898 -0.899614 -0.015942 -0.908381 0.005789 0.045877
    34 -0.586770 -1.264477 0.200161 -0.276060 -0.126387 -2.529235
    35 1.546273 0.039149 0.016848 -0.009508 -0.003287 0.539173
    36 1.117947 0.048424 -0.005766 0.005162 -0.017815 -0.220205
    37 -0.049553 0.185186 0.260498 0.391233 0.025629 1.274553
    38 -7.565533 3.983560 -0.430845 1.575075 -0.029867 -0.572679
    39 4.468886 -10.066713 -5.105626 0.621373 -1.485088 0.917487
    40 2.674608 0.548968 -2.262515 -1.570796 1.570796 0.000000
    41 2.167578 -0.043464 4.830877 3.141592 0.000001 1.570794
    42 0.534988 0.018297 -0.023263 -1.570794 -1.506920 -0.000003
    43 3.266718 0.000000 0.000000 0.000000 0.000000 2.850907
    44 3.495342 -0.000001 0.000000 0.000000 0.000000 -2.920270
    45 3.495343 -0.000001 0.000000 0.000000 0.000000 3.140458
    46 3.495342 -0.000001 0.000000 0.000000 0.000000 3.136970
    47 3.495342 -0.000001 0.000000 0.000000 0.000000 3.140275
    48 2.167577 -0.526180 -4.048347 -0.000001 -0.000002 1.570797
    49 2.167578 -0.117887 -2.533408 -0.000001 -0.000002 1.570797
    50 2.167578 0.521323 -4.048346 3.141592 0.000001 1.570794
    51 2.167578 0.113227 -2.533408 3.141592 0.000001 1.570794
    52 2.167578 -0.705793 4.830842 3.141592 0.000001 1.570794
    53 0.215461 0.018273 -0.007649 1.570796 -1.494180 -3.141499
    54 3.264326 0.000000 0.000000 0.000000 0.000000 -2.857501
    55 3.517676 0.000002 0.000000 0.000000 0.000000 2.937446
    56 3.517676 0.000001 0.000000 0.000000 0.000000 -3.057610
    57 3.517676 0.000002 0.000000 0.000000 0.000000 -3.052469
    58 3.517676 0.000002 0.000000 0.000000 0.000000 -3.063513
    59 1.042816 0.000000 -0.359884 0.000001 2.584985 0.000000
    60 0.710891 0.000000 -1.631585 0.000001 3.141592 0.000000
    61 2.938107 -0.003140 -4.189798 -1.570796 1.570796 0.000000
    62 3.289057 0.000000 -2.644778 -1.570796 0.000000 0.000000
    63 2.885600 -0.000001 -0.932851 -1.570796 0.000000 0.000000
    64 2.647849 0.000000 0.829686 -1.570796 0.000000 0.000000
    65 2.424506 0.000000 2.419790 -1.570796 0.000000 0.000000
    66 5.962649 -0.010698 0.568543 1.422128 -1.570796 0.000000
    67 -0.095711 -55.699737 -9.066104 -1.570758 1.252308 -1.570750
    68 -0.000002 0.000001 0.000000 0.000000 0.000000 2.603953
    69 -0.863244 -36.619082 -13.560974 -0.640888 -2.227315 -1.530162
    70 3.489016 0.014759 0.568545 1.965618 -1.570796 0.000000
    71 0.173809 50.970972 -32.098642 -1.570763 -1.292844 -1.570815
    72 -0.000002 0.000001 0.000000 0.000000 0.000000 2.645099
    73 0.173818 50.414509 -32.259640 -1.570787 -0.352534 -1.570786
    74 -0.000002 0.000000 0.000000 0.000000 0.000000 2.753138
    75 -0.551518 41.306879 -21.663732 -0.578607 0.164036 -1.596157
    76 3.272459 -0.033361 0.568545 1.223770 -1.570796 0.000000
    77 0.173820 -54.091337 -27.131083 1.570781 0.519677 1.570798
    78 -0.000002 0.000000 0.000000 0.000000 0.000000 2.456145
    79 0.173826 -54.610961 -27.182867 1.570757 1.238153 1.570768
    80 -0.000002 0.000000 0.000000 0.000000 0.000000 2.652798
    81 0.173827 -55.140890 -26.862091 -1.570770 1.053172 -1.570764
    82 -0.000002 0.000000 0.000000 0.000000 0.000000 2.492011
    83 -0.273293 -40.037220 -20.433061 -0.719944 -1.951591 -1.503489
    84 5.975039 -0.006454 0.568522 -1.421459 -1.570796 0.000000
    85 -0.095714 55.840278 -8.012039 1.570757 1.258724 1.570748
    86 0.000001 0.000000 0.000000 0.000000 0.000000 -2.603130
    87 -0.152291 37.514701 -10.987822 -0.730855 0.618004 -1.601946
    88 3.482349 -0.011764 0.568522 -1.968015 -1.570796 0.000000
    89 0.318348 -48.293754 -35.326992 -1.570787 -2.720892 -1.570787
    90 0.000000 0.000000 0.000000 0.000000 0.000000 -2.648115
    91 0.318357 -48.862291 -35.188469 1.570820 -1.183344 1.570788
    92 0.000000 0.000001 0.000000 0.000000 0.000000 -2.388463
    93 -0.183753 -39.473301 -24.856915 -0.873861 -1.754846 -1.432423
    94 3.286241 0.007806 0.568521 -1.235318 -1.570317 0.000000
    95 0.318361 56.482937 -23.271265 1.570768 1.102123 1.570762
    96 0.000000 0.000000 0.000000 0.000000 0.000000 -2.448053
    97 0.318361 55.947920 -23.603284 -1.570738 1.340014 -1.570749
    98 0.000000 0.000000 0.000000 0.000000 0.000000 -2.650298
    99 0.318355 55.426431 -23.554808 -1.570782 0.461098 -1.570799
    100 -0.000001 0.000000 0.000000 0.000000 0.000000 -2.408331
    101 -0.199080 41.684428 -16.841577 -0.667599 0.364387 -1.597782
  time 3
    0 0.477731 3.362119 -1.772872 0.000000 0.000000 0.000000
    1 8.509298 -0.928387 -3.596748 5.900879 -2.000107 -0.016947
    2 8.050356 0.043569 -0.388095 1.570481 -3.115092 0.083358
    3 -0.001606 -8.545613 -0.076789 0.330241 0.554139 0.408655
    4 -0.488518 -2.755602 -0.228260 -0.311239 -0.109538 -0.260223
    5 0.039887 -1.534479 0.014229 -1.583330 -0.011050 0.035439
    6 0.028786 -1.212454 -0.132487 -1.415017 -0.014010 0.031975
    7 0.250027 -2.820665 -0.238396 -0.273856 -0.256227 -0.147141
    8 -0.049759 -1.598510 0.041883 -1.441502 0.002505 -0.039204
    9 -0.034142 -1.179563 0.045718 -1.331130 0.004566 -0.035115
    10 0.957766 -2.746780 -0.090302 -0.004290 -0.208897 0.116786
    11 -0.033420 -1.393223 -0.022976 -0.678470 0.008114 -0.033306
    12 -0.022360 -0.957436 0.003159 -0.630580 0.007922 -0.030501
    13 -1.180681 -2.507217 -0.193859 -0.088237 0.129772 -0.147787
    14 -0.024967 -1.127840 0.017597 -1.126773 0.001366 -0.048021
    15 -0.020057 -0.906594 0.037435 -1.249453 0.000324 -0.051102
    16 0.618667 -1.201183 0.189285 0.712155 -1.154109 -0.951250
    17 1.481238 -0.212417 0.067511 0.047072 -0.212187 -0.756152
    18 1.034363 -0.159541 0.036197 0.054227 -0.208894 -0.860802
    19 0.120153 -0.050270 -0.054489 0.589772 3.217556 1.464753
    20 -1.270799 -6.805527 -7.247598 -1.108330 -5.063382 -0.633993
    21 0.030536 -8.403542 0.014073 -0.152290 -0.514377 0.295952
    22 0.447953 -2.798986 -0.200443 -0.762104 -0.398723 -0.003996
    23 -0.032909 -1.499736 0.020565 -1.140704 0.022052 -0.019485
    24 -0.027022 -1.123796 -0.024116 -1.160053 0.023789 -0.020302
    25 -0.249534 -2.846964 -0.174213 -0.469218 -0.245869 -0.208874
    26 0.043235 -1.656596 0.072574 -1.351121 -0.021350 0.006353
    27 0.031729 -1.145205 0.058838 -1.033434 -0.011403 0.005819
    28 -0.963866 -2.785145 -0.085350 0.251745 0.089649 -0.093306
    29 0.028479 -1.403067 -0.013261 -0.756216 -0.017258 -0.029278
    30 0.021413 -0.942156 0.012233 -1.061266 -0.029386 -0.035319
    31 1.164475 -2.543940 -0.170330 -1.012242 -0.632537 0.144275
    32 0.024032 -1.132948 0.002182 -0.722672 0.002792 0.038699
    33 0.014898 -0.899614 -0.015942 -0.908381 0.005789 0.045877
    34 -0.586770 -1.264477 0.200161 -0.276060 -0.126387 -2.529235
    35 1.546273 0.039149 0.016848 -0.009508 -0.003287 0.539173
    36 1.117947 0.048424 -0.005766 0.005162 -0.017815 -0.220205
    37 -0.049553 0.185186 0.260498 0.391233 0.025629 1.274553
    38 -7.495219 4.151534 -0.426939 1.575459 -0.029424 -0.594808
    39 4.480605 -10.129215 -5.246255 0.596549 -1.506152 0.949872
    40 2.674608 0.548968 -2.262515 -1.570796 1.570796 0.000000
    41 2.167578 -0.043464 4.830877 3.141592 0.000001 1.570794
    42 0.534988 0.018297 -0.023263 -1.570794 -1.506920 -0.000003
    43 3.266718 0.000000 0.000000 0.000000 0.000000 2.850907
    44 3.495342 -0.000001 0.000000 0.000000 0.000000 -2.920270
    45 3.495343 -0.000001 0.000000 0.000000 0.000000 3.140458
    46 3.495342 -0.000001 0.000000 0.000000 0.000000 3.136970
    47 3.495342 -0.000001 0.000000 0.000000 0.000000 3.140275
    48 2.167577 -0.526180 -4.048347 -0.000001 -0.000002 1.570797
    49 2.167578 -0.117887 -2.533408 -0.000001 -0.000002 1.570797
    50 2.167578 0.521323 -4.048346 3.141592 0.000001 1.570794
    51 2.167578 0.113227 -2.533408 3.141592 0.000001 1.570794
    52 2.167578 -0.705793 4.830842 3.141592 0.000001 1.570794
    53 0.215461 0.018273 -0.007649 1.570796 -1.494180 -3.141499
    54 3.264326 0.000000 0.000000 0.000000 0.000000 -2.857501
    55 3.517676 0.000002 0.000000 0.000000 0.000000 2.937446
    56 3.517676 0.000001 0.000000 0.000000 0.000000 -3.057610
    57 3.517676 0.000002 0.000000 0.000000 0.000000 -3.052469
    58 3.517676 0.000002 0.000000 0.000000 0.000000 -3.063513
    59 1.042816 0.000000 -0.359884 0.000001 2.673199 0.000000
    60 0.710891 0.000000 -1.631585 0.000001 3.141592 0.000000
    61 2.938107 -0.003140 -4.189798 -1.570796 1.570796 0.000000
    62 3.289057 0.000000 -2.644778 -1.570796 0.000000 0.000000
    63 2.885600 -0.000001 -0.932851 -1.570796 0.000000 0.000000
    64 2.647849 0.000000 0.829686 -1.570796 0.000000 0.000000
    65 2.424506 0.000000 2.419790 -1.570796 0.000000 0.000000
    66 5.962649 -0.010698 0.568543 1.422128 -1.570796 0.000000
    67 -0.095711 -55.699737 -9.066104 -1.570758 1.252308 -1.570750
    68 -0.000002 0.000001 0.000000 0.000000 0.000000 2.603953
    69 -1.249975 -36.790962 -13.287528 -0.659287 -2.235166 -1.533323
    70 3.489016 0.014759 0.568545 1.965618 -1.570796 0.000000
    71 0.173809 50.970972 -32.098642 -1.570763 -1.292844 -1.570815
    72 -0.000002 0.000001 0.000000 0.000000 0.000000 2.645099
    73 0.173818 50.414509 -32.259640 -1.570787 -0.352534 -1.570786
    74 -0.000002 0.000000 0.000000 0.000000 0.000000 2.753138
    75 -1.008563 41.220939 -21.991867 -0.599217 0.156041 -1.594337
    76 3.272459 -0.033361 0.568545 1.223770 -1.570796 0.000000
    77 0.173820 -54.091337 -27.131083 1.570781 0.519677 1.570798
    78 -0.000002 0.000000 0.000000 0.000000 0.000000 2.456145
    79 0.173826 -54.610961 -27.182867 1.570757 1.238153 1.570768
    80 -0.000002 0.000000 0.000000 0.000000 0.000000 2.652798
    81 0.173827 -55.140890 -26.862091 -1.570770 1.053172 -1.570764
    82 -0.000002 0.000000 0.000000 0.000000 0.000000 2.492011
    83 -0.796746 -40.263789 -20.167427 -0.735378 -1.959407 -1.509427
    84 5.975039 -0.006454 0.568522 -1.421459 -1.570796 0.000000
    85 -0.095714 55.840278 -8.012039 1.570757 1.258724 1.570748
    86 0.000001 0.000000 0.000000 0.000000 0.000000 -2.603130
    87 -0.699183 37.530326 -11.300332 -0.750307 0.610115 -1.599455
    88 3.482349 -0.011764 0.568522 -1.968015 -1.570796 0.000000
    89 0.318348 -48.293754 -35.326992 -1.570787 -2.720892 -1.570787
    90 0.000000 0.000000 0.000000 0.000000 0.000000 -2.648115
    91 0.318357 -48.862291 -35.188469 1.570820 -1.183344 1.570788
    92 0.000000 0.000001 0.000000 0.000000 0.000000 -2.388463
    93 -0.722832 -39.723308 -24.642065 -0.879895 -1.762429 -1.447656
    94 3.286241 0.007806 0.568521 -1.235318 -1.570796 0.000000
    95 0.318361 56.482937 -23.271265 1.570768 1.102123 1.570762
    96 0.000000 0.000000 0.000000 0.000000 0.000000 -2.448053
    97 0.318361 55.947920 -23.603284 -1.570738 1.340014 -1.570749
    98 0.000000 0.000000 0.000000 0.000000 0.000000 -2.650298
    99 0.318355 55.426431 -23.554808 -1.570782 0.461098 -1.570799
    100 -0.000001 0.000000 0.000000 0.000000 0.000000 -2.408331
    101 -0.726439 41.645365 -17.185338 -0.687731 0.356445 -1.595771
  time 4
    0 0.477731 3.362119 -1.772872 0.000000 0.000000 0.000000
    1 8.485860 -1.010421 -3.620186 5.894456 -2.001592 -0.009582
    2 8.062075 0.195917 -0.384189 1.570194 -3.115380 0.101705
    3 -0.005513 -8.545613 -0.076789 0.326692 0.548225 0.383531
    4 -0.488518 -2.755602 -0.228260 -0.311239 -0.109538 -0.260223
    5 0.039887 -1.534479 0.014229 -1.583330 -0.011050 0.035439
    6 0.028786 -1.212454 -0.132487 -1.415017 -0.014010 0.031975
    7 0.250027 -2.820665 -0.238396 -0.273856 -0.256227 -0.147141
    8 -0.049759 -1.598510 0.041883 -1.441502 0.002505 -0.039204
    9 -0.034142 -1.179563 0.045718 -1.331130 0.004566 -0.035115
    10 0.957766 -2.746780 -0.090302 -0.004290 -0.208897 0.116786
    11 -0.033420 -1.393223 -0.022976 -0.623796 0.008341 -0.030550
    12 -0.022360 -0.957436 0.003159 -0.575903 0.008018 -0.027744
    13 -1.180681 -2.507217 -0.193859 -0.088237 0.129772 -0.147787
    14 -0.024967 -1.127840 0.017597 -1.126773 0.001366 -0.048021
    15 -0.020057 -0.906594 0.037435 -1.249453 0.000324 -0.051102
    16 0.618667 -1.201183 0.189285 0.712155 -1.154109 -0.951250
    17 1.481238 -0.212417 0.067511 0.047072 -0.212187 -0.756152
    18 1.034363 -0.159541 0.036197 0.054227 -0.208894 -0.860802
    19 0.120153 -0.050270 -0.054489 0.589772 3.217556 1.464753
    20 -1.270799 -6.860216 -7.235879 -1.071093 -5.038055 -0.598578
    21 0.026629 -8.403542 0.014073 -0.165191 -0.538797 0.285455
    22 0.447953 -2.798986 -0.200443 -0.762104 -0.398723 -0.003996
    23 -0.032909 -1.499736 0.020565 -1.140704 0.022052 -0.019485
    24 -0.027022 -1.123796 -0.024116 -1.160053 0.023789 -0.020302
    25 -0.249534 -2.846964 -0.174213 -0.469218 -0.245869 -0.208874
    26 0.043235 -1.656596 0.072574 -1.351121 -0.021350 0.006353
    27 0.031729 -1.145205 0.058838 -1.033434 -0.011403 0.005819
    28 -0.963866 -2.785145 -0.085350 0.251745 0.089649 -0.093306
    29 0.028479 -1.403067 -0.013261 -0.756216 -0.017258 -0.029278
    30 0.021413 -0.942156 0.012233 -1.061266 -0.029386 -0.035319
    31 1.164475 -2.543940 -0.170330 -1.012242 -0.632537 0.144275
    32 0.024032 -1.132948 0.002182 -0.722672 0.002792 0.038699
    33 0.014898 -0.899614 -0.015942 -0.908381 0.005789 0.045877
    34 -0.586770 -1.264477 0.200161 -0.276060 -0.126387 -2.529235
    35 1.546273 0.039149 0.016848 -0.009508 -0.003287 0.539173
    36 1.117947 0.048424 -0.005766 0.005162 -0.017815 -0.220205
    37 -0.049553 0.185186 0.260498 0.391233 0.025629 1.274553
    38 -7.362402 4.428886 -0.423032 1.576094 -0.028657 -0.632131
    39 4.492325 -10.250313 -5.418135 0.544165 -1.532062 1.011193
    40 2.674608 0.548968 -2.262515 -1.570796 1.570796 0.000000
    41 2.167578 -0.043464 4.830877 3.141592 0.000001 1.570794
    42 0.534988 0.018297 -0.023263 -1.570794 -1.506920 -0.000003
    43 3.266718 0.000000 0.000000 0.000000 0.000000 2.850907
    44 3.495342 -0.000001 0.000000 0.000000 0.000000 -2.920270
    45 3.495343 -0.000001 0.000000 0.000000 0.000000 3.140458
    46 3.495342 -0.000001 0.000000 0.000000 0.000000 3.136970
    47 3.495342 -0.000001 0.000000 0.000000 0.000000 3.140275
    48 2.167577 -0.526180 -4.048347 -0.000001 -0.000002 1.570797
    49 2.167578 -0.117887 -2.533408 -0.000001 -0.000002 1.570797
    50 2.167578 0.521323 -4.048346 3.141592 0.000001 1.570794
    51 2.167578 0.113227 -2.533408 3.141592 0.000001 1.570794
    52 2.167578 -0.705793 4.830842 3.141592 0.000001 1.570794
    53 0.215461 0.018273 -0.007649 1.570796 -1.494180 -3.141499
    54 3.264326 0.000000 0.000000 0.000000 0.000000 -2.857501
    55 3.517676 0.000002 0.000000 0.000000 0.000000 2.937446
    56 3.517676 0.000001 0.000000 0.000000 0.000000 -3.057610
    57 3.517676 0.000002 0.000000 0.000000 0.000000 -3.052469
    58 3.517676 0.000002 0.000000 0.000000 0.000000 -3.063513
    59 1.042816 0.000000 -0.359884 0.000001 2.761413 0.000000
    60 0.710891 0.000000 -1.631585 0.000001 3.141592 0.000000
    61 2.938107 -0.003140 -4.189798 -1.570796 1.570796 0.000000
    62 3.289057 0.000000 -2.644778 -1.570796 0.000000 0.000000
    63 2.885600 -0.000001 -0.932851 -1.570796 0.000000 0.000000
    64 2.647849 0.000000 0.829686 -1.570796 0.000000 0.000000
    65 2.424506 0.000000 2.419790 -1.570796 0.000000 0.000000
    66 5.962649 -0.010698 0.568543 1.422128 -1.570796 0.000000
    67 -0.095711 -55.699737 -9.066104 -1.570758 1.252308 -1.570750
    68 -0.000002 0.000001 0.000000 0.000000 0.000000 2.603953
    69 -1.765616 -37.033157 -12.971112 -0.680657 -2.244453 -1.538879
    70 3.489016 0.014759 0.568545 1.965618 -1.570796 0.000000
    71 0.173809 50.970972 -32.098642 -1.570763 -1.292844 -1.570815
    72 -0.000002 0.000001 0.000000 0.000000 0.000000 2.645099
    73 0.173818 50.414509 -32.259640 -1.570787 -0.352534 -1.570786
    74 -0.000002 0.000000 0.000000 0.000000 0.000000 2.753138
    75 -1.610144 41.154530 -22.394223 -0.624429 0.146645 -1.590984
    76 3.272459 -0.033361 0.568545 1.223770 -1.570796 0.000000
    77 0.173820 -54.091337 -27.131083 1.570781 0.519677 1.570798
    78 -0.000002 0.000000 0.000000 0.000000 0.000000 2.456145
    79 0.173826 -54.610961 -27.182867 1.570757 1.238153 1.570768
    80 -0.000002 0.000000 0.000000 0.000000 0.000000 2.652798
    81 0.173827 -55.140890 -26.862091 -1.570770 1.053172 -1.570764
    82 -0.000002 0.000000 0.000000 0.000000 0.000000 2.492011
    83 -1.484267 -40.564580 -19.874450 -0.752059 -1.968705 -1.519100
    84 5.975039 -0.006454 0.568522 -1.421459 -1.570796 0.000000
    85 -0.095714 55.840278 -8.012039 1.570757 1.258724 1.570748
    86 0.000001 0.000000 0.000000 0.000000 0.000000 -2.603130
    87 -1.398423 37.585016 -11.675343 -0.773591 0.600736 -1.595241
    88 3.482349 -0.011764 0.568522 -1.968015 -1.570796 0.000000
    89 0.318348 -48.293754 -35.326992 -1.570787 -2.720892 -1.570787
    90 0.000000 0.000000 0.000000 0.000000 0.000000 -2.648115
    91 0.318357 -48.862291 -35.188469 1.570820 -1.183344 1.570788
    92 0.000000 0.000001 0.000000 0.000000 0.000000 -2.388463
    93 -1.418166 -40.051443 -24.411589 -0.883822 -1.771512 -1.469788
    94 3.286241 0.007806 0.568521 -1.235318 -1.570796 0.000000
    95 0.318361 56.482937 -23.271265 1.570768 1.102123 1.570762
    96 0.000000 0.000000 0.000000 0.000000 0.000000 -2.448053
    97 0.318361 55.947920 -23.603284 -1.570738 1.340014 -1.570749
    98 0.000000 0.000000 0.000000 0.000000 0.000000 -2.650298
    99 0.318355 55.426431 -23.554808 -1.570782 0.461098 -1.570799
    100 -0.000001 0.000000 0.000000 0.000000 0.000000 -2.408331
    101 -1.413960 41.633646 -17.607225 -0.712177 0.347029 -1.592132
  time 5
    0 0.477731 3.362119 -1.772872 0.000000 0.000000 0.000000
    1 8.458515 -1.108080 -3.647530 5.891101 -2.003361 -0.004719
    2 8.073794 0.363891 -0.380282 1.569906 -3.115763 0.122650
    3 -0.005513 -8.541706 -0.076789 0.322761 0.544092 0.359429
    4 -0.488518 -2.755602 -0.228260 -0.311239 -0.109538 -0.260223
    5 0.039887 -1.534479 0.014229 -1.583330 -0.011050 0.035439
    6 0.028786 -1.212454 -0.132487 -1.415017 -0.014010 0.031975
    7 0.250027 -2.820665 -0.238396 -0.273856 -0.256227 -0.147141
    8 -0.049759 -1.598510 0.041883 -1.441502 0.002505 -0.039204
    9 -0.034142 -1.179563 0.045718 -1.331130 0.004566 -0.035115
    10 0.957766 -2.746780 -0.090302 -0.004290 -0.208897 0.116786
    11 -0.033420 -1.393223 -0.019070 -0.567664 0.008413 -0.027721
    12 -0.022360 -0.957436 0.007065 -0.519757 0.007970 -0.024904
    13 -1.180681 -2.507217 -0.193859 -0.088237 0.129772 -0.147787
    14 -0.024967 -1.127840 0.017597 -1.126773 0.001366 -0.048021
    15 -0.020057 -0.906594 0.037435 -1.249453 0.000324 -0.051102
    16 0.618667 -1.201183 0.189285 0.712155 -1.154109 -0.951250
    17 1.481238 -0.212417 0.067511 0.047072 -0.212187 -0.756152
    18 1.034363 -0.159541 0.036197 0.054227 -0.208894 -0.860802
    19 0.120153 -0.050270 -0.054489 0.589772 3.217556 1.464753
    20 -1.266893 -6.934437 -7.204628 -1.029144 -5.013624 -0.558855
    21 0.022723 -8.403542 0.017980 -0.178241 -0.561077 0.275606
    22 0.447953 -2.798986 -0.200443 -0.762104 -0.398723 -0.003996
    23 -0.032909 -1.499736 0.020565 -1.140704 0.022052 -0.019485
    24 -0.027022 -1.123796 -0.024116 -1.160053 0.023789 -0.020302
    25 -0.249534 -2.846964 -0.174213 -0.469218 -0.245869 -0.208874
    26 0.043235 -1.656596 0.072574 -1.351121 -0.021350 0.006353
    27 0.031729 -1.145205 0.058838 -1.033434 -0.011403 0.005819
    28 -0.963866 -2.785145 -0.085350 0.251745 0.089649 -0.093306
    29 0.028479 -1.403067 -0.013261 -0.756216 -0.017258 -0.029278
    30 0.021413 -0.942156 0.012233 -1.061266 -0.029386 -0.035319
    31 1.164475 -2.543940 -0.170330 -1.012242 -0.632537 0.144275
    32 0.024032 -1.132948 0.002182 -0.722672 0.002792 0.038699
    33 0.014898 -0.899614 -0.015942 -0.908381 0.005789 0.045877
    34 -0.586770 -1.264477 0.200161 -0.276060 -0.126372 -2.529235
    35 1.546273 0.039149 0.016848 -0.009508 -0.003287 0.539173
    36 1.117947 0.048424 -0.005766 0.005162 -0.017815 -0.220205
    37 -0.049553 0.185186 0.260498 0.391233 0.025629 1.274553
    38 -7.198335 4.729677 -0.415220 1.576753 -0.027758 -0.673676
    39 4.504044 -10.387036 -5.570483 0.357848 -1.555593 1.205599
    40 2.674608 0.548968 -2.262515 -1.570796 1.570796 0.000000
    41 2.167578 -0.043464 4.830877 3.141592 0.000001 1.570794
    42 0.534988 0.018297 -0.023263 -1.570794 -1.506920 -0.000003
    43 3.266718 0.000000 0.000000 0.000000 0.000000 2.850907
    44 3.495342 -0.000001 0.000000 0.000000 0.000000 -2.920270
    45 3.495343 -0.000001 0.000000 0.000000 0.000000 3.140458
    46 3.495342 -0.000001 0.000000 0.000000 0.000000 3.136970
    47 3.495342 -0.000001 0.000000 0.000000 0.000000 3.140275
    48 2.167577 -0.526180 -4.048347 -0.000001 -0.000002 1.570797
    49 2.167578 -0.117887 -2.533408 -0.000001 -0.000002 1.570797
    50 2.167578 0.521323 -4.048346 3.141592 0.000001 1.570794
    51 2.167578 0.113227 -2.533408 3.141592 0.000001 1.570794
    52 2.167578 -0.705793 4.830842 3.141592 0.000001 1.570794
    53 0.215461 0.018273 -0.007649 1.570796 -1.494180 -3.141499
    54 3.264326 0.000000 0.000000 0.000000 0.000000 -2.857501
    55 3.517676 0.000002 0.000000 0.000000 0.000000 2.937446
    56 3.517676 0.000001 0.000000 0.000000 0.000000 -3.057610
    57 3.517676 0.000002 0.000000 0.000000 0.000000 -3.052469
    58 3.517676 0.000002 0.000000 0.000000 0.000000 -3.063513
    59 1.042816 0.000000 -0.359884 0.000001 2.849627 0.000000
    60 0.710891 0.000000 -1.631585 0.000001 3.141592 0.000000
    61 2.938107 -0.003140 -4.189798 -1.570796 1.570796 0.000000
    62 3.289057 0.000000 -2.644778 -1.570796 0.000000 0.000000
    63 2.885600 -0.000001 -0.932851 -1.570796 0.000000 0.000000
    64 2.647849 0.000000 0.829686 -1.570796 0.000000 0.000000
    65 2.424506 0.000000 2.419790 -1.570796 0.000000 0.000000
    66 5.962649 -0.010698 0.568543 1.422128 -1.570460 0.000000
    67 -0.095711 -55.699737 -9.066104 -1.570758 1.252308 -1.570750
    68 -0.000002 0.000001 0.000000 0.000000 0.000000 2.603953
    69 -2.265631 -37.267539 -12.689854 -0.699535 -2.252879 -1.545009
    70 3.489016 0.014759 0.568545 1.965618 -1.570796 0.000000
    71 0.173809 50.970972 -32.098642 -1.570763 -1.292844 -1.570815
    72 -0.000002 0.000001 0.000000 0.000000 0.000000 2.645099
    73 0.173818 50.414509 -32.259640 -1.570787 -0.352534 -1.570786
    74 -0.000002 0.000000 0.000000 0.000000 0.000000 2.753138
    75 -2.188286 41.111560 -22.769235 -0.647436 0.138239 -1.587248
    76 3.272459 -0.033361 0.568545 1.223770 -1.570796 0.000000
    77 0.173820 -54.091337 -27.131083 1.570781 0.519677 1.570798
    78 -0.000002 0.000000 0.000000 0.000000 0.000000 2.456145
    79 0.173826 -54.610961 -27.182867 1.570757 1.238153 1.570768
    80 -0.000002 0.000000 0.000000 0.000000 0.000000 2.652798
    81 0.173827 -55.140890 -26.862091 -1.570770 1.053172 -1.570764
    82 -0.000002 0.000000 0.000000 0.000000 0.000000 2.492011
    83 -2.140537 -40.849745 -19.620536 -0.766152 -1.976932 -1.529539
    84 5.975039 -0.006454 0.568522 -1.421459 -1.570796 0.000000
    85 -0.095714 55.840278 -8.012039 1.570757 1.258724 1.570748
    86 0.000001 0.000000 0.000000 0.000000 0.000000 -2.603130
    87 -2.066412 37.651424 -12.007385 -0.794479 0.592322 -1.590452
    88 3.482349 -0.011764 0.568522 -1.968015 -1.570796 0.000000
    89 0.318348 -48.293754 -35.326992 -1.570787 -2.720892 -1.570787
    90 0.000000 0.000000 0.000000 0.000000 0.000000 -2.648115
    91 0.318357 -48.862291 -35.188469 1.570820 -1.183344 1.570788
    92 0.000000 0.000001 0.000000 0.000000 0.000000 -2.388463
    93 -2.082248 -40.356140 -24.216271 -0.885833 -1.779536 -1.491824
    94 3.286241 0.007806 0.568521 -1.235318 -1.570796 0.000000
    95 0.318361 56.482937 -23.271265 1.570768 1.102123 1.570762
    96 0.000000 0.000000 0.000000 0.000000 0.000000 -2.448053
    97 0.318361 55.947920 -23.603284 -1.570738 1.340014 -1.570749
    98 0.000000 0.000000 0.000000 0.000000 0.000000 -2.650298
    99 0.318355 55.426431 -23.554808 -1.570782 0.461098 -1.570799
    100 -0.000001 0.000000 0.000000 0.000000 0.000000 -2.408331
    101 -2.070230 41.645365 -17.990050 -0.734418 0.338677 -1.588109
  time 6
    0 0.477731 3.362119 -1.772872 0.000000 0.000000 0.000000
    1 8.435077 -1.197926 -3.663156 5.891676 -2.004775 -0.003607
    2 8.077701 0.504520 -0.380282 1.569714 -3.116050 0.139941
    3 -0.009419 -8.541706 -0.076789 0.319441 0.542886 0.343292
    4 -0.488518 -2.755602 -0.228260 -0.311239 -0.109538 -0.260223
    5 0.039887 -1.534479 0.014229 -1.583330 -0.011050 0.035439
    6 0.028786 -1.212454 -0.132487 -1.415017 -0.014010 0.031975
    7 0.250027 -2.820665 -0.238396 -0.273856 -0.256227 -0.147141
    8 -0.049759 -1.598510 0.041883 -1.441502 0.002505 -0.039204
    9 -0.034142 -1.179563 0.045718 -1.331130 0.004566 -0.035115
    10 0.957766 -2.746780 -0.090302 -0.004290 -0.208897 0.116786
    11 -0.033420 -1.393223 -0.019070 -0.526453 0.008353 -0.025636
    12 -0.022360 -0.957436 0.007065 -0.478569 0.007826 -0.022831
    13 -1.180681 -2.507217 -0.193859 -0.088237 0.129772 -0.147787
    14 -0.024967 -1.127840 0.017597 -1.126773 0.001366 -0.048021
    15 -0.020057 -0.906594 0.037435 -1.249453 0.000324 -0.051102
    16 0.618667 -1.201183 0.189285 0.712155 -1.154109 -0.951250
    17 1.481238 -0.212417 0.067511 0.047072 -0.212187 -0.756152
    18 1.034363 -0.159541 0.036197 0.054227 -0.208894 -0.860802
    19 0.120153 -0.050270 -0.054489 0.589772 3.217556 1.464753
    20 -1.259080 -7.004751 -7.165564 -0.996682 -4.997107 -0.528513
    21 0.022723 -8.403542 0.017980 -0.187435 -0.574856 0.268993
    22 0.447953 -2.798986 -0.200443 -0.762104 -0.398723 -0.003996
    23 -0.032909 -1.499736 0.020565 -1.140704 0.022052 -0.019485
    24 -0.027022 -1.123796 -0.024116 -1.160053 0.023789 -0.020302
    25 -0.249534 -2.846964 -0.174213 -0.469218 -0.245869 -0.208874
    26 0.043235 -1.656596 0.072574 -1.351121 -0.021350 0.006353
    27 0.031729 -1.145205 0.058838 -1.033434 -0.011403 0.005819
    28 -0.963866 -2.785145 -0.085350 0.251745 0.089649 -0.093306
    29 0.028479 -1.403067 -0.013261 -0.756216 -0.017258 -0.029278
    30 0.021413 -0.942156 0.012233 -1.061266 -0.029386 -0.035319
    31 1.164475 -2.543940 -0.170330 -1.012242 -0.632537 0.144275
    32 0.024032 -1.132948 0.002182 -0.722672 0.002792 0.038699
    33 0.014898 -0.899614 -0.015942 -0.908381 0.005789 0.045877
    34 -0.586770 -1.264477 0.200161 -0.276060 -0.126387 -2.529235
    35 1.546273 0.039149 0.016848 -0.009508 -0.003287 0.539173
    36 1.117947 0.048424 -0.005766 0.005162 -0.017815 -0.220205
    37 -0.049553 0.185186 0.260498 0.391233 0.025629 1.274553
    38 -7.061612 4.967965 -0.411313 1.577269 -0.027039 -0.706899
    39 4.511856 -10.500320 -5.664236 -1.019143 -1.566676 -3.695754
    40 2.674608 0.548968 -2.262515 -1.570796 1.570796 0.000000
    41 2.167578 -0.043464 4.830877 3.141592 0.000001 1.570794
    42 0.534988 0.018297 -0.023263 -1.570794 -1.506920 -0.000003
    43 3.266718 0.000000 0.000000 0.000000 0.000000 2.850907
    44 3.495342 -0.000001 0.000000 0.000000 0.000000 -2.920270
    45 3.495343 -0.000001 0.000000 0.000000 0.000000 3.140458
    46 3.495342 -0.000001 0.000000 0.000000 0.000000 3.136970
    47 3.495342 -0.000001 0.000000 0.000000 0.000000 3.140275
    48 2.167577 -0.526180 -4.048347 -0.000001 -0.000002 1.570797
    49 2.167578 -0.117887 -2.533408 -0.000001 -0.000002 1.570797
    50 2.167578 0.521323 -4.048346 3.141592 0.000001 1.570794
    51 2.167578 0.113227 -2.533408 3.141592 0.000001 1.570794
    52 2.167578 -0.705793 4.830842 3.141592 0.000001 1.570794
    53 0.215461 0.018273 -0.007649 -1.570795 -1.647430 -0.000003
    54 3.264326 0.000000 0.000000 0.000000 0.000000 -2.857501
    55 3.517676 0.000002 0.000000 0.000000 0.000000 2.937446
    56 3.517676 0.000001 0.000000 0.000000 0.000000 -3.057610
    57 3.517676 0.000002 0.000000 0.000000 0.000000 -3.052469
    58 3.517676 0.000002 0.000000 0.000000 0.000000 -3.063513
    59 1.042816 0.000000 -0.359884 0.000001 2.937841 0.000000
    60 0.710891 0.000000 -1.631585 0.000001 3.141592 0.000000
    61 2.938107 -0.003140 -4.189798 -1.570796 1.570796 0.000000
    62 3.289057 0.000000 -2.644778 -1.570796 0.000000 0.000000
    63 2.885600 -0.000001 -0.932851 -1.570796 0.000000 0.000000
    64 2.647849 0.000000 0.829686 -1.570796 0.000000 0.000000
    65 2.424506 0.000000 2.419790 -1.570796 0.000000 0.000000
    66 5.962649 -0.010698 0.568543 1.422128 -1.570317 0.000000
    67 -0.095711 -55.699737 -9.066104 -1.570758 1.252308 -1.570750
    68 -0.000002 0.000001 0.000000 0.000000 0.000000 2.603953
    69 -2.601579 -37.439419 -12.525786 -0.710459 -2.257762 -1.549703
    70 3.489016 0.014759 0.568545 1.965618 -1.570796 0.000000
    71 0.173809 50.970972 -32.098642 -1.570763 -1.292844 -1.570815
    72 -0.000002 0.000001 0.000000 0.000000 0.000000 2.645099
    73 0.173818 50.414509 -32.259640 -1.570787 -0.352534 -1.570786
    74 -0.000002 0.000000 0.000000 0.000000 0.000000 2.753138
    75 -2.575017 41.107654 -23.003617 -0.661624 0.133211 -1.584278
    76 3.272459 -0.033361 0.568545 1.223770 -1.570796 0.000000
    77 0.173820 -54.091337 -27.131083 1.570781 0.519677 1.570798
    78 -0.000002 0.000000 0.000000 0.000000 0.000000 2.456145
    79 0.173826 -54.610961 -27.182867 1.570757 1.238153 1.570768
    80 -0.000002 0.000000 0.000000 0.000000 0.000000 2.652798
    81 0.173827 -55.140890 -26.862091 -1.570770 1.053172 -1.570764
    82 -0.000002 0.000000 0.000000 0.000000 0.000000 2.492011
    83 -2.574144 -41.041157 -19.479906 -0.773533 -1.981869 -1.537297
    84 5.975039 -0.006454 0.568522 -1.421459 -1.570796 0.000000
    85 -0.095714 55.840278 -8.012039 1.570757 1.258724 1.570748
    86 0.000001 0.000000 0.000000 0.000000 0.000000 -2.603130
    87 -2.500019 37.717832 -12.206609 -0.807032 0.587325 -1.586812
    88 3.482349 -0.011764 0.568522 -1.968015 -1.570796 0.000000
    89 0.318348 -48.293754 -35.326992 -1.570787 -2.720892 -1.570787
    90 0.000000 0.000000 0.000000 0.000000 0.000000 -2.648115
    91 0.318357 -48.862291 -35.188469 1.570820 -1.183344 1.570788
    92 0.000000 0.000001 0.000000 0.000000 0.000000 -2.388463
    93 -2.519762 -40.559271 -24.118612 -0.884875 -1.784386 -1.507728
    94 3.286241 0.007806 0.568521 -1.235318 -1.570796 0.000000
    95 0.318361 56.482937 -23.271265 1.570768 1.102123 1.570762
    96 0.000000 0.000000 0.000000 0.000000 0.000000 -2.448053
    97 0.318361 55.947920 -23.603284 -1.570738 1.340014 -1.570749
    98 0.000000 0.000000 0.000000 0.000000 0.000000 -2.650298
    99 0.318355 55.426431 -23.554808 -1.570782 0.461098 -1.570799
    100 -0.000001 0.000000 0.000000 0.000000 0.000000 -2.408331
    101 -2.507744 41.672709 -18.228338 -0.747935 0.333682 -1.584853
  time 7
    0 0.477731 3.362119 -1.772872 0.000000 0.000000 0.000000
    1 8.415545 -1.299492 -3.682688 5.898578 -2.006119 -0.007984
    2 8.077701 0.641243 -0.376376 1.569522 -3.116242 0.156664
    3 -0.005513 -8.537800 -0.076789 0.315754 0.546024 0.334082
    4 -0.488518 -2.755602 -0.228260 -0.311239 -0.109538 -0.260223
    5 0.039887 -1.534479 0.014229 -1.583330 -0.011050 0.035439
    6 0.028786 -1.212454 -0.132487 -1.415017 -0.014010 0.031975
    7 0.250027 -2.820665 -0.238396 -0.273856 -0.256227 -0.147141
    8 -0.049759 -1.598510 0.041883 -1.441502 0.002505 -0.039204
    9 -0.034142 -1.179563 0.045718 -1.331130 0.004566 -0.035115
    10 0.957766 -2.746780 -0.090302 -0.004290 -0.208897 0.116786
    11 -0.033420 -1.393223 -0.019070 -0.495100 0.008257 -0.024054
    12 -0.022360 -0.957436 0.007065 -0.447213 0.007658 -0.021249
    13 -1.180681 -2.507217 -0.193859 -0.088237 0.129772 -0.147787
    14 -0.024967 -1.127840 0.017597 -1.126773 0.001366 -0.048021
    15 -0.020057 -0.906594 0.037435 -1.249453 0.000324 -0.051102
    16 0.618667 -1.201183 0.189285 0.712155 -1.154109 -0.951250
    17 1.481238 -0.212417 0.067511 0.047072 -0.212187 -0.756152
    18 1.034363 -0.159541 0.036197 0.054227 -0.208894 -0.860802
    19 0.120153 -0.050270 -0.054489 0.589772 3.217556 1.464753
    20 -1.251268 -7.090692 -7.106969 -0.976353 -4.987127 -0.511189
    21 0.018817 -8.403542 0.017980 -0.193267 -0.580045 0.265155
    22 0.447953 -2.798986 -0.200443 -0.762104 -0.398723 -0.003996
    23 -0.032909 -1.499736 0.020565 -1.140704 0.022052 -0.019485
    24 -0.027022 -1.123796 -0.024116 -1.160053 0.023789 -0.020302
    25 -0.249534 -2.846964 -0.174213 -0.469218 -0.245869 -0.208874
    26 0.043235 -1.656596 0.072574 -1.351121 -0.021350 0.006353
    27 0.031729 -1.145205 0.058838 -1.033434 -0.011403 0.005819
    28 -0.963866 -2.785145 -0.085350 0.251745 0.089649 -0.093306
    29 0.028479 -1.403067 -0.013261 -0.756216 -0.017258 -0.029278
    30 0.021413 -0.942156 0.012233 -1.061266 -0.029386 -0.035319
    31 1.164475 -2.543940 -0.170330 -1.012242 -0.632537 0.144275
    32 0.024032 -1.132948 0.002182 -0.722672 0.002792 0.038699
    33 0.014898 -0.899614 -0.015942 -0.908381 0.005789 0.045877
    34 -0.586770 -1.264477 0.200161 -0.276060 -0.126372 -2.529235
    35 1.546273 0.039149 0.016848 -0.009508 -0.003287 0.539173
    36 1.117947 0.048424 -0.005766 0.005162 -0.017815 -0.220205
    37 -0.049553 0.185186 0.260498 0.391233 0.025629 1.274553
    38 -6.936608 5.171096 -0.407407 1.577688 -0.026380 -0.736203
    39 4.507950 -10.617512 -5.687675 1.053281 -1.577614 0.516411
    40 2.674608 0.548968 -2.262515 -1.570796 1.570796 0.000000
    41 2.167578 -0.043464 4.830877 3.141592 0.000001 1.570794
    42 0.534988 0.018297 -0.023263 -1.570794 -1.506920 -0.000003
    43 3.266718 0.000000 0.000000 0.000000 0.000000 2.850907
    44 3.495342 -0.000001 0.000000 0.000000 0.000000 -2.920270
    45 3.495343 -0.000001 0.000000 0.000000 0.000000 3.140458
    46 3.495342 -0.000001 0.000000 0.000000 0.000000 3.136970
    47 3.495342 -0.000001 0.000000 0.000000 0.000000 3.140275
    48 2.167577 -0.526180 -4.048347 -0.000001 -0.000002 1.570797
    49 2.167578 -0.117887 -2.533408 -0.000001 -0.000002 1.570797
    50 2.167578 0.521323 -4.048346 3.141592 0.000001 1.570794
    51 2.167578 0.113227 -2.533408 3.141592 0.000001 1.570794
    52 2.167578 -0.705793 4.830842 3.141592 0.000001 1.570794
    53 0.215461 0.018273 -0.007649 -1.570795 -1.647430 -0.000003
    54 3.264326 0.000000 0.000000 0.000000 0.000000 -2.857501
    55 3.517676 0.000002 0.000000 0.000000 0.000000 2.937446
    56 3.517676 0.000001 0.000000 0.000000 0.000000 -3.057610
    57 3.517676 0.000002 0.000000 0.000000 0.000000 -3.052469
    58 3.517676 0.000002 0.000000 0.000000 0.000000 -3.063513
    59 1.042816 0.000000 -0.359884 0.000001 2.971788 0.000000
    60 0.710891 0.000000 -1.631585 0.000001 3.141592 0.000000
    61 2.938107 -0.003140 -4.189798 -1.570796 1.570796 0.000000
    62 3.289057 0.000000 -2.644778 -1.570796 0.000000 0.000000
    63 2.885600 -0.000001 -0.932851 -1.570796 0.000000 0.000000
    64 2.647849 0.000000 0.829686 -1.570796 0.000000 0.000000
    65 2.424506 0.000000 2.419790 -1.570796 0.000000 0.000000
    66 5.962649 -0.010698 0.568543 1.422128 -1.570460 0.000000
    67 -0.095711 -55.699737 -9.066104 -1.570758 1.252308 -1.570750
    68 -0.000002 0.000001 0.000000 0.000000 0.000000 2.603953
    69 -2.777365 -37.572236 -12.486722 -0.712855 -2.259198 -1.553630
    70 3.489016 0.014759 0.568545 1.965618 -1.570796 0.000000
    71 0.173809 50.970972 -32.098642 -1.570763 -1.292844 -1.570815
    72 -0.000002 0.000001 0.000000 0.000000 0.000000 2.645099
    73 0.173818 50.414509 -32.259640 -1.570787 -0.352534 -1.570786
    74 -0.000002 0.000000 0.000000 0.000000 0.000000 2.753138
    75 -2.770335 41.174062 -23.120808 -0.666800 0.131727 -1.581692
    76 3.272459 -0.033361 0.568545 1.223770 -1.570796 0.000000
    77 0.173820 -54.091337 -27.131083 1.570781 0.519677 1.570798
    78 -0.000002 0.000000 0.000000 0.000000 0.000000 2.456145
    79 0.173826 -54.610961 -27.182867 1.570757 1.238153 1.570768
    80 -0.000002 0.000000 0.000000 0.000000 0.000000 2.652798
    81 0.173827 -55.140890 -26.862091 -1.570770 1.053172 -1.570764
    82 -0.000002 0.000000 0.000000 0.000000 0.000000 2.492011
    83 -2.785088 -41.173973 -19.472094 -0.773246 -1.983268 -1.543713
    84 5.975039 -0.006454 0.568522 -1.421459 -1.570796 0.000000
    85 -0.095714 55.840278 -8.012039 1.570757 1.258724 1.570748
    86 0.000001 0.000000 0.000000 0.000000 0.000000 -2.603130
    87 -2.707057 37.819398 -12.280831 -0.810769 0.585923 -1.583747
    88 3.482349 -0.011764 0.568522 -1.968015 -1.570796 0.000000
    89 0.318348 -48.293754 -35.326992 -1.570787 -2.720892 -1.570787
    90 0.000000 0.000000 0.000000 0.000000 0.000000 -2.648115
    91 0.318357 -48.862291 -35.188469 1.570820 -1.183344 1.570788
    92 0.000000 0.000001 0.000000 0.000000 0.000000 -2.388463
    93 -2.730706 -40.684275 -24.138143 -0.878459 -1.785620 -1.519896
    94 3.286241 0.007806 0.568521 -1.235318 -1.570796 0.000000
    95 0.318361 56.482937 -23.271265 1.570768 1.102123 1.570762
    96 0.000000 0.000000 0.000000 0.000000 0.000000 -2.448053
    97 0.318361 55.947920 -23.603284 -1.570738 1.340014 -1.570749
    98 0.000000 0.000000 0.000000 0.000000 0.000000 -2.650298
    99 0.318355 55.426431 -23.554808 -1.570782 0.461098 -1.570799
    100 -0.000001 0.000000 0.000000 0.000000 0.000000 -2.408331
    101 -2.722594 41.758649 -18.333810 -0.752537 0.332208 -1.582171
  time 8
    0 0.477731 3.362119 -1.772872 0.000000 0.000000 0.000000
    1 8.392107 -1.412777 -3.694407 5.910273 -2.007604 -0.016252
    2 8.081607 0.785779 -0.376376 1.569235 -3.116625 0.174281
    3 -0.005513 -8.537800 -0.076789 0.311520 0.552474 0.329495
    4 -0.488518 -2.755602 -0.228260 -0.311239 -0.109538 -0.260223
    5 0.039887 -1.534479 0.014229 -1.583330 -0.011050 0.035439
    6 0.028786 -1.212454 -0.132487 -1.415017 -0.014010 0.031975
    7 0.250027 -2.820665 -0.238396 -0.273856 -0.256227 -0.147141
    8 -0.049759 -1.598510 0.041883 -1.441502 0.002505 -0.039204
    9 -0.034142 -1.179563 0.045718 -1.331130 0.004566 -0.035115
    10 0.957766 -2.746780 -0.090302 -0.004290 -0.208897 0.116786
    11 -0.033420 -1.397129 -0.019070 -0.468969 0.008138 -0.022748
    12 -0.022360 -0.957436 0.007065 -0.421074 0.007478 -0.019942
    13 -1.180681 -2.507217 -0.193859 -0.088237 0.129772 -0.147787
    14 -0.024967 -1.127840 0.017597 -1.126773 0.001366 -0.048021
    15 -0.020057 -0.906594 0.037435 -1.249453 0.000324 -0.051102
    16 0.618667 -1.201183 0.189285 0.712155 -1.154109 -0.951250
    17 1.481238 -0.212417 0.067511 0.047072 -0.212187 -0.756152
    18 1.034363 -0.159541 0.036197 0.054227 -0.208894 -0.860802
    19 0.120153 -0.050270 -0.054489 0.589772 3.217556 1.464753
    20 -1.243455 -7.192257 -7.024935 -0.964801 -4.981071 -0.503436
    21 0.018817 -8.403542 0.017980 -0.196876 -0.579224 0.262797
    22 0.447953 -2.798986 -0.200443 -0.762104 -0.398723 -0.003996
    23 -0.032909 -1.499736 0.020565 -1.140704 0.022052 -0.019485
    24 -0.027022 -1.123796 -0.024116 -1.160053 0.023789 -0.020302
    25 -0.249534 -2.846964 -0.174213 -0.469218 -0.245869 -0.208874
    26 0.043235 -1.656596 0.072574 -1.351121 -0.021350 0.006353
    27 0.031729 -1.145205 0.058838 -1.033434 -0.011403 0.005819
    28 -0.963866 -2.785145 -0.085350 0.251745 0.089649 -0.093306
    29 0.028479 -1.403067 -0.013261 -0.756216 -0.017258 -0.029278
    30 0.021413 -0.942156 0.012233 -1.061266 -0.029386 -0.035319
    31 1.164475 -2.543940 -0.170330 -1.012242 -0.632537 0.144275
    32 0.024032 -1.132948 0.002182 -0.722672 0.002792 0.038699
    33 0.014898 -0.899614 -0.015942 -0.908381 0.005789 0.045877
    34 -0.586770 -1.264477 0.200161 -0.276060 -0.126387 -2.529235
    35 1.546273 0.039149 0.016848 -0.009508 -0.003287 0.539173
    36 1.117947 0.048424 -0.005766 0.005162 -0.017815 -0.220205
    37 -0.049553 0.185186 0.260498 0.391233 0.025629 1.274553
    38 -6.807698 5.366415 -0.403501 1.578083 -0.025732 -0.764542
    39 4.500137 -10.746422 -5.668143 0.692917 -1.576570 0.875713
    40 2.674608 0.548968 -2.262515 -1.570796 1.570796 0.000000
    41 2.167578 -0.043464 4.830877 3.141592 0.000001 1.570794
    42 0.534988 0.018297 -0.023263 -1.570794 -1.506920 -0.000003
    43 3.266718 0.000000 0.000000 0.000000 0.000000 2.850907
    44 3.495342 -0.000001 0.000000 0.000000 0.000000 -2.920270
    45 3.495343 -0.000001 0.000000 0.000000 0.000000 3.140458
    46 3.495342 -0.000001 0.000000 0.000000 0.000000 3.136970
    47 3.495342 -0.000001 0.000000 0.000000 0.000000 3.140275
    48 2.167577 -0.526180 -4.048347 -0.000001 -0.000002 1.570797
    49 2.167578 -0.117887 -2.533408 -0.000001 -0.000002 1.570797
    50 2.167578 0.521323 -4.048346 3.141592 0.000001 1.570794
    51 2.167578 0.113227 -2.533408 3.141592 0.000001 1.570794
    52 2.167578 -0.705793 4.830842 3.141592 0.000001 1.570794
    53 0.215461 0.018273 -0.007649 1.570796 -1.494180 -3.141499
    54 3.264326 0.000000 0.000000 0.000000 0.000000 -2.857501
    55 3.517676 0.000002 0.000000 0.000000 0.000000 2.937446
    56 3.517676 0.000001 0.000000 0.000000 0.000000 -3.057610
    57 3.517676 0.000002 0.000000 0.000000 0.000000 -3.052469
    58 3.517676 0.000002 0.000000 0.000000 0.000000 -3.063513
    59 1.042816 0.000000 -0.359884 0.000001 3.005758 0.000000
    60 0.710891 0.000000 -1.631585 0.000001 3.141592 0.000000
    61 2.938107 -0.003140 -4.189798 -1.570796 1.570796 0.000000
    62 3.289057 0.000000 -2.644778 -1.570796 0.000000 0.000000
    63 2.885600 -0.000001 -0.932851 -1.570796 0.000000 0.000000
    64 2.647849 0.000000 0.829686 -1.570796 0.000000 0.000000
    65 2.424506 0.000000 2.419790 -1.570796 0.000000 0.000000
    66 5.962649 -0.010698 0.568543 1.422128 -1.570460 0.000000
    67 -0.095711 -55.699737 -9.066104 -1.570758 1.252308 -1.570750
    68 -0.000002 0.000001 0.000000 0.000000 0.000000 2.603953
    69 -2.855493 -37.685521 -12.541412 -0.709214 -2.258145 -1.557270
    70 3.489016 0.014759 0.568545 1.965618 -1.570796 0.000000
    71 0.173809 50.970972 -32.098642 -1.570763 -1.292844 -1.570815
    72 -0.000002 0.000001 0.000000 0.000000 0.000000 2.645099
    73 0.173818 50.414509 -32.259640 -1.570787 -0.352534 -1.570786
    74 -0.000002 0.000000 0.000000 0.000000 0.000000 2.753138
    75 -2.844556 41.299066 -23.159872 -0.665650 0.132799 -1.579393
    76 3.272459 -0.033361 0.568545 1.223770 -1.570796 0.000000
    77 0.173820 -54.091337 -27.131083 1.570781 0.519677 1.570798
    78 -0.000002 0.000000 0.000000 0.000000 0.000000 2.456145
    79 0.173826 -54.610961 -27.182867 1.570757 1.238153 1.570768
    80 -0.000002 0.000000 0.000000 0.000000 0.000000 2.652798
    81 0.173827 -55.140890 -26.862091 -1.570770 1.053172 -1.570764
    82 -0.000002 0.000000 0.000000 0.000000 0.000000 2.492011
    83 -2.855403 -41.275539 -19.558034 -0.767110 -1.982116 -1.549364
    84 5.975039 -0.006454 0.568522 -1.421459 -1.570796 0.000000
    85 -0.095714 55.840278 -8.012039 1.570757 1.258724 1.570748
    86 0.000001 0.000000 0.000000 0.000000 0.000000 -2.603130
    87 -2.757839 37.952214 -12.265205 -0.808373 0.586975 -1.580970
    88 3.482349 -0.011764 0.568522 -1.968015 -1.570796 0.000000
    89 0.318348 -48.293754 -35.326992 -1.570787 -2.720892 -1.570787
    90 0.000000 0.000000 0.000000 0.000000 0.000000 -2.648115
    91 0.318357 -48.862291 -35.188469 1.570820 -1.183344 1.570788
    92 0.000000 0.000001 0.000000 0.000000 0.000000 -2.388463
    93 -2.789301 -40.766309 -24.243615 -0.867349 -1.784474 -1.530435
    94 3.286241 0.007806 0.568521 -1.235318 -1.570796 0.000000
    95 0.318361 56.482937 -23.271265 1.570768 1.102123 1.570762
    96 0.000000 0.000000 0.000000 0.000000 0.000000 -2.448053
    97 0.318361 55.947920 -23.603284 -1.570738 1.340014 -1.570749
    98 0.000000 0.000000 0.000000 0.000000 0.000000 -2.650298
    99 0.318355 55.426431 -23.554808 -1.570782 0.461098 -1.570799
    100 -0.000001 0.000000 0.000000 0.000000 0.000000 -2.408331
    101 -2.789002 41.887560 -18.345529 -0.750907 0.333273 -1.579777
  time 9
    0 0.477731 3.362119 -1.772872 0.000000 0.000000 0.000000
    1 8.368668 -1.533874 -3.706126 5.923694 -2.009160 -0.025979
    2 8.077701 0.930314 -0.372470 1.569043 -3.116912 0.192059
    3 -0.005513 -8.537800 -0.072883 0.307102 0.560569 0.327713
    4 -0.488518 -2.755602 -0.228260 -0.311239 -0.109538 -0.260223
    5 0.039887 -1.534479 0.014229 -1.583330 -0.011050 0.035439
    6 0.028786 -1.212454 -0.132487 -1.415017 -0.014010 0.031975
    7 0.250027 -2.820665 -0.238396 -0.273856 -0.256227 -0.147141
    8 -0.049759 -1.598510 0.041883 -1.441502 0.002505 -0.039204
    9 -0.034142 -1.179563 0.045718 -1.331130 0.004566 -0.035115
    10 0.957766 -2.746780 -0.090302 -0.004290 -0.208897 0.116786
    11 -0.033420 -1.397129 -0.019070 -0.446389 0.008018 -0.021609
    12 -0.022360 -0.957436 0.010971 -0.398501 0.007299 -0.018816
    13 -1.180681 -2.507217 -0.193859 -0.088237 0.129772 -0.147787
    14 -0.024967 -1.127840 0.017597 -1.126773 0.001366 -0.048021
    15 -0.020057 -0.906594 0.037435 -1.249453 0.000324 -0.051102
    16 0.618667 -1.201183 0.189285 0.712155 -1.154109 -0.951250
    17 1.481238 -0.212417 0.067511 0.047072 -0.212187 -0.756152
    18 1.034363 -0.159541 0.036197 0.054227 -0.208894 -0.860802
    19 0.120153 -0.050270 -0.054489 0.589772 3.217556 1.464753
    20 -1.235642 -7.297729 -6.935089 -0.958154 -4.977148 -0.500947
    21 0.022723 -8.403542 0.017980 -0.199150 -0.575061 0.260947
    22 0.447953 -2.798986 -0.200443 -0.762104 -0.398723 -0.003996
    23 -0.032909 -1.499736 0.020565 -1.140704 0.022052 -0.019485
    24 -0.027022 -1.123796 -0.024116 -1.160053 0.023789 -0.020302
    25 -0.249534 -2.846964 -0.174213 -0.469218 -0.245869 -0.208874
    26 0.043235 -1.656596 0.072574 -1.351121 -0.021350 0.006353
    27 0.031729 -1.145205 0.058838 -1.033434 -0.011403 0.005819
    28 -0.963866 -2.785145 -0.085350 0.251745 0.089649 -0.093306
    29 0.028479 -1.403067 -0.013261 -0.756216 -0.017258 -0.029278
    30 0.021413 -0.942156 0.012233 -1.061266 -0.029386 -0.035319
    31 1.164475 -2.543940 -0.170330 -1.012242 -0.632537 0.144275
    32 0.024032 -1.132948 0.002182 -0.722672 0.002792 0.038699
    33 0.014898 -0.899614 -0.015942 -0.908381 0.005789 0.045877
    34 -0.586770 -1.264477 0.200161 -0.276060 -0.126387 -2.529235
    35 1.546273 0.039149 0.016848 -0.009508 -0.003287 0.539173
    36 1.117947 0.048424 -0.005766 0.005162 -0.017815 -0.220205
    37 -0.049553 0.185186 0.260498 0.391233 0.025629 1.274553
    38 -6.674881 5.553921 -0.395688 1.578455 -0.025085 -0.792158
    39 4.492325 -10.871426 -5.625173 2.825087 -1.567546 -1.258922
    40 2.674608 0.548968 -2.262515 -1.570796 1.570796 0.000000
    41 2.167578 -0.043464 4.830877 3.141592 0.000001 1.570794
    42 0.534988 0.018297 -0.023263 -1.570794 -1.506920 -0.000003
    43 3.266718 0.000000 0.000000 0.000000 0.000000 2.850907
    44 3.495342 -0.000001 0.000000 0.000000 0.000000 -2.920270
    45 3.495343 -0.000001 0.000000 0.000000 0.000000 3.140458
    46 3.495342 -0.000001 0.000000 0.000000 0.000000 3.136970
    47 3.495342 -0.000001 0.000000 0.000000 0.000000 3.140275
    48 2.167577 -0.526180 -4.048347 -0.000001 -0.000002 1.570797
    49 2.167578 -0.117887 -2.533408 -0.000001 -0.000002 1.570797
    50 2.167578 0.521323 -4.048346 3.141592 0.000001 1.570794
    51 2.167578 0.113227 -2.533408 3.141592 0.000001 1.570794
    52 2.167578 -0.705793 4.830842 3.141592 0.000001 1.570794
    53 0.215461 0.018273 -0.007649 -1.570795 -1.647430 -0.000003
    54 3.264326 0.000000 0.000000 0.000000 0.000000 -2.857501
    55 3.517676 0.000002 0.000000 0.000000 0.000000 2.937446
    56 3.517676 0.000001 0.000000 0.000000 0.000000 -3.057610
    57 3.517676 0.000002 0.000000 0.000000 0.000000 -3.052469
    58 3.517676 0.000002 0.000000 0.000000 0.000000 -3.063513
    59 1.042816 0.000000 -0.359884 0.000001 3.039728 0.000000
    60 0.710891 0.000000 -1.631585 0.000001 3.141592 0.000000
    61 2.938107 -0.003140 -4.189798 -1.570796 1.570796 0.000000
    62 3.289057 0.000000 -2.644778 -1.570796 0.000000 0.000000
    63 2.885600 -0.000001 -0.932851 -1.570796 0.000000 0.000000
    64 2.647849 0.000000 0.829686 -1.570796 0.000000 0.000000
    65 2.424506 0.000000 2.419790 -1.570796 0.000000 0.000000
    66 5.962649 -0.010698 0.568543 1.422128 -1.570796 0.000000
    67 -0.095711 -55.699737 -9.066104 -1.570758 1.252308 -1.570750
    68 -0.000002 0.000001 0.000000 0.000000 0.000000 2.603953
    69 -2.871118 -37.787086 -12.642977 -0.702218 -2.255656 -1.560623
    70 3.489016 0.014759 0.568545 1.965618 -1.570796 0.000000
    71 0.173809 50.970972 -32.098642 -1.570763 -1.292844 -1.570815
    72 -0.000002 0.000001 0.000000 0.000000 0.000000 2.645099
    73 0.173818 50.414509 -32.259640 -1.570787 -0.352534 -1.570786
    74 -0.000002 0.000000 0.000000 0.000000 0.000000 2.753138
    75 -2.844556 41.447508 -23.155965 -0.660953 0.135271 -1.577285
    76 3.272459 -0.033361 0.568545 1.223770 -1.570796 0.000000
    77 0.173820 -54.091337 -27.131083 1.570781 0.519677 1.570798
    78 -0.000002 0.000000 0.000000 0.000000 0.000000 2.456145
    79 0.173826 -54.610961 -27.182867 1.570757 1.238153 1.570768
    80 -0.000002 0.000000 0.000000 0.000000 0.000000 2.652798
    81 0.173827 -55.140890 -26.862091 -1.570770 1.053172 -1.570764
    82 -0.000002 0.000000 0.000000 0.000000 0.000000 2.492011
    83 -2.839777 -41.353666 -19.698663 -0.757907 -1.979648 -1.554536
    84 5.975039 -0.006454 0.568522 -1.421459 -1.570796 0.000000
    85 -0.095714 55.840278 -8.012039 1.570757 1.258724 1.570748
    86 0.000001 0.000000 0.000000 0.000000 0.000000 -2.603130
    87 -2.726588 38.104563 -12.198797 -0.802528 0.589429 -1.578479
    88 3.482349 -0.011764 0.568522 -1.968015 -1.570796 0.000000
    89 0.318348 -48.293754 -35.326992 -1.570787 -2.720892 -1.570787
    90 0.000000 0.000000 0.000000 0.000000 0.000000 -2.648115
    91 0.318357 -48.862291 -35.188469 1.570820 -1.183344 1.570788
    92 0.000000 0.000001 0.000000 0.000000 0.000000 -2.388463
    93 -2.761957 -40.824905 -24.395964 -0.853461 -1.782005 -1.540015
    94 3.286241 0.007806 0.568521 -1.235318 -1.570796 0.000000
    95 0.318361 56.482937 -23.271265 1.570768 1.102123 1.570762
    96 0.000000 0.000000 0.000000 0.000000 0.000000 -2.448053
    97 0.318361 55.947920 -23.603284 -1.570738 1.340014 -1.570749
    98 0.000000 0.000000 0.000000 0.000000 0.000000 -2.650298
    99 0.318355 55.426431 -23.554808 -1.570782 0.461098 -1.570799
    100 -0.000001 0.000000 0.000000 0.000000 0.000000 -2.408331
    101 -2.773377 42.043814 -18.306466 -0.745730 0.335729 -1.577574
  time 10
    0 0.477731 3.362119 -1.772872 0.000000 0.000000 0.000000
    1 8.345230 -1.647159 -3.713939 5.935964 -2.010574 -0.034733
    2 8.073794 1.067037 -0.372470 1.568851 -3.117199 0.208701
    3 -0.001606 -8.533894 -0.072883 0.303005 0.568281 0.326933
    4 -0.488518 -2.755602 -0.228260 -0.311239 -0.109538 -0.260223
    5 0.039887 -1.534479 0.014229 -1.583330 -0.011050 0.035439
    6 0.028786 -1.212454 -0.132487 -1.415017 -0.014010 0.031975
    7 0.250027 -2.820665 -0.238396 -0.273856 -0.256227 -0.147141
    8 -0.049759 -1.598510 0.041883 -1.441502 0.002505 -0.039204
    9 -0.034142 -1.179563 0.045718 -1.331130 0.004566 -0.035115
    10 0.957766 -2.746780 -0.090302 -0.004290 -0.208897 0.116786
    11 -0.033420 -1.397129 -0.019070 -0.426592 0.007874 -0.020614
    12 -0.022360 -0.957436 0.010971 -0.378717 0.007131 -0.017833
    13 -1.180681 -2.507217 -0.193859 -0.088237 0.129772 -0.147787
    14 -0.024967 -1.127840 0.017597 -1.126773 0.001366 -0.048021
    15 -0.020057 -0.906594 0.037435 -1.249453 0.000324 -0.051102
    16 0.618667 -1.201183 0.189285 0.712155 -1.154109 -0.951250
    17 1.481238 -0.212417 0.067511 0.047072 -0.212187 -0.756152
    18 1.034363 -0.159541 0.036197 0.054227 -0.208894 -0.860802
    19 0.120153 -0.050270 -0.054489 0.589772 3.217556 1.464753
    20 -1.227829 -7.395388 -6.849149 -0.952410 -4.973776 -0.499033
    21 0.022723 -8.403542 0.014073 -0.200731 -0.570371 0.259051
    22 0.447953 -2.798986 -0.200443 -0.762104 -0.398723 -0.003996
    23 -0.032909 -1.499736 0.020565 -1.140704 0.022052 -0.019485
    24 -0.027022 -1.123796 -0.024116 -1.160053 0.023789 -0.020302
    25 -0.249534 -2.846964 -0.174213 -0.469218 -0.245869 -0.208874
    26 0.043235 -1.656596 0.072574 -1.351121 -0.021350 0.006353
    27 0.031729 -1.145205 0.058838 -1.033434 -0.011403 0.005819
    28 -0.963866 -2.785145 -0.085350 0.251745 0.089649 -0.093306
    29 0.028479 -1.403067 -0.013261 -0.756216 -0.017258 -0.029278
    30 0.021413 -0.942156 0.012233 -1.061266 -0.029386 -0.035319
    31 1.164475 -2.543940 -0.170330 -1.012242 -0.632537 0.144275
    32 0.024032 -1.132948 0.002182 -0.722672 0.002792 0.038699
    33 0.014898 -0.899614 -0.015942 -0.908381 0.005789 0.045877
    34 -0.586770 -1.264477 0.200161 -0.276060 -0.126387 -2.529235
    35 1.546273 0.039149 0.016848 -0.009508 -0.003287 0.539173
    36 1.117947 0.048424 -0.005766 0.005162 -0.017815 -0.220205
    37 -0.049553 0.185186 0.260498 0.391233 0.025629 1.274553
    38 -6.549877 5.721895 -0.391781 1.578779 -0.024486 -0.817844
    39 4.484512 -10.992523 -5.574390 1.765798 -1.564790 -0.202097
    40 2.674608 0.548968 -2.262515 -1.570796 1.570796 0.000000
    41 2.167578 -0.043464 4.830877 3.141592 0.000001 1.570794
    42 0.534988 0.018297 -0.023263 -1.570794 -1.506920 -0.000003
    43 3.266718 0.000000 0.000000 0.000000 0.000000 2.850907
    44 3.495342 -0.000001 0.000000 0.000000 0.000000 -2.920270
    45 3.495343 -0.000001 0.000000 0.000000 0.000000 3.140458
    46 3.495342 -0.000001 0.000000 0.000000 0.000000 3.136970
    47 3.495342 -0.000001 0.000000 0.000000 0.000000 3.140275
    48 2.167577 -0.526180 -4.048347 -0.000001 -0.000002 1.570797
    49 2.167578 -0.117887 -2.533408 -0.000001 -0.000002 1.570797
    50 2.167578 0.521323 -4.048346 3.141592 0.000001 1.570794
    51 2.167578 0.113227 -2.533408 3.141592 0.000001 1.570794
    52 2.167578 -0.705793 4.830842 3.141592 0.000001 1.570794
    53 0.215461 0.018273 -0.007649 -1.570795 -1.647430 -0.000003
    54 3.264326 0.000000 0.000000 0.000000 0.000000 -2.857501
    55 3.517676 0.000002 0.000000 0.000000 0.000000 2.937446
    56 3.517676 0.000001 0.000000 0.000000 0.000000 -3.057610
    57 3.517676 0.000002 0.000000 0.000000 0.000000 -3.052469
    58 3.517676 0.000002 0.000000 0.000000 0.000000 -3.063513
    59 1.042816 0.000000 -0.359884 0.000001 3.073675 0.000000
    60 0.710891 0.000000 -1.631585 0.000001 3.141592 0.000000
    61 2.938107 -0.003140 -4.189798 -1.570796 1.570796 0.000000
    62 3.289057 0.000000 -2.644778 -1.570796 0.000000 0.000000
    63 2.885600 -0.000001 -0.932851 -1.570796 0.000000 0.000000
    64 2.647849 0.000000 0.829686 -1.570796 0.000000 0.000000
    65 2.424506 0.000000 2.419790 -1.570796 0.000000 0.000000
    66 5.962649 -0.010698 0.568543 1.422128 -1.570796 0.000000
    67 -0.095711 -55.699737 -9.066104 -1.570758 1.252308 -1.570750
    68 -0.000002 0.000001 0.000000 0.000000 0.000000 2.603953
    69 -2.871118 -37.876933 -12.748449 -0.695031 -2.253166 -1.563592
    70 3.489016 0.014759 0.568545 1.965618 -1.570796 0.000000
    71 0.173809 50.970972 -32.098642 -1.570763 -1.292844 -1.570815
    72 -0.000002 0.000001 0.000000 0.000000 0.000000 2.645099
    73 0.173818 50.414509 -32.259640 -1.570787 -0.352534 -1.570786
    74 -0.000002 0.000000 0.000000 0.000000 0.000000 2.753138
    75 -2.825025 41.595950 -23.140340 -0.655776 0.137744 -1.575369
    76 3.272459 -0.033361 0.568545 1.223770 -1.570796 0.000000
    77 0.173820 -54.091337 -27.131083 1.570781 0.519677 1.570798
    78 -0.000002 0.000000 0.000000 0.000000 0.000000 2.456145
    79 0.173826 -54.610961 -27.182867 1.570757 1.238153 1.570768
    80 -0.000002 0.000000 0.000000 0.000000 0.000000 2.652798
    81 0.173827 -55.140890 -26.862091 -1.570770 1.053172 -1.570764
    82 -0.000002 0.000000 0.000000 0.000000 0.000000 2.492011
    83 -2.804620 -41.416168 -19.839292 -0.748704 -1.977097 -1.559324
    84 5.975039 -0.006454 0.568522 -1.421459 -1.570796 0.000000
    85 -0.095714 55.840278 -8.012039 1.570757 1.258724 1.570748
    86 0.000001 0.000000 0.000000 0.000000 0.000000 -2.603130
    87 -2.671899 38.249098 -12.124576 -0.796396 0.591971 -1.576181
    88 3.482349 -0.011764 0.568522 -1.968015 -1.570796 0.000000
    89 0.318348 -48.293754 -35.326992 -1.570787 -2.720892 -1.570787
    90 0.000000 0.000000 0.000000 0.000000 0.000000 -2.648115
    91 0.318357 -48.862291 -35.188469 1.570820 -1.183344 1.570788
    92 0.000000 0.000001 0.000000 0.000000 0.000000 -2.388463
    93 -2.722893 -40.867875 -24.548312 -0.839957 -1.779448 -1.548830
    94 3.286241 0.007806 0.568521 -1.235318 -1.570796 0.000000
    95 0.318361 56.482937 -23.271265 1.570768 1.102123 1.570762
    96 0.000000 0.000000 0.000000 0.000000 0.000000 -2.448053
    97 0.318361 55.947920 -23.603284 -1.570738 1.340014 -1.570749
    98 0.000000 0.000000 0.000000 0.000000 0.000000 -2.650298
    99 0.318355 55.426431 -23.554808 -1.570782 0.461098 -1.570799
    100 -0.000001 0.000000 0.000000 0.000000 0.000000 -2.408331
    101 -2.742126 42.192256 -18.259589 -0.740170 0.338267 -1.575563
  time 11
    0 0.477731 3.362119 -1.772872 0.000000 0.000000 0.000000
    1 8.329605 -1.721380 -3.717845 5.943346 -2.011494 -0.039736
    2 8.069888 1.160790 -0.368563 1.568660 -3.117391 0.220148
    3 -0.001606 -8.533894 -0.072883 0.300248 0.573066 0.325949
    4 -0.488518 -2.755602 -0.228260 -0.311239 -0.109538 -0.260223
    5 0.039887 -1.534479 0.014229 -1.583330 -0.011050 0.035439
    6 0.028786 -1.212454 -0.132487 -1.415017 -0.014010 0.031975
    7 0.250027 -2.820665 -0.238396 -0.273856 -0.256227 -0.147141
    8 -0.049759 -1.598510 0.041883 -1.441502 0.002505 -0.039204
    9 -0.034142 -1.179563 0.045718 -1.331130 0.004566 -0.035115
    10 0.957766 -2.746780 -0.090302 -0.004290 -0.208897 0.116786
    11 -0.033420 -1.397129 -0.015163 -0.412360 0.007766 -0.019907
    12 -0.022360 -0.957436 0.010971 -0.364478 0.006987 -0.017126
    13 -1.180681 -2.507217 -0.193859 -0.088237 0.129772 -0.147787
    14 -0.024967 -1.127840 0.017597 -1.126773 0.001366 -0.048021
    15 -0.020057 -0.906594 0.037435 -1.249453 0.000324 -0.051102
    16 0.618667 -1.201183 0.189285 0.712155 -1.154109 -0.951250
    17 1.481238 -0.212417 0.067511 0.047072 -0.212187 -0.756152
    18 1.034363 -0.159541 0.036197 0.054227 -0.208894 -0.860802
    19 0.120153 -0.050270 -0.054489 0.589772 3.217556 1.464753
    20 -1.223923 -7.461797 -6.790553 -0.946344 -4.970886 -0.495395
    21 0.022723 -8.403542 0.014073 -0.202115 -0.567879 0.257248
    22 0.447953 -2.798986 -0.200443 -0.762104 -0.398723 -0.003996
    23 -0.032909 -1.499736 0.020565 -1.140704 0.022052 -0.019485
    24 -0.027022 -1.123796 -0.024116 -1.160053 0.023789 -0.020302
    25 -0.249534 -2.846964 -0.174213 -0.469218 -0.245869 -0.208874
    26 0.043235 -1.656596 0.072574 -1.351121 -0.021350 0.006353
    27 0.031729 -1.145205 0.058838 -1.033434 -0.011403 0.005819
    28 -0.963866 -2.785145 -0.085350 0.251745 0.089649 -0.093306
    29 0.028479 -1.403067 -0.013261 -0.756216 -0.017258 -0.029278
    30 0.021413 -0.942156 0.012233 -1.061266 -0.029386 -0.035319
    31 1.164475 -2.543940 -0.170330 -1.012242 -0.632537 0.144275
    32 0.024032 -1.132948 0.002182 -0.722672 0.002792 0.038699
    33 0.014898 -0.899614 -0.015942 -0.908381 0.005789 0.045877
    34 -0.586770 -1.264477 0.200161 -0.276060 -0.126387 -2.529235
    35 1.546273 0.039149 0.016848 -0.009508 -0.003287 0.539173
    36 1.117947 0.048424 -0.005766 0.005162 -0.017815 -0.220205
    37 -0.049553 0.185186 0.260498 0.391233 0.025629 1.274553
    38 -6.456125 5.842992 -0.387875 1.578994 -0.024043 -0.836174
    39 4.476699 -11.070650 -5.547045 1.619594 -1.562063 -0.057418
    40 2.674608 0.548968 -2.262515 -1.570796 1.570796 0.000000
    41 2.167578 -0.043464 4.830877 3.141592 0.000001 1.570794
    42 0.534988 0.018297 -0.023263 -1.570794 -1.506920 -0.000003
    43 3.266718 0.000000 0.000000 0.000000 0.000000 2.850907
    44 3.495342 -0.000001 0.000000 0.000000 0.000000 -2.920270
    45 3.495343 -0.000001 0.000000 0.000000 0.000000 3.140458
    46 3.495342 -0.000001 0.000000 0.000000 0.000000 3.136970
    47 3.495342 -0.000001 0.000000 0.000000 0.000000 3.140275
    48 2.167577 -0.526180 -4.048347 -0.000001 -0.000002 1.570797
    49 2.167578 -0.117887 -2.533408 -0.000001 -0.000002 1.570797
    50 2.167578 0.521323 -4.048346 3.141592 0.000001 1.570794
    51 2.167578 0.113227 -2.533408 3.141592 0.000001 1.570794
    52 2.167578 -0.705793 4.830842 3.141592 0.000001 1.570794
    53 0.215461 0.018273 -0.007649 -1.570795 -1.647430 -0.000003
    54 3.264326 0.000000 0.000000 0.000000 0.000000 -2.857501
    55 3.517676 0.000002 0.000000 0.000000 0.000000 2.937446
    56 3.517676 0.000001 0.000000 0.000000 0.000000 -3.057610
    57 3.517676 0.000002 0.000000 0.000000 0.000000 -3.052469
    58 3.517676 0.000002 0.000000 0.000000 0.000000 -3.063513
    59 1.042816 0.000000 -0.359884 0.000001 3.107645 0.000000
    60 0.710891 0.000000 -1.631585 0.000001 3.141592 0.000000
    61 2.938107 -0.003140 -4.189798 -1.570796 1.570796 0.000000
    62 3.289057 0.000000 -2.644778 -1.570796 0.000000 0.000000
    63 2.885600 -0.000001 -0.932851 -1.570796 0.000000 0.000000
    64 2.647849 0.000000 0.829686 -1.570796 0.000000 0.000000
    65 2.424506 0.000000 2.419790 -1.570796 0.000000 0.000000
    66 5.962649 -0.010698 0.568543 1.422128 -1.570317 0.000000
    67 -0.095711 -55.699737 -9.066104 -1.570758 1.252308 -1.570750
    68 -0.000002 0.000001 0.000000 0.000000 0.000000 2.603953
    69 -2.882837 -37.939435 -12.807045 -0.690815 -2.251730 -1.565795
    70 3.489016 0.014759 0.568545 1.965618 -1.570796 0.000000
    71 0.173809 50.970972 -32.098642 -1.570763 -1.292844 -1.570815
    72 -0.000002 0.000001 0.000000 0.000000 0.000000 2.645099
    73 0.173818 50.414509 -32.259640 -1.570787 -0.352534 -1.570786
    74 -0.000002 0.000000 0.000000 0.000000 0.000000 2.753138
    75 -2.828931 41.689703 -23.136433 -0.652996 0.139228 -1.573932
    76 3.272459 -0.033361 0.568545 1.223770 -1.570796 0.000000
    77 0.173820 -54.091337 -27.131083 1.570781 0.519677 1.570798
    78 -0.000002 0.000000 0.000000 0.000000 0.000000 2.456145
    79 0.173826 -54.610961 -27.182867 1.570757 1.238153 1.570768
    80 -0.000002 0.000000 0.000000 0.000000 0.000000 2.652798
    81 0.173827 -55.140890 -26.862091 -1.570770 1.053172 -1.570764
    82 -0.000002 0.000000 0.000000 0.000000 0.000000 2.492011
    83 -2.800714 -41.466951 -19.925233 -0.743048 -1.975698 -1.562676
    84 5.975039 -0.006454 0.568522 -1.421459 -1.570796 0.000000
    85 -0.095714 55.840278 -8.012039 1.570757 1.258724 1.570748
    86 0.000001 0.000000 0.000000 0.000000 0.000000 -2.603130
    87 -2.656274 38.342851 -12.085512 -0.792946 0.593373 -1.574648
    88 3.482349 -0.011764 0.568522 -1.968015 -1.570796 0.000000
    89 0.318348 -48.293754 -35.326992 -1.570787 -2.720892 -1.570787
    90 0.000000 0.000000 0.000000 0.000000 0.000000 -2.648115
    91 0.318357 -48.862291 -35.188469 1.570820 -1.183344 1.570788
    92 0.000000 0.000001 0.000000 0.000000 0.000000 -2.388463
    93 -2.711174 -40.903032 -24.642065 -0.831242 -1.778037 -1.555249
    94 3.286241 0.007806 0.568521 -1.235318 -1.570796 0.000000
    95 0.318361 56.482937 -23.271265 1.570768 1.102123 1.570762
    96 0.000000 0.000000 0.000000 0.000000 0.000000 -2.448053
    97 0.318361 55.947920 -23.603284 -1.570738 1.340014 -1.570749
    98 0.000000 0.000000 0.000000 0.000000 0.000000 -2.650298
    99 0.318355 55.426431 -23.554808 -1.570782 0.461098 -1.570799
    100 -0.000001 0.000000 0.000000 0.000000 0.000000 -2.408331
    101 -2.738219 42.289916 -18.236151 -0.737102 0.339659 -1.574126
  time 12
    0 0.477731 3.362119 -1.772872 0.000000 0.000000 0.000000
    1 8.321792 -1.748724 -3.721751 5.945551 -2.011848 -0.041195
    2 8.065982 1.192041 -0.368563 1.568660 -3.117487 0.224126
    3 -0.001606 -8.533894 -0.072883 0.299303 0.574520 0.325336
    4 -0.488518 -2.755602 -0.228260 -0.311239 -0.109538 -0.260223
    5 0.039887 -1.534479 0.014229 -1.583330 -0.011050 0.035439
    6 0.028786 -1.212454 -0.132487 -1.415017 -0.014010 0.031975
    7 0.250027 -2.820665 -0.238396 -0.273856 -0.256227 -0.147141
    8 -0.049759 -1.598510 0.041883 -1.441502 0.002505 -0.039204
    9 -0.034142 -1.179563 0.045718 -1.331130 0.004566 -0.035115
    10 0.957766 -2.746780 -0.090302 -0.004290 -0.208897 0.116786
    11 -0.033420 -1.397129 -0.015163 -0.407059 0.007730 -0.019644
    12 -0.022360 -0.957436 0.010971 -0.359202 0.006927 -0.016874
    13 -1.180681 -2.507217 -0.193859 -0.088237 0.129772 -0.147787
    14 -0.024967 -1.127840 0.017597 -1.126773 0.001366 -0.048021
    15 -0.020057 -0.906594 0.037435 -1.249453 0.000324 -0.051102
    16 0.618667 -1.201183 0.189285 0.712155 -1.154109 -0.951250
    17 1.481238 -0.212417 0.067511 0.047072 -0.212187 -0.756152
    18 1.034363 -0.159541 0.036197 0.054227 -0.208894 -0.860802
    19 0.120153 -0.050270 -0.054489 0.589772 3.217556 1.464753
    20 -1.223923 -7.481328 -6.767115 -0.943375 -4.969578 -0.493194
    21 0.022723 -8.403542 0.014073 -0.202708 -0.567380 0.256462
    22 0.447953 -2.798986 -0.200443 -0.762104 -0.398723 -0.003996
    23 -0.032909 -1.499736 0.020565 -1.140704 0.022052 -0.019485
    24 -0.027022 -1.123796 -0.024116 -1.160053 0.023789 -0.020302
    25 -0.249534 -2.846964 -0.174213 -0.469218 -0.245869 -0.208874
    26 0.043235 -1.656596 0.072574 -1.351121 -0.021350 0.006353
    27 0.031729 -1.145205 0.058838 -1.033434 -0.011403 0.005819
    28 -0.963866 -2.785145 -0.085350 0.251745 0.089649 -0.093306
    29 0.028479 -1.403067 -0.013261 -0.756216 -0.017258 -0.029278
    30 0.021413 -0.942156 0.012233 -1.061266 -0.029386 -0.035319
    31 1.164475 -2.543940 -0.170330 -1.012242 -0.632537 0.144275
    32 0.024032 -1.132948 0.002182 -0.722672 0.002792 0.038699
    33 0.014898 -0.899614 -0.015942 -0.908381 0.005789 0.045877
    34 -0.586770 -1.264477 0.200161 -0.276060 -0.126387 -2.529235
    35 1.546273 0.039149 0.016848 -0.009508 -0.003287 0.539173
    36 1.117947 0.048424 -0.005766 0.005162 -0.017815 -0.220205
    37 -0.049553 0.185186 0.260498 0.391233 0.025629 1.274553
    38 -6.424874 5.882056 -0.387875 1.579078 -0.023887 -0.842747
    39 4.476699 -11.097995 -5.543139 1.617801 -1.561395 -0.055885
    40 2.674608 0.548968 -2.262515 -1.570796 1.570796 0.000000
    41 2.167578 -0.043464 4.830877 3.141592 0.000001 1.570794
    42 0.534988 0.018297 -0.023263 -1.570794 -1.506920 -0.000003
    43 3.266718 0.000000 0.000000 0.000000 0.000000 2.850907
    44 3.495342 -0.000001 0.000000 0.000000 0.000000 -2.920270
    45 3.495343 -0.000001 0.000000 0.000000 0.000000 3.140458
    46 3.495342 -0.000001 0.000000 0.000000 0.000000 3.136970
    47 3.495342 -0.000001 0.000000 0.000000 0.000000 3.140275
    48 2.167577 -0.526180 -4.048347 -0.000001 -0.000002 1.570797
    49 2.167578 -0.117887 -2.533408 -0.000001 -0.000002 1.570797
    50 2.167578 0.521323 -4.048346 3.141592 0.000001 1.570794
    51 2.167578 0.113227 -2.533408 3.141592 0.000001 1.570794
    52 2.167578 -0.705793 4.830842 3.141592 0.000001 1.570794
    53 0.215461 0.018273 -0.007649 -1.570795 -1.647430 -0.000003
    54 3.264326 0.000000 0.000000 0.000000 0.000000 -2.857501
    55 3.517676 0.000002 0.000000 0.000000 0.000000 2.937446
    56 3.517676 0.000001 0.000000 0.000000 0.000000 -3.057610
    57 3.517676 0.000002 0.000000 0.000000 0.000000 -3.052469
    58 3.517676 0.000002 0.000000 0.000000 0.000000 -3.063513
    59 1.042816 0.000000 -0.359884 0.000001 3.141592 0.000000
    60 0.710891 0.000000 -1.631585 0.000001 3.141592 0.000000
    61 2.938107 -0.003140 -4.189798 -1.570796 1.570796 0.000000
    62 3.289057 0.000000 -2.644778 -1.570796 0.000000 0.000000
    63 2.885600 -0.000001 -0.932851 -1.570796 0.000000 0.000000
    64 2.647849 0.000000 0.829686 -1.570796 0.000000 0.000000
    65 2.424506 0.000000 2.419790 -1.570796 0.000000 0.000000
    66 5.962649 -0.010698 0.568543 1.422128 -1.570317 0.000000
    67 -0.095711 -55.699737 -9.066104 -1.570758 1.252308 -1.570750
    68 -0.000002 0.000001 0.000000 0.000000 0.000000 2.603953
    69 -2.894556 -37.962873 -12.822670 -0.689760 -2.251347 -1.566561
    70 3.489016 0.014759 0.568545 1.965618 -1.570796 0.000000
    71 0.173809 50.970972 -32.098642 -1.570763 -1.292844 -1.570815
    72 -0.000002 0.000001 0.000000 0.000000 0.000000 2.645099
    73 0.173818 50.414509 -32.259640 -1.570787 -0.352534 -1.570786
    74 -0.000002 0.000000 0.000000 0.000000 0.000000 2.753138
    75 -2.840650 41.717048 -23.140340 -0.652421 0.139557 -1.573453
    76 3.272459 -0.033361 0.568545 1.223770 -1.570796 0.000000
    77 0.173820 -54.091337 -27.131083 1.570781 0.519677 1.570798
    78 -0.000002 0.000000 0.000000 0.000000 0.000000 2.456145
    79 0.173826 -54.610961 -27.182867 1.570757 1.238153 1.570768
    80 -0.000002 0.000000 0.000000 0.000000 0.000000 2.652798
    81 0.173827 -55.140890 -26.862091 -1.570770 1.053172 -1.570764
    82 -0.000002 0.000000 0.000000 0.000000 0.000000 2.492011
    83 -2.808526 -41.486483 -19.948671 -0.741418 -1.975369 -1.563921
    84 5.975039 -0.006454 0.568522 -1.421459 -1.570796 0.000000
    85 -0.095714 55.840278 -8.012039 1.570757 1.258724 1.570748
    86 0.000001 0.000000 0.000000 0.000000 0.000000 -2.603130
    87 -2.660180 38.374102 -12.077699 -0.792180 0.593724 -1.574073
    88 3.482349 -0.011764 0.568522 -1.968015 -1.570796 0.000000
    89 0.318348 -48.293754 -35.326992 -1.570787 -2.720892 -1.570787
    90 0.000000 0.000000 0.000000 0.000000 0.000000 -2.648115
    91 0.318357 -48.862291 -35.188469 1.570820 -1.183344 1.570788
    92 0.000000 0.000001 0.000000 0.000000 0.000000 -2.388463
    93 -2.715080 -40.918657 -24.669410 -0.828464 -1.777684 -1.557548
    94 3.286241 0.007806 0.568521 -1.235318 -1.570796 0.000000
    95 0.318361 56.482937 -23.271265 1.570768 1.102123 1.570762
    96 0.000000 0.000000 0.000000 0.000000 0.000000 -2.448053
    97 0.318361 55.947920 -23.603284 -1.570738 1.340014 -1.570749
    98 0.000000 0.000000 0.000000 0.000000 0.000000 -2.650298
    99 0.318355 55.426431 -23.554808 -1.570782 0.461098 -1.570799
    100 -0.000001 0.000000 0.000000 0.000000 0.000000 -2.408331
    101 -2.746032 42.317260 -18.236151 -0.736431 0.339987 -1.573647
end
