version 1
nodes
  0 "root" -1
  1 "Bone01" 0
  2 "Bone_Lefthand" 1
  3 "Bone02" 2
  4 "Dummy01" 3
  5 "Bone08" 4
  6 "Bone16" 3
  7 "Bone26" 3
  8 "Bone24" 3
  9 "Bone03" 3
  10 "Bone_L_Upper" 1
  11 "Bone13" 2
  12 "Bone14" 11
  13 "Bone15" 12
  14 "Bone17" 2
  15 "Bone18" 14
  16 "Bone19" 15
  17 "Bone21" 2
  18 "Bone22" 17
  19 "Bone23" 18
  20 "Bone09" 2
  21 "Bone10" 20
  22 "Bone11" 21
  23 "Bone05" 2
  24 "Bone06" 23
  25 "Bone07" 24
  26 "Bone_Se_Hand-L" 2
  27 "Bone04" 0
  28 "Bone_Righthand" 27
  29 "Bone39" 28
  30 "Bone40" 29
  31 "Bone41" 30
  32 "Bone35" 28
  33 "Bone36" 32
  34 "Bone37" 33
  35 "Bone31" 28
  36 "Bone32" 35
  37 "Bone33" 36
  38 "Bone43" 28
  39 "Bone44" 38
  40 "Bone45" 39
  41 "Bone27" 28
  42 "Bone28" 41
  43 "Bone29" 42
  44 "Bone_Se_Hand-R" 28
  45 "Bone_R_Upper" 27
end
skeleton
  time 0
    0 -0.349399 1.166145 0.203512 0.000000 0.000000 0.000000
    1 9.829882 1.563504 -8.486036 -1.571119 -1.331103 1.223349
    2 -0.071918 -8.498730 -0.104137 0.222040 0.082758 -0.242831
    3 2.625392 -4.630684 0.531024 0.088531 0.124698 -1.545787
    4 3.320456 -3.555786 0.000000 0.000000 0.000000 -1.335287
    5 0.000001 -0.000001 0.000000 0.000000 0.000000 0.000000
    6 4.576822 0.301753 0.000001 0.000000 0.000000 1.570796
    7 -0.012045 -1.178453 0.000000 0.000000 0.000000 -1.570796
    8 5.678410 0.730324 0.418752 -3.141592 -1.570796 0.000000
    9 1.528143 -1.794764 0.099164 0.000000 0.000000 -1.570796
    10 1.257180 8.762585 -0.153713 -1.570562 0.002683 -1.566807
    11 -0.488518 -2.755602 -0.228260 -1.030852 -0.134082 -0.416251
    12 0.039887 -1.479790 0.029854 -2.301996 0.000000 0.000001
    13 0.028786 -1.075731 -0.023109 -0.271941 0.000000 0.000000
    14 0.250027 -2.820665 -0.238396 -0.636386 -0.105209 -0.434549
    15 -0.049759 -1.680544 0.100479 -2.367108 0.000000 -0.000002
    16 -0.034142 -1.148312 0.084782 -0.535851 0.000000 0.000000
    17 0.957766 -2.746780 -0.090302 0.329289 -0.172344 0.119866
    18 -0.033420 -1.397129 -0.011257 -1.115578 0.000000 -0.000001
    19 -0.022360 -0.957436 0.018784 -1.148776 0.000000 0.000000
    20 -1.180681 -2.507217 -0.193859 -1.049595 -0.031145 -0.514372
    21 -0.024967 -1.123934 0.017597 -1.975757 0.000000 0.000001
    22 -0.020057 -0.890968 0.010090 -0.444208 0.000000 0.000000
    23 0.583510 -1.197277 0.185379 0.371183 -0.693166 -0.903076
    24 1.535927 0.010246 0.005009 -0.002964 -0.012979 -0.682290
    25 1.100771 0.004527 -0.010679 -0.016147 -0.001453 -1.484153
    26 0.120153 -0.050270 -0.054489 0.287569 3.110905 1.561085
    27 1.244902 -11.098626 -10.333630 -1.826451 -5.211056 -1.289932
    28 0.096944 -8.450418 -0.009365 -0.333602 -1.431733 0.746590
    29 0.447953 -2.798986 -0.200443 -1.615279 0.118642 0.257028
    30 -0.032909 -1.480204 0.004940 -0.886493 0.000000 0.000002
    31 -0.027022 -1.076920 -0.020210 -0.207385 0.000000 0.000000
    32 -0.249534 -2.846964 -0.174213 -1.234461 0.063357 0.171289
    33 0.043235 -1.683941 0.096012 -1.359042 0.002823 -0.000167
    34 0.031729 -1.160830 0.058838 -0.173749 0.000642 0.008372
    35 -0.963866 -2.785145 -0.085350 -0.761137 0.144443 0.176215
    36 0.028479 -1.403067 0.006271 -1.167207 0.000000 0.000000
    37 0.021413 -0.957781 0.020046 -0.471313 0.000000 0.000000
    38 1.164475 -2.543940 -0.170330 -1.658861 0.064007 0.245612
    39 0.024032 -1.129042 0.017807 -0.836353 0.000000 0.000001
    40 0.014898 -0.883989 -0.019848 -0.123944 0.000000 0.000000
    41 -0.586770 -1.264477 0.200161 -0.015408 -0.427220 -2.502491
    42 1.522835 0.058681 0.016848 0.001410 0.008985 0.423714
    43 1.117947 0.048424 -0.005766 0.000344 -0.025198 0.041834
    44 -0.139399 -0.111698 0.014397 0.846746 0.171241 1.393752
    45 -6.260806 6.983652 -0.294122 1.580804 -0.005023 -0.912799
  time 1
    0 -0.349399 1.166145 0.203512 0.000000 0.000000 0.000000
    1 9.829882 3.106520 -8.896205 -1.628874 -1.285834 1.279088
    2 -0.071918 -8.498730 -0.104137 0.222927 0.121780 -0.233974
    3 2.625392 -4.630684 0.531024 0.088531 0.124698 -1.545787
    4 3.320456 -3.555786 0.000000 0.000000 0.000000 -1.335287
    5 0.000001 -0.000001 0.000000 0.000000 0.000000 0.000000
    6 1.393131 0.301753 0.000001 0.000000 0.000000 1.570796
    7 -0.012045 -1.178453 0.000000 0.000000 0.000000 -2.185055
    8 5.678410 0.730324 0.418752 -4.712366 -0.552014 1.570796
    9 1.528143 -1.794764 0.099164 0.000000 0.000000 -1.570796
    10 1.257180 8.762585 -0.153713 -1.570562 0.002683 -1.566807
    11 -0.488518 -2.755602 -0.228260 -1.030852 -0.134082 -0.416251
    12 0.039887 -1.479790 0.029854 -2.301996 0.000000 0.000001
    13 0.028786 -1.075731 -0.023109 -0.271941 0.000000 0.000000
    14 0.250027 -2.820665 -0.238396 -0.636386 -0.105209 -0.434549
    15 -0.049759 -1.680544 0.100479 -2.367108 0.000000 -0.000002
    16 -0.034142 -1.148312 0.084782 -0.535851 0.000000 0.000000
    17 0.957766 -2.746780 -0.090302 0.329289 -0.172344 0.119866
    18 -0.033420 -1.397129 -0.011257 -1.307783 0.000000 -0.000001
    19 -0.022360 -0.957436 0.018784 -1.341016 0.000000 0.000000
    20 -1.180681 -2.507217 -0.193859 -1.049595 -0.031145 -0.514372
    21 -0.024967 -1.123934 0.017597 -1.975757 0.000000 0.000001
    22 -0.020057 -0.890968 0.010090 -0.444208 0.000000 0.000000
    23 0.583510 -1.197277 0.185379 0.371183 -0.693166 -0.903076
    24 1.535927 0.010246 0.005009 -0.002964 -0.012979 -0.682290
    25 1.100771 0.004527 -0.010679 -0.016147 -0.001453 -1.484153
    26 0.120153 -0.050270 -0.054489 0.287569 3.110905 1.561085
    27 0.811295 -9.602487 -9.919555 -1.923891 -5.241281 -1.323723
    28 0.096944 -8.450418 -0.009365 0.078789 -1.399099 0.373808
    29 0.447953 -2.798986 -0.200443 -1.615279 0.118642 0.257028
    30 -0.032909 -1.480204 0.004940 -0.886493 0.000000 0.000002
    31 -0.027022 -1.076920 -0.020210 -0.207385 0.000000 0.000000
    32 -0.249534 -2.846964 -0.174213 -1.234461 0.063357 0.171289
    33 0.043235 -1.683941 0.096012 -1.359042 0.002823 -0.000167
    34 0.031729 -1.160830 0.058838 -0.173749 0.000642 0.008372
    35 -0.963866 -2.785145 -0.085350 -0.761137 0.144443 0.176215
    36 0.028479 -1.403067 0.006271 -1.167207 0.000000 0.000000
    37 0.021413 -0.957781 0.020046 -0.471313 0.000000 0.000000
    38 1.164475 -2.543940 -0.170330 -1.658861 0.064007 0.245612
    39 0.024032 -1.129042 0.017807 -0.836353 0.000000 0.000001
    40 0.014898 -0.883989 -0.019848 -0.123944 0.000000 0.000000
    41 -0.586770 -1.264477 0.200161 -0.015408 -0.427220 -2.502491
    42 1.522835 0.058681 0.016848 0.001410 0.008985 0.423714
    43 1.117947 0.048424 -0.005766 0.000344 -0.025198 0.041834
    44 -0.139399 -0.111698 0.014397 0.846746 0.171241 1.393752
    45 -6.260806 6.983652 -0.294122 1.580804 -0.005023 -0.912799
  time 2
    0 -0.349399 1.166145 0.203512 0.000000 0.000000 0.000000
    1 9.829882 3.629973 -8.747763 -1.636046 -1.303996 1.286359
    2 -0.071918 -8.498730 -0.104137 0.222316 0.097283 -0.239535
    3 2.625392 -4.630684 0.531024 0.088531 0.124698 -1.545787
    4 3.320456 -3.555786 0.000000 0.000000 0.000000 -1.335287
    5 0.000001 -0.000001 0.000000 0.000000 0.000000 0.000000
    6 0.928273 0.301753 0.000001 0.000000 0.000000 1.570796
    7 -0.012045 -1.178453 0.000000 0.000000 0.000000 -2.274647
    8 5.678410 0.730324 0.418752 -4.712366 -0.326455 1.570796
    9 1.528143 -1.794764 0.099164 0.000000 0.000000 -1.570796
    10 1.257180 8.762585 -0.153713 -1.570562 0.002683 -1.566807
    11 -0.488518 -2.755602 -0.228260 -1.030852 -0.134082 -0.416251
    12 0.039887 -1.479790 0.029854 -2.301996 0.000000 0.000001
    13 0.028786 -1.075731 -0.023109 -0.271941 0.000000 0.000000
    14 0.250027 -2.820665 -0.238396 -0.636386 -0.105209 -0.434549
    15 -0.049759 -1.680544 0.100479 -2.367108 0.000000 -0.000002
    16 -0.034142 -1.148312 0.084782 -0.535851 0.000000 0.000000
    17 0.957766 -2.746780 -0.090302 0.329289 -0.172344 0.119866
    18 -0.033420 -1.397129 -0.011257 -1.307783 0.000000 -0.000001
    19 -0.022360 -0.957436 0.018784 -1.341016 0.000000 0.000000
    20 -1.180681 -2.507217 -0.193859 -1.049595 -0.031145 -0.514372
    21 -0.024967 -1.123934 0.017597 -1.975757 0.000000 0.000001
    22 -0.020057 -0.890968 0.010090 -0.444208 0.000000 0.000000
    23 0.583510 -1.197277 0.185379 0.371183 -0.693166 -0.903076
    24 1.535927 0.010246 0.005009 -0.002964 -0.012979 -0.682290
    25 1.100771 0.004527 -0.010679 -0.016147 -0.001453 -1.484153
    26 0.120153 -0.050270 -0.054489 0.287569 3.110905 1.561085
    27 0.912861 -9.145442 -10.185188 -1.855281 -5.236855 -1.263682
    28 0.096944 -8.450418 -0.009365 0.073584 -1.410661 0.369447
    29 0.447953 -2.798986 -0.200443 -1.615279 0.118642 0.257028
    30 -0.032909 -1.480204 0.004940 -0.886493 0.000000 0.000002
    31 -0.027022 -1.076920 -0.020210 -0.207385 0.000000 0.000000
    32 -0.249534 -2.846964 -0.174213 -1.234461 0.063357 0.171289
    33 0.043235 -1.683941 0.096012 -1.359042 0.002823 -0.000167
    34 0.031729 -1.160830 0.058838 -0.173749 0.000642 0.008372
    35 -0.963866 -2.785145 -0.085350 -0.761137 0.144443 0.176215
    36 0.028479 -1.403067 0.006271 -1.167207 0.000000 0.000000
    37 0.021413 -0.957781 0.020046 -0.471313 0.000000 0.000000
    38 1.164475 -2.543940 -0.170330 -1.658861 0.064007 0.245612
    39 0.024032 -1.129042 0.017807 -0.836353 0.000000 0.000001
    40 0.014898 -0.883989 -0.019848 -0.123944 0.000000 0.000000
    41 -0.586770 -1.264477 0.200161 -0.015408 -0.427220 -2.502491
    42 1.522835 0.058681 0.016848 0.001410 0.008985 0.423714
    43 1.117947 0.048424 -0.005766 0.000344 -0.025198 0.041834
    44 -0.139399 -0.111698 0.014397 0.846746 0.171241 1.393752
    45 -6.260806 6.983652 -0.294122 1.580804 -0.005023 -0.912799
  time 3
    0 -0.349399 1.166145 0.203512 0.000000 0.000000 0.000000
    1 9.829882 3.610441 -8.478224 -1.605638 -1.324729 1.257008
    2 -0.071918 -8.498730 -0.104137 0.221693 0.061821 -0.247565
    3 2.625392 -4.630684 0.531024 0.088531 0.124698 -1.545787
    4 3.320456 -3.555786 0.000000 0.000000 0.000000 -1.335287
    5 0.000001 -0.000001 0.000000 0.000000 0.000000 0.000000
    6 1.393131 0.301753 0.000001 0.000000 0.000000 1.570796
    7 -0.012045 -1.178453 0.000000 0.000000 0.000000 -2.185055
    8 5.678410 0.730324 0.418752 -4.712366 -0.258026 1.570796
    9 1.528143 -1.794764 0.099164 0.000000 0.000000 -1.570796
    10 1.257180 8.762585 -0.153713 -1.570562 0.002683 -1.566807
    11 -0.488518 -2.755602 -0.228260 -1.030852 -0.134082 -0.416251
    12 0.039887 -1.479790 0.029854 -2.301996 0.000000 0.000001
    13 0.028786 -1.075731 -0.023109 -0.271941 0.000000 0.000000
    14 0.250027 -2.820665 -0.238396 -0.636386 -0.105209 -0.434549
    15 -0.049759 -1.680544 0.100479 -2.367108 0.000000 -0.000002
    16 -0.034142 -1.148312 0.084782 -0.535851 0.000000 0.000000
    17 0.957766 -2.746780 -0.090302 0.329289 -0.172344 0.119866
    18 -0.033420 -1.397129 -0.011257 -1.307783 0.000000 -0.000001
    19 -0.022360 -0.957436 0.018784 -1.341016 0.000000 0.000000
    20 -1.180681 -2.507217 -0.193859 -1.049595 -0.031145 -0.514372
    21 -0.024967 -1.123934 0.017597 -1.975757 0.000000 0.000001
    22 -0.020057 -0.890968 0.010090 -0.444208 0.000000 0.000000
    23 0.583510 -1.197277 0.185379 0.371183 -0.693166 -0.903076
    24 1.535927 0.010246 0.005009 -0.002964 -0.012979 -0.682290
    25 1.100771 0.004527 -0.010679 -0.016147 -0.001453 -1.484153
    26 0.120153 -0.050270 -0.054489 0.287569 3.110905 1.561085
    27 1.041771 -9.192318 -10.376600 -1.777698 -5.231929 -1.196482
    28 0.096944 -8.450418 -0.009365 0.069782 -1.419192 0.366271
    29 0.447953 -2.798986 -0.200443 -1.615279 0.118642 0.257028
    30 -0.032909 -1.480204 0.004940 -0.886493 0.000000 0.000002
    31 -0.027022 -1.076920 -0.020210 -0.207385 0.000000 0.000000
    32 -0.249534 -2.846964 -0.174213 -1.234461 0.063357 0.171289
    33 0.043235 -1.683941 0.096012 -1.359042 0.002823 -0.000167
    34 0.031729 -1.160830 0.058838 -0.173749 0.000642 0.008372
    35 -0.963866 -2.785145 -0.085350 -0.761137 0.144443 0.176215
    36 0.028479 -1.403067 0.006271 -1.167207 0.000000 0.000000
    37 0.021413 -0.957781 0.020046 -0.471313 0.000000 0.000000
    38 1.164475 -2.543940 -0.170330 -1.658861 0.064007 0.245612
    39 0.024032 -1.129042 0.017807 -0.836353 0.000000 0.000001
    40 0.014898 -0.883989 -0.019848 -0.123944 0.000000 0.000000
    41 -0.586770 -1.264477 0.200161 -0.015408 -0.427220 -2.502491
    42 1.522835 0.058681 0.016848 0.001410 0.008985 0.423714
    43 1.117947 0.048424 -0.005766 0.000344 -0.025198 0.041834
    44 -0.139399 -0.111698 0.014397 0.846746 0.171241 1.393752
    45 -6.260806 6.983652 -0.294122 1.580804 -0.005023 -0.912799
  time 4
    0 -0.349399 1.166145 0.203512 0.000000 0.000000 0.000000
    1 9.825975 3.493250 -8.185246 -1.562800 -1.345153 1.215271
    2 -0.071918 -8.498730 -0.104137 0.221453 0.041411 -0.252179
    3 2.625392 -4.630684 0.531024 0.088531 0.124698 -1.545787
    4 3.320456 -3.555786 0.000000 0.000000 0.000000 -1.335287
    5 0.000001 -0.000001 0.000000 0.000000 0.000000 0.000000
    6 2.686139 0.301753 0.000001 0.000000 0.000000 1.570796
    7 -0.012045 -1.178453 0.000000 0.000000 0.000000 -1.916321
    8 5.678410 0.730324 0.418752 -4.712366 -0.325013 1.570796
    9 1.528143 -1.794764 0.099164 0.000000 0.000000 -1.570796
    10 1.257180 8.762585 -0.153713 -1.570562 0.002683 -1.566807
    11 -0.488518 -2.755602 -0.228260 -1.030852 -0.134082 -0.416251
    12 0.039887 -1.479790 0.029854 -2.301996 0.000000 0.000001
    13 0.028786 -1.075731 -0.023109 -0.271941 0.000000 0.000000
    14 0.250027 -2.820665 -0.238396 -0.636386 -0.105209 -0.434549
    15 -0.049759 -1.680544 0.100479 -2.367108 0.000000 -0.000002
    16 -0.034142 -1.148312 0.084782 -0.535851 0.000000 0.000000
    17 0.957766 -2.746780 -0.090302 0.329289 -0.172344 0.119866
    18 -0.033420 -1.397129 -0.011257 -1.211701 0.000000 -0.000001
    19 -0.022360 -0.957436 0.018784 -1.244896 0.000000 0.000000
    20 -1.180681 -2.507217 -0.193859 -1.049595 -0.031145 -0.514372
    21 -0.024967 -1.123934 0.017597 -1.975757 0.000000 0.000001
    22 -0.020057 -0.890968 0.010090 -0.444208 0.000000 0.000000
    23 0.583510 -1.197277 0.185379 0.371183 -0.693166 -0.903076
    24 1.535927 0.010246 0.005009 -0.002964 -0.012979 -0.682290
    25 1.100771 0.004527 -0.010679 -0.016147 -0.001453 -1.484153
    26 0.120153 -0.050270 -0.054489 0.287569 3.110905 1.561085
    27 1.115992 -9.313416 -10.462540 -1.728286 -5.220407 -1.154005
    28 0.096944 -8.450418 -0.009365 0.066568 -1.426186 0.363712
    29 0.447953 -2.798986 -0.200443 -1.615279 0.118642 0.257028
    30 -0.032909 -1.480204 0.004940 -0.886493 0.000000 0.000002
    31 -0.027022 -1.076920 -0.020210 -0.207385 0.000000 0.000000
    32 -0.249534 -2.846964 -0.174213 -1.234461 0.063357 0.171289
    33 0.043235 -1.683941 0.096012 -1.359042 0.002823 -0.000167
    34 0.031729 -1.160830 0.058838 -0.173749 0.000642 0.008372
    35 -0.963866 -2.785145 -0.085350 -0.761137 0.144443 0.176215
    36 0.028479 -1.403067 0.006271 -1.167207 0.000000 0.000000
    37 0.021413 -0.957781 0.020046 -0.471313 0.000000 0.000000
    38 1.164475 -2.543940 -0.170330 -1.658861 0.064007 0.245612
    39 0.024032 -1.129042 0.017807 -0.836353 0.000000 0.000001
    40 0.014898 -0.883989 -0.019848 -0.123944 0.000000 0.000000
    41 -0.586770 -1.264477 0.200161 -0.015408 -0.427220 -2.502491
    42 1.522835 0.058681 0.016848 0.001410 0.008985 0.423714
    43 1.117947 0.048424 -0.005766 0.000344 -0.025198 0.041834
    44 -0.139399 -0.111698 0.014397 0.846746 0.171241 1.393752
    45 -6.260806 6.983652 -0.294122 1.580804 -0.005023 -0.912799
  time 5
    0 -0.349399 1.166145 0.203512 0.000000 0.000000 0.000000
    1 9.825975 3.360434 -8.009459 -1.525890 -1.358689 1.179278
    2 -0.071918 -8.498730 -0.104137 0.221501 0.046241 -0.251088
    3 2.625392 -4.630684 0.531024 0.088531 0.124698 -1.545787
    4 3.320456 -3.555786 0.000000 0.000000 0.000000 -1.335287
    5 0.000001 -0.000001 0.000000 0.000000 0.000000 0.000000
    6 4.576822 0.301753 0.000001 0.000000 0.000000 1.570796
    7 -0.012045 -1.178453 0.000000 0.000000 0.000000 -1.570796
    8 5.678410 0.730324 0.418752 -4.712366 -0.512111 1.570796
    9 1.528143 -1.794764 0.099164 0.000000 0.000000 -1.570796
    10 1.257180 8.762585 -0.153713 -1.570562 0.002683 -1.566807
    11 -0.488518 -2.755602 -0.228260 -1.030852 -0.134082 -0.416251
    12 0.039887 -1.479790 0.029854 -2.301996 0.000000 0.000001
    13 0.028786 -1.075731 -0.023109 -0.271941 0.000000 0.000000
    14 0.250027 -2.820665 -0.238396 -0.636386 -0.105209 -0.434549
    15 -0.049759 -1.680544 0.100479 -2.367108 0.000000 -0.000002
    16 -0.034142 -1.148312 0.084782 -0.535851 0.000000 0.000000
    17 0.957766 -2.746780 -0.090302 0.329289 -0.172344 0.119866
    18 -0.033420 -1.397129 -0.011257 -1.115578 0.000000 -0.000001
    19 -0.022360 -0.957436 0.018784 -1.148776 0.000000 0.000000
    20 -1.180681 -2.507217 -0.193859 -1.049595 -0.031145 -0.514372
    21 -0.024967 -1.123934 0.017597 -1.975757 0.000000 0.000001
    22 -0.020057 -0.890968 0.010090 -0.444208 0.000000 0.000000
    23 0.583510 -1.197277 0.185379 0.371183 -0.693166 -0.903076
    24 1.535927 0.010246 0.005009 -0.002964 -0.012979 -0.682290
    25 1.100771 0.004527 -0.010679 -0.016147 -0.001453 -1.484153
    26 0.120153 -0.050270 -0.054489 0.287569 3.110905 1.561085
    27 1.088648 -9.450139 -10.435195 -1.728814 -5.202707 -1.154195
    28 0.096944 -8.450418 -0.009365 0.063355 -1.433225 0.361152
    29 0.447953 -2.798986 -0.200443 -1.615279 0.118642 0.257028
    30 -0.032909 -1.480204 0.004940 -0.886493 0.000000 0.000002
    31 -0.027022 -1.076920 -0.020210 -0.207385 0.000000 0.000000
    32 -0.249534 -2.846964 -0.174213 -1.234461 0.063357 0.171289
    33 0.043235 -1.683941 0.096012 -1.359042 0.002823 -0.000167
    34 0.031729 -1.160830 0.058838 -0.173749 0.000642 0.008372
    35 -0.963866 -2.785145 -0.085350 -0.761137 0.144443 0.176215
    36 0.028479 -1.403067 0.006271 -1.167207 0.000000 0.000000
    37 0.021413 -0.957781 0.020046 -0.471313 0.000000 0.000000
    38 1.164475 -2.543940 -0.170330 -1.658861 0.064007 0.245612
    39 0.024032 -1.129042 0.017807 -0.836353 0.000000 0.000001
    40 0.014898 -0.883989 -0.019848 -0.123944 0.000000 0.000000
    41 -0.586770 -1.264477 0.200161 -0.015408 -0.427220 -2.502491
    42 1.522835 0.058681 0.016848 0.001410 0.008985 0.423714
    43 1.117947 0.048424 -0.005766 0.000344 -0.025198 0.041834
    44 -0.139399 -0.111698 0.014397 0.846746 0.171241 1.393752
    45 -6.260806 6.983652 -0.294122 1.580804 -0.005023 -0.912799
  time 6
    0 -0.349399 1.166145 0.203512 0.000000 0.000000 0.000000
    1 9.825975 3.239336 -8.028991 -1.511164 -1.361191 1.164917
    2 -0.071918 -8.498730 -0.104137 0.221705 0.062744 -0.247361
    3 2.625392 -4.630684 0.531024 0.088531 0.124698 -1.545787
    4 3.320456 -3.555786 0.000000 0.000000 0.000000 -1.335287
    5 0.000001 -0.000001 0.000000 0.000000 0.000000 0.000000
    6 4.576822 0.301753 0.000001 0.000000 0.000000 1.570796
    7 -0.012045 -1.178453 0.000000 0.000000 0.000000 -1.570796
    8 5.678410 0.730324 0.418752 -4.712366 -0.783302 1.570796
    9 1.528143 -1.794764 0.099164 0.000000 0.000000 -1.570796
    10 1.257180 8.762585 -0.153713 -1.570562 0.002683 -1.566807
    11 -0.488518 -2.755602 -0.228260 -1.030852 -0.134082 -0.416251
    12 0.039887 -1.479790 0.029854 -2.301996 0.000000 0.000001
    13 0.028786 -1.075731 -0.023109 -0.271941 0.000000 0.000000
    14 0.250027 -2.820665 -0.238396 -0.636386 -0.105209 -0.434549
    15 -0.049759 -1.680544 0.100479 -2.367108 0.000000 -0.000002
    16 -0.034142 -1.148312 0.084782 -0.535851 0.000000 0.000000
    17 0.957766 -2.746780 -0.090302 0.329289 -0.172344 0.119866
    18 -0.033420 -1.397129 -0.011257 -1.115578 0.000000 -0.000001
    19 -0.022360 -0.957436 0.018784 -1.148776 0.000000 0.000000
    20 -1.180681 -2.507217 -0.193859 -1.049595 -0.031145 -0.514372
    21 -0.024967 -1.123934 0.017597 -1.975757 0.000000 0.000001
    22 -0.020057 -0.890968 0.010090 -0.444208 0.000000 0.000000
    23 0.583510 -1.197277 0.185379 0.371183 -0.693166 -0.903076
    24 1.535927 0.010246 0.005009 -0.002964 -0.012979 -0.682290
    25 1.100771 0.004527 -0.010679 -0.016147 -0.001453 -1.484153
    26 0.120153 -0.050270 -0.054489 0.287569 3.110905 1.561085
    27 1.045678 -9.567330 -10.392225 -1.761535 -5.190016 -1.186841
    28 0.096944 -8.450418 -0.009365 0.025967 -1.438773 0.393572
    29 0.447953 -2.798986 -0.200443 -1.615279 0.118642 0.257028
    30 -0.032909 -1.480204 0.004940 -0.886493 0.000000 0.000002
    31 -0.027022 -1.076920 -0.020210 -0.207385 0.000000 0.000000
    32 -0.249534 -2.846964 -0.174213 -1.234461 0.063357 0.171289
    33 0.043235 -1.683941 0.096012 -1.359042 0.002823 -0.000167
    34 0.031729 -1.160830 0.058838 -0.173749 0.000642 0.008372
    35 -0.963866 -2.785145 -0.085350 -0.761137 0.144443 0.176215
    36 0.028479 -1.403067 0.006271 -1.167207 0.000000 0.000000
    37 0.021413 -0.957781 0.020046 -0.471313 0.000000 0.000000
    38 1.164475 -2.543940 -0.170330 -1.658861 0.064007 0.245612
    39 0.024032 -1.129042 0.017807 -0.836353 0.000000 0.000001
    40 0.014898 -0.883989 -0.019848 -0.123944 0.000000 0.000000
    41 -0.586770 -1.264477 0.200161 -0.015408 -0.427220 -2.502491
    42 1.522835 0.058681 0.016848 0.001410 0.008985 0.423714
    43 1.117947 0.048424 -0.005766 0.000344 -0.025198 0.041834
    44 -0.139399 -0.111698 0.014397 0.846746 0.171241 1.393752
    45 -6.260806 6.983652 -0.294122 1.580804 -0.005023 -0.912799
  time 7
    0 -0.349399 1.166145 0.203512 0.000000 0.000000 0.000000
    1 9.829882 3.106520 -8.161808 -1.510878 -1.357215 1.164737
    2 -0.071918 -8.498730 -0.104137 0.222004 0.081320 -0.243154
    3 2.625392 -4.630684 0.531024 0.088531 0.124698 -1.545787
    4 3.320456 -3.555786 0.000000 0.000000 0.000000 -1.335287
    5 0.000001 -0.000001 0.000000 0.000000 0.000000 0.000000
    6 4.576822 0.301753 0.000001 0.000000 0.000000 1.570796
    7 -0.012045 -1.178453 0.000000 0.000000 0.000000 -1.570796
    8 5.678410 0.730324 0.418752 -4.712366 -1.085543 1.570796
    9 1.528143 -1.794764 0.099164 0.000000 0.000000 -1.570796
    10 1.257180 8.762585 -0.153713 -1.570562 0.002683 -1.566807
    11 -0.488518 -2.755602 -0.228260 -1.030852 -0.134082 -0.416251
    12 0.039887 -1.479790 0.029854 -2.301996 0.000000 0.000001
    13 0.028786 -1.075731 -0.023109 -0.271941 0.000000 0.000000
    14 0.250027 -2.820665 -0.238396 -0.636386 -0.105209 -0.434549
    15 -0.049759 -1.680544 0.100479 -2.367108 0.000000 -0.000002
    16 -0.034142 -1.148312 0.084782 -0.535851 0.000000 0.000000
    17 0.957766 -2.746780 -0.090302 0.329289 -0.172344 0.119866
    18 -0.033420 -1.397129 -0.011257 -1.115578 0.000000 -0.000001
    19 -0.022360 -0.957436 0.018784 -1.148776 0.000000 0.000000
    20 -1.180681 -2.507217 -0.193859 -1.049595 -0.031145 -0.514372
    21 -0.024967 -1.123934 0.017597 -1.975757 0.000000 0.000001
    22 -0.020057 -0.890968 0.010090 -0.444208 0.000000 0.000000
    23 0.583510 -1.197277 0.185379 0.371183 -0.693166 -0.903076
    24 1.535927 0.010246 0.005009 -0.002964 -0.012979 -0.682290
    25 1.100771 0.004527 -0.010679 -0.016147 -0.001453 -1.484153
    26 0.120153 -0.050270 -0.054489 0.287569 3.110905 1.561085
    27 1.041771 -9.664989 -10.360974 -1.806198 -5.183503 -1.236668
    28 0.096944 -8.450418 -0.009365 -0.062612 -1.440405 0.479220
    29 0.447953 -2.798986 -0.200443 -1.615279 0.118642 0.257028
    30 -0.032909 -1.480204 0.004940 -0.886493 0.000000 0.000002
    31 -0.027022 -1.076920 -0.020210 -0.207385 0.000000 0.000000
    32 -0.249534 -2.846964 -0.174213 -1.234461 0.063357 0.171289
    33 0.043235 -1.683941 0.096012 -1.359042 0.002823 -0.000167
    34 0.031729 -1.160830 0.058838 -0.173749 0.000642 0.008372
    35 -0.963866 -2.785145 -0.085350 -0.761137 0.144443 0.176215
    36 0.028479 -1.403067 0.006271 -1.167207 0.000000 0.000000
    37 0.021413 -0.957781 0.020046 -0.471313 0.000000 0.000000
    38 1.164475 -2.543940 -0.170330 -1.658861 0.064007 0.245612
    39 0.024032 -1.129042 0.017807 -0.836353 0.000000 0.000001
    40 0.014898 -0.883989 -0.019848 -0.123944 0.000000 0.000000
    41 -0.586770 -1.264477 0.200161 -0.015408 -0.427220 -2.502491
    42 1.522835 0.058681 0.016848 0.001410 0.008985 0.423714
    43 1.117947 0.048424 -0.005766 0.000344 -0.025198 0.041834
    44 -0.139399 -0.111698 0.014397 0.846746 0.171241 1.393752
    45 -6.260806 6.983652 -0.294122 1.580804 -0.005023 -0.912799
  time 8
    0 -0.349399 1.166145 0.203512 0.000000 0.000000 0.000000
    1 9.829882 2.973703 -8.275092 -1.514989 -1.353446 1.168687
    2 -0.071918 -8.498730 -0.104137 0.222220 0.092393 -0.240649
    3 2.625392 -4.630684 0.531024 0.088531 0.124698 -1.545787
    4 3.320456 -3.555786 0.000000 0.000000 0.000000 -1.335287
    5 0.000001 -0.000001 0.000000 0.000000 0.000000 0.000000
    6 4.576822 0.301753 0.000001 0.000000 0.000000 1.570796
    7 -0.012045 -1.178453 0.000000 0.000000 0.000000 -1.570796
    8 5.678410 0.730324 0.418752 -4.712366 -1.365750 1.570796
    9 1.528143 -1.794764 0.099164 0.000000 0.000000 -1.570796
    10 1.257180 8.762585 -0.153713 -1.570562 0.002683 -1.566807
    11 -0.488518 -2.755602 -0.228260 -1.030852 -0.134082 -0.416251
    12 0.039887 -1.479790 0.029854 -2.301996 0.000000 0.000001
    13 0.028786 -1.075731 -0.023109 -0.271941 0.000000 0.000000
    14 0.250027 -2.820665 -0.238396 -0.636386 -0.105209 -0.434549
    15 -0.049759 -1.680544 0.100479 -2.367108 0.000000 -0.000002
    16 -0.034142 -1.148312 0.084782 -0.535851 0.000000 0.000000
    17 0.957766 -2.746780 -0.090302 0.329289 -0.172344 0.119866
    18 -0.033420 -1.397129 -0.011257 -1.115578 0.000000 -0.000001
    19 -0.022360 -0.957436 0.018784 -1.148776 0.000000 0.000000
    20 -1.180681 -2.507217 -0.193859 -1.049595 -0.031145 -0.514372
    21 -0.024967 -1.123934 0.017597 -1.975757 0.000000 0.000001
    22 -0.020057 -0.890968 0.010090 -0.444208 0.000000 0.000000
    23 0.583510 -1.197277 0.185379 0.371183 -0.693166 -0.903076
    24 1.535927 0.010246 0.005009 -0.002964 -0.012979 -0.682290
    25 1.100771 0.004527 -0.010679 -0.016147 -0.001453 -1.484153
    26 0.120153 -0.050270 -0.054489 0.287569 3.110905 1.561085
    27 1.080835 -9.739210 -10.357068 -1.835160 -5.181833 -1.275900
    28 0.096944 -8.450418 -0.009365 -0.171244 -1.438494 0.586244
    29 0.447953 -2.798986 -0.200443 -1.615279 0.118642 0.257028
    30 -0.032909 -1.480204 0.004940 -0.886493 0.000000 0.000002
    31 -0.027022 -1.076920 -0.020210 -0.207385 0.000000 0.000000
    32 -0.249534 -2.846964 -0.174213 -1.234461 0.063357 0.171289
    33 0.043235 -1.683941 0.096012 -1.359042 0.002823 -0.000167
    34 0.031729 -1.160830 0.058838 -0.173749 0.000642 0.008372
    35 -0.963866 -2.785145 -0.085350 -0.761137 0.144443 0.176215
    36 0.028479 -1.403067 0.006271 -1.167207 0.000000 0.000000
    37 0.021413 -0.957781 0.020046 -0.471313 0.000000 0.000000
    38 1.164475 -2.543940 -0.170330 -1.658861 0.064007 0.245612
    39 0.024032 -1.129042 0.017807 -0.836353 0.000000 0.000001
    40 0.014898 -0.883989 -0.019848 -0.123944 0.000000 0.000000
    41 -0.586770 -1.264477 0.200161 -0.015408 -0.427220 -2.502491
    42 1.522835 0.058681 0.016848 0.001410 0.008985 0.423714
    43 1.117947 0.048424 -0.005766 0.000344 -0.025198 0.041834
    44 -0.139399 -0.111698 0.014397 0.846746 0.171241 1.393752
    45 -6.260806 6.983652 -0.294122 1.580804 -0.005023 -0.912799
  time 9
    0 -0.349399 1.166145 0.203512 0.000000 0.000000 0.000000
    1 9.829882 2.840887 -8.321969 -1.520440 -1.352109 1.174072
    2 -0.071918 -8.498730 -0.104137 0.222268 0.094647 -0.240134
    3 2.625392 -4.630684 0.531024 0.088531 0.124698 -1.545787
    4 3.320456 -3.555786 0.000000 0.000000 0.000000 -1.335287
    5 0.000001 -0.000001 0.000000 0.000000 0.000000 0.000000
    6 4.576822 0.301753 0.000001 0.000000 0.000000 1.570796
    7 -0.012045 -1.178453 0.000000 0.000000 0.000000 -1.570796
    8 5.678410 0.730324 0.418752 -3.141592 -1.570796 0.000000
    9 1.528143 -1.794764 0.099164 0.000000 0.000000 -1.570796
    10 1.257180 8.762585 -0.153713 -1.570562 0.002683 -1.566807
    11 -0.488518 -2.755602 -0.228260 -1.030852 -0.134082 -0.416251
    12 0.039887 -1.479790 0.029854 -2.301996 0.000000 0.000001
    13 0.028786 -1.075731 -0.023109 -0.271941 0.000000 0.000000
    14 0.250027 -2.820665 -0.238396 -0.636386 -0.105209 -0.434549
    15 -0.049759 -1.680544 0.100479 -2.367108 0.000000 -0.000002
    16 -0.034142 -1.148312 0.084782 -0.535851 0.000000 0.000000
    17 0.957766 -2.746780 -0.090302 0.329289 -0.172344 0.119866
    18 -0.033420 -1.397129 -0.011257 -1.115578 0.000000 -0.000001
    19 -0.022360 -0.957436 0.018784 -1.148776 0.000000 0.000000
    20 -1.180681 -2.507217 -0.193859 -1.049595 -0.031145 -0.514372
    21 -0.024967 -1.123934 0.017597 -1.975757 0.000000 0.000001
    22 -0.020057 -0.890968 0.010090 -0.444208 0.000000 0.000000
    23 0.583510 -1.197277 0.185379 0.371183 -0.693166 -0.903076
    24 1.535927 0.010246 0.005009 -0.002964 -0.012979 -0.682290
    25 1.100771 0.004527 -0.010679 -0.016147 -0.001453 -1.484153
    26 0.120153 -0.050270 -0.054489 0.287569 3.110905 1.561085
    27 1.147243 -9.809525 -10.380506 -1.841823 -5.182585 -1.294800
    28 0.096944 -8.450418 -0.009365 -0.269012 -1.434671 0.683030
    29 0.447953 -2.798986 -0.200443 -1.615279 0.118642 0.257028
    30 -0.032909 -1.480204 0.004940 -0.886493 0.000000 0.000002
    31 -0.027022 -1.076920 -0.020210 -0.207385 0.000000 0.000000
    32 -0.249534 -2.846964 -0.174213 -1.234461 0.063357 0.171289
    33 0.043235 -1.683941 0.096012 -1.359042 0.002823 -0.000167
    34 0.031729 -1.160830 0.058838 -0.173749 0.000642 0.008372
    35 -0.963866 -2.785145 -0.085350 -0.761137 0.144443 0.176215
    36 0.028479 -1.403067 0.006271 -1.167207 0.000000 0.000000
    37 0.021413 -0.957781 0.020046 -0.471313 0.000000 0.000000
    38 1.164475 -2.543940 -0.170330 -1.658861 0.064007 0.245612
    39 0.024032 -1.129042 0.017807 -0.836353 0.000000 0.000001
    40 0.014898 -0.883989 -0.019848 -0.123944 0.000000 0.000000
    41 -0.586770 -1.264477 0.200161 -0.015408 -0.427220 -2.502491
    42 1.522835 0.058681 0.016848 0.001410 0.008985 0.423714
    43 1.117947 0.048424 -0.005766 0.000344 -0.025198 0.041834
    44 -0.139399 -0.111698 0.014397 0.846746 0.171241 1.393752
    45 -6.260806 6.983652 -0.294122 1.580804 -0.005023 -0.912799
  time 10
    0 -0.349399 1.166145 0.203512 0.000000 0.000000 0.000000
    1 9.829882 2.704164 -8.361032 -1.529237 -1.350978 1.182599
    2 -0.071918 -8.498730 -0.104137 0.222244 0.093880 -0.240314
    3 2.625392 -4.630684 0.531024 0.088531 0.124698 -1.545787
    4 3.320456 -3.555786 0.000000 0.000000 0.000000 -1.335287
    5 0.000001 -0.000001 0.000000 0.000000 0.000000 0.000000
    6 4.576822 0.301753 0.000001 0.000000 0.000000 1.570796
    7 -0.012045 -1.178453 0.000000 0.000000 0.000000 -1.570796
    8 5.678410 0.730324 0.418752 -4.712366 -1.509699 1.570748
    9 1.528143 -1.794764 0.099164 0.000000 0.000000 -1.570796
    10 1.257180 8.762585 -0.153713 -1.570562 0.002683 -1.566807
    11 -0.488518 -2.755602 -0.228260 -1.030852 -0.134082 -0.416251
    12 0.039887 -1.479790 0.029854 -2.301996 0.000000 0.000001
    13 0.028786 -1.075731 -0.023109 -0.271941 0.000000 0.000000
    14 0.250027 -2.820665 -0.238396 -0.636386 -0.105209 -0.434549
    15 -0.049759 -1.680544 0.100479 -2.367108 0.000000 -0.000002
    16 -0.034142 -1.148312 0.084782 -0.535851 0.000000 0.000000
    17 0.957766 -2.746780 -0.090302 0.329289 -0.172344 0.119866
    18 -0.033420 -1.397129 -0.011257 -1.115578 0.000000 -0.000001
    19 -0.022360 -0.957436 0.018784 -1.148776 0.000000 0.000000
    20 -1.180681 -2.507217 -0.193859 -1.049595 -0.031145 -0.514372
    21 -0.024967 -1.123934 0.017597 -1.975757 0.000000 0.000001
    22 -0.020057 -0.890968 0.010090 -0.444208 0.000000 0.000000
    23 0.583510 -1.197277 0.185379 0.371183 -0.693166 -0.903076
    24 1.535927 0.010246 0.005009 -0.002964 -0.012979 -0.682290
    25 1.100771 0.004527 -0.010679 -0.016147 -0.001453 -1.484153
    26 0.120153 -0.050270 -0.054489 0.287569 3.110905 1.561085
    27 1.201932 -9.911090 -10.411757 -1.839778 -5.185006 -1.301291
    28 0.096944 -8.450418 -0.009365 -0.333602 -1.431733 0.746590
    29 0.447953 -2.798986 -0.200443 -1.615279 0.118642 0.257028
    30 -0.032909 -1.480204 0.004940 -0.886493 0.000000 0.000002
    31 -0.027022 -1.076920 -0.020210 -0.207385 0.000000 0.000000
    32 -0.249534 -2.846964 -0.174213 -1.234461 0.063357 0.171289
    33 0.043235 -1.683941 0.096012 -1.359042 0.002823 -0.000167
    34 0.031729 -1.160830 0.058838 -0.173749 0.000642 0.008372
    35 -0.963866 -2.785145 -0.085350 -0.761137 0.144443 0.176215
    36 0.028479 -1.403067 0.006271 -1.167207 0.000000 0.000000
    37 0.021413 -0.957781 0.020046 -0.471313 0.000000 0.000000
    38 1.164475 -2.543940 -0.170330 -1.658861 0.064007 0.245612
    39 0.024032 -1.129042 0.017807 -0.836353 0.000000 0.000001
    40 0.014898 -0.883989 -0.019848 -0.123944 0.000000 0.000000
    41 -0.586770 -1.264477 0.200161 -0.015408 -0.427220 -2.502491
    42 1.522835 0.058681 0.016848 0.001410 0.008985 0.423714
    43 1.117947 0.048424 -0.005766 0.000344 -0.025198 0.041834
    44 -0.139399 -0.111698 0.014397 0.846746 0.171241 1.393752
    45 -6.260806 6.983652 -0.294122 1.580804 -0.005023 -0.912799
  time 11
    0 -0.349399 1.166145 0.203512 0.000000 0.000000 0.000000
    1 9.829882 2.571347 -8.388377 -1.538416 -1.349779 1.191575
    2 -0.071918 -8.498730 -0.104137 0.222208 0.091195 -0.240913
    3 2.625392 -4.630684 0.531024 0.088531 0.124698 -1.545787
    4 3.320456 -3.555786 0.000000 0.000000 0.000000 -1.335287
    5 0.000001 -0.000001 0.000000 0.000000 0.000000 0.000000
    6 4.576822 0.301753 0.000001 0.000000 0.000000 1.570796
    7 -0.012045 -1.178453 0.000000 0.000000 0.000000 -1.570796
    8 5.678410 0.730324 0.418752 -4.712366 -1.373642 1.570796
    9 1.528143 -1.794764 0.099164 0.000000 0.000000 -1.570796
    10 1.257180 8.762585 -0.153713 -1.570562 0.002683 -1.566807
    11 -0.488518 -2.755602 -0.228260 -1.030852 -0.134082 -0.416251
    12 0.039887 -1.479790 0.029854 -2.301996 0.000000 0.000001
    13 0.028786 -1.075731 -0.023109 -0.271941 0.000000 0.000000
    14 0.250027 -2.820665 -0.238396 -0.636386 -0.105209 -0.434549
    15 -0.049759 -1.680544 0.100479 -2.367108 0.000000 -0.000002
    16 -0.034142 -1.148312 0.084782 -0.535851 0.000000 0.000000
    17 0.957766 -2.746780 -0.090302 0.329289 -0.172344 0.119866
    18 -0.033420 -1.397129 -0.011257 -1.115578 0.000000 -0.000001
    19 -0.022360 -0.957436 0.018784 -1.148776 0.000000 0.000000
    20 -1.180681 -2.507217 -0.193859 -1.049595 -0.031145 -0.514372
    21 -0.024967 -1.123934 0.017597 -1.975757 0.000000 0.000001
    22 -0.020057 -0.890968 0.010090 -0.444208 0.000000 0.000000
    23 0.583510 -1.197277 0.185379 0.371183 -0.693166 -0.903076
    24 1.535927 0.010246 0.005009 -0.002964 -0.012979 -0.682269
    25 1.100771 0.004527 -0.010679 -0.016147 -0.001453 -1.484153
    26 0.120153 -0.050270 -0.054489 0.287569 3.110905 1.561085
    27 1.233183 -10.032188 -10.443008 -1.832785 -5.188179 -1.298523
    28 0.096944 -8.450418 -0.009365 -0.357410 -1.430941 0.769673
    29 0.447953 -2.798986 -0.200443 -1.615279 0.118642 0.257028
    30 -0.032909 -1.480204 0.004940 -0.886493 0.000000 0.000002
    31 -0.027022 -1.076920 -0.020210 -0.207385 0.000000 0.000000
    32 -0.249534 -2.846964 -0.174213 -1.234461 0.063357 0.171289
    33 0.043235 -1.683941 0.096012 -1.359042 0.002823 -0.000167
    34 0.031729 -1.160830 0.058838 -0.173749 0.000642 0.008372
    35 -0.963866 -2.785145 -0.085350 -0.761137 0.144443 0.176215
    36 0.028479 -1.403067 0.006271 -1.167207 0.000000 0.000000
    37 0.021413 -0.957781 0.020046 -0.471313 0.000000 0.000000
    38 1.164475 -2.543940 -0.170330 -1.658861 0.064007 0.245612
    39 0.024032 -1.129042 0.017807 -0.836353 0.000000 0.000001
    40 0.014898 -0.883989 -0.019848 -0.123944 0.000000 0.000000
    41 -0.586770 -1.264477 0.200161 -0.015408 -0.427220 -2.502491
    42 1.522835 0.058681 0.016848 0.001410 0.008985 0.423714
    43 1.117947 0.048424 -0.005766 0.000344 -0.025198 0.041834
    44 -0.139399 -0.111698 0.014397 0.846746 0.171241 1.393752
    45 -6.260806 6.983652 -0.294122 1.580804 -0.005023 -0.912799
  time 12
    0 -0.349399 1.166145 0.203512 0.000000 0.000000 0.000000
    1 9.829882 2.446343 -8.407909 -1.545110 -1.348408 1.198037
    2 -0.071918 -8.498730 -0.104137 0.222136 0.087707 -0.241704
    3 2.625392 -4.630684 0.531024 0.088531 0.124698 -1.545787
    4 3.320456 -3.555786 0.000000 0.000000 0.000000 -1.335287
    5 0.000001 -0.000001 0.000000 0.000000 0.000000 0.000000
    6 4.576822 0.301753 0.000001 0.000000 0.000000 1.570796
    7 -0.012045 -1.178453 0.000000 0.000000 0.000000 -1.570796
    8 5.678410 0.730324 0.418752 -4.712366 -1.418794 1.570796
    9 1.528143 -1.794764 0.099164 0.000000 0.000000 -1.570796
    10 1.257180 8.762585 -0.153713 -1.570562 0.002683 -1.566807
    11 -0.488518 -2.755602 -0.228260 -1.030852 -0.134082 -0.416251
    12 0.039887 -1.479790 0.029854 -2.301996 0.000000 0.000001
    13 0.028786 -1.075731 -0.023109 -0.271941 0.000000 0.000000
    14 0.250027 -2.820665 -0.238396 -0.636386 -0.105209 -0.434549
    15 -0.049759 -1.680544 0.100479 -2.367108 0.000000 -0.000002
    16 -0.034142 -1.148312 0.084782 -0.535851 0.000000 0.000000
    17 0.957766 -2.746780 -0.090302 0.329289 -0.172344 0.119866
    18 -0.033420 -1.397129 -0.011257 -1.115578 0.000000 -0.000001
    19 -0.022360 -0.957436 0.018784 -1.148776 0.000000 0.000000
    20 -1.180681 -2.507217 -0.193859 -1.049595 -0.031145 -0.514372
    21 -0.024967 -1.123934 0.017597 -1.975757 0.000000 0.000001
    22 -0.020057 -0.890968 0.010090 -0.444208 0.000000 0.000000
    23 0.583510 -1.197277 0.185379 0.371183 -0.693166 -0.903076
    24 1.535927 0.010246 0.005009 -0.002964 -0.012979 -0.682290
    25 1.100771 0.004527 -0.010679 -0.016147 -0.001453 -1.484153
    26 0.120153 -0.050270 -0.054489 0.287569 3.110905 1.561085
    27 1.256621 -10.157191 -10.462540 -1.825066 -5.191518 -1.292700
    28 0.096944 -8.450418 -0.009365 -0.354785 -1.431034 0.767114
    29 0.447953 -2.798986 -0.200443 -1.615279 0.118642 0.257028
    30 -0.032909 -1.480204 0.004940 -0.886493 0.000000 0.000002
    31 -0.027022 -1.076920 -0.020210 -0.207385 0.000000 0.000000
    32 -0.249534 -2.846964 -0.174213 -1.234461 0.063357 0.171289
    33 0.043235 -1.683941 0.096012 -1.359042 0.002823 -0.000167
    34 0.031729 -1.160830 0.058838 -0.173749 0.000642 0.008372
    35 -0.963866 -2.785145 -0.085350 -0.761137 0.144443 0.176215
    36 0.028479 -1.403067 0.006271 -1.167207 0.000000 0.000000
    37 0.021413 -0.957781 0.020046 -0.471313 0.000000 0.000000
    38 1.164475 -2.543940 -0.170330 -1.658861 0.064007 0.245612
    39 0.024032 -1.129042 0.017807 -0.836353 0.000000 0.000001
    40 0.014898 -0.883989 -0.019848 -0.123944 0.000000 0.000000
    41 -0.586770 -1.264477 0.200161 -0.015408 -0.427220 -2.502491
    42 1.522835 0.058681 0.016848 0.001410 0.008985 0.423714
    43 1.117947 0.048424 -0.005766 0.000344 -0.025198 0.041834
    44 -0.139399 -0.111698 0.014397 0.846746 0.171241 1.393752
    45 -6.260806 6.983652 -0.294122 1.580804 -0.005023 -0.912799
  time 13
    0 -0.349399 1.166145 0.203512 0.000000 0.000000 0.000000
    1 9.829882 2.325246 -8.423534 -1.549317 -1.346729 1.202166
    2 -0.071918 -8.498730 -0.104137 0.222064 0.084532 -0.242435
    3 2.625392 -4.630684 0.531024 0.088531 0.124698 -1.545787
    4 3.320456 -3.555786 0.000000 0.000000 0.000000 -1.335287
    5 0.000001 -0.000001 0.000000 0.000000 0.000000 0.000000
    6 4.576822 0.301753 0.000001 0.000000 0.000000 1.570796
    7 -0.012045 -1.178453 0.000000 0.000000 0.000000 -1.570796
    8 5.678410 0.730324 0.418752 -4.712366 -1.507736 1.570748
    9 1.528143 -1.794764 0.099164 0.000000 0.000000 -1.570796
    10 1.257180 8.762585 -0.153713 -1.570562 0.002683 -1.566807
    11 -0.488518 -2.755602 -0.228260 -1.030852 -0.134082 -0.416251
    12 0.039887 -1.479790 0.029854 -2.301996 0.000000 0.000001
    13 0.028786 -1.075731 -0.023109 -0.271941 0.000000 0.000000
    14 0.250027 -2.820665 -0.238396 -0.636386 -0.105209 -0.434549
    15 -0.049759 -1.680544 0.100479 -2.367108 0.000000 -0.000002
    16 -0.034142 -1.148312 0.084782 -0.535851 0.000000 0.000000
    17 0.957766 -2.746780 -0.090302 0.329289 -0.172344 0.119866
    18 -0.033420 -1.397129 -0.011257 -1.115578 0.000000 -0.000001
    19 -0.022360 -0.957436 0.018784 -1.148776 0.000000 0.000000
    20 -1.180681 -2.507217 -0.193859 -1.049595 -0.031145 -0.514372
    21 -0.024967 -1.123934 0.017597 -1.975757 0.000000 0.000001
    22 -0.020057 -0.890968 0.010090 -0.444208 0.000000 0.000000
    23 0.583510 -1.197277 0.185379 0.371183 -0.693166 -0.903076
    24 1.535927 0.010246 0.005009 -0.002964 -0.012979 -0.682290
    25 1.100771 0.004527 -0.010679 -0.016147 -0.001453 -1.484153
    26 0.120153 -0.050270 -0.054489 0.287569 3.110905 1.561085
    27 1.268341 -10.282195 -10.474259 -1.819129 -5.194775 -1.286878
    28 0.096944 -8.450418 -0.009365 -0.341568 -1.431500 0.754316
    29 0.447953 -2.798986 -0.200443 -1.615279 0.118642 0.257028
    30 -0.032909 -1.480204 0.004940 -0.886493 0.000000 0.000002
    31 -0.027022 -1.076920 -0.020210 -0.207385 0.000000 0.000000
    32 -0.249534 -2.846964 -0.174213 -1.234461 0.063357 0.171289
    33 0.043235 -1.683941 0.096012 -1.359042 0.002823 -0.000167
    34 0.031729 -1.160830 0.058838 -0.173749 0.000642 0.008372
    35 -0.963866 -2.785145 -0.085350 -0.761137 0.144443 0.176215
    36 0.028479 -1.403067 0.006271 -1.167207 0.000000 0.000000
    37 0.021413 -0.957781 0.020046 -0.471313 0.000000 0.000000
    38 1.164475 -2.543940 -0.170330 -1.658861 0.064007 0.245612
    39 0.024032 -1.129042 0.017807 -0.836353 0.000000 0.000001
    40 0.014898 -0.883989 -0.019848 -0.123944 0.000000 0.000000
    41 -0.586770 -1.264477 0.200161 -0.015408 -0.427220 -2.502491
    42 1.522835 0.058681 0.016848 0.001410 0.008985 0.423714
    43 1.117947 0.048424 -0.005766 0.000344 -0.025198 0.041834
    44 -0.139399 -0.111698 0.014397 0.846746 0.171241 1.393752
    45 -6.260806 6.983652 -0.294122 1.580804 -0.005023 -0.912799
  time 14
    0 -0.349399 1.166145 0.203512 0.000000 0.000000 0.000000
    1 9.829882 2.192429 -8.439160 -1.553142 -1.344844 1.205846
    2 -0.071918 -8.498730 -0.104137 0.222040 0.082758 -0.242831
    3 2.625392 -4.630684 0.531024 0.088531 0.124698 -1.545787
    4 3.320456 -3.555786 0.000000 0.000000 0.000000 -1.335287
    5 0.000001 -0.000001 0.000000 0.000000 0.000000 0.000000
    6 4.576822 0.301753 0.000001 0.000000 0.000000 1.570796
    7 -0.012045 -1.178453 0.000000 0.000000 0.000000 -1.570796
    8 5.678410 0.730324 0.418752 -3.141592 -1.570796 0.000000
    9 1.528143 -1.794764 0.099164 0.000000 0.000000 -1.570796
    10 1.257180 8.762585 -0.153713 -1.570562 0.002683 -1.566807
    11 -0.488518 -2.755602 -0.228260 -1.030852 -0.134082 -0.416251
    12 0.039887 -1.479790 0.029854 -2.301996 0.000000 0.000001
    13 0.028786 -1.075731 -0.023109 -0.271941 0.000000 0.000000
    14 0.250027 -2.820665 -0.238396 -0.636386 -0.105209 -0.434549
    15 -0.049759 -1.680544 0.100479 -2.367108 0.000000 -0.000002
    16 -0.034142 -1.148312 0.084782 -0.535851 0.000000 0.000000
    17 0.957766 -2.746780 -0.090302 0.329289 -0.172344 0.119866
    18 -0.033420 -1.397129 -0.011257 -1.115578 0.000000 -0.000001
    19 -0.022360 -0.957436 0.018784 -1.148776 0.000000 0.000000
    20 -1.180681 -2.507217 -0.193859 -1.049595 -0.031145 -0.514372
    21 -0.024967 -1.123934 0.017597 -1.975757 0.000000 0.000001
    22 -0.020057 -0.890968 0.010090 -0.444208 0.000000 0.000000
    23 0.583510 -1.197277 0.185379 0.371183 -0.693166 -0.903076
    24 1.535927 0.010246 0.005009 -0.002964 -0.012979 -0.682290
    25 1.100771 0.004527 -0.010679 -0.016147 -0.001453 -1.484153
    26 0.120153 -0.050270 -0.054489 0.287569 3.110905 1.561085
    27 1.268341 -10.422825 -10.474259 -1.816358 -5.197530 -1.283060
    28 0.096944 -8.450418 -0.009365 -0.333602 -1.431733 0.746590
    29 0.447953 -2.798986 -0.200443 -1.615279 0.118642 0.257028
    30 -0.032909 -1.480204 0.004940 -0.886493 0.000000 0.000002
    31 -0.027022 -1.076920 -0.020210 -0.207385 0.000000 0.000000
    32 -0.249534 -2.846964 -0.174213 -1.234461 0.063357 0.171289
    33 0.043235 -1.683941 0.096012 -1.359042 0.002823 -0.000167
    34 0.031729 -1.160830 0.058838 -0.173749 0.000642 0.008372
    35 -0.963866 -2.785145 -0.085350 -0.761137 0.144443 0.176215
    36 0.028479 -1.403067 0.006271 -1.167207 0.000000 0.000000
    37 0.021413 -0.957781 0.020046 -0.471313 0.000000 0.000000
    38 1.164475 -2.543940 -0.170330 -1.658861 0.064007 0.245612
    39 0.024032 -1.129042 0.017807 -0.836353 0.000000 0.000001
    40 0.014898 -0.883989 -0.019848 -0.123944 0.000000 0.000000
    41 -0.586770 -1.264477 0.200161 -0.015408 -0.427220 -2.502491
    42 1.522835 0.058681 0.016848 0.001410 0.008985 0.423714
    43 1.117947 0.048424 -0.005766 0.000344 -0.025198 0.041834
    44 -0.139399 -0.111698 0.014397 0.846746 0.171241 1.393752
    45 -6.260806 6.983652 -0.294122 1.580804 -0.005023 -0.912799
  time 15
    0 -0.349399 1.166145 0.203512 0.000000 0.000000 0.000000
    1 9.829882 2.063519 -8.450879 -1.556489 -1.342925 1.209167
    2 -0.071918 -8.498730 -0.104137 0.222028 0.082230 -0.242951
    3 2.625392 -4.630684 0.531024 0.088531 0.124698 -1.545787
    4 3.320456 -3.555786 0.000000 0.000000 0.000000 -1.335287
    5 0.000001 -0.000001 0.000000 0.000000 0.000000 0.000000
    6 4.576822 0.301753 0.000001 0.000000 0.000000 1.570796
    7 -0.012045 -1.178453 0.000000 0.000000 0.000000 -1.570796
    8 5.678410 0.730324 0.418752 -4.712366 -1.546317 1.570748
    9 1.528143 -1.794764 0.099164 0.000000 0.000000 -1.570796
    10 1.257180 8.762585 -0.153713 -1.570562 0.002683 -1.566807
    11 -0.488518 -2.755602 -0.228260 -1.030852 -0.134082 -0.416251
    12 0.039887 -1.479790 0.029854 -2.301996 0.000000 0.000001
    13 0.028786 -1.075731 -0.023109 -0.271941 0.000000 0.000000
    14 0.250027 -2.820665 -0.238396 -0.636386 -0.105209 -0.434549
    15 -0.049759 -1.680544 0.100479 -2.367108 0.000000 -0.000002
    16 -0.034142 -1.148312 0.084782 -0.535851 0.000000 0.000000
    17 0.957766 -2.746780 -0.090302 0.329289 -0.172344 0.119866
    18 -0.033420 -1.397129 -0.011257 -1.115578 0.000000 -0.000001
    19 -0.022360 -0.957436 0.018784 -1.148776 0.000000 0.000000
    20 -1.180681 -2.507217 -0.193859 -1.049595 -0.031145 -0.514372
    21 -0.024967 -1.123934 0.017597 -1.975757 0.000000 0.000001
    22 -0.020057 -0.890968 0.010090 -0.444208 0.000000 0.000000
    23 0.583510 -1.197277 0.185379 0.371183 -0.693166 -0.903076
    24 1.535927 0.010246 0.005009 -0.002964 -0.012979 -0.682290
    25 1.100771 0.004527 -0.010679 -0.016147 -0.001453 -1.484153
    26 0.120153 -0.050270 -0.054489 0.287569 3.110905 1.561085
    27 1.260528 -10.563454 -10.462540 -1.816358 -5.199784 -1.281723
    28 0.096944 -8.450418 -0.009365 -0.333602 -1.431733 0.746590
    29 0.447953 -2.798986 -0.200443 -1.615279 0.118642 0.257028
    30 -0.032909 -1.480204 0.004940 -0.886493 0.000000 0.000002
    31 -0.027022 -1.076920 -0.020210 -0.207385 0.000000 0.000000
    32 -0.249534 -2.846964 -0.174213 -1.234461 0.063357 0.171289
    33 0.043235 -1.683941 0.096012 -1.359042 0.002823 -0.000167
    34 0.031729 -1.160830 0.058838 -0.173749 0.000642 0.008372
    35 -0.963866 -2.785145 -0.085350 -0.761137 0.144443 0.176215
    36 0.028479 -1.403067 0.006271 -1.167207 0.000000 0.000000
    37 0.021413 -0.957781 0.020046 -0.471313 0.000000 0.000000
    38 1.164475 -2.543940 -0.170330 -1.658861 0.064007 0.245612
    39 0.024032 -1.129042 0.017807 -0.836353 0.000000 0.000001
    40 0.014898 -0.883989 -0.019848 -0.123944 0.000000 0.000000
    41 -0.586770 -1.264477 0.200161 -0.015408 -0.427220 -2.502491
    42 1.522835 0.058681 0.016848 0.001410 0.008985 0.423714
    43 1.117947 0.048424 -0.005766 0.000344 -0.025198 0.041834
    44 -0.139399 -0.111698 0.014397 0.846746 0.171241 1.393752
    45 -6.260806 6.983652 -0.294122 1.580804 -0.005023 -0.912799
  time 16
    0 -0.349399 1.166145 0.203512 0.000000 0.000000 0.000000
    1 9.829882 1.934609 -8.462598 -1.559453 -1.340938 1.212040
    2 -0.071918 -8.498730 -0.104137 0.222016 0.081991 -0.243010
    3 2.625392 -4.630684 0.531024 0.088531 0.124698 -1.545787
    4 3.320456 -3.555786 0.000000 0.000000 0.000000 -1.335287
    5 0.000001 -0.000001 0.000000 0.000000 0.000000 0.000000
    6 4.576822 0.301753 0.000001 0.000000 0.000000 1.570796
    7 -0.012045 -1.178453 0.000000 0.000000 0.000000 -1.570796
    8 5.678410 0.730324 0.418752 -4.712366 -1.508337 1.570796
    9 1.528143 -1.794764 0.099164 0.000000 0.000000 -1.570796
    10 1.257180 8.762585 -0.153713 -1.570562 0.002683 -1.566807
    11 -0.488518 -2.755602 -0.228260 -1.030852 -0.134082 -0.416251
    12 0.039887 -1.479790 0.029854 -2.301996 0.000000 0.000001
    13 0.028786 -1.075731 -0.023109 -0.271941 0.000000 0.000000
    14 0.250027 -2.820665 -0.238396 -0.636386 -0.105209 -0.434549
    15 -0.049759 -1.680544 0.100479 -2.367108 0.000000 -0.000002
    16 -0.034142 -1.148312 0.084782 -0.535851 0.000000 0.000000
    17 0.957766 -2.746780 -0.090302 0.329289 -0.172344 0.119866
    18 -0.033420 -1.397129 -0.011257 -1.115578 0.000000 -0.000001
    19 -0.022360 -0.957436 0.018784 -1.148776 0.000000 0.000000
    20 -1.180681 -2.507217 -0.193859 -1.049595 -0.031145 -0.514372
    21 -0.024967 -1.123934 0.017597 -1.975757 0.000000 0.000001
    22 -0.020057 -0.890968 0.010090 -0.444208 0.000000 0.000000
    23 0.583510 -1.197277 0.185379 0.371183 -0.693166 -0.903076
    24 1.535927 0.010246 0.005009 -0.002964 -0.012979 -0.682290
    25 1.100771 0.004527 -0.010679 -0.016147 -0.001453 -1.484153
    26 0.120153 -0.050270 -0.054489 0.287569 3.110905 1.561085
    27 1.248809 -10.704083 -10.446915 -1.817149 -5.201872 -1.281819
    28 0.096944 -8.450418 -0.009365 -0.333602 -1.431733 0.746590
    29 0.447953 -2.798986 -0.200443 -1.615279 0.118642 0.257028
    30 -0.032909 -1.480204 0.004940 -0.886493 0.000000 0.000002
    31 -0.027022 -1.076920 -0.020210 -0.207385 0.000000 0.000000
    32 -0.249534 -2.846964 -0.174213 -1.234461 0.063357 0.171289
    33 0.043235 -1.683941 0.096012 -1.359042 0.002823 -0.000167
    34 0.031729 -1.160830 0.058838 -0.173749 0.000642 0.008372
    35 -0.963866 -2.785145 -0.085350 -0.761137 0.144443 0.176215
    36 0.028479 -1.403067 0.006271 -1.167207 0.000000 0.000000
    37 0.021413 -0.957781 0.020046 -0.471313 0.000000 0.000000
    38 1.164475 -2.543940 -0.170330 -1.658861 0.064007 0.245612
    39 0.024032 -1.129042 0.017807 -0.836353 0.000000 0.000001
    40 0.014898 -0.883989 -0.019848 -0.123944 0.000000 0.000000
    41 -0.586770 -1.264477 0.200161 -0.015408 -0.427220 -2.502491
    42 1.522835 0.058681 0.016848 0.001410 0.008985 0.423714
    43 1.117947 0.048424 -0.005766 0.000344 -0.025198 0.041834
    44 -0.139399 -0.111698 0.014397 0.846746 0.171241 1.393752
    45 -6.260806 6.983652 -0.294122 1.580804 -0.005023 -0.912799
  time 17
    0 -0.349399 1.166145 0.203512 0.000000 0.000000 0.000000
    1 9.829882 1.817418 -8.470411 -1.562035 -1.339087 1.214553
    2 -0.071918 -8.498730 -0.104137 0.222016 0.081955 -0.243010
    3 2.625392 -4.630684 0.531024 0.088531 0.124698 -1.545787
    4 3.320456 -3.555786 0.000000 0.000000 0.000000 -1.335287
    5 0.000001 -0.000001 0.000000 0.000000 0.000000 0.000000
    6 4.576822 0.301753 0.000001 0.000000 0.000000 1.570796
    7 -0.012045 -1.178453 0.000000 0.000000 0.000000 -1.570796
    8 5.678410 0.730324 0.418752 -4.712366 -1.519915 1.570796
    9 1.528143 -1.794764 0.099164 0.000000 0.000000 -1.570796
    10 1.257180 8.762585 -0.153713 -1.570562 0.002683 -1.566807
    11 -0.488518 -2.755602 -0.228260 -1.030852 -0.134082 -0.416251
    12 0.039887 -1.479790 0.029854 -2.301996 0.000000 0.000001
    13 0.028786 -1.075731 -0.023109 -0.271941 0.000000 0.000000
    14 0.250027 -2.820665 -0.238396 -0.636386 -0.105209 -0.434549
    15 -0.049759 -1.680544 0.100479 -2.367108 0.000000 -0.000002
    16 -0.034142 -1.148312 0.084782 -0.535851 0.000000 0.000000
    17 0.957766 -2.746780 -0.090302 0.329289 -0.172344 0.119866
    18 -0.033420 -1.397129 -0.011257 -1.115578 0.000000 -0.000001
    19 -0.022360 -0.957436 0.018784 -1.148776 0.000000 0.000000
    20 -1.180681 -2.507217 -0.193859 -1.049595 -0.031145 -0.514372
    21 -0.024967 -1.123934 0.017597 -1.975757 0.000000 0.000001
    22 -0.020057 -0.890968 0.010090 -0.444208 0.000000 0.000000
    23 0.583510 -1.197277 0.185379 0.371183 -0.693166 -0.903076
    24 1.535927 0.010246 0.005009 -0.002964 -0.012979 -0.682290
    25 1.100771 0.004527 -0.010679 -0.016147 -0.001453 -1.484153
    26 0.120153 -0.050270 -0.054489 0.287569 3.110905 1.561085
    27 1.248809 -10.829087 -10.431289 -1.818469 -5.203709 -1.282964
    28 0.096944 -8.450418 -0.009365 -0.333602 -1.431733 0.746590
    29 0.447953 -2.798986 -0.200443 -1.615279 0.118642 0.257028
    30 -0.032909 -1.480204 0.004940 -0.886493 0.000000 0.000002
    31 -0.027022 -1.076920 -0.020210 -0.207385 0.000000 0.000000
    32 -0.249534 -2.846964 -0.174213 -1.234461 0.063357 0.171289
    33 0.043235 -1.683941 0.096012 -1.359042 0.002823 -0.000167
    34 0.031729 -1.160830 0.058838 -0.173749 0.000642 0.008372
    35 -0.963866 -2.785145 -0.085350 -0.761137 0.144443 0.176215
    36 0.028479 -1.403067 0.006271 -1.167207 0.000000 0.000000
    37 0.021413 -0.957781 0.020046 -0.471313 0.000000 0.000000
    38 1.164475 -2.543940 -0.170330 -1.658861 0.064007 0.245612
    39 0.024032 -1.129042 0.017807 -0.836353 0.000000 0.000001
    40 0.014898 -0.883989 -0.019848 -0.123944 0.000000 0.000000
    41 -0.586770 -1.264477 0.200161 -0.015408 -0.427220 -2.502491
    42 1.522835 0.058681 0.016848 0.001410 0.008985 0.423714
    43 1.117947 0.048424 -0.005766 0.000344 -0.025198 0.041834
    44 -0.139399 -0.111698 0.014397 0.846746 0.171241 1.393752
    45 -6.260806 6.983652 -0.294122 1.580804 -0.005023 -0.912799
  time 18
    0 -0.349399 1.166145 0.203512 0.000000 0.000000 0.000000
    1 9.829882 1.711946 -8.478224 -1.564330 -1.337340 1.216707
    2 -0.071918 -8.498730 -0.104137 0.222028 0.082075 -0.242986
    3 2.625392 -4.630684 0.531024 0.088531 0.124698 -1.545787
    4 3.320456 -3.555786 0.000000 0.000000 0.000000 -1.335287
    5 0.000001 -0.000001 0.000000 0.000000 0.000000 0.000000
    6 4.576822 0.301753 0.000001 0.000000 0.000000 1.570796
    7 -0.012045 -1.178453 0.000000 0.000000 0.000000 -1.570796
    8 5.678410 0.730324 0.418752 -4.712366 -1.545356 1.570748
    9 1.528143 -1.794764 0.099164 0.000000 0.000000 -1.570796
    10 1.257180 8.762585 -0.153713 -1.570562 0.002683 -1.566807
    11 -0.488518 -2.755602 -0.228260 -1.030852 -0.134082 -0.416251
    12 0.039887 -1.479790 0.029854 -2.301996 0.000000 0.000001
    13 0.028786 -1.075731 -0.023109 -0.271941 0.000000 0.000000
    14 0.250027 -2.820665 -0.238396 -0.636386 -0.105209 -0.434549
    15 -0.049759 -1.680544 0.100479 -2.367108 0.000000 -0.000002
    16 -0.034142 -1.148312 0.084782 -0.535851 0.000000 0.000000
    17 0.957766 -2.746780 -0.090302 0.329289 -0.172344 0.119866
    18 -0.033420 -1.397129 -0.011257 -1.115578 0.000000 -0.000001
    19 -0.022360 -0.957436 0.018784 -1.148776 0.000000 0.000000
    20 -1.180681 -2.507217 -0.193859 -1.049595 -0.031145 -0.514372
    21 -0.024967 -1.123934 0.017597 -1.975757 0.000000 0.000001
    22 -0.020057 -0.890968 0.010090 -0.444208 0.000000 0.000000
    23 0.583510 -1.197277 0.185379 0.371183 -0.693166 -0.903076
    24 1.535927 0.010246 0.005009 -0.002964 -0.012979 -0.682290
    25 1.100771 0.004527 -0.010679 -0.016147 -0.001453 -1.484153
    26 0.120153 -0.050270 -0.054489 0.287569 3.110905 1.561085
    27 1.248809 -10.938465 -10.415664 -1.820052 -5.205378 -1.284300
    28 0.096944 -8.450418 -0.009365 -0.333602 -1.431733 0.746590
    29 0.447953 -2.798986 -0.200443 -1.615279 0.118642 0.257028
    30 -0.032909 -1.480204 0.004940 -0.886493 0.000000 0.000002
    31 -0.027022 -1.076920 -0.020210 -0.207385 0.000000 0.000000
    32 -0.249534 -2.846964 -0.174213 -1.234461 0.063357 0.171289
    33 0.043235 -1.683941 0.096012 -1.359042 0.002823 -0.000167
    34 0.031729 -1.160830 0.058838 -0.173749 0.000642 0.008372
    35 -0.963866 -2.785145 -0.085350 -0.761137 0.144443 0.176215
    36 0.028479 -1.403067 0.006271 -1.167207 0.000000 0.000000
    37 0.021413 -0.957781 0.020046 -0.471313 0.000000 0.000000
    38 1.164475 -2.543940 -0.170330 -1.658861 0.064007 0.245612
    39 0.024032 -1.129042 0.017807 -0.836353 0.000000 0.000001
    40 0.014898 -0.883989 -0.019848 -0.123944 0.000000 0.000000
    41 -0.586770 -1.264477 0.200161 -0.015408 -0.427220 -2.502491
    42 1.522835 0.058681 0.016848 0.001410 0.008985 0.423714
    43 1.117947 0.048424 -0.005766 0.000344 -0.025198 0.041834
    44 -0.139399 -0.111698 0.014397 0.846746 0.171241 1.393752
    45 -6.260806 6.983652 -0.294122 1.580804 -0.005023 -0.912799
  time 19
    0 -0.349399 1.166145 0.203512 0.000000 0.000000 0.000000
    1 9.829882 1.626006 -8.482130 -1.566242 -1.335866 1.218592
    2 -0.071918 -8.498730 -0.104137 0.222028 0.082278 -0.242939
    3 2.625392 -4.630684 0.531024 0.088531 0.124698 -1.545787
    4 3.320456 -3.555786 0.000000 0.000000 0.000000 -1.335287
    5 0.000001 -0.000001 0.000000 0.000000 0.000000 0.000000
    6 4.576822 0.301753 0.000001 0.000000 0.000000 1.570796
    7 -0.012045 -1.178453 0.000000 0.000000 0.000000 -1.570796
    8 5.678410 0.730324 0.418752 -3.141592 -1.570796 0.000000
    9 1.528143 -1.794764 0.099164 0.000000 0.000000 -1.570796
    10 1.257180 8.762585 -0.153713 -1.570562 0.002683 -1.566807
    11 -0.488518 -2.755602 -0.228260 -1.030852 -0.134082 -0.416251
    12 0.039887 -1.479790 0.029854 -2.301996 0.000000 0.000001
    13 0.028786 -1.075731 -0.023109 -0.271941 0.000000 0.000000
    14 0.250027 -2.820665 -0.238396 -0.636386 -0.105209 -0.434549
    15 -0.049759 -1.680544 0.100479 -2.367108 0.000000 -0.000002
    16 -0.034142 -1.148312 0.084782 -0.535851 0.000000 0.000000
    17 0.957766 -2.746780 -0.090302 0.329289 -0.172344 0.119866
    18 -0.033420 -1.397129 -0.011257 -1.115578 0.000000 -0.000001
    19 -0.022360 -0.957436 0.018784 -1.148776 0.000000 0.000000
    20 -1.180681 -2.507217 -0.193859 -1.049595 -0.031145 -0.514372
    21 -0.024967 -1.123934 0.017597 -1.975757 0.000000 0.000001
    22 -0.020057 -0.890968 0.010090 -0.444208 0.000000 0.000000
    23 0.583510 -1.197277 0.185379 0.371183 -0.693166 -0.903076
    24 1.535927 0.010246 0.005009 -0.002964 -0.012979 -0.682290
    25 1.100771 0.004527 -0.010679 -0.016147 -0.001453 -1.484153
    26 0.120153 -0.050270 -0.054489 0.287569 3.110905 1.561085
    27 1.248809 -11.024405 -10.400038 -1.821570 -5.206714 -1.285637
    28 0.096944 -8.450418 -0.009365 -0.333602 -1.431733 0.746590
    29 0.447953 -2.798986 -0.200443 -1.615279 0.118642 0.257028
    30 -0.032909 -1.480204 0.004940 -0.886493 0.000000 0.000002
    31 -0.027022 -1.076920 -0.020210 -0.207385 0.000000 0.000000
    32 -0.249534 -2.846964 -0.174213 -1.234461 0.063357 0.171289
    33 0.043235 -1.683941 0.096012 -1.359042 0.002823 -0.000167
    34 0.031729 -1.160830 0.058838 -0.173749 0.000642 0.008372
    35 -0.963866 -2.785145 -0.085350 -0.761137 0.144443 0.176215
    36 0.028479 -1.403067 0.006271 -1.167207 0.000000 0.000000
    37 0.021413 -0.957781 0.020046 -0.471313 0.000000 0.000000
    38 1.164475 -2.543940 -0.170330 -1.658861 0.064007 0.245612
    39 0.024032 -1.129042 0.017807 -0.836353 0.000000 0.000001
    40 0.014898 -0.883989 -0.019848 -0.123944 0.000000 0.000000
    41 -0.586770 -1.264477 0.200161 -0.015408 -0.427220 -2.502491
    42 1.522835 0.058681 0.016848 0.001410 0.008985 0.423714
    43 1.117947 0.048424 -0.005766 0.000344 -0.025198 0.041834
    44 -0.139399 -0.111698 0.014397 0.846746 0.171241 1.393752
    45 -6.260806 6.983652 -0.294122 1.580804 -0.005023 -0.912799
  time 20
    0 -0.349399 1.166145 0.203512 0.000000 0.000000 0.000000
    1 9.829882 1.563504 -8.486036 -1.567868 -1.334701 1.220207
    2 -0.071918 -8.498730 -0.104137 0.222028 0.082506 -0.242891
    3 2.625392 -4.630684 0.531024 0.088531 0.124698 -1.545787
    4 3.320456 -3.555786 0.000000 0.000000 0.000000 -1.335287
    5 0.000001 -0.000001 0.000000 0.000000 0.000000 0.000000
    6 4.576822 0.301753 0.000001 0.000000 0.000000 1.570796
    7 -0.012045 -1.178453 0.000000 0.000000 0.000000 -1.570796
    8 5.678410 0.730324 0.418752 -3.141592 -1.570796 0.000000
    9 1.528143 -1.794764 0.099164 0.000000 0.000000 -1.570796
    10 1.257180 8.762585 -0.153713 -1.570562 0.002683 -1.566807
    11 -0.488518 -2.755602 -0.228260 -1.030852 -0.134082 -0.416251
    12 0.039887 -1.479790 0.029854 -2.301996 0.000000 0.000001
    13 0.028786 -1.075731 -0.023109 -0.271941 0.000000 0.000000
    14 0.250027 -2.820665 -0.238396 -0.636386 -0.105209 -0.434549
    15 -0.049759 -1.680544 0.100479 -2.367108 0.000000 -0.000002
    16 -0.034142 -1.148312 0.084782 -0.535851 0.000000 0.000000
    17 0.957766 -2.746780 -0.090302 0.329289 -0.172344 0.119866
    18 -0.033420 -1.397129 -0.011257 -1.115578 0.000000 -0.000001
    19 -0.022360 -0.957436 0.018784 -1.148776 0.000000 0.000000
    20 -1.180681 -2.507217 -0.193859 -1.049595 -0.031145 -0.514372
    21 -0.024967 -1.123934 0.017597 -1.975757 0.000000 0.000001
    22 -0.020057 -0.890968 0.010090 -0.444208 0.000000 0.000000
    23 0.583510 -1.197277 0.185379 0.371183 -0.693166 -0.903076
    24 1.535927 0.010246 0.005009 -0.002964 -0.012979 -0.682290
    25 1.100771 0.004527 -0.010679 -0.016147 -0.001453 -1.484153
    26 0.120153 -0.050270 -0.054489 0.287569 3.110905 1.561085
    27 1.248809 -11.090814 -10.388319 -1.822757 -5.207800 -1.286687
    28 0.096944 -8.450418 -0.009365 -0.333602 -1.431733 0.746590
    29 0.447953 -2.798986 -0.200443 -1.615279 0.118642 0.257028
    30 -0.032909 -1.480204 0.004940 -0.886493 0.000000 0.000002
    31 -0.027022 -1.076920 -0.020210 -0.207385 0.000000 0.000000
    32 -0.249534 -2.846964 -0.174213 -1.234461 0.063357 0.171289
    33 0.043235 -1.683941 0.096012 -1.359042 0.002823 -0.000167
    34 0.031729 -1.160830 0.058838 -0.173749 0.000642 0.008372
    35 -0.963866 -2.785145 -0.085350 -0.761137 0.144443 0.176215
    36 0.028479 -1.403067 0.006271 -1.167207 0.000000 0.000000
    37 0.021413 -0.957781 0.020046 -0.471313 0.000000 0.000000
    38 1.164475 -2.543940 -0.170330 -1.658861 0.064007 0.245612
    39 0.024032 -1.129042 0.017807 -0.836353 0.000000 0.000001
    40 0.014898 -0.883989 -0.019848 -0.123944 0.000000 0.000000
    41 -0.586770 -1.264477 0.200161 -0.015408 -0.427220 -2.502491
    42 1.522835 0.058681 0.016848 0.001410 0.008985 0.423714
    43 1.117947 0.048424 -0.005766 0.000344 -0.025198 0.041834
    44 -0.139399 -0.111698 0.014397 0.846746 0.171241 1.393752
    45 -6.260806 6.983652 -0.294122 1.580804 -0.005023 -0.912799
  time 21
    0 -0.349399 1.166145 0.203512 0.000000 0.000000 0.000000
    1 9.829882 1.524440 -8.486036 -1.569207 -1.333878 1.221464
    2 -0.071918 -8.498730 -0.104137 0.222040 0.082686 -0.242855
    3 2.625392 -4.630684 0.531024 0.088531 0.124698 -1.545787
    4 3.320456 -3.555786 0.000000 0.000000 0.000000 -1.335287
    5 0.000001 -0.000001 0.000000 0.000000 0.000000 0.000000
    6 4.576822 0.301753 0.000001 0.000000 0.000000 1.570796
    7 -0.012045 -1.178453 0.000000 0.000000 0.000000 -1.570796
    8 5.678410 0.730324 0.418752 -3.141592 -1.570796 0.000000
    9 1.528143 -1.794764 0.099164 0.000000 0.000000 -1.570796
    10 1.257180 8.762585 -0.153713 -1.570562 0.002683 -1.566807
    11 -0.488518 -2.755602 -0.228260 -1.030852 -0.134082 -0.416251
    12 0.039887 -1.479790 0.029854 -2.301996 0.000000 0.000001
    13 0.028786 -1.075731 -0.023109 -0.271941 0.000000 0.000000
    14 0.250027 -2.820665 -0.238396 -0.636386 -0.105209 -0.434549
    15 -0.049759 -1.680544 0.100479 -2.367108 0.000000 -0.000002
    16 -0.034142 -1.148312 0.084782 -0.535851 0.000000 0.000000
    17 0.957766 -2.746780 -0.090302 0.329289 -0.172344 0.119866
    18 -0.033420 -1.397129 -0.011257 -1.115578 0.000000 -0.000001
    19 -0.022360 -0.957436 0.018784 -1.148776 0.000000 0.000000
    20 -1.180681 -2.507217 -0.193859 -1.049595 -0.031145 -0.514372
    21 -0.024967 -1.123934 0.017597 -1.975757 0.000000 0.000001
    22 -0.020057 -0.890968 0.010090 -0.444208 0.000000 0.000000
    23 0.583510 -1.197277 0.185379 0.371183 -0.693166 -0.903076
    24 1.535927 0.010246 0.005009 -0.002964 -0.012979 -0.682290
    25 1.100771 0.004527 -0.010679 -0.016147 -0.001453 -1.484153
    26 0.120153 -0.050270 -0.054489 0.287569 3.110905 1.561085
    27 1.248809 -11.133784 -10.380506 -1.823681 -5.208551 -1.287546
    28 0.096944 -8.450418 -0.009365 -0.333602 -1.431733 0.746590
    29 0.447953 -2.798986 -0.200443 -1.615279 0.118642 0.257028
    30 -0.032909 -1.480204 0.004940 -0.886493 0.000000 0.000002
    31 -0.027022 -1.076920 -0.020210 -0.207385 0.000000 0.000000
    32 -0.249534 -2.846964 -0.174213 -1.234461 0.063357 0.171289
    33 0.043235 -1.683941 0.096012 -1.359042 0.002823 -0.000167
    34 0.031729 -1.160830 0.058838 -0.173749 0.000642 0.008372
    35 -0.963866 -2.785145 -0.085350 -0.761137 0.144443 0.176215
    36 0.028479 -1.403067 0.006271 -1.167207 0.000000 0.000000
    37 0.021413 -0.957781 0.020046 -0.471313 0.000000 0.000000
    38 1.164475 -2.543940 -0.170330 -1.658861 0.064007 0.245612
    39 0.024032 -1.129042 0.017807 -0.836353 0.000000 0.000001
    40 0.014898 -0.883989 -0.019848 -0.123944 0.000000 0.000000
    41 -0.586770 -1.264477 0.200161 -0.015408 -0.427220 -2.502491
    42 1.522835 0.058681 0.016848 0.001410 0.008985 0.423714
    43 1.117947 0.048424 -0.005766 0.000344 -0.025198 0.041834
    44 -0.139399 -0.111698 0.014397 0.846746 0.171241 1.393752
    45 -6.260806 6.983652 -0.294122 1.580804 -0.005023 -0.912799
  time 22
    0 -0.349399 1.166145 0.203512 0.000000 0.000000 0.000000
    1 9.829882 1.493189 -8.489943 -1.570258 -1.333227 1.222451
    2 -0.071918 -8.498730 -0.104137 0.222040 0.082758 -0.242831
    3 2.625392 -4.630684 0.531024 0.088531 0.124698 -1.545787
    4 3.320456 -3.555786 0.000000 0.000000 0.000000 -1.335287
    5 0.000001 -0.000001 0.000000 0.000000 0.000000 0.000000
    6 4.576822 0.301753 0.000001 0.000000 0.000000 1.570796
    7 -0.012045 -1.178453 0.000000 0.000000 0.000000 -1.570796
    8 5.678410 0.730324 0.418752 -3.141592 -1.570796 0.000000
    9 1.528143 -1.794764 0.099164 0.000000 0.000000 -1.570796
    10 1.257180 8.762585 -0.153713 -1.570562 0.002683 -1.566807
    11 -0.488518 -2.755602 -0.228260 -1.030852 -0.134082 -0.416251
    12 0.039887 -1.479790 0.029854 -2.301996 0.000000 0.000001
    13 0.028786 -1.075731 -0.023109 -0.271941 0.000000 0.000000
    14 0.250027 -2.820665 -0.238396 -0.636386 -0.105209 -0.434549
    15 -0.049759 -1.680544 0.100479 -2.367108 0.000000 -0.000002
    16 -0.034142 -1.148312 0.084782 -0.535851 0.000000 0.000000
    17 0.957766 -2.746780 -0.090302 0.329289 -0.172344 0.119866
    18 -0.033420 -1.397129 -0.011257 -1.115578 0.000000 -0.000001
    19 -0.022360 -0.957436 0.018784 -1.148776 0.000000 0.000000
    20 -1.180681 -2.507217 -0.193859 -1.049595 -0.031145 -0.514372
    21 -0.024967 -1.123934 0.017597 -1.975757 0.000000 0.000001
    22 -0.020057 -0.890968 0.010090 -0.444208 0.000000 0.000000
    23 0.583510 -1.197277 0.185379 0.371183 -0.693166 -0.903076
    24 1.535927 0.010246 0.005009 -0.002964 -0.012979 -0.682290
    25 1.100771 0.004527 -0.010679 -0.016147 -0.001453 -1.484153
    26 0.120153 -0.050270 -0.054489 0.287569 3.110905 1.561085
    27 1.248809 -11.165035 -10.372694 -1.824208 -5.209219 -1.288023
    28 0.096944 -8.450418 -0.009365 -0.333602 -1.431733 0.746590
    29 0.447953 -2.798986 -0.200443 -1.615279 0.118642 0.257028
    30 -0.032909 -1.480204 0.004940 -0.886493 0.000000 0.000002
    31 -0.027022 -1.076920 -0.020210 -0.207385 0.000000 0.000000
    32 -0.249534 -2.846964 -0.174213 -1.234461 0.063357 0.171289
    33 0.043235 -1.683941 0.096012 -1.359042 0.002823 -0.000167
    34 0.031729 -1.160830 0.058838 -0.173749 0.000642 0.008372
    35 -0.963866 -2.785145 -0.085350 -0.761137 0.144443 0.176215
    36 0.028479 -1.403067 0.006271 -1.167207 0.000000 0.000000
    37 0.021413 -0.957781 0.020046 -0.471313 0.000000 0.000000
    38 1.164475 -2.543940 -0.170330 -1.658861 0.064007 0.245612
    39 0.024032 -1.129042 0.017807 -0.836353 0.000000 0.000001
    40 0.014898 -0.883989 -0.019848 -0.123944 0.000000 0.000000
    41 -0.586770 -1.264477 0.200161 -0.015408 -0.427220 -2.502491
    42 1.522835 0.058681 0.016848 0.001410 0.008985 0.423714
    43 1.117947 0.048424 -0.005766 0.000344 -0.025198 0.041834
    44 -0.139399 -0.111698 0.014397 0.846746 0.171241 1.393752
    45 -6.260806 6.983652 -0.294122 1.580804 -0.005023 -0.912799
  time 23
    0 -0.349399 1.166145 0.203512 0.000000 0.000000 0.000000
    1 9.829882 1.477564 -8.493849 -1.570928 -1.332748 1.223169
    2 -0.071918 -8.498730 -0.104137 0.222040 0.082758 -0.242831
    3 2.625392 -4.630684 0.531024 0.088531 0.124698 -1.545787
    4 3.320456 -3.555786 0.000000 0.000000 0.000000 -1.335287
    5 0.000001 -0.000001 0.000000 0.000000 0.000000 0.000000
    6 4.576822 0.301753 0.000001 0.000000 0.000000 1.570796
    7 -0.012045 -1.178453 0.000000 0.000000 0.000000 -1.570796
    8 5.678410 0.730324 0.418752 -3.141592 -1.570796 0.000000
    9 1.528143 -1.794764 0.099164 0.000000 0.000000 -1.570796
    10 1.257180 8.762585 -0.153713 -1.570562 0.002683 -1.566807
    11 -0.488518 -2.755602 -0.228260 -1.030852 -0.134082 -0.416251
    12 0.039887 -1.479790 0.029854 -2.301996 0.000000 0.000001
    13 0.028786 -1.075731 -0.023109 -0.271941 0.000000 0.000000
    14 0.250027 -2.820665 -0.238396 -0.636386 -0.105209 -0.434549
    15 -0.049759 -1.680544 0.100479 -2.367108 0.000000 -0.000002
    16 -0.034142 -1.148312 0.084782 -0.535851 0.000000 0.000000
    17 0.957766 -2.746780 -0.090302 0.329289 -0.172344 0.119866
    18 -0.033420 -1.397129 -0.011257 -1.115578 0.000000 -0.000001
    19 -0.022360 -0.957436 0.018784 -1.148776 0.000000 0.000000
    20 -1.180681 -2.507217 -0.193859 -1.049595 -0.031145 -0.514372
    21 -0.024967 -1.123934 0.017597 -1.975757 0.000000 0.000001
    22 -0.020057 -0.890968 0.010090 -0.444208 0.000000 0.000000
    23 0.583510 -1.197277 0.185379 0.371183 -0.693166 -0.903076
    24 1.535927 0.010246 0.005009 -0.002964 -0.012979 -0.682290
    25 1.100771 0.004527 -0.010679 -0.016147 -0.001453 -1.484153
    26 0.120153 -0.050270 -0.054489 0.287569 3.110905 1.561085
    27 1.248809 -11.184566 -10.368787 -1.824538 -5.209720 -1.288214
    28 0.096944 -8.450418 -0.009365 -0.333602 -1.431733 0.746590
    29 0.447953 -2.798986 -0.200443 -1.615279 0.118642 0.257028
    30 -0.032909 -1.480204 0.004940 -0.886493 0.000000 0.000002
    31 -0.027022 -1.076920 -0.020210 -0.207385 0.000000 0.000000
    32 -0.249534 -2.846964 -0.174213 -1.234461 0.063357 0.171289
    33 0.043235 -1.683941 0.096012 -1.359042 0.002823 -0.000167
    34 0.031729 -1.160830 0.058838 -0.173749 0.000642 0.008372
    35 -0.963866 -2.785145 -0.085350 -0.761137 0.144443 0.176215
    36 0.028479 -1.403067 0.006271 -1.167207 0.000000 0.000000
    37 0.021413 -0.957781 0.020046 -0.471313 0.000000 0.000000
    38 1.164475 -2.543940 -0.170330 -1.658861 0.064007 0.245612
    39 0.024032 -1.129042 0.017807 -0.836353 0.000000 0.000001
    40 0.014898 -0.883989 -0.019848 -0.123944 0.000000 0.000000
    41 -0.586770 -1.264477 0.200161 -0.015408 -0.427220 -2.502491
    42 1.522835 0.058681 0.016848 0.001410 0.008985 0.423714
    43 1.117947 0.048424 -0.005766 0.000344 -0.025198 0.041834
    44 -0.139399 -0.111698 0.014397 0.846746 0.171241 1.393752
    45 -6.260806 6.983652 -0.294122 1.580804 -0.005023 -0.912799
  time 24
    0 -0.349399 1.166145 0.203512 0.000000 0.000000 0.000000
    1 9.829882 1.469751 -8.493849 -1.571406 -1.332405 1.223618
    2 -0.071918 -8.498730 -0.104137 0.222040 0.082758 -0.242831
    3 2.625392 -4.630684 0.531024 0.088531 0.124698 -1.545787
    4 3.320456 -3.555786 0.000000 0.000000 0.000000 -1.335287
    5 0.000001 -0.000001 0.000000 0.000000 0.000000 0.000000
    6 4.576822 0.301753 0.000001 0.000000 0.000000 1.570796
    7 -0.012045 -1.178453 0.000000 0.000000 0.000000 -1.570796
    8 5.678410 0.730324 0.418752 -3.141592 -1.570796 0.000000
    9 1.528143 -1.794764 0.099164 0.000000 0.000000 -1.570796
    10 1.257180 8.762585 -0.153713 -1.570562 0.002683 -1.566807
    11 -0.488518 -2.755602 -0.228260 -1.030852 -0.134082 -0.416251
    12 0.039887 -1.479790 0.029854 -2.301996 0.000000 0.000001
    13 0.028786 -1.075731 -0.023109 -0.271941 0.000000 0.000000
    14 0.250027 -2.820665 -0.238396 -0.636386 -0.105209 -0.434549
    15 -0.049759 -1.680544 0.100479 -2.367108 0.000000 -0.000002
    16 -0.034142 -1.148312 0.084782 -0.535851 0.000000 0.000000
    17 0.957766 -2.746780 -0.090302 0.329289 -0.172344 0.119866
    18 -0.033420 -1.397129 -0.011257 -1.115578 0.000000 -0.000001
    19 -0.022360 -0.957436 0.018784 -1.148776 0.000000 0.000000
    20 -1.180681 -2.507217 -0.193859 -1.049595 -0.031145 -0.514372
    21 -0.024967 -1.123934 0.017597 -1.975757 0.000000 0.000001
    22 -0.020057 -0.890968 0.010090 -0.444208 0.000000 0.000000
    23 0.583510 -1.197277 0.185379 0.371183 -0.693166 -0.903076
    24 1.535927 0.010246 0.005009 -0.002964 -0.012979 -0.682290
    25 1.100771 0.004527 -0.010679 -0.016147 -0.001453 -1.484153
    26 0.120153 -0.050270 -0.054489 0.287569 3.110905 1.561085
    27 1.248809 -11.188473 -10.364881 -1.824736 -5.210054 -1.288405
    28 0.096944 -8.450418 -0.009365 -0.333602 -1.431733 0.746590
    29 0.447953 -2.798986 -0.200443 -1.615279 0.118642 0.257028
    30 -0.032909 -1.480204 0.004940 -0.886493 0.000000 0.000002
    31 -0.027022 -1.076920 -0.020210 -0.207385 0.000000 0.000000
    32 -0.249534 -2.846964 -0.174213 -1.234461 0.063357 0.171289
    33 0.043235 -1.683941 0.096012 -1.359042 0.002823 -0.000167
    34 0.031729 -1.160830 0.058838 -0.173749 0.000642 0.008372
    35 -0.963866 -2.785145 -0.085350 -0.761137 0.144443 0.176215
    36 0.028479 -1.403067 0.006271 -1.167207 0.000000 0.000000
    37 0.021413 -0.957781 0.020046 -0.471313 0.000000 0.000000
    38 1.164475 -2.543940 -0.170330 -1.658861 0.064007 0.245612
    39 0.024032 -1.129042 0.017807 -0.836353 0.000000 0.000001
    40 0.014898 -0.883989 -0.019848 -0.123944 0.000000 0.000000
    41 -0.586770 -1.264477 0.200161 -0.015408 -0.427220 -2.502491
    42 1.522835 0.058681 0.016848 0.001410 0.008985 0.423714
    43 1.117947 0.048424 -0.005766 0.000344 -0.025198 0.041834
    44 -0.139399 -0.111698 0.014397 0.846746 0.171241 1.393752
    45 -6.260806 6.983652 -0.294122 1.580804 -0.005023 -0.912799
  time 25
    0 -0.349399 1.166145 0.203512 0.000000 0.000000 0.000000
    1 9.829882 1.473657 -8.493849 -1.571788 -1.332131 1.223977
    2 -0.071918 -8.498730 -0.104137 0.222040 0.082758 -0.242831
    3 2.625392 -4.630684 0.531024 0.088531 0.124698 -1.545787
    4 3.320456 -3.555786 0.000000 0.000000 0.000000 -1.335287
    5 0.000001 -0.000001 0.000000 0.000000 0.000000 0.000000
    6 4.576822 0.301753 0.000001 0.000000 0.000000 1.570796
    7 -0.012045 -1.178453 0.000000 0.000000 0.000000 -1.570796
    8 5.678410 0.730324 0.418752 -3.141592 -1.570796 0.000000
    9 1.528143 -1.794764 0.099164 0.000000 0.000000 -1.570796
    10 1.257180 8.762585 -0.153713 -1.570562 0.002683 -1.566807
    11 -0.488518 -2.755602 -0.228260 -1.030852 -0.134082 -0.416251
    12 0.039887 -1.479790 0.029854 -2.301996 0.000000 0.000001
    13 0.028786 -1.075731 -0.023109 -0.271941 0.000000 0.000000
    14 0.250027 -2.820665 -0.238396 -0.636386 -0.105209 -0.434549
    15 -0.049759 -1.680544 0.100479 -2.367108 0.000000 -0.000002
    16 -0.034142 -1.148312 0.084782 -0.535851 0.000000 0.000000
    17 0.957766 -2.746780 -0.090302 0.329289 -0.172344 0.119866
    18 -0.033420 -1.397129 -0.011257 -1.115578 0.000000 -0.000001
    19 -0.022360 -0.957436 0.018784 -1.148776 0.000000 0.000000
    20 -1.180681 -2.507217 -0.193859 -1.049595 -0.031145 -0.514372
    21 -0.024967 -1.123934 0.017597 -1.975757 0.000000 0.000001
    22 -0.020057 -0.890968 0.010090 -0.444208 0.000000 0.000000
    23 0.583510 -1.197277 0.185379 0.371183 -0.693166 -0.903076
    24 1.535927 0.010246 0.005009 -0.002964 -0.012979 -0.682290
    25 1.100771 0.004527 -0.010679 -0.016147 -0.001453 -1.484153
    26 0.120153 -0.050270 -0.054489 0.287569 3.110905 1.561085
    27 1.248809 -11.188473 -10.360974 -1.824868 -5.210305 -1.288596
    28 0.096944 -8.450418 -0.009365 -0.333602 -1.431733 0.746590
    29 0.447953 -2.798986 -0.200443 -1.615279 0.118642 0.257028
    30 -0.032909 -1.480204 0.004940 -0.886493 0.000000 0.000002
    31 -0.027022 -1.076920 -0.020210 -0.207385 0.000000 0.000000
    32 -0.249534 -2.846964 -0.174213 -1.234461 0.063357 0.171289
    33 0.043235 -1.683941 0.096012 -1.359042 0.002823 -0.000167
    34 0.031729 -1.160830 0.058838 -0.173749 0.000642 0.008372
    35 -0.963866 -2.785145 -0.085350 -0.761137 0.144443 0.176215
    36 0.028479 -1.403067 0.006271 -1.167207 0.000000 0.000000
    37 0.021413 -0.957781 0.020046 -0.471313 0.000000 0.000000
    38 1.164475 -2.543940 -0.170330 -1.658861 0.064007 0.245612
    39 0.024032 -1.129042 0.017807 -0.836353 0.000000 0.000001
    40 0.014898 -0.883989 -0.019848 -0.123944 0.000000 0.000000
    41 -0.586770 -1.264477 0.200161 -0.015408 -0.427220 -2.502491
    42 1.522835 0.058681 0.016848 0.001410 0.008985 0.423714
    43 1.117947 0.048424 -0.005766 0.000344 -0.025198 0.041834
    44 -0.139399 -0.111698 0.014397 0.846746 0.171241 1.393752
    45 -6.260806 6.983652 -0.294122 1.580804 -0.005023 -0.912799
  time 26
    0 -0.349399 1.166145 0.203512 0.000000 0.000000 0.000000
    1 9.829882 1.481470 -8.489943 -1.572075 -1.331959 1.224247
    2 -0.071918 -8.498730 -0.104137 0.222040 0.082758 -0.242831
    3 2.625392 -4.630684 0.531024 0.088531 0.124698 -1.545787
    4 3.320456 -3.555786 0.000000 0.000000 0.000000 -1.335287
    5 0.000001 -0.000001 0.000000 0.000000 0.000000 0.000000
    6 4.576822 0.301753 0.000001 0.000000 0.000000 1.570796
    7 -0.012045 -1.178453 0.000000 0.000000 0.000000 -1.570796
    8 5.678410 0.730324 0.418752 -3.141592 -1.570796 0.000000
    9 1.528143 -1.794764 0.099164 0.000000 0.000000 -1.570796
    10 1.257180 8.762585 -0.153713 -1.570562 0.002683 -1.566807
    11 -0.488518 -2.755602 -0.228260 -1.030852 -0.134082 -0.416251
    12 0.039887 -1.479790 0.029854 -2.301996 0.000000 0.000001
    13 0.028786 -1.075731 -0.023109 -0.271941 0.000000 0.000000
    14 0.250027 -2.820665 -0.238396 -0.636386 -0.105209 -0.434549
    15 -0.049759 -1.680544 0.100479 -2.367108 0.000000 -0.000002
    16 -0.034142 -1.148312 0.084782 -0.535851 0.000000 0.000000
    17 0.957766 -2.746780 -0.090302 0.329289 -0.172344 0.119866
    18 -0.033420 -1.397129 -0.011257 -1.115578 0.000000 -0.000001
    19 -0.022360 -0.957436 0.018784 -1.148776 0.000000 0.000000
    20 -1.180681 -2.507217 -0.193859 -1.049595 -0.031145 -0.514372
    21 -0.024967 -1.123934 0.017597 -1.975757 0.000000 0.000001
    22 -0.020057 -0.890968 0.010090 -0.444208 0.000000 0.000000
    23 0.583510 -1.197277 0.185379 0.371183 -0.693166 -0.903076
    24 1.535927 0.010246 0.005009 -0.002964 -0.012979 -0.682290
    25 1.100771 0.004527 -0.010679 -0.016147 -0.001453 -1.484153
    26 0.120153 -0.050270 -0.054489 0.287569 3.110905 1.561085
    27 1.248809 -11.180660 -10.357068 -1.825000 -5.210472 -1.288691
    28 0.096944 -8.450418 -0.009365 -0.333602 -1.431733 0.746590
    29 0.447953 -2.798986 -0.200443 -1.615279 0.118642 0.257028
    30 -0.032909 -1.480204 0.004940 -0.886493 0.000000 0.000002
    31 -0.027022 -1.076920 -0.020210 -0.207385 0.000000 0.000000
    32 -0.249534 -2.846964 -0.174213 -1.234461 0.063357 0.171289
    33 0.043235 -1.683941 0.096012 -1.359042 0.002823 -0.000167
    34 0.031729 -1.160830 0.058838 -0.173749 0.000642 0.008372
    35 -0.963866 -2.785145 -0.085350 -0.761137 0.144443 0.176215
    36 0.028479 -1.403067 0.006271 -1.167207 0.000000 0.000000
    37 0.021413 -0.957781 0.020046 -0.471313 0.000000 0.000000
    38 1.164475 -2.543940 -0.170330 -1.658861 0.064007 0.245612
    39 0.024032 -1.129042 0.017807 -0.836353 0.000000 0.000001
    40 0.014898 -0.883989 -0.019848 -0.123944 0.000000 0.000000
    41 -0.586770 -1.264477 0.200161 -0.015408 -0.427220 -2.502491
    42 1.522835 0.058681 0.016848 0.001410 0.008985 0.423714
    43 1.117947 0.048424 -0.005766 0.000344 -0.025198 0.041834
    44 -0.139399 -0.111698 0.014397 0.846746 0.171241 1.393752
    45 -6.260806 6.983652 -0.294122 1.580804 -0.005023 -0.912799
  time 27
    0 -0.349399 1.166145 0.203512 0.000000 0.000000 0.000000
    1 9.829882 1.497096 -8.489943 -1.572266 -1.331788 1.224516
    2 -0.071918 -8.498730 -0.104137 0.222040 0.082758 -0.242831
    3 2.625392 -4.630684 0.531024 0.088531 0.124698 -1.545787
    4 3.320456 -3.555786 0.000000 0.000000 0.000000 -1.335287
    5 0.000001 -0.000001 0.000000 0.000000 0.000000 0.000000
    6 4.576822 0.301753 0.000001 0.000000 0.000000 1.570796
    7 -0.012045 -1.178453 0.000000 0.000000 0.000000 -1.570796
    8 5.678410 0.730324 0.418752 -3.141592 -1.570796 0.000000
    9 1.528143 -1.794764 0.099164 0.000000 0.000000 -1.570796
    10 1.257180 8.762585 -0.153713 -1.570562 0.002683 -1.566807
    11 -0.488518 -2.755602 -0.228260 -1.030852 -0.134082 -0.416251
    12 0.039887 -1.479790 0.029854 -2.301996 0.000000 0.000001
    13 0.028786 -1.075731 -0.023109 -0.271941 0.000000 0.000000
    14 0.250027 -2.820665 -0.238396 -0.636386 -0.105209 -0.434549
    15 -0.049759 -1.680544 0.100479 -2.367108 0.000000 -0.000002
    16 -0.034142 -1.148312 0.084782 -0.535851 0.000000 0.000000
    17 0.957766 -2.746780 -0.090302 0.329289 -0.172344 0.119866
    18 -0.033420 -1.397129 -0.011257 -1.115578 0.000000 -0.000001
    19 -0.022360 -0.957436 0.018784 -1.148776 0.000000 0.000000
    20 -1.180681 -2.507217 -0.193859 -1.049595 -0.031145 -0.514372
    21 -0.024967 -1.123934 0.017597 -1.975757 0.000000 0.000001
    22 -0.020057 -0.890968 0.010090 -0.444208 0.000000 0.000000
    23 0.583510 -1.197277 0.185379 0.371183 -0.693166 -0.903076
    24 1.535927 0.010246 0.005009 -0.002964 -0.012979 -0.682290
    25 1.100771 0.004527 -0.010679 -0.016147 -0.001453 -1.484153
    26 0.120153 -0.050270 -0.054489 0.287569 3.110905 1.561085
    27 1.248809 -11.165035 -10.353162 -1.825132 -5.210639 -1.288787
    28 0.096944 -8.450418 -0.009365 -0.333602 -1.431733 0.746590
    29 0.447953 -2.798986 -0.200443 -1.615279 0.118642 0.257028
    30 -0.032909 -1.480204 0.004940 -0.886493 0.000000 0.000002
    31 -0.027022 -1.076920 -0.020210 -0.207385 0.000000 0.000000
    32 -0.249534 -2.846964 -0.174213 -1.234461 0.063357 0.171289
    33 0.043235 -1.683941 0.096012 -1.359042 0.002823 -0.000167
    34 0.031729 -1.160830 0.058838 -0.173749 0.000642 0.008372
    35 -0.963866 -2.785145 -0.085350 -0.761137 0.144443 0.176215
    36 0.028479 -1.403067 0.006271 -1.167207 0.000000 0.000000
    37 0.021413 -0.957781 0.020046 -0.471313 0.000000 0.000000
    38 1.164475 -2.543940 -0.170330 -1.658861 0.064007 0.245612
    39 0.024032 -1.129042 0.017807 -0.836353 0.000000 0.000001
    40 0.014898 -0.883989 -0.019848 -0.123944 0.000000 0.000000
    41 -0.586770 -1.264477 0.200161 -0.015408 -0.427220 -2.502491
    42 1.522835 0.058681 0.016848 0.001410 0.008985 0.423714
    43 1.117947 0.048424 -0.005766 0.000344 -0.025198 0.041834
    44 -0.139399 -0.111698 0.014397 0.846746 0.171241 1.393752
    45 -6.260806 6.983652 -0.294122 1.580804 -0.005023 -0.912799
  time 28
    0 -0.349399 1.166145 0.203512 0.000000 0.000000 0.000000
    1 9.829882 1.516628 -8.489943 -1.572553 -1.331617 1.224785
    2 -0.071918 -8.498730 -0.104137 0.222040 0.082758 -0.242831
    3 2.625392 -4.630684 0.531024 0.088531 0.124698 -1.545787
    4 3.320456 -3.555786 0.000000 0.000000 0.000000 -1.335287
    5 0.000001 -0.000001 0.000000 0.000000 0.000000 0.000000
    6 4.576822 0.301753 0.000001 0.000000 0.000000 1.570796
    7 -0.012045 -1.178453 0.000000 0.000000 0.000000 -1.570796
    8 5.678410 0.730324 0.418752 -3.141592 -1.570796 0.000000
    9 1.528143 -1.794764 0.099164 0.000000 0.000000 -1.570796
    10 1.257180 8.762585 -0.153713 -1.570562 0.002683 -1.566807
    11 -0.488518 -2.755602 -0.228260 -1.030852 -0.134082 -0.416251
    12 0.039887 -1.479790 0.029854 -2.301996 0.000000 0.000001
    13 0.028786 -1.075731 -0.023109 -0.271941 0.000000 0.000000
    14 0.250027 -2.820665 -0.238396 -0.636386 -0.105209 -0.434549
    15 -0.049759 -1.680544 0.100479 -2.367108 0.000000 -0.000002
    16 -0.034142 -1.148312 0.084782 -0.535851 0.000000 0.000000
    17 0.957766 -2.746780 -0.090302 0.329289 -0.172344 0.119866
    18 -0.033420 -1.397129 -0.011257 -1.115578 0.000000 -0.000001
    19 -0.022360 -0.957436 0.018784 -1.148776 0.000000 0.000000
    20 -1.180681 -2.507217 -0.193859 -1.049595 -0.031145 -0.514372
    21 -0.024967 -1.123934 0.017597 -1.975757 0.000000 0.000001
    22 -0.020057 -0.890968 0.010090 -0.444208 0.000000 0.000000
    23 0.583510 -1.197277 0.185379 0.371183 -0.693166 -0.903076
    24 1.535927 0.010246 0.005009 -0.002964 -0.012979 -0.682269
    25 1.100771 0.004527 -0.010679 -0.016147 -0.001453 -1.484153
    26 0.120153 -0.050270 -0.054489 0.287569 3.110905 1.561085
    27 1.248809 -11.145503 -10.349255 -1.825198 -5.210805 -1.288882
    28 0.096944 -8.450418 -0.009365 -0.333602 -1.431733 0.746590
    29 0.447953 -2.798986 -0.200443 -1.615279 0.118642 0.257028
    30 -0.032909 -1.480204 0.004940 -0.886493 0.000000 0.000002
    31 -0.027022 -1.076920 -0.020210 -0.207385 0.000000 0.000000
    32 -0.249534 -2.846964 -0.174213 -1.234461 0.063357 0.171289
    33 0.043235 -1.683941 0.096012 -1.359042 0.002823 -0.000167
    34 0.031729 -1.160830 0.058838 -0.173749 0.000642 0.008372
    35 -0.963866 -2.785145 -0.085350 -0.761137 0.144443 0.176215
    36 0.028479 -1.403067 0.006271 -1.167207 0.000000 0.000000
    37 0.021413 -0.957781 0.020046 -0.471313 0.000000 0.000000
    38 1.164475 -2.543940 -0.170330 -1.658861 0.064007 0.245612
    39 0.024032 -1.129042 0.017807 -0.836353 0.000000 0.000001
    40 0.014898 -0.883989 -0.019848 -0.123944 0.000000 0.000000
    41 -0.586770 -1.264477 0.200161 -0.015408 -0.427220 -2.502491
    42 1.522835 0.058681 0.016848 0.001410 0.008985 0.423714
    43 1.117947 0.048424 -0.005766 0.000344 -0.025198 0.041834
    44 -0.139399 -0.111698 0.014397 0.846746 0.171241 1.393752
    45 -6.260806 6.983652 -0.294122 1.580804 -0.005023 -0.912799
  time 29
    0 -0.349399 1.166145 0.203512 0.000000 0.000000 0.000000
    1 9.829882 1.540066 -8.486036 -1.572936 -1.331377 1.225054
    2 -0.071918 -8.498730 -0.104137 0.222040 0.082758 -0.242831
    3 2.625392 -4.630684 0.531024 0.088531 0.124698 -1.545787
    4 3.320456 -3.555786 0.000000 0.000000 0.000000 -1.335287
    5 0.000001 -0.000001 0.000000 0.000000 0.000000 0.000000
    6 4.576822 0.301753 0.000001 0.000000 0.000000 1.570796
    7 -0.012045 -1.178453 0.000000 0.000000 0.000000 -1.570796
    8 5.678410 0.730324 0.418752 -3.141592 -1.570796 0.000000
    9 1.528143 -1.794764 0.099164 0.000000 0.000000 -1.570796
    10 1.257180 8.762585 -0.153713 -1.570562 0.002683 -1.566807
    11 -0.488518 -2.755602 -0.228260 -1.030852 -0.134082 -0.416251
    12 0.039887 -1.479790 0.029854 -2.301996 0.000000 0.000001
    13 0.028786 -1.075731 -0.023109 -0.271941 0.000000 0.000000
    14 0.250027 -2.820665 -0.238396 -0.636386 -0.105209 -0.434549
    15 -0.049759 -1.680544 0.100479 -2.367108 0.000000 -0.000002
    16 -0.034142 -1.148312 0.084782 -0.535851 0.000000 0.000000
    17 0.957766 -2.746780 -0.090302 0.329289 -0.172344 0.119866
    18 -0.033420 -1.397129 -0.011257 -1.115578 0.000000 -0.000001
    19 -0.022360 -0.957436 0.018784 -1.148776 0.000000 0.000000
    20 -1.180681 -2.507217 -0.193859 -1.049595 -0.031145 -0.514372
    21 -0.024967 -1.123934 0.017597 -1.975757 0.000000 0.000001
    22 -0.020057 -0.890968 0.010090 -0.444208 0.000000 0.000000
    23 0.583510 -1.197277 0.185379 0.371183 -0.693166 -0.903076
    24 1.535927 0.010246 0.005009 -0.002964 -0.012979 -0.682290
    25 1.100771 0.004527 -0.010679 -0.016147 -0.001453 -1.484153
    26 0.120153 -0.050270 -0.054489 0.287569 3.110905 1.561085
    27 1.248809 -11.122065 -10.345349 -1.825330 -5.211056 -1.288978
    28 0.096944 -8.450418 -0.009365 -0.333602 -1.431733 0.746590
    29 0.447953 -2.798986 -0.200443 -1.615279 0.118642 0.257028
    30 -0.032909 -1.480204 0.004940 -0.886493 0.000000 0.000002
    31 -0.027022 -1.076920 -0.020210 -0.207385 0.000000 0.000000
    32 -0.249534 -2.846964 -0.174213 -1.234461 0.063357 0.171289
    33 0.043235 -1.683941 0.096012 -1.359042 0.002823 -0.000167
    34 0.031729 -1.160830 0.058838 -0.173749 0.000642 0.008372
    35 -0.963866 -2.785145 -0.085350 -0.761137 0.144443 0.176215
    36 0.028479 -1.403067 0.006271 -1.167207 0.000000 0.000000
    37 0.021413 -0.957781 0.020046 -0.471313 0.000000 0.000000
    38 1.164475 -2.543940 -0.170330 -1.658861 0.064007 0.245612
    39 0.024032 -1.129042 0.017807 -0.836353 0.000000 0.000001
    40 0.014898 -0.883989 -0.019848 -0.123944 0.000000 0.000000
    41 -0.586770 -1.264477 0.200161 -0.015408 -0.427220 -2.502491
    42 1.522835 0.058681 0.016848 0.001410 0.008985 0.423714
    43 1.117947 0.048424 -0.005766 0.000344 -0.025198 0.041834
    44 -0.139399 -0.111698 0.014397 0.846746 0.171241 1.393752
    45 -6.260806 6.983652 -0.294122 1.580804 -0.005023 -0.912799
  time 30
    0 -0.349399 1.166145 0.203512 0.000000 0.000000 0.000000
    1 9.829882 1.563504 -8.486036 -1.573414 -1.331068 1.225593
    2 -0.071918 -8.498730 -0.104137 0.222040 0.082758 -0.242831
    3 2.625392 -4.630684 0.531024 0.088531 0.124698 -1.545787
    4 3.320456 -3.555786 0.000000 0.000000 0.000000 -1.335287
    5 0.000001 -0.000001 0.000000 0.000000 0.000000 0.000000
    6 4.576822 0.301753 0.000001 0.000000 0.000000 1.570796
    7 -0.012045 -1.178453 0.000000 0.000000 0.000000 -1.570796
    8 5.678410 0.730324 0.418752 -3.141592 -1.570796 0.000000
    9 1.528143 -1.794764 0.099164 0.000000 0.000000 -1.570796
    10 1.257180 8.762585 -0.153713 -1.570562 0.002683 -1.566807
    11 -0.488518 -2.755602 -0.228260 -1.030852 -0.134082 -0.416251
    12 0.039887 -1.479790 0.029854 -2.301996 0.000000 0.000001
    13 0.028786 -1.075731 -0.023109 -0.271941 0.000000 0.000000
    14 0.250027 -2.820665 -0.238396 -0.636386 -0.105209 -0.434549
    15 -0.049759 -1.680544 0.100479 -2.367108 0.000000 -0.000002
    16 -0.034142 -1.148312 0.084782 -0.535851 0.000000 0.000000
    17 0.957766 -2.746780 -0.090302 0.329289 -0.172344 0.119866
    18 -0.033420 -1.397129 -0.011257 -1.115578 0.000000 -0.000001
    19 -0.022360 -0.957436 0.018784 -1.148776 0.000000 0.000000
    20 -1.180681 -2.507217 -0.193859 -1.049595 -0.031145 -0.514372
    21 -0.024967 -1.123934 0.017597 -1.975757 0.000000 0.000001
    22 -0.020057 -0.890968 0.010090 -0.444208 0.000000 0.000000
    23 0.583510 -1.197277 0.185379 0.371183 -0.693166 -0.903076
    24 1.535927 0.010246 0.005009 -0.002964 -0.012979 -0.682290
    25 1.100771 0.004527 -0.010679 -0.016147 -0.001453 -1.484153
    26 0.120153 -0.050270 -0.054489 0.287569 3.110905 1.561085
    27 1.248809 -11.098626 -10.337536 -1.825528 -5.211390 -1.289169
    28 0.096944 -8.450418 -0.009365 -0.333602 -1.431733 0.746590
    29 0.447953 -2.798986 -0.200443 -1.615279 0.118642 0.257028
    30 -0.032909 -1.480204 0.004940 -0.886493 0.000000 0.000002
    31 -0.027022 -1.076920 -0.020210 -0.207385 0.000000 0.000000
    32 -0.249534 -2.846964 -0.174213 -1.234461 0.063357 0.171289
    33 0.043235 -1.683941 0.096012 -1.359042 0.002823 -0.000167
    34 0.031729 -1.160830 0.058838 -0.173749 0.000642 0.008372
    35 -0.963866 -2.785145 -0.085350 -0.761137 0.144443 0.176215
    36 0.028479 -1.403067 0.006271 -1.167207 0.000000 0.000000
    37 0.021413 -0.957781 0.020046 -0.471313 0.000000 0.000000
    38 1.164475 -2.543940 -0.170330 -1.658861 0.064007 0.245612
    39 0.024032 -1.129042 0.017807 -0.836353 0.000000 0.000001
    40 0.014898 -0.883989 -0.019848 -0.123944 0.000000 0.000000
    41 -0.586770 -1.264477 0.200161 -0.015408 -0.427220 -2.502491
    42 1.522835 0.058681 0.016848 0.001410 0.008985 0.423714
    43 1.117947 0.048424 -0.005766 0.000344 -0.025198 0.041834
    44 -0.139399 -0.111698 0.014397 0.846746 0.171241 1.393752
    45 -6.260806 6.983652 -0.294122 1.580804 -0.005023 -0.912799
end
