version 1
nodes
  0 "Bone01" -1
  1 "Bone_Lefthand" 0
  2 "Bone_AK47" 1
  3 "Bone03" 2
  4 "Bone25" 3
  5 "Bone48" 3
  6 "Bone50" 3
  7 "Bone52" 3
  8 "Bone04" -1
  9 "Bone_Righthand" 8
  10 "Bone27" 9
  11 "Bone28" 10
  12 "Bone29" 11
  13 "Bone31" 9
  14 "Bone32" 13
  15 "Bone33" 14
  16 "Bone35" 9
  17 "Bone36" 16
  18 "Bone37" 17
  19 "Bone39" 9
  20 "Bone40" 19
  21 "Bone41" 20
  22 "Bone43" 9
  23 "Bone44" 22
  24 "Bone45" 23
  25 "Bone_Se_Hand-R" 9
  26 "Bone05" 1
  27 "Bone06" 26
  28 "Bone07" 27
  29 "Bone21" 1
  30 "Bone22" 29
  31 "Bone23" 30
  32 "Bone17" 1
  33 "Bone18" 32
  34 "Bone19" 33
  35 "Bone13" 1
  36 "Bone14" 35
  37 "Bone15" 36
  38 "Bone09" 1
  39 "Bone10" 38
  40 "Bone11" 39
  41 "Bone_Se_Hand-L" 1
end
skeleton
  time 0
    0 8.930026 3.771843 -8.201641 -0.774289 -1.331381 0.567309
    1 -0.071918 -8.498731 -0.104136 0.355870 -0.246317 -0.214748
    2 -0.613442 -3.631383 1.002075 0.959369 1.722212 0.980679
    3 0.000000 2.160511 0.950625 0.000000 0.000000 0.000000
    4 0.000001 -3.106012 1.710279 0.218156 0.000000 0.000000
    5 0.000001 -4.793800 0.448359 0.000000 0.000000 0.000000
    6 0.000002 -6.345618 1.761434 0.000000 0.000000 0.000000
    7 0.000001 -5.765820 2.989245 0.000000 0.000000 0.000000
    8 0.038254 -10.395756 -10.214524 -0.603475 0.454542 0.509951
    9 0.096946 -8.450419 -0.009364 0.352970 -0.430369 0.106636
    10 -0.586769 -1.264477 0.200164 -0.128840 -0.181460 -2.421838
    11 1.522834 0.058679 0.016851 -0.155475 -0.052443 0.060068
    12 1.117948 0.048425 -0.005765 0.057544 0.004929 0.271595
    13 -0.963866 -2.785142 -0.085346 -0.619229 0.039901 -0.096824
    14 0.028478 -1.403067 0.006272 -0.705553 0.000000 0.000000
    15 0.021414 -0.957782 0.020048 -0.522170 0.000000 0.000000
    16 -0.249534 -2.846962 -0.174215 -0.624211 -0.029290 -0.025634
    17 0.043234 -1.683940 0.096015 -1.175496 0.000000 0.000000
    18 0.031729 -1.160831 0.058835 -0.884580 0.000000 0.000000
    19 0.447952 -2.798982 -0.200441 -0.985036 0.020326 -0.016362
    20 -0.032910 -1.480207 0.004935 -0.877476 0.000000 0.000000
    21 -0.027022 -1.076921 -0.020212 -0.733859 0.000000 0.000000
    22 1.164474 -2.543939 -0.170327 -1.046214 -0.027804 -0.008910
    23 0.024032 -1.129040 0.017805 -0.863938 0.000000 0.000000
    24 0.014897 -0.883991 -0.019845 -0.523599 0.000000 0.000000
    25 -0.160030 -0.121640 -0.113773 0.376727 0.078269 1.517032
    26 0.583509 -1.197273 0.185379 0.342070 -0.443530 -1.083970
    27 1.535926 0.010246 0.005009 -0.305425 0.000003 -0.401438
    28 1.100770 0.004528 -0.010675 0.000001 0.000000 -0.488706
    29 0.957766 -2.746777 -0.090301 -0.235619 0.000000 0.130900
    30 -0.033419 -1.397128 -0.011256 -0.898843 0.000000 0.000000
    31 -0.022361 -0.957433 0.018783 -1.169370 0.000000 0.000000
    32 0.250028 -2.820664 -0.238397 -0.936117 0.062985 -0.171289
    33 -0.049759 -1.680544 0.100479 -1.601846 0.000000 0.000000
    34 -0.034141 -1.148311 0.084779 -1.612035 0.000000 0.000000
    35 -0.488517 -2.755600 -0.228262 -1.058151 0.012241 -0.214631
    36 0.039888 -1.479791 0.029853 -1.466752 0.000000 0.000000
    37 0.028785 -1.075732 -0.023111 -1.465947 0.000000 0.000000
    38 -1.180679 -2.507216 -0.193862 -0.962469 0.156569 -0.277659
    39 -0.024967 -1.123934 0.017593 -1.202545 0.000000 0.000000
    40 -0.020059 -0.890965 0.010091 -1.476039 0.000000 0.000000
    41 0.067672 -0.055398 -0.080485 3.078851 -0.275352 -1.546385
  time 1
    0 8.930026 4.486709 -8.510244 -0.954842 -1.278041 0.751549
    1 -0.071918 -8.498731 -0.104136 0.373008 -0.222348 -0.284570
    2 -0.613442 -3.631383 1.002075 0.959369 1.722212 0.980679
    3 0.000000 2.160511 0.950625 0.000000 0.000000 0.000000
    4 0.000001 -3.133357 1.710279 0.184850 0.000000 0.000000
    5 0.000001 -4.793800 0.448359 0.000000 0.000000 0.000000
    6 0.000002 -6.345618 1.761434 0.000000 0.000000 0.000000
    7 0.007814 -4.601722 2.989245 0.000000 0.000000 0.000000
    8 -0.149252 -10.505134 -9.671539 -0.609174 0.514739 0.618005
    9 0.096946 -8.450419 -0.009364 0.448567 -0.490302 -0.088528
    10 -0.586769 -1.264477 0.200164 -0.128840 -0.181460 -2.421838
    11 1.522834 0.058679 0.016851 -0.155475 -0.052443 0.060068
    12 1.117948 0.048425 -0.005765 0.057544 0.004929 0.271595
    13 -0.963866 -2.785142 -0.085346 -0.619229 0.039901 -0.096824
    14 0.028478 -1.403067 0.006272 -0.705553 0.000000 0.000000
    15 0.021414 -0.957782 0.020048 -0.522170 0.000000 0.000000
    16 -0.249534 -2.846962 -0.174215 -0.624211 -0.029290 -0.025634
    17 0.043234 -1.683940 0.096015 -1.175496 0.000000 0.000000
    18 0.031729 -1.160831 0.058835 -0.884580 0.000000 0.000000
    19 0.447952 -2.798982 -0.200441 -0.985036 0.020326 -0.016362
    20 -0.032910 -1.480207 0.004935 -0.877476 0.000000 0.000000
    21 -0.027022 -1.076921 -0.020212 -0.733859 0.000000 0.000000
    22 1.164474 -2.543939 -0.170327 -1.046214 -0.027804 -0.008910
    23 0.024032 -1.129040 0.017805 -0.863938 0.000000 0.000000
    24 0.014897 -0.883991 -0.019845 -0.523599 0.000000 0.000000
    25 -0.160030 -0.121640 -0.113773 0.376727 0.078269 1.517032
    26 0.583509 -1.197273 0.185379 0.342070 -0.443530 -1.083970
    27 1.535926 0.010246 0.005009 -0.305425 0.000003 -0.401438
    28 1.100770 0.004528 -0.010675 0.000001 0.000000 -0.488706
    29 0.957766 -2.746777 -0.090301 -0.235619 0.000000 0.130900
    30 -0.033419 -1.397128 -0.011256 -0.905771 0.000000 0.000000
    31 -0.022361 -0.957433 0.018783 -1.176627 0.000000 0.000000
    32 0.250028 -2.820664 -0.238397 -0.936117 0.062985 -0.171289
    33 -0.049759 -1.680544 0.100479 -1.601846 0.000000 0.000000
    34 -0.034141 -1.148311 0.084779 -1.612035 0.000000 0.000000
    35 -0.488517 -2.755600 -0.228262 -1.058151 0.012241 -0.214631
    36 0.039888 -1.479791 0.029853 -1.466752 0.000000 0.000000
    37 0.028785 -1.075732 -0.023111 -1.465947 0.000000 0.000000
    38 -1.180679 -2.507216 -0.193862 -0.962469 0.156569 -0.277659
    39 -0.024967 -1.123934 0.017593 -1.202545 0.000000 0.000000
    40 -0.020059 -0.890965 0.010091 -1.476039 0.000000 0.000000
    41 0.067672 -0.055398 -0.080485 3.078851 -0.275352 -1.546385
  time 2
    0 8.930026 4.986724 -8.721188 -1.035240 -1.241611 0.834219
    1 -0.071918 -8.498731 -0.104136 0.382704 -0.206876 -0.327487
    2 -0.613442 -3.631383 1.002075 0.959369 1.722212 0.980679
    3 0.000000 2.160511 0.950625 0.000000 0.000000 0.000000
    4 0.000001 -3.191953 1.710279 0.148669 0.000000 0.000000
    5 0.000001 -4.793800 0.448359 0.000000 0.000000 0.000000
    6 0.000002 -6.345618 1.761434 0.000000 0.000000 0.000000
    7 0.019533 -3.105583 2.985339 0.000000 0.000000 0.000000
    8 -0.270349 -10.512947 -9.382468 -0.604965 0.552225 0.687195
    9 0.096946 -8.450419 -0.009364 0.513756 -0.521854 -0.216984
    10 -0.586769 -1.264477 0.200164 -0.128840 -0.181460 -2.421838
    11 1.522834 0.058679 0.016851 -0.155475 -0.052443 0.060068
    12 1.117948 0.048425 -0.005765 0.057544 0.004929 0.271595
    13 -0.963866 -2.785142 -0.085346 -0.619229 0.039901 -0.096824
    14 0.028478 -1.403067 0.006272 -0.705553 0.000000 0.000000
    15 0.021414 -0.957782 0.020048 -0.522170 0.000000 0.000000
    16 -0.249534 -2.846962 -0.174215 -0.624211 -0.029290 -0.025634
    17 0.043234 -1.683940 0.096015 -1.175496 0.000000 0.000000
    18 0.031729 -1.160831 0.058835 -0.884580 0.000000 0.000000
    19 0.447952 -2.798982 -0.200441 -0.985036 0.020326 -0.016362
    20 -0.032910 -1.480207 0.004935 -0.877476 0.000000 0.000000
    21 -0.027022 -1.076921 -0.020212 -0.733859 0.000000 0.000000
    22 1.164474 -2.543939 -0.170327 -1.046214 -0.027804 -0.008910
    23 0.024032 -1.129040 0.017805 -0.863938 0.000000 0.000000
    24 0.014897 -0.883991 -0.019845 -0.523599 0.000000 0.000000
    25 -0.160030 -0.121640 -0.113773 0.376727 0.078269 1.517032
    26 0.583509 -1.197273 0.185379 0.342070 -0.443530 -1.083970
    27 1.535926 0.010246 0.005009 -0.305425 0.000003 -0.401438
    28 1.100770 0.004528 -0.010675 0.000001 0.000000 -0.488706
    29 0.957766 -2.746777 -0.090301 -0.235619 0.000000 0.130900
    30 -0.033419 -1.397128 -0.011256 -0.921057 0.000000 0.000000
    31 -0.022361 -0.957433 0.018783 -1.192622 0.000000 0.000000
    32 0.250028 -2.820664 -0.238397 -0.936117 0.062985 -0.171289
    33 -0.049759 -1.680544 0.100479 -1.601846 0.000000 0.000000
    34 -0.034141 -1.148311 0.084779 -1.612035 0.000000 0.000000
    35 -0.488517 -2.755600 -0.228262 -1.058151 0.012241 -0.214631
    36 0.039888 -1.479791 0.029853 -1.466752 0.000000 0.000000
    37 0.028785 -1.075732 -0.023111 -1.465947 0.000000 0.000000
    38 -1.180679 -2.507216 -0.193862 -0.962469 0.156569 -0.277659
    39 -0.024967 -1.123934 0.017593 -1.202545 0.000000 0.000000
    40 -0.020059 -0.890965 0.010091 -1.476039 0.000000 0.000000
    41 0.067672 -0.055398 -0.080485 3.078851 -0.275352 -1.546385
  time 3
    0 8.930026 5.174230 -8.787596 -1.023858 -1.247159 0.822609
    1 -0.071918 -8.498731 -0.104136 0.382056 -0.207715 -0.324838
    2 -0.613442 -3.631383 1.002075 0.959369 1.722212 0.980679
    3 0.000000 2.160511 0.950625 0.000000 0.000000 0.000000
    4 0.000001 -3.262267 1.710279 0.111780 0.000000 0.000000
    5 0.000001 -4.793800 0.448359 0.000000 0.000000 0.000000
    6 0.000002 -6.345618 1.761434 0.000000 0.000000 0.000000
    7 0.007814 -4.000141 2.989245 0.000000 0.000000 0.000000
    8 -0.313319 -10.372318 -9.417625 -0.592594 0.549946 0.684145
    9 0.096946 -8.450419 -0.009364 0.504504 -0.530931 -0.213774
    10 -0.586769 -1.264477 0.200164 -0.128840 -0.181460 -2.421838
    11 1.522834 0.058679 0.016851 -0.155475 -0.052443 0.060068
    12 1.117948 0.048425 -0.005765 0.057544 0.004929 0.271595
    13 -0.963866 -2.785142 -0.085346 -0.619229 0.039901 -0.096824
    14 0.028478 -1.403067 0.006272 -0.705553 0.000000 0.000000
    15 0.021414 -0.957782 0.020048 -0.522170 0.000000 0.000000
    16 -0.249534 -2.846962 -0.174215 -0.624211 -0.029290 -0.025634
    17 0.043234 -1.683940 0.096015 -1.175496 0.000000 0.000000
    18 0.031729 -1.160831 0.058835 -0.884580 0.000000 0.000000
    19 0.447952 -2.798982 -0.200441 -0.985036 0.020326 -0.016362
    20 -0.032910 -1.480207 0.004935 -0.877476 0.000000 0.000000
    21 -0.027022 -1.076921 -0.020212 -0.733859 0.000000 0.000000
    22 1.164474 -2.543939 -0.170327 -1.046214 -0.027804 -0.008910
    23 0.024032 -1.129040 0.017805 -0.863938 0.000000 0.000000
    24 0.014897 -0.883991 -0.019845 -0.523599 0.000000 0.000000
    25 -0.160030 -0.121640 -0.113773 0.376727 0.078269 1.517032
    26 0.583509 -1.197273 0.185379 0.342070 -0.443530 -1.083970
    27 1.535926 0.010246 0.005009 -0.305425 0.000003 -0.401438
    28 1.100770 0.004528 -0.010675 0.000001 0.000000 -0.488706
    29 0.957766 -2.746777 -0.090301 -0.235619 0.000000 0.130900
    30 -0.033419 -1.397128 -0.011256 -0.936326 0.000000 0.000000
    31 -0.022361 -0.957433 0.018783 -1.208637 0.000000 0.000000
    32 0.250028 -2.820664 -0.238397 -0.936117 0.062985 -0.171289
    33 -0.049759 -1.680544 0.100479 -1.601846 0.000000 0.000000
    34 -0.034141 -1.148311 0.084779 -1.612035 0.000000 0.000000
    35 -0.488517 -2.755600 -0.228262 -1.058151 0.012241 -0.214631
    36 0.039888 -1.479791 0.029853 -1.466752 0.000000 0.000000
    37 0.028785 -1.075732 -0.023111 -1.465947 0.000000 0.000000
    38 -1.180679 -2.507216 -0.193862 -0.962469 0.156569 -0.277659
    39 -0.024967 -1.123934 0.017593 -1.202545 0.000000 0.000000
    40 -0.020059 -0.890965 0.010091 -1.476039 0.000000 0.000000
    41 0.067672 -0.055398 -0.080485 3.078851 -0.275352 -1.546385
  time 4
    0 8.930026 5.057039 -8.705563 -0.986635 -1.264204 0.784527
    1 -0.071918 -8.498731 -0.104136 0.379228 -0.212053 -0.312458
    2 -0.613442 -3.631383 1.002075 0.959369 1.722212 0.980679
    3 0.000000 2.160511 0.950625 0.000000 0.000000 0.000000
    4 0.000001 -3.320863 1.710279 0.076318 0.000000 0.000000
    5 0.000001 -4.793800 0.448359 0.000000 0.000000 0.000000
    6 0.000002 -6.345618 1.761434 0.000000 0.000000 0.000000
    7 0.000001 -5.765820 2.989245 0.000000 0.000000 0.000000
    8 -0.301600 -10.219969 -9.573880 -0.577051 0.539436 0.665497
    9 0.096946 -8.450419 -0.009364 0.477707 -0.536860 -0.182202
    10 -0.586769 -1.264477 0.200164 -0.128840 -0.181460 -2.421838
    11 1.522834 0.058679 0.016851 -0.155475 -0.052443 0.060068
    12 1.117948 0.048425 -0.005765 0.057544 0.004929 0.271595
    13 -0.963866 -2.785142 -0.085346 -0.619229 0.039901 -0.096824
    14 0.028478 -1.403067 0.006272 -0.705553 0.000000 0.000000
    15 0.021414 -0.957782 0.020048 -0.522170 0.000000 0.000000
    16 -0.249534 -2.846962 -0.174215 -0.624211 -0.029290 -0.025634
    17 0.043234 -1.683940 0.096015 -1.175496 0.000000 0.000000
    18 0.031729 -1.160831 0.058835 -0.884580 0.000000 0.000000
    19 0.447952 -2.798982 -0.200441 -0.985036 0.020326 -0.016362
    20 -0.032910 -1.480207 0.004935 -0.877476 0.000000 0.000000
    21 -0.027022 -1.076921 -0.020212 -0.733859 0.000000 0.000000
    22 1.164474 -2.543939 -0.170327 -1.046214 -0.027804 -0.008910
    23 0.024032 -1.129040 0.017805 -0.863938 0.000000 0.000000
    24 0.014897 -0.883991 -0.019845 -0.523599 0.000000 0.000000
    25 -0.160030 -0.121640 -0.113773 0.376727 0.078269 1.517032
    26 0.583509 -1.197273 0.185379 0.342070 -0.443530 -1.083970
    27 1.535926 0.010246 0.005009 -0.305425 0.000003 -0.401438
    28 1.100770 0.004528 -0.010675 0.000001 0.000000 -0.488706
    29 0.957766 -2.746777 -0.090301 -0.235619 0.000000 0.130900
    30 -0.033419 -1.397128 -0.011256 -0.943253 0.000000 0.000000
    31 -0.022361 -0.957433 0.018783 -1.215913 0.000000 0.000000
    32 0.250028 -2.820664 -0.238397 -0.936117 0.062985 -0.171289
    33 -0.049759 -1.680544 0.100479 -1.601846 0.000000 0.000000
    34 -0.034141 -1.148311 0.084779 -1.612035 0.000000 0.000000
    35 -0.488517 -2.755600 -0.228262 -1.058151 0.012241 -0.214631
    36 0.039888 -1.479791 0.029853 -1.466752 0.000000 0.000000
    37 0.028785 -1.075732 -0.023111 -1.465947 0.000000 0.000000
    38 -1.180679 -2.507216 -0.193862 -0.962469 0.156569 -0.277659
    39 -0.024967 -1.123934 0.017593 -1.202545 0.000000 0.000000
    40 -0.020059 -0.890965 0.010091 -1.476039 0.000000 0.000000
    41 0.067672 -0.055398 -0.080485 3.078851 -0.275352 -1.546385
  time 5
    0 8.930026 4.771874 -8.545402 -0.931946 -1.285661 0.728666
    1 -0.071918 -8.498731 -0.104136 0.374997 -0.218441 -0.294206
    2 -0.613442 -3.631383 1.002075 0.959369 1.722212 0.980679
    3 0.000000 2.160511 0.950625 0.000000 0.000000 0.000000
    4 0.000001 -3.344301 1.710279 0.044439 0.000000 0.000000
    5 0.000001 -4.793800 0.448359 0.000000 0.000000 0.000000
    6 0.000002 -6.345618 1.761434 0.000000 0.000000 0.000000
    7 0.000001 -5.765820 2.989245 0.000000 0.000000 0.000000
    8 -0.243005 -10.216063 -9.663726 -0.560536 0.524295 0.637351
    9 0.096946 -8.450419 -0.009364 0.440760 -0.538630 -0.133096
    10 -0.586769 -1.264477 0.200164 -0.128840 -0.181460 -2.421838
    11 1.522834 0.058679 0.016851 -0.155475 -0.052443 0.060068
    12 1.117948 0.048425 -0.005765 0.057544 0.004929 0.271595
    13 -0.963866 -2.785142 -0.085346 -0.619229 0.039901 -0.096824
    14 0.028478 -1.403067 0.006272 -0.705553 0.000000 0.000000
    15 0.021414 -0.957782 0.020048 -0.522170 0.000000 0.000000
    16 -0.249534 -2.846962 -0.174215 -0.624211 -0.029290 -0.025634
    17 0.043234 -1.683940 0.096015 -1.175496 0.000000 0.000000
    18 0.031729 -1.160831 0.058835 -0.884580 0.000000 0.000000
    19 0.447952 -2.798982 -0.200441 -0.985036 0.020326 -0.016362
    20 -0.032910 -1.480207 0.004935 -0.877476 0.000000 0.000000
    21 -0.027022 -1.076921 -0.020212 -0.733859 0.000000 0.000000
    22 1.164474 -2.543939 -0.170327 -1.046214 -0.027804 -0.008910
    23 0.024032 -1.129040 0.017805 -0.863938 0.000000 0.000000
    24 0.014897 -0.883991 -0.019845 -0.523599 0.000000 0.000000
    25 -0.160030 -0.121640 -0.113773 0.376727 0.078269 1.517032
    26 0.583509 -1.197273 0.185379 0.342070 -0.443530 -1.083970
    27 1.535926 0.010246 0.005009 -0.305425 0.000003 -0.401438
    28 1.100770 0.004528 -0.010675 0.000001 0.000000 -0.488706
    29 0.957766 -2.746777 -0.090301 -0.235619 0.000000 0.130900
    30 -0.033419 -1.397128 -0.011256 -0.933551 0.000000 0.000000
    31 -0.022361 -0.957433 0.018783 -1.205731 0.000000 0.000000
    32 0.250028 -2.820664 -0.238397 -0.936117 0.062985 -0.171289
    33 -0.049759 -1.680544 0.100479 -1.601846 0.000000 0.000000
    34 -0.034141 -1.148311 0.084779 -1.612035 0.000000 0.000000
    35 -0.488517 -2.755600 -0.228262 -1.058151 0.012241 -0.214631
    36 0.039888 -1.479791 0.029853 -1.466752 0.000000 0.000000
    37 0.028785 -1.075732 -0.023111 -1.465947 0.000000 0.000000
    38 -1.180679 -2.507216 -0.193862 -0.962469 0.156569 -0.277659
    39 -0.024967 -1.123934 0.017593 -1.202545 0.000000 0.000000
    40 -0.020059 -0.890965 0.010091 -1.476039 0.000000 0.000000
    41 0.067672 -0.055398 -0.080485 3.078851 -0.275352 -1.546385
  time 6
    0 8.930026 4.451552 -8.373521 -0.872874 -1.304889 0.668431
    1 -0.071918 -8.498731 -0.104136 0.370192 -0.225440 -0.273976
    2 -0.613442 -3.631383 1.002075 0.959369 1.722212 0.980679
    3 0.000000 2.160511 0.950625 0.000000 0.000000 0.000000
    4 0.000001 -3.344301 1.710279 0.018277 0.000000 0.000000
    5 0.000001 -4.793800 0.448359 0.000000 0.000000 0.000000
    6 0.000002 -6.345618 1.761434 0.000000 0.000000 0.000000
    7 0.000001 -5.765820 2.989245 0.000000 0.000000 0.000000
    8 -0.153158 -10.227782 -9.722322 -0.545316 0.507830 0.605980
    9 0.096946 -8.450419 -0.009364 0.401530 -0.535872 -0.077724
    10 -0.586769 -1.264477 0.200164 -0.128840 -0.181460 -2.421838
    11 1.522834 0.058679 0.016851 -0.155475 -0.052443 0.060068
    12 1.117948 0.048425 -0.005765 0.057544 0.004929 0.271595
    13 -0.963866 -2.785142 -0.085346 -0.619229 0.039901 -0.096824
    14 0.028478 -1.403067 0.006272 -0.705553 0.000000 0.000000
    15 0.021414 -0.957782 0.020048 -0.522170 0.000000 0.000000
    16 -0.249534 -2.846962 -0.174215 -0.624211 -0.029290 -0.025634
    17 0.043234 -1.683940 0.096015 -1.175496 0.000000 0.000000
    18 0.031729 -1.160831 0.058835 -0.884580 0.000000 0.000000
    19 0.447952 -2.798982 -0.200441 -0.985036 0.020326 -0.016362
    20 -0.032910 -1.480207 0.004935 -0.877476 0.000000 0.000000
    21 -0.027022 -1.076921 -0.020212 -0.733859 0.000000 0.000000
    22 1.164474 -2.543939 -0.170327 -1.046214 -0.027804 -0.008910
    23 0.024032 -1.129040 0.017805 -0.863938 0.000000 0.000000
    24 0.014897 -0.883991 -0.019845 -0.523599 0.000000 0.000000
    25 -0.160030 -0.121640 -0.113773 0.376727 0.078269 1.517032
    26 0.583509 -1.197273 0.185379 0.342070 -0.443530 -1.083970
    27 1.535926 0.010246 0.005009 -0.305425 0.000003 -0.401438
    28 1.100770 0.004528 -0.010675 0.000001 0.000000 -0.488706
    29 0.957766 -2.746777 -0.090301 -0.235619 0.000000 0.130900
    30 -0.033419 -1.397128 -0.011256 -0.898843 0.000000 0.000000
    31 -0.022361 -0.957433 0.018783 -1.169370 0.000000 0.000000
    32 0.250028 -2.820664 -0.238397 -0.936117 0.062985 -0.171289
    33 -0.049759 -1.680544 0.100479 -1.601846 0.000000 0.000000
    34 -0.034141 -1.148311 0.084779 -1.612035 0.000000 0.000000
    35 -0.488517 -2.755600 -0.228262 -1.058151 0.012241 -0.214631
    36 0.039888 -1.479791 0.029853 -1.466752 0.000000 0.000000
    37 0.028785 -1.075732 -0.023111 -1.465947 0.000000 0.000000
    38 -1.180679 -2.507216 -0.193862 -0.962469 0.156569 -0.277659
    39 -0.024967 -1.123934 0.017593 -1.202545 0.000000 0.000000
    40 -0.020059 -0.890965 0.010091 -1.476039 0.000000 0.000000
    41 0.067672 -0.055398 -0.080485 3.078851 -0.275352 -1.546385
  time 7
    0 8.930026 4.236701 -8.260237 -0.831857 -1.316341 0.626703
    1 -0.071918 -8.498731 -0.104136 0.365745 -0.231696 -0.255687
    2 -0.613442 -3.631383 1.002075 0.959369 1.722212 0.980679
    3 0.000000 2.160511 0.950625 0.000000 0.000000 0.000000
    4 0.000001 -3.344301 1.710279 0.000000 0.000000 0.000000
    5 0.000001 -4.793800 0.448359 0.000000 0.000000 0.000000
    6 0.000002 -6.345618 1.761434 0.000000 0.000000 0.000000
    7 0.000001 -5.765820 2.989245 0.000000 0.000000 0.000000
    8 -0.047686 -10.134029 -9.714509 -0.533982 0.493277 0.577572
    9 0.096946 -8.450419 -0.009364 0.367881 -0.529484 -0.027311
    10 -0.586769 -1.264477 0.200164 -0.128840 -0.181460 -2.421838
    11 1.522834 0.058679 0.016851 -0.155475 -0.052443 0.060068
    12 1.117948 0.048425 -0.005765 0.057544 0.004929 0.271595
    13 -0.963866 -2.785142 -0.085346 -0.619229 0.039901 -0.096824
    14 0.028478 -1.403067 0.006272 -0.705553 0.000000 0.000000
    15 0.021414 -0.957782 0.020048 -0.522170 0.000000 0.000000
    16 -0.249534 -2.846962 -0.174215 -0.624211 -0.029290 -0.025634
    17 0.043234 -1.683940 0.096015 -1.175496 0.000000 0.000000
    18 0.031729 -1.160831 0.058835 -0.884580 0.000000 0.000000
    19 0.447952 -2.798982 -0.200441 -0.985036 0.020326 -0.016362
    20 -0.032910 -1.480207 0.004935 -0.877476 0.000000 0.000000
    21 -0.027022 -1.076921 -0.020212 -0.733859 0.000000 0.000000
    22 1.164474 -2.543939 -0.170327 -1.046214 -0.027804 -0.008910
    23 0.024032 -1.129040 0.017805 -0.863938 0.000000 0.000000
    24 0.014897 -0.883991 -0.019845 -0.523599 0.000000 0.000000
    25 -0.160030 -0.121640 -0.113773 0.376727 0.078269 1.517032
    26 0.583509 -1.197273 0.185379 0.342070 -0.443530 -1.083970
    27 1.535926 0.010246 0.005009 -0.305425 0.000003 -0.401438
    28 1.100770 0.004528 -0.010675 0.000001 0.000000 -0.488706
    29 0.957766 -2.746777 -0.090301 -0.235619 0.000000 0.130900
    30 -0.033419 -1.397128 -0.011256 -0.818475 0.000000 0.000000
    31 -0.022361 -0.957433 0.018783 -1.085174 0.000000 0.000000
    32 0.250028 -2.820664 -0.238397 -0.936117 0.062985 -0.171289
    33 -0.049759 -1.680544 0.100479 -1.601846 0.000000 0.000000
    34 -0.034141 -1.148311 0.084779 -1.612035 0.000000 0.000000
    35 -0.488517 -2.755600 -0.228262 -1.058151 0.012241 -0.214631
    36 0.039888 -1.479791 0.029853 -1.466752 0.000000 0.000000
    37 0.028785 -1.075732 -0.023111 -1.465947 0.000000 0.000000
    38 -1.180679 -2.507216 -0.193862 -0.962469 0.156569 -0.277659
    39 -0.024967 -1.123934 0.017593 -1.202545 0.000000 0.000000
    40 -0.020059 -0.890965 0.010091 -1.476039 0.000000 0.000000
    41 0.067672 -0.055398 -0.080485 3.078851 -0.275352 -1.546385
  time 8
    0 8.930026 4.131229 -8.205547 -0.812362 -1.321355 0.606849
    1 -0.071918 -8.498731 -0.104136 0.362689 -0.235902 -0.243307
    2 -0.613442 -3.631383 1.002075 0.959369 1.722212 0.980679
    3 0.000000 2.160511 0.950625 0.000000 0.000000 0.000000
    4 0.000001 -3.344301 1.710279 -0.010762 0.000000 0.000000
    5 0.000001 -4.793800 0.448359 0.000000 0.000000 0.000000
    6 0.000002 -6.345618 1.761434 0.000000 0.000000 0.000000
    7 0.000001 -5.765820 2.989245 0.000000 0.000000 0.000000
    8 0.042160 -10.044183 -9.691071 -0.529384 0.483428 0.558227
    9 0.096946 -8.450419 -0.009364 0.347290 -0.521601 0.007294
    10 -0.586769 -1.264477 0.200164 -0.128840 -0.181460 -2.421838
    11 1.522834 0.058679 0.016851 -0.155475 -0.052443 0.060068
    12 1.117948 0.048425 -0.005765 0.057544 0.004929 0.271595
    13 -0.963866 -2.785142 -0.085346 -0.619229 0.039901 -0.096824
    14 0.028478 -1.403067 0.006272 -0.705553 0.000000 0.000000
    15 0.021414 -0.957782 0.020048 -0.522170 0.000000 0.000000
    16 -0.249534 -2.846962 -0.174215 -0.624211 -0.029290 -0.025634
    17 0.043234 -1.683940 0.096015 -1.175496 0.000000 0.000000
    18 0.031729 -1.160831 0.058835 -0.884580 0.000000 0.000000
    19 0.447952 -2.798982 -0.200441 -0.985036 0.020326 -0.016362
    20 -0.032910 -1.480207 0.004935 -0.877476 0.000000 0.000000
    21 -0.027022 -1.076921 -0.020212 -0.733859 0.000000 0.000000
    22 1.164474 -2.543939 -0.170327 -1.046214 -0.027804 -0.008910
    23 0.024032 -1.129040 0.017805 -0.863938 0.000000 0.000000
    24 0.014897 -0.883991 -0.019845 -0.523599 0.000000 0.000000
    25 -0.160030 -0.121640 -0.113773 0.376727 0.078269 1.517032
    26 0.583509 -1.197273 0.185379 0.342070 -0.443530 -1.083970
    27 1.535926 0.010246 0.005009 -0.305425 0.000003 -0.401438
    28 1.100770 0.004528 -0.010675 0.000001 0.000000 -0.488706
    29 0.957766 -2.746777 -0.090301 -0.235619 0.000000 0.130900
    30 -0.033419 -1.397128 -0.011256 -0.695710 0.000000 0.000000
    31 -0.022361 -0.957433 0.018783 -0.956563 0.000000 0.000000
    32 0.250028 -2.820664 -0.238397 -0.936117 0.062985 -0.171289
    33 -0.049759 -1.680544 0.100479 -1.601846 0.000000 0.000000
    34 -0.034141 -1.148311 0.084779 -1.612035 0.000000 0.000000
    35 -0.488517 -2.755600 -0.228262 -1.058151 0.012241 -0.214631
    36 0.039888 -1.479791 0.029853 -1.466752 0.000000 0.000000
    37 0.028785 -1.075732 -0.023111 -1.465947 0.000000 0.000000
    38 -1.180679 -2.507216 -0.193862 -0.962469 0.156569 -0.277659
    39 -0.024967 -1.123934 0.017593 -1.202545 0.000000 0.000000
    40 -0.020059 -0.890965 0.010091 -1.476039 0.000000 0.000000
    41 0.067672 -0.055398 -0.080485 3.078851 -0.275352 -1.546385
  time 9
    0 8.930026 4.037477 -8.166484 -0.798690 -1.324764 0.592884
    1 -0.071918 -8.498731 -0.104136 0.360951 -0.238323 -0.236272
    2 -0.613442 -3.631383 1.002075 0.959369 1.722212 0.980679
    3 0.000000 2.160511 0.950625 0.000000 0.000000 0.000000
    4 0.000001 -3.344301 1.710279 -0.016491 0.000000 0.000000
    5 0.000001 -4.793800 0.448359 0.000000 0.000000 0.000000
    6 0.000002 -6.345618 1.761434 0.000000 0.000000 0.000000
    7 0.000001 -5.765820 2.989245 0.000000 0.000000 0.000000
    8 0.065598 -10.048089 -9.694977 -0.531327 0.477621 0.546986
    9 0.096946 -8.450419 -0.009364 0.338410 -0.512961 0.027928
    10 -0.586769 -1.264477 0.200164 -0.128840 -0.181460 -2.421838
    11 1.522834 0.058679 0.016851 -0.155475 -0.052443 0.060068
    12 1.117948 0.048425 -0.005765 0.057544 0.004929 0.271595
    13 -0.963866 -2.785142 -0.085346 -0.619229 0.039901 -0.096824
    14 0.028478 -1.403067 0.006272 -0.705553 0.000000 0.000000
    15 0.021414 -0.957782 0.020048 -0.522170 0.000000 0.000000
    16 -0.249534 -2.846962 -0.174215 -0.624211 -0.029290 -0.025634
    17 0.043234 -1.683940 0.096015 -1.175496 0.000000 0.000000
    18 0.031729 -1.160831 0.058835 -0.884580 0.000000 0.000000
    19 0.447952 -2.798982 -0.200441 -0.985036 0.020326 -0.016362
    20 -0.032910 -1.480207 0.004935 -0.877476 0.000000 0.000000
    21 -0.027022 -1.076921 -0.020212 -0.733859 0.000000 0.000000
    22 1.164474 -2.543939 -0.170327 -1.046214 -0.027804 -0.008910
    23 0.024032 -1.129040 0.017805 -0.863938 0.000000 0.000000
    24 0.014897 -0.883991 -0.019845 -0.523599 0.000000 0.000000
    25 -0.160030 -0.121640 -0.113773 0.376727 0.078269 1.517032
    26 0.583509 -1.197273 0.185379 0.342070 -0.443530 -1.083970
    27 1.535926 0.010246 0.005009 -0.305425 0.000003 -0.401438
    28 1.100770 0.004528 -0.010675 0.000001 0.000000 -0.488706
    29 0.957766 -2.746777 -0.090301 -0.235619 0.000000 0.130900
    30 -0.033419 -1.397128 -0.011256 -0.558166 0.000000 0.000000
    31 -0.022361 -0.957433 0.018783 -0.812469 0.000000 0.000000
    32 0.250028 -2.820664 -0.238397 -0.936117 0.062985 -0.171289
    33 -0.049759 -1.680544 0.100479 -1.601846 0.000000 0.000000
    34 -0.034141 -1.148311 0.084779 -1.612035 0.000000 0.000000
    35 -0.488517 -2.755600 -0.228262 -1.058151 0.012241 -0.214631
    36 0.039888 -1.479791 0.029853 -1.466752 0.000000 0.000000
    37 0.028785 -1.075732 -0.023111 -1.465947 0.000000 0.000000
    38 -1.180679 -2.507216 -0.193862 -0.962469 0.156569 -0.277659
    39 -0.024967 -1.123934 0.017593 -1.202545 0.000000 0.000000
    40 -0.020059 -0.890965 0.010091 -1.476039 0.000000 0.000000
    41 0.067672 -0.055398 -0.080485 3.078851 -0.275352 -1.546385
  time 10
    0 8.930026 3.955443 -8.135233 -0.789989 -1.326925 0.583910
    1 -0.071918 -8.498731 -0.104136 0.359681 -0.240145 -0.231083
    2 -0.613442 -3.631383 1.002075 0.959369 1.722212 0.980679
    3 0.000000 2.160511 0.950625 0.000000 0.000000 0.000000
    4 0.000001 -3.344301 1.710279 -0.018169 0.000000 0.000000
    5 0.000001 -4.793800 0.448359 0.000000 0.000000 0.000000
    6 0.000002 -6.345618 1.761434 0.000000 0.000000 0.000000
    7 0.000001 -5.765820 2.989245 0.000000 0.000000 0.000000
    8 0.069505 -10.087153 -9.714509 -0.537156 0.472991 0.538446
    9 0.096946 -8.450419 -0.009364 0.334565 -0.502734 0.044179
    10 -0.586769 -1.264477 0.200164 -0.128840 -0.181460 -2.421838
    11 1.522834 0.058679 0.016851 -0.155475 -0.052443 0.060068
    12 1.117948 0.048425 -0.005765 0.057544 0.004929 0.271595
    13 -0.963866 -2.785142 -0.085346 -0.619229 0.039901 -0.096824
    14 0.028478 -1.403067 0.006272 -0.705553 0.000000 0.000000
    15 0.021414 -0.957782 0.020048 -0.522170 0.000000 0.000000
    16 -0.249534 -2.846962 -0.174215 -0.624211 -0.029290 -0.025634
    17 0.043234 -1.683940 0.096015 -1.175496 0.000000 0.000000
    18 0.031729 -1.160831 0.058835 -0.884580 0.000000 0.000000
    19 0.447952 -2.798982 -0.200441 -0.985036 0.020326 -0.016362
    20 -0.032910 -1.480207 0.004935 -0.877476 0.000000 0.000000
    21 -0.027022 -1.076921 -0.020212 -0.733859 0.000000 0.000000
    22 1.164474 -2.543939 -0.170327 -1.046214 -0.027804 -0.008910
    23 0.024032 -1.129040 0.017805 -0.863938 0.000000 0.000000
    24 0.014897 -0.883991 -0.019845 -0.523599 0.000000 0.000000
    25 -0.160030 -0.121640 -0.113773 0.376727 0.078269 1.517032
    26 0.583509 -1.197273 0.185379 0.342070 -0.443530 -1.083970
    27 1.535926 0.010246 0.005009 -0.305425 0.000003 -0.401438
    28 1.100770 0.004528 -0.010675 0.000001 0.000000 -0.488706
    29 0.957766 -2.746777 -0.090301 -0.235619 0.000000 0.130900
    30 -0.033419 -1.397128 -0.011256 -0.433424 0.000000 0.000000
    31 -0.022361 -0.957433 0.018783 -0.681787 0.000000 0.000000
    32 0.250028 -2.820664 -0.238397 -0.936117 0.062985 -0.171289
    33 -0.049759 -1.680544 0.100479 -1.601846 0.000000 0.000000
    34 -0.034141 -1.148311 0.084779 -1.612035 0.000000 0.000000
    35 -0.488517 -2.755600 -0.228262 -1.058151 0.012241 -0.214631
    36 0.039888 -1.479791 0.029853 -1.466752 0.000000 0.000000
    37 0.028785 -1.075732 -0.023111 -1.465947 0.000000 0.000000
    38 -1.180679 -2.507216 -0.193862 -0.962469 0.156569 -0.277659
    39 -0.024967 -1.123934 0.017593 -1.202545 0.000000 0.000000
    40 -0.020059 -0.890965 0.010091 -1.476039 0.000000 0.000000
    41 0.067672 -0.055398 -0.080485 3.078851 -0.275352 -1.546385
  time 11
    0 8.930026 3.892941 -8.115701 -0.785214 -1.328173 0.578918
    1 -0.071918 -8.498731 -0.104136 0.358770 -0.241511 -0.227296
    2 -0.613442 -3.631383 1.002075 0.959369 1.722212 0.980679
    3 0.000000 2.160511 0.950625 0.000000 0.000000 0.000000
    4 0.000001 -3.344301 1.710279 -0.016826 0.000000 0.000000
    5 0.000001 -4.793800 0.448359 0.000000 0.000000 0.000000
    6 0.000002 -6.345618 1.761434 0.000000 0.000000 0.000000
    7 0.000001 -5.765820 2.989245 0.000000 0.000000 0.000000
    8 0.073411 -10.118404 -9.753573 -0.546029 0.469316 0.531997
    9 0.096946 -8.450419 -0.009364 0.334584 -0.491405 0.057065
    10 -0.586769 -1.264477 0.200164 -0.128840 -0.181460 -2.421838
    11 1.522834 0.058679 0.016851 -0.155475 -0.052443 0.060068
    12 1.117948 0.048425 -0.005765 0.057544 0.004929 0.271595
    13 -0.963866 -2.785142 -0.085346 -0.619229 0.039901 -0.096824
    14 0.028478 -1.403067 0.006272 -0.705553 0.000000 0.000000
    15 0.021414 -0.957782 0.020048 -0.522170 0.000000 0.000000
    16 -0.249534 -2.846962 -0.174215 -0.624211 -0.029290 -0.025634
    17 0.043234 -1.683940 0.096015 -1.175496 0.000000 0.000000
    18 0.031729 -1.160831 0.058835 -0.884580 0.000000 0.000000
    19 0.447952 -2.798982 -0.200441 -0.985036 0.020326 -0.016362
    20 -0.032910 -1.480207 0.004935 -0.877476 0.000000 0.000000
    21 -0.027022 -1.076921 -0.020212 -0.733859 0.000000 0.000000
    22 1.164474 -2.543939 -0.170327 -1.046214 -0.027804 -0.008910
    23 0.024032 -1.129040 0.017805 -0.863938 0.000000 0.000000
    24 0.014897 -0.883991 -0.019845 -0.523599 0.000000 0.000000
    25 -0.160030 -0.121640 -0.113773 0.376727 0.078269 1.517032
    26 0.583509 -1.197273 0.185379 0.342070 -0.443530 -1.083970
    27 1.535926 0.010246 0.005009 -0.305425 0.000003 -0.401438
    28 1.100770 0.004528 -0.010675 0.000001 0.000000 -0.488706
    29 0.957766 -2.746777 -0.090301 -0.235619 0.000000 0.130900
    30 -0.033419 -1.397128 -0.011256 -0.349066 0.000000 0.000000
    31 -0.022361 -0.957433 0.018783 -0.593412 0.000000 0.000000
    32 0.250028 -2.820664 -0.238397 -0.936117 0.062985 -0.171289
    33 -0.049759 -1.680544 0.100479 -1.601846 0.000000 0.000000
    34 -0.034141 -1.148311 0.084779 -1.612035 0.000000 0.000000
    35 -0.488517 -2.755600 -0.228262 -1.058151 0.012241 -0.214631
    36 0.039888 -1.479791 0.029853 -1.466752 0.000000 0.000000
    37 0.028785 -1.075732 -0.023111 -1.465947 0.000000 0.000000
    38 -1.180679 -2.507216 -0.193862 -0.962469 0.156569 -0.277659
    39 -0.024967 -1.123934 0.017593 -1.202545 0.000000 0.000000
    40 -0.020059 -0.890965 0.010091 -1.476039 0.000000 0.000000
    41 0.067672 -0.055398 -0.080485 3.078851 -0.275352 -1.546385
  time 12
    0 8.930026 3.838252 -8.107888 -0.782990 -1.328819 0.576619
    1 -0.071918 -8.498731 -0.104136 0.358123 -0.242566 -0.224503
    2 -0.613442 -3.631383 1.002075 0.959369 1.722212 0.980679
    3 0.000000 2.160511 0.950625 0.000000 0.000000 0.000000
    4 0.000001 -3.344301 1.710279 -0.013459 0.000000 0.000000
    5 0.000001 -4.793800 0.448359 0.000000 0.000000 0.000000
    6 0.000002 -6.345618 1.761434 0.000000 0.000000 0.000000
    7 0.000001 -5.765820 2.989245 0.000000 0.000000 0.000000
    8 0.077317 -10.157467 -9.812168 -0.556974 0.466229 0.527118
    9 0.096946 -8.450419 -0.009364 0.337317 -0.479340 0.067647
    10 -0.586769 -1.264477 0.200164 -0.128840 -0.181460 -2.421838
    11 1.522834 0.058679 0.016851 -0.155475 -0.052443 0.060068
    12 1.117948 0.048425 -0.005765 0.057544 0.004929 0.271595
    13 -0.963866 -2.785142 -0.085346 -0.619229 0.039901 -0.096824
    14 0.028478 -1.403067 0.006272 -0.705553 0.000000 0.000000
    15 0.021414 -0.957782 0.020048 -0.522170 0.000000 0.000000
    16 -0.249534 -2.846962 -0.174215 -0.624211 -0.029290 -0.025634
    17 0.043234 -1.683940 0.096015 -1.175496 0.000000 0.000000
    18 0.031729 -1.160831 0.058835 -0.884580 0.000000 0.000000
    19 0.447952 -2.798982 -0.200441 -0.985036 0.020326 -0.016362
    20 -0.032910 -1.480207 0.004935 -0.877476 0.000000 0.000000
    21 -0.027022 -1.076921 -0.020212 -0.733859 0.000000 0.000000
    22 1.164474 -2.543939 -0.170327 -1.046214 -0.027804 -0.008910
    23 0.024032 -1.129040 0.017805 -0.863938 0.000000 0.000000
    24 0.014897 -0.883991 -0.019845 -0.523599 0.000000 0.000000
    25 -0.160030 -0.121640 -0.113773 0.376727 0.078269 1.517032
    26 0.583509 -1.197273 0.185379 0.342070 -0.443530 -1.083970
    27 1.535926 0.010246 0.005009 -0.305425 0.000003 -0.401438
    28 1.100770 0.004528 -0.010675 0.000001 0.000000 -0.488706
    29 0.957766 -2.746777 -0.090301 -0.235619 0.000000 0.130900
    30 -0.033419 -1.397128 -0.011256 -0.313887 0.000000 0.000000
    31 -0.022361 -0.957433 0.018783 -0.556557 0.000000 0.000000
    32 0.250028 -2.820664 -0.238397 -0.936117 0.062985 -0.171289
    33 -0.049759 -1.680544 0.100479 -1.601846 0.000000 0.000000
    34 -0.034141 -1.148311 0.084779 -1.612035 0.000000 0.000000
    35 -0.488517 -2.755600 -0.228262 -1.058151 0.012241 -0.214631
    36 0.039888 -1.479791 0.029853 -1.466752 0.000000 0.000000
    37 0.028785 -1.075732 -0.023111 -1.465947 0.000000 0.000000
    38 -1.180679 -2.507216 -0.193862 -0.962469 0.156569 -0.277659
    39 -0.024967 -1.123934 0.017593 -1.202545 0.000000 0.000000
    40 -0.020059 -0.890965 0.010091 -1.476039 0.000000 0.000000
    41 0.067672 -0.055398 -0.080485 3.078851 -0.275352 -1.546385
  time 13
    0 8.930026 3.803094 -8.115701 -0.782205 -1.329175 0.575665
    1 -0.071918 -8.498731 -0.104136 0.357620 -0.243441 -0.222274
    2 -0.613442 -3.631383 1.002075 0.959369 1.722212 0.980679
    3 0.000000 2.160511 0.950625 0.000000 0.000000 0.000000
    4 0.000001 -3.344301 1.710279 -0.009084 0.000000 0.000000
    5 0.000001 -4.793800 0.448359 0.000000 0.000000 0.000000
    6 0.000002 -6.345618 1.761434 0.000000 0.000000 0.000000
    7 0.000001 -5.765820 2.989245 0.000000 0.000000 0.000000
    8 0.073411 -10.208250 -9.886389 -0.569085 0.463509 0.523109
    9 0.096946 -8.450419 -0.009364 0.341611 -0.466885 0.076924
    10 -0.586769 -1.264477 0.200164 -0.128840 -0.181460 -2.421838
    11 1.522834 0.058679 0.016851 -0.155475 -0.052443 0.060068
    12 1.117948 0.048425 -0.005765 0.057544 0.004929 0.271595
    13 -0.963866 -2.785142 -0.085346 -0.619229 0.039901 -0.096824
    14 0.028478 -1.403067 0.006272 -0.705553 0.000000 0.000000
    15 0.021414 -0.957782 0.020048 -0.522170 0.000000 0.000000
    16 -0.249534 -2.846962 -0.174215 -0.624211 -0.029290 -0.025634
    17 0.043234 -1.683940 0.096015 -1.175496 0.000000 0.000000
    18 0.031729 -1.160831 0.058835 -0.884580 0.000000 0.000000
    19 0.447952 -2.798982 -0.200441 -0.985036 0.020326 -0.016362
    20 -0.032910 -1.480207 0.004935 -0.877476 0.000000 0.000000
    21 -0.027022 -1.076921 -0.020212 -0.733859 0.000000 0.000000
    22 1.164474 -2.543939 -0.170327 -1.046214 -0.027804 -0.008910
    23 0.024032 -1.129040 0.017805 -0.863938 0.000000 0.000000
    24 0.014897 -0.883991 -0.019845 -0.523599 0.000000 0.000000
    25 -0.160030 -0.121640 -0.113773 0.376727 0.078269 1.517032
    26 0.583509 -1.197273 0.185379 0.342070 -0.443530 -1.083970
    27 1.535926 0.010246 0.005009 -0.305425 0.000003 -0.401438
    28 1.100770 0.004528 -0.010675 0.000001 0.000000 -0.488706
    29 0.957766 -2.746777 -0.090301 -0.235619 0.000000 0.130900
    30 -0.033419 -1.397128 -0.011256 -0.309498 0.000000 0.000000
    31 -0.022361 -0.957433 0.018783 -0.551960 0.000000 0.000000
    32 0.250028 -2.820664 -0.238397 -0.936117 0.062985 -0.171289
    33 -0.049759 -1.680544 0.100479 -1.601846 0.000000 0.000000
    34 -0.034141 -1.148311 0.084779 -1.612035 0.000000 0.000000
    35 -0.488517 -2.755600 -0.228262 -1.058151 0.012241 -0.214631
    36 0.039888 -1.479791 0.029853 -1.466752 0.000000 0.000000
    37 0.028785 -1.075732 -0.023111 -1.465947 0.000000 0.000000
    38 -1.180679 -2.507216 -0.193862 -0.962469 0.156569 -0.277659
    39 -0.024967 -1.123934 0.017593 -1.202545 0.000000 0.000000
    40 -0.020059 -0.890965 0.010091 -1.476039 0.000000 0.000000
    41 0.067672 -0.055398 -0.080485 3.078851 -0.275352 -1.546385
  time 14
    0 8.930026 3.775750 -8.131326 -0.781354 -1.329509 0.574768
    1 -0.071918 -8.498731 -0.104136 0.357152 -0.244268 -0.220189
    2 -0.613442 -3.631383 1.002075 0.959369 1.722212 0.980679
    3 0.000000 2.160511 0.950625 0.000000 0.000000 0.000000
    4 0.000001 -3.344301 1.710279 -0.004710 0.000000 0.000000
    5 0.000001 -4.793800 0.448359 0.000000 0.000000 0.000000
    6 0.000002 -6.345618 1.761434 0.000000 0.000000 0.000000
    7 0.000001 -5.765820 2.989245 0.000000 0.000000 0.000000
    8 0.065598 -10.262939 -9.980142 -0.581520 0.460863 0.519275
    9 0.096946 -8.450419 -0.009364 0.346354 -0.454361 0.085913
    10 -0.586769 -1.264477 0.200164 -0.128840 -0.181460 -2.421838
    11 1.522834 0.058679 0.016851 -0.155475 -0.052443 0.060068
    12 1.117948 0.048425 -0.005765 0.057544 0.004929 0.271595
    13 -0.963866 -2.785142 -0.085346 -0.619229 0.039901 -0.096824
    14 0.028478 -1.403067 0.006272 -0.705553 0.000000 0.000000
    15 0.021414 -0.957782 0.020048 -0.522170 0.000000 0.000000
    16 -0.249534 -2.846962 -0.174215 -0.624211 -0.029290 -0.025634
    17 0.043234 -1.683940 0.096015 -1.175496 0.000000 0.000000
    18 0.031729 -1.160831 0.058835 -0.884580 0.000000 0.000000
    19 0.447952 -2.798982 -0.200441 -0.985036 0.020326 -0.016362
    20 -0.032910 -1.480207 0.004935 -0.877476 0.000000 0.000000
    21 -0.027022 -1.076921 -0.020212 -0.733859 0.000000 0.000000
    22 1.164474 -2.543939 -0.170327 -1.046214 -0.027804 -0.008910
    23 0.024032 -1.129040 0.017805 -0.863938 0.000000 0.000000
    24 0.014897 -0.883991 -0.019845 -0.523599 0.000000 0.000000
    25 -0.160030 -0.121640 -0.113773 0.376727 0.078269 1.517032
    26 0.583509 -1.197273 0.185379 0.342070 -0.443530 -1.083970
    27 1.535926 0.010246 0.005009 -0.305425 0.000003 -0.401438
    28 1.100770 0.004528 -0.010675 0.000001 0.000000 -0.488706
    29 0.957766 -2.746777 -0.090301 -0.235619 0.000000 0.130900
    30 -0.033419 -1.397128 -0.011256 -0.322681 0.000000 0.000000
    31 -0.022361 -0.957433 0.018783 -0.565771 0.000000 0.000000
    32 0.250028 -2.820664 -0.238397 -0.936117 0.062985 -0.171289
    33 -0.049759 -1.680544 0.100479 -1.601846 0.000000 0.000000
    34 -0.034141 -1.148311 0.084779 -1.612035 0.000000 0.000000
    35 -0.488517 -2.755600 -0.228262 -1.058151 0.012241 -0.214631
    36 0.039888 -1.479791 0.029853 -1.466752 0.000000 0.000000
    37 0.028785 -1.075732 -0.023111 -1.465947 0.000000 0.000000
    38 -1.180679 -2.507216 -0.193862 -0.962469 0.156569 -0.277659
    39 -0.024967 -1.123934 0.017593 -1.202545 0.000000 0.000000
    40 -0.020059 -0.890965 0.010091 -1.476039 0.000000 0.000000
    41 0.067672 -0.055398 -0.080485 3.078851 -0.275352 -1.546385
  time 15
    0 8.930026 3.767937 -8.162577 -0.779195 -1.330156 0.572413
    1 -0.071918 -8.498731 -0.104136 0.356601 -0.245190 -0.217828
    2 -0.613442 -3.631383 1.002075 0.959369 1.722212 0.980679
    3 0.000000 2.160511 0.950625 0.000000 0.000000 0.000000
    4 0.000001 -3.344301 1.710279 -0.001342 0.000000 0.000000
    5 0.000001 -4.793800 0.448359 0.000000 0.000000 0.000000
    6 0.000002 -6.345618 1.761434 0.000000 0.000000 0.000000
    7 0.000001 -5.765820 2.989245 0.000000 0.000000 0.000000
    8 0.053879 -10.325441 -10.089520 -0.593307 0.457923 0.515092
    9 0.096946 -8.450419 -0.009364 0.350491 -0.442089 0.095522
    10 -0.586769 -1.264477 0.200164 -0.128840 -0.181460 -2.421838
    11 1.522834 0.058679 0.016851 -0.155475 -0.052443 0.060068
    12 1.117948 0.048425 -0.005765 0.057544 0.004929 0.271595
    13 -0.963866 -2.785142 -0.085346 -0.619229 0.039901 -0.096824
    14 0.028478 -1.403067 0.006272 -0.705553 0.000000 0.000000
    15 0.021414 -0.957782 0.020048 -0.522170 0.000000 0.000000
    16 -0.249534 -2.846962 -0.174215 -0.624211 -0.029290 -0.025634
    17 0.043234 -1.683940 0.096015 -1.175496 0.000000 0.000000
    18 0.031729 -1.160831 0.058835 -0.884580 0.000000 0.000000
    19 0.447952 -2.798982 -0.200441 -0.985036 0.020326 -0.016362
    20 -0.032910 -1.480207 0.004935 -0.877476 0.000000 0.000000
    21 -0.027022 -1.076921 -0.020212 -0.733859 0.000000 0.000000
    22 1.164474 -2.543939 -0.170327 -1.046214 -0.027804 -0.008910
    23 0.024032 -1.129040 0.017805 -0.863938 0.000000 0.000000
    24 0.014897 -0.883991 -0.019845 -0.523599 0.000000 0.000000
    25 -0.160030 -0.121640 -0.113773 0.376727 0.078269 1.517032
    26 0.583509 -1.197273 0.185379 0.342070 -0.443530 -1.083970
    27 1.535926 0.010246 0.005009 -0.305425 0.000003 -0.401438
    28 1.100770 0.004528 -0.010675 0.000001 0.000000 -0.488706
    29 0.957766 -2.746777 -0.090301 -0.235619 0.000000 0.130900
    30 -0.033419 -1.397128 -0.011256 -0.340271 0.000000 0.000000
    31 -0.022361 -0.957433 0.018783 -0.584198 0.000000 0.000000
    32 0.250028 -2.820664 -0.238397 -0.936117 0.062985 -0.171289
    33 -0.049759 -1.680544 0.100479 -1.601846 0.000000 0.000000
    34 -0.034141 -1.148311 0.084779 -1.612035 0.000000 0.000000
    35 -0.488517 -2.755600 -0.228262 -1.058151 0.012241 -0.214631
    36 0.039888 -1.479791 0.029853 -1.466752 0.000000 0.000000
    37 0.028785 -1.075732 -0.023111 -1.465947 0.000000 0.000000
    38 -1.180679 -2.507216 -0.193862 -0.962469 0.156569 -0.277659
    39 -0.024967 -1.123934 0.017593 -1.202545 0.000000 0.000000
    40 -0.020059 -0.890965 0.010091 -1.476039 0.000000 0.000000
    41 0.067672 -0.055398 -0.080485 3.078851 -0.275352 -1.546385
  time 16
    0 8.930026 3.771843 -8.201641 -0.774289 -1.331381 0.567309
    1 -0.071918 -8.498731 -0.104136 0.355870 -0.246317 -0.214748
    2 -0.613442 -3.631383 1.002075 0.959369 1.722212 0.980679
    3 0.000000 2.160511 0.950625 0.000000 0.000000 0.000000
    4 0.000001 -3.344301 1.710279 0.000000 0.000000 0.000000
    5 0.000001 -4.793800 0.448359 0.000000 0.000000 0.000000
    6 0.000002 -6.345618 1.761434 0.000000 0.000000 0.000000
    7 0.000001 -5.765820 2.989245 0.000000 0.000000 0.000000
    8 0.038254 -10.395756 -10.214524 -0.603475 0.454542 0.509951
    9 0.096946 -8.450419 -0.009364 0.352970 -0.430369 0.106636
    10 -0.586769 -1.264477 0.200164 -0.128840 -0.181460 -2.421838
    11 1.522834 0.058679 0.016851 -0.155475 -0.052443 0.060068
    12 1.117948 0.048425 -0.005765 0.057544 0.004929 0.271595
    13 -0.963866 -2.785142 -0.085346 -0.619229 0.039901 -0.096824
    14 0.028478 -1.403067 0.006272 -0.705553 0.000000 0.000000
    15 0.021414 -0.957782 0.020048 -0.522170 0.000000 0.000000
    16 -0.249534 -2.846962 -0.174215 -0.624211 -0.029290 -0.025634
    17 0.043234 -1.683940 0.096015 -1.175496 0.000000 0.000000
    18 0.031729 -1.160831 0.058835 -0.884580 0.000000 0.000000
    19 0.447952 -2.798982 -0.200441 -0.985036 0.020326 -0.016362
    20 -0.032910 -1.480207 0.004935 -0.877476 0.000000 0.000000
    21 -0.027022 -1.076921 -0.020212 -0.733859 0.000000 0.000000
    22 1.164474 -2.543939 -0.170327 -1.046214 -0.027804 -0.008910
    23 0.024032 -1.129040 0.017805 -0.863938 0.000000 0.000000
    24 0.014897 -0.883991 -0.019845 -0.523599 0.000000 0.000000
    25 -0.160030 -0.121640 -0.113773 0.376727 0.078269 1.517032
    26 0.583509 -1.197273 0.185379 0.342070 -0.443530 -1.083970
    27 1.535926 0.010246 0.005009 -0.305425 0.000003 -0.401438
    28 1.100770 0.004528 -0.010675 0.000001 0.000000 -0.488706
    29 0.957766 -2.746777 -0.090301 -0.235619 0.000000 0.130900
    30 -0.033419 -1.397128 -0.011256 -0.349066 0.000000 0.000000
    31 -0.022361 -0.957433 0.018783 -0.593412 0.000000 0.000000
    32 0.250028 -2.820664 -0.238397 -0.936117 0.062985 -0.171289
    33 -0.049759 -1.680544 0.100479 -1.601846 0.000000 0.000000
    34 -0.034141 -1.148311 0.084779 -1.612035 0.000000 0.000000
    35 -0.488517 -2.755600 -0.228262 -1.058151 0.012241 -0.214631
    36 0.039888 -1.479791 0.029853 -1.466752 0.000000 0.000000
    37 0.028785 -1.075732 -0.023111 -1.465947 0.000000 0.000000
    38 -1.180679 -2.507216 -0.193862 -0.962469 0.156569 -0.277659
    39 -0.024967 -1.123934 0.017593 -1.202545 0.000000 0.000000
    40 -0.020059 -0.890965 0.010091 -1.476039 0.000000 0.000000
    41 0.067672 -0.055398 -0.080485 3.078851 -0.275352 -1.546385
end
