// Created by Crowbar 0.62

$modelname "weapons/tfa_cso/c_cartred.mdl"

$Include "csonline_gmod.qci"

$bodygroup "weapon"
{
	studio "v_cartred_cso_bazzi_ref"
}

$CDMaterials "models\weapons\tfa_cso\cartred\"

$attachment 0 "romi_bazzi_01" -0.049 -2.3 0.25 rotate 0 -90 0
//$attachment 1 "romi_bazzi_ROOT" 0 0 0
//$attachment 2 "romi_bazzi_ROOT" 0.049 -16.379999 2.966

$definebone "Bone01" "" 9.193957 1.281701 -10.628434 -69.013209 101.125316 -113.805447 0.000000 0.000000 0.000000 -0.000001 0.000001 0.000001
$definebone "Bone_Lefthand" "Bone01" -0.071917 -8.498734 -0.104136 14.909106 -18.933565 2.071644 0.000000 0.000000 0.000000 -0.000002 -0.000000 0.000000
$definebone "romi_bazzi_ROOT" "Bone_Lefthand" 0.205681 -2.342138 0.940567 78.623961 54.687457 54.314730 0.000000 0.000000 0.000000 0.000002 0.000000 0.000002
$definebone "romi_bazzi_25" "romi_bazzi_ROOT" 0.000000 -4.215567 1.515048 0.000002 0.000000 0.000002 0.000000 0.000000 -0.000000 0.000002 0.000000 0.000002
$definebone "romi_bazzi_17" "romi_bazzi_ROOT" 0.000000 -2.341781 1.586088 0.000002 0.000000 0.000002 0.000000 0.000000 0.000000 0.000002 0.000000 0.000002
$definebone "romi_bazzi_magazine" "romi_bazzi_ROOT" -0.000000 -5.532161 -0.621211 0.000002 0.000000 0.000002 0.000000 0.000000 0.000001 0.000002 0.000000 0.000002
$definebone "romi_bazzi_DummyRoot" "romi_bazzi_ROOT" -0.000000 -0.521800 2.805769 0.000002 0.000000 0.000002 0.000000 0.000000 0.000000 0.000002 0.000000 0.000002
$definebone "romi_bazzi_19" "romi_bazzi_DummyRoot" -0.023269 -3.431372 -0.227809 0.000002 0.000000 0.000002 0.000000 0.000000 0.000000 0.000002 0.000000 0.000002
$definebone "romi_bazzi_20" "romi_bazzi_DummyRoot" 0.208742 -3.431373 -0.227809 0.000002 0.000000 0.000002 0.000000 0.000000 0.000000 0.000002 0.000000 0.000002
$definebone "romi_bazzi_16" "romi_bazzi_DummyRoot" 0.000000 -4.138266 1.366609 0.000002 0.000000 -44.999992 0.000000 0.000000 0.000000 0.000001 0.000002 0.000003
$definebone "romi_bazzi_barrel" "romi_bazzi_DummyRoot" 0.000001 -5.700840 -0.482988 0.000002 0.000000 0.000002 0.000000 0.000000 0.000000 0.000002 0.000000 0.000002
$definebone "romi_bazzi_01" "romi_bazzi_barrel" 0.000000 -1.383377 0.000000 0.000002 0.000000 0.000002 0.000000 0.000000 0.000000 0.000002 0.000000 0.000002
$definebone "romi_bazzi_handle_dummy" "romi_bazzi_01" 0.000000 2.828102 0.630577 0.000002 0.000000 -40.000013 0.000000 -0.000000 -0.000001 0.000001 0.000002 0.000002
$definebone "romi_bazzi_08" "romi_bazzi_handle_dummy" -0.000000 -0.000004 1.974607 0.000001 0.000002 0.000002 0.000000 -0.000000 0.000001 0.000001 0.000002 0.000002
$definebone "romi_bazzi_21" "romi_bazzi_DummyRoot" 0.039126 1.678652 -0.204922 0.000002 0.000000 0.000002 0.000000 0.000000 0.000000 0.000002 0.000000 0.000002
$definebone "romi_bazzi_23" "romi_bazzi_21" 0.000000 1.876654 -0.001939 0.000002 0.000000 0.000002 0.000000 0.000000 0.000000 0.000002 0.000000 0.000002
$definebone "romi_bazzi_22" "romi_bazzi_21" 0.000000 1.591528 1.280988 0.000002 0.000000 0.000002 0.000000 0.000000 0.000000 0.000002 0.000000 0.000002
$definebone "romi_bazzi_04" "romi_bazzi_DummyRoot" 0.000000 2.708984 2.400939 0.000002 0.000000 27.452988 0.000000 0.000000 0.000000 0.000002 -0.000001 -0.000002
$definebone "Romi_RED_BIOPelvis" "romi_bazzi_DummyRoot" 0.008336 0.169230 1.076291 -89.999983 -179.999857 0.000000 0.000000 0.000000 0.000000 0.000002 -0.000002 -0.000000
$definebone "Romi_RED_BIOSpine" "Romi_RED_BIOPelvis" 0.408894 -0.180172 0.000000 -0.000055 -5.640371 -0.000230 0.000000 0.000000 0.000000 0.000002 -0.000003 -0.000001
$definebone "Romi_RED_BIOR UpperArm" "Romi_RED_BIOSpine" 0.868804 -0.017805 -0.699901 14.023140 131.879015 -28.664908 0.000000 0.000000 0.000000 -0.000000 -0.000000 -0.000002
$definebone "Romi_RED_BIOR Forearm" "Romi_RED_BIOR UpperArm" 0.870825 -0.000001 0.000000 0.000000 -28.239829 -0.000002 0.000000 0.000000 0.000000 0.000000 -0.000002 -0.000002
$definebone "Romi_RED_BIOL UpperArm" "Romi_RED_BIOSpine" 0.868807 -0.017811 0.699904 -14.023374 131.879125 28.664682 -0.000001 0.000000 0.000000 -0.000006 -0.000005 0.000009
$definebone "Romi_RED_BIOL Forearm" "Romi_RED_BIOL UpperArm" 0.870828 -0.000000 0.000000 -0.000001 -28.239826 0.000012 0.000000 0.000000 0.000000 -0.000001 0.000001 0.000012
$definebone "Romi_RED_BIOHead" "Romi_RED_BIOSpine" 1.533349 -0.110794 0.000002 -89.999983 -174.356563 0.000000 0.000000 0.000000 0.000000 0.000002 0.000000 0.000002
$definebone "romi_bazzi_R_ring" "Romi_RED_BIOHead" -1.180962 -0.243396 0.297932 19.999986 -180.000007 179.983382 0.000000 0.000000 0.000000 0.000003 -0.000001 -0.000002
$definebone "romi_bazzi_14" "romi_bazzi_R_ring" -0.728785 0.000034 -1.291341 -19.999993 180.000007 -180.000007 0.000000 0.000000 0.000000 0.000000 0.000000 0.000002
$definebone "romi_bazzi_13" "romi_bazzi_14" 0.620736 0.244402 -0.432998 0.000000 0.000000 0.000002 0.000000 0.000000 0.000000 0.000000 0.000000 0.000002
$definebone "romi_bazzi_02" "Romi_RED_BIOHead" 1.206620 -0.243395 0.297466 -20.000044 180.000007 -179.996852 0.000000 0.000000 0.000000 -0.000002 0.000000 -0.000002
$definebone "romi_bazzi_11" "romi_bazzi_02" 0.721537 -0.000072 -1.290879 19.999989 180.000007 -180.000007 0.000000 0.000000 0.000000 0.000002 0.000000 0.000002
$definebone "romi_bazzi_12" "romi_bazzi_11" -0.652888 0.244474 -0.428729 0.000002 0.000000 0.000002 0.000000 0.000000 0.000000 0.000002 0.000000 0.000002
$definebone "romi_bazzi_B_Rotate" "Romi_RED_BIOHead" 0.033472 -0.155557 0.563323 0.000002 0.000000 -44.817796 0.000000 0.000000 0.000000 0.000001 0.000002 0.000005
$definebone "romi_bazzi_10" "romi_bazzi_B_Rotate" -0.002686 -0.675740 -0.385383 0.000001 0.000002 0.002239 0.000000 0.000000 0.000000 0.000001 0.000002 0.000005
$definebone "romi_bazzi_06" "romi_bazzi_10" -0.000000 0.171926 0.000000 0.000001 0.000002 0.000005 -0.000000 0.000000 0.000000 0.000001 0.000002 0.000005
$definebone "Romi_RED_BIOR Thigh" "Romi_RED_BIOPelvis" 0.000003 0.000000 -0.537490 0.000091 98.099474 179.999952 0.000000 0.000000 0.000000 -0.000000 -0.000001 0.000002
$definebone "Romi_RED_BIOR Foot" "Romi_RED_BIOR Thigh" 1.488565 -0.062166 0.000000 -0.000000 1.069481 0.000059 0.000000 0.000000 0.000000 -0.000000 -0.000001 0.000002
$definebone "Romi_RED_BIOL Thigh" "Romi_RED_BIOPelvis" 0.000000 0.000000 0.537889 0.000091 98.099474 179.999952 0.000000 0.000000 0.000000 -0.000000 -0.000001 0.000002
$definebone "Romi_RED_BIOL Foot" "Romi_RED_BIOL Thigh" 1.488566 -0.062165 -0.000002 -0.000000 1.069481 0.000059 0.000000 0.000000 0.000000 -0.000000 -0.000001 0.000002
$definebone "romi_bazzi_03" "romi_bazzi_ROOT" 0.000000 -3.862866 2.592259 0.000002 0.000000 0.000002 0.000000 0.000000 -0.000000 0.000002 0.000000 0.000002
$definebone "romi_bazzi_18" "romi_bazzi_ROOT" -0.000000 0.088305 2.588038 0.000002 0.000000 0.000002 0.000000 0.000000 0.000000 0.000002 0.000000 0.000002

$sequence "cso_bazzi_mg_idle" {
	"v_cartred_anims\cso_bazzi_mg_idle"
	fps 8
	activity "ACT_VM_IDLE" 1
	snap
	loop
}
$sequence "cso_bazzi_mg_reload" {
	"v_cartred_anims\cso_bazzi_mg_reload"
	{ event 5004 12 "CartRed.ClipOut" }
	{ event 5004 69 "CartRed.ClipIn" }
	fps 30
	activity "ACT_VM_RELOAD" 1
	snap
}
$sequence "cso_bazzi_mg_draw" {
	"v_cartred_anims\cso_bazzi_mg_draw"
	fps 30
	activity "ACT_VM_DRAW" 1
	snap
}
$sequence "cso_bazzi_mg_Shoot1" {
	"v_cartred_anims\cso_bazzi_mg_Shoot1"
	{ event 5001 1 "12" }
	fps 30
	activity "ACT_VM_PRIMARYATTACK" 1
	snap
}
$sequence "cso_bazzi_mg_Shoot2" {
	"v_cartred_anims\cso_bazzi_mg_Shoot2"
	{ event 5001 1 "12" }
	fps 30
	activity "ACT_VM_PRIMARYATTACK" 1
	snap
}
$sequence "cso_bazzi_mg_Shoot3" {
	"v_cartred_anims\cso_bazzi_mg_Shoot3"
	{ event 5001 1 "12" }
	fps 30
	activity "ACT_VM_PRIMARYATTACK" 1
	snap
}
$sequence "change_bazzi_mg" {
	"v_cartred_anims\change_bazzi_mg"
	{ event 5004 15 "CartRed.Foley5" }
	{ event 5004 52 "CartRed.HeadClose" }
	fps 30
	activity "ACT_VM_DETACH_SILENCER" 1
	snap
}
$sequence "cso_bazzi_rifle_idle" {
	"v_cartred_anims\cso_bazzi_rifle_idle"
	fps 30
	activity "ACT_VM_IDLE_SILENCED" 1
	snap
	loop
}
$sequence "cso_bazzi_rifle_reload" {
	"v_cartred_anims\cso_bazzi_rifle_reload"
	{ event 5004 8 "CartRed.ClipOut" }
	{ event 5004 73 "CartRed.ClipIn" }
	fps 30
	activity "ACT_VM_RELOAD_SILENCED" 1
	snap
}
$sequence "cso_bazzi_rifle_draw" {
	"v_cartred_anims\cso_bazzi_rifle_draw"
	fps 30
	activity "ACT_VM_DRAW_SILENCED" 1
	snap
}
$sequence "cso_bazzi_rifle_Shoot1" {
	"v_cartred_anims\cso_bazzi_rifle_Shoot1"
	{ event 5021 1 "23" }
	fps 30
	activity "ACT_VM_PRIMARYATTACK_SILENCED" 1
	snap
}
$sequence "cso_bazzi_rifle_Shoot2" {
	"v_cartred_anims\cso_bazzi_rifle_Shoot2"
	{ event 5021 1 "23" }
	fps 30
	activity "ACT_VM_PRIMARYATTACK_SILENCED" 1
	snap
}
$sequence "cso_bazzi_rifle_Shoot3" {
	"v_cartred_anims\cso_bazzi_rifle_Shoot3"
	{ event 5021 1 "23" }
	fps 30
	activity "ACT_VM_PRIMARYATTACK_SILENCED" 1
	snap
}
$sequence "change_bazzi_rifle" {
	"v_cartred_anims\change_bazzi_rifle"
	{ event 5004 12 "CartRed.Foley5" }
	{ event 5004 52 "CartRed.HeadOpen" }
	fps 30
	activity "ACT_VM_ATTACH_SILENCER" 1
	snap
}
