version 1
nodes
  0 "Bone01" -1
  1 "Bone_Lefthand" 0
  2 "Bone02" 1
  3 "Bone03" 2
  4 "Bone52" 3
  5 "Bone48" 3
  6 "Bone25" 3
  7 "Bone50" 3
  8 "Bone54" 3
  9 "Bone 04" 1
  10 "Bone13" 9
  11 "Bone14" 10
  12 "Bone15" 11
  13 "Bone17" 9
  14 "Bone18" 13
  15 "Bone19" 14
  16 "Bone21" 9
  17 "Bone22" 16
  18 "Bone23" 17
  19 "Bone05" 9
  20 "Bone06" 19
  21 "Bone07" 20
  22 "Bone09" 9
  23 "Bone10" 22
  24 "Bone11" 23
  25 "Bone04" -1
  26 "Bone_Righthand" 25
  27 "Bone26" 26
  28 "Bone35" 27
  29 "Bone36" 28
  30 "Bone37" 29
  31 "Bone31" 27
  32 "Bone32" 31
  33 "Bone33" 32
  34 "Bone39" 27
  35 "Bone40" 34
  36 "Bone41" 35
  37 "Bone43" 27
  38 "Bone44" 37
  39 "Bone45" 38
  40 "Bone27" 27
  41 "Bone28" 40
  42 "Bone29" 41
end
skeleton
  time 0
    0 6.606241 2.166441 -6.193456 5.508827 -1.331365 -5.715892
    1 -0.001604 -8.561233 -0.002570 0.347136 -0.117010 -0.166581
    2 -0.365922 -3.554516 0.712018 -1.186454 1.434443 -1.173803
    3 0.000000 2.617617 0.665016 0.000000 0.000000 0.000000
    4 -0.000001 -1.655465 2.278034 0.000000 0.000000 0.000000
    5 -0.000001 -1.796958 1.330032 0.000000 0.000000 0.000000
    6 -0.000002 -2.886455 1.471525 0.183244 0.000000 0.000000
    7 0.000000 -0.778212 1.774024 -0.000021 0.000000 0.000000
    8 -0.000001 -1.598867 0.580120 0.000000 0.000000 0.000000
    9 -0.003480 -0.404829 0.000000 0.000000 0.000000 0.000000
    10 -0.519309 -2.501155 -0.278957 -1.003564 0.000000 -0.122173
    11 -0.010598 -1.208185 -0.000001 -1.090831 0.000000 0.000000
    12 0.000000 -0.763066 0.000000 -1.343903 0.000000 0.000000
    13 0.105981 -2.607133 -0.278957 -0.890118 0.000000 -0.148353
    14 0.000000 -1.250578 -0.000001 -1.213004 0.000000 0.000000
    15 0.000000 -0.932634 0.000000 -1.483530 0.000000 0.000000
    16 0.763063 -2.490556 -0.278957 -0.347773 0.030405 0.214564
    17 -0.012322 -1.280917 0.000000 -1.228681 0.000000 0.000000
    18 -0.001697 -0.749371 -0.000001 -1.075078 0.000000 0.000000
    19 0.354567 0.016267 0.318133 0.342077 -0.443527 -1.083976
    20 1.887164 0.012877 0.000000 -0.305433 0.000000 -0.401426
    21 1.001874 -0.000270 -0.000001 0.000000 0.000000 -0.488692
    22 -1.123358 -2.195093 -0.278957 -0.933751 0.000000 -0.087266
    23 0.010772 -0.963791 0.000000 -0.610865 0.000000 0.000000
    24 -0.010412 -0.631916 0.000000 -1.213004 0.000000 0.000000
    25 -1.144079 -0.861116 -10.260372 -0.375299 0.000024 0.602091
    26 0.089930 -8.543163 -0.000001 0.079776 -0.284690 0.455199
    27 0.000000 -0.359712 0.000000 0.000000 0.000000 0.000000
    28 -0.170479 -2.636146 -0.277655 -0.820355 0.000000 0.000000
    29 0.010599 -1.261176 0.000002 -0.584675 0.000000 0.000000
    30 -0.000001 -0.943232 -0.000001 -0.532326 0.000000 0.000000
    31 -0.827563 -2.508973 -0.277656 -0.942512 0.000000 0.000000
    32 0.000000 -1.292971 0.000000 -0.287979 0.000000 0.000000
    33 0.000000 -0.752466 0.000000 -0.445059 0.000000 0.000000
    34 0.444213 -2.561960 -0.277655 -1.081559 -0.046226 -0.024599
    35 0.021022 -1.208186 0.000000 -0.427606 0.000000 0.000000
    36 0.010597 -0.741867 -0.000001 -0.453786 0.000000 0.000000
    37 1.047444 -2.222821 -0.277655 -1.019673 -0.066950 -0.041090
    38 0.000000 -0.996223 -0.000002 -0.584707 0.000000 0.000000
    39 -0.000001 -0.614690 0.000000 -0.523599 0.000000 0.000000
    40 -0.308254 -0.007814 0.307166 -0.318048 -0.539817 -2.424633
    41 1.978377 0.019543 0.000001 -0.000002 -0.000010 0.549776
    42 0.982426 0.003186 0.000000 0.000000 0.000000 0.593405
  time 1
    0 6.606241 2.096126 -6.220800 5.573155 -1.345339 -5.781918
    1 -0.001604 -8.561233 -0.002570 0.324971 -0.149384 0.102351
    2 -0.365922 -3.554516 0.712018 -1.186454 1.434443 -1.173803
    3 0.000000 2.617617 0.665016 0.000000 0.000000 0.000000
    4 -0.000001 -0.842940 2.278034 0.000000 0.000000 0.000000
    5 -0.000001 -1.796958 1.330032 0.000000 0.000000 0.000000
    6 -0.000002 -2.886455 1.471525 0.187427 0.000000 0.000000
    7 0.000000 -0.778212 1.774024 -0.308952 0.000000 0.000000
    8 -0.000001 -1.598867 0.580120 0.000000 0.000000 0.000000
    9 -0.003480 -0.404829 0.000000 0.000000 0.000000 0.000000
    10 -0.519309 -2.501155 -0.278957 -1.003564 0.000000 -0.122173
    11 -0.010598 -1.208185 -0.000001 -1.090831 0.000000 0.000000
    12 0.000000 -0.763066 0.000000 -1.343903 0.000000 0.000000
    13 0.105981 -2.607133 -0.278957 -0.890118 0.000000 -0.148353
    14 0.000000 -1.250578 -0.000001 -1.213004 0.000000 0.000000
    15 0.000000 -0.932634 0.000000 -1.483530 0.000000 0.000000
    16 0.763063 -2.490556 -0.278957 -0.347773 0.030405 0.214564
    17 -0.012322 -1.280917 0.000000 -1.239090 0.000000 0.000000
    18 -0.001697 -0.749371 -0.000001 -1.078625 0.000000 0.000000
    19 0.354567 0.016267 0.318133 0.342077 -0.443527 -1.083976
    20 1.887164 0.012877 0.000000 -0.305433 0.000000 -0.401426
    21 1.001874 -0.000270 -0.000001 0.000000 0.000000 -0.488692
    22 -1.123358 -2.195093 -0.278957 -0.933751 0.000000 -0.087266
    23 0.010772 -0.963791 0.000000 -0.610865 0.000000 0.000000
    24 -0.010412 -0.631916 0.000000 -1.213004 0.000000 0.000000
    25 -0.886258 -1.259565 -10.178338 -0.387808 0.000024 0.602091
    26 0.089930 -8.543163 -0.000001 0.018385 -0.175637 0.456644
    27 0.000000 -0.359712 0.000000 0.000000 0.000000 0.000000
    28 -0.170479 -2.636146 -0.277655 -0.820355 0.000000 0.000000
    29 0.010599 -1.261176 0.000002 -0.584675 0.000000 0.000000
    30 -0.000001 -0.943232 -0.000001 -0.532326 0.000000 0.000000
    31 -0.827563 -2.508973 -0.277656 -0.942512 0.000000 0.000000
    32 0.000000 -1.292971 0.000000 -0.287979 0.000000 0.000000
    33 0.000000 -0.752466 0.000000 -0.445059 0.000000 0.000000
    34 0.444213 -2.561960 -0.277655 -1.081559 -0.046226 -0.024599
    35 0.021022 -1.208186 0.000000 -0.427606 0.000000 0.000000
    36 0.010597 -0.741867 -0.000001 -0.453786 0.000000 0.000000
    37 1.047444 -2.222821 -0.277655 -1.019673 -0.066950 -0.041090
    38 0.000000 -0.996223 -0.000002 -0.584707 0.000000 0.000000
    39 -0.000001 -0.614690 0.000000 -0.523599 0.000000 0.000000
    40 -0.308254 -0.007814 0.307166 -0.318048 -0.539817 -2.424633
    41 1.978377 0.019543 0.000001 -0.000002 -0.000010 0.549776
    42 0.982426 0.003186 0.000000 0.000000 0.000000 0.593405
  time 2
    0 6.606241 2.060969 -6.244239 5.474893 -1.322814 -5.680827
    1 -0.001604 -8.561233 -0.002570 0.314123 -0.158603 0.227080
    2 -0.365922 -3.554516 0.712018 -1.186454 1.434443 -1.173803
    3 0.000000 2.617617 0.665016 0.000000 0.000000 0.000000
    4 -0.000001 -0.030415 2.278034 0.000000 0.000000 0.000000
    5 -0.000001 -1.796958 1.330032 0.000000 0.000000 0.000000
    6 -0.000002 -2.886455 1.471525 0.195804 0.000000 0.000000
    7 0.000000 -0.778212 1.774024 -0.617862 0.000000 0.000000
    8 -0.000001 -1.598867 0.580120 0.000000 0.000000 0.000000
    9 -0.003480 -0.404829 0.000000 0.000000 0.000000 0.000000
    10 -0.519309 -2.501155 -0.278957 -1.003564 0.000000 -0.122173
    11 -0.010598 -1.208185 -0.000001 -1.090831 0.000000 0.000000
    12 0.000000 -0.763066 0.000000 -1.343903 0.000000 0.000000
    13 0.105981 -2.607133 -0.278957 -0.890118 0.000000 -0.148353
    14 0.000000 -1.250578 -0.000001 -1.213004 0.000000 0.000000
    15 0.000000 -0.932634 0.000000 -1.483530 0.000000 0.000000
    16 0.763063 -2.490556 -0.278957 -0.347773 0.030405 0.214564
    17 -0.012322 -1.280917 0.000000 -1.259908 0.000000 0.000000
    18 -0.001697 -0.749371 -0.000001 -1.085690 0.000000 0.000000
    19 0.354567 0.016267 0.318133 0.342077 -0.443527 -1.083976
    20 1.887164 0.012877 0.000000 -0.305433 0.000000 -0.401426
    21 1.001874 -0.000270 -0.000001 0.000000 0.000000 -0.488692
    22 -1.123358 -2.195093 -0.278957 -0.933751 0.000000 -0.087266
    23 0.010772 -0.963791 0.000000 -0.610865 0.000000 0.000000
    24 -0.010412 -0.631916 0.000000 -1.213004 0.000000 0.000000
    25 -0.671408 -1.533011 -10.108024 -0.406652 0.000024 0.602091
    26 0.089930 -8.543163 -0.000001 -0.008917 -0.101440 0.453507
    27 0.000000 -0.359712 0.000000 0.000000 0.000000 0.000000
    28 -0.170479 -2.636146 -0.277655 -0.820355 0.000000 0.000000
    29 0.010599 -1.261176 0.000002 -0.584675 0.000000 0.000000
    30 -0.000001 -0.943232 -0.000001 -0.532326 0.000000 0.000000
    31 -0.827563 -2.508973 -0.277656 -0.942512 0.000000 0.000000
    32 0.000000 -1.292971 0.000000 -0.287979 0.000000 0.000000
    33 0.000000 -0.752466 0.000000 -0.445059 0.000000 0.000000
    34 0.444213 -2.561960 -0.277655 -1.081559 -0.046226 -0.024599
    35 0.021022 -1.208186 0.000000 -0.427606 0.000000 0.000000
    36 0.010597 -0.741867 -0.000001 -0.453786 0.000000 0.000000
    37 1.047444 -2.222821 -0.277655 -1.019673 -0.066950 -0.041090
    38 0.000000 -0.996223 -0.000002 -0.584707 0.000000 0.000000
    39 -0.000001 -0.614690 0.000000 -0.523599 0.000000 0.000000
    40 -0.308254 -0.007814 0.307166 -0.318048 -0.539817 -2.424633
    41 1.978377 0.019543 0.000001 -0.000002 -0.000010 0.549776
    42 0.982426 0.003186 0.000000 0.000000 0.000000 0.593405
  time 3
    0 6.606241 2.084407 -6.271583 5.374182 -1.291296 -5.576472
    1 -0.001604 -8.561233 -0.002570 0.319589 -0.150775 0.215230
    2 -0.365922 -3.554516 0.712018 -1.186454 1.434443 -1.173803
    3 0.000000 2.617617 0.665016 0.000000 0.000000 0.000000
    4 -0.000001 -0.842940 2.278034 0.000000 0.000000 0.000000
    5 -0.000001 -1.796958 1.330032 0.000000 0.000000 0.000000
    6 -0.000002 -2.886455 1.471525 0.202096 0.000000 0.000000
    7 0.000000 -0.778212 1.774024 -0.926752 0.000000 0.000000
    8 -0.000001 -1.598867 0.580120 0.000000 0.000000 0.000000
    9 -0.003480 -0.404829 0.000000 0.000000 0.000000 0.000000
    10 -0.519309 -2.501155 -0.278957 -1.003564 0.000000 -0.122173
    11 -0.010598 -1.208185 -0.000001 -1.090831 0.000000 0.000000
    12 0.000000 -0.763066 0.000000 -1.343903 0.000000 0.000000
    13 0.105981 -2.607133 -0.278957 -0.890118 0.000000 -0.148353
    14 0.000000 -1.250578 -0.000001 -1.213004 0.000000 0.000000
    15 0.000000 -0.932634 0.000000 -1.483530 0.000000 0.000000
    16 0.763063 -2.490556 -0.278957 -0.347773 0.030405 0.214564
    17 -0.012322 -1.280917 0.000000 -1.275538 0.000000 0.000000
    18 -0.001697 -0.749371 -0.000001 -1.091011 0.000000 0.000000
    19 0.354567 0.016267 0.318133 0.342077 -0.443527 -1.083976
    20 1.887164 0.012877 0.000000 -0.305433 0.000000 -0.401426
    21 1.001874 -0.000270 -0.000001 0.000000 0.000000 -0.488692
    22 -1.123358 -2.195093 -0.278957 -0.933751 0.000000 -0.087266
    23 0.010772 -0.963791 0.000000 -0.610865 0.000000 0.000000
    24 -0.010412 -0.631916 0.000000 -1.213004 0.000000 0.000000
    25 -0.476089 -1.638483 -10.053335 -0.444827 0.000615 0.601777
    26 0.089930 -8.543163 -0.000001 0.033038 -0.094806 0.453310
    27 0.000000 -0.359712 0.000000 0.000000 0.000000 0.000000
    28 -0.170479 -2.636146 -0.277655 -0.820355 0.000000 0.000000
    29 0.010599 -1.261176 0.000002 -0.584675 0.000000 0.000000
    30 -0.000001 -0.943232 -0.000001 -0.532326 0.000000 0.000000
    31 -0.827563 -2.508973 -0.277656 -0.942512 0.000000 0.000000
    32 0.000000 -1.292971 0.000000 -0.287979 0.000000 0.000000
    33 0.000000 -0.752466 0.000000 -0.445059 0.000000 0.000000
    34 0.444213 -2.561960 -0.277655 -1.081559 -0.046226 -0.024599
    35 0.021022 -1.208186 0.000000 -0.427606 0.000000 0.000000
    36 0.010597 -0.741867 -0.000001 -0.453786 0.000000 0.000000
    37 1.047444 -2.222821 -0.277655 -1.019673 -0.066950 -0.041090
    38 0.000000 -0.996223 -0.000002 -0.584707 0.000000 0.000000
    39 -0.000001 -0.614690 0.000000 -0.523599 0.000000 0.000000
    40 -0.308254 -0.007814 0.307166 -0.318048 -0.539817 -2.424633
    41 1.978377 0.019543 0.000001 -0.000002 -0.000010 0.549776
    42 0.982426 0.003186 0.000000 0.000000 0.000000 0.593405
  time 4
    0 6.606241 2.158628 -6.298928 5.290437 -1.255282 -5.488903
    1 -0.001604 -8.561233 -0.002570 0.330354 -0.135165 0.182825
    2 -0.365922 -3.554516 0.712018 -1.186454 1.434443 -1.173803
    3 0.000000 2.617617 0.665016 0.000000 0.000000 0.000000
    4 -0.000001 -1.655465 2.278034 0.000000 0.000000 0.000000
    5 -0.000001 -1.796958 1.330032 0.000000 0.000000 0.000000
    6 -0.000002 -2.886455 1.471525 0.200011 0.000000 0.000000
    7 0.000000 -0.778212 1.774024 -0.926752 0.000000 0.000000
    8 -0.000001 -1.598867 0.580120 0.000000 0.000000 0.000000
    9 -0.003480 -0.404829 0.000000 0.000000 0.000000 0.000000
    10 -0.519309 -2.501155 -0.278957 -1.003564 0.000000 -0.122173
    11 -0.010598 -1.208185 -0.000001 -1.090831 0.000000 0.000000
    12 0.000000 -0.763066 0.000000 -1.343903 0.000000 0.000000
    13 0.105981 -2.607133 -0.278957 -0.890118 0.000000 -0.148353
    14 0.000000 -1.250578 -0.000001 -1.213004 0.000000 0.000000
    15 0.000000 -0.932634 0.000000 -1.483530 0.000000 0.000000
    16 0.763063 -2.490556 -0.278957 -0.347773 0.030405 0.214564
    17 -0.012322 -1.280917 0.000000 -1.270317 0.000000 0.000000
    18 -0.001697 -0.749371 -0.000001 -1.089238 0.000000 0.000000
    19 0.354567 0.016267 0.318133 0.342077 -0.443527 -1.083976
    20 1.887164 0.012877 0.000000 -0.305433 0.000000 -0.401426
    21 1.001874 -0.000270 -0.000001 0.000000 0.000000 -0.488692
    22 -1.123358 -2.195093 -0.278957 -0.933751 0.000000 -0.087266
    23 0.010772 -0.963791 0.000000 -0.610865 0.000000 0.000000
    24 -0.010412 -0.631916 0.000000 -1.213004 0.000000 0.000000
    25 -0.312022 -1.595513 -10.022084 -0.491504 0.001722 0.601226
    26 0.089930 -8.543163 -0.000001 0.099175 -0.110061 0.453918
    27 0.000000 -0.359712 0.000000 0.000000 0.000000 0.000000
    28 -0.170479 -2.636146 -0.277655 -0.820355 0.000000 0.000000
    29 0.010599 -1.261176 0.000002 -0.584675 0.000000 0.000000
    30 -0.000001 -0.943232 -0.000001 -0.532326 0.000000 0.000000
    31 -0.827563 -2.508973 -0.277656 -0.942512 0.000000 0.000000
    32 0.000000 -1.292971 0.000000 -0.287979 0.000000 0.000000
    33 0.000000 -0.752466 0.000000 -0.445059 0.000000 0.000000
    34 0.444213 -2.561960 -0.277655 -1.081559 -0.046226 -0.024599
    35 0.021022 -1.208186 0.000000 -0.427606 0.000000 0.000000
    36 0.010597 -0.741867 -0.000001 -0.453786 0.000000 0.000000
    37 1.047444 -2.222821 -0.277655 -1.019673 -0.066950 -0.041090
    38 0.000000 -0.996223 -0.000002 -0.584707 0.000000 0.000000
    39 -0.000001 -0.614690 0.000000 -0.523599 0.000000 0.000000
    40 -0.308254 -0.007814 0.307166 -0.318048 -0.539817 -2.424633
    41 1.978377 0.019543 0.000001 -0.000002 -0.000010 0.549776
    42 0.982426 0.003186 0.000000 0.000000 0.000000 0.593405
  time 5
    0 6.606241 2.260193 -6.330179 5.229466 -1.220723 -5.424462
    1 -0.001604 -8.561233 -0.002570 0.342651 -0.116075 0.136695
    2 -0.365922 -3.554516 0.712018 -1.186454 1.434443 -1.173803
    3 0.000000 2.617617 0.665016 0.000000 0.000000 0.000000
    4 -0.000001 -1.655465 2.278034 0.000000 0.000000 0.000000
    5 -0.000001 -1.796958 1.330032 0.000000 0.000000 0.000000
    6 -0.000002 -2.886455 1.471525 0.183244 0.000000 0.000000
    7 0.000000 -0.778212 1.774024 -0.926752 0.000000 0.000000
    8 -0.000001 -1.598867 0.580120 0.000000 0.000000 0.000000
    9 -0.003480 -0.404829 0.000000 0.000000 0.000000 0.000000
    10 -0.519309 -2.501155 -0.278957 -1.003564 0.000000 -0.122173
    11 -0.010598 -1.208185 -0.000001 -1.090831 0.000000 0.000000
    12 0.000000 -0.763066 0.000000 -1.343903 0.000000 0.000000
    13 0.105981 -2.607133 -0.278957 -0.890118 0.000000 -0.148353
    14 0.000000 -1.250578 -0.000001 -1.213004 0.000000 0.000000
    15 0.000000 -0.932634 0.000000 -1.483530 0.000000 0.000000
    16 0.763063 -2.490556 -0.278957 -0.347773 0.030405 0.214564
    17 -0.012322 -1.280917 0.000000 -1.228681 0.000000 0.000000
    18 -0.001697 -0.749371 -0.000001 -1.075078 0.000000 0.000000
    19 0.354567 0.016267 0.318133 0.342077 -0.443527 -1.083976
    20 1.887164 0.012877 0.000000 -0.305433 0.000000 -0.401426
    21 1.001874 -0.000270 -0.000001 0.000000 0.000000 -0.488692
    22 -1.123358 -2.195093 -0.278957 -0.933751 0.000000 -0.087266
    23 0.010772 -0.963791 0.000000 -0.610865 0.000000 0.000000
    24 -0.010412 -0.631916 0.000000 -1.213004 0.000000 0.000000
    25 -0.198737 -1.470509 -9.986926 -0.530492 0.001870 0.601068
    26 0.089930 -8.543163 -0.000001 0.167062 -0.133820 0.451947
    27 0.000000 -0.359712 0.000000 0.000000 0.000000 0.000000
    28 -0.170479 -2.636146 -0.277655 -0.820355 0.000000 0.000000
    29 0.010599 -1.261176 0.000002 -0.584675 0.000000 0.000000
    30 -0.000001 -0.943232 -0.000001 -0.532326 0.000000 0.000000
    31 -0.827563 -2.508973 -0.277656 -0.942512 0.000000 0.000000
    32 0.000000 -1.292971 0.000000 -0.287979 0.000000 0.000000
    33 0.000000 -0.752466 0.000000 -0.445059 0.000000 0.000000
    34 0.444213 -2.561960 -0.277655 -1.081559 -0.046226 -0.024599
    35 0.021022 -1.208186 0.000000 -0.427606 0.000000 0.000000
    36 0.010597 -0.741867 -0.000001 -0.453786 0.000000 0.000000
    37 1.047444 -2.222821 -0.277655 -1.019673 -0.066950 -0.041090
    38 0.000000 -0.996223 -0.000002 -0.584707 0.000000 0.000000
    39 -0.000001 -0.614690 0.000000 -0.523599 0.000000 0.000000
    40 -0.308254 -0.007814 0.307166 -0.318048 -0.539817 -2.424633
    41 1.978377 0.019543 0.000001 -0.000002 -0.000010 0.549776
    42 0.982426 0.003186 0.000000 0.000000 0.000000 0.593405
  time 6
    0 6.606241 2.357853 -6.353617 5.191177 -1.193966 -5.383522
    1 -0.001604 -8.561233 -0.002570 0.355210 -0.094246 0.080494
    2 -0.365922 -3.554516 0.712018 -1.186454 1.434443 -1.173803
    3 0.000000 2.617617 0.665016 0.000000 0.000000 0.000000
    4 -0.000001 -1.655465 2.278034 0.000000 0.000000 0.000000
    5 -0.000001 -1.796958 1.330032 0.000000 0.000000 0.000000
    6 -0.000002 -2.886455 1.471525 0.087607 0.000000 0.000000
    7 0.000000 -0.778212 1.774024 -0.926752 0.000000 0.000000
    8 -0.000001 -1.598867 0.580120 0.000000 0.000000 0.000000
    9 -0.003480 -0.404829 0.000000 0.000000 0.000000 0.000000
    10 -0.519309 -2.501155 -0.278957 -1.003564 0.000000 -0.122173
    11 -0.010598 -1.208185 -0.000001 -1.090831 0.000000 0.000000
    12 0.000000 -0.763066 0.000000 -1.343903 0.000000 0.000000
    13 0.105981 -2.607133 -0.278957 -0.890118 0.000000 -0.148353
    14 0.000000 -1.250578 -0.000001 -1.213004 0.000000 0.000000
    15 0.000000 -0.932634 0.000000 -1.483530 0.000000 0.000000
    16 0.763063 -2.490556 -0.278957 -0.347773 0.030405 0.214564
    17 -0.012322 -1.280917 0.000000 -0.990953 0.000000 0.000000
    18 -0.001697 -0.749371 -0.000001 -1.033632 0.000000 0.000000
    19 0.354567 0.016267 0.318133 0.342077 -0.443527 -1.083976
    20 1.887164 0.012877 0.000000 -0.305433 0.000000 -0.401426
    21 1.001874 -0.000270 -0.000001 0.000000 0.000000 -0.488692
    22 -1.123358 -2.195093 -0.278957 -0.933751 0.000000 -0.087266
    23 0.010772 -0.963791 0.000000 -0.610865 0.000000 0.000000
    24 -0.010412 -0.631916 0.000000 -1.213004 0.000000 0.000000
    25 -0.167486 -1.345506 -9.943956 -0.545491 0.000024 0.602091
    26 0.089930 -8.543163 -0.000001 0.214034 -0.152392 0.446428
    27 0.000000 -0.359712 0.000000 0.000000 0.000000 0.000000
    28 -0.170479 -2.636146 -0.277655 -0.820355 0.000000 0.000000
    29 0.010599 -1.261176 0.000002 -0.584675 0.000000 0.000000
    30 -0.000001 -0.943232 -0.000001 -0.532326 0.000000 0.000000
    31 -0.827563 -2.508973 -0.277656 -0.942512 0.000000 0.000000
    32 0.000000 -1.292971 0.000000 -0.287979 0.000000 0.000000
    33 0.000000 -0.752466 0.000000 -0.445059 0.000000 0.000000
    34 0.444213 -2.561960 -0.277655 -1.081559 -0.046226 -0.024599
    35 0.021022 -1.208186 0.000000 -0.427606 0.000000 0.000000
    36 0.010597 -0.741867 -0.000001 -0.453786 0.000000 0.000000
    37 1.047444 -2.222821 -0.277655 -1.019673 -0.066950 -0.041090
    38 0.000000 -0.996223 -0.000002 -0.584707 0.000000 0.000000
    39 -0.000001 -0.614690 0.000000 -0.523599 0.000000 0.000000
    40 -0.308254 -0.007814 0.307166 -0.318048 -0.539817 -2.424633
    41 1.978377 0.019543 0.000001 -0.000002 -0.000010 0.549776
    42 0.982426 0.003186 0.000000 0.000000 0.000000 0.593405
  time 7
    0 6.606241 2.420355 -6.373149 5.175299 -1.181404 -5.366363
    1 -0.001604 -8.561233 -0.002570 0.366982 -0.070656 0.017716
    2 -0.365922 -3.554516 0.712018 -1.186454 1.434443 -1.173803
    3 0.000000 2.617617 0.665016 0.000000 0.000000 0.000000
    4 -0.000001 -1.655465 2.278034 0.000000 0.000000 0.000000
    5 -0.000001 -1.796958 1.330032 0.000000 0.000000 0.000000
    6 -0.000002 -2.886455 1.471525 0.000000 0.000000 0.000000
    7 0.000000 -0.778212 1.774024 -0.926752 0.000000 0.000000
    8 -0.000001 -1.598867 0.580120 0.000000 0.000000 0.000000
    9 -0.003480 -0.404829 0.000000 0.000000 0.000000 0.000000
    10 -0.519309 -2.501155 -0.278957 -1.003564 0.000000 -0.122173
    11 -0.010598 -1.208185 -0.000001 -1.090831 0.000000 0.000000
    12 0.000000 -0.763066 0.000000 -1.343903 0.000000 0.000000
    13 0.105981 -2.607133 -0.278957 -0.890118 0.000000 -0.148353
    14 0.000000 -1.250578 -0.000001 -1.213004 0.000000 0.000000
    15 0.000000 -0.932634 0.000000 -1.483530 0.000000 0.000000
    16 0.763063 -2.490556 -0.278957 -0.347773 0.030405 0.214564
    17 -0.012322 -1.280917 0.000000 -0.773156 0.000000 0.000000
    18 -0.001697 -0.749371 -0.000001 -0.970103 0.000000 0.000000
    19 0.354567 0.016267 0.318133 0.342077 -0.443527 -1.083976
    20 1.887164 0.012877 0.000000 -0.305433 0.000000 -0.401426
    21 1.001874 -0.000270 -0.000001 0.000000 0.000000 -0.488692
    22 -1.123358 -2.195093 -0.278957 -0.933751 0.000000 -0.087266
    23 0.010772 -0.963791 0.000000 -0.610865 0.000000 0.000000
    24 -0.010412 -0.631916 0.000000 -1.213004 0.000000 0.000000
    25 -0.233895 -1.232221 -9.877548 -0.539372 -0.003890 0.604138
    26 0.089930 -8.543163 -0.000001 0.243358 -0.164026 0.438183
    27 0.000000 -0.359712 0.000000 0.000000 0.000000 0.000000
    28 -0.170479 -2.636146 -0.277655 -0.820355 0.000000 0.000000
    29 0.010599 -1.261176 0.000002 -0.584675 0.000000 0.000000
    30 -0.000001 -0.943232 -0.000001 -0.532326 0.000000 0.000000
    31 -0.827563 -2.508973 -0.277656 -0.942512 0.000000 0.000000
    32 0.000000 -1.292971 0.000000 -0.287979 0.000000 0.000000
    33 0.000000 -0.752466 0.000000 -0.445059 0.000000 0.000000
    34 0.444213 -2.561960 -0.277655 -1.081559 -0.046226 -0.024599
    35 0.021022 -1.208186 0.000000 -0.427606 0.000000 0.000000
    36 0.010597 -0.741867 -0.000001 -0.453786 0.000000 0.000000
    37 1.047444 -2.222821 -0.277655 -1.019673 -0.066950 -0.041090
    38 0.000000 -0.996223 -0.000002 -0.584707 0.000000 0.000000
    39 -0.000001 -0.614690 0.000000 -0.523599 0.000000 0.000000
    40 -0.308254 -0.007814 0.307166 -0.318048 -0.539817 -2.424633
    41 1.978377 0.019543 0.000001 -0.000002 -0.000010 0.549776
    42 0.982426 0.003186 0.000000 0.000000 0.000000 0.593405
  time 8
    0 6.606241 2.439886 -6.380962 5.173757 -1.180081 -5.364684
    1 -0.001604 -8.561233 -0.002570 0.377126 -0.046370 -0.048111
    2 -0.365922 -3.554516 0.712018 -1.186454 1.434443 -1.173803
    3 0.000000 2.617617 0.665016 0.000000 0.000000 0.000000
    4 -0.000001 -1.655465 2.278034 0.000000 0.000000 0.000000
    5 -0.000001 -1.796958 1.330032 0.000000 0.000000 0.000000
    6 -0.000002 -2.886455 1.471525 -0.008941 0.000000 0.000000
    7 0.000000 -0.778212 1.774024 -0.926752 0.000000 0.000000
    8 -0.000001 -1.598867 0.580120 0.000000 0.000000 0.000000
    9 -0.003480 -0.404829 0.000000 0.000000 0.000000 0.000000
    10 -0.519309 -2.501155 -0.278957 -1.003564 0.000000 -0.122173
    11 -0.010598 -1.208185 -0.000001 -1.090831 0.000000 0.000000
    12 0.000000 -0.763066 0.000000 -1.343903 0.000000 0.000000
    13 0.105981 -2.607133 -0.278957 -0.890118 0.000000 -0.148353
    14 0.000000 -1.250578 -0.000001 -1.213004 0.000000 0.000000
    15 0.000000 -0.932634 0.000000 -1.483530 0.000000 0.000000
    16 0.763063 -2.490556 -0.278957 -0.347773 0.030405 0.214564
    17 -0.012322 -1.280917 0.000000 -0.750946 0.000000 0.000000
    18 -0.001697 -0.749371 -0.000001 -0.909294 0.000000 0.000000
    19 0.354567 0.016267 0.318133 0.342077 -0.443527 -1.083976
    20 1.887164 0.012877 0.000000 -0.305433 0.000000 -0.401426
    21 1.001874 -0.000270 -0.000001 0.000000 0.000000 -0.488692
    22 -1.123358 -2.195093 -0.278957 -0.933751 0.000000 -0.087266
    23 0.010772 -0.963791 0.000000 -0.610865 0.000000 0.000000
    24 -0.010412 -0.631916 0.000000 -1.213004 0.000000 0.000000
    25 -0.343273 -1.087685 -9.811140 -0.527243 -0.009058 0.606735
    26 0.089930 -8.543163 -0.000001 0.272790 -0.175661 0.427869
    27 0.000000 -0.359712 0.000000 0.000000 0.000000 0.000000
    28 -0.170479 -2.636146 -0.277655 -0.820355 0.000000 0.000000
    29 0.010599 -1.261176 0.000002 -0.584675 0.000000 0.000000
    30 -0.000001 -0.943232 -0.000001 -0.532326 0.000000 0.000000
    31 -0.827563 -2.508973 -0.277656 -0.942512 0.000000 0.000000
    32 0.000000 -1.292971 0.000000 -0.287979 0.000000 0.000000
    33 0.000000 -0.752466 0.000000 -0.445059 0.000000 0.000000
    34 0.444213 -2.561960 -0.277655 -1.081559 -0.046226 -0.024599
    35 0.021022 -1.208186 0.000000 -0.427606 0.000000 0.000000
    36 0.010597 -0.741867 -0.000001 -0.453786 0.000000 0.000000
    37 1.047444 -2.222821 -0.277655 -1.019673 -0.066950 -0.041090
    38 0.000000 -0.996223 -0.000002 -0.584707 0.000000 0.000000
    39 -0.000001 -0.614690 0.000000 -0.523599 0.000000 0.000000
    40 -0.308254 -0.007814 0.307166 -0.318048 -0.539817 -2.424633
    41 1.978377 0.019543 0.000001 -0.000002 -0.000010 0.549776
    42 0.982426 0.003186 0.000000 0.000000 0.000000 0.593405
  time 9
    0 6.606241 2.428167 -6.384868 5.176842 -1.182682 -5.368041
    1 -0.001604 -8.561233 -0.002570 0.385145 -0.022671 -0.113716
    2 -0.365922 -3.554516 0.712018 -1.186454 1.434443 -1.173803
    3 0.000000 2.617617 0.665016 0.000000 0.000000 0.000000
    4 -0.000001 -1.655465 2.278034 0.000000 0.000000 0.000000
    5 -0.000001 -1.796958 1.330032 0.000000 0.000000 0.000000
    6 -0.000002 -2.886455 1.471525 -0.015580 0.000000 0.000000
    7 0.000000 -0.778212 1.774024 -0.926752 0.000000 0.000000
    8 -0.000001 -1.598867 0.580120 0.000000 0.000000 0.000000
    9 -0.003480 -0.404829 0.000000 0.000000 0.000000 0.000000
    10 -0.519309 -2.501155 -0.278957 -1.003564 0.000000 -0.122173
    11 -0.010598 -1.208185 -0.000001 -1.090831 0.000000 0.000000
    12 0.000000 -0.763066 0.000000 -1.343903 0.000000 0.000000
    13 0.105981 -2.607133 -0.278957 -0.890118 0.000000 -0.148353
    14 0.000000 -1.250578 -0.000001 -1.213004 0.000000 0.000000
    15 0.000000 -0.932634 0.000000 -1.483530 0.000000 0.000000
    16 0.763063 -2.490556 -0.278957 -0.347773 0.030405 0.214564
    17 -0.012322 -1.280917 0.000000 -0.734431 0.000000 0.000000
    18 -0.001697 -0.749371 -0.000001 -0.876155 0.000000 0.000000
    19 0.354567 0.016267 0.318133 0.342077 -0.443527 -1.083976
    20 1.887164 0.012877 0.000000 -0.305433 0.000000 -0.401426
    21 1.001874 -0.000270 -0.000001 0.000000 0.000000 -0.488692
    22 -1.123358 -2.195093 -0.278957 -0.933751 0.000000 -0.087266
    23 0.010772 -0.963791 0.000000 -0.610865 0.000000 0.000000
    24 -0.010412 -0.631916 0.000000 -1.213004 0.000000 0.000000
    25 -0.472183 -0.876741 -9.744731 -0.510348 -0.014966 0.609647
    26 0.089930 -8.543163 -0.000001 0.301464 -0.187155 0.416093
    27 0.000000 -0.359712 0.000000 0.000000 0.000000 0.000000
    28 -0.170479 -2.636146 -0.277655 -0.820355 0.000000 0.000000
    29 0.010599 -1.261176 0.000002 -0.584675 0.000000 0.000000
    30 -0.000001 -0.943232 -0.000001 -0.532326 0.000000 0.000000
    31 -0.827563 -2.508973 -0.277656 -0.942512 0.000000 0.000000
    32 0.000000 -1.292971 0.000000 -0.287979 0.000000 0.000000
    33 0.000000 -0.752466 0.000000 -0.445059 0.000000 0.000000
    34 0.444213 -2.561960 -0.277655 -1.081559 -0.046226 -0.024599
    35 0.021022 -1.208186 0.000000 -0.427606 0.000000 0.000000
    36 0.010597 -0.741867 -0.000001 -0.453786 0.000000 0.000000
    37 1.047444 -2.222821 -0.277655 -1.019673 -0.066950 -0.041090
    38 0.000000 -0.996223 -0.000002 -0.584707 0.000000 0.000000
    39 -0.000001 -0.614690 0.000000 -0.523599 0.000000 0.000000
    40 -0.308254 -0.007814 0.307166 -0.318048 -0.539817 -2.424633
    41 1.978377 0.019543 0.000001 -0.000002 -0.000010 0.549776
    42 0.982426 0.003186 0.000000 0.000000 0.000000 0.593405
  time 10
    0 6.606241 2.389104 -6.380962 5.184282 -1.188589 -5.375968
    1 -0.001604 -8.561233 -0.002570 0.390872 -0.000951 -0.175699
    2 -0.365922 -3.554516 0.712018 -1.186454 1.434443 -1.173803
    3 0.000000 2.617617 0.665016 0.000000 0.000000 0.000000
    4 -0.000001 -1.655465 2.278034 0.000000 0.000000 0.000000
    5 -0.000001 -1.796958 1.330032 0.000000 0.000000 0.000000
    6 -0.000002 -2.886455 1.471525 -0.020146 0.000000 0.000000
    7 0.000000 -0.778212 1.774024 -0.926752 0.000000 0.000000
    8 -0.000001 -1.598867 0.580120 0.000000 0.000000 0.000000
    9 -0.003480 -0.404829 0.000000 0.000000 0.000000 0.000000
    10 -0.519309 -2.501155 -0.278957 -1.003564 0.000000 -0.122173
    11 -0.010598 -1.208185 -0.000001 -1.090831 0.000000 0.000000
    12 0.000000 -0.763066 0.000000 -1.343903 0.000000 0.000000
    13 0.105981 -2.607133 -0.278957 -0.890118 0.000000 -0.148353
    14 0.000000 -1.250578 -0.000001 -1.213004 0.000000 0.000000
    15 0.000000 -0.932634 0.000000 -1.483530 0.000000 0.000000
    16 0.763063 -2.490556 -0.278957 -0.347773 0.030405 0.214564
    17 -0.012322 -1.280917 0.000000 -0.723073 0.000000 0.000000
    18 -0.001697 -0.749371 -0.000001 -0.866636 0.000000 0.000000
    19 0.354567 0.016267 0.318133 0.342077 -0.443527 -1.083976
    20 1.887164 0.012877 0.000000 -0.305433 0.000000 -0.401426
    21 1.001874 -0.000270 -0.000001 0.000000 0.000000 -0.488692
    22 -1.123358 -2.195093 -0.278957 -0.933751 0.000000 -0.087266
    23 0.010772 -0.963791 0.000000 -0.610865 0.000000 0.000000
    24 -0.010412 -0.631916 0.000000 -1.213004 0.000000 0.000000
    25 -0.616719 -0.685329 -9.674417 -0.489988 -0.021316 0.612638
    26 0.089930 -8.543163 -0.000001 0.328478 -0.198275 0.403495
    27 0.000000 -0.359712 0.000000 0.000000 0.000000 0.000000
    28 -0.170479 -2.636146 -0.277655 -0.820355 0.000000 0.000000
    29 0.010599 -1.261176 0.000002 -0.584675 0.000000 0.000000
    30 -0.000001 -0.943232 -0.000001 -0.532326 0.000000 0.000000
    31 -0.827563 -2.508973 -0.277656 -0.942512 0.000000 0.000000
    32 0.000000 -1.292971 0.000000 -0.287979 0.000000 0.000000
    33 0.000000 -0.752466 0.000000 -0.445059 0.000000 0.000000
    34 0.444213 -2.561960 -0.277655 -1.081559 -0.046226 -0.024599
    35 0.021022 -1.208186 0.000000 -0.427606 0.000000 0.000000
    36 0.010597 -0.741867 -0.000001 -0.453786 0.000000 0.000000
    37 1.047444 -2.222821 -0.277655 -1.019673 -0.066950 -0.041090
    38 0.000000 -0.996223 -0.000002 -0.584707 0.000000 0.000000
    39 -0.000001 -0.614690 0.000000 -0.523599 0.000000 0.000000
    40 -0.308254 -0.007814 0.307166 -0.318048 -0.539817 -2.424633
    41 1.978377 0.019543 0.000001 -0.000002 -0.000010 0.549776
    42 0.982426 0.003186 0.000000 0.000000 0.000000 0.593405
  time 11
    0 6.606241 2.334414 -6.373149 5.195532 -1.197273 -5.388185
    1 -0.001604 -8.561233 -0.002570 0.394391 0.017443 -0.230883
    2 -0.365922 -3.554516 0.712018 -1.186454 1.434443 -1.173803
    3 0.000000 2.617617 0.665016 0.000000 0.000000 0.000000
    4 -0.000001 -1.655465 2.278034 0.000000 0.000000 0.000000
    5 -0.000001 -1.796958 1.330032 0.000000 0.000000 0.000000
    6 -0.000002 -2.886455 1.471525 -0.022903 0.000000 0.000000
    7 0.000000 -0.778212 1.774024 -0.926752 0.000000 0.000000
    8 -0.000001 -1.598867 0.580120 0.000000 0.000000 0.000000
    9 -0.003480 -0.404829 0.000000 0.000000 0.000000 0.000000
    10 -0.519309 -2.501155 -0.278957 -1.003564 0.000000 -0.122173
    11 -0.010598 -1.208185 -0.000001 -1.090831 0.000000 0.000000
    12 0.000000 -0.763066 0.000000 -1.343903 0.000000 0.000000
    13 0.105981 -2.607133 -0.278957 -0.890118 0.000000 -0.148353
    14 0.000000 -1.250578 -0.000001 -1.213004 0.000000 0.000000
    15 0.000000 -0.932634 0.000000 -1.483530 0.000000 0.000000
    16 0.763063 -2.490556 -0.278957 -0.347773 0.030405 0.214564
    17 -0.012322 -1.280917 0.000000 -0.716239 0.000000 0.000000
    18 -0.001697 -0.749371 -0.000001 -0.859925 0.000000 0.000000
    19 0.354567 0.016267 0.318133 0.342077 -0.443527 -1.083976
    20 1.887164 0.012877 0.000000 -0.305433 0.000000 -0.401426
    21 1.001874 -0.000270 -0.000001 0.000000 0.000000 -0.488692
    22 -1.123358 -2.195093 -0.278957 -0.933751 0.000000 -0.087266
    23 0.010772 -0.963791 0.000000 -0.610865 0.000000 0.000000
    24 -0.010412 -0.631916 0.000000 -1.213004 0.000000 0.000000
    25 -0.772974 -0.618921 -9.635353 -0.467570 -0.027814 0.615393
    26 0.089930 -8.543163 -0.000001 0.352894 -0.208928 0.390750
    27 0.000000 -0.359712 0.000000 0.000000 0.000000 0.000000
    28 -0.170479 -2.636146 -0.277655 -0.820355 0.000000 0.000000
    29 0.010599 -1.261176 0.000002 -0.584675 0.000000 0.000000
    30 -0.000001 -0.943232 -0.000001 -0.532326 0.000000 0.000000
    31 -0.827563 -2.508973 -0.277656 -0.942512 0.000000 0.000000
    32 0.000000 -1.292971 0.000000 -0.287979 0.000000 0.000000
    33 0.000000 -0.752466 0.000000 -0.445059 0.000000 0.000000
    34 0.444213 -2.561960 -0.277655 -1.081559 -0.046226 -0.024599
    35 0.021022 -1.208186 0.000000 -0.427606 0.000000 0.000000
    36 0.010597 -0.741867 -0.000001 -0.453786 0.000000 0.000000
    37 1.047444 -2.222821 -0.277655 -1.019673 -0.066950 -0.041090
    38 0.000000 -0.996223 -0.000002 -0.584707 0.000000 0.000000
    39 -0.000001 -0.614690 0.000000 -0.523599 0.000000 0.000000
    40 -0.308254 -0.007814 0.307166 -0.318048 -0.539817 -2.424633
    41 1.978377 0.019543 0.000001 -0.000002 -0.000010 0.549776
    42 0.982426 0.003186 0.000000 0.000000 0.000000 0.593405
  time 12
    0 6.606241 2.264100 -6.361430 5.210503 -1.208072 -5.404225
    1 -0.001604 -8.561233 -0.002570 0.396061 0.031097 -0.275806
    2 -0.365922 -3.554516 0.712018 -1.186454 1.434443 -1.173803
    3 0.000000 2.617617 0.665016 0.000000 0.000000 0.000000
    4 -0.000001 -1.655465 2.278034 0.000000 0.000000 0.000000
    5 -0.000001 -1.796958 1.330032 0.000000 0.000000 0.000000
    6 -0.000002 -2.886455 1.471525 -0.024041 0.000000 0.000000
    7 0.000000 -0.778212 1.774024 -0.926752 0.000000 0.000000
    8 -0.000001 -1.598867 0.580120 0.000000 0.000000 0.000000
    9 -0.003480 -0.404829 0.000000 0.000000 0.000000 0.000000
    10 -0.519309 -2.501155 -0.278957 -1.003564 0.000000 -0.122173
    11 -0.010598 -1.208185 -0.000001 -1.090831 0.000000 0.000000
    12 0.000000 -0.763066 0.000000 -1.343903 0.000000 0.000000
    13 0.105981 -2.607133 -0.278957 -0.890118 0.000000 -0.148353
    14 0.000000 -1.250578 -0.000001 -1.213004 0.000000 0.000000
    15 0.000000 -0.932634 0.000000 -1.483530 0.000000 0.000000
    16 0.763063 -2.490556 -0.278957 -0.347773 0.030405 0.214564
    17 -0.012322 -1.280917 0.000000 -0.713360 0.000000 0.000000
    18 -0.001697 -0.749371 -0.000001 -0.855698 0.000000 0.000000
    19 0.354567 0.016267 0.318133 0.342077 -0.443527 -1.083976
    20 1.887164 0.012877 0.000000 -0.305433 0.000000 -0.401426
    21 1.001874 -0.000270 -0.000001 0.000000 0.000000 -0.488692
    22 -1.123358 -2.195093 -0.278957 -0.933751 0.000000 -0.087266
    23 0.010772 -0.963791 0.000000 -0.610865 0.000000 0.000000
    24 -0.010412 -0.631916 0.000000 -1.213004 0.000000 0.000000
    25 -0.897977 -0.603295 -9.588477 -0.444502 -0.034017 0.617833
    26 0.089930 -8.543163 -0.000001 0.373790 -0.219114 0.378563
    27 0.000000 -0.359712 0.000000 0.000000 0.000000 0.000000
    28 -0.170479 -2.636146 -0.277655 -0.820355 0.000000 0.000000
    29 0.010599 -1.261176 0.000002 -0.584675 0.000000 0.000000
    30 -0.000001 -0.943232 -0.000001 -0.532326 0.000000 0.000000
    31 -0.827563 -2.508973 -0.277656 -0.942512 0.000000 0.000000
    32 0.000000 -1.292971 0.000000 -0.287979 0.000000 0.000000
    33 0.000000 -0.752466 0.000000 -0.445059 0.000000 0.000000
    34 0.444213 -2.561960 -0.277655 -1.081559 -0.046226 -0.024599
    35 0.021022 -1.208186 0.000000 -0.427606 0.000000 0.000000
    36 0.010597 -0.741867 -0.000001 -0.453786 0.000000 0.000000
    37 1.047444 -2.222821 -0.277655 -1.019673 -0.066950 -0.041090
    38 0.000000 -0.996223 -0.000002 -0.584707 0.000000 0.000000
    39 -0.000001 -0.614690 0.000000 -0.523599 0.000000 0.000000
    40 -0.308254 -0.007814 0.307166 -0.318048 -0.539817 -2.424633
    41 1.978377 0.019543 0.000001 -0.000002 -0.000010 0.549776
    42 0.982426 0.003186 0.000000 0.000000 0.000000 0.593405
  time 13
    0 6.606241 2.193785 -6.345804 5.228921 -1.220415 -5.423903
    1 -0.001604 -8.561233 -0.002570 0.396310 0.038032 -0.303764
    2 -0.365922 -3.554516 0.712018 -1.186454 1.434443 -1.173803
    3 0.000000 2.617617 0.665016 0.000000 0.000000 0.000000
    4 -0.000001 -1.655465 2.278034 0.000000 0.000000 0.000000
    5 -0.000001 -1.796958 1.330032 0.000000 0.000000 0.000000
    6 -0.000002 -2.886455 1.471525 -0.023849 0.000000 0.000000
    7 0.000000 -0.778212 1.774024 -0.926752 0.000000 0.000000
    8 -0.000001 -1.598867 0.580120 0.000000 0.000000 0.000000
    9 -0.003480 -0.404829 0.000000 0.000000 0.000000 0.000000
    10 -0.519309 -2.501155 -0.278957 -1.003564 0.000000 -0.122173
    11 -0.010598 -1.208185 -0.000001 -1.090831 0.000000 0.000000
    12 0.000000 -0.763066 0.000000 -1.343903 0.000000 0.000000
    13 0.105981 -2.607133 -0.278957 -0.890118 0.000000 -0.148353
    14 0.000000 -1.250578 -0.000001 -1.213004 0.000000 0.000000
    15 0.000000 -0.932634 0.000000 -1.483530 0.000000 0.000000
    16 0.763063 -2.490556 -0.278957 -0.347773 0.030405 0.214564
    17 -0.012322 -1.280917 0.000000 -0.713866 0.000000 0.000000
    18 -0.001697 -0.749371 -0.000001 -0.853599 0.000000 0.000000
    19 0.354567 0.016267 0.318133 0.342077 -0.443527 -1.083976
    20 1.887164 0.012877 0.000000 -0.305433 0.000000 -0.401426
    21 1.001874 -0.000270 -0.000001 0.000000 0.000000 -0.488692
    22 -1.123358 -2.195093 -0.278957 -0.933751 0.000000 -0.087266
    23 0.010772 -0.963791 0.000000 -0.610865 0.000000 0.000000
    24 -0.010412 -0.631916 0.000000 -1.213004 0.000000 0.000000
    25 -0.956573 -0.599389 -9.502537 -0.421976 -0.039555 0.619879
    26 0.089930 -8.543163 -0.000001 0.390140 -0.228832 0.367657
    27 0.000000 -0.359712 0.000000 0.000000 0.000000 0.000000
    28 -0.170479 -2.636146 -0.277655 -0.820355 0.000000 0.000000
    29 0.010599 -1.261176 0.000002 -0.584675 0.000000 0.000000
    30 -0.000001 -0.943232 -0.000001 -0.532326 0.000000 0.000000
    31 -0.827563 -2.508973 -0.277656 -0.942512 0.000000 0.000000
    32 0.000000 -1.292971 0.000000 -0.287979 0.000000 0.000000
    33 0.000000 -0.752466 0.000000 -0.445059 0.000000 0.000000
    34 0.444213 -2.561960 -0.277655 -1.081559 -0.046226 -0.024599
    35 0.021022 -1.208186 0.000000 -0.427606 0.000000 0.000000
    36 0.010597 -0.741867 -0.000001 -0.453786 0.000000 0.000000
    37 1.047444 -2.222821 -0.277655 -1.019673 -0.066950 -0.041090
    38 0.000000 -0.996223 -0.000002 -0.584707 0.000000 0.000000
    39 -0.000001 -0.614690 0.000000 -0.523599 0.000000 0.000000
    40 -0.308254 -0.007814 0.307166 -0.318048 -0.539817 -2.424633
    41 1.978377 0.019543 0.000001 -0.000002 -0.000010 0.549776
    42 0.982426 0.003186 0.000000 0.000000 0.000000 0.593405
  time 14
    0 6.606241 2.119564 -6.326272 5.250697 -1.233771 -5.446937
    1 -0.001604 -8.561233 -0.002570 0.396186 0.039228 -0.310658
    2 -0.365922 -3.554516 0.712018 -1.186454 1.434443 -1.173803
    3 0.000000 2.617617 0.665016 0.000000 0.000000 0.000000
    4 -0.000001 -1.655465 2.278034 0.000000 0.000000 0.000000
    5 -0.000001 -1.796958 1.330032 0.000000 0.000000 0.000000
    6 -0.000002 -2.886455 1.471525 -0.022531 0.000000 0.000000
    7 0.000000 -0.778212 1.774024 -0.926752 0.000000 0.000000
    8 -0.000001 -1.598867 0.580120 0.000000 0.000000 0.000000
    9 -0.003480 -0.404829 0.000000 0.000000 0.000000 0.000000
    10 -0.519309 -2.501155 -0.278957 -1.003564 0.000000 -0.122173
    11 -0.010598 -1.208185 -0.000001 -1.090831 0.000000 0.000000
    12 0.000000 -0.763066 0.000000 -1.343903 0.000000 0.000000
    13 0.105981 -2.607133 -0.278957 -0.890118 0.000000 -0.148353
    14 0.000000 -1.250578 -0.000001 -1.213004 0.000000 0.000000
    15 0.000000 -0.932634 0.000000 -1.483530 0.000000 0.000000
    16 0.763063 -2.490556 -0.278957 -0.347773 0.030405 0.214564
    17 -0.012322 -1.280917 0.000000 -0.717125 0.000000 0.000000
    18 -0.001697 -0.749371 -0.000001 -0.853304 0.000000 0.000000
    19 0.354567 0.016267 0.318133 0.342077 -0.443527 -1.083976
    20 1.887164 0.012877 0.000000 -0.305433 0.000000 -0.401426
    21 1.001874 -0.000270 -0.000001 0.000000 0.000000 -0.488692
    22 -1.123358 -2.195093 -0.278957 -0.933751 0.000000 -0.087266
    23 0.010772 -0.963791 0.000000 -0.610865 0.000000 0.000000
    24 -0.010412 -0.631916 0.000000 -1.213004 0.000000 0.000000
    25 -0.987824 -0.611108 -9.455660 -0.401345 -0.044059 0.621296
    26 0.089930 -8.543163 -0.000001 0.401021 -0.238083 0.358772
    27 0.000000 -0.359712 0.000000 0.000000 0.000000 0.000000
    28 -0.170479 -2.636146 -0.277655 -0.820355 0.000000 0.000000
    29 0.010599 -1.261176 0.000002 -0.584675 0.000000 0.000000
    30 -0.000001 -0.943232 -0.000001 -0.532326 0.000000 0.000000
    31 -0.827563 -2.508973 -0.277656 -0.942512 0.000000 0.000000
    32 0.000000 -1.292971 0.000000 -0.287979 0.000000 0.000000
    33 0.000000 -0.752466 0.000000 -0.445059 0.000000 0.000000
    34 0.444213 -2.561960 -0.277655 -1.081559 -0.046226 -0.024599
    35 0.021022 -1.208186 0.000000 -0.427606 0.000000 0.000000
    36 0.010597 -0.741867 -0.000001 -0.453786 0.000000 0.000000
    37 1.047444 -2.222821 -0.277655 -1.019673 -0.066950 -0.041090
    38 0.000000 -0.996223 -0.000002 -0.584707 0.000000 0.000000
    39 -0.000001 -0.614690 0.000000 -0.523599 0.000000 0.000000
    40 -0.308254 -0.007814 0.307166 -0.318048 -0.539817 -2.424633
    41 1.978377 0.019543 0.000001 -0.000002 -0.000010 0.549776
    42 0.982426 0.003186 0.000000 0.000000 0.000000 0.593405
  time 15
    0 6.606241 2.057062 -6.310647 5.275194 -1.247436 -5.472863
    1 -0.001604 -8.561233 -0.002570 0.394902 0.037597 -0.321999
    2 -0.365922 -3.554516 0.712018 -1.186454 1.434443 -1.173803
    3 0.000000 2.617617 0.665016 0.000000 0.000000 0.000000
    4 -0.000001 -1.655465 2.278034 0.000000 0.000000 0.000000
    5 -0.000001 -1.796958 1.330032 0.000000 0.000000 0.000000
    6 -0.000002 -2.886455 1.471525 -0.020362 0.000000 0.000000
    7 0.000000 -0.778212 1.774024 -0.926752 0.000000 0.000000
    8 -0.000001 -1.598867 0.580120 0.000000 0.000000 0.000000
    9 -0.003480 -0.404829 0.000000 0.000000 0.000000 0.000000
    10 -0.519309 -2.501155 -0.278957 -1.003564 0.000000 -0.122173
    11 -0.010598 -1.208185 -0.000001 -1.090831 0.000000 0.000000
    12 0.000000 -0.763066 0.000000 -1.343903 0.000000 0.000000
    13 0.105981 -2.607133 -0.278957 -0.890118 0.000000 -0.148353
    14 0.000000 -1.250578 -0.000001 -1.213004 0.000000 0.000000
    15 0.000000 -0.932634 0.000000 -1.483530 0.000000 0.000000
    16 0.763063 -2.490556 -0.278957 -0.347773 0.030405 0.214564
    17 -0.012322 -1.280917 0.000000 -0.722567 0.000000 0.000000
    18 -0.001697 -0.749371 -0.000001 -0.854516 0.000000 0.000000
    19 0.354567 0.016267 0.318133 0.342077 -0.443527 -1.083976
    20 1.887164 0.012877 0.000000 -0.305433 0.000000 -0.401426
    21 1.001874 -0.000270 -0.000001 0.000000 0.000000 -0.488692
    22 -1.123358 -2.195093 -0.278957 -0.933751 0.000000 -0.087266
    23 0.010772 -0.963791 0.000000 -0.610865 0.000000 0.000000
    24 -0.010412 -0.631916 0.000000 -1.213004 0.000000 0.000000
    25 -1.022981 -0.611108 -9.545507 -0.383963 -0.047013 0.622162
    26 0.089930 -8.543163 -0.000001 0.405370 -0.246914 0.352695
    27 0.000000 -0.359712 0.000000 0.000000 0.000000 0.000000
    28 -0.170479 -2.636146 -0.277655 -0.820355 0.000000 0.000000
    29 0.010599 -1.261176 0.000002 -0.584675 0.000000 0.000000
    30 -0.000001 -0.943232 -0.000001 -0.532326 0.000000 0.000000
    31 -0.827563 -2.508973 -0.277656 -0.942512 0.000000 0.000000
    32 0.000000 -1.292971 0.000000 -0.287979 0.000000 0.000000
    33 0.000000 -0.752466 0.000000 -0.445059 0.000000 0.000000
    34 0.444213 -2.561960 -0.277655 -1.081559 -0.046226 -0.024599
    35 0.021022 -1.208186 0.000000 -0.427606 0.000000 0.000000
    36 0.010597 -0.741867 -0.000001 -0.453786 0.000000 0.000000
    37 1.047444 -2.222821 -0.277655 -1.019673 -0.066950 -0.041090
    38 0.000000 -0.996223 -0.000002 -0.584707 0.000000 0.000000
    39 -0.000001 -0.614690 0.000000 -0.523599 0.000000 0.000000
    40 -0.308254 -0.007814 0.307166 -0.318048 -0.539817 -2.424633
    41 1.978377 0.019543 0.000001 -0.000002 -0.000010 0.549776
    42 0.982426 0.003186 0.000000 0.000000 0.000000 0.593405
  time 16
    0 6.606241 2.006279 -6.291115 5.302051 -1.260969 -5.501120
    1 -0.001604 -8.561233 -0.002570 0.392294 0.028401 -0.320729
    2 -0.365922 -3.554516 0.712018 -1.186454 1.434443 -1.173803
    3 0.000000 2.617617 0.665016 0.000000 0.000000 0.000000
    4 -0.000001 -1.655465 2.278034 0.000000 0.000000 0.000000
    5 -0.000001 -1.796958 1.330032 0.000000 0.000000 0.000000
    6 -0.000002 -2.886455 1.471525 -0.017521 0.000000 0.000000
    7 0.000000 -0.778212 1.774024 -0.926752 0.000000 0.000000
    8 -0.000001 -1.598867 0.580120 0.000000 0.000000 0.000000
    9 -0.003480 -0.404829 0.000000 0.000000 0.000000 0.000000
    10 -0.519309 -2.501155 -0.278957 -1.003564 0.000000 -0.122173
    11 -0.010598 -1.208185 -0.000001 -1.090831 0.000000 0.000000
    12 0.000000 -0.763066 0.000000 -1.343903 0.000000 0.000000
    13 0.105981 -2.607133 -0.278957 -0.890118 0.000000 -0.148353
    14 0.000000 -1.250578 -0.000001 -1.213004 0.000000 0.000000
    15 0.000000 -0.932634 0.000000 -1.483530 0.000000 0.000000
    16 0.763063 -2.490556 -0.278957 -0.347773 0.030405 0.214564
    17 -0.012322 -1.280917 0.000000 -0.729590 0.000000 0.000000
    18 -0.001697 -0.749371 -0.000001 -0.856821 0.000000 0.000000
    19 0.354567 0.016267 0.318133 0.342077 -0.443527 -1.083976
    20 1.887164 0.012877 0.000000 -0.305433 0.000000 -0.401426
    21 1.001874 -0.000270 -0.000001 0.000000 0.000000 -0.488692
    22 -1.123358 -2.195093 -0.278957 -0.933751 0.000000 -0.087266
    23 0.010772 -0.963791 0.000000 -0.610865 0.000000 0.000000
    24 -0.010412 -0.631916 0.000000 -1.213004 0.000000 0.000000
    25 -1.062045 -0.626734 -9.662698 -0.371292 -0.048194 0.622319
    26 0.089930 -8.543163 -0.000001 0.402194 -0.255324 0.350149
    27 0.000000 -0.359712 0.000000 0.000000 0.000000 0.000000
    28 -0.170479 -2.636146 -0.277655 -0.820355 0.000000 0.000000
    29 0.010599 -1.261176 0.000002 -0.584675 0.000000 0.000000
    30 -0.000001 -0.943232 -0.000001 -0.532326 0.000000 0.000000
    31 -0.827563 -2.508973 -0.277656 -0.942512 0.000000 0.000000
    32 0.000000 -1.292971 0.000000 -0.287979 0.000000 0.000000
    33 0.000000 -0.752466 0.000000 -0.445059 0.000000 0.000000
    34 0.444213 -2.561960 -0.277655 -1.081559 -0.046226 -0.024599
    35 0.021022 -1.208186 0.000000 -0.427606 0.000000 0.000000
    36 0.010597 -0.741867 -0.000001 -0.453786 0.000000 0.000000
    37 1.047444 -2.222821 -0.277655 -1.019673 -0.066950 -0.041090
    38 0.000000 -0.996223 -0.000002 -0.584707 0.000000 0.000000
    39 -0.000001 -0.614690 0.000000 -0.523599 0.000000 0.000000
    40 -0.308254 -0.007814 0.307166 -0.318048 -0.539817 -2.424633
    41 1.978377 0.019543 0.000001 -0.000002 -0.000010 0.549776
    42 0.982426 0.003186 0.000000 0.000000 0.000000 0.593405
  time 17
    0 6.606241 1.975029 -6.275490 5.330177 -1.273752 -5.530589
    1 -0.001604 -8.561233 -0.002570 0.388471 0.013203 -0.309292
    2 -0.365922 -3.554516 0.712018 -1.186454 1.434443 -1.173803
    3 0.000000 2.617617 0.665016 0.000000 0.000000 0.000000
    4 -0.000001 -1.655465 2.278034 0.000000 0.000000 0.000000
    5 -0.000001 -1.796958 1.330032 0.000000 0.000000 0.000000
    6 -0.000002 -2.886455 1.471525 -0.014310 0.000000 0.000000
    7 0.000000 -0.778212 1.774024 -0.926752 0.000000 0.000000
    8 -0.000001 -1.598867 0.580120 0.000000 0.000000 0.000000
    9 -0.003480 -0.404829 0.000000 0.000000 0.000000 0.000000
    10 -0.519309 -2.501155 -0.278957 -1.003564 0.000000 -0.122173
    11 -0.010598 -1.208185 -0.000001 -1.090831 0.000000 0.000000
    12 0.000000 -0.763066 0.000000 -1.343903 0.000000 0.000000
    13 0.105981 -2.607133 -0.278957 -0.890118 0.000000 -0.148353
    14 0.000000 -1.250578 -0.000001 -1.213004 0.000000 0.000000
    15 0.000000 -0.932634 0.000000 -1.483530 0.000000 0.000000
    16 0.763063 -2.490556 -0.278957 -0.347773 0.030405 0.214564
    17 -0.012322 -1.280917 0.000000 -0.737595 0.000000 0.000000
    18 -0.001697 -0.749371 -0.000001 -0.859925 0.000000 0.000000
    19 0.354567 0.016267 0.318133 0.342077 -0.443527 -1.083976
    20 1.887164 0.012877 0.000000 -0.305433 0.000000 -0.401426
    21 1.001874 -0.000270 -0.000001 0.000000 0.000000 -0.488692
    22 -1.123358 -2.195093 -0.278957 -0.933751 0.000000 -0.087266
    23 0.010772 -0.963791 0.000000 -0.610865 0.000000 0.000000
    24 -0.010412 -0.631916 0.000000 -1.213004 0.000000 0.000000
    25 -1.108921 -0.700955 -9.697855 -0.364036 -0.046422 0.621375
    26 0.089930 -8.543163 -0.000001 0.384726 -0.263034 0.353598
    27 0.000000 -0.359712 0.000000 0.000000 0.000000 0.000000
    28 -0.170479 -2.636146 -0.277655 -0.820355 0.000000 0.000000
    29 0.010599 -1.261176 0.000002 -0.584675 0.000000 0.000000
    30 -0.000001 -0.943232 -0.000001 -0.532326 0.000000 0.000000
    31 -0.827563 -2.508973 -0.277656 -0.942512 0.000000 0.000000
    32 0.000000 -1.292971 0.000000 -0.287979 0.000000 0.000000
    33 0.000000 -0.752466 0.000000 -0.445059 0.000000 0.000000
    34 0.444213 -2.561960 -0.277655 -1.081559 -0.046226 -0.024599
    35 0.021022 -1.208186 0.000000 -0.427606 0.000000 0.000000
    36 0.010597 -0.741867 -0.000001 -0.453786 0.000000 0.000000
    37 1.047444 -2.222821 -0.277655 -1.019673 -0.066950 -0.041090
    38 0.000000 -0.996223 -0.000002 -0.584707 0.000000 0.000000
    39 -0.000001 -0.614690 0.000000 -0.523599 0.000000 0.000000
    40 -0.308254 -0.007814 0.307166 -0.318048 -0.539817 -2.424633
    41 1.978377 0.019543 0.000001 -0.000002 -0.000010 0.549776
    42 0.982426 0.003186 0.000000 0.000000 0.000000 0.593405
  time 18
    0 6.606241 1.975029 -6.259864 5.358395 -1.285301 -5.560058
    1 -0.001604 -8.561233 -0.002570 0.383475 -0.006408 -0.290166
    2 -0.365922 -3.554516 0.712018 -1.186454 1.434443 -1.173803
    3 0.000000 2.617617 0.665016 0.000000 0.000000 0.000000
    4 -0.000001 -1.655465 2.278034 0.000000 0.000000 0.000000
    5 -0.000001 -1.796958 1.330032 0.000000 0.000000 0.000000
    6 -0.000002 -2.886455 1.471525 -0.010930 0.000000 0.000000
    7 0.000000 -0.778212 1.774024 -0.926752 0.000000 0.000000
    8 -0.000001 -1.598867 0.580120 0.000000 0.000000 0.000000
    9 -0.003480 -0.404829 0.000000 0.000000 0.000000 0.000000
    10 -0.519309 -2.501155 -0.278957 -1.003564 0.000000 -0.122173
    11 -0.010598 -1.208185 -0.000001 -1.090831 0.000000 0.000000
    12 0.000000 -0.763066 0.000000 -1.343903 0.000000 0.000000
    13 0.105981 -2.607133 -0.278957 -0.890118 0.000000 -0.148353
    14 0.000000 -1.250578 -0.000001 -1.213004 0.000000 0.000000
    15 0.000000 -0.932634 0.000000 -1.483530 0.000000 0.000000
    16 0.763063 -2.490556 -0.278957 -0.347773 0.030405 0.214564
    17 -0.012322 -1.280917 0.000000 -0.746010 0.000000 0.000000
    18 -0.001697 -0.749371 -0.000001 -0.863473 0.000000 0.000000
    19 0.354567 0.016267 0.318133 0.342077 -0.443527 -1.083976
    20 1.887164 0.012877 0.000000 -0.305433 0.000000 -0.401426
    21 1.001874 -0.000270 -0.000001 0.000000 0.000000 -0.488692
    22 -1.123358 -2.195093 -0.278957 -0.933751 0.000000 -0.087266
    23 0.010772 -0.963791 0.000000 -0.610865 0.000000 0.000000
    24 -0.010412 -0.631916 0.000000 -1.213004 0.000000 0.000000
    25 -1.159704 -0.763457 -9.733012 -0.361545 -0.041549 0.619250
    26 0.089930 -8.543163 -0.000001 0.349916 -0.269715 0.363880
    27 0.000000 -0.359712 0.000000 0.000000 0.000000 0.000000
    28 -0.170479 -2.636146 -0.277655 -0.820355 0.000000 0.000000
    29 0.010599 -1.261176 0.000002 -0.584675 0.000000 0.000000
    30 -0.000001 -0.943232 -0.000001 -0.532326 0.000000 0.000000
    31 -0.827563 -2.508973 -0.277656 -0.942512 0.000000 0.000000
    32 0.000000 -1.292971 0.000000 -0.287979 0.000000 0.000000
    33 0.000000 -0.752466 0.000000 -0.445059 0.000000 0.000000
    34 0.444213 -2.561960 -0.277655 -1.081559 -0.046226 -0.024599
    35 0.021022 -1.208186 0.000000 -0.427606 0.000000 0.000000
    36 0.010597 -0.741867 -0.000001 -0.453786 0.000000 0.000000
    37 1.047444 -2.222821 -0.277655 -1.019673 -0.066950 -0.041090
    38 0.000000 -0.996223 -0.000002 -0.584707 0.000000 0.000000
    39 -0.000001 -0.614690 0.000000 -0.523599 0.000000 0.000000
    40 -0.308254 -0.007814 0.307166 -0.318048 -0.539817 -2.424633
    41 1.978377 0.019543 0.000001 -0.000002 -0.000010 0.549776
    42 0.982426 0.003186 0.000000 0.000000 0.000000 0.593405
  time 19
    0 6.606241 2.002373 -6.248145 5.384979 -1.295219 -5.587756
    1 -0.001604 -8.561233 -0.002570 0.377319 -0.028868 -0.265798
    2 -0.365922 -3.554516 0.712018 -1.186454 1.434443 -1.173803
    3 0.000000 2.617617 0.665016 0.000000 0.000000 0.000000
    4 -0.000001 -1.655465 2.278034 0.000000 0.000000 0.000000
    5 -0.000001 -1.796958 1.330032 0.000000 0.000000 0.000000
    6 -0.000002 -2.886455 1.471525 -0.007622 0.000000 0.000000
    7 0.000000 -0.778212 1.774024 -0.926752 0.000000 0.000000
    8 -0.000001 -1.598867 0.580120 0.000000 0.000000 0.000000
    9 -0.003480 -0.404829 0.000000 0.000000 0.000000 0.000000
    10 -0.519309 -2.501155 -0.278957 -1.003564 0.000000 -0.122173
    11 -0.010598 -1.208185 -0.000001 -1.090831 0.000000 0.000000
    12 0.000000 -0.763066 0.000000 -1.343903 0.000000 0.000000
    13 0.105981 -2.607133 -0.278957 -0.890118 0.000000 -0.148353
    14 0.000000 -1.250578 -0.000001 -1.213004 0.000000 0.000000
    15 0.000000 -0.932634 0.000000 -1.483530 0.000000 0.000000
    16 0.763063 -2.490556 -0.278957 -0.347773 0.030405 0.214564
    17 -0.012322 -1.280917 0.000000 -0.754205 0.000000 0.000000
    18 -0.001697 -0.749371 -0.000001 -0.867139 0.000000 0.000000
    19 0.354567 0.016267 0.318133 0.342077 -0.443527 -1.083976
    20 1.887164 0.012877 0.000000 -0.305433 0.000000 -0.401426
    21 1.001874 -0.000270 -0.000001 0.000000 0.000000 -0.488692
    22 -1.123358 -2.195093 -0.278957 -0.933751 0.000000 -0.087266
    23 0.010772 -0.963791 0.000000 -0.610865 0.000000 0.000000
    24 -0.010412 -0.631916 0.000000 -1.213004 0.000000 0.000000
    25 -1.206581 -0.747831 -9.822859 -0.362574 -0.034386 0.616337
    26 0.089930 -8.543163 -0.000001 0.302421 -0.275088 0.379286
    27 0.000000 -0.359712 0.000000 0.000000 0.000000 0.000000
    28 -0.170479 -2.636146 -0.277655 -0.820355 0.000000 0.000000
    29 0.010599 -1.261176 0.000002 -0.584675 0.000000 0.000000
    30 -0.000001 -0.943232 -0.000001 -0.532326 0.000000 0.000000
    31 -0.827563 -2.508973 -0.277656 -0.942512 0.000000 0.000000
    32 0.000000 -1.292971 0.000000 -0.287979 0.000000 0.000000
    33 0.000000 -0.752466 0.000000 -0.445059 0.000000 0.000000
    34 0.444213 -2.561960 -0.277655 -1.081559 -0.046226 -0.024599
    35 0.021022 -1.208186 0.000000 -0.427606 0.000000 0.000000
    36 0.010597 -0.741867 -0.000001 -0.453786 0.000000 0.000000
    37 1.047444 -2.222821 -0.277655 -1.019673 -0.066950 -0.041090
    38 0.000000 -0.996223 -0.000002 -0.584707 0.000000 0.000000
    39 -0.000001 -0.614690 0.000000 -0.523599 0.000000 0.000000
    40 -0.308254 -0.007814 0.307166 -0.318048 -0.539817 -2.424633
    41 1.978377 0.019543 0.000001 -0.000002 -0.000010 0.549776
    42 0.982426 0.003186 0.000000 0.000000 0.000000 0.593405
  time 20
    0 6.606241 2.049250 -6.228613 5.411654 -1.304256 -5.615453
    1 -0.001604 -8.561233 -0.002570 0.370170 -0.052632 -0.238699
    2 -0.365922 -3.554516 0.712018 -1.186454 1.434443 -1.173803
    3 0.000000 2.617617 0.665016 0.000000 0.000000 0.000000
    4 -0.000001 -1.655465 2.278034 0.000000 0.000000 0.000000
    5 -0.000001 -1.796958 1.330032 0.000000 0.000000 0.000000
    6 -0.000002 -2.886455 1.471525 -0.004638 0.000000 0.000000
    7 0.000000 -0.778212 1.774024 -0.926752 0.000000 0.000000
    8 -0.000001 -1.598867 0.580120 0.000000 0.000000 0.000000
    9 -0.003480 -0.404829 0.000000 0.000000 0.000000 0.000000
    10 -0.519309 -2.501155 -0.278957 -1.003564 0.000000 -0.122173
    11 -0.010598 -1.208185 -0.000001 -1.090831 0.000000 0.000000
    12 0.000000 -0.763066 0.000000 -1.343903 0.000000 0.000000
    13 0.105981 -2.607133 -0.278957 -0.890118 0.000000 -0.148353
    14 0.000000 -1.250578 -0.000001 -1.213004 0.000000 0.000000
    15 0.000000 -0.932634 0.000000 -1.483530 0.000000 0.000000
    16 0.763063 -2.490556 -0.278957 -0.347773 0.030405 0.214564
    17 -0.012322 -1.280917 0.000000 -0.761608 0.000000 0.000000
    18 -0.001697 -0.749371 -0.000001 -0.870568 0.000000 0.000000
    19 0.354567 0.016267 0.318133 0.342077 -0.443527 -1.083976
    20 1.887164 0.012877 0.000000 -0.305433 0.000000 -0.401426
    21 1.001874 -0.000270 -0.000001 0.000000 0.000000 -0.488692
    22 -1.123358 -2.195093 -0.278957 -0.933751 0.000000 -0.087266
    23 0.010772 -0.963791 0.000000 -0.610865 0.000000 0.000000
    24 -0.010412 -0.631916 0.000000 -1.213004 0.000000 0.000000
    25 -1.241738 -0.720487 -9.928331 -0.365660 -0.025673 0.612717
    26 0.089930 -8.543163 -0.000001 0.246913 -0.279013 0.398010
    27 0.000000 -0.359712 0.000000 0.000000 0.000000 0.000000
    28 -0.170479 -2.636146 -0.277655 -0.820355 0.000000 0.000000
    29 0.010599 -1.261176 0.000002 -0.584675 0.000000 0.000000
    30 -0.000001 -0.943232 -0.000001 -0.532326 0.000000 0.000000
    31 -0.827563 -2.508973 -0.277656 -0.942512 0.000000 0.000000
    32 0.000000 -1.292971 0.000000 -0.287979 0.000000 0.000000
    33 0.000000 -0.752466 0.000000 -0.445059 0.000000 0.000000
    34 0.444213 -2.561960 -0.277655 -1.081559 -0.046226 -0.024599
    35 0.021022 -1.208186 0.000000 -0.427606 0.000000 0.000000
    36 0.010597 -0.741867 -0.000001 -0.453786 0.000000 0.000000
    37 1.047444 -2.222821 -0.277655 -1.019673 -0.066950 -0.041090
    38 0.000000 -0.996223 -0.000002 -0.584707 0.000000 0.000000
    39 -0.000001 -0.614690 0.000000 -0.523599 0.000000 0.000000
    40 -0.308254 -0.007814 0.307166 -0.318048 -0.539817 -2.424633
    41 1.978377 0.019543 0.000001 -0.000002 -0.000010 0.549776
    42 0.982426 0.003186 0.000000 0.000000 0.000000 0.593405
  time 21
    0 6.606241 2.103939 -6.212988 5.441323 -1.313424 -5.646135
    1 -0.001604 -8.561233 -0.002570 0.362359 -0.076200 -0.211408
    2 -0.365922 -3.554516 0.712018 -1.186454 1.434443 -1.173803
    3 0.000000 2.617617 0.665016 0.000000 0.000000 0.000000
    4 -0.000001 -1.655465 2.278034 0.000000 0.000000 0.000000
    5 -0.000001 -1.796958 1.330032 0.000000 0.000000 0.000000
    6 -0.000002 -2.886455 1.471525 -0.002205 0.000000 0.000000
    7 0.000000 -0.778212 1.774024 -0.926752 0.000000 0.000000
    8 -0.000001 -1.598867 0.580120 0.000000 0.000000 0.000000
    9 -0.003480 -0.404829 0.000000 0.000000 0.000000 0.000000
    10 -0.519309 -2.501155 -0.278957 -1.003564 0.000000 -0.122173
    11 -0.010598 -1.208185 -0.000001 -1.090831 0.000000 0.000000
    12 0.000000 -0.763066 0.000000 -1.343903 0.000000 0.000000
    13 0.105981 -2.607133 -0.278957 -0.890118 0.000000 -0.148353
    14 0.000000 -1.250578 -0.000001 -1.213004 0.000000 0.000000
    15 0.000000 -0.932634 0.000000 -1.483530 0.000000 0.000000
    16 0.763063 -2.490556 -0.278957 -0.347773 0.030405 0.214564
    17 -0.012322 -1.280917 0.000000 -0.767651 0.000000 0.000000
    18 -0.001697 -0.749371 -0.000001 -0.873435 0.000000 0.000000
    19 0.354567 0.016267 0.318133 0.342077 -0.443527 -1.083976
    20 1.887164 0.012877 0.000000 -0.305433 0.000000 -0.401426
    21 1.001874 -0.000270 -0.000001 0.000000 0.000000 -0.488692
    22 -1.123358 -2.195093 -0.278957 -0.933751 0.000000 -0.087266
    23 0.010772 -0.963791 0.000000 -0.610865 0.000000 0.000000
    24 -0.010412 -0.631916 0.000000 -1.213004 0.000000 0.000000
    25 -1.237831 -0.740018 -10.033803 -0.369722 -0.016516 0.609018
    26 0.089930 -8.543163 -0.000001 0.188121 -0.281560 0.418146
    27 0.000000 -0.359712 0.000000 0.000000 0.000000 0.000000
    28 -0.170479 -2.636146 -0.277655 -0.820355 0.000000 0.000000
    29 0.010599 -1.261176 0.000002 -0.584675 0.000000 0.000000
    30 -0.000001 -0.943232 -0.000001 -0.532326 0.000000 0.000000
    31 -0.827563 -2.508973 -0.277656 -0.942512 0.000000 0.000000
    32 0.000000 -1.292971 0.000000 -0.287979 0.000000 0.000000
    33 0.000000 -0.752466 0.000000 -0.445059 0.000000 0.000000
    34 0.444213 -2.561960 -0.277655 -1.081559 -0.046226 -0.024599
    35 0.021022 -1.208186 0.000000 -0.427606 0.000000 0.000000
    36 0.010597 -0.741867 -0.000001 -0.453786 0.000000 0.000000
    37 1.047444 -2.222821 -0.277655 -1.019673 -0.066950 -0.041090
    38 0.000000 -0.996223 -0.000002 -0.584707 0.000000 0.000000
    39 -0.000001 -0.614690 0.000000 -0.523599 0.000000 0.000000
    40 -0.308254 -0.007814 0.307166 -0.318048 -0.539817 -2.424633
    41 1.978377 0.019543 0.000001 -0.000002 -0.000010 0.549776
    42 0.982426 0.003186 0.000000 0.000000 0.000000 0.593405
  time 22
    0 6.606241 2.146909 -6.201269 5.473532 -1.322461 -5.679428
    1 -0.001604 -8.561233 -0.002570 0.354451 -0.098116 -0.186501
    2 -0.365922 -3.554516 0.712018 -1.186454 1.434443 -1.173803
    3 0.000000 2.617617 0.665016 0.000000 0.000000 0.000000
    4 -0.000001 -1.655465 2.278034 0.000000 0.000000 0.000000
    5 -0.000001 -1.796958 1.330032 0.000000 0.000000 0.000000
    6 -0.000002 -2.886455 1.471525 -0.000575 0.000000 0.000000
    7 0.000000 -0.778212 1.774024 -0.926752 0.000000 0.000000
    8 -0.000001 -1.598867 0.580120 0.000000 0.000000 0.000000
    9 -0.003480 -0.404829 0.000000 0.000000 0.000000 0.000000
    10 -0.519309 -2.501155 -0.278957 -1.003564 0.000000 -0.122173
    11 -0.010598 -1.208185 -0.000001 -1.090831 0.000000 0.000000
    12 0.000000 -0.763066 0.000000 -1.343903 0.000000 0.000000
    13 0.105981 -2.607133 -0.278957 -0.890118 0.000000 -0.148353
    14 0.000000 -1.250578 -0.000001 -1.213004 0.000000 0.000000
    15 0.000000 -0.932634 0.000000 -1.483530 0.000000 0.000000
    16 0.763063 -2.490556 -0.278957 -0.347773 0.030405 0.214564
    17 -0.012322 -1.280917 0.000000 -0.771701 0.000000 0.000000
    18 -0.001697 -0.749371 -0.000001 -0.875416 0.000000 0.000000
    19 0.354567 0.016267 0.318133 0.342077 -0.443527 -1.083976
    20 1.887164 0.012877 0.000000 -0.305433 0.000000 -0.401426
    21 1.001874 -0.000270 -0.000001 0.000000 0.000000 -0.488692
    22 -1.123358 -2.195093 -0.278957 -0.933751 0.000000 -0.087266
    23 0.010772 -0.963791 0.000000 -0.610865 0.000000 0.000000
    24 -0.010412 -0.631916 0.000000 -1.213004 0.000000 0.000000
    25 -1.206581 -0.786895 -10.147087 -0.373350 -0.007655 0.605318
    26 0.089930 -8.543163 -0.000001 0.130845 -0.283195 0.437822
    27 0.000000 -0.359712 0.000000 0.000000 0.000000 0.000000
    28 -0.170479 -2.636146 -0.277655 -0.820355 0.000000 0.000000
    29 0.010599 -1.261176 0.000002 -0.584675 0.000000 0.000000
    30 -0.000001 -0.943232 -0.000001 -0.532326 0.000000 0.000000
    31 -0.827563 -2.508973 -0.277656 -0.942512 0.000000 0.000000
    32 0.000000 -1.292971 0.000000 -0.287979 0.000000 0.000000
    33 0.000000 -0.752466 0.000000 -0.445059 0.000000 0.000000
    34 0.444213 -2.561960 -0.277655 -1.081559 -0.046226 -0.024599
    35 0.021022 -1.208186 0.000000 -0.427606 0.000000 0.000000
    36 0.010597 -0.741867 -0.000001 -0.453786 0.000000 0.000000
    37 1.047444 -2.222821 -0.277655 -1.019673 -0.066950 -0.041090
    38 0.000000 -0.996223 -0.000002 -0.584707 0.000000 0.000000
    39 -0.000001 -0.614690 0.000000 -0.523599 0.000000 0.000000
    40 -0.308254 -0.007814 0.307166 -0.318048 -0.539817 -2.424633
    41 1.978377 0.019543 0.000001 -0.000002 -0.000010 0.549776
    42 0.982426 0.003186 0.000000 0.000000 0.000000 0.593405
  time 23
    0 6.606241 2.166441 -6.193456 5.507919 -1.331145 -5.714866
    1 -0.001604 -8.561233 -0.002570 0.347136 -0.117010 -0.166581
    2 -0.365922 -3.554516 0.712018 -1.186454 1.434443 -1.173803
    3 0.000000 2.617617 0.665016 0.000000 0.000000 0.000000
    4 -0.000001 -1.655465 2.278034 0.000000 0.000000 0.000000
    5 -0.000001 -1.796958 1.330032 0.000000 0.000000 0.000000
    6 -0.000002 -2.886455 1.471525 0.000000 0.000000 0.000000
    7 0.000000 -0.778212 1.774024 -0.926752 0.000000 0.000000
    8 -0.000001 -1.598867 0.580120 0.000000 0.000000 0.000000
    9 -0.003480 -0.404829 0.000000 0.000000 0.000000 0.000000
    10 -0.519309 -2.501155 -0.278957 -1.003564 0.000000 -0.122173
    11 -0.010598 -1.208185 -0.000001 -1.090831 0.000000 0.000000
    12 0.000000 -0.763066 0.000000 -1.343903 0.000000 0.000000
    13 0.105981 -2.607133 -0.278957 -0.890118 0.000000 -0.148353
    14 0.000000 -1.250578 -0.000001 -1.213004 0.000000 0.000000
    15 0.000000 -0.932634 0.000000 -1.483530 0.000000 0.000000
    16 0.763063 -2.490556 -0.278957 -0.347773 0.030405 0.214564
    17 -0.012322 -1.280917 0.000000 -0.773156 0.000000 0.000000
    18 -0.001697 -0.749371 -0.000001 -0.876155 0.000000 0.000000
    19 0.354567 0.016267 0.318133 0.342077 -0.443527 -1.083976
    20 1.887164 0.012877 0.000000 -0.305433 0.000000 -0.401426
    21 1.001874 -0.000270 -0.000001 0.000000 0.000000 -0.488692
    22 -1.123358 -2.195093 -0.278957 -0.933751 0.000000 -0.087266
    23 0.010772 -0.963791 0.000000 -0.610865 0.000000 0.000000
    24 -0.010412 -0.631916 0.000000 -1.213004 0.000000 0.000000
    25 -1.144079 -0.861116 -10.260372 -0.375299 0.000024 0.602091
    26 0.089930 -8.543163 -0.000001 0.079776 -0.284690 0.455199
    27 0.000000 -0.359712 0.000000 0.000000 0.000000 0.000000
    28 -0.170479 -2.636146 -0.277655 -0.820355 0.000000 0.000000
    29 0.010599 -1.261176 0.000002 -0.584675 0.000000 0.000000
    30 -0.000001 -0.943232 -0.000001 -0.532326 0.000000 0.000000
    31 -0.827563 -2.508973 -0.277656 -0.942512 0.000000 0.000000
    32 0.000000 -1.292971 0.000000 -0.287979 0.000000 0.000000
    33 0.000000 -0.752466 0.000000 -0.445059 0.000000 0.000000
    34 0.444213 -2.561960 -0.277655 -1.081559 -0.046226 -0.024599
    35 0.021022 -1.208186 0.000000 -0.427606 0.000000 0.000000
    36 0.010597 -0.741867 -0.000001 -0.453786 0.000000 0.000000
    37 1.047444 -2.222821 -0.277655 -1.019673 -0.066950 -0.041090
    38 0.000000 -0.996223 -0.000002 -0.584707 0.000000 0.000000
    39 -0.000001 -0.614690 0.000000 -0.523599 0.000000 0.000000
    40 -0.308254 -0.007814 0.307166 -0.318048 -0.539817 -2.424633
    41 1.978377 0.019543 0.000001 -0.000002 -0.000010 0.549776
    42 0.982426 0.003186 0.000000 0.000000 0.000000 0.593405
end
