// Created by Crowbar 0.49.0.0

$modelname "weapons/tfa_cso/c_janus5a.mdl"

$Include "csonline_gmod.qci"

$bodygroup "studio"
{
	studio "v_janusmk5_1"
}
$bodygroup "studio"
{
	studio "v_janusmk5_2"
}

$CDMaterials "models\weapons\tfa_cso\janus5\"

$attachment 0 "Dummy05" 0 0 -13
//$attachment 1 "Dummy05" 0 0 0

$definebone "root" "" -0.349714 2.779532 -0.353638 0.000000 0.000000 0.000000 0.000000 0.000000 0.000000 -0.000000 0.000000 0.000000
$definebone "Bone01" "root" 8.844779 1.143123 -9.088325 -76.177490 70.151576 -90.079049 0.000000 0.000000 0.000000 0.000000 -0.000001 -0.000002
$definebone "Bone_Lefthand" "Bone01" -0.071917 -8.498728 -0.104136 4.939871 -14.070240 12.742982 0.000000 -0.000000 0.000000 0.000000 0.000002 0.000003
$definebone "Bone25" "Bone_Lefthand" 1.752870 -4.320436 0.362270 -4.744548 1.330467 -172.883606 0.000000 0.000000 0.000000 -0.000000 -0.000002 0.000003
$definebone "Bone02" "Bone25" 1.723293 -3.865669 0.031658 0.000033 90.000024 180.000007 0.000000 0.000000 0.000000 0.000003 -0.000002 -0.000000
$definebone "Dummy05" "Bone02" 6.583288 0.064395 -0.088634 0.000000 90.000038 -89.999812 0.000000 0.000000 0.000000 -0.000002 0.000000 -0.000003
$definebone "Bone03" "Bone02" 6.583288 -0.275998 0.507070 0.000000 89.999983 -89.999812 -0.000000 0.000000 0.000000 -0.000002 0.000000 -0.000003
$definebone "Bone20" "Bone02" 5.385345 -1.266238 0.520482 -89.999983 -179.999966 0.000000 0.000000 0.000000 0.000000 0.000003 0.000000 0.000002
$definebone "Bone30" "Bone02" 6.310732 1.236547 0.070117 0.000036 90.000024 -179.999884 0.000000 0.000000 0.000000 -0.000000 -0.000002 0.000003
$definebone "Dummy09" "Bone30" 1.702443 -0.360257 0.070116 0.000003 -89.999983 -179.999966 0.000000 0.000000 0.000000 -0.000003 -0.000002 0.000000
$definebone "Bone26" "Dummy09" 0.000000 0.000000 0.000000 -0.000003 -0.000002 0.000000 0.000000 0.000000 0.000000 -0.000003 -0.000002 0.000000
$definebone "Bone24" "Dummy09" 0.000000 0.000000 0.000000 -0.000003 -0.000002 0.000000 0.000000 0.000000 0.000000 -0.000003 -0.000002 0.000000
$definebone "Bone42" "Bone24" -0.699027 0.000000 0.000000 -0.000003 -0.000002 0.000000 0.000000 0.000000 0.000000 -0.000003 -0.000002 0.000000
$definebone "Bone47" "Bone24" -0.699027 0.000000 0.000000 -0.000003 -0.000002 0.000000 0.000000 0.000000 0.000000 -0.000003 -0.000002 0.000000
$definebone "Dummy10" "Dummy09" 1.094239 0.000001 -0.000001 -0.000003 -0.000002 0.000000 0.000000 0.000000 0.000000 -0.000003 -0.000002 0.000000
$definebone "Bone49" "Dummy10" 0.227943 -0.168612 -0.122500 -47.697810 -89.999922 -90.000092 0.000000 0.000000 0.000000 -0.000004 0.000005 -0.000001
$definebone "Bone46" "Dummy10" 0.084221 -0.100713 -0.529291 53.080041 -90.000024 -90.000072 0.000000 -0.000000 0.000000 0.000002 -0.000005 -0.000003
$definebone "Bone53" "Dummy10" 0.046680 0.291059 -0.459791 41.284618 90.000079 90.000072 0.000000 0.000000 0.000000 0.000004 0.000005 0.000001
$definebone "Bone51" "Dummy10" 0.188129 0.196764 -0.091624 -60.744527 89.999922 90.000147 0.000000 0.000000 0.000000 -0.000002 -0.000002 0.000003
$definebone "Bone46(mirrored)" "Dummy10" 0.084221 -0.100712 0.487661 -53.080068 -89.999874 -90.000147 0.000000 0.000000 0.000000 -0.000004 0.000005 -0.000001
$definebone "Bone53(mirrored)" "Dummy10" 0.046681 0.291060 0.418162 -41.284526 89.999922 90.000092 0.000000 0.000000 0.000000 -0.000001 -0.000005 0.000004
$definebone "Bone51(mirrored)" "Dummy10" 0.188129 0.196764 0.049994 60.744568 90.000140 90.000120 0.000000 0.000000 0.000000 0.000004 0.000002 0.000000
$definebone "Bone49(mirrored)" "Dummy10" 0.227944 -0.168612 0.080872 47.697732 -90.000024 -90.000072 0.000000 0.000000 0.000000 0.000001 -0.000005 -0.000004
$definebone "Bone34" "Bone02" 1.935437 0.814068 0.000585 0.000000 90.000038 0.000061 0.000000 0.000000 0.000000 0.000000 0.000002 0.000003
$definebone "Dummy01" "Bone02" 7.147859 -4.762202 -0.000001 -0.000000 -89.999983 -0.000003 0.000000 0.000000 0.000000 -0.000000 0.000002 -0.000003
$definebone "Bone08" "Dummy01" 0.000000 0.000001 0.000000 -0.000000 0.000002 -0.000003 0.000000 0.000000 0.000000 -0.000000 0.000002 -0.000003
$definebone "Bone16" "Bone30" -3.673337 3.339272 -3.475779 -0.000000 -0.000002 -90.000031 0.000000 0.000000 0.000000 0.000002 -0.000000 -0.000003
$definebone "Bone58" "Bone16" -0.396295 0.966142 -0.097160 30.000049 125.264318 144.735658 0.000000 -0.000000 0.000000 0.000001 0.000002 0.000003
$definebone "Bone60" "Bone16" -0.245335 0.666062 0.418559 -38.287032 115.727380 -127.871784 0.000000 0.000000 0.000000 0.000000 -0.000007 0.000003
$definebone "Bone62" "Bone16" -0.421505 0.664005 -0.248399 21.566633 130.506011 156.718269 0.000000 0.000000 0.000000 0.000001 -0.000003 0.000001
$definebone "Bone56" "Bone16" -0.398724 0.964876 0.092458 -29.999940 125.264373 -144.735535 0.000000 0.000001 0.000000 -0.000000 -0.000005 0.000004
$definebone "Bone70" "Bone16" -0.421505 0.139263 -0.248399 21.566510 -130.506079 -156.718160 -0.000000 -0.000000 0.000000 -0.000001 0.000003 -0.000001
$definebone "Bone74" "Bone16" 0.419137 0.140368 0.242360 -25.221092 -45.277297 23.280015 0.000000 0.000000 0.000000 -0.000004 0.000010 -0.000001
$definebone "Bone66" "Bone16" 0.241004 0.138826 -0.425800 34.562994 -59.166193 -43.543136 0.000000 0.000000 0.000000 -0.000003 0.000005 0.000000
$definebone "Bone54" "Bone16" 0.396860 0.796618 0.092823 -30.000015 54.735573 -35.264407 0.000000 0.000000 0.000000 0.000003 -0.000002 0.000002
$definebone "Bone64" "Bone16" 0.241004 0.664333 -0.425800 34.562994 59.166084 43.543133 0.000000 0.000001 0.000000 0.000001 -0.000003 -0.000002
$definebone "Bone68" "Bone16" 0.419138 0.664183 0.242361 -23.161648 50.272922 -25.328690 0.000000 0.000000 0.000001 0.000000 -0.000002 -0.000000
$definebone "Bone50" "Bone16" 0.397198 0.796234 -0.098607 30.000022 54.735627 35.264352 0.000000 0.000000 0.000000 0.000000 -0.000003 -0.000003
$definebone "Bone72" "Bone16" -0.245335 0.138971 0.418558 -38.287097 -115.727489 127.871784 0.000000 0.000000 0.000000 -0.000000 0.000007 0.000002
$definebone "Bone38" "Bone02" 10.158171 0.081614 -0.001400 0.000000 90.000038 0.000118 0.000000 0.000000 0.000000 0.000000 0.000002 0.000003
$definebone "Dummy07" "Bone38" 2.226039 -3.067985 0.411987 -0.000054 -89.999983 -0.000000 0.000000 0.000000 0.000000 0.000003 -0.000002 -0.000000
$definebone "Dummy04" "Bone38" 1.117098 -0.624186 0.369793 -0.000054 -89.999983 -0.000000 0.000000 0.000000 0.000000 0.000003 -0.000002 -0.000000
$definebone "Dummy08" "Bone38" 0.894835 -2.925874 0.901005 -0.000054 -89.999983 -0.000000 0.000000 0.000000 -0.000000 0.000003 -0.000002 -0.000000
$definebone "Dummy06" "Bone38" 1.877442 -4.447732 1.024619 -0.000054 -89.999983 -0.000000 0.000000 0.000000 0.000000 0.000003 -0.000002 -0.000000
$definebone "Dummy03" "Bone38" 0.617299 -7.992705 1.145319 -0.000054 -89.999983 -0.000000 0.000000 0.000000 0.000000 0.000003 -0.000002 -0.000000
$definebone "Dummy02" "Bone38" 1.552342 -8.629203 0.564427 -0.000054 -89.999983 -0.000000 0.000000 0.000000 0.000000 0.000003 -0.000002 -0.000000
$definebone "Bone12" "Bone25" -0.099180 0.565051 0.048605 -0.000036 -179.999939 -179.999898 0.000000 0.000000 0.000000 -0.000000 0.000002 -0.000003

$sequence "idle1" {
	"v_janusmk5_anims\idle1"
	fps 30
	loop
	activity "ACT_VM_IDLE" 1
	snap
}
$sequence "reload1" {
	"v_janusmk5_anims\reload1"
	{ event 5004 15 "Janus5.ClipOut" }
	{ event 5004 40 "Janus5.Clipin" }
	{ event 5004 62 "Janus5.Boltpull" }
	fps 30
	activity "ACT_VM_RELOAD" 1
	snap
}
$sequence "draw1" {
	"v_janusmk5_anims\draw1"
	{ event 5004 11 "Janus5.Draw" }
	fps 30
	activity "ACT_VM_DRAW" 1
	snap
}
$sequence "shoot1_1" {
	"v_janusmk5_anims\shoot1_1"
	{ event 5001 0 "#I2 S0.15 R0 F0 P30 T0.01 A1 L0 O0" }
	fps 30
	activity "ACT_VM_PRIMARYATTACK" 1
	snap
}
$sequence "shoot1_signal" {
	"v_janusmk5_anims\shoot1_signal"
	{ event 5001 0 "#I2 S0.15 R0 F0 P30 T0.01 A1 L0 O0" }
	fps 30
}
$sequence "change1" {
	"v_janusmk5_anims\change1"
	{ event 5004 11 "Janus5.Change1" }
	fps 30
}
$sequence "idle2" {
	"v_janusmk5_anims\idle2"
	fps 30
	loop
}
$sequence "draw2" {
	"v_janusmk5_anims\draw2"
	{ event 5004 11 "Janus5.Draw" }
	fps 30
}
$sequence "shoot2_1" {
	"v_janusmk5_anims\shoot2_1"
	{ event 5001 0 "#I25 S0.11 R1 F0 P30 T0.01 A1 L0 O0" }
	fps 30
}
$sequence "shoot2_2" {
	"v_janusmk5_anims\shoot2_2"
	{ event 5001 0 "#I25 S0.11 R1 F0 P30 T0.01 A1 L0 O0" }
	fps 30
}
$sequence "shoot2_3" {
	"v_janusmk5_anims\shoot2_3"
	{ event 5001 0 "#I25 S0.11 R1 F0 P30 T0.01 A1 L0 O0" }
	fps 30
}
$sequence "change2" {
	"v_janusmk5_anims\change2"
	{ event 5004 9 "Janus5.Change2" }
	fps 30
}
$sequence "signal" {
	"v_janusmk5_anims\signal"
	fps 30
	loop
}
$sequence "reload_signal" {
	"v_janusmk5_anims\reload_signal"
	{ event 5004 15 "Janus5.ClipOut" }
	{ event 5004 40 "Janus5.Clipin" }
	{ event 5004 62 "Janus5.Boltpull" }
	fps 30
}
$sequence "draw_signal" {
	"v_janusmk5_anims\draw_signal"
	{ event 5004 11 "Janus5.Draw" }
	fps 30
}
