// Created by Crowbar 0.34.0.0

$ModelName "weapons/tfa_cso/w_pumpkin.mdl"

$BodyGroup "studio"
{
	studio "v_pumpkin_Pumpkin_template"
}

$collisionmodel "v_pumpkin_Pumpkin_template.smd"
{
	$mass 9
}

$CDMaterials "models\weapons\tfa_cso\pumpkin"

$Sequence "idle" {
	"anims\idle.smd"
	fps 30
}