// Created by Crowbar 0.68

$modelname "weapons/tfa_cso/c_mechasaurus_mk1.mdl"

$include "csonline_gmod.qci"

$bodygroup "weapon"
{
	studio "v_y21s4janusa"
}

$cdmaterials "models/weapons/tfa_cso/mechasaurus_mk1"

$attachment 0 "y21s4janus_root" 19.5 0 0
//$attachment 1 "y21s4janus_root" 5 0 0

$sequence "idleA" {
	"v_y21s4janusa_anims\idleA"
	fps 30
	activity "ACT_VM_IDLE" 1
	loop
}
$sequence "reloadA" {
	"v_y21s4janusa_anims\reloadA"
	{ event 5004 11 "MechasaurusMK.ClipOut" }
	{ event 5004 35 "MechasaurusMK.ClipIn1" }
	{ event 5004 41 "MechasaurusMK.ClipIn2" }
	{ event 5004 54 "MechasaurusMK.Boltpull" }
	fps 30
	activity "ACT_VM_RELOAD" 1
	snap
}
$sequence "drawA" {
	"v_y21s4janusa_anims\drawA"
	{ event 5004 0 "MechasaurusMK.Draw" }
	fps 30
	activity "ACT_VM_DRAW" 1
	snap
}
$sequence "shootA" {
	"v_y21s4janusa_anims\shootA"
	{ event 5001 0 "#I217 S0.035 R2 F0 P30 T999 A1 L0 O0 X0 D0" }
	{ event 5001 2 "#I190 S0.04 R2 F0 P30 T999 A1 L0 O0 X0 D0" }
	fps 30
	activity "ACT_VM_PRIMARYATTACK" 1
	snap
}
