version 1
nodes
  0 "root" -1
  1 "Bone01" 0
  2 "Bone_Lefthand" 1
  3 "sfpistol_root" 2
  4 "sfpistol_magazine02" 3
  5 "sfpistol_bettery" 4
  6 "sfpistol_sub_A_Bone02" 5
  7 "sfpistol_magazine01" 3
  8 "sfpistol_magazine_pin01" 7
  9 "sfpistol_magazine_pin03" 7
  10 "sfpistol_magazine_pin04" 7
  11 "sfpistol_magazine_pin02" 7
  12 "sfpistol_sub_A_Bone64" 7
  13 "sfpistol_sub_A_Bone66" 7
  14 "sfpistol_sub_B_Bone20" 7
  15 "sfpistol_sub_A_Bone68" 7
  16 "sfpistol_trigger" 3
  17 "sfpistol_device_top" 3
  18 "sfpistol_device_side" 3
  19 "sfpistol_front_root" 3
  20 "sfpistol_front_device01" 19
  21 "sfpistol_front_device04" 20
  22 "sfpistol_front_device07" 21
  23 "sfpistol_front_device02" 19
  24 "sfpistol_front_device05" 23
  25 "sfpistol_front_device08" 24
  26 "sfpistol_front_device03" 19
  27 "sfpistol_front_device06" 26
  28 "sfpistol_front_device09" 27
  29 "ef_sfpistol_root" 3
  30 "ef_sfpistol_03" 29
  31 "ef_sfpistol_04" 29
  32 "ef_sfpistol_01" 29
  33 "ef_sfpistol_02" 29
  34 "muzzle_point" 0
  35 "Bone_L_Upper" 1
  36 "Bone13" 2
  37 "Bone14" 36
  38 "Bone15" 37
  39 "Bone17" 2
  40 "Bone18" 39
  41 "Bone19" 40
  42 "Bone21" 2
  43 "Bone22" 42
  44 "Bone23" 43
  45 "Bone09" 2
  46 "Bone10" 45
  47 "Bone11" 46
  48 "Bone05" 2
  49 "Bone06" 48
  50 "Bone07" 49
  51 "Bone_Se_Hand-L" 2
  52 "Bone04" 0
  53 "Bone_Righthand" 52
  54 "Bone39" 53
  55 "Bone40" 54
  56 "Bone41" 55
  57 "Bone35" 53
  58 "Bone36" 57
  59 "Bone37" 58
  60 "Bone31" 53
  61 "Bone32" 60
  62 "Bone33" 61
  63 "Bone43" 53
  64 "Bone44" 63
  65 "Bone45" 64
  66 "Bone27" 53
  67 "Bone28" 66
  68 "Bone29" 67
  69 "Bone_Se_Hand-R" 53
  70 "Bone_R_Upper" 52
end
skeleton
  time 0
    0 -4.983280 3.491823 -8.747675 -0.012212 0.082023 0.000000
    1 12.559731 -5.144504 0.078804 4.023522 -1.160841 1.473101
    2 -0.071918 -8.498732 -0.104136 0.310632 0.179526 -0.313808
    3 1.514942 -3.186424 0.666113 -0.419348 -0.107262 -3.451130
    4 -1.487204 -0.072218 0.000000 0.000000 0.000000 -1.275647
    5 1.379861 0.013026 0.000000 0.000000 0.000000 0.000000
    6 1.091372 -0.009931 0.000000 0.000000 0.000000 0.000000
    7 -1.572389 0.220680 0.000000 0.000000 0.000000 -1.282047
    8 1.033914 -0.654510 0.906782 1.570797 -0.982795 -1.564396
    9 1.033878 -0.648745 -0.899195 1.570796 0.982794 -1.564396
    10 1.026259 0.541615 -0.895047 -1.570796 0.982794 1.577196
    11 1.026212 0.549078 0.904648 -1.570796 -0.982794 1.577100
    12 2.983432 -0.034143 -0.952297 1.570796 -0.782206 0.006400
    13 2.975584 0.637833 -0.668710 2.067742 -0.631794 -0.736436
    14 2.869965 -0.034194 -1.053863 1.570796 -0.782206 0.006400
    15 3.169655 0.883133 0.000000 0.000000 0.000000 0.006400
    16 -0.203741 0.515950 0.000000 0.000000 0.000000 0.295150
    17 -3.179013 1.492042 -0.000001 0.000001 0.000000 -2.846443
    18 -1.913326 1.338252 0.551623 0.295134 -1.570319 0.000000
    19 -2.138677 2.346086 -0.000002 0.000000 0.000000 1.865945
    20 1.818063 0.466136 0.003944 1.570797 0.000001 1.570796
    21 0.135499 0.000001 1.482926 0.000000 0.000000 0.000000
    22 0.891297 0.000000 0.321762 0.000000 0.032802 0.000000
    23 1.818065 -0.578425 0.580762 -1.570795 -0.961963 -1.570797
    24 0.135498 0.000000 1.482926 0.000000 0.000000 0.000000
    25 0.891296 0.000000 0.321763 0.000000 0.032790 0.000000
    26 1.818063 -0.569497 -0.593872 -1.570796 0.955859 -1.570796
    27 0.135498 0.000001 1.482926 0.000000 0.000000 0.000000
    28 0.891296 0.000000 0.321763 0.000000 0.032802 0.000000
    29 -0.691148 -3.020236 0.046878 0.000000 0.000000 1.865945
    30 -0.002248 -0.869789 0.841686 -1.570796 -0.874057 -1.570796
    31 -0.002249 -0.869789 -0.845820 1.570796 2.267536 1.570796
    32 -0.002249 0.786466 -0.845820 -1.570796 2.267536 -1.570796
    33 -0.002248 0.786466 0.841685 1.570796 -0.874056 1.570796
    34 0.000000 0.000000 0.000000 0.000000 0.000000 0.000000
    35 1.257180 8.762585 -0.153713 -1.570562 0.002683 -1.566807
    36 -0.347889 -2.560283 0.029560 -0.746140 0.229962 -0.362943
    37 0.039887 -1.479790 0.029854 -1.759313 0.000000 0.000001
    38 0.028786 -1.075731 -0.023109 -0.810791 0.000000 0.000000
    39 0.304716 -2.726912 -0.160269 -0.642944 0.204341 -0.294863
    40 -0.049759 -1.680544 0.100479 -1.781109 0.000000 -0.000002
    41 -0.034142 -1.148312 0.084782 -0.983659 0.000000 0.000000
    42 0.875732 -3.125698 -0.211399 -0.618397 0.049575 -0.055073
    43 -0.033420 -1.397129 -0.011257 -1.773707 0.000000 -0.000001
    44 -0.022360 -0.957436 0.018784 -0.747703 0.102384 -0.052996
    45 -0.993175 -2.593157 0.396003 -0.185516 0.194141 -0.191771
    46 -0.024967 -1.123934 0.017597 -1.928490 0.013147 -0.288660
    47 -0.020057 -0.890968 0.010090 -0.755224 0.000000 0.000000
    48 0.997585 -1.123056 0.138503 0.726976 -0.934910 -0.966623
    49 1.535927 0.010246 0.005009 0.045274 0.012536 -0.936292
    50 1.100771 0.004527 -0.010679 -0.197534 0.176471 -0.178292
    51 -0.043915 -0.132304 -0.316216 -2.812271 5.925377 -1.395012
    52 -2.763032 -4.715619 -1.462265 -0.694512 -5.301429 0.148535
    53 0.096944 -8.450418 -0.009365 0.308081 -1.204013 0.335124
    54 0.447953 -2.798986 -0.200443 -0.405051 -0.173207 0.312319
    55 -0.032909 -1.480204 0.004940 -1.309596 0.000000 0.000002
    56 -0.027022 -1.076920 -0.020210 0.168442 0.000000 0.000000
    57 -0.249534 -2.846964 -0.174213 -0.171002 -0.089770 0.289110
    58 0.043235 -1.683941 0.096012 -1.549351 0.002823 -0.000167
    59 0.031729 -1.160830 0.058838 0.068761 0.000642 0.008372
    60 -0.963866 -2.785145 -0.085350 0.035043 0.089944 0.201956
    61 0.028479 -1.403067 0.006271 -1.285362 0.000000 0.000000
    62 0.021413 -0.957781 0.020046 -0.048312 0.000000 0.000000
    63 1.164475 -2.543940 -0.170330 -0.363571 -0.311871 0.210107
    64 0.024032 -1.129042 0.017807 -0.793235 0.000000 0.000001
    65 0.014898 -0.883989 -0.019848 -0.202298 0.000000 0.000000
    66 -0.586770 -1.264477 0.200161 -0.210673 -0.355487 -2.365980
    67 1.522835 0.058681 0.016848 0.025655 0.288010 0.598498
    68 1.117947 0.048424 -0.005766 0.027789 -0.079884 -0.363462
    69 -0.041740 -0.150762 -0.059824 0.982966 0.417626 1.396892
    70 -1.393470 8.839177 -0.239433 1.580804 -0.005023 -1.566847
  time 1
    0 -4.948123 3.480104 -8.728143 -0.009336 0.079254 0.000000
    1 12.559731 -5.144504 0.078804 4.023522 -1.160841 1.473101
    2 -0.071918 -8.498732 -0.104136 0.310452 0.180892 -0.316313
    3 1.514942 -3.186424 0.666113 -0.419348 -0.107262 -3.451130
    4 -1.487204 -0.072218 0.000000 0.000000 0.000000 -1.275647
    5 1.379861 0.013026 0.000000 -0.180920 0.000000 0.000000
    6 1.091372 -0.009931 0.000000 0.351772 0.000000 0.000000
    7 -1.572389 0.220680 0.000000 0.000000 0.000000 -1.282047
    8 1.033914 -0.654510 0.906782 1.570797 -0.982795 -1.564396
    9 1.033878 -0.648745 -0.899195 1.570796 0.982794 -1.564396
    10 1.026259 0.541615 -0.895047 -1.570796 0.982794 1.577196
    11 1.026212 0.549078 0.904648 -1.570796 -0.982794 1.577100
    12 2.983432 -0.034143 -0.952297 1.570796 -0.782206 0.006400
    13 2.975584 0.637833 -0.668710 2.067742 -0.631794 -0.736436
    14 2.869965 -0.034194 -1.053863 1.570796 -0.782206 0.006400
    15 3.169655 0.883133 0.000000 0.000000 0.000000 0.006400
    16 -0.207648 0.519856 0.000000 0.000000 0.000000 0.295150
    17 -3.179013 1.492042 -0.000001 0.000001 0.000000 -2.846443
    18 -1.913326 1.338252 0.551623 0.295134 -1.570319 0.000000
    19 -2.138677 2.346086 -0.000002 0.000000 0.000000 1.865945
    20 1.818063 0.430979 0.003944 1.570797 0.000001 1.570796
    21 0.139405 0.000001 1.479020 0.000000 0.000000 0.000000
    22 0.891297 0.000000 0.321762 0.000000 0.032802 0.000000
    23 1.818065 -0.558893 0.549511 -1.570795 -0.961963 -1.570797
    24 0.139404 0.000000 1.479020 0.000000 0.000000 0.000000
    25 0.891296 0.000000 0.321763 0.000000 0.032790 0.000000
    26 1.818063 -0.549965 -0.562621 -1.570796 0.955859 -1.570796
    27 0.139404 0.000001 1.479020 0.000000 0.000000 0.000000
    28 0.891296 0.000000 0.321763 0.000000 0.032802 0.000000
    29 -0.691148 -3.020236 0.046878 0.000000 0.000000 1.865945
    30 -0.002248 -0.869789 0.841686 -1.570796 -0.874057 -1.570796
    31 -0.002249 -0.869789 -0.845820 1.570796 2.267536 1.570796
    32 -0.002249 0.786466 -0.845820 -1.570796 2.267536 -1.570796
    33 -0.002248 0.786466 0.841685 1.570796 -0.874056 1.570796
    34 -0.031251 0.011719 -0.019532 -0.002864 0.002756 0.000024
    35 1.257180 8.762585 -0.153713 -1.570562 0.002683 -1.566807
    36 -0.347889 -2.560283 0.029560 -0.746140 0.229962 -0.362943
    37 0.039887 -1.479790 0.029854 -1.759313 0.000000 0.000001
    38 0.028786 -1.075731 -0.023109 -0.810791 0.000000 0.000000
    39 0.304716 -2.726912 -0.160269 -0.635149 0.204341 -0.294863
    40 -0.049759 -1.680544 0.100479 -1.781109 0.000000 -0.000002
    41 -0.034142 -1.148312 0.084782 -0.983659 0.000000 0.000000
    42 0.875732 -3.125698 -0.211399 -0.607222 0.048712 -0.054809
    43 -0.033420 -1.397129 -0.011257 -1.773707 0.000000 -0.000001
    44 -0.022360 -0.957436 0.018784 -0.725089 0.102384 -0.052996
    45 -0.993175 -2.593157 0.396003 -0.185516 0.194141 -0.191771
    46 -0.024967 -1.123934 0.017597 -1.928490 0.013147 -0.288660
    47 -0.020057 -0.890968 0.010090 -0.755224 0.000000 0.000000
    48 0.997585 -1.123056 0.138503 0.726976 -0.934910 -0.966623
    49 1.535927 0.010246 0.005009 0.045274 0.012536 -0.936292
    50 1.100771 0.004527 -0.010679 -0.195185 0.170706 -0.186992
    51 -0.043915 -0.132304 -0.316216 -2.812271 5.925377 -1.395012
    52 -2.763032 -4.707806 -1.450546 -0.689894 -5.302477 0.152846
    53 0.096944 -8.450418 -0.009365 0.308081 -1.204013 0.335124
    54 0.447953 -2.798986 -0.200443 -0.405051 -0.173207 0.312319
    55 -0.032909 -1.480204 0.004940 -1.309596 0.000000 0.000002
    56 -0.027022 -1.076920 -0.020210 0.168442 0.000000 0.000000
    57 -0.249534 -2.846964 -0.174213 -0.171002 -0.089770 0.289110
    58 0.043235 -1.683941 0.096012 -1.549351 0.002823 -0.000167
    59 0.031729 -1.160830 0.058838 0.068761 0.000642 0.008372
    60 -0.963866 -2.785145 -0.085350 0.035043 0.089944 0.201956
    61 0.028479 -1.403067 0.006271 -1.285362 0.000000 0.000000
    62 0.021413 -0.957781 0.020046 -0.048312 0.000000 0.000000
    63 1.164475 -2.543940 -0.170330 -0.363571 -0.311871 0.210107
    64 0.024032 -1.129042 0.017807 -0.793235 0.000000 0.000001
    65 0.014898 -0.883989 -0.019848 -0.202298 0.000000 0.000000
    66 -0.586770 -1.264477 0.200161 -0.210673 -0.355487 -2.365980
    67 1.522835 0.058681 0.016848 0.025655 0.288010 0.598498
    68 1.117947 0.048424 -0.005766 0.027789 -0.079884 -0.363462
    69 -0.041740 -0.150762 -0.059824 0.982966 0.417626 1.396892
    70 -1.393470 8.839177 -0.239433 1.580804 -0.005023 -1.566847
  time 2
    0 -4.846557 3.444947 -8.673454 -0.001774 0.071955 0.000000
    1 12.559731 -5.144504 0.078804 4.023522 -1.160841 1.473101
    2 -0.071918 -8.498732 -0.104136 0.309977 0.184512 -0.322889
    3 1.514942 -3.186424 0.666113 -0.419348 -0.107262 -3.451130
    4 -1.487204 -0.072218 0.000000 0.000000 0.000000 -1.275647
    5 1.379861 0.013026 0.000000 -0.672281 0.000000 0.000000
    6 1.091372 -0.009931 0.000000 1.306895 0.000000 0.000000
    7 -1.572389 0.220680 0.000000 0.000000 0.000000 -1.282047
    8 1.033914 -0.654510 0.906782 1.570797 -0.982795 -1.564396
    9 1.033878 -0.648745 -0.899195 1.570796 0.982794 -1.564396
    10 1.026259 0.541615 -0.895047 -1.570796 0.982794 1.577196
    11 1.026212 0.549078 0.904648 -1.570796 -0.982794 1.577100
    12 2.983432 -0.034143 -0.952297 1.570796 -0.782206 0.006400
    13 2.975584 0.637833 -0.668710 2.067742 -0.631794 -0.736436
    14 2.869965 -0.034194 -1.053863 1.570796 -0.782206 0.006400
    15 3.169655 0.883133 0.000000 0.000000 0.000000 0.006400
    16 -0.211554 0.535482 0.000000 0.000000 0.000000 0.295150
    17 -3.179013 1.492042 -0.000001 0.000001 0.000000 -2.846443
    18 -1.913326 1.338252 0.551623 0.295134 -1.570319 0.000000
    19 -2.138677 2.346086 -0.000002 0.000000 0.000000 1.865945
    20 1.818063 0.341132 0.003944 1.570797 0.000001 1.570796
    21 0.155031 0.000001 1.463394 0.000000 0.000000 0.000000
    22 0.891297 0.000000 0.321762 0.000000 0.032802 0.000000
    23 1.818065 -0.500298 0.471384 -1.570795 -0.961963 -1.570797
    24 0.155030 0.000000 1.463394 0.000000 0.000000 0.000000
    25 0.891296 0.000000 0.321763 0.000000 0.032790 0.000000
    26 1.818063 -0.491370 -0.484494 -1.570796 0.955859 -1.570796
    27 0.155030 0.000001 1.463394 0.000000 0.000000 0.000000
    28 0.891296 0.000000 0.321763 0.000000 0.032802 0.000000
    29 -0.691148 -3.020236 0.046878 0.000000 0.000000 1.865945
    30 -0.002248 -0.869789 0.841686 -1.570796 -0.874057 -1.570796
    31 -0.002249 -0.869789 -0.845820 1.570796 2.267536 1.570796
    32 -0.002249 0.786466 -0.845820 -1.570796 2.267536 -1.570796
    33 -0.002248 0.786466 0.841685 1.570796 -0.874056 1.570796
    34 -0.128910 0.046876 -0.082034 -0.010439 0.010055 0.000012
    35 1.257180 8.762585 -0.153713 -1.570562 0.002683 -1.566807
    36 -0.347889 -2.560283 0.029560 -0.746140 0.229962 -0.362943
    37 0.039887 -1.479790 0.029854 -1.759313 0.000000 0.000001
    38 0.028786 -1.075731 -0.023109 -0.810791 0.000000 0.000000
    39 0.304716 -2.726912 -0.160269 -0.616529 0.204341 -0.294863
    40 -0.049759 -1.680544 0.100479 -1.781109 0.000000 -0.000002
    41 -0.034142 -1.148312 0.084782 -0.983659 0.000000 0.000000
    42 0.875732 -3.125698 -0.211399 -0.575790 0.046291 -0.054066
    43 -0.033420 -1.397129 -0.011257 -1.773707 0.000000 -0.000001
    44 -0.022360 -0.957436 0.018784 -0.666764 0.102384 -0.052996
    45 -0.993175 -2.593157 0.396003 -0.185516 0.194141 -0.191771
    46 -0.024967 -1.123934 0.017597 -1.928490 0.013147 -0.288660
    47 -0.020057 -0.890968 0.010090 -0.755224 0.000000 0.000000
    48 0.997585 -1.123056 0.138503 0.726976 -0.934910 -0.966623
    49 1.535927 0.010246 0.005009 0.045274 0.012536 -0.936292
    50 1.100771 0.004527 -0.010679 -0.188605 0.154503 -0.211457
    51 -0.043915 -0.132304 -0.316216 -2.812271 5.925377 -1.395012
    52 -2.763032 -4.688275 -1.423202 -0.677701 -5.305245 0.164151
    53 0.096944 -8.450418 -0.009365 0.308081 -1.204013 0.335124
    54 0.447953 -2.798986 -0.200443 -0.405051 -0.173207 0.312319
    55 -0.032909 -1.480204 0.004940 -1.309596 0.000000 0.000002
    56 -0.027022 -1.076920 -0.020210 0.168442 0.000000 0.000000
    57 -0.249534 -2.846964 -0.174213 -0.171002 -0.089770 0.289110
    58 0.043235 -1.683941 0.096012 -1.549351 0.002823 -0.000167
    59 0.031729 -1.160830 0.058838 0.068761 0.000642 0.008372
    60 -0.963866 -2.785145 -0.085350 0.035043 0.089944 0.201956
    61 0.028479 -1.403067 0.006271 -1.285362 0.000000 0.000000
    62 0.021413 -0.957781 0.020046 -0.048312 0.000000 0.000000
    63 1.164475 -2.543940 -0.170330 -0.363571 -0.311871 0.210107
    64 0.024032 -1.129042 0.017807 -0.793235 0.000000 0.000001
    65 0.014898 -0.883989 -0.019848 -0.202298 0.000000 0.000000
    66 -0.586770 -1.264477 0.200161 -0.210673 -0.355487 -2.365980
    67 1.522835 0.058681 0.016848 0.025655 0.288010 0.598498
    68 1.117947 0.048424 -0.005766 0.027789 -0.079884 -0.363462
    69 -0.041740 -0.150762 -0.059824 0.982966 0.417626 1.396892
    70 -1.393470 8.839177 -0.239433 1.580804 -0.005023 -1.566847
  time 3
    0 -4.686396 3.394164 -8.595327 0.008917 0.061649 0.000000
    1 12.559731 -5.144504 0.078804 4.023522 -1.160841 1.473101
    2 -0.071918 -8.498732 -0.104136 0.309309 0.189617 -0.332194
    3 1.514942 -3.186424 0.666113 -0.419348 -0.107262 -3.451130
    4 -1.487204 -0.072218 0.000000 0.000000 0.000000 -1.275647
    5 1.379861 0.013026 0.000000 -1.396240 0.000000 0.000000
    6 1.091372 -0.009931 0.000000 2.714270 0.000000 0.000000
    7 -1.572389 0.220680 0.000000 0.000000 0.000000 -1.282047
    8 1.033914 -0.654510 0.906782 1.570797 -0.982795 -1.564396
    9 1.033878 -0.648745 -0.899195 1.570796 0.982794 -1.564396
    10 1.026259 0.541615 -0.895047 -1.570796 0.982794 1.577196
    11 1.026212 0.549078 0.904648 -1.570796 -0.982794 1.577100
    12 2.983432 -0.034143 -0.952297 1.570796 -0.782206 0.006400
    13 2.975584 0.637833 -0.668710 2.067742 -0.631794 -0.736436
    14 2.869965 -0.034194 -1.053863 1.570796 -0.782206 0.006400
    15 3.169655 0.883133 0.000000 0.000000 0.000000 0.006400
    16 -0.215460 0.558920 0.000000 0.000000 0.000000 0.295150
    17 -3.179013 1.492042 -0.000001 0.000001 0.000000 -2.846443
    18 -1.913326 1.338252 0.551623 0.295134 -1.570319 0.000000
    19 -2.138677 2.346086 -0.000002 0.000000 0.000000 1.865945
    20 1.818063 0.227847 0.003944 1.570797 0.000001 1.570796
    21 0.178469 0.000001 1.436050 0.000000 0.000000 0.000000
    22 0.891297 0.000000 0.321762 0.000000 0.032802 0.000000
    23 1.818065 -0.429983 0.365912 -1.570795 -0.961963 -1.570797
    24 0.178468 0.000000 1.436050 0.000000 0.000000 0.000000
    25 0.891296 0.000000 0.321763 0.000000 0.032790 0.000000
    26 1.818063 -0.417149 -0.379022 -1.570796 0.955859 -1.570796
    27 0.178468 0.000001 1.436050 0.000000 0.000000 0.000000
    28 0.891296 0.000000 0.321763 0.000000 0.032802 0.000000
    29 -0.691148 -3.020236 0.046878 0.000000 0.000000 1.865945
    30 -0.002248 -0.869789 0.841686 -1.570796 -0.874057 -1.570796
    31 -0.002249 -0.869789 -0.845820 1.570796 2.267536 1.570796
    32 -0.002249 0.786466 -0.845820 -1.570796 2.267536 -1.570796
    33 -0.002248 0.786466 0.841685 1.570796 -0.874056 1.570796
    34 -0.285165 0.097659 -0.167974 -0.021141 0.020374 -0.000180
    35 1.257180 8.762585 -0.153713 -1.570562 0.002683 -1.566807
    36 -0.347889 -2.560283 0.029560 -0.746140 0.229962 -0.362943
    37 0.039887 -1.479790 0.029854 -1.759313 0.000000 0.000001
    38 0.028786 -1.075731 -0.023109 -0.810791 0.000000 0.000000
    39 0.304716 -2.726912 -0.160269 -0.594293 0.204341 -0.294863
    40 -0.049759 -1.680544 0.100479 -1.781109 0.000000 -0.000002
    41 -0.034142 -1.148312 0.084782 -0.983659 0.000000 0.000000
    42 0.875732 -3.125698 -0.211399 -0.527217 0.042528 -0.052916
    43 -0.033420 -1.397129 -0.011257 -1.773707 0.000000 -0.000001
    44 -0.022360 -0.957436 0.018784 -0.587017 0.102384 -0.052996
    45 -0.993175 -2.593157 0.396003 -0.185516 0.194141 -0.191771
    46 -0.024967 -1.123934 0.017597 -1.928490 0.013147 -0.288660
    47 -0.020057 -0.890968 0.010090 -0.755224 0.000000 0.000000
    48 0.997585 -1.123056 0.138503 0.726976 -0.934910 -0.966623
    49 1.535927 0.010246 0.005009 0.045274 0.012536 -0.936292
    50 1.100771 0.004527 -0.010679 -0.178430 0.129443 -0.249236
    51 -0.043915 -0.132304 -0.316216 -2.812271 5.925377 -1.395012
    52 -2.763032 -4.664836 -1.384138 -0.660643 -5.309361 0.180054
    53 0.096944 -8.450418 -0.009365 0.308081 -1.204013 0.335124
    54 0.447953 -2.798986 -0.200443 -0.405051 -0.173207 0.312319
    55 -0.032909 -1.480204 0.004940 -1.309596 0.000000 0.000002
    56 -0.027022 -1.076920 -0.020210 0.168442 0.000000 0.000000
    57 -0.249534 -2.846964 -0.174213 -0.171002 -0.089770 0.289110
    58 0.043235 -1.683941 0.096012 -1.549351 0.002823 -0.000167
    59 0.031729 -1.160830 0.058838 0.068761 0.000642 0.008372
    60 -0.963866 -2.785145 -0.085350 0.035043 0.089944 0.201956
    61 0.028479 -1.403067 0.006271 -1.285362 0.000000 0.000000
    62 0.021413 -0.957781 0.020046 -0.048312 0.000000 0.000000
    63 1.164475 -2.543940 -0.170330 -0.363571 -0.311871 0.210107
    64 0.024032 -1.129042 0.017807 -0.793235 0.000000 0.000001
    65 0.014898 -0.883989 -0.019848 -0.202298 0.000000 0.000000
    66 -0.586770 -1.264477 0.200161 -0.210673 -0.355487 -2.365980
    67 1.522835 0.058681 0.016848 0.025655 0.288010 0.598498
    68 1.117947 0.048424 -0.005766 0.027789 -0.079884 -0.363462
    69 -0.041740 -0.150762 -0.059824 0.982966 0.417626 1.396892
    70 -1.393470 8.839177 -0.239433 1.580804 -0.005023 -1.566847
  time 4
    0 -4.471546 3.331662 -8.505480 0.021189 0.049820 0.000000
    1 12.559731 -5.144504 0.078804 4.023522 -1.160841 1.473101
    2 -0.071918 -8.498732 -0.104136 0.308538 0.195477 -0.342863
    3 1.514942 -3.186424 0.666113 -0.419348 -0.107262 -3.451130
    4 -1.487204 -0.072218 0.000000 0.000000 0.000000 -1.275647
    5 1.379861 0.013026 0.000000 -2.275326 0.000000 0.000000
    6 1.091372 -0.009931 0.000000 -1.859816 0.000000 0.000000
    7 -1.572389 0.220680 0.000000 0.000000 0.000000 -1.282047
    8 1.033914 -0.654510 0.906782 1.570797 -0.982795 -1.564396
    9 1.033878 -0.648745 -0.899195 1.570796 0.982794 -1.564396
    10 1.026259 0.541615 -0.895047 -1.570796 0.982794 1.577196
    11 1.026212 0.549078 0.904648 -1.570796 -0.982794 1.577100
    12 2.983432 -0.034143 -0.952297 1.570796 -0.782206 0.006400
    13 2.975584 0.637833 -0.668710 2.067742 -0.631794 -0.736436
    14 2.869965 -0.034194 -1.053863 1.570796 -0.782206 0.006400
    15 3.169655 0.883133 0.000000 0.000000 0.000000 0.006400
    16 -0.227179 0.590171 0.000000 0.000000 0.000000 0.295150
    17 -3.179013 1.492042 -0.000001 0.000001 0.000000 -2.846443
    18 -1.913326 1.338252 0.551623 0.295134 -1.570319 0.000000
    19 -2.138677 2.346086 -0.000002 0.000000 0.000000 1.865945
    20 1.818063 0.110656 0.003944 1.570797 0.000001 1.570796
    21 0.205814 0.000001 1.404799 0.000000 0.000000 0.000000
    22 0.891297 0.000000 0.321762 0.000000 0.032802 0.000000
    23 1.818065 -0.355762 0.260440 -1.570795 -0.961963 -1.570797
    24 0.205813 0.000000 1.404799 0.000000 0.000000 0.000000
    25 0.891296 0.000000 0.321763 0.000000 0.032790 0.000000
    26 1.818063 -0.342928 -0.273550 -1.570796 0.955859 -1.570796
    27 0.205813 0.000001 1.404799 0.000000 0.000000 0.000000
    28 0.891296 0.000000 0.321763 0.000000 0.032802 0.000000
    29 -0.691148 -3.020236 0.046878 0.000000 0.000000 1.865945
    30 -0.002248 -0.869789 0.841686 -1.570796 -0.874057 -1.570796
    31 -0.002249 -0.869789 -0.845820 1.570796 2.267536 1.570796
    32 -0.002249 0.786466 -0.845820 -1.570796 2.267536 -1.570796
    33 -0.002248 0.786466 0.841685 1.570796 -0.874056 1.570796
    34 -0.500015 0.152348 -0.269539 -0.033413 0.032191 -0.000671
    35 1.257180 8.762585 -0.153713 -1.570562 0.002683 -1.566807
    36 -0.347889 -2.560283 0.029560 -0.746140 0.229962 -0.362943
    37 0.039887 -1.479790 0.029854 -1.759313 0.000000 0.000001
    38 0.028786 -1.075731 -0.023109 -0.810791 0.000000 0.000000
    39 0.304716 -2.726912 -0.160269 -0.575673 0.204341 -0.294863
    40 -0.049759 -1.680544 0.100479 -1.781109 0.000000 -0.000002
    41 -0.034142 -1.148312 0.084782 -0.983659 0.000000 0.000000
    42 0.875732 -3.125698 -0.211399 -0.464621 0.037686 -0.051442
    43 -0.033420 -1.397129 -0.011257 -1.773707 0.000000 -0.000001
    44 -0.022360 -0.957436 0.018784 -0.500138 0.102384 -0.052996
    45 -0.993175 -2.593157 0.396003 -0.185516 0.194141 -0.191771
    46 -0.024967 -1.123934 0.017597 -1.928490 0.013147 -0.288660
    47 -0.020057 -0.890968 0.010090 -0.755224 0.000000 0.000000
    48 0.997585 -1.123056 0.138503 0.726976 -0.934910 -0.966623
    49 1.535927 0.010246 0.005009 0.045274 0.012536 -0.936292
    50 1.100771 0.004527 -0.010679 -0.165331 0.097157 -0.297956
    51 -0.043915 -0.132304 -0.316216 -2.812271 5.925377 -1.395012
    52 -2.763032 -4.637492 -1.341168 -0.641368 -5.314149 0.197970
    53 0.096944 -8.450418 -0.009365 0.308081 -1.204013 0.335124
    54 0.447953 -2.798986 -0.200443 -0.405051 -0.173207 0.312319
    55 -0.032909 -1.480204 0.004940 -1.309596 0.000000 0.000002
    56 -0.027022 -1.076920 -0.020210 0.168442 0.000000 0.000000
    57 -0.249534 -2.846964 -0.174213 -0.171002 -0.089770 0.289110
    58 0.043235 -1.683941 0.096012 -1.549351 0.002823 -0.000167
    59 0.031729 -1.160830 0.058838 0.068761 0.000642 0.008372
    60 -0.963866 -2.785145 -0.085350 0.035043 0.089944 0.201956
    61 0.028479 -1.403067 0.006271 -1.285362 0.000000 0.000000
    62 0.021413 -0.957781 0.020046 -0.048312 0.000000 0.000000
    63 1.164475 -2.543940 -0.170330 -0.363571 -0.311871 0.210107
    64 0.024032 -1.129042 0.017807 -0.793235 0.000000 0.000001
    65 0.014898 -0.883989 -0.019848 -0.202298 0.000000 0.000000
    66 -0.586770 -1.264477 0.200161 -0.210673 -0.355487 -2.365980
    67 1.522835 0.058681 0.016848 0.025655 0.288010 0.598498
    68 1.117947 0.048424 -0.005766 0.027789 -0.079884 -0.363462
    69 -0.041740 -0.150762 -0.059824 0.982966 0.417626 1.396892
    70 -1.393470 8.839177 -0.239433 1.580804 -0.005023 -1.566847
  time 5
    0 -4.202006 3.265254 -8.407821 0.033449 0.037991 0.000000
    1 12.559731 -5.144504 0.078804 4.023522 -1.160841 1.473101
    2 -0.071918 -8.498732 -0.104136 0.307768 0.201338 -0.353532
    3 1.514942 -3.186424 0.666113 -0.419348 -0.107262 -3.451130
    4 -1.487204 -0.072218 0.000000 0.000000 0.000000 -1.275647
    5 1.379861 0.013026 0.000000 3.050963 0.000000 0.000000
    6 1.091372 -0.009931 0.000000 0.000000 0.000000 0.000000
    7 -1.572389 0.220680 0.000000 0.000000 0.000000 -1.282047
    8 1.033914 -0.654510 0.906782 1.570797 -0.982795 -1.564396
    9 1.033878 -0.648745 -0.899195 1.570796 0.982794 -1.564396
    10 1.026259 0.541615 -0.895047 -1.570796 0.982794 1.577196
    11 1.026212 0.549078 0.904648 -1.570796 -0.982794 1.577100
    12 2.983432 -0.034143 -0.952297 1.570796 -0.782206 0.006400
    13 2.975584 0.637833 -0.668710 2.067742 -0.631794 -0.736436
    14 2.869965 -0.034194 -1.053863 1.570796 -0.782206 0.006400
    15 3.169655 0.883133 0.000000 0.000000 0.000000 0.006400
    16 -0.238899 0.625328 0.000000 0.000000 0.000000 0.295150
    17 -3.179013 1.492042 -0.000001 0.000001 0.000000 -2.846443
    18 -1.913326 1.338252 0.551623 0.295134 -1.570319 0.000000
    19 -2.138677 2.346086 -0.000002 0.000000 0.000000 1.865945
    20 1.818063 0.020810 0.003944 1.570797 0.000001 1.570796
    21 0.237065 0.000001 1.373548 0.000000 0.000000 0.000000
    22 0.891297 0.000000 0.321762 0.000000 0.032802 0.000000
    23 1.818065 -0.297166 0.178406 -1.570795 -0.961963 -1.570797
    24 0.237064 0.000000 1.373548 0.000000 0.000000 0.000000
    25 0.891296 0.000000 0.321763 0.000000 0.032790 0.000000
    26 1.818063 -0.288238 -0.191516 -1.570796 0.955859 -1.570796
    27 0.237064 0.000001 1.373548 0.000000 0.000000 0.000000
    28 0.891296 0.000000 0.321763 0.000000 0.032802 0.000000
    29 -0.691148 -3.020236 0.046878 0.000000 0.000000 1.865945
    30 -0.002248 -0.869789 0.841686 -1.570796 -0.874057 -1.570796
    31 -0.002249 -0.869789 -0.845820 1.570796 2.267536 1.570796
    32 -0.002249 0.786466 -0.845820 -1.570796 2.267536 -1.570796
    33 -0.002248 0.786466 0.841685 1.570796 -0.874056 1.570796
    34 -0.765648 0.214850 -0.375011 -0.045697 0.043995 -0.001462
    35 1.257180 8.762585 -0.153713 -1.570562 0.002683 -1.566807
    36 -0.347889 -2.560283 0.029560 -0.746140 0.229962 -0.362943
    37 0.039887 -1.479790 0.029854 -1.759313 0.000000 0.000001
    38 0.028786 -1.075731 -0.023109 -0.810791 0.000000 0.000000
    39 0.304716 -2.726912 -0.160269 -0.567857 0.204341 -0.294863
    40 -0.049759 -1.680544 0.100479 -1.781109 0.000000 -0.000002
    41 -0.034142 -1.148312 0.084782 -0.983659 0.000000 0.000000
    42 0.875732 -3.125698 -0.211399 -0.391118 0.032005 -0.049704
    43 -0.033420 -1.397129 -0.011257 -1.773707 0.000000 -0.000001
    44 -0.022360 -0.957436 0.018784 -0.420392 0.102384 -0.052996
    45 -0.993175 -2.593157 0.396003 -0.185516 0.194141 -0.191771
    46 -0.024967 -1.123934 0.017597 -1.928490 0.013147 -0.288660
    47 -0.020057 -0.890968 0.010090 -0.755224 0.000000 0.000000
    48 0.997585 -1.123056 0.138503 0.726976 -0.934910 -0.966623
    49 1.535927 0.010246 0.005009 0.045274 0.012536 -0.936292
    50 1.100771 0.004527 -0.010679 -0.149931 0.059237 -0.355138
    51 -0.043915 -0.132304 -0.316216 -2.812271 5.925377 -1.395012
    52 -2.766939 -4.610147 -1.294291 -0.622401 -5.319163 0.215598
    53 0.096944 -8.450418 -0.009365 0.308081 -1.204013 0.335124
    54 0.447953 -2.798986 -0.200443 -0.405051 -0.173207 0.312319
    55 -0.032909 -1.480204 0.004940 -1.309596 0.000000 0.000002
    56 -0.027022 -1.076920 -0.020210 0.168442 0.000000 0.000000
    57 -0.249534 -2.846964 -0.174213 -0.171002 -0.089770 0.289110
    58 0.043235 -1.683941 0.096012 -1.549351 0.002823 -0.000167
    59 0.031729 -1.160830 0.058838 0.068761 0.000642 0.008372
    60 -0.963866 -2.785145 -0.085350 0.035043 0.089944 0.201956
    61 0.028479 -1.403067 0.006271 -1.285362 0.000000 0.000000
    62 0.021413 -0.957781 0.020046 -0.048312 0.000000 0.000000
    63 1.164475 -2.543940 -0.170330 -0.363571 -0.311871 0.210107
    64 0.024032 -1.129042 0.017807 -0.793235 0.000000 0.000001
    65 0.014898 -0.883989 -0.019848 -0.202298 0.000000 0.000000
    66 -0.586770 -1.264477 0.200161 -0.210673 -0.355487 -2.365980
    67 1.522835 0.058681 0.016848 0.025655 0.288010 0.598498
    68 1.117947 0.048424 -0.005766 0.027789 -0.079884 -0.363462
    69 -0.041740 -0.150762 -0.059824 0.982966 0.417626 1.396892
    70 -1.393470 8.839177 -0.239433 1.580804 -0.005023 -1.566847
  time 6
    0 -3.889497 3.198845 -8.310162 0.044151 0.027684 0.000000
    1 12.559731 -5.144504 0.078804 4.023522 -1.160841 1.473101
    2 -0.071918 -8.498732 -0.104136 0.307100 0.206443 -0.362837
    3 1.514942 -3.186424 0.666113 -0.419348 -0.107262 -3.451130
    4 -1.487204 -0.072218 0.000000 0.000000 0.000000 -1.275647
    5 1.379861 0.013026 0.000000 2.094313 0.000000 0.000000
    6 1.091372 -0.009931 0.000000 1.859816 0.000000 0.000000
    7 -1.572389 0.220680 0.000000 0.000000 0.000000 -1.282047
    8 1.033914 -0.654510 0.906782 1.570797 -0.982795 -1.564396
    9 1.033878 -0.648745 -0.899195 1.570796 0.982794 -1.564396
    10 1.026259 0.541615 -0.895047 -1.570796 0.982794 1.577196
    11 1.026212 0.549078 0.904648 -1.570796 -0.982794 1.577100
    12 2.983432 -0.034143 -0.952297 1.570796 -0.782206 0.006400
    13 2.975584 0.637833 -0.668710 2.067742 -0.631794 -0.736436
    14 2.869965 -0.034194 -1.053863 1.570796 -0.782206 0.006400
    15 3.169655 0.883133 0.000000 0.000000 0.000000 0.006400
    16 -0.250618 0.660486 0.000000 0.000000 0.000000 0.295150
    17 -3.179013 1.492042 -0.000001 0.000001 0.000000 -2.846443
    18 -1.913326 1.338252 0.551623 0.295134 -1.570319 0.000000
    19 -2.138677 2.346086 -0.000002 0.000000 0.000000 1.865945
    20 1.818063 -0.014347 0.003944 1.570797 0.000001 1.570796
    21 0.268316 0.000001 1.338390 0.000000 0.000000 0.000000
    22 0.891297 0.000000 0.321762 0.000000 0.032802 0.000000
    23 1.818065 -0.277635 0.147155 -1.570795 -0.961963 -1.570797
    24 0.268315 0.000000 1.338390 0.000000 0.000000 0.000000
    25 0.891296 0.000000 0.321763 0.000000 0.032790 0.000000
    26 1.818063 -0.264800 -0.160265 -1.570796 0.955859 -1.570796
    27 0.268315 0.000001 1.338390 0.000000 0.000000 0.000000
    28 0.891296 0.000000 0.321763 0.000000 0.032802 0.000000
    29 -0.691148 -3.020236 0.046878 0.000000 0.000000 1.865945
    30 -0.002248 -0.869789 0.841686 -1.570796 -0.874057 -1.570796
    31 -0.002249 -0.869789 -0.845820 1.570796 2.267536 1.570796
    32 -0.002249 0.786466 -0.845820 -1.570796 2.267536 -1.570796
    33 -0.002248 0.786466 0.841685 1.570796 -0.874056 1.570796
    34 -1.078158 0.273446 -0.476577 -0.056435 0.054278 -0.002397
    35 1.257180 8.762585 -0.153713 -1.570562 0.002683 -1.566807
    36 -0.347889 -2.560283 0.029560 -0.746140 0.229962 -0.362943
    37 0.039887 -1.479790 0.029854 -1.759313 0.000000 0.000001
    38 0.028786 -1.075731 -0.023109 -0.810791 0.000000 0.000000
    39 0.304716 -2.726912 -0.160269 -0.569968 0.204341 -0.294863
    40 -0.049759 -1.680544 0.100479 -1.781109 0.000000 -0.000002
    41 -0.034142 -1.148312 0.084782 -0.983659 0.000000 0.000000
    42 0.875732 -3.125698 -0.211399 -0.309823 0.025713 -0.047786
    43 -0.033420 -1.397129 -0.011257 -1.773707 0.000000 -0.000001
    44 -0.022360 -0.957436 0.018784 -0.362067 0.102384 -0.052996
    45 -0.993175 -2.593157 0.396003 -0.185516 0.194141 -0.191771
    46 -0.024967 -1.123934 0.017597 -1.928490 0.013147 -0.288660
    47 -0.020057 -0.890968 0.010090 -0.755224 0.000000 0.000000
    48 0.997585 -1.123056 0.138503 0.726976 -0.934910 -0.966623
    49 1.535927 0.010246 0.005009 0.045274 0.012536 -0.936292
    50 1.100771 0.004527 -0.010679 -0.132913 0.017291 -0.418411
    51 -0.043915 -0.132304 -0.316216 -2.812271 5.925377 -1.395012
    52 -2.766939 -4.586709 -1.255228 -0.606082 -5.323652 0.230831
    53 0.096944 -8.450418 -0.009365 0.308081 -1.204013 0.335124
    54 0.447953 -2.798986 -0.200443 -0.405051 -0.173207 0.312319
    55 -0.032909 -1.480204 0.004940 -1.309596 0.000000 0.000002
    56 -0.027022 -1.076920 -0.020210 0.168442 0.000000 0.000000
    57 -0.249534 -2.846964 -0.174213 -0.171002 -0.089770 0.289110
    58 0.043235 -1.683941 0.096012 -1.549351 0.002823 -0.000167
    59 0.031729 -1.160830 0.058838 0.068761 0.000642 0.008372
    60 -0.963866 -2.785145 -0.085350 0.035043 0.089944 0.201956
    61 0.028479 -1.403067 0.006271 -1.285362 0.000000 0.000000
    62 0.021413 -0.957781 0.020046 -0.048312 0.000000 0.000000
    63 1.164475 -2.543940 -0.170330 -0.363571 -0.311871 0.210107
    64 0.024032 -1.129042 0.017807 -0.793235 0.000000 0.000001
    65 0.014898 -0.883989 -0.019848 -0.202298 0.000000 0.000000
    66 -0.586770 -1.264477 0.200161 -0.210673 -0.355487 -2.365980
    67 1.522835 0.058681 0.016848 0.025655 0.288010 0.598498
    68 1.117947 0.048424 -0.005766 0.027789 -0.079884 -0.363462
    69 -0.041740 -0.150762 -0.059824 0.982966 0.417626 1.396892
    70 -1.393470 8.839177 -0.239433 1.580804 -0.005023 -1.566847
  time 7
    0 -3.534017 3.136344 -8.228128 0.051725 0.020386 0.000000
    1 12.559731 -5.144504 0.078804 4.023522 -1.160841 1.473101
    2 -0.071918 -8.498732 -0.104136 0.306624 0.210063 -0.369412
    3 1.514942 -3.186424 0.666113 -0.419348 -0.107262 -3.451130
    4 -1.487204 -0.072218 0.000000 0.000000 0.000000 -1.275647
    5 1.379861 0.013026 0.000000 1.215134 0.000000 0.000000
    6 1.091372 -0.009931 0.000000 -2.714270 0.000000 0.000000
    7 -1.572389 0.220680 0.000000 0.000000 0.000000 -1.282047
    8 1.033914 -0.654510 0.906782 1.570797 -0.982795 -1.564396
    9 1.033878 -0.648745 -0.899195 1.570796 0.982794 -1.564396
    10 1.026259 0.541615 -0.895047 -1.570796 0.982794 1.577196
    11 1.026212 0.549078 0.904648 -1.570796 -0.982794 1.577100
    12 2.983432 -0.034143 -0.952297 1.570796 -0.782206 0.006400
    13 2.975584 0.637833 -0.668710 2.067742 -0.631794 -0.736436
    14 2.869965 -0.034194 -1.053863 1.570796 -0.782206 0.006400
    15 3.169655 0.883133 0.000000 0.000000 0.000000 0.006400
    16 -0.262337 0.703456 0.000000 0.000000 0.000000 0.295150
    17 -3.179013 1.492042 -0.000001 0.000001 0.000000 -2.846443
    18 -1.913326 1.338252 0.551623 0.295134 -1.570319 0.000000
    19 -2.138677 2.346086 -0.000002 0.000000 0.000000 1.865945
    20 1.818063 0.110656 0.003944 1.570797 0.000001 1.570796
    21 0.295660 0.000001 1.307139 0.000000 0.000000 0.000000
    22 0.891297 0.000000 0.321762 0.000000 0.032802 0.000000
    23 1.818065 -0.351856 0.252627 -1.570795 -0.961963 -1.570797
    24 0.295659 0.000000 1.307139 0.000000 0.000000 0.000000
    25 0.891296 0.000000 0.321763 0.000000 0.032790 0.000000
    26 1.818063 -0.339021 -0.269643 -1.570796 0.955859 -1.570796
    27 0.295659 0.000001 1.307139 0.000000 0.000000 0.000000
    28 0.891296 0.000000 0.321763 0.000000 0.032802 0.000000
    29 -0.691148 -3.020236 0.046878 0.000000 0.000000 1.865945
    30 -0.002248 -0.869789 0.841686 -1.570796 -0.874057 -1.570796
    31 -0.002249 -0.869789 -0.845820 1.570796 2.267536 1.570796
    32 -0.002249 0.786466 -0.845820 -1.570796 2.267536 -1.570796
    33 -0.002248 0.786466 0.841685 1.570796 -0.874056 1.570796
    34 -1.433637 0.324229 -0.562517 -0.064034 0.061553 -0.003188
    35 1.257180 8.762585 -0.153713 -1.570562 0.002683 -1.566807
    36 -0.347889 -2.560283 0.029560 -0.746140 0.229962 -0.362943
    37 0.039887 -1.479790 0.029854 -1.759313 0.000000 0.000001
    38 0.028786 -1.075731 -0.023109 -0.810791 0.000000 0.000000
    39 0.304716 -2.726912 -0.160269 -0.575673 0.204341 -0.294863
    40 -0.049759 -1.680544 0.100479 -1.781109 0.000000 -0.000002
    41 -0.034142 -1.148312 0.084782 -0.983659 0.000000 0.000000
    42 0.875732 -3.125698 -0.211399 -0.223854 0.019062 -0.045761
    43 -0.033420 -1.397129 -0.011257 -1.773707 0.000000 -0.000001
    44 -0.022360 -0.957436 0.018784 -0.339475 0.102384 -0.052996
    45 -0.993175 -2.593157 0.396003 -0.185516 0.194141 -0.191771
    46 -0.024967 -1.123934 0.017597 -1.928490 0.013147 -0.288660
    47 -0.020057 -0.890968 0.010090 -0.755224 0.000000 0.000000
    48 0.997585 -1.123056 0.138503 0.726976 -0.934910 -0.966623
    49 1.535927 0.010246 0.005009 0.045274 0.012536 -0.936292
    50 1.100771 0.004527 -0.010679 -0.114912 -0.027040 -0.485295
    51 -0.043915 -0.132304 -0.316216 -2.812271 5.925377 -1.395012
    52 -2.770845 -4.571083 -1.227883 -0.594690 -5.326870 0.241465
    53 0.096944 -8.450418 -0.009365 0.308081 -1.204013 0.335124
    54 0.447953 -2.798986 -0.200443 -0.405051 -0.173207 0.312319
    55 -0.032909 -1.480204 0.004940 -1.309596 0.000000 0.000002
    56 -0.027022 -1.076920 -0.020210 0.168442 0.000000 0.000000
    57 -0.249534 -2.846964 -0.174213 -0.171002 -0.089770 0.289110
    58 0.043235 -1.683941 0.096012 -1.549351 0.002823 -0.000167
    59 0.031729 -1.160830 0.058838 0.068761 0.000642 0.008372
    60 -0.963866 -2.785145 -0.085350 0.035043 0.089944 0.201956
    61 0.028479 -1.403067 0.006271 -1.285362 0.000000 0.000000
    62 0.021413 -0.957781 0.020046 -0.048312 0.000000 0.000000
    63 1.164475 -2.543940 -0.170330 -0.363571 -0.311871 0.210107
    64 0.024032 -1.129042 0.017807 -0.793235 0.000000 0.000001
    65 0.014898 -0.883989 -0.019848 -0.202298 0.000000 0.000000
    66 -0.586770 -1.264477 0.200161 -0.210673 -0.355487 -2.365980
    67 1.522835 0.058681 0.016848 0.025655 0.288010 0.598498
    68 1.117947 0.048424 -0.005766 0.027789 -0.079884 -0.363462
    69 -0.041740 -0.150762 -0.059824 0.982966 0.417626 1.396892
    70 -1.393470 8.839177 -0.239433 1.580804 -0.005023 -1.566847
  time 8
    0 -3.147286 3.089467 -8.169532 0.054590 0.017617 0.000000
    1 12.559731 -5.144504 0.078804 4.023522 -1.160841 1.473101
    2 -0.071918 -8.498732 -0.104136 0.306445 0.211429 -0.371918
    3 1.514942 -3.186424 0.666113 -0.419348 -0.107262 -3.451130
    4 -1.487204 -0.072218 0.000000 0.000000 0.000000 -1.275647
    5 1.379861 0.013026 0.000000 0.491175 0.000000 0.000000
    6 1.091372 -0.009931 0.000000 -1.306895 0.000000 0.000000
    7 -1.572389 0.220680 0.000000 0.000000 0.000000 -1.282047
    8 1.033914 -0.654510 0.906782 1.570797 -0.982795 -1.564396
    9 1.033878 -0.648745 -0.899195 1.570796 0.982794 -1.564396
    10 1.026259 0.541615 -0.895047 -1.570796 0.982794 1.577196
    11 1.026212 0.549078 0.904648 -1.570796 -0.982794 1.577100
    12 2.983432 -0.034143 -0.952297 1.570796 -0.782206 0.006400
    13 2.975584 0.637833 -0.668710 2.067742 -0.631794 -0.736436
    14 2.869965 -0.034194 -1.053863 1.570796 -0.782206 0.006400
    15 3.169655 0.883133 0.000000 0.000000 0.000000 0.006400
    16 -0.274056 0.746426 0.000000 0.000000 0.000000 0.295150
    17 -3.179013 1.492042 -0.000001 0.000001 0.000000 -2.846443
    18 -1.913326 1.338252 0.551623 0.295134 -1.570319 0.000000
    19 -2.138677 2.346086 -0.000002 0.000000 0.000000 1.865945
    20 1.818063 0.348945 0.003944 1.570797 0.000001 1.570796
    21 0.319098 0.000001 1.283701 0.000000 0.000000 0.000000
    22 0.891297 0.000000 0.321762 0.000000 0.032802 0.000000
    23 1.818065 -0.492485 0.455758 -1.570795 -0.961963 -1.570797
    24 0.319097 0.000000 1.283701 0.000000 0.000000 0.000000
    25 0.891296 0.000000 0.321763 0.000000 0.032790 0.000000
    26 1.818063 -0.483557 -0.468868 -1.570796 0.955859 -1.570796
    27 0.319097 0.000001 1.283701 0.000000 0.000000 0.000000
    28 0.891296 0.000000 0.321763 0.000000 0.032802 0.000000
    29 -0.691148 -3.020236 0.046878 0.000000 0.000000 1.865945
    30 -0.002248 -0.869789 0.841686 -1.570796 -0.874057 -1.570796
    31 -0.002249 -0.869789 -0.845820 1.570796 2.267536 1.570796
    32 -0.002249 0.786466 -0.845820 -1.570796 2.267536 -1.570796
    33 -0.002248 0.786466 0.841685 1.570796 -0.874056 1.570796
    34 -1.824274 0.367199 -0.628925 -0.066922 0.064297 -0.003511
    35 1.257180 8.762585 -0.153713 -1.570562 0.002683 -1.566807
    36 -0.347889 -2.560283 0.029560 -0.746140 0.229962 -0.362943
    37 0.039887 -1.479790 0.029854 -1.759313 0.000000 0.000001
    38 0.028786 -1.075731 -0.023109 -0.810791 0.000000 0.000000
    39 0.304716 -2.726912 -0.160269 -0.584074 0.204341 -0.294863
    40 -0.049759 -1.680544 0.100479 -1.781109 0.000000 -0.000002
    41 -0.034142 -1.148312 0.084782 -0.983659 0.000000 0.000000
    42 0.875732 -3.125698 -0.211399 -0.136326 0.012291 -0.043700
    43 -0.033420 -1.397129 -0.011257 -1.773707 0.000000 -0.000001
    44 -0.022360 -0.957436 0.018784 -0.356998 0.102384 -0.052996
    45 -0.993175 -2.593157 0.396003 -0.185516 0.194141 -0.191771
    46 -0.024967 -1.123934 0.017597 -1.928490 0.013147 -0.288660
    47 -0.020057 -0.890968 0.010090 -0.755224 0.000000 0.000000
    48 0.997585 -1.123056 0.138503 0.726976 -0.934910 -0.966623
    49 1.535927 0.010246 0.005009 0.045274 0.012536 -0.936292
    50 1.100771 0.004527 -0.010679 -0.096575 -0.072198 -0.553418
    51 -0.043915 -0.132304 -0.316216 -2.812271 5.925377 -1.395012
    52 -2.770845 -4.567177 -1.216164 -0.590441 -5.328142 0.245489
    53 0.096944 -8.450418 -0.009365 0.308081 -1.204013 0.335124
    54 0.447953 -2.798986 -0.200443 -0.405051 -0.173207 0.312319
    55 -0.032909 -1.480204 0.004940 -1.309596 0.000000 0.000002
    56 -0.027022 -1.076920 -0.020210 0.168442 0.000000 0.000000
    57 -0.249534 -2.846964 -0.174213 -0.171002 -0.089770 0.289110
    58 0.043235 -1.683941 0.096012 -1.549351 0.002823 -0.000167
    59 0.031729 -1.160830 0.058838 0.068761 0.000642 0.008372
    60 -0.963866 -2.785145 -0.085350 0.035043 0.089944 0.201956
    61 0.028479 -1.403067 0.006271 -1.285362 0.000000 0.000000
    62 0.021413 -0.957781 0.020046 -0.048312 0.000000 0.000000
    63 1.164475 -2.543940 -0.170330 -0.363571 -0.311871 0.210107
    64 0.024032 -1.129042 0.017807 -0.793235 0.000000 0.000001
    65 0.014898 -0.883989 -0.019848 -0.202298 0.000000 0.000000
    66 -0.586770 -1.264477 0.200161 -0.210673 -0.355487 -2.365980
    67 1.522835 0.058681 0.016848 0.025655 0.288010 0.598498
    68 1.117947 0.048424 -0.005766 0.027789 -0.079884 -0.363462
    69 -0.041740 -0.150762 -0.059824 0.982966 0.417626 1.396892
    70 -1.393470 8.839177 -0.239433 1.580804 -0.005023 -1.566847
  time 9
    0 -2.686335 3.046497 -8.126562 0.050887 0.021189 0.000000
    1 12.559731 -5.144504 0.078804 4.023522 -1.160841 1.473101
    2 -0.071918 -8.498732 -0.104136 0.307562 0.210938 -0.370441
    3 1.514942 -3.186424 0.666113 -0.419348 -0.107262 -3.451130
    4 -1.487204 -0.072218 0.000000 0.000000 0.000000 -1.275647
    5 1.379861 0.013026 0.000000 0.000000 0.000000 0.000000
    6 1.091372 -0.009931 0.000000 -0.351772 0.000000 0.000000
    7 -1.572389 0.220680 0.000000 0.000000 0.000000 -1.282047
    8 1.033914 -0.654510 0.906782 1.570797 -0.982795 -1.564396
    9 1.033878 -0.648745 -0.899195 1.570796 0.982794 -1.564396
    10 1.026259 0.541615 -0.895047 -1.570796 0.982794 1.577196
    11 1.026212 0.549078 0.904648 -1.570796 -0.982794 1.577100
    12 2.983432 -0.034143 -0.952297 1.570796 -0.782206 0.006400
    13 2.975584 0.637833 -0.668710 2.067742 -0.631794 -0.736436
    14 2.869965 -0.034194 -1.053863 1.570796 -0.782206 0.006400
    15 3.169655 0.883133 0.000000 0.000000 0.000000 0.006400
    16 -0.285775 0.785489 0.000000 0.000000 0.000000 0.295150
    17 -3.179013 1.492042 -0.000001 0.000001 0.000000 -2.846443
    18 -1.913326 1.338252 0.551623 0.295134 -1.570319 0.000000
    19 -2.138677 2.346086 -0.000002 0.000000 0.000000 1.865945
    20 1.818063 0.470042 0.003944 1.570797 0.000001 1.570796
    21 0.334724 0.000001 1.268076 0.000000 0.000000 0.000000
    22 0.891297 0.000000 0.321762 0.000000 0.032802 0.000000
    23 1.818065 -0.574519 0.572949 -1.570795 -0.961963 -1.570797
    24 0.334723 0.000000 1.268076 0.000000 0.000000 0.000000
    25 0.891296 0.000000 0.321763 0.000000 0.032790 0.000000
    26 1.818063 -0.565591 -0.586059 -1.570796 0.955859 -1.570796
    27 0.334723 0.000001 1.268076 0.000000 0.000000 0.000000
    28 0.891296 0.000000 0.321763 0.000000 0.032802 0.000000
    29 -0.691148 -3.020236 0.046878 0.000000 0.000000 1.865945
    30 -0.002248 -0.869789 0.841686 -1.570796 -0.874057 -1.570796
    31 -0.002249 -0.869789 -0.845820 1.570796 2.267536 1.570796
    32 -0.002249 0.786466 -0.845820 -1.570796 2.267536 -1.570796
    33 -0.002248 0.786466 0.841685 1.570796 -0.874056 1.570796
    34 -2.281320 0.410169 -0.687521 -0.063207 0.060750 -0.003092
    35 1.257180 8.762585 -0.153713 -1.570562 0.002683 -1.566807
    36 -0.347889 -2.560283 0.029560 -0.746140 0.229962 -0.362943
    37 0.039887 -1.479790 0.029854 -1.759313 0.000000 0.000001
    38 0.028786 -1.075731 -0.023109 -0.810791 0.000000 0.000000
    39 0.304716 -2.726912 -0.160269 -0.594293 0.204341 -0.294863
    40 -0.049759 -1.680544 0.100479 -1.781109 0.000000 -0.000002
    41 -0.034142 -1.148312 0.084782 -0.983659 0.000000 0.000000
    42 0.875732 -3.125698 -0.211399 -0.050357 0.005639 -0.041662
    43 -0.033420 -1.397129 -0.011257 -1.773707 0.000000 -0.000001
    44 -0.022360 -0.957436 0.018784 -0.403259 0.102384 -0.052996
    45 -0.993175 -2.593157 0.396003 -0.185516 0.194141 -0.191771
    46 -0.024967 -1.123934 0.017597 -1.928490 0.013147 -0.288660
    47 -0.020057 -0.890968 0.010090 -0.755224 0.000000 0.000000
    48 0.997585 -1.123056 0.138503 0.726976 -0.934910 -0.966623
    49 1.535927 0.010246 0.005009 0.045274 0.012536 -0.936292
    50 1.100771 0.004527 -0.010679 -0.078575 -0.116553 -0.620302
    51 -0.043915 -0.132304 -0.316216 -2.812271 5.925377 -1.395012
    52 -2.778658 -4.578896 -1.220070 -0.592596 -5.327244 0.244435
    53 0.096944 -8.450418 -0.009365 0.308081 -1.204013 0.335124
    54 0.447953 -2.798986 -0.200443 -0.405051 -0.173207 0.312319
    55 -0.032909 -1.480204 0.004940 -1.309596 0.000000 0.000002
    56 -0.027022 -1.076920 -0.020210 0.168442 0.000000 0.000000
    57 -0.249534 -2.846964 -0.174213 -0.171002 -0.089770 0.289110
    58 0.043235 -1.683941 0.096012 -1.549351 0.002823 -0.000167
    59 0.031729 -1.160830 0.058838 0.068761 0.000642 0.008372
    60 -0.963866 -2.785145 -0.085350 0.035043 0.089944 0.201956
    61 0.028479 -1.403067 0.006271 -1.285362 0.000000 0.000000
    62 0.021413 -0.957781 0.020046 -0.048312 0.000000 0.000000
    63 1.164475 -2.543940 -0.170330 -0.363571 -0.311871 0.210107
    64 0.024032 -1.129042 0.017807 -0.793235 0.000000 0.000001
    65 0.014898 -0.883989 -0.019848 -0.202298 0.000000 0.000000
    66 -0.586770 -1.264477 0.200161 -0.210673 -0.355487 -2.365980
    67 1.522835 0.058681 0.016848 0.025655 0.288010 0.598498
    68 1.117947 0.048424 -0.005766 0.027789 -0.079884 -0.363462
    69 -0.041740 -0.150762 -0.059824 0.982966 0.417626 1.396892
    70 -1.393470 8.839177 -0.239433 1.580804 -0.005023 -1.566847
  time 10
    0 -2.139443 3.007433 -8.099218 0.041347 0.030393 0.000000
    1 12.559731 -5.144504 0.078804 4.023522 -1.160841 1.473101
    2 -0.071918 -8.498732 -0.104136 0.310465 0.209667 -0.366684
    3 1.514942 -3.186424 0.666113 -0.419348 -0.107262 -3.451130
    4 -1.487204 -0.072218 0.000000 0.000000 0.000000 -1.275647
    5 1.379861 0.013026 0.000000 -0.181013 0.000000 0.000000
    6 1.091372 -0.009931 0.000000 0.000000 0.000000 0.000000
    7 -1.572389 0.220680 0.000000 0.000000 0.000000 -1.282047
    8 1.033914 -0.654510 0.906782 1.570797 -0.982795 -1.564396
    9 1.033878 -0.648745 -0.899195 1.570796 0.982794 -1.564396
    10 1.026259 0.541615 -0.895047 -1.570796 0.982794 1.577196
    11 1.026212 0.549078 0.904648 -1.570796 -0.982794 1.577100
    12 2.983432 -0.034143 -0.952297 1.570796 -0.782206 0.006400
    13 2.975584 0.637833 -0.668710 2.067742 -0.631794 -0.736436
    14 2.869965 -0.034194 -1.053863 1.570796 -0.782206 0.006400
    15 3.169655 0.883133 0.000000 0.000000 0.000000 0.006400
    16 -0.297494 0.824553 0.000000 0.000000 0.000000 0.295150
    17 -3.179013 1.492042 -0.000001 0.000001 0.000000 -2.846443
    18 -1.913326 1.338252 0.551623 0.295134 -1.570319 0.000000
    19 -2.138677 2.346086 -0.000002 0.000000 0.000000 1.865945
    20 1.818063 0.466136 0.003944 1.570797 0.000001 1.570796
    21 0.338630 0.000001 1.260263 0.000000 0.000000 0.000000
    22 0.891297 0.000000 0.321762 0.000000 0.032802 0.000000
    23 1.818065 -0.578425 0.580762 -1.570795 -0.961963 -1.570797
    24 0.338629 0.000000 1.260263 0.000000 0.000000 0.000000
    25 0.891296 0.000000 0.321763 0.000000 0.032790 0.000000
    26 1.818063 -0.569497 -0.593872 -1.570796 0.955859 -1.570796
    27 0.338629 0.000001 1.260263 0.000000 0.000000 0.000000
    28 0.891296 0.000000 0.321763 0.000000 0.032802 0.000000
    29 -0.691148 -3.020236 0.046878 0.000000 0.000000 1.865945
    30 -0.002248 -0.869789 0.841686 -1.570796 -0.874057 -1.570796
    31 -0.002249 -0.869789 -0.845820 1.570796 2.267536 1.570796
    32 -0.002249 0.786466 -0.845820 -1.570796 2.267536 -1.570796
    33 -0.002248 0.786466 0.841685 1.570796 -0.874056 1.570796
    34 -2.820399 0.453139 -0.753929 -0.053619 0.051582 -0.002133
    35 1.257180 8.762585 -0.153713 -1.570562 0.002683 -1.566807
    36 -0.347889 -2.560283 0.029560 -0.746140 0.229962 -0.362943
    37 0.039887 -1.479790 0.029854 -1.759313 0.000000 0.000001
    38 0.028786 -1.075731 -0.023109 -0.810791 0.000000 0.000000
    39 0.304716 -2.726912 -0.160269 -0.605411 0.204341 -0.294863
    40 -0.049759 -1.680544 0.100479 -1.781109 0.000000 -0.000002
    41 -0.034142 -1.148312 0.084782 -0.983659 0.000000 0.000000
    42 0.875732 -3.125698 -0.211399 0.030937 -0.000641 -0.039745
    43 -0.033420 -1.397129 -0.011257 -1.773707 0.000000 -0.000001
    44 -0.022360 -0.957436 0.018784 -0.468625 0.102384 -0.052996
    45 -0.993175 -2.593157 0.396003 -0.185516 0.194141 -0.191771
    46 -0.024967 -1.123934 0.017597 -1.928490 0.013147 -0.288660
    47 -0.020057 -0.890968 0.010090 -0.755224 0.000000 0.000000
    48 0.997585 -1.123056 0.138503 0.726976 -0.934910 -0.966623
    49 1.535927 0.010246 0.005009 0.045274 0.012536 -0.936292
    50 1.100771 0.004527 -0.010679 -0.061544 -0.158487 -0.683575
    51 -0.043915 -0.132304 -0.316216 -2.812271 5.925377 -1.395012
    52 -2.794283 -4.610147 -1.227883 -0.598200 -5.324849 0.241752
    53 0.096944 -8.450418 -0.009365 0.308081 -1.204013 0.335124
    54 0.447953 -2.798986 -0.200443 -0.405051 -0.173207 0.312319
    55 -0.032909 -1.480204 0.004940 -1.309596 0.000000 0.000002
    56 -0.027022 -1.076920 -0.020210 0.168442 0.000000 0.000000
    57 -0.249534 -2.846964 -0.174213 -0.171002 -0.089770 0.289110
    58 0.043235 -1.683941 0.096012 -1.549351 0.002823 -0.000167
    59 0.031729 -1.160830 0.058838 0.068761 0.000642 0.008372
    60 -0.963866 -2.785145 -0.085350 0.035043 0.089944 0.201956
    61 0.028479 -1.403067 0.006271 -1.285362 0.000000 0.000000
    62 0.021413 -0.957781 0.020046 -0.048312 0.000000 0.000000
    63 1.164475 -2.543940 -0.170330 -0.363571 -0.311871 0.210107
    64 0.024032 -1.129042 0.017807 -0.793235 0.000000 0.000001
    65 0.014898 -0.883989 -0.019848 -0.202298 0.000000 0.000000
    66 -0.586770 -1.264477 0.200161 -0.210673 -0.355487 -2.365980
    67 1.522835 0.058681 0.016848 0.025655 0.288010 0.598498
    68 1.117947 0.048424 -0.005766 0.027789 -0.079884 -0.363462
    69 -0.041740 -0.150762 -0.059824 0.982966 0.417626 1.396892
    70 -1.393470 8.839177 -0.239433 1.580804 -0.005023 -1.566847
  time 11
    0 -1.522237 2.968370 -8.075779 0.028296 0.042965 0.000000
    1 12.559731 -5.144504 0.078804 4.023522 -1.160841 1.473101
    2 -0.071918 -8.498732 -0.104136 0.314434 0.207929 -0.361539
    3 1.514942 -3.186424 0.666113 -0.419348 -0.107262 -3.451130
    4 -1.487204 -0.072218 0.000000 0.000000 0.000000 -1.275647
    5 1.379861 0.013026 0.000000 -0.162204 0.000000 0.000000
    6 1.091372 -0.009931 0.000000 0.000000 0.000000 0.000000
    7 -1.572389 0.220680 0.000000 0.000000 0.000000 -1.282047
    8 1.033914 -0.654510 0.906782 1.570797 -0.982795 -1.564396
    9 1.033878 -0.648745 -0.899195 1.570796 0.982794 -1.564396
    10 1.026259 0.541615 -0.895047 -1.570796 0.982794 1.577196
    11 1.026212 0.549078 0.904648 -1.570796 -0.982794 1.577100
    12 2.983432 -0.034143 -0.952297 1.570796 -0.782206 0.006400
    13 2.975584 0.637833 -0.668710 2.067742 -0.631794 -0.736436
    14 2.869965 -0.034194 -1.053863 1.570796 -0.782206 0.006400
    15 3.169655 0.883133 0.000000 0.000000 0.000000 0.006400
    16 -0.309213 0.859710 0.000000 0.000000 0.000000 0.295150
    17 -3.179013 1.492042 -0.000001 0.000001 0.000000 -2.846443
    18 -1.913326 1.338252 0.551623 0.295134 -1.570319 0.000000
    19 -2.138677 2.346086 -0.000002 0.000000 0.000000 1.865945
    20 1.818063 0.466136 0.003944 1.570797 0.000001 1.570796
    21 0.201907 0.000001 1.268076 0.000000 0.000000 0.000000
    22 0.891297 0.000000 0.321762 0.000000 0.027672 0.000000
    23 1.818065 -0.578425 0.580762 -1.570795 -0.961963 -1.570797
    24 0.201906 0.000000 1.268076 0.000000 0.000000 0.000000
    25 0.891296 0.000000 0.321763 0.000000 0.027672 0.000000
    26 1.818063 -0.569497 -0.593872 -1.570796 0.955859 -1.570796
    27 0.201906 0.000001 1.268076 0.000000 0.000000 0.000000
    28 0.891296 0.000000 0.321763 0.000000 0.027672 0.000000
    29 -0.691148 -3.020236 0.046878 0.000000 0.000000 1.865945
    30 -0.002248 -0.869789 0.841686 -1.570796 -0.874057 -1.570796
    31 -0.002249 -0.869789 -0.845820 -1.570796 0.874098 -1.570796
    32 -0.002249 0.786466 -0.845820 -1.570796 2.267536 -1.570796
    33 -0.002248 0.786466 0.841685 1.570796 -0.874056 1.570796
    34 -3.425886 0.500015 -0.832057 -0.040532 0.039034 -0.001103
    35 1.257180 8.762585 -0.153713 -1.570562 0.002683 -1.566807
    36 -0.347889 -2.560283 0.029560 -0.746140 0.229962 -0.362943
    37 0.039887 -1.479790 0.029854 -1.759313 0.000000 0.000001
    38 0.028786 -1.075731 -0.023109 -0.810791 0.000000 0.000000
    39 0.304716 -2.726912 -0.160269 -0.616529 0.204341 -0.294863
    40 -0.049759 -1.680544 0.100479 -1.781109 0.000000 -0.000002
    41 -0.034142 -1.148312 0.084782 -0.983659 0.000000 0.000000
    42 0.875732 -3.125698 -0.211399 0.104441 -0.006334 -0.038019
    43 -0.033420 -1.397129 -0.011257 -1.773707 0.000000 -0.000001
    44 -0.022360 -0.957436 0.018784 -0.543578 0.102384 -0.052996
    45 -0.993175 -2.593157 0.396003 -0.185516 0.194141 -0.191771
    46 -0.024967 -1.123934 0.017597 -1.928490 0.013147 -0.288660
    47 -0.020057 -0.890968 0.010090 -0.755224 0.000000 0.000000
    48 0.997585 -1.123056 0.138503 0.726976 -0.934910 -0.966623
    49 1.535927 0.010246 0.005009 0.045274 0.012536 -0.936292
    50 1.100771 0.004527 -0.010679 -0.046156 -0.196406 -0.740757
    51 -0.043915 -0.132304 -0.316216 -2.812271 5.925377 -1.395012
    52 -2.817722 -4.657024 -1.239602 -0.605959 -5.321632 0.238016
    53 0.096944 -8.450418 -0.009365 0.308081 -1.204013 0.335124
    54 0.447953 -2.798986 -0.200443 -0.405051 -0.173207 0.312319
    55 -0.032909 -1.480204 0.004940 -1.309596 0.000000 0.000002
    56 -0.027022 -1.076920 -0.020210 0.168442 0.000000 0.000000
    57 -0.249534 -2.846964 -0.174213 -0.171002 -0.089770 0.289110
    58 0.043235 -1.683941 0.096012 -1.549351 0.002823 -0.000167
    59 0.031729 -1.160830 0.058838 0.068761 0.000642 0.008372
    60 -0.963866 -2.785145 -0.085350 0.035043 0.089944 0.201956
    61 0.028479 -1.403067 0.006271 -1.285362 0.000000 0.000000
    62 0.021413 -0.957781 0.020046 -0.048312 0.000000 0.000000
    63 1.164475 -2.543940 -0.170330 -0.363571 -0.311871 0.210107
    64 0.024032 -1.129042 0.017807 -0.793235 0.000000 0.000001
    65 0.014898 -0.883989 -0.019848 -0.202298 0.000000 0.000000
    66 -0.586770 -1.264477 0.200161 -0.210673 -0.355487 -2.365980
    67 1.522835 0.058681 0.016848 0.025655 0.288010 0.598498
    68 1.117947 0.048424 -0.005766 0.027789 -0.079884 -0.363462
    69 -0.041740 -0.150762 -0.059824 0.982966 0.417626 1.396892
    70 -1.393470 8.839177 -0.239433 1.580804 -0.005023 -1.566847
  time 12
    0 -0.865967 2.937119 -8.064060 0.014070 0.056675 0.000000
    1 12.559731 -5.144504 0.078804 4.023522 -1.160841 1.473101
    2 -0.071918 -8.498732 -0.104136 0.318751 0.206036 -0.355925
    3 1.514942 -3.186424 0.666113 -0.419348 -0.107262 -3.451130
    4 -1.487204 -0.072218 0.000000 0.000000 0.000000 -1.275647
    5 1.379861 0.013026 0.000000 -0.117323 0.000000 0.000000
    6 1.091372 -0.009931 0.000000 0.000000 0.000000 0.000000
    7 -1.572389 0.220680 0.000000 0.000000 0.000000 -1.282047
    8 1.033914 -0.654510 0.906782 1.570797 -0.982795 -1.564396
    9 1.033878 -0.648745 -0.899195 1.570796 0.982794 -1.564396
    10 1.026259 0.541615 -0.895047 -1.570796 0.982794 1.577196
    11 1.026212 0.549078 0.904648 -1.570796 -0.982794 1.577100
    12 2.983432 -0.034143 -0.952297 1.570796 -0.782206 0.006400
    13 2.975584 0.637833 -0.668710 2.067742 -0.631794 -0.736436
    14 2.869965 -0.034194 -1.053863 1.570796 -0.782206 0.006400
    15 3.169655 0.883133 0.000000 0.000000 0.000000 0.006400
    16 -0.317026 0.887055 0.000000 0.000000 0.000000 0.295150
    17 -3.179013 1.492042 -0.000001 0.000001 0.000000 -2.846443
    18 -1.913326 1.338252 0.551623 0.295134 -1.570319 0.000000
    19 -2.138677 2.346086 -0.000002 0.000000 0.000000 1.865945
    20 1.818063 0.466136 0.003944 1.570797 0.000001 1.570796
    21 0.069091 0.000001 1.275888 0.000000 0.000000 0.000000
    22 0.891297 0.000000 0.321762 0.000000 0.016395 0.000000
    23 1.818065 -0.578425 0.580762 -1.570795 -0.961963 -1.570797
    24 0.069090 0.000000 1.275888 0.000000 0.000000 0.000000
    25 0.891296 0.000000 0.321763 0.000000 0.016395 0.000000
    26 1.818063 -0.569497 -0.593872 -1.570796 0.955859 -1.570796
    27 0.069090 0.000001 1.275888 0.000000 0.000000 0.000000
    28 0.891296 0.000000 0.321763 0.000000 0.016395 0.000000
    29 -0.691148 -3.020236 0.046878 0.000000 0.000000 1.865945
    30 -0.002248 -0.869789 0.841686 -1.570796 -0.874057 -1.570796
    31 -0.002249 -0.869789 -0.845820 1.570796 2.267536 1.570796
    32 -0.002249 0.786466 -0.845820 -1.570796 2.267536 -1.570796
    33 -0.002248 0.786466 0.841685 1.570796 -0.874056 1.570796
    34 -4.070437 0.542985 -0.921903 -0.026294 0.025335 -0.000348
    35 1.257180 8.762585 -0.153713 -1.570562 0.002683 -1.566807
    36 -0.347889 -2.560283 0.029560 -0.746140 0.229962 -0.362943
    37 0.039887 -1.479790 0.029854 -1.759313 0.000000 0.000001
    38 0.028786 -1.075731 -0.023109 -0.810791 0.000000 0.000000
    39 0.304716 -2.726912 -0.160269 -0.626727 0.204341 -0.294863
    40 -0.049759 -1.680544 0.100479 -1.781109 0.000000 -0.000002
    41 -0.034142 -1.148312 0.084782 -0.983659 0.000000 0.000000
    42 0.875732 -3.125698 -0.211399 0.167037 -0.011175 -0.036533
    43 -0.033420 -1.397129 -0.011257 -1.773707 0.000000 -0.000001
    44 -0.022360 -0.957436 0.018784 -0.618531 0.102384 -0.052996
    45 -0.993175 -2.593157 0.396003 -0.185516 0.194141 -0.191771
    46 -0.024967 -1.123934 0.017597 -1.928490 0.013147 -0.288660
    47 -0.020057 -0.890968 0.010090 -0.755224 0.000000 0.000000
    48 0.997585 -1.123056 0.138503 0.726976 -0.934910 -0.966623
    49 1.535927 0.010246 0.005009 0.045274 0.012536 -0.936292
    50 1.100771 0.004527 -0.010679 -0.033045 -0.228704 -0.789477
    51 -0.043915 -0.132304 -0.316216 -2.812271 5.925377 -1.395012
    52 -2.845066 -4.703900 -1.251321 -0.614395 -5.318115 0.233896
    53 0.096944 -8.450418 -0.009365 0.308081 -1.204013 0.335124
    54 0.447953 -2.798986 -0.200443 -0.405051 -0.173207 0.312319
    55 -0.032909 -1.480204 0.004940 -1.309596 0.000000 0.000002
    56 -0.027022 -1.076920 -0.020210 0.168442 0.000000 0.000000
    57 -0.249534 -2.846964 -0.174213 -0.171002 -0.089770 0.289110
    58 0.043235 -1.683941 0.096012 -1.549351 0.002823 -0.000167
    59 0.031729 -1.160830 0.058838 0.068761 0.000642 0.008372
    60 -0.963866 -2.785145 -0.085350 0.035043 0.089944 0.201956
    61 0.028479 -1.403067 0.006271 -1.285362 0.000000 0.000000
    62 0.021413 -0.957781 0.020046 -0.048312 0.000000 0.000000
    63 1.164475 -2.543940 -0.170330 -0.363571 -0.311871 0.210107
    64 0.024032 -1.129042 0.017807 -0.793235 0.000000 0.000001
    65 0.014898 -0.883989 -0.019848 -0.202298 0.000000 0.000000
    66 -0.586770 -1.264477 0.200161 -0.210673 -0.355487 -2.365980
    67 1.522835 0.058681 0.016848 0.025655 0.288010 0.598498
    68 1.117947 0.048424 -0.005766 0.027789 -0.079884 -0.363462
    69 -0.041740 -0.150762 -0.059824 0.982966 0.417626 1.396892
    70 -1.393470 8.839177 -0.239433 1.580804 -0.005023 -1.566847
  time 13
    0 -0.194071 2.909774 -8.052341 0.001019 0.069259 0.000000
    1 12.559731 -5.144504 0.078804 4.023522 -1.160841 1.473101
    2 -0.071918 -8.498732 -0.104136 0.322720 0.204298 -0.350758
    3 1.514942 -3.186424 0.666113 -0.419348 -0.107262 -3.451130
    4 -1.487204 -0.072218 0.000000 0.000000 0.000000 -1.275647
    5 1.379861 0.013026 0.000000 -0.063690 0.000000 0.000000
    6 1.091372 -0.009931 0.000000 0.000000 0.000000 0.000000
    7 -1.572389 0.220680 0.000000 0.000000 0.000000 -1.282047
    8 1.033914 -0.654510 0.906782 1.570797 -0.982795 -1.564396
    9 1.033878 -0.648745 -0.899195 1.570796 0.982794 -1.564396
    10 1.026259 0.541615 -0.895047 -1.570796 0.982794 1.577196
    11 1.026212 0.549078 0.904648 -1.570796 -0.982794 1.577100
    12 2.983432 -0.034143 -0.952297 1.570796 -0.782206 0.006400
    13 2.975584 0.637833 -0.668710 2.067742 -0.631794 -0.736436
    14 2.869965 -0.034194 -1.053863 1.570796 -0.782206 0.006400
    15 3.169655 0.883133 0.000000 0.000000 0.000000 0.006400
    16 -0.324839 0.910493 0.000000 0.000000 0.000000 0.295150
    17 -3.179013 1.492042 -0.000001 0.000001 0.000000 -2.846443
    18 -1.913326 1.338252 0.551623 0.295134 -1.570319 0.000000
    19 -2.138677 2.346086 -0.000002 0.000000 0.000000 1.865945
    20 1.818063 0.466136 0.003944 1.570797 0.000001 1.570796
    21 0.143312 0.000001 1.271982 0.000000 0.000000 0.000000
    22 0.891297 0.000000 0.321762 0.000000 0.005117 0.000000
    23 1.818065 -0.578425 0.580762 -1.570795 -0.961963 -1.570797
    24 0.143311 0.000000 1.271982 0.000000 0.000000 0.000000
    25 0.891296 0.000000 0.321763 0.000000 0.005117 0.000000
    26 1.818063 -0.569497 -0.593872 -1.570796 0.955859 -1.570796
    27 0.143311 0.000001 1.271982 0.000000 0.000000 0.000000
    28 0.891296 0.000000 0.321763 0.000000 0.005117 0.000000
    29 -0.691148 -3.020236 0.046878 0.000000 0.000000 1.865945
    30 -0.002248 -0.869789 0.841686 -1.570796 -0.874057 -1.570796
    31 -0.002249 -0.869789 -0.845820 1.570796 2.267536 1.570796
    32 -0.002249 0.786466 -0.845820 -1.570796 2.267536 -1.570796
    33 -0.002248 0.786466 0.841685 1.570796 -0.874056 1.570796
    34 -4.726707 0.582049 -1.019562 -0.013243 0.012764 -0.000012
    35 1.257180 8.762585 -0.153713 -1.570562 0.002683 -1.566807
    36 -0.347889 -2.560283 0.029560 -0.746140 0.229962 -0.362943
    37 0.039887 -1.479790 0.029854 -1.759313 0.000000 0.000001
    38 0.028786 -1.075731 -0.023109 -0.810791 0.000000 0.000000
    39 0.304716 -2.726912 -0.160269 -0.635149 0.204341 -0.294863
    40 -0.049759 -1.680544 0.100479 -1.781109 0.000000 -0.000002
    41 -0.034142 -1.148312 0.084782 -0.983659 0.000000 0.000000
    42 0.875732 -3.125698 -0.211399 0.215609 -0.014926 -0.035394
    43 -0.033420 -1.397129 -0.011257 -1.773707 0.000000 -0.000001
    44 -0.022360 -0.957436 0.018784 -0.683897 0.102384 -0.052996
    45 -0.993175 -2.593157 0.396003 -0.185516 0.194141 -0.191771
    46 -0.024967 -1.123934 0.017597 -1.928490 0.013147 -0.288660
    47 -0.020057 -0.890968 0.010090 -0.755224 0.000000 0.000000
    48 0.997585 -1.123056 0.138503 0.726976 -0.934910 -0.966623
    49 1.535927 0.010246 0.005009 0.045274 0.012536 -0.936292
    50 1.100771 0.004527 -0.010679 -0.022870 -0.253752 -0.827256
    51 -0.043915 -0.132304 -0.316216 -2.812271 5.925377 -1.395012
    52 -2.868504 -4.750776 -1.259134 -0.622216 -5.314823 0.230064
    53 0.096944 -8.450418 -0.009365 0.308081 -1.204013 0.335124
    54 0.447953 -2.798986 -0.200443 -0.405051 -0.173207 0.312319
    55 -0.032909 -1.480204 0.004940 -1.309596 0.000000 0.000002
    56 -0.027022 -1.076920 -0.020210 0.168442 0.000000 0.000000
    57 -0.249534 -2.846964 -0.174213 -0.171002 -0.089770 0.289110
    58 0.043235 -1.683941 0.096012 -1.549351 0.002823 -0.000167
    59 0.031729 -1.160830 0.058838 0.068761 0.000642 0.008372
    60 -0.963866 -2.785145 -0.085350 0.035043 0.089944 0.201956
    61 0.028479 -1.403067 0.006271 -1.285362 0.000000 0.000000
    62 0.021413 -0.957781 0.020046 -0.048312 0.000000 0.000000
    63 1.164475 -2.543940 -0.170330 -0.363571 -0.311871 0.210107
    64 0.024032 -1.129042 0.017807 -0.793235 0.000000 0.000001
    65 0.014898 -0.883989 -0.019848 -0.202298 0.000000 0.000000
    66 -0.586770 -1.264477 0.200161 -0.210673 -0.355487 -2.365980
    67 1.522835 0.058681 0.016848 0.025655 0.288010 0.598498
    68 1.117947 0.048424 -0.005766 0.027789 -0.079884 -0.363462
    69 -0.041740 -0.150762 -0.059824 0.982966 0.417626 1.396892
    70 -1.393470 8.839177 -0.239433 1.580804 -0.005023 -1.566847
  time 14
    0 0.470011 2.890242 -8.052341 -0.008509 0.078451 0.000000
    1 12.559731 -5.144504 0.078804 4.023522 -1.160841 1.473101
    2 -0.071918 -8.498732 -0.104136 0.325610 0.203028 -0.347001
    3 1.514942 -3.186424 0.666113 -0.419348 -0.107262 -3.451130
    4 -1.487204 -0.072218 0.000000 0.000000 0.000000 -1.275647
    5 1.379861 0.013026 0.000000 -0.018809 0.000000 0.000000
    6 1.091372 -0.009931 0.000000 0.000000 0.000000 0.000000
    7 -1.572389 0.220680 0.000000 0.000000 0.000000 -1.282047
    8 1.033914 -0.654510 0.906782 1.570797 -0.982795 -1.564396
    9 1.033878 -0.648745 -0.899195 1.570796 0.982794 -1.564396
    10 1.026259 0.541615 -0.895047 -1.570796 0.982794 1.577196
    11 1.026212 0.549078 0.904648 -1.570796 -0.982794 1.577100
    12 2.983432 -0.034143 -0.952297 1.570796 -0.782206 0.006400
    13 2.975584 0.637833 -0.668710 2.067742 -0.631794 -0.736436
    14 2.869965 -0.034194 -1.053863 1.570796 -0.782206 0.006400
    15 3.169655 0.883133 0.000000 0.000000 0.000000 0.006400
    16 -0.328745 0.926119 0.000000 0.000000 0.000000 0.295150
    17 -3.179013 1.492042 -0.000001 0.000001 0.000000 -2.846443
    18 -1.913326 1.338252 0.551623 0.295134 -1.570319 0.000000
    19 -2.138677 2.346086 -0.000002 0.000000 0.000000 1.865945
    20 1.818063 0.466136 0.003944 1.570797 0.000001 1.570796
    21 0.135499 0.000001 1.482926 0.000000 0.000000 0.000000
    22 0.891297 0.000000 0.321762 0.000000 0.000000 0.000000
    23 1.818065 -0.578425 0.580762 -1.570795 -0.961963 -1.570797
    24 0.135498 0.000000 1.482926 0.000000 0.000000 0.000000
    25 0.891296 0.000000 0.321763 0.000000 0.000000 0.000000
    26 1.818063 -0.569497 -0.593872 -1.570796 0.955859 -1.570796
    27 0.135498 0.000001 1.482926 0.000000 0.000000 0.000000
    28 0.891296 0.000000 0.321763 0.000000 0.000000 0.000000
    29 -0.691148 -3.020236 0.046878 0.000000 0.000000 1.865945
    30 -0.002248 -0.869789 0.841686 -1.570796 -0.874057 -1.570796
    31 -0.002249 -0.869789 -0.845820 1.570796 2.267536 1.570796
    32 -0.002249 0.786466 -0.845820 -1.570796 2.267536 -1.570796
    33 -0.002248 0.786466 0.841685 1.570796 -0.874056 1.570796
    34 -5.379070 0.609394 -1.113315 -0.003691 0.003559 0.000024
    35 1.257180 8.762585 -0.153713 -1.570562 0.002683 -1.566807
    36 -0.347889 -2.560283 0.029560 -0.746140 0.229962 -0.362943
    37 0.039887 -1.479790 0.029854 -1.759313 0.000000 0.000001
    38 0.028786 -1.075731 -0.023109 -0.810791 0.000000 0.000000
    39 0.304716 -2.726912 -0.160269 -0.640854 0.204341 -0.294863
    40 -0.049759 -1.680544 0.100479 -1.781109 0.000000 -0.000002
    41 -0.034142 -1.148312 0.084782 -0.983659 0.000000 0.000000
    42 0.875732 -3.125698 -0.211399 0.247017 -0.017359 -0.034651
    43 -0.033420 -1.397129 -0.011257 -1.773707 0.000000 -0.000001
    44 -0.022360 -0.957436 0.018784 -0.730157 0.102384 -0.052996
    45 -0.993175 -2.593157 0.396003 -0.185516 0.194141 -0.191771
    46 -0.024967 -1.123934 0.017597 -1.928490 0.013147 -0.288660
    47 -0.020057 -0.890968 0.010090 -0.755224 0.000000 0.000000
    48 0.997585 -1.123056 0.138503 0.726976 -0.934910 -0.966623
    49 1.535927 0.010246 0.005009 0.045274 0.012536 -0.936292
    50 1.100771 0.004527 -0.010679 -0.016291 -0.269967 -0.851721
    51 -0.043915 -0.132304 -0.316216 -2.812271 5.925377 -1.395012
    52 -2.888036 -4.782027 -1.266947 -0.627943 -5.312503 0.227286
    53 0.096944 -8.450418 -0.009365 0.308081 -1.204013 0.335124
    54 0.447953 -2.798986 -0.200443 -0.405051 -0.173207 0.312319
    55 -0.032909 -1.480204 0.004940 -1.309596 0.000000 0.000002
    56 -0.027022 -1.076920 -0.020210 0.168442 0.000000 0.000000
    57 -0.249534 -2.846964 -0.174213 -0.171002 -0.089770 0.289110
    58 0.043235 -1.683941 0.096012 -1.549351 0.002823 -0.000167
    59 0.031729 -1.160830 0.058838 0.068761 0.000642 0.008372
    60 -0.963866 -2.785145 -0.085350 0.035043 0.089944 0.201956
    61 0.028479 -1.403067 0.006271 -1.285362 0.000000 0.000000
    62 0.021413 -0.957781 0.020046 -0.048312 0.000000 0.000000
    63 1.164475 -2.543940 -0.170330 -0.363571 -0.311871 0.210107
    64 0.024032 -1.129042 0.017807 -0.793235 0.000000 0.000001
    65 0.014898 -0.883989 -0.019848 -0.202298 0.000000 0.000000
    66 -0.586770 -1.264477 0.200161 -0.210673 -0.355487 -2.365980
    67 1.522835 0.058681 0.016848 0.025655 0.288010 0.598498
    68 1.117947 0.048424 -0.005766 0.027789 -0.079884 -0.363462
    69 -0.041740 -0.150762 -0.059824 0.982966 0.417626 1.396892
    70 -1.393470 8.839177 -0.239433 1.580804 -0.005023 -1.566847
  time 15
    0 1.102843 2.886336 -8.048435 -0.012212 0.082023 0.000000
    1 12.559731 -5.144504 0.078804 4.023522 -1.160841 1.473101
    2 -0.071918 -8.498732 -0.104136 0.326740 0.202524 -0.345547
    3 1.514942 -3.186424 0.666113 -0.419348 -0.107262 -3.451130
    4 -1.487204 -0.072218 0.000000 0.000000 0.000000 -1.275647
    5 1.379861 0.013026 0.000000 0.000000 0.000000 0.000000
    6 1.091372 -0.009931 0.000000 0.000000 0.000000 0.000000
    7 -1.572389 0.220680 0.000000 0.000000 0.000000 -1.282047
    8 1.033914 -0.654510 0.906782 1.570797 -0.982795 -1.564396
    9 1.033878 -0.648745 -0.899195 1.570796 0.982794 -1.564396
    10 1.026259 0.541615 -0.895047 -1.570796 0.982794 1.577196
    11 1.026212 0.549078 0.904648 -1.570796 -0.982794 1.577100
    12 2.983432 -0.034143 -0.952297 1.570796 -0.782206 0.006400
    13 2.975584 0.637833 -0.668710 2.067742 -0.631794 -0.736436
    14 2.869965 -0.034194 -1.053863 1.570796 -0.782206 0.006400
    15 3.169655 0.883133 0.000000 0.000000 0.000000 0.006400
    16 -0.328745 0.930025 0.000000 0.000000 0.000000 0.295150
    17 -3.179013 1.492042 -0.000001 0.000001 0.000000 -2.846443
    18 -1.913326 1.338252 0.551623 0.295134 -1.570319 0.000000
    19 -2.138677 2.346086 -0.000002 0.000000 0.000000 1.865945
    20 1.818063 0.466136 0.003944 1.570797 0.000001 1.570796
    21 0.135499 0.000001 1.482926 0.000000 0.000000 0.000000
    22 0.891297 0.000000 0.321762 0.000000 0.000000 0.000000
    23 1.818065 -0.578425 0.580762 -1.570795 -0.961963 -1.570797
    24 0.135498 0.000000 1.482926 0.000000 0.000000 0.000000
    25 0.891296 0.000000 0.321763 0.000000 0.000000 0.000000
    26 1.818063 -0.569497 -0.593872 -1.570796 0.955859 -1.570796
    27 0.135498 0.000001 1.482926 0.000000 0.000000 0.000000
    28 0.891296 0.000000 0.321763 0.000000 0.000000 0.000000
    29 -0.691148 -3.020236 0.046878 0.000000 0.000000 1.865945
    30 -0.002248 -0.869789 0.841686 -1.570796 -0.874057 -1.570796
    31 -0.002249 -0.869789 -0.845820 1.570796 2.267536 1.570796
    32 -0.002249 0.786466 -0.845820 -1.570796 2.267536 -1.570796
    33 -0.002248 0.786466 0.841685 1.570796 -0.874056 1.570796
    34 -6.004089 0.621113 -1.183630 0.000000 0.000000 0.000000
    35 1.257180 8.762585 -0.153713 -1.570562 0.002683 -1.566807
    36 -0.347889 -2.560283 0.029560 -0.746140 0.229962 -0.362943
    37 0.039887 -1.479790 0.029854 -1.759313 0.000000 0.000001
    38 0.028786 -1.075731 -0.023109 -0.810791 0.000000 0.000000
    39 0.304716 -2.726912 -0.160269 -0.642944 0.204341 -0.294863
    40 -0.049759 -1.680544 0.100479 -1.781109 0.000000 -0.000002
    41 -0.034142 -1.148312 0.084782 -0.983659 0.000000 0.000000
    42 0.875732 -3.125698 -0.211399 0.258192 -0.018222 -0.034387
    43 -0.033420 -1.397129 -0.011257 -1.773707 0.000000 -0.000001
    44 -0.022360 -0.957436 0.018784 -0.747703 0.102384 -0.052996
    45 -0.993175 -2.593157 0.396003 -0.185516 0.194141 -0.191771
    46 -0.024967 -1.123934 0.017597 -1.928490 0.013147 -0.288660
    47 -0.020057 -0.890968 0.010090 -0.755224 0.000000 0.000000
    48 0.997585 -1.123056 0.138503 0.726976 -0.934910 -0.966623
    49 1.535927 0.010246 0.005009 0.045274 0.012536 -0.936292
    50 1.100771 0.004527 -0.010679 -0.013954 -0.275732 -0.860395
    51 -0.043915 -0.132304 -0.316216 -2.812271 5.925377 -1.395012
    52 -2.891943 -4.793746 -1.270853 -0.630160 -5.311530 0.226136
    53 0.096944 -8.450418 -0.009365 0.308081 -1.204013 0.335124
    54 0.447953 -2.798986 -0.200443 -0.405051 -0.173207 0.312319
    55 -0.032909 -1.480204 0.004940 -1.309596 0.000000 0.000002
    56 -0.027022 -1.076920 -0.020210 0.168442 0.000000 0.000000
    57 -0.249534 -2.846964 -0.174213 -0.171002 -0.089770 0.289110
    58 0.043235 -1.683941 0.096012 -1.549351 0.002823 -0.000167
    59 0.031729 -1.160830 0.058838 0.068761 0.000642 0.008372
    60 -0.963866 -2.785145 -0.085350 0.035043 0.089944 0.201956
    61 0.028479 -1.403067 0.006271 -1.285362 0.000000 0.000000
    62 0.021413 -0.957781 0.020046 -0.048312 0.000000 0.000000
    63 1.164475 -2.543940 -0.170330 -0.363571 -0.311871 0.210107
    64 0.024032 -1.129042 0.017807 -0.793235 0.000000 0.000001
    65 0.014898 -0.883989 -0.019848 -0.202298 0.000000 0.000000
    66 -0.586770 -1.264477 0.200161 -0.210673 -0.355487 -2.365980
    67 1.522835 0.058681 0.016848 0.025655 0.288010 0.598498
    68 1.117947 0.048424 -0.005766 0.027789 -0.079884 -0.363462
    69 -0.041740 -0.150762 -0.059824 0.982966 0.417626 1.396892
    70 -1.393470 8.839177 -0.239433 1.580804 -0.005023 -1.566847
end
