version 1
nodes
  0 "Bone04" -1
  1 "Bone_Righthand" 0
  2 "Pyramid01" 1
  3 "new_kal" 2
  4 "Bone27" 1
  5 "Bone28" 4
  6 "Bone29" 5
  7 "Bone31" 1
  8 "Bone32" 7
  9 "Bone33" 8
  10 "Bone35" 1
  11 "Bone36" 10
  12 "Bone37" 11
  13 "Bone39" 1
  14 "Bone40" 13
  15 "Bone41" 14
  16 "Bone43" 1
  17 "Bone44" 16
  18 "Bone45" 17
  19 "Bone_Se_Hand-R" 1
  20 "Bone01" -1
  21 "Bone_Lefthand" 20
  22 "Bone05" 21
  23 "Bone06" 22
  24 "Bone07" 23
  25 "Bone21" 21
  26 "Bone22" 25
  27 "Bone23" 26
  28 "Bone17" 21
  29 "Bone18" 28
  30 "Bone19" 29
  31 "Bone13" 21
  32 "Bone14" 31
  33 "Bone15" 32
  34 "Bone09" 21
  35 "Bone10" 34
  36 "Bone11" 35
  37 "Bone_Se_Hand-L" 21
end
skeleton
  time 0
    0 -4.609665 -0.377727 -8.341656 0.698024 -3.108759 0.237830
    1 0.096946 -8.450418 -0.009363 -0.182279 0.060764 0.076800
    2 1.904301 -1.336502 0.930052 1.570797 0.045840 -1.089669
    3 -0.003538 -0.087752 -4.566493 0.000000 -1.570796 0.000000
    4 -0.587378 -1.261647 0.201457 -0.307666 -0.727626 -2.714556
    5 1.522835 0.058680 0.016851 0.401983 -0.443039 0.925879
    6 1.117948 0.048425 -0.005765 0.037604 -0.117024 0.858374
    7 -0.963867 -2.785143 -0.085346 -0.200759 0.059221 -0.018642
    8 0.028478 -1.403069 0.006271 -1.374751 0.000000 0.000000
    9 0.021414 -0.957782 0.020047 -0.935362 0.000000 0.000000
    10 -0.249534 -2.846964 -0.174215 -0.440595 -0.016232 0.013044
    11 0.043234 -1.683941 0.096014 -1.711586 0.000007 -0.000011
    12 0.031729 -1.160830 0.058836 -0.906571 0.000007 0.000007
    13 0.447951 -2.798983 -0.200442 -1.200973 0.020320 -0.016353
    14 -0.032910 -1.480207 0.004936 -1.582334 0.000000 0.000002
    15 -0.027022 -1.076920 -0.020212 -0.882353 0.000000 0.000000
    16 1.164474 -2.543939 -0.170327 -0.941577 -0.027795 -0.008897
    17 0.024033 -1.129040 0.017806 -1.187092 0.000000 0.000000
    18 0.014896 -0.883991 -0.019845 -0.933227 0.000000 0.000000
    19 -0.061272 -0.115607 0.108150 0.153939 0.002679 1.491866
    20 11.316937 -7.517080 -7.321973 0.378801 2.614855 -0.933350
    21 -0.071919 -8.498734 -0.104136 -0.339373 0.299671 -0.266640
    22 0.583509 -1.197273 0.185379 -0.130782 -0.399360 -0.636724
    23 1.535925 0.010247 0.005009 -0.278065 -0.017581 -0.682271
    24 1.100770 0.004527 -0.010675 -0.365635 0.049062 -0.065922
    25 0.957766 -2.746777 -0.090301 0.071948 0.016809 0.140576
    26 -0.033419 -1.397129 -0.011256 -0.713402 0.000000 -0.000001
    27 -0.022362 -0.957434 0.018782 -0.643670 0.000000 0.000000
    28 0.250028 -2.820664 -0.238397 -0.217572 0.044370 -0.032821
    29 -0.049759 -1.680546 0.100479 -1.356336 0.049496 -0.014372
    30 -0.034141 -1.148309 0.084778 -0.879428 0.000000 0.000000
    31 -0.488517 -2.755600 -0.228262 -0.427835 0.097100 -0.216301
    32 0.039889 -1.479791 0.029853 -1.911417 0.000000 0.000001
    33 0.028786 -1.075733 -0.023111 -0.817560 0.000000 0.000000
    34 -1.180679 -2.507216 -0.193861 -0.768231 0.327063 -0.388127
    35 -0.024966 -1.123935 0.017594 -1.467202 0.003595 -0.034694
    36 -0.020058 -0.890966 0.010091 -1.299482 0.000000 0.000000
    37 0.112339 -0.054173 -0.023237 3.409450 0.207644 -1.548500
  time 1
    0 -5.824546 0.747307 -8.259622 0.658890 -3.185003 0.045077
    1 0.096946 -8.450418 -0.009363 -0.159452 0.096120 0.044997
    2 1.935552 -1.406817 0.930052 1.569994 0.045564 -1.125400
    3 -0.003538 -0.087752 -4.566493 0.000000 -1.570796 0.000000
    4 -0.587378 -1.261647 0.201457 -0.307666 -0.727626 -2.714556
    5 1.522835 0.058680 0.016851 0.401983 -0.443039 0.925879
    6 1.117948 0.048425 -0.005765 0.037604 -0.117024 0.858374
    7 -0.963867 -2.785143 -0.085346 -0.200759 0.059221 -0.018642
    8 0.028478 -1.403069 0.006271 -1.374751 0.000000 0.000000
    9 0.021414 -0.957782 0.020047 -0.935362 0.000000 0.000000
    10 -0.249534 -2.846964 -0.174215 -0.440595 -0.016232 0.013044
    11 0.043234 -1.683941 0.096014 -1.711586 0.000007 -0.000011
    12 0.031729 -1.160830 0.058836 -0.906571 0.000007 0.000007
    13 0.447951 -2.798983 -0.200442 -1.193232 0.020320 -0.016353
    14 -0.032910 -1.480207 0.004936 -1.584489 0.000000 0.000002
    15 -0.027022 -1.076920 -0.020212 -0.882353 0.000000 0.000000
    16 1.164474 -2.543939 -0.170327 -0.934229 -0.027795 -0.008897
    17 0.024033 -1.129040 0.017806 -1.192498 0.000000 0.000000
    18 0.014896 -0.883991 -0.019845 -0.933227 0.000000 0.000000
    19 -0.069084 -0.115607 0.108150 0.150599 0.000223 1.503432
    20 8.887175 -4.923251 -6.861021 0.552517 2.436971 -0.418887
    21 -0.071919 -8.498734 -0.104136 -0.537564 0.367888 -0.300816
    22 0.583509 -1.197273 0.185379 -0.166817 -0.448548 -0.540164
    23 1.535925 0.010247 0.005009 -0.335561 -0.036996 -0.554002
    24 1.100770 0.004527 -0.010675 -0.392447 0.047600 -0.035915
    25 0.957766 -2.746777 -0.090301 0.138701 0.008515 0.168596
    26 -0.033419 -1.397129 -0.011256 -0.493570 0.000000 -0.000001
    27 -0.022362 -0.957434 0.018782 -0.445934 0.000000 0.000000
    28 0.250028 -2.820664 -0.238397 -0.124955 0.044370 -0.032821
    29 -0.049759 -1.680546 0.100479 -1.027307 0.049496 -0.014372
    30 -0.034141 -1.148309 0.084778 -0.656967 0.000000 0.000000
    31 -0.488517 -2.755600 -0.228262 -0.377314 0.094140 -0.242176
    32 0.039889 -1.479791 0.029853 -1.445947 0.000000 0.000001
    33 0.028786 -1.075733 -0.023111 -0.556338 0.000000 0.000000
    34 -1.180679 -2.507216 -0.193861 -0.695612 0.301955 -0.453144
    35 -0.024966 -1.123935 0.017594 -1.112596 0.003595 -0.034694
    36 -0.020058 -0.890966 0.010091 -0.949478 0.000000 0.000000
    37 0.112339 -0.054173 -0.031050 3.405425 0.138582 -1.566940
  time 2
    0 -6.277685 1.407484 -8.228371 0.611242 -3.221114 -0.089480
    1 0.096946 -8.450418 -0.009363 -0.159401 0.098461 0.076114
    2 2.009773 -1.574790 0.918333 1.567777 0.044905 -1.210623
    3 -0.003538 -0.087752 -4.566493 0.000000 -1.570796 0.000000
    4 -0.587378 -1.261647 0.201457 -0.307666 -0.727626 -2.714556
    5 1.522835 0.058680 0.016851 0.401983 -0.443039 0.925879
    6 1.117948 0.048425 -0.005765 0.037604 -0.117024 0.858374
    7 -0.963867 -2.785143 -0.085346 -0.200759 0.059221 -0.018642
    8 0.028478 -1.403069 0.006271 -1.374751 0.000000 0.000000
    9 0.021414 -0.957782 0.020047 -0.935362 0.000000 0.000000
    10 -0.249534 -2.846964 -0.174215 -0.440595 -0.016232 0.013044
    11 0.043234 -1.683941 0.096014 -1.711586 0.000007 -0.000011
    12 0.031729 -1.160830 0.058836 -0.906571 0.000007 0.000007
    13 0.447951 -2.798983 -0.200442 -1.172325 0.020320 -0.016353
    14 -0.032910 -1.480207 0.004936 -1.590415 0.000000 0.000002
    15 -0.027022 -1.076920 -0.020212 -0.882353 0.000000 0.000000
    16 1.164474 -2.543939 -0.170327 -0.914312 -0.027795 -0.008897
    17 0.024033 -1.129040 0.017806 -1.207220 0.000000 0.000000
    18 0.014896 -0.883991 -0.019845 -0.933227 0.000000 0.000000
    19 -0.088616 -0.115607 0.100337 0.141458 -0.006081 1.533237
    20 7.242594 -3.044287 -6.513354 0.660838 2.323919 -0.074410
    21 -0.071919 -8.498734 -0.104136 -0.602546 0.425402 -0.302106
    22 0.583509 -1.197273 0.185379 -0.237723 -0.545364 -0.350172
    23 1.535925 0.010247 0.005009 -0.448694 -0.075215 -0.301633
    24 1.100770 0.004527 -0.010675 -0.445212 0.044748 0.023094
    25 0.957766 -2.746777 -0.090301 0.269999 -0.007808 0.223725
    26 -0.033419 -1.397129 -0.011256 -0.061002 0.000000 -0.000001
    27 -0.022362 -0.957434 0.018782 -0.056911 0.000000 0.000000
    28 0.250028 -2.820664 -0.238397 0.057298 0.044370 -0.032821
    29 -0.049759 -1.680546 0.100479 -0.379987 0.049496 -0.014372
    30 -0.034141 -1.148309 0.084778 -0.219214 0.000000 0.000000
    31 -0.488517 -2.755600 -0.228262 -0.277886 0.088316 -0.293074
    32 0.039889 -1.479791 0.029853 -0.529958 0.000000 0.000001
    33 0.028786 -1.075733 -0.023111 -0.042287 0.000000 0.000000
    34 -1.180679 -2.507216 -0.193861 -0.552634 0.252530 -0.581067
    35 -0.024966 -1.123935 0.017594 -0.414790 0.003595 -0.034694
    36 -0.020058 -0.890966 0.010091 -0.260686 0.000000 0.000000
    37 0.116246 -0.054173 -0.042769 0.260251 3.167723 1.531753
  time 3
    0 -6.043303 1.614521 -8.240090 0.558330 -3.218719 -0.168333
    1 0.096946 -8.450418 -0.009363 -0.208064 0.048154 0.255220
    2 2.099620 -1.774015 0.910520 1.564409 0.044114 -1.312342
    3 -0.003538 -0.087752 -4.566493 0.000000 -1.570796 0.000000
    4 -0.587378 -1.261647 0.201457 -0.307666 -0.727626 -2.714556
    5 1.522835 0.058680 0.016851 0.401983 -0.443039 0.925879
    6 1.117948 0.048425 -0.005765 0.037604 -0.117024 0.858374
    7 -0.963867 -2.785143 -0.085346 -0.200759 0.059221 -0.018642
    8 0.028478 -1.403069 0.006271 -1.374751 0.000000 0.000000
    9 0.021414 -0.957782 0.020047 -0.935362 0.000000 0.000000
    10 -0.249534 -2.846964 -0.174215 -0.440595 -0.016232 0.013044
    11 0.043234 -1.683941 0.096014 -1.711586 0.000007 -0.000011
    12 0.031729 -1.160830 0.058836 -0.906571 0.000007 0.000007
    13 0.447951 -2.798983 -0.200442 -1.141483 0.020320 -0.016353
    14 -0.032910 -1.480207 0.004936 -1.599133 0.000000 0.000002
    15 -0.027022 -1.076920 -0.020212 -0.882353 0.000000 0.000000
    16 1.164474 -2.543939 -0.170327 -0.884982 -0.027795 -0.008897
    17 0.024033 -1.129040 0.017806 -1.228928 0.000000 0.000000
    18 0.014896 -0.883991 -0.019845 -0.933227 0.000000 0.000000
    19 -0.112054 -0.115607 0.088618 0.127882 -0.014674 1.574009
    20 6.590230 -2.169261 -6.306317 0.676326 2.294606 -6.249501
    21 -0.071919 -8.498734 -0.104136 -0.534366 0.472178 -0.270533
    22 0.583509 -1.197273 0.185379 -0.287698 -0.613613 -0.216232
    23 1.535925 0.010247 0.005009 -0.528430 -0.102156 -0.123739
    24 1.100770 0.004527 -0.010675 -0.482409 0.042735 0.064709
    25 0.957766 -2.746777 -0.090301 0.362549 -0.019313 0.262591
    26 -0.033419 -1.397129 -0.011256 0.243886 0.000000 -0.000001
    27 -0.022362 -0.957434 0.018782 0.217284 0.000000 0.000000
    28 0.250028 -2.820664 -0.238397 0.185770 0.044370 -0.032821
    29 -0.049759 -1.680546 0.100479 0.076274 0.049496 -0.014372
    30 -0.034141 -1.148309 0.084778 0.089286 0.000000 0.000000
    31 -0.488517 -2.755600 -0.228262 -0.207772 0.084205 -0.328956
    32 0.039889 -1.479791 0.029853 0.115679 0.000000 0.000001
    33 0.028786 -1.075733 -0.023111 0.320028 0.000000 0.000000
    34 -1.180679 -2.507216 -0.193861 -0.451881 0.217703 -0.671251
    35 -0.024966 -1.123935 0.017594 0.077108 0.003595 -0.034694
    36 -0.020058 -0.890966 0.010091 0.224723 0.000000 0.000000
    37 0.120152 -0.050267 -0.058394 0.266482 3.364194 1.479681
  time 4
    0 -5.590164 1.485611 -8.255716 0.520249 -3.189026 -0.207155
    1 0.096946 -8.450418 -0.009363 -0.279503 -0.035192 0.497245
    2 2.177747 -1.941989 0.902707 1.560179 0.043443 -1.397577
    3 -0.003538 -0.087752 -4.566493 0.000000 -1.570796 0.000000
    4 -0.587378 -1.261647 0.201457 -0.307666 -0.727626 -2.714556
    5 1.522835 0.058680 0.016851 0.401983 -0.443039 0.925879
    6 1.117948 0.048425 -0.005765 0.037604 -0.117024 0.858374
    7 -0.963867 -2.785143 -0.085346 -0.200759 0.059221 -0.018642
    8 0.028478 -1.403069 0.006271 -1.374751 0.000000 0.000000
    9 0.021414 -0.957782 0.020047 -0.935362 0.000000 0.000000
    10 -0.249534 -2.846964 -0.174215 -0.440595 -0.016232 0.013044
    11 0.043234 -1.683941 0.096014 -1.711586 0.000007 -0.000011
    12 0.031729 -1.160830 0.058836 -0.906571 0.000007 0.000007
    13 0.447951 -2.798983 -0.200442 -1.104017 0.020320 -0.016353
    14 -0.032910 -1.480207 0.004936 -1.609711 0.000000 0.000002
    15 -0.027022 -1.076920 -0.020212 -0.882353 0.000000 0.000000
    16 1.164474 -2.543939 -0.170327 -0.849337 -0.027795 -0.008897
    17 0.024033 -1.129040 0.017806 -1.255253 0.000000 0.000000
    18 0.014896 -0.883991 -0.019845 -0.933227 0.000000 0.000000
    19 -0.139399 -0.119514 0.076899 0.111356 -0.023950 1.618448
    20 6.863676 -2.200511 -6.232096 0.608159 2.342634 -0.072588
    21 -0.071919 -8.498734 -0.104136 -0.234950 0.507089 -0.174651
    22 0.583509 -1.197273 0.185379 -0.296487 -0.619852 -0.199466
    23 1.535925 0.010247 0.005009 -0.541336 -0.101737 -0.088404
    24 1.100770 0.004527 -0.010675 -0.488201 0.044568 0.076417
    25 0.957766 -2.746777 -0.090301 0.393719 -0.021075 0.268547
    26 -0.033419 -1.397129 -0.011256 0.300512 0.000000 -0.000001
    27 -0.022362 -0.957434 0.018782 0.270235 0.000000 0.000000
    28 0.250028 -2.820664 -0.238397 0.217204 0.044370 -0.032821
    29 -0.049759 -1.680546 0.100479 0.152157 0.049496 -0.014372
    30 -0.034141 -1.148309 0.084778 0.142077 0.000000 0.000000
    31 -0.488517 -2.755600 -0.228262 -0.188640 0.084325 -0.335212
    32 0.039889 -1.479791 0.029853 0.216303 0.000000 0.000001
    33 0.028786 -1.075733 -0.023111 0.381344 0.000000 0.000000
    34 -1.180679 -2.507216 -0.193861 -0.434327 0.213940 -0.686544
    35 -0.024966 -1.123935 0.017594 0.156952 0.003595 -0.034694
    36 -0.020058 -0.890966 0.010091 0.304716 0.000000 0.000000
    37 0.124058 -0.050267 -0.070113 0.281626 3.528144 1.431909
  time 5
    0 -5.390939 1.122319 -8.232278 0.516900 -3.143241 -0.221401
    1 0.096946 -8.450418 -0.009363 -0.295993 -0.092702 0.547062
    2 2.208998 -2.012304 0.898801 1.555361 0.043167 -1.433308
    3 -0.003538 -0.087752 -4.566493 0.000000 -1.570796 0.000000
    4 -0.587378 -1.261647 0.201457 -0.307666 -0.727626 -2.714556
    5 1.522835 0.058680 0.016851 0.401983 -0.443039 0.925879
    6 1.117948 0.048425 -0.005765 0.037604 -0.117024 0.858374
    7 -0.963867 -2.785143 -0.085346 -0.200759 0.059221 -0.018642
    8 0.028478 -1.403069 0.006271 -1.374751 0.000000 0.000000
    9 0.021414 -0.957782 0.020047 -0.935362 0.000000 0.000000
    10 -0.249534 -2.846964 -0.174215 -0.440595 -0.016232 0.013044
    11 0.043234 -1.683941 0.096014 -1.711586 0.000007 -0.000011
    12 0.031729 -1.160830 0.058836 -0.906571 0.000007 0.000007
    13 0.447951 -2.798983 -0.200442 -1.063280 0.020320 -0.016353
    14 -0.032910 -1.480207 0.004936 -1.621269 0.000000 0.000002
    15 -0.027022 -1.076920 -0.020212 -0.882353 0.000000 0.000000
    16 1.164474 -2.543939 -0.170327 -0.810565 -0.027795 -0.008897
    17 0.024033 -1.129040 0.017806 -1.283948 0.000000 0.000000
    18 0.014896 -0.883991 -0.019845 -0.933227 0.000000 0.000000
    19 -0.158931 -0.119514 0.061273 0.093735 -0.032376 1.659255
    20 7.656669 -2.555991 -6.232096 0.511406 2.430287 -0.260310
    21 -0.071919 -8.498734 -0.104136 0.197629 0.531286 -0.045883
    22 0.583509 -1.197273 0.185379 -0.287698 -0.613613 -0.216232
    23 1.535925 0.010247 0.005009 -0.528430 -0.102156 -0.123739
    24 1.100770 0.004527 -0.010675 -0.482409 0.042735 0.064709
    25 0.957766 -2.746777 -0.090301 0.362549 -0.019313 0.262591
    26 -0.033419 -1.397129 -0.011256 0.243886 0.000000 -0.000001
    27 -0.022362 -0.957434 0.018782 0.217284 0.000000 0.000000
    28 0.250028 -2.820664 -0.238397 0.185770 0.044370 -0.032821
    29 -0.049759 -1.680546 0.100479 0.076274 0.049496 -0.014372
    30 -0.034141 -1.148309 0.084778 0.089286 0.000000 0.000000
    31 -0.488517 -2.755600 -0.228262 -0.207772 0.084205 -0.328956
    32 0.039889 -1.479791 0.029853 0.115679 0.000000 0.000001
    33 0.028786 -1.075733 -0.023111 0.320028 0.000000 0.000000
    34 -1.180679 -2.507216 -0.193861 -0.451881 0.217703 -0.671251
    35 -0.024966 -1.123935 0.017594 0.077108 0.003595 -0.034694
    36 -0.020058 -0.890966 0.010091 0.224723 0.000000 0.000000
    37 0.124058 -0.050267 -0.077926 0.291115 3.596631 1.409838
  time 6
    0 -5.582351 0.688712 -8.185401 0.570673 -3.093242 -0.213494
    1 0.096946 -8.450418 -0.009363 -0.231614 -0.104744 0.319643
    2 2.208998 -2.012304 0.898801 1.544299 0.056830 -1.377393
    3 -0.003538 -0.087752 -4.566493 0.000000 -1.570796 0.000000
    4 -0.587378 -1.261647 0.201457 -0.307666 -0.727626 -2.714556
    5 1.522835 0.058680 0.016851 0.401983 -0.443039 0.925879
    6 1.117948 0.048425 -0.005765 0.037604 -0.117024 0.858374
    7 -0.963867 -2.785143 -0.085346 -0.200759 0.059221 -0.018642
    8 0.028478 -1.403069 0.006271 -1.374751 0.000000 0.000000
    9 0.021414 -0.957782 0.020047 -0.935362 0.000000 0.000000
    10 -0.249534 -2.846964 -0.174215 -0.440595 -0.016232 0.013044
    11 0.043234 -1.683941 0.096014 -1.711586 0.000007 -0.000011
    12 0.031729 -1.160830 0.058836 -0.906571 0.000007 0.000007
    13 0.447951 -2.798983 -0.200442 -1.022542 0.020320 -0.016353
    14 -0.032910 -1.480207 0.004936 -1.632778 0.000000 0.000002
    15 -0.027022 -1.076920 -0.020212 -0.882353 0.000000 0.000000
    16 1.164474 -2.543939 -0.170327 -0.771793 -0.027795 -0.008897
    17 0.024033 -1.129040 0.017806 -1.312602 0.000000 0.000000
    18 0.014896 -0.883991 -0.019845 -0.933227 0.000000 0.000000
    19 -0.178463 -0.119514 0.049554 0.077208 -0.038476 1.689121
    20 8.566853 -2.645838 -6.243815 0.440945 2.519754 -0.396644
    21 -0.071919 -8.498734 -0.104136 0.469316 0.548220 0.021286
    22 0.583509 -1.197273 0.185379 -0.259317 -0.620878 -0.237936
    23 1.535925 0.010247 0.005009 -0.492117 -0.128067 -0.256947
    24 1.100770 0.004527 -0.010675 -0.467299 0.026436 0.006067
    25 0.957766 -2.746777 -0.090301 0.191184 -0.014867 0.247586
    26 -0.033419 -1.397129 -0.011256 0.046572 0.000000 -0.000001
    27 -0.022362 -0.957434 0.018782 0.023894 0.000000 0.000000
    28 0.250028 -2.820664 -0.238397 0.042388 0.044370 -0.032821
    29 -0.049759 -1.680546 0.100479 -0.147838 0.049496 -0.014372
    30 -0.034141 -1.148309 0.084778 -0.074000 0.000000 0.000000
    31 -0.488517 -2.755600 -0.228262 -0.301936 0.079759 -0.309062
    32 0.039889 -1.479791 0.029853 -0.147869 0.000000 0.000001
    33 0.028786 -1.075733 -0.023111 0.133510 0.000000 0.000000
    34 -1.180679 -2.507216 -0.193861 -0.507764 0.218602 -0.624595
    35 -0.024966 -1.123935 0.017594 -0.149177 0.003595 -0.034694
    36 -0.020058 -0.890966 0.010091 -0.007714 0.000000 0.000000
    37 0.124058 -0.050267 -0.074020 0.285173 3.547178 1.427418
  time 7
    0 -5.738606 -0.295693 -8.076023 0.614208 -3.003204 -0.176311
    1 0.096946 -8.450418 -0.009363 -0.174395 -0.252598 0.077574
    2 2.208998 -2.012304 0.898801 1.535742 0.070516 -1.321478
    3 -0.003538 -0.087752 -4.566493 0.000000 -1.570796 0.000000
    4 -0.587378 -1.261647 0.201457 -0.307666 -0.727626 -2.714556
    5 1.522835 0.058680 0.016851 0.401983 -0.443039 0.925879
    6 1.117948 0.048425 -0.005765 0.037604 -0.117024 0.858374
    7 -0.963867 -2.785143 -0.085346 -0.200759 0.059221 -0.018642
    8 0.028478 -1.403069 0.006271 -1.374751 0.000000 0.000000
    9 0.021414 -0.957782 0.020047 -0.935362 0.000000 0.000000
    10 -0.249534 -2.846964 -0.174215 -0.440595 -0.016232 0.013044
    11 0.043234 -1.683941 0.096014 -1.711586 0.000007 -0.000011
    12 0.031729 -1.160830 0.058836 -0.906571 0.000007 0.000007
    13 0.447951 -2.798983 -0.200442 -0.985077 0.020320 -0.016353
    14 -0.032910 -1.480207 0.004936 -1.643357 0.000000 0.000002
    15 -0.027022 -1.076920 -0.020212 -0.882353 0.000000 0.000000
    16 1.164474 -2.543939 -0.170327 -0.736148 -0.027795 -0.008897
    17 0.024033 -1.129040 0.017806 -1.338927 0.000000 0.000000
    18 0.014896 -0.883991 -0.019845 -0.933227 0.000000 0.000000
    19 -0.186275 -0.119514 0.037835 0.064122 -0.040801 1.700698
    20 10.234872 -1.438769 -6.896179 0.402607 2.605307 -0.462989
    21 -0.071919 -8.498734 -0.104136 0.410472 0.556813 -0.033194
    22 0.583509 -1.197273 0.185379 -0.212006 -0.632982 -0.274106
    23 1.535925 0.010247 0.005009 -0.431576 -0.171248 -0.478919
    24 1.100770 0.004527 -0.010675 -0.442102 -0.000722 -0.091680
    25 0.957766 -2.746777 -0.090301 -0.094328 -0.007460 0.222562
    26 -0.033419 -1.397129 -0.011256 -0.282253 0.000000 -0.000001
    27 -0.022362 -0.957434 0.018782 -0.298438 0.000000 0.000000
    28 0.250028 -2.820664 -0.238397 -0.196558 0.044370 -0.032821
    29 -0.049759 -1.680546 0.100479 -0.521377 0.049496 -0.014372
    30 -0.034141 -1.148309 0.084778 -0.346159 0.000000 0.000000
    31 -0.488517 -2.755600 -0.228262 -0.458800 0.072340 -0.275888
    32 0.039889 -1.479791 0.029853 -0.587207 0.000000 0.000001
    33 0.028786 -1.075733 -0.023111 -0.177336 0.000000 0.000000
    34 -1.180679 -2.507216 -0.193861 -0.600870 0.220112 -0.546827
    35 -0.024966 -1.123935 0.017594 -0.526358 0.003595 -0.034694
    36 -0.020058 -0.890966 0.010091 -0.395110 0.000000 0.000000
    37 0.124058 -0.050267 -0.070113 0.275683 3.428569 1.466592
  time 8
    0 -2.511945 -3.506729 -5.743920 0.557469 -2.752632 0.379937
    1 0.096946 -8.450418 -0.009363 -0.167772 -0.387296 -0.058266
    2 2.208998 -2.012304 0.898801 1.552365 -0.079411 -1.349725
    3 -0.003538 -0.087752 -4.566493 0.000000 -1.570796 0.000000
    4 -0.587378 -1.261647 0.201457 -0.307666 -0.727626 -2.714556
    5 1.522835 0.058680 0.016851 0.401983 -0.443039 0.925879
    6 1.117948 0.048425 -0.005765 0.037604 -0.117024 0.858374
    7 -0.963867 -2.785143 -0.085346 -0.200759 0.059221 -0.018642
    8 0.028478 -1.403069 0.006271 -1.374751 0.000000 0.000000
    9 0.021414 -0.957782 0.020047 -0.935362 0.000000 0.000000
    10 -0.249534 -2.846964 -0.174215 -0.440595 -0.016232 0.013044
    11 0.043234 -1.683941 0.096014 -1.711586 0.000007 -0.000011
    12 0.031729 -1.160830 0.058836 -0.906571 0.000007 0.000007
    13 0.447951 -2.798983 -0.200442 -0.954234 0.020320 -0.016353
    14 -0.032910 -1.480207 0.004936 -1.652074 0.000000 0.000002
    15 -0.027022 -1.076920 -0.020212 -0.882353 0.000000 0.000000
    16 1.164474 -2.543939 -0.170327 -0.706819 -0.027795 -0.008897
    17 0.024033 -1.129040 0.017806 -1.360635 0.000000 0.000000
    18 0.014896 -0.883991 -0.019845 -0.933227 0.000000 0.000000
    19 -0.174556 -0.115607 0.026116 0.054952 -0.041292 1.670005
    20 12.270091 0.205812 -7.775112 0.366468 2.702603 -0.528088
    21 -0.071919 -8.498734 -0.104136 0.142995 0.556645 -0.168327
    22 0.583509 -1.197273 0.185379 -0.159826 -0.646299 -0.314362
    23 1.535925 0.010247 0.005009 -0.364801 -0.218766 -0.723840
    24 1.100770 0.004527 -0.010675 -0.414326 -0.030647 -0.199496
    25 0.957766 -2.746777 -0.090301 -0.409302 0.000713 0.194950
    26 -0.033419 -1.397129 -0.011256 -0.644997 0.000000 -0.000001
    27 -0.022362 -0.957434 0.018782 -0.653998 0.000000 0.000000
    28 0.250028 -2.820664 -0.238397 -0.460167 0.044370 -0.032821
    29 -0.049759 -1.680546 0.100479 -0.933427 0.049496 -0.014372
    30 -0.034141 -1.148309 0.084778 -0.646458 0.000000 0.000000
    31 -0.488517 -2.755600 -0.228262 -0.631877 0.064179 -0.239311
    32 0.039889 -1.479791 0.029853 -1.071806 0.000000 0.000001
    33 0.028786 -1.075733 -0.023111 -0.520296 0.000000 0.000000
    34 -1.180679 -2.507216 -0.193861 -0.703595 0.221790 -0.461054
    35 -0.024966 -1.123935 0.017594 -0.942511 0.003595 -0.034694
    36 -0.020058 -0.890966 0.010091 -0.822532 0.000000 0.000000
    37 0.120152 -0.050267 -0.066207 0.272424 3.285759 1.510160
  time 9
    0 -0.109528 -3.498916 -5.025148 0.439782 -2.656560 1.128298
    1 0.096946 -8.450418 -0.009363 -0.271368 -0.325582 0.052212
    2 2.208998 -2.012304 0.898801 1.538810 0.066238 -1.338962
    3 -0.003538 -0.087752 -4.566493 0.000000 -1.570796 0.000000
    4 -0.587378 -1.261647 0.201457 -0.307666 -0.727626 -2.714556
    5 1.522835 0.058680 0.016851 0.401983 -0.443039 0.925879
    6 1.117948 0.048425 -0.005765 0.037604 -0.117024 0.858374
    7 -0.963867 -2.785143 -0.085346 -0.200759 0.059221 -0.018642
    8 0.028478 -1.403069 0.006271 -1.374751 0.000000 0.000000
    9 0.021414 -0.957782 0.020047 -0.935362 0.000000 0.000000
    10 -0.249534 -2.846964 -0.174215 -0.440595 -0.016232 0.013044
    11 0.043234 -1.683941 0.096014 -1.711586 0.000007 -0.000011
    12 0.031729 -1.160830 0.058836 -0.906571 0.000007 0.000007
    13 0.447951 -2.798983 -0.200442 -0.933327 0.020320 -0.016353
    14 -0.032910 -1.480207 0.004936 -1.658000 0.000000 0.000002
    15 -0.027022 -1.076920 -0.020212 -0.882353 0.000000 0.000000
    16 1.164474 -2.543939 -0.170327 -0.686902 -0.027795 -0.008897
    17 0.024033 -1.129040 0.017806 -1.375357 0.000000 0.000000
    18 0.014896 -0.883991 -0.019845 -0.933227 0.000000 0.000000
    19 -0.151118 -0.111701 0.018303 0.048387 -0.041640 1.611628
    20 13.680290 1.139434 -7.958711 0.333962 2.806489 -0.590023
    21 -0.071919 -8.498734 -0.104136 -0.189959 0.552235 -0.326840
    22 0.583509 -1.197273 0.185379 -0.116801 -0.657163 -0.348327
    23 1.535925 0.010247 0.005009 -0.309766 -0.257692 -0.925695
    24 1.100770 0.004527 -0.010675 -0.391425 -0.055263 -0.288412
    25 0.957766 -2.746777 -0.090301 -0.668982 0.007449 0.172215
    26 -0.033419 -1.397129 -0.011256 -0.944019 0.000000 -0.000001
    27 -0.022362 -0.957434 0.018782 -0.947121 0.000000 0.000000
    28 0.250028 -2.820664 -0.238397 -0.677467 0.044370 -0.032821
    29 -0.049759 -1.680546 0.100479 -1.273134 0.049496 -0.014372
    30 -0.034141 -1.148309 0.084778 -0.893964 0.000000 0.000000
    31 -0.488517 -2.755600 -0.228262 -0.774526 0.057503 -0.209146
    32 0.039889 -1.479791 0.029853 -1.471338 0.000000 0.000001
    33 0.028786 -1.075733 -0.023111 -0.803007 0.000000 0.000000
    34 -1.180679 -2.507216 -0.193861 -0.788285 0.223216 -0.390333
    35 -0.024966 -1.123935 0.017594 -1.285533 0.003595 -0.034694
    36 -0.020058 -0.890966 0.010091 -1.174805 0.000000 0.000000
    37 0.120152 -0.050267 -0.058394 0.277696 3.164566 1.545511
  time 10
    0 0.882690 -0.690237 -4.864987 3.471328 -0.491832 -1.355553
    1 0.096946 -8.450418 -0.009363 -0.361717 -0.390681 -0.068358
    2 2.208998 -2.012304 0.898801 1.539745 0.064524 -1.345952
    3 -0.003538 -0.087752 -4.566493 0.000000 -1.570796 0.000000
    4 -0.587378 -1.261647 0.201457 -0.307666 -0.727626 -2.714556
    5 1.522835 0.058680 0.016851 0.401983 -0.443039 0.925879
    6 1.117948 0.048425 -0.005765 0.037604 -0.117024 0.858374
    7 -0.963867 -2.785143 -0.085346 -0.200759 0.059221 -0.018642
    8 0.028478 -1.403069 0.006271 -1.374751 0.000000 0.000000
    9 0.021414 -0.957782 0.020047 -0.935362 0.000000 0.000000
    10 -0.249534 -2.846964 -0.174215 -0.440595 -0.016232 0.013044
    11 0.043234 -1.683941 0.096014 -1.711586 0.000007 -0.000011
    12 0.031729 -1.160830 0.058836 -0.906571 0.000007 0.000007
    13 0.447951 -2.798983 -0.200442 -0.925586 0.020320 -0.016353
    14 -0.032910 -1.480207 0.004936 -1.660155 0.000000 0.000002
    15 -0.027022 -1.076920 -0.020212 -0.882353 0.000000 0.000000
    16 1.164474 -2.543939 -0.170327 -0.679554 -0.027795 -0.008897
    17 0.024033 -1.129040 0.017806 -1.380805 0.000000 0.000000
    18 0.014896 -0.883991 -0.019845 -0.933227 0.000000 0.000000
    19 -0.139399 -0.111701 0.014397 0.045738 -0.040597 1.576226
    20 14.797512 1.741015 -7.755580 0.306332 2.911233 -0.646877
    21 -0.071919 -8.498734 -0.104136 -0.445301 0.548052 -0.451435
    22 0.583509 -1.197273 0.185379 -0.087041 -0.664427 -0.373590
    23 1.535925 0.010247 0.005009 -0.271667 -0.284070 -1.065379
    24 1.100770 0.004527 -0.010675 -0.375575 -0.072138 -0.349897
    25 0.957766 -2.746777 -0.090301 -0.848672 0.012099 0.156467
    26 -0.033419 -1.397129 -0.011256 -1.150984 0.000000 -0.000001
    27 -0.022362 -0.957434 0.018782 -1.149951 0.000000 0.000000
    28 0.250028 -2.820664 -0.238397 -0.827830 0.044370 -0.032821
    29 -0.049759 -1.680546 0.100479 -1.508223 0.049496 -0.014372
    30 -0.034141 -1.148309 0.084778 -1.065255 0.000000 0.000000
    31 -0.488517 -2.755600 -0.228262 -0.873262 0.052961 -0.188281
    32 0.039889 -1.479791 0.029853 -1.747752 0.000000 0.000001
    33 0.028786 -1.075733 -0.023111 -0.998596 0.000000 0.000000
    34 -1.180679 -2.507216 -0.193861 -0.846861 0.224295 -0.341388
    35 -0.024966 -1.123935 0.017594 -1.522868 0.003595 -0.034694
    36 -0.020058 -0.890966 0.010091 -1.418643 0.000000 0.000000
    37 0.120152 -0.050267 -0.054488 0.287569 3.110905 1.561085
  time 11
    0 0.417832 -1.959807 -4.837643 3.449800 -0.452848 -1.104960
    1 0.096946 -8.450418 -0.009363 -0.320568 -0.399384 -0.248238
    2 2.208998 -2.012304 0.898801 1.542154 0.060257 -1.363424
    3 -0.003538 -0.087752 -4.566493 0.000000 -1.570796 0.000000
    4 -0.587378 -1.261647 0.201457 -0.308937 -0.727074 -2.712615
    5 1.522835 0.058680 0.016851 0.404144 -0.439814 0.919389
    6 1.117948 0.048425 -0.005765 0.038791 -0.115766 0.843668
    7 -0.963867 -2.785143 -0.085346 -0.200244 0.059125 -0.019649
    8 0.028478 -1.403069 0.006271 -1.372936 0.000000 0.000000
    9 0.021414 -0.957782 0.020047 -0.935362 0.000000 0.000000
    10 -0.249534 -2.846964 -0.174215 -0.433655 -0.015621 0.013068
    11 0.043234 -1.683941 0.096014 -1.702915 0.000007 -0.000011
    12 0.031729 -1.160830 0.058836 -0.906571 0.000007 0.000007
    13 0.447951 -2.798983 -0.200442 -0.925586 0.020320 -0.016353
    14 -0.032910 -1.480207 0.004936 -1.660155 0.000000 0.000002
    15 -0.027022 -1.076920 -0.020212 -0.882353 0.000000 0.000000
    16 1.164474 -2.543939 -0.170327 -0.679554 -0.027795 -0.008897
    17 0.024033 -1.129040 0.017806 -1.380805 0.000000 0.000000
    18 0.014896 -0.883991 -0.019845 -0.933227 0.000000 0.000000
    19 -0.135493 -0.111701 0.014397 0.046458 -0.038500 1.569359
    20 15.668632 2.092588 -7.411819 0.285012 3.011585 -0.696828
    21 -0.071919 -8.498734 -0.104136 -0.583308 0.543953 -0.526003
    22 0.583509 -1.197273 0.185379 -0.064663 -0.669586 -0.394911
    23 1.535925 0.010247 0.005009 -0.243046 -0.303162 -1.170374
    24 1.100770 0.004527 -0.010675 -0.363665 -0.084638 -0.396161
    25 0.957766 -2.746777 -0.090301 -0.983742 0.015610 0.144626
    26 -0.033419 -1.397129 -0.011256 -1.306527 0.000000 -0.000001
    27 -0.022362 -0.957434 0.018782 -1.302448 0.000000 0.000000
    28 0.250028 -2.820664 -0.238397 -0.940865 0.044370 -0.032821
    29 -0.049759 -1.680546 0.100479 -1.684945 0.049496 -0.014372
    30 -0.034141 -1.148309 0.084778 -1.193968 0.000000 0.000000
    31 -0.488517 -2.755600 -0.228262 -0.947448 0.049677 -0.172593
    32 0.039889 -1.479791 0.029853 -1.955533 0.000000 0.000001
    33 0.028786 -1.075733 -0.023111 -1.145676 0.000000 0.000000
    34 -1.180679 -2.507216 -0.193861 -0.890914 0.225218 -0.304607
    35 -0.024966 -1.123935 0.017594 -1.701270 0.003595 -0.034694
    36 -0.020058 -0.890966 0.010091 -1.601921 0.000000 0.000000
    37 0.120152 -0.050267 -0.050582 0.299550 3.108035 1.566244
  time 12
    0 -0.277502 -3.893459 -4.864987 3.458220 -0.411086 -1.066281
    1 0.096946 -8.450418 -0.009363 -0.233076 -0.393363 -0.395963
    2 2.208998 -2.012304 0.898801 1.545486 0.054697 -1.386135
    3 -0.003538 -0.087752 -4.566493 0.000000 -1.570796 0.000000
    4 -0.587378 -1.261647 0.201457 -0.312484 -0.725564 -2.707162
    5 1.522835 0.058680 0.016851 0.410209 -0.430781 0.901210
    6 1.117948 0.048425 -0.005765 0.042111 -0.112230 0.802513
    7 -0.963867 -2.785143 -0.085346 -0.198710 0.058849 -0.022465
    8 0.028478 -1.403069 0.006271 -1.367933 0.000000 0.000000
    9 0.021414 -0.957782 0.020047 -0.935362 0.000000 0.000000
    10 -0.249534 -2.846964 -0.174215 -0.414214 -0.013907 0.013128
    11 0.043234 -1.683941 0.096014 -1.678539 0.000007 -0.000011
    12 0.031729 -1.160830 0.058836 -0.906571 0.000007 0.000007
    13 0.447951 -2.798983 -0.200442 -0.925586 0.020320 -0.016353
    14 -0.032910 -1.480207 0.004936 -1.660155 0.000000 0.000002
    15 -0.027022 -1.076920 -0.020212 -0.882353 0.000000 0.000000
    16 1.164474 -2.543939 -0.170327 -0.679554 -0.027795 -0.008897
    17 0.024033 -1.129040 0.017806 -1.380805 0.000000 0.000000
    18 0.014896 -0.883991 -0.019845 -0.933227 0.000000 0.000000
    19 -0.131586 -0.111701 0.014397 0.048027 -0.036354 1.562815
    20 16.340528 2.264469 -7.189156 0.271436 3.102007 -0.737958
    21 -0.071919 -8.498734 -0.104136 -0.665412 0.537122 -0.575084
    22 0.583509 -1.197273 0.185379 -0.048802 -0.672879 -0.412612
    23 1.535925 0.010247 0.005009 -0.222738 -0.315866 -1.244810
    24 1.100770 0.004527 -0.010675 -0.355221 -0.093267 -0.428911
    25 0.957766 -2.746777 -0.090301 -1.079459 0.018091 0.136237
    26 -0.033419 -1.397129 -0.011256 -1.416750 0.000000 -0.000001
    27 -0.022362 -0.957434 0.018782 -1.410499 0.000000 0.000000
    28 0.250028 -2.820664 -0.238397 -1.020958 0.044370 -0.032821
    29 -0.049759 -1.680546 0.100479 -1.810137 0.049496 -0.014372
    30 -0.034141 -1.148309 0.084778 -1.285261 0.000000 0.000000
    31 -0.488517 -2.755600 -0.228262 -1.000044 0.047496 -0.161471
    32 0.039889 -1.479791 0.029853 -2.102832 0.000000 0.000001
    33 0.028786 -1.075733 -0.023111 -1.249874 0.000000 0.000000
    34 -1.180679 -2.507216 -0.193861 -0.922126 0.226009 -0.278540
    35 -0.024966 -1.123935 0.017594 -1.827749 0.003595 -0.034694
    36 -0.020058 -0.890966 0.010091 -1.731809 0.000000 0.000000
    37 0.120152 -0.050267 -0.046675 -2.827699 0.033268 -1.563501
  time 13
    0 -0.285314 -3.752830 -4.810298 3.464726 -0.385799 -1.082878
    1 0.096946 -8.450418 -0.009363 -0.187137 -0.423856 -0.377639
    2 2.208998 -2.012304 0.898801 1.549177 0.049136 -1.408846
    3 -0.003538 -0.087752 -4.566493 0.000000 -1.570796 0.000000
    4 -0.587378 -1.261647 0.201457 -0.317942 -0.723227 -2.698796
    5 1.522835 0.058680 0.016851 0.419508 -0.416918 0.873313
    6 1.117948 0.048425 -0.005765 0.047216 -0.106825 0.739325
    7 -0.963867 -2.785143 -0.085346 -0.196133 0.058442 -0.026804
    8 0.028478 -1.403069 0.006271 -1.360183 0.000000 0.000000
    9 0.021414 -0.957782 0.020047 -0.935362 0.000000 0.000000
    10 -0.249534 -2.846964 -0.174215 -0.384341 -0.011295 0.013224
    11 0.043234 -1.683941 0.096014 -1.641156 0.000007 -0.000011
    12 0.031729 -1.160830 0.058836 -0.906571 0.000007 0.000007
    13 0.447951 -2.798983 -0.200442 -0.925586 0.020320 -0.016353
    14 -0.032910 -1.480207 0.004936 -1.660155 0.000000 0.000002
    15 -0.027022 -1.076920 -0.020212 -0.882353 0.000000 0.000000
    16 1.164474 -2.543939 -0.170327 -0.679554 -0.027795 -0.008897
    17 0.024033 -1.129040 0.017806 -1.380805 0.000000 0.000000
    18 0.014896 -0.883991 -0.019845 -0.933227 0.000000 0.000000
    19 -0.127680 -0.111701 0.014397 0.050374 -0.034149 1.556583
    20 16.707726 2.135558 -7.150093 0.271149 -3.087656 -0.765282
    21 -0.071919 -8.498734 -0.104136 -0.700290 0.528050 -0.602205
    22 0.583509 -1.197273 0.185379 -0.038594 -0.674572 -0.427041
    23 1.535925 0.010247 0.005009 -0.209686 -0.323080 -1.292734
    24 1.100770 0.004527 -0.010675 -0.349784 -0.098564 -0.450019
    25 0.957766 -2.746777 -0.090301 -1.141123 0.019685 0.130844
    26 -0.033419 -1.397129 -0.011256 -1.487757 0.000000 -0.000001
    27 -0.022362 -0.957434 0.018782 -1.480088 0.000000 0.000000
    28 0.250028 -2.820664 -0.238397 -1.072529 0.044370 -0.032821
    29 -0.049759 -1.680546 0.100479 -1.890760 0.049496 -0.014372
    30 -0.034141 -1.148309 0.084778 -1.343995 0.000000 0.000000
    31 -0.488517 -2.755600 -0.228262 -1.033929 0.046238 -0.154317
    32 0.039889 -1.479791 0.029853 -2.197664 0.000000 0.000001
    33 0.028786 -1.075733 -0.023111 -1.316962 0.000000 0.000000
    34 -1.180679 -2.507216 -0.193861 -0.942228 0.226680 -0.261750
    35 -0.024966 -1.123935 0.017594 -1.909138 0.003595 -0.034694
    36 -0.020058 -0.890966 0.010091 -1.815417 0.000000 0.000000
    37 0.116246 -0.050267 -0.038863 -2.811787 0.030399 -1.546398
  time 14
    0 -0.312659 -3.385631 -4.685294 3.482523 -0.319325 -1.128110
    1 0.096946 -8.450418 -0.009363 -0.153434 -0.473777 -0.237925
    2 2.208998 -2.012304 0.898801 1.552652 0.044881 -1.426329
    3 -0.003538 -0.087752 -4.566493 0.000000 -1.570796 0.000000
    4 -0.587378 -1.261647 0.201457 -0.324911 -0.720255 -2.688094
    5 1.522835 0.058680 0.016851 0.431404 -0.399173 0.837600
    6 1.117948 0.048425 -0.005765 0.053748 -0.099898 0.658496
    7 -0.963867 -2.785143 -0.085346 -0.192502 0.057914 -0.032353
    8 0.028478 -1.403069 0.006271 -1.350275 0.000000 0.000000
    9 0.021414 -0.957782 0.020047 -0.935362 0.000000 0.000000
    10 -0.249534 -2.846964 -0.174215 -0.346150 -0.007939 0.013344
    11 0.043234 -1.683941 0.096014 -1.593285 0.000007 -0.000011
    12 0.031729 -1.160830 0.058836 -0.906571 0.000007 0.000007
    13 0.447951 -2.798983 -0.200442 -0.925586 0.020320 -0.016353
    14 -0.032910 -1.480207 0.004936 -1.660155 0.000000 0.000002
    15 -0.027022 -1.076920 -0.020212 -0.882353 0.000000 0.000000
    16 1.164474 -2.543939 -0.170327 -0.679554 -0.027795 -0.008897
    17 0.024033 -1.129040 0.017806 -1.380805 0.000000 0.000000
    18 0.014896 -0.883991 -0.019845 -0.933227 0.000000 0.000000
    19 -0.123774 -0.111701 0.018303 0.053411 -0.031920 1.550687
    20 16.688194 1.592573 -7.177437 0.286446 -2.980238 -0.777746
    21 -0.071919 -8.498734 -0.104136 -0.696574 0.517228 -0.610959
    22 0.583509 -1.197273 0.185379 -0.033158 -0.674958 -0.438523
    23 1.535925 0.010247 0.005009 -0.202722 -0.325717 -1.318234
    24 1.100770 0.004527 -0.010675 -0.346881 -0.101069 -0.461259
    25 0.957766 -2.746777 -0.090301 -1.173930 0.020536 0.127968
    26 -0.033419 -1.397129 -0.011256 -1.525507 0.000000 -0.000001
    27 -0.022362 -0.957434 0.018782 -1.517102 0.000000 0.000000
    28 0.250028 -2.820664 -0.238397 -1.099999 0.044370 -0.032821
    29 -0.049759 -1.680546 0.100479 -1.933711 0.049496 -0.014372
    30 -0.034141 -1.148309 0.084778 -1.375277 0.000000 0.000000
    31 -0.488517 -2.755600 -0.228262 -1.051948 0.045770 -0.150506
    32 0.039889 -1.479791 0.029853 -2.248110 0.000000 0.000001
    33 0.028786 -1.075733 -0.023111 -1.352713 0.000000 0.000000
    34 -1.180679 -2.507216 -0.193861 -0.952953 0.227219 -0.252809
    35 -0.024966 -1.123935 0.017594 -1.952506 0.003595 -0.034694
    36 -0.020058 -0.890966 0.010091 -1.859919 0.000000 0.000000
    37 0.116246 -0.050267 -0.031050 -2.795013 0.025520 -1.525283
  time 15
    0 -0.351723 -2.893429 -4.536852 3.508548 -0.226318 -1.194783
    1 0.096946 -8.450418 -0.009363 -0.126573 -0.524152 -0.061453
    2 2.208998 -2.012304 0.898801 1.555361 0.043167 -1.433308
    3 -0.003538 -0.087752 -4.566493 0.000000 -1.570796 0.000000
    4 -0.587378 -1.261647 0.201457 -0.333036 -0.716780 -2.675630
    5 1.522835 0.058680 0.016851 0.445260 -0.378539 0.796044
    6 1.117948 0.048425 -0.005765 0.061346 -0.091832 0.564442
    7 -0.963867 -2.785143 -0.085346 -0.187816 0.057315 -0.038800
    8 0.028478 -1.403069 0.006271 -1.338797 0.000000 0.000000
    9 0.021414 -0.957782 0.020047 -0.935362 0.000000 0.000000
    10 -0.249534 -2.846964 -0.174215 -0.301731 -0.004032 0.013476
    11 0.043234 -1.683941 0.096014 -1.537620 0.000007 -0.000011
    12 0.031729 -1.160830 0.058836 -0.906571 0.000007 0.000007
    13 0.447951 -2.798983 -0.200442 -0.925586 0.020320 -0.016353
    14 -0.032910 -1.480207 0.004936 -1.660155 0.000000 0.000002
    15 -0.027022 -1.076920 -0.020212 -0.882353 0.000000 0.000000
    16 1.164474 -2.543939 -0.170327 -0.679554 -0.027795 -0.008897
    17 0.024033 -1.129040 0.017806 -1.380805 0.000000 0.000000
    18 0.014896 -0.883991 -0.019845 -0.933227 0.000000 0.000000
    19 -0.119867 -0.111701 0.022210 0.057082 -0.029667 1.545102
    20 16.352247 0.725359 -7.263377 0.313312 -2.866709 -0.778609
    21 -0.071919 -8.498734 -0.104136 -0.662966 0.505135 -0.604851
    22 0.583509 -1.197273 0.185379 -0.031630 -0.674292 -0.447391
    23 1.535925 0.010247 0.005009 -0.200772 -0.324662 -1.325399
    24 1.100770 0.004527 -0.010675 -0.346066 -0.101296 -0.464403
    25 0.957766 -2.746777 -0.090301 -1.183145 0.020776 0.127153
    26 -0.033419 -1.397129 -0.011256 -1.536151 0.000000 -0.000001
    27 -0.022362 -0.957434 0.018782 -1.527571 0.000000 0.000000
    28 0.250028 -2.820664 -0.238397 -1.107752 0.044370 -0.032821
    29 -0.049759 -1.680546 0.100479 -1.945768 0.049496 -0.014372
    30 -0.034141 -1.148309 0.084778 -1.384067 0.000000 0.000000
    31 -0.488517 -2.755600 -0.228262 -1.057019 0.045938 -0.149427
    32 0.039889 -1.479791 0.029853 -2.262322 0.000000 0.000001
    33 0.028786 -1.075733 -0.023111 -1.362755 0.000000 0.000000
    34 -1.180679 -2.507216 -0.193861 -0.955934 0.227662 -0.250293
    35 -0.024966 -1.123935 0.017594 -1.964744 0.003595 -0.034694
    36 -0.020058 -0.890966 0.010091 -1.872485 0.000000 0.000000
    37 0.116246 -0.050267 -0.027143 -2.778048 0.019399 -1.501588
  time 16
    0 -0.414225 -2.369975 -4.407942 3.540218 -0.121338 -1.275773
    1 0.096946 -8.450418 -0.009363 -0.101124 -0.556031 0.067173
    2 2.197279 -1.988866 0.898801 1.557578 0.043263 -1.421533
    3 -0.003538 -0.087752 -4.566493 0.000000 -1.570796 0.000000
    4 -0.587378 -1.261647 0.201457 -0.341904 -0.712992 -2.662016
    5 1.522835 0.058680 0.016851 0.460407 -0.355963 0.750613
    6 1.117948 0.048425 -0.005765 0.069651 -0.083024 0.461554
    7 -0.963867 -2.785143 -0.085346 -0.182063 0.056644 -0.045859
    8 0.028478 -1.403069 0.006271 -1.326191 0.000000 0.000000
    9 0.021414 -0.957782 0.020047 -0.935362 0.000000 0.000000
    10 -0.249534 -2.846964 -0.174215 -0.253106 0.000223 0.013632
    11 0.043234 -1.683941 0.096014 -1.476682 0.000007 -0.000011
    12 0.031729 -1.160830 0.058836 -0.906571 0.000007 0.000007
    13 0.447951 -2.798983 -0.200442 -0.925586 0.020320 -0.016353
    14 -0.032910 -1.480207 0.004936 -1.660155 0.000000 0.000002
    15 -0.027022 -1.076920 -0.020212 -0.882353 0.000000 0.000000
    16 1.164474 -2.543939 -0.170327 -0.679554 -0.027795 -0.008897
    17 0.024033 -1.129040 0.017806 -1.380805 0.000000 0.000000
    18 0.014896 -0.883991 -0.019845 -0.933227 0.000000 0.000000
    19 -0.115961 -0.111701 0.026116 0.061315 -0.027414 1.539829
    20 15.778010 -0.376237 -7.384475 0.347729 -2.754899 -0.771418
    21 -0.071919 -8.498734 -0.104136 -0.608097 0.492288 -0.587494
    22 0.583509 -1.197273 0.185379 -0.033131 -0.672839 -0.453995
    23 1.535925 0.010247 0.005009 -0.202686 -0.320839 -1.318396
    24 1.100770 0.004527 -0.010675 -0.346866 -0.099774 -0.461326
    25 0.957766 -2.746777 -0.090301 -1.174108 0.020548 0.127944
    26 -0.033419 -1.397129 -0.011256 -1.525743 0.000000 -0.000001
    27 -0.022362 -0.957434 0.018782 -1.517336 0.000000 0.000000
    28 0.250028 -2.820664 -0.238397 -1.100139 0.044370 -0.032821
    29 -0.049759 -1.680546 0.100479 -1.933951 0.049496 -0.014372
    30 -0.034141 -1.148309 0.084778 -1.375424 0.000000 0.000000
    31 -0.488517 -2.755600 -0.228262 -1.052063 0.046585 -0.150482
    32 0.039889 -1.479791 0.029853 -2.248447 0.000000 0.000001
    33 0.028786 -1.075733 -0.023111 -1.352907 0.000000 0.000000
    34 -1.180679 -2.507216 -0.193861 -0.953001 0.228010 -0.252761
    35 -0.024966 -1.123935 0.017594 -1.952744 0.003595 -0.034694
    36 -0.020058 -0.890966 0.010091 -1.860164 0.000000 0.000000
    37 0.116246 -0.050267 -0.019331 -2.761561 0.012703 -1.476460
  time 17
    0 -0.492352 -1.909024 -4.357159 3.574567 -0.018753 -1.364030
    1 0.096946 -8.450418 -0.009363 -0.073607 -0.562825 0.123806
    2 2.169934 -1.926364 0.902707 1.559891 0.043503 -1.389945
    3 -0.003538 -0.087752 -4.566493 0.000000 -1.570796 0.000000
    4 -0.587378 -1.261647 0.201457 -0.351174 -0.709038 -2.647802
    5 1.522835 0.058680 0.016851 0.476190 -0.332425 0.703212
    6 1.117948 0.048425 -0.005765 0.078316 -0.073831 0.354275
    7 -0.963867 -2.785143 -0.085346 -0.175232 0.055949 -0.053230
    8 0.028478 -1.403069 0.006271 -1.313094 0.000000 0.000000
    9 0.021414 -0.957782 0.020047 -0.935362 0.000000 0.000000
    10 -0.249534 -2.846964 -0.174215 -0.202414 0.004681 0.013787
    11 0.043234 -1.683941 0.096014 -1.413166 0.000007 -0.000011
    12 0.031729 -1.160830 0.058836 -0.906571 0.000007 0.000007
    13 0.447951 -2.798983 -0.200442 -0.925586 0.020320 -0.016353
    14 -0.032910 -1.480207 0.004936 -1.660155 0.000000 0.000002
    15 -0.027022 -1.076920 -0.020212 -0.882353 0.000000 0.000000
    16 1.164474 -2.543939 -0.170327 -0.679554 -0.027795 -0.008897
    17 0.024033 -1.129040 0.017806 -1.380805 0.000000 0.000000
    18 0.014896 -0.883991 -0.019845 -0.933227 0.000000 0.000000
    19 -0.112054 -0.111701 0.030022 0.066037 -0.025149 1.534855
    20 15.039707 -1.614556 -7.529010 0.385876 -2.652828 -0.759530
    21 -0.071919 -8.498734 -0.104136 -0.540622 0.479153 -0.562416
    22 0.583509 -1.197273 0.185379 -0.036782 -0.670879 -0.458657
    23 1.535925 0.010247 0.005009 -0.207371 -0.315123 -1.301194
    24 1.100770 0.004527 -0.010675 -0.348822 -0.097042 -0.453766
    25 0.957766 -2.746777 -0.090301 -1.152011 0.019973 0.129885
    26 -0.033419 -1.397129 -0.011256 -1.500293 0.000000 -0.000001
    27 -0.022362 -0.957434 0.018782 -1.492379 0.000000 0.000000
    28 0.250028 -2.820664 -0.238397 -1.081651 0.044370 -0.032821
    29 -0.049759 -1.680546 0.100479 -1.905037 0.049496 -0.014372
    30 -0.034141 -1.148309 0.084778 -1.354356 0.000000 0.000000
    31 -0.488517 -2.755600 -0.228262 -1.039922 0.047556 -0.153046
    32 0.039889 -1.479791 0.029853 -2.214434 0.000000 0.000001
    33 0.028786 -1.075733 -0.023111 -1.328847 0.000000 0.000000
    34 -1.180679 -2.507216 -0.193861 -0.945787 0.228274 -0.258778
    35 -0.024966 -1.123935 0.017594 -1.923574 0.003595 -0.034694
    36 -0.020058 -0.890966 0.010091 -1.830190 0.000000 0.000000
    37 0.112339 -0.050267 -0.011518 -2.746033 0.006198 -1.451332
  time 18
    0 -0.590011 -1.608233 -4.431380 3.608917 0.066878 -1.452428
    1 0.096946 -8.450418 -0.009363 -0.045637 -0.552555 0.146490
    2 2.126964 -1.836517 0.906614 1.562204 0.043863 -1.344214
    3 -0.003538 -0.087752 -4.566493 0.000000 -1.570796 0.000000
    4 -0.587378 -1.261647 0.201457 -0.360432 -0.705071 -2.633600
    5 1.522835 0.058680 0.016851 0.491989 -0.308872 0.655811
    6 1.117948 0.048425 -0.005765 0.086981 -0.064639 0.246997
    7 -0.963867 -2.785143 -0.085346 -0.167310 0.055254 -0.060588
    8 0.028478 -1.403069 0.006271 -1.299948 0.000000 0.000000
    9 0.021414 -0.957782 0.020047 -0.935362 0.000000 0.000000
    10 -0.249534 -2.846964 -0.174215 -0.151745 0.009127 0.013955
    11 0.043234 -1.683941 0.096014 -1.349650 0.000007 -0.000011
    12 0.031729 -1.160830 0.058836 -0.906571 0.000007 0.000007
    13 0.447951 -2.798983 -0.200442 -0.925586 0.020320 -0.016353
    14 -0.032910 -1.480207 0.004936 -1.660155 0.000000 0.000002
    15 -0.027022 -1.076920 -0.020212 -0.882353 0.000000 0.000000
    16 1.164474 -2.543939 -0.170327 -0.679554 -0.027795 -0.008897
    17 0.024033 -1.129040 0.017806 -1.380805 0.000000 0.000000
    18 0.014896 -0.883991 -0.019845 -0.933227 0.000000 0.000000
    19 -0.108148 -0.111701 0.033929 0.071176 -0.022896 1.530181
    20 14.215463 -2.903658 -7.677452 0.423831 -2.568421 -0.746395
    21 -0.071919 -8.498734 -0.104136 -0.469243 0.466233 -0.533186
    22 0.583509 -1.197273 0.185379 -0.041730 -0.668680 -0.461713
    23 1.535925 0.010247 0.005009 -0.213697 -0.308435 -1.277960
    24 1.100770 0.004527 -0.010675 -0.351458 -0.093626 -0.443529
    25 0.957766 -2.746777 -0.090301 -1.122122 0.019194 0.132510
    26 -0.033419 -1.397129 -0.011256 -1.465901 0.000000 -0.000001
    27 -0.022362 -0.957434 0.018782 -1.458637 0.000000 0.000000
    28 0.250028 -2.820664 -0.238397 -1.056672 0.044370 -0.032821
    29 -0.049759 -1.680546 0.100479 -1.865925 0.049496 -0.014372
    30 -0.034141 -1.148309 0.084778 -1.325873 0.000000 0.000000
    31 -0.488517 -2.755600 -0.228262 -1.023479 0.048695 -0.156522
    32 0.039889 -1.479791 0.029853 -2.168433 0.000000 0.000001
    33 0.028786 -1.075733 -0.023111 -1.296297 0.000000 0.000000
    34 -1.180679 -2.507216 -0.193861 -0.936072 0.228465 -0.266915
    35 -0.024966 -1.123935 0.017594 -1.884068 0.003595 -0.034694
    36 -0.020058 -0.890966 0.010091 -1.789673 0.000000 0.000000
    37 0.112339 -0.050267 -0.007612 -2.732231 0.000364 -1.427541
  time 19
    0 -0.711109 -1.557451 -4.673575 3.640300 0.120996 -1.533917
    1 0.096946 -8.450418 -0.009363 -0.019431 -0.528174 0.143790
    2 2.080088 -1.731045 0.910520 1.564433 0.044282 -1.290013
    3 -0.003538 -0.087752 -4.566493 0.000000 -1.570796 0.000000
    4 -0.587378 -1.261647 0.201457 -0.369312 -0.701283 -2.619974
    5 1.522835 0.058680 0.016851 0.507136 -0.286297 0.610381
    6 1.117948 0.048425 -0.005765 0.095286 -0.055831 0.144135
    7 -0.963867 -2.785143 -0.085346 -0.158286 0.054582 -0.067647
    8 0.028478 -1.403069 0.006271 -1.287391 0.000000 0.000000
    9 0.021414 -0.957782 0.020047 -0.935362 0.000000 0.000000
    10 -0.249534 -2.846964 -0.174215 -0.103120 0.013394 0.014099
    11 0.043234 -1.683941 0.096014 -1.288770 0.000007 -0.000011
    12 0.031729 -1.160830 0.058836 -0.906571 0.000007 0.000007
    13 0.447951 -2.798983 -0.200442 -0.925586 0.020320 -0.016353
    14 -0.032910 -1.480207 0.004936 -1.660155 0.000000 0.000002
    15 -0.027022 -1.076920 -0.020212 -0.882353 0.000000 0.000000
    16 1.164474 -2.543939 -0.170327 -0.679554 -0.027795 -0.008897
    17 0.024033 -1.129040 0.017806 -1.380805 0.000000 0.000000
    18 0.014896 -0.883991 -0.019845 -0.933227 0.000000 0.000000
    19 -0.104242 -0.111701 0.037835 0.076661 -0.020679 1.525807
    20 13.375593 -4.149790 -7.814175 0.457676 -2.509699 -0.735465
    21 -0.071919 -8.498734 -0.104136 -0.402567 0.454021 -0.503377
    22 0.583509 -1.197273 0.185379 -0.047098 -0.666494 -0.463510
    23 1.535925 0.010247 0.005009 -0.220569 -0.301652 -1.252784
    24 1.100770 0.004527 -0.010675 -0.354317 -0.090043 -0.432423
    25 0.957766 -2.746777 -0.090301 -1.089742 0.018355 0.135338
    26 -0.033419 -1.397129 -0.011256 -1.428576 0.000000 -0.000001
    27 -0.022362 -0.957434 0.018782 -1.422090 0.000000 0.000000
    28 0.250028 -2.820664 -0.238397 -1.029553 0.044370 -0.032821
    29 -0.049759 -1.680546 0.100479 -1.823575 0.049496 -0.014372
    30 -0.034141 -1.148309 0.084778 -1.295033 0.000000 0.000000
    31 -0.488517 -2.755600 -0.228262 -1.005691 0.049845 -0.160285
    32 0.039889 -1.479791 0.029853 -2.118592 0.000000 0.000001
    33 0.028786 -1.075733 -0.023111 -1.261031 0.000000 0.000000
    34 -1.180679 -2.507216 -0.193861 -0.925492 0.228597 -0.275748
    35 -0.024966 -1.123935 0.017594 -1.841294 0.003595 -0.034694
    36 -0.020058 -0.890966 0.010091 -1.745723 0.000000 0.000000
    37 0.108433 -0.054173 -0.003705 -2.720633 -0.003941 -1.406235
  time 20
    0 -0.882989 -1.819177 -5.150152 0.530774 -3.284236 1.524489
    1 0.096946 -8.450418 -0.009363 0.002841 -0.492568 0.124293
    2 2.029305 -1.617761 0.918333 1.566471 0.044725 -1.232964
    3 -0.003538 -0.087752 -4.566493 0.000000 -1.570796 0.000000
    4 -0.587378 -1.261647 0.201457 -0.377425 -0.697808 -2.607522
    5 1.522835 0.058680 0.016851 0.520975 -0.265662 0.568824
    6 1.117948 0.048425 -0.005765 0.102884 -0.047765 0.050108
    7 -0.963867 -2.785143 -0.085346 -0.148147 0.053971 -0.074095
    8 0.028478 -1.403069 0.006271 -1.275864 0.000000 0.000000
    9 0.021414 -0.957782 0.020047 -0.935362 0.000000 0.000000
    10 -0.249534 -2.846964 -0.174215 -0.058678 0.017301 0.014243
    11 0.043234 -1.683941 0.096014 -1.233047 0.000007 -0.000011
    12 0.031729 -1.160830 0.058836 -0.906571 0.000007 0.000007
    13 0.447951 -2.798983 -0.200442 -0.925586 0.020320 -0.016353
    14 -0.032910 -1.480207 0.004936 -1.660155 0.000000 0.000002
    15 -0.027022 -1.076920 -0.020212 -0.882353 0.000000 0.000000
    16 1.164474 -2.543939 -0.170327 -0.679554 -0.027795 -0.008897
    17 0.024033 -1.129040 0.017806 -1.380805 0.000000 0.000000
    18 0.014896 -0.883991 -0.019845 -0.933227 0.000000 0.000000
    19 -0.100335 -0.111701 0.045648 0.082419 -0.018485 1.521732
    20 12.598226 -5.259199 -7.919647 0.483298 -2.484396 -0.730192
    21 -0.071919 -8.498734 -0.104136 -0.349321 0.443007 -0.476513
    22 0.583509 -1.197273 0.185379 -0.052020 -0.664601 -0.464373
    23 1.535925 0.010247 0.005009 -0.226858 -0.295707 -1.229713
    24 1.100770 0.004527 -0.010675 -0.356924 -0.086831 -0.422287
    25 0.957766 -2.746777 -0.090301 -1.060066 0.017588 0.137939
    26 -0.033419 -1.397129 -0.011256 -1.394421 0.000000 -0.000001
    27 -0.022362 -0.957434 0.018782 -1.388581 0.000000 0.000000
    28 0.250028 -2.820664 -0.238397 -1.004715 0.044370 -0.032821
    29 -0.049759 -1.680546 0.100479 -1.784763 0.049496 -0.014372
    30 -0.034141 -1.148309 0.084778 -1.266747 0.000000 0.000000
    31 -0.488517 -2.755600 -0.228262 -0.989402 0.050852 -0.163725
    32 0.039889 -1.479791 0.029853 -2.072995 0.000000 0.000001
    33 0.028786 -1.075733 -0.023111 -1.228772 0.000000 0.000000
    34 -1.180679 -2.507216 -0.193861 -0.915825 0.228669 -0.283814
    35 -0.024966 -1.123935 0.017594 -1.802085 0.003595 -0.034694
    36 -0.020058 -0.890966 0.010091 -1.705451 0.000000 0.000000
    37 0.104527 -0.054173 0.000201 -2.711719 -0.006236 -1.388941
  time 21
    0 -1.109558 -2.291848 -5.810329 0.567515 -3.284619 1.429324
    1 0.096946 -8.450418 -0.009363 0.018961 -0.448646 0.096563
    2 1.982428 -1.508382 0.922239 1.568220 0.045157 -1.178763
    3 -0.003538 -0.087752 -4.566493 0.000000 -1.570796 0.000000
    4 -0.587378 -1.261647 0.201457 -0.384406 -0.694836 -2.596820
    5 1.522835 0.058680 0.016851 0.532888 -0.247917 0.533146
    6 1.117948 0.048425 -0.005765 0.109404 -0.040850 -0.030721
    7 -0.963867 -2.785143 -0.085346 -0.136893 0.053444 -0.079644
    8 0.028478 -1.403069 0.006271 -1.265956 0.000000 0.000000
    9 0.021414 -0.957782 0.020047 -0.935362 0.000000 0.000000
    10 -0.249534 -2.846964 -0.174215 -0.020487 0.020656 0.014363
    11 0.043234 -1.683941 0.096014 -1.185234 0.000007 -0.000011
    12 0.031729 -1.160830 0.058836 -0.906571 0.000007 0.000007
    13 0.447951 -2.798983 -0.200442 -0.925586 0.020320 -0.016353
    14 -0.032910 -1.480207 0.004936 -1.660155 0.000000 0.000002
    15 -0.027022 -1.076920 -0.020212 -0.882353 0.000000 0.000000
    16 1.164474 -2.543939 -0.170327 -0.679554 -0.027795 -0.008897
    17 0.024033 -1.129040 0.017806 -1.380805 0.000000 0.000000
    18 0.014896 -0.883991 -0.019845 -0.933227 0.000000 0.000000
    19 -0.096429 -0.111701 0.049554 0.088394 -0.016340 1.517933
    20 11.961488 -6.142038 -7.982149 0.496970 -2.500628 -0.733931
    21 -0.071919 -8.498734 -0.104136 -0.318088 0.433683 -0.456188
    22 0.583509 -1.197273 0.185379 -0.055603 -0.663268 -0.464649
    23 1.535925 0.010247 0.005009 -0.231452 -0.291465 -1.212875
    24 1.100770 0.004527 -0.010675 -0.358835 -0.084518 -0.414861
    25 0.957766 -2.746777 -0.090301 -1.038432 0.017024 0.139844
    26 -0.033419 -1.397129 -0.011256 -1.369491 0.000000 -0.000001
    27 -0.022362 -0.957434 0.018782 -1.364138 0.000000 0.000000
    28 0.250028 -2.820664 -0.238397 -0.986613 0.044370 -0.032821
    29 -0.049759 -1.680546 0.100479 -1.756449 0.049496 -0.014372
    30 -0.034141 -1.148309 0.084778 -1.246121 0.000000 0.000000
    31 -0.488517 -2.755600 -0.228262 -0.977492 0.051583 -0.166241
    32 0.039889 -1.479791 0.029853 -2.039656 0.000000 0.000001
    33 0.028786 -1.075733 -0.023111 -1.205197 0.000000 0.000000
    34 -1.180679 -2.507216 -0.193861 -0.908756 0.228705 -0.289710
    35 -0.024966 -1.123935 0.017594 -1.773510 0.003595 -0.034694
    36 -0.020058 -0.890966 0.010091 -1.676090 0.000000 0.000000
    37 0.100620 -0.054173 0.004108 -2.705967 -0.005567 -1.376903
  time 22
    0 -1.340034 -2.846552 -6.536913 0.607319 -3.267665 1.326037
    1 0.096946 -8.450418 -0.009363 0.026727 -0.399361 0.069164
    2 1.939458 -1.418536 0.926146 1.569587 0.045504 -1.133032
    3 -0.003538 -0.087752 -4.566493 0.000000 -1.570796 0.000000
    4 -0.587378 -1.261647 0.201457 -0.389852 -0.692499 -2.588454
    5 1.522835 0.058680 0.016851 0.542186 -0.234054 0.505215
    6 1.117948 0.048425 -0.005765 0.114509 -0.035433 -0.093935
    7 -0.963867 -2.785143 -0.085346 -0.124501 0.053036 -0.083982
    8 0.028478 -1.403069 0.006271 -1.258254 0.000000 0.000000
    9 0.021414 -0.957782 0.020047 -0.935362 0.000000 0.000000
    10 -0.249534 -2.846964 -0.174215 0.009363 0.023281 0.014459
    11 0.043234 -1.683941 0.096014 -1.147792 0.000007 -0.000011
    12 0.031729 -1.160830 0.058836 -0.906571 0.000007 0.000007
    13 0.447951 -2.798983 -0.200442 -0.925586 0.020320 -0.016353
    14 -0.032910 -1.480207 0.004936 -1.660155 0.000000 0.000002
    15 -0.027022 -1.076920 -0.020212 -0.882353 0.000000 0.000000
    16 1.164474 -2.543939 -0.170327 -0.679554 -0.027795 -0.008897
    17 0.024033 -1.129040 0.017806 -1.380805 0.000000 0.000000
    18 0.014896 -0.883991 -0.019845 -0.933227 0.000000 0.000000
    19 -0.092523 -0.111701 0.057367 0.094498 -0.014255 1.514409
    20 11.535693 -6.704555 -7.978243 0.494675 -2.566225 -0.750038
    21 -0.071919 -8.498734 -0.104136 -0.317594 0.426540 -0.445929
    22 0.583509 -1.197273 0.185379 -0.056996 -0.662761 -0.464673
    23 1.535925 0.010247 0.005009 -0.233220 -0.289859 -1.206358
    24 1.100770 0.004527 -0.010675 -0.359576 -0.083631 -0.411984
    25 0.957766 -2.746777 -0.090301 -1.030035 0.016809 0.140576
    26 -0.033419 -1.397129 -0.011256 -1.359841 0.000000 -0.000001
    27 -0.022362 -0.957434 0.018782 -1.354698 0.000000 0.000000
    28 0.250028 -2.820664 -0.238397 -0.979596 0.044370 -0.032821
    29 -0.049759 -1.680546 0.100479 -1.745471 0.049496 -0.014372
    30 -0.034141 -1.148309 0.084778 -1.238117 0.000000 0.000000
    31 -0.488517 -2.755600 -0.228262 -0.972882 0.051859 -0.167212
    32 0.039889 -1.479791 0.029853 -2.026791 0.000000 0.000001
    33 0.028786 -1.075733 -0.023111 -1.196077 0.000000 0.000000
    34 -1.180679 -2.507216 -0.193861 -0.906015 0.228717 -0.291999
    35 -0.024966 -1.123935 0.017594 -1.762460 0.003595 -0.034694
    36 -0.020058 -0.890966 0.010091 -1.664689 0.000000 0.000000
    37 0.092807 -0.054173 0.004108 -2.703955 -0.001549 -1.371457
  time 23
    0 -1.523633 -3.354380 -7.220528 0.648653 -3.237205 1.218905
    1 0.096946 -8.450418 -0.009363 0.023970 -0.347600 0.050685
    2 1.912114 -1.356034 0.930052 1.570485 0.045756 -1.101444
    3 -0.003538 -0.087752 -4.566493 0.000000 -1.570796 0.000000
    4 -0.587378 -1.261647 0.201457 -0.393412 -0.690989 -2.583001
    5 1.522835 0.058680 0.016851 0.548235 -0.225021 0.487036
    6 1.117948 0.048425 -0.005765 0.117841 -0.031909 -0.135064
    7 -0.963867 -2.785143 -0.085346 -0.110982 0.052773 -0.086799
    8 0.028478 -1.403069 0.006271 -1.253202 0.000000 0.000000
    9 0.021414 -0.957782 0.020047 -0.935362 0.000000 0.000000
    10 -0.249534 -2.846964 -0.174215 0.028804 0.024983 0.014519
    11 0.043234 -1.683941 0.096014 -1.123417 0.000007 -0.000011
    12 0.031729 -1.160830 0.058836 -0.906571 0.000007 0.000007
    13 0.447951 -2.798983 -0.200442 -0.925586 0.020320 -0.016353
    14 -0.032910 -1.480207 0.004936 -1.660155 0.000000 0.000002
    15 -0.027022 -1.076920 -0.020212 -0.882353 0.000000 0.000000
    16 1.164474 -2.543939 -0.170327 -0.679554 -0.027795 -0.008897
    17 0.024033 -1.129040 0.017806 -1.380805 0.000000 0.000000
    18 0.014896 -0.883991 -0.019845 -0.933227 0.000000 0.000000
    19 -0.088616 -0.111701 0.061273 0.100659 -0.012229 1.511174
    20 11.258341 -6.981907 -7.911835 0.474311 -2.698659 -0.780238
    21 -0.071919 -8.498734 -0.104136 -0.342830 0.421854 -0.442101
    22 0.583509 -1.197273 0.185379 -0.074655 -0.599684 -0.505864
    23 1.535925 0.010247 0.005009 -0.243958 -0.224663 -1.080881
    24 1.100770 0.004527 -0.010675 -0.361028 -0.051848 -0.329123
    25 0.957766 -2.746777 -0.090301 -0.766157 0.016809 0.140576
    26 -0.033419 -1.397129 -0.011256 -1.205055 0.000000 -0.000001
    27 -0.022362 -0.957434 0.018782 -1.184442 0.000000 0.000000
    28 0.250028 -2.820664 -0.238397 -0.797133 0.044370 -0.032821
    29 -0.049759 -1.680546 0.100479 -1.652312 0.049496 -0.014372
    30 -0.034141 -1.148309 0.084778 -1.152226 0.000000 0.000000
    31 -0.488517 -2.755600 -0.228262 -0.842373 0.062693 -0.178969
    32 0.039889 -1.479791 0.029853 -1.999177 0.000000 0.000001
    33 0.028786 -1.075733 -0.023111 -1.105414 0.000000 0.000000
    34 -1.180679 -2.507216 -0.193861 -0.870378 0.255011 -0.317742
    35 -0.024966 -1.123935 0.017594 -1.691764 0.003595 -0.034694
    36 -0.020058 -0.890966 0.010091 -1.577279 0.000000 0.000000
    37 0.081088 -0.054173 -0.003705 -2.723317 0.012033 -1.377285
  time 24
    0 -1.605667 -3.690328 -7.743981 0.689604 -3.197263 1.111986
    1 0.096946 -8.450418 -0.009363 0.008472 -0.296270 0.049667
    2 1.904301 -1.336502 0.930052 1.570797 0.045840 -1.089669
    3 -0.003538 -0.087752 -4.566493 0.000000 -1.570796 0.000000
    4 -0.587378 -1.261647 0.201457 -0.394669 -0.690437 -2.581060
    5 1.522835 0.058680 0.016851 0.550413 -0.221796 0.480546
    6 1.117948 0.048425 -0.005765 0.119028 -0.030651 -0.149770
    7 -0.963867 -2.785143 -0.085346 -0.096301 0.052677 -0.087805
    8 0.028478 -1.403069 0.006271 -1.251436 0.000000 0.000000
    9 0.021414 -0.957782 0.020047 -0.935362 0.000000 0.000000
    10 -0.249534 -2.846964 -0.174215 0.035744 0.025594 0.014543
    11 0.043234 -1.683941 0.096014 -1.114745 0.000007 -0.000011
    12 0.031729 -1.160830 0.058836 -0.906571 0.000007 0.000007
    13 0.447951 -2.798983 -0.200442 -0.925586 0.020320 -0.016353
    14 -0.032910 -1.480207 0.004936 -1.660155 0.000000 0.000002
    15 -0.027022 -1.076920 -0.020212 -0.882353 0.000000 0.000000
    16 1.164474 -2.543939 -0.170327 -0.679554 -0.027795 -0.008897
    17 0.024033 -1.129040 0.017806 -1.380805 0.000000 0.000000
    18 0.014896 -0.883991 -0.019845 -0.933227 0.000000 0.000000
    19 -0.084710 -0.111701 0.065180 0.106806 -0.010300 1.508201
    20 11.020053 -7.099098 -7.802456 0.440945 -2.890770 -0.820122
    21 -0.071919 -8.498734 -0.104136 -0.378978 0.418882 -0.438251
    22 0.583509 -1.197273 0.185379 -0.107634 -0.482006 -0.582733
    23 1.535925 0.010247 0.005009 -0.263992 -0.103019 -0.846726
    24 1.100770 0.004527 -0.010675 -0.363739 0.007428 -0.174507
    25 0.957766 -2.746777 -0.090301 -0.273805 0.016809 0.140576
    26 -0.033419 -1.397129 -0.011256 -0.916251 0.000000 -0.000001
    27 -0.022362 -0.957434 0.018782 -0.866783 0.000000 0.000000
    28 0.250028 -2.820664 -0.238397 -0.456658 0.044370 -0.032821
    29 -0.049759 -1.680546 0.100479 -1.478409 0.049496 -0.014372
    30 -0.034141 -1.148309 0.084778 -0.991985 0.000000 0.000000
    31 -0.488517 -2.755600 -0.228262 -0.598875 0.082899 -0.200901
    32 0.039889 -1.479791 0.029853 -1.947585 0.000000 0.000001
    33 0.028786 -1.075733 -0.023111 -0.936311 0.000000 0.000000
    34 -1.180679 -2.507216 -0.193861 -0.804204 0.303836 -0.365536
    35 -0.024966 -1.123935 0.017594 -1.559879 0.003595 -0.034694
    36 -0.020058 -0.890966 0.010091 -1.414107 0.000000 0.000000
    37 0.061556 -0.054173 -0.019331 -2.771626 0.037190 -1.395247
  time 25
    0 -1.562697 -3.807519 -8.087742 0.728737 -3.151766 1.009412
    1 0.096946 -8.450418 -0.009363 -0.025852 -0.235466 0.062746
    2 1.904301 -1.336502 0.930052 1.570797 0.045840 -1.089669
    3 -0.003538 -0.087752 -4.566493 0.000000 -1.570796 0.000000
    4 -0.587378 -1.261647 0.201457 -0.381085 -0.696250 -2.601913
    5 1.522835 0.058680 0.016851 0.534965 -0.244799 0.526860
    6 1.117948 0.048425 -0.005765 0.114509 -0.035433 -0.093935
    7 -0.963867 -2.785143 -0.085346 0.001864 0.053132 -0.082952
    8 0.028478 -1.403069 0.006271 -1.258254 0.000000 0.000000
    9 0.021414 -0.957782 0.020047 -0.935362 0.000000 0.000000
    10 -0.249534 -2.846964 -0.174215 -0.007412 0.021244 0.014387
    11 0.043234 -1.683941 0.096014 -1.147792 0.000007 -0.000011
    12 0.031729 -1.160830 0.058836 -0.906571 0.000007 0.000007
    13 0.447951 -2.798983 -0.200442 -0.925586 0.020320 -0.016353
    14 -0.032910 -1.480207 0.004936 -1.660155 0.000000 0.000002
    15 -0.027022 -1.076920 -0.020212 -0.882353 0.000000 0.000000
    16 1.164474 -2.543939 -0.170327 -0.679554 -0.027795 -0.008897
    17 0.024033 -1.129040 0.017806 -1.380805 0.000000 0.000000
    18 0.014896 -0.883991 -0.019845 -0.933227 0.000000 0.000000
    19 -0.080803 -0.111701 0.072993 0.112882 -0.008442 1.505493
    20 10.816921 -7.110818 -7.669640 0.400695 -3.113818 -0.864416
    21 -0.071919 -8.498734 -0.104136 -0.419854 0.416617 -0.433820
    22 0.583509 -1.197273 0.185379 -0.125847 -0.416982 -0.625207
    23 1.535925 0.010247 0.005009 -0.275057 -0.035798 -0.717324
    24 1.100770 0.004527 -0.010675 -0.365235 0.040182 -0.089104
    25 0.957766 -2.746777 -0.090301 -0.001778 0.016809 0.140576
    26 -0.033419 -1.397129 -0.011256 -0.756687 0.000000 -0.000001
    27 -0.022362 -0.957434 0.018782 -0.691246 0.000000 0.000000
    28 0.250028 -2.820664 -0.238397 -0.268547 0.044370 -0.032821
    29 -0.049759 -1.680546 0.100479 -1.382370 0.049496 -0.014372
    30 -0.034141 -1.148309 0.084778 -0.903442 0.000000 0.000000
    31 -0.488517 -2.755600 -0.228262 -0.464294 0.094068 -0.213017
    32 0.039889 -1.479791 0.029853 -1.919163 0.000000 0.000001
    33 0.028786 -1.075733 -0.023111 -0.842882 0.000000 0.000000
    34 -1.180679 -2.507216 -0.193861 -0.768567 0.330131 -0.391267
    35 -0.024966 -1.123935 0.017594 -1.486985 0.003595 -0.034694
    36 -0.020058 -0.890966 0.010091 -1.323940 0.000000 0.000000
    37 0.034212 -0.054173 -0.038863 -2.834408 0.069043 -1.420471
  time 26
    0 -1.425974 -3.791894 -8.329937 0.764139 -3.104448 0.915315
    1 0.096946 -8.450418 -0.009363 -0.077860 -0.160096 0.080097
    2 1.904301 -1.336502 0.930052 1.570797 0.045840 -1.089669
    3 -0.003538 -0.087752 -4.566493 0.000000 -1.570796 0.000000
    4 -0.587378 -1.261647 0.201457 -0.351174 -0.709038 -2.647802
    5 1.522835 0.058680 0.016851 0.498155 -0.299670 0.637292
    6 1.117948 0.048425 -0.005765 0.102884 -0.047765 0.050108
    7 -0.963867 -2.785143 -0.085346 0.168211 0.054163 -0.072034
    8 0.028478 -1.403069 0.006271 -1.275864 0.000000 0.000000
    9 0.021414 -0.957782 0.020047 -0.935362 0.000000 0.000000
    10 -0.249534 -2.846964 -0.174215 -0.110313 0.010865 0.014015
    11 0.043234 -1.683941 0.096014 -1.233047 0.000007 -0.000011
    12 0.031729 -1.160830 0.058836 -0.906571 0.000007 0.000007
    13 0.447951 -2.798983 -0.200442 -0.925586 0.020320 -0.016353
    14 -0.032910 -1.480207 0.004936 -1.660155 0.000000 0.000002
    15 -0.027022 -1.076920 -0.020212 -0.882353 0.000000 0.000000
    16 1.164474 -2.543939 -0.170327 -0.679554 -0.027795 -0.008897
    17 0.024033 -1.129040 0.017806 -1.380805 0.000000 0.000000
    18 0.014896 -0.883991 -0.019845 -0.933227 0.000000 0.000000
    19 -0.076897 -0.115607 0.076899 0.118813 -0.006705 1.503048
    20 10.652854 -7.071754 -7.529010 0.360063 2.944270 -0.907943
    21 -0.071919 -8.498734 -0.104136 -0.459294 0.414052 -0.428207
    22 0.583509 -1.197273 0.185379 -0.126631 -0.414143 -0.627064
    23 1.535925 0.010247 0.005009 -0.275550 -0.032873 -0.711698
    24 1.100770 0.004527 -0.010675 -0.365294 0.041608 -0.085357
    25 0.957766 -2.746777 -0.090301 0.010071 0.016809 0.140576
    26 -0.033419 -1.397129 -0.011256 -0.749685 0.000000 -0.000001
    27 -0.022362 -0.957434 0.018782 -0.683582 0.000000 0.000000
    28 0.250028 -2.820664 -0.238397 -0.260372 0.044370 -0.032821
    29 -0.049759 -1.680546 0.100479 -1.378171 0.049496 -0.014372
    30 -0.034141 -1.148309 0.084778 -0.899563 0.000000 0.000000
    31 -0.488517 -2.755600 -0.228262 -0.458416 0.094560 -0.213544
    32 0.039889 -1.479791 0.029853 -1.917883 0.000000 0.000001
    33 0.028786 -1.075733 -0.023111 -0.838807 0.000000 0.000000
    34 -1.180679 -2.507216 -0.193861 -0.768519 0.330059 -0.391196
    35 -0.024966 -1.123935 0.017594 -1.483777 0.003595 -0.034694
    36 -0.020058 -0.890966 0.010091 -1.320017 0.000000 0.000000
    37 0.010774 -0.054173 -0.054488 3.385871 0.102425 -1.448083
  time 27
    0 -1.238468 -3.709860 -8.497911 0.794087 -3.059238 0.833826
    1 0.096946 -8.450418 -0.009363 -0.138928 -0.080318 0.100635
    2 1.904301 -1.336502 0.930052 1.570797 0.045840 -1.089669
    3 -0.003538 -0.087752 -4.566493 0.000000 -1.570796 0.000000
    4 -0.587378 -1.261647 0.201457 -0.321263 -0.721813 -2.693691
    5 1.522835 0.058680 0.016851 0.454224 -0.365165 0.769132
    6 1.117948 0.048425 -0.005765 0.086981 -0.064639 0.246997
    7 -0.963867 -2.785143 -0.085346 0.256213 0.055254 -0.060588
    8 0.028478 -1.403069 0.006271 -1.299948 0.000000 0.000000
    9 0.021414 -0.957782 0.020047 -0.935362 0.000000 0.000000
    10 -0.249534 -2.846964 -0.174215 -0.233137 -0.001503 0.013572
    11 0.043234 -1.683941 0.096014 -1.349650 0.000007 -0.000011
    12 0.031729 -1.160830 0.058836 -0.906571 0.000007 0.000007
    13 0.447951 -2.798983 -0.200442 -0.925586 0.020320 -0.016353
    14 -0.032910 -1.480207 0.004936 -1.660155 0.000000 0.000002
    15 -0.027022 -1.076920 -0.020212 -0.882353 0.000000 0.000000
    16 1.164474 -2.543939 -0.170327 -0.679554 -0.027795 -0.008897
    17 0.024033 -1.129040 0.017806 -1.380805 0.000000 0.000000
    18 0.014896 -0.883991 -0.019845 -0.933227 0.000000 0.000000
    19 -0.076897 -0.115607 0.084712 0.124514 -0.005075 1.500855
    20 10.531757 -7.032690 -7.407913 0.325262 2.745857 -0.945526
    21 -0.071919 -8.498734 -0.104136 -0.491139 0.410157 -0.420829
    22 0.583509 -1.197273 0.185379 -0.127375 -0.411517 -0.628778
    23 1.535925 0.010247 0.005009 -0.275987 -0.030153 -0.706476
    24 1.100770 0.004527 -0.010675 -0.365353 0.042926 -0.081912
    25 0.957766 -2.746777 -0.090301 0.021066 0.016809 0.140576
    26 -0.033419 -1.397129 -0.011256 -0.743252 0.000000 -0.000001
    27 -0.022362 -0.957434 0.018782 -0.676478 0.000000 0.000000
    28 0.250028 -2.820664 -0.238397 -0.252760 0.044370 -0.032821
    29 -0.049759 -1.680546 0.100479 -1.374272 0.049496 -0.014372
    30 -0.034141 -1.148309 0.084778 -0.895978 0.000000 0.000000
    31 -0.488517 -2.755600 -0.228262 -0.452999 0.095015 -0.214036
    32 0.039889 -1.479791 0.029853 -1.916738 0.000000 0.000001
    33 0.028786 -1.075733 -0.023111 -0.835023 0.000000 0.000000
    34 -1.180679 -2.507216 -0.193861 -0.768471 0.329867 -0.391004
    35 -0.024966 -1.123935 0.017594 -1.480866 0.003595 -0.034694
    36 -0.020058 -0.890966 0.010091 -1.316339 0.000000 0.000000
    37 -0.008758 -0.054173 -0.070113 3.337658 0.132174 -1.473211
  time 28
    0 -1.050963 -3.616107 -8.615102 0.817146 -3.020158 0.769005
    1 0.096946 -8.450418 -0.009363 -0.200483 -0.006266 0.123275
    2 1.904301 -1.336502 0.930052 1.570797 0.045840 -1.089669
    3 -0.003538 -0.087752 -4.566493 0.000000 -1.570796 0.000000
    4 -0.587378 -1.261647 0.201457 -0.307666 -0.727626 -2.714556
    5 1.522835 0.058680 0.016851 0.417414 -0.420036 0.879565
    6 1.117948 0.048425 -0.005765 0.069651 -0.083024 0.461554
    7 -0.963867 -2.785143 -0.085346 0.184809 0.056392 -0.048472
    8 0.028478 -1.403069 0.006271 -1.326191 0.000000 0.000000
    9 0.021414 -0.957782 0.020047 -0.935362 0.000000 0.000000
    10 -0.249534 -2.846964 -0.174215 -0.336039 -0.011882 0.013200
    11 0.043234 -1.683941 0.096014 -1.476682 0.000007 -0.000011
    12 0.031729 -1.160830 0.058836 -0.906571 0.000007 0.000007
    13 0.447951 -2.798983 -0.200442 -0.925586 0.020320 -0.016353
    14 -0.032910 -1.480207 0.004936 -1.660155 0.000000 0.000002
    15 -0.027022 -1.076920 -0.020212 -0.882353 0.000000 0.000000
    16 1.164474 -2.543939 -0.170327 -0.679554 -0.027795 -0.008897
    17 0.024033 -1.129040 0.017806 -1.380805 0.000000 0.000000
    18 0.014896 -0.883991 -0.019845 -0.933227 0.000000 0.000000
    19 -0.072991 -0.115607 0.088618 0.129927 -0.003565 1.498913
    20 10.449723 -7.044409 -7.321973 0.302795 2.603111 -0.971988
    21 -0.071919 -8.498734 -0.104136 -0.509224 0.403913 -0.411151
    22 0.583509 -1.197273 0.185379 -0.128051 -0.409104 -0.630348
    23 1.535925 0.010247 0.005009 -0.276406 -0.027660 -0.701659
    24 1.100770 0.004527 -0.010675 -0.365413 0.044149 -0.078734
    25 0.957766 -2.746777 -0.090301 0.031171 0.016809 0.140576
    26 -0.033419 -1.397129 -0.011256 -0.737339 0.000000 -0.000001
    27 -0.022362 -0.957434 0.018782 -0.669982 0.000000 0.000000
    28 0.250028 -2.820664 -0.238397 -0.245778 0.044370 -0.032821
    29 -0.049759 -1.680546 0.100479 -1.370733 0.049496 -0.014372
    30 -0.034141 -1.148309 0.084778 -0.892687 0.000000 0.000000
    31 -0.488517 -2.755600 -0.228262 -0.448005 0.095423 -0.214479
    32 0.039889 -1.479791 0.029853 -1.915660 0.000000 0.000001
    33 0.028786 -1.075733 -0.023111 -0.831579 0.000000 0.000000
    34 -1.180679 -2.507216 -0.193861 -0.768423 0.329567 -0.390692
    35 -0.024966 -1.123935 0.017594 -1.478133 0.003595 -0.034694
    36 -0.020058 -0.890966 0.010091 -1.313029 0.000000 0.000000
    37 -0.012665 -0.054173 -0.077926 3.318583 0.153122 -1.491078
  time 29
    0 -0.914240 -3.577044 -8.720574 0.831498 -2.991040 0.725055
    1 0.096946 -8.450418 -0.009363 -0.253869 0.051857 0.146977
    2 1.904301 -1.336502 0.930052 1.570797 0.045840 -1.089669
    3 -0.003538 -0.087752 -4.566493 0.000000 -1.570796 0.000000
    4 -0.587378 -1.261647 0.201457 -0.307666 -0.727626 -2.714556
    5 1.522835 0.058680 0.016851 0.401983 -0.443039 0.925879
    6 1.117948 0.048425 -0.005765 0.053748 -0.099898 0.658496
    7 -0.963867 -2.785143 -0.085346 0.027715 0.057698 -0.034666
    8 0.028478 -1.403069 0.006271 -1.350275 0.000000 0.000000
    9 0.021414 -0.957782 0.020047 -0.935362 0.000000 0.000000
    10 -0.249534 -2.846964 -0.174215 -0.379194 -0.016232 0.013044
    11 0.043234 -1.683941 0.096014 -1.593285 0.000007 -0.000011
    12 0.031729 -1.160830 0.058836 -0.906571 0.000007 0.000007
    13 0.447951 -2.798983 -0.200442 -0.925586 0.020320 -0.016353
    14 -0.032910 -1.480207 0.004936 -1.660155 0.000000 0.000002
    15 -0.027022 -1.076920 -0.020212 -0.882353 0.000000 0.000000
    16 1.164474 -2.543939 -0.170327 -0.679554 -0.027795 -0.008897
    17 0.024033 -1.129040 0.017806 -1.380805 0.000000 0.000000
    18 0.014896 -0.883991 -0.019845 -0.933227 0.000000 0.000000
    19 -0.069084 -0.115607 0.092524 0.134965 -0.002186 1.497224
    20 10.445816 -7.110818 -7.275096 0.295242 2.522810 -0.984931
    21 -0.071919 -8.498734 -0.104136 -0.508919 0.393511 -0.396461
    22 0.583509 -1.197273 0.185379 -0.128660 -0.406931 -0.631774
    23 1.535925 0.010247 0.005009 -0.276771 -0.025407 -0.697328
    24 1.100770 0.004527 -0.010675 -0.365457 0.045239 -0.075890
    25 0.957766 -2.746777 -0.090301 0.040244 0.016809 0.140576
    26 -0.033419 -1.397129 -0.011256 -0.731993 0.000000 -0.000001
    27 -0.022362 -0.957434 0.018782 -0.664140 0.000000 0.000000
    28 0.250028 -2.820664 -0.238397 -0.239498 0.044370 -0.032821
    29 -0.049759 -1.680546 0.100479 -1.367493 0.049496 -0.014372
    30 -0.034141 -1.148309 0.084778 -0.889741 0.000000 0.000000
    31 -0.488517 -2.755600 -0.228262 -0.443510 0.095794 -0.214887
    32 0.039889 -1.479791 0.029853 -1.914717 0.000000 0.000001
    33 0.028786 -1.075733 -0.023111 -0.828475 0.000000 0.000000
    34 -1.180679 -2.507216 -0.193861 -0.768375 0.329208 -0.390333
    35 -0.024966 -1.123935 0.017594 -1.475698 0.003595 -0.034694
    36 -0.020058 -0.890966 0.010091 -1.309964 0.000000 0.000000
    37 -0.008758 -0.054173 -0.074020 3.322801 0.166896 -1.503117
  time 30
    0 -0.820487 -3.596575 -8.794795 0.835613 -2.966519 0.704184
    1 0.096946 -8.450418 -0.009363 -0.290513 0.083896 0.170657
    2 1.904301 -1.336502 0.930052 1.570797 0.045840 -1.089669
    3 -0.003538 -0.087752 -4.566493 0.000000 -1.570796 0.000000
    4 -0.587378 -1.261647 0.201457 -0.307666 -0.727626 -2.714556
    5 1.522835 0.058680 0.016851 0.401983 -0.443039 0.925879
    6 1.117948 0.048425 -0.005765 0.042111 -0.112230 0.802513
    7 -0.963867 -2.785143 -0.085346 -0.129355 0.058777 -0.023340
    8 0.028478 -1.403069 0.006271 -1.367933 0.000000 0.000000
    9 0.021414 -0.957782 0.020047 -0.935362 0.000000 0.000000
    10 -0.249534 -2.846964 -0.174215 -0.343392 -0.011618 0.031824
    11 0.043234 -1.683941 0.096014 -1.678539 0.000007 -0.000011
    12 0.031729 -1.160830 0.058836 -0.906571 0.000007 0.000007
    13 0.447951 -2.798983 -0.200442 -0.925586 0.020320 -0.016353
    14 -0.032910 -1.480207 0.004936 -1.660155 0.000000 0.000002
    15 -0.027022 -1.076920 -0.020212 -0.882353 0.000000 0.000000
    16 1.164474 -2.543939 -0.170327 -0.679554 -0.027795 -0.008897
    17 0.024033 -1.129040 0.017806 -1.380805 0.000000 0.000000
    18 0.014896 -0.883991 -0.019845 -0.933227 0.000000 0.000000
    19 -0.069084 -0.115607 0.096431 0.139572 -0.000964 1.495773
    20 10.523944 -7.185039 -7.251658 0.298779 2.486335 -0.987423
    21 -0.071919 -8.498734 -0.104136 -0.492973 0.378926 -0.376136
    22 0.583509 -1.197273 0.185379 -0.129200 -0.404999 -0.633032
    23 1.535925 0.010247 0.005009 -0.277099 -0.023418 -0.693483
    24 1.100770 0.004527 -0.010675 -0.365501 0.046210 -0.073348
    25 0.957766 -2.746777 -0.090301 0.048322 0.016809 0.140576
    26 -0.033419 -1.397129 -0.011256 -0.727262 0.000000 -0.000001
    27 -0.022362 -0.957434 0.018782 -0.658906 0.000000 0.000000
    28 0.250028 -2.820664 -0.238397 -0.233920 0.044370 -0.032821
    29 -0.049759 -1.680546 0.100479 -1.364674 0.049496 -0.014372
    30 -0.034141 -1.148309 0.084778 -0.887089 0.000000 0.000000
    31 -0.488517 -2.755600 -0.228262 -0.439514 0.096130 -0.215246
    32 0.039889 -1.479791 0.029853 -1.913909 0.000000 0.000001
    33 0.028786 -1.075733 -0.023111 -0.825661 0.000000 0.000000
    34 -1.180679 -2.507216 -0.193861 -0.768375 0.328812 -0.389913
    35 -0.024966 -1.123935 0.017594 -1.473559 0.003595 -0.034694
    36 -0.020058 -0.890966 0.010091 -1.307328 0.000000 0.000000
    37 0.006867 -0.054173 -0.066207 3.333249 0.178470 -1.514200
  time 31
    0 -0.746266 -3.635639 -8.802607 0.831020 -2.940178 0.702119
    1 0.096946 -8.450418 -0.009363 -0.308567 0.080419 0.198564
    2 1.904301 -1.336502 0.930052 1.570797 0.045840 -1.089669
    3 -0.003538 -0.087752 -4.566493 0.000000 -1.570796 0.000000
    4 -0.587378 -1.261647 0.201457 -0.307666 -0.727626 -2.714556
    5 1.522835 0.058680 0.016851 0.401983 -0.443039 0.925879
    6 1.117948 0.048425 -0.005765 0.037604 -0.117024 0.858374
    7 -0.963867 -2.785143 -0.085346 -0.200759 0.059221 -0.018642
    8 0.028478 -1.403069 0.006271 -1.374751 0.000000 0.000000
    9 0.021414 -0.957782 0.020047 -0.935362 0.000000 0.000000
    10 -0.249534 -2.846964 -0.174215 -0.276936 -0.003037 0.066711
    11 0.043234 -1.683941 0.096014 -1.711586 0.000007 -0.000011
    12 0.031729 -1.160830 0.058836 -0.906571 0.000007 0.000007
    13 0.447951 -2.798983 -0.200442 -0.925586 0.020320 -0.016353
    14 -0.032910 -1.480207 0.004936 -1.660155 0.000000 0.000002
    15 -0.027022 -1.076920 -0.020212 -0.882353 0.000000 0.000000
    16 1.164474 -2.543939 -0.170327 -0.679554 -0.027795 -0.008897
    17 0.024033 -1.129040 0.017806 -1.380805 0.000000 0.000000
    18 0.014896 -0.883991 -0.019845 -0.933227 0.000000 0.000000
    19 -0.065178 -0.115607 0.100337 0.143660 0.000103 1.494563
    20 10.656760 -7.263166 -7.247752 0.310252 2.483184 -0.982054
    21 -0.071919 -8.498734 -0.104136 -0.466209 0.361860 -0.352477
    22 0.583509 -1.197273 0.185379 -0.129660 -0.403346 -0.634123
    23 1.535925 0.010247 0.005009 -0.277391 -0.021692 -0.690164
    24 1.100770 0.004527 -0.010675 -0.365546 0.047049 -0.071174
    25 0.957766 -2.746777 -0.090301 0.055331 0.016809 0.140576
    26 -0.033419 -1.397129 -0.011256 -0.723147 0.000000 -0.000001
    27 -0.022362 -0.957434 0.018782 -0.654419 0.000000 0.000000
    28 0.250028 -2.820664 -0.238397 -0.229079 0.044370 -0.032821
    29 -0.049759 -1.680546 0.100479 -1.362214 0.049496 -0.014372
    30 -0.034141 -1.148309 0.084778 -0.884830 0.000000 0.000000
    31 -0.488517 -2.755600 -0.228262 -0.436056 0.096417 -0.215558
    32 0.039889 -1.479791 0.029853 -1.913168 0.000000 0.000001
    33 0.028786 -1.075733 -0.023111 -0.823284 0.000000 0.000000
    34 -1.180679 -2.507216 -0.193861 -0.768327 0.328393 -0.389482
    35 -0.024966 -1.123935 0.017594 -1.471658 0.003595 -0.034694
    36 -0.020058 -0.890966 0.010091 -1.304999 0.000000 0.000000
    37 0.026399 -0.054173 -0.058394 3.347818 0.187939 -1.523945
  time 32
    0 -0.683764 -3.694235 -8.771356 0.820686 -2.913933 0.713160
    1 0.096946 -8.450418 -0.009363 -0.314567 0.047745 0.232469
    2 1.904301 -1.336502 0.930052 1.570797 0.045840 -1.089669
    3 -0.003538 -0.087752 -4.566493 0.000000 -1.570796 0.000000
    4 -0.587378 -1.261647 0.201457 -0.307666 -0.727626 -2.714556
    5 1.522835 0.058680 0.016851 0.401983 -0.443039 0.925879
    6 1.117948 0.048425 -0.005765 0.037604 -0.117024 0.858374
    7 -0.963867 -2.785143 -0.085346 -0.200759 0.059221 -0.018642
    8 0.028478 -1.403069 0.006271 -1.374751 0.000000 0.000000
    9 0.021414 -0.957782 0.020047 -0.935362 0.000000 0.000000
    10 -0.249534 -2.846964 -0.174215 -0.241157 0.001565 0.085491
    11 0.043234 -1.683941 0.096014 -1.711586 0.000007 -0.000011
    12 0.031729 -1.160830 0.058836 -0.906571 0.000007 0.000007
    13 0.447951 -2.798983 -0.200442 -0.954234 0.020320 -0.016353
    14 -0.032910 -1.480207 0.004936 -1.652074 0.000000 0.000002
    15 -0.027022 -1.076920 -0.020212 -0.882353 0.000000 0.000000
    16 1.164474 -2.543939 -0.170327 -0.706819 -0.027795 -0.008897
    17 0.024033 -1.129040 0.017806 -1.360635 0.000000 0.000000
    18 0.014896 -0.883991 -0.019845 -0.933227 0.000000 0.000000
    19 -0.065178 -0.115607 0.104243 0.147173 0.001002 1.493580
    20 10.828641 -7.337387 -7.259471 0.326601 2.503522 -0.971700
    21 -0.071919 -8.498734 -0.104136 -0.433447 0.344050 -0.327851
    22 0.583509 -1.197273 0.185379 -0.130052 -0.401946 -0.635034
    23 1.535925 0.010247 0.005009 -0.277628 -0.020254 -0.687412
    24 1.100770 0.004527 -0.010675 -0.365576 0.047756 -0.069334
    25 0.957766 -2.746777 -0.090301 0.061167 0.016809 0.140576
    26 -0.033419 -1.397129 -0.011256 -0.719741 0.000000 -0.000001
    27 -0.022362 -0.957434 0.018782 -0.650633 0.000000 0.000000
    28 0.250028 -2.820664 -0.238397 -0.225045 0.044370 -0.032821
    29 -0.049759 -1.680546 0.100479 -1.360115 0.049496 -0.014372
    30 -0.034141 -1.148309 0.084778 -0.882915 0.000000 0.000000
    31 -0.488517 -2.755600 -0.228262 -0.433175 0.096657 -0.215822
    32 0.039889 -1.479791 0.029853 -1.912562 0.000000 0.000001
    33 0.028786 -1.075733 -0.023111 -0.821295 0.000000 0.000000
    34 -1.180679 -2.507216 -0.193861 -0.768279 0.327985 -0.389074
    35 -0.024966 -1.123935 0.017594 -1.470113 0.003595 -0.034694
    36 -0.020058 -0.890966 0.010091 -1.303038 0.000000 0.000000
    37 0.049837 -0.054173 -0.050582 3.364496 0.195305 -1.532353
  time 33
    0 -0.640794 -3.752830 -8.716667 0.807578 -2.889987 0.731609
    1 0.096946 -8.450418 -0.009363 -0.312433 -0.000881 0.267414
    2 1.904301 -1.336502 0.930052 1.570797 0.045840 -1.089669
    3 -0.003538 -0.087752 -4.566493 0.000000 -1.570796 0.000000
    4 -0.587378 -1.261647 0.201457 -0.307666 -0.727626 -2.714556
    5 1.522835 0.058680 0.016851 0.401983 -0.443039 0.925879
    6 1.117948 0.048425 -0.005765 0.037604 -0.117024 0.858374
    7 -0.963867 -2.785143 -0.085346 -0.200759 0.059221 -0.018642
    8 0.028478 -1.403069 0.006271 -1.374751 0.000000 0.000000
    9 0.021414 -0.957782 0.020047 -0.935362 0.000000 0.000000
    10 -0.249534 -2.846964 -0.174215 -0.272317 -0.001204 0.074166
    11 0.043234 -1.683941 0.096014 -1.711586 0.000007 -0.000011
    12 0.031729 -1.160830 0.058836 -0.906571 0.000007 0.000007
    13 0.447951 -2.798983 -0.200442 -1.022542 0.020320 -0.016353
    14 -0.032910 -1.480207 0.004936 -1.632778 0.000000 0.000002
    15 -0.027022 -1.076920 -0.020212 -0.882353 0.000000 0.000000
    16 1.164474 -2.543939 -0.170327 -0.771793 -0.027795 -0.008897
    17 0.024033 -1.129040 0.017806 -1.312602 0.000000 0.000000
    18 0.014896 -0.883991 -0.019845 -0.933227 0.000000 0.000000
    19 -0.065178 -0.115607 0.108150 0.150023 0.001721 1.492825
    20 11.004427 -7.407702 -7.279003 0.344766 2.536941 -0.958949
    21 -0.071919 -8.498734 -0.104136 -0.399557 0.327212 -0.304601
    22 0.583509 -1.197273 0.185379 -0.130363 -0.400840 -0.635765
    23 1.535925 0.010247 0.005009 -0.277810 -0.019103 -0.685186
    24 1.100770 0.004527 -0.010675 -0.365605 0.048319 -0.067862
    25 0.957766 -2.746777 -0.090301 0.065792 0.016809 0.140576
    26 -0.033419 -1.397129 -0.011256 -0.716997 0.000000 -0.000001
    27 -0.022362 -0.957434 0.018782 -0.647642 0.000000 0.000000
    28 0.250028 -2.820664 -0.238397 -0.221817 0.044370 -0.032821
    29 -0.049759 -1.680546 0.100479 -1.358495 0.049496 -0.014372
    30 -0.034141 -1.148309 0.084778 -0.881442 0.000000 0.000000
    31 -0.488517 -2.755600 -0.228262 -0.430870 0.096849 -0.216025
    32 0.039889 -1.479791 0.029853 -1.912023 0.000000 0.000001
    33 0.028786 -1.075733 -0.023111 -0.819695 0.000000 0.000000
    34 -1.180679 -2.507216 -0.193861 -0.768279 0.327626 -0.388703
    35 -0.024966 -1.123935 0.017594 -1.468866 0.003595 -0.034694
    36 -0.020058 -0.890966 0.010091 -1.301505 0.000000 0.000000
    37 0.073276 -0.054173 -0.042769 3.380983 0.200948 -1.539137
  time 34
    0 -0.609543 -3.807519 -8.658072 0.794566 -2.870351 0.751838
    1 0.096946 -8.450418 -0.009363 -0.306062 -0.052097 0.298486
    2 1.904301 -1.336502 0.930052 1.570797 0.045840 -1.089669
    3 -0.003538 -0.087752 -4.566493 0.000000 -1.570796 0.000000
    4 -0.587378 -1.261647 0.201457 -0.307666 -0.727626 -2.714556
    5 1.522835 0.058680 0.016851 0.401983 -0.443039 0.925879
    6 1.117948 0.048425 -0.005765 0.037604 -0.117024 0.858374
    7 -0.963867 -2.785143 -0.085346 -0.200759 0.059221 -0.018642
    8 0.028478 -1.403069 0.006271 -1.374751 0.000000 0.000000
    9 0.021414 -0.957782 0.020047 -0.935362 0.000000 0.000000
    10 -0.249534 -2.846964 -0.174215 -0.340887 -0.007328 0.049262
    11 0.043234 -1.683941 0.096014 -1.711586 0.000007 -0.000011
    12 0.031729 -1.160830 0.058836 -0.906571 0.000007 0.000007
    13 0.447951 -2.798983 -0.200442 -1.104017 0.020320 -0.016353
    14 -0.032910 -1.480207 0.004936 -1.609711 0.000000 0.000002
    15 -0.027022 -1.076920 -0.020212 -0.882353 0.000000 0.000000
    16 1.164474 -2.543939 -0.170327 -0.849337 -0.027795 -0.008897
    17 0.024033 -1.129040 0.017806 -1.255253 0.000000 0.000000
    18 0.014896 -0.883991 -0.019845 -0.933227 0.000000 0.000000
    19 -0.061272 -0.115607 0.108150 0.152154 0.002248 1.492298
    20 11.160682 -7.466297 -7.298535 0.361592 2.573415 -0.946581
    21 -0.071919 -8.498734 -0.104136 -0.369335 0.313058 -0.285072
    22 0.583509 -1.197273 0.185379 -0.130593 -0.400027 -0.636292
    23 1.535925 0.010247 0.005009 -0.277956 -0.018264 -0.683567
    24 1.100770 0.004527 -0.010675 -0.365620 0.048727 -0.066791
    25 0.957766 -2.746777 -0.090301 0.069173 0.016809 0.140576
    26 -0.033419 -1.397129 -0.011256 -0.715010 0.000000 -0.000001
    27 -0.022362 -0.957434 0.018782 -0.645446 0.000000 0.000000
    28 0.250028 -2.820664 -0.238397 -0.219502 0.044370 -0.032821
    29 -0.049759 -1.680546 0.100479 -1.357296 0.049496 -0.014372
    30 -0.034141 -1.148309 0.084778 -0.880312 0.000000 0.000000
    31 -0.488517 -2.755600 -0.228262 -0.429179 0.096981 -0.216181
    32 0.039889 -1.479791 0.029853 -1.911687 0.000000 0.000001
    33 0.028786 -1.075733 -0.023111 -0.818530 0.000000 0.000000
    34 -1.180679 -2.507216 -0.193861 -0.768279 0.327326 -0.388403
    35 -0.024966 -1.123935 0.017594 -1.467975 0.003595 -0.034694
    36 -0.020058 -0.890966 0.010091 -1.300402 0.000000 0.000000
    37 0.092807 -0.054173 -0.031050 3.395456 0.204679 -1.544201
  time 35
    0 -0.590011 -3.850489 -8.607289 0.784615 -2.857037 0.768079
    1 0.096946 -8.450418 -0.009363 -0.299372 -0.092588 0.320728
    2 1.904301 -1.336502 0.930052 1.570797 0.045840 -1.089669
    3 -0.003538 -0.087752 -4.566493 0.000000 -1.570796 0.000000
    4 -0.587378 -1.261647 0.201457 -0.307666 -0.727626 -2.714556
    5 1.522835 0.058680 0.016851 0.401983 -0.443039 0.925879
    6 1.117948 0.048425 -0.005765 0.037604 -0.117024 0.858374
    7 -0.963867 -2.785143 -0.085346 -0.200759 0.059221 -0.018642
    8 0.028478 -1.403069 0.006271 -1.374751 0.000000 0.000000
    9 0.021414 -0.957782 0.020047 -0.935362 0.000000 0.000000
    10 -0.249534 -2.846964 -0.174215 -0.409435 -0.013452 0.024370
    11 0.043234 -1.683941 0.096014 -1.711586 0.000007 -0.000011
    12 0.031729 -1.160830 0.058836 -0.906571 0.000007 0.000007
    13 0.447951 -2.798983 -0.200442 -1.172325 0.020320 -0.016353
    14 -0.032910 -1.480207 0.004936 -1.590415 0.000000 0.000002
    15 -0.027022 -1.076920 -0.020212 -0.882353 0.000000 0.000000
    16 1.164474 -2.543939 -0.170327 -0.914312 -0.027795 -0.008897
    17 0.024033 -1.129040 0.017806 -1.207220 0.000000 0.000000
    18 0.014896 -0.883991 -0.019845 -0.933227 0.000000 0.000000
    19 -0.061272 -0.115607 0.108150 0.153479 0.002571 1.491974
    20 11.273967 -7.501454 -7.314160 0.374021 2.602824 -0.937089
    21 -0.071919 -8.498734 -0.104136 -0.347675 0.303303 -0.271651
    22 0.583509 -1.197273 0.185379 -0.130728 -0.399533 -0.636616
    23 1.535925 0.010247 0.005009 -0.278029 -0.017749 -0.682595
    24 1.100770 0.004527 -0.010675 -0.365635 0.048979 -0.066156
    25 0.957766 -2.746777 -0.090301 0.071272 0.016809 0.140576
    26 -0.033419 -1.397129 -0.011256 -0.713827 0.000000 -0.000001
    27 -0.022362 -0.957434 0.018782 -0.644137 0.000000 0.000000
    28 0.250028 -2.820664 -0.238397 -0.218063 0.044370 -0.032821
    29 -0.049759 -1.680546 0.100479 -1.356576 0.049496 -0.014372
    30 -0.034141 -1.148309 0.084778 -0.879625 0.000000 0.000000
    31 -0.488517 -2.755600 -0.228262 -0.428180 0.097076 -0.216265
    32 0.039889 -1.479791 0.029853 -1.911485 0.000000 0.000001
    33 0.028786 -1.075733 -0.023111 -0.817803 0.000000 0.000000
    34 -1.180679 -2.507216 -0.193861 -0.768279 0.327134 -0.388199
    35 -0.024966 -1.123935 0.017594 -1.467440 0.003595 -0.034694
    36 -0.020058 -0.890966 0.010091 -1.299728 0.000000 0.000000
    37 0.108433 -0.054173 -0.027143 3.405616 0.206974 -1.547354
  time 36
    0 -0.586105 -3.866115 -8.587757 0.780692 -2.852152 0.774775
    1 0.096946 -8.450418 -0.009363 -0.296279 -0.109039 0.329226
    2 1.904301 -1.336502 0.930052 1.570797 0.045840 -1.089669
    3 -0.003538 -0.087752 -4.566493 0.000000 -1.570796 0.000000
    4 -0.587378 -1.261647 0.201457 -0.307666 -0.727626 -2.714556
    5 1.522835 0.058680 0.016851 0.401983 -0.443039 0.925879
    6 1.117948 0.048425 -0.005765 0.037604 -0.117024 0.858374
    7 -0.963867 -2.785143 -0.085346 -0.200759 0.059221 -0.018642
    8 0.028478 -1.403069 0.006271 -1.374751 0.000000 0.000000
    9 0.021414 -0.957782 0.020047 -0.935362 0.000000 0.000000
    10 -0.249534 -2.846964 -0.174215 -0.440595 -0.016232 0.013044
    11 0.043234 -1.683941 0.096014 -1.711586 0.000007 -0.000011
    12 0.031729 -1.160830 0.058836 -0.906571 0.000007 0.000007
    13 0.447951 -2.798983 -0.200442 -1.200973 0.020320 -0.016353
    14 -0.032910 -1.480207 0.004936 -1.582334 0.000000 0.000002
    15 -0.027022 -1.076920 -0.020212 -0.882353 0.000000 0.000000
    16 1.164474 -2.543939 -0.170327 -0.941577 -0.027795 -0.008897
    17 0.024033 -1.129040 0.017806 -1.187092 0.000000 0.000000
    18 0.014896 -0.883991 -0.019845 -0.933227 0.000000 0.000000
    19 -0.061272 -0.115607 0.108150 0.153939 0.002679 1.491866
    20 11.316937 -7.517080 -7.321973 0.378801 2.614855 -0.933350
    21 -0.071919 -8.498734 -0.104136 -0.339373 0.299671 -0.266640
    22 0.583509 -1.197273 0.185379 -0.130782 -0.399360 -0.636724
    23 1.535925 0.010247 0.005009 -0.278065 -0.017581 -0.682271
    24 1.100770 0.004527 -0.010675 -0.365635 0.049062 -0.065922
    25 0.957766 -2.746777 -0.090301 0.071948 0.016809 0.140576
    26 -0.033419 -1.397129 -0.011256 -0.713402 0.000000 -0.000001
    27 -0.022362 -0.957434 0.018782 -0.643670 0.000000 0.000000
    28 0.250028 -2.820664 -0.238397 -0.217572 0.044370 -0.032821
    29 -0.049759 -1.680546 0.100479 -1.356336 0.049496 -0.014372
    30 -0.034141 -1.148309 0.084778 -0.879428 0.000000 0.000000
    31 -0.488517 -2.755600 -0.228262 -0.427835 0.097100 -0.216301
    32 0.039889 -1.479791 0.029853 -1.911417 0.000000 0.000001
    33 0.028786 -1.075733 -0.023111 -0.817560 0.000000 0.000000
    34 -1.180679 -2.507216 -0.193861 -0.768231 0.327063 -0.388127
    35 -0.024966 -1.123935 0.017594 -1.467202 0.003595 -0.034694
    36 -0.020058 -0.890966 0.010091 -1.299482 0.000000 0.000000
    37 0.112339 -0.054173 -0.023237 3.409450 0.207644 -1.548500
end
