// Created by Crowbar 0.49.0.0

$modelname "weapons/tfa_cso/c_vulcanus7.mdl"

$Include "csonline_gmod.qci"

$bodygroup "weapon"
{
	studio "v_vulcanus7_2"
}
$bodygroup "weapon"
{
	studio "v_vulcanus7_1"
}

$CDMaterials "models\weapons\tfa_cso\vulcanus7"

$attachment 0 "Bone02" 21 0 0
//$attachment 1 "Bone02" 4 0 0
//$attachment 2 "Bone34" 0 -2.3 0

$definebone "root" "" 0.001265 -0.569176 -20.601572 0.000000 0.000000 0.000000 0.000000 0.000000 0.000000 -0.000000 0.000000 0.000000
$definebone "Bone01" "root" 9.310103 -5.299614 -12.557959 -0.012834 -89.771431 179.846260 0.000000 -0.000001 -0.000004 0.000000 0.000000 -0.000000
$definebone "Bone_Lefthand" "Bone01" -0.071921 -8.498736 -0.104137 16.477753 0.853593 -1.435030 0.000000 0.000000 0.000000 0.000002 0.000000 -0.000000
$definebone "Bone02" "Bone_Lefthand" 3.945318 -3.690050 0.632809 7.144669 -88.567071 5.072448 -0.000002 0.000000 0.000004 -0.000000 0.000001 -0.000003
$definebone "Bone16" "Bone02" 1.718491 -2.255565 0.000004 -0.000003 -89.999983 0.000001 -0.000000 0.000000 0.000000 -0.000003 -0.000000 0.000001
$definebone "Bone24" "Bone02" -1.331207 2.803159 0.000000 0.000003 89.999983 0.000000 0.000000 0.000000 0.000000 0.000003 -0.000001 0.000000
$definebone "Bone26" "Bone24" -0.237309 -6.993263 0.000000 -0.000000 -89.999983 -0.000003 0.000000 0.000000 0.000000 -0.000000 0.000001 -0.000003
$definebone "Dummy01" "Bone02" 4.320963 -3.392301 0.468266 -0.000003 -89.999983 0.000001 -0.000000 -0.000002 0.000004 -0.000003 -0.000000 0.000001
$definebone "Bone08" "Dummy01" -0.000000 -0.000002 0.000004 -0.000003 -0.000000 0.000001 -0.000000 -0.000002 0.000004 -0.000003 -0.000000 0.000001
$definebone "Dummy02" "Bone08" -2.091460 -0.095816 1.223820 0.842516 180.000007 90.000017 0.000000 0.000004 0.000000 -0.000000 -0.000003 0.000000
$definebone "Bone48" "Dummy02" 0.000000 0.000004 0.000000 -0.000000 -0.000003 0.000000 0.000000 0.000004 0.000000 -0.000000 -0.000003 0.000000
$definebone "Bone49" "Bone48" 0.356371 0.000023 0.000000 -0.000000 -8.622503 0.000000 0.000000 0.000000 0.000000 -0.000000 -0.000006 0.000000
$definebone "Bone50" "Bone49" 0.350664 0.000000 -0.000002 -0.000001 -9.481656 0.000000 0.000000 0.000000 0.000000 -0.000001 -0.000009 0.000000
$definebone "Bone51" "Bone50" 0.371222 0.000000 0.000000 -0.000000 -27.154826 0.000000 0.000000 0.000002 0.000000 -0.000000 -0.000007 0.000000
$definebone "Bone52" "Bone51" 0.385448 -0.000002 0.000004 -0.000000 -8.191471 0.000000 0.000000 0.000000 0.000000 -0.000000 -0.000006 0.000000
$definebone "Bone53" "Bone52" 0.413033 0.000000 0.000002 -0.000000 -30.374842 0.000001 0.000004 0.000000 0.000000 -0.000000 0.000001 0.000001
$definebone "Bone54" "Bone53" 0.394745 -0.000002 -0.000002 0.000000 -5.910801 0.000001 0.000000 0.000000 0.000000 0.000000 0.000003 0.000001
$definebone "Bone55" "Bone54" 0.518833 0.000000 0.000000 0.000000 0.000003 0.000001 0.000000 0.000000 -0.000002 0.000000 0.000003 0.000001
$definebone "Bone42" "Bone02" 0.733929 1.535494 2.165283 0.000003 89.999983 0.000000 0.000000 -0.000002 0.000000 0.000003 -0.000001 0.000000
$definebone "Bone34" "Bone42" 0.000000 -3.578184 0.000000 0.000003 -0.000001 0.000000 -0.000000 0.000000 0.000000 0.000003 -0.000001 0.000000
$definebone "Bone46" "Bone34" -22.006496 63.169128 5.789410 44.999995 -0.000001 89.999983 0.000000 0.000000 0.000000 -0.000001 -0.000007 0.000000
$definebone "Bone20" "Bone34" -23.985678 63.169132 5.795666 45.000002 -179.999966 -89.999983 0.000000 0.000000 0.000000 0.000001 0.000006 0.000001
$definebone "Bone03" "Bone34" -23.985676 63.169132 7.788696 -45.000022 180.000007 -90.000017 -0.000004 0.000000 0.000000 -0.000000 -0.000003 -0.000001
$definebone "Bone30" "Bone34" -22.013643 63.169128 7.775291 -44.999995 -0.000001 89.999983 0.000000 0.000000 -0.000004 -0.000000 0.000007 -0.000001
$definebone "Bone12" "Bone02" 2.078039 -0.434697 4.809841 -89.999983 -89.999983 0.000000 0.000000 0.000000 -0.000000 0.000003 0.000000 0.000000

$sequence "idleA" {
	"v_vulcanus7_anims\idleA"
	fps 30
	loop
	activity "ACT_VM_IDLE" 1
	snap
}
$sequence "idleB" {
	"v_vulcanus7_anims\idleB"
	fps 30
	loop
	activity "ACT_VM_IDLE_SILENCED" 1
	snap
}
$sequence "idleA_empty" {
	"v_vulcanus7_anims\idleA_empty"
	fps 30
	loop
}
$sequence "idleB_empty" {
	"v_vulcanus7_anims\idleB_empty"
	fps 30
	loop
}
$sequence "change" {
	"v_vulcanus7_anims\change"
	{ event 5004 2 "Vulcanus7.Change" }
	fps 30
	activity "ACT_VM_ATTACH_SILENCER" 1
	snap
}
$sequence "change_empty" {
	"v_vulcanus7_anims\change_empty"
	{ event 5004 2 "Vulcanus7.Change" }
	fps 30
}
$sequence "shootA1" {
	"v_vulcanus7_anims\shootA1"
	{ event 5001 0 "#I2 S0.18 R2 F0 P30 T0.01 A1 L0 O0" }
	activity "ACT_VM_PRIMARYATTACK" 1
	fps 30
	snap
}
$sequence "shootB1" {
	"v_vulcanus7_anims\shootB1"
	{ event 5001 0 "#I2 S0.18 R2 F0 P30 T0.01 A1 L0 O0" }
	fps 30
	activity "ACT_VM_PRIMARYATTACK_SILENCED" 1
	snap
}
$sequence "shootB2" {
	"v_vulcanus7_anims\shootB2"
	{ event 5001 0 "#I2 S0.18 R2 F0 P30 T0.01 A1 L0 O0" }
	fps 30
	activity "ACT_VM_SECONDARYATTACK" 1
	snap
}
$sequence "shootC1" {
	"v_vulcanus7_anims\shootC1"
	fps 30
	activity "ACT_VM_DETACH_SILENCER" 1
	snap
}
$sequence "shootC1_change" {
	"v_vulcanus7_anims\shootC1_change"
	{ event 5004 59 "Vulcanus7.Change" }
	fps 30
}
$sequence "shootC1_change_empty" {
	"v_vulcanus7_anims\shootC1_change_empty"
	fps 30
}
$sequence "reloadA" {
	"v_vulcanus7_anims\reloadA"
	{ event 5004 16 "Vulcanus7.ClipOut" }
	{ event 5004 49 "Vulcanus7.ClipIn" }
	{ event 5004 103 "Vulcanus7.ClipOn" }
	fps 30
	activity "ACT_VM_RELOAD" 1
	snap
}
$sequence "reloadB" {
	"v_vulcanus7_anims\reloadB"
	{ event 5004 16 "Vulcanus7.ClipOut" }
	{ event 5004 49 "Vulcanus7.ClipIn" }
	{ event 5004 103 "Vulcanus7.ClipOn" }
	fps 30
	activity "ACT_VM_RELOAD_SILENCED" 1
	snap
}
$sequence "drawA" {
	"v_vulcanus7_anims\drawA"
	fps 30
	activity "ACT_VM_DRAW" 1
	snap
}
$sequence "drawB" {
	"v_vulcanus7_anims\drawB"
	fps 30
	activity "ACT_VM_DRAW_SILENCED" 1
	snap
}
$sequence "drawA_empty" {
	"v_vulcanus7_anims\drawA_empty"
	fps 30
}
$sequence "drawB_empty" {
	"v_vulcanus7_anims\drawB_empty"
	fps 30
}
