// Created by Crowbar 0.34.0.0

$ModelName "weapons/tfa_cso/w_dualuzi_v6_r.mdl"

$BodyGroup "studio"
{
	studio "v_dualuzi_r"
}

$collisionmodel "v_dualuzi_r.smd"
{
	$mass 9
}

$CDMaterials "models\weapons\tfa_cso\dualuzi_v6"

$attachment "0" "root" -0.00 -7.30 -0.00 rotate -0 0 0
$attachment "1" "root" 20.10 0.40 4.00 rotate -0 0 0
$attachment "2" "root" 20.10 0.40 4.00 rotate -0 0 0
$attachment "3" "root" 20.10 0.40 4.00 rotate -0 0 0
$attachment "4" "root" 20.10 0.40 4.00 rotate -0 0 0
$attachment "5" "root" 20.10 0.40 4.00 rotate -0 0 0

$Sequence "idle" {
	"anims\idle.smd"
	fps 30
}