version 1
nodes
  0 "gunkata_root" -1
  1 "gunkata_knife" 0
  2 "kata_triger" 0
  3 "kata_2" 0
  4 "slide" 0
  5 "gunkata_megazine" 0
  6 "gunkata_root001" -1
  7 "gunkata_knife001" 6
  8 "kata_triger001" 6
  9 "kata_005" 6
  10 "slide001" 6
  11 "gunkata_megazine001" 6
  12 "trail01" -1
  13 "trail02" 12
  14 "root" -1
  15 "Bone01" 14
  16 "Bone_L_Upper" 15
  17 "Bone_Lefthand" 15
  18 "Bone13" 17
  19 "Bone14" 18
  20 "Bone15" 19
  21 "Bone17" 17
  22 "Bone18" 21
  23 "Bone19" 22
  24 "Bone21" 17
  25 "Bone22" 24
  26 "Bone23" 25
  27 "Bone09" 17
  28 "Bone10" 27
  29 "Bone11" 28
  30 "Bone05" 17
  31 "Bone06" 30
  32 "Bone07" 31
  33 "Bone_Se_Hand-L" 17
  34 "Bone04" 14
  35 "Bone_Righthand" 34
  36 "Bone39" 35
  37 "Bone40" 36
  38 "Bone41" 37
  39 "Bone35" 35
  40 "Bone36" 39
  41 "Bone37" 40
  42 "Bone31" 35
  43 "Bone32" 42
  44 "Bone33" 43
  45 "Bone43" 35
  46 "Bone44" 45
  47 "Bone45" 46
  48 "Bone27" 35
  49 "Bone28" 48
  50 "Bone29" 49
  51 "Bone_Se_Hand-R" 35
  52 "Bone_R_Upper" 34
end
skeleton
  time 0
    0 6.648640 -13.484787 -5.418134 -1.013620 -1.481852 -3.764244
    1 -3.157606 0.000000 -1.771385 0.000000 0.000000 0.000000
    2 1.347458 0.000000 -0.036606 0.000001 -3.141592 0.000000
    3 2.980681 -0.000001 -3.026972 0.000000 0.000000 0.000000
    4 3.096915 -0.000001 -3.559005 -3.141592 -1.570451 0.000000
    5 -2.772562 0.000000 -3.715392 0.000000 -0.478942 0.000000
    6 4.074343 -13.356182 -9.308878 1.876263 0.229719 0.820681
    7 -3.157606 0.000001 -1.771385 0.000000 0.000000 0.000000
    8 1.347458 0.000000 -0.036606 0.000001 -3.141592 0.000000
    9 2.980681 -0.000001 -3.026972 0.000000 0.000000 0.000000
    10 3.096915 -0.000002 -3.559005 -3.141592 -1.570451 0.000000
    11 -2.772562 -0.000001 -3.715392 0.000000 -0.478942 0.000000
    12 52.310982 27.697800 8.327048 0.986223 -1.014512 -2.903868
    13 0.000002 40.432781 -0.000015 0.000000 0.000000 0.000000
    14 1.403540 2.483186 -4.890155 0.000000 0.000000 0.171145
    15 6.634241 -3.721441 -1.991230 0.047516 -2.342516 -0.250849
    16 5.362774 7.450045 -0.239653 1.565606 -3.134469 1.048813
    17 -0.001606 -8.475298 -0.072883 -0.027748 0.637962 0.164046
    18 -0.488518 -2.755602 -0.228260 -0.741569 0.047688 -0.381112
    19 0.039887 -1.534479 0.014229 -1.576912 -0.011122 0.035284
    20 0.028786 -1.185109 -0.132487 -1.218645 -0.015041 0.026822
    21 0.250027 -2.820665 -0.238396 -0.290347 -0.034584 -0.286546
    22 -0.049759 -1.598510 0.034071 -1.543204 0.000539 -0.041457
    23 -0.034142 -1.171750 0.045718 -1.169340 0.006568 -0.030800
    24 0.957766 -2.746780 -0.090302 0.050684 -0.147200 0.082289
    25 -0.033420 -1.397129 -0.015163 -0.329486 0.006939 -0.015809
    26 -0.022360 -0.957436 0.003159 -0.558428 0.008018 -0.026857
    27 -1.180681 -2.507217 -0.193859 -0.806133 0.251644 -0.384136
    28 -0.024967 -1.127840 0.017597 -1.079262 0.002409 -0.046128
    29 -0.020057 -0.906594 0.029622 -1.001921 0.005369 -0.041023
    30 0.606948 -1.197277 0.185379 0.389364 -0.893516 -0.592401
    31 1.481238 -0.216323 0.067511 0.047551 -0.212834 -0.759113
    32 0.995299 -0.190791 0.047917 0.101937 -0.253896 -1.103464
    33 0.120153 -0.050270 -0.054489 0.287569 3.110905 1.561085
    34 -9.118695 -6.688336 -0.809902 -0.118635 -2.955509 0.825361
    35 0.108663 -8.391823 -0.056241 -0.272300 -0.126786 0.155895
    36 0.447953 -2.798986 -0.200443 -0.735873 0.010098 0.254020
    37 -0.032909 -1.499736 0.028378 -1.435653 0.023358 -0.027754
    38 -0.027022 -1.135516 -0.020210 -1.403578 0.024892 -0.027133
    39 -0.249534 -2.846964 -0.174213 -0.314880 0.133839 0.144563
    40 0.043235 -1.656596 0.068667 -1.454198 -0.022453 0.008066
    41 0.031729 -1.137392 0.051025 -1.500061 -0.016580 0.008779
    42 -0.963866 -2.785145 -0.085350 0.178507 0.162851 -0.182687
    43 0.028479 -1.403067 -0.017167 -0.866992 -0.021392 -0.032095
    44 0.021413 -0.961687 0.020046 0.204098 0.000551 0.009024
    45 1.164475 -2.543940 -0.170330 -0.641109 -0.235285 0.274225
    46 0.024032 -1.148574 -0.009538 -1.265292 0.022124 0.061853
    47 0.014898 -0.903521 -0.012035 -1.137822 0.013722 0.056028
    48 -0.586770 -1.264477 0.200161 -0.316722 -1.034155 -2.553877
    49 1.561899 0.035243 0.016848 -0.016099 -0.006259 0.794269
    50 1.114041 0.044518 -0.005766 -0.025854 -0.034738 0.943911
    51 -0.139399 -0.111698 0.014397 0.285382 -0.030687 1.580508
    52 -8.557751 2.682739 -0.473815 1.571409 -0.033317 -0.380919
  time 1
    0 7.738517 -11.933958 -5.453291 -1.020570 -1.465435 -3.704245
    1 -3.157606 0.000000 -1.771385 0.000000 0.000000 0.000000
    2 1.347458 0.000000 -0.036606 0.000001 -3.141592 0.000000
    3 2.980681 -0.000001 -3.026972 0.000000 0.698106 0.000000
    4 3.096915 -0.000001 -6.469250 -3.141592 -1.570451 0.000000
    5 -2.772562 0.000000 -3.715392 0.000000 -0.478942 0.000000
    6 4.652486 -13.172582 -9.824519 1.932873 0.329593 0.905506
    7 -3.157606 0.000001 -1.771385 0.000000 0.000000 0.000000
    8 1.347458 0.000000 -0.036606 0.000001 -3.141592 0.000000
    9 2.980681 -0.000001 -3.026972 0.000000 0.000000 0.000000
    10 3.096915 -0.000002 -3.559005 -3.141592 -1.570451 0.000000
    11 -2.772562 -0.000001 -3.715392 0.000000 -0.478942 0.000000
    12 52.310982 27.697800 8.327048 0.986223 -1.014512 -2.903868
    13 0.000002 40.432781 -0.000015 0.000000 0.000000 0.000000
    14 1.532451 2.459748 -4.913593 0.008725 -0.011134 0.190490
    15 7.763181 -2.514373 -2.752972 0.173086 -2.364796 -0.386136
    16 7.644094 4.629646 -0.317781 1.565415 -3.125457 0.625908
    17 0.002300 -8.467485 -0.072883 -0.018369 0.640542 0.062457
    18 -0.488518 -2.755602 -0.228260 -0.741569 0.047688 -0.381112
    19 0.039887 -1.534479 0.014229 -1.576912 -0.011122 0.035284
    20 0.028786 -1.185109 -0.132487 -1.218645 -0.015041 0.026822
    21 0.250027 -2.820665 -0.238396 -0.290347 -0.034584 -0.286546
    22 -0.049759 -1.598510 0.034071 -1.543204 0.000539 -0.041457
    23 -0.034142 -1.171750 0.045718 -1.169340 0.006568 -0.030800
    24 0.957766 -2.746780 -0.090302 0.050684 -0.147200 0.082289
    25 -0.033420 -1.397129 -0.015163 -0.329486 0.006939 -0.015809
    26 -0.022360 -0.957436 0.003159 -0.558428 0.008018 -0.026857
    27 -1.180681 -2.507217 -0.193859 -0.806133 0.251644 -0.384136
    28 -0.024967 -1.127840 0.017597 -1.079262 0.002409 -0.046128
    29 -0.020057 -0.906594 0.029622 -1.001921 0.005369 -0.041023
    30 0.606948 -1.197277 0.185379 0.389364 -0.893516 -0.592401
    31 1.481238 -0.216323 0.067511 0.047551 -0.212834 -0.759113
    32 0.995299 -0.190791 0.047917 0.101937 -0.253896 -1.103464
    33 0.120153 -0.050270 -0.054489 0.287569 3.110905 1.561085
    34 -8.958534 -6.934437 -0.302074 -0.196981 -2.853125 0.892404
    35 0.108663 -8.391823 -0.056241 -0.270214 -0.126916 0.155438
    36 0.447953 -2.798986 -0.200443 -0.735873 0.010098 0.254020
    37 -0.032909 -1.499736 0.028378 -1.435653 0.023358 -0.027754
    38 -0.027022 -1.135516 -0.020210 -1.403578 0.024892 -0.027133
    39 -0.249534 -2.846964 -0.174213 -0.314880 0.133839 0.144563
    40 0.043235 -1.656596 0.068667 -1.454198 -0.022453 0.008066
    41 0.031729 -1.137392 0.051025 -1.500061 -0.016580 0.008779
    42 -0.963866 -2.785145 -0.085350 0.178507 0.162851 -0.182687
    43 0.028479 -1.403067 -0.017167 -0.866992 -0.021392 -0.032095
    44 0.021413 -0.961687 0.020046 0.204098 0.000551 0.009024
    45 1.164475 -2.543940 -0.170330 -0.641109 -0.235285 0.274225
    46 0.024032 -1.148574 -0.009538 -1.265292 0.022124 0.061853
    47 0.014898 -0.903521 -0.012035 -1.137822 0.013722 0.056028
    48 -0.586770 -1.264477 0.200161 -0.316722 -1.034155 -2.553877
    49 1.561899 0.035243 0.016848 -0.016099 -0.006259 0.794269
    50 1.114041 0.044518 -0.005766 -0.025854 -0.034738 0.943911
    51 -0.139399 -0.111698 0.014397 0.285382 -0.030687 1.580508
    52 -8.639785 2.276477 -0.477722 1.570354 -0.034082 -0.333299
  time 2
    0 8.383068 -11.805048 -5.504074 -1.138918 -1.451616 -3.550660
    1 -3.157606 0.000000 -1.771385 0.000000 0.000000 0.000000
    2 1.347458 0.000000 -0.036606 0.000001 -3.141592 0.000000
    3 2.980681 -0.000001 -3.026972 0.000000 0.860739 0.000000
    4 3.096915 -0.000001 -6.469250 -3.141592 -1.570451 0.000000
    5 -2.772562 0.000000 -3.715392 0.000000 -0.478942 0.000000
    6 5.007965 -13.000702 -10.262032 1.985077 0.394283 0.972449
    7 -3.157606 0.000001 -1.771385 0.000000 0.000000 0.000000
    8 1.347458 0.000000 -0.036606 0.000001 -3.141592 0.000000
    9 2.980681 -0.000001 -3.026972 0.000000 0.000000 0.000000
    10 3.096915 -0.000002 -3.559005 -3.141592 -1.570451 0.000000
    11 -2.772562 -0.000001 -3.715392 0.000000 -0.478942 0.000000
    12 52.310982 27.697800 8.327048 0.986223 -1.014512 -2.903868
    13 0.000002 40.432781 -0.000015 0.000000 0.000000 0.000000
    14 1.622297 2.444122 -4.933125 0.014549 -0.018564 0.203424
    15 7.903811 -2.447964 -2.725627 0.170597 -2.377801 -0.365955
    16 7.667532 4.574957 -0.321687 1.565415 -3.125265 0.619290
    17 0.002300 -8.467485 -0.072883 -0.013197 0.640806 0.062947
    18 -0.488518 -2.755602 -0.228260 -0.741569 0.047688 -0.381112
    19 0.039887 -1.534479 0.014229 -1.576912 -0.011122 0.035284
    20 0.028786 -1.185109 -0.132487 -1.218645 -0.015041 0.026822
    21 0.250027 -2.820665 -0.238396 -0.290347 -0.034584 -0.286546
    22 -0.049759 -1.598510 0.034071 -1.543204 0.000539 -0.041457
    23 -0.034142 -1.171750 0.045718 -1.169340 0.006568 -0.030800
    24 0.957766 -2.746780 -0.090302 0.050684 -0.147200 0.082289
    25 -0.033420 -1.397129 -0.015163 -0.329486 0.006939 -0.015809
    26 -0.022360 -0.957436 0.003159 -0.558428 0.008018 -0.026857
    27 -1.180681 -2.507217 -0.193859 -0.806133 0.251644 -0.384136
    28 -0.024967 -1.127840 0.017597 -1.079262 0.002409 -0.046128
    29 -0.020057 -0.906594 0.029622 -1.001921 0.005369 -0.041023
    30 0.606948 -1.197277 0.185379 0.389364 -0.893516 -0.592401
    31 1.481238 -0.216323 0.067511 0.047551 -0.212834 -0.759113
    32 0.995299 -0.190791 0.047917 0.101937 -0.253896 -1.103464
    33 0.120153 -0.050270 -0.054489 0.287569 3.110905 1.561085
    34 -8.798373 -7.090692 0.029968 -0.260935 -2.788961 0.948066
    35 0.108663 -8.391823 -0.056241 -0.272300 -0.126786 0.155895
    36 0.447953 -2.798986 -0.200443 -0.735873 0.010098 0.254020
    37 -0.032909 -1.499736 0.028378 -1.435653 0.023358 -0.027754
    38 -0.027022 -1.135516 -0.020210 -1.403578 0.024892 -0.027133
    39 -0.249534 -2.846964 -0.174213 -0.314880 0.133839 0.144563
    40 0.043235 -1.656596 0.068667 -1.454198 -0.022453 0.008066
    41 0.031729 -1.137392 0.051025 -1.500061 -0.016580 0.008779
    42 -0.963866 -2.785145 -0.085350 0.178507 0.162851 -0.182687
    43 0.028479 -1.403067 -0.017167 -0.866992 -0.021392 -0.032095
    44 0.021413 -0.961687 0.020046 0.204098 0.000551 0.009024
    45 1.164475 -2.543940 -0.170330 -0.641109 -0.235285 0.274225
    46 0.024032 -1.148574 -0.009538 -1.265292 0.022124 0.061853
    47 0.014898 -0.903521 -0.012035 -1.137822 0.013722 0.056028
    48 -0.586770 -1.264477 0.200161 -0.316722 -1.034155 -2.553877
    49 1.561899 0.035243 0.016848 -0.016099 -0.006259 0.794269
    50 1.114041 0.044518 -0.005766 -0.025854 -0.034738 0.943911
    51 -0.139399 -0.111698 0.014397 0.285382 -0.030687 1.580508
    52 -8.690568 1.960061 -0.481628 1.569587 -0.034655 -0.297086
  time 3
    0 8.863552 -11.918332 -5.539232 -1.215182 -1.434829 -3.449322
    1 -3.157606 0.000000 -1.771385 0.000000 0.000000 0.000000
    2 1.347458 0.000000 -0.036606 0.000001 -3.141592 0.000000
    3 2.980681 -0.000001 -3.026972 0.000000 0.698106 0.000000
    4 3.096915 -0.000001 -6.469250 -3.141592 -1.570451 0.000000
    5 -2.772562 0.000000 -3.715392 0.000000 -0.478942 0.000000
    6 5.136876 -12.555376 -10.558916 2.004905 0.351593 0.990619
    7 -3.157606 0.000001 -1.771385 0.000000 0.000000 0.000000
    8 1.347458 0.000000 -0.036606 0.000001 -3.141592 0.000000
    9 2.980681 -0.000001 -3.026972 0.000000 0.000000 0.000000
    10 3.096915 -0.000002 -3.559005 -3.141592 -1.570451 0.000000
    11 -2.772562 -0.000001 -3.715392 0.000000 -0.478942 0.000000
    12 52.310982 27.697800 8.327048 0.986223 -1.014512 -2.903868
    13 0.000002 40.432781 -0.000015 0.000000 0.000000 0.000000
    14 1.665267 2.436309 -4.940938 0.017462 -0.022267 0.209891
    15 7.935061 -2.572968 -2.600623 0.150690 -2.391283 -0.325967
    16 7.464401 4.961687 -0.309968 1.565223 -3.126319 0.669400
    17 0.002300 -8.471392 -0.072883 -0.007736 0.640601 0.079764
    18 -0.488518 -2.755602 -0.228260 -0.741569 0.047688 -0.381112
    19 0.039887 -1.534479 0.014229 -1.576912 -0.011122 0.035284
    20 0.028786 -1.185109 -0.132487 -1.218645 -0.015041 0.026822
    21 0.250027 -2.820665 -0.238396 -0.290347 -0.034584 -0.286546
    22 -0.049759 -1.598510 0.034071 -1.543204 0.000539 -0.041457
    23 -0.034142 -1.171750 0.045718 -1.169340 0.006568 -0.030800
    24 0.957766 -2.746780 -0.090302 0.050684 -0.147200 0.082289
    25 -0.033420 -1.397129 -0.015163 -0.329486 0.006939 -0.015809
    26 -0.022360 -0.957436 0.003159 -0.558428 0.008018 -0.026857
    27 -1.180681 -2.507217 -0.193859 -0.806133 0.251644 -0.384136
    28 -0.024967 -1.127840 0.017597 -1.079262 0.002409 -0.046128
    29 -0.020057 -0.906594 0.029622 -1.001921 0.005369 -0.041023
    30 0.606948 -1.197277 0.185379 0.389364 -0.893516 -0.592401
    31 1.481238 -0.216323 0.067511 0.047551 -0.212834 -0.759113
    32 0.995299 -0.190791 0.047917 0.101937 -0.253896 -1.103464
    33 0.120153 -0.050270 -0.054489 0.287569 3.110905 1.561085
    34 -8.923377 -6.961781 -0.141913 -0.255597 -2.828660 0.958586
    35 0.108663 -8.387917 -0.060148 -0.291373 -0.125485 0.160225
    36 0.447953 -2.798986 -0.200443 -0.735873 0.010098 0.254020
    37 -0.032909 -1.499736 0.028378 -1.435653 0.023358 -0.027754
    38 -0.027022 -1.135516 -0.020210 -1.403578 0.024892 -0.027133
    39 -0.249534 -2.846964 -0.174213 -0.314880 0.133839 0.144563
    40 0.043235 -1.656596 0.068667 -1.454198 -0.022453 0.008066
    41 0.031729 -1.137392 0.051025 -1.500061 -0.016580 0.008779
    42 -0.963866 -2.785145 -0.085350 0.178507 0.162851 -0.182687
    43 0.028479 -1.403067 -0.017167 -0.866992 -0.021392 -0.032095
    44 0.021413 -0.961687 0.020046 0.204098 0.000551 0.009024
    45 1.164475 -2.543940 -0.170330 -0.641109 -0.235285 0.274225
    46 0.024032 -1.148574 -0.009538 -1.265292 0.022124 0.061853
    47 0.014898 -0.903521 -0.012035 -1.137822 0.013722 0.056028
    48 -0.586770 -1.264477 0.200161 -0.316722 -1.034155 -2.553877
    49 1.561899 0.035243 0.016848 -0.016099 -0.006259 0.794269
    50 1.114041 0.044518 -0.005766 -0.025854 -0.034738 0.943911
    51 -0.139399 -0.111698 0.014397 0.285382 -0.030687 1.580508
    52 -8.721819 1.698334 -0.485534 1.568820 -0.035038 -0.266955
  time 4
    0 9.293252 -12.164434 -5.507981 -1.231463 -1.429635 -3.406835
    1 -3.157606 0.000000 -1.771385 0.000000 0.000000 0.000000
    2 1.347458 0.000000 -0.036606 0.000001 -3.141592 0.000000
    3 2.980681 -0.000001 -3.026972 0.000000 0.420440 0.000000
    4 3.096915 -0.000001 -4.984830 -3.141592 -1.570451 0.000000
    5 -2.772562 0.000000 -3.715392 0.000000 -0.478942 0.000000
    6 5.199377 -12.653035 -10.262032 1.971571 0.297553 0.950358
    7 -3.157606 0.000001 -1.771385 0.000000 0.000000 0.000000
    8 1.347458 0.000000 -0.036606 0.000001 -3.141592 0.000000
    9 2.980681 -0.000001 -3.026972 0.000000 0.000000 0.000000
    10 3.096915 -0.000002 -3.559005 -3.141592 -1.570451 0.000000
    11 -2.772562 -0.000001 -3.715392 0.000000 -0.478942 0.000000
    12 52.310982 27.697800 8.327048 0.986223 -1.014512 -2.903868
    13 0.000002 40.432781 -0.000015 0.000000 0.000000 0.000000
    14 1.665267 2.436309 -4.940938 0.017462 -0.022267 0.209891
    15 7.892091 -2.772193 -2.444369 0.131740 -2.393770 -0.276916
    16 7.112827 5.535924 -0.298249 1.565031 -3.128045 0.747778
    17 0.002300 -8.471392 -0.072883 -0.004841 0.640190 0.097170
    18 -0.488518 -2.755602 -0.228260 -0.741569 0.047688 -0.381112
    19 0.039887 -1.534479 0.014229 -1.576912 -0.011122 0.035284
    20 0.028786 -1.185109 -0.132487 -1.218645 -0.015041 0.026822
    21 0.250027 -2.820665 -0.238396 -0.290347 -0.034584 -0.286546
    22 -0.049759 -1.598510 0.034071 -1.543204 0.000539 -0.041457
    23 -0.034142 -1.171750 0.045718 -1.169340 0.006568 -0.030800
    24 0.957766 -2.746780 -0.090302 0.050684 -0.147200 0.082289
    25 -0.033420 -1.397129 -0.015163 -0.329486 0.006939 -0.015809
    26 -0.022360 -0.957436 0.003159 -0.558428 0.008018 -0.026857
    27 -1.180681 -2.507217 -0.193859 -0.806133 0.251644 -0.384136
    28 -0.024967 -1.127840 0.017597 -1.079262 0.002409 -0.046128
    29 -0.020057 -0.906594 0.029622 -1.001921 0.005369 -0.041023
    30 0.606948 -1.197277 0.185379 0.389364 -0.893516 -0.592401
    31 1.481238 -0.216323 0.067511 0.047551 -0.212834 -0.759113
    32 0.995299 -0.190791 0.047917 0.101937 -0.253896 -1.103464
    33 0.120153 -0.050270 -0.054489 0.287569 3.110905 1.561085
    34 -8.974159 -6.891467 -0.391920 -0.198887 -2.875097 0.919087
    35 0.108663 -8.387917 -0.060148 -0.305418 -0.124509 0.163398
    36 0.447953 -2.798986 -0.200443 -0.735873 0.010098 0.254020
    37 -0.032909 -1.499736 0.028378 -1.435653 0.023358 -0.027754
    38 -0.027022 -1.135516 -0.020210 -1.403578 0.024892 -0.027133
    39 -0.249534 -2.846964 -0.174213 -0.314880 0.133839 0.144563
    40 0.043235 -1.656596 0.068667 -1.454198 -0.022453 0.008066
    41 0.031729 -1.137392 0.051025 -1.500061 -0.016580 0.008779
    42 -0.963866 -2.785145 -0.085350 0.178507 0.162851 -0.182687
    43 0.028479 -1.403067 -0.017167 -0.866992 -0.021392 -0.032095
    44 0.021413 -0.961687 0.020046 0.204098 0.000551 0.009024
    45 1.164475 -2.543940 -0.170330 -0.641109 -0.235285 0.274225
    46 0.024032 -1.148574 -0.009538 -1.265292 0.022124 0.061853
    47 0.014898 -0.903521 -0.012035 -1.137822 0.013722 0.056028
    48 -0.586770 -1.264477 0.200161 -0.316722 -1.034155 -2.553877
    49 1.561899 0.035243 0.016848 -0.016099 -0.006259 0.794269
    50 1.114041 0.044518 -0.005766 -0.025854 -0.034738 0.943911
    51 -0.139399 -0.111698 0.014397 0.285382 -0.030687 1.580508
    52 -8.682755 2.018656 -0.481628 1.569683 -0.034560 -0.303739
  time 5
    0 9.765923 -12.422254 -5.398602 -1.177002 -1.451987 -3.424634
    1 -3.157606 0.000000 -1.771385 0.000000 0.000000 0.000000
    2 1.347458 0.000000 -0.036606 0.000001 -3.141592 0.000000
    3 2.980681 -0.000001 -3.026972 0.000000 -0.042320 0.000000
    4 3.096915 -0.000001 -3.500409 -3.141592 -1.570451 0.000000
    5 -2.772562 0.000000 -3.715392 0.000000 -0.478942 0.000000
    6 5.105625 -13.723380 -9.191687 1.890439 0.287775 0.854630
    7 -3.157606 0.000001 -1.771385 0.000000 0.000000 0.000000
    8 1.347458 0.000000 -0.036606 0.000001 -3.141592 0.000000
    9 2.980681 -0.000001 -3.026972 0.000000 0.000000 0.000000
    10 3.096915 -0.000002 -3.559005 -3.141592 -1.570451 0.000000
    11 -2.772562 -0.000001 -3.715392 0.000000 -0.478942 0.000000
    12 52.310982 27.697800 8.327048 0.986223 -1.014512 -2.903868
    13 0.000002 40.432781 -0.000015 0.000000 0.000000 0.000000
    14 1.622297 2.444122 -4.933125 0.014549 -0.018564 0.203424
    15 7.821777 -2.947980 -2.327178 0.126667 -2.371585 -0.227118
    16 6.718284 6.078909 -0.282623 1.565031 -3.129675 0.825495
    17 0.002300 -8.471392 -0.072883 -0.007408 0.640014 0.099376
    18 -0.488518 -2.755602 -0.228260 -0.741569 0.047688 -0.381112
    19 0.039887 -1.534479 0.014229 -1.576912 -0.011122 0.035284
    20 0.028786 -1.185109 -0.132487 -1.218645 -0.015041 0.026822
    21 0.250027 -2.820665 -0.238396 -0.290347 -0.034584 -0.286546
    22 -0.049759 -1.598510 0.034071 -1.543204 0.000539 -0.041457
    23 -0.034142 -1.171750 0.045718 -1.169340 0.006568 -0.030800
    24 0.957766 -2.746780 -0.090302 0.050684 -0.147200 0.082289
    25 -0.033420 -1.397129 -0.015163 -0.329486 0.006939 -0.015809
    26 -0.022360 -0.957436 0.003159 -0.558428 0.008018 -0.026857
    27 -1.180681 -2.507217 -0.193859 -0.806133 0.251644 -0.384136
    28 -0.024967 -1.127840 0.017597 -1.079262 0.002409 -0.046128
    29 -0.020057 -0.906594 0.029622 -1.001921 0.005369 -0.041023
    30 0.606948 -1.197277 0.185379 0.389364 -0.893516 -0.592401
    31 1.481238 -0.216323 0.067511 0.047551 -0.212834 -0.759113
    32 0.995299 -0.190791 0.047917 0.101937 -0.253896 -1.103464
    33 0.120153 -0.050270 -0.054489 0.287569 3.110905 1.561085
    34 -8.774935 -7.106317 -0.372388 -0.117015 -2.874912 0.832343
    35 0.108663 -8.387917 -0.060148 -0.303309 -0.124835 0.162349
    36 0.447953 -2.798986 -0.200443 -0.735873 0.010098 0.254020
    37 -0.032909 -1.499736 0.028378 -1.435653 0.023358 -0.027754
    38 -0.027022 -1.135516 -0.020210 -1.403578 0.024892 -0.027133
    39 -0.249534 -2.846964 -0.174213 -0.314880 0.133839 0.144563
    40 0.043235 -1.656596 0.068667 -1.454198 -0.022453 0.008066
    41 0.031729 -1.137392 0.051025 -1.500061 -0.016580 0.008779
    42 -0.963866 -2.785145 -0.085350 0.178507 0.162851 -0.182687
    43 0.028479 -1.403067 -0.017167 -0.866992 -0.021392 -0.032095
    44 0.021413 -0.961687 0.020046 0.204098 0.000551 0.009024
    45 1.164475 -2.543940 -0.170330 -0.641109 -0.235285 0.274225
    46 0.024032 -1.148574 -0.009538 -1.265292 0.022124 0.061853
    47 0.014898 -0.903521 -0.012035 -1.137822 0.013722 0.056028
    48 -0.586770 -1.264477 0.200161 -0.316722 -1.034155 -2.553877
    49 1.561899 0.035243 0.016848 -0.016099 -0.006259 0.794269
    50 1.114041 0.044518 -0.005766 -0.025854 -0.034738 0.943911
    51 -0.139399 -0.111698 0.014397 0.285382 -0.030687 1.580508
    52 -8.440560 3.128065 -0.466002 1.572463 -0.032457 -0.433291
  time 6
    0 10.926115 -12.676168 -4.937651 1.111116 -1.487231 0.672602
    1 -3.157606 0.000000 -1.771385 0.000000 0.000000 0.000000
    2 1.347458 0.000000 -0.036606 0.000001 -3.141592 0.000000
    3 2.980681 -0.000001 -3.026972 0.000000 -0.021147 0.000000
    4 3.096915 -0.000001 -3.531660 -3.141592 -1.570451 0.000000
    5 -2.772562 0.000000 -3.715392 0.000000 -0.478942 0.000000
    6 4.660298 -14.969512 -7.820551 1.800399 0.273894 0.737959
    7 -3.157606 0.000001 -1.771385 0.000000 0.000000 0.000000
    8 1.347458 0.000000 -0.036606 0.000001 -3.141592 0.000000
    9 2.980681 -0.000001 -3.026972 0.000000 0.000000 0.000000
    10 3.096915 -0.000002 -3.559005 -3.141592 -1.570451 0.000000
    11 -2.772562 -0.000001 -3.715392 0.000000 -0.478942 0.000000
    12 52.310982 27.697800 8.327048 0.986223 -1.014512 -2.903868
    13 0.000002 40.432781 -0.000015 0.000000 0.000000 0.000000
    14 1.532451 2.459748 -4.913593 0.008725 -0.011134 0.190490
    15 7.509267 -3.162830 -2.338897 0.205818 -2.207304 -0.194511
    16 6.167486 6.711741 -0.263091 1.565127 -3.131784 0.922405
    17 0.002300 -8.467485 -0.072883 -0.021341 0.648957 0.050444
    18 -0.488518 -2.755602 -0.228260 -0.741569 0.047688 -0.381112
    19 0.039887 -1.534479 0.014229 -1.576912 -0.011122 0.035284
    20 0.028786 -1.185109 -0.132487 -1.218645 -0.015041 0.026822
    21 0.250027 -2.820665 -0.238396 -0.290347 -0.034584 -0.286546
    22 -0.049759 -1.598510 0.034071 -1.543204 0.000539 -0.041457
    23 -0.034142 -1.171750 0.045718 -1.169340 0.006568 -0.030800
    24 0.957766 -2.746780 -0.090302 0.050684 -0.147200 0.082289
    25 -0.033420 -1.397129 -0.015163 -0.329486 0.006939 -0.015809
    26 -0.022360 -0.957436 0.003159 -0.558428 0.008018 -0.026857
    27 -1.180681 -2.507217 -0.193859 -0.806133 0.251644 -0.384136
    28 -0.024967 -1.127840 0.017597 -1.079262 0.002409 -0.046128
    29 -0.020057 -0.906594 0.029622 -1.001921 0.005369 -0.041023
    30 0.606948 -1.197277 0.185379 0.389364 -0.893516 -0.592401
    31 1.481238 -0.216323 0.067511 0.047551 -0.212834 -0.759113
    32 0.995299 -0.190791 0.047917 0.101937 -0.253896 -1.103464
    33 0.120153 -0.050270 -0.054489 0.287569 3.110905 1.561085
    34 -8.532740 -7.383669 -0.247385 -0.026278 -2.881836 0.729340
    35 0.108663 -8.387917 -0.060148 -0.300273 -0.125485 0.160305
    36 0.447953 -2.798986 -0.200443 -0.735873 0.010098 0.254020
    37 -0.032909 -1.499736 0.028378 -1.435653 0.023358 -0.027754
    38 -0.027022 -1.135516 -0.020210 -1.403578 0.024892 -0.027133
    39 -0.249534 -2.846964 -0.174213 -0.314880 0.133839 0.144563
    40 0.043235 -1.656596 0.068667 -1.454198 -0.022453 0.008066
    41 0.031729 -1.137392 0.051025 -1.500061 -0.016580 0.008779
    42 -0.963866 -2.785145 -0.085350 0.178507 0.162851 -0.182687
    43 0.028479 -1.403067 -0.017167 -0.866992 -0.021392 -0.032095
    44 0.021413 -0.961687 0.020046 0.204098 0.000551 0.009024
    45 1.164475 -2.543940 -0.170330 -0.641109 -0.235285 0.274225
    46 0.024032 -1.148574 -0.009538 -1.265292 0.022124 0.061853
    47 0.014898 -0.903521 -0.012035 -1.137822 0.013722 0.056028
    48 -0.586770 -1.264477 0.200161 -0.316722 -1.034155 -2.553877
    49 1.561899 0.035243 0.016848 -0.016099 -0.006259 0.794269
    50 1.114041 0.044518 -0.005766 -0.025854 -0.034738 0.943911
    51 -0.139399 -0.111698 0.014397 0.285382 -0.030687 1.580508
    52 -7.975702 4.385916 -0.446471 1.575339 -0.029589 -0.586035
  time 7
    0 11.379254 -13.008209 -5.465011 1.800922 -1.407561 0.027257
    1 -3.157606 0.000000 -1.771385 0.000000 0.000000 0.000000
    2 1.347458 0.000000 -0.036606 0.000001 -3.141592 0.000000
    3 2.980681 -0.000001 -3.026972 0.000000 0.000000 0.000000
    4 3.096915 -0.000001 -3.559005 -3.141592 -1.570451 0.000000
    5 -2.772562 0.000000 -3.715392 0.000000 -0.478942 0.000000
    6 3.851680 -16.172674 -6.265816 1.708347 0.247529 0.610385
    7 -3.157606 0.000001 -1.771385 0.000000 0.000000 0.000000
    8 1.347458 0.000000 -0.036606 0.000001 -3.141592 0.000000
    9 2.980681 -0.000001 -3.026972 0.000000 0.000000 0.000000
    10 3.096915 -0.000002 -3.559005 -3.141592 -1.570451 0.000000
    11 -2.772562 -0.000001 -3.715392 0.000000 -0.478942 0.000000
    12 52.310982 27.697800 8.327048 0.986223 -1.014512 -2.903868
    13 0.000002 40.432781 -0.000015 0.000000 0.000000 0.000000
    14 1.403540 2.483186 -4.890155 0.000000 0.000000 0.171145
    15 7.337387 -3.334710 -2.288114 0.162175 -2.114837 -0.094822
    16 5.464340 7.364105 -0.243559 1.565510 -3.134085 1.033308
    17 0.002300 -8.459673 -0.072883 -0.055749 0.638900 -0.001380
    18 -0.488518 -2.755602 -0.228260 -0.741569 0.047688 -0.381112
    19 0.039887 -1.534479 0.014229 -1.576912 -0.011122 0.035284
    20 0.028786 -1.185109 -0.132487 -1.218645 -0.015041 0.026822
    21 0.250027 -2.820665 -0.238396 -0.290347 -0.034584 -0.286546
    22 -0.049759 -1.598510 0.034071 -1.543204 0.000539 -0.041457
    23 -0.034142 -1.171750 0.045718 -1.169340 0.006568 -0.030800
    24 0.957766 -2.746780 -0.090302 0.050684 -0.147200 0.082289
    25 -0.033420 -1.397129 -0.015163 -0.329486 0.006939 -0.015809
    26 -0.022360 -0.957436 0.003159 -0.558428 0.008018 -0.026857
    27 -1.180681 -2.507217 -0.193859 -0.806133 0.251644 -0.384136
    28 -0.024967 -1.127840 0.017597 -1.079262 0.002409 -0.046128
    29 -0.020057 -0.906594 0.029622 -1.001921 0.005369 -0.041023
    30 0.606948 -1.197277 0.185379 0.389364 -0.893516 -0.592401
    31 1.481238 -0.216323 0.067511 0.047551 -0.212834 -0.759113
    32 0.995299 -0.190791 0.047917 0.101937 -0.253896 -1.103464
    33 0.120153 -0.050270 -0.054489 0.287569 3.110905 1.561085
    34 -8.263200 -7.664928 -0.075504 0.065602 -2.905840 0.619930
    35 0.108663 -8.387917 -0.060148 -0.295893 -0.126298 0.157777
    36 0.447953 -2.798986 -0.200443 -0.735873 0.010098 0.254020
    37 -0.032909 -1.499736 0.028378 -1.435653 0.023358 -0.027754
    38 -0.027022 -1.135516 -0.020210 -1.403578 0.024892 -0.027133
    39 -0.249534 -2.846964 -0.174213 -0.314880 0.133839 0.144563
    40 0.043235 -1.656596 0.068667 -1.454198 -0.022453 0.008066
    41 0.031729 -1.137392 0.051025 -1.500061 -0.016580 0.008779
    42 -0.963866 -2.785145 -0.085350 0.178507 0.162851 -0.182687
    43 0.028479 -1.403067 -0.017167 -0.866992 -0.021392 -0.032095
    44 0.021413 -0.961687 0.020046 0.204098 0.000551 0.009024
    45 1.164475 -2.543940 -0.170330 -0.641109 -0.235285 0.274225
    46 0.024032 -1.148574 -0.009538 -1.265292 0.022124 0.061853
    47 0.014898 -0.903521 -0.012035 -1.137822 0.013722 0.056028
    48 -0.586770 -1.264477 0.200161 -0.316722 -1.034155 -2.553877
    49 1.561899 0.035243 0.016848 -0.016099 -0.006259 0.794269
    50 1.114041 0.044518 -0.005766 -0.025854 -0.034738 0.943911
    51 -0.139399 -0.111698 0.014397 0.285382 -0.030687 1.580508
    52 -7.264743 5.647673 -0.419126 1.577928 -0.025957 -0.751325
  time 8
    0 10.629231 -13.164464 -7.703360 0.695614 -1.815926 1.069340
    1 -3.157606 0.000000 -1.771385 0.000000 0.000000 0.000000
    2 1.347458 0.000000 -0.036606 0.000001 -3.141592 0.000000
    3 2.980681 -0.000001 -3.026972 0.000000 0.000000 0.000000
    4 3.096915 -0.000001 -3.559005 -3.141592 -1.570451 0.000000
    5 -2.772562 0.000000 -3.715392 0.000000 -0.478942 0.000000
    6 2.699301 -17.164891 -4.703269 1.622713 0.205799 0.482238
    7 -3.157606 0.000001 -1.771385 0.000000 0.000000 0.000000
    8 1.347458 0.000000 -0.036606 0.000001 -3.141592 0.000000
    9 2.980681 -0.000001 -3.026972 0.000000 0.000000 0.000000
    10 3.096915 -0.000002 -3.559005 -3.141592 -1.570451 0.000000
    11 -2.772562 -0.000001 -3.715392 0.000000 -0.478942 0.000000
    12 52.310982 27.697800 8.327048 0.986223 -1.014512 -2.903868
    13 0.000002 40.432781 -0.000015 0.000000 0.000000 0.000000
    14 1.227754 2.514437 -4.854998 -0.011637 0.014849 0.145333
    15 7.610833 -3.190175 -2.010762 6.166847 -2.395587 0.125018
    16 4.538530 8.039906 -0.220121 1.566373 -3.136866 1.166240
    17 -0.009419 -8.451860 -0.080696 -0.111250 0.595331 0.000606
    18 -0.488518 -2.755602 -0.228260 -0.741569 0.047688 -0.381112
    19 0.039887 -1.534479 0.014229 -1.576912 -0.011122 0.035284
    20 0.028786 -1.185109 -0.132487 -1.218645 -0.015041 0.026822
    21 0.250027 -2.820665 -0.238396 -0.290347 -0.034584 -0.286546
    22 -0.049759 -1.598510 0.034071 -1.543204 0.000539 -0.041457
    23 -0.034142 -1.171750 0.045718 -1.169340 0.006568 -0.030800
    24 0.957766 -2.746780 -0.090302 0.050684 -0.147200 0.082289
    25 -0.033420 -1.397129 -0.015163 -0.329486 0.006939 -0.015809
    26 -0.022360 -0.957436 0.003159 -0.558428 0.008018 -0.026857
    27 -1.180681 -2.507217 -0.193859 -0.806133 0.251644 -0.384136
    28 -0.024967 -1.127840 0.017597 -1.079262 0.002409 -0.046128
    29 -0.020057 -0.906594 0.029622 -1.001921 0.005369 -0.041023
    30 0.606948 -1.197277 0.185379 0.389364 -0.893516 -0.592401
    31 1.481238 -0.216323 0.067511 0.047551 -0.212834 -0.759113
    32 0.995299 -0.190791 0.047917 0.101937 -0.253896 -1.103464
    33 0.120153 -0.050270 -0.054489 0.287569 3.110905 1.561085
    34 -7.978035 -7.899310 0.092470 0.148809 -2.950985 0.515301
    35 0.108663 -8.391823 -0.060148 -0.289728 -0.127079 0.155196
    36 0.447953 -2.798986 -0.200443 -0.735873 0.010098 0.254020
    37 -0.032909 -1.499736 0.028378 -1.435653 0.023358 -0.027754
    38 -0.027022 -1.135516 -0.020210 -1.403578 0.024892 -0.027133
    39 -0.249534 -2.846964 -0.174213 -0.314880 0.133839 0.144563
    40 0.043235 -1.656596 0.068667 -1.454198 -0.022453 0.008066
    41 0.031729 -1.137392 0.051025 -1.500061 -0.016580 0.008779
    42 -0.963866 -2.785145 -0.085350 0.178507 0.162851 -0.182687
    43 0.028479 -1.403067 -0.017167 -0.866992 -0.021392 -0.032095
    44 0.021413 -0.961687 0.020046 0.204098 0.000551 0.009024
    45 1.164475 -2.543940 -0.170330 -0.641109 -0.235285 0.274225
    46 0.024032 -1.148574 -0.009538 -1.265292 0.022124 0.061853
    47 0.014898 -0.903521 -0.012035 -1.137822 0.013722 0.056028
    48 -0.586770 -1.264477 0.200161 -0.316722 -1.034155 -2.553877
    49 1.561899 0.035243 0.016848 -0.016099 -0.006259 0.794269
    50 1.114041 0.044518 -0.005766 -0.025854 -0.034738 0.943911
    51 -0.139399 -0.111698 0.014397 0.285382 -0.030687 1.580508
    52 -6.342840 6.788333 -0.387875 1.579941 -0.021942 -0.918612
  time 9
    0 10.742515 -12.742576 -9.840144 1.024759 -2.276508 0.657866
    1 -3.157606 0.000000 -1.771385 0.000000 0.000000 0.000000
    2 1.347458 0.000000 -0.036606 0.000001 -3.141592 0.000000
    3 2.980681 -0.000001 -3.026972 0.000000 0.000000 0.000000
    4 3.096915 -0.000001 -3.559005 -3.141592 -1.570451 0.000000
    5 -2.772562 0.000000 -3.715392 0.000000 -0.478942 0.000000
    6 1.285195 -17.836787 -3.312601 1.551351 0.151584 0.362793
    7 -3.157606 0.000001 -1.771385 0.000000 0.000000 0.000000
    8 1.347458 0.000000 -0.036606 0.000001 -3.141592 0.000000
    9 2.980681 -0.000001 -3.026972 0.000000 0.000000 0.000000
    10 3.096915 -0.000002 -3.559005 -3.141592 -1.570451 0.000000
    11 -2.772562 -0.000001 -3.715392 0.000000 -0.478942 0.000000
    12 52.310982 27.697800 8.327048 0.986223 -1.014512 -2.903868
    13 0.000002 40.432781 -0.000015 0.000000 0.000000 0.000000
    14 1.008997 2.549594 -4.815934 -0.026198 0.033413 0.113055
    15 7.989751 -3.072984 -1.452151 6.030175 -2.833445 0.199482
    16 3.554125 8.571173 -0.196683 1.567523 3.143670 1.295674
    17 -0.025045 -8.444047 -0.088509 -0.175031 0.536867 0.022056
    18 -0.488518 -2.755602 -0.228260 -0.741569 0.047688 -0.381112
    19 0.039887 -1.534479 0.014229 -1.576912 -0.011122 0.035284
    20 0.028786 -1.185109 -0.132487 -1.218645 -0.015041 0.026822
    21 0.250027 -2.820665 -0.238396 -0.290347 -0.034584 -0.286546
    22 -0.049759 -1.598510 0.034071 -1.543204 0.000539 -0.041457
    23 -0.034142 -1.171750 0.045718 -1.169340 0.006568 -0.030800
    24 0.957766 -2.746780 -0.090302 0.050684 -0.147200 0.082289
    25 -0.033420 -1.397129 -0.015163 -0.329486 0.006939 -0.015809
    26 -0.022360 -0.957436 0.003159 -0.558428 0.008018 -0.026857
    27 -1.180681 -2.507217 -0.193859 -0.806133 0.251644 -0.384136
    28 -0.024967 -1.127840 0.017597 -1.079262 0.002409 -0.046128
    29 -0.020057 -0.906594 0.029622 -1.001921 0.005369 -0.041023
    30 0.606948 -1.197277 0.185379 0.389364 -0.893516 -0.592401
    31 1.481238 -0.216323 0.067511 0.047551 -0.212834 -0.759113
    32 0.995299 -0.190791 0.047917 0.101937 -0.253896 -1.103464
    33 0.120153 -0.050270 -0.054489 0.287569 3.110905 1.561085
    34 -7.688964 -8.047752 0.186222 0.213430 -3.015517 0.425496
    35 0.108663 -8.391823 -0.056241 -0.281315 -0.127696 0.153098
    36 0.447953 -2.798986 -0.200443 -0.735873 0.010098 0.254020
    37 -0.032909 -1.499736 0.028378 -1.435653 0.023358 -0.027754
    38 -0.027022 -1.135516 -0.020210 -1.403578 0.024892 -0.027133
    39 -0.249534 -2.846964 -0.174213 -0.314880 0.133839 0.144563
    40 0.043235 -1.656596 0.068667 -1.454198 -0.022453 0.008066
    41 0.031729 -1.137392 0.051025 -1.500061 -0.016580 0.008779
    42 -0.963866 -2.785145 -0.085350 0.178507 0.162851 -0.182687
    43 0.028479 -1.403067 -0.017167 -0.866992 -0.021392 -0.032095
    44 0.021413 -0.961687 0.020046 0.204098 0.000551 0.009024
    45 1.164475 -2.543940 -0.170330 -0.641109 -0.235285 0.274225
    46 0.024032 -1.148574 -0.009538 -1.265292 0.022124 0.061853
    47 0.014898 -0.903521 -0.012035 -1.137822 0.013722 0.056028
    48 -0.586770 -1.264477 0.200161 -0.316722 -1.034155 -2.553877
    49 1.561899 0.035243 0.016848 -0.016099 -0.006259 0.794269
    50 1.114041 0.044518 -0.005766 -0.025854 -0.034738 0.943911
    51 -0.139399 -0.111698 0.014397 0.285382 -0.030687 1.580508
    52 -5.303746 7.714143 -0.352718 1.581092 -0.017927 -1.077344
  time 10
    0 10.621418 -12.898831 -10.656575 1.091693 -2.606039 0.454808
    1 -3.157606 0.000000 -1.771385 0.000000 0.000000 0.000000
    2 1.347458 0.000000 -0.036606 0.000001 -3.141592 0.000000
    3 2.980681 -0.000001 -3.026972 0.000000 0.000000 0.000000
    4 3.096915 -0.000001 -3.559005 -3.141592 -1.570451 0.000000
    5 -2.772562 0.000000 -3.715392 0.000000 -0.478942 0.000000
    6 -0.265633 -18.145390 -2.261788 1.499243 0.092131 0.257980
    7 -3.157606 0.000001 -1.771385 0.000000 0.000000 0.000000
    8 1.347458 0.000000 -0.036606 0.000001 -3.141592 0.000000
    9 2.980681 -0.000001 -3.026972 0.000000 0.000000 0.000000
    10 3.096915 -0.000002 -3.559005 -3.141592 -1.570451 0.000000
    11 -2.772562 -0.000001 -3.715392 0.000000 -0.478942 0.000000
    12 52.310982 27.697800 8.327048 0.986223 -1.014512 -2.903868
    13 0.000002 40.432781 -0.000015 0.000000 0.000000 0.000000
    14 0.747270 2.596471 -4.765151 -0.043672 0.055692 0.074309
    15 8.587425 -3.342523 -1.166986 6.000506 -3.120220 0.148189
    16 3.483810 8.602424 -0.196683 1.567619 3.143574 1.304750
    17 -0.044576 -8.440141 -0.100228 -0.229220 0.458085 0.040737
    18 -0.488518 -2.755602 -0.228260 -0.741569 0.047688 -0.381112
    19 0.039887 -1.534479 0.014229 -1.576912 -0.011122 0.035284
    20 0.028786 -1.185109 -0.132487 -1.218645 -0.015041 0.026822
    21 0.250027 -2.820665 -0.238396 -0.290347 -0.034584 -0.286546
    22 -0.049759 -1.598510 0.034071 -1.543204 0.000539 -0.041457
    23 -0.034142 -1.171750 0.045718 -1.169340 0.006568 -0.030800
    24 0.957766 -2.746780 -0.090302 0.050684 -0.147200 0.082289
    25 -0.033420 -1.397129 -0.015163 -0.329486 0.006939 -0.015809
    26 -0.022360 -0.957436 0.003159 -0.558428 0.008018 -0.026857
    27 -1.180681 -2.507217 -0.193859 -0.806133 0.251644 -0.384136
    28 -0.024967 -1.127840 0.017597 -1.079262 0.002409 -0.046128
    29 -0.020057 -0.906594 0.029622 -1.001921 0.005369 -0.041023
    30 0.606948 -1.197277 0.185379 0.389364 -0.893516 -0.592401
    31 1.481238 -0.216323 0.067511 0.047551 -0.212834 -0.759113
    32 0.995299 -0.190791 0.047917 0.101937 -0.253896 -1.103464
    33 0.120153 -0.050270 -0.054489 0.287569 3.110905 1.561085
    34 -7.415518 -8.082909 0.147159 0.253080 -3.092606 0.357115
    35 0.108663 -8.391823 -0.056241 -0.270260 -0.127957 0.151941
    36 0.447953 -2.798986 -0.200443 -0.735873 0.010098 0.254020
    37 -0.032909 -1.499736 0.028378 -1.435653 0.023358 -0.027754
    38 -0.027022 -1.135516 -0.020210 -1.403578 0.024892 -0.027133
    39 -0.249534 -2.846964 -0.174213 -0.314880 0.133839 0.144563
    40 0.043235 -1.656596 0.068667 -1.454198 -0.022453 0.008066
    41 0.031729 -1.137392 0.051025 -1.500061 -0.016580 0.008779
    42 -0.963866 -2.785145 -0.085350 0.178507 0.162851 -0.182687
    43 0.028479 -1.403067 -0.017167 -0.866992 -0.021392 -0.032095
    44 0.021413 -0.961687 0.020046 0.204098 0.000551 0.009024
    45 1.164475 -2.543940 -0.170330 -0.641109 -0.235285 0.274225
    46 0.024032 -1.148574 -0.009538 -1.265292 0.022124 0.061853
    47 0.014898 -0.903521 -0.012035 -1.137822 0.013722 0.056028
    48 -0.586770 -1.264477 0.200161 -0.316722 -1.034155 -2.553877
    49 1.561899 0.035243 0.016848 -0.016099 -0.006259 0.794269
    50 1.114041 0.044518 -0.005766 -0.025854 -0.034738 0.943911
    51 -0.139399 -0.111698 0.014397 0.285382 -0.030687 1.580508
    52 -4.280277 8.386038 -0.321467 1.581667 -0.014199 -1.217161
  time 11
    0 8.883084 -14.043397 -11.097995 1.114639 -2.731711 0.217683
    1 -3.157606 0.000000 -1.771385 0.000000 0.000000 0.000000
    2 1.347458 0.000000 -0.036606 0.000001 -3.141592 0.000000
    3 2.980681 -0.000001 -3.026972 0.000000 0.000000 0.000000
    4 3.096915 -0.000001 -3.559005 -3.141592 -1.570451 0.000000
    5 -2.772562 0.000000 -3.715392 0.000000 -0.478942 0.000000
    6 -1.800836 -18.098514 -1.675832 1.468112 0.036171 0.171433
    7 -3.157606 0.000001 -1.771385 0.000000 0.000000 0.000000
    8 1.347458 0.000000 -0.036606 0.000001 -3.141592 0.000000
    9 2.980681 -0.000001 -3.026972 0.000000 0.000000 0.000000
    10 3.096915 -0.000002 -3.559005 -3.141592 -1.570451 0.000000
    11 -2.772562 -0.000001 -3.715392 0.000000 -0.478942 0.000000
    12 52.310982 27.697800 8.327048 0.986223 -1.014512 -2.903868
    13 0.000002 40.432781 -0.000015 0.000000 0.000000 0.000000
    14 0.442574 2.647253 -4.706556 -0.064046 0.081675 0.029152
    15 9.388231 -4.182392 -1.487308 5.996103 3.105715 0.012436
    16 4.468215 8.082876 -0.216215 1.566469 -3.137058 1.175600
    17 -0.068015 -8.436234 -0.111947 -0.269012 0.359864 0.050371
    18 -0.488518 -2.755602 -0.228260 -0.741569 0.047688 -0.381112
    19 0.039887 -1.534479 0.014229 -1.576912 -0.011122 0.035284
    20 0.028786 -1.185109 -0.132487 -1.218645 -0.015041 0.026822
    21 0.250027 -2.820665 -0.238396 -0.290347 -0.034584 -0.286546
    22 -0.049759 -1.598510 0.034071 -1.543204 0.000539 -0.041457
    23 -0.034142 -1.171750 0.045718 -1.169340 0.006568 -0.030800
    24 0.957766 -2.746780 -0.090302 0.050684 -0.147200 0.082289
    25 -0.033420 -1.397129 -0.015163 -0.329486 0.006939 -0.015809
    26 -0.022360 -0.957436 0.003159 -0.558428 0.008018 -0.026857
    27 -1.180681 -2.507217 -0.193859 -0.806133 0.251644 -0.384136
    28 -0.024967 -1.127840 0.017597 -1.079262 0.002409 -0.046128
    29 -0.020057 -0.906594 0.029622 -1.001921 0.005369 -0.041023
    30 0.606948 -1.197277 0.185379 0.389364 -0.893516 -0.592401
    31 1.481238 -0.216323 0.067511 0.047551 -0.212834 -0.759113
    32 0.995299 -0.190791 0.047917 0.101937 -0.253896 -1.103464
    33 0.120153 -0.050270 -0.054489 0.287569 3.110905 1.561085
    34 -7.145979 -7.969625 -0.083317 0.265375 -3.173940 0.314173
    35 0.108663 -8.395729 -0.056241 -0.256123 -0.127794 0.152210
    36 0.447953 -2.798986 -0.200443 -0.735873 0.010098 0.254020
    37 -0.032909 -1.499736 0.028378 -1.435653 0.023358 -0.027754
    38 -0.027022 -1.135516 -0.020210 -1.403578 0.024892 -0.027133
    39 -0.249534 -2.846964 -0.174213 -0.314880 0.133839 0.144563
    40 0.043235 -1.656596 0.068667 -1.454198 -0.022453 0.008066
    41 0.031729 -1.137392 0.051025 -1.500061 -0.016580 0.008779
    42 -0.963866 -2.785145 -0.085350 0.178507 0.162851 -0.182687
    43 0.028479 -1.403067 -0.017167 -0.866992 -0.021392 -0.032095
    44 0.021413 -0.961687 0.020046 0.204098 0.000551 0.009024
    45 1.164475 -2.543940 -0.170330 -0.641109 -0.235285 0.274225
    46 0.024032 -1.148574 -0.009538 -1.265292 0.022124 0.061853
    47 0.014898 -0.903521 -0.012035 -1.137822 0.013722 0.056028
    48 -0.586770 -1.264477 0.200161 -0.316722 -1.034155 -2.553877
    49 1.561899 0.035243 0.016848 -0.016099 -0.006259 0.794269
    50 1.114041 0.044518 -0.005766 -0.025854 -0.034738 0.943911
    51 -0.139399 -0.111698 0.014397 0.285382 -0.030687 1.580508
    52 -3.409157 8.807926 -0.298029 1.581763 -0.011332 -1.327323
  time 12
    0 5.804865 -15.410627 -11.301126 1.149391 -2.796263 -0.063076
    1 -3.157606 0.000000 -1.771385 0.000000 0.000000 0.000000
    2 1.347458 0.000000 -0.036606 0.000001 -3.141592 0.000000
    3 2.980681 -0.000001 -3.026972 0.000000 0.000000 0.000000
    4 3.096915 -0.000001 -3.559005 -3.141592 -1.570451 0.000000
    5 -2.772562 0.000000 -3.715392 0.000000 -0.478942 0.000000
    6 -2.918058 -17.614124 -1.968810 1.464280 -0.006869 0.119505
    7 -3.157606 0.000001 -1.771385 0.000000 0.000000 0.000000
    8 1.347458 0.000000 -0.036606 0.000001 -3.141592 0.000000
    9 2.980681 -0.000001 -3.026972 0.000000 0.000000 0.000000
    10 3.096915 -0.000002 -3.559005 -3.141592 -1.570451 0.000000
    11 -2.772562 -0.000001 -3.715392 0.000000 -0.478942 0.000000
    12 52.310982 27.697800 8.327048 0.986223 -1.014512 -2.903868
    13 0.000002 40.432781 -0.000015 0.000000 0.000000 0.000000
    14 0.094907 2.709755 -4.640147 -0.087344 0.111385 -0.022527
    15 9.864808 -5.514464 -2.057638 6.002037 3.127900 -0.161998
    16 5.772943 7.094565 -0.251372 1.565319 -3.133127 0.985846
    17 -0.087546 -8.432328 -0.127572 -0.303826 0.251088 0.060594
    18 -0.488518 -2.755602 -0.228260 -0.741569 0.047688 -0.381112
    19 0.039887 -1.534479 0.014229 -1.576912 -0.011122 0.035284
    20 0.028786 -1.185109 -0.132487 -1.218645 -0.015041 0.026822
    21 0.250027 -2.820665 -0.238396 -0.290347 -0.034584 -0.286546
    22 -0.049759 -1.598510 0.034071 -1.543204 0.000539 -0.041457
    23 -0.034142 -1.171750 0.045718 -1.169340 0.006568 -0.030800
    24 0.957766 -2.746780 -0.090302 0.050684 -0.147200 0.082289
    25 -0.033420 -1.397129 -0.015163 -0.329486 0.006939 -0.015809
    26 -0.022360 -0.957436 0.003159 -0.558428 0.008018 -0.026857
    27 -1.180681 -2.507217 -0.193859 -0.806133 0.251644 -0.384136
    28 -0.024967 -1.127840 0.017597 -1.079262 0.002409 -0.046128
    29 -0.020057 -0.906594 0.029622 -1.001921 0.005369 -0.041023
    30 0.606948 -1.197277 0.185379 0.389364 -0.893516 -0.592401
    31 1.481238 -0.216323 0.067511 0.047551 -0.212834 -0.759113
    32 0.995299 -0.190791 0.047917 0.101937 -0.253896 -1.103464
    33 0.120153 -0.050270 -0.054489 0.287569 3.110905 1.561085
    34 -6.794405 -7.590707 -0.743493 0.242119 -3.253706 0.315608
    35 0.108663 -8.395729 -0.052335 -0.233573 -0.126721 0.155491
    36 0.447953 -2.798986 -0.200443 -0.735873 0.010098 0.254020
    37 -0.032909 -1.499736 0.028378 -1.435653 0.023358 -0.027754
    38 -0.027022 -1.135516 -0.020210 -1.403578 0.024892 -0.027133
    39 -0.249534 -2.846964 -0.174213 -0.314880 0.133839 0.144563
    40 0.043235 -1.656596 0.068667 -1.454198 -0.022453 0.008066
    41 0.031729 -1.137392 0.051025 -1.500061 -0.016580 0.008779
    42 -0.963866 -2.785145 -0.085350 0.178507 0.162851 -0.182687
    43 0.028479 -1.403067 -0.017167 -0.866992 -0.021392 -0.032095
    44 0.021413 -0.961687 0.020046 0.204098 0.000551 0.009024
    45 1.164475 -2.543940 -0.170330 -0.641109 -0.235285 0.274225
    46 0.024032 -1.148574 -0.009538 -1.265292 0.022124 0.061853
    47 0.014898 -0.903521 -0.012035 -1.137822 0.013722 0.056028
    48 -0.586770 -1.264477 0.200161 -0.316722 -1.034155 -2.553877
    49 1.561899 0.035243 0.016848 -0.016099 -0.006259 0.794269
    50 1.114041 0.044518 -0.005766 -0.025854 -0.034738 0.943911
    51 -0.139399 -0.111698 0.014397 0.285382 -0.030687 1.580508
    52 -2.998988 8.964181 -0.286309 1.581667 -0.009994 -1.377699
  time 13
    0 1.449263 -16.273934 -10.930021 1.222323 -2.845883 -0.377232
    1 -3.157606 0.000000 -1.771385 0.000000 0.000000 0.000000
    2 1.347458 0.000000 -0.036606 0.000001 -3.141592 0.000000
    3 2.980681 -0.000001 -3.026972 0.000000 0.000000 0.000000
    4 3.096915 -0.000001 -3.559005 -3.141592 -1.570451 0.000000
    5 -2.772562 0.000000 -3.715392 0.000000 -0.478942 0.000000
    6 -3.394635 -16.871914 -3.082125 1.481139 -0.037599 0.099039
    7 -3.157606 0.000001 -1.771385 0.000000 0.000000 0.000000
    8 1.347458 0.000000 -0.036606 0.000001 -3.141592 0.000000
    9 2.980681 -0.000001 -3.026972 0.000000 0.000000 0.000000
    10 3.096915 -0.000002 -3.559005 -3.141592 -1.570451 0.000000
    11 -2.772562 -0.000001 -3.715392 0.000000 -0.478942 0.000000
    12 52.310982 27.697800 8.327048 0.986223 -1.014512 -2.903868
    13 0.000002 40.432781 -0.000015 0.000000 0.000000 0.000000
    14 -0.299637 2.776164 -4.565926 -0.113554 0.144798 -0.080617
    15 9.626519 -7.030136 -2.733440 6.033142 -3.097174 -0.360723
    16 7.046419 5.633583 -0.294342 1.565031 -3.128333 0.761488
    17 -0.107078 -8.432328 -0.151010 -0.336247 0.136330 0.072532
    18 -0.488518 -2.755602 -0.228260 -0.741569 0.047688 -0.381112
    19 0.039887 -1.534479 0.014229 -1.576912 -0.011122 0.035284
    20 0.028786 -1.185109 -0.132487 -1.218645 -0.015041 0.026822
    21 0.250027 -2.820665 -0.238396 -0.290347 -0.034584 -0.286546
    22 -0.049759 -1.598510 0.034071 -1.543204 0.000539 -0.041457
    23 -0.034142 -1.171750 0.045718 -1.169340 0.006568 -0.030800
    24 0.957766 -2.746780 -0.090302 0.050684 -0.147200 0.082289
    25 -0.033420 -1.397129 -0.015163 -0.329486 0.006939 -0.015809
    26 -0.022360 -0.957436 0.003159 -0.558428 0.008018 -0.026857
    27 -1.180681 -2.507217 -0.193859 -0.806133 0.251644 -0.384136
    28 -0.024967 -1.127840 0.017597 -1.079262 0.002409 -0.046128
    29 -0.020057 -0.906594 0.029622 -1.001921 0.005369 -0.041023
    30 0.606948 -1.197277 0.185379 0.389364 -0.893516 -0.592401
    31 1.481238 -0.216323 0.067511 0.047551 -0.212834 -0.759113
    32 0.995299 -0.190791 0.047917 0.101937 -0.253896 -1.103464
    33 0.120153 -0.050270 -0.054489 0.287569 3.110905 1.561085
    34 -6.173293 -7.004751 -1.813839 0.193510 -3.333471 0.358645
    35 0.108663 -8.399636 -0.052335 -0.201405 -0.124867 0.161865
    36 0.447953 -2.798986 -0.200443 -0.735873 0.010098 0.254020
    37 -0.032909 -1.499736 0.028378 -1.435653 0.023358 -0.027754
    38 -0.027022 -1.135516 -0.020210 -1.403578 0.024892 -0.027133
    39 -0.249534 -2.846964 -0.174213 -0.314880 0.133839 0.144563
    40 0.043235 -1.656596 0.068667 -1.454198 -0.022453 0.008066
    41 0.031729 -1.137392 0.051025 -1.500061 -0.016580 0.008779
    42 -0.963866 -2.785145 -0.085350 0.178507 0.162851 -0.182687
    43 0.028479 -1.403067 -0.017167 -0.866992 -0.021392 -0.032095
    44 0.021413 -0.961687 0.020046 0.204098 0.000551 0.009024
    45 1.164475 -2.543940 -0.170330 -0.641109 -0.235285 0.274225
    46 0.024032 -1.148574 -0.009538 -1.265292 0.022124 0.061853
    47 0.014898 -0.903521 -0.012035 -1.137822 0.013722 0.056028
    48 -0.586770 -1.264477 0.200161 -0.316722 -1.034155 -2.553877
    49 1.561899 0.035243 0.016848 -0.016099 -0.006259 0.794269
    50 1.114041 0.044518 -0.005766 -0.025854 -0.034738 0.943911
    51 -0.139399 -0.111698 0.014397 0.285382 -0.030687 1.580508
    52 -3.073209 8.940743 -0.286309 1.581667 -0.010185 -1.368765
  time 14
    0 -3.546983 -15.848140 -10.000305 1.322295 -2.926202 -0.693972
    1 -3.157606 0.000000 -1.771385 0.000000 0.000000 0.000000
    2 1.347458 0.000000 -0.036606 0.000001 -3.141592 0.000000
    3 2.980681 -0.000001 -3.026972 0.000000 0.000000 0.000000
    4 3.096915 -0.000001 -3.559005 -3.141592 -1.570451 0.000000
    5 -2.772562 0.000000 -3.715392 0.000000 -0.478942 0.000000
    6 -3.531358 -16.266427 -4.441542 1.503553 -0.064576 0.085842
    7 -3.157606 0.000001 -1.771385 0.000000 0.000000 0.000000
    8 1.347458 0.000000 -0.036606 0.000001 -3.141592 0.000000
    9 2.980681 -0.000001 -3.026972 0.000000 0.000000 0.000000
    10 3.096915 -0.000002 -3.559005 -3.141592 -1.570451 0.000000
    11 -2.772562 -0.000001 -3.715392 0.000000 -0.478942 0.000000
    12 52.310982 27.697800 8.327048 0.986223 -1.014512 -2.903868
    13 0.000002 40.432781 -0.000015 0.000000 0.000000 0.000000
    14 -0.729337 2.850385 -4.479986 -0.142665 0.181926 -0.145174
    15 8.653833 -8.178608 -3.381897 6.084251 -3.044582 -0.569818
    16 7.987854 3.860091 -0.333406 1.565894 -3.123347 0.528337
    17 -0.122704 -8.432328 -0.174449 -0.368995 0.020459 0.087584
    18 -0.488518 -2.755602 -0.228260 -0.741569 0.047688 -0.381112
    19 0.039887 -1.534479 0.014229 -1.576912 -0.011122 0.035284
    20 0.028786 -1.185109 -0.132487 -1.218645 -0.015041 0.026822
    21 0.250027 -2.820665 -0.238396 -0.290347 -0.034584 -0.286546
    22 -0.049759 -1.598510 0.034071 -1.543204 0.000539 -0.041457
    23 -0.034142 -1.171750 0.045718 -1.169340 0.006568 -0.030800
    24 0.957766 -2.746780 -0.090302 0.050684 -0.147200 0.082289
    25 -0.033420 -1.397129 -0.015163 -0.329486 0.006939 -0.015809
    26 -0.022360 -0.957436 0.003159 -0.558428 0.008018 -0.026857
    27 -1.180681 -2.507217 -0.193859 -0.806133 0.251644 -0.384136
    28 -0.024967 -1.127840 0.017597 -1.079262 0.002409 -0.046128
    29 -0.020057 -0.906594 0.029622 -1.001921 0.005369 -0.041023
    30 0.606948 -1.197277 0.185379 0.389364 -0.893516 -0.592401
    31 1.481238 -0.216323 0.067511 0.047551 -0.212834 -0.759113
    32 0.995299 -0.190791 0.047917 0.101937 -0.253896 -1.103464
    33 0.120153 -0.050270 -0.054489 0.287569 3.110905 1.561085
    34 -5.235764 -6.508643 -2.970124 0.141947 -3.417945 0.415932
    35 0.108663 -8.403542 -0.048429 -0.165367 -0.122916 0.169530
    36 0.447953 -2.798986 -0.200443 -0.735873 0.010098 0.254020
    37 -0.032909 -1.499736 0.028378 -1.435653 0.023358 -0.027754
    38 -0.027022 -1.135516 -0.020210 -1.403578 0.024892 -0.027133
    39 -0.249534 -2.846964 -0.174213 -0.314880 0.133839 0.144563
    40 0.043235 -1.656596 0.068667 -1.454198 -0.022453 0.008066
    41 0.031729 -1.137392 0.051025 -1.500061 -0.016580 0.008779
    42 -0.963866 -2.785145 -0.085350 0.178507 0.162851 -0.182687
    43 0.028479 -1.403067 -0.017167 -0.866992 -0.021392 -0.032095
    44 0.021413 -0.961687 0.020046 0.204098 0.000551 0.009024
    45 1.164475 -2.543940 -0.170330 -0.641109 -0.235285 0.274225
    46 0.024032 -1.148574 -0.009538 -1.265292 0.022124 0.061853
    47 0.014898 -0.903521 -0.012035 -1.137822 0.013722 0.056028
    48 -0.586770 -1.264477 0.200161 -0.316722 -1.034155 -2.553877
    49 1.561899 0.035243 0.016848 -0.016099 -0.006259 0.794269
    50 1.114041 0.044518 -0.005766 -0.025854 -0.034738 0.943911
    51 -0.139399 -0.111698 0.014397 0.285382 -0.030687 1.580508
    52 -3.338842 8.839177 -0.294122 1.581667 -0.011045 -1.336068
  time 15
    0 -8.176031 -13.945738 -8.988556 1.406557 -3.055398 -0.976837
    1 -3.157606 0.000000 -1.771385 0.000000 0.000000 0.000000
    2 1.347458 0.000000 -0.036606 0.000001 -3.141592 0.000000
    3 2.980681 -0.000001 -3.026972 0.000000 0.000000 0.000000
    4 3.096915 -0.000001 -3.559005 -3.141592 -1.570451 0.000000
    5 -2.772562 0.000000 -3.715392 0.000000 -0.478942 0.000000
    6 -3.886837 -16.028138 -5.531419 1.520891 -0.090417 0.057439
    7 -3.157606 0.000001 -1.771385 0.000000 0.000000 0.000000
    8 1.347458 0.000000 -0.036606 0.000001 -3.141592 0.000000
    9 2.980681 -0.000001 -3.026972 0.000000 0.000000 0.000000
    10 3.096915 -0.000002 -3.559005 -3.141592 -1.570451 0.000000
    11 -2.772562 -0.000001 -3.715392 0.000000 -0.478942 0.000000
    12 52.310982 27.697800 8.327048 0.986223 -1.014512 -2.903868
    13 0.000002 40.432781 -0.000015 0.000000 0.000000 0.000000
    14 -1.209821 2.932418 -4.390140 -0.174699 0.222770 -0.216143
    15 7.376451 -8.592683 -3.889725 6.125693 -3.021919 -0.768917
    16 8.468338 2.063161 -0.368563 1.567619 -3.119129 0.312582
    17 -0.138329 -8.432328 -0.201793 -0.405121 -0.091631 0.107490
    18 -0.488518 -2.755602 -0.228260 -0.741569 0.047688 -0.381112
    19 0.039887 -1.534479 0.014229 -1.576912 -0.011122 0.035284
    20 0.028786 -1.185109 -0.132487 -1.218645 -0.015041 0.026822
    21 0.250027 -2.820665 -0.238396 -0.290347 -0.034584 -0.286546
    22 -0.049759 -1.598510 0.034071 -1.543204 0.000539 -0.041457
    23 -0.034142 -1.171750 0.045718 -1.169340 0.006568 -0.030800
    24 0.957766 -2.746780 -0.090302 0.050684 -0.147200 0.082289
    25 -0.033420 -1.397129 -0.015163 -0.329486 0.006939 -0.015809
    26 -0.022360 -0.957436 0.003159 -0.558428 0.008018 -0.026857
    27 -1.180681 -2.507217 -0.193859 -0.806133 0.251644 -0.384136
    28 -0.024967 -1.127840 0.017597 -1.079262 0.002409 -0.046128
    29 -0.020057 -0.906594 0.029622 -1.001921 0.005369 -0.041023
    30 0.606948 -1.197277 0.185379 0.389364 -0.893516 -0.592401
    31 1.481238 -0.216323 0.067511 0.047551 -0.212834 -0.759113
    32 0.995299 -0.190791 0.047917 0.101937 -0.253896 -1.103464
    33 0.120153 -0.050270 -0.054489 0.287569 3.110905 1.561085
    34 -4.192764 -6.289886 -3.923278 0.099628 -3.505189 0.461839
    35 0.108663 -8.407448 -0.044522 -0.131276 -0.121387 0.176657
    36 0.447953 -2.798986 -0.200443 -0.735873 0.010098 0.254020
    37 -0.032909 -1.499736 0.028378 -1.435653 0.023358 -0.027754
    38 -0.027022 -1.135516 -0.020210 -1.403578 0.024892 -0.027133
    39 -0.249534 -2.846964 -0.174213 -0.314880 0.133839 0.144563
    40 0.043235 -1.656596 0.068667 -1.454198 -0.022453 0.008066
    41 0.031729 -1.137392 0.051025 -1.500061 -0.016580 0.008779
    42 -0.963866 -2.785145 -0.085350 0.178507 0.162851 -0.182687
    43 0.028479 -1.403067 -0.017167 -0.866992 -0.021392 -0.032095
    44 0.021413 -0.961687 0.020046 0.204098 0.000551 0.009024
    45 1.164475 -2.543940 -0.170330 -0.641109 -0.235285 0.274225
    46 0.024032 -1.148574 -0.009538 -1.265292 0.022124 0.061853
    47 0.014898 -0.903521 -0.012035 -1.137822 0.013722 0.056028
    48 -0.586770 -1.264477 0.200161 -0.316722 -1.034155 -2.553877
    49 1.561899 0.035243 0.016848 -0.016099 -0.006259 0.794269
    50 1.114041 0.044518 -0.005766 -0.025854 -0.034738 0.943911
    51 -0.139399 -0.111698 0.014397 0.285382 -0.030687 1.580508
    52 -3.506816 8.764956 -0.298029 1.581763 -0.011619 -1.315252
end
