version 1
nodes
  0 "root" -1
  1 "Bone01" 0
  2 "Bone_Lefthand" 1
  3 "Bone20" 2
  4 "Bone26" 3
  5 "Bone34" 3
  6 "Dummy01" 3
  7 "Bone12" 6
  8 "Bone02" 6
  9 "Bone_L_Upper" 1
  10 "Bone13" 2
  11 "Bone14" 10
  12 "Bone15" 11
  13 "Bone17" 2
  14 "Bone18" 13
  15 "Bone19" 14
  16 "Bone21" 2
  17 "Bone22" 16
  18 "Bone23" 17
  19 "Bone09" 2
  20 "Bone10" 19
  21 "Bone11" 20
  22 "Bone05" 2
  23 "Bone06" 22
  24 "Bone07" 23
  25 "Bone_Se_Hand-L" 2
  26 "Bone04" 0
  27 "Bone_Righthand" 26
  28 "Bone39" 27
  29 "Bone40" 28
  30 "Bone41" 29
  31 "Bone35" 27
  32 "Bone36" 31
  33 "Bone37" 32
  34 "Bone31" 27
  35 "Bone32" 34
  36 "Bone33" 35
  37 "Bone43" 27
  38 "Bone44" 37
  39 "Bone45" 38
  40 "Bone27" 27
  41 "Bone28" 40
  42 "Bone29" 41
  43 "Bone_Se_Hand-R" 27
  44 "Bone_R_Upper" 26
end
skeleton
  time 0
    0 -0.999830 1.628925 0.541027 0.000000 0.000000 0.000000
    1 8.634302 2.109626 -6.482104 1.213425 -1.012035 -1.566807
    2 -0.071918 -8.498730 -0.104137 0.154104 0.307521 -0.111971
    3 3.185790 -2.026945 1.468279 0.287571 -3.172304 1.561092
    4 2.577593 2.064427 0.000000 0.000000 0.000000 1.570796
    5 5.847807 -0.812363 -0.469308 0.000000 1.570796 0.000000
    6 6.633783 4.767243 0.000001 0.000000 0.000000 1.175716
    7 0.003682 -0.001831 0.000001 0.000000 0.000000 0.000000
    8 15.937986 10.449538 0.000000 0.000000 0.000000 0.000000
    9 1.257180 8.762585 -0.153713 -1.570562 0.002683 -1.566807
    10 -0.488518 -2.755602 -0.228260 -1.377081 -0.145312 -0.214898
    11 0.039887 -1.479790 0.029854 -1.805815 0.000000 0.000001
    12 0.028786 -1.075731 -0.023109 -0.515755 0.000000 0.000000
    13 0.250027 -2.820665 -0.238396 -1.129859 -0.041200 -0.009606
    14 -0.049759 -1.680544 0.100479 -1.799473 0.000000 -0.000002
    15 -0.034142 -1.148312 0.084782 -0.765238 0.000000 0.000000
    16 0.957766 -2.746780 -0.090302 0.008798 -0.162936 0.031144
    17 -0.033420 -1.397129 -0.011257 -1.014834 0.000000 -0.000001
    18 -0.022360 -0.957436 0.018784 -0.813633 0.000000 0.000000
    19 -1.180681 -2.507217 -0.193859 -1.383686 -0.013084 -0.338762
    20 -0.024967 -1.123934 0.017597 -1.695664 0.000000 0.000001
    21 -0.020057 -0.890968 0.010090 -0.437221 0.000000 0.000000
    22 0.583510 -1.197277 0.185379 0.359738 -0.974933 -0.637718
    23 1.535927 0.010246 0.005009 -0.002964 -0.012979 -1.127120
    24 1.100771 0.004527 -0.010679 -0.011497 0.011431 -0.612087
    25 0.120153 -0.050270 -0.054489 0.287569 3.110905 1.561085
    26 -4.544337 -3.832780 -10.599263 -0.578862 -4.166953 -0.129443
    27 0.096944 -8.450418 -0.009365 0.240105 -0.771786 0.094078
    28 0.447953 -2.798986 -0.200443 -0.695467 -0.034881 0.226000
    29 -0.032909 -1.480204 0.004940 -1.177584 0.000000 0.000002
    30 -0.027022 -1.076920 -0.020210 -0.605433 0.000000 0.000000
    31 -0.249534 -2.846964 -0.174213 -0.442433 -0.064494 0.180481
    32 0.043235 -1.683941 0.096012 -1.079276 0.002823 -0.000167
    33 0.031729 -1.160830 0.058838 -0.570977 0.000642 0.008372
    34 -0.963866 -2.785145 -0.085350 -0.261246 -0.017721 0.107472
    35 0.028479 -1.403067 0.006271 -0.758320 0.000000 0.000000
    36 0.021413 -0.957781 0.020046 -0.178896 0.000000 0.000000
    37 1.164475 -2.543940 -0.170330 -0.601591 -0.163533 0.353946
    38 0.024032 -1.129042 0.017807 -1.621756 0.000000 0.000001
    39 0.014898 -0.883989 -0.019848 -0.655917 0.000000 0.000000
    40 -0.586770 -1.264477 0.200161 -0.071886 -0.505944 -2.704355
    41 1.522835 0.058681 0.016848 0.001410 0.008985 0.589023
    42 1.117947 0.048424 -0.005766 0.004838 -0.024731 -0.137603
    43 -0.139399 -0.111698 0.014397 0.834337 0.224429 1.629010
    44 -1.393470 8.839177 -0.239433 1.580804 -0.005023 -1.566847
  time 1
    0 -0.999830 1.628925 0.541027 0.000000 0.000000 0.000000
    1 8.466328 2.406510 -6.048498 1.283936 -0.989810 -1.634617
    2 -0.071918 -8.498730 -0.104137 0.151843 0.319254 -0.119629
    3 3.185790 -2.026945 1.468279 0.287571 -3.172304 1.561092
    4 2.577593 2.064427 0.000000 0.000000 0.000000 1.570796
    5 5.847807 -0.812363 -0.469308 0.000000 1.570796 0.000000
    6 6.633783 4.767243 0.000001 0.000000 0.000000 1.175716
    7 0.003682 -0.001831 0.000001 0.000000 0.000000 0.000000
    8 15.937986 10.449538 0.000000 0.000000 0.000000 0.000000
    9 1.257180 8.762585 -0.153713 -1.570562 0.002683 -1.566807
    10 -0.488518 -2.755602 -0.228260 -1.377081 -0.145312 -0.214898
    11 0.039887 -1.479790 0.029854 -1.805815 0.000000 0.000001
    12 0.028786 -1.075731 -0.023109 -0.515755 0.000000 0.000000
    13 0.250027 -2.820665 -0.238396 -1.129859 -0.041200 -0.009606
    14 -0.049759 -1.680544 0.100479 -1.799473 0.000000 -0.000002
    15 -0.034142 -1.148312 0.084782 -0.765238 0.000000 0.000000
    16 0.957766 -2.746780 -0.090302 0.008798 -0.162936 0.031144
    17 -0.033420 -1.397129 -0.011257 -1.014834 0.000000 -0.000001
    18 -0.022360 -0.957436 0.018784 -0.813633 0.000000 0.000000
    19 -1.180681 -2.507217 -0.193859 -1.383686 -0.013084 -0.338762
    20 -0.024967 -1.123934 0.017597 -1.695664 0.000000 0.000001
    21 -0.020057 -0.890968 0.010090 -0.437221 0.000000 0.000000
    22 0.583510 -1.197277 0.185379 0.359738 -0.974933 -0.637718
    23 1.535927 0.010246 0.005009 -0.002964 -0.012979 -1.127120
    24 1.100771 0.004527 -0.010679 -0.011497 0.011431 -0.612087
    25 0.120153 -0.050270 -0.054489 0.287569 3.110905 1.561085
    26 -4.520899 -3.379641 -10.704735 -0.655733 -4.192661 -0.195613
    27 0.096944 -8.450418 -0.009365 0.240105 -0.771786 0.094078
    28 0.447953 -2.798986 -0.200443 -0.700975 -0.034881 0.226000
    29 -0.032909 -1.480204 0.004940 -1.123475 0.000000 0.000002
    30 -0.027022 -1.076920 -0.020210 -0.605433 0.000000 0.000000
    31 -0.249534 -2.846964 -0.174213 -0.447731 -0.064494 0.180481
    32 0.043235 -1.683941 0.096012 -1.039026 0.002823 -0.000167
    33 0.031729 -1.160830 0.058838 -0.570977 0.000642 0.008372
    34 -0.963866 -2.785145 -0.085350 -0.265130 -0.017721 0.107472
    35 0.028479 -1.403067 0.006271 -0.742685 0.000000 0.000000
    36 0.021413 -0.957781 0.020046 -0.174278 0.000000 0.000000
    37 1.164475 -2.543940 -0.170330 -0.603980 -0.163533 0.353946
    38 0.024032 -1.129042 0.017807 -1.554879 0.000000 0.000001
    39 0.014898 -0.883989 -0.019848 -0.655917 0.000000 0.000000
    40 -0.586770 -1.264477 0.200161 -0.073597 -0.503745 -2.702388
    41 1.522835 0.058681 0.016848 0.001410 0.008985 0.586930
    42 1.117947 0.048424 -0.005766 0.004814 -0.024743 -0.136669
    43 -0.139399 -0.111698 0.014397 0.834337 0.224429 1.629010
    44 -1.393470 8.839177 -0.239433 1.580804 -0.005023 -1.566847
  time 2
    0 -0.999830 1.628925 0.541027 0.000000 0.000000 0.000000
    1 8.306167 2.562764 -6.079748 1.367578 -1.026751 -1.714634
    2 -0.071918 -8.498730 -0.104137 0.145858 0.350103 -0.139763
    3 3.185790 -2.026945 1.468279 0.287571 -3.172304 1.561092
    4 2.577593 2.064427 0.000000 0.000000 0.000000 1.570796
    5 5.847807 -0.812363 -0.469308 0.000000 1.570796 0.000000
    6 6.633783 4.767243 0.000001 0.000000 0.000000 1.175716
    7 0.003682 -0.001831 0.000001 0.000000 0.000000 0.000000
    8 15.937986 10.449538 0.000000 0.000000 0.000000 0.000000
    9 1.257180 8.762585 -0.153713 -1.570562 0.002683 -1.566807
    10 -0.488518 -2.755602 -0.228260 -1.377081 -0.145312 -0.214898
    11 0.039887 -1.479790 0.029854 -1.805815 0.000000 0.000001
    12 0.028786 -1.075731 -0.023109 -0.515755 0.000000 0.000000
    13 0.250027 -2.820665 -0.238396 -1.129859 -0.041200 -0.009606
    14 -0.049759 -1.680544 0.100479 -1.799473 0.000000 -0.000002
    15 -0.034142 -1.148312 0.084782 -0.765238 0.000000 0.000000
    16 0.957766 -2.746780 -0.090302 0.008798 -0.162936 0.031144
    17 -0.033420 -1.397129 -0.011257 -1.014834 0.000000 -0.000001
    18 -0.022360 -0.957436 0.018784 -0.813633 0.000000 0.000000
    19 -1.180681 -2.507217 -0.193859 -1.383686 -0.013084 -0.338762
    20 -0.024967 -1.123934 0.017597 -1.695664 0.000000 0.000001
    21 -0.020057 -0.890968 0.010090 -0.437221 0.000000 0.000000
    22 0.583510 -1.197277 0.185379 0.359738 -0.974933 -0.637718
    23 1.535927 0.010246 0.005009 -0.002964 -0.012979 -1.127120
    24 1.100771 0.004527 -0.010679 -0.011497 0.011431 -0.612087
    25 0.120153 -0.050270 -0.054489 0.287569 3.110905 1.561085
    26 -4.372457 -3.418705 -10.778956 -0.650682 -4.216185 -0.177376
    27 0.096944 -8.450418 -0.009365 0.240105 -0.771786 0.094078
    28 0.447953 -2.798986 -0.200443 -0.715417 -0.034881 0.226000
    29 -0.032909 -1.480204 0.004940 -0.988174 0.000000 0.000002
    30 -0.027022 -1.076920 -0.020210 -0.605433 0.000000 0.000000
    31 -0.249534 -2.846964 -0.174213 -0.461632 -0.064494 0.180481
    32 0.043235 -1.683941 0.096012 -0.938426 0.002823 -0.000167
    33 0.031729 -1.160830 0.058838 -0.570977 0.000642 0.008372
    34 -0.963866 -2.785145 -0.085350 -0.275432 -0.017721 0.107472
    35 0.028479 -1.403067 0.006271 -0.703671 0.000000 0.000000
    36 0.021413 -0.957781 0.020046 -0.162183 0.000000 0.000000
    37 1.164475 -2.543940 -0.170330 -0.610920 -0.163533 0.353946
    38 0.024032 -1.129042 0.017807 -1.387686 0.000000 0.000001
    39 0.014898 -0.883989 -0.019848 -0.655917 0.000000 0.000000
    40 -0.586770 -1.264477 0.200161 -0.078231 -0.497993 -2.697021
    41 1.522835 0.058681 0.016848 0.001410 0.008985 0.581423
    42 1.117947 0.048424 -0.005766 0.004743 -0.024755 -0.133867
    43 -0.139399 -0.111698 0.014397 0.834337 0.224429 1.629010
    44 -1.393470 8.839177 -0.239433 1.580804 -0.005023 -1.566847
  time 3
    0 -0.999830 1.628925 0.541027 0.000000 0.000000 0.000000
    1 8.149912 2.605734 -6.466479 1.489188 -1.105151 -1.826791
    2 -0.071918 -8.498730 -0.104137 0.137438 0.393547 -0.168131
    3 3.185790 -2.026945 1.468279 0.287571 -3.172304 1.561092
    4 2.577593 2.064427 0.000000 0.000000 0.000000 1.570796
    5 5.847807 -0.812363 -0.469308 0.000000 1.570796 0.000000
    6 6.633783 4.767243 0.000001 0.000000 0.000000 1.175716
    7 0.003682 -0.001831 0.000001 0.000000 0.000000 0.000000
    8 15.937986 10.449538 0.000000 0.000000 0.000000 0.000000
    9 1.257180 8.762585 -0.153713 -1.570562 0.002683 -1.566807
    10 -0.488518 -2.755602 -0.228260 -1.377081 -0.145312 -0.214898
    11 0.039887 -1.479790 0.029854 -1.805815 0.000000 0.000001
    12 0.028786 -1.075731 -0.023109 -0.515755 0.000000 0.000000
    13 0.250027 -2.820665 -0.238396 -1.129859 -0.041200 -0.009606
    14 -0.049759 -1.680544 0.100479 -1.799473 0.000000 -0.000002
    15 -0.034142 -1.148312 0.084782 -0.765238 0.000000 0.000000
    16 0.957766 -2.746780 -0.090302 0.008798 -0.162936 0.031144
    17 -0.033420 -1.397129 -0.011257 -1.014834 0.000000 -0.000001
    18 -0.022360 -0.957436 0.018784 -0.813633 0.000000 0.000000
    19 -1.180681 -2.507217 -0.193859 -1.383686 -0.013084 -0.338762
    20 -0.024967 -1.123934 0.017597 -1.695664 0.000000 0.000001
    21 -0.020057 -0.890968 0.010090 -0.437221 0.000000 0.000000
    22 0.583510 -1.197277 0.185379 0.359738 -0.974933 -0.637718
    23 1.535927 0.010246 0.005009 -0.002964 -0.012979 -1.127120
    24 1.100771 0.004527 -0.010679 -0.011497 0.011431 -0.612087
    25 0.120153 -0.050270 -0.054489 0.287569 3.110905 1.561085
    26 -4.134168 -3.871843 -10.810207 -0.569653 -4.237692 -0.078837
    27 0.096944 -8.450418 -0.009365 0.240105 -0.771786 0.094078
    28 0.447953 -2.798986 -0.200443 -0.735758 -0.034881 0.226000
    29 -0.032909 -1.480204 0.004940 -0.812304 0.000000 0.000002
    30 -0.027022 -1.076920 -0.020210 -0.605433 0.000000 0.000000
    31 -0.249534 -2.846964 -0.174213 -0.481243 -0.064494 0.180481
    32 0.043235 -1.683941 0.096012 -0.807653 0.002823 -0.000167
    33 0.031729 -1.160830 0.058838 -0.570977 0.000642 0.008372
    34 -0.963866 -2.785145 -0.085350 -0.289897 -0.017721 0.107472
    35 0.028479 -1.403067 0.006271 -0.652918 0.000000 0.000000
    36 0.021413 -0.957781 0.020046 -0.145140 0.000000 0.000000
    37 1.164475 -2.543940 -0.170330 -0.622007 -0.163533 0.353946
    38 0.024032 -1.129042 0.017807 -1.170336 0.000000 0.000001
    39 0.014898 -0.883989 -0.019848 -0.655917 0.000000 0.000000
    40 -0.586770 -1.264477 0.200161 -0.085055 -0.489873 -2.689074
    41 1.522835 0.058681 0.016848 0.001410 0.008985 0.573662
    42 1.117947 0.048424 -0.005766 0.004623 -0.024767 -0.129231
    43 -0.139399 -0.111698 0.014397 0.834337 0.224429 1.629010
    44 -1.393470 8.839177 -0.239433 1.580804 -0.005023 -1.566847
  time 4
    0 -0.999830 1.628925 0.541027 0.000000 0.000000 0.000000
    1 8.005376 2.562764 -7.099311 4.829548 -1.937204 1.133842
    2 -0.071918 -8.498730 -0.104137 0.127853 0.443031 -0.200429
    3 3.185790 -2.026945 1.468279 0.287571 -3.172304 1.561092
    4 2.577593 2.064427 0.000000 0.000000 0.000000 1.570796
    5 5.847807 -0.812363 -0.469308 0.000000 1.570796 0.000000
    6 6.633783 4.767243 0.000001 0.000000 0.000000 1.175716
    7 0.003682 -0.001831 0.000001 0.000000 0.000000 0.000000
    8 15.937986 10.449538 0.000000 0.000000 0.000000 0.000000
    9 1.257180 8.762585 -0.153713 -1.570562 0.002683 -1.566807
    10 -0.488518 -2.755602 -0.228260 -1.377081 -0.145312 -0.214898
    11 0.039887 -1.479790 0.029854 -1.805815 0.000000 0.000001
    12 0.028786 -1.075731 -0.023109 -0.515755 0.000000 0.000000
    13 0.250027 -2.820665 -0.238396 -1.129859 -0.041200 -0.009606
    14 -0.049759 -1.680544 0.100479 -1.799473 0.000000 -0.000002
    15 -0.034142 -1.148312 0.084782 -0.765238 0.000000 0.000000
    16 0.957766 -2.746780 -0.090302 0.008798 -0.162936 0.031144
    17 -0.033420 -1.397129 -0.011257 -1.014834 0.000000 -0.000001
    18 -0.022360 -0.957436 0.018784 -0.813633 0.000000 0.000000
    19 -1.180681 -2.507217 -0.193859 -1.383686 -0.013084 -0.338762
    20 -0.024967 -1.123934 0.017597 -1.695664 0.000000 0.000001
    21 -0.020057 -0.890968 0.010090 -0.437221 0.000000 0.000000
    22 0.583510 -1.197277 0.185379 0.359738 -0.974933 -0.637718
    23 1.535927 0.010246 0.005009 -0.002964 -0.012979 -1.127120
    24 1.100771 0.004527 -0.010679 -0.011497 0.011431 -0.612087
    25 0.120153 -0.050270 -0.054489 0.287569 3.110905 1.561085
    26 -3.825565 -4.578896 -10.759424 -0.424081 -4.248698 0.087590
    27 0.096944 -8.450418 -0.009365 0.240105 -0.771786 0.094078
    28 0.447953 -2.798986 -0.200443 -0.758918 -0.034881 0.226000
    29 -0.032909 -1.480204 0.004940 -0.636381 0.000000 0.000002
    30 -0.027022 -1.076920 -0.020210 -0.605433 0.000000 0.000000
    31 -0.249534 -2.846964 -0.174213 -0.503538 -0.064494 0.180481
    32 0.043235 -1.683941 0.096012 -0.676825 0.002823 -0.000167
    33 0.031729 -1.160830 0.058838 -0.570977 0.000642 0.008372
    34 -0.963866 -2.785145 -0.085350 -0.306407 -0.017721 0.107472
    35 0.028479 -1.403067 0.006271 -0.602213 0.000000 0.000000
    36 0.021413 -0.957781 0.020046 -0.125751 0.000000 0.000000
    37 1.164475 -2.543940 -0.170330 -0.636880 -0.163533 0.353946
    38 0.024032 -1.129042 0.017807 -0.952986 0.000000 0.000001
    39 0.014898 -0.883989 -0.019848 -0.655917 0.000000 0.000000
    40 -0.586770 -1.264477 0.200161 -0.093299 -0.480618 -2.679322
    41 1.522835 0.058681 0.016848 0.001410 0.008985 0.564806
    42 1.117947 0.048424 -0.005766 0.004467 -0.024791 -0.122726
    43 -0.139399 -0.111698 0.014397 0.834337 0.224429 1.629010
    44 -1.393470 8.839177 -0.239433 1.580804 -0.005023 -1.566847
  time 5
    0 -0.999830 1.628925 0.541027 0.000000 0.000000 0.000000
    1 7.872560 2.469011 -7.864959 5.175345 -1.844577 0.815013
    2 -0.071918 -8.498730 -0.104137 0.118337 0.492048 -0.232428
    3 3.185790 -2.026945 1.468279 0.287571 -3.172304 1.561092
    4 2.577593 2.064427 0.000000 0.000000 0.000000 1.570796
    5 5.847807 -0.812363 -0.469308 0.000000 1.570796 0.000000
    6 6.633783 4.767243 0.000001 0.000000 0.000000 1.175716
    7 0.003682 -0.001831 0.000001 0.000000 0.000000 0.000000
    8 15.937986 10.449538 0.000000 0.000000 0.000000 0.000000
    9 1.257180 8.762585 -0.153713 -1.570562 0.002683 -1.566807
    10 -0.488518 -2.755602 -0.228260 -1.377081 -0.145312 -0.214898
    11 0.039887 -1.479790 0.029854 -1.805815 0.000000 0.000001
    12 0.028786 -1.075731 -0.023109 -0.515755 0.000000 0.000000
    13 0.250027 -2.820665 -0.238396 -1.129859 -0.041200 -0.009606
    14 -0.049759 -1.680544 0.100479 -1.799473 0.000000 -0.000002
    15 -0.034142 -1.148312 0.084782 -0.765238 0.000000 0.000000
    16 0.957766 -2.746780 -0.090302 0.008798 -0.162936 0.031144
    17 -0.033420 -1.397129 -0.011257 -1.014834 0.000000 -0.000001
    18 -0.022360 -0.957436 0.018784 -0.813633 0.000000 0.000000
    19 -1.180681 -2.507217 -0.193859 -1.383686 -0.013084 -0.338762
    20 -0.024967 -1.123934 0.017597 -1.695664 0.000000 0.000001
    21 -0.020057 -0.890968 0.010090 -0.437221 0.000000 0.000000
    22 0.583510 -1.197277 0.185379 0.359738 -0.974933 -0.637718
    23 1.535927 0.010246 0.005009 -0.002964 -0.012979 -1.127120
    24 1.100771 0.004527 -0.010679 -0.011497 0.011431 -0.612087
    25 0.120153 -0.050270 -0.054489 0.287569 3.110905 1.561085
    26 -3.485711 -5.360170 -10.571918 -0.241819 -4.239037 0.291256
    27 0.096944 -8.450418 -0.009365 0.240105 -0.771786 0.094078
    28 0.447953 -2.798986 -0.200443 -0.781904 -0.034881 0.226000
    29 -0.032909 -1.480204 0.004940 -0.501081 0.000000 0.000002
    30 -0.027022 -1.076920 -0.020210 -0.605433 0.000000 0.000000
    31 -0.249534 -2.846964 -0.174213 -0.525627 -0.064494 0.180481
    32 0.043235 -1.683941 0.096012 -0.576226 0.002823 -0.000167
    33 0.031729 -1.160830 0.058838 -0.570977 0.000642 0.008372
    34 -0.963866 -2.785145 -0.085350 -0.322745 -0.017721 0.107472
    35 0.028479 -1.403067 0.006271 -0.563150 0.000000 0.000000
    36 0.021413 -0.957781 0.020046 -0.106545 0.000000 0.000000
    37 1.164475 -2.543940 -0.170330 -0.655133 -0.163533 0.353946
    38 0.024032 -1.129042 0.017807 -0.785793 0.000000 0.000001
    39 0.014898 -0.883989 -0.019848 -0.655917 0.000000 0.000000
    40 -0.586770 -1.264477 0.200161 -0.102232 -0.471459 -2.668571
    41 1.522835 0.058681 0.016848 0.001410 0.008985 0.556046
    42 1.117947 0.048424 -0.005766 0.004251 -0.024814 -0.114353
    43 -0.139399 -0.111698 0.014397 0.834337 0.224429 1.629010
    44 -1.393470 8.839177 -0.239433 1.580804 -0.005023 -1.566847
  time 6
    0 -0.999830 1.628925 0.541027 0.000000 0.000000 0.000000
    1 7.763181 2.347914 -8.646233 5.718115 -1.794692 0.305822
    2 -0.071918 -8.498730 -0.104137 0.110213 0.534042 -0.259849
    3 3.185790 -2.026945 1.468279 0.287571 -3.172304 1.561044
    4 2.577593 2.064427 0.000000 0.000000 0.000000 1.570796
    5 5.847807 -0.812363 -0.469308 0.000000 1.570796 0.000000
    6 6.633783 4.767243 0.000001 0.000000 0.000000 1.175716
    7 0.003682 -0.001831 0.000001 0.000000 0.000000 0.000000
    8 15.937986 10.449538 0.000000 0.000000 0.000000 0.000000
    9 1.257180 8.762585 -0.153713 -1.570562 0.002683 -1.566807
    10 -0.488518 -2.755602 -0.228260 -1.377081 -0.145312 -0.214898
    11 0.039887 -1.479790 0.029854 -1.805815 0.000000 0.000001
    12 0.028786 -1.075731 -0.023109 -0.515755 0.000000 0.000000
    13 0.250027 -2.820665 -0.238396 -1.129859 -0.041200 -0.009606
    14 -0.049759 -1.680544 0.100479 -1.799473 0.000000 -0.000002
    15 -0.034142 -1.148312 0.084782 -0.765238 0.000000 0.000000
    16 0.957766 -2.746780 -0.090302 0.008798 -0.162936 0.031144
    17 -0.033420 -1.397129 -0.011257 -1.014834 0.000000 -0.000001
    18 -0.022360 -0.957436 0.018784 -0.813633 0.000000 0.000000
    19 -1.180681 -2.507217 -0.193859 -1.383686 -0.013084 -0.338762
    20 -0.024967 -1.123934 0.017597 -1.695664 0.000000 0.000001
    21 -0.020057 -0.890968 0.010090 -0.437221 0.000000 0.000000
    22 0.583510 -1.197277 0.185379 0.359738 -0.974933 -0.637718
    23 1.535927 0.010246 0.005009 -0.002964 -0.012979 -1.127120
    24 1.100771 0.004527 -0.010679 -0.011497 0.011431 -0.612087
    25 0.120153 -0.050270 -0.054489 0.287569 3.110905 1.561085
    26 -3.149763 -6.063316 -10.247690 -0.063568 -4.206103 0.486710
    27 0.096944 -8.450418 -0.009365 0.240105 -0.771786 0.094078
    28 0.447953 -2.798986 -0.200443 -0.801551 -0.034881 0.226000
    29 -0.032909 -1.480204 0.004940 -0.446971 0.000000 0.000002
    30 -0.027022 -1.076920 -0.020210 -0.605433 0.000000 0.000000
    31 -0.249534 -2.846964 -0.174213 -0.544585 -0.064494 0.180481
    32 0.043235 -1.683941 0.096012 -0.535975 0.002823 -0.000167
    33 0.031729 -1.160830 0.058838 -0.570977 0.000642 0.008372
    34 -0.963866 -2.785145 -0.085350 -0.336758 -0.017721 0.107472
    35 0.028479 -1.403067 0.006271 -0.547564 0.000000 0.000000
    36 0.021413 -0.957781 0.020046 -0.090052 0.000000 0.000000
    37 1.164475 -2.543940 -0.170330 -0.676360 -0.163533 0.353946
    38 0.024032 -1.129042 0.017807 -0.718916 0.000000 0.000001
    39 0.014898 -0.883989 -0.019848 -0.655917 0.000000 0.000000
    40 -0.586770 -1.264477 0.200161 -0.111144 -0.463605 -2.657643
    41 1.522835 0.058681 0.016848 0.001410 0.008985 0.548543
    42 1.117947 0.048424 -0.005766 0.003988 -0.024826 -0.104112
    43 -0.139399 -0.111698 0.014397 0.834337 0.224429 1.629010
    44 -1.393470 8.839177 -0.239433 1.580804 -0.005023 -1.566847
  time 7
    0 -0.999830 1.628925 0.541027 0.000000 0.000000 0.000000
    1 7.665522 2.242442 -9.294690 6.256794 -1.798355 -0.196502
    2 -0.071918 -8.498730 -0.104137 0.102106 0.575808 -0.287114
    3 3.185790 -2.026945 1.468279 0.287571 -3.172304 1.561092
    4 2.577593 2.064427 0.000000 0.000000 0.000000 1.570796
    5 5.847807 -0.812363 -0.469308 0.000000 1.570796 0.000000
    6 6.633783 4.767243 0.000001 0.000000 0.000000 1.175716
    7 0.003682 -0.001831 0.000001 0.000000 0.000000 0.000000
    8 15.937986 10.449538 0.000000 0.000000 0.000000 0.000000
    9 1.257180 8.762585 -0.153713 -1.570562 0.002683 -1.566807
    10 -0.488518 -2.755602 -0.228260 -1.377081 -0.145312 -0.214898
    11 0.039887 -1.479790 0.029854 -1.805815 0.000000 0.000001
    12 0.028786 -1.075731 -0.023109 -0.515755 0.000000 0.000000
    13 0.250027 -2.820665 -0.238396 -1.129859 -0.041200 -0.009606
    14 -0.049759 -1.680544 0.100479 -1.799473 0.000000 -0.000002
    15 -0.034142 -1.148312 0.084782 -0.765238 0.000000 0.000000
    16 0.957766 -2.746780 -0.090302 0.008798 -0.162936 0.031144
    17 -0.033420 -1.397129 -0.011257 -1.014834 0.000000 -0.000001
    18 -0.022360 -0.957436 0.018784 -0.813633 0.000000 0.000000
    19 -1.180681 -2.507217 -0.193859 -1.383686 -0.013084 -0.338762
    20 -0.024967 -1.123934 0.017597 -1.695664 0.000000 0.000001
    21 -0.020057 -0.890968 0.010090 -0.437221 0.000000 0.000000
    22 0.583510 -1.197277 0.185379 0.359738 -0.974933 -0.637718
    23 1.535927 0.010246 0.005009 -0.002964 -0.012979 -1.127120
    24 1.100771 0.004527 -0.010679 -0.011497 0.011431 -0.612087
    25 0.120153 -0.050270 -0.054489 0.287569 3.110905 1.561085
    26 -2.790377 -6.594583 -9.669547 0.087128 -4.207783 0.672329
    27 0.096944 -8.450418 -0.009365 0.404318 -0.821985 -0.089995
    28 0.447953 -2.798986 -0.200443 -0.821111 -0.034881 0.226000
    29 -0.032909 -1.480204 0.004940 -0.541861 0.000000 0.000002
    30 -0.027022 -1.076920 -0.020210 -0.605433 0.000000 0.000000
    31 -0.249534 -2.846964 -0.174213 -0.563405 -0.064494 0.180481
    32 0.043235 -1.683941 0.096012 -0.620529 0.002823 -0.000167
    33 0.031729 -1.160830 0.058838 -0.570977 0.000642 0.008372
    34 -0.963866 -2.785145 -0.085350 -0.350667 -0.017721 0.107472
    35 0.028479 -1.403067 0.006271 -0.565892 0.000000 0.000000
    36 0.021413 -0.957781 0.020046 -0.073705 0.000000 0.000000
    37 1.164475 -2.543940 -0.170330 -0.698038 -0.163533 0.353946
    38 0.024032 -1.129042 0.017807 -0.825952 0.000000 0.000001
    39 0.014898 -0.883989 -0.019848 -0.655917 0.000000 0.000000
    40 -0.586770 -1.264477 0.200161 -0.120807 -0.455800 -2.645876
    41 1.522835 0.058681 0.016848 0.001410 0.008985 0.541104
    42 1.117947 0.048424 -0.005766 0.003736 -0.024850 -0.093871
    43 -0.139399 -0.111698 0.014397 0.834337 0.224429 1.629010
    44 -1.393470 8.839177 -0.239433 1.580804 -0.005023 -1.566847
  time 8
    0 -0.999830 1.628925 0.541027 0.000000 0.000000 0.000000
    1 7.599114 2.172127 -9.720485 0.336942 -1.818261 -0.527252
    2 -0.071918 -8.498730 -0.104137 0.093442 0.620487 -0.316272
    3 3.185790 -2.026945 1.468279 0.287571 -3.172304 1.561092
    4 2.577593 2.064427 0.000000 0.000000 0.000000 1.570796
    5 5.847807 -0.812363 -0.469308 0.000000 1.570796 0.000000
    6 6.633783 4.767243 0.000001 0.000000 0.000000 1.175716
    7 0.003682 -0.001831 0.000001 0.000000 0.000000 0.000000
    8 15.937986 10.449538 0.000000 0.000000 0.000000 0.000000
    9 1.257180 8.762585 -0.153713 -1.570562 0.002683 -1.566807
    10 -0.488518 -2.755602 -0.228260 -1.377081 -0.145312 -0.214898
    11 0.039887 -1.479790 0.029854 -1.805815 0.000000 0.000001
    12 0.028786 -1.075731 -0.023109 -0.515755 0.000000 0.000000
    13 0.250027 -2.820665 -0.238396 -1.129859 -0.041200 -0.009606
    14 -0.049759 -1.680544 0.100479 -1.799473 0.000000 -0.000002
    15 -0.034142 -1.148312 0.084782 -0.765238 0.000000 0.000000
    16 0.957766 -2.746780 -0.090302 0.008798 -0.162936 0.031144
    17 -0.033420 -1.397129 -0.011257 -1.014834 0.000000 -0.000001
    18 -0.022360 -0.957436 0.018784 -0.813633 0.000000 0.000000
    19 -1.180681 -2.507217 -0.193859 -1.383686 -0.013084 -0.338762
    20 -0.024967 -1.123934 0.017597 -1.695664 0.000000 0.000001
    21 -0.020057 -0.890968 0.010090 -0.437221 0.000000 0.000000
    22 0.583510 -1.197277 0.185379 0.359738 -0.974933 -0.637718
    23 1.535927 0.010246 0.005009 -0.002964 -0.012979 -1.127120
    24 1.100771 0.004527 -0.010679 -0.011497 0.011431 -0.612087
    25 0.120153 -0.050270 -0.054489 0.287569 3.110905 1.561085
    26 -2.376302 -6.914905 -8.884367 0.226387 -4.263401 0.868929
    27 0.096944 -8.450418 -0.009365 0.765556 -0.932442 -0.495075
    28 0.447953 -2.798986 -0.200443 -0.842059 -0.034881 0.226000
    29 -0.032909 -1.480204 0.004940 -0.773057 0.000000 0.000002
    30 -0.027022 -1.076920 -0.020210 -0.605433 0.000000 0.000000
    31 -0.249534 -2.846964 -0.174213 -0.583567 -0.064494 0.180481
    32 0.043235 -1.683941 0.096012 -0.826656 0.002823 -0.000167
    33 0.031729 -1.160830 0.058838 -0.570977 0.000642 0.008372
    34 -0.963866 -2.785145 -0.085350 -0.365582 -0.017721 0.107472
    35 0.028479 -1.403067 0.006271 -0.614673 0.000000 0.000000
    36 0.021413 -0.957781 0.020046 -0.056185 0.000000 0.000000
    37 1.164475 -2.543940 -0.170330 -0.724133 -0.163533 0.353946
    38 0.024032 -1.129042 0.017807 -1.079582 0.000000 0.000001
    39 0.014898 -0.883989 -0.019848 -0.655917 0.000000 0.000000
    40 -0.586770 -1.264477 0.200161 -0.132223 -0.447462 -2.631933
    41 1.522835 0.058681 0.016848 0.001410 0.008985 0.533117
    42 1.117947 0.048424 -0.005766 0.003424 -0.024862 -0.081450
    43 -0.139399 -0.111698 0.014397 0.834337 0.224429 1.629010
    44 -1.393470 8.839177 -0.239433 1.580804 -0.005023 -1.566847
  time 9
    0 -0.999830 1.628925 0.541027 0.000000 0.000000 0.000000
    1 7.575675 2.136970 -9.888458 0.552947 -1.825282 -0.720285
    2 -0.071918 -8.498730 -0.104137 0.086553 0.656093 -0.339522
    3 3.185790 -2.026945 1.468279 0.287571 -3.172304 1.561092
    4 2.577593 2.064427 0.000000 0.000000 0.000000 1.570796
    5 5.847807 -0.812363 -0.469308 0.000000 1.570796 0.000000
    6 6.633783 4.767243 0.000001 0.000000 0.000000 1.175716
    7 0.003682 -0.001831 0.000001 0.000000 0.000000 0.000000
    8 15.937986 10.449538 0.000000 0.000000 0.000000 0.000000
    9 1.257180 8.762585 -0.153713 -1.570562 0.002683 -1.566807
    10 -0.488518 -2.755602 -0.228260 -1.377081 -0.145312 -0.214898
    11 0.039887 -1.479790 0.029854 -1.805815 0.000000 0.000001
    12 0.028786 -1.075731 -0.023109 -0.515755 0.000000 0.000000
    13 0.250027 -2.820665 -0.238396 -1.129859 -0.041200 -0.009606
    14 -0.049759 -1.680544 0.100479 -1.799473 0.000000 -0.000002
    15 -0.034142 -1.148312 0.084782 -0.765238 0.000000 0.000000
    16 0.957766 -2.746780 -0.090302 0.008798 -0.162936 0.031144
    17 -0.033420 -1.397129 -0.011257 -1.014834 0.000000 -0.000001
    18 -0.022360 -0.957436 0.018784 -0.813633 0.000000 0.000000
    19 -1.180681 -2.507217 -0.193859 -1.383686 -0.013084 -0.338762
    20 -0.024967 -1.123934 0.017597 -1.695664 0.000000 0.000001
    21 -0.020057 -0.890968 0.010090 -0.437221 0.000000 0.000000
    22 0.583510 -1.197277 0.185379 0.359738 -0.974933 -0.637718
    23 1.535927 0.010246 0.005009 -0.002964 -0.012979 -1.127120
    24 1.100771 0.004527 -0.010679 -0.011497 0.011431 -0.612087
    25 0.120153 -0.050270 -0.054489 0.287569 3.110905 1.561085
    26 -1.985665 -7.067253 -8.134344 0.339947 -4.328932 1.031728
    27 0.096944 -8.450418 -0.009365 1.126833 -1.042865 -0.900123
    28 0.447953 -2.798986 -0.200443 -0.858714 -0.034881 0.226000
    29 -0.032909 -1.480204 0.004940 -1.060161 0.000000 0.000002
    30 -0.027022 -1.076920 -0.020210 -0.605433 0.000000 0.000000
    31 -0.249534 -2.846964 -0.174213 -0.599600 -0.064494 0.180481
    32 0.043235 -1.683941 0.096012 -1.083000 0.002823 -0.000167
    33 0.031729 -1.160830 0.058838 -0.570977 0.000642 0.008372
    34 -0.963866 -2.785145 -0.085350 -0.377445 -0.017721 0.107472
    35 0.028479 -1.403067 0.006271 -0.684620 0.000000 0.000000
    36 0.021413 -0.957781 0.020046 -0.042221 0.000000 0.000000
    37 1.164475 -2.543940 -0.170330 -0.764244 -0.163533 0.353946
    38 0.024032 -1.129042 0.017807 -1.378562 0.000000 0.000001
    39 0.014898 -0.883989 -0.019848 -0.655917 0.000000 0.000000
    40 -0.586770 -1.264477 0.200161 -0.144850 -0.440793 -2.615637
    41 1.522835 0.058681 0.016848 0.001410 0.008985 0.526741
    42 1.117947 0.048424 -0.005766 0.002909 -0.024886 -0.060829
    43 -0.139399 -0.111698 0.014397 0.834337 0.224429 1.629010
    44 -1.393470 8.839177 -0.239433 1.580804 -0.005023 -1.566847
  time 10
    0 -0.999830 1.628925 0.541027 0.000000 0.000000 0.000000
    1 7.606926 2.148689 -9.767361 0.647437 -1.804400 -0.802114
    2 -0.071918 -8.498730 -0.104137 0.083735 0.670619 -0.349014
    3 3.185790 -2.026945 1.468279 0.287571 -3.172304 1.561092
    4 2.577593 2.064427 0.000000 0.000000 0.000000 1.570796
    5 5.847807 -0.812363 -0.469308 0.000000 1.570796 0.000000
    6 6.633783 4.767243 0.000001 0.000000 0.000000 1.175716
    7 0.003682 -0.001831 0.000001 0.000000 0.000000 0.000000
    8 15.937986 10.449538 0.000000 0.000000 0.000000 0.000000
    9 1.257180 8.762585 -0.153713 -1.570562 0.002683 -1.566807
    10 -0.488518 -2.755602 -0.228260 -1.377081 -0.145312 -0.214898
    11 0.039887 -1.479790 0.029854 -1.805815 0.000000 0.000001
    12 0.028786 -1.075731 -0.023109 -0.515755 0.000000 0.000000
    13 0.250027 -2.820665 -0.238396 -1.129859 -0.041200 -0.009606
    14 -0.049759 -1.680544 0.100479 -1.799473 0.000000 -0.000002
    15 -0.034142 -1.148312 0.084782 -0.765238 0.000000 0.000000
    16 0.957766 -2.746780 -0.090302 0.008798 -0.162936 0.031144
    17 -0.033420 -1.397129 -0.011257 -1.014834 0.000000 -0.000001
    18 -0.022360 -0.957436 0.018784 -0.813633 0.000000 0.000000
    19 -1.180681 -2.507217 -0.193859 -1.383686 -0.013084 -0.338762
    20 -0.024967 -1.123934 0.017597 -1.695664 0.000000 0.000001
    21 -0.020057 -0.890968 0.010090 -0.437221 0.000000 0.000000
    22 0.583510 -1.197277 0.185379 0.359738 -0.974933 -0.637718
    23 1.535927 0.010246 0.005009 -0.002964 -0.012979 -1.127120
    24 1.100771 0.004527 -0.010679 -0.011497 0.011431 -0.612087
    25 0.120153 -0.050270 -0.054489 0.287569 3.110905 1.561085
    26 -1.700500 -7.149287 -7.614797 0.334748 -4.364217 1.052639
    27 0.096944 -8.450418 -0.009365 1.291047 -1.093064 -1.084229
    28 0.447953 -2.798986 -0.200443 -0.865523 -0.034881 0.226000
    29 -0.032909 -1.480204 0.004940 -1.322776 0.000000 0.000002
    30 -0.027022 -1.076920 -0.020210 -0.605433 0.000000 0.000000
    31 -0.249534 -2.846964 -0.174213 -0.606172 -0.064494 0.180481
    32 0.043235 -1.683941 0.096012 -1.318261 0.002823 -0.000167
    33 0.031729 -1.160830 0.058838 -0.570977 0.000642 0.008372
    34 -0.963866 -2.785145 -0.085350 -0.382266 -0.017721 0.107472
    35 0.028479 -1.403067 0.006271 -0.766306 0.000000 0.000000
    36 0.021413 -0.957781 0.020046 -0.036503 0.000000 0.000000
    37 1.164475 -2.543940 -0.170330 -0.827836 -0.163533 0.353946
    38 0.024032 -1.129042 0.017807 -1.621756 0.000000 0.000001
    39 0.014898 -0.883989 -0.019848 -0.655917 0.000000 0.000000
    40 -0.586770 -1.264477 0.200161 -0.158082 -0.438086 -2.596795
    41 1.522835 0.058681 0.016848 0.001410 0.008985 0.524164
    42 1.117947 0.048424 -0.005766 0.002034 -0.024886 -0.025953
    43 -0.139399 -0.111698 0.014397 0.834337 0.224429 1.629010
    44 -1.393470 8.839177 -0.239433 1.580804 -0.005023 -1.566847
  time 11
    0 -0.999830 1.628925 0.541027 0.000000 0.000000 0.000000
    1 7.829589 1.949464 -9.865020 0.804349 -1.793776 -0.962530
    2 -0.071918 -8.498730 -0.104137 0.086258 0.667622 -0.344184
    3 3.185790 -2.026945 1.468279 0.287571 -3.172304 1.561092
    4 2.577593 2.064427 0.000000 0.000000 0.000000 1.570796
    5 5.847807 -0.812363 -0.469308 0.000000 1.570796 0.000000
    6 6.633783 4.767243 0.000001 0.000000 0.000000 1.175716
    7 0.003682 -0.001831 0.000001 0.000000 0.000000 0.000000
    8 15.937986 10.449538 0.000000 0.000000 0.000000 0.000000
    9 1.257180 8.762585 -0.153713 -1.570562 0.002683 -1.566807
    10 -0.488518 -2.755602 -0.228260 -1.377081 -0.145312 -0.214898
    11 0.039887 -1.479790 0.029854 -1.805815 0.000000 0.000001
    12 0.028786 -1.075731 -0.023109 -0.515755 0.000000 0.000000
    13 0.250027 -2.820665 -0.238396 -1.129859 -0.041200 -0.009606
    14 -0.049759 -1.680544 0.100479 -1.799473 0.000000 -0.000002
    15 -0.034142 -1.148312 0.084782 -0.765238 0.000000 0.000000
    16 0.957766 -2.746780 -0.090302 0.008798 -0.162936 0.031144
    17 -0.033420 -1.397129 -0.011257 -1.014834 0.000000 -0.000001
    18 -0.022360 -0.957436 0.018784 -0.813633 0.000000 0.000000
    19 -1.180681 -2.507217 -0.193859 -1.383731 -0.013084 -0.338762
    20 -0.024967 -1.123934 0.017597 -1.695664 0.000000 0.000001
    21 -0.020057 -0.890968 0.010090 -0.437221 0.000000 0.000000
    22 0.583510 -1.197277 0.185379 0.359738 -0.974933 -0.637718
    23 1.535927 0.010246 0.005009 -0.002964 -0.012979 -1.127120
    24 1.100771 0.004527 -0.010679 -0.011497 0.011431 -0.612087
    25 0.120153 -0.050270 -0.054489 0.287569 3.110905 1.561085
    26 -1.470024 -7.246946 -7.282755 0.285952 -4.332376 1.000314
    27 0.096944 -8.450418 -0.009365 1.202313 -1.083786 -0.980677
    28 0.447953 -2.798986 -0.200443 -0.865523 -0.034881 0.226000
    29 -0.032909 -1.480204 0.004940 -1.611573 0.000000 0.000002
    30 -0.027022 -1.076920 -0.020210 -0.605433 0.000000 0.000000
    31 -0.249534 -2.846964 -0.174213 -0.606172 -0.064494 0.180481
    32 0.043235 -1.683941 0.096012 -1.580027 0.002823 -0.000167
    33 0.031729 -1.160830 0.058838 -0.570977 0.000642 0.008372
    34 -0.963866 -2.785145 -0.085350 -0.382266 -0.017721 0.107472
    35 0.028479 -1.403067 0.006271 -0.931505 0.000000 0.000000
    36 0.021413 -0.957781 0.020046 -0.180619 0.000000 0.000000
    37 1.164475 -2.543940 -0.170330 -1.007300 -0.163533 0.353946
    38 0.024032 -1.129042 0.017807 -1.760482 0.000000 0.000001
    39 0.014898 -0.883989 -0.019848 -0.655917 0.000000 0.000000
    40 -0.586770 -1.264477 0.200161 -0.178139 -0.581148 -2.561624
    41 1.522835 0.058681 0.016848 0.001410 0.008985 0.628924
    42 1.117947 0.048424 -0.005766 -0.000543 -0.024862 0.077947
    43 -0.139399 -0.111698 0.014397 0.834337 0.224429 1.629010
    44 -1.393470 8.839177 -0.239433 1.580804 -0.005023 -1.566847
  time 12
    0 -0.999830 1.628925 0.541027 0.000000 0.000000 0.000000
    1 8.161631 1.644768 -10.208781 1.026158 -1.806904 -1.196954
    2 -0.071918 -8.498730 -0.104137 0.093477 0.653217 -0.327058
    3 3.185790 -2.026945 1.468279 0.287571 -3.172304 1.561092
    4 2.577593 2.064427 0.000000 0.000000 0.000000 1.570796
    5 5.847807 -0.812363 -0.469308 0.000000 1.570796 0.000000
    6 6.633783 4.767243 0.000001 0.000000 0.000000 1.175716
    7 0.003682 -0.001831 0.000001 0.000000 0.000000 0.000000
    8 15.937986 10.449538 0.000000 0.000000 0.000000 0.000000
    9 1.257180 8.762585 -0.153713 -1.570562 0.002683 -1.566807
    10 -0.488518 -2.755602 -0.228260 -1.377081 -0.145312 -0.214898
    11 0.039887 -1.479790 0.029854 -1.805815 0.000000 0.000001
    12 0.028786 -1.075731 -0.023109 -0.515755 0.000000 0.000000
    13 0.250027 -2.820665 -0.238396 -1.129859 -0.041200 -0.009606
    14 -0.049759 -1.680544 0.100479 -1.799473 0.000000 -0.000002
    15 -0.034142 -1.148312 0.084782 -0.765238 0.000000 0.000000
    16 0.957766 -2.746780 -0.090302 0.008798 -0.162936 0.031144
    17 -0.033420 -1.397129 -0.011257 -1.014834 0.000000 -0.000001
    18 -0.022360 -0.957436 0.018784 -0.813633 0.000000 0.000000
    19 -1.180681 -2.507217 -0.193859 -1.383686 -0.013084 -0.338762
    20 -0.024967 -1.123934 0.017597 -1.695664 0.000000 0.000001
    21 -0.020057 -0.890968 0.010090 -0.437221 0.000000 0.000000
    22 0.583510 -1.197277 0.185379 0.359738 -0.974933 -0.637718
    23 1.535927 0.010246 0.005009 -0.002964 -0.012979 -1.127120
    24 1.100771 0.004527 -0.010679 -0.011497 0.011431 -0.612087
    25 0.120153 -0.050270 -0.054489 0.287569 3.110905 1.561085
    26 -1.212204 -7.274291 -7.036654 0.301178 -4.276255 0.997641
    27 0.096944 -8.450418 -0.009365 1.057536 -1.038821 -0.817921
    28 0.447953 -2.798986 -0.200443 -0.865523 -0.034881 0.226000
    29 -0.032909 -1.480204 0.004940 -1.788553 0.000000 0.000002
    30 -0.027022 -1.076920 -0.020210 -0.605433 0.000000 0.000000
    31 -0.249534 -2.846964 -0.174213 -0.606172 -0.064494 0.180481
    32 0.043235 -1.683941 0.096012 -1.741358 0.002823 -0.000167
    33 0.031729 -1.160830 0.058838 -0.570977 0.000642 0.008372
    34 -0.963866 -2.785145 -0.085350 -0.382266 -0.017721 0.107472
    35 0.028479 -1.403067 0.006271 -1.054467 0.000000 0.000000
    36 0.021413 -0.957781 0.020046 -0.324698 0.000000 0.000000
    37 1.164475 -2.543940 -0.170330 -1.147508 -0.163533 0.353946
    38 0.024032 -1.129042 0.017807 -1.808454 0.000000 0.000001
    39 0.014898 -0.883989 -0.019848 -0.655917 0.000000 0.000000
    40 -0.586770 -1.264477 0.200161 -0.191496 -0.724209 -2.536559
    41 1.522835 0.058681 0.016848 0.001410 0.008985 0.733685
    42 1.117947 0.048424 -0.005766 -0.002580 -0.024838 0.159877
    43 -0.139399 -0.111698 0.014397 0.834337 0.224429 1.629010
    44 -1.393470 8.839177 -0.239433 1.580804 -0.005023 -1.566847
  time 13
    0 -0.999830 1.628925 0.541027 0.000000 0.000000 0.000000
    1 8.481953 1.504138 -10.408006 1.212379 -1.808491 -1.395710
    2 -0.071918 -8.498730 -0.104137 0.103463 0.628313 -0.300668
    3 3.185790 -2.026945 1.468279 0.287571 -3.172304 1.561092
    4 2.577593 2.064427 0.000000 0.000000 0.000000 1.570796
    5 5.289196 -0.812363 -0.469308 0.000000 1.570796 0.000000
    6 6.633783 4.767243 0.000001 0.000000 0.000000 1.175716
    7 0.003682 -0.001831 0.000001 0.000000 0.000000 0.000000
    8 15.937986 10.449538 0.000000 0.000000 0.000000 0.000000
    9 1.257180 8.762585 -0.153713 -1.570562 0.002683 -1.566807
    10 -0.488518 -2.755602 -0.228260 -1.377081 -0.145312 -0.214898
    11 0.039887 -1.479790 0.029854 -1.805815 0.000000 0.000001
    12 0.028786 -1.075731 -0.023109 -0.515755 0.000000 0.000000
    13 0.250027 -2.820665 -0.238396 -1.129859 -0.041200 -0.009606
    14 -0.049759 -1.680544 0.100479 -1.799473 0.000000 -0.000002
    15 -0.034142 -1.148312 0.084782 -0.765238 0.000000 0.000000
    16 0.957766 -2.746780 -0.090302 0.008798 -0.162936 0.031144
    17 -0.033420 -1.397129 -0.011257 -1.014834 0.000000 -0.000001
    18 -0.022360 -0.957436 0.018784 -0.813633 0.000000 0.000000
    19 -1.180681 -2.507217 -0.193859 -1.383686 -0.013084 -0.338762
    20 -0.024967 -1.123934 0.017597 -1.695664 0.000000 0.000001
    21 -0.020057 -0.890968 0.010090 -0.437221 0.000000 0.000000
    22 0.583510 -1.197277 0.185379 0.359738 -0.974933 -0.637718
    23 1.535927 0.010246 0.005009 -0.002964 -0.012979 -1.127120
    24 1.100771 0.004527 -0.010679 -0.011497 0.011431 -0.612087
    25 0.120153 -0.050270 -0.054489 0.287569 3.110905 1.561085
    26 -1.137983 -6.914905 -6.946808 0.334674 -4.281632 1.066102
    27 0.096944 -8.450418 -0.009365 0.951589 -0.918507 -0.701124
    28 0.447953 -2.798986 -0.200443 -0.865523 -0.034881 0.226000
    29 -0.032909 -1.480204 0.004940 -1.788553 0.000000 0.000002
    30 -0.027022 -1.076920 -0.020210 -0.605433 0.000000 0.000000
    31 -0.249534 -2.846964 -0.174213 -0.606172 -0.064494 0.180481
    32 0.043235 -1.683941 0.096012 -1.741358 0.002823 -0.000167
    33 0.031729 -1.160830 0.058838 -0.570977 0.000642 0.008372
    34 -0.963866 -2.785145 -0.085350 -0.382266 -0.017721 0.107472
    35 0.028479 -1.403067 0.006271 -1.054467 0.000000 0.000000
    36 0.021413 -0.957781 0.020046 -0.324698 0.000000 0.000000
    37 1.164475 -2.543940 -0.170330 -1.147508 -0.163533 0.353946
    38 0.024032 -1.129042 0.017807 -1.808454 0.000000 0.000001
    39 0.014898 -0.883989 -0.019848 -0.655917 0.000000 0.000000
    40 -0.586770 -1.264477 0.200161 -0.191496 -0.724209 -2.536559
    41 1.522835 0.058681 0.016848 0.001410 0.008985 0.733685
    42 1.117947 0.048424 -0.005766 -0.002580 -0.024838 0.159877
    43 -0.139399 -0.111698 0.014397 0.793994 0.238163 1.645512
    44 -1.393470 8.839177 -0.239433 1.580804 -0.005023 -1.566847
  time 14
    0 -0.999830 1.628925 0.541027 0.000000 0.000000 0.000000
    1 8.782744 1.422105 -10.669732 4.529140 -1.321728 1.558247
    2 -0.071918 -8.498730 -0.104137 0.114440 0.600197 -0.271390
    3 3.185790 -2.026945 1.468279 0.287571 -3.172304 1.561092
    4 2.577593 2.064427 0.000000 0.000000 0.000000 1.570796
    5 3.957124 -0.812363 -0.469308 0.000000 1.570796 0.000000
    6 6.633783 4.767243 0.000001 0.000000 0.000000 1.175716
    7 0.003682 -0.001831 0.000001 0.000000 0.000000 0.000000
    8 15.937986 10.449538 0.000000 0.000000 0.000000 0.000000
    9 1.257180 8.762585 -0.153713 -1.570562 0.002683 -1.566807
    10 -0.488518 -2.755602 -0.228260 -1.377081 -0.145312 -0.214898
    11 0.039887 -1.479790 0.029854 -1.805815 0.000000 0.000001
    12 0.028786 -1.075731 -0.023109 -0.515755 0.000000 0.000000
    13 0.250027 -2.820665 -0.238396 -1.129859 -0.041200 -0.009606
    14 -0.049759 -1.680544 0.100479 -1.799473 0.000000 -0.000002
    15 -0.034142 -1.148312 0.084782 -0.765238 0.000000 0.000000
    16 0.957766 -2.746780 -0.090302 0.008798 -0.162936 0.031144
    17 -0.033420 -1.397129 -0.011257 -1.014834 0.000000 -0.000001
    18 -0.022360 -0.957436 0.018784 -0.813633 0.000000 0.000000
    19 -1.180681 -2.507217 -0.193859 -1.383686 -0.013084 -0.338762
    20 -0.024967 -1.123934 0.017597 -1.695664 0.000000 0.000001
    21 -0.020057 -0.890968 0.010090 -0.437221 0.000000 0.000000
    22 0.583510 -1.197277 0.185379 0.359738 -0.974933 -0.637718
    23 1.535927 0.010246 0.005009 -0.002964 -0.012979 -1.127120
    24 1.100771 0.004527 -0.010679 -0.011497 0.011431 -0.612087
    25 0.120153 -0.050270 -0.054489 0.287569 3.110905 1.561085
    26 -1.356740 -6.118006 -7.036654 0.459153 -4.338593 1.295262
    27 0.096944 -8.450418 -0.009365 0.852309 -0.731002 -0.587129
    28 0.447953 -2.798986 -0.200443 -0.865523 -0.034881 0.226000
    29 -0.032909 -1.480204 0.004940 -1.788553 0.000000 0.000002
    30 -0.027022 -1.076920 -0.020210 -0.605433 0.000000 0.000000
    31 -0.249534 -2.846964 -0.174213 -0.606172 -0.064494 0.180481
    32 0.043235 -1.683941 0.096012 -1.741358 0.002823 -0.000167
    33 0.031729 -1.160830 0.058838 -0.570977 0.000642 0.008372
    34 -0.963866 -2.785145 -0.085350 -0.382266 -0.017721 0.107472
    35 0.028479 -1.403067 0.006271 -1.054467 0.000000 0.000000
    36 0.021413 -0.957781 0.020046 -0.324698 0.000000 0.000000
    37 1.164475 -2.543940 -0.170330 -1.147508 -0.163533 0.353946
    38 0.024032 -1.129042 0.017807 -1.808454 0.000000 0.000001
    39 0.014898 -0.883989 -0.019848 -0.655917 0.000000 0.000000
    40 -0.586770 -1.264477 0.200161 -0.191496 -0.724209 -2.536559
    41 1.522835 0.058681 0.016848 0.001410 0.008985 0.733685
    42 1.117947 0.048424 -0.005766 -0.002580 -0.024838 0.159877
    43 -0.139399 -0.111698 0.014397 0.697760 0.270893 1.684858
    44 -1.393470 8.839177 -0.239433 1.580804 -0.005023 -1.566847
  time 15
    0 -0.999830 1.628925 0.541027 0.000000 0.000000 0.000000
    1 9.040564 1.383041 -10.986148 4.669685 -1.299014 1.407941
    2 -0.071918 -8.498730 -0.104137 0.125991 0.570308 -0.240290
    3 3.185790 -2.026945 1.468279 0.287571 -3.172304 1.561092
    4 2.577593 2.064427 0.000000 0.000000 0.000000 1.570796
    5 2.363326 -0.812363 -0.469308 0.000000 1.570796 0.000000
    6 6.633783 4.767243 0.000001 0.000000 0.000000 1.175716
    7 0.003682 -0.001831 0.000001 0.000000 0.000000 0.000000
    8 15.937986 10.449538 0.000000 0.000000 0.000000 0.000000
    9 1.257180 8.762585 -0.153713 -1.570562 0.002683 -1.566807
    10 -0.488518 -2.755602 -0.228260 -1.377081 -0.145312 -0.214898
    11 0.039887 -1.479790 0.029854 -1.805815 0.000000 0.000001
    12 0.028786 -1.075731 -0.023109 -0.515755 0.000000 0.000000
    13 0.250027 -2.820665 -0.238396 -1.129859 -0.041200 -0.009606
    14 -0.049759 -1.680544 0.100479 -1.799473 0.000000 -0.000002
    15 -0.034142 -1.148312 0.084782 -0.765238 0.000000 0.000000
    16 0.957766 -2.746780 -0.090302 0.008798 -0.162936 0.031144
    17 -0.033420 -1.397129 -0.011257 -1.014834 0.000000 -0.000001
    18 -0.022360 -0.957436 0.018784 -0.813633 0.000000 0.000000
    19 -1.180681 -2.507217 -0.193859 -1.383686 -0.013084 -0.338762
    20 -0.024967 -1.123934 0.017597 -1.695664 0.000000 0.000001
    21 -0.020057 -0.890968 0.010090 -0.437221 0.000000 0.000000
    22 0.583510 -1.197277 0.185379 0.359738 -0.974933 -0.637718
    23 1.535927 0.010246 0.005009 -0.002964 -0.012979 -1.127120
    24 1.100771 0.004527 -0.010679 -0.011497 0.011431 -0.612087
    25 0.120153 -0.050270 -0.054489 0.287569 3.110905 1.561085
    26 -1.755189 -5.188290 -7.267130 -2.428736 -5.051955 -1.464584
    27 0.096944 -8.450418 -0.009365 0.750807 -0.522220 -0.475274
    28 0.447953 -2.798986 -0.200443 -0.930926 -0.034881 0.226000
    29 -0.032909 -1.480204 0.004940 -1.788289 0.000000 0.000002
    30 -0.027022 -1.076920 -0.020210 -0.793008 0.000000 0.000000
    31 -0.249534 -2.846964 -0.174213 -0.711283 -0.064494 0.180481
    32 0.043235 -1.683941 0.096012 -1.750010 0.002823 -0.000167
    33 0.031729 -1.160830 0.058838 -0.713814 0.000642 0.008372
    34 -0.963866 -2.785145 -0.085350 -0.553235 -0.017721 0.107472
    35 0.028479 -1.403067 0.006271 -1.184885 0.000000 0.000000
    36 0.021413 -0.957781 0.020046 -0.540908 0.000000 0.000000
    37 1.164475 -2.543940 -0.170330 -1.148230 -0.163533 0.353946
    38 0.024032 -1.129042 0.017807 -1.808235 0.000000 0.000001
    39 0.014898 -0.883989 -0.019848 -0.800767 0.000000 0.000000
    40 -0.586770 -1.264477 0.200161 -0.003993 -0.718844 -2.582691
    41 1.522835 0.058681 0.016848 0.001410 0.008985 0.804888
    42 1.117947 0.048424 -0.005766 -0.007793 -0.021111 0.427878
    43 -0.139399 -0.111698 0.014397 0.582913 0.309975 1.731825
    44 -1.393470 8.839177 -0.239433 1.580804 -0.005023 -1.566847
  time 16
    0 -0.999830 1.628925 0.541027 0.000000 0.000000 0.000000
    1 9.274946 1.375228 -11.329909 4.780733 -1.270438 1.289298
    2 -0.071918 -8.498730 -0.104137 0.137717 0.540034 -0.208447
    3 3.185790 -2.026945 1.468279 0.287571 -3.172304 1.561092
    4 2.577593 2.064427 0.000000 0.000000 0.000000 1.570796
    5 1.031254 -0.812363 -0.469308 0.000000 1.570796 0.000000
    6 6.633783 4.767243 0.000001 0.000000 0.000000 1.175716
    7 0.003682 -0.001831 0.000001 0.000000 0.000000 0.000000
    8 15.937986 10.449538 0.000000 0.000000 0.000000 0.000000
    9 1.257180 8.762585 -0.153713 -1.570562 0.002683 -1.566807
    10 -0.488518 -2.755602 -0.228260 -1.377081 -0.145312 -0.214898
    11 0.039887 -1.479790 0.029854 -1.805815 0.000000 0.000001
    12 0.028786 -1.075731 -0.023109 -0.515755 0.000000 0.000000
    13 0.250027 -2.820665 -0.238396 -1.129859 -0.041200 -0.009606
    14 -0.049759 -1.680544 0.100479 -1.799473 0.000000 -0.000002
    15 -0.034142 -1.148312 0.084782 -0.765238 0.000000 0.000000
    16 0.957766 -2.746780 -0.090302 0.008798 -0.162936 0.031144
    17 -0.033420 -1.397129 -0.011257 -1.014834 0.000000 -0.000001
    18 -0.022360 -0.957436 0.018784 -0.813633 0.000000 0.000000
    19 -1.180681 -2.507217 -0.193859 -1.383686 -0.013084 -0.338762
    20 -0.024967 -1.123934 0.017597 -1.695664 0.000000 0.000001
    21 -0.020057 -0.890968 0.010090 -0.437221 0.000000 0.000000
    22 0.583510 -1.197277 0.185379 0.359738 -0.974933 -0.637718
    23 1.535927 0.010246 0.005009 -0.002964 -0.012979 -1.127120
    24 1.100771 0.004527 -0.010679 -0.011497 0.011431 -0.612087
    25 0.120153 -0.050270 -0.054489 0.287569 3.110905 1.561085
    26 -2.184890 -4.391390 -7.532763 -2.209710 -5.072707 -1.136600
    27 0.096944 -8.450418 -0.009365 0.638274 -0.338045 -0.364870
    28 0.447953 -2.798986 -0.200443 -1.052320 -0.034881 0.226000
    29 -0.032909 -1.480204 0.004940 -1.787125 0.000000 0.000002
    30 -0.027022 -1.076920 -0.020210 -1.141267 0.000000 0.000000
    31 -0.249534 -2.846964 -0.174213 -0.906572 -0.064494 0.180481
    32 0.043235 -1.683941 0.096012 -1.766056 0.002823 -0.000167
    33 0.031729 -1.160830 0.058838 -0.979106 0.000642 0.008372
    34 -0.963866 -2.785145 -0.085350 -0.870685 -0.017721 0.107472
    35 0.028479 -1.403067 0.006271 -1.427055 0.000000 0.000000
    36 0.021413 -0.957781 0.020046 -0.942505 0.000000 0.000000
    37 1.164475 -2.543940 -0.170330 -1.149491 -0.163533 0.353946
    38 0.024032 -1.129042 0.017807 -1.807307 0.000000 0.000001
    39 0.014898 -0.883989 -0.019848 -1.069774 0.000000 0.000000
    40 -0.586770 -1.264477 0.200161 0.344256 -0.703160 -2.668362
    41 1.522835 0.058681 0.016848 0.001410 0.008985 0.937118
    42 1.117947 0.048424 -0.005766 -0.017453 -0.014208 0.925581
    43 -0.139399 -0.111698 0.014397 0.486696 0.342705 1.771171
    44 -1.393470 8.839177 -0.239433 1.580804 -0.005023 -1.566847
  time 17
    0 -0.999830 1.628925 0.541027 0.000000 0.000000 0.000000
    1 9.462452 1.402573 -11.779141 4.852100 -1.230688 1.214526
    2 -0.071918 -8.498730 -0.104137 0.149164 0.510792 -0.176927
    3 3.185790 -2.026945 1.468279 0.287571 -3.172304 1.561092
    4 2.577593 2.064427 0.000000 0.000000 0.000000 1.570796
    5 0.468737 -0.812363 -0.469308 0.000000 1.570796 0.000000
    6 6.633783 4.767243 0.000001 0.000000 0.000000 1.175716
    7 0.003682 -0.001831 0.000001 0.000000 0.000000 0.000000
    8 15.937986 10.449538 0.000000 0.000000 0.000000 0.000000
    9 1.257180 8.762585 -0.153713 -1.570562 0.002683 -1.566807
    10 -0.488518 -2.755602 -0.228260 -1.377081 -0.145312 -0.214898
    11 0.039887 -1.479790 0.029854 -1.805815 0.000000 0.000001
    12 0.028786 -1.075731 -0.023109 -0.515755 0.000000 0.000000
    13 0.250027 -2.820665 -0.238396 -1.129859 -0.041200 -0.009606
    14 -0.049759 -1.680544 0.100479 -1.799473 0.000000 -0.000002
    15 -0.034142 -1.148312 0.084782 -0.765238 0.000000 0.000000
    16 0.957766 -2.746780 -0.090302 0.008798 -0.162936 0.031144
    17 -0.033420 -1.397129 -0.011257 -1.014834 0.000000 -0.000001
    18 -0.022360 -0.957436 0.018784 -0.813633 0.000000 0.000000
    19 -1.180681 -2.507217 -0.193859 -1.383686 -0.013084 -0.338762
    20 -0.024967 -1.123934 0.017597 -1.695664 0.000000 0.000001
    21 -0.020057 -0.890968 0.010090 -0.437221 0.000000 0.000000
    22 0.583510 -1.197277 0.185379 0.359738 -0.974933 -0.637718
    23 1.535927 0.010246 0.005009 -0.002964 -0.012979 -1.127120
    24 1.100771 0.004527 -0.010679 -0.011497 0.011431 -0.612087
    25 0.120153 -0.050270 -0.054489 0.287569 3.110905 1.561085
    26 -2.532557 -3.977315 -7.759333 -2.190102 -5.116562 -1.062123
    27 0.096944 -8.450418 -0.009365 0.505861 -0.224427 -0.255223
    28 0.447953 -2.798986 -0.200443 -1.117679 -0.034881 0.226000
    29 -0.032909 -1.480204 0.004940 -1.784375 0.000000 0.000002
    30 -0.027022 -1.076920 -0.020210 -1.328790 0.000000 0.000000
    31 -0.249534 -2.846964 -0.174213 -1.011718 -0.064494 0.180481
    32 0.043235 -1.683941 0.096012 -1.774653 0.002823 -0.000167
    33 0.031729 -1.160830 0.058838 -1.121890 0.000642 0.008372
    34 -0.963866 -2.785145 -0.085350 -1.041620 -0.017721 0.107472
    35 0.028479 -1.403067 0.006271 -1.557425 0.000000 0.000000
    36 0.021413 -0.957781 0.020046 -1.158715 0.000000 0.000000
    37 1.164475 -2.543940 -0.170330 -1.150167 -0.163533 0.353946
    38 0.024032 -1.129042 0.017807 -1.805285 0.000000 0.000001
    39 0.014898 -0.883989 -0.019848 -1.214624 0.000000 0.000000
    40 -0.586770 -1.264477 0.200161 0.531779 -0.677907 -2.714493
    41 1.522835 0.058681 0.016848 0.001410 0.008985 1.008354
    42 1.117947 0.048424 -0.005766 -0.022654 -0.010493 1.193583
    43 -0.139399 -0.111698 0.014397 0.446336 0.356439 1.787674
    44 -1.393470 8.839177 -0.239433 1.580804 -0.005023 -1.566847
  time 18
    0 -0.999830 1.628925 0.541027 0.000000 0.000000 0.000000
    1 9.399950 1.508045 -12.970584 4.809184 -1.135009 1.267839
    2 -0.071918 -8.498730 -0.104137 0.160576 0.483743 -0.141069
    3 3.185790 -2.026945 1.468279 0.287571 -3.172304 1.561092
    4 2.577593 2.064427 0.000000 0.000000 0.000000 1.570796
    5 0.468737 -0.812363 -0.469308 0.000000 1.570796 0.000000
    6 6.633783 4.767243 0.000001 0.000000 0.000000 1.175716
    7 0.003682 -0.001831 0.000001 0.000000 0.000000 0.000000
    8 15.937986 10.449538 0.000000 0.000000 0.000000 0.000000
    9 1.257180 8.762585 -0.153713 -1.570562 0.002683 -1.566807
    10 -0.488518 -2.755602 -0.228260 -1.377081 -0.145312 -0.214898
    11 0.039887 -1.479790 0.029854 -1.805815 0.000000 0.000001
    12 0.028786 -1.075731 -0.023109 -0.515755 0.000000 0.000000
    13 0.250027 -2.820665 -0.238396 -1.129859 -0.041200 -0.009606
    14 -0.049759 -1.680544 0.100479 -1.799473 0.000000 -0.000002
    15 -0.034142 -1.148312 0.084782 -0.765238 0.000000 0.000000
    16 0.957766 -2.746780 -0.090302 0.008798 -0.162936 0.031144
    17 -0.033420 -1.397129 -0.011257 -1.014834 0.000000 -0.000001
    18 -0.022360 -0.957436 0.018784 -0.813633 0.000000 0.000000
    19 -1.180681 -2.507217 -0.193859 -1.383686 -0.013084 -0.338762
    20 -0.024967 -1.123934 0.017597 -1.695664 0.000000 0.000001
    21 -0.020057 -0.890968 0.010090 -0.437221 0.000000 0.000000
    22 0.583510 -1.197277 0.185379 0.359738 -0.974933 -0.637718
    23 1.535927 0.010246 0.005009 -0.002964 -0.012979 -1.127120
    24 1.100771 0.004527 -0.010679 -0.011497 0.011431 -0.612087
    25 0.120153 -0.050270 -0.054489 0.287569 3.110905 1.561085
    26 -3.048197 -3.844499 -8.415603 -2.339685 -5.217547 -1.184246
    27 0.096944 -8.450418 -0.009365 0.236993 -0.184493 -0.131343
    28 0.447953 -2.798986 -0.200443 -1.067890 -0.034881 0.226000
    29 -0.032909 -1.480204 0.004940 -1.676367 0.000000 0.000002
    30 -0.027022 -1.076920 -0.020210 -1.223533 0.000000 0.000000
    31 -0.249534 -2.846964 -0.174213 -0.941667 -0.064494 0.180481
    32 0.043235 -1.683941 0.096012 -1.680790 0.002823 -0.000167
    33 0.031729 -1.160830 0.058838 -1.037924 0.000642 0.008372
    34 -0.963866 -2.785145 -0.085350 -0.994411 -0.017721 0.107472
    35 0.028479 -1.403067 0.006271 -1.441150 0.000000 0.000000
    36 0.021413 -0.957781 0.020046 -1.100622 0.000000 0.000000
    37 1.164475 -2.543940 -0.170330 -1.102845 -0.163533 0.353946
    38 0.024032 -1.129042 0.017807 -1.643720 0.000000 0.000001
    39 0.014898 -0.883989 -0.019848 -1.128874 0.000000 0.000000
    40 -0.586770 -1.264477 0.200161 0.508842 -0.644196 -2.706692
    41 1.522835 0.058681 0.016848 0.001410 0.008985 0.971641
    42 1.117947 0.048424 -0.005766 -0.021588 -0.010852 1.141581
    43 -0.139399 -0.111698 0.014397 0.640345 0.290428 1.708336
    44 -1.393470 8.839177 -0.239433 1.580804 -0.005023 -1.566847
  time 19
    0 -0.999830 1.628925 0.541027 0.000000 0.000000 0.000000
    1 9.251508 1.656487 -12.708857 1.268425 -2.001011 -1.429662
    2 -0.071918 -8.498730 -0.104137 0.171344 0.458947 -0.104672
    3 3.185790 -2.026945 1.468279 0.287571 -3.172304 1.561092
    4 2.577593 2.064427 0.000000 0.000000 0.000000 1.570796
    5 3.160225 -0.812363 -0.469308 0.000000 1.570796 0.000000
    6 6.633783 4.767243 0.000001 0.000000 0.000000 1.175716
    7 0.003682 -0.001831 0.000001 0.000000 0.000000 0.000000
    8 15.937986 10.449538 0.000000 0.000000 0.000000 0.000000
    9 1.257180 8.762585 -0.153713 -1.570562 0.002683 -1.566807
    10 -0.488518 -2.755602 -0.228260 -1.377081 -0.145312 -0.214898
    11 0.039887 -1.479790 0.029854 -1.805815 0.000000 0.000001
    12 0.028786 -1.075731 -0.023109 -0.515755 0.000000 0.000000
    13 0.250027 -2.820665 -0.238396 -1.129859 -0.041200 -0.009606
    14 -0.049759 -1.680544 0.100479 -1.799473 0.000000 -0.000002
    15 -0.034142 -1.148312 0.084782 -0.765238 0.000000 0.000000
    16 0.957766 -2.746780 -0.090302 0.008798 -0.162936 0.031144
    17 -0.033420 -1.397129 -0.011257 -1.014834 0.000000 -0.000001
    18 -0.022360 -0.957436 0.018784 -0.813633 0.000000 0.000000
    19 -1.180681 -2.507217 -0.193859 -1.383686 -0.013084 -0.338762
    20 -0.024967 -1.123934 0.017597 -1.695664 0.000000 0.000001
    21 -0.020057 -0.890968 0.010090 -0.437221 0.000000 0.000000
    22 0.583510 -1.197277 0.185379 0.359738 -0.974933 -0.637718
    23 1.535927 0.010246 0.005009 -0.002964 -0.012979 -1.127120
    24 1.100771 0.004527 -0.010679 -0.011497 0.011431 -0.612087
    25 0.120153 -0.050270 -0.054489 0.287569 3.110905 1.561085
    26 -3.907599 -5.168758 -10.337536 -2.137221 -5.315339 -0.960815
    27 0.096944 -8.450418 -0.009365 0.040697 -0.176132 -0.051546
    28 0.447953 -2.798986 -0.200443 -0.949185 -0.034881 0.226000
    29 -0.032909 -1.480204 0.004940 -1.412324 0.000000 0.000002
    30 -0.027022 -1.076920 -0.020210 -0.972475 0.000000 0.000000
    31 -0.249534 -2.846964 -0.174213 -0.774590 -0.064494 0.180481
    32 0.043235 -1.683941 0.096012 -1.446132 0.002823 -0.000167
    33 0.031729 -1.160830 0.058838 -0.837645 0.000642 0.008372
    34 -0.963866 -2.785145 -0.085350 -0.875992 -0.017721 0.107472
    35 0.028479 -1.403067 0.006271 -1.160254 0.000000 0.000000
    36 0.021413 -0.957781 0.020046 -0.955150 0.000000 0.000000
    37 1.164475 -2.543940 -0.170330 -0.990083 -0.163533 0.353946
    38 0.024032 -1.129042 0.017807 -1.262401 0.000000 0.000001
    39 0.014898 -0.883989 -0.019848 -0.924415 0.000000 0.000000
    40 -0.586770 -1.264477 0.200161 0.446606 -0.604250 -2.685512
    41 1.522835 0.058681 0.016848 0.001410 0.008985 0.874868
    42 1.117947 0.048424 -0.005766 -0.018783 -0.011871 1.004432
    43 -0.139399 -0.111698 0.014397 0.834337 0.224429 1.629010
    44 -1.393470 8.839177 -0.239433 1.580804 -0.005023 -1.566847
  time 20
    0 -0.999830 1.628925 0.541027 0.000000 0.000000 0.000000
    1 9.079628 1.816648 -12.236186 1.262431 -1.955583 -1.423844
    2 -0.071918 -8.498730 -0.104137 0.182878 0.434067 -0.065255
    3 3.185790 -2.026945 1.468279 0.287571 -3.172304 1.561092
    4 2.577593 2.064427 0.000000 0.000000 0.000000 1.570796
    5 5.847807 -0.812363 -0.469308 0.000000 1.570796 0.000000
    6 6.633783 4.767243 0.000001 0.000000 0.000000 1.175716
    7 0.003682 -0.001831 0.000001 0.000000 0.000000 0.000000
    8 15.937986 10.449538 0.000000 0.000000 0.000000 0.000000
    9 1.257180 8.762585 -0.153713 -1.570562 0.002683 -1.566807
    10 -0.488518 -2.755602 -0.228260 -1.377081 -0.145312 -0.214898
    11 0.039887 -1.479790 0.029854 -1.805815 0.000000 0.000001
    12 0.028786 -1.075731 -0.023109 -0.515755 0.000000 0.000000
    13 0.250027 -2.820665 -0.238396 -1.129859 -0.041200 -0.009606
    14 -0.049759 -1.680544 0.100479 -1.799473 0.000000 -0.000002
    15 -0.034142 -1.148312 0.084782 -0.765238 0.000000 0.000000
    16 0.957766 -2.746780 -0.090302 0.008798 -0.162936 0.031144
    17 -0.033420 -1.397129 -0.011257 -1.014834 0.000000 -0.000001
    18 -0.022360 -0.957436 0.018784 -0.813633 0.000000 0.000000
    19 -1.180681 -2.507217 -0.193859 -1.383686 -0.013084 -0.338762
    20 -0.024967 -1.123934 0.017597 -1.695664 0.000000 0.000001
    21 -0.020057 -0.890968 0.010090 -0.437221 0.000000 0.000000
    22 0.583510 -1.197277 0.185379 0.359738 -0.974933 -0.637718
    23 1.535927 0.010246 0.005009 -0.002964 -0.012979 -1.127120
    24 1.100771 0.004527 -0.010679 -0.011497 0.011431 -0.612087
    25 0.120153 -0.050270 -0.054489 0.287569 3.110905 1.561085
    26 -4.595120 -5.797683 -10.208626 -2.187057 -5.280053 -1.051047
    27 0.096944 -8.450418 -0.009365 0.112176 -0.247810 -0.035666
    28 0.447953 -2.798986 -0.200443 -0.807493 -0.034881 0.226000
    29 -0.032909 -1.480204 0.004940 -1.071269 0.000000 0.000002
    30 -0.027022 -1.076920 -0.020210 -0.672868 0.000000 0.000000
    31 -0.249534 -2.846964 -0.174213 -0.575206 -0.064494 0.180481
    32 0.043235 -1.683941 0.096012 -1.141213 0.002823 -0.000167
    33 0.031729 -1.160830 0.058838 -0.598612 0.000642 0.008372
    34 -0.963866 -2.785145 -0.085350 -0.721118 -0.017721 0.107472
    35 0.028479 -1.403067 0.006271 -0.816818 0.000000 0.000000
    36 0.021413 -0.957781 0.020046 -0.765549 0.000000 0.000000
    37 1.164475 -2.543940 -0.170330 -0.855418 -0.163533 0.353946
    38 0.024032 -1.129042 0.017807 -0.808195 0.000000 0.000001
    39 0.014898 -0.883989 -0.019848 -0.680372 0.000000 0.000000
    40 -0.586770 -1.264477 0.200161 0.354900 -0.560341 -2.654290
    41 1.522835 0.058681 0.016848 0.001410 0.008985 0.738064
    42 1.117947 0.048424 -0.005766 -0.014804 -0.013357 0.810541
    43 -0.139399 -0.111698 0.014397 0.834337 0.224429 1.629010
    44 -1.393470 8.839177 -0.239433 1.580804 -0.005023 -1.566847
  time 21
    0 -0.999830 1.628925 0.541027 0.000000 0.000000 0.000000
    1 8.919466 1.968996 -11.669763 1.351021 -1.897454 -1.518740
    2 -0.071918 -8.498730 -0.104137 0.192099 0.410385 -0.033628
    3 3.185790 -2.026945 1.468279 0.287571 -3.172304 1.561092
    4 2.577593 2.064427 0.000000 0.000000 0.000000 1.570796
    5 5.847807 -0.812363 -0.469308 0.000000 1.570796 0.000000
    6 6.633783 4.767243 0.000001 0.000000 0.000000 1.175716
    7 0.003682 -0.001831 0.000001 0.000000 0.000000 0.000000
    8 15.937986 10.449538 0.000000 0.000000 0.000000 0.000000
    9 1.257180 8.762585 -0.153713 -1.570562 0.002683 -1.566807
    10 -0.488518 -2.755602 -0.228260 -1.377081 -0.145312 -0.214898
    11 0.039887 -1.479790 0.029854 -1.805815 0.000000 0.000001
    12 0.028786 -1.075731 -0.023109 -0.515755 0.000000 0.000000
    13 0.250027 -2.820665 -0.238396 -1.129859 -0.041200 -0.009606
    14 -0.049759 -1.680544 0.100479 -1.799473 0.000000 -0.000002
    15 -0.034142 -1.148312 0.084782 -0.765238 0.000000 0.000000
    16 0.957766 -2.746780 -0.090302 0.008798 -0.162936 0.031144
    17 -0.033420 -1.397129 -0.011257 -1.014834 0.000000 -0.000001
    18 -0.022360 -0.957436 0.018784 -0.813633 0.000000 0.000000
    19 -1.180681 -2.507217 -0.193859 -1.383686 -0.013084 -0.338762
    20 -0.024967 -1.123934 0.017597 -1.695664 0.000000 0.000001
    21 -0.020057 -0.890968 0.010090 -0.437221 0.000000 0.000000
    22 0.583510 -1.197277 0.185379 0.359738 -0.974933 -0.637718
    23 1.535927 0.010246 0.005009 -0.002964 -0.012979 -1.127120
    24 1.100771 0.004527 -0.010679 -0.011497 0.011431 -0.612087
    25 0.120153 -0.050270 -0.054489 0.287569 3.110905 1.561085
    26 -5.149824 -6.399264 -9.614858 -2.296013 -5.222924 -1.213559
    27 0.096944 -8.450418 -0.009365 0.266692 -0.408840 -0.028516
    28 0.447953 -2.798986 -0.200443 -0.688744 -0.034881 0.226000
    29 -0.032909 -1.480204 0.004940 -0.732118 0.000000 0.000002
    30 -0.027022 -1.076920 -0.020210 -0.421810 0.000000 0.000000
    31 -0.249534 -2.846964 -0.174213 -0.408130 -0.064494 0.180481
    32 0.043235 -1.683941 0.096012 -0.836513 0.002823 -0.000167
    33 0.031729 -1.160830 0.058838 -0.398333 0.000642 0.008372
    34 -0.963866 -2.785145 -0.085350 -0.564578 -0.017721 0.107472
    35 0.028479 -1.403067 0.006271 -0.512830 0.000000 0.000000
    36 0.021413 -0.957781 0.020046 -0.575141 0.000000 0.000000
    37 1.164475 -2.543940 -0.170330 -0.742611 -0.163533 0.353946
    38 0.024032 -1.129042 0.017807 -0.427969 0.000000 0.000001
    39 0.014898 -0.883989 -0.019848 -0.475873 0.000000 0.000000
    40 -0.586770 -1.264477 0.200161 0.243533 -0.514812 -2.616395
    41 1.522835 0.058681 0.016848 0.001410 0.008985 0.581230
    42 1.117947 0.048424 -0.005766 -0.010250 -0.015191 0.588278
    43 -0.139399 -0.111698 0.014397 0.834337 0.224429 1.629010
    44 -1.393470 8.839177 -0.239433 1.580804 -0.005023 -1.566847
  time 22
    0 -0.999830 1.628925 0.541027 0.000000 0.000000 0.000000
    1 8.786650 2.090094 -11.134590 4.582713 -1.295472 1.529063
    2 -0.071918 -8.498730 -0.104137 0.195856 0.389148 -0.020684
    3 3.185790 -2.026945 1.468279 0.287571 -3.172304 1.561092
    4 2.577593 2.064427 0.000000 0.000000 0.000000 1.570796
    5 5.847807 -0.812363 -0.469308 0.000000 1.570796 0.000000
    6 6.633783 4.767243 0.000001 0.000000 0.000000 1.175716
    7 0.003682 -0.001831 0.000001 0.000000 0.000000 0.000000
    8 15.937986 10.449538 0.000000 0.000000 0.000000 0.000000
    9 1.257180 8.762585 -0.153713 -1.570562 0.002683 -1.566807
    10 -0.488518 -2.755602 -0.228260 -1.377081 -0.145312 -0.214898
    11 0.039887 -1.479790 0.029854 -1.805815 0.000000 0.000001
    12 0.028786 -1.075731 -0.023109 -0.515755 0.000000 0.000000
    13 0.250027 -2.820665 -0.238396 -1.129859 -0.041200 -0.009606
    14 -0.049759 -1.680544 0.100479 -1.799473 0.000000 -0.000002
    15 -0.034142 -1.148312 0.084782 -0.765238 0.000000 0.000000
    16 0.957766 -2.746780 -0.090302 0.008798 -0.162936 0.031144
    17 -0.033420 -1.397129 -0.011257 -1.014834 0.000000 -0.000001
    18 -0.022360 -0.957436 0.018784 -0.813633 0.000000 0.000000
    19 -1.180681 -2.507217 -0.193859 -1.383686 -0.013084 -0.338762
    20 -0.024967 -1.123934 0.017597 -1.695664 0.000000 0.000001
    21 -0.020057 -0.890968 0.010090 -0.437221 0.000000 0.000000
    22 0.583510 -1.197277 0.185379 0.359738 -0.974933 -0.637718
    23 1.535927 0.010246 0.005009 -0.002964 -0.012979 -1.127120
    24 1.100771 0.004527 -0.010679 -0.011497 0.011431 -0.612087
    25 0.120153 -0.050270 -0.054489 0.287569 3.110905 1.561085
    26 -5.411551 -7.110223 -9.216408 -2.381871 -5.171843 -1.355829
    27 0.096944 -8.450418 -0.009365 0.414218 -0.578265 -0.026836
    28 0.447953 -2.798986 -0.200443 -0.638955 -0.034881 0.226000
    29 -0.032909 -1.480204 0.004940 -0.473947 0.000000 0.000002
    30 -0.027022 -1.076920 -0.020210 -0.316553 0.000000 0.000000
    31 -0.249534 -2.846964 -0.174213 -0.338079 -0.064494 0.180481
    32 0.043235 -1.683941 0.096012 -0.602512 0.002823 -0.000167
    33 0.031729 -1.160830 0.058838 -0.314367 0.000642 0.008372
    34 -0.963866 -2.785145 -0.085350 -0.441094 -0.017721 0.107472
    35 0.028479 -1.403067 0.006271 -0.350421 0.000000 0.000000
    36 0.021413 -0.957781 0.020046 -0.427104 0.000000 0.000000
    37 1.164475 -2.543940 -0.170330 -0.695334 -0.163533 0.353946
    38 0.024032 -1.129042 0.017807 -0.268590 0.000000 0.000001
    39 0.014898 -0.883989 -0.019848 -0.390123 0.000000 0.000000
    40 -0.586770 -1.264477 0.200161 0.122337 -0.469961 -2.575163
    41 1.522835 0.058681 0.016848 0.001410 0.008985 0.424396
    42 1.117947 0.048424 -0.005766 -0.005696 -0.017204 0.366050
    43 -0.139399 -0.111698 0.014397 0.834337 0.224429 1.629010
    44 -1.393470 8.839177 -0.239433 1.580804 -0.005023 -1.566847
  time 23
    0 -0.999830 1.628925 0.541027 0.000000 0.000000 0.000000
    1 8.704616 2.152596 -10.599418 4.582142 -1.340656 1.530303
    2 -0.071918 -8.498730 -0.104137 0.191507 0.368127 -0.030176
    3 3.185790 -2.026945 1.468279 0.287571 -3.172304 1.561092
    4 2.577593 2.064427 0.000000 0.000000 0.000000 1.570796
    5 5.847807 -0.812363 -0.469308 0.000000 1.570796 0.000000
    6 6.633783 4.767243 0.000001 0.000000 0.000000 1.175716
    7 0.003682 -0.001831 0.000001 0.000000 0.000000 0.000000
    8 15.937986 10.449538 0.000000 0.000000 0.000000 0.000000
    9 1.257180 8.762585 -0.153713 -1.570562 0.002683 -1.566807
    10 -0.488518 -2.755602 -0.228260 -1.377081 -0.145312 -0.214898
    11 0.039887 -1.479790 0.029854 -1.805815 0.000000 0.000001
    12 0.028786 -1.075731 -0.023109 -0.515755 0.000000 0.000000
    13 0.250027 -2.820665 -0.238396 -1.129859 -0.041200 -0.009606
    14 -0.049759 -1.680544 0.100479 -1.799473 0.000000 -0.000002
    15 -0.034142 -1.148312 0.084782 -0.765238 0.000000 0.000000
    16 0.957766 -2.746780 -0.090302 0.008798 -0.162936 0.031144
    17 -0.033420 -1.397129 -0.011257 -1.014834 0.000000 -0.000001
    18 -0.022360 -0.957436 0.018784 -0.813633 0.000000 0.000000
    19 -1.180681 -2.507217 -0.193859 -1.383686 -0.013084 -0.338762
    20 -0.024967 -1.123934 0.017597 -1.695664 0.000000 0.000001
    21 -0.020057 -0.890968 0.010090 -0.437221 0.000000 0.000000
    22 0.583510 -1.197277 0.185379 0.359738 -0.974933 -0.637718
    23 1.535927 0.010246 0.005009 -0.002964 -0.012979 -1.127120
    24 1.100771 0.004527 -0.010679 -0.011497 0.011431 -0.612087
    25 0.120153 -0.050270 -0.054489 0.287569 3.110905 1.561085
    26 -4.614651 -8.352449 -9.259378 -2.392417 -5.139834 -1.441000
    27 0.096944 -8.450418 -0.009365 0.543277 -0.752312 -0.081725
    28 0.447953 -2.798986 -0.200443 -0.689004 -0.034881 0.226000
    29 -0.032909 -1.480204 0.004940 -0.331611 0.000000 0.000002
    30 -0.027022 -1.076920 -0.020210 -0.346575 0.000000 0.000000
    31 -0.249534 -2.846964 -0.174213 -0.391443 -0.064494 0.180481
    32 0.043235 -1.683941 0.096012 -0.465167 0.002823 -0.000167
    33 0.031729 -1.160830 0.058838 -0.341050 0.000642 0.008372
    34 -0.963866 -2.785145 -0.085350 -0.356737 -0.017721 0.107472
    35 0.028479 -1.403067 0.006271 -0.308520 0.000000 0.000000
    36 0.021413 -0.957781 0.020046 -0.333751 0.000000 0.000000
    37 1.164475 -2.543940 -0.170330 -0.744324 -0.163533 0.353946
    38 0.024032 -1.129042 0.017807 -0.280009 0.000000 0.000001
    39 0.014898 -0.883989 -0.019848 -0.417792 0.000000 0.000000
    40 -0.586770 -1.264477 0.200161 0.001141 -0.428082 -2.533916
    41 1.522835 0.058681 0.016848 0.001410 0.008985 0.287592
    42 1.117947 0.048424 -0.005766 -0.001717 -0.019242 0.172159
    43 -0.139399 -0.111698 0.014397 0.834337 0.224429 1.629010
    44 -1.393470 8.839177 -0.239433 1.580804 -0.005023 -1.566847
  time 24
    0 -0.999830 1.628925 0.541027 0.000000 0.000000 0.000000
    1 8.661646 2.168221 -10.064245 1.384230 -1.760682 -1.553741
    2 -0.071918 -8.498730 -0.104137 0.181156 0.346316 -0.052815
    3 3.185790 -2.026945 1.468279 0.287571 -3.172304 1.561092
    4 2.577593 2.064427 0.000000 0.000000 0.000000 1.570796
    5 5.847807 -0.812363 -0.469308 0.000000 1.570796 0.000000
    6 6.633783 4.767243 0.000001 0.000000 0.000000 1.175716
    7 0.003682 -0.001831 0.000001 0.000000 0.000000 0.000000
    8 15.937986 10.449538 0.000000 0.000000 0.000000 0.000000
    9 1.257180 8.762585 -0.153713 -1.570562 0.002683 -1.566807
    10 -0.488518 -2.755602 -0.228260 -1.377081 -0.145312 -0.214898
    11 0.039887 -1.479790 0.029854 -1.805815 0.000000 0.000001
    12 0.028786 -1.075731 -0.023109 -0.515755 0.000000 0.000000
    13 0.250027 -2.820665 -0.238396 -1.129859 -0.041200 -0.009606
    14 -0.049759 -1.680544 0.100479 -1.799473 0.000000 -0.000002
    15 -0.034142 -1.148312 0.084782 -0.765238 0.000000 0.000000
    16 0.957766 -2.746780 -0.090302 0.008798 -0.162936 0.031144
    17 -0.033420 -1.397129 -0.011257 -1.014834 0.000000 -0.000001
    18 -0.022360 -0.957436 0.018784 -0.813633 0.000000 0.000000
    19 -1.180681 -2.507217 -0.193859 -1.383686 -0.013084 -0.338762
    20 -0.024967 -1.123934 0.017597 -1.695664 0.000000 0.000001
    21 -0.020057 -0.890968 0.010090 -0.437221 0.000000 0.000000
    22 0.583510 -1.197277 0.185379 0.359738 -0.974933 -0.637718
    23 1.535927 0.010246 0.005009 -0.002964 -0.012979 -1.127120
    24 1.100771 0.004527 -0.010679 -0.011497 0.011431 -0.612087
    25 0.120153 -0.050270 -0.054489 0.287569 3.110905 1.561085
    26 -2.809909 -9.872026 -9.442978 -2.379123 -5.130844 -1.526935
    27 0.096944 -8.450418 -0.009365 0.686035 -0.955247 -0.212656
    28 0.447953 -2.798986 -0.200443 -0.808274 -0.034881 0.226000
    29 -0.032909 -1.480204 0.004940 -0.267875 0.000000 0.000002
    30 -0.027022 -1.076920 -0.020210 -0.418218 0.000000 0.000000
    31 -0.249534 -2.846964 -0.174213 -0.518677 -0.064494 0.180481
    32 0.043235 -1.683941 0.096012 -0.393702 0.002823 -0.000167
    33 0.031729 -1.160830 0.058838 -0.404686 0.000642 0.008372
    34 -0.963866 -2.785145 -0.085350 -0.299921 -0.017721 0.107472
    35 0.028479 -1.403067 0.006271 -0.291105 0.000000 0.000000
    36 0.021413 -0.957781 0.020046 -0.278040 0.000000 0.000000
    37 1.164475 -2.543940 -0.170330 -0.861142 -0.163533 0.353946
    38 0.024032 -1.129042 0.017807 -0.333062 0.000000 0.000001
    39 0.014898 -0.883989 -0.019848 -0.483712 0.000000 0.000000
    40 -0.586770 -1.264477 0.200161 -0.110225 -0.391519 -2.496021
    41 1.522835 0.058681 0.016848 0.001410 0.008985 0.190819
    42 1.117947 0.048424 -0.005766 0.001087 -0.021171 0.035044
    43 -0.139399 -0.111698 0.014397 0.834337 0.224429 1.629010
    44 -1.393470 8.839177 -0.239433 1.580804 -0.005023 -1.566847
  time 25
    0 -0.999830 1.628925 0.541027 0.000000 0.000000 0.000000
    1 8.642114 2.183847 -9.673608 1.330943 -1.733144 -1.500047
    2 -0.071918 -8.498730 -0.104137 0.168805 0.326853 -0.079828
    3 3.185790 -2.026945 1.468279 0.287571 -3.172304 1.561092
    4 2.577593 2.064427 0.000000 0.000000 0.000000 1.570796
    5 5.847807 -0.812363 -0.469308 0.000000 1.570796 0.000000
    6 6.633783 4.767243 0.000001 0.000000 0.000000 1.175716
    7 0.003682 -0.001831 0.000001 0.000000 0.000000 0.000000
    8 15.937986 10.449538 0.000000 0.000000 0.000000 0.000000
    9 1.257180 8.762585 -0.153713 -1.570562 0.002683 -1.566807
    10 -0.488518 -2.755602 -0.228260 -1.377081 -0.145312 -0.214898
    11 0.039887 -1.479790 0.029854 -1.805815 0.000000 0.000001
    12 0.028786 -1.075731 -0.023109 -0.515755 0.000000 0.000000
    13 0.250027 -2.820665 -0.238396 -1.129859 -0.041200 -0.009606
    14 -0.049759 -1.680544 0.100479 -1.799473 0.000000 -0.000002
    15 -0.034142 -1.148312 0.084782 -0.765238 0.000000 0.000000
    16 0.957766 -2.746780 -0.090302 0.008798 -0.162936 0.031144
    17 -0.033420 -1.397129 -0.011257 -1.014834 0.000000 -0.000001
    18 -0.022360 -0.957436 0.018784 -0.813633 0.000000 0.000000
    19 -1.180681 -2.507217 -0.193859 -1.383686 -0.013084 -0.338762
    20 -0.024967 -1.123934 0.017597 -1.695664 0.000000 0.000001
    21 -0.020057 -0.890968 0.010090 -0.437221 0.000000 0.000000
    22 0.583510 -1.197277 0.185379 0.359738 -0.974933 -0.637718
    23 1.535927 0.010246 0.005009 -0.002964 -0.012979 -1.127120
    24 1.100771 0.004527 -0.010679 -0.011497 0.011431 -0.612087
    25 0.120153 -0.050270 -0.054489 0.287569 3.110905 1.561085
    26 -1.102826 -10.774398 -9.603139 0.772206 -4.285496 1.521366
    27 0.096944 -8.450418 -0.009365 0.818165 -1.148259 -0.368955
    28 0.447953 -2.798986 -0.200443 -0.950703 -0.034881 0.226000
    29 -0.032909 -1.480204 0.004940 -0.253171 0.000000 0.000002
    30 -0.027022 -1.076920 -0.020210 -0.503768 0.000000 0.000000
    31 -0.249534 -2.846964 -0.174213 -0.670546 -0.064494 0.180481
    32 0.043235 -1.683941 0.096012 -0.373220 0.002823 -0.000167
    33 0.031729 -1.160830 0.058838 -0.480658 0.000642 0.008372
    34 -0.963866 -2.785145 -0.085350 -0.279109 -0.017721 0.107472
    35 0.028479 -1.403067 0.006271 -0.287593 0.000000 0.000000
    36 0.021413 -0.957781 0.020046 -0.259604 0.000000 0.000000
    37 1.164475 -2.543940 -0.170330 -1.000584 -0.163533 0.353946
    38 0.024032 -1.129042 0.017807 -0.455725 0.000000 0.000001
    39 0.014898 -0.883989 -0.019848 -0.562368 0.000000 0.000000
    40 -0.586770 -1.264477 0.200161 -0.201931 -0.362520 -2.464815
    41 1.522835 0.058681 0.016848 0.001410 0.008985 0.154106
    42 1.117947 0.048424 -0.005766 0.002154 -0.022813 -0.016958
    43 -0.139399 -0.111698 0.014397 0.834337 0.224429 1.629010
    44 -1.393470 8.839177 -0.239433 1.580804 -0.005023 -1.566847
  time 26
    0 -0.999830 1.628925 0.541027 0.000000 0.000000 0.000000
    1 8.626489 2.219004 -9.470477 1.324568 -1.718734 -1.493847
    2 -0.071918 -8.498730 -0.104137 0.158454 0.312878 -0.102467
    3 3.185790 -2.026945 1.468279 0.287571 -3.172304 1.561092
    4 2.577593 2.064427 0.000000 0.000000 0.000000 1.570796
    5 5.847807 -0.812363 -0.469308 0.000000 1.570796 0.000000
    6 6.633783 4.767243 0.000001 0.000000 0.000000 1.175716
    7 0.003682 -0.001831 0.000001 0.000000 0.000000 0.000000
    8 15.937986 10.449538 0.000000 0.000000 0.000000 0.000000
    9 1.257180 8.762585 -0.153713 -1.570562 0.002683 -1.566807
    10 -0.488518 -2.755602 -0.228260 -1.377081 -0.145312 -0.214898
    11 0.039887 -1.479790 0.029854 -1.805815 0.000000 0.000001
    12 0.028786 -1.075731 -0.023109 -0.515755 0.000000 0.000000
    13 0.250027 -2.820665 -0.238396 -1.129859 -0.041200 -0.009606
    14 -0.049759 -1.680544 0.100479 -1.799473 0.000000 -0.000002
    15 -0.034142 -1.148312 0.084782 -0.765238 0.000000 0.000000
    16 0.957766 -2.746780 -0.090302 0.008798 -0.162936 0.031144
    17 -0.033420 -1.397129 -0.011257 -1.014834 0.000000 -0.000001
    18 -0.022360 -0.957436 0.018784 -0.813633 0.000000 0.000000
    19 -1.180681 -2.507217 -0.193859 -1.383686 -0.013084 -0.338762
    20 -0.024967 -1.123934 0.017597 -1.695664 0.000000 0.000001
    21 -0.020057 -0.890968 0.010090 -0.437221 0.000000 0.000000
    22 0.583510 -1.197277 0.185379 0.359738 -0.974933 -0.637718
    23 1.535927 0.010246 0.005009 -0.002964 -0.012979 -1.127120
    24 1.100771 0.004527 -0.010679 -0.011497 0.011431 -0.612087
    25 0.120153 -0.050270 -0.054489 0.287569 3.110905 1.561085
    26 0.358157 -10.911121 -9.544543 0.772132 -4.269030 1.439632
    27 0.096944 -8.450418 -0.009365 0.915344 -1.292533 -0.499886
    28 0.447953 -2.798986 -0.200443 -1.069972 -0.034881 0.226000
    29 -0.032909 -1.480204 0.004940 -0.896616 0.000000 0.000002
    30 -0.027022 -1.076920 -0.020210 -0.575411 0.000000 0.000000
    31 -0.249534 -2.846964 -0.174213 -0.797780 -0.064494 0.180481
    32 0.043235 -1.683941 0.096012 -1.024513 0.002823 -0.000167
    33 0.031729 -1.160830 0.058838 -0.544294 0.000642 0.008372
    34 -0.963866 -2.785145 -0.085350 -0.421254 -0.017721 0.107472
    35 0.028479 -1.403067 0.006271 -0.892635 0.000000 0.000000
    36 0.021413 -0.957781 0.020046 -0.401227 0.000000 0.000000
    37 1.164475 -2.543940 -0.170330 -1.117403 -0.163533 0.353946
    38 0.024032 -1.129042 0.017807 -1.080456 0.000000 0.000001
    39 0.014898 -0.883989 -0.019848 -0.628287 0.000000 0.000000
    40 -0.586770 -1.264477 0.200161 -0.264168 -0.343429 -2.443635
    41 1.522835 0.058681 0.016848 0.001410 0.008985 0.290587
    42 1.117947 0.048424 -0.005766 -0.000003 -0.024335 0.062066
    43 -0.139399 -0.111698 0.014397 0.834337 0.224429 1.629010
    44 -1.393470 8.839177 -0.239433 1.580804 -0.005023 -1.566847
  time 27
    0 -0.999830 1.628925 0.541027 0.000000 0.000000 0.000000
    1 8.622582 2.230723 -9.376724 1.335986 -1.713666 -1.505769
    2 -0.071918 -8.498730 -0.104137 0.154104 0.307521 -0.111971
    3 3.185790 -2.026945 1.468279 0.287571 -3.172304 1.561092
    4 2.577593 2.064427 0.000000 0.000000 0.000000 1.570796
    5 5.847807 -0.812363 -0.469308 0.000000 1.570796 0.000000
    6 6.633783 4.767243 0.000001 0.000000 0.000000 1.175716
    7 0.003682 -0.001831 0.000001 0.000000 0.000000 0.000000
    8 15.937986 10.449538 0.000000 0.000000 0.000000 0.000000
    9 1.257180 8.762585 -0.153713 -1.570562 0.002683 -1.566807
    10 -0.488518 -2.755602 -0.228260 -1.377081 -0.145312 -0.214898
    11 0.039887 -1.479790 0.029854 -1.805815 0.000000 0.000001
    12 0.028786 -1.075731 -0.023109 -0.515755 0.000000 0.000000
    13 0.250027 -2.820665 -0.238396 -1.129859 -0.041200 -0.009606
    14 -0.049759 -1.680544 0.100479 -1.799473 0.000000 -0.000002
    15 -0.034142 -1.148312 0.084782 -0.765238 0.000000 0.000000
    16 0.957766 -2.746780 -0.090302 0.008798 -0.162936 0.031144
    17 -0.033420 -1.397129 -0.011257 -1.014834 0.000000 -0.000001
    18 -0.022360 -0.957436 0.018784 -0.813633 0.000000 0.000000
    19 -1.180681 -2.507217 -0.193859 -1.383686 -0.013084 -0.338762
    20 -0.024967 -1.123934 0.017597 -1.695664 0.000000 0.000001
    21 -0.020057 -0.890968 0.010090 -0.437221 0.000000 0.000000
    22 0.583510 -1.197277 0.185379 0.359738 -0.974933 -0.637718
    23 1.535927 0.010246 0.005009 -0.002964 -0.012979 -1.127120
    24 1.100771 0.004527 -0.010679 -0.011497 0.011431 -0.612087
    25 0.120153 -0.050270 -0.054489 0.287569 3.110905 1.561085
    26 1.162869 -10.903308 -9.407820 0.770126 -4.260544 1.404113
    27 0.096944 -8.450418 -0.009365 0.953124 -1.349257 -0.554808
    28 0.447953 -2.798986 -0.200443 -1.120021 -0.034881 0.226000
    29 -0.032909 -1.480204 0.004940 -1.540008 0.000000 0.000002
    30 -0.027022 -1.076920 -0.020210 -0.605433 0.000000 0.000000
    31 -0.249534 -2.846964 -0.174213 -0.851110 -0.064494 0.180481
    32 0.043235 -1.683941 0.096012 -1.675807 0.002823 -0.000167
    33 0.031729 -1.160830 0.058838 -0.570977 0.000642 0.008372
    34 -0.963866 -2.785145 -0.085350 -0.563399 -0.017721 0.107472
    35 0.028479 -1.403067 0.006271 -1.497628 0.000000 0.000000
    36 0.021413 -0.957781 0.020046 -0.542851 0.000000 0.000000
    37 1.164475 -2.543940 -0.170330 -1.166392 -0.163533 0.353946
    38 0.024032 -1.129042 0.017807 -1.621756 0.000000 0.000001
    39 0.014898 -0.883989 -0.019848 -0.655917 0.000000 0.000000
    40 -0.586770 -1.264477 0.200161 -0.287084 -0.336566 -2.435833
    41 1.522835 0.058681 0.016848 0.001410 0.008985 0.427101
    42 1.117947 0.048424 -0.005766 -0.002137 -0.025114 0.141055
    43 -0.139399 -0.111698 0.014397 0.834337 0.224429 1.629010
    44 -1.393470 8.839177 -0.239433 1.580804 -0.005023 -1.566847
  time 28
    0 -0.999830 1.628925 0.541027 0.000000 0.000000 0.000000
    1 8.622582 2.222910 -9.392350 1.357967 -1.717086 -1.528467
    2 -0.071918 -8.498730 -0.104137 0.154104 0.307521 -0.111971
    3 3.185790 -2.026945 1.468279 0.287571 -3.172304 1.561092
    4 2.577593 2.064427 0.000000 0.000000 0.000000 1.570796
    5 5.847807 -0.812363 -0.469308 0.000000 1.570796 0.000000
    6 6.633783 4.767243 0.000001 0.000000 0.000000 1.175716
    7 0.003682 -0.001831 0.000001 0.000000 0.000000 0.000000
    8 15.937986 10.449538 0.000000 0.000000 0.000000 0.000000
    9 1.257180 8.762585 -0.153713 -1.570562 0.002683 -1.566807
    10 -0.488518 -2.755602 -0.228260 -1.377081 -0.145312 -0.214898
    11 0.039887 -1.479790 0.029854 -1.805815 0.000000 0.000001
    12 0.028786 -1.075731 -0.023109 -0.515755 0.000000 0.000000
    13 0.250027 -2.820665 -0.238396 -1.129859 -0.041200 -0.009606
    14 -0.049759 -1.680544 0.100479 -1.799473 0.000000 -0.000002
    15 -0.034142 -1.148312 0.084782 -0.765238 0.000000 0.000000
    16 0.957766 -2.746780 -0.090302 0.008798 -0.162936 0.031144
    17 -0.033420 -1.397129 -0.011257 -1.014834 0.000000 -0.000001
    18 -0.022360 -0.957436 0.018784 -0.813633 0.000000 0.000000
    19 -1.180681 -2.507217 -0.193859 -1.383686 -0.013084 -0.338762
    20 -0.024967 -1.123934 0.017597 -1.695664 0.000000 0.000001
    21 -0.020057 -0.890968 0.010090 -0.437221 0.000000 0.000000
    22 0.583510 -1.197277 0.185379 0.359738 -0.974933 -0.637718
    23 1.535927 0.010246 0.005009 -0.002964 -0.012979 -1.127120
    24 1.100771 0.004527 -0.010679 -0.011497 0.011431 -0.612087
    25 0.120153 -0.050270 -0.054489 0.287569 3.110905 1.561085
    26 1.151150 -10.907214 -9.353131 0.764779 -4.256512 1.398288
    27 0.096944 -8.450418 -0.009365 0.953124 -1.349257 -0.554808
    28 0.447953 -2.798986 -0.200443 -1.120021 -0.034881 0.226000
    29 -0.032909 -1.480204 0.004940 -1.540008 0.000000 0.000002
    30 -0.027022 -1.076920 -0.020210 -0.605433 0.000000 0.000000
    31 -0.249534 -2.846964 -0.174213 -0.851110 -0.064494 0.180481
    32 0.043235 -1.683941 0.096012 -1.675807 0.002823 -0.000167
    33 0.031729 -1.160830 0.058838 -0.570977 0.000642 0.008372
    34 -0.963866 -2.785145 -0.085350 -0.563399 -0.017721 0.107472
    35 0.028479 -1.403067 0.006271 -1.497628 0.000000 0.000000
    36 0.021413 -0.957781 0.020046 -0.542851 0.000000 0.000000
    37 1.164475 -2.543940 -0.170330 -1.166392 -0.163533 0.353946
    38 0.024032 -1.129042 0.017807 -1.621756 0.000000 0.000001
    39 0.014898 -0.883989 -0.019848 -0.655917 0.000000 0.000000
    40 -0.586770 -1.264477 0.200161 -0.287084 -0.336566 -2.435833
    41 1.522835 0.058681 0.016848 0.001410 0.008985 0.427101
    42 1.117947 0.048424 -0.005766 -0.002137 -0.025114 0.141055
    43 -0.139399 -0.111698 0.014397 0.834337 0.224429 1.629010
    44 -1.393470 8.839177 -0.239433 1.580804 -0.005023 -1.566847
  time 29
    0 -0.999830 1.628925 0.541027 0.000000 0.000000 0.000000
    1 8.626489 2.183847 -9.521260 1.380044 -1.728076 -1.551643
    2 -0.071918 -8.498730 -0.104137 0.154104 0.307521 -0.111971
    3 3.185790 -2.026945 1.468279 0.287571 -3.172304 1.561092
    4 2.577593 2.064427 0.000000 0.000000 0.000000 1.570796
    5 5.847807 -0.812363 -0.469308 0.000000 1.570796 0.000000
    6 6.633783 4.767243 0.000001 0.000000 0.000000 1.175716
    7 0.003682 -0.001831 0.000001 0.000000 0.000000 0.000000
    8 15.937986 10.449538 0.000000 0.000000 0.000000 0.000000
    9 1.257180 8.762585 -0.153713 -1.570562 0.002683 -1.566807
    10 -0.488518 -2.755602 -0.228260 -1.377081 -0.145312 -0.214898
    11 0.039887 -1.479790 0.029854 -1.805815 0.000000 0.000001
    12 0.028786 -1.075731 -0.023109 -0.515755 0.000000 0.000000
    13 0.250027 -2.820665 -0.238396 -1.129859 -0.041200 -0.009606
    14 -0.049759 -1.680544 0.100479 -1.799473 0.000000 -0.000002
    15 -0.034142 -1.148312 0.084782 -0.765238 0.000000 0.000000
    16 0.957766 -2.746780 -0.090302 0.008798 -0.162936 0.031144
    17 -0.033420 -1.397129 -0.011257 -1.014834 0.000000 -0.000001
    18 -0.022360 -0.957436 0.018784 -0.813633 0.000000 0.000000
    19 -1.180681 -2.507217 -0.193859 -1.383686 -0.013084 -0.338762
    20 -0.024967 -1.123934 0.017597 -1.695664 0.000000 0.000001
    21 -0.020057 -0.890968 0.010090 -0.437221 0.000000 0.000000
    22 0.583510 -1.197277 0.185379 0.359738 -0.974933 -0.637718
    23 1.535927 0.010246 0.005009 -0.002964 -0.012979 -1.127120
    24 1.100771 0.004527 -0.010679 -0.011497 0.011431 -0.612087
    25 0.120153 -0.050270 -0.054489 0.287569 3.110905 1.561085
    26 1.139430 -10.930652 -9.314067 0.762402 -4.245086 1.394851
    27 0.096944 -8.450418 -0.009365 0.953124 -1.349257 -0.554808
    28 0.447953 -2.798986 -0.200443 -1.120021 -0.034881 0.226000
    29 -0.032909 -1.480204 0.004940 -1.540008 0.000000 0.000002
    30 -0.027022 -1.076920 -0.020210 -0.605433 0.000000 0.000000
    31 -0.249534 -2.846964 -0.174213 -0.851110 -0.064494 0.180481
    32 0.043235 -1.683941 0.096012 -1.675807 0.002823 -0.000167
    33 0.031729 -1.160830 0.058838 -0.570977 0.000642 0.008372
    34 -0.963866 -2.785145 -0.085350 -0.563399 -0.017721 0.107472
    35 0.028479 -1.403067 0.006271 -1.497628 0.000000 0.000000
    36 0.021413 -0.957781 0.020046 -0.542851 0.000000 0.000000
    37 1.164475 -2.543940 -0.170330 -1.166392 -0.163533 0.353946
    38 0.024032 -1.129042 0.017807 -1.621756 0.000000 0.000001
    39 0.014898 -0.883989 -0.019848 -0.655917 0.000000 0.000000
    40 -0.586770 -1.264477 0.200161 -0.287084 -0.336566 -2.435833
    41 1.522835 0.058681 0.016848 0.001410 0.008985 0.427101
    42 1.117947 0.048424 -0.005766 -0.002137 -0.025114 0.141055
    43 -0.139399 -0.111698 0.014397 0.834337 0.224429 1.629010
    44 -1.393470 8.839177 -0.239433 1.580804 -0.005023 -1.566847
  time 30
    0 -0.999830 1.628925 0.541027 0.000000 0.000000 0.000000
    1 8.634302 2.109626 -9.759548 1.393651 -1.745539 -1.566807
    2 -0.071918 -8.498730 -0.104137 0.154104 0.307521 -0.111971
    3 3.185790 -2.026945 1.468279 0.287571 -3.172304 1.561092
    4 2.577593 2.064427 0.000000 0.000000 0.000000 1.570796
    5 5.847807 -0.812363 -0.469308 0.000000 1.570796 0.000000
    6 6.633783 4.767243 0.000001 0.000000 0.000000 1.175716
    7 0.003682 -0.001831 0.000001 0.000000 0.000000 0.000000
    8 15.937986 10.449538 0.000000 0.000000 0.000000 0.000000
    9 1.257180 8.762585 -0.153713 -1.570562 0.002683 -1.566807
    10 -0.488518 -2.755602 -0.228260 -1.377081 -0.145312 -0.214898
    11 0.039887 -1.479790 0.029854 -1.805815 0.000000 0.000001
    12 0.028786 -1.075731 -0.023109 -0.515755 0.000000 0.000000
    13 0.250027 -2.820665 -0.238396 -1.129859 -0.041200 -0.009606
    14 -0.049759 -1.680544 0.100479 -1.799473 0.000000 -0.000002
    15 -0.034142 -1.148312 0.084782 -0.765238 0.000000 0.000000
    16 0.957766 -2.746780 -0.090302 0.008798 -0.162936 0.031144
    17 -0.033420 -1.397129 -0.011257 -1.014834 0.000000 -0.000001
    18 -0.022360 -0.957436 0.018784 -0.813633 0.000000 0.000000
    19 -1.180681 -2.507217 -0.193859 -1.383686 -0.013084 -0.338762
    20 -0.024967 -1.123934 0.017597 -1.695664 0.000000 0.000001
    21 -0.020057 -0.890968 0.010090 -0.437221 0.000000 0.000000
    22 0.583510 -1.197277 0.185379 0.359738 -0.974933 -0.637718
    23 1.535927 0.010246 0.005009 -0.002964 -0.012979 -1.127120
    24 1.100771 0.004527 -0.010679 -0.011497 0.011431 -0.612087
    25 0.120153 -0.050270 -0.054489 0.287569 3.110905 1.561085
    26 1.119899 -10.985342 -9.310161 0.764704 -4.227527 1.395137
    27 0.096944 -8.450418 -0.009365 0.953124 -1.349257 -0.554808
    28 0.447953 -2.798986 -0.200443 -1.120021 -0.034881 0.226000
    29 -0.032909 -1.480204 0.004940 -1.540008 0.000000 0.000002
    30 -0.027022 -1.076920 -0.020210 -0.605433 0.000000 0.000000
    31 -0.249534 -2.846964 -0.174213 -0.851110 -0.064494 0.180481
    32 0.043235 -1.683941 0.096012 -1.675807 0.002823 -0.000167
    33 0.031729 -1.160830 0.058838 -0.570977 0.000642 0.008372
    34 -0.963866 -2.785145 -0.085350 -0.563399 -0.017721 0.107472
    35 0.028479 -1.403067 0.006271 -1.497628 0.000000 0.000000
    36 0.021413 -0.957781 0.020046 -0.542851 0.000000 0.000000
    37 1.164475 -2.543940 -0.170330 -1.166392 -0.163533 0.353946
    38 0.024032 -1.129042 0.017807 -1.621756 0.000000 0.000001
    39 0.014898 -0.883989 -0.019848 -0.655917 0.000000 0.000000
    40 -0.586770 -1.264477 0.200161 -0.287084 -0.336566 -2.435833
    41 1.522835 0.058681 0.016848 0.001410 0.008985 0.427101
    42 1.117947 0.048424 -0.005766 -0.002137 -0.025114 0.141055
    43 -0.139399 -0.111698 0.014397 0.834337 0.224429 1.629010
    44 -1.393470 8.839177 -0.239433 1.580804 -0.005023 -1.566847
end
