// Created by Crowbar 0.68

$modelname "weapons/tfa_cso/c_mechasaurus_mk4.mdl"

$include "csonline_gmod.qci"

$bodygroup "weapon"
{
	studio "v_y21s4janusd01"
}
$bodygroup "weapon"
{
	studio "v_y21s4janusd02"
}
$bodygroup "weapon"
{
	studio "v_y21s4janusd03"
}
$bodygroup "weapon"
{
	studio "v_y21s4janusd_ef"
}

$cdmaterials "models/weapons/tfa_cso/mechasaurus_mk4"

$attachment 0 "y21s4janus_root" 19.5 0 0
//$attachment 1 "y21s4janus_root" 5 0 0

$sequence "idleA" {
	"v_y21s4janusd_anims\idleA"
	fps 30
	activity "ACT_VM_IDLE" 1
	loop
}
$sequence "reloadA" {
	"v_y21s4janusd_anims\reloadA"
	{ event 5004 11 "MechasaurusMK.ClipOut" }
	{ event 5004 35 "MechasaurusMK.ClipIn1" }
	{ event 5004 41 "MechasaurusMK.ClipIn2" }
	{ event 5004 54 "MechasaurusMK.Boltpull" }
	fps 30
	activity "ACT_VM_RELOAD" 1
	snap
}
$sequence "drawA" {
	"v_y21s4janusd_anims\drawA"
	{ event 5004 0 "MechasaurusMK.Draw" }
	fps 30
	activity "ACT_VM_DRAW" 1
	snap
}
$sequence "shootA" {
	"v_y21s4janusd_anims\shootA"
	{ event 5001 0 "#I217 S0.035 R2 F0 P30 T999 A1 L0 O0 X0 D0" }
	{ event 5001 2 "#I190 S0.04 R2 F0 P30 T999 A1 L0 O0 X0 D0" }
	fps 30
	activity "ACT_VM_PRIMARYATTACK" 1
	snap
}
$sequence "shootA_signal" {
	"v_y21s4janusd_anims\shootA_signal"
	{ event 5001 0 "#I217 S0.035 R2 F0 P30 T999 A1 L0 O0 X0 D0" }
	{ event 5001 2 "#I190 S0.04 R2 F0 P30 T999 A1 L0 O0 X0 D0" }
	fps 30
}
$sequence "changeAB" {
	"v_y21s4janusd_anims\changeAB"
	{ event 5004 11 "MechasaurusMK.ChangeAB" }
	fps 30
	activity "ACT_VM_ATTACH_SILENCER" 1
	snap
}
$sequence "idleB" {
	"v_y21s4janusd_anims\idleB"
	fps 30
	activity "ACT_VM_IDLE_SILENCED" 1
	loop
}
$sequence "drawB" {
	"v_y21s4janusd_anims\drawB"
	{ event 5004 11 "MechasaurusMK.Draw" }
	fps 30
	activity "ACT_VM_DRAW_SILENCED" 1
	snap
}
$sequence "shootB" {
	"v_y21s4janusd_anims\shootB"
	{ event 5001 0 "#I190 S0.05 R2 F0 P30 T999 A1 L0 O0 X0 D0" }
	{ event 5001 1 "#I216 S0.05 R2 F0 P50 T999 A1 L0 O0 X0 D1" }
	fps 30
	activity "ACT_VM_PRIMARYATTACK_SILENCED" 1
	snap
}
$sequence "shootB_2" {
	"v_y21s4janusd_anims\shootB_2"
	{ event 5001 0 "#I190 S0.05 R2 F0 P30 T999 A1 L0 O0 X0 D0" }
	{ event 5001 1 "#I216 S0.05 R2 F0 P50 T999 A1 L0 O0 X0 D1" }
	fps 30
	activity "ACT_VM_PRIMARYATTACK_SILENCED" 1
	snap
}
$sequence "shootB_3" {
	"v_y21s4janusd_anims\shootB_3"
	{ event 5001 0 "#I190 S0.05 R2 F0 P30 T999 A1 L0 O0 X0 D0" }
	{ event 5001 1 "#I216 S0.05 R2 F0 P50 T999 A1 L0 O0 X0 D1" }
	fps 30
	activity "ACT_VM_PRIMARYATTACK_SILENCED" 1
	snap
}
$sequence "changeBA" {
	"v_y21s4janusd_anims\changeBA"
	{ event 5004 3 "MechasaurusMK.ChangeBA" }
	fps 30
	activity "ACT_VM_DETACH_SILENCER" 1
	snap
}
$sequence "idleA_signal" {
	"v_y21s4janusd_anims\idleA_signal"
	fps 30
	loop
}
$sequence "reloadA_signal" {
	"v_y21s4janusd_anims\reloadA_signal"
	{ event 5004 11 "MechasaurusMK.ClipOut" }
	{ event 5004 35 "MechasaurusMK.ClipIn1" }
	{ event 5004 41 "MechasaurusMK.ClipIn2" }
	{ event 5004 55 "MechasaurusMK.Boltpull" }
	fps 30
}
$sequence "drawA_signal" {
	"v_y21s4janusd_anims\drawA_signal"
	{ event 5004 0 "MechasaurusMK.Draw" }
	fps 30
}
