version 1
nodes
  0 "Bone01" -1
  1 "Bone02" 0
  2 "Bone02_R" 1
  3 "Bone03_R" 2
  4 "Bone52_R" 3
  5 "Bone48_R" 3
  6 "Bone25_R" 3
  7 "Bone50_R" 3
  8 "Bone54_R" 3
  9 "Bone24" -1
  10 "Bone25" 9
  11 "Bone02_L" 10
  12 "Bone03_L" 11
  13 "Bone52_L" 12
  14 "Bone48_L" 12
  15 "Bone25_L" 12
  16 "Bone50_L" 12
  17 "Bone54_L" 12
  18 "Bone03" 1
  19 "Bone04" 18
  20 "Bone05" 19
  21 "Bone06" 20
  22 "Bone07" 18
  23 "Bone08" 22
  24 "Bone09" 23
  25 "Bone11" 18
  26 "Bone12" 25
  27 "Bone13" 26
  28 "Bone15" 18
  29 "Bone16" 28
  30 "Bone17" 29
  31 "Bone19" 18
  32 "Bone20" 31
  33 "Bone21" 32
  34 "Bone26" 10
  35 "Bone27" 34
  36 "Bone28" 35
  37 "Bone29" 36
  38 "Bone31" 34
  39 "Bone32" 38
  40 "Bone33" 39
  41 "Bone35" 34
  42 "Bone36" 41
  43 "Bone37" 42
  44 "Bone39" 34
  45 "Bone40" 44
  46 "Bone41" 45
  47 "Bone43" 34
  48 "Bone44" 47
  49 "Bone45" 48
end
skeleton
  time 0
    0 -10.230781 3.336695 -6.351756 0.762887 1.855371 1.149458
    1 0.026864 -9.077099 -0.000001 0.131693 -0.357148 0.326394
    2 -0.085530 -4.065333 0.539714 0.023093 -1.497266 -0.094576
    3 0.000000 2.637149 0.668922 0.000000 0.000000 0.000000
    4 0.000000 -1.667184 2.293658 0.000000 0.000000 0.015508
    5 0.000000 -1.808678 1.337844 0.000000 0.000000 0.000000
    6 0.000000 -2.905986 1.479337 0.000000 0.000000 0.000000
    7 0.000000 -0.782117 1.785742 -0.680679 0.000000 0.000000
    8 0.000000 -1.610587 0.584026 0.000000 0.000000 0.000000
    9 10.164373 3.294694 -6.054872 0.936349 -1.816573 -1.312371
    10 -0.244754 -8.933564 0.000000 0.209146 0.299570 -0.249777
    11 -0.192862 -4.009873 0.577517 0.359939 1.511626 0.436878
    12 0.000001 2.617617 0.665016 0.000000 0.000000 0.000000
    13 0.000001 -0.030416 2.278033 0.000000 0.000000 0.000000
    14 0.000000 -1.796960 1.330032 0.000000 0.000000 0.000000
    15 0.000000 -2.886455 1.471524 0.000000 0.000000 0.000000
    16 0.000001 -0.778212 1.774024 -0.680679 0.000000 0.000000
    17 0.000000 -1.598869 0.580119 0.000000 0.000000 0.000000
    18 0.000000 -0.456721 -0.000001 0.000008 -0.000003 -0.000004
    19 -0.421911 0.233313 0.477534 -0.212797 -0.375551 -2.091539
    20 1.827485 -0.104694 0.000000 0.000000 0.000000 0.523599
    21 1.069448 0.056463 0.000000 0.000000 0.000000 0.848230
    22 -1.090122 -1.829639 -0.122574 0.000005 -0.000006 -1.726140
    23 1.390342 -0.000583 0.000000 0.001091 -0.481734 0.001629
    24 0.964940 -0.010943 -0.000001 0.000000 -0.670224 0.000000
    25 -0.348493 -1.994086 -0.122574 -0.078961 -0.260133 -1.437435
    26 1.546317 0.004627 0.000000 -0.000001 -1.623155 0.000000
    27 1.135737 0.008475 0.000000 0.000000 -1.110029 0.020944
    28 0.310263 -1.738959 -0.122574 -0.056428 -0.182688 -1.438565
    29 1.569655 0.049779 0.000001 0.000000 -1.497495 -0.010472
    30 1.096338 0.003406 0.000000 0.000000 -1.214749 0.005236
    31 0.956485 -1.335291 -0.122574 0.000000 -0.267035 -1.445133
    32 1.346260 0.018204 -0.000001 -0.002744 -0.612611 -0.000922
    33 0.874448 -0.001050 0.000000 0.000000 -1.392772 0.000000
    34 -0.017482 -0.437063 0.000000 0.000000 0.000000 0.000000
    35 0.472028 0.192308 0.472822 0.297069 -0.493084 -1.048320
    36 1.857548 0.010603 0.000000 0.000000 0.000000 -0.455531
    37 0.996041 -0.010017 0.000000 0.000000 0.000000 -0.858702
    38 1.137759 -1.867485 -0.137079 0.000000 -0.052360 -1.523672
    39 1.365644 0.014869 0.000000 -0.000683 -0.377004 -0.002803
    40 0.938014 -0.005664 0.000002 0.000000 -0.612611 0.010472
    41 0.409682 -2.071858 -0.137080 0.068179 -0.280440 -1.750247
    42 1.470907 0.007359 0.000000 0.000000 -1.617923 0.010472
    43 1.152099 0.010338 -0.000001 0.000000 -1.099558 0.005236
    44 -0.292848 -1.816393 -0.137080 0.017968 -0.224442 -1.724665
    45 1.511618 -0.004263 0.000000 0.000012 -1.544617 0.036640
    46 1.099636 -0.010806 0.000000 0.000000 -1.130973 0.010472
    47 -0.957059 -1.356554 -0.137080 0.000000 -0.235619 -1.685988
    48 1.351391 -0.010799 -0.000001 0.000000 -0.753982 0.005229
    49 0.859052 0.017735 -0.000001 0.000000 -1.371829 -0.010472
  time 1
    0 -10.230781 3.336695 -6.351756 0.762887 1.855371 1.149458
    1 0.026864 -9.077099 -0.000001 0.131693 -0.357148 0.326394
    2 -0.085530 -4.065333 0.539714 0.023093 -1.497266 -0.094576
    3 0.000000 2.637149 0.668922 0.000000 0.000000 0.000000
    4 0.000000 -1.667184 2.293658 0.000000 0.000000 0.015508
    5 0.000000 -1.808678 1.337844 0.000000 0.000000 0.000000
    6 0.000000 -2.905986 1.479337 0.000000 0.000000 0.000000
    7 0.000000 -0.782117 1.785742 -0.680679 0.000000 0.000000
    8 0.000000 -1.610587 0.584026 0.000000 0.000000 0.000000
    9 10.164373 3.294694 -6.054872 0.936349 -1.816573 -1.312371
    10 -0.244754 -8.933564 0.000000 0.209146 0.299570 -0.249777
    11 -0.192862 -4.009873 0.577517 0.359939 1.511626 0.436878
    12 0.000001 2.617617 0.665016 0.000000 0.000000 0.000000
    13 0.000001 -0.030416 2.278033 0.000000 0.000000 0.000000
    14 0.000000 -1.796960 1.330032 0.000000 0.000000 0.000000
    15 0.000000 -2.886455 1.471524 0.000000 0.000000 0.000000
    16 0.000001 -0.778212 1.774024 -0.680679 0.000000 0.000000
    17 0.000000 -1.598869 0.580119 0.000000 0.000000 0.000000
    18 0.000000 -0.456721 -0.000001 0.000008 -0.000003 -0.000004
    19 -0.421911 0.233313 0.477534 -0.212797 -0.375551 -2.091539
    20 1.827485 -0.104694 0.000000 0.000000 0.000000 0.523599
    21 1.069448 0.056463 0.000000 0.000000 0.000000 0.848230
    22 -1.090122 -1.829639 -0.122574 0.000005 -0.000006 -1.726140
    23 1.390342 -0.000583 0.000000 0.001091 -0.481734 0.001629
    24 0.964940 -0.010943 -0.000001 0.000000 -0.670224 0.000000
    25 -0.348493 -1.994086 -0.122574 -0.078961 -0.260133 -1.437435
    26 1.546317 0.004627 0.000000 -0.000001 -1.623155 0.000000
    27 1.135737 0.008475 0.000000 0.000000 -1.110029 0.020944
    28 0.310263 -1.738959 -0.122574 -0.056428 -0.182688 -1.438565
    29 1.569655 0.049779 0.000001 0.000000 -1.497495 -0.010472
    30 1.096338 0.003406 0.000000 0.000000 -1.214749 0.005236
    31 0.956485 -1.335291 -0.122574 0.000000 -0.267035 -1.445133
    32 1.346260 0.018204 -0.000001 -0.002744 -0.612611 -0.000922
    33 0.874448 -0.001050 0.000000 0.000000 -1.392772 0.000000
    34 -0.017482 -0.437063 0.000000 0.000000 0.000000 0.000000
    35 0.472028 0.192308 0.472822 0.297069 -0.493084 -1.048320
    36 1.857548 0.010603 0.000000 0.000000 0.000000 -0.455531
    37 0.996041 -0.010017 0.000000 0.000000 0.000000 -0.858702
    38 1.137759 -1.867485 -0.137079 0.000000 -0.052360 -1.523672
    39 1.365644 0.014869 0.000000 -0.000683 -0.377004 -0.002803
    40 0.938014 -0.005664 0.000002 0.000000 -0.612611 0.010472
    41 0.409682 -2.071858 -0.137080 0.068179 -0.280440 -1.750247
    42 1.470907 0.007359 0.000000 0.000000 -1.617923 0.010472
    43 1.152099 0.010338 -0.000001 0.000000 -1.099558 0.005236
    44 -0.292848 -1.816393 -0.137080 0.017968 -0.224442 -1.724665
    45 1.511618 -0.004263 0.000000 0.000012 -1.544617 0.036640
    46 1.099636 -0.010806 0.000000 0.000000 -1.130973 0.010472
    47 -0.957059 -1.356554 -0.137080 0.000000 -0.235619 -1.685988
    48 1.351391 -0.010799 -0.000001 0.000000 -0.753982 0.005229
    49 0.859052 0.017735 -0.000001 0.000000 -1.371829 -0.010472
  time 2
    0 -10.230781 3.336695 -6.351756 0.762887 1.855371 1.149458
    1 0.026864 -9.077099 -0.000001 0.131693 -0.357148 0.326394
    2 -0.085530 -4.065333 0.539714 0.023093 -1.497266 -0.094576
    3 0.000000 2.637149 0.668922 0.000000 0.000000 0.000000
    4 0.000000 -1.667184 2.293658 0.000000 0.000000 0.015508
    5 0.000000 -1.808678 1.337844 0.000000 0.000000 0.000000
    6 0.000000 -2.905986 1.479337 0.000000 0.000000 0.000000
    7 0.000000 -0.782117 1.785742 -0.680679 0.000000 0.000000
    8 0.000000 -1.610587 0.584026 0.000000 0.000000 0.000000
    9 10.164373 3.294694 -6.054872 0.936349 -1.816573 -1.312371
    10 -0.244754 -8.933564 0.000000 0.209146 0.299570 -0.249777
    11 -0.192862 -4.009873 0.577517 0.359939 1.511626 0.436878
    12 0.000001 2.617617 0.665016 0.000000 0.000000 0.000000
    13 0.000001 -0.030416 2.278033 0.000000 0.000000 0.000000
    14 0.000000 -1.796960 1.330032 0.000000 0.000000 0.000000
    15 0.000000 -2.886455 1.471524 0.000000 0.000000 0.000000
    16 0.000001 -0.778212 1.774024 -0.680679 0.000000 0.000000
    17 0.000000 -1.598869 0.580119 0.000000 0.000000 0.000000
    18 0.000000 -0.456721 -0.000001 0.000008 -0.000003 -0.000004
    19 -0.421911 0.233313 0.477534 -0.212797 -0.375551 -2.091539
    20 1.827485 -0.104694 0.000000 0.000000 0.000000 0.523599
    21 1.069448 0.056463 0.000000 0.000000 0.000000 0.848230
    22 -1.090122 -1.829639 -0.122574 0.000005 -0.000006 -1.726140
    23 1.390342 -0.000583 0.000000 0.001091 -0.481734 0.001629
    24 0.964940 -0.010943 -0.000001 0.000000 -0.670224 0.000000
    25 -0.348493 -1.994086 -0.122574 -0.078961 -0.260133 -1.437435
    26 1.546317 0.004627 0.000000 -0.000001 -1.623155 0.000000
    27 1.135737 0.008475 0.000000 0.000000 -1.110029 0.020944
    28 0.310263 -1.738959 -0.122574 -0.056428 -0.182688 -1.438565
    29 1.569655 0.049779 0.000001 0.000000 -1.497495 -0.010472
    30 1.096338 0.003406 0.000000 0.000000 -1.214749 0.005236
    31 0.956485 -1.335291 -0.122574 0.000000 -0.267035 -1.445133
    32 1.346260 0.018204 -0.000001 -0.002744 -0.612611 -0.000922
    33 0.874448 -0.001050 0.000000 0.000000 -1.392772 0.000000
    34 -0.017482 -0.437063 0.000000 0.000000 0.000000 0.000000
    35 0.472028 0.192308 0.472822 0.297069 -0.493084 -1.048320
    36 1.857548 0.010603 0.000000 0.000000 0.000000 -0.455531
    37 0.996041 -0.010017 0.000000 0.000000 0.000000 -0.858702
    38 1.137759 -1.867485 -0.137079 0.000000 -0.052360 -1.523672
    39 1.365644 0.014869 0.000000 -0.000683 -0.377004 -0.002803
    40 0.938014 -0.005664 0.000002 0.000000 -0.612611 0.010472
    41 0.409682 -2.071858 -0.137080 0.068179 -0.280440 -1.750247
    42 1.470907 0.007359 0.000000 0.000000 -1.617923 0.010472
    43 1.152099 0.010338 -0.000001 0.000000 -1.099558 0.005236
    44 -0.292848 -1.816393 -0.137080 0.017968 -0.224442 -1.724665
    45 1.511618 -0.004263 0.000000 0.000012 -1.544617 0.036640
    46 1.099636 -0.010806 0.000000 0.000000 -1.130973 0.010472
    47 -0.957059 -1.356554 -0.137080 0.000000 -0.235619 -1.685988
    48 1.351391 -0.010799 -0.000001 0.000000 -0.753982 0.005229
    49 0.859052 0.017735 -0.000001 0.000000 -1.371829 -0.010472
  time 3
    0 -10.230781 3.336695 -6.351756 0.762887 1.855371 1.149458
    1 0.026864 -9.077099 -0.000001 0.131693 -0.357148 0.326394
    2 -0.085530 -4.065333 0.539714 0.023093 -1.497266 -0.094576
    3 0.000000 2.637149 0.668922 0.000000 0.000000 0.000000
    4 0.000000 -1.667184 2.293658 0.000000 0.000000 0.015508
    5 0.000000 -1.808678 1.337844 0.000000 0.000000 0.000000
    6 0.000000 -2.905986 1.479337 0.000000 0.000000 0.000000
    7 0.000000 -0.782117 1.785742 -0.680679 0.000000 0.000000
    8 0.000000 -1.610587 0.584026 0.000000 0.000000 0.000000
    9 10.164373 3.294694 -6.054872 0.936349 -1.816573 -1.312371
    10 -0.244754 -8.933564 0.000000 0.209146 0.299570 -0.249777
    11 -0.192862 -4.009873 0.577517 0.359939 1.511626 0.436878
    12 0.000001 2.617617 0.665016 0.000000 0.000000 0.000000
    13 0.000001 -0.030416 2.278033 0.000000 0.000000 0.000000
    14 0.000000 -1.796960 1.330032 0.000000 0.000000 0.000000
    15 0.000000 -2.886455 1.471524 0.000000 0.000000 0.000000
    16 0.000001 -0.778212 1.774024 -0.680679 0.000000 0.000000
    17 0.000000 -1.598869 0.580119 0.000000 0.000000 0.000000
    18 0.000000 -0.456721 -0.000001 0.000008 -0.000003 -0.000004
    19 -0.421911 0.233313 0.477534 -0.212797 -0.375551 -2.091539
    20 1.827485 -0.104694 0.000000 0.000000 0.000000 0.523599
    21 1.069448 0.056463 0.000000 0.000000 0.000000 0.848230
    22 -1.090122 -1.829639 -0.122574 0.000005 -0.000006 -1.726140
    23 1.390342 -0.000583 0.000000 0.001091 -0.481734 0.001629
    24 0.964940 -0.010943 -0.000001 0.000000 -0.670224 0.000000
    25 -0.348493 -1.994086 -0.122574 -0.078961 -0.260133 -1.437435
    26 1.546317 0.004627 0.000000 -0.000001 -1.623155 0.000000
    27 1.135737 0.008475 0.000000 0.000000 -1.110029 0.020944
    28 0.310263 -1.738959 -0.122574 -0.056428 -0.182688 -1.438565
    29 1.569655 0.049779 0.000001 0.000000 -1.497495 -0.010472
    30 1.096338 0.003406 0.000000 0.000000 -1.214749 0.005236
    31 0.956485 -1.335291 -0.122574 0.000000 -0.267035 -1.445133
    32 1.346260 0.018204 -0.000001 -0.002744 -0.612611 -0.000922
    33 0.874448 -0.001050 0.000000 0.000000 -1.392772 0.000000
    34 -0.017482 -0.437063 0.000000 0.000000 0.000000 0.000000
    35 0.472028 0.192308 0.472822 0.297069 -0.493084 -1.048320
    36 1.857548 0.010603 0.000000 0.000000 0.000000 -0.455531
    37 0.996041 -0.010017 0.000000 0.000000 0.000000 -0.858702
    38 1.137759 -1.867485 -0.137079 0.000000 -0.052360 -1.523672
    39 1.365644 0.014869 0.000000 -0.000683 -0.377004 -0.002803
    40 0.938014 -0.005664 0.000002 0.000000 -0.612611 0.010472
    41 0.409682 -2.071858 -0.137080 0.068179 -0.280440 -1.750247
    42 1.470907 0.007359 0.000000 0.000000 -1.617923 0.010472
    43 1.152099 0.010338 -0.000001 0.000000 -1.099558 0.005236
    44 -0.292848 -1.816393 -0.137080 0.017968 -0.224442 -1.724665
    45 1.511618 -0.004263 0.000000 0.000012 -1.544617 0.036640
    46 1.099636 -0.010806 0.000000 0.000000 -1.130973 0.010472
    47 -0.957059 -1.356554 -0.137080 0.000000 -0.235619 -1.685988
    48 1.351391 -0.010799 -0.000001 0.000000 -0.753982 0.005229
    49 0.859052 0.017735 -0.000001 0.000000 -1.371829 -0.010472
  time 4
    0 -10.230781 3.336695 -6.351756 0.762887 1.855371 1.149458
    1 0.026864 -9.077099 -0.000001 0.131693 -0.357148 0.326394
    2 -0.085530 -4.065333 0.539714 0.023093 -1.497266 -0.094576
    3 0.000000 2.637149 0.668922 0.000000 0.000000 0.000000
    4 0.000000 -1.667184 2.293658 0.000000 0.000000 0.015508
    5 0.000000 -1.808678 1.337844 0.000000 0.000000 0.000000
    6 0.000000 -2.905986 1.479337 0.000000 0.000000 0.000000
    7 0.000000 -0.782117 1.785742 -0.680679 0.000000 0.000000
    8 0.000000 -1.610587 0.584026 0.000000 0.000000 0.000000
    9 10.164373 3.294694 -6.054872 0.936349 -1.816573 -1.312371
    10 -0.244754 -8.933564 0.000000 0.209146 0.299570 -0.249777
    11 -0.192862 -4.009873 0.577517 0.359939 1.511626 0.436878
    12 0.000001 2.617617 0.665016 0.000000 0.000000 0.000000
    13 0.000001 -0.030416 2.278033 0.000000 0.000000 0.000000
    14 0.000000 -1.796960 1.330032 0.000000 0.000000 0.000000
    15 0.000000 -2.886455 1.471524 0.000000 0.000000 0.000000
    16 0.000001 -0.778212 1.774024 -0.680679 0.000000 0.000000
    17 0.000000 -1.598869 0.580119 0.000000 0.000000 0.000000
    18 0.000000 -0.456721 -0.000001 0.000008 -0.000003 -0.000004
    19 -0.421911 0.233313 0.477534 -0.212797 -0.375551 -2.091539
    20 1.827485 -0.104694 0.000000 0.000000 0.000000 0.523599
    21 1.069448 0.056463 0.000000 0.000000 0.000000 0.848230
    22 -1.090122 -1.829639 -0.122574 0.000005 -0.000006 -1.726140
    23 1.390342 -0.000583 0.000000 0.001091 -0.481734 0.001629
    24 0.964940 -0.010943 -0.000001 0.000000 -0.670224 0.000000
    25 -0.348493 -1.994086 -0.122574 -0.078961 -0.260133 -1.437435
    26 1.546317 0.004627 0.000000 -0.000001 -1.623155 0.000000
    27 1.135737 0.008475 0.000000 0.000000 -1.110029 0.020944
    28 0.310263 -1.738959 -0.122574 -0.056428 -0.182688 -1.438565
    29 1.569655 0.049779 0.000001 0.000000 -1.497495 -0.010472
    30 1.096338 0.003406 0.000000 0.000000 -1.214749 0.005236
    31 0.956485 -1.335291 -0.122574 0.000000 -0.267035 -1.445133
    32 1.346260 0.018204 -0.000001 -0.002744 -0.612611 -0.000922
    33 0.874448 -0.001050 0.000000 0.000000 -1.392772 0.000000
    34 -0.017482 -0.437063 0.000000 0.000000 0.000000 0.000000
    35 0.472028 0.192308 0.472822 0.297069 -0.493084 -1.048320
    36 1.857548 0.010603 0.000000 0.000000 0.000000 -0.455531
    37 0.996041 -0.010017 0.000000 0.000000 0.000000 -0.858702
    38 1.137759 -1.867485 -0.137079 0.000000 -0.052360 -1.523672
    39 1.365644 0.014869 0.000000 -0.000683 -0.377004 -0.002803
    40 0.938014 -0.005664 0.000002 0.000000 -0.612611 0.010472
    41 0.409682 -2.071858 -0.137080 0.068179 -0.280440 -1.750247
    42 1.470907 0.007359 0.000000 0.000000 -1.617923 0.010472
    43 1.152099 0.010338 -0.000001 0.000000 -1.099558 0.005236
    44 -0.292848 -1.816393 -0.137080 0.017968 -0.224442 -1.724665
    45 1.511618 -0.004263 0.000000 0.000012 -1.544617 0.036640
    46 1.099636 -0.010806 0.000000 0.000000 -1.130973 0.010472
    47 -0.957059 -1.356554 -0.137080 0.000000 -0.235619 -1.685988
    48 1.351391 -0.010799 -0.000001 0.000000 -0.753982 0.005229
    49 0.859052 0.017735 -0.000001 0.000000 -1.371829 -0.010472
  time 5
    0 -10.230781 3.336695 -6.351756 0.762887 1.855371 1.149458
    1 0.026864 -9.077099 -0.000001 0.131693 -0.357148 0.326394
    2 -0.085530 -4.065333 0.539714 0.023093 -1.497266 -0.094576
    3 0.000000 2.637149 0.668922 0.000000 0.000000 0.000000
    4 0.000000 -1.667184 2.293658 0.000000 0.000000 0.015508
    5 0.000000 -1.808678 1.337844 0.000000 0.000000 0.000000
    6 0.000000 -2.905986 1.479337 0.000000 0.000000 0.000000
    7 0.000000 -0.782117 1.785742 -0.680679 0.000000 0.000000
    8 0.000000 -1.610587 0.584026 0.000000 0.000000 0.000000
    9 10.164373 3.294694 -6.054872 0.936349 -1.816573 -1.312371
    10 -0.244754 -8.933564 0.000000 0.209146 0.299570 -0.249777
    11 -0.192862 -4.009873 0.577517 0.359939 1.511626 0.436878
    12 0.000001 2.617617 0.665016 0.000000 0.000000 0.000000
    13 0.000001 -0.030416 2.278033 0.000000 0.000000 0.000000
    14 0.000000 -1.796960 1.330032 0.000000 0.000000 0.000000
    15 0.000000 -2.886455 1.471524 0.000000 0.000000 0.000000
    16 0.000001 -0.778212 1.774024 -0.680679 0.000000 0.000000
    17 0.000000 -1.598869 0.580119 0.000000 0.000000 0.000000
    18 0.000000 -0.456721 -0.000001 0.000008 -0.000003 -0.000004
    19 -0.421911 0.233313 0.477534 -0.212797 -0.375551 -2.091539
    20 1.827485 -0.104694 0.000000 0.000000 0.000000 0.523599
    21 1.069448 0.056463 0.000000 0.000000 0.000000 0.848230
    22 -1.090122 -1.829639 -0.122574 0.000005 -0.000006 -1.726140
    23 1.390342 -0.000583 0.000000 0.001091 -0.481734 0.001629
    24 0.964940 -0.010943 -0.000001 0.000000 -0.670224 0.000000
    25 -0.348493 -1.994086 -0.122574 -0.078961 -0.260133 -1.437435
    26 1.546317 0.004627 0.000000 -0.000001 -1.623155 0.000000
    27 1.135737 0.008475 0.000000 0.000000 -1.110029 0.020944
    28 0.310263 -1.738959 -0.122574 -0.056428 -0.182688 -1.438565
    29 1.569655 0.049779 0.000001 0.000000 -1.497495 -0.010472
    30 1.096338 0.003406 0.000000 0.000000 -1.214749 0.005236
    31 0.956485 -1.335291 -0.122574 0.000000 -0.267035 -1.445133
    32 1.346260 0.018204 -0.000001 -0.002744 -0.612611 -0.000922
    33 0.874448 -0.001050 0.000000 0.000000 -1.392772 0.000000
    34 -0.017482 -0.437063 0.000000 0.000000 0.000000 0.000000
    35 0.472028 0.192308 0.472822 0.297069 -0.493084 -1.048320
    36 1.857548 0.010603 0.000000 0.000000 0.000000 -0.455531
    37 0.996041 -0.010017 0.000000 0.000000 0.000000 -0.858702
    38 1.137759 -1.867485 -0.137079 0.000000 -0.052360 -1.523672
    39 1.365644 0.014869 0.000000 -0.000683 -0.377004 -0.002803
    40 0.938014 -0.005664 0.000002 0.000000 -0.612611 0.010472
    41 0.409682 -2.071858 -0.137080 0.068179 -0.280440 -1.750247
    42 1.470907 0.007359 0.000000 0.000000 -1.617923 0.010472
    43 1.152099 0.010338 -0.000001 0.000000 -1.099558 0.005236
    44 -0.292848 -1.816393 -0.137080 0.017968 -0.224442 -1.724665
    45 1.511618 -0.004263 0.000000 0.000012 -1.544617 0.036640
    46 1.099636 -0.010806 0.000000 0.000000 -1.130973 0.010472
    47 -0.957059 -1.356554 -0.137080 0.000000 -0.235619 -1.685988
    48 1.351391 -0.010799 -0.000001 0.000000 -0.753982 0.005229
    49 0.859052 0.017735 -0.000001 0.000000 -1.371829 -0.010472
  time 6
    0 -10.230781 3.336695 -6.351756 0.762887 1.855371 1.149458
    1 0.026864 -9.077099 -0.000001 0.131693 -0.357148 0.326394
    2 -0.085530 -4.065333 0.539714 0.023093 -1.497266 -0.094576
    3 0.000000 2.637149 0.668922 0.000000 0.000000 0.000000
    4 0.000000 -1.667184 2.293658 0.000000 0.000000 0.015508
    5 0.000000 -1.808678 1.337844 0.000000 0.000000 0.000000
    6 0.000000 -2.905986 1.479337 0.000000 0.000000 0.000000
    7 0.000000 -0.782117 1.785742 -0.680679 0.000000 0.000000
    8 0.000000 -1.610587 0.584026 0.000000 0.000000 0.000000
    9 10.164373 3.294694 -6.054872 0.936349 -1.816573 -1.312371
    10 -0.244754 -8.933564 0.000000 0.209146 0.299570 -0.249777
    11 -0.192862 -4.009873 0.577517 0.359939 1.511626 0.436878
    12 0.000001 2.617617 0.665016 0.000000 0.000000 0.000000
    13 0.000001 -0.030416 2.278033 0.000000 0.000000 0.000000
    14 0.000000 -1.796960 1.330032 0.000000 0.000000 0.000000
    15 0.000000 -2.886455 1.471524 0.000000 0.000000 0.000000
    16 0.000001 -0.778212 1.774024 -0.680679 0.000000 0.000000
    17 0.000000 -1.598869 0.580119 0.000000 0.000000 0.000000
    18 0.000000 -0.456721 -0.000001 0.000008 -0.000003 -0.000004
    19 -0.421911 0.233313 0.477534 -0.212797 -0.375551 -2.091539
    20 1.827485 -0.104694 0.000000 0.000000 0.000000 0.523599
    21 1.069448 0.056463 0.000000 0.000000 0.000000 0.848230
    22 -1.090122 -1.829639 -0.122574 0.000005 -0.000006 -1.726140
    23 1.390342 -0.000583 0.000000 0.001091 -0.481734 0.001629
    24 0.964940 -0.010943 -0.000001 0.000000 -0.670224 0.000000
    25 -0.348493 -1.994086 -0.122574 -0.078961 -0.260133 -1.437435
    26 1.546317 0.004627 0.000000 -0.000001 -1.623155 0.000000
    27 1.135737 0.008475 0.000000 0.000000 -1.110029 0.020944
    28 0.310263 -1.738959 -0.122574 -0.056428 -0.182688 -1.438565
    29 1.569655 0.049779 0.000001 0.000000 -1.497495 -0.010472
    30 1.096338 0.003406 0.000000 0.000000 -1.214749 0.005236
    31 0.956485 -1.335291 -0.122574 0.000000 -0.267035 -1.445133
    32 1.346260 0.018204 -0.000001 -0.002744 -0.612611 -0.000922
    33 0.874448 -0.001050 0.000000 0.000000 -1.392772 0.000000
    34 -0.017482 -0.437063 0.000000 0.000000 0.000000 0.000000
    35 0.472028 0.192308 0.472822 0.297069 -0.493084 -1.048320
    36 1.857548 0.010603 0.000000 0.000000 0.000000 -0.455531
    37 0.996041 -0.010017 0.000000 0.000000 0.000000 -0.858702
    38 1.137759 -1.867485 -0.137079 0.000000 -0.052360 -1.523672
    39 1.365644 0.014869 0.000000 -0.000683 -0.377004 -0.002803
    40 0.938014 -0.005664 0.000002 0.000000 -0.612611 0.010472
    41 0.409682 -2.071858 -0.137080 0.068179 -0.280440 -1.750247
    42 1.470907 0.007359 0.000000 0.000000 -1.617923 0.010472
    43 1.152099 0.010338 -0.000001 0.000000 -1.099558 0.005236
    44 -0.292848 -1.816393 -0.137080 0.017968 -0.224442 -1.724665
    45 1.511618 -0.004263 0.000000 0.000012 -1.544617 0.036640
    46 1.099636 -0.010806 0.000000 0.000000 -1.130973 0.010472
    47 -0.957059 -1.356554 -0.137080 0.000000 -0.235619 -1.685988
    48 1.351391 -0.010799 -0.000001 0.000000 -0.753982 0.005229
    49 0.859052 0.017735 -0.000001 0.000000 -1.371829 -0.010472
  time 7
    0 -10.230781 3.336695 -6.351756 0.762887 1.855371 1.149458
    1 0.026864 -9.077099 -0.000001 0.131693 -0.357148 0.326394
    2 -0.085530 -4.065333 0.539714 0.023093 -1.497266 -0.094576
    3 0.000000 2.637149 0.668922 0.000000 0.000000 0.000000
    4 0.000000 -1.667184 2.293658 0.000000 0.000000 0.015508
    5 0.000000 -1.808678 1.337844 0.000000 0.000000 0.000000
    6 0.000000 -2.905986 1.479337 0.000000 0.000000 0.000000
    7 0.000000 -0.782117 1.785742 -0.680679 0.000000 0.000000
    8 0.000000 -1.610587 0.584026 0.000000 0.000000 0.000000
    9 10.164373 3.294694 -6.054872 0.936349 -1.816573 -1.312371
    10 -0.244754 -8.933564 0.000000 0.209146 0.299570 -0.249777
    11 -0.192862 -4.009873 0.577517 0.359939 1.511626 0.436878
    12 0.000001 2.617617 0.665016 0.000000 0.000000 0.000000
    13 0.000001 -0.030416 2.278033 0.000000 0.000000 0.000000
    14 0.000000 -1.796960 1.330032 0.000000 0.000000 0.000000
    15 0.000000 -2.886455 1.471524 0.000000 0.000000 0.000000
    16 0.000001 -0.778212 1.774024 -0.680679 0.000000 0.000000
    17 0.000000 -1.598869 0.580119 0.000000 0.000000 0.000000
    18 0.000000 -0.456721 -0.000001 0.000008 -0.000003 -0.000004
    19 -0.421911 0.233313 0.477534 -0.212797 -0.375551 -2.091539
    20 1.827485 -0.104694 0.000000 0.000000 0.000000 0.523599
    21 1.069448 0.056463 0.000000 0.000000 0.000000 0.848230
    22 -1.090122 -1.829639 -0.122574 0.000005 -0.000006 -1.726140
    23 1.390342 -0.000583 0.000000 0.001091 -0.481734 0.001629
    24 0.964940 -0.010943 -0.000001 0.000000 -0.670224 0.000000
    25 -0.348493 -1.994086 -0.122574 -0.078961 -0.260133 -1.437435
    26 1.546317 0.004627 0.000000 -0.000001 -1.623155 0.000000
    27 1.135737 0.008475 0.000000 0.000000 -1.110029 0.020944
    28 0.310263 -1.738959 -0.122574 -0.056428 -0.182688 -1.438565
    29 1.569655 0.049779 0.000001 0.000000 -1.497495 -0.010472
    30 1.096338 0.003406 0.000000 0.000000 -1.214749 0.005236
    31 0.956485 -1.335291 -0.122574 0.000000 -0.267035 -1.445133
    32 1.346260 0.018204 -0.000001 -0.002744 -0.612611 -0.000922
    33 0.874448 -0.001050 0.000000 0.000000 -1.392772 0.000000
    34 -0.017482 -0.437063 0.000000 0.000000 0.000000 0.000000
    35 0.472028 0.192308 0.472822 0.297069 -0.493084 -1.048320
    36 1.857548 0.010603 0.000000 0.000000 0.000000 -0.455531
    37 0.996041 -0.010017 0.000000 0.000000 0.000000 -0.858702
    38 1.137759 -1.867485 -0.137079 0.000000 -0.052360 -1.523672
    39 1.365644 0.014869 0.000000 -0.000683 -0.377004 -0.002803
    40 0.938014 -0.005664 0.000002 0.000000 -0.612611 0.010472
    41 0.409682 -2.071858 -0.137080 0.068179 -0.280440 -1.750247
    42 1.470907 0.007359 0.000000 0.000000 -1.617923 0.010472
    43 1.152099 0.010338 -0.000001 0.000000 -1.099558 0.005236
    44 -0.292848 -1.816393 -0.137080 0.017968 -0.224442 -1.724665
    45 1.511618 -0.004263 0.000000 0.000012 -1.544617 0.036640
    46 1.099636 -0.010806 0.000000 0.000000 -1.130973 0.010472
    47 -0.957059 -1.356554 -0.137080 0.000000 -0.235619 -1.685988
    48 1.351391 -0.010799 -0.000001 0.000000 -0.753982 0.005229
    49 0.859052 0.017735 -0.000001 0.000000 -1.371829 -0.010472
  time 8
    0 -10.230781 3.336695 -6.351756 0.762887 1.855371 1.149458
    1 0.026864 -9.077099 -0.000001 0.131693 -0.357148 0.326394
    2 -0.085530 -4.065333 0.539714 0.023093 -1.497266 -0.094576
    3 0.000000 2.637149 0.668922 0.000000 0.000000 0.000000
    4 0.000000 -1.667184 2.293658 0.000000 0.000000 0.015508
    5 0.000000 -1.808678 1.337844 0.000000 0.000000 0.000000
    6 0.000000 -2.905986 1.479337 0.000000 0.000000 0.000000
    7 0.000000 -0.782117 1.785742 -0.680679 0.000000 0.000000
    8 0.000000 -1.610587 0.584026 0.000000 0.000000 0.000000
    9 10.164373 3.294694 -6.054872 0.936349 -1.816573 -1.312371
    10 -0.244754 -8.933564 0.000000 0.209146 0.299570 -0.249777
    11 -0.192862 -4.009873 0.577517 0.359939 1.511626 0.436878
    12 0.000001 2.617617 0.665016 0.000000 0.000000 0.000000
    13 0.000001 -0.030416 2.278033 0.000000 0.000000 0.000000
    14 0.000000 -1.796960 1.330032 0.000000 0.000000 0.000000
    15 0.000000 -2.886455 1.471524 0.000000 0.000000 0.000000
    16 0.000001 -0.778212 1.774024 -0.680679 0.000000 0.000000
    17 0.000000 -1.598869 0.580119 0.000000 0.000000 0.000000
    18 0.000000 -0.456721 -0.000001 0.000008 -0.000003 -0.000004
    19 -0.421911 0.233313 0.477534 -0.212797 -0.375551 -2.091539
    20 1.827485 -0.104694 0.000000 0.000000 0.000000 0.523599
    21 1.069448 0.056463 0.000000 0.000000 0.000000 0.848230
    22 -1.090122 -1.829639 -0.122574 0.000005 -0.000006 -1.726140
    23 1.390342 -0.000583 0.000000 0.001091 -0.481734 0.001629
    24 0.964940 -0.010943 -0.000001 0.000000 -0.670224 0.000000
    25 -0.348493 -1.994086 -0.122574 -0.078961 -0.260133 -1.437435
    26 1.546317 0.004627 0.000000 -0.000001 -1.623155 0.000000
    27 1.135737 0.008475 0.000000 0.000000 -1.110029 0.020944
    28 0.310263 -1.738959 -0.122574 -0.056428 -0.182688 -1.438565
    29 1.569655 0.049779 0.000001 0.000000 -1.497495 -0.010472
    30 1.096338 0.003406 0.000000 0.000000 -1.214749 0.005236
    31 0.956485 -1.335291 -0.122574 0.000000 -0.267035 -1.445133
    32 1.346260 0.018204 -0.000001 -0.002744 -0.612611 -0.000922
    33 0.874448 -0.001050 0.000000 0.000000 -1.392772 0.000000
    34 -0.017482 -0.437063 0.000000 0.000000 0.000000 0.000000
    35 0.472028 0.192308 0.472822 0.297069 -0.493084 -1.048320
    36 1.857548 0.010603 0.000000 0.000000 0.000000 -0.455531
    37 0.996041 -0.010017 0.000000 0.000000 0.000000 -0.858702
    38 1.137759 -1.867485 -0.137079 0.000000 -0.052360 -1.523672
    39 1.365644 0.014869 0.000000 -0.000683 -0.377004 -0.002803
    40 0.938014 -0.005664 0.000002 0.000000 -0.612611 0.010472
    41 0.409682 -2.071858 -0.137080 0.068179 -0.280440 -1.750247
    42 1.470907 0.007359 0.000000 0.000000 -1.617923 0.010472
    43 1.152099 0.010338 -0.000001 0.000000 -1.099558 0.005236
    44 -0.292848 -1.816393 -0.137080 0.017968 -0.224442 -1.724665
    45 1.511618 -0.004263 0.000000 0.000012 -1.544617 0.036640
    46 1.099636 -0.010806 0.000000 0.000000 -1.130973 0.010472
    47 -0.957059 -1.356554 -0.137080 0.000000 -0.235619 -1.685988
    48 1.351391 -0.010799 -0.000001 0.000000 -0.753982 0.005229
    49 0.859052 0.017735 -0.000001 0.000000 -1.371829 -0.010472
  time 9
    0 -10.230781 3.336695 -6.351756 0.762887 1.855371 1.149458
    1 0.026864 -9.077099 -0.000001 0.131693 -0.357148 0.326394
    2 -0.085530 -4.065333 0.539714 0.023093 -1.497266 -0.094576
    3 0.000000 2.637149 0.668922 0.000000 0.000000 0.000000
    4 0.000000 -1.667184 2.293658 0.000000 0.000000 0.015508
    5 0.000000 -1.808678 1.337844 0.000000 0.000000 0.000000
    6 0.000000 -2.905986 1.479337 0.000000 0.000000 0.000000
    7 0.000000 -0.782117 1.785742 -0.680679 0.000000 0.000000
    8 0.000000 -1.610587 0.584026 0.000000 0.000000 0.000000
    9 10.164373 3.294694 -6.054872 0.936349 -1.816573 -1.312371
    10 -0.244754 -8.933564 0.000000 0.209146 0.299570 -0.249777
    11 -0.192862 -4.009873 0.577517 0.359939 1.511626 0.436878
    12 0.000001 2.617617 0.665016 0.000000 0.000000 0.000000
    13 0.000001 -0.030416 2.278033 0.000000 0.000000 0.000000
    14 0.000000 -1.796960 1.330032 0.000000 0.000000 0.000000
    15 0.000000 -2.886455 1.471524 0.000000 0.000000 0.000000
    16 0.000001 -0.778212 1.774024 -0.680679 0.000000 0.000000
    17 0.000000 -1.598869 0.580119 0.000000 0.000000 0.000000
    18 0.000000 -0.456721 -0.000001 0.000008 -0.000003 -0.000004
    19 -0.421911 0.233313 0.477534 -0.212797 -0.375551 -2.091539
    20 1.827485 -0.104694 0.000000 0.000000 0.000000 0.523599
    21 1.069448 0.056463 0.000000 0.000000 0.000000 0.848230
    22 -1.090122 -1.829639 -0.122574 0.000005 -0.000006 -1.726140
    23 1.390342 -0.000583 0.000000 0.001091 -0.481734 0.001629
    24 0.964940 -0.010943 -0.000001 0.000000 -0.670224 0.000000
    25 -0.348493 -1.994086 -0.122574 -0.078961 -0.260133 -1.437435
    26 1.546317 0.004627 0.000000 -0.000001 -1.623155 0.000000
    27 1.135737 0.008475 0.000000 0.000000 -1.110029 0.020944
    28 0.310263 -1.738959 -0.122574 -0.056428 -0.182688 -1.438565
    29 1.569655 0.049779 0.000001 0.000000 -1.497495 -0.010472
    30 1.096338 0.003406 0.000000 0.000000 -1.214749 0.005236
    31 0.956485 -1.335291 -0.122574 0.000000 -0.267035 -1.445133
    32 1.346260 0.018204 -0.000001 -0.002744 -0.612611 -0.000922
    33 0.874448 -0.001050 0.000000 0.000000 -1.392772 0.000000
    34 -0.017482 -0.437063 0.000000 0.000000 0.000000 0.000000
    35 0.472028 0.192308 0.472822 0.297069 -0.493084 -1.048320
    36 1.857548 0.010603 0.000000 0.000000 0.000000 -0.455531
    37 0.996041 -0.010017 0.000000 0.000000 0.000000 -0.858702
    38 1.137759 -1.867485 -0.137079 0.000000 -0.052360 -1.523672
    39 1.365644 0.014869 0.000000 -0.000683 -0.377004 -0.002803
    40 0.938014 -0.005664 0.000002 0.000000 -0.612611 0.010472
    41 0.409682 -2.071858 -0.137080 0.068179 -0.280440 -1.750247
    42 1.470907 0.007359 0.000000 0.000000 -1.617923 0.010472
    43 1.152099 0.010338 -0.000001 0.000000 -1.099558 0.005236
    44 -0.292848 -1.816393 -0.137080 0.017968 -0.224442 -1.724665
    45 1.511618 -0.004263 0.000000 0.000012 -1.544617 0.036640
    46 1.099636 -0.010806 0.000000 0.000000 -1.130973 0.010472
    47 -0.957059 -1.356554 -0.137080 0.000000 -0.235619 -1.685988
    48 1.351391 -0.010799 -0.000001 0.000000 -0.753982 0.005229
    49 0.859052 0.017735 -0.000001 0.000000 -1.371829 -0.010472
  time 10
    0 -10.230781 3.336695 -6.351756 0.762887 1.855371 1.149458
    1 0.026864 -9.077099 -0.000001 0.131693 -0.357148 0.326394
    2 -0.085530 -4.065333 0.539714 0.023093 -1.497266 -0.094576
    3 0.000000 2.637149 0.668922 0.000000 0.000000 0.000000
    4 0.000000 -1.667184 2.293658 0.000000 0.000000 0.015508
    5 0.000000 -1.808678 1.337844 0.000000 0.000000 0.000000
    6 0.000000 -2.905986 1.479337 0.000000 0.000000 0.000000
    7 0.000000 -0.782117 1.785742 -0.680679 0.000000 0.000000
    8 0.000000 -1.610587 0.584026 0.000000 0.000000 0.000000
    9 10.164373 3.294694 -6.054872 0.936349 -1.816573 -1.312371
    10 -0.244754 -8.933564 0.000000 0.209146 0.299570 -0.249777
    11 -0.192862 -4.009873 0.577517 0.359939 1.511626 0.436878
    12 0.000001 2.617617 0.665016 0.000000 0.000000 0.000000
    13 0.000001 -0.030416 2.278033 0.000000 0.000000 0.000000
    14 0.000000 -1.796960 1.330032 0.000000 0.000000 0.000000
    15 0.000000 -2.886455 1.471524 0.000000 0.000000 0.000000
    16 0.000001 -0.778212 1.774024 -0.680679 0.000000 0.000000
    17 0.000000 -1.598869 0.580119 0.000000 0.000000 0.000000
    18 0.000000 -0.456721 -0.000001 0.000008 -0.000003 -0.000004
    19 -0.421911 0.233313 0.477534 -0.212797 -0.375551 -2.091539
    20 1.827485 -0.104694 0.000000 0.000000 0.000000 0.523599
    21 1.069448 0.056463 0.000000 0.000000 0.000000 0.848230
    22 -1.090122 -1.829639 -0.122574 0.000005 -0.000006 -1.726140
    23 1.390342 -0.000583 0.000000 0.001091 -0.481734 0.001629
    24 0.964940 -0.010943 -0.000001 0.000000 -0.670224 0.000000
    25 -0.348493 -1.994086 -0.122574 -0.078961 -0.260133 -1.437435
    26 1.546317 0.004627 0.000000 -0.000001 -1.623155 0.000000
    27 1.135737 0.008475 0.000000 0.000000 -1.110029 0.020944
    28 0.310263 -1.738959 -0.122574 -0.056428 -0.182688 -1.438565
    29 1.569655 0.049779 0.000001 0.000000 -1.497495 -0.010472
    30 1.096338 0.003406 0.000000 0.000000 -1.214749 0.005236
    31 0.956485 -1.335291 -0.122574 0.000000 -0.267035 -1.445133
    32 1.346260 0.018204 -0.000001 -0.002744 -0.612611 -0.000922
    33 0.874448 -0.001050 0.000000 0.000000 -1.392772 0.000000
    34 -0.017482 -0.437063 0.000000 0.000000 0.000000 0.000000
    35 0.472028 0.192308 0.472822 0.297069 -0.493084 -1.048320
    36 1.857548 0.010603 0.000000 0.000000 0.000000 -0.455531
    37 0.996041 -0.010017 0.000000 0.000000 0.000000 -0.858702
    38 1.137759 -1.867485 -0.137079 0.000000 -0.052360 -1.523672
    39 1.365644 0.014869 0.000000 -0.000683 -0.377004 -0.002803
    40 0.938014 -0.005664 0.000002 0.000000 -0.612611 0.010472
    41 0.409682 -2.071858 -0.137080 0.068179 -0.280440 -1.750247
    42 1.470907 0.007359 0.000000 0.000000 -1.617923 0.010472
    43 1.152099 0.010338 -0.000001 0.000000 -1.099558 0.005236
    44 -0.292848 -1.816393 -0.137080 0.017968 -0.224442 -1.724665
    45 1.511618 -0.004263 0.000000 0.000012 -1.544617 0.036640
    46 1.099636 -0.010806 0.000000 0.000000 -1.130973 0.010472
    47 -0.957059 -1.356554 -0.137080 0.000000 -0.235619 -1.685988
    48 1.351391 -0.010799 -0.000001 0.000000 -0.753982 0.005229
    49 0.859052 0.017735 -0.000001 0.000000 -1.371829 -0.010472
end
