version 1
nodes
  0 "Bone01" -1
  1 "Bone02" 0
  2 "Bone02_R" 1
  3 "Bone03_R" 2
  4 "Bone52_R" 3
  5 "Bone48_R" 3
  6 "Bone25_R" 3
  7 "Bone50_R" 3
  8 "Bone54_R" 3
  9 "Bone24" -1
  10 "Bone25" 9
  11 "Bone02_L" 10
  12 "Bone03_L" 11
  13 "Bone52_L" 12
  14 "Bone48_L" 12
  15 "Bone25_L" 12
  16 "Bone50_L" 12
  17 "Bone54_L" 12
  18 "Bone03" 1
  19 "Bone04" 18
  20 "Bone05" 19
  21 "Bone06" 20
  22 "Bone07" 18
  23 "Bone08" 22
  24 "Bone09" 23
  25 "Bone11" 18
  26 "Bone12" 25
  27 "Bone13" 26
  28 "Bone15" 18
  29 "Bone16" 28
  30 "Bone17" 29
  31 "Bone19" 18
  32 "Bone20" 31
  33 "Bone21" 32
  34 "Bone26" 10
  35 "Bone27" 34
  36 "Bone28" 35
  37 "Bone29" 36
  38 "Bone31" 34
  39 "Bone32" 38
  40 "Bone33" 39
  41 "Bone35" 34
  42 "Bone36" 41
  43 "Bone37" 42
  44 "Bone39" 34
  45 "Bone40" 44
  46 "Bone41" 45
  47 "Bone43" 34
  48 "Bone44" 47
  49 "Bone45" 48
end
skeleton
  time 0
    0 -10.250313 3.629672 -6.308786 0.946069 1.868008 1.341378
    1 0.026864 -9.077099 -0.000001 0.238404 -0.427129 0.178290
    2 -0.085530 -4.065333 0.539714 0.023093 -1.497266 -0.094576
    3 0.000000 2.637149 0.668922 0.000000 0.000000 0.000000
    4 0.000000 -1.667184 2.293658 0.000000 0.000000 0.000000
    5 0.000000 -1.808678 1.337844 0.000000 0.000000 0.000000
    6 0.000000 -2.905986 1.479337 0.000000 0.000000 0.000000
    7 0.000000 -0.782117 1.785742 -0.680679 0.000000 0.000000
    8 0.000000 -1.610587 0.584026 0.000000 0.000000 0.000000
    9 10.160466 3.306413 -6.058779 0.935732 -1.816350 -1.311606
    10 -0.244754 -8.933564 0.000000 0.207565 0.291124 -0.251163
    11 -0.192862 -4.013779 0.573611 0.359939 1.511626 0.436878
    12 0.000001 2.617617 0.665016 0.000000 0.000000 0.000000
    13 0.000001 -1.655466 2.278033 0.000000 0.000000 0.000000
    14 0.000000 -1.796960 1.330032 0.000000 0.000000 0.000000
    15 0.000000 -2.886455 1.471524 0.320816 0.000000 0.000000
    16 0.000001 -0.778212 1.774024 -0.680679 0.000000 0.000000
    17 0.000000 -1.598869 0.580119 0.000000 0.000000 0.000000
    18 0.000000 -0.456721 -0.000001 0.000008 -0.000003 -0.000004
    19 -0.421911 0.233313 0.477534 -0.212797 -0.375551 -2.091539
    20 1.827485 -0.104694 0.000000 0.000000 0.000000 0.523599
    21 1.069448 0.056463 0.000000 0.000000 0.000000 0.848230
    22 -1.090122 -1.829639 -0.122574 0.000005 -0.000006 -1.726140
    23 1.390342 -0.000583 0.000000 0.001091 -0.481734 0.001629
    24 0.964940 -0.010943 -0.000001 0.000000 -0.670224 0.000000
    25 -0.348493 -1.994086 -0.122574 -0.078961 -0.260133 -1.437435
    26 1.546317 0.004627 0.000000 -0.000001 -1.623155 0.000000
    27 1.135737 0.008475 0.000000 0.000000 -1.110029 0.020944
    28 0.310263 -1.738959 -0.122574 -0.056428 -0.182688 -1.438565
    29 1.569655 0.049779 0.000001 0.000000 -1.497495 -0.010472
    30 1.096338 0.003406 0.000000 0.000000 -1.214749 0.005236
    31 0.956485 -1.335291 -0.122574 0.000000 -0.267035 -1.445133
    32 1.346260 0.018204 -0.000001 -0.002744 -0.612611 -0.000922
    33 0.874448 -0.001050 0.000000 0.000000 -1.392772 0.000000
    34 -0.017482 -0.437063 0.000000 0.000000 0.000000 0.000000
    35 0.472028 0.192308 0.472822 0.297069 -0.493084 -1.048320
    36 1.857548 0.010603 0.000000 0.000000 0.000000 -0.455531
    37 0.996041 -0.010017 0.000000 0.000000 0.000000 -0.858702
    38 1.137759 -1.867485 -0.137079 0.000000 -0.052360 -1.523672
    39 1.365644 0.014869 0.000000 -0.000683 -0.838247 -0.002803
    40 0.938014 -0.005664 0.000002 0.000000 -1.110651 0.010472
    41 0.409682 -2.071858 -0.137080 0.068179 -0.280440 -1.750247
    42 1.470907 0.007359 0.000000 0.000000 -1.617923 0.010472
    43 1.152099 0.010338 -0.000001 0.000000 -1.099558 0.005236
    44 -0.292848 -1.816393 -0.137080 0.017968 -0.224442 -1.724665
    45 1.511618 -0.004263 0.000000 0.000012 -1.544617 0.036640
    46 1.099636 -0.010806 0.000000 0.000000 -1.130973 0.010472
    47 -0.957059 -1.356554 -0.137080 0.000000 -0.235619 -1.685988
    48 1.351391 -0.010799 -0.000001 0.000000 -0.753982 0.005229
    49 0.859052 0.017735 -0.000001 0.000000 -1.371829 -0.010472
  time 1
    0 -10.250313 3.657017 -6.273629 0.906617 1.874634 1.300177
    1 0.026864 -9.077099 -0.000001 0.231315 -0.424741 0.199611
    2 -0.085530 -4.065333 0.539714 0.023093 -1.497266 -0.094576
    3 0.000000 2.637149 0.668922 0.000000 0.000000 0.000000
    4 0.000000 -1.667184 2.293658 0.000000 0.000000 0.000431
    5 0.000000 -1.808678 1.337844 0.000000 0.000000 0.000000
    6 0.000000 -2.905986 1.479337 0.000000 0.000000 0.000000
    7 0.000000 -0.782117 1.785742 -0.680679 0.000000 0.000000
    8 0.000000 -1.610587 0.584026 0.000000 0.000000 0.000000
    9 10.160466 3.306413 -6.058779 1.011798 -1.846214 -1.390379
    10 -0.244754 -8.933564 0.000000 0.338454 0.290608 0.062409
    11 -0.192862 -4.013779 0.573611 0.359939 1.511626 0.436878
    12 0.000001 2.617617 0.665016 0.000000 0.000000 0.000000
    13 0.000001 -0.842941 2.278033 0.000000 0.000000 0.000000
    14 0.000000 -1.796960 1.330032 0.000000 0.000000 0.000000
    15 0.000000 -2.886455 1.471524 0.320816 0.000000 0.000000
    16 0.000001 -0.778212 1.774024 -0.680679 0.000000 0.000000
    17 0.000000 -1.598869 0.580119 0.000000 0.000000 0.000000
    18 0.000000 -0.456721 -0.000001 0.000008 -0.000003 -0.000004
    19 -0.421911 0.233313 0.477534 -0.212797 -0.375551 -2.091539
    20 1.827485 -0.104694 0.000000 0.000000 0.000000 0.523599
    21 1.069448 0.056463 0.000000 0.000000 0.000000 0.848230
    22 -1.090122 -1.829639 -0.122574 0.000005 -0.000006 -1.726140
    23 1.390342 -0.000583 0.000000 0.001091 -0.481734 0.001629
    24 0.964940 -0.010943 -0.000001 0.000000 -0.670224 0.000000
    25 -0.348493 -1.994086 -0.122574 -0.078961 -0.260133 -1.437435
    26 1.546317 0.004627 0.000000 -0.000001 -1.623155 0.000000
    27 1.135737 0.008475 0.000000 0.000000 -1.110029 0.020944
    28 0.310263 -1.738959 -0.122574 -0.056428 -0.182688 -1.438565
    29 1.569655 0.049779 0.000001 0.000000 -1.497495 -0.010472
    30 1.096338 0.003406 0.000000 0.000000 -1.214749 0.005236
    31 0.956485 -1.335291 -0.122574 0.000000 -0.267035 -1.445133
    32 1.346260 0.018204 -0.000001 -0.002744 -0.612611 -0.000922
    33 0.874448 -0.001050 0.000000 0.000000 -1.392772 0.000000
    34 -0.017482 -0.437063 0.000000 0.000000 0.000000 0.000000
    35 0.472028 0.192308 0.472822 0.297069 -0.493084 -1.048320
    36 1.857548 0.010603 0.000000 0.000000 0.000000 -0.455531
    37 0.996041 -0.010017 0.000000 0.000000 0.000000 -0.858702
    38 1.137759 -1.867485 -0.137079 0.000000 -0.052360 -1.523672
    39 1.365644 0.014869 0.000000 -0.000683 -0.838247 -0.002803
    40 0.938014 -0.005664 0.000002 0.000000 -1.110651 0.010472
    41 0.409682 -2.071858 -0.137080 0.068179 -0.280440 -1.750247
    42 1.470907 0.007359 0.000000 0.000000 -1.617923 0.010472
    43 1.152099 0.010338 -0.000001 0.000000 -1.099558 0.005236
    44 -0.292848 -1.816393 -0.137080 0.017968 -0.224442 -1.724665
    45 1.511618 -0.004263 0.000000 0.000012 -1.544617 0.036640
    46 1.099636 -0.010806 0.000000 0.000000 -1.130973 0.010472
    47 -0.957059 -1.356554 -0.137080 0.000000 -0.235619 -1.685988
    48 1.351391 -0.010799 -0.000001 0.000000 -0.753982 0.005229
    49 0.859052 0.017735 -0.000001 0.000000 -1.371829 -0.010472
  time 2
    0 -10.246406 3.621860 -6.308786 0.819838 1.880075 1.209195
    1 0.026864 -9.077099 -0.000001 0.224951 -0.423005 0.220894
    2 -0.085530 -4.065333 0.539714 0.023093 -1.497266 -0.094576
    3 0.000000 2.637149 0.668922 0.000000 0.000000 0.000000
    4 0.000000 -1.667184 2.293658 0.000000 0.000000 0.001606
    5 0.000000 -1.808678 1.337844 0.000000 0.000000 0.000000
    6 0.000000 -2.905986 1.479337 0.000000 0.000000 0.000000
    7 0.000000 -0.782117 1.785742 -0.680679 0.000000 0.000000
    8 0.000000 -1.610587 0.584026 0.000000 0.000000 0.000000
    9 10.160466 3.306413 -6.058779 1.082488 -1.883254 -1.464276
    10 -0.244754 -8.933564 0.000000 0.402191 0.282064 0.209580
    11 -0.192862 -4.013779 0.573611 0.359939 1.511626 0.436878
    12 0.000001 2.617617 0.665016 0.000000 0.000000 0.000000
    13 0.000001 -0.030416 2.278033 0.000000 0.000000 0.000000
    14 0.000000 -1.796960 1.330032 0.000000 0.000000 0.000000
    15 0.000000 -2.886455 1.471524 0.320816 0.000000 0.000000
    16 0.000001 -0.778212 1.774024 -0.680679 0.000000 0.000000
    17 0.000000 -1.598869 0.580119 0.000000 0.000000 0.000000
    18 0.000000 -0.456721 -0.000001 0.000008 -0.000003 -0.000004
    19 -0.421911 0.233313 0.477534 -0.212797 -0.375551 -2.091539
    20 1.827485 -0.104694 0.000000 0.000000 0.000000 0.523599
    21 1.069448 0.056463 0.000000 0.000000 0.000000 0.848230
    22 -1.090122 -1.829639 -0.122574 0.000005 -0.000006 -1.726140
    23 1.390342 -0.000583 0.000000 0.001091 -0.481734 0.001629
    24 0.964940 -0.010943 -0.000001 0.000000 -0.670224 0.000000
    25 -0.348493 -1.994086 -0.122574 -0.078961 -0.260133 -1.437435
    26 1.546317 0.004627 0.000000 -0.000001 -1.623155 0.000000
    27 1.135737 0.008475 0.000000 0.000000 -1.110029 0.020944
    28 0.310263 -1.738959 -0.122574 -0.056428 -0.182688 -1.438565
    29 1.569655 0.049779 0.000001 0.000000 -1.497495 -0.010472
    30 1.096338 0.003406 0.000000 0.000000 -1.214749 0.005236
    31 0.956485 -1.335291 -0.122574 0.000000 -0.267035 -1.445133
    32 1.346260 0.018204 -0.000001 -0.002744 -0.612611 -0.000922
    33 0.874448 -0.001050 0.000000 0.000000 -1.392772 0.000000
    34 -0.017482 -0.437063 0.000000 0.000000 0.000000 0.000000
    35 0.472028 0.192308 0.472822 0.297069 -0.493084 -1.048320
    36 1.857548 0.010603 0.000000 0.000000 0.000000 -0.455531
    37 0.996041 -0.010017 0.000000 0.000000 0.000000 -0.858702
    38 1.137759 -1.867485 -0.137079 0.000000 -0.052360 -1.523672
    39 1.365644 0.014869 0.000000 -0.000683 -0.838247 -0.002803
    40 0.938014 -0.005664 0.000002 0.000000 -1.110651 0.010472
    41 0.409682 -2.071858 -0.137080 0.068179 -0.280440 -1.750247
    42 1.470907 0.007359 0.000000 0.000000 -1.617923 0.010472
    43 1.152099 0.010338 -0.000001 0.000000 -1.099558 0.005236
    44 -0.292848 -1.816393 -0.137080 0.017968 -0.224442 -1.724665
    45 1.511618 -0.004263 0.000000 0.000012 -1.544617 0.036640
    46 1.099636 -0.010806 0.000000 0.000000 -1.130973 0.010472
    47 -0.957059 -1.356554 -0.137080 0.000000 -0.235619 -1.685988
    48 1.351391 -0.010799 -0.000001 0.000000 -0.753982 0.005229
    49 0.859052 0.017735 -0.000001 0.000000 -1.371829 -0.010472
  time 3
    0 -10.238594 3.563264 -6.375195 0.765512 1.882664 1.152048
    1 0.026864 -9.077099 -0.000001 0.217298 -0.419563 0.242104
    2 -0.085530 -4.065333 0.539714 0.023093 -1.497266 -0.094576
    3 0.000000 2.637149 0.668922 0.000000 0.000000 0.000000
    4 0.000000 -1.667184 2.293658 0.000000 0.000000 0.003344
    5 0.000000 -1.808678 1.337844 0.000000 0.000000 0.000000
    6 0.000000 -2.905986 1.479337 0.000000 0.000000 0.000000
    7 0.000000 -0.782117 1.785742 -0.680679 0.000000 0.000000
    8 0.000000 -1.610587 0.584026 0.000000 0.000000 0.000000
    9 10.179998 3.775177 -5.988464 1.130614 -1.916015 -1.515039
    10 -0.244754 -8.933564 0.000000 0.399030 0.299128 0.180468
    11 -0.192862 -4.013779 0.573611 0.359939 1.511626 0.436878
    12 0.000001 2.617617 0.665016 0.000000 0.000000 0.000000
    13 0.000001 -0.842941 2.278033 0.000000 0.000000 0.000000
    14 0.000000 -1.796960 1.330032 0.000000 0.000000 0.000000
    15 0.000000 -2.886455 1.471524 0.320816 0.000000 0.000000
    16 0.000001 -0.778212 1.774024 -0.680679 0.000000 0.000000
    17 0.000000 -1.598869 0.580119 0.000000 0.000000 0.000000
    18 0.000000 -0.456721 -0.000001 0.000008 -0.000003 -0.000004
    19 -0.421911 0.233313 0.477534 -0.212797 -0.375551 -2.091539
    20 1.827485 -0.104694 0.000000 0.000000 0.000000 0.523599
    21 1.069448 0.056463 0.000000 0.000000 0.000000 0.848230
    22 -1.090122 -1.829639 -0.122574 0.000005 -0.000006 -1.726140
    23 1.390342 -0.000583 0.000000 0.001091 -0.481734 0.001629
    24 0.964940 -0.010943 -0.000001 0.000000 -0.670224 0.000000
    25 -0.348493 -1.994086 -0.122574 -0.078961 -0.260133 -1.437435
    26 1.546317 0.004627 0.000000 -0.000001 -1.623155 0.000000
    27 1.135737 0.008475 0.000000 0.000000 -1.110029 0.020944
    28 0.310263 -1.738959 -0.122574 -0.056428 -0.182688 -1.438565
    29 1.569655 0.049779 0.000001 0.000000 -1.497495 -0.010472
    30 1.096338 0.003406 0.000000 0.000000 -1.214749 0.005236
    31 0.956485 -1.335291 -0.122574 0.000000 -0.267035 -1.445133
    32 1.346260 0.018204 -0.000001 -0.002744 -0.612611 -0.000922
    33 0.874448 -0.001050 0.000000 0.000000 -1.392772 0.000000
    34 -0.017482 -0.437063 0.000000 0.000000 0.000000 0.000000
    35 0.472028 0.192308 0.472822 0.297069 -0.493084 -1.048320
    36 1.857548 0.010603 0.000000 0.000000 0.000000 -0.455531
    37 0.996041 -0.010017 0.000000 0.000000 0.000000 -0.858702
    38 1.137759 -1.867485 -0.137079 0.000000 -0.052360 -1.523672
    39 1.365644 0.014869 0.000000 -0.000683 -0.838247 -0.002803
    40 0.938014 -0.005664 0.000002 0.000000 -1.110651 0.010472
    41 0.409682 -2.071858 -0.137080 0.068179 -0.280440 -1.750247
    42 1.470907 0.007359 0.000000 0.000000 -1.617923 0.010472
    43 1.152099 0.010338 -0.000001 0.000000 -1.099558 0.005236
    44 -0.292848 -1.816393 -0.137080 0.017968 -0.224442 -1.724665
    45 1.511618 -0.004263 0.000000 0.000012 -1.544617 0.036640
    46 1.099636 -0.010806 0.000000 0.000000 -1.130973 0.010472
    47 -0.957059 -1.356554 -0.137080 0.000000 -0.235619 -1.685988
    48 1.351391 -0.010799 -0.000001 0.000000 -0.753982 0.005229
    49 0.859052 0.017735 -0.000001 0.000000 -1.371829 -0.010472
  time 4
    0 -10.230781 3.520294 -6.418165 0.762489 1.882489 1.148811
    1 0.026864 -9.077099 -0.000001 0.206369 -0.412060 0.262984
    2 -0.085530 -4.065333 0.539714 0.023093 -1.497266 -0.094576
    3 0.000000 2.637149 0.668922 0.000000 0.000000 0.000000
    4 0.000000 -1.667184 2.293658 0.000000 0.000000 0.005453
    5 0.000000 -1.808678 1.337844 0.000000 0.000000 0.000000
    6 0.000000 -2.905986 1.479337 0.000000 0.000000 0.000000
    7 0.000000 -0.782117 1.785742 -0.680679 0.000000 0.000000
    8 0.000000 -1.610587 0.584026 0.000000 0.000000 0.000000
    9 10.195624 4.111125 -5.937681 1.167016 -1.946636 -1.553947
    10 -0.244754 -8.933564 0.000000 0.370538 0.333944 0.078918
    11 -0.192862 -4.013779 0.573611 0.359939 1.511626 0.436878
    12 0.000001 2.617617 0.665016 0.000000 0.000000 0.000000
    13 0.000001 -1.655466 2.278033 0.000000 0.000000 0.000000
    14 0.000000 -1.796960 1.330032 0.000000 0.000000 0.000000
    15 0.000000 -2.886455 1.471524 0.320816 0.000000 0.000000
    16 0.000001 -0.778212 1.774024 -0.680679 0.000000 0.000000
    17 0.000000 -1.598869 0.580119 0.000000 0.000000 0.000000
    18 0.000000 -0.456721 -0.000001 0.000008 -0.000003 -0.000004
    19 -0.421911 0.233313 0.477534 -0.212797 -0.375551 -2.091539
    20 1.827485 -0.104694 0.000000 0.000000 0.000000 0.523599
    21 1.069448 0.056463 0.000000 0.000000 0.000000 0.848230
    22 -1.090122 -1.829639 -0.122574 0.000005 -0.000006 -1.726140
    23 1.390342 -0.000583 0.000000 0.001091 -0.481734 0.001629
    24 0.964940 -0.010943 -0.000001 0.000000 -0.670224 0.000000
    25 -0.348493 -1.994086 -0.122574 -0.078961 -0.260133 -1.437435
    26 1.546317 0.004627 0.000000 -0.000001 -1.623155 0.000000
    27 1.135737 0.008475 0.000000 0.000000 -1.110029 0.020944
    28 0.310263 -1.738959 -0.122574 -0.056428 -0.182688 -1.438565
    29 1.569655 0.049779 0.000001 0.000000 -1.497495 -0.010472
    30 1.096338 0.003406 0.000000 0.000000 -1.214749 0.005236
    31 0.956485 -1.335291 -0.122574 0.000000 -0.267035 -1.445133
    32 1.346260 0.018204 -0.000001 -0.002744 -0.612611 -0.000922
    33 0.874448 -0.001050 0.000000 0.000000 -1.392772 0.000000
    34 -0.017482 -0.437063 0.000000 0.000000 0.000000 0.000000
    35 0.472028 0.192308 0.472822 0.297069 -0.493084 -1.048320
    36 1.857548 0.010603 0.000000 0.000000 0.000000 -0.455531
    37 0.996041 -0.010017 0.000000 0.000000 0.000000 -0.858702
    38 1.137759 -1.867485 -0.137079 0.000000 -0.052360 -1.523672
    39 1.365644 0.014869 0.000000 -0.000683 -0.838247 -0.002803
    40 0.938014 -0.005664 0.000002 0.000000 -1.110651 0.010472
    41 0.409682 -2.071858 -0.137080 0.068179 -0.280440 -1.750247
    42 1.470907 0.007359 0.000000 0.000000 -1.617923 0.010472
    43 1.152099 0.010338 -0.000001 0.000000 -1.099558 0.005236
    44 -0.292848 -1.816393 -0.137080 0.017968 -0.224442 -1.724665
    45 1.511618 -0.004263 0.000000 0.000012 -1.544617 0.036640
    46 1.099636 -0.010806 0.000000 0.000000 -1.130973 0.010472
    47 -0.957059 -1.356554 -0.137080 0.000000 -0.235619 -1.685988
    48 1.351391 -0.010799 -0.000001 0.000000 -0.753982 0.005229
    49 0.859052 0.017735 -0.000001 0.000000 -1.371829 -0.010472
  time 5
    0 -10.226875 3.496856 -6.437696 0.754137 1.882006 1.140069
    1 0.026864 -9.077099 -0.000001 0.200757 -0.407564 0.271754
    2 -0.085530 -4.065333 0.539714 0.023093 -1.497266 -0.094576
    3 0.000000 2.637149 0.668922 0.000000 0.000000 0.000000
    4 0.000000 -1.667184 2.293658 0.000000 0.000000 0.007754
    5 0.000000 -1.808678 1.337844 0.000000 0.000000 0.000000
    6 0.000000 -2.905986 1.479337 0.000000 0.000000 0.000000
    7 0.000000 -0.782117 1.785742 -0.680679 0.000000 0.000000
    8 0.000000 -1.610587 0.584026 0.000000 0.000000 0.000000
    9 10.203436 4.314256 -5.906430 -1.950119 -1.170803 -4.721786
    10 -0.244754 -8.933564 0.000000 0.322250 0.367803 -0.061195
    11 -0.192862 -4.013779 0.573611 0.359939 1.511626 0.436878
    12 0.000001 2.617617 0.665016 0.000000 0.000000 0.000000
    13 0.000001 -1.655466 2.278033 0.000000 0.000000 0.000000
    14 0.000000 -1.796960 1.330032 0.000000 0.000000 0.000000
    15 0.000000 -2.886455 1.471524 0.320816 0.000000 0.000000
    16 0.000001 -0.778212 1.774024 -0.680679 0.000000 0.000000
    17 0.000000 -1.598869 0.580119 0.000000 0.000000 0.000000
    18 0.000000 -0.456721 -0.000001 0.000008 -0.000003 -0.000004
    19 -0.421911 0.233313 0.477534 -0.212797 -0.375551 -2.091539
    20 1.827485 -0.104694 0.000000 0.000000 0.000000 0.523599
    21 1.069448 0.056463 0.000000 0.000000 0.000000 0.848230
    22 -1.090122 -1.829639 -0.122574 0.000005 -0.000006 -1.726140
    23 1.390342 -0.000583 0.000000 0.001091 -0.481734 0.001629
    24 0.964940 -0.010943 -0.000001 0.000000 -0.670224 0.000000
    25 -0.348493 -1.994086 -0.122574 -0.078961 -0.260133 -1.437435
    26 1.546317 0.004627 0.000000 -0.000001 -1.623155 0.000000
    27 1.135737 0.008475 0.000000 0.000000 -1.110029 0.020944
    28 0.310263 -1.738959 -0.122574 -0.056428 -0.182688 -1.438565
    29 1.569655 0.049779 0.000001 0.000000 -1.497495 -0.010472
    30 1.096338 0.003406 0.000000 0.000000 -1.214749 0.005236
    31 0.956485 -1.335291 -0.122574 0.000000 -0.267035 -1.445133
    32 1.346260 0.018204 -0.000001 -0.002744 -0.612611 -0.000922
    33 0.874448 -0.001050 0.000000 0.000000 -1.392772 0.000000
    34 -0.017482 -0.437063 0.000000 0.000000 0.000000 0.000000
    35 0.472028 0.192308 0.472822 0.297069 -0.493084 -1.048320
    36 1.857548 0.010603 0.000000 0.000000 0.000000 -0.455531
    37 0.996041 -0.010017 0.000000 0.000000 0.000000 -0.858702
    38 1.137759 -1.867485 -0.137079 0.000000 -0.052360 -1.523672
    39 1.365644 0.014869 0.000000 -0.000683 -0.838247 -0.002803
    40 0.938014 -0.005664 0.000002 0.000000 -1.110651 0.010472
    41 0.409682 -2.071858 -0.137080 0.068179 -0.280440 -1.750247
    42 1.470907 0.007359 0.000000 0.000000 -1.617923 0.010472
    43 1.152099 0.010338 -0.000001 0.000000 -1.099558 0.005236
    44 -0.292848 -1.816393 -0.137080 0.017968 -0.224442 -1.724665
    45 1.511618 -0.004263 0.000000 0.000012 -1.544617 0.036640
    46 1.099636 -0.010806 0.000000 0.000000 -1.130973 0.010472
    47 -0.957059 -1.356554 -0.137080 0.000000 -0.235619 -1.685988
    48 1.351391 -0.010799 -0.000001 0.000000 -0.753982 0.005229
    49 0.859052 0.017735 -0.000001 0.000000 -1.371829 -0.010472
  time 6
    0 -10.222968 3.473418 -6.453322 0.745070 1.881260 1.130517
    1 0.026864 -9.077099 -0.000001 0.188593 -0.397146 0.290359
    2 -0.085530 -4.065333 0.539714 0.023093 -1.497266 -0.094576
    3 0.000000 2.637149 0.668922 0.000000 0.000000 0.000000
    4 0.000000 -1.667184 2.293658 0.000000 0.000000 0.010043
    5 0.000000 -1.808678 1.337844 0.000000 0.000000 0.000000
    6 0.000000 -2.905986 1.479337 0.000000 0.000000 0.000000
    7 0.000000 -0.782117 1.785742 -0.680679 0.000000 0.000000
    8 0.000000 -1.610587 0.584026 0.000000 0.000000 0.000000
    9 10.203436 4.380665 -5.898618 -1.947387 -1.167862 -4.724845
    10 -0.244754 -8.933564 0.000000 0.268572 0.388354 -0.200275
    11 -0.192862 -4.013779 0.573611 0.359939 1.511626 0.436878
    12 0.000001 2.617617 0.665016 0.000000 0.000000 0.000000
    13 0.000001 -1.655466 2.278033 0.000000 0.000000 0.000000
    14 0.000000 -1.796960 1.330032 0.000000 0.000000 0.000000
    15 0.000000 -2.886455 1.471524 0.265459 0.000000 0.000000
    16 0.000001 -0.778212 1.774024 -0.680679 0.000000 0.000000
    17 0.000000 -1.598869 0.580119 0.000000 0.000000 0.000000
    18 0.000000 -0.456721 -0.000001 0.000008 -0.000003 -0.000004
    19 -0.421911 0.233313 0.477534 -0.212797 -0.375551 -2.091539
    20 1.827485 -0.104694 0.000000 0.000000 0.000000 0.523599
    21 1.069448 0.056463 0.000000 0.000000 0.000000 0.848230
    22 -1.090122 -1.829639 -0.122574 0.000005 -0.000006 -1.726140
    23 1.390342 -0.000583 0.000000 0.001091 -0.481734 0.001629
    24 0.964940 -0.010943 -0.000001 0.000000 -0.670224 0.000000
    25 -0.348493 -1.994086 -0.122574 -0.078961 -0.260133 -1.437435
    26 1.546317 0.004627 0.000000 -0.000001 -1.623155 0.000000
    27 1.135737 0.008475 0.000000 0.000000 -1.110029 0.020944
    28 0.310263 -1.738959 -0.122574 -0.056428 -0.182688 -1.438565
    29 1.569655 0.049779 0.000001 0.000000 -1.497495 -0.010472
    30 1.096338 0.003406 0.000000 0.000000 -1.214749 0.005236
    31 0.956485 -1.335291 -0.122574 0.000000 -0.267035 -1.445133
    32 1.346260 0.018204 -0.000001 -0.002744 -0.612611 -0.000922
    33 0.874448 -0.001050 0.000000 0.000000 -1.392772 0.000000
    34 -0.017482 -0.437063 0.000000 0.000000 0.000000 0.000000
    35 0.472028 0.192308 0.472822 0.297069 -0.493084 -1.048320
    36 1.857548 0.010603 0.000000 0.000000 0.000000 -0.455531
    37 0.996041 -0.010017 0.000000 0.000000 0.000000 -0.858702
    38 1.137759 -1.867485 -0.137079 0.000000 -0.040480 -1.523672
    39 1.365644 0.014869 0.000000 -0.000683 -0.779297 -0.002803
    40 0.938014 -0.005664 0.000002 0.000000 -1.083578 0.010472
    41 0.409682 -2.071858 -0.137080 0.068179 -0.280440 -1.750247
    42 1.470907 0.007359 0.000000 0.000000 -1.617923 0.010472
    43 1.152099 0.010338 -0.000001 0.000000 -1.099558 0.005236
    44 -0.292848 -1.816393 -0.137080 0.017968 -0.224442 -1.724665
    45 1.511618 -0.004263 0.000000 0.000012 -1.544617 0.036640
    46 1.099636 -0.010806 0.000000 0.000000 -1.130973 0.010472
    47 -0.957059 -1.356554 -0.137080 0.000000 -0.235619 -1.685988
    48 1.351391 -0.010799 -0.000001 0.000000 -0.753982 0.005229
    49 0.859052 0.017735 -0.000001 0.000000 -1.371829 -0.010472
  time 7
    0 -10.222968 3.453886 -6.461135 0.738229 1.880339 1.123313
    1 0.026864 -9.077099 -0.000001 0.177637 -0.387007 0.306505
    2 -0.085530 -4.065333 0.539714 0.023093 -1.497266 -0.094576
    3 0.000000 2.637149 0.668922 0.000000 0.000000 0.000000
    4 0.000000 -1.667184 2.293658 0.000000 0.000000 0.012152
    5 0.000000 -1.808678 1.337844 0.000000 0.000000 0.000000
    6 0.000000 -2.905986 1.479337 0.000000 0.000000 0.000000
    7 0.000000 -0.782117 1.785742 -0.680679 0.000000 0.000000
    8 0.000000 -1.610587 0.584026 0.000000 0.000000 0.000000
    9 10.203436 4.361133 -5.918149 -1.950472 -1.171249 -4.721404
    10 -0.244754 -8.933564 0.000000 0.229302 0.390956 -0.295170
    11 -0.192862 -4.013779 0.573611 0.359939 1.511626 0.436878
    12 0.000001 2.617617 0.665016 0.000000 0.000000 0.000000
    13 0.000001 -1.655466 2.278033 0.000000 0.000000 0.000000
    14 0.000000 -1.796960 1.330032 0.000000 0.000000 0.000000
    15 0.000000 -2.886455 1.471524 0.133448 0.000000 0.000000
    16 0.000001 -0.778212 1.774024 -0.680679 0.000000 0.000000
    17 0.000000 -1.598869 0.580119 0.000000 0.000000 0.000000
    18 0.000000 -0.456721 -0.000001 0.000008 -0.000003 -0.000004
    19 -0.421911 0.233313 0.477534 -0.212797 -0.375551 -2.091539
    20 1.827485 -0.104694 0.000000 0.000000 0.000000 0.523599
    21 1.069448 0.056463 0.000000 0.000000 0.000000 0.848230
    22 -1.090122 -1.829639 -0.122574 0.000005 -0.000006 -1.726140
    23 1.390342 -0.000583 0.000000 0.001091 -0.481734 0.001629
    24 0.964940 -0.010943 -0.000001 0.000000 -0.670224 0.000000
    25 -0.348493 -1.994086 -0.122574 -0.078961 -0.260133 -1.437435
    26 1.546317 0.004627 0.000000 -0.000001 -1.623155 0.000000
    27 1.135737 0.008475 0.000000 0.000000 -1.110029 0.020944
    28 0.310263 -1.738959 -0.122574 -0.056428 -0.182688 -1.438565
    29 1.569655 0.049779 0.000001 0.000000 -1.497495 -0.010472
    30 1.096338 0.003406 0.000000 0.000000 -1.214749 0.005236
    31 0.956485 -1.335291 -0.122574 0.000000 -0.267035 -1.445133
    32 1.346260 0.018204 -0.000001 -0.002744 -0.612611 -0.000922
    33 0.874448 -0.001050 0.000000 0.000000 -1.392772 0.000000
    34 -0.017482 -0.437063 0.000000 0.000000 0.000000 0.000000
    35 0.472028 0.192308 0.472822 0.297069 -0.493084 -1.048320
    36 1.857548 0.010603 0.000000 0.000000 0.000000 -0.455531
    37 0.996041 -0.010017 0.000000 0.000000 0.000000 -0.858702
    38 1.137759 -1.867485 -0.137079 0.000000 -0.012107 -1.523672
    39 1.365644 0.014869 0.000000 -0.000683 -0.638748 -0.002803
    40 0.938014 -0.005664 0.000002 0.000000 -1.017255 0.010472
    41 0.409682 -2.071858 -0.137080 0.068179 -0.280440 -1.750247
    42 1.470907 0.007359 0.000000 0.000000 -1.617923 0.010472
    43 1.152099 0.010338 -0.000001 0.000000 -1.099558 0.005236
    44 -0.292848 -1.816393 -0.137080 0.017968 -0.224442 -1.724665
    45 1.511618 -0.004263 0.000000 0.000012 -1.544617 0.036640
    46 1.099636 -0.010806 0.000000 0.000000 -1.130973 0.010472
    47 -0.957059 -1.356554 -0.137080 0.000000 -0.235619 -1.685988
    48 1.351391 -0.010799 -0.000001 0.000000 -0.753982 0.005229
    49 0.859052 0.017735 -0.000001 0.000000 -1.371829 -0.010472
  time 8
    0 -10.219062 3.438260 -6.468947 0.733298 1.879285 1.118213
    1 0.026864 -9.077099 -0.000001 0.167916 -0.377364 0.320193
    2 -0.085530 -4.065333 0.539714 0.023093 -1.497266 -0.094576
    3 0.000000 2.637149 0.668922 0.000000 0.000000 0.000000
    4 0.000000 -1.667184 2.293658 0.000000 0.000000 0.013890
    5 0.000000 -1.808678 1.337844 0.000000 0.000000 0.000000
    6 0.000000 -2.905986 1.479337 0.000000 0.000000 0.000000
    7 0.000000 -0.782117 1.785742 -0.680679 0.000000 0.000000
    8 0.000000 -1.610587 0.584026 0.000000 0.000000 0.000000
    9 10.203436 4.302537 -5.980651 1.178034 -1.957155 -1.565897
    10 -0.244754 -8.933564 0.000000 0.208499 0.377575 -0.340085
    11 -0.192862 -4.013779 0.573611 0.359939 1.511626 0.436878
    12 0.000001 2.617617 0.665016 0.000000 0.000000 0.000000
    13 0.000001 -1.655466 2.278033 0.000000 0.000000 0.000000
    14 0.000000 -1.796960 1.330032 0.000000 0.000000 0.000000
    15 0.000000 -2.886455 1.471524 -0.024089 0.000000 0.000000
    16 0.000001 -0.778212 1.774024 -0.680679 0.000000 0.000000
    17 0.000000 -1.598869 0.580119 0.000000 0.000000 0.000000
    18 0.000000 -0.456721 -0.000001 0.000008 -0.000003 -0.000004
    19 -0.421911 0.233313 0.477534 -0.212797 -0.375551 -2.091539
    20 1.827485 -0.104694 0.000000 0.000000 0.000000 0.523599
    21 1.069448 0.056463 0.000000 0.000000 0.000000 0.848230
    22 -1.090122 -1.829639 -0.122574 0.000005 -0.000006 -1.726140
    23 1.390342 -0.000583 0.000000 0.001091 -0.481734 0.001629
    24 0.964940 -0.010943 -0.000001 0.000000 -0.670224 0.000000
    25 -0.348493 -1.994086 -0.122574 -0.078961 -0.260133 -1.437435
    26 1.546317 0.004627 0.000000 -0.000001 -1.623155 0.000000
    27 1.135737 0.008475 0.000000 0.000000 -1.110029 0.020944
    28 0.310263 -1.738959 -0.122574 -0.056428 -0.182688 -1.438565
    29 1.569655 0.049779 0.000001 0.000000 -1.497495 -0.010472
    30 1.096338 0.003406 0.000000 0.000000 -1.214749 0.005236
    31 0.956485 -1.335291 -0.122574 0.000000 -0.267035 -1.445133
    32 1.346260 0.018204 -0.000001 -0.002744 -0.612611 -0.000922
    33 0.874448 -0.001050 0.000000 0.000000 -1.392772 0.000000
    34 -0.017482 -0.437063 0.000000 0.000000 0.000000 0.000000
    35 0.472028 0.192308 0.472822 0.297069 -0.493084 -1.048320
    36 1.857548 0.010603 0.000000 0.000000 0.000000 -0.455531
    37 0.996041 -0.010017 0.000000 0.000000 0.000000 -0.858702
    38 1.137759 -1.867485 -0.137079 0.000000 0.021741 -1.523672
    39 1.365644 0.014869 0.000000 -0.000683 -0.470976 -0.002803
    40 0.938014 -0.005664 0.000002 0.000000 -0.934201 0.010472
    41 0.409682 -2.071858 -0.137080 0.068179 -0.280440 -1.750247
    42 1.470907 0.007359 0.000000 0.000000 -1.617923 0.010472
    43 1.152099 0.010338 -0.000001 0.000000 -1.099558 0.005236
    44 -0.292848 -1.816393 -0.137080 0.017968 -0.224442 -1.724665
    45 1.511618 -0.004263 0.000000 0.000012 -1.544617 0.036640
    46 1.099636 -0.010806 0.000000 0.000000 -1.130973 0.010472
    47 -0.957059 -1.356554 -0.137080 0.000000 -0.235619 -1.685988
    48 1.351391 -0.010799 -0.000001 0.000000 -0.753982 0.005229
    49 0.859052 0.017735 -0.000001 0.000000 -1.371829 -0.010472
  time 9
    0 -10.219062 3.422635 -6.468947 0.730196 1.878057 1.114976
    1 0.026864 -9.077099 -0.000001 0.159243 -0.368248 0.331788
    2 -0.085530 -4.065333 0.539714 0.023093 -1.497266 -0.094576
    3 0.000000 2.637149 0.668922 0.000000 0.000000 0.000000
    4 0.000000 -1.667184 2.293658 0.000000 0.000000 0.015077
    5 0.000000 -1.808678 1.337844 0.000000 0.000000 0.000000
    6 0.000000 -2.905986 1.479337 0.000000 0.000000 0.000000
    7 0.000000 -0.782117 1.785742 -0.680679 0.000000 0.000000
    8 0.000000 -1.610587 0.584026 0.000000 0.000000 0.000000
    9 10.203436 4.224410 -6.066591 1.155117 -1.936028 -1.541233
    10 -0.244754 -8.933564 0.000000 0.193948 0.353341 -0.366651
    11 -0.192862 -4.013779 0.573611 0.359939 1.511626 0.436878
    12 0.000001 2.617617 0.665016 0.000000 0.000000 0.000000
    13 0.000001 -1.655466 2.278033 0.000000 0.000000 0.000000
    14 0.000000 -1.796960 1.330032 0.000000 0.000000 0.000000
    15 0.000000 -2.886455 1.471524 -0.156099 0.000000 0.000000
    16 0.000001 -0.778212 1.774024 -0.680679 0.000000 0.000000
    17 0.000000 -1.598869 0.580119 0.000000 0.000000 0.000000
    18 0.000000 -0.456721 -0.000001 0.000008 -0.000003 -0.000004
    19 -0.421911 0.233313 0.477534 -0.212797 -0.375551 -2.091539
    20 1.827485 -0.104694 0.000000 0.000000 0.000000 0.523599
    21 1.069448 0.056463 0.000000 0.000000 0.000000 0.848230
    22 -1.090122 -1.829639 -0.122574 0.000005 -0.000006 -1.726140
    23 1.390342 -0.000583 0.000000 0.001091 -0.481734 0.001629
    24 0.964940 -0.010943 -0.000001 0.000000 -0.670224 0.000000
    25 -0.348493 -1.994086 -0.122574 -0.078961 -0.260133 -1.437435
    26 1.546317 0.004627 0.000000 -0.000001 -1.623155 0.000000
    27 1.135737 0.008475 0.000000 0.000000 -1.110029 0.020944
    28 0.310263 -1.738959 -0.122574 -0.056428 -0.182688 -1.438565
    29 1.569655 0.049779 0.000001 0.000000 -1.497495 -0.010472
    30 1.096338 0.003406 0.000000 0.000000 -1.214749 0.005236
    31 0.956485 -1.335291 -0.122574 0.000000 -0.267035 -1.445133
    32 1.346260 0.018204 -0.000001 -0.002744 -0.612611 -0.000922
    33 0.874448 -0.001050 0.000000 0.000000 -1.392772 0.000000
    34 -0.017482 -0.437063 0.000000 0.000000 0.000000 0.000000
    35 0.472028 0.192308 0.472822 0.297069 -0.493084 -1.048320
    36 1.857548 0.010603 0.000000 0.000000 0.000000 -0.455531
    37 0.996041 -0.010017 0.000000 0.000000 0.000000 -0.858702
    38 1.137759 -1.867485 -0.137079 0.000000 0.050080 -1.523672
    39 1.365644 0.014869 0.000000 -0.000683 -0.330441 -0.002803
    40 0.938014 -0.005664 0.000002 0.000000 -0.856840 0.010472
    41 0.409682 -2.071858 -0.137080 0.068179 -0.280440 -1.750247
    42 1.470907 0.007359 0.000000 0.000000 -1.617923 0.010472
    43 1.152099 0.010338 -0.000001 0.000000 -1.099558 0.005236
    44 -0.292848 -1.816393 -0.137080 0.017968 -0.224442 -1.724665
    45 1.511618 -0.004263 0.000000 0.000012 -1.544617 0.036640
    46 1.099636 -0.010806 0.000000 0.000000 -1.130973 0.010472
    47 -0.957059 -1.356554 -0.137080 0.000000 -0.235619 -1.685988
    48 1.351391 -0.010799 -0.000001 0.000000 -0.753982 0.005229
    49 0.859052 0.017735 -0.000001 0.000000 -1.371829 -0.010472
  time 10
    0 -10.219062 3.407009 -6.465041 0.728764 1.876740 1.113438
    1 0.026864 -9.077099 -0.000001 0.151429 -0.359691 0.341513
    2 -0.085530 -4.065333 0.539714 0.023093 -1.497266 -0.094576
    3 0.000000 2.637149 0.668922 0.000000 0.000000 0.000000
    4 0.000000 -1.667184 2.293658 0.000000 0.000000 0.015508
    5 0.000000 -1.808678 1.337844 0.000000 0.000000 0.000000
    6 0.000000 -2.905986 1.479337 0.000000 0.000000 0.000000
    7 0.000000 -0.782117 1.785742 -0.680679 0.000000 0.000000
    8 0.000000 -1.610587 0.584026 0.000000 0.000000 0.000000
    9 10.203436 4.126751 -6.168157 1.124355 -1.911334 -1.508347
    10 -0.244754 -8.933564 0.000000 0.184499 0.324000 -0.379001
    11 -0.192862 -4.013779 0.573611 0.359939 1.511626 0.436878
    12 0.000001 2.617617 0.665016 0.000000 0.000000 0.000000
    13 0.000001 -1.655466 2.278033 0.000000 0.000000 0.000000
    14 0.000000 -1.796960 1.330032 0.000000 0.000000 0.000000
    15 0.000000 -2.886455 1.471524 -0.211456 0.000000 0.000000
    16 0.000001 -0.778212 1.774024 -0.680679 0.000000 0.000000
    17 0.000000 -1.598869 0.580119 0.000000 0.000000 0.000000
    18 0.000000 -0.456721 -0.000001 0.000008 -0.000003 -0.000004
    19 -0.421911 0.233313 0.477534 -0.212797 -0.375551 -2.091539
    20 1.827485 -0.104694 0.000000 0.000000 0.000000 0.523599
    21 1.069448 0.056463 0.000000 0.000000 0.000000 0.848230
    22 -1.090122 -1.829639 -0.122574 0.000005 -0.000006 -1.726140
    23 1.390342 -0.000583 0.000000 0.001091 -0.481734 0.001629
    24 0.964940 -0.010943 -0.000001 0.000000 -0.670224 0.000000
    25 -0.348493 -1.994086 -0.122574 -0.078961 -0.260133 -1.437435
    26 1.546317 0.004627 0.000000 -0.000001 -1.623155 0.000000
    27 1.135737 0.008475 0.000000 0.000000 -1.110029 0.020944
    28 0.310263 -1.738959 -0.122574 -0.056428 -0.182688 -1.438565
    29 1.569655 0.049779 0.000001 0.000000 -1.497495 -0.010472
    30 1.096338 0.003406 0.000000 0.000000 -1.214749 0.005236
    31 0.956485 -1.335291 -0.122574 0.000000 -0.267035 -1.445133
    32 1.346260 0.018204 -0.000001 -0.002744 -0.612611 -0.000922
    33 0.874448 -0.001050 0.000000 0.000000 -1.392772 0.000000
    34 -0.017482 -0.437063 0.000000 0.000000 0.000000 0.000000
    35 0.472028 0.192308 0.472822 0.297069 -0.493084 -1.048320
    36 1.857548 0.010603 0.000000 0.000000 0.000000 -0.455531
    37 0.996041 -0.010017 0.000000 0.000000 0.000000 -0.858702
    38 1.137759 -1.867485 -0.137079 0.000000 0.061995 -1.523672
    39 1.365644 0.014869 0.000000 -0.000683 -0.271490 -0.002803
    40 0.938014 -0.005664 0.000002 0.000000 -0.807595 0.010472
    41 0.409682 -2.071858 -0.137080 0.068179 -0.280440 -1.750247
    42 1.470907 0.007359 0.000000 0.000000 -1.617923 0.010472
    43 1.152099 0.010338 -0.000001 0.000000 -1.099558 0.005236
    44 -0.292848 -1.816393 -0.137080 0.017968 -0.224442 -1.724665
    45 1.511618 -0.004263 0.000000 0.000012 -1.544617 0.036640
    46 1.099636 -0.010806 0.000000 0.000000 -1.130973 0.010472
    47 -0.957059 -1.356554 -0.137080 0.000000 -0.235619 -1.685988
    48 1.351391 -0.010799 -0.000001 0.000000 -0.753982 0.005229
    49 0.859052 0.017735 -0.000001 0.000000 -1.371829 -0.010472
  time 11
    0 -10.219062 3.395290 -6.461135 0.728605 1.875336 1.113357
    1 0.026864 -9.077099 -0.000001 0.144286 -0.351660 0.349769
    2 -0.085530 -4.065333 0.539714 0.023093 -1.497266 -0.094576
    3 0.000000 2.637149 0.668922 0.000000 0.000000 0.000000
    4 0.000000 -1.667184 2.293658 0.000000 0.000000 0.015508
    5 0.000000 -1.808678 1.337844 0.000000 0.000000 0.000000
    6 0.000000 -2.905986 1.479337 0.000000 0.000000 0.000000
    7 0.000000 -0.782117 1.785742 -0.680679 0.000000 0.000000
    8 0.000000 -1.610587 0.584026 0.000000 0.000000 0.000000
    9 10.199530 4.025185 -6.273629 1.085661 -1.885215 -1.467622
    10 -0.244754 -8.933564 0.000000 0.178786 0.294979 -0.381598
    11 -0.192862 -4.013779 0.573611 0.359939 1.511626 0.436878
    12 0.000001 2.617617 0.665016 0.000000 0.000000 0.000000
    13 0.000001 -1.655466 2.278033 0.000000 0.000000 0.000000
    14 0.000000 -1.796960 1.330032 0.000000 0.000000 0.000000
    15 0.000000 -2.886455 1.471524 -0.178415 0.000000 0.000000
    16 0.000001 -0.778212 1.774024 -0.680679 0.000000 0.000000
    17 0.000000 -1.598869 0.580119 0.000000 0.000000 0.000000
    18 0.000000 -0.456721 -0.000001 0.000008 -0.000003 -0.000004
    19 -0.421911 0.233313 0.477534 -0.212797 -0.375551 -2.091539
    20 1.827485 -0.104694 0.000000 0.000000 0.000000 0.523599
    21 1.069448 0.056463 0.000000 0.000000 0.000000 0.848230
    22 -1.090122 -1.829639 -0.122574 0.000005 -0.000006 -1.726140
    23 1.390342 -0.000583 0.000000 0.001091 -0.481734 0.001629
    24 0.964940 -0.010943 -0.000001 0.000000 -0.670224 0.000000
    25 -0.348493 -1.994086 -0.122574 -0.078961 -0.260133 -1.437435
    26 1.546317 0.004627 0.000000 -0.000001 -1.623155 0.000000
    27 1.135737 0.008475 0.000000 0.000000 -1.110029 0.020944
    28 0.310263 -1.738959 -0.122574 -0.056428 -0.182688 -1.438565
    29 1.569655 0.049779 0.000001 0.000000 -1.497495 -0.010472
    30 1.096338 0.003406 0.000000 0.000000 -1.214749 0.005236
    31 0.956485 -1.335291 -0.122574 0.000000 -0.267035 -1.445133
    32 1.346260 0.018204 -0.000001 -0.002744 -0.612611 -0.000922
    33 0.874448 -0.001050 0.000000 0.000000 -1.392772 0.000000
    34 -0.017482 -0.437063 0.000000 0.000000 0.000000 0.000000
    35 0.472028 0.192308 0.472822 0.297069 -0.493084 -1.048320
    36 1.857548 0.010603 0.000000 0.000000 0.000000 -0.455531
    37 0.996041 -0.010017 0.000000 0.000000 0.000000 -0.858702
    38 1.137759 -1.867485 -0.137079 0.000000 0.060066 -1.523672
    39 1.365644 0.014869 0.000000 -0.000683 -0.273278 -0.002803
    40 0.938014 -0.005664 0.000002 0.000000 -0.780744 0.010472
    41 0.409682 -2.071858 -0.137080 0.068179 -0.280440 -1.750247
    42 1.470907 0.007359 0.000000 0.000000 -1.617923 0.010472
    43 1.152099 0.010338 -0.000001 0.000000 -1.099558 0.005236
    44 -0.292848 -1.816393 -0.137080 0.017968 -0.224442 -1.724665
    45 1.511618 -0.004263 0.000000 0.000012 -1.544617 0.036640
    46 1.099636 -0.010806 0.000000 0.000000 -1.130973 0.010472
    47 -0.957059 -1.356554 -0.137080 0.000000 -0.235619 -1.685988
    48 1.351391 -0.010799 -0.000001 0.000000 -0.753982 0.005229
    49 0.859052 0.017735 -0.000001 0.000000 -1.371829 -0.010472
  time 12
    0 -10.219062 3.387478 -6.453322 0.729718 1.873800 1.114490
    1 0.026864 -9.077099 -0.000001 0.137681 -0.344188 0.356778
    2 -0.085530 -4.065333 0.539714 0.023093 -1.497266 -0.094576
    3 0.000000 2.637149 0.668922 0.000000 0.000000 0.000000
    4 0.000000 -1.667184 2.293658 0.000000 0.000000 0.015508
    5 0.000000 -1.808678 1.337844 0.000000 0.000000 0.000000
    6 0.000000 -2.905986 1.479337 0.000000 0.000000 0.000000
    7 0.000000 -0.782117 1.785742 -0.680679 0.000000 0.000000
    8 0.000000 -1.610587 0.584026 0.000000 0.000000 0.000000
    9 10.199530 3.931432 -6.379101 1.040268 -1.859808 -1.420014
    10 -0.244754 -8.933564 0.000000 0.175588 0.271531 -0.378825
    11 -0.192862 -4.013779 0.573611 0.359939 1.511626 0.436878
    12 0.000001 2.617617 0.665016 0.000000 0.000000 0.000000
    13 0.000001 -1.655466 2.278033 0.000000 0.000000 0.000000
    14 0.000000 -1.796960 1.330032 0.000000 0.000000 0.000000
    15 0.000000 -2.886455 1.471524 -0.105728 0.000000 0.000000
    16 0.000001 -0.778212 1.774024 -0.680679 0.000000 0.000000
    17 0.000000 -1.598869 0.580119 0.000000 0.000000 0.000000
    18 0.000000 -0.456721 -0.000001 0.000008 -0.000003 -0.000004
    19 -0.421911 0.233313 0.477534 -0.212797 -0.375551 -2.091539
    20 1.827485 -0.104694 0.000000 0.000000 0.000000 0.523599
    21 1.069448 0.056463 0.000000 0.000000 0.000000 0.848230
    22 -1.090122 -1.829639 -0.122574 0.000005 -0.000006 -1.726140
    23 1.390342 -0.000583 0.000000 0.001091 -0.481734 0.001629
    24 0.964940 -0.010943 -0.000001 0.000000 -0.670224 0.000000
    25 -0.348493 -1.994086 -0.122574 -0.078961 -0.260133 -1.437435
    26 1.546317 0.004627 0.000000 -0.000001 -1.623155 0.000000
    27 1.135737 0.008475 0.000000 0.000000 -1.110029 0.020944
    28 0.310263 -1.738959 -0.122574 -0.056428 -0.182688 -1.438565
    29 1.569655 0.049779 0.000001 0.000000 -1.497495 -0.010472
    30 1.096338 0.003406 0.000000 0.000000 -1.214749 0.005236
    31 0.956485 -1.335291 -0.122574 0.000000 -0.267035 -1.445133
    32 1.346260 0.018204 -0.000001 -0.002744 -0.612611 -0.000922
    33 0.874448 -0.001050 0.000000 0.000000 -1.392772 0.000000
    34 -0.017482 -0.437063 0.000000 0.000000 0.000000 0.000000
    35 0.472028 0.192308 0.472822 0.297069 -0.493084 -1.048320
    36 1.857548 0.010603 0.000000 0.000000 0.000000 -0.455531
    37 0.996041 -0.010017 0.000000 0.000000 0.000000 -0.858702
    38 1.137759 -1.867485 -0.137079 0.000000 0.054695 -1.523672
    39 1.365644 0.014869 0.000000 -0.000683 -0.278218 -0.002803
    40 0.938014 -0.005664 0.000002 0.000000 -0.755568 0.010472
    41 0.409682 -2.071858 -0.137080 0.068179 -0.280440 -1.750247
    42 1.470907 0.007359 0.000000 0.000000 -1.617923 0.010472
    43 1.152099 0.010338 -0.000001 0.000000 -1.099558 0.005236
    44 -0.292848 -1.816393 -0.137080 0.017968 -0.224442 -1.724665
    45 1.511618 -0.004263 0.000000 0.000012 -1.544617 0.036640
    46 1.099636 -0.010806 0.000000 0.000000 -1.130973 0.010472
    47 -0.957059 -1.356554 -0.137080 0.000000 -0.235619 -1.685988
    48 1.351391 -0.010799 -0.000001 0.000000 -0.753982 0.005229
    49 0.859052 0.017735 -0.000001 0.000000 -1.371829 -0.010472
  time 13
    0 -10.219062 3.375758 -6.445509 0.731866 1.872177 1.116756
    1 0.026864 -9.077099 -0.000001 0.131424 -0.337242 0.362906
    2 -0.085530 -4.065333 0.539714 0.023093 -1.497266 -0.094576
    3 0.000000 2.637149 0.668922 0.000000 0.000000 0.000000
    4 0.000000 -1.667184 2.293658 0.000000 0.000000 0.015508
    5 0.000000 -1.808678 1.337844 0.000000 0.000000 0.000000
    6 0.000000 -2.905986 1.479337 0.000000 0.000000 0.000000
    7 0.000000 -0.782117 1.785742 -0.680679 0.000000 0.000000
    8 0.000000 -1.610587 0.584026 0.000000 0.000000 0.000000
    9 10.199530 3.849398 -6.465041 0.990733 -1.837076 -1.368582
    10 -0.244754 -8.933564 0.000000 0.173972 0.258763 -0.374918
    11 -0.192862 -4.013779 0.573611 0.359939 1.511626 0.436878
    12 0.000001 2.617617 0.665016 0.000000 0.000000 0.000000
    13 0.000001 -1.655466 2.278033 0.000000 0.000000 0.000000
    14 0.000000 -1.796960 1.330032 0.000000 0.000000 0.000000
    15 0.000000 -2.886455 1.471524 -0.033030 0.000000 0.000000
    16 0.000001 -0.778212 1.774024 -0.680679 0.000000 0.000000
    17 0.000000 -1.598869 0.580119 0.000000 0.000000 0.000000
    18 0.000000 -0.456721 -0.000001 0.000008 -0.000003 -0.000004
    19 -0.421911 0.233313 0.477534 -0.212797 -0.375551 -2.091539
    20 1.827485 -0.104694 0.000000 0.000000 0.000000 0.523599
    21 1.069448 0.056463 0.000000 0.000000 0.000000 0.848230
    22 -1.090122 -1.829639 -0.122574 0.000005 -0.000006 -1.726140
    23 1.390342 -0.000583 0.000000 0.001091 -0.481734 0.001629
    24 0.964940 -0.010943 -0.000001 0.000000 -0.670224 0.000000
    25 -0.348493 -1.994086 -0.122574 -0.078961 -0.260133 -1.437435
    26 1.546317 0.004627 0.000000 -0.000001 -1.623155 0.000000
    27 1.135737 0.008475 0.000000 0.000000 -1.110029 0.020944
    28 0.310263 -1.738959 -0.122574 -0.056428 -0.182688 -1.438565
    29 1.569655 0.049779 0.000001 0.000000 -1.497495 -0.010472
    30 1.096338 0.003406 0.000000 0.000000 -1.214749 0.005236
    31 0.956485 -1.335291 -0.122574 0.000000 -0.267035 -1.445133
    32 1.346260 0.018204 -0.000001 -0.002744 -0.612611 -0.000922
    33 0.874448 -0.001050 0.000000 0.000000 -1.392772 0.000000
    34 -0.017482 -0.437063 0.000000 0.000000 0.000000 0.000000
    35 0.472028 0.192308 0.472822 0.297069 -0.493084 -1.048320
    36 1.857548 0.010603 0.000000 0.000000 0.000000 -0.455531
    37 0.996041 -0.010017 0.000000 0.000000 0.000000 -0.858702
    38 1.137759 -1.867485 -0.137079 0.000000 0.046534 -1.523672
    39 1.365644 0.014869 0.000000 -0.000683 -0.285763 -0.002803
    40 0.938014 -0.005664 0.000002 0.000000 -0.732132 0.010472
    41 0.409682 -2.071858 -0.137080 0.068179 -0.280440 -1.750247
    42 1.470907 0.007359 0.000000 0.000000 -1.617923 0.010472
    43 1.152099 0.010338 -0.000001 0.000000 -1.099558 0.005236
    44 -0.292848 -1.816393 -0.137080 0.017968 -0.224442 -1.724665
    45 1.511618 -0.004263 0.000000 0.000012 -1.544617 0.036640
    46 1.099636 -0.010806 0.000000 0.000000 -1.130973 0.010472
    47 -0.957059 -1.356554 -0.137080 0.000000 -0.235619 -1.685988
    48 1.351391 -0.010799 -0.000001 0.000000 -0.753982 0.005229
    49 0.859052 0.017735 -0.000001 0.000000 -1.371829 -0.010472
  time 14
    0 -10.219062 3.367946 -6.433790 0.734809 1.870509 1.119832
    1 0.026864 -9.077099 -0.000001 0.125382 -0.330793 0.368374
    2 -0.085530 -4.065333 0.539714 0.023093 -1.497266 -0.094576
    3 0.000000 2.637149 0.668922 0.000000 0.000000 0.000000
    4 0.000000 -1.667184 2.293658 0.000000 0.000000 0.015508
    5 0.000000 -1.808678 1.337844 0.000000 0.000000 0.000000
    6 0.000000 -2.905986 1.479337 0.000000 0.000000 0.000000
    7 0.000000 -0.782117 1.785742 -0.680679 0.000000 0.000000
    8 0.000000 -1.610587 0.584026 0.000000 0.000000 0.000000
    9 10.199530 3.794709 -6.523637 0.942607 -1.818712 -1.318776
    10 -0.244754 -8.933564 0.000000 0.173684 0.256603 -0.373179
    11 -0.192862 -4.013779 0.573611 0.359939 1.511626 0.436878
    12 0.000001 2.617617 0.665016 0.000000 0.000000 0.000000
    13 0.000001 -1.655466 2.278033 0.000000 0.000000 0.000000
    14 0.000000 -1.796960 1.330032 0.000000 0.000000 0.000000
    15 0.000000 -2.886455 1.471524 0.000000 0.000000 0.000000
    16 0.000001 -0.778212 1.774024 -0.680679 0.000000 0.000000
    17 0.000000 -1.598869 0.580119 0.000000 0.000000 0.000000
    18 0.000000 -0.456721 -0.000001 0.000008 -0.000003 -0.000004
    19 -0.421911 0.233313 0.477534 -0.212797 -0.375551 -2.091539
    20 1.827485 -0.104694 0.000000 0.000000 0.000000 0.523599
    21 1.069448 0.056463 0.000000 0.000000 0.000000 0.848230
    22 -1.090122 -1.829639 -0.122574 0.000005 -0.000006 -1.726140
    23 1.390342 -0.000583 0.000000 0.001091 -0.481734 0.001629
    24 0.964940 -0.010943 -0.000001 0.000000 -0.670224 0.000000
    25 -0.348493 -1.994086 -0.122574 -0.078961 -0.260133 -1.437435
    26 1.546317 0.004627 0.000000 -0.000001 -1.623155 0.000000
    27 1.135737 0.008475 0.000000 0.000000 -1.110029 0.020944
    28 0.310263 -1.738959 -0.122574 -0.056428 -0.182688 -1.438565
    29 1.569655 0.049779 0.000001 0.000000 -1.497495 -0.010472
    30 1.096338 0.003406 0.000000 0.000000 -1.214749 0.005236
    31 0.956485 -1.335291 -0.122574 0.000000 -0.267035 -1.445133
    32 1.346260 0.018204 -0.000001 -0.002744 -0.612611 -0.000922
    33 0.874448 -0.001050 0.000000 0.000000 -1.392772 0.000000
    34 -0.017482 -0.437063 0.000000 0.000000 0.000000 0.000000
    35 0.472028 0.192308 0.472822 0.297069 -0.493084 -1.048320
    36 1.857548 0.010603 0.000000 0.000000 0.000000 -0.455531
    37 0.996041 -0.010017 0.000000 0.000000 0.000000 -0.858702
    38 1.137759 -1.867485 -0.137079 0.000000 0.036169 -1.523672
    39 1.365644 0.014869 0.000000 -0.000683 -0.295321 -0.002803
    40 0.938014 -0.005664 0.000002 0.000000 -0.710530 0.010472
    41 0.409682 -2.071858 -0.137080 0.068179 -0.280440 -1.750247
    42 1.470907 0.007359 0.000000 0.000000 -1.617923 0.010472
    43 1.152099 0.010338 -0.000001 0.000000 -1.099558 0.005236
    44 -0.292848 -1.816393 -0.137080 0.017968 -0.224442 -1.724665
    45 1.511618 -0.004263 0.000000 0.000012 -1.544617 0.036640
    46 1.099636 -0.010806 0.000000 0.000000 -1.130973 0.010472
    47 -0.957059 -1.356554 -0.137080 0.000000 -0.235619 -1.685988
    48 1.351391 -0.010799 -0.000001 0.000000 -0.753982 0.005229
    49 0.859052 0.017735 -0.000001 0.000000 -1.371829 -0.010472
  time 15
    0 -10.219062 3.364039 -6.422071 0.738309 1.868798 1.123556
    1 0.026864 -9.077099 -0.000001 0.119421 -0.324840 0.373475
    2 -0.085530 -4.065333 0.539714 0.023093 -1.497266 -0.094576
    3 0.000000 2.637149 0.668922 0.000000 0.000000 0.000000
    4 0.000000 -1.667184 2.293658 0.000000 0.000000 0.015508
    5 0.000000 -1.808678 1.337844 0.000000 0.000000 0.000000
    6 0.000000 -2.905986 1.479337 0.000000 0.000000 0.000000
    7 0.000000 -0.782117 1.785742 -0.680679 0.000000 0.000000
    8 0.000000 -1.610587 0.584026 0.000000 0.000000 0.000000
    9 10.199530 3.775177 -6.547075 0.904354 -1.806232 -1.279198
    10 -0.244754 -8.933564 0.000000 0.174151 0.254344 -0.366500
    11 -0.192862 -4.013779 0.573611 0.359939 1.511626 0.436878
    12 0.000001 2.617617 0.665016 0.000000 0.000000 0.000000
    13 0.000001 -1.655466 2.278033 0.000000 0.000000 0.000000
    14 0.000000 -1.796960 1.330032 0.000000 0.000000 0.000000
    15 0.000000 -2.886455 1.471524 0.000000 0.000000 0.000000
    16 0.000001 -0.778212 1.774024 -0.680679 0.000000 0.000000
    17 0.000000 -1.598869 0.580119 0.000000 0.000000 0.000000
    18 0.000000 -0.456721 -0.000001 0.000008 -0.000003 -0.000004
    19 -0.421911 0.233313 0.477534 -0.212797 -0.375551 -2.091539
    20 1.827485 -0.104694 0.000000 0.000000 0.000000 0.523599
    21 1.069448 0.056463 0.000000 0.000000 0.000000 0.848230
    22 -1.090122 -1.829639 -0.122574 0.000005 -0.000006 -1.726140
    23 1.390342 -0.000583 0.000000 0.001091 -0.481734 0.001629
    24 0.964940 -0.010943 -0.000001 0.000000 -0.670224 0.000000
    25 -0.348493 -1.994086 -0.122574 -0.078961 -0.260133 -1.437435
    26 1.546317 0.004627 0.000000 -0.000001 -1.623155 0.000000
    27 1.135737 0.008475 0.000000 0.000000 -1.110029 0.020944
    28 0.310263 -1.738959 -0.122574 -0.056428 -0.182688 -1.438565
    29 1.569655 0.049779 0.000001 0.000000 -1.497495 -0.010472
    30 1.096338 0.003406 0.000000 0.000000 -1.214749 0.005236
    31 0.956485 -1.335291 -0.122574 0.000000 -0.267035 -1.445133
    32 1.346260 0.018204 -0.000001 -0.002744 -0.612611 -0.000922
    33 0.874448 -0.001050 0.000000 0.000000 -1.392772 0.000000
    34 -0.017482 -0.437063 0.000000 0.000000 0.000000 0.000000
    35 0.472028 0.192308 0.472822 0.297069 -0.493084 -1.048320
    36 1.857548 0.010603 0.000000 0.000000 0.000000 -0.455531
    37 0.996041 -0.010017 0.000000 0.000000 0.000000 -0.858702
    38 1.137759 -1.867485 -0.137079 0.000000 0.024255 -1.523672
    39 1.365644 0.014869 0.000000 -0.000683 -0.306314 -0.002803
    40 0.938014 -0.005664 0.000002 0.000000 -0.690858 0.010472
    41 0.409682 -2.071858 -0.137080 0.068179 -0.280440 -1.750247
    42 1.470907 0.007359 0.000000 0.000000 -1.617923 0.010472
    43 1.152099 0.010338 -0.000001 0.000000 -1.099558 0.005236
    44 -0.292848 -1.816393 -0.137080 0.017968 -0.224442 -1.724665
    45 1.511618 -0.004263 0.000000 0.000012 -1.544617 0.036640
    46 1.099636 -0.010806 0.000000 0.000000 -1.130973 0.010472
    47 -0.957059 -1.356554 -0.137080 0.000000 -0.235619 -1.685988
    48 1.351391 -0.010799 -0.000001 0.000000 -0.753982 0.005229
    49 0.859052 0.017735 -0.000001 0.000000 -1.371829 -0.010472
  time 16
    0 -10.219062 3.356227 -6.410352 0.742286 1.867043 1.127765
    1 0.026864 -9.077099 -0.000001 0.113406 -0.319383 0.378539
    2 -0.085530 -4.065333 0.539714 0.023093 -1.497266 -0.094576
    3 0.000000 2.637149 0.668922 0.000000 0.000000 0.000000
    4 0.000000 -1.667184 2.293658 0.000000 0.000000 0.015508
    5 0.000000 -1.808678 1.337844 0.000000 0.000000 0.000000
    6 0.000000 -2.905986 1.479337 0.000000 0.000000 0.000000
    7 0.000000 -0.782117 1.785742 -0.680679 0.000000 0.000000
    8 0.000000 -1.610587 0.584026 0.000000 0.000000 0.000000
    9 10.187811 3.661893 -6.433790 0.884081 -1.800304 -1.258453
    10 -0.244754 -8.933564 0.000000 0.176163 0.255522 -0.356494
    11 -0.192862 -4.013779 0.573611 0.359939 1.511626 0.436878
    12 0.000001 2.617617 0.665016 0.000000 0.000000 0.000000
    13 0.000001 -1.655466 2.278033 0.000000 0.000000 0.000000
    14 0.000000 -1.796960 1.330032 0.000000 0.000000 0.000000
    15 0.000000 -2.886455 1.471524 0.000000 0.000000 0.000000
    16 0.000001 -0.778212 1.774024 -0.680679 0.000000 0.000000
    17 0.000000 -1.598869 0.580119 0.000000 0.000000 0.000000
    18 0.000000 -0.456721 -0.000001 0.000008 -0.000003 -0.000004
    19 -0.421911 0.233313 0.477534 -0.212797 -0.375551 -2.091539
    20 1.827485 -0.104694 0.000000 0.000000 0.000000 0.523599
    21 1.069448 0.056463 0.000000 0.000000 0.000000 0.848230
    22 -1.090122 -1.829639 -0.122574 0.000005 -0.000006 -1.726140
    23 1.390342 -0.000583 0.000000 0.001091 -0.481734 0.001629
    24 0.964940 -0.010943 -0.000001 0.000000 -0.670224 0.000000
    25 -0.348493 -1.994086 -0.122574 -0.078961 -0.260133 -1.437435
    26 1.546317 0.004627 0.000000 -0.000001 -1.623155 0.000000
    27 1.135737 0.008475 0.000000 0.000000 -1.110029 0.020944
    28 0.310263 -1.738959 -0.122574 -0.056428 -0.182688 -1.438565
    29 1.569655 0.049779 0.000001 0.000000 -1.497495 -0.010472
    30 1.096338 0.003406 0.000000 0.000000 -1.214749 0.005236
    31 0.956485 -1.335291 -0.122574 0.000000 -0.267035 -1.445133
    32 1.346260 0.018204 -0.000001 -0.002744 -0.612611 -0.000922
    33 0.874448 -0.001050 0.000000 0.000000 -1.392772 0.000000
    34 -0.017482 -0.437063 0.000000 0.000000 0.000000 0.000000
    35 0.472028 0.192308 0.472822 0.297069 -0.493084 -1.048320
    36 1.857548 0.010603 0.000000 0.000000 0.000000 -0.455531
    37 0.996041 -0.010017 0.000000 0.000000 0.000000 -0.858702
    38 1.137759 -1.867485 -0.137079 0.000000 0.011377 -1.523672
    39 1.365644 0.014869 0.000000 -0.000683 -0.318180 -0.002803
    40 0.938014 -0.005664 0.000002 0.000000 -0.673210 0.010472
    41 0.409682 -2.071858 -0.137080 0.068179 -0.280440 -1.750247
    42 1.470907 0.007359 0.000000 0.000000 -1.617923 0.010472
    43 1.152099 0.010338 -0.000001 0.000000 -1.099558 0.005236
    44 -0.292848 -1.816393 -0.137080 0.017968 -0.224442 -1.724665
    45 1.511618 -0.004263 0.000000 0.000012 -1.544617 0.036640
    46 1.099636 -0.010806 0.000000 0.000000 -1.130973 0.010472
    47 -0.957059 -1.356554 -0.137080 0.000000 -0.235619 -1.685988
    48 1.351391 -0.010799 -0.000001 0.000000 -0.753982 0.005229
    49 0.859052 0.017735 -0.000001 0.000000 -1.371829 -0.010472
  time 17
    0 -10.222968 3.352320 -6.398633 0.746422 1.865288 1.132136
    1 0.026864 -9.077099 -0.000001 0.110506 -0.317275 0.380300
    2 -0.085530 -4.065333 0.539714 0.023093 -1.497266 -0.094576
    3 0.000000 2.637149 0.668922 0.000000 0.000000 0.000000
    4 0.000000 -1.667184 2.293658 0.000000 0.000000 0.015508
    5 0.000000 -1.808678 1.337844 0.000000 0.000000 0.000000
    6 0.000000 -2.905986 1.479337 0.000000 0.000000 0.000000
    7 0.000000 -0.782117 1.785742 -0.680679 0.000000 0.000000
    8 0.000000 -1.610587 0.584026 0.000000 0.000000 0.000000
    9 10.179998 3.564233 -6.332224 0.876677 -1.798209 -1.250805
    10 -0.244754 -8.933564 0.000000 0.179397 0.259451 -0.343841
    11 -0.192862 -4.013779 0.573611 0.359939 1.511626 0.436878
    12 0.000001 2.617617 0.665016 0.000000 0.000000 0.000000
    13 0.000001 -1.655466 2.278033 0.000000 0.000000 0.000000
    14 0.000000 -1.796960 1.330032 0.000000 0.000000 0.000000
    15 0.000000 -2.886455 1.471524 0.000000 0.000000 0.000000
    16 0.000001 -0.778212 1.774024 -0.680679 0.000000 0.000000
    17 0.000000 -1.598869 0.580119 0.000000 0.000000 0.000000
    18 0.000000 -0.456721 -0.000001 0.000008 -0.000003 -0.000004
    19 -0.421911 0.233313 0.477534 -0.212797 -0.375551 -2.091539
    20 1.827485 -0.104694 0.000000 0.000000 0.000000 0.523599
    21 1.069448 0.056463 0.000000 0.000000 0.000000 0.848230
    22 -1.090122 -1.829639 -0.122574 0.000005 -0.000006 -1.726140
    23 1.390342 -0.000583 0.000000 0.001091 -0.481734 0.001629
    24 0.964940 -0.010943 -0.000001 0.000000 -0.670224 0.000000
    25 -0.348493 -1.994086 -0.122574 -0.078961 -0.260133 -1.437435
    26 1.546317 0.004627 0.000000 -0.000001 -1.623155 0.000000
    27 1.135737 0.008475 0.000000 0.000000 -1.110029 0.020944
    28 0.310263 -1.738959 -0.122574 -0.056428 -0.182688 -1.438565
    29 1.569655 0.049779 0.000001 0.000000 -1.497495 -0.010472
    30 1.096338 0.003406 0.000000 0.000000 -1.214749 0.005236
    31 0.956485 -1.335291 -0.122574 0.000000 -0.267035 -1.445133
    32 1.346260 0.018204 -0.000001 -0.002744 -0.612611 -0.000922
    33 0.874448 -0.001050 0.000000 0.000000 -1.392772 0.000000
    34 -0.017482 -0.437063 0.000000 0.000000 0.000000 0.000000
    35 0.472028 0.192308 0.472822 0.297069 -0.493084 -1.048320
    36 1.857548 0.010603 0.000000 0.000000 0.000000 -0.455531
    37 0.996041 -0.010017 0.000000 0.000000 0.000000 -0.858702
    38 1.137759 -1.867485 -0.137079 0.000000 -0.001777 -1.523672
    39 1.365644 0.014869 0.000000 -0.000683 -0.330328 -0.002803
    40 0.938014 -0.005664 0.000002 0.000000 -0.657617 0.010472
    41 0.409682 -2.071858 -0.137080 0.068179 -0.280440 -1.750247
    42 1.470907 0.007359 0.000000 0.000000 -1.617923 0.010472
    43 1.152099 0.010338 -0.000001 0.000000 -1.099558 0.005236
    44 -0.292848 -1.816393 -0.137080 0.017968 -0.224442 -1.724665
    45 1.511618 -0.004263 0.000000 0.000012 -1.544617 0.036640
    46 1.099636 -0.010806 0.000000 0.000000 -1.130973 0.010472
    47 -0.957059 -1.356554 -0.137080 0.000000 -0.235619 -1.685988
    48 1.351391 -0.010799 -0.000001 0.000000 -0.753982 0.005229
    49 0.859052 0.017735 -0.000001 0.000000 -1.371829 -0.010472
  time 18
    0 -10.222968 3.348414 -6.386914 0.750558 1.863532 1.136507
    1 0.026864 -9.077099 -0.000001 0.109593 -0.318577 0.377768
    2 -0.085530 -4.065333 0.539714 0.023093 -1.497266 -0.094576
    3 0.000000 2.637149 0.668922 0.000000 0.000000 0.000000
    4 0.000000 -1.667184 2.293658 0.000000 0.000000 0.015508
    5 0.000000 -1.808678 1.337844 0.000000 0.000000 0.000000
    6 0.000000 -2.905986 1.479337 0.000000 0.000000 0.000000
    7 0.000000 -0.782117 1.785742 -0.680679 0.000000 0.000000
    8 0.000000 -1.610587 0.584026 0.000000 0.000000 0.000000
    9 10.176092 3.482200 -6.250191 0.879586 -1.799011 -1.253864
    10 -0.244754 -8.933564 0.000000 0.183600 0.265368 -0.329222
    11 -0.192862 -4.013779 0.573611 0.359939 1.511626 0.436878
    12 0.000001 2.617617 0.665016 0.000000 0.000000 0.000000
    13 0.000001 -1.655466 2.278033 0.000000 0.000000 0.000000
    14 0.000000 -1.796960 1.330032 0.000000 0.000000 0.000000
    15 0.000000 -2.886455 1.471524 0.000000 0.000000 0.000000
    16 0.000001 -0.778212 1.774024 -0.680679 0.000000 0.000000
    17 0.000000 -1.598869 0.580119 0.000000 0.000000 0.000000
    18 0.000000 -0.456721 -0.000001 0.000008 -0.000003 -0.000004
    19 -0.421911 0.233313 0.477534 -0.212797 -0.375551 -2.091539
    20 1.827485 -0.104694 0.000000 0.000000 0.000000 0.523599
    21 1.069448 0.056463 0.000000 0.000000 0.000000 0.848230
    22 -1.090122 -1.829639 -0.122574 0.000005 -0.000006 -1.726140
    23 1.390342 -0.000583 0.000000 0.001091 -0.481734 0.001629
    24 0.964940 -0.010943 -0.000001 0.000000 -0.670224 0.000000
    25 -0.348493 -1.994086 -0.122574 -0.078961 -0.260133 -1.437435
    26 1.546317 0.004627 0.000000 -0.000001 -1.623155 0.000000
    27 1.135737 0.008475 0.000000 0.000000 -1.110029 0.020944
    28 0.310263 -1.738959 -0.122574 -0.056428 -0.182688 -1.438565
    29 1.569655 0.049779 0.000001 0.000000 -1.497495 -0.010472
    30 1.096338 0.003406 0.000000 0.000000 -1.214749 0.005236
    31 0.956485 -1.335291 -0.122574 0.000000 -0.267035 -1.445133
    32 1.346260 0.018204 -0.000001 -0.002744 -0.612611 -0.000922
    33 0.874448 -0.001050 0.000000 0.000000 -1.392772 0.000000
    34 -0.017482 -0.437063 0.000000 0.000000 0.000000 0.000000
    35 0.472028 0.192308 0.472822 0.297069 -0.493084 -1.048320
    36 1.857548 0.010603 0.000000 0.000000 0.000000 -0.455531
    37 0.996041 -0.010017 0.000000 0.000000 0.000000 -0.858702
    38 1.137759 -1.867485 -0.137079 0.000000 -0.014621 -1.523672
    39 1.365644 0.014869 0.000000 -0.000683 -0.342194 -0.002803
    40 0.938014 -0.005664 0.000002 0.000000 -0.644207 0.010472
    41 0.409682 -2.071858 -0.137080 0.068179 -0.280440 -1.750247
    42 1.470907 0.007359 0.000000 0.000000 -1.617923 0.010472
    43 1.152099 0.010338 -0.000001 0.000000 -1.099558 0.005236
    44 -0.292848 -1.816393 -0.137080 0.017968 -0.224442 -1.724665
    45 1.511618 -0.004263 0.000000 0.000012 -1.544617 0.036640
    46 1.099636 -0.010806 0.000000 0.000000 -1.130973 0.010472
    47 -0.957059 -1.356554 -0.137080 0.000000 -0.235619 -1.685988
    48 1.351391 -0.010799 -0.000001 0.000000 -0.753982 0.005229
    49 0.859052 0.017735 -0.000001 0.000000 -1.371829 -0.010472
  time 19
    0 -10.222968 3.348414 -6.375195 0.754456 1.861821 1.140554
    1 0.026864 -9.077099 -0.000001 0.111956 -0.324065 0.370356
    2 -0.085530 -4.065333 0.539714 0.023093 -1.497266 -0.094576
    3 0.000000 2.637149 0.668922 0.000000 0.000000 0.000000
    4 0.000000 -1.667184 2.293658 0.000000 0.000000 0.015508
    5 0.000000 -1.808678 1.337844 0.000000 0.000000 0.000000
    6 0.000000 -2.905986 1.479337 0.000000 0.000000 0.000000
    7 0.000000 -0.782117 1.785742 -0.680679 0.000000 0.000000
    8 0.000000 -1.610587 0.584026 0.000000 0.000000 0.000000
    9 10.168279 3.415791 -6.179876 0.889634 -1.801864 -1.264189
    10 -0.244754 -8.933564 0.000000 0.188559 0.272562 -0.313293
    11 -0.192862 -4.013779 0.573611 0.359939 1.511626 0.436878
    12 0.000001 2.617617 0.665016 0.000000 0.000000 0.000000
    13 0.000001 -1.655466 2.278033 0.000000 0.000000 0.000000
    14 0.000000 -1.796960 1.330032 0.000000 0.000000 0.000000
    15 0.000000 -2.886455 1.471524 0.000000 0.000000 0.000000
    16 0.000001 -0.778212 1.774024 -0.680679 0.000000 0.000000
    17 0.000000 -1.598869 0.580119 0.000000 0.000000 0.000000
    18 0.000000 -0.456721 -0.000001 0.000008 -0.000003 -0.000004
    19 -0.421911 0.233313 0.477534 -0.212797 -0.375551 -2.091539
    20 1.827485 -0.104694 0.000000 0.000000 0.000000 0.523599
    21 1.069448 0.056463 0.000000 0.000000 0.000000 0.848230
    22 -1.090122 -1.829639 -0.122574 0.000005 -0.000006 -1.726140
    23 1.390342 -0.000583 0.000000 0.001091 -0.481734 0.001629
    24 0.964940 -0.010943 -0.000001 0.000000 -0.670224 0.000000
    25 -0.348493 -1.994086 -0.122574 -0.078961 -0.260133 -1.437435
    26 1.546317 0.004627 0.000000 -0.000001 -1.623155 0.000000
    27 1.135737 0.008475 0.000000 0.000000 -1.110029 0.020944
    28 0.310263 -1.738959 -0.122574 -0.056428 -0.182688 -1.438565
    29 1.569655 0.049779 0.000001 0.000000 -1.497495 -0.010472
    30 1.096338 0.003406 0.000000 0.000000 -1.214749 0.005236
    31 0.956485 -1.335291 -0.122574 0.000000 -0.267035 -1.445133
    32 1.346260 0.018204 -0.000001 -0.002744 -0.612611 -0.000922
    33 0.874448 -0.001050 0.000000 0.000000 -1.392772 0.000000
    34 -0.017482 -0.437063 0.000000 0.000000 0.000000 0.000000
    35 0.472028 0.192308 0.472822 0.297069 -0.493084 -1.048320
    36 1.857548 0.010603 0.000000 0.000000 0.000000 -0.455531
    37 0.996041 -0.010017 0.000000 0.000000 0.000000 -0.858702
    38 1.137759 -1.867485 -0.137079 0.000000 -0.026569 -1.523672
    39 1.365644 0.014869 0.000000 -0.000683 -0.353187 -0.002803
    40 0.938014 -0.005664 0.000002 0.000000 -0.633042 0.010472
    41 0.409682 -2.071858 -0.137080 0.068179 -0.280440 -1.750247
    42 1.470907 0.007359 0.000000 0.000000 -1.617923 0.010472
    43 1.152099 0.010338 -0.000001 0.000000 -1.099558 0.005236
    44 -0.292848 -1.816393 -0.137080 0.017968 -0.224442 -1.724665
    45 1.511618 -0.004263 0.000000 0.000012 -1.544617 0.036640
    46 1.099636 -0.010806 0.000000 0.000000 -1.130973 0.010472
    47 -0.957059 -1.356554 -0.137080 0.000000 -0.235619 -1.685988
    48 1.351391 -0.010799 -0.000001 0.000000 -0.753982 0.005229
    49 0.859052 0.017735 -0.000001 0.000000 -1.371829 -0.010472
  time 20
    0 -10.222968 3.344507 -6.367382 0.757876 1.860110 1.144116
    1 0.026864 -9.077099 -0.000001 0.116521 -0.332126 0.359787
    2 -0.085530 -4.065333 0.539714 0.023093 -1.497266 -0.094576
    3 0.000000 2.637149 0.668922 0.000000 0.000000 0.000000
    4 0.000000 -1.667184 2.293658 0.000000 0.000000 0.015508
    5 0.000000 -1.808678 1.337844 0.000000 0.000000 0.000000
    6 0.000000 -2.905986 1.479337 0.000000 0.000000 0.000000
    7 0.000000 -0.782117 1.785742 -0.680679 0.000000 0.000000
    8 0.000000 -1.610587 0.584026 0.000000 0.000000 0.000000
    9 10.164373 3.365009 -6.129093 0.903384 -1.805965 -1.278242
    10 -0.244754 -8.933564 0.000000 0.193948 0.280272 -0.296683
    11 -0.192862 -4.013779 0.573611 0.359939 1.511626 0.436878
    12 0.000001 2.617617 0.665016 0.000000 0.000000 0.000000
    13 0.000001 -1.655466 2.278033 0.000000 0.000000 0.000000
    14 0.000000 -1.796960 1.330032 0.000000 0.000000 0.000000
    15 0.000000 -2.886455 1.471524 0.000000 0.000000 0.000000
    16 0.000001 -0.778212 1.774024 -0.680679 0.000000 0.000000
    17 0.000000 -1.598869 0.580119 0.000000 0.000000 0.000000
    18 0.000000 -0.456721 -0.000001 0.000008 -0.000003 -0.000004
    19 -0.421911 0.233313 0.477534 -0.212797 -0.375551 -2.091539
    20 1.827485 -0.104694 0.000000 0.000000 0.000000 0.523599
    21 1.069448 0.056463 0.000000 0.000000 0.000000 0.848230
    22 -1.090122 -1.829639 -0.122574 0.000005 -0.000006 -1.726140
    23 1.390342 -0.000583 0.000000 0.001091 -0.481734 0.001629
    24 0.964940 -0.010943 -0.000001 0.000000 -0.670224 0.000000
    25 -0.348493 -1.994086 -0.122574 -0.078961 -0.260133 -1.437435
    26 1.546317 0.004627 0.000000 -0.000001 -1.623155 0.000000
    27 1.135737 0.008475 0.000000 0.000000 -1.110029 0.020944
    28 0.310263 -1.738959 -0.122574 -0.056428 -0.182688 -1.438565
    29 1.569655 0.049779 0.000001 0.000000 -1.497495 -0.010472
    30 1.096338 0.003406 0.000000 0.000000 -1.214749 0.005236
    31 0.956485 -1.335291 -0.122574 0.000000 -0.267035 -1.445133
    32 1.346260 0.018204 -0.000001 -0.002744 -0.612611 -0.000922
    33 0.874448 -0.001050 0.000000 0.000000 -1.392772 0.000000
    34 -0.017482 -0.437063 0.000000 0.000000 0.000000 0.000000
    35 0.472028 0.192308 0.472822 0.297069 -0.493084 -1.048320
    36 1.857548 0.010603 0.000000 0.000000 0.000000 -0.455531
    37 0.996041 -0.010017 0.000000 0.000000 0.000000 -0.858702
    38 1.137759 -1.867485 -0.137079 0.000000 -0.036934 -1.523672
    39 1.365644 0.014869 0.000000 -0.000683 -0.362745 -0.002803
    40 0.938014 -0.005664 0.000002 0.000000 -0.624218 0.010472
    41 0.409682 -2.071858 -0.137080 0.068179 -0.280440 -1.750247
    42 1.470907 0.007359 0.000000 0.000000 -1.617923 0.010472
    43 1.152099 0.010338 -0.000001 0.000000 -1.099558 0.005236
    44 -0.292848 -1.816393 -0.137080 0.017968 -0.224442 -1.724665
    45 1.511618 -0.004263 0.000000 0.000012 -1.544617 0.036640
    46 1.099636 -0.010806 0.000000 0.000000 -1.130973 0.010472
    47 -0.957059 -1.356554 -0.137080 0.000000 -0.235619 -1.685988
    48 1.351391 -0.010799 -0.000001 0.000000 -0.753982 0.005229
    49 0.859052 0.017735 -0.000001 0.000000 -1.371829 -0.010472
  time 21
    0 -10.222968 3.344507 -6.359569 0.760580 1.858486 1.147030
    1 0.026864 -9.077099 -0.000001 0.122133 -0.341335 0.347751
    2 -0.085530 -4.065333 0.539714 0.023093 -1.497266 -0.094576
    3 0.000000 2.637149 0.668922 0.000000 0.000000 0.000000
    4 0.000000 -1.667184 2.293658 0.000000 0.000000 0.015508
    5 0.000000 -1.808678 1.337844 0.000000 0.000000 0.000000
    6 0.000000 -2.905986 1.479337 0.000000 0.000000 0.000000
    7 0.000000 -0.782117 1.785742 -0.680679 0.000000 0.000000
    8 0.000000 -1.610587 0.584026 0.000000 0.000000 0.000000
    9 10.164373 3.325945 -6.090030 0.917575 -1.810377 -1.292869
    10 -0.244754 -8.933564 0.000000 0.199445 0.287809 -0.280073
    11 -0.192862 -4.013779 0.573611 0.359939 1.511626 0.436878
    12 0.000001 2.617617 0.665016 0.000000 0.000000 0.000000
    13 0.000001 -1.655466 2.278033 0.000000 0.000000 0.000000
    14 0.000000 -1.796960 1.330032 0.000000 0.000000 0.000000
    15 0.000000 -2.886455 1.471524 0.000000 0.000000 0.000000
    16 0.000001 -0.778212 1.774024 -0.680679 0.000000 0.000000
    17 0.000000 -1.598869 0.580119 0.000000 0.000000 0.000000
    18 0.000000 -0.456721 -0.000001 0.000008 -0.000003 -0.000004
    19 -0.421911 0.233313 0.477534 -0.212797 -0.375551 -2.091539
    20 1.827485 -0.104694 0.000000 0.000000 0.000000 0.523599
    21 1.069448 0.056463 0.000000 0.000000 0.000000 0.848230
    22 -1.090122 -1.829639 -0.122574 0.000005 -0.000006 -1.726140
    23 1.390342 -0.000583 0.000000 0.001091 -0.481734 0.001629
    24 0.964940 -0.010943 -0.000001 0.000000 -0.670224 0.000000
    25 -0.348493 -1.994086 -0.122574 -0.078961 -0.260133 -1.437435
    26 1.546317 0.004627 0.000000 -0.000001 -1.623155 0.000000
    27 1.135737 0.008475 0.000000 0.000000 -1.110029 0.020944
    28 0.310263 -1.738959 -0.122574 -0.056428 -0.182688 -1.438565
    29 1.569655 0.049779 0.000001 0.000000 -1.497495 -0.010472
    30 1.096338 0.003406 0.000000 0.000000 -1.214749 0.005236
    31 0.956485 -1.335291 -0.122574 0.000000 -0.267035 -1.445133
    32 1.346260 0.018204 -0.000001 -0.002744 -0.612611 -0.000922
    33 0.874448 -0.001050 0.000000 0.000000 -1.392772 0.000000
    34 -0.017482 -0.437063 0.000000 0.000000 0.000000 0.000000
    35 0.472028 0.192308 0.472822 0.297069 -0.493084 -1.048320
    36 1.857548 0.010603 0.000000 0.000000 0.000000 -0.455531
    37 0.996041 -0.010017 0.000000 0.000000 0.000000 -0.858702
    38 1.137759 -1.867485 -0.137079 0.000000 -0.045094 -1.523672
    39 1.365644 0.014869 0.000000 -0.000683 -0.370290 -0.002803
    40 0.938014 -0.005664 0.000002 0.000000 -0.617830 0.010472
    41 0.409682 -2.071858 -0.137080 0.068179 -0.280440 -1.750247
    42 1.470907 0.007359 0.000000 0.000000 -1.617923 0.010472
    43 1.152099 0.010338 -0.000001 0.000000 -1.099558 0.005236
    44 -0.292848 -1.816393 -0.137080 0.017968 -0.224442 -1.724665
    45 1.511618 -0.004263 0.000000 0.000012 -1.544617 0.036640
    46 1.099636 -0.010806 0.000000 0.000000 -1.130973 0.010472
    47 -0.957059 -1.356554 -0.137080 0.000000 -0.235619 -1.685988
    48 1.351391 -0.010799 -0.000001 0.000000 -0.753982 0.005229
    49 0.859052 0.017735 -0.000001 0.000000 -1.371829 -0.010472
  time 22
    0 -10.222968 3.344507 -6.355663 0.762330 1.856863 1.148811
    1 0.026864 -9.077099 -0.000001 0.127611 -0.350141 0.336045
    2 -0.085530 -4.065333 0.539714 0.023093 -1.497266 -0.094576
    3 0.000000 2.637149 0.668922 0.000000 0.000000 0.000000
    4 0.000000 -1.667184 2.293658 0.000000 0.000000 0.015508
    5 0.000000 -1.808678 1.337844 0.000000 0.000000 0.000000
    6 0.000000 -2.905986 1.479337 0.000000 0.000000 0.000000
    7 0.000000 -0.782117 1.785742 -0.680679 0.000000 0.000000
    8 0.000000 -1.610587 0.584026 0.000000 0.000000 0.000000
    9 10.160466 3.302507 -6.066591 0.929474 -1.814255 -1.305105
    10 -0.244754 -8.933564 0.000000 0.204619 0.294463 -0.264194
    11 -0.192862 -4.013779 0.573611 0.359939 1.511626 0.436878
    12 0.000001 2.617617 0.665016 0.000000 0.000000 0.000000
    13 0.000001 -1.655466 2.278033 0.000000 0.000000 0.000000
    14 0.000000 -1.796960 1.330032 0.000000 0.000000 0.000000
    15 0.000000 -2.886455 1.471524 0.000000 0.000000 0.000000
    16 0.000001 -0.778212 1.774024 -0.680679 0.000000 0.000000
    17 0.000000 -1.598869 0.580119 0.000000 0.000000 0.000000
    18 0.000000 -0.456721 -0.000001 0.000008 -0.000003 -0.000004
    19 -0.421911 0.233313 0.477534 -0.212797 -0.375551 -2.091539
    20 1.827485 -0.104694 0.000000 0.000000 0.000000 0.523599
    21 1.069448 0.056463 0.000000 0.000000 0.000000 0.848230
    22 -1.090122 -1.829639 -0.122574 0.000005 -0.000006 -1.726140
    23 1.390342 -0.000583 0.000000 0.001091 -0.481734 0.001629
    24 0.964940 -0.010943 -0.000001 0.000000 -0.670224 0.000000
    25 -0.348493 -1.994086 -0.122574 -0.078961 -0.260133 -1.437435
    26 1.546317 0.004627 0.000000 -0.000001 -1.623155 0.000000
    27 1.135737 0.008475 0.000000 0.000000 -1.110029 0.020944
    28 0.310263 -1.738959 -0.122574 -0.056428 -0.182688 -1.438565
    29 1.569655 0.049779 0.000001 0.000000 -1.497495 -0.010472
    30 1.096338 0.003406 0.000000 0.000000 -1.214749 0.005236
    31 0.956485 -1.335291 -0.122574 0.000000 -0.267035 -1.445133
    32 1.346260 0.018204 -0.000001 -0.002744 -0.612611 -0.000922
    33 0.874448 -0.001050 0.000000 0.000000 -1.392772 0.000000
    34 -0.017482 -0.437063 0.000000 0.000000 0.000000 0.000000
    35 0.472028 0.192308 0.472822 0.297069 -0.493084 -1.048320
    36 1.857548 0.010603 0.000000 0.000000 0.000000 -0.455531
    37 0.996041 -0.010017 0.000000 0.000000 0.000000 -0.858702
    38 1.137759 -1.867485 -0.137079 0.000000 -0.050466 -1.523672
    39 1.365644 0.014869 0.000000 -0.000683 -0.375230 -0.002803
    40 0.938014 -0.005664 0.000002 0.000000 -0.613908 0.010472
    41 0.409682 -2.071858 -0.137080 0.068179 -0.280440 -1.750247
    42 1.470907 0.007359 0.000000 0.000000 -1.617923 0.010472
    43 1.152099 0.010338 -0.000001 0.000000 -1.099558 0.005236
    44 -0.292848 -1.816393 -0.137080 0.017968 -0.224442 -1.724665
    45 1.511618 -0.004263 0.000000 0.000012 -1.544617 0.036640
    46 1.099636 -0.010806 0.000000 0.000000 -1.130973 0.010472
    47 -0.957059 -1.356554 -0.137080 0.000000 -0.235619 -1.685988
    48 1.351391 -0.010799 -0.000001 0.000000 -0.753982 0.005229
    49 0.859052 0.017735 -0.000001 0.000000 -1.371829 -0.010472
  time 23
    0 -10.222968 3.344507 -6.351756 0.762887 1.855371 1.149458
    1 0.026864 -9.077099 -0.000001 0.131693 -0.357148 0.326394
    2 -0.085530 -4.065333 0.539714 0.023093 -1.497266 -0.094576
    3 0.000000 2.637149 0.668922 0.000000 0.000000 0.000000
    4 0.000000 -1.667184 2.293658 0.000000 0.000000 0.015508
    5 0.000000 -1.808678 1.337844 0.000000 0.000000 0.000000
    6 0.000000 -2.905986 1.479337 0.000000 0.000000 0.000000
    7 0.000000 -0.782117 1.785742 -0.680679 0.000000 0.000000
    8 0.000000 -1.610587 0.584026 0.000000 0.000000 0.000000
    9 10.160466 3.294694 -6.058779 0.936349 -1.816573 -1.312371
    10 -0.244754 -8.933564 0.000000 0.209146 0.299570 -0.249777
    11 -0.192862 -4.013779 0.573611 0.359939 1.511626 0.436878
    12 0.000001 2.617617 0.665016 0.000000 0.000000 0.000000
    13 0.000001 -1.655466 2.278033 0.000000 0.000000 0.000000
    14 0.000000 -1.796960 1.330032 0.000000 0.000000 0.000000
    15 0.000000 -2.886455 1.471524 0.000000 0.000000 0.000000
    16 0.000001 -0.778212 1.774024 -0.680679 0.000000 0.000000
    17 0.000000 -1.598869 0.580119 0.000000 0.000000 0.000000
    18 0.000000 -0.456721 -0.000001 0.000008 -0.000003 -0.000004
    19 -0.421911 0.233313 0.477534 -0.212797 -0.375551 -2.091539
    20 1.827485 -0.104694 0.000000 0.000000 0.000000 0.523599
    21 1.069448 0.056463 0.000000 0.000000 0.000000 0.848230
    22 -1.090122 -1.829639 -0.122574 0.000005 -0.000006 -1.726140
    23 1.390342 -0.000583 0.000000 0.001091 -0.481734 0.001629
    24 0.964940 -0.010943 -0.000001 0.000000 -0.670224 0.000000
    25 -0.348493 -1.994086 -0.122574 -0.078961 -0.260133 -1.437435
    26 1.546317 0.004627 0.000000 -0.000001 -1.623155 0.000000
    27 1.135737 0.008475 0.000000 0.000000 -1.110029 0.020944
    28 0.310263 -1.738959 -0.122574 -0.056428 -0.182688 -1.438565
    29 1.569655 0.049779 0.000001 0.000000 -1.497495 -0.010472
    30 1.096338 0.003406 0.000000 0.000000 -1.214749 0.005236
    31 0.956485 -1.335291 -0.122574 0.000000 -0.267035 -1.445133
    32 1.346260 0.018204 -0.000001 -0.002744 -0.612611 -0.000922
    33 0.874448 -0.001050 0.000000 0.000000 -1.392772 0.000000
    34 -0.017482 -0.437063 0.000000 0.000000 0.000000 0.000000
    35 0.472028 0.192308 0.472822 0.297069 -0.493084 -1.048320
    36 1.857548 0.010603 0.000000 0.000000 0.000000 -0.455531
    37 0.996041 -0.010017 0.000000 0.000000 0.000000 -0.858702
    38 1.137759 -1.867485 -0.137079 0.000000 -0.052360 -1.523672
    39 1.365644 0.014869 0.000000 -0.000683 -0.377004 -0.002803
    40 0.938014 -0.005664 0.000002 0.000000 -0.612611 0.010472
    41 0.409682 -2.071858 -0.137080 0.068179 -0.280440 -1.750247
    42 1.470907 0.007359 0.000000 0.000000 -1.617923 0.010472
    43 1.152099 0.010338 -0.000001 0.000000 -1.099558 0.005236
    44 -0.292848 -1.816393 -0.137080 0.017968 -0.224442 -1.724665
    45 1.511618 -0.004263 0.000000 0.000012 -1.544617 0.036640
    46 1.099636 -0.010806 0.000000 0.000000 -1.130973 0.010472
    47 -0.957059 -1.356554 -0.137080 0.000000 -0.235619 -1.685988
    48 1.351391 -0.010799 -0.000001 0.000000 -0.753982 0.005229
    49 0.859052 0.017735 -0.000001 0.000000 -1.371829 -0.010472
end
