version 1
nodes
  0 "6_4bossknife_R" -1
  1 "6_4bossknife_L" -1
  2 "Dummy03" -1
  3 "Dummy06" 2
  4 "Dummy04" -1
  5 "Dummy05" 4
  6 "root" -1
  7 "Bone01" 6
  8 "Bone_L_Upper" 7
  9 "Bone_Lefthand" 7
  10 "Bone13" 9
  11 "Bone14" 10
  12 "Bone15" 11
  13 "Bone17" 9
  14 "Bone18" 13
  15 "Bone19" 14
  16 "Bone21" 9
  17 "Bone22" 16
  18 "Bone23" 17
  19 "Bone09" 9
  20 "Bone10" 19
  21 "Bone11" 20
  22 "Bone05" 9
  23 "Bone06" 22
  24 "Bone07" 23
  25 "Bone_Se_Hand-L" 9
  26 "Bone04" 6
  27 "Bone_Righthand" 26
  28 "Bone39" 27
  29 "Bone40" 28
  30 "Bone41" 29
  31 "Bone35" 27
  32 "Bone36" 31
  33 "Bone37" 32
  34 "Bone31" 27
  35 "Bone32" 34
  36 "Bone33" 35
  37 "Bone43" 27
  38 "Bone44" 37
  39 "Bone45" 38
  40 "Bone27" 27
  41 "Bone28" 40
  42 "Bone29" 41
  43 "Bone_Se_Hand-R" 27
  44 "Bone_R_Upper" 26
end
skeleton
  time 0
    0 -10.164374 -6.713216 -8.836978 1.162211 -0.960952 -1.473311
    1 10.426097 -14.201532 -8.809565 -0.673469 -0.321438 -2.544347
    2 24.790014 20.645479 34.626179 1.570796 -0.479834 -3.141626
    3 0.000008 48.388664 -0.000004 0.000000 0.000000 0.000000
    4 -26.854916 19.341875 35.712706 1.570796 0.634327 -3.141640
    5 0.000008 51.240402 -0.000004 0.000000 0.000000 0.000000
    6 -0.002752 2.073017 -2.354921 0.000000 0.000000 0.000000
    7 10.009344 -5.776191 -3.510808 6.053032 -2.469551 0.212623
    8 5.526842 6.649239 -0.251372 1.565324 -3.133039 0.981247
    9 -0.103172 -8.424515 -0.151010 -0.207847 0.087790 -0.061627
    10 -0.488518 -2.755602 -0.228260 -0.285136 -0.110772 -0.076140
    11 0.039887 -1.546198 0.025948 -1.932863 -0.005501 0.042942
    12 0.028786 -1.212454 -0.132487 -1.403837 -0.014106 0.031687
    13 0.250027 -2.820665 -0.238396 -0.392731 -0.140252 -0.033120
    14 -0.049759 -1.598510 0.014539 -1.781252 -0.004866 -0.045867
    15 -0.034142 -1.171750 0.045718 -1.135810 0.006891 -0.029866
    16 0.957766 -2.746780 -0.090302 -0.401913 -0.220762 -0.007230
    17 -0.033420 -1.397129 -0.030789 -1.214983 -0.001690 -0.058234
    18 -0.022360 -0.969155 -0.012467 -1.327548 -0.005872 -0.062128
    19 -1.180681 -2.507217 -0.193859 -0.168820 0.131989 -0.088729
    20 -0.024967 -1.127840 0.017597 -1.419678 -0.006927 -0.058448
    21 -0.020057 -0.902687 0.053060 -1.700088 -0.014477 -0.065124
    22 0.630386 -1.193371 0.185379 0.720505 -1.006041 -0.620461
    23 1.449987 -0.247574 0.079230 0.073725 -0.243119 -0.906161
    24 1.061707 -0.132196 0.028385 0.026746 -0.168638 -0.682153
    25 0.120153 -0.050270 -0.054489 0.287569 3.110905 1.561085
    26 -8.056163 1.886145 -5.286601 -0.174687 -4.281096 -0.411537
    27 0.096944 -8.454325 -0.009365 -0.023869 -0.301598 -0.038767
    28 0.447953 -2.798986 -0.200443 -0.644526 0.033180 0.187002
    29 -0.032909 -1.499736 0.040097 -1.806320 0.021524 -0.038085
    30 -0.027022 -1.127703 -0.020210 -1.241734 0.024341 -0.022567
    31 -0.249534 -2.846964 -0.174213 -0.532657 0.082892 0.106992
    32 0.043235 -1.656596 0.060855 -1.670355 -0.024154 0.011985
    33 0.031729 -1.137392 0.051025 -1.511058 -0.016688 0.008875
    34 -0.963866 -2.785145 -0.085350 -0.515749 0.249320 0.002570
    35 0.028479 -1.406973 -0.024980 -1.149446 -0.033125 -0.037080
    36 0.021413 -0.938249 0.004421 -1.366207 -0.042881 -0.037931
    37 1.164475 -2.543940 -0.170330 -0.386115 -0.158284 0.151095
    38 0.024032 -1.148574 -0.009538 -1.294914 0.023514 0.062776
    39 0.014898 -0.907427 -0.008129 -1.452208 0.027912 0.066479
    40 -0.586770 -1.264477 0.200161 -0.394791 -0.851503 -2.391248
    41 1.561899 0.035243 0.016848 -0.015812 -0.006164 0.783567
    42 1.114041 0.044518 -0.005766 -0.022666 -0.034834 0.844478
    43 -0.139399 -0.111698 0.014397 0.285382 -0.030687 1.580508
    44 -8.190552 -0.196255 -0.477722 1.563739 -0.037429 -0.053690
  time 1
    0 -6.187690 -0.599748 13.714491 -1.482119 -0.174143 1.454497
    1 6.758017 -0.142510 13.581744 1.474393 -0.181966 -4.613153
    2 24.790014 20.645479 34.626179 1.570796 -0.479834 -3.141626
    3 0.000008 54.037274 -0.000004 0.000000 0.000000 0.000000
    4 -26.854916 19.341875 35.712706 1.570796 0.634327 -3.141640
    5 0.000008 56.889012 -0.000004 0.000000 0.000000 0.000000
    6 -0.002752 2.073017 -2.354921 0.000000 0.000000 0.000000
    7 7.446765 -3.276115 4.895699 4.728405 0.072541 -4.412321
    8 5.667471 6.512516 -0.255279 1.565229 -3.132464 0.956749
    9 -0.044576 -8.490924 -0.088509 0.013731 0.438754 0.175108
    10 -0.488518 -2.755602 -0.228260 -0.285136 -0.110772 -0.076140
    11 0.039887 -1.546198 0.025948 -1.932863 -0.005501 0.042942
    12 0.028786 -1.212454 -0.132487 -1.403837 -0.014106 0.031687
    13 0.250027 -2.820665 -0.238396 -0.392731 -0.140252 -0.033120
    14 -0.049759 -1.598510 0.014539 -1.781252 -0.004866 -0.045867
    15 -0.034142 -1.171750 0.045718 -1.135810 0.006891 -0.029866
    16 0.957766 -2.746780 -0.090302 -0.401913 -0.220762 -0.007230
    17 -0.033420 -1.397129 -0.030789 -1.214983 -0.001690 -0.058234
    18 -0.022360 -0.969155 -0.012467 -1.327548 -0.005872 -0.062128
    19 -1.180681 -2.507217 -0.193859 -0.168820 0.131989 -0.088729
    20 -0.024967 -1.127840 0.017597 -1.419678 -0.006927 -0.058448
    21 -0.020057 -0.902687 0.053060 -1.700088 -0.014477 -0.065124
    22 0.630386 -1.193371 0.185379 0.720505 -1.006041 -0.620461
    23 1.449987 -0.247574 0.079230 0.073725 -0.243119 -0.906161
    24 1.061707 -0.132196 0.028385 0.026746 -0.168638 -0.682153
    25 0.120153 -0.050270 -0.054489 0.287569 3.110905 1.561085
    26 -7.048319 -2.543678 5.256690 1.563735 -3.209456 1.257138
    27 0.100850 -8.520733 -0.005459 -0.038527 -0.332832 -0.436956
    28 0.447953 -2.798986 -0.200443 -0.644526 0.033180 0.187002
    29 -0.032909 -1.499736 0.040097 -1.806320 0.021524 -0.038085
    30 -0.027022 -1.127703 -0.020210 -1.241734 0.024341 -0.022567
    31 -0.249534 -2.846964 -0.174213 -0.532657 0.082892 0.106992
    32 0.043235 -1.656596 0.060855 -1.670355 -0.024154 0.011985
    33 0.031729 -1.137392 0.051025 -1.511058 -0.016688 0.008875
    34 -0.963866 -2.785145 -0.085350 -0.515749 0.249320 0.002570
    35 0.028479 -1.406973 -0.024980 -1.149446 -0.033125 -0.037080
    36 0.021413 -0.938249 0.004421 -1.366207 -0.042881 -0.037931
    37 1.164475 -2.543940 -0.170330 -0.386115 -0.158284 0.151095
    38 0.024032 -1.148574 -0.009538 -1.294914 0.023514 0.062776
    39 0.014898 -0.907427 -0.008129 -1.452208 0.027912 0.066479
    40 -0.586770 -1.264477 0.200161 -0.394791 -0.851503 -2.391248
    41 1.561899 0.035243 0.016848 -0.015812 -0.006164 0.783567
    42 1.114041 0.044518 -0.005766 -0.022666 -0.034834 0.844478
    43 -0.139399 -0.111698 0.014397 0.285382 -0.030687 1.580508
    44 -4.229494 7.792270 -0.317560 1.581571 -0.014773 -1.197532
  time 2
    0 -4.800929 -10.678181 7.819780 -1.474471 -1.139311 -4.676977
    1 6.082215 -10.662362 8.140171 1.664136 -1.136988 1.347941
    2 6.090225 -27.117697 19.809843 1.570796 0.031711 -3.141626
    3 0.000008 59.689790 -0.000004 0.000000 0.000000 0.000000
    4 -6.881651 -27.354863 19.627917 1.570796 0.034531 -3.141640
    5 0.000008 62.541528 -0.000004 0.000000 0.000000 0.000000
    6 -0.002752 2.073017 -2.354921 0.000000 0.000000 0.000000
    7 6.681117 -5.237112 2.297964 1.384590 -2.420369 -1.301828
    8 3.737724 7.930528 -0.204496 1.567050 -3.138503 1.251767
    9 -0.021138 -8.471392 -0.080696 0.018959 0.531963 0.026791
    10 -0.488518 -2.755602 -0.228260 -0.285136 -0.110772 -0.076140
    11 0.039887 -1.546198 0.025948 -1.932863 -0.005501 0.042942
    12 0.028786 -1.212454 -0.132487 -1.403837 -0.014106 0.031687
    13 0.250027 -2.820665 -0.238396 -0.392731 -0.140252 -0.033120
    14 -0.049759 -1.598510 0.014539 -1.781252 -0.004866 -0.045867
    15 -0.034142 -1.171750 0.045718 -1.135810 0.006891 -0.029866
    16 0.957766 -2.746780 -0.090302 -0.401913 -0.220762 -0.007230
    17 -0.033420 -1.397129 -0.030789 -1.214983 -0.001690 -0.058234
    18 -0.022360 -0.969155 -0.012467 -1.327548 -0.005872 -0.062128
    19 -1.180681 -2.507217 -0.193859 -0.168820 0.131989 -0.088729
    20 -0.024967 -1.127840 0.017597 -1.419678 -0.006927 -0.058448
    21 -0.020057 -0.902687 0.053060 -1.700088 -0.014477 -0.065124
    22 0.630386 -1.193371 0.185379 0.720505 -1.006041 -0.620461
    23 1.449987 -0.247574 0.079230 0.073725 -0.243119 -0.906161
    24 1.061707 -0.132196 0.028385 0.026746 -0.168638 -0.682153
    25 0.120153 -0.050270 -0.054489 0.287569 3.110905 1.561085
    26 -6.153761 -4.961720 2.658954 1.328495 -3.941723 1.295338
    27 0.096944 -8.481669 -0.001552 -0.059675 -0.361037 -0.226092
    28 0.447953 -2.798986 -0.200443 -0.644526 0.033180 0.187002
    29 -0.032909 -1.499736 0.040097 -1.806320 0.021524 -0.038085
    30 -0.027022 -1.127703 -0.020210 -1.241734 0.024341 -0.022567
    31 -0.249534 -2.846964 -0.174213 -0.532657 0.082892 0.106992
    32 0.043235 -1.656596 0.060855 -1.670413 -0.024154 0.011985
    33 0.031729 -1.137392 0.051025 -1.511058 -0.016688 0.008875
    34 -0.963866 -2.785145 -0.085350 -0.515749 0.249320 0.002570
    35 0.028479 -1.406973 -0.024980 -1.149446 -0.033125 -0.037080
    36 0.021413 -0.938249 0.004421 -1.366207 -0.042881 -0.037931
    37 1.164475 -2.543940 -0.170330 -0.386115 -0.158284 0.151095
    38 0.024032 -1.148574 -0.009538 -1.294914 0.023514 0.062776
    39 0.014898 -0.907427 -0.008129 -1.452208 0.027912 0.066479
    40 -0.586770 -1.264477 0.200161 -0.394791 -0.851503 -2.391248
    41 1.561899 0.035243 0.016848 -0.015812 -0.006164 0.783567
    42 1.114041 0.044518 -0.005766 -0.022666 -0.034834 0.844478
    43 -0.139399 -0.111698 0.014397 0.285382 -0.030687 1.580508
    44 -2.514598 8.565731 -0.266778 1.581475 -0.008655 -1.426585
  time 3
    0 -5.019685 -13.029815 -8.528375 -1.472655 -2.371554 1.554748
    1 6.023619 -13.721049 -8.243141 1.514122 -2.384921 1.562649
    2 7.320731 -27.117697 -18.906595 1.570796 0.031711 -3.141626
    3 0.000008 65.338400 -0.000004 0.000000 0.000000 0.000000
    4 -5.545672 -27.354863 -19.086201 1.570796 0.034531 -3.141640
    5 0.000008 68.190138 -0.000004 0.000000 0.000000 0.000000
    6 -0.002752 2.073017 -2.354921 0.000000 0.000000 0.000000
    7 6.653772 -5.178517 -2.881882 5.651514 -1.963452 0.583006
    8 1.901731 8.629768 -0.165432 1.569830 3.140131 1.493611
    9 -0.009419 -8.447954 -0.080696 -0.038480 0.544079 -0.179340
    10 -0.488518 -2.755602 -0.228260 -0.285136 -0.110772 -0.076140
    11 0.039887 -1.546198 0.025948 -1.932863 -0.005501 0.042942
    12 0.028786 -1.212454 -0.132487 -1.403837 -0.014106 0.031687
    13 0.250027 -2.820665 -0.238396 -0.392731 -0.140252 -0.033120
    14 -0.049759 -1.598510 0.014539 -1.781252 -0.004866 -0.045867
    15 -0.034142 -1.171750 0.045718 -1.135810 0.006891 -0.029866
    16 0.957766 -2.746780 -0.090302 -0.401913 -0.220762 -0.007230
    17 -0.033420 -1.397129 -0.030789 -1.214983 -0.001690 -0.058234
    18 -0.022360 -0.969155 -0.012467 -1.327548 -0.005872 -0.062128
    19 -1.180681 -2.507217 -0.193859 -0.168820 0.131989 -0.088729
    20 -0.024967 -1.127840 0.017597 -1.419678 -0.006927 -0.058448
    21 -0.020057 -0.902687 0.053060 -1.700088 -0.014477 -0.065124
    22 0.630386 -1.193371 0.185379 0.720505 -1.006041 -0.620461
    23 1.449987 -0.247574 0.079230 0.073725 -0.243119 -0.906161
    24 1.061707 -0.132196 0.028385 0.026746 -0.168638 -0.682153
    25 0.120153 -0.050270 -0.054489 0.287569 3.110905 1.561085
    26 -6.216263 -4.680462 -3.270914 -0.887549 -4.401803 -0.829448
    27 0.085225 -8.438699 -0.001552 -0.082474 -0.368956 0.032832
    28 0.447953 -2.798986 -0.200443 -0.644526 0.033180 0.187002
    29 -0.032909 -1.499736 0.040097 -1.806320 0.021524 -0.038085
    30 -0.027022 -1.127703 -0.020210 -1.241734 0.024341 -0.022567
    31 -0.249534 -2.846964 -0.174213 -0.532657 0.082892 0.106992
    32 0.043235 -1.656596 0.060855 -1.670413 -0.024154 0.011985
    33 0.031729 -1.137392 0.051025 -1.511058 -0.016688 0.008875
    34 -0.963866 -2.785145 -0.085350 -0.515749 0.249320 0.002570
    35 0.028479 -1.406973 -0.024980 -1.149446 -0.033125 -0.037080
    36 0.021413 -0.938249 0.004421 -1.366207 -0.042881 -0.037931
    37 1.164475 -2.543940 -0.170330 -0.386115 -0.158284 0.151095
    38 0.024032 -1.148574 -0.009538 -1.294914 0.023514 0.062776
    39 0.014898 -0.907427 -0.008129 -1.452208 0.027912 0.066479
    40 -0.586770 -1.264477 0.200161 -0.394791 -0.851503 -2.391248
    41 1.561899 0.035243 0.016848 -0.015812 -0.006164 0.783567
    42 1.114041 0.044518 -0.005766 -0.022666 -0.034834 0.844478
    43 -0.139399 -0.111698 0.014397 0.285382 -0.030687 1.580508
    44 -2.342718 8.620420 -0.262871 1.581379 -0.008082 -1.448237
  time 4
    0 -5.226723 -7.732778 -15.813753 1.601674 -0.136853 -1.544279
    1 6.527541 -8.611518 -15.626179 1.552894 -3.017676 1.563127
    2 8.340294 -27.117697 -51.047585 1.570796 0.031711 -3.141626
    3 0.000008 75.381675 -0.000004 0.000000 0.000000 0.000000
    4 -4.436263 -27.354863 -51.226409 1.570796 0.034531 -3.141640
    5 0.000008 77.229477 -0.000004 0.000000 0.000000 0.000000
    6 -0.002752 2.073017 -2.354921 0.000000 0.000000 0.000000
    7 6.810027 -3.221426 -5.229610 5.076739 -2.384897 1.086969
    8 1.600940 8.700083 -0.157619 1.570310 3.139555 1.531497
    9 -0.001606 -8.432328 -0.084602 -0.072354 0.528770 -0.305522
    10 -0.488518 -2.755602 -0.228260 -0.285136 -0.110772 -0.076140
    11 0.039887 -1.546198 0.025948 -1.932863 -0.005501 0.042942
    12 0.028786 -1.212454 -0.132487 -1.403837 -0.014106 0.031687
    13 0.250027 -2.820665 -0.238396 -0.392731 -0.140252 -0.033120
    14 -0.049759 -1.598510 0.014539 -1.781252 -0.004866 -0.045867
    15 -0.034142 -1.171750 0.045718 -1.135810 0.006891 -0.029866
    16 0.957766 -2.746780 -0.090302 -0.401913 -0.220762 -0.007230
    17 -0.033420 -1.397129 -0.030789 -1.214983 -0.001690 -0.058234
    18 -0.022360 -0.969155 -0.012467 -1.327548 -0.005872 -0.062128
    19 -1.180681 -2.507217 -0.193859 -0.168820 0.131989 -0.088729
    20 -0.024967 -1.127840 0.017597 -1.419678 -0.006927 -0.058448
    21 -0.020057 -0.902687 0.053060 -1.700088 -0.014477 -0.065124
    22 0.630386 -1.193371 0.185379 0.720505 -1.006041 -0.620461
    23 1.449987 -0.247574 0.079230 0.073725 -0.243119 -0.906161
    24 1.061707 -0.132196 0.028385 0.026746 -0.168638 -0.682153
    25 0.120153 -0.050270 -0.054489 0.287569 3.110905 1.561085
    26 -6.282671 -2.524146 -5.493638 -1.340801 -3.915154 -1.211168
    27 0.077412 -8.423074 -0.005459 -0.091975 -0.356746 0.139713
    28 0.447953 -2.798986 -0.200443 -0.644526 0.033180 0.187002
    29 -0.032909 -1.499736 0.040097 -1.806320 0.021524 -0.038085
    30 -0.027022 -1.127703 -0.020210 -1.241734 0.024341 -0.022567
    31 -0.249534 -2.846964 -0.174213 -0.532657 0.082892 0.106992
    32 0.043235 -1.656596 0.060855 -1.670413 -0.024154 0.011985
    33 0.031729 -1.137392 0.051025 -1.511058 -0.016688 0.008875
    34 -0.963866 -2.785145 -0.085350 -0.515749 0.249320 0.002570
    35 0.028479 -1.406973 -0.024980 -1.149446 -0.033125 -0.037080
    36 0.021413 -0.938249 0.004421 -1.366207 -0.042881 -0.037931
    37 1.164475 -2.543940 -0.170330 -0.386115 -0.158284 0.151095
    38 0.024032 -1.148574 -0.009538 -1.294914 0.023514 0.062776
    39 0.014898 -0.907427 -0.008129 -1.452208 0.027912 0.066479
    40 -0.586770 -1.264477 0.200161 -0.394791 -0.851503 -2.391248
    41 1.561899 0.035243 0.016848 -0.015812 -0.006164 0.783567
    42 1.114041 0.044518 -0.005766 -0.022666 -0.034834 0.844478
    43 -0.139399 -0.111698 0.014397 0.285382 -0.030687 1.580508
    44 -1.955987 8.725892 -0.251152 1.581187 -0.006839 -1.496858
  time 5
    0 -6.066592 0.134649 -19.329486 1.537432 0.457555 -1.533309
    1 6.953335 -0.962847 -19.266915 -1.566178 0.468555 -1.563142
    2 9.363762 -27.117697 -83.188575 1.570796 0.031711 -3.141626
    3 0.000008 85.421044 -0.000004 0.000000 0.000000 0.000000
    4 -3.326855 -27.354863 -83.361722 1.570796 0.034531 -3.141640
    5 0.000008 86.272721 -0.000004 0.000000 0.000000 0.000000
    6 -0.002752 2.073017 -2.354921 0.000000 0.000000 0.000000
    7 6.978001 -0.428372 -6.358551 4.866588 -2.830118 1.219601
    8 1.640004 8.692270 -0.157619 1.570310 3.139651 1.526465
    9 0.002300 -8.416703 -0.088509 -0.103775 0.499377 -0.427781
    10 -0.488518 -2.755602 -0.228260 -0.285136 -0.110772 -0.076140
    11 0.039887 -1.546198 0.025948 -1.932863 -0.005501 0.042942
    12 0.028786 -1.212454 -0.132487 -1.403837 -0.014106 0.031687
    13 0.250027 -2.820665 -0.238396 -0.392731 -0.140252 -0.033120
    14 -0.049759 -1.598510 0.014539 -1.781252 -0.004866 -0.045867
    15 -0.034142 -1.171750 0.045718 -1.135810 0.006891 -0.029866
    16 0.957766 -2.746780 -0.090302 -0.401913 -0.220762 -0.007230
    17 -0.033420 -1.397129 -0.030789 -1.214983 -0.001690 -0.058234
    18 -0.022360 -0.969155 -0.012467 -1.327548 -0.005872 -0.062128
    19 -1.180681 -2.507217 -0.193859 -0.168820 0.131989 -0.088729
    20 -0.024967 -1.127840 0.017597 -1.419678 -0.006927 -0.058448
    21 -0.020057 -0.902687 0.053060 -1.700088 -0.014477 -0.065124
    22 0.630386 -1.193371 0.185379 0.720505 -1.006041 -0.620461
    23 1.449987 -0.247574 0.079230 0.073725 -0.243119 -0.906161
    24 1.061707 -0.132196 0.028385 0.026746 -0.168638 -0.682153
    25 0.120153 -0.050270 -0.054489 0.287569 3.110905 1.561085
    26 -6.563930 0.315784 -6.427261 -1.465445 -3.415794 -1.260571
    27 0.073506 -8.407448 -0.009365 -0.097422 -0.339016 0.227921
    28 0.447953 -2.798986 -0.200443 -0.644526 0.033180 0.187002
    29 -0.032909 -1.499736 0.040097 -1.806320 0.021524 -0.038085
    30 -0.027022 -1.127703 -0.020210 -1.241734 0.024341 -0.022567
    31 -0.249534 -2.846964 -0.174213 -0.532657 0.082892 0.106992
    32 0.043235 -1.656596 0.060855 -1.670413 -0.024154 0.011985
    33 0.031729 -1.137392 0.051025 -1.511058 -0.016688 0.008875
    34 -0.963866 -2.785145 -0.085350 -0.515749 0.249320 0.002570
    35 0.028479 -1.406973 -0.024980 -1.149446 -0.033125 -0.037080
    36 0.021413 -0.938249 0.004421 -1.366207 -0.042881 -0.037931
    37 1.164475 -2.543940 -0.170330 -0.386115 -0.158284 0.151095
    38 0.024032 -1.148574 -0.009538 -1.294914 0.023514 0.062776
    39 0.014898 -0.907427 -0.008129 -1.452208 0.027912 0.066479
    40 -0.586770 -1.264477 0.200161 -0.394791 -0.851503 -2.391248
    41 1.561899 0.035243 0.016848 -0.015812 -0.006164 0.783567
    42 1.114041 0.044518 -0.005766 -0.022666 -0.034834 0.844478
    43 -0.139399 -0.111698 0.014397 0.285382 -0.030687 1.580508
    44 -1.623946 8.796207 -0.243339 1.580996 -0.005692 -1.538168
  time 6
    0 -7.222878 7.525500 -18.876347 1.444225 0.960551 -1.565741
    1 7.203343 6.252217 -19.063784 -1.547701 0.971244 -1.549555
    2 9.363762 -27.117697 -83.188575 1.570796 0.031711 -3.141626
    3 0.000008 59.549161 -0.000004 0.000000 0.000000 0.000000
    4 -3.326855 -27.354863 -83.361722 1.570796 0.034531 -3.141640
    5 0.000008 60.396932 -0.000004 0.000000 0.000000 0.000000
    6 -0.002752 2.073017 -2.354921 0.000000 0.000000 0.000000
    7 7.110818 2.216240 -6.131981 4.743833 3.070016 1.257455
    8 1.901731 8.629768 -0.165432 1.569830 3.140131 1.493896
    9 0.006206 -8.401077 -0.092415 -0.127216 0.459793 -0.532014
    10 -0.488518 -2.755602 -0.228260 -0.285136 -0.110772 -0.076140
    11 0.039887 -1.546198 0.025948 -1.932863 -0.005501 0.042942
    12 0.028786 -1.212454 -0.132487 -1.403837 -0.014106 0.031687
    13 0.250027 -2.820665 -0.238396 -0.392731 -0.140252 -0.033120
    14 -0.049759 -1.598510 0.014539 -1.781252 -0.004866 -0.045867
    15 -0.034142 -1.171750 0.045718 -1.135810 0.006891 -0.029866
    16 0.957766 -2.746780 -0.090302 -0.401913 -0.220762 -0.007230
    17 -0.033420 -1.397129 -0.030789 -1.214983 -0.001690 -0.058234
    18 -0.022360 -0.969155 -0.012467 -1.327548 -0.005872 -0.062128
    19 -1.180681 -2.507217 -0.193859 -0.168820 0.131989 -0.088729
    20 -0.024967 -1.127840 0.017597 -1.419678 -0.006927 -0.058448
    21 -0.020057 -0.902687 0.053060 -1.700088 -0.014477 -0.065124
    22 0.630386 -1.193371 0.185379 0.720505 -1.006041 -0.620461
    23 1.449987 -0.247574 0.079230 0.073725 -0.243119 -0.906161
    24 1.061707 -0.132196 0.028385 0.026746 -0.168638 -0.682153
    25 0.120153 -0.050270 -0.054489 0.287569 3.110905 1.561085
    26 -6.954567 2.901801 -6.079594 -1.536382 -2.982378 -1.249848
    27 0.069599 -8.399636 -0.009365 -0.098928 -0.318793 0.295490
    28 0.447953 -2.798986 -0.200443 -0.644526 0.033180 0.187002
    29 -0.032909 -1.499736 0.040097 -1.806320 0.021524 -0.038085
    30 -0.027022 -1.127703 -0.020210 -1.241734 0.024341 -0.022567
    31 -0.249534 -2.846964 -0.174213 -0.532657 0.082892 0.106992
    32 0.043235 -1.656596 0.060855 -1.670413 -0.024154 0.011985
    33 0.031729 -1.137392 0.051025 -1.511058 -0.016688 0.008875
    34 -0.963866 -2.785145 -0.085350 -0.515749 0.249320 0.002570
    35 0.028479 -1.406973 -0.024980 -1.149446 -0.033125 -0.037080
    36 0.021413 -0.938249 0.004421 -1.366207 -0.042881 -0.037931
    37 1.164475 -2.543940 -0.170330 -0.386115 -0.158284 0.151095
    38 0.024032 -1.148574 -0.009538 -1.294914 0.023514 0.062776
    39 0.014898 -0.907427 -0.008129 -1.452208 0.027912 0.066479
    40 -0.586770 -1.264477 0.200161 -0.394791 -0.851503 -2.391248
    41 1.561899 0.035243 0.016848 -0.015812 -0.006164 0.783567
    42 1.114041 0.044518 -0.005766 -0.022666 -0.034834 0.844478
    43 -0.139399 -0.111698 0.014397 0.285382 -0.030687 1.580508
    44 -1.405189 8.839177 -0.239433 1.580804 -0.005023 -1.564948
  time 7
    0 -8.250253 12.404555 -16.493462 1.223872 1.316061 -1.738677
    1 7.531478 11.045332 -16.950438 -1.534012 1.335410 -1.554818
    2 9.363762 -27.117697 -83.188575 1.570796 0.031711 -3.141626
    3 0.000008 33.677278 -0.000004 0.000000 0.000000 0.000000
    4 -3.326855 -27.354863 -83.361722 1.570796 0.034531 -3.141640
    5 0.000008 34.528955 -0.000004 0.000000 0.000000 0.000000
    6 -0.002752 2.073017 -2.354921 0.000000 0.000000 0.000000
    7 7.282698 3.970200 -5.194453 1.525840 0.348839 -1.893928
    8 2.253304 8.536015 -0.169338 1.569255 3.140898 1.449173
    9 0.006206 -8.389358 -0.100228 -0.140175 0.415310 -0.606173
    10 -0.488518 -2.755602 -0.228260 -0.285136 -0.110772 -0.076140
    11 0.039887 -1.546198 0.025948 -1.932863 -0.005501 0.042942
    12 0.028786 -1.212454 -0.132487 -1.403837 -0.014106 0.031687
    13 0.250027 -2.820665 -0.238396 -0.392731 -0.140252 -0.033120
    14 -0.049759 -1.598510 0.014539 -1.781252 -0.004866 -0.045867
    15 -0.034142 -1.171750 0.045718 -1.135810 0.006891 -0.029866
    16 0.957766 -2.746780 -0.090302 -0.401913 -0.220762 -0.007230
    17 -0.033420 -1.397129 -0.030789 -1.214983 -0.001690 -0.058234
    18 -0.022360 -0.969155 -0.012467 -1.327548 -0.005872 -0.062128
    19 -1.180681 -2.507217 -0.193859 -0.168820 0.131989 -0.088729
    20 -0.024967 -1.127840 0.017597 -1.419678 -0.006927 -0.058448
    21 -0.020057 -0.902687 0.053060 -1.700088 -0.014477 -0.065124
    22 0.630386 -1.193371 0.185379 0.720505 -1.006041 -0.620461
    23 1.449987 -0.247574 0.079230 0.073725 -0.243119 -0.906161
    24 1.061707 -0.132196 0.028385 0.026746 -0.168638 -0.682153
    25 0.120153 -0.050270 -0.054489 0.287569 3.110905 1.561085
    26 -7.313953 4.624510 -5.118627 1.554888 -0.474302 -4.361822
    27 0.065693 -8.391823 -0.013271 -0.097422 -0.298885 0.340700
    28 0.447953 -2.798986 -0.200443 -0.644526 0.033180 0.187002
    29 -0.032909 -1.499736 0.040097 -1.806320 0.021524 -0.038085
    30 -0.027022 -1.127703 -0.020210 -1.241734 0.024341 -0.022567
    31 -0.249534 -2.846964 -0.174213 -0.532657 0.082892 0.106992
    32 0.043235 -1.656596 0.060855 -1.670413 -0.024154 0.011985
    33 0.031729 -1.137392 0.051025 -1.511058 -0.016688 0.008875
    34 -0.963866 -2.785145 -0.085350 -0.515749 0.249320 0.002570
    35 0.028479 -1.406973 -0.024980 -1.149446 -0.033125 -0.037080
    36 0.021413 -0.938249 0.004421 -1.366207 -0.042881 -0.037931
    37 1.164475 -2.543940 -0.170330 -0.386115 -0.158284 0.151095
    38 0.024032 -1.148574 -0.009538 -1.294914 0.023514 0.062776
    39 0.014898 -0.907427 -0.008129 -1.452208 0.027912 0.066479
    40 -0.586770 -1.264477 0.200161 -0.394791 -0.851503 -2.391248
    41 1.561899 0.035243 0.016848 -0.015812 -0.006164 0.783567
    42 1.114041 0.044518 -0.005766 -0.022666 -0.034834 0.844478
    43 -0.139399 -0.111698 0.014397 0.285382 -0.030687 1.580508
    44 -1.370032 8.843084 -0.239433 1.580804 -0.005023 -1.570076
  time 8
    0 -8.859646 14.420241 -14.751221 0.674280 1.462152 -2.258250
    1 8.265875 12.990704 -15.321482 1.479658 -4.654383 1.405350
    2 9.363762 -27.117697 -83.188575 1.570796 0.031711 -3.141626
    3 0.000008 7.805395 -0.000004 0.000000 0.000000 0.000000
    4 -3.326855 -27.354863 -83.361722 1.570796 0.034531 -3.141640
    5 0.000008 8.653165 -0.000004 0.000000 0.000000 0.000000
    6 -0.002752 2.073017 -2.354921 0.000000 0.000000 0.000000
    7 7.618646 4.649908 -4.452242 1.498050 0.483920 -1.937664
    8 2.573626 8.434450 -0.177151 1.568776 3.141664 1.407679
    9 0.002300 -8.381545 -0.104134 -0.142652 0.371352 -0.639765
    10 -0.488518 -2.755602 -0.228260 -0.285136 -0.110772 -0.076140
    11 0.039887 -1.546198 0.025948 -1.932863 -0.005501 0.042942
    12 0.028786 -1.212454 -0.132487 -1.403837 -0.014106 0.031687
    13 0.250027 -2.820665 -0.238396 -0.392731 -0.140252 -0.033120
    14 -0.049759 -1.598510 0.014539 -1.781252 -0.004866 -0.045867
    15 -0.034142 -1.171750 0.045718 -1.135810 0.006891 -0.029866
    16 0.957766 -2.746780 -0.090302 -0.401913 -0.220762 -0.007230
    17 -0.033420 -1.397129 -0.030789 -1.214983 -0.001690 -0.058234
    18 -0.022360 -0.969155 -0.012467 -1.327548 -0.005872 -0.062128
    19 -1.180681 -2.507217 -0.193859 -0.168820 0.131989 -0.088729
    20 -0.024967 -1.127840 0.017597 -1.419678 -0.006927 -0.058448
    21 -0.020057 -0.902687 0.053060 -1.700088 -0.014477 -0.065124
    22 0.630386 -1.193371 0.185379 0.720505 -1.006041 -0.620461
    23 1.449987 -0.247574 0.079230 0.073725 -0.243119 -0.906161
    24 1.061707 -0.132196 0.028385 0.026746 -0.168638 -0.682153
    25 0.120153 -0.050270 -0.054489 0.287569 3.110905 1.561085
    26 -7.544428 5.386252 -4.384230 1.532691 -0.621195 -4.341046
    27 0.065693 -8.387917 -0.013271 -0.094061 -0.282006 0.362076
    28 0.447953 -2.798986 -0.200443 -0.644526 0.033180 0.187002
    29 -0.032909 -1.499736 0.040097 -1.806320 0.021524 -0.038085
    30 -0.027022 -1.127703 -0.020210 -1.241734 0.024341 -0.022567
    31 -0.249534 -2.846964 -0.174213 -0.532657 0.082892 0.106992
    32 0.043235 -1.656596 0.060855 -1.670355 -0.024154 0.011985
    33 0.031729 -1.137392 0.051025 -1.511058 -0.016688 0.008875
    34 -0.963866 -2.785145 -0.085350 -0.515749 0.249320 0.002570
    35 0.028479 -1.406973 -0.024980 -1.149446 -0.033125 -0.037080
    36 0.021413 -0.938249 0.004421 -1.366207 -0.042881 -0.037931
    37 1.164475 -2.543940 -0.170330 -0.386115 -0.158284 0.151095
    38 0.024032 -1.148574 -0.009538 -1.294914 0.023514 0.062776
    39 0.014898 -0.907427 -0.008129 -1.452208 0.027912 0.066479
    40 -0.586770 -1.264477 0.200161 -0.394791 -0.851503 -2.391248
    41 1.561899 0.035243 0.016848 -0.015812 -0.006164 0.783567
    42 1.114041 0.044518 -0.005766 -0.022666 -0.034834 0.844478
    43 -0.139399 -0.111698 0.014397 0.285382 -0.030687 1.580508
    44 -1.553631 8.811833 -0.243339 1.580900 -0.005501 -1.546715
  time 9
    0 -9.172156 14.775721 -14.290269 0.450964 1.476287 -2.462092
    1 9.398722 13.205554 -14.758965 0.536403 -4.684025 0.371233
    2 9.363762 -27.117697 -83.188575 1.570796 0.031711 -3.141626
    3 0.000008 7.805395 -0.000004 0.000000 0.000000 0.000000
    4 -3.326855 -27.354863 -83.361722 1.570796 0.034531 -3.141640
    5 0.000008 8.653165 -0.000004 0.000000 0.000000 0.000000
    6 -0.002752 2.073017 -2.354921 0.000000 0.000000 0.000000
    7 8.114754 4.685066 -4.139733 1.507058 0.516420 -2.003126
    8 2.858791 8.328978 -0.184964 1.568296 3.142336 1.370648
    9 -0.001606 -8.377639 -0.108040 -0.138874 0.327875 -0.644747
    10 -0.488518 -2.755602 -0.228260 -0.285136 -0.110772 -0.076140
    11 0.039887 -1.546198 0.025948 -1.932863 -0.005501 0.042942
    12 0.028786 -1.212454 -0.132487 -1.403837 -0.014106 0.031687
    13 0.250027 -2.820665 -0.238396 -0.392731 -0.140252 -0.033120
    14 -0.049759 -1.598510 0.014539 -1.781252 -0.004866 -0.045867
    15 -0.034142 -1.171750 0.045718 -1.135810 0.006891 -0.029866
    16 0.957766 -2.746780 -0.090302 -0.401913 -0.220762 -0.007230
    17 -0.033420 -1.397129 -0.030789 -1.214983 -0.001690 -0.058234
    18 -0.022360 -0.969155 -0.012467 -1.327548 -0.005872 -0.062128
    19 -1.180681 -2.507217 -0.193859 -0.168820 0.131989 -0.088729
    20 -0.024967 -1.127840 0.017597 -1.419678 -0.006927 -0.058448
    21 -0.020057 -0.902687 0.053060 -1.700088 -0.014477 -0.065124
    22 0.630386 -1.193371 0.185379 0.720505 -1.006041 -0.620461
    23 1.449987 -0.247574 0.079230 0.073725 -0.243119 -0.906161
    24 1.061707 -0.132196 0.028385 0.026746 -0.168638 -0.682153
    25 0.120153 -0.050270 -0.054489 0.287569 3.110905 1.561085
    26 -7.688964 5.601102 -4.087345 1.539986 -0.642125 -4.338365
    27 0.069599 -8.387917 -0.017178 -0.089658 -0.267809 0.366744
    28 0.447953 -2.798986 -0.200443 -0.644526 0.033180 0.187002
    29 -0.032909 -1.499736 0.040097 -1.806320 0.021524 -0.038085
    30 -0.027022 -1.127703 -0.020210 -1.241734 0.024341 -0.022567
    31 -0.249534 -2.846964 -0.174213 -0.532657 0.082892 0.106992
    32 0.043235 -1.656596 0.060855 -1.670355 -0.024154 0.011985
    33 0.031729 -1.137392 0.051025 -1.511058 -0.016688 0.008875
    34 -0.963866 -2.785145 -0.085350 -0.515749 0.249320 0.002570
    35 0.028479 -1.406973 -0.024980 -1.149446 -0.033125 -0.037080
    36 0.021413 -0.938249 0.004421 -1.366207 -0.042881 -0.037931
    37 1.164475 -2.543940 -0.170330 -0.386115 -0.158284 0.151095
    38 0.024032 -1.148574 -0.009538 -1.294914 0.023514 0.062776
    39 0.014898 -0.907427 -0.008129 -1.452208 0.027912 0.066479
    40 -0.586770 -1.264477 0.200161 -0.394791 -0.851503 -2.391248
    41 1.561899 0.035243 0.016848 -0.015812 -0.006164 0.783567
    42 1.114041 0.044518 -0.005766 -0.022666 -0.034834 0.844478
    43 -0.139399 -0.111698 0.014397 0.285382 -0.030687 1.580508
    44 -1.909111 8.733705 -0.251152 1.581187 -0.006648 -1.502556
  time 10
    0 -9.449508 14.556964 -14.384022 0.655256 1.456479 -2.237837
    1 10.695637 12.768041 -14.606617 0.359488 -4.662838 0.081321
    2 9.363762 -27.117697 -83.188575 1.570796 0.031711 -3.141626
    3 0.000008 7.805395 -0.000004 0.000000 0.000000 0.000000
    4 -3.326855 -27.354863 -83.361722 1.570796 0.034531 -3.141640
    5 0.000008 8.653165 -0.000004 0.000000 0.000000 0.000000
    6 -0.002752 2.073017 -2.354921 0.000000 0.000000 0.000000
    7 8.688991 4.478028 -3.975665 1.529002 0.512585 -2.082155
    8 3.167395 8.203974 -0.188870 1.567817 3.143102 1.329343
    9 -0.013325 -8.373733 -0.111947 -0.132995 0.282124 -0.640637
    10 -0.488518 -2.755602 -0.228260 -0.285136 -0.110772 -0.076140
    11 0.039887 -1.546198 0.025948 -1.932863 -0.005501 0.042942
    12 0.028786 -1.212454 -0.132487 -1.403837 -0.014106 0.031687
    13 0.250027 -2.820665 -0.238396 -0.392731 -0.140252 -0.033120
    14 -0.049759 -1.598510 0.014539 -1.781252 -0.004866 -0.045867
    15 -0.034142 -1.171750 0.045718 -1.135810 0.006891 -0.029866
    16 0.957766 -2.746780 -0.090302 -0.401913 -0.220762 -0.007230
    17 -0.033420 -1.397129 -0.030789 -1.214983 -0.001690 -0.058234
    18 -0.022360 -0.969155 -0.012467 -1.327548 -0.005872 -0.062128
    19 -1.180681 -2.507217 -0.193859 -0.168820 0.131989 -0.088729
    20 -0.024967 -1.127840 0.017597 -1.419678 -0.006927 -0.058448
    21 -0.020057 -0.902687 0.053060 -1.700088 -0.014477 -0.065124
    22 0.630386 -1.193371 0.185379 0.720505 -1.006041 -0.620461
    23 1.449987 -0.247574 0.079230 0.073725 -0.243119 -0.906161
    24 1.061707 -0.132196 0.028385 0.026746 -0.168638 -0.682153
    25 0.120153 -0.050270 -0.054489 0.287569 3.110905 1.561085
    26 -7.821781 5.628447 -3.985780 1.562183 -0.616608 -4.341908
    27 0.069599 -8.387917 -0.017178 -0.084501 -0.254274 0.363845
    28 0.447953 -2.798986 -0.200443 -0.644526 0.033180 0.187002
    29 -0.032909 -1.499736 0.040097 -1.806320 0.021524 -0.038085
    30 -0.027022 -1.127703 -0.020210 -1.241734 0.024341 -0.022567
    31 -0.249534 -2.846964 -0.174213 -0.532657 0.082892 0.106992
    32 0.043235 -1.656596 0.060855 -1.670355 -0.024154 0.011985
    33 0.031729 -1.137392 0.051025 -1.511058 -0.016688 0.008875
    34 -0.963866 -2.785145 -0.085350 -0.515749 0.249320 0.002570
    35 0.028479 -1.406973 -0.024980 -1.149446 -0.033125 -0.037080
    36 0.021413 -0.938249 0.004421 -1.366207 -0.042881 -0.037931
    37 1.164475 -2.543940 -0.170330 -0.386115 -0.158284 0.151095
    38 0.024032 -1.148574 -0.009538 -1.294914 0.023514 0.062776
    39 0.014898 -0.907427 -0.008129 -1.452208 0.027912 0.066479
    40 -0.586770 -1.264477 0.200161 -0.394791 -0.851503 -2.391248
    41 1.561899 0.035243 0.016848 -0.015812 -0.006164 0.783567
    42 1.114041 0.044518 -0.005766 -0.022666 -0.034834 0.844478
    43 -0.139399 -0.111698 0.014397 0.285382 -0.030687 1.580508
    44 -2.323186 8.628233 -0.262871 1.581379 -0.007986 -1.450991
  time 11
    0 -9.691703 13.830380 -14.911382 0.955242 1.393803 -1.916192
    1 12.012083 11.717227 -14.805841 0.742994 -4.623695 0.332961
    2 9.363762 -27.117697 -83.188575 1.570796 0.031711 -3.141626
    3 0.000008 7.805395 -0.000004 0.000000 0.000000 0.000000
    4 -3.326855 -27.354863 -83.361722 1.570796 0.034531 -3.141640
    5 0.000008 8.653165 -0.000004 0.000000 0.000000 0.000000
    6 -0.002752 2.073017 -2.354921 0.000000 0.000000 0.000000
    7 9.290572 4.052234 -3.948321 1.563500 0.477976 -2.170766
    8 3.495530 8.051625 -0.196683 1.567434 3.143965 1.285000
    9 -0.021138 -8.369826 -0.119759 -0.126091 0.234666 -0.628900
    10 -0.488518 -2.755602 -0.228260 -0.285136 -0.110772 -0.076140
    11 0.039887 -1.546198 0.025948 -1.932863 -0.005501 0.042942
    12 0.028786 -1.212454 -0.132487 -1.403837 -0.014106 0.031687
    13 0.250027 -2.820665 -0.238396 -0.392731 -0.140252 -0.033120
    14 -0.049759 -1.598510 0.014539 -1.781252 -0.004866 -0.045867
    15 -0.034142 -1.171750 0.045718 -1.135810 0.006891 -0.029866
    16 0.957766 -2.746780 -0.090302 -0.401913 -0.220762 -0.007230
    17 -0.033420 -1.397129 -0.030789 -1.214983 -0.001690 -0.058234
    18 -0.022360 -0.969155 -0.012467 -1.327548 -0.005872 -0.062128
    19 -1.180681 -2.507217 -0.193859 -0.168820 0.131989 -0.088729
    20 -0.024967 -1.127840 0.017597 -1.419678 -0.006927 -0.058448
    21 -0.020057 -0.902687 0.053060 -1.700088 -0.014477 -0.065124
    22 0.630386 -1.193371 0.185379 0.720505 -1.006041 -0.620461
    23 1.449987 -0.247574 0.079230 0.073725 -0.243119 -0.906161
    24 1.061707 -0.132196 0.028385 0.026746 -0.168638 -0.682153
    25 0.120153 -0.050270 -0.054489 0.287569 3.110905 1.561085
    26 -7.950691 5.515162 -4.048282 -1.546860 -2.590250 -1.205807
    27 0.073506 -8.387917 -0.021084 -0.078910 -0.241182 0.354508
    28 0.447953 -2.798986 -0.200443 -0.644526 0.033180 0.187002
    29 -0.032909 -1.499736 0.040097 -1.806320 0.021524 -0.038085
    30 -0.027022 -1.127703 -0.020210 -1.241734 0.024341 -0.022567
    31 -0.249534 -2.846964 -0.174213 -0.532657 0.082880 0.106992
    32 0.043235 -1.656596 0.060855 -1.670413 -0.024154 0.011985
    33 0.031729 -1.137392 0.051025 -1.511058 -0.016688 0.008875
    34 -0.963866 -2.785145 -0.085350 -0.515749 0.249320 0.002570
    35 0.028479 -1.406973 -0.024980 -1.149446 -0.033125 -0.037080
    36 0.021413 -0.938249 0.004421 -1.366207 -0.042881 -0.037931
    37 1.164475 -2.543940 -0.170330 -0.386115 -0.158284 0.151095
    38 0.024032 -1.148574 -0.009538 -1.294914 0.023514 0.062776
    39 0.014898 -0.907427 -0.008129 -1.452208 0.027912 0.066479
    40 -0.586770 -1.264477 0.200161 -0.394791 -0.851503 -2.391248
    41 1.561899 0.035243 0.016848 -0.015812 -0.006164 0.783567
    42 1.114041 0.044518 -0.005766 -0.022666 -0.034834 0.844478
    43 -0.139399 -0.111698 0.014397 0.285382 -0.030687 1.580508
    44 -2.776325 8.479791 -0.274590 1.581571 -0.009516 -1.393063
  time 12
    0 -9.894834 12.638937 -15.720001 1.132576 1.287140 -1.714258
    1 13.195713 10.103897 -15.247261 1.064656 -4.558804 0.506813
    2 9.363762 -27.117697 -83.188575 1.570796 0.031711 -3.141626
    3 0.000008 7.805395 -0.000004 0.000000 0.000000 0.000000
    4 -3.326855 -27.354863 -83.361722 1.570796 0.034531 -3.141640
    5 0.000008 8.653165 -0.000004 0.000000 0.000000 0.000000
    6 -0.002752 2.073017 -2.354921 0.000000 0.000000 0.000000
    7 9.860901 3.427215 -4.022542 4.751883 2.722200 0.875024
    8 3.835384 7.879745 -0.204496 1.566954 -3.138312 1.238473
    9 -0.032857 -8.365920 -0.127572 -0.119111 0.186247 -0.610750
    10 -0.488518 -2.755602 -0.228260 -0.285136 -0.110772 -0.076140
    11 0.039887 -1.546198 0.025948 -1.932863 -0.005501 0.042942
    12 0.028786 -1.212454 -0.132487 -1.403837 -0.014106 0.031687
    13 0.250027 -2.820665 -0.238396 -0.392731 -0.140252 -0.033120
    14 -0.049759 -1.598510 0.014539 -1.781252 -0.004866 -0.045867
    15 -0.034142 -1.171750 0.045718 -1.135810 0.006891 -0.029866
    16 0.957766 -2.746780 -0.090302 -0.401913 -0.220762 -0.007230
    17 -0.033420 -1.397129 -0.030789 -1.214983 -0.001690 -0.058234
    18 -0.022360 -0.969155 -0.012467 -1.327548 -0.005872 -0.062128
    19 -1.180681 -2.507217 -0.193859 -0.168820 0.131989 -0.088729
    20 -0.024967 -1.127840 0.017597 -1.419678 -0.006927 -0.058448
    21 -0.020057 -0.902687 0.053060 -1.700088 -0.014477 -0.065124
    22 0.630386 -1.193371 0.185379 0.720505 -1.006041 -0.620461
    23 1.449987 -0.247574 0.079230 0.073725 -0.243119 -0.906161
    24 1.061707 -0.132196 0.028385 0.026746 -0.168638 -0.682153
    25 0.120153 -0.050270 -0.054489 0.287569 3.110905 1.561085
    26 -8.071788 5.272967 -4.231881 -1.508365 -2.688019 -1.208583
    27 0.077412 -8.391823 -0.021084 -0.073232 -0.228309 0.339913
    28 0.447953 -2.798986 -0.200443 -0.644526 0.033180 0.187002
    29 -0.032909 -1.499736 0.040097 -1.806320 0.021524 -0.038085
    30 -0.027022 -1.127703 -0.020210 -1.241734 0.024341 -0.022567
    31 -0.249534 -2.846964 -0.174213 -0.532657 0.082892 0.106992
    32 0.043235 -1.656596 0.060855 -1.670355 -0.024154 0.011985
    33 0.031729 -1.137392 0.051025 -1.511058 -0.016688 0.008875
    34 -0.963866 -2.785145 -0.085350 -0.515749 0.249320 0.002570
    35 0.028479 -1.406973 -0.024980 -1.149446 -0.033125 -0.037080
    36 0.021413 -0.938249 0.004421 -1.366207 -0.042881 -0.037931
    37 1.164475 -2.543940 -0.170330 -0.386115 -0.158284 0.151095
    38 0.024032 -1.148574 -0.009538 -1.294914 0.023514 0.062776
    39 0.014898 -0.907427 -0.008129 -1.452208 0.027912 0.066479
    40 -0.586770 -1.264477 0.200161 -0.394791 -0.851503 -2.391248
    41 1.561899 0.035243 0.016848 -0.015812 -0.006164 0.783567
    42 1.114041 0.044518 -0.005766 -0.022666 -0.034834 0.844478
    43 -0.139399 -0.111698 0.014397 0.285382 -0.030687 1.580508
    44 -3.264621 8.288379 -0.290216 1.581667 -0.011236 -1.329437
  time 13
    0 -10.039370 11.013888 -16.622372 1.219187 1.147001 -1.599126
    1 14.109804 8.002270 -15.798059 1.287044 -4.472062 0.567762
    2 9.363762 -27.117697 -83.188575 1.570796 0.031711 -3.141626
    3 0.000008 7.805395 -0.000004 0.000000 0.000000 0.000000
    4 -3.326855 -27.354863 -83.361722 1.570796 0.034531 -3.141640
    5 0.000008 8.653165 -0.000004 0.000000 0.000000 0.000000
    6 -0.002752 2.073017 -2.354921 0.000000 0.000000 0.000000
    7 10.360917 2.626409 -4.155358 4.810912 2.798033 0.773225
    8 4.171331 7.684427 -0.212309 1.566571 -3.137353 1.190902
    9 -0.040670 -8.365920 -0.135385 -0.112832 0.137609 -0.587369
    10 -0.488518 -2.755602 -0.228260 -0.285136 -0.110772 -0.076140
    11 0.039887 -1.546198 0.025948 -1.932863 -0.005501 0.042942
    12 0.028786 -1.212454 -0.132487 -1.403837 -0.014106 0.031687
    13 0.250027 -2.820665 -0.238396 -0.392731 -0.140252 -0.033120
    14 -0.049759 -1.598510 0.014539 -1.781252 -0.004866 -0.045867
    15 -0.034142 -1.171750 0.045718 -1.135810 0.006891 -0.029866
    16 0.957766 -2.746780 -0.090302 -0.401913 -0.220762 -0.007230
    17 -0.033420 -1.397129 -0.030789 -1.214983 -0.001690 -0.058234
    18 -0.022360 -0.969155 -0.012467 -1.327548 -0.005872 -0.062128
    19 -1.180681 -2.507217 -0.193859 -0.168820 0.131989 -0.088729
    20 -0.024967 -1.127840 0.017597 -1.419678 -0.006927 -0.058448
    21 -0.020057 -0.902687 0.053060 -1.700088 -0.014477 -0.065124
    22 0.630386 -1.193371 0.185379 0.720505 -1.006041 -0.620461
    23 1.449987 -0.247574 0.079230 0.073725 -0.243119 -0.906161
    24 1.061707 -0.132196 0.028385 0.026746 -0.168638 -0.682153
    25 0.120153 -0.050270 -0.054489 0.287569 3.110905 1.561085
    26 -8.185073 4.921394 -4.497514 -1.466377 -2.810924 -1.205424
    27 0.085225 -8.391823 -0.024990 -0.067699 -0.215564 0.321289
    28 0.447953 -2.798986 -0.200443 -0.644526 0.033180 0.187002
    29 -0.032909 -1.499736 0.040097 -1.806320 0.021524 -0.038085
    30 -0.027022 -1.127703 -0.020210 -1.241734 0.024341 -0.022567
    31 -0.249534 -2.846964 -0.174213 -0.532657 0.082892 0.106992
    32 0.043235 -1.656596 0.060855 -1.670355 -0.024154 0.011985
    33 0.031729 -1.137392 0.051025 -1.511058 -0.016688 0.008875
    34 -0.963866 -2.785145 -0.085350 -0.515749 0.249320 0.002570
    35 0.028479 -1.406973 -0.024980 -1.149446 -0.033125 -0.037080
    36 0.021413 -0.938249 0.004421 -1.366207 -0.042881 -0.037931
    37 1.164475 -2.543940 -0.170330 -0.386115 -0.158284 0.151095
    38 0.024032 -1.148574 -0.009538 -1.294914 0.023514 0.062776
    39 0.014898 -0.907427 -0.008129 -1.452208 0.027912 0.066479
    40 -0.586770 -1.264477 0.200161 -0.394791 -0.851503 -2.391248
    41 1.561899 0.035243 0.016848 -0.015812 -0.006164 0.783567
    42 1.114041 0.044518 -0.005766 -0.022666 -0.034834 0.844478
    43 -0.139399 -0.111698 0.014397 0.285382 -0.030687 1.580508
    44 -3.772449 8.046184 -0.305841 1.581667 -0.013053 -1.261253
  time 14
    0 -10.117497 9.025546 -17.434897 1.258765 0.984264 -1.525774
    1 14.656695 5.533445 -16.309794 1.455725 -4.371638 0.563934
    2 9.363762 -27.117697 -83.188575 1.570796 0.031711 -3.141626
    3 0.000008 7.805395 -0.000004 0.000000 0.000000 0.000000
    4 -3.326855 -27.354863 -83.361722 1.570796 0.034531 -3.141640
    5 0.000008 8.653165 -0.000004 0.000000 0.000000 0.000000
    6 -0.002752 2.073017 -2.354921 0.000000 0.000000 0.000000
    7 10.747647 1.681068 -4.303800 4.881250 2.883357 0.666304
    8 4.495560 7.473483 -0.220121 1.566187 -3.136394 1.143236
    9 -0.052389 -8.365920 -0.143198 -0.107928 0.089408 -0.559816
    10 -0.488518 -2.755602 -0.228260 -0.285136 -0.110772 -0.076140
    11 0.039887 -1.546198 0.025948 -1.932863 -0.005501 0.042942
    12 0.028786 -1.212454 -0.132487 -1.403837 -0.014106 0.031687
    13 0.250027 -2.820665 -0.238396 -0.392731 -0.140252 -0.033120
    14 -0.049759 -1.598510 0.014539 -1.781252 -0.004866 -0.045867
    15 -0.034142 -1.171750 0.045718 -1.135810 0.006891 -0.029866
    16 0.957766 -2.746780 -0.090302 -0.401913 -0.220762 -0.007230
    17 -0.033420 -1.397129 -0.030789 -1.214983 -0.001690 -0.058234
    18 -0.022360 -0.969155 -0.012467 -1.327548 -0.005872 -0.062128
    19 -1.180681 -2.507217 -0.193859 -0.168820 0.131989 -0.088729
    20 -0.024967 -1.127840 0.017597 -1.419678 -0.006927 -0.058448
    21 -0.020057 -0.902687 0.053060 -1.700088 -0.014477 -0.065124
    22 0.630386 -1.193371 0.185379 0.720505 -1.006041 -0.620461
    23 1.449987 -0.247574 0.079230 0.073725 -0.243119 -0.906161
    24 1.061707 -0.132196 0.028385 0.026746 -0.168638 -0.682153
    25 0.120153 -0.050270 -0.054489 0.287569 3.110905 1.561085
    26 -8.290545 4.479974 -4.786586 -1.421750 -2.951318 -1.194318
    27 0.089131 -8.395729 -0.024990 -0.062572 -0.202660 0.299667
    28 0.447953 -2.798986 -0.200443 -0.644526 0.033180 0.187002
    29 -0.032909 -1.499736 0.040097 -1.806320 0.021524 -0.038085
    30 -0.027022 -1.127703 -0.020210 -1.241734 0.024341 -0.022567
    31 -0.249534 -2.846964 -0.174213 -0.532657 0.082892 0.106992
    32 0.043235 -1.656596 0.060855 -1.670355 -0.024154 0.011985
    33 0.031729 -1.137392 0.051025 -1.511058 -0.016688 0.008875
    34 -0.963866 -2.785145 -0.085350 -0.515749 0.249320 0.002570
    35 0.028479 -1.406973 -0.024980 -1.149446 -0.033125 -0.037080
    36 0.021413 -0.938249 0.004421 -1.366207 -0.042881 -0.037931
    37 1.164475 -2.543940 -0.170330 -0.386115 -0.158284 0.151095
    38 0.024032 -1.148574 -0.009538 -1.294914 0.023514 0.062776
    39 0.014898 -0.907427 -0.008129 -1.452208 0.027912 0.066479
    40 -0.586770 -1.264477 0.200161 -0.394791 -0.851503 -2.391248
    41 1.561899 0.035243 0.016848 -0.015812 -0.006164 0.783567
    42 1.114041 0.044518 -0.005766 -0.022666 -0.034834 0.844478
    43 -0.139399 -0.111698 0.014397 0.285382 -0.030687 1.580508
    44 -4.288090 7.757113 -0.321467 1.581571 -0.014965 -1.189365
  time 15
    0 -10.129216 6.791102 -18.005226 1.272818 0.808415 -1.471785
    1 14.781699 2.853675 -16.657460 -1.543968 1.124587 -2.616107
    2 9.363762 -27.117697 -83.188575 1.570796 0.031711 -3.141626
    3 0.000008 7.805395 -0.000004 0.000000 0.000000 0.000000
    4 -3.326855 -27.354863 -83.361722 1.570796 0.034531 -3.141640
    5 0.000008 8.653165 -0.000004 0.000000 0.000000 0.000000
    6 -0.002752 2.073017 -2.354921 0.000000 0.000000 0.000000
    7 11.001561 0.653693 -4.417085 4.961650 2.970695 0.555113
    8 4.808070 7.254726 -0.227934 1.565900 -3.135436 1.096424
    9 -0.064108 -8.365920 -0.151010 -0.104851 0.042476 -0.529057
    10 -0.488518 -2.755602 -0.228260 -0.285136 -0.110772 -0.076140
    11 0.039887 -1.546198 0.025948 -1.932863 -0.005501 0.042942
    12 0.028786 -1.212454 -0.132487 -1.403837 -0.014106 0.031687
    13 0.250027 -2.820665 -0.238396 -0.392731 -0.140252 -0.033120
    14 -0.049759 -1.598510 0.014539 -1.781252 -0.004866 -0.045867
    15 -0.034142 -1.171750 0.045718 -1.135810 0.006891 -0.029866
    16 0.957766 -2.746780 -0.090302 -0.401913 -0.220762 -0.007230
    17 -0.033420 -1.397129 -0.030789 -1.214983 -0.001690 -0.058234
    18 -0.022360 -0.969155 -0.012467 -1.327548 -0.005872 -0.062128
    19 -1.180681 -2.507217 -0.193859 -0.168820 0.131989 -0.088729
    20 -0.024967 -1.127840 0.017597 -1.419678 -0.006927 -0.058448
    21 -0.020057 -0.902687 0.053060 -1.700088 -0.014477 -0.065124
    22 0.630386 -1.193371 0.185379 0.720505 -1.006041 -0.620461
    23 1.449987 -0.247574 0.079230 0.073725 -0.243119 -0.906161
    24 1.061707 -0.132196 0.028385 0.026746 -0.168638 -0.682153
    25 0.120153 -0.050270 -0.054489 0.287569 3.110905 1.561085
    26 -8.388204 3.972146 -5.060031 -1.373941 -3.101365 -1.174308
    27 0.093038 -8.399636 -0.028897 -0.058110 -0.189567 0.276227
    28 0.447953 -2.798986 -0.200443 -0.644526 0.033180 0.187002
    29 -0.032909 -1.499736 0.040097 -1.806320 0.021524 -0.038085
    30 -0.027022 -1.127703 -0.020210 -1.241734 0.024341 -0.022567
    31 -0.249534 -2.846964 -0.174213 -0.532657 0.082892 0.106992
    32 0.043235 -1.656596 0.060855 -1.670355 -0.024154 0.011985
    33 0.031729 -1.137392 0.051025 -1.511058 -0.016688 0.008875
    34 -0.963866 -2.785145 -0.085350 -0.515749 0.249320 0.002570
    35 0.028479 -1.406973 -0.024980 -1.149446 -0.033125 -0.037080
    36 0.021413 -0.938249 0.004421 -1.366207 -0.042881 -0.037931
    37 1.164475 -2.543940 -0.170330 -0.386115 -0.158284 0.151095
    38 0.024032 -1.148574 -0.009538 -1.294914 0.023514 0.062776
    39 0.014898 -0.907427 -0.008129 -1.452208 0.027912 0.066479
    40 -0.586770 -1.264477 0.200161 -0.394791 -0.851503 -2.391248
    41 1.561899 0.035243 0.016848 -0.015812 -0.006164 0.783567
    42 1.114041 0.044518 -0.005766 -0.022666 -0.034834 0.844478
    43 -0.139399 -0.111698 0.014397 0.285382 -0.030687 1.580508
    44 -4.799824 7.417259 -0.337092 1.581283 -0.016972 -1.114533
  time 16
    0 -10.070621 4.462906 -18.243515 1.270810 0.628847 -1.426571
    1 14.508253 0.150468 -16.766839 -1.416739 1.021978 -2.673229
    2 9.363762 -27.117697 -83.188575 1.570796 0.031711 -3.141626
    3 0.000008 7.805395 -0.000004 0.000000 0.000000 0.000000
    4 -3.326855 -27.354863 -83.361722 1.570796 0.034531 -3.141640
    5 0.000008 8.653165 -0.000004 0.000000 0.000000 0.000000
    6 -0.002752 2.073017 -2.354921 0.000000 0.000000 0.000000
    7 11.122659 -0.404933 -4.471774 5.050194 3.053143 0.441740
    8 5.097141 7.028157 -0.235747 1.565612 -3.134477 1.051512
    9 -0.071921 -8.365920 -0.158823 -0.104000 -0.002445 -0.495994
    10 -0.488518 -2.755602 -0.228260 -0.285136 -0.110772 -0.076140
    11 0.039887 -1.546198 0.025948 -1.932863 -0.005501 0.042942
    12 0.028786 -1.212454 -0.132487 -1.403837 -0.014106 0.031687
    13 0.250027 -2.820665 -0.238396 -0.392731 -0.140252 -0.033120
    14 -0.049759 -1.598510 0.014539 -1.781252 -0.004866 -0.045867
    15 -0.034142 -1.171750 0.045718 -1.135810 0.006891 -0.029866
    16 0.957766 -2.746780 -0.090302 -0.401913 -0.220762 -0.007230
    17 -0.033420 -1.397129 -0.030789 -1.214983 -0.001690 -0.058234
    18 -0.022360 -0.969155 -0.012467 -1.327548 -0.005872 -0.062128
    19 -1.180681 -2.507217 -0.193859 -0.168820 0.131989 -0.088729
    20 -0.024967 -1.127840 0.017597 -1.419678 -0.006927 -0.058448
    21 -0.020057 -0.902687 0.053060 -1.700088 -0.014477 -0.065124
    22 0.630386 -1.193371 0.185379 0.720505 -1.006041 -0.620461
    23 1.449987 -0.247574 0.079230 0.073725 -0.243119 -0.906161
    24 1.061707 -0.132196 0.028385 0.026746 -0.168638 -0.682153
    25 0.120153 -0.050270 -0.054489 0.287569 3.110905 1.561085
    26 -8.470238 3.429161 -5.282694 -1.321786 -3.253132 -1.144819
    27 0.096944 -8.403542 -0.028897 -0.054489 -0.176064 0.252099
    28 0.447953 -2.798986 -0.200443 -0.644526 0.033180 0.187002
    29 -0.032909 -1.499736 0.040097 -1.806320 0.021524 -0.038085
    30 -0.027022 -1.127703 -0.020210 -1.241734 0.024341 -0.022567
    31 -0.249534 -2.846964 -0.174213 -0.532657 0.082892 0.106992
    32 0.043235 -1.656596 0.060855 -1.670413 -0.024154 0.011985
    33 0.031729 -1.137392 0.051025 -1.511058 -0.016688 0.008875
    34 -0.963866 -2.785145 -0.085350 -0.515749 0.249320 0.002570
    35 0.028479 -1.406973 -0.024980 -1.149446 -0.033125 -0.037080
    36 0.021413 -0.938249 0.004421 -1.366207 -0.042881 -0.037931
    37 1.164475 -2.543940 -0.170330 -0.386115 -0.158284 0.151095
    38 0.024032 -1.148574 -0.009538 -1.294914 0.023514 0.062776
    39 0.014898 -0.907427 -0.008129 -1.452208 0.027912 0.066479
    40 -0.586770 -1.264477 0.200161 -0.394791 -0.851503 -2.391248
    41 1.561899 0.035243 0.016848 -0.015812 -0.006164 0.783567
    42 1.114041 0.044518 -0.005766 -0.022666 -0.034834 0.844478
    43 -0.139399 -0.111698 0.014397 0.285382 -0.030687 1.580508
    44 -5.299839 7.030528 -0.352718 1.580804 -0.018979 -1.037802
  time 17
    0 -9.965149 2.212838 -18.126324 1.257331 0.454579 -1.385078
    1 13.914485 -2.388672 -16.606678 -1.299849 0.928680 -2.738865
    2 9.363762 -27.117697 -83.188575 1.570796 0.031711 -3.141626
    3 0.000008 7.805395 -0.000004 0.000000 0.000000 0.000000
    4 -3.326855 -27.354863 -83.361722 1.570796 0.034531 -3.141640
    5 0.000008 8.653165 -0.000004 0.000000 0.000000 0.000000
    6 -0.002752 2.073017 -2.354921 0.000000 0.000000 0.000000
    7 11.122659 -1.424496 -4.444430 5.143531 3.124854 0.329981
    8 5.354961 6.805494 -0.243559 1.565420 -3.133614 1.009638
    9 -0.079734 -8.369826 -0.166636 -0.105526 -0.044478 -0.461560
    10 -0.488518 -2.755602 -0.228260 -0.285136 -0.110772 -0.076140
    11 0.039887 -1.546198 0.025948 -1.932863 -0.005501 0.042942
    12 0.028786 -1.212454 -0.132487 -1.403837 -0.014106 0.031687
    13 0.250027 -2.820665 -0.238396 -0.392731 -0.140252 -0.033120
    14 -0.049759 -1.598510 0.014539 -1.781252 -0.004866 -0.045867
    15 -0.034142 -1.171750 0.045718 -1.135810 0.006891 -0.029866
    16 0.957766 -2.746780 -0.090302 -0.401913 -0.220762 -0.007230
    17 -0.033420 -1.397129 -0.030789 -1.214983 -0.001690 -0.058234
    18 -0.022360 -0.969155 -0.012467 -1.327548 -0.005872 -0.062128
    19 -1.180681 -2.507217 -0.193859 -0.168820 0.131989 -0.088729
    20 -0.024967 -1.127840 0.017597 -1.419678 -0.006927 -0.058448
    21 -0.020057 -0.902687 0.053060 -1.700088 -0.014477 -0.065124
    22 0.630386 -1.193371 0.185379 0.720505 -1.006041 -0.620461
    23 1.449987 -0.247574 0.079230 0.073725 -0.243119 -0.906161
    24 1.061707 -0.132196 0.028385 0.026746 -0.168638 -0.682153
    25 0.120153 -0.050270 -0.054489 0.287569 3.110905 1.561085
    26 -8.544459 2.905707 -5.438949 -1.264431 -3.398878 -1.105757
    27 0.100850 -8.407448 -0.032803 -0.051882 -0.162119 0.228314
    28 0.447953 -2.798986 -0.200443 -0.644526 0.033180 0.187002
    29 -0.032909 -1.499736 0.040097 -1.806320 0.021524 -0.038085
    30 -0.027022 -1.127703 -0.020210 -1.241734 0.024341 -0.022567
    31 -0.249534 -2.846964 -0.174213 -0.532657 0.082892 0.106992
    32 0.043235 -1.656596 0.060855 -1.670355 -0.024154 0.011985
    33 0.031729 -1.137392 0.051025 -1.511058 -0.016688 0.008875
    34 -0.963866 -2.785145 -0.085350 -0.515749 0.249320 0.002570
    35 0.028479 -1.406973 -0.024980 -1.149446 -0.033125 -0.037080
    36 0.021413 -0.938249 0.004421 -1.366207 -0.042881 -0.037931
    37 1.164475 -2.543940 -0.170330 -0.386115 -0.158284 0.151095
    38 0.024032 -1.148574 -0.009538 -1.294914 0.023514 0.062776
    39 0.014898 -0.907427 -0.008129 -1.452208 0.027912 0.066479
    40 -0.586770 -1.264477 0.200161 -0.394791 -0.851503 -2.391248
    41 1.561899 0.035243 0.016848 -0.015812 -0.006164 0.783567
    42 1.114041 0.044518 -0.005766 -0.022666 -0.034834 0.844478
    43 -0.139399 -0.111698 0.014397 0.285382 -0.030687 1.580508
    44 -5.776416 6.600828 -0.368343 1.580325 -0.020987 -0.960027
  time 18
    0 -9.836239 0.208870 -17.712249 1.235248 0.294539 -1.345015
    1 13.141024 -4.619209 -16.212134 -1.193873 0.849633 -2.805268
    2 9.363762 -27.117697 -83.188575 1.570796 0.031711 -3.141626
    3 0.000008 7.805395 -0.000004 0.000000 0.000000 0.000000
    4 -3.326855 -27.354863 -83.361722 1.570796 0.034531 -3.141640
    5 0.000008 8.653165 -0.000004 0.000000 0.000000 0.000000
    6 -0.002752 2.073017 -2.354921 0.000000 0.000000 0.000000
    7 11.040625 -2.346399 -4.346771 5.236867 -3.101430 0.225431
    8 5.581531 6.598456 -0.251372 1.565324 -3.132751 0.971562
    9 -0.091453 -8.369826 -0.174449 -0.109529 -0.082794 -0.426692
    10 -0.488518 -2.755602 -0.228260 -0.285136 -0.110772 -0.076140
    11 0.039887 -1.546198 0.025948 -1.932863 -0.005501 0.042942
    12 0.028786 -1.212454 -0.132487 -1.403837 -0.014106 0.031687
    13 0.250027 -2.820665 -0.238396 -0.392731 -0.140252 -0.033120
    14 -0.049759 -1.598510 0.014539 -1.781252 -0.004866 -0.045867
    15 -0.034142 -1.171750 0.045718 -1.135810 0.006891 -0.029866
    16 0.957766 -2.746780 -0.090302 -0.401913 -0.220762 -0.007230
    17 -0.033420 -1.397129 -0.030789 -1.214983 -0.001690 -0.058234
    18 -0.022360 -0.969155 -0.012467 -1.327548 -0.005872 -0.062128
    19 -1.180681 -2.507217 -0.193859 -0.168820 0.131989 -0.088729
    20 -0.024967 -1.127840 0.017597 -1.419678 -0.006927 -0.058448
    21 -0.020057 -0.902687 0.053060 -1.700088 -0.014477 -0.065124
    22 0.630386 -1.193371 0.185379 0.720505 -1.006041 -0.620461
    23 1.449987 -0.247574 0.079230 0.073725 -0.243119 -0.906161
    24 1.061707 -0.132196 0.028385 0.026746 -0.168638 -0.682153
    25 0.120153 -0.050270 -0.054489 0.287569 3.110905 1.561085
    26 -8.614774 2.440849 -5.517077 -1.201799 -3.530957 -1.058078
    27 0.104757 -8.411355 -0.036710 -0.050433 -0.147575 0.206103
    28 0.447953 -2.798986 -0.200443 -0.644526 0.033180 0.187002
    29 -0.032909 -1.499736 0.040097 -1.806320 0.021524 -0.038085
    30 -0.027022 -1.127703 -0.020210 -1.241734 0.024341 -0.022567
    31 -0.249534 -2.846964 -0.174213 -0.532657 0.082892 0.106992
    32 0.043235 -1.656596 0.060855 -1.670355 -0.024154 0.011985
    33 0.031729 -1.137392 0.051025 -1.511058 -0.016688 0.008875
    34 -0.963866 -2.785145 -0.085350 -0.515749 0.249320 0.002570
    35 0.028479 -1.406973 -0.024980 -1.149446 -0.033125 -0.037080
    36 0.021413 -0.938249 0.004421 -1.366207 -0.042881 -0.037931
    37 1.164475 -2.543940 -0.170330 -0.386115 -0.158284 0.151095
    38 0.024032 -1.148574 -0.009538 -1.294914 0.023514 0.062776
    39 0.014898 -0.907427 -0.008129 -1.452208 0.027912 0.066479
    40 -0.586770 -1.264477 0.200161 -0.394791 -0.851503 -2.391248
    41 1.561899 0.035243 0.016848 -0.015812 -0.006164 0.783567
    42 1.114041 0.044518 -0.005766 -0.022666 -0.034834 0.844478
    43 -0.139399 -0.111698 0.014397 0.285382 -0.030687 1.580508
    44 -6.213930 6.132063 -0.380062 1.579558 -0.022899 -0.882156
  time 19
    0 -9.715141 -1.408367 -17.106762 1.207142 0.157282 -1.305907
    1 12.351937 -6.435670 -15.673055 -1.101874 0.788068 -2.866025
    2 9.363762 -27.117697 -83.188575 1.570796 0.031711 -3.141626
    3 0.000008 7.805395 -0.000004 0.000000 0.000000 0.000000
    4 -3.326855 -27.354863 -83.361722 1.570796 0.034531 -3.141640
    5 0.000008 8.653165 -0.000004 0.000000 0.000000 0.000000
    6 -0.002752 2.073017 -2.354921 0.000000 0.000000 0.000000
    7 10.927340 -3.123766 -4.190516 5.323783 -3.061261 0.135397
    8 5.772943 6.407044 -0.255279 1.565229 -3.132080 0.938518
    9 -0.099266 -8.373733 -0.182261 -0.115909 -0.116517 -0.392383
    10 -0.488518 -2.755602 -0.228260 -0.285136 -0.110772 -0.076140
    11 0.039887 -1.546198 0.025948 -1.932863 -0.005501 0.042942
    12 0.028786 -1.212454 -0.132487 -1.403837 -0.014106 0.031687
    13 0.250027 -2.820665 -0.238396 -0.392731 -0.140252 -0.033120
    14 -0.049759 -1.598510 0.014539 -1.781252 -0.004866 -0.045867
    15 -0.034142 -1.171750 0.045718 -1.135810 0.006891 -0.029866
    16 0.957766 -2.746780 -0.090302 -0.401913 -0.220762 -0.007230
    17 -0.033420 -1.397129 -0.030789 -1.214983 -0.001690 -0.058234
    18 -0.022360 -0.969155 -0.012467 -1.327548 -0.005872 -0.062128
    19 -1.180681 -2.507217 -0.193859 -0.168820 0.131989 -0.088729
    20 -0.024967 -1.127840 0.017597 -1.419678 -0.006927 -0.058448
    21 -0.020057 -0.902687 0.053060 -1.700088 -0.014477 -0.065124
    22 0.630386 -1.193371 0.185379 0.720505 -1.006041 -0.620461
    23 1.449987 -0.247574 0.079230 0.073725 -0.243119 -0.906161
    24 1.061707 -0.132196 0.028385 0.026746 -0.168638 -0.682153
    25 0.120153 -0.050270 -0.054489 0.287569 3.110905 1.561085
    26 -8.681182 2.085370 -5.532702 -1.136062 -3.642107 -1.004846
    27 0.108663 -8.415261 -0.036710 -0.050289 -0.132400 0.186446
    28 0.447953 -2.798986 -0.200443 -0.644526 0.033180 0.187002
    29 -0.032909 -1.499736 0.040097 -1.806320 0.021524 -0.038085
    30 -0.027022 -1.127703 -0.020210 -1.241734 0.024341 -0.022567
    31 -0.249534 -2.846964 -0.174213 -0.532657 0.082892 0.106992
    32 0.043235 -1.656596 0.060855 -1.670413 -0.024154 0.011985
    33 0.031729 -1.137392 0.051025 -1.511058 -0.016688 0.008875
    34 -0.963866 -2.785145 -0.085350 -0.515749 0.249320 0.002570
    35 0.028479 -1.406973 -0.024980 -1.149446 -0.033125 -0.037080
    36 0.021413 -0.938249 0.004421 -1.366207 -0.042881 -0.037943
    37 1.164475 -2.543940 -0.170330 -0.386115 -0.158284 0.151095
    38 0.024032 -1.148574 -0.009538 -1.294914 0.023514 0.062776
    39 0.014898 -0.907427 -0.008129 -1.452208 0.027912 0.066479
    40 -0.586770 -1.264477 0.200161 -0.394791 -0.851503 -2.391248
    41 1.561899 0.035243 0.016848 -0.015812 -0.006164 0.783567
    42 1.114041 0.044518 -0.005766 -0.022666 -0.034834 0.844478
    43 -0.139399 -0.111698 0.014397 0.285382 -0.030687 1.580508
    44 -6.612379 5.635954 -0.395688 1.578695 -0.024715 -0.804951
  time 20
    0 -9.523729 -2.877161 -16.188765 1.185441 0.001427 -1.263650
    1 11.562851 -8.131035 -14.973815 -0.995897 0.687074 -2.858658
    2 9.363762 -27.117697 -83.188575 1.570796 0.031711 -3.141626
    3 0.000008 7.805395 -0.000004 0.000000 0.000000 0.000000
    4 -3.326855 -27.354863 -83.361722 1.570796 0.034531 -3.141640
    5 0.000008 8.653165 -0.000004 0.000000 0.000000 0.000000
    6 -0.002752 2.073017 -2.354921 0.000000 0.000000 0.000000
    7 10.759366 -3.756598 -4.081137 5.432739 -3.003068 0.101812
    8 5.862789 6.313291 -0.259185 1.565133 -3.131793 0.922566
    9 -0.107078 -8.381545 -0.186168 -0.129018 -0.136462 -0.343037
    10 -0.488518 -2.755602 -0.228260 -0.285136 -0.110772 -0.076140
    11 0.039887 -1.546198 0.025948 -1.932863 -0.005501 0.042942
    12 0.028786 -1.212454 -0.132487 -1.403837 -0.014106 0.031687
    13 0.250027 -2.820665 -0.238396 -0.392731 -0.140252 -0.033120
    14 -0.049759 -1.598510 0.014539 -1.781252 -0.004866 -0.045867
    15 -0.034142 -1.171750 0.045718 -1.135810 0.006891 -0.029866
    16 0.957766 -2.746780 -0.090302 -0.401913 -0.220762 -0.007230
    17 -0.033420 -1.397129 -0.030789 -1.214983 -0.001690 -0.058234
    18 -0.022360 -0.969155 -0.012467 -1.327548 -0.005872 -0.062128
    19 -1.180681 -2.507217 -0.193859 -0.168820 0.131989 -0.088729
    20 -0.024967 -1.127840 0.017597 -1.419678 -0.006927 -0.058448
    21 -0.020057 -0.902687 0.053060 -1.700088 -0.014477 -0.065124
    22 0.630386 -1.193371 0.185379 0.720505 -1.006041 -0.620461
    23 1.449987 -0.247574 0.079230 0.073725 -0.243119 -0.906161
    24 1.061707 -0.132196 0.028385 0.026746 -0.168638 -0.682153
    25 0.120153 -0.050270 -0.054489 0.287569 3.110905 1.561085
    26 -8.661650 1.905677 -5.509264 -1.058761 -3.772753 -0.967794
    27 0.116476 -8.415261 -0.048429 -0.069524 -0.097159 0.159124
    28 0.447953 -2.798986 -0.200443 -0.644526 0.033180 0.187002
    29 -0.032909 -1.499736 0.040097 -1.806320 0.021524 -0.038085
    30 -0.027022 -1.127703 -0.020210 -1.241734 0.024341 -0.022567
    31 -0.249534 -2.846964 -0.174213 -0.532657 0.082892 0.106992
    32 0.043235 -1.656596 0.060855 -1.670413 -0.024154 0.011985
    33 0.031729 -1.137392 0.051025 -1.511058 -0.016688 0.008875
    34 -0.963866 -2.785145 -0.085350 -0.515749 0.249320 0.002570
    35 0.028479 -1.406973 -0.024980 -1.149446 -0.033125 -0.037080
    36 0.021413 -0.938249 0.004421 -1.366207 -0.042881 -0.037931
    37 1.164475 -2.543940 -0.170330 -0.386115 -0.158284 0.151095
    38 0.024032 -1.148574 -0.009538 -1.294914 0.023514 0.062776
    39 0.014898 -0.907427 -0.008129 -1.452208 0.027912 0.066479
    40 -0.586770 -1.264477 0.200161 -0.394791 -0.851503 -2.391248
    41 1.561899 0.035243 0.016848 -0.015812 -0.006164 0.783567
    42 1.114041 0.044518 -0.005766 -0.022666 -0.034834 0.844478
    43 -0.139399 -0.111698 0.014397 0.285382 -0.030687 1.580508
    44 -7.128020 4.854681 -0.415220 1.577065 -0.027296 -0.690994
  time 21
    0 -9.402632 -4.193608 -14.938727 1.162976 -0.185209 -1.256306
    1 10.875330 -9.912339 -13.934721 -0.879007 0.509219 -2.784792
    2 9.363762 -27.117697 -83.188575 1.570796 0.031711 -3.141626
    3 0.000008 7.805395 -0.000004 0.000000 0.000000 0.000000
    4 -3.326855 -27.354863 -83.361722 1.570796 0.034531 -3.141640
    5 0.000008 8.653165 -0.000004 0.000000 0.000000 0.000000
    6 -0.002752 2.073017 -2.354921 0.000000 0.000000 0.000000
    7 10.536703 -4.303490 -4.014729 5.576960 -2.901158 0.128471
    8 5.835445 6.340636 -0.259185 1.565133 -3.131889 0.927504
    9 -0.114891 -8.389358 -0.190074 -0.149782 -0.135544 -0.272708
    10 -0.488518 -2.755602 -0.228260 -0.285136 -0.110772 -0.076140
    11 0.039887 -1.546198 0.025948 -1.932863 -0.005501 0.042942
    12 0.028786 -1.212454 -0.132487 -1.403837 -0.014106 0.031687
    13 0.250027 -2.820665 -0.238396 -0.392731 -0.140252 -0.033120
    14 -0.049759 -1.598510 0.014539 -1.781252 -0.004866 -0.045867
    15 -0.034142 -1.171750 0.045718 -1.135810 0.006891 -0.029866
    16 0.957766 -2.746780 -0.090302 -0.401913 -0.220762 -0.007230
    17 -0.033420 -1.397129 -0.030789 -1.214983 -0.001690 -0.058234
    18 -0.022360 -0.969155 -0.012467 -1.327548 -0.005872 -0.062128
    19 -1.180681 -2.507217 -0.193859 -0.168820 0.131989 -0.088729
    20 -0.024967 -1.127840 0.017597 -1.419678 -0.006927 -0.058448
    21 -0.020057 -0.902687 0.053060 -1.700088 -0.014477 -0.065124
    22 0.630386 -1.193371 0.185379 0.720505 -1.006041 -0.620461
    23 1.449987 -0.247574 0.079230 0.073725 -0.243119 -0.906161
    24 1.061707 -0.132196 0.028385 0.026746 -0.168638 -0.682153
    25 0.120153 -0.050270 -0.054489 0.287569 3.110905 1.561085
    26 -8.556178 1.854894 -5.470200 -0.960427 -3.916301 -0.933997
    27 0.120382 -8.419168 -0.052335 -0.088499 -0.084666 0.122219
    28 0.447953 -2.798986 -0.200443 -0.644526 0.033180 0.187002
    29 -0.032909 -1.499736 0.040097 -1.806320 0.021524 -0.038085
    30 -0.027022 -1.127703 -0.020210 -1.241734 0.024341 -0.022567
    31 -0.249534 -2.846964 -0.174213 -0.532657 0.082880 0.106992
    32 0.043235 -1.656596 0.060855 -1.670355 -0.024154 0.011985
    33 0.031729 -1.137392 0.051025 -1.511058 -0.016688 0.008875
    34 -0.963866 -2.785145 -0.085350 -0.515749 0.249320 0.002570
    35 0.028479 -1.406973 -0.024980 -1.149446 -0.033125 -0.037080
    36 0.021413 -0.938249 0.004421 -1.366207 -0.042881 -0.037931
    37 1.164475 -2.543940 -0.170330 -0.386115 -0.158284 0.151095
    38 0.024032 -1.148574 -0.009538 -1.294914 0.023514 0.062776
    39 0.014898 -0.907427 -0.008129 -1.452208 0.027912 0.066479
    40 -0.586770 -1.264477 0.200161 -0.394791 -0.851503 -2.391248
    41 1.561899 0.035243 0.016848 -0.015812 -0.006164 0.783567
    42 1.114041 0.044518 -0.005766 -0.022666 -0.034834 0.844478
    43 -0.139399 -0.111698 0.014397 0.285382 -0.030687 1.580508
    44 -7.631942 3.831212 -0.434751 1.574764 -0.030259 -0.552631
  time 22
    0 -9.461227 -5.310829 -13.415243 1.150739 -0.400858 -1.306765
    1 10.457348 -11.545201 -12.567492 -0.781169 0.292315 -2.708152
    2 9.363762 -27.117697 -83.188575 1.570796 0.031711 -3.141626
    3 0.000008 7.805395 -0.000004 0.000000 0.000000 0.000000
    4 -3.326855 -27.354863 -83.361722 1.570796 0.034531 -3.141640
    5 0.000008 8.653165 -0.000004 0.000000 0.000000 0.000000
    6 -0.002752 2.073017 -2.354921 0.000000 0.000000 0.000000
    7 10.329666 -4.795692 -3.924883 5.727026 -2.774322 0.170025
    8 5.753411 6.426576 -0.255279 1.565229 -3.132176 0.941841
    9 -0.118797 -8.401077 -0.186168 -0.172222 -0.117173 -0.197148
    10 -0.488518 -2.755602 -0.228260 -0.285136 -0.110772 -0.076140
    11 0.039887 -1.546198 0.025948 -1.932863 -0.005501 0.042942
    12 0.028786 -1.212454 -0.132487 -1.403837 -0.014106 0.031687
    13 0.250027 -2.820665 -0.238396 -0.392731 -0.140252 -0.033120
    14 -0.049759 -1.598510 0.014539 -1.781252 -0.004866 -0.045867
    15 -0.034142 -1.171750 0.045718 -1.135810 0.006891 -0.029866
    16 0.957766 -2.746780 -0.090302 -0.401913 -0.220762 -0.007230
    17 -0.033420 -1.397129 -0.030789 -1.214983 -0.001690 -0.058234
    18 -0.022360 -0.969155 -0.012467 -1.327548 -0.005872 -0.062128
    19 -1.180681 -2.507217 -0.193859 -0.168820 0.131989 -0.088729
    20 -0.024967 -1.127840 0.017597 -1.419678 -0.006927 -0.058448
    21 -0.020057 -0.902687 0.053060 -1.700088 -0.014477 -0.065124
    22 0.630386 -1.193371 0.185379 0.720505 -1.006041 -0.620461
    23 1.449987 -0.247574 0.079230 0.073725 -0.243119 -0.906161
    24 1.061707 -0.132196 0.028385 0.026746 -0.168638 -0.682153
    25 0.120153 -0.050270 -0.054489 0.287569 3.110905 1.561085
    26 -8.427268 1.843175 -5.427230 -0.825072 -4.051152 -0.869659
    27 0.116476 -8.430887 -0.040616 -0.080272 -0.132526 0.080203
    28 0.447953 -2.798986 -0.200443 -0.644526 0.033180 0.187002
    29 -0.032909 -1.499736 0.040097 -1.806320 0.021524 -0.038085
    30 -0.027022 -1.127703 -0.020210 -1.241734 0.024341 -0.022567
    31 -0.249534 -2.846964 -0.174213 -0.532657 0.082892 0.106992
    32 0.043235 -1.656596 0.060855 -1.670355 -0.024154 0.011985
    33 0.031729 -1.137392 0.051025 -1.511058 -0.016688 0.008875
    34 -0.963866 -2.785145 -0.085350 -0.515749 0.249320 0.002570
    35 0.028479 -1.406973 -0.024980 -1.149446 -0.033125 -0.037080
    36 0.021413 -0.938249 0.004421 -1.366207 -0.042881 -0.037931
    37 1.164475 -2.543940 -0.170330 -0.386115 -0.158284 0.151095
    38 0.024032 -1.148574 -0.009538 -1.294914 0.023514 0.062776
    39 0.014898 -0.907427 -0.008129 -1.452208 0.027912 0.066479
    40 -0.586770 -1.264477 0.200161 -0.394791 -0.851503 -2.391248
    41 1.561899 0.035243 0.016848 -0.015812 -0.006164 0.783567
    42 1.114041 0.044518 -0.005766 -0.022666 -0.034834 0.844478
    43 -0.139399 -0.111698 0.014397 0.285382 -0.030687 1.580508
    44 -7.995234 2.721803 -0.450377 1.571984 -0.032840 -0.410755
  time 23
    0 -9.691703 -6.174137 -11.559717 1.149114 -0.638826 -1.375539
    1 10.273749 -12.846022 -11.079165 -0.704391 0.086147 -2.660694
    2 9.363762 -27.117697 -83.188575 1.570796 0.031711 -3.141626
    3 0.000008 7.805395 -0.000004 0.000000 0.000000 0.000000
    4 -3.326855 -27.354863 -83.361722 1.570796 0.034531 -3.141640
    5 0.000008 8.653165 -0.000004 0.000000 0.000000 0.000000
    6 -0.002752 2.073017 -2.354921 0.000000 0.000000 0.000000
    7 10.173411 -5.241018 -3.764722 5.863772 -2.656210 0.188526
    8 5.687003 6.496891 -0.255279 1.565229 -3.132464 0.953900
    9 -0.118797 -8.412796 -0.182261 -0.190985 -0.086074 -0.131894
    10 -0.488518 -2.755602 -0.228260 -0.285136 -0.110772 -0.076140
    11 0.039887 -1.546198 0.025948 -1.932863 -0.005501 0.042942
    12 0.028786 -1.212454 -0.132487 -1.403837 -0.014106 0.031687
    13 0.250027 -2.820665 -0.238396 -0.392731 -0.140252 -0.033120
    14 -0.049759 -1.598510 0.014539 -1.781252 -0.004866 -0.045867
    15 -0.034142 -1.171750 0.045718 -1.135810 0.006891 -0.029866
    16 0.957766 -2.746780 -0.090302 -0.401913 -0.220762 -0.007230
    17 -0.033420 -1.397129 -0.030789 -1.214983 -0.001690 -0.058234
    18 -0.022360 -0.969155 -0.012467 -1.327548 -0.005872 -0.062128
    19 -1.180681 -2.507217 -0.193859 -0.168820 0.131989 -0.088729
    20 -0.024967 -1.127840 0.017597 -1.419678 -0.006927 -0.058448
    21 -0.020057 -0.902687 0.053060 -1.700088 -0.014477 -0.065124
    22 0.630386 -1.193371 0.185379 0.720505 -1.006041 -0.620461
    23 1.449987 -0.247574 0.079230 0.073725 -0.243119 -0.906161
    24 1.061707 -0.132196 0.028385 0.026746 -0.168638 -0.682153
    25 0.120153 -0.050270 -0.054489 0.287569 3.110905 1.561085
    26 -8.274919 1.854894 -5.368635 -0.613813 -4.175777 -0.738876
    27 0.108663 -8.442606 -0.024990 -0.061094 -0.200893 0.032340
    28 0.447953 -2.798986 -0.200443 -0.644526 0.033180 0.187002
    29 -0.032909 -1.499736 0.040097 -1.806320 0.021524 -0.038085
    30 -0.027022 -1.127703 -0.020210 -1.241734 0.024341 -0.022567
    31 -0.249534 -2.846964 -0.174213 -0.532657 0.082892 0.106992
    32 0.043235 -1.656596 0.060855 -1.670355 -0.024154 0.011985
    33 0.031729 -1.137392 0.051025 -1.511058 -0.016688 0.008875
    34 -0.963866 -2.785145 -0.085350 -0.515749 0.249320 0.002570
    35 0.028479 -1.406973 -0.024980 -1.149446 -0.033125 -0.037080
    36 0.021413 -0.938249 0.004421 -1.366207 -0.042881 -0.037943
    37 1.164475 -2.543940 -0.170330 -0.386115 -0.158284 0.151095
    38 0.024032 -1.148574 -0.009538 -1.294914 0.023514 0.062776
    39 0.014898 -0.907427 -0.008129 -1.452208 0.027912 0.066479
    40 -0.586770 -1.264477 0.200161 -0.394791 -0.851503 -2.391248
    41 1.561899 0.035243 0.016848 -0.015812 -0.006164 0.783567
    42 1.114041 0.044518 -0.005766 -0.022666 -0.034834 0.844478
    43 -0.139399 -0.111698 0.014397 0.285382 -0.030687 1.580508
    44 -8.206178 1.483484 -0.466002 1.568629 -0.035135 -0.257958
  time 24
    0 -9.984681 -6.599931 -9.848728 1.156571 -0.843688 -1.438972
    1 10.289374 -13.787457 -9.625996 -0.668395 -0.153843 -2.598406
    2 9.363762 -27.117697 -83.188575 1.570796 0.031711 -3.141626
    3 0.000008 7.805395 -0.000004 0.000000 0.000000 0.000000
    4 -3.326855 -27.354863 -83.361722 1.570796 0.034531 -3.141640
    5 0.000008 8.653165 -0.000004 0.000000 0.000000 0.000000
    6 -0.002752 2.073017 -2.354921 0.000000 0.000000 0.000000
    7 10.064033 -5.600404 -3.592841 5.987007 -2.542699 0.199626
    8 5.604969 6.575018 -0.251372 1.565324 -3.132751 0.967764
    9 -0.110985 -8.420609 -0.162730 -0.203694 0.005778 -0.084198
    10 -0.488518 -2.755602 -0.228260 -0.285136 -0.110772 -0.076140
    11 0.039887 -1.546198 0.025948 -1.932863 -0.005501 0.042942
    12 0.028786 -1.212454 -0.132487 -1.403837 -0.014106 0.031687
    13 0.250027 -2.820665 -0.238396 -0.392731 -0.140252 -0.033120
    14 -0.049759 -1.598510 0.014539 -1.781252 -0.004866 -0.045867
    15 -0.034142 -1.171750 0.045718 -1.135810 0.006891 -0.029866
    16 0.957766 -2.746780 -0.090302 -0.401913 -0.220762 -0.007230
    17 -0.033420 -1.397129 -0.030789 -1.214983 -0.001690 -0.058234
    18 -0.022360 -0.969155 -0.012467 -1.327548 -0.005872 -0.062128
    19 -1.180681 -2.507217 -0.193859 -0.168820 0.131989 -0.088729
    20 -0.024967 -1.127840 0.017597 -1.419678 -0.006927 -0.058448
    21 -0.020057 -0.902687 0.053060 -1.700088 -0.014477 -0.065124
    22 0.630386 -1.193371 0.185379 0.720505 -1.006041 -0.620461
    23 1.449987 -0.247574 0.079230 0.073725 -0.243119 -0.906161
    24 1.061707 -0.132196 0.028385 0.026746 -0.168638 -0.682153
    25 0.120153 -0.050270 -0.054489 0.287569 3.110905 1.561085
    26 -8.138196 1.874426 -5.317852 -0.356065 -4.253858 -0.551894
    27 0.100850 -8.450418 -0.013271 -0.038498 -0.265096 -0.011494
    28 0.447953 -2.798986 -0.200443 -0.644526 0.033180 0.187002
    29 -0.032909 -1.499736 0.040097 -1.806320 0.021524 -0.038085
    30 -0.027022 -1.127703 -0.020210 -1.241734 0.024341 -0.022567
    31 -0.249534 -2.846964 -0.174213 -0.532657 0.082892 0.106992
    32 0.043235 -1.656596 0.060855 -1.670355 -0.024154 0.011985
    33 0.031729 -1.137392 0.051025 -1.511058 -0.016688 0.008875
    34 -0.963866 -2.785145 -0.085350 -0.515749 0.249320 0.002570
    35 0.028479 -1.406973 -0.024980 -1.149446 -0.033125 -0.037080
    36 0.021413 -0.938249 0.004421 -1.366207 -0.042881 -0.037931
    37 1.164475 -2.543940 -0.170330 -0.386115 -0.158284 0.151095
    38 0.024032 -1.148574 -0.009538 -1.294914 0.023514 0.062776
    39 0.014898 -0.907427 -0.008129 -1.452208 0.027912 0.066479
    40 -0.586770 -1.264477 0.200161 -0.394791 -0.851503 -2.391248
    41 1.561899 0.035243 0.016848 -0.015812 -0.006164 0.783567
    42 1.114041 0.044518 -0.005766 -0.022666 -0.034834 0.844478
    43 -0.139399 -0.111698 0.014397 0.285382 -0.030687 1.580508
    44 -8.233523 0.409232 -0.473815 1.565561 -0.036760 -0.127762
  time 25
    0 -10.164374 -6.713216 -8.836978 1.162211 -0.960952 -1.473311
    1 10.426097 -14.201532 -8.809565 -0.673469 -0.321438 -2.544347
    2 9.363762 -27.117697 -83.188575 1.570796 0.031711 -3.141626
    3 0.000008 7.805395 -0.000004 0.000000 0.000000 0.000000
    4 -3.326855 -27.354863 -83.361722 1.570796 0.034531 -3.141640
    5 0.000008 8.653165 -0.000004 0.000000 0.000000 0.000000
    6 -0.002752 2.073017 -2.354921 0.000000 0.000000 0.000000
    7 10.009344 -5.776191 -3.510808 6.053032 -2.469551 0.212623
    8 5.526842 6.649239 -0.251372 1.565324 -3.133039 0.981247
    9 -0.103172 -8.424515 -0.151010 -0.207847 0.087790 -0.061627
    10 -0.488518 -2.755602 -0.228260 -0.285136 -0.110772 -0.076140
    11 0.039887 -1.546198 0.025948 -1.932863 -0.005501 0.042942
    12 0.028786 -1.212454 -0.132487 -1.403837 -0.014106 0.031687
    13 0.250027 -2.820665 -0.238396 -0.392731 -0.140252 -0.033120
    14 -0.049759 -1.598510 0.014539 -1.781252 -0.004866 -0.045867
    15 -0.034142 -1.171750 0.045718 -1.135810 0.006891 -0.029866
    16 0.957766 -2.746780 -0.090302 -0.401913 -0.220762 -0.007230
    17 -0.033420 -1.397129 -0.030789 -1.214983 -0.001690 -0.058234
    18 -0.022360 -0.969155 -0.012467 -1.327548 -0.005872 -0.062128
    19 -1.180681 -2.507217 -0.193859 -0.168820 0.131989 -0.088729
    20 -0.024967 -1.127840 0.017597 -1.419678 -0.006927 -0.058448
    21 -0.020057 -0.902687 0.053060 -1.700088 -0.014477 -0.065124
    22 0.630386 -1.193371 0.185379 0.720505 -1.006041 -0.620461
    23 1.449987 -0.247574 0.079230 0.073725 -0.243119 -0.906161
    24 1.061707 -0.132196 0.028385 0.026746 -0.168638 -0.682153
    25 0.120153 -0.050270 -0.054489 0.287569 3.110905 1.561085
    26 -8.056163 1.886145 -5.286601 -0.174687 -4.281096 -0.411537
    27 0.096944 -8.454325 -0.009365 -0.023869 -0.301598 -0.038767
    28 0.447953 -2.798986 -0.200443 -0.644526 0.033180 0.187002
    29 -0.032909 -1.499736 0.040097 -1.806320 0.021524 -0.038085
    30 -0.027022 -1.127703 -0.020210 -1.241734 0.024341 -0.022567
    31 -0.249534 -2.846964 -0.174213 -0.532657 0.082892 0.106992
    32 0.043235 -1.656596 0.060855 -1.670355 -0.024154 0.011985
    33 0.031729 -1.137392 0.051025 -1.511058 -0.016688 0.008875
    34 -0.963866 -2.785145 -0.085350 -0.515749 0.249320 0.002570
    35 0.028479 -1.406973 -0.024980 -1.149446 -0.033125 -0.037080
    36 0.021413 -0.938249 0.004421 -1.366207 -0.042881 -0.037931
    37 1.164475 -2.543940 -0.170330 -0.386115 -0.158284 0.151095
    38 0.024032 -1.148574 -0.009538 -1.294914 0.023514 0.062776
    39 0.014898 -0.907427 -0.008129 -1.452208 0.027912 0.066479
    40 -0.586770 -1.264477 0.200161 -0.394791 -0.851503 -2.391248
    41 1.561899 0.035243 0.016848 -0.015812 -0.006164 0.783567
    42 1.114041 0.044518 -0.005766 -0.022666 -0.034834 0.844478
    43 -0.139399 -0.111698 0.014397 0.285382 -0.030687 1.580508
    44 -8.190552 -0.196255 -0.477722 1.563739 -0.037429 -0.053690
end
