version 1
nodes
  0 "Bone01" -1
  1 "Bone_Lefthand" 0
  2 "Bone_MP7A1" 1
  3 "Bone_EyeonSite_Front" 2
  4 "Bone_Rflex_Site" 2
  5 "Bone_EyeonSite_Back" 2
  6 "Bone_Magazine" 2
  7 "Bone_Trigger" 2
  8 "Bone_Hand_Grib" 2
  9 "Bone_Hand_GribLock" 8
  10 "Bone_SlidingStock" 2
  11 "Bone_ChargeHandle" 2
  12 "Bone4" 1
  13 "Bone13" 12
  14 "Bone14" 13
  15 "Bone15" 14
  16 "Bone17" 12
  17 "Bone18" 16
  18 "Bone19" 17
  19 "Bone21" 12
  20 "Bone22" 19
  21 "Bone23" 20
  22 "Bone05" 12
  23 "Bone06" 22
  24 "Bone07" 23
  25 "Bone09" 12
  26 "Bone10" 25
  27 "Bone11" 26
  28 "Bone04" -1
  29 "Bone_Righthand" 28
  30 "Bone26" 29
  31 "Bone35" 30
  32 "Bone36" 31
  33 "Bone37" 32
  34 "Bone31" 30
  35 "Bone32" 34
  36 "Bone33" 35
  37 "Bone39" 30
  38 "Bone40" 37
  39 "Bone41" 38
  40 "Bone43" 30
  41 "Bone44" 40
  42 "Bone45" 41
  43 "Bone27" 30
  44 "Bone28" 43
  45 "Bone29" 44
end
skeleton
  time 0
    0 10.587197 -0.541816 -5.291598 0.297490 -2.123199 -0.728429
    1 -0.021281 -8.563255 -0.000750 0.549896 0.691651 -0.053216
    2 -0.325603 -2.780590 0.232357 -0.487113 1.355451 -0.462442
    3 0.000000 -5.680969 4.733543 0.059768 0.000000 0.000000
    4 0.000000 -0.527669 5.248986 -0.001258 0.000000 0.000000
    5 0.000000 2.240247 4.862545 -0.001258 0.000000 0.000000
    6 0.000000 -0.030802 -0.185497 0.000000 0.000000 0.000000
    7 0.000000 -1.489114 1.895752 0.087266 0.000000 0.000000
    8 0.000001 -6.270583 1.350242 -0.034365 0.000000 0.000000
    9 -0.000001 0.355522 -2.800000 -1.570796 -3.141592 1.570796
    10 -0.000001 11.411390 2.564909 0.000000 0.000000 0.000000
    11 0.000001 4.784919 4.090397 -1.570796 -3.141592 -0.000001
    12 -0.003480 -0.404827 0.000000 -0.000001 0.000000 0.000000
    13 -0.519309 -2.501154 -0.278957 -0.333390 -0.016368 -0.023019
    14 -0.010598 -1.208184 -0.000001 -1.174430 -0.161063 -0.067016
    15 -0.000001 -0.763066 0.000000 -1.506196 0.000000 0.000000
    16 0.105982 -2.607132 -0.278958 -0.365419 -0.133623 0.026200
    17 0.000000 -1.250579 0.000001 -1.223467 0.000000 0.000000
    18 -0.000001 -0.932635 0.000001 -1.567302 0.000000 0.000000
    19 0.763065 -2.490555 -0.278958 -0.187197 -0.031930 0.224446
    20 -0.012322 -1.280917 0.000000 -0.019148 -0.100646 0.039194
    21 -0.001695 -0.738091 0.129482 -1.218877 0.010997 0.011408
    22 0.354567 0.016267 0.318133 0.411179 -0.446814 -1.421386
    23 1.887164 0.012878 0.000000 0.286803 -0.068378 -0.304961
    24 1.001873 -0.000270 0.000000 0.000000 0.000000 -0.730927
    25 -1.123359 -2.195092 -0.278957 0.101144 -0.086003 -0.042849
    26 0.010771 -0.963791 0.000001 -0.991150 0.000000 0.000000
    27 -0.010412 -0.631916 0.000000 -1.243280 0.000000 0.000000
    28 2.056034 -8.705864 -8.793697 0.743414 2.478191 -5.214021
    29 0.089929 -8.543166 0.000003 0.054532 -0.595321 0.561393
    30 0.000000 -0.359713 0.000000 0.000000 0.000000 0.000000
    31 -0.170478 -2.636148 -0.277655 -1.160564 -0.014866 0.106756
    32 0.010599 -1.261177 0.000002 -0.995816 0.000000 0.000000
    33 -0.000002 -0.943233 0.000000 -1.289791 0.000000 0.000000
    34 -0.827562 -2.508972 -0.277656 -1.081861 -0.021665 -0.118126
    35 0.000001 -1.292972 0.000000 -1.053330 0.000000 0.000000
    36 -0.000002 -0.752466 -0.000002 -1.204529 -0.001020 -0.044937
    37 0.444213 -2.561962 -0.277655 -1.401689 0.037889 0.167995
    38 0.021022 -1.208187 0.000001 -0.719903 0.000000 0.000000
    39 0.010597 -0.741867 -0.000002 -1.116954 0.000000 0.000000
    40 1.047446 -2.222822 -0.277655 -1.104733 -0.043294 0.229651
    41 0.000000 -0.996224 -0.000001 -0.666808 0.000000 0.000000
    42 0.000000 -0.614691 0.000000 -1.107835 0.000000 0.000000
    43 -0.308256 -0.007814 0.307165 -0.938262 -0.546766 -2.365937
    44 1.978378 0.019544 0.000000 0.566219 -0.303055 0.612703
    45 0.980611 0.058421 -0.012628 0.302559 -0.056326 0.611286
  time 1
    0 10.587197 -0.541816 -5.291598 0.297490 -2.123199 -0.728429
    1 -0.021281 -8.563255 -0.000750 0.549896 0.691651 -0.053216
    2 -0.325603 -2.780590 0.232357 -0.487113 1.355451 -0.462442
    3 0.000000 -5.680969 4.733543 0.059768 0.000000 0.000000
    4 0.000000 -0.527669 5.248986 -0.001258 0.000000 0.000000
    5 0.000000 2.240247 4.862545 -0.001258 0.000000 0.000000
    6 0.000000 -0.030802 -0.185497 0.000000 0.000000 0.000000
    7 0.000000 -1.489114 1.895752 0.087266 0.000000 0.000000
    8 0.000001 -6.270583 1.350242 -0.034365 0.000000 0.000000
    9 -0.000001 0.355522 -2.800000 -1.570796 -3.141592 1.570796
    10 -0.000001 11.411390 2.564909 0.000000 0.000000 0.000000
    11 0.000001 4.784919 4.090397 -1.570796 -3.141592 -0.000001
    12 -0.003480 -0.404827 0.000000 -0.000001 0.000000 0.000000
    13 -0.519309 -2.501154 -0.278957 -0.333390 -0.016368 -0.023019
    14 -0.010598 -1.208184 -0.000001 -1.174430 -0.161063 -0.067016
    15 -0.000001 -0.763066 0.000000 -1.506196 0.000000 0.000000
    16 0.105982 -2.607132 -0.278958 -0.365419 -0.133623 0.026200
    17 0.000000 -1.250579 0.000001 -1.223467 0.000000 0.000000
    18 -0.000001 -0.932635 0.000001 -1.567302 0.000000 0.000000
    19 0.763065 -2.490555 -0.278958 -0.187197 -0.031930 0.224446
    20 -0.012322 -1.280917 0.000000 -0.019148 -0.100646 0.039194
    21 -0.001695 -0.738091 0.129482 -1.218877 0.010997 0.011408
    22 0.354567 0.016267 0.318133 0.411179 -0.446814 -1.421386
    23 1.887164 0.012878 0.000000 0.286803 -0.068378 -0.304961
    24 1.001873 -0.000270 0.000000 0.000000 0.000000 -0.730927
    25 -1.123359 -2.195092 -0.278957 0.101144 -0.086003 -0.042849
    26 0.010771 -0.963791 0.000001 -0.991150 0.000000 0.000000
    27 -0.010412 -0.631916 0.000000 -1.243280 0.000000 0.000000
    28 2.056034 -8.705864 -8.793697 0.743414 2.478191 -5.214021
    29 0.089929 -8.543166 0.000003 0.054532 -0.595321 0.561393
    30 0.000000 -0.359713 0.000000 0.000000 0.000000 0.000000
    31 -0.170478 -2.636148 -0.277655 -1.160564 -0.014866 0.106756
    32 0.010599 -1.261177 0.000002 -0.995816 0.000000 0.000000
    33 -0.000002 -0.943233 0.000000 -1.289791 0.000000 0.000000
    34 -0.827562 -2.508972 -0.277656 -1.081861 -0.021665 -0.118126
    35 0.000001 -1.292972 0.000000 -1.053330 0.000000 0.000000
    36 -0.000002 -0.752466 -0.000002 -1.204529 -0.001020 -0.044937
    37 0.444213 -2.561962 -0.277655 -1.401689 0.037889 0.167995
    38 0.021022 -1.208187 0.000001 -0.719903 0.000000 0.000000
    39 0.010597 -0.741867 -0.000002 -1.116954 0.000000 0.000000
    40 1.047446 -2.222822 -0.277655 -1.104733 -0.043294 0.229651
    41 0.000000 -0.996224 -0.000001 -0.666808 0.000000 0.000000
    42 0.000000 -0.614691 0.000000 -1.107835 0.000000 0.000000
    43 -0.308256 -0.007814 0.307165 -0.938262 -0.546766 -2.365937
    44 1.978378 0.019544 0.000000 0.566219 -0.303055 0.612703
    45 0.980611 0.058421 -0.012628 0.302559 -0.056326 0.611286
end
