// Created by Crowbar 0.68

$modelname "weapons/tfa_cso/c_magicknife.mdl"

$include "csonline_gmod.qci"

$bodygroup "weapon"
{
	studio "v_magicknife"
}
$bodygroup "weapon"
{
	studio "slash_ef"
}

$CDMaterials "models/weapons/tfa_cso/magicknife"



$sequence "idle" {
	"v_magicknife_anims\idle"
	fps 30
	activity "ACT_VM_IDLE" 1
	loop
	snap
}
$sequence "slash_1" {
	"v_magicknife_anims\slash_1"
	{ event 5004 1 "PrismSword.Slash1" }
	{ event 5004 17 "PrismSword.SlashEnd" }
	fps 30
	activity "ACT_VM_HITLEFT" 1
	snap
}
$sequence "slash_2" {
	"v_magicknife_anims\slash_2"
	{ event 5004 1 "PrismSword.Slash2" }
	{ event 5004 17 "PrismSword.SlashEnd" }
	fps 30
	activity "ACT_VM_HITRIGHT" 1
	snap
}
$sequence "slash_3" {
	"v_magicknife_anims\slash_3"
	{ event 5004 1 "PrismSword.Slash3" }
	{ event 5004 17 "PrismSword.SlashEnd" }
	fps 30
	activity "ACT_VM_PRIMARYATTACK" 1
	snap
}
$sequence "slash_4" {
	"v_magicknife_anims\slash_4"
	{ event 5004 1 "PrismSword.Slash4" }
	{ event 5004 17 "PrismSword.SlashEnd" }
	fps 30
	activity "ACT_VM_PULLBACK" 1
	snap
}
$sequence "slash_end" {
	"v_magicknife_anims\slash_end"
	{ event 5004 1 "weapons/magicknife_slash_end.wav" }
	fps 30
}
$sequence "draw" {
	"v_magicknife_anims\draw"
	{ event 5004 1 "PrismSword.Draw" }
	fps 30
	activity "ACT_VM_DRAW" 1
	snap
}
$sequence "charge_start" {
	"v_magicknife_anims\charge_start"
	{ event 5004 1 "PrismSword.Charge_Idle1" }
	{ event 5004 12 "PrismSword.Charge_Finish" }
	{ event 5004 30 "PrismSword.ChargeAttack2" }
	fps 30
	activity "ACT_VM_MISSLEFT" 1
	snap
}
$sequence "charge_finish" {
	"v_magicknife_anims\charge_finish"
	fps 30
}
$sequence "charge_idle1" {
	"v_magicknife_anims\charge_idle1"
	fps 30
	loop
}
$sequence "charge_idle2" {
	"v_magicknife_anims\charge_idle2"
	{ event 5004 1 "weapons/magicknife_charge_idle2_1.wav" }
	fps 30
	loop
}
$sequence "charge_attack1" {
	"v_magicknife_anims\charge_attack1"
	fps 30
	loop
}
$sequence "charge_attack2" {
	"v_magicknife_anims\charge_attack2"
	fps 30
	loop
}
$sequence "stab" {
	"v_magicknife_anims\stab"
	fps 30
}
