version 1
nodes
  0 "QBS_09_3P" -1
end
skeleton
  time 0
    0 0.000000 0.000000 1.053873 1.552974 -0.004473 1.281313
  time 1
    0 0.000000 0.000000 1.053873 1.552974 -0.004473 1.281313
  time 2
    0 0.000000 0.000000 1.053873 1.552974 -0.004473 1.281313
  time 3
    0 0.000000 0.000000 1.053873 1.552974 -0.004473 1.281313
  time 4
    0 0.000000 0.000000 1.053873 1.552974 -0.004473 1.281313
  time 5
    0 0.000000 0.000000 1.053873 1.552974 -0.004473 1.281313
  time 6
    0 0.000000 0.000000 1.053873 1.552974 -0.004473 1.281313
  time 7
    0 0.000000 0.000000 1.053873 1.552974 -0.004473 1.281313
  time 8
    0 0.000000 0.000000 1.053873 1.552974 -0.004473 1.281313
  time 9
    0 0.000000 0.000000 1.053873 1.552974 -0.004473 1.281313
  time 10
    0 0.000000 0.000000 1.053873 1.552974 -0.004473 1.281313
  time 11
    0 0.000000 0.000000 1.053873 1.552974 -0.004473 1.281313
  time 12
    0 0.000000 0.000000 1.053873 1.552974 -0.004473 1.281313
  time 13
    0 0.000000 0.000000 1.053873 1.552974 -0.004473 1.281313
  time 14
    0 0.000000 0.000000 1.053873 1.552974 -0.004473 1.281313
  time 15
    0 0.000000 0.000000 1.053873 1.552974 -0.004473 1.281313
  time 16
    0 0.000000 0.000000 1.053873 1.552974 -0.004473 1.281313
  time 17
    0 0.000000 0.000000 1.053873 1.552974 -0.004473 1.281313
  time 18
    0 0.000000 0.000000 1.053873 1.552974 -0.004473 1.281313
  time 19
    0 0.000000 0.000000 1.053873 1.552974 -0.004473 1.281313
  time 20
    0 0.000000 0.000000 1.053873 1.552974 -0.004473 1.281313
  time 21
    0 0.000000 0.000000 1.053873 1.552974 -0.004473 1.281313
  time 22
    0 0.000000 0.000000 1.053873 1.552974 -0.004473 1.281313
  time 23
    0 0.000000 0.000000 1.053873 1.552974 -0.004473 1.281313
  time 24
    0 0.000000 0.000000 1.053873 1.552974 -0.004473 1.281313
  time 25
    0 0.000000 0.000000 1.053873 1.552974 -0.004473 1.281313
  time 26
    0 0.000000 0.000000 1.053873 1.552974 -0.004473 1.281313
  time 27
    0 0.000000 0.000000 1.053873 1.552974 -0.004473 1.281313
  time 28
    0 0.000000 0.000000 1.053873 1.552974 -0.004473 1.281313
  time 29
    0 0.000000 0.000000 1.053873 1.552974 -0.004473 1.281313
  time 30
    0 0.000000 0.000000 1.053873 1.552974 -0.004473 1.281313
  time 31
    0 0.000000 0.000000 1.053873 1.552974 -0.004473 1.281313
  time 32
    0 0.000000 0.000000 1.053873 1.552974 -0.004473 1.281313
  time 33
    0 0.000000 0.000000 1.053873 1.552974 -0.004473 1.281313
  time 34
    0 0.000000 0.000000 1.053873 1.552974 -0.004473 1.281313
  time 35
    0 0.000000 0.000000 1.053873 1.552974 -0.004473 1.281313
  time 36
    0 0.000000 0.000000 1.053873 1.552974 -0.004473 1.281313
  time 37
    0 0.000000 0.000000 1.053873 1.552974 -0.004473 1.281313
  time 38
    0 0.000000 0.000000 1.053873 1.552974 -0.004473 1.281313
  time 39
    0 0.000000 0.000000 1.053873 1.552974 -0.004473 1.281313
  time 40
    0 0.000000 0.000000 1.053873 1.552974 -0.004473 1.281313
  time 41
    0 0.000000 0.000000 1.053873 1.552974 -0.004473 1.281313
  time 42
    0 0.000000 0.000000 1.053873 1.552974 -0.004473 1.281313
  time 43
    0 0.000000 0.000000 1.053873 1.552974 -0.004473 1.281313
  time 44
    0 0.000000 0.000000 1.053873 1.552974 -0.004473 1.281313
  time 45
    0 0.000000 0.000000 1.053873 1.552974 -0.004473 1.281313
  time 46
    0 0.000000 0.000000 1.053873 1.552974 -0.004473 1.281313
  time 47
    0 0.000000 0.000000 1.053873 1.552974 -0.004473 1.281313
  time 48
    0 0.000000 0.000000 1.053873 1.552974 -0.004473 1.281313
  time 49
    0 0.000000 0.000000 1.053873 1.552974 -0.004473 1.281313
  time 50
    0 0.000000 0.000000 1.053873 1.552974 -0.004473 1.281313
  time 51
    0 0.000000 0.000000 1.053873 1.552974 -0.004473 1.281313
  time 52
    0 0.000000 0.000000 1.053873 1.552974 -0.004473 1.281313
  time 53
    0 0.000000 0.000000 1.053873 1.552974 -0.004473 1.281313
  time 54
    0 0.000000 0.000000 1.053873 1.552974 -0.004473 1.281313
  time 55
    0 0.000000 0.000000 1.053873 1.552974 -0.004473 1.281313
  time 56
    0 0.000000 0.000000 1.053873 1.552974 -0.004473 1.281313
  time 57
    0 0.000000 0.000000 1.053873 1.552974 -0.004473 1.281313
  time 58
    0 0.000000 0.000000 1.053873 1.552974 -0.004473 1.281313
  time 59
    0 0.000000 0.000000 1.053873 1.552974 -0.004473 1.281313
  time 60
    0 0.000000 0.000000 1.053873 1.552974 -0.004473 1.281313
  time 61
    0 0.000000 0.000000 1.053873 1.552974 -0.004473 1.281313
  time 62
    0 0.000000 0.000000 1.053873 1.552974 -0.004473 1.281313
  time 63
    0 0.000000 0.000000 1.053873 1.552974 -0.004473 1.281313
  time 64
    0 0.000000 0.000000 1.053873 1.552974 -0.004473 1.281313
  time 65
    0 0.000000 0.000000 1.053873 1.552974 -0.004473 1.281313
  time 66
    0 0.000000 0.000000 1.053873 1.552974 -0.004473 1.281313
  time 67
    0 0.000000 0.000000 1.053873 1.552974 -0.004473 1.281313
  time 68
    0 0.000000 0.000000 1.053873 1.552974 -0.004473 1.281313
  time 69
    0 0.000000 0.000000 1.053873 1.552974 -0.004473 1.281313
  time 70
    0 0.000000 0.000000 1.053873 1.552974 -0.004473 1.281313
  time 71
    0 0.000000 0.000000 1.053873 1.552974 -0.004473 1.281313
  time 72
    0 0.000000 0.000000 1.053873 1.552974 -0.004473 1.281313
  time 73
    0 0.000000 0.000000 1.053873 1.552974 -0.004473 1.281313
  time 74
    0 0.000000 0.000000 1.053873 1.552974 -0.004473 1.281313
  time 75
    0 0.000000 0.000000 1.053873 1.552974 -0.004473 1.281313
  time 76
    0 0.000000 0.000000 1.053873 1.552974 -0.004473 1.281313
  time 77
    0 0.000000 0.000000 1.053873 1.552974 -0.004473 1.281313
  time 78
    0 0.000000 0.000000 1.053873 1.552974 -0.004473 1.281313
  time 79
    0 0.000000 0.000000 1.053873 1.552974 -0.004473 1.281313
  time 80
    0 0.000000 0.000000 1.053873 1.552974 -0.004473 1.281313
  time 81
    0 0.000000 0.000000 1.053873 1.552974 -0.004473 1.281313
  time 82
    0 0.000000 0.000000 1.053873 1.552974 -0.004473 1.281313
  time 83
    0 0.000000 0.000000 1.053873 1.552974 -0.004473 1.281313
  time 84
    0 0.000000 0.000000 1.053873 1.552974 -0.004473 1.281313
  time 85
    0 0.000000 0.000000 1.053873 1.552974 -0.004473 1.281313
  time 86
    0 0.000000 0.000000 1.053873 1.552974 -0.004473 1.281313
  time 87
    0 0.000000 0.000000 1.053873 1.552974 -0.004473 1.281313
  time 88
    0 0.000000 0.000000 1.053873 1.552974 -0.004473 1.281313
  time 89
    0 0.000000 0.000000 1.053873 1.552974 -0.004473 1.281313
  time 90
    0 0.000000 0.000000 1.053873 1.552974 -0.004473 1.281313
  time 91
    0 0.000000 0.000000 1.053873 1.552974 -0.004473 1.281313
  time 92
    0 0.000000 0.000000 1.053873 1.552974 -0.004473 1.281313
  time 93
    0 0.000000 0.000000 1.053873 1.552974 -0.004473 1.281313
  time 94
    0 0.000000 0.000000 1.053873 1.552974 -0.004473 1.281313
  time 95
    0 0.000000 0.000000 1.053873 1.552974 -0.004473 1.281313
  time 96
    0 0.000000 0.000000 1.053873 1.552974 -0.004473 1.281313
  time 97
    0 0.000000 0.000000 1.053873 1.552974 -0.004473 1.281313
  time 98
    0 0.000000 0.000000 1.053873 1.552974 -0.004473 1.281313
  time 99
    0 0.000000 0.000000 1.053873 1.552974 -0.004473 1.281313
  time 100
    0 0.000000 0.000000 1.053873 1.552974 -0.004473 1.281313
  time 101
    0 0.000000 0.000000 1.053873 1.552974 -0.004473 1.281313
  time 102
    0 0.000000 0.000000 1.053873 1.552974 -0.004473 1.281313
  time 103
    0 0.000000 0.000000 1.053873 1.552974 -0.004473 1.281313
  time 104
    0 0.000000 0.000000 1.053873 1.552974 -0.004473 1.281313
  time 105
    0 0.000000 0.000000 1.053873 1.552974 -0.004473 1.281313
  time 106
    0 0.000000 0.000000 1.053873 1.552974 -0.004473 1.281313
  time 107
    0 0.000000 0.000000 1.053873 1.552974 -0.004473 1.281313
  time 108
    0 0.000000 0.000000 1.053873 1.552974 -0.004473 1.281313
  time 109
    0 0.000000 0.000000 1.053873 1.552974 -0.004473 1.281313
  time 110
    0 0.000000 0.000000 1.053873 1.552974 -0.004473 1.281313
  time 111
    0 0.000000 0.000000 1.053873 1.552974 -0.004473 1.281313
  time 112
    0 0.000000 0.000000 1.053873 1.552974 -0.004473 1.281313
  time 113
    0 0.000000 0.000000 1.053873 1.552974 -0.004473 1.281313
  time 114
    0 0.000000 0.000000 1.053873 1.552974 -0.004473 1.281313
  time 115
    0 0.000000 0.000000 1.053873 1.552974 -0.004473 1.281313
  time 116
    0 0.000000 0.000000 1.053873 1.552974 -0.004473 1.281313
  time 117
    0 0.000000 0.000000 1.053873 1.552974 -0.004473 1.281313
  time 118
    0 0.000000 0.000000 1.053873 1.552974 -0.004473 1.281313
  time 119
    0 0.000000 0.000000 1.053873 1.552974 -0.004473 1.281313
  time 120
    0 0.000000 0.000000 1.053873 1.552974 -0.004473 1.281313
  time 121
    0 0.000000 0.000000 1.053873 1.552974 -0.004473 1.281313
  time 122
    0 0.000000 0.000000 1.053873 1.552974 -0.004473 1.281313
  time 123
    0 0.000000 0.000000 1.053873 1.552974 -0.004473 1.281313
  time 124
    0 0.000000 0.000000 1.053873 1.552974 -0.004473 1.281313
  time 125
    0 0.000000 0.000000 1.053873 1.552974 -0.004473 1.281313
  time 126
    0 0.000000 0.000000 1.053873 1.552974 -0.004473 1.281313
  time 127
    0 0.000000 0.000000 1.053873 1.552974 -0.004473 1.281313
  time 128
    0 0.000000 0.000000 1.053873 1.552974 -0.004473 1.281313
  time 129
    0 0.000000 0.000000 1.053873 1.552974 -0.004473 1.281313
  time 130
    0 0.000000 0.000000 1.053873 1.552974 -0.004473 1.281313
  time 131
    0 0.000000 0.000000 1.053873 1.552974 -0.004473 1.281313
  time 132
    0 0.000000 0.000000 1.053873 1.552974 -0.004473 1.281313
  time 133
    0 0.000000 0.000000 1.053873 1.552974 -0.004473 1.281313
  time 134
    0 0.000000 0.000000 1.053873 1.552974 -0.004473 1.281313
  time 135
    0 0.000000 0.000000 1.053873 1.552974 -0.004473 1.281313
  time 136
    0 0.000000 0.000000 1.053873 1.552974 -0.004473 1.281313
  time 137
    0 0.000000 0.000000 1.053873 1.552974 -0.004473 1.281313
  time 138
    0 0.000000 0.000000 1.053873 1.552974 -0.004473 1.281313
  time 139
    0 0.000000 0.000000 1.053873 1.552974 -0.004473 1.281313
  time 140
    0 0.000000 0.000000 1.053873 1.552974 -0.004473 1.281313
  time 141
    0 0.000000 0.000000 1.053873 1.552974 -0.004473 1.281313
  time 142
    0 0.000000 0.000000 1.053873 1.552974 -0.004473 1.281313
  time 143
    0 0.000000 0.000000 1.053873 1.552974 -0.004473 1.281313
  time 144
    0 0.000000 0.000000 1.053873 1.552974 -0.004473 1.281313
  time 145
    0 0.000000 0.000000 1.053873 1.552974 -0.004473 1.281313
  time 146
    0 0.000000 0.000000 1.053873 1.552974 -0.004473 1.281313
  time 147
    0 0.000000 0.000000 1.053873 1.552974 -0.004473 1.281313
  time 148
    0 0.000000 0.000000 1.053873 1.552974 -0.004473 1.281313
  time 149
    0 0.000000 0.000000 1.053873 1.552974 -0.004473 1.281313
  time 150
    0 0.000000 0.000000 1.053873 1.552974 -0.004473 1.281313
  time 151
    0 0.000000 0.000000 1.053873 1.552974 -0.004473 1.281313
  time 152
    0 0.000000 0.000000 1.053873 1.552974 -0.004473 1.281313
  time 153
    0 0.000000 0.000000 1.053873 1.552974 -0.004473 1.281313
  time 154
    0 0.000000 0.000000 1.053873 1.552974 -0.004473 1.281313
  time 155
    0 0.000000 0.000000 1.053873 1.552974 -0.004473 1.281313
  time 156
    0 0.000000 0.000000 1.053873 1.552974 -0.004473 1.281313
  time 157
    0 0.000000 0.000000 1.053873 1.552974 -0.004473 1.281313
  time 158
    0 0.000000 0.000000 1.053873 1.552974 -0.004473 1.281313
  time 159
    0 0.000000 0.000000 1.053873 1.552974 -0.004473 1.281313
  time 160
    0 0.000000 0.000000 1.053873 1.552974 -0.004473 1.281313
  time 161
    0 0.000000 0.000000 1.053873 1.552974 -0.004473 1.281313
  time 162
    0 0.000000 0.000000 1.053873 1.552974 -0.004473 1.281313
  time 163
    0 0.000000 0.000000 1.053873 1.552974 -0.004473 1.281313
  time 164
    0 0.000000 0.000000 1.053873 1.552974 -0.004473 1.281313
  time 165
    0 0.000000 0.000000 1.053873 1.552974 -0.004473 1.281313
  time 166
    0 0.000000 0.000000 1.053873 1.552974 -0.004473 1.281313
  time 167
    0 0.000000 0.000000 1.053873 1.552974 -0.004473 1.281313
  time 168
    0 0.000000 0.000000 1.053873 1.552974 -0.004473 1.281313
  time 169
    0 0.000000 0.000000 1.053873 1.552974 -0.004473 1.281313
  time 170
    0 0.000000 0.000000 1.053873 1.552974 -0.004473 1.281313
  time 171
    0 0.000000 0.000000 1.053873 1.552974 -0.004473 1.281313
  time 172
    0 0.000000 0.000000 1.053873 1.552974 -0.004473 1.281313
  time 173
    0 0.000000 0.000000 1.053873 1.552974 -0.004473 1.281313
  time 174
    0 0.000000 0.000000 1.053873 1.552974 -0.004473 1.281313
  time 175
    0 0.000000 0.000000 1.053873 1.552974 -0.004473 1.281313
  time 176
    0 0.000000 0.000000 1.053873 1.552974 -0.004473 1.281313
  time 177
    0 0.000000 0.000000 1.053873 1.552974 -0.004473 1.281313
  time 178
    0 0.000000 0.000000 1.053873 1.552974 -0.004473 1.281313
  time 179
    0 0.000000 0.000000 1.053873 1.552974 -0.004473 1.281313
  time 180
    0 0.000000 0.000000 1.053873 1.552974 -0.004473 1.281313
  time 181
    0 0.000000 0.000000 1.053873 1.552974 -0.004473 1.281313
  time 182
    0 0.000000 0.000000 1.053873 1.552974 -0.004473 1.281313
  time 183
    0 0.000000 0.000000 1.053873 1.552974 -0.004473 1.281313
  time 184
    0 0.000000 0.000000 1.053873 1.552974 -0.004473 1.281313
  time 185
    0 0.000000 0.000000 1.053873 1.552974 -0.004473 1.281313
  time 186
    0 0.000000 0.000000 1.053873 1.552974 -0.004473 1.281313
  time 187
    0 0.000000 0.000000 1.053873 1.552974 -0.004473 1.281313
  time 188
    0 0.000000 0.000000 1.053873 1.552974 -0.004473 1.281313
  time 189
    0 0.000000 0.000000 1.053873 1.552974 -0.004473 1.281313
  time 190
    0 0.000000 0.000000 1.053873 1.552974 -0.004473 1.281313
  time 191
    0 0.000000 0.000000 1.053873 1.552974 -0.004473 1.281313
  time 192
    0 0.000000 0.000000 1.053873 1.552974 -0.004473 1.281313
  time 193
    0 0.000000 0.000000 1.053873 1.552974 -0.004473 1.281313
  time 194
    0 0.000000 0.000000 1.053873 1.552974 -0.004473 1.281313
  time 195
    0 0.000000 0.000000 1.053873 1.552974 -0.004473 1.281313
  time 196
    0 0.000000 0.000000 1.053873 1.552974 -0.004473 1.281313
  time 197
    0 0.000000 0.000000 1.053873 1.552974 -0.004473 1.281313
  time 198
    0 0.000000 0.000000 1.053873 1.552974 -0.004473 1.281313
  time 199
    0 0.000000 0.000000 1.053873 1.552974 -0.004473 1.281313
  time 200
    0 0.000000 0.000000 1.053873 1.552974 -0.004473 1.281313
  time 201
    0 0.000000 0.000000 1.053873 1.552974 -0.004473 1.281313
  time 202
    0 0.000000 0.000000 1.053873 1.552974 -0.004473 1.281313
  time 203
    0 0.000000 0.000000 1.053873 1.552974 -0.004473 1.281313
  time 204
    0 0.000000 0.000000 1.053873 1.552974 -0.004473 1.281313
  time 205
    0 0.000000 0.000000 1.053873 1.552974 -0.004473 1.281313
  time 206
    0 0.000000 0.000000 1.053873 1.552974 -0.004473 1.281313
  time 207
    0 0.000000 0.000000 1.053873 1.552974 -0.004473 1.281313
  time 208
    0 0.000000 0.000000 1.053873 1.552974 -0.004473 1.281313
  time 209
    0 0.000000 0.000000 1.053873 1.552974 -0.004473 1.281313
  time 210
    0 0.000000 0.000000 1.053873 1.552974 -0.004473 1.281313
  time 211
    0 0.000000 0.000000 1.053873 1.552974 -0.004473 1.281313
  time 212
    0 0.000000 0.000000 1.053873 1.552974 -0.004473 1.281313
  time 213
    0 0.000000 0.000000 1.053873 1.552974 -0.004473 1.281313
  time 214
    0 0.000000 0.000000 1.053873 1.552974 -0.004473 1.281313
  time 215
    0 0.000000 0.000000 1.053873 1.552974 -0.004473 1.281313
  time 216
    0 0.000000 0.000000 1.053873 1.552974 -0.004473 1.281313
  time 217
    0 0.000000 0.000000 1.053873 1.552974 -0.004473 1.281313
  time 218
    0 0.000000 0.000000 1.053873 1.552974 -0.004473 1.281313
  time 219
    0 0.000000 0.000000 1.053873 1.552974 -0.004473 1.281313
  time 220
    0 0.000000 0.000000 1.053873 1.552974 -0.004473 1.281313
  time 221
    0 0.000000 0.000000 1.053873 1.552974 -0.004473 1.281313
  time 222
    0 0.000000 0.000000 1.053873 1.552974 -0.004473 1.281313
  time 223
    0 0.000000 0.000000 1.053873 1.552974 -0.004473 1.281313
  time 224
    0 0.000000 0.000000 1.053873 1.552974 -0.004473 1.281313
  time 225
    0 0.000000 0.000000 1.053873 1.552974 -0.004473 1.281313
  time 226
    0 0.000000 0.000000 1.053873 1.552974 -0.004473 1.281313
  time 227
    0 0.000000 0.000000 1.053873 1.552974 -0.004473 1.281313
  time 228
    0 0.000000 0.000000 1.053873 1.552974 -0.004473 1.281313
  time 229
    0 0.000000 0.000000 1.053873 1.552974 -0.004473 1.281313
  time 230
    0 0.000000 0.000000 1.053873 1.552974 -0.004473 1.281313
  time 231
    0 0.000000 0.000000 1.053873 1.552974 -0.004473 1.281313
  time 232
    0 0.000000 0.000000 1.053873 1.552974 -0.004473 1.281313
  time 233
    0 0.000000 0.000000 1.053873 1.552974 -0.004473 1.281313
  time 234
    0 0.000000 0.000000 1.053873 1.552974 -0.004473 1.281313
  time 235
    0 0.000000 0.000000 1.053873 1.552974 -0.004473 1.281313
  time 236
    0 0.000000 0.000000 1.053873 1.552974 -0.004473 1.281313
  time 237
    0 0.000000 0.000000 1.053873 1.552974 -0.004473 1.281313
  time 238
    0 0.000000 0.000000 1.053873 1.552974 -0.004473 1.281313
  time 239
    0 0.000000 0.000000 1.053873 1.552974 -0.004473 1.281313
  time 240
    0 0.000000 0.000000 1.053873 1.552974 -0.004473 1.281313
  time 241
    0 0.000000 0.000000 1.053873 1.552974 -0.004473 1.281313
  time 242
    0 0.000000 0.000000 1.053873 1.552974 -0.004473 1.281313
  time 243
    0 0.000000 0.000000 1.053873 1.552974 -0.004473 1.281313
  time 244
    0 0.000000 0.000000 1.053873 1.552974 -0.004473 1.281313
  time 245
    0 0.000000 0.000000 1.053873 1.552974 -0.004473 1.281313
  time 246
    0 0.000000 0.000000 1.053873 1.552974 -0.004473 1.281313
  time 247
    0 0.000000 0.000000 1.053873 1.552974 -0.004473 1.281313
  time 248
    0 0.000000 0.000000 1.053873 1.552974 -0.004473 1.281313
  time 249
    0 0.000000 0.000000 1.053873 1.552974 -0.004473 1.281313
  time 250
    0 0.000000 0.000000 1.053873 1.552974 -0.004473 1.281313
  time 251
    0 0.000000 0.000000 1.053873 1.552974 -0.004473 1.281313
  time 252
    0 0.000000 0.000000 1.053873 1.552974 -0.004473 1.281313
  time 253
    0 0.000000 0.000000 1.053873 1.552974 -0.004473 1.281313
  time 254
    0 0.000000 0.000000 1.053873 1.552974 -0.004473 1.281313
  time 255
    0 0.000000 0.000000 1.053873 1.552974 -0.004473 1.281313
  time 256
    0 0.000000 0.000000 1.053873 1.552974 -0.004473 1.281313
  time 257
    0 0.000000 0.000000 1.053873 1.552974 -0.004473 1.281313
  time 258
    0 0.000000 0.000000 1.053873 1.552974 -0.004473 1.281313
  time 259
    0 0.000000 0.000000 1.053873 1.552974 -0.004473 1.281313
  time 260
    0 0.000000 0.000000 1.053873 1.552974 -0.004473 1.281313
  time 261
    0 0.000000 0.000000 1.053873 1.552974 -0.004473 1.281313
  time 262
    0 0.000000 0.000000 1.053873 1.552974 -0.004473 1.281313
  time 263
    0 0.000000 0.000000 1.053873 1.552974 -0.004473 1.281313
  time 264
    0 0.000000 0.000000 1.053873 1.552974 -0.004473 1.281313
  time 265
    0 0.000000 0.000000 1.053873 1.552974 -0.004473 1.281313
  time 266
    0 0.000000 0.000000 1.053873 1.552974 -0.004473 1.281313
  time 267
    0 0.000000 0.000000 1.053873 1.552974 -0.004473 1.281313
  time 268
    0 0.000000 0.000000 1.053873 1.552974 -0.004473 1.281313
  time 269
    0 0.000000 0.000000 1.053873 1.552974 -0.004473 1.281313
  time 270
    0 0.000000 0.000000 1.053873 1.552974 -0.004473 1.281313
  time 271
    0 0.000000 0.000000 1.053873 1.552974 -0.004473 1.281313
  time 272
    0 0.000000 0.000000 1.053873 1.552974 -0.004473 1.281313
  time 273
    0 0.000000 0.000000 1.053873 1.552974 -0.004473 1.281313
  time 274
    0 0.000000 0.000000 1.053873 1.552974 -0.004473 1.281313
  time 275
    0 0.000000 0.000000 1.053873 1.552974 -0.004473 1.281313
  time 276
    0 0.000000 0.000000 1.053873 1.552974 -0.004473 1.281313
  time 277
    0 0.000000 0.000000 1.053873 1.552974 -0.004473 1.281313
  time 278
    0 0.000000 0.000000 1.053873 1.552974 -0.004473 1.281313
  time 279
    0 0.000000 0.000000 1.053873 1.552974 -0.004473 1.281313
  time 280
    0 0.000000 0.000000 1.053873 1.552974 -0.004473 1.281313
  time 281
    0 0.000000 0.000000 1.053873 1.552974 -0.004473 1.281313
  time 282
    0 0.000000 0.000000 1.053873 1.552974 -0.004473 1.281313
  time 283
    0 0.000000 0.000000 1.053873 1.552974 -0.004473 1.281313
  time 284
    0 0.000000 0.000000 1.053873 1.552974 -0.004473 1.281313
  time 285
    0 0.000000 0.000000 1.053873 1.552974 -0.004473 1.281313
  time 286
    0 0.000000 0.000000 1.053873 1.552974 -0.004473 1.281313
  time 287
    0 0.000000 0.000000 1.053873 1.552974 -0.004473 1.281313
  time 288
    0 0.000000 0.000000 1.053873 1.552974 -0.004473 1.281313
  time 289
    0 0.000000 0.000000 1.053873 1.552974 -0.004473 1.281313
  time 290
    0 0.000000 0.000000 1.053873 1.552974 -0.004473 1.281313
  time 291
    0 0.000000 0.000000 1.053873 1.552974 -0.004473 1.281313
  time 292
    0 0.000000 0.000000 1.053873 1.552974 -0.004473 1.281313
  time 293
    0 0.000000 0.000000 1.053873 1.552974 -0.004473 1.281313
  time 294
    0 0.000000 0.000000 1.053873 1.552974 -0.004473 1.281313
  time 295
    0 0.000000 0.000000 1.053873 1.552974 -0.004473 1.281313
  time 296
    0 0.000000 0.000000 1.053873 1.552974 -0.004473 1.281313
  time 297
    0 0.000000 0.000000 1.053873 1.552974 -0.004473 1.281313
  time 298
    0 0.000000 0.000000 1.053873 1.552974 -0.004473 1.281313
  time 299
    0 0.000000 0.000000 1.053873 1.552974 -0.004473 1.281313
  time 300
    0 0.000000 0.000000 1.053873 1.552974 -0.004473 1.281313
  time 301
    0 0.000000 0.000000 1.053873 1.552974 -0.004473 1.281313
  time 302
    0 0.000000 0.000000 1.053873 1.552974 -0.004473 1.281313
  time 303
    0 0.000000 0.000000 1.053873 1.552974 -0.004473 1.281313
  time 304
    0 0.000000 0.000000 1.053873 1.552974 -0.004473 1.281313
  time 305
    0 0.000000 0.000000 1.053873 1.552974 -0.004473 1.281313
  time 306
    0 0.000000 0.000000 1.053873 1.552974 -0.004473 1.281313
  time 307
    0 0.000000 0.000000 1.053873 1.552974 -0.004473 1.281313
  time 308
    0 0.000000 0.000000 1.053873 1.552974 -0.004473 1.281313
  time 309
    0 0.000000 0.000000 1.053873 1.552974 -0.004473 1.281313
  time 310
    0 0.000000 0.000000 1.053873 1.552974 -0.004473 1.281313
  time 311
    0 0.000000 0.000000 1.053873 1.552974 -0.004473 1.281313
  time 312
    0 0.000000 0.000000 1.053873 1.552974 -0.004473 1.281313
  time 313
    0 0.000000 0.000000 1.053873 1.552974 -0.004473 1.281313
  time 314
    0 0.000000 0.000000 1.053873 1.552974 -0.004473 1.281313
  time 315
    0 0.000000 0.000000 1.053873 1.552974 -0.004473 1.281313
  time 316
    0 0.000000 0.000000 1.053873 1.552974 -0.004473 1.281313
  time 317
    0 0.000000 0.000000 1.053873 1.552974 -0.004473 1.281313
  time 318
    0 0.000000 0.000000 1.053873 1.552974 -0.004473 1.281313
  time 319
    0 0.000000 0.000000 1.053873 1.552974 -0.004473 1.281313
  time 320
    0 0.000000 0.000000 1.053873 1.552974 -0.004473 1.281313
  time 321
    0 0.000000 0.000000 1.053873 1.552974 -0.004473 1.281313
  time 322
    0 0.000000 0.000000 1.053873 1.552974 -0.004473 1.281313
  time 323
    0 0.000000 0.000000 1.053873 1.552974 -0.004473 1.281313
  time 324
    0 0.000000 0.000000 1.053873 1.552974 -0.004473 1.281313
  time 325
    0 0.000000 0.000000 1.053873 1.552974 -0.004473 1.281313
  time 326
    0 0.000000 0.000000 1.053873 1.552974 -0.004473 1.281313
  time 327
    0 0.000000 0.000000 1.053873 1.552974 -0.004473 1.281313
  time 328
    0 0.000000 0.000000 1.053873 1.552974 -0.004473 1.281313
  time 329
    0 0.000000 0.000000 1.053873 1.552974 -0.004473 1.281313
  time 330
    0 0.000000 0.000000 1.053873 1.552974 -0.004473 1.281313
  time 331
    0 0.000000 0.000000 1.053873 1.552974 -0.004473 1.281313
  time 332
    0 0.000000 0.000000 1.053873 1.552974 -0.004473 1.281313
  time 333
    0 0.000000 0.000000 1.053873 1.552974 -0.004473 1.281313
  time 334
    0 0.000000 0.000000 1.053873 1.552974 -0.004473 1.281313
  time 335
    0 0.000000 0.000000 1.053873 1.552974 -0.004473 1.281313
  time 336
    0 0.000000 0.000000 1.053873 1.552974 -0.004473 1.281313
  time 337
    0 0.000000 0.000000 1.053873 1.552974 -0.004473 1.281313
  time 338
    0 0.000000 0.000000 1.053873 1.552974 -0.004473 1.281313
  time 339
    0 0.000000 0.000000 1.053873 1.552974 -0.004473 1.281313
  time 340
    0 0.000000 0.000000 1.053873 1.552974 -0.004473 1.281313
  time 341
    0 0.000000 0.000000 1.053873 1.552974 -0.004473 1.281313
  time 342
    0 0.000000 0.000000 1.053873 1.552974 -0.004473 1.281313
  time 343
    0 0.000000 0.000000 1.053873 1.552974 -0.004473 1.281313
  time 344
    0 0.000000 0.000000 1.053873 1.552974 -0.004473 1.281313
  time 345
    0 0.000000 0.000000 1.053873 1.552974 -0.004473 1.281313
  time 346
    0 0.000000 0.000000 1.053873 1.552974 -0.004473 1.281313
  time 347
    0 0.000000 0.000000 1.053873 1.552974 -0.004473 1.281313
  time 348
    0 0.000000 0.000000 1.053873 1.552974 -0.004473 1.281313
  time 349
    0 0.000000 0.000000 1.053873 1.552974 -0.004473 1.281313
  time 350
    0 0.000000 0.000000 1.053873 1.552974 -0.004473 1.281313
  time 351
    0 0.000000 0.000000 1.053873 1.552974 -0.004473 1.281313
  time 352
    0 0.000000 0.000000 1.053873 1.552974 -0.004473 1.281313
  time 353
    0 0.000000 0.000000 1.053873 1.552974 -0.004473 1.281313
  time 354
    0 0.000000 0.000000 1.053873 1.552974 -0.004473 1.281313
  time 355
    0 0.000000 0.000000 1.053873 1.552974 -0.004473 1.281313
  time 356
    0 0.000000 0.000000 1.053873 1.552974 -0.004473 1.281313
  time 357
    0 0.000000 0.000000 1.053873 1.552974 -0.004473 1.281313
  time 358
    0 0.000000 0.000000 1.053873 1.552974 -0.004473 1.281313
  time 359
    0 0.000000 0.000000 1.053873 1.552974 -0.004473 1.281313
  time 360
    0 0.000000 0.000000 1.053873 1.552974 -0.004473 1.281313
end
