version 1
nodes
  0 "root" -1
  1 "Bone01" 0
  2 "Bone_Lefthand" 1
  3 "hk-g11_root" 2
  4 "hk-g11_trigger" 3
  5 "hk-g11_bullet" 3
  6 "hk-g11_handle01" 3
  7 "hk-g11_handle02" 6
  8 "Bone_L_Upper" 1
  9 "Bone13" 2
  10 "Bone14" 9
  11 "Bone15" 10
  12 "Bone17" 2
  13 "Bone18" 12
  14 "Bone19" 13
  15 "Bone21" 2
  16 "Bone22" 15
  17 "Bone23" 16
  18 "Bone09" 2
  19 "Bone10" 18
  20 "Bone11" 19
  21 "Bone05" 2
  22 "Bone06" 21
  23 "Bone07" 22
  24 "Bone_Se_Hand-L" 2
  25 "Bone04" 0
  26 "Bone_Righthand" 25
  27 "Bone39" 26
  28 "Bone40" 27
  29 "Bone41" 28
  30 "Bone35" 26
  31 "Bone36" 30
  32 "Bone37" 31
  33 "Bone31" 26
  34 "Bone32" 33
  35 "Bone33" 34
  36 "Bone43" 26
  37 "Bone44" 36
  38 "Bone45" 37
  39 "Bone27" 26
  40 "Bone28" 39
  41 "Bone29" 40
  42 "Bone_Se_Hand-R" 26
  43 "Bone_R_Upper" 25
end
skeleton
  time 0
    0 4.945132 -5.558281 -10.211464 0.000000 -0.075235 -0.000003
    1 7.384263 3.561215 -0.030885 0.750898 -2.386457 -1.389558
    2 -0.071920 -8.498735 -0.104136 0.178716 0.515885 -0.471964
    3 1.301309 -2.858450 0.533806 -0.317190 -0.156087 -3.649922
    4 -0.633172 1.164522 0.000000 0.037320 0.000000 -0.422979
    5 -2.975238 0.585256 0.000002 0.000000 0.000000 1.961197
    6 0.471631 -4.176224 -0.013908 0.390400 -1.570796 0.000000
    7 0.798002 0.010359 -0.002600 0.000002 1.570796 0.000000
    8 1.257180 8.762585 -0.153713 -1.570562 0.002683 -1.566807
    9 -0.488518 -2.755602 -0.228260 -0.721249 -0.081949 -0.452612
    10 0.039887 -1.479790 0.029854 -1.744424 0.000000 0.000001
    11 0.028786 -1.075731 -0.023109 -1.070625 0.000000 0.000000
    12 0.125023 -3.051141 -0.574344 -0.799992 -0.047048 -0.393136
    13 -0.049759 -1.680544 0.100479 -1.558614 0.000000 -0.000002
    14 -0.034142 -1.148312 0.084782 -1.112872 0.000000 0.000000
    15 0.957766 -2.746780 -0.090302 0.268419 -0.071650 -0.178263
    16 -0.033420 -1.397129 -0.011257 -1.679732 0.000000 -0.000001
    17 -0.022360 -0.957436 0.018784 -1.105244 0.000000 0.000000
    18 -1.200213 -2.612689 -0.084481 -0.819559 0.107002 -0.434663
    19 -0.024967 -1.123934 0.017597 -1.746587 0.000000 0.000001
    20 -0.020057 -0.890968 0.010090 -0.424577 0.000000 0.000000
    21 0.583510 -1.197277 0.185379 0.041775 -0.932219 -0.526993
    22 1.535927 0.010246 0.005009 -0.115188 0.228157 -1.325298
    23 1.100771 0.004527 -0.010679 -0.031080 0.118321 -0.649585
    24 0.018587 -0.093240 -0.167774 3.423244 6.142883 -1.288278
    25 -6.817844 -3.649180 0.733114 -0.988728 -5.397259 -0.067634
    26 0.096944 -8.450418 -0.009365 -0.088840 -0.882257 0.488076
    27 0.447953 -2.798986 -0.200443 -0.805857 -0.098878 0.556583
    28 -0.032909 -1.480204 0.004940 -1.135932 0.000000 0.000002
    29 -0.027022 -1.076920 -0.020210 0.165353 0.000000 0.000000
    30 -0.249534 -2.846964 -0.174213 -0.518785 -0.091543 0.444345
    31 0.043235 -1.683941 0.096012 -1.409884 0.002823 -0.000167
    32 0.031729 -1.160830 0.058838 0.106677 0.000642 0.008372
    33 -0.963866 -2.785145 -0.085350 -0.084261 0.036917 0.292995
    34 0.028479 -1.403067 0.006271 -1.244457 0.000000 0.000000
    35 0.021413 -0.957781 0.020046 -0.446116 0.000000 0.000000
    36 1.164475 -2.543940 -0.170330 -0.843965 -0.017414 0.527819
    37 0.024032 -1.129042 0.017807 -1.014874 0.000000 0.000001
    38 0.014898 -0.883989 -0.019848 0.153136 0.000000 0.000000
    39 -0.500830 -1.428545 0.403292 -0.165057 0.013308 -2.700557
    40 1.522835 0.058681 0.016848 -0.199584 0.031079 0.338336
    41 1.117947 0.048424 -0.005766 0.004299 -0.024829 -0.115852
    42 -0.115961 -0.170294 -0.005135 0.565529 0.160611 1.289258
    43 -1.393470 8.839177 -0.239433 1.580804 -0.005023 -1.566847
  time 1
    0 4.894349 -4.609033 -9.992707 0.033233 -0.075180 -0.002501
    1 7.384263 3.561215 -0.030885 0.750898 -2.386457 -1.389558
    2 -0.071920 -8.498735 -0.104136 0.178716 0.515885 -0.471964
    3 1.301309 -2.858450 0.533806 -0.317190 -0.156087 -3.649922
    4 -0.633172 1.164522 0.000000 0.037320 0.000000 -0.422979
    5 -2.287717 -1.082764 0.000002 0.000000 0.000000 1.961197
    6 0.471631 -4.176224 -0.013908 0.390400 -1.570796 0.000000
    7 0.798002 0.010359 -0.002600 0.000002 1.570796 0.000000
    8 1.257180 8.762585 -0.153713 -1.570562 0.002683 -1.566807
    9 -0.488518 -2.755602 -0.228260 -0.721249 -0.081949 -0.452612
    10 0.039887 -1.479790 0.029854 -1.744424 0.000000 0.000001
    11 0.028786 -1.075731 -0.023109 -1.070625 0.000000 0.000000
    12 0.125023 -3.051141 -0.574344 -0.799992 -0.047048 -0.393136
    13 -0.049759 -1.680544 0.100479 -1.558614 0.000000 -0.000002
    14 -0.034142 -1.148312 0.084782 -1.112872 0.000000 0.000000
    15 0.957766 -2.746780 -0.090302 0.268419 -0.071650 -0.178263
    16 -0.033420 -1.397129 -0.011257 -1.679732 0.000000 -0.000001
    17 -0.022360 -0.957436 0.018784 -1.105244 0.000000 0.000000
    18 -1.200213 -2.612689 -0.084481 -0.819559 0.107002 -0.434663
    19 -0.024967 -1.123934 0.017597 -1.746587 0.000000 0.000001
    20 -0.020057 -0.890968 0.010090 -0.424577 0.000000 0.000000
    21 0.583510 -1.197277 0.185379 0.041775 -0.932219 -0.526993
    22 1.535927 0.010246 0.005009 -0.115188 0.228157 -1.325298
    23 1.100771 0.004527 -0.010679 -0.031080 0.118321 -0.649585
    24 0.018587 -0.093240 -0.167774 3.423244 6.142883 -1.288278
    25 -6.817844 -3.649180 0.733114 -0.988728 -5.397259 -0.067634
    26 0.096944 -8.450418 -0.009365 -0.088840 -0.882257 0.488076
    27 0.447953 -2.798986 -0.200443 -0.805857 -0.098878 0.556583
    28 -0.032909 -1.480204 0.004940 -1.135932 0.000000 0.000002
    29 -0.027022 -1.076920 -0.020210 0.165353 0.000000 0.000000
    30 -0.249534 -2.846964 -0.174213 -0.518785 -0.091543 0.444345
    31 0.043235 -1.683941 0.096012 -1.409884 0.002823 -0.000167
    32 0.031729 -1.160830 0.058838 0.106677 0.000642 0.008372
    33 -0.963866 -2.785145 -0.085350 -0.084261 0.036917 0.292995
    34 0.028479 -1.403067 0.006271 -1.244457 0.000000 0.000000
    35 0.021413 -0.957781 0.020046 -0.446116 0.000000 0.000000
    36 1.164475 -2.543940 -0.170330 -0.843965 -0.017414 0.527819
    37 0.024032 -1.129042 0.017807 -1.014874 0.000000 0.000001
    38 0.014898 -0.883989 -0.019848 0.153136 0.000000 0.000000
    39 -0.500830 -1.428545 0.403292 -0.165057 0.013308 -2.700557
    40 1.522835 0.058681 0.016848 -0.199584 0.031079 0.338336
    41 1.117947 0.048424 -0.005766 0.004299 -0.024829 -0.115852
    42 -0.115961 -0.170294 -0.005135 0.523687 -0.006841 1.234441
    43 -1.393470 8.839177 -0.239433 1.580804 -0.005023 -1.566847
  time 2
    0 4.921694 -5.335618 -10.074741 0.003080 -0.075198 -0.000243
    1 7.384263 3.561215 -0.030885 0.750898 -2.386457 -1.389558
    2 -0.071920 -8.498735 -0.104136 0.178716 0.515885 -0.471964
    3 1.301309 -2.858450 0.533806 -0.317190 -0.156087 -3.649922
    4 -0.633172 1.164522 0.000000 0.037320 0.000000 -0.422979
    5 -2.693980 -0.094452 0.000002 0.000000 0.000000 1.961197
    6 0.471631 -4.176224 -0.013908 0.390400 -1.570796 0.000000
    7 0.798002 0.010359 -0.002600 0.000002 1.570796 0.000000
    8 1.257180 8.762585 -0.153713 -1.570562 0.002683 -1.566807
    9 -0.488518 -2.755602 -0.228260 -0.721249 -0.081949 -0.452612
    10 0.039887 -1.479790 0.029854 -1.744424 0.000000 0.000001
    11 0.028786 -1.075731 -0.023109 -1.070625 0.000000 0.000000
    12 0.125023 -3.051141 -0.574344 -0.799992 -0.047048 -0.393136
    13 -0.049759 -1.680544 0.100479 -1.558614 0.000000 -0.000002
    14 -0.034142 -1.148312 0.084782 -1.112872 0.000000 0.000000
    15 0.957766 -2.746780 -0.090302 0.268419 -0.071650 -0.178263
    16 -0.033420 -1.397129 -0.011257 -1.679732 0.000000 -0.000001
    17 -0.022360 -0.957436 0.018784 -1.105244 0.000000 0.000000
    18 -1.200213 -2.612689 -0.084481 -0.819559 0.107002 -0.434663
    19 -0.024967 -1.123934 0.017597 -1.746587 0.000000 0.000001
    20 -0.020057 -0.890968 0.010090 -0.424577 0.000000 0.000000
    21 0.583510 -1.197277 0.185379 0.041775 -0.932219 -0.526993
    22 1.535927 0.010246 0.005009 -0.115188 0.228157 -1.325298
    23 1.100771 0.004527 -0.010679 -0.031080 0.118321 -0.649585
    24 0.018587 -0.093240 -0.167774 3.423244 6.142883 -1.288278
    25 -6.817844 -3.649180 0.733114 -0.988728 -5.397259 -0.067634
    26 0.096944 -8.450418 -0.009365 -0.088840 -0.882257 0.488076
    27 0.447953 -2.798986 -0.200443 -0.805857 -0.098878 0.556583
    28 -0.032909 -1.480204 0.004940 -1.135932 0.000000 0.000002
    29 -0.027022 -1.076920 -0.020210 0.165353 0.000000 0.000000
    30 -0.249534 -2.846964 -0.174213 -0.518785 -0.091543 0.444345
    31 0.043235 -1.683941 0.096012 -1.409884 0.002823 -0.000167
    32 0.031729 -1.160830 0.058838 0.106677 0.000642 0.008372
    33 -0.963866 -2.785145 -0.085350 -0.084261 0.036917 0.292995
    34 0.028479 -1.403067 0.006271 -1.244457 0.000000 0.000000
    35 0.021413 -0.957781 0.020046 -0.446116 0.000000 0.000000
    36 1.164475 -2.543940 -0.170330 -0.843965 -0.017414 0.527819
    37 0.024032 -1.129042 0.017807 -1.014874 0.000000 0.000001
    38 0.014898 -0.883989 -0.019848 0.153136 0.000000 0.000000
    39 -0.500830 -1.428545 0.403292 -0.165057 0.013308 -2.700557
    40 1.522835 0.058681 0.016848 -0.199584 0.031079 0.338336
    41 1.117947 0.048424 -0.005766 0.004299 -0.024829 -0.115852
    42 -0.115961 -0.170294 -0.005135 0.525786 -0.111445 1.206996
    43 -1.393470 8.839177 -0.239433 1.580804 -0.005023 -1.566847
  time 3
    0 4.945132 -6.253615 -10.152869 -0.027061 -0.075198 0.002015
    1 7.384263 3.561215 -0.030885 0.750898 -2.386457 -1.389558
    2 -0.071920 -8.498735 -0.104136 0.178716 0.515885 -0.471964
    3 1.301309 -2.858450 0.533806 -0.317190 -0.156087 -3.649922
    4 -0.633172 1.164522 0.000000 0.037320 0.000000 -0.422979
    5 -3.588538 2.077489 0.000002 0.000000 0.000000 1.961197
    6 0.471631 -4.176224 -0.013908 0.390400 -1.570796 0.000000
    7 0.798002 0.010359 -0.002600 0.000002 1.570796 0.000000
    8 1.257180 8.762585 -0.153713 -1.570562 0.002683 -1.566807
    9 -0.488518 -2.755602 -0.228260 -0.721249 -0.081949 -0.452612
    10 0.039887 -1.479790 0.029854 -1.744424 0.000000 0.000001
    11 0.028786 -1.075731 -0.023109 -1.070625 0.000000 0.000000
    12 0.125023 -3.051141 -0.574344 -0.799992 -0.047060 -0.393136
    13 -0.049759 -1.680544 0.100479 -1.558614 0.000000 -0.000002
    14 -0.034142 -1.148312 0.084782 -1.112872 0.000000 0.000000
    15 0.957766 -2.746780 -0.090302 0.268419 -0.071650 -0.178263
    16 -0.033420 -1.397129 -0.011257 -1.679732 0.000000 -0.000001
    17 -0.022360 -0.957436 0.018784 -1.105244 0.000000 0.000000
    18 -1.200213 -2.612689 -0.084481 -0.819559 0.107002 -0.434663
    19 -0.024967 -1.123934 0.017597 -1.746587 0.000000 0.000001
    20 -0.020057 -0.890968 0.010090 -0.424577 0.000000 0.000000
    21 0.583510 -1.197277 0.185379 0.041775 -0.932219 -0.526993
    22 1.535927 0.010246 0.005009 -0.115188 0.228157 -1.325298
    23 1.100771 0.004527 -0.010679 -0.031080 0.118321 -0.649585
    24 0.018587 -0.093240 -0.167774 3.423244 6.142883 -1.288278
    25 -6.817844 -3.649180 0.733114 -0.988728 -5.397259 -0.067634
    26 0.096944 -8.450418 -0.009365 -0.088840 -0.882257 0.488076
    27 0.447953 -2.798986 -0.200443 -0.805857 -0.098878 0.556583
    28 -0.032909 -1.480204 0.004940 -1.135932 0.000000 0.000002
    29 -0.027022 -1.076920 -0.020210 0.165353 0.000000 0.000000
    30 -0.249534 -2.846964 -0.174213 -0.518785 -0.091543 0.444345
    31 0.043235 -1.683941 0.096012 -1.409884 0.002823 -0.000167
    32 0.031729 -1.160830 0.058838 0.106677 0.000642 0.008372
    33 -0.963866 -2.785145 -0.085350 -0.084261 0.036917 0.292995
    34 0.028479 -1.403067 0.006271 -1.244457 0.000000 0.000000
    35 0.021413 -0.957781 0.020046 -0.446116 0.000000 0.000000
    36 1.164475 -2.543940 -0.170330 -0.843965 -0.017414 0.527819
    37 0.024032 -1.129042 0.017807 -1.014874 0.000000 0.000001
    38 0.014898 -0.883989 -0.019848 0.153136 0.000000 0.000000
    39 -0.500830 -1.428545 0.403292 -0.165057 0.013308 -2.700557
    40 1.522835 0.058681 0.016848 -0.199584 0.031079 0.338336
    41 1.117947 0.048424 -0.005766 0.004299 -0.024829 -0.115852
    42 -0.115961 -0.170294 -0.005135 0.530447 -0.162264 1.195227
    43 -1.393470 8.839177 -0.239433 1.580804 -0.005023 -1.566847
  time 4
    0 4.945132 -6.589562 -10.152869 -0.025575 -0.075198 0.001919
    1 7.384263 3.561215 -0.030885 0.750898 -2.386457 -1.389558
    2 -0.071920 -8.498735 -0.104136 0.178716 0.515885 -0.471964
    3 1.301309 -2.858450 0.533806 -0.317190 -0.156087 -3.649922
    4 -0.633172 1.164522 0.000000 0.037320 0.000000 -0.422979
    5 -4.483097 4.253337 0.000002 0.000000 0.000000 1.961197
    6 0.471631 -4.176224 -0.013908 0.390400 -1.570796 0.000000
    7 0.798002 0.010359 -0.002600 0.000002 1.570796 0.000000
    8 1.257180 8.762585 -0.153713 -1.570562 0.002683 -1.566807
    9 -0.488518 -2.755602 -0.228260 -0.721249 -0.081949 -0.452612
    10 0.039887 -1.479790 0.029854 -1.744424 0.000000 0.000001
    11 0.028786 -1.075731 -0.023109 -1.070625 0.000000 0.000000
    12 0.125023 -3.051141 -0.574344 -0.799992 -0.047048 -0.393136
    13 -0.049759 -1.680544 0.100479 -1.558614 0.000000 -0.000002
    14 -0.034142 -1.148312 0.084782 -1.112872 0.000000 0.000000
    15 0.957766 -2.746780 -0.090302 0.268419 -0.071650 -0.178263
    16 -0.033420 -1.397129 -0.011257 -1.679732 0.000000 -0.000001
    17 -0.022360 -0.957436 0.018784 -1.105244 0.000000 0.000000
    18 -1.200213 -2.612689 -0.084481 -0.819559 0.107002 -0.434663
    19 -0.024967 -1.123934 0.017597 -1.746587 0.000000 0.000001
    20 -0.020057 -0.890968 0.010090 -0.424577 0.000000 0.000000
    21 0.583510 -1.197277 0.185379 0.041775 -0.932219 -0.526993
    22 1.535927 0.010246 0.005009 -0.115188 0.228157 -1.325298
    23 1.100771 0.004527 -0.010679 -0.031080 0.118321 -0.649585
    24 0.018587 -0.093240 -0.167774 3.423244 6.142883 -1.288278
    25 -6.817844 -3.649180 0.733114 -0.988728 -5.397259 -0.067634
    26 0.096944 -8.450418 -0.009365 -0.088840 -0.882257 0.488076
    27 0.447953 -2.798986 -0.200443 -0.805857 -0.098878 0.556583
    28 -0.032909 -1.480204 0.004940 -1.135932 0.000000 0.000002
    29 -0.027022 -1.076920 -0.020210 0.165353 0.000000 0.000000
    30 -0.249534 -2.846964 -0.174213 -0.518785 -0.091543 0.444345
    31 0.043235 -1.683941 0.096012 -1.409884 0.002823 -0.000167
    32 0.031729 -1.160830 0.058838 0.106677 0.000642 0.008372
    33 -0.963866 -2.785145 -0.085350 -0.084261 0.036917 0.292995
    34 0.028479 -1.403067 0.006271 -1.244457 0.000000 0.000000
    35 0.021413 -0.957781 0.020046 -0.446116 0.000000 0.000000
    36 1.164475 -2.543940 -0.170330 -0.843965 -0.017414 0.527819
    37 0.024032 -1.129042 0.017807 -1.014874 0.000000 0.000001
    38 0.014898 -0.883989 -0.019848 0.153136 0.000000 0.000000
    39 -0.500830 -1.428545 0.403292 -0.160787 0.013293 -2.702015
    40 1.522835 0.058681 0.016848 -0.199488 0.032540 0.340715
    41 1.117947 0.048424 -0.005766 0.004299 -0.024829 -0.115852
    42 -0.115961 -0.170294 -0.005135 0.536510 -0.145585 1.202442
    43 -1.393470 8.839177 -0.239433 1.580804 -0.005023 -1.566847
  time 5
    0 4.945132 -6.835664 -10.148962 -0.021548 -0.075198 0.001582
    1 7.384263 3.561215 -0.030885 0.750898 -2.386457 -1.389558
    2 -0.071920 -8.498735 -0.104136 0.178716 0.515885 -0.471964
    3 1.301309 -2.858450 0.533806 -0.317190 -0.156087 -3.649922
    4 -0.633172 1.164522 0.000000 0.037320 0.000000 -0.422979
    5 -4.885453 5.233835 0.000002 0.000000 0.000000 1.961197
    6 0.471631 -4.176224 -0.013908 0.390400 -1.570796 0.000000
    7 0.798002 0.010359 -0.002600 0.000002 1.570796 0.000000
    8 1.257180 8.762585 -0.153713 -1.570562 0.002683 -1.566807
    9 -0.488518 -2.755602 -0.228260 -0.721249 -0.081949 -0.452612
    10 0.039887 -1.479790 0.029854 -1.744424 0.000000 0.000001
    11 0.028786 -1.075731 -0.023109 -1.070625 0.000000 0.000000
    12 0.125023 -3.051141 -0.574344 -0.799992 -0.047048 -0.393136
    13 -0.049759 -1.680544 0.100479 -1.558614 0.000000 -0.000002
    14 -0.034142 -1.148312 0.084782 -1.112872 0.000000 0.000000
    15 0.957766 -2.746780 -0.090302 0.268419 -0.071650 -0.178263
    16 -0.033420 -1.397129 -0.011257 -1.679732 0.000000 -0.000001
    17 -0.022360 -0.957436 0.018784 -1.105244 0.000000 0.000000
    18 -1.200213 -2.612689 -0.084481 -0.819559 0.107002 -0.434663
    19 -0.024967 -1.123934 0.017597 -1.746587 0.000000 0.000001
    20 -0.020057 -0.890968 0.010090 -0.424577 0.000000 0.000000
    21 0.583510 -1.197277 0.185379 0.041775 -0.932219 -0.526993
    22 1.535927 0.010246 0.005009 -0.115188 0.228157 -1.325298
    23 1.100771 0.004527 -0.010679 -0.031080 0.118321 -0.649585
    24 0.018587 -0.093240 -0.167774 3.423244 6.142883 -1.288278
    25 -6.817844 -3.649180 0.733114 -0.988728 -5.397259 -0.067634
    26 0.096944 -8.450418 -0.009365 -0.088840 -0.882257 0.488076
    27 0.447953 -2.798986 -0.200443 -0.805857 -0.098878 0.556583
    28 -0.032909 -1.480204 0.004940 -1.135932 0.000000 0.000002
    29 -0.027022 -1.076920 -0.020210 0.165353 0.000000 0.000000
    30 -0.249534 -2.846964 -0.174213 -0.518785 -0.091543 0.444345
    31 0.043235 -1.683941 0.096012 -1.409884 0.002823 -0.000167
    32 0.031729 -1.160830 0.058838 0.106677 0.000642 0.008372
    33 -0.963866 -2.785145 -0.085350 -0.084261 0.036917 0.292995
    34 0.028479 -1.403067 0.006271 -1.244457 0.000000 0.000000
    35 0.021413 -0.957781 0.020046 -0.446116 0.000000 0.000000
    36 1.164475 -2.543940 -0.170330 -0.843965 -0.017414 0.527819
    37 0.024032 -1.129042 0.017807 -1.014874 0.000000 0.000001
    38 0.014898 -0.883989 -0.019848 0.153136 0.000000 0.000000
    39 -0.500830 -1.428545 0.403292 -0.149214 0.013249 -2.705971
    40 1.522835 0.058681 0.016848 -0.199236 0.036546 0.347266
    41 1.117947 0.048424 -0.005766 0.004299 -0.024829 -0.115852
    42 -0.115961 -0.170294 -0.005135 0.543797 -0.103404 1.220491
    43 -1.393470 8.839177 -0.239433 1.580804 -0.005023 -1.566847
  time 6
    0 4.945132 -7.019263 -10.141149 -0.015616 -0.075198 0.001150
    1 7.384263 3.561215 -0.030885 0.750898 -2.386457 -1.389558
    2 -0.071920 -8.498735 -0.104136 0.178716 0.515885 -0.471964
    3 1.301309 -2.858450 0.533806 -0.317190 -0.156087 -3.649922
    4 -0.633172 1.164522 0.000000 0.035726 0.000000 -0.381487
    5 -4.834670 5.112738 0.000002 0.000000 0.000000 1.961197
    6 0.471631 -4.176224 -0.013908 0.390400 -1.570796 0.000000
    7 0.798002 0.010359 -0.002600 0.000002 1.570796 0.000000
    8 1.257180 8.762585 -0.153713 -1.570562 0.002683 -1.566807
    9 -0.488518 -2.755602 -0.228260 -0.721249 -0.081949 -0.452612
    10 0.039887 -1.479790 0.029854 -1.744424 0.000000 0.000001
    11 0.028786 -1.075731 -0.023109 -1.070625 0.000000 0.000000
    12 0.125023 -3.051141 -0.574344 -0.799992 -0.047048 -0.393136
    13 -0.049759 -1.680544 0.100479 -1.558614 0.000000 -0.000002
    14 -0.034142 -1.148312 0.084782 -1.112872 0.000000 0.000000
    15 0.957766 -2.746780 -0.090302 0.275344 -0.071578 -0.177543
    16 -0.033420 -1.397129 -0.011257 -1.671102 0.000000 -0.000001
    17 -0.022360 -0.957436 0.018784 -1.100542 0.000000 0.000000
    18 -1.200213 -2.612689 -0.084481 -0.819559 0.107002 -0.434663
    19 -0.024967 -1.123934 0.017597 -1.746587 0.000000 0.000001
    20 -0.020057 -0.890968 0.010090 -0.424577 0.000000 0.000000
    21 0.583510 -1.197277 0.185379 0.041775 -0.932219 -0.526993
    22 1.535927 0.010246 0.005009 -0.115188 0.228157 -1.325298
    23 1.100771 0.004527 -0.010679 -0.031080 0.118321 -0.649585
    24 0.018587 -0.093240 -0.167774 3.423244 6.142883 -1.288278
    25 -6.817844 -3.649180 0.733114 -0.988728 -5.397259 -0.067634
    26 0.096944 -8.450418 -0.009365 -0.088840 -0.882257 0.488076
    27 0.447953 -2.798986 -0.200443 -0.805857 -0.098878 0.556583
    28 -0.032909 -1.480204 0.004940 -1.135932 0.000000 0.000002
    29 -0.027022 -1.076920 -0.020210 0.165353 0.000000 0.000000
    30 -0.249534 -2.846964 -0.174213 -0.518785 -0.091543 0.444345
    31 0.043235 -1.683941 0.096012 -1.409884 0.002823 -0.000167
    32 0.031729 -1.160830 0.058838 0.106677 0.000642 0.008372
    33 -0.963866 -2.785145 -0.085350 -0.084261 0.036917 0.292995
    34 0.028479 -1.403067 0.006271 -1.244457 0.000000 0.000000
    35 0.021413 -0.957781 0.020046 -0.446116 0.000000 0.000000
    36 1.164475 -2.543940 -0.170330 -0.843965 -0.017414 0.527819
    37 0.024032 -1.129042 0.017807 -1.014874 0.000000 0.000001
    38 0.014898 -0.883989 -0.019848 0.153136 0.000000 0.000000
    39 -0.500830 -1.428545 0.403292 -0.132149 0.013175 -2.711790
    40 1.522835 0.058681 0.016848 -0.198841 0.042450 0.357131
    41 1.117947 0.048424 -0.005766 0.004299 -0.024829 -0.115852
    42 -0.115961 -0.170294 -0.005135 0.551277 -0.047498 1.243945
    43 -1.393470 8.839177 -0.239433 1.580804 -0.005023 -1.566847
  time 7
    0 4.945132 -7.167705 -10.137243 -0.008401 -0.075198 0.000622
    1 7.384263 3.561215 -0.030885 0.750898 -2.386457 -1.389558
    2 -0.071920 -8.498735 -0.104136 0.178716 0.515885 -0.471964
    3 1.301309 -2.858450 0.533806 -0.317190 -0.156087 -3.649938
    4 -0.633172 1.164522 0.000000 0.031496 0.000000 -0.272128
    5 -4.740917 4.886168 0.000002 0.000000 0.000000 1.961197
    6 0.471631 -4.176224 -0.013908 0.390400 -1.570796 0.000000
    7 0.798002 0.010359 -0.002600 0.000002 1.570796 0.000000
    8 1.257180 8.762585 -0.153713 -1.570562 0.002683 -1.566807
    9 -0.488518 -2.755602 -0.228260 -0.721249 -0.081949 -0.452612
    10 0.039887 -1.479790 0.029854 -1.744424 0.000000 0.000001
    11 0.028786 -1.075731 -0.023109 -1.070625 0.000000 0.000000
    12 0.125023 -3.051141 -0.574344 -0.799992 -0.047060 -0.393136
    13 -0.049759 -1.680544 0.100479 -1.558614 0.000000 -0.000002
    14 -0.034142 -1.148312 0.084782 -1.112839 0.000000 0.000000
    15 0.957766 -2.746780 -0.090302 0.293583 -0.071410 -0.175638
    16 -0.033420 -1.397129 -0.011257 -1.646371 0.000000 -0.000001
    17 -0.022360 -0.957436 0.018784 -1.087159 0.000000 0.000000
    18 -1.200213 -2.612689 -0.084481 -0.819559 0.107002 -0.434663
    19 -0.024967 -1.123934 0.017597 -1.746587 0.000000 0.000001
    20 -0.020057 -0.890968 0.010090 -0.424577 0.000000 0.000000
    21 0.583510 -1.197277 0.185379 0.041775 -0.932219 -0.526993
    22 1.535927 0.010246 0.005009 -0.115188 0.228157 -1.325298
    23 1.100771 0.004527 -0.010679 -0.031080 0.118321 -0.649585
    24 0.018587 -0.093240 -0.167774 3.423244 6.142883 -1.288278
    25 -6.817844 -3.649180 0.733114 -0.988728 -5.397259 -0.067634
    26 0.096944 -8.450418 -0.009365 -0.088840 -0.882257 0.488076
    27 0.447953 -2.798986 -0.200443 -0.805857 -0.098878 0.556583
    28 -0.032909 -1.480204 0.004940 -1.135932 0.000000 0.000002
    29 -0.027022 -1.076920 -0.020210 0.165353 0.000000 0.000000
    30 -0.249534 -2.846964 -0.174213 -0.518785 -0.091543 0.444345
    31 0.043235 -1.683941 0.096012 -1.409884 0.002823 -0.000167
    32 0.031729 -1.160830 0.058838 0.106677 0.000642 0.008372
    33 -0.963866 -2.785145 -0.085350 -0.084261 0.036917 0.292995
    34 0.028479 -1.403067 0.006271 -1.244457 0.000000 0.000000
    35 0.021413 -0.957781 0.020046 -0.446116 0.000000 0.000000
    36 1.164475 -2.543940 -0.170330 -0.843965 -0.017414 0.527819
    37 0.024032 -1.129042 0.017807 -1.014874 0.000000 0.000001
    38 0.014898 -0.883989 -0.019848 0.153136 0.000000 0.000000
    39 -0.500830 -1.428545 0.403292 -0.111417 0.013086 -2.718865
    40 1.522835 0.058681 0.016848 -0.198349 0.049604 0.369453
    41 1.117947 0.048424 -0.005766 0.004299 -0.024829 -0.115852
    42 -0.115961 -0.170294 -0.005135 0.557921 0.010355 1.267411
    43 -1.393470 8.839177 -0.239433 1.580804 -0.005023 -1.566847
  time 8
    0 4.945132 -7.304428 -10.137243 -0.000551 -0.075198 -0.000003
    1 7.384263 3.561215 -0.030885 0.750898 -2.386457 -1.389558
    2 -0.071920 -8.498735 -0.104136 0.178716 0.515885 -0.471964
    3 1.301309 -2.858450 0.533806 -0.317190 -0.156087 -3.649922
    4 -0.633172 1.164522 0.000000 0.025515 0.000000 -0.117477
    5 -4.694041 4.765071 0.000002 0.000000 0.000000 1.961197
    6 0.471631 -4.176224 -0.013908 0.390400 -1.570796 0.000000
    7 0.798002 0.010359 -0.002600 0.000002 1.570796 0.000000
    8 1.257180 8.762585 -0.153713 -1.570562 0.002683 -1.566807
    9 -0.488518 -2.755602 -0.228260 -0.721249 -0.081949 -0.452612
    10 0.039887 -1.479790 0.029854 -1.744424 0.000000 0.000001
    11 0.028786 -1.075731 -0.023109 -1.070625 0.000000 0.000000
    12 0.125023 -3.051141 -0.574344 -0.799992 -0.047048 -0.393136
    13 -0.049759 -1.680544 0.100479 -1.558614 0.000000 -0.000002
    14 -0.034142 -1.148312 0.084782 -1.112839 0.000000 0.000000
    15 0.957766 -2.746780 -0.090302 0.319374 -0.071158 -0.172857
    16 -0.033420 -1.397129 -0.011257 -1.607334 0.000000 -0.000001
    17 -0.022360 -0.957436 0.018784 -1.065978 0.000000 0.000000
    18 -1.200213 -2.612689 -0.084481 -0.819559 0.107002 -0.434663
    19 -0.024967 -1.123934 0.017597 -1.746587 0.000000 0.000001
    20 -0.020057 -0.890968 0.010090 -0.424577 0.000000 0.000000
    21 0.583510 -1.197277 0.185379 0.041775 -0.932219 -0.526993
    22 1.535927 0.010246 0.005009 -0.115188 0.228157 -1.325298
    23 1.100771 0.004527 -0.010679 -0.031080 0.118321 -0.649585
    24 0.018587 -0.093240 -0.167774 3.423244 6.142883 -1.288278
    25 -6.817844 -3.649180 0.733114 -0.988728 -5.397259 -0.067634
    26 0.096944 -8.450418 -0.009365 -0.088840 -0.882257 0.488076
    27 0.447953 -2.798986 -0.200443 -0.805857 -0.098878 0.556583
    28 -0.032909 -1.480204 0.004940 -1.135932 0.000000 0.000002
    29 -0.027022 -1.076920 -0.020210 0.165353 0.000000 0.000000
    30 -0.249534 -2.846964 -0.174213 -0.518785 -0.091543 0.444345
    31 0.043235 -1.683941 0.096012 -1.409884 0.002823 -0.000167
    32 0.031729 -1.160830 0.058838 0.106677 0.000642 0.008372
    33 -0.963866 -2.785145 -0.085350 -0.084261 0.036917 0.292995
    34 0.028479 -1.403067 0.006271 -1.244457 0.000000 0.000000
    35 0.021413 -0.957781 0.020046 -0.446116 0.000000 0.000000
    36 1.164475 -2.543940 -0.170330 -0.843965 -0.017414 0.527819
    37 0.024032 -1.129042 0.017807 -1.014874 0.000000 0.000001
    38 0.014898 -0.883989 -0.019848 0.153136 0.000000 0.000000
    39 -0.500830 -1.428545 0.403292 -0.088859 0.012997 -2.726574
    40 1.522835 0.058681 0.016848 -0.197786 0.057390 0.383413
    41 1.117947 0.048424 -0.005766 0.004299 -0.024829 -0.115852
    42 -0.115961 -0.170294 -0.005135 0.562710 0.058431 1.285459
    43 -1.393470 8.839177 -0.239433 1.580804 -0.005023 -1.566847
  time 9
    0 4.945132 -7.429432 -10.152869 0.007287 -0.075198 -0.000580
    1 7.384263 3.561215 -0.030885 0.750898 -2.386457 -1.389558
    2 -0.071920 -8.498735 -0.104136 0.178716 0.515885 -0.471964
    3 1.301309 -2.858450 0.533806 -0.317190 -0.156087 -3.649922
    4 -0.633172 1.164522 0.000000 0.018660 0.000000 0.059807
    5 -4.694041 4.765071 0.000002 0.000000 0.000000 1.961197
    6 0.471631 -4.176224 -0.013908 0.390400 -1.570796 0.000000
    7 0.798002 0.010359 -0.002600 0.000002 1.570796 0.000000
    8 1.257180 8.762585 -0.153713 -1.570562 0.002683 -1.566807
    9 -0.488518 -2.755602 -0.228260 -0.721249 -0.081949 -0.452612
    10 0.039887 -1.479790 0.029854 -1.744424 0.000000 0.000001
    11 0.028786 -1.075731 -0.023109 -1.070625 0.000000 0.000000
    12 0.125023 -3.051141 -0.574344 -0.799992 -0.047048 -0.393136
    13 -0.049759 -1.680544 0.100479 -1.558614 0.000000 -0.000002
    14 -0.034142 -1.148312 0.084782 -1.112872 0.000000 0.000000
    15 0.957766 -2.746780 -0.090302 0.348928 -0.070871 -0.169526
    16 -0.033420 -1.397129 -0.011257 -1.555786 0.000000 -0.000001
    17 -0.022360 -0.957436 0.018784 -1.038006 0.000000 0.000000
    18 -1.200213 -2.612689 -0.084481 -0.819559 0.107002 -0.434663
    19 -0.024967 -1.123934 0.017597 -1.746587 0.000000 0.000001
    20 -0.020057 -0.890968 0.010090 -0.424577 0.000000 0.000000
    21 0.583510 -1.197277 0.185379 0.041775 -0.932219 -0.526993
    22 1.535927 0.010246 0.005009 -0.115188 0.228157 -1.325298
    23 1.100771 0.004527 -0.010679 -0.031080 0.118321 -0.649585
    24 0.018587 -0.093240 -0.167774 3.423244 6.142883 -1.288278
    25 -6.817844 -3.649180 0.733114 -0.988728 -5.397259 -0.067634
    26 0.096944 -8.450418 -0.009365 -0.088840 -0.882257 0.488076
    27 0.447953 -2.798986 -0.200443 -0.805857 -0.098878 0.556583
    28 -0.032909 -1.480204 0.004940 -1.135932 0.000000 0.000002
    29 -0.027022 -1.076920 -0.020210 0.165353 0.000000 0.000000
    30 -0.249534 -2.846964 -0.174213 -0.518785 -0.091543 0.444345
    31 0.043235 -1.683941 0.096012 -1.409884 0.002823 -0.000167
    32 0.031729 -1.160830 0.058838 0.106677 0.000642 0.008372
    33 -0.963866 -2.785145 -0.085350 -0.084261 0.036917 0.292995
    34 0.028479 -1.403067 0.006271 -1.244457 0.000000 0.000000
    35 0.021413 -0.957781 0.020046 -0.446116 0.000000 0.000000
    36 1.164475 -2.543940 -0.170330 -0.843965 -0.017414 0.527819
    37 0.024032 -1.129042 0.017807 -1.014874 0.000000 0.000001
    38 0.014898 -0.883989 -0.019848 0.153136 0.000000 0.000000
    39 -0.500830 -1.428545 0.403292 -0.066301 0.012893 -2.734269
    40 1.522835 0.058681 0.016848 -0.197199 0.065191 0.398113
    41 1.117947 0.048424 -0.005766 0.004299 -0.024829 -0.115852
    42 -0.115961 -0.170294 -0.005135 0.564602 0.084926 1.292674
    43 -1.393470 8.839177 -0.239433 1.580804 -0.005023 -1.566847
  time 10
    0 4.945132 -7.527091 -10.195839 0.014501 -0.075198 -0.001108
    1 7.384263 3.561215 -0.030885 0.750898 -2.386457 -1.389558
    2 -0.071920 -8.498735 -0.104136 0.178716 0.515885 -0.471964
    3 1.301309 -2.858450 0.533806 -0.317190 -0.156087 -3.649922
    4 -0.633172 1.164522 0.000000 0.011805 0.000000 0.237091
    5 -4.694041 4.765071 0.000002 0.000000 0.000000 1.961197
    6 0.471631 -4.176224 -0.013908 0.390400 -1.570796 0.000000
    7 0.798002 0.010359 -0.002600 0.000002 1.570796 0.000000
    8 1.257180 8.762585 -0.153713 -1.570562 0.002683 -1.566807
    9 -0.488518 -2.755602 -0.228260 -0.721249 -0.081949 -0.452612
    10 0.039887 -1.479790 0.029854 -1.744424 0.000000 0.000001
    11 0.028786 -1.075731 -0.023109 -1.070625 0.000000 0.000000
    12 0.125023 -3.051141 -0.574344 -0.799992 -0.047048 -0.393136
    13 -0.049759 -1.680544 0.100479 -1.558614 0.000000 -0.000002
    14 -0.034142 -1.148312 0.084782 -1.112872 0.000000 0.000000
    15 0.957766 -2.746780 -0.090302 0.378495 -0.070595 -0.166002
    16 -0.033420 -1.397129 -0.011257 -1.493523 0.000000 -0.000001
    17 -0.022360 -0.957436 0.018784 -1.004206 0.000000 0.000000
    18 -1.200213 -2.612689 -0.084481 -0.819559 0.107002 -0.434663
    19 -0.024967 -1.123934 0.017597 -1.746587 0.000000 0.000001
    20 -0.020057 -0.890968 0.010090 -0.424577 0.000000 0.000000
    21 0.583510 -1.197277 0.185379 0.041775 -0.932219 -0.526993
    22 1.535927 0.010246 0.005009 -0.115188 0.228157 -1.325298
    23 1.100771 0.004527 -0.010679 -0.031080 0.118321 -0.649585
    24 0.018587 -0.093240 -0.167774 3.423244 6.142883 -1.288278
    25 -6.817844 -3.649180 0.733114 -0.988728 -5.397259 -0.067634
    26 0.096944 -8.450418 -0.009365 -0.088840 -0.882257 0.488076
    27 0.447953 -2.798986 -0.200443 -0.805857 -0.098878 0.556583
    28 -0.032909 -1.480204 0.004940 -1.135932 0.000000 0.000002
    29 -0.027022 -1.076920 -0.020210 0.165353 0.000000 0.000000
    30 -0.249534 -2.846964 -0.174213 -0.518785 -0.091543 0.444345
    31 0.043235 -1.683941 0.096012 -1.409884 0.002823 -0.000167
    32 0.031729 -1.160830 0.058838 0.106677 0.000642 0.008372
    33 -0.963866 -2.785145 -0.085350 -0.084261 0.036917 0.292995
    34 0.028479 -1.403067 0.006271 -1.244457 0.000000 0.000000
    35 0.021413 -0.957781 0.020046 -0.446116 0.000000 0.000000
    36 1.164475 -2.543940 -0.170330 -0.843965 -0.017414 0.527819
    37 0.024032 -1.129042 0.017807 -1.014874 0.000000 0.000001
    38 0.014898 -0.883989 -0.019848 0.153136 0.000000 0.000000
    39 -0.500830 -1.428545 0.403292 -0.045584 0.012805 -2.741357
    40 1.522835 0.058681 0.016848 -0.196587 0.072345 0.412736
    41 1.117947 0.048424 -0.005766 0.004299 -0.024829 -0.115852
    42 -0.115961 -0.170294 -0.005135 0.564718 0.096134 1.292638
    43 -1.393470 8.839177 -0.239433 1.580804 -0.005023 -1.566847
  time 11
    0 4.945132 -7.597406 -10.254434 0.020434 -0.075198 -0.001540
    1 7.384263 3.561215 -0.030885 0.750898 -2.386457 -1.389558
    2 -0.071920 -8.498735 -0.104136 0.178716 0.515885 -0.471964
    3 1.301309 -2.858450 0.533806 -0.317190 -0.156087 -3.649922
    4 -0.633172 1.164522 0.000000 0.005825 0.000000 0.391742
    5 -4.694041 4.765071 0.000002 0.000000 0.000000 1.961197
    6 0.471631 -4.176224 -0.013908 0.390400 -1.570796 0.000000
    7 0.798002 0.010359 -0.002600 0.000002 1.570796 0.000000
    8 1.257180 8.762585 -0.153713 -1.570562 0.002683 -1.566807
    9 -0.488518 -2.755602 -0.228260 -0.721249 -0.081949 -0.452612
    10 0.039887 -1.479790 0.029854 -1.744424 0.000000 0.000001
    11 0.028786 -1.075731 -0.023109 -1.070625 0.000000 0.000000
    12 0.125023 -3.051141 -0.574344 -0.799992 -0.047048 -0.393136
    13 -0.049759 -1.680544 0.100479 -1.558614 0.000000 -0.000002
    14 -0.034142 -1.148312 0.084782 -1.112872 0.000000 0.000000
    15 0.957766 -2.746780 -0.090302 0.404287 -0.070343 -0.162587
    16 -0.033420 -1.397129 -0.011257 -1.422341 0.000000 -0.000001
    17 -0.022360 -0.957436 0.018784 -0.965583 0.000000 0.000000
    18 -1.200213 -2.612689 -0.084481 -0.819559 0.107002 -0.434663
    19 -0.024967 -1.123934 0.017597 -1.746587 0.000000 0.000001
    20 -0.020057 -0.890968 0.010090 -0.424577 0.000000 0.000000
    21 0.583510 -1.197277 0.185379 0.041775 -0.932219 -0.526993
    22 1.535927 0.010246 0.005009 -0.115188 0.228157 -1.325298
    23 1.100771 0.004527 -0.010679 -0.031080 0.118321 -0.649585
    24 0.018587 -0.093240 -0.167774 3.423244 6.142883 -1.288278
    25 -6.817844 -3.649180 0.733114 -0.988728 -5.397259 -0.067634
    26 0.096944 -8.450418 -0.009365 -0.088840 -0.882257 0.488076
    27 0.447953 -2.798986 -0.200443 -0.805857 -0.098878 0.556583
    28 -0.032909 -1.480204 0.004940 -1.135932 0.000000 0.000002
    29 -0.027022 -1.076920 -0.020210 0.165353 0.000000 0.000000
    30 -0.249534 -2.846964 -0.174213 -0.518785 -0.091543 0.444345
    31 0.043235 -1.683941 0.096012 -1.409884 0.002823 -0.000167
    32 0.031729 -1.160830 0.058838 0.106677 0.000642 0.008372
    33 -0.963866 -2.785145 -0.085350 -0.084261 0.036917 0.292995
    34 0.028479 -1.403067 0.006271 -1.244457 0.000000 0.000000
    35 0.021413 -0.957781 0.020046 -0.446116 0.000000 0.000000
    36 1.164475 -2.543940 -0.170330 -0.843965 -0.017414 0.527819
    37 0.024032 -1.129042 0.017807 -1.014874 0.000000 0.000001
    38 0.014898 -0.883989 -0.019848 0.153136 0.000000 0.000000
    39 -0.500830 -1.428545 0.403292 -0.028503 0.012730 -2.747176
    40 1.522835 0.058681 0.016848 -0.196024 0.078249 0.426422
    41 1.117947 0.048424 -0.005766 0.004299 -0.024829 -0.115852
    42 -0.115961 -0.170294 -0.005135 0.564821 0.106228 1.292530
    43 -1.393470 8.839177 -0.239433 1.580804 -0.005023 -1.566847
  time 12
    0 4.945132 -7.636469 -10.305217 0.024473 -0.075198 -0.001877
    1 7.384263 3.561215 -0.030885 0.750898 -2.386457 -1.389558
    2 -0.071920 -8.498735 -0.104136 0.178716 0.515885 -0.471964
    3 1.301309 -2.858450 0.533806 -0.317190 -0.156087 -3.649922
    4 -0.633172 1.164522 0.000000 0.001594 0.000000 0.501130
    5 -4.694041 4.765071 0.000002 0.000000 0.000000 1.961197
    6 0.471631 -4.176224 -0.013908 0.390400 -1.570796 0.000000
    7 0.798002 0.010359 -0.002600 0.000002 1.570796 0.000000
    8 1.257180 8.762585 -0.153713 -1.570562 0.002683 -1.566807
    9 -0.488518 -2.755602 -0.228260 -0.721249 -0.081949 -0.452612
    10 0.039887 -1.479790 0.029854 -1.744424 0.000000 0.000001
    11 0.028786 -1.075731 -0.023109 -1.070625 0.000000 0.000000
    12 0.125023 -3.051141 -0.574344 -0.799992 -0.047048 -0.393136
    13 -0.049759 -1.680544 0.100479 -1.558614 0.000000 -0.000002
    14 -0.034142 -1.148312 0.084782 -1.112872 0.000000 0.000000
    15 0.957766 -2.746780 -0.090302 0.422526 -0.070163 -0.159614
    16 -0.033420 -1.397129 -0.011257 -1.343977 0.000000 -0.000001
    17 -0.022360 -0.957436 0.018784 -0.923062 0.000000 0.000000
    18 -1.200213 -2.612689 -0.084481 -0.819559 0.107002 -0.434663
    19 -0.024967 -1.123934 0.017597 -1.746587 0.000000 0.000001
    20 -0.020057 -0.890968 0.010090 -0.424577 0.000000 0.000000
    21 0.583510 -1.197277 0.185379 0.041775 -0.932219 -0.526993
    22 1.535927 0.010246 0.005009 -0.115188 0.228157 -1.325298
    23 1.100771 0.004527 -0.010679 -0.031080 0.118321 -0.649585
    24 0.018587 -0.093240 -0.167774 3.423244 6.142883 -1.288278
    25 -6.817844 -3.649180 0.733114 -0.988728 -5.397259 -0.067634
    26 0.096944 -8.450418 -0.009365 -0.088840 -0.882257 0.488076
    27 0.447953 -2.798986 -0.200443 -0.805857 -0.098878 0.556583
    28 -0.032909 -1.480204 0.004940 -1.135932 0.000000 0.000002
    29 -0.027022 -1.076920 -0.020210 0.165353 0.000000 0.000000
    30 -0.249534 -2.846964 -0.174213 -0.518785 -0.091543 0.444345
    31 0.043235 -1.683941 0.096012 -1.409884 0.002823 -0.000167
    32 0.031729 -1.160830 0.058838 0.106677 0.000642 0.008372
    33 -0.963866 -2.785145 -0.085350 -0.084261 0.036917 0.292995
    34 0.028479 -1.403067 0.006271 -1.244457 0.000000 0.000000
    35 0.021413 -0.957781 0.020046 -0.446116 0.000000 0.000000
    36 1.164475 -2.543940 -0.170330 -0.843965 -0.017414 0.527819
    37 0.024032 -1.129042 0.017807 -1.014874 0.000000 0.000001
    38 0.014898 -0.883989 -0.019848 0.153136 0.000000 0.000000
    39 -0.500830 -1.428545 0.403292 -0.016931 0.012686 -2.751132
    40 1.522835 0.058681 0.016848 -0.195509 0.082240 0.438276
    41 1.117947 0.048424 -0.005766 0.004299 -0.024829 -0.115852
    42 -0.115961 -0.170294 -0.005135 0.564911 0.115263 1.292362
    43 -1.393470 8.839177 -0.239433 1.580804 -0.005023 -1.566847
  time 13
    0 4.945132 -7.652095 -10.344281 0.025959 -0.075198 -0.001973
    1 7.384263 3.561215 -0.030885 0.750898 -2.386457 -1.389558
    2 -0.071920 -8.498735 -0.104136 0.178716 0.515885 -0.471964
    3 1.301309 -2.858450 0.533806 -0.317190 -0.156087 -3.649922
    4 -0.633172 1.164522 0.000000 0.000000 0.000000 0.542622
    5 -4.694041 4.765071 0.000002 0.000000 0.000000 1.961197
    6 0.471631 -4.176224 -0.013908 0.390400 -1.570796 0.000000
    7 0.798002 0.010359 -0.002600 0.000002 1.570796 0.000000
    8 1.257180 8.762585 -0.153713 -1.570562 0.002683 -1.566807
    9 -0.488518 -2.755602 -0.228260 -0.721249 -0.081949 -0.452612
    10 0.039887 -1.479790 0.029854 -1.744424 0.000000 0.000001
    11 0.028786 -1.075731 -0.023109 -1.070625 0.000000 0.000000
    12 0.125023 -3.051141 -0.574344 -0.799992 -0.047048 -0.393136
    13 -0.049759 -1.680544 0.100479 -1.558614 0.000000 -0.000002
    14 -0.034142 -1.148312 0.084782 -1.112872 0.000000 0.000000
    15 0.957766 -2.746780 -0.090302 0.429451 -0.070104 -0.157433
    16 -0.033420 -1.397129 -0.011257 -1.260284 0.000000 -0.000001
    17 -0.022360 -0.957436 0.018784 -0.877607 0.000000 0.000000
    18 -1.200213 -2.612689 -0.084481 -0.819559 0.107002 -0.434663
    19 -0.024967 -1.123934 0.017597 -1.746587 0.000000 0.000001
    20 -0.020057 -0.890968 0.010090 -0.424577 0.000000 0.000000
    21 0.583510 -1.197277 0.185379 0.041775 -0.932219 -0.526993
    22 1.535927 0.010246 0.005009 -0.115188 0.228157 -1.325298
    23 1.100771 0.004527 -0.010679 -0.031080 0.118321 -0.649585
    24 0.018587 -0.093240 -0.167774 3.423244 6.142883 -1.288278
    25 -6.817844 -3.649180 0.733114 -0.988728 -5.397259 -0.067634
    26 0.096944 -8.450418 -0.009365 -0.088840 -0.882257 0.488076
    27 0.447953 -2.798986 -0.200443 -0.805857 -0.098878 0.556583
    28 -0.032909 -1.480204 0.004940 -1.135932 0.000000 0.000002
    29 -0.027022 -1.076920 -0.020210 0.165353 0.000000 0.000000
    30 -0.249534 -2.846964 -0.174213 -0.518785 -0.091543 0.444345
    31 0.043235 -1.683941 0.096012 -1.409884 0.002823 -0.000167
    32 0.031729 -1.160830 0.058838 0.106677 0.000642 0.008372
    33 -0.963866 -2.785145 -0.085350 -0.084261 0.036917 0.292995
    34 0.028479 -1.403067 0.006271 -1.244457 0.000000 0.000000
    35 0.021413 -0.957781 0.020046 -0.446116 0.000000 0.000000
    36 1.164475 -2.543940 -0.170330 -0.843965 -0.017414 0.527819
    37 0.024032 -1.129042 0.017807 -1.014874 0.000000 0.000001
    38 0.014898 -0.883989 -0.019848 0.153136 0.000000 0.000000
    39 -0.500830 -1.428545 0.403292 -0.012660 0.012671 -2.752590
    40 1.522835 0.058681 0.016848 -0.195089 0.083716 0.447518
    41 1.117947 0.048424 -0.005766 0.004299 -0.024829 -0.115852
    42 -0.115961 -0.170294 -0.005135 0.565001 0.123278 1.292147
    43 -1.393470 8.839177 -0.239433 1.580804 -0.005023 -1.566847
  time 14
    0 4.945132 -7.632563 -10.367719 0.024736 -0.075198 -0.001877
    1 7.384263 3.561215 -0.030885 0.750898 -2.386457 -1.389558
    2 -0.071920 -8.498735 -0.104136 0.178716 0.515885 -0.471964
    3 1.301309 -2.858450 0.533806 -0.317190 -0.156087 -3.649922
    4 -0.633172 1.164522 0.000000 0.000000 0.000000 0.542622
    5 -4.694041 4.765071 0.000002 0.000000 0.000000 1.961197
    6 0.471631 -4.176224 -0.013908 0.390400 -1.570796 0.000000
    7 0.798002 0.010359 -0.002600 0.000002 1.570796 0.000000
    8 1.257180 8.762585 -0.153713 -1.570562 0.002683 -1.566807
    9 -0.488518 -2.755602 -0.228260 -0.721249 -0.081949 -0.452612
    10 0.039887 -1.479790 0.029854 -1.744424 0.000000 0.000001
    11 0.028786 -1.075731 -0.023109 -1.070625 0.000000 0.000000
    12 0.125023 -3.051141 -0.574344 -0.799992 -0.047060 -0.393136
    13 -0.049759 -1.680544 0.100479 -1.558614 0.000000 -0.000002
    14 -0.034142 -1.148312 0.084782 -1.112839 0.000000 0.000000
    15 0.957766 -2.746780 -0.090302 0.426370 -0.071853 -0.155767
    16 -0.033420 -1.397129 -0.011257 -1.173000 0.000000 -0.000001
    17 -0.022360 -0.957436 0.018784 -0.830263 0.000000 0.000000
    18 -1.200213 -2.612689 -0.084481 -0.819559 0.107002 -0.434663
    19 -0.024967 -1.123934 0.017597 -1.746587 0.000000 0.000001
    20 -0.020057 -0.890968 0.010090 -0.424577 0.000000 0.000000
    21 0.583510 -1.197277 0.185379 0.041775 -0.932219 -0.526993
    22 1.535927 0.010246 0.005009 -0.115188 0.228157 -1.325298
    23 1.100771 0.004527 -0.010679 -0.031080 0.118321 -0.649585
    24 0.018587 -0.093240 -0.167774 3.423244 6.142883 -1.288278
    25 -6.817844 -3.649180 0.733114 -0.988728 -5.397259 -0.067634
    26 0.096944 -8.450418 -0.009365 -0.088840 -0.882257 0.488076
    27 0.447953 -2.798986 -0.200443 -0.805857 -0.098878 0.556583
    28 -0.032909 -1.480204 0.004940 -1.135932 0.000000 0.000002
    29 -0.027022 -1.076920 -0.020210 0.165353 0.000000 0.000000
    30 -0.249534 -2.846964 -0.174213 -0.518785 -0.091543 0.444345
    31 0.043235 -1.683941 0.096012 -1.409884 0.002823 -0.000167
    32 0.031729 -1.160830 0.058838 0.106677 0.000642 0.008372
    33 -0.963866 -2.785145 -0.085350 -0.084261 0.036917 0.292995
    34 0.028479 -1.403067 0.006271 -1.244457 0.000000 0.000000
    35 0.021413 -0.957781 0.020046 -0.446116 0.000000 0.000000
    36 1.164475 -2.543940 -0.170330 -0.843965 -0.017414 0.527819
    37 0.024032 -1.129042 0.017807 -1.014874 0.000000 0.000001
    38 0.014898 -0.883989 -0.019848 0.153136 0.000000 0.000000
    39 -0.500830 -1.428545 0.403292 -0.012660 0.012671 -2.752590
    40 1.522835 0.058681 0.016848 -0.194718 0.083339 0.455044
    41 1.117947 0.048424 -0.005766 0.004299 -0.024829 -0.115852
    42 -0.115961 -0.170294 -0.005135 0.565092 0.130339 1.291883
    43 -1.393470 8.839177 -0.239433 1.580804 -0.005023 -1.566847
  time 15
    0 4.945132 -7.585687 -10.391157 0.021608 -0.075198 -0.001636
    1 7.384263 3.561215 -0.030885 0.750898 -2.386457 -1.389558
    2 -0.071920 -8.498735 -0.104136 0.178716 0.515885 -0.471964
    3 1.301309 -2.858450 0.533806 -0.317190 -0.156087 -3.649922
    4 -0.633172 1.164522 0.000000 0.000000 0.000000 0.542622
    5 -4.694041 4.765071 0.000002 0.000000 0.000000 1.961197
    6 0.471631 -4.176224 -0.013908 0.390400 -1.570796 0.000000
    7 0.798002 0.010359 -0.002600 0.000002 1.570796 0.000000
    8 1.257180 8.762585 -0.153713 -1.570562 0.002683 -1.566807
    9 -0.488518 -2.755602 -0.228260 -0.721249 -0.081949 -0.452612
    10 0.039887 -1.479790 0.029854 -1.744424 0.000000 0.000001
    11 0.028786 -1.075731 -0.023109 -1.070625 0.000000 0.000000
    12 0.125023 -3.051141 -0.574344 -0.799992 -0.047048 -0.393136
    13 -0.049759 -1.680544 0.100479 -1.558614 0.000000 -0.000002
    14 -0.034142 -1.148312 0.084782 -1.112872 0.000000 0.000000
    15 0.957766 -2.746780 -0.090302 0.417864 -0.076683 -0.154138
    16 -0.033420 -1.397129 -0.011257 -1.083921 0.000000 -0.000001
    17 -0.022360 -0.957436 0.018784 -0.781914 0.000000 0.000000
    18 -1.200213 -2.612689 -0.084481 -0.819559 0.107002 -0.434663
    19 -0.024967 -1.123934 0.017597 -1.746587 0.000000 0.000001
    20 -0.020057 -0.890968 0.010090 -0.424577 0.000000 0.000000
    21 0.583510 -1.197277 0.185379 0.041775 -0.932219 -0.526993
    22 1.535927 0.010246 0.005009 -0.115188 0.228157 -1.325298
    23 1.100771 0.004527 -0.010679 -0.031080 0.118321 -0.649585
    24 0.018587 -0.093240 -0.167774 3.423244 6.142883 -1.288278
    25 -6.817844 -3.649180 0.733114 -0.988728 -5.397259 -0.067634
    26 0.096944 -8.450418 -0.009365 -0.088840 -0.882257 0.488076
    27 0.447953 -2.798986 -0.200443 -0.805857 -0.098878 0.556583
    28 -0.032909 -1.480204 0.004940 -1.135932 0.000000 0.000002
    29 -0.027022 -1.076920 -0.020210 0.165353 0.000000 0.000000
    30 -0.249534 -2.846964 -0.174213 -0.518785 -0.091543 0.444345
    31 0.043235 -1.683941 0.096012 -1.409884 0.002823 -0.000167
    32 0.031729 -1.160830 0.058838 0.106677 0.000642 0.008372
    33 -0.963866 -2.785145 -0.085350 -0.084261 0.036917 0.292995
    34 0.028479 -1.403067 0.006271 -1.244457 0.000000 0.000000
    35 0.021413 -0.957781 0.020046 -0.446116 0.000000 0.000000
    36 1.164475 -2.543940 -0.170330 -0.843965 -0.017414 0.527819
    37 0.024032 -1.129042 0.017807 -1.014874 0.000000 0.000001
    38 0.014898 -0.883989 -0.019848 0.153136 0.000000 0.000000
    39 -0.500830 -1.428545 0.403292 -0.012660 0.012671 -2.752590
    40 1.522835 0.058681 0.016848 -0.194322 0.082270 0.462374
    41 1.117947 0.048424 -0.005766 0.004299 -0.024829 -0.115852
    42 -0.115961 -0.170294 -0.005135 0.565169 0.136513 1.291595
    43 -1.393470 8.839177 -0.239433 1.580804 -0.005023 -1.566847
  time 16
    0 4.945132 -7.515372 -10.406783 0.017318 -0.075198 -0.001348
    1 7.384263 3.561215 -0.030885 0.750898 -2.386457 -1.389558
    2 -0.071920 -8.498735 -0.104136 0.178716 0.515885 -0.471964
    3 1.301309 -2.858450 0.533806 -0.317190 -0.156087 -3.649938
    4 -0.633172 1.164522 0.000000 0.000000 0.000000 0.542622
    5 -4.694041 4.765071 0.000002 0.000000 0.000000 1.961197
    6 0.471631 -4.176224 -0.013908 0.390400 -1.570796 0.000000
    7 0.798002 0.010359 -0.002600 0.000002 1.570796 0.000000
    8 1.257180 8.762585 -0.153713 -1.570562 0.002683 -1.566807
    9 -0.488518 -2.755602 -0.228260 -0.721249 -0.081949 -0.452612
    10 0.039887 -1.479790 0.029854 -1.744424 0.000000 0.000001
    11 0.028786 -1.075731 -0.023109 -1.070625 0.000000 0.000000
    12 0.125023 -3.051141 -0.574344 -0.799992 -0.047060 -0.393136
    13 -0.049759 -1.680544 0.100479 -1.558614 0.000000 -0.000002
    14 -0.034142 -1.148312 0.084782 -1.112872 0.000000 0.000000
    15 0.957766 -2.746780 -0.090302 0.405036 -0.083982 -0.152580
    16 -0.033420 -1.397129 -0.011257 -0.994842 0.000000 -0.000001
    17 -0.022360 -0.957436 0.018784 -0.733565 0.000000 0.000000
    18 -1.200213 -2.612689 -0.084481 -0.819559 0.107002 -0.434663
    19 -0.024967 -1.123934 0.017597 -1.746587 0.000000 0.000001
    20 -0.020057 -0.890968 0.010090 -0.424577 0.000000 0.000000
    21 0.583510 -1.197277 0.185379 0.041775 -0.932219 -0.526993
    22 1.535927 0.010246 0.005009 -0.115188 0.228157 -1.325298
    23 1.100771 0.004527 -0.010679 -0.031080 0.118321 -0.649585
    24 0.018587 -0.093240 -0.167774 3.423244 6.142883 -1.288278
    25 -6.817844 -3.649180 0.733114 -0.988728 -5.397259 -0.067634
    26 0.096944 -8.450418 -0.009365 -0.088840 -0.882257 0.488076
    27 0.447953 -2.798986 -0.200443 -0.805857 -0.098878 0.556583
    28 -0.032909 -1.480204 0.004940 -1.135932 0.000000 0.000002
    29 -0.027022 -1.076920 -0.020210 0.165353 0.000000 0.000000
    30 -0.249534 -2.846964 -0.174213 -0.518785 -0.091543 0.444345
    31 0.043235 -1.683941 0.096012 -1.409884 0.002823 -0.000167
    32 0.031729 -1.160830 0.058838 0.106677 0.000642 0.008372
    33 -0.963866 -2.785145 -0.085350 -0.084261 0.036917 0.292995
    34 0.028479 -1.403067 0.006271 -1.244457 0.000000 0.000000
    35 0.021413 -0.957781 0.020046 -0.446116 0.000000 0.000000
    36 1.164475 -2.543940 -0.170330 -0.843965 -0.017414 0.527819
    37 0.024032 -1.129042 0.017807 -1.014874 0.000000 0.000001
    38 0.014898 -0.883989 -0.019848 0.153136 0.000000 0.000000
    39 -0.500830 -1.428545 0.403292 -0.012660 0.012671 -2.752590
    40 1.522835 0.058681 0.016848 -0.193927 0.080674 0.469393
    41 1.117947 0.048424 -0.005766 0.004299 -0.024829 -0.115852
    42 -0.115961 -0.170294 -0.005135 0.565233 0.141825 1.291284
    43 -1.393470 8.839177 -0.239433 1.580804 -0.005023 -1.566847
  time 17
    0 4.945132 -7.429432 -10.422408 0.012656 -0.075217 -0.000964
    1 7.384263 3.561215 -0.030885 0.750898 -2.386457 -1.389558
    2 -0.071920 -8.498735 -0.104136 0.178716 0.515885 -0.471964
    3 1.301309 -2.858450 0.533806 -0.317190 -0.156087 -3.649922
    4 -0.633172 1.164522 0.000000 0.000000 0.000000 0.542622
    5 -4.694041 4.765071 0.000002 0.000000 0.000000 1.961197
    6 0.471631 -4.176224 -0.013908 0.390400 -1.570796 0.000000
    7 0.798002 0.010359 -0.002600 0.000002 1.570796 0.000000
    8 1.257180 8.762585 -0.153713 -1.570562 0.002683 -1.566807
    9 -0.488518 -2.755602 -0.228260 -0.721249 -0.081949 -0.452612
    10 0.039887 -1.479790 0.029854 -1.744424 0.000000 0.000001
    11 0.028786 -1.075731 -0.023109 -1.070625 0.000000 0.000000
    12 0.125023 -3.051141 -0.574344 -0.799992 -0.047048 -0.393136
    13 -0.049759 -1.680544 0.100479 -1.558614 0.000000 -0.000002
    14 -0.034142 -1.148312 0.084782 -1.112872 0.000000 0.000000
    15 0.957766 -2.746780 -0.090302 0.388937 -0.093138 -0.151093
    16 -0.033420 -1.397129 -0.011257 -0.907558 0.000000 -0.000001
    17 -0.022360 -0.957436 0.018784 -0.686181 0.000000 0.000000
    18 -1.200213 -2.612689 -0.084481 -0.819559 0.107002 -0.434663
    19 -0.024967 -1.123934 0.017597 -1.746587 0.000000 0.000001
    20 -0.020057 -0.890968 0.010090 -0.424577 0.000000 0.000000
    21 0.583510 -1.197277 0.185379 0.041775 -0.932219 -0.526993
    22 1.535927 0.010246 0.005009 -0.115188 0.228157 -1.325298
    23 1.100771 0.004527 -0.010679 -0.031080 0.118321 -0.649585
    24 0.018587 -0.093240 -0.167774 3.423244 6.142883 -1.288278
    25 -6.817844 -3.649180 0.733114 -0.988728 -5.397259 -0.067634
    26 0.096944 -8.450418 -0.009365 -0.088840 -0.882257 0.488076
    27 0.447953 -2.798986 -0.200443 -0.805857 -0.098878 0.556583
    28 -0.032909 -1.480204 0.004940 -1.135932 0.000000 0.000002
    29 -0.027022 -1.076920 -0.020210 0.165353 0.000000 0.000000
    30 -0.249534 -2.846964 -0.174213 -0.518785 -0.091543 0.444345
    31 0.043235 -1.683941 0.096012 -1.409884 0.002823 -0.000167
    32 0.031729 -1.160830 0.058838 0.106677 0.000642 0.008372
    33 -0.963866 -2.785145 -0.085350 -0.084261 0.036917 0.292995
    34 0.028479 -1.403067 0.006271 -1.244457 0.000000 0.000000
    35 0.021413 -0.957781 0.020046 -0.446116 0.000000 0.000000
    36 1.164475 -2.543940 -0.170330 -0.843965 -0.017414 0.527819
    37 0.024032 -1.129042 0.017807 -1.014874 0.000000 0.000001
    38 0.014898 -0.883989 -0.019848 0.153136 0.000000 0.000000
    39 -0.500830 -1.428545 0.403292 -0.012660 0.012671 -2.752590
    40 1.522835 0.058681 0.016848 -0.193531 0.078671 0.476061
    41 1.117947 0.048424 -0.005766 0.004299 -0.024829 -0.115852
    42 -0.115961 -0.170294 -0.005135 0.565298 0.146356 1.290960
    43 -1.393470 8.839177 -0.239433 1.580804 -0.005023 -1.566847
  time 18
    0 4.945132 -7.335679 -10.434127 0.008365 -0.075217 -0.000676
    1 7.384263 3.561215 -0.030885 0.750898 -2.386457 -1.389558
    2 -0.071920 -8.498735 -0.104136 0.178716 0.515885 -0.471964
    3 1.301309 -2.858450 0.533806 -0.317190 -0.156087 -3.649922
    4 -0.633172 1.164522 0.000000 0.000000 0.000000 0.542622
    5 -4.694041 4.765071 0.000002 0.000000 0.000000 1.961197
    6 0.471631 -4.176224 -0.013908 0.390400 -1.570796 0.000000
    7 0.798002 0.010359 -0.002600 0.000002 1.570796 0.000000
    8 1.257180 8.762585 -0.153713 -1.570562 0.002683 -1.566807
    9 -0.488518 -2.755602 -0.228260 -0.721249 -0.081949 -0.452612
    10 0.039887 -1.479790 0.029854 -1.744424 0.000000 0.000001
    11 0.028786 -1.075731 -0.023109 -1.070625 0.000000 0.000000
    12 0.125023 -3.051141 -0.574344 -0.799992 -0.047048 -0.393136
    13 -0.049759 -1.680544 0.100479 -1.558614 0.000000 -0.000002
    14 -0.034142 -1.148312 0.084782 -1.112872 0.000000 0.000000
    15 0.957766 -2.746780 -0.090302 0.370671 -0.103529 -0.149715
    16 -0.033420 -1.397129 -0.011257 -0.823807 0.000000 -0.000001
    17 -0.022360 -0.957436 0.018784 -0.640766 0.000000 0.000000
    18 -1.200213 -2.612689 -0.084481 -0.819559 0.107002 -0.434663
    19 -0.024967 -1.123934 0.017597 -1.746587 0.000000 0.000001
    20 -0.020057 -0.890968 0.010090 -0.424577 0.000000 0.000000
    21 0.583510 -1.197277 0.185379 0.041775 -0.932219 -0.526993
    22 1.535927 0.010246 0.005009 -0.115188 0.228157 -1.325298
    23 1.100771 0.004527 -0.010679 -0.031080 0.118321 -0.649585
    24 0.018587 -0.093240 -0.167774 3.423244 6.142883 -1.288278
    25 -6.817844 -3.649180 0.733114 -0.988728 -5.397190 -0.067634
    26 0.096944 -8.450418 -0.009365 -0.088840 -0.882257 0.488076
    27 0.447953 -2.798986 -0.200443 -0.805857 -0.098878 0.556583
    28 -0.032909 -1.480204 0.004940 -1.135932 0.000000 0.000002
    29 -0.027022 -1.076920 -0.020210 0.165353 0.000000 0.000000
    30 -0.249534 -2.846964 -0.174213 -0.518785 -0.091543 0.444345
    31 0.043235 -1.683941 0.096012 -1.409884 0.002823 -0.000167
    32 0.031729 -1.160830 0.058838 0.106677 0.000642 0.008372
    33 -0.963866 -2.785145 -0.085350 -0.084261 0.036917 0.292995
    34 0.028479 -1.403067 0.006271 -1.244457 0.000000 0.000000
    35 0.021413 -0.957781 0.020046 -0.446116 0.000000 0.000000
    36 1.164475 -2.543940 -0.170330 -0.843965 -0.017414 0.527819
    37 0.024032 -1.129042 0.017807 -1.014874 0.000000 0.000001
    38 0.014898 -0.883989 -0.019848 0.153136 0.000000 0.000000
    39 -0.500830 -1.428545 0.403292 -0.012660 0.012671 -2.752590
    40 1.522835 0.058681 0.016848 -0.193160 0.076396 0.482261
    41 1.117947 0.048424 -0.005766 0.004299 -0.024829 -0.115852
    42 -0.115961 -0.170294 -0.005135 0.565349 0.150145 1.290649
    43 -1.393470 8.839177 -0.239433 1.580804 -0.005023 -1.566847
  time 19
    0 4.945132 -7.241926 -10.441940 0.005225 -0.075217 -0.000435
    1 7.384263 3.561215 -0.030885 0.750898 -2.386457 -1.389558
    2 -0.071920 -8.498735 -0.104136 0.178716 0.515885 -0.471964
    3 1.301309 -2.858450 0.533806 -0.317190 -0.156087 -3.649922
    4 -0.633172 1.164522 0.000000 0.000000 0.000000 0.542622
    5 -4.694041 4.765071 0.000002 0.000000 0.000000 1.961197
    6 0.471631 -4.176224 -0.013908 0.390400 -1.570796 0.000000
    7 0.798002 0.010359 -0.002600 0.000002 1.570796 0.000000
    8 1.257180 8.762585 -0.153713 -1.570562 0.002683 -1.566807
    9 -0.488518 -2.755602 -0.228260 -0.721249 -0.081949 -0.452612
    10 0.039887 -1.479790 0.029854 -1.744424 0.000000 0.000001
    11 0.028786 -1.075731 -0.023109 -1.070625 0.000000 0.000000
    12 0.125023 -3.051141 -0.574344 -0.799992 -0.047048 -0.393136
    13 -0.049759 -1.680544 0.100479 -1.558614 0.000000 -0.000002
    14 -0.034142 -1.148312 0.084782 -1.112839 0.000000 0.000000
    15 0.957766 -2.746780 -0.090302 0.351327 -0.114530 -0.148469
    16 -0.033420 -1.397129 -0.011257 -0.745501 0.000000 -0.000001
    17 -0.022360 -0.957436 0.018784 -0.598245 0.000000 0.000000
    18 -1.200213 -2.612689 -0.084481 -0.819559 0.107002 -0.434663
    19 -0.024967 -1.123934 0.017597 -1.746587 0.000000 0.000001
    20 -0.020057 -0.890968 0.010090 -0.424577 0.000000 0.000000
    21 0.583510 -1.197277 0.185379 0.041775 -0.932219 -0.526993
    22 1.535927 0.010246 0.005009 -0.115188 0.228157 -1.325298
    23 1.100771 0.004527 -0.010679 -0.031080 0.118321 -0.649585
    24 0.018587 -0.093240 -0.167774 3.423244 6.142883 -1.288278
    25 -6.817844 -3.649180 0.733114 -0.988728 -5.397259 -0.067634
    26 0.096944 -8.450418 -0.009365 -0.088840 -0.882257 0.488076
    27 0.447953 -2.798986 -0.200443 -0.805857 -0.098878 0.556583
    28 -0.032909 -1.480204 0.004940 -1.135932 0.000000 0.000002
    29 -0.027022 -1.076920 -0.020210 0.165353 0.000000 0.000000
    30 -0.249534 -2.846964 -0.174213 -0.518785 -0.091543 0.444345
    31 0.043235 -1.683941 0.096012 -1.409884 0.002823 -0.000167
    32 0.031729 -1.160830 0.058838 0.106677 0.000642 0.008372
    33 -0.963866 -2.785145 -0.085350 -0.084261 0.036917 0.292995
    34 0.028479 -1.403067 0.006271 -1.244457 0.000000 0.000000
    35 0.021413 -0.957781 0.020046 -0.446116 0.000000 0.000000
    36 1.164475 -2.543940 -0.170330 -0.843965 -0.017414 0.527819
    37 0.024032 -1.129042 0.017807 -1.014874 0.000000 0.000001
    38 0.014898 -0.883989 -0.019848 0.153136 0.000000 0.000000
    39 -0.500830 -1.428545 0.403292 -0.012660 0.012671 -2.752590
    40 1.522835 0.058681 0.016848 -0.192800 0.073987 0.487954
    41 1.117947 0.048424 -0.005766 0.004299 -0.024829 -0.115852
    42 -0.115961 -0.170294 -0.005135 0.565401 0.153245 1.290337
    43 -1.393470 8.839177 -0.239433 1.580804 -0.005023 -1.566847
  time 20
    0 4.945132 -7.155986 -10.441940 0.004015 -0.075217 -0.000339
    1 7.384263 3.561215 -0.030885 0.750898 -2.386457 -1.389558
    2 -0.071920 -8.498735 -0.104136 0.178716 0.515885 -0.471964
    3 1.301309 -2.858450 0.533806 -0.317190 -0.156087 -3.649922
    4 -0.633172 1.164522 0.000000 0.000000 0.000000 0.542622
    5 -4.694041 4.765071 0.000002 0.000000 0.000000 1.961197
    6 0.471631 -4.176224 -0.013908 0.390400 -1.570796 0.000000
    7 0.798002 0.010359 -0.002600 0.000002 1.570796 0.000000
    8 1.257180 8.762585 -0.153713 -1.570562 0.002683 -1.566807
    9 -0.488518 -2.755602 -0.228260 -0.721249 -0.081949 -0.452612
    10 0.039887 -1.479790 0.029854 -1.744424 0.000000 0.000001
    11 0.028786 -1.075731 -0.023109 -1.070625 0.000000 0.000000
    12 0.125023 -3.051141 -0.574344 -0.799992 -0.047048 -0.393136
    13 -0.049759 -1.680544 0.100479 -1.558614 0.000000 -0.000002
    14 -0.034142 -1.148312 0.084782 -1.112839 0.000000 0.000000
    15 0.957766 -2.746780 -0.090302 0.331970 -0.125532 -0.147354
    16 -0.033420 -1.397129 -0.011257 -0.674261 0.000000 -0.000001
    17 -0.022360 -0.957436 0.018784 -0.559622 0.000000 0.000000
    18 -1.200213 -2.612689 -0.084481 -0.819559 0.107002 -0.434663
    19 -0.024967 -1.123934 0.017597 -1.746587 0.000000 0.000001
    20 -0.020057 -0.890968 0.010090 -0.424577 0.000000 0.000000
    21 0.583510 -1.197277 0.185379 0.041775 -0.932219 -0.526993
    22 1.535927 0.010246 0.005009 -0.115188 0.228157 -1.325298
    23 1.100771 0.004527 -0.010679 -0.031080 0.118321 -0.649585
    24 0.018587 -0.093240 -0.167774 3.423244 6.142883 -1.288278
    25 -6.817844 -3.649180 0.733114 -0.988728 -5.397259 -0.067634
    26 0.096944 -8.450418 -0.009365 -0.088840 -0.882257 0.488076
    27 0.447953 -2.798986 -0.200443 -0.805857 -0.098878 0.556583
    28 -0.032909 -1.480204 0.004940 -1.135932 0.000000 0.000002
    29 -0.027022 -1.076920 -0.020210 0.165353 0.000000 0.000000
    30 -0.249534 -2.846964 -0.174213 -0.518785 -0.091543 0.444345
    31 0.043235 -1.683941 0.096012 -1.409884 0.002823 -0.000167
    32 0.031729 -1.160830 0.058838 0.106677 0.000642 0.008372
    33 -0.963866 -2.785145 -0.085350 -0.084261 0.036917 0.292995
    34 0.028479 -1.403067 0.006271 -1.244457 0.000000 0.000000
    35 0.021413 -0.957781 0.020046 -0.446116 0.000000 0.000000
    36 1.164475 -2.543940 -0.170330 -0.843965 -0.017414 0.527819
    37 0.024032 -1.129042 0.017807 -1.014874 0.000000 0.000001
    38 0.014898 -0.883989 -0.019848 0.153136 0.000000 0.000000
    39 -0.500830 -1.428545 0.403292 -0.012660 0.012671 -2.752590
    40 1.522835 0.058681 0.016848 -0.192465 0.071577 0.492984
    41 1.117947 0.048424 -0.005766 0.004299 -0.024829 -0.115852
    42 -0.115961 -0.170294 -0.005135 0.565439 0.155722 1.290049
    43 -1.393470 8.839177 -0.239433 1.580804 -0.005023 -1.566847
  time 21
    0 4.945132 -7.050514 -10.426314 0.004962 -0.075235 -0.000387
    1 7.384263 3.561215 -0.030885 0.750898 -2.386457 -1.389558
    2 -0.071920 -8.498735 -0.104136 0.178716 0.515885 -0.471964
    3 1.301309 -2.858450 0.533806 -0.317190 -0.156087 -3.649922
    4 -0.633172 1.164522 0.000000 0.000000 0.000000 0.542622
    5 -4.694041 4.765071 0.000002 0.000000 0.000000 1.961197
    6 0.471631 -4.176224 -0.013908 0.390400 -1.570796 0.000000
    7 0.798002 0.010359 -0.002600 0.000002 1.570796 0.000000
    8 1.257180 8.762585 -0.153713 -1.570562 0.002683 -1.566807
    9 -0.488518 -2.755602 -0.228260 -0.721249 -0.081949 -0.452612
    10 0.039887 -1.479790 0.029854 -1.744424 0.000000 0.000001
    11 0.028786 -1.075731 -0.023109 -1.070625 0.000000 0.000000
    12 0.125023 -3.051141 -0.574344 -0.799992 -0.047048 -0.393136
    13 -0.049759 -1.680544 0.100479 -1.558614 0.000000 -0.000002
    14 -0.034142 -1.148312 0.084782 -1.112872 0.000000 0.000000
    15 0.957766 -2.746780 -0.090302 0.313717 -0.135923 -0.146395
    16 -0.033420 -1.397129 -0.011257 -0.611998 0.000000 -0.000001
    17 -0.022360 -0.957436 0.018784 -0.525822 0.000000 0.000000
    18 -1.200213 -2.612689 -0.084481 -0.819559 0.107002 -0.434663
    19 -0.024967 -1.123934 0.017597 -1.746587 0.000000 0.000001
    20 -0.020057 -0.890968 0.010090 -0.424577 0.000000 0.000000
    21 0.583510 -1.197277 0.185379 0.041775 -0.932219 -0.526993
    22 1.535927 0.010246 0.005009 -0.115188 0.228157 -1.325298
    23 1.100771 0.004527 -0.010679 -0.031080 0.118321 -0.649585
    24 0.018587 -0.093240 -0.167774 3.423244 6.142883 -1.288278
    25 -6.817844 -3.649180 0.733114 -0.988728 -5.397259 -0.067634
    26 0.096944 -8.450418 -0.009365 -0.088840 -0.882257 0.488076
    27 0.447953 -2.798986 -0.200443 -0.805857 -0.098878 0.556583
    28 -0.032909 -1.480204 0.004940 -1.135932 0.000000 0.000002
    29 -0.027022 -1.076920 -0.020210 0.165353 0.000000 0.000000
    30 -0.249534 -2.846964 -0.174213 -0.518785 -0.091543 0.444345
    31 0.043235 -1.683941 0.096012 -1.409884 0.002823 -0.000167
    32 0.031729 -1.160830 0.058838 0.106677 0.000642 0.008372
    33 -0.963866 -2.785145 -0.085350 -0.084261 0.036917 0.292995
    34 0.028479 -1.403067 0.006271 -1.244457 0.000000 0.000000
    35 0.021413 -0.957781 0.020046 -0.446116 0.000000 0.000000
    36 1.164475 -2.543940 -0.170330 -0.843965 -0.017414 0.527819
    37 0.024032 -1.129042 0.017807 -1.014874 0.000000 0.000001
    38 0.014898 -0.883989 -0.019848 0.153136 0.000000 0.000000
    39 -0.500830 -1.428545 0.403292 -0.012660 0.012671 -2.752590
    40 1.522835 0.058681 0.016848 -0.192177 0.069288 0.497273
    41 1.117947 0.048424 -0.005766 0.004299 -0.024829 -0.115852
    42 -0.115961 -0.170294 -0.005135 0.565478 0.157630 1.289786
    43 -1.393470 8.839177 -0.239433 1.580804 -0.005023 -1.566847
  time 22
    0 4.945132 -6.921604 -10.379438 0.007215 -0.075235 -0.000580
    1 7.384263 3.561215 -0.030885 0.750898 -2.386457 -1.389558
    2 -0.071920 -8.498735 -0.104136 0.178716 0.515885 -0.471964
    3 1.301309 -2.858450 0.533806 -0.317190 -0.156087 -3.649938
    4 -0.633172 1.164522 0.000000 0.000000 0.000000 0.542622
    5 -4.694041 4.765071 0.000002 0.000000 0.000000 1.961197
    6 0.471631 -4.176224 -0.013908 0.390400 -1.570796 0.000000
    7 0.798002 0.010359 -0.002600 0.000002 1.570796 0.000000
    8 1.257180 8.762585 -0.153713 -1.570562 0.002683 -1.566807
    9 -0.488518 -2.755602 -0.228260 -0.721249 -0.081949 -0.452612
    10 0.039887 -1.479790 0.029854 -1.744424 0.000000 0.000001
    11 0.028786 -1.075731 -0.023109 -1.070625 0.000000 0.000000
    12 0.125023 -3.051141 -0.574344 -0.799992 -0.047060 -0.393136
    13 -0.049759 -1.680544 0.100479 -1.558614 0.000000 -0.000002
    14 -0.034142 -1.148312 0.084782 -1.112872 0.000000 0.000000
    15 0.957766 -2.746780 -0.090302 0.297618 -0.145079 -0.145616
    16 -0.033420 -1.397129 -0.011257 -0.560508 0.000000 -0.000001
    17 -0.022360 -0.957436 0.018784 -0.497849 0.000000 0.000000
    18 -1.200213 -2.612689 -0.084481 -0.819559 0.107002 -0.434663
    19 -0.024967 -1.123934 0.017597 -1.746587 0.000000 0.000001
    20 -0.020057 -0.890968 0.010090 -0.424577 0.000000 0.000000
    21 0.583510 -1.197277 0.185379 0.041775 -0.932219 -0.526993
    22 1.535927 0.010246 0.005009 -0.115188 0.228157 -1.325298
    23 1.100771 0.004527 -0.010679 -0.031080 0.118321 -0.649585
    24 0.018587 -0.093240 -0.167774 3.423244 6.142883 -1.288278
    25 -6.817844 -3.649180 0.733114 -0.988728 -5.397259 -0.067634
    26 0.096944 -8.450418 -0.009365 -0.088840 -0.882257 0.488076
    27 0.447953 -2.798986 -0.200443 -0.805857 -0.098878 0.556583
    28 -0.032909 -1.480204 0.004940 -1.135932 0.000000 0.000002
    29 -0.027022 -1.076920 -0.020210 0.165353 0.000000 0.000000
    30 -0.249534 -2.846964 -0.174213 -0.518785 -0.091543 0.444345
    31 0.043235 -1.683941 0.096012 -1.409884 0.002823 -0.000167
    32 0.031729 -1.160830 0.058838 0.106677 0.000642 0.008372
    33 -0.963866 -2.785145 -0.085350 -0.084261 0.036917 0.292995
    34 0.028479 -1.403067 0.006271 -1.244457 0.000000 0.000000
    35 0.021413 -0.957781 0.020046 -0.446116 0.000000 0.000000
    36 1.164475 -2.543940 -0.170330 -0.843965 -0.017414 0.527819
    37 0.024032 -1.129042 0.017807 -1.014874 0.000000 0.000001
    38 0.014898 -0.883989 -0.019848 0.153136 0.000000 0.000000
    39 -0.500830 -1.428545 0.403292 -0.012660 0.012671 -2.752590
    40 1.522835 0.058681 0.016848 -0.191937 0.067285 0.500783
    41 1.117947 0.048424 -0.005766 0.004299 -0.024829 -0.115852
    42 -0.115961 -0.170294 -0.005135 0.565504 0.159021 1.289570
    43 -1.393470 8.839177 -0.239433 1.580804 -0.005023 -1.566847
  time 23
    0 4.945132 -6.792694 -10.324749 0.009899 -0.075235 -0.000772
    1 7.384263 3.561215 -0.030885 0.750898 -2.386457 -1.389558
    2 -0.071920 -8.498735 -0.104136 0.178716 0.515885 -0.471964
    3 1.301309 -2.858450 0.533806 -0.317190 -0.156087 -3.649922
    4 -0.633172 1.164522 0.000000 0.000000 0.000000 0.542622
    5 -4.694041 4.765071 0.000002 0.000000 0.000000 1.961197
    6 0.471631 -4.176224 -0.013908 0.390400 -1.570796 0.000000
    7 0.798002 0.010359 -0.002600 0.000002 1.570796 0.000000
    8 1.257180 8.762585 -0.153713 -1.570562 0.002683 -1.566807
    9 -0.488518 -2.755602 -0.228260 -0.721249 -0.081949 -0.452612
    10 0.039887 -1.479790 0.029854 -1.744424 0.000000 0.000001
    11 0.028786 -1.075731 -0.023109 -1.070625 0.000000 0.000000
    12 0.125023 -3.051141 -0.574344 -0.799992 -0.047048 -0.393136
    13 -0.049759 -1.680544 0.100479 -1.558614 0.000000 -0.000002
    14 -0.034142 -1.148312 0.084782 -1.112872 0.000000 0.000000
    15 0.957766 -2.746780 -0.090302 0.284777 -0.152378 -0.145041
    16 -0.033420 -1.397129 -0.011257 -0.521471 0.000000 -0.000001
    17 -0.022360 -0.957436 0.018784 -0.476669 0.000000 0.000000
    18 -1.200213 -2.612689 -0.084481 -0.819559 0.107002 -0.434663
    19 -0.024967 -1.123934 0.017597 -1.746587 0.000000 0.000001
    20 -0.020057 -0.890968 0.010090 -0.424577 0.000000 0.000000
    21 0.583510 -1.197277 0.185379 0.041775 -0.932219 -0.526993
    22 1.535927 0.010246 0.005009 -0.115188 0.228157 -1.325298
    23 1.100771 0.004527 -0.010679 -0.031080 0.118321 -0.649585
    24 0.018587 -0.093240 -0.167774 3.423244 6.142883 -1.288278
    25 -6.817844 -3.649180 0.733114 -0.988728 -5.397190 -0.067634
    26 0.096944 -8.450418 -0.009365 -0.088840 -0.882257 0.488076
    27 0.447953 -2.798986 -0.200443 -0.805857 -0.098878 0.556583
    28 -0.032909 -1.480204 0.004940 -1.135932 0.000000 0.000002
    29 -0.027022 -1.076920 -0.020210 0.165353 0.000000 0.000000
    30 -0.249534 -2.846964 -0.174213 -0.518785 -0.091543 0.444345
    31 0.043235 -1.683941 0.096012 -1.409884 0.002823 -0.000167
    32 0.031729 -1.160830 0.058838 0.106677 0.000642 0.008372
    33 -0.963866 -2.785145 -0.085350 -0.084261 0.036917 0.292995
    34 0.028479 -1.403067 0.006271 -1.244457 0.000000 0.000000
    35 0.021413 -0.957781 0.020046 -0.446116 0.000000 0.000000
    36 1.164475 -2.543940 -0.170330 -0.843965 -0.017414 0.527819
    37 0.024032 -1.129042 0.017807 -1.014874 0.000000 0.000001
    38 0.014898 -0.883989 -0.019848 0.153136 0.000000 0.000000
    39 -0.500830 -1.428545 0.403292 -0.012660 0.012671 -2.752590
    40 1.522835 0.058681 0.016848 -0.191758 0.065688 0.503395
    41 1.117947 0.048424 -0.005766 0.004299 -0.024829 -0.115852
    42 -0.115961 -0.170294 -0.005135 0.565516 0.159935 1.289402
    43 -1.393470 8.839177 -0.239433 1.580804 -0.005023 -1.566847
  time 24
    0 4.945132 -6.698941 -10.270060 0.012164 -0.075235 -0.000916
    1 7.384263 3.561215 -0.030885 0.750898 -2.386457 -1.389558
    2 -0.071920 -8.498735 -0.104136 0.178716 0.515885 -0.471964
    3 1.301309 -2.858450 0.533806 -0.317190 -0.156087 -3.649938
    4 -0.633172 1.164522 0.000000 0.000000 0.000000 0.542622
    5 -4.694041 4.765071 0.000002 0.000000 0.000000 1.961197
    6 0.471631 -4.176224 -0.013908 0.390400 -1.570796 0.000000
    7 0.798002 0.010359 -0.002600 0.000002 1.570796 0.000000
    8 1.257180 8.762585 -0.153713 -1.570562 0.002683 -1.566807
    9 -0.488518 -2.755602 -0.228260 -0.721249 -0.081949 -0.452612
    10 0.039887 -1.479790 0.029854 -1.744424 0.000000 0.000001
    11 0.028786 -1.075731 -0.023109 -1.070625 0.000000 0.000000
    12 0.125023 -3.051141 -0.574344 -0.799992 -0.047048 -0.393136
    13 -0.049759 -1.680544 0.100479 -1.558614 0.000000 -0.000002
    14 -0.034142 -1.148312 0.084782 -1.112872 0.000000 0.000000
    15 0.957766 -2.746780 -0.090302 0.276284 -0.157220 -0.144670
    16 -0.033420 -1.397129 -0.011257 -0.496740 0.000000 -0.000001
    17 -0.022360 -0.957436 0.018784 -0.463246 0.000000 0.000000
    18 -1.200213 -2.612689 -0.084481 -0.819559 0.107002 -0.434663
    19 -0.024967 -1.123934 0.017597 -1.746587 0.000000 0.000001
    20 -0.020057 -0.890968 0.010090 -0.424577 0.000000 0.000000
    21 0.583510 -1.197277 0.185379 0.041775 -0.932219 -0.526993
    22 1.535927 0.010246 0.005009 -0.115188 0.228157 -1.325298
    23 1.100771 0.004527 -0.010679 -0.031080 0.118321 -0.649585
    24 0.018587 -0.093240 -0.167774 3.423244 6.142883 -1.288278
    25 -6.817844 -3.649180 0.733114 -0.988728 -5.397259 -0.067634
    26 0.096944 -8.450418 -0.009365 -0.088840 -0.882257 0.488076
    27 0.447953 -2.798986 -0.200443 -0.805857 -0.098878 0.556583
    28 -0.032909 -1.480204 0.004940 -1.135932 0.000000 0.000002
    29 -0.027022 -1.076920 -0.020210 0.165353 0.000000 0.000000
    30 -0.249534 -2.846964 -0.174213 -0.518785 -0.091543 0.444345
    31 0.043235 -1.683941 0.096012 -1.409884 0.002823 -0.000167
    32 0.031729 -1.160830 0.058838 0.106677 0.000642 0.008372
    33 -0.963866 -2.785145 -0.085350 -0.084261 0.036917 0.292995
    34 0.028479 -1.403067 0.006271 -1.244457 0.000000 0.000000
    35 0.021413 -0.957781 0.020046 -0.446116 0.000000 0.000000
    36 1.164475 -2.543940 -0.170330 -0.843965 -0.017414 0.527819
    37 0.024032 -1.129042 0.017807 -1.014874 0.000000 0.000001
    38 0.014898 -0.883989 -0.019848 0.153136 0.000000 0.000000
    39 -0.500830 -1.428545 0.403292 -0.012660 0.012671 -2.752590
    40 1.522835 0.058681 0.016848 -0.191638 0.064634 0.504994
    41 1.117947 0.048424 -0.005766 0.004299 -0.024829 -0.115852
    42 -0.115961 -0.170294 -0.005135 0.565529 0.160452 1.289294
    43 -1.393470 8.839177 -0.239433 1.580804 -0.005023 -1.566847
  time 25
    0 4.945132 -6.659877 -10.238809 0.013099 -0.075235 -0.001012
    1 7.384263 3.561215 -0.030885 0.750898 -2.386457 -1.389558
    2 -0.071920 -8.498735 -0.104136 0.178716 0.515885 -0.471964
    3 1.301309 -2.858450 0.533806 -0.317190 -0.156087 -3.649922
    4 -0.633172 1.164522 0.000000 0.000000 0.000000 0.542622
    5 -4.694041 4.765071 0.000002 0.000000 0.000000 1.961197
    6 0.471631 -4.176224 -0.013908 0.390400 -1.570796 0.000000
    7 0.798002 0.010359 -0.002600 0.000002 1.570796 0.000000
    8 1.257180 8.762585 -0.153713 -1.570562 0.002683 -1.566807
    9 -0.488518 -2.755602 -0.228260 -0.721249 -0.081949 -0.452612
    10 0.039887 -1.479790 0.029854 -1.744424 0.000000 0.000001
    11 0.028786 -1.075731 -0.023109 -1.070625 0.000000 0.000000
    12 0.125023 -3.051141 -0.574344 -0.799992 -0.047048 -0.393136
    13 -0.049759 -1.680544 0.100479 -1.558614 0.000000 -0.000002
    14 -0.034142 -1.148312 0.084782 -1.112872 0.000000 0.000000
    15 0.957766 -2.746780 -0.090302 0.273204 -0.158969 -0.144550
    16 -0.033420 -1.397129 -0.011257 -0.488110 0.000000 -0.000001
    17 -0.022360 -0.957436 0.018784 -0.458584 0.000000 0.000000
    18 -1.200213 -2.612689 -0.084481 -0.819559 0.107002 -0.434663
    19 -0.024967 -1.123934 0.017597 -1.746587 0.000000 0.000001
    20 -0.020057 -0.890968 0.010090 -0.424577 0.000000 0.000000
    21 0.583510 -1.197277 0.185379 0.041775 -0.932219 -0.526993
    22 1.535927 0.010246 0.005009 -0.115188 0.228157 -1.325298
    23 1.100771 0.004527 -0.010679 -0.031080 0.118321 -0.649585
    24 0.018587 -0.093240 -0.167774 3.423244 6.142883 -1.288278
    25 -6.817844 -3.649180 0.733114 -0.988728 -5.397259 -0.067634
    26 0.096944 -8.450418 -0.009365 -0.088840 -0.882257 0.488076
    27 0.447953 -2.798986 -0.200443 -0.805857 -0.098878 0.556583
    28 -0.032909 -1.480204 0.004940 -1.135932 0.000000 0.000002
    29 -0.027022 -1.076920 -0.020210 0.165353 0.000000 0.000000
    30 -0.249534 -2.846964 -0.174213 -0.518785 -0.091543 0.444345
    31 0.043235 -1.683941 0.096012 -1.409884 0.002823 -0.000167
    32 0.031729 -1.160830 0.058838 0.106677 0.000642 0.008372
    33 -0.963866 -2.785145 -0.085350 -0.084261 0.036917 0.292995
    34 0.028479 -1.403067 0.006271 -1.244457 0.000000 0.000000
    35 0.021413 -0.957781 0.020046 -0.446116 0.000000 0.000000
    36 1.164475 -2.543940 -0.170330 -0.843965 -0.017414 0.527819
    37 0.024032 -1.129042 0.017807 -1.014874 0.000000 0.000001
    38 0.014898 -0.883989 -0.019848 0.153136 0.000000 0.000000
    39 -0.500830 -1.428545 0.403292 -0.012660 0.012671 -2.752590
    40 1.522835 0.058681 0.016848 -0.191602 0.064242 0.505579
    41 1.117947 0.048424 -0.005766 0.004299 -0.024829 -0.115852
    42 -0.115961 -0.170294 -0.005135 0.565529 0.160611 1.289258
    43 -1.393470 8.839177 -0.239433 1.580804 -0.005023 -1.566847
  time 26
    0 4.945132 -6.671596 -10.227090 0.011745 -0.075235 -0.000916
    1 7.384263 3.561215 -0.030885 0.750898 -2.386457 -1.389558
    2 -0.071920 -8.498735 -0.104136 0.178716 0.515885 -0.471964
    3 1.301309 -2.858450 0.533806 -0.317190 -0.156087 -3.649922
    4 -0.633172 1.164522 0.000000 0.000000 0.000000 0.542622
    5 -4.694041 4.765071 0.000002 0.000000 0.000000 1.961197
    6 0.471631 -4.176224 -0.013908 0.390400 -1.570796 0.000000
    7 0.798002 0.010359 -0.002600 0.000002 1.570796 0.000000
    8 1.257180 8.762585 -0.153713 -1.570562 0.002683 -1.566807
    9 -0.488518 -2.755602 -0.228260 -0.721249 -0.081949 -0.452612
    10 0.039887 -1.479790 0.029854 -1.744424 0.000000 0.000001
    11 0.028786 -1.075731 -0.023109 -1.070625 0.000000 0.000000
    12 0.125023 -3.051141 -0.574344 -0.799992 -0.047048 -0.393136
    13 -0.049759 -1.680544 0.100479 -1.558614 0.000000 -0.000002
    14 -0.034142 -1.148312 0.084782 -1.112872 0.000000 0.000000
    15 0.957766 -2.746780 -0.090302 0.273204 -0.158969 -0.144550
    16 -0.033420 -1.397129 -0.011257 -0.488110 0.000000 -0.000001
    17 -0.022360 -0.957436 0.018784 -0.491419 0.000000 0.000000
    18 -1.200213 -2.612689 -0.084481 -0.819559 0.107002 -0.434663
    19 -0.024967 -1.123934 0.017597 -1.746587 0.000000 0.000001
    20 -0.020057 -0.890968 0.010090 -0.424577 0.000000 0.000000
    21 0.583510 -1.197277 0.185379 0.041775 -0.932219 -0.526993
    22 1.535927 0.010246 0.005009 -0.115188 0.228157 -1.325298
    23 1.100771 0.004527 -0.010679 -0.031080 0.118321 -0.649585
    24 0.018587 -0.093240 -0.167774 3.423244 6.142883 -1.288278
    25 -6.817844 -3.649180 0.733114 -0.988728 -5.397259 -0.067634
    26 0.096944 -8.450418 -0.009365 -0.088840 -0.882257 0.488076
    27 0.447953 -2.798986 -0.200443 -0.805857 -0.098878 0.556583
    28 -0.032909 -1.480204 0.004940 -1.135932 0.000000 0.000002
    29 -0.027022 -1.076920 -0.020210 0.165353 0.000000 0.000000
    30 -0.249534 -2.846964 -0.174213 -0.518785 -0.091543 0.444345
    31 0.043235 -1.683941 0.096012 -1.409884 0.002823 -0.000167
    32 0.031729 -1.160830 0.058838 0.106677 0.000642 0.008372
    33 -0.963866 -2.785145 -0.085350 -0.084261 0.036917 0.292995
    34 0.028479 -1.403067 0.006271 -1.244457 0.000000 0.000000
    35 0.021413 -0.957781 0.020046 -0.446116 0.000000 0.000000
    36 1.164475 -2.543940 -0.170330 -0.843965 -0.017414 0.527819
    37 0.024032 -1.129042 0.017807 -1.014874 0.000000 0.000001
    38 0.014898 -0.883989 -0.019848 0.153136 0.000000 0.000000
    39 -0.500830 -1.428545 0.403292 -0.012660 0.012671 -2.752590
    40 1.522835 0.058681 0.016848 -0.191602 0.064242 0.505579
    41 1.117947 0.048424 -0.005766 0.004299 -0.024829 -0.115852
    42 -0.115961 -0.170294 -0.005135 0.565529 0.160611 1.289258
    43 -1.393470 8.839177 -0.239433 1.580804 -0.005023 -1.566847
  time 27
    0 4.945132 -6.706753 -10.219277 0.008485 -0.075235 -0.000676
    1 7.384263 3.561215 -0.030885 0.750898 -2.386457 -1.389558
    2 -0.071920 -8.498735 -0.104136 0.178716 0.515885 -0.471964
    3 1.301309 -2.858450 0.533806 -0.317190 -0.156087 -3.649922
    4 -0.633172 1.164522 0.000000 0.000000 0.000000 0.542622
    5 -4.694041 4.765071 0.000002 0.000000 0.000000 1.961197
    6 0.471631 -4.176224 -0.013908 0.390400 -1.570796 0.000000
    7 0.798002 0.010359 -0.002600 0.000002 1.570796 0.000000
    8 1.257180 8.762585 -0.153713 -1.570562 0.002683 -1.566807
    9 -0.488518 -2.755602 -0.228260 -0.721249 -0.081949 -0.452612
    10 0.039887 -1.479790 0.029854 -1.744424 0.000000 0.000001
    11 0.028786 -1.075731 -0.023109 -1.070625 0.000000 0.000000
    12 0.125023 -3.051141 -0.574344 -0.799992 -0.047060 -0.393136
    13 -0.049759 -1.680544 0.100479 -1.558614 0.000000 -0.000002
    14 -0.034142 -1.148312 0.084782 -1.112872 0.000000 0.000000
    15 0.957766 -2.746780 -0.090302 0.273204 -0.158969 -0.144550
    16 -0.033420 -1.397129 -0.011257 -0.488110 0.000000 -0.000001
    17 -0.022360 -0.957436 0.018784 -0.569790 0.000000 0.000000
    18 -1.200213 -2.612689 -0.084481 -0.819559 0.107002 -0.434663
    19 -0.024967 -1.123934 0.017597 -1.746587 0.000000 0.000001
    20 -0.020057 -0.890968 0.010090 -0.424577 0.000000 0.000000
    21 0.583510 -1.197277 0.185379 0.041775 -0.932219 -0.526993
    22 1.535927 0.010246 0.005009 -0.115188 0.228157 -1.325298
    23 1.100771 0.004527 -0.010679 -0.031080 0.118321 -0.649585
    24 0.018587 -0.093240 -0.167774 3.423244 6.142883 -1.288278
    25 -6.817844 -3.649180 0.733114 -0.988728 -5.397259 -0.067634
    26 0.096944 -8.450418 -0.009365 -0.088840 -0.882257 0.488076
    27 0.447953 -2.798986 -0.200443 -0.805857 -0.098878 0.556583
    28 -0.032909 -1.480204 0.004940 -1.135932 0.000000 0.000002
    29 -0.027022 -1.076920 -0.020210 0.165353 0.000000 0.000000
    30 -0.249534 -2.846964 -0.174213 -0.518785 -0.091543 0.444345
    31 0.043235 -1.683941 0.096012 -1.409884 0.002823 -0.000167
    32 0.031729 -1.160830 0.058838 0.106677 0.000642 0.008372
    33 -0.963866 -2.785145 -0.085350 -0.084261 0.036917 0.292995
    34 0.028479 -1.403067 0.006271 -1.244457 0.000000 0.000000
    35 0.021413 -0.957781 0.020046 -0.446116 0.000000 0.000000
    36 1.164475 -2.543940 -0.170330 -0.843965 -0.017414 0.527819
    37 0.024032 -1.129042 0.017807 -1.014874 0.000000 0.000001
    38 0.014898 -0.883989 -0.019848 0.153136 0.000000 0.000000
    39 -0.500830 -1.428545 0.403292 -0.012660 0.012671 -2.752590
    40 1.522835 0.058681 0.016848 -0.191602 0.064242 0.505579
    41 1.117947 0.048424 -0.005766 0.004299 -0.024829 -0.115852
    42 -0.115961 -0.170294 -0.005135 0.565529 0.160611 1.289258
    43 -1.393470 8.839177 -0.239433 1.580804 -0.005023 -1.566847
  time 28
    0 4.945132 -6.745817 -10.215370 0.004614 -0.075235 -0.000387
    1 7.384263 3.561215 -0.030885 0.750898 -2.386457 -1.389558
    2 -0.071920 -8.498735 -0.104136 0.178716 0.515885 -0.471964
    3 1.301309 -2.858450 0.533806 -0.317190 -0.156087 -3.649922
    4 -0.633172 1.164522 0.000000 0.000000 0.000000 0.542622
    5 -4.694041 4.765071 0.000002 0.000000 0.000000 1.961197
    6 0.471631 -4.176224 -0.013908 0.390400 -1.570796 0.000000
    7 0.798002 0.010359 -0.002600 0.000002 1.570796 0.000000
    8 1.257180 8.762585 -0.153713 -1.570562 0.002683 -1.566807
    9 -0.488518 -2.755602 -0.228260 -0.721249 -0.081949 -0.452612
    10 0.039887 -1.479790 0.029854 -1.744424 0.000000 0.000001
    11 0.028786 -1.075731 -0.023109 -1.070625 0.000000 0.000000
    12 0.125023 -3.051141 -0.574344 -0.799992 -0.047060 -0.393136
    13 -0.049759 -1.680544 0.100479 -1.558614 0.000000 -0.000002
    14 -0.034142 -1.148312 0.084782 -1.112839 0.000000 0.000000
    15 0.957766 -2.746780 -0.090302 0.273204 -0.158969 -0.144550
    16 -0.033420 -1.397129 -0.011257 -0.488110 0.000000 -0.000001
    17 -0.022360 -0.957436 0.018784 -0.663353 0.000000 0.000000
    18 -1.200213 -2.612689 -0.084481 -0.819559 0.107002 -0.434663
    19 -0.024967 -1.123934 0.017597 -1.746587 0.000000 0.000001
    20 -0.020057 -0.890968 0.010090 -0.424577 0.000000 0.000000
    21 0.583510 -1.197277 0.185379 0.041775 -0.932219 -0.526993
    22 1.535927 0.010246 0.005009 -0.115188 0.228157 -1.325298
    23 1.100771 0.004527 -0.010679 -0.031080 0.118321 -0.649585
    24 0.018587 -0.093240 -0.167774 3.423244 6.142883 -1.288278
    25 -6.817844 -3.649180 0.733114 -0.988728 -5.397259 -0.067634
    26 0.096944 -8.450418 -0.009365 -0.088840 -0.882257 0.488076
    27 0.447953 -2.798986 -0.200443 -0.805857 -0.098878 0.556583
    28 -0.032909 -1.480204 0.004940 -1.135932 0.000000 0.000002
    29 -0.027022 -1.076920 -0.020210 0.165353 0.000000 0.000000
    30 -0.249534 -2.846964 -0.174213 -0.518785 -0.091543 0.444345
    31 0.043235 -1.683941 0.096012 -1.409884 0.002823 -0.000167
    32 0.031729 -1.160830 0.058838 0.106677 0.000642 0.008372
    33 -0.963866 -2.785145 -0.085350 -0.084261 0.036917 0.292995
    34 0.028479 -1.403067 0.006271 -1.244457 0.000000 0.000000
    35 0.021413 -0.957781 0.020046 -0.446116 0.000000 0.000000
    36 1.164475 -2.543940 -0.170330 -0.843965 -0.017414 0.527819
    37 0.024032 -1.129042 0.017807 -1.014874 0.000000 0.000001
    38 0.014898 -0.883989 -0.019848 0.153136 0.000000 0.000000
    39 -0.500830 -1.428545 0.403292 -0.012660 0.012671 -2.752590
    40 1.522835 0.058681 0.016848 -0.191602 0.064242 0.505579
    41 1.117947 0.048424 -0.005766 0.004299 -0.024829 -0.115852
    42 -0.115961 -0.170294 -0.005135 0.565529 0.160611 1.289258
    43 -1.393470 8.839177 -0.239433 1.580804 -0.005023 -1.566847
  time 29
    0 4.945132 -6.777068 -10.211464 0.001354 -0.075235 -0.000147
    1 7.384263 3.561215 -0.030885 0.750898 -2.386457 -1.389558
    2 -0.071920 -8.498735 -0.104136 0.178716 0.515885 -0.471964
    3 1.301309 -2.858450 0.533806 -0.317190 -0.156087 -3.649922
    4 -0.633172 1.164522 0.000000 0.000000 0.000000 0.542622
    5 -4.694041 4.765071 0.000002 0.000000 0.000000 1.961197
    6 0.471631 -4.176224 -0.013908 0.390400 -1.570796 0.000000
    7 0.798002 0.010359 -0.002600 0.000002 1.570796 0.000000
    8 1.257180 8.762585 -0.153713 -1.570562 0.002683 -1.566807
    9 -0.488518 -2.755602 -0.228260 -0.721249 -0.081949 -0.452612
    10 0.039887 -1.479790 0.029854 -1.744424 0.000000 0.000001
    11 0.028786 -1.075731 -0.023109 -1.070625 0.000000 0.000000
    12 0.125023 -3.051141 -0.574344 -0.799992 -0.047048 -0.393136
    13 -0.049759 -1.680544 0.100479 -1.558614 0.000000 -0.000002
    14 -0.034142 -1.148312 0.084782 -1.112872 0.000000 0.000000
    15 0.957766 -2.746780 -0.090302 0.273204 -0.158969 -0.144550
    16 -0.033420 -1.397129 -0.011257 -0.488110 0.000000 -0.000001
    17 -0.022360 -0.957436 0.018784 -0.741724 0.000000 0.000000
    18 -1.200213 -2.612689 -0.084481 -0.819559 0.107002 -0.434663
    19 -0.024967 -1.123934 0.017597 -1.746587 0.000000 0.000001
    20 -0.020057 -0.890968 0.010090 -0.424577 0.000000 0.000000
    21 0.583510 -1.197277 0.185379 0.041775 -0.932219 -0.526993
    22 1.535927 0.010246 0.005009 -0.115188 0.228157 -1.325298
    23 1.100771 0.004527 -0.010679 -0.031080 0.118321 -0.649585
    24 0.018587 -0.093240 -0.167774 3.423244 6.142883 -1.288278
    25 -6.817844 -3.649180 0.733114 -0.988728 -5.397259 -0.067634
    26 0.096944 -8.450418 -0.009365 -0.088840 -0.882257 0.488076
    27 0.447953 -2.798986 -0.200443 -0.805857 -0.098878 0.556583
    28 -0.032909 -1.480204 0.004940 -1.135932 0.000000 0.000002
    29 -0.027022 -1.076920 -0.020210 0.165353 0.000000 0.000000
    30 -0.249534 -2.846964 -0.174213 -0.518785 -0.091543 0.444345
    31 0.043235 -1.683941 0.096012 -1.409884 0.002823 -0.000167
    32 0.031729 -1.160830 0.058838 0.106677 0.000642 0.008372
    33 -0.963866 -2.785145 -0.085350 -0.084261 0.036917 0.292995
    34 0.028479 -1.403067 0.006271 -1.244457 0.000000 0.000000
    35 0.021413 -0.957781 0.020046 -0.446116 0.000000 0.000000
    36 1.164475 -2.543940 -0.170330 -0.843965 -0.017414 0.527819
    37 0.024032 -1.129042 0.017807 -1.014874 0.000000 0.000001
    38 0.014898 -0.883989 -0.019848 0.153136 0.000000 0.000000
    39 -0.500830 -1.428545 0.403292 -0.012660 0.012671 -2.752590
    40 1.522835 0.058681 0.016848 -0.191602 0.064242 0.505579
    41 1.117947 0.048424 -0.005766 0.004299 -0.024829 -0.115852
    42 -0.115961 -0.170294 -0.005135 0.565529 0.160611 1.289258
    43 -1.393470 8.839177 -0.239433 1.580804 -0.005023 -1.566847
  time 30
    0 4.945132 -6.792694 -10.211464 0.000000 -0.075235 -0.000003
    1 7.384263 3.561215 -0.030885 0.750898 -2.386457 -1.389558
    2 -0.071920 -8.498735 -0.104136 0.178716 0.515885 -0.471964
    3 1.301309 -2.858450 0.533806 -0.317190 -0.156087 -3.649922
    4 -0.633172 1.164522 0.000000 0.000000 0.000000 0.542622
    5 -4.694041 4.765071 0.000002 0.000000 0.000000 1.961197
    6 0.471631 -4.176224 -0.013908 0.390400 -1.570796 0.000000
    7 0.798002 0.010359 -0.002600 0.000002 1.570796 0.000000
    8 1.257180 8.762585 -0.153713 -1.570562 0.002683 -1.566807
    9 -0.488518 -2.755602 -0.228260 -0.721249 -0.081949 -0.452612
    10 0.039887 -1.479790 0.029854 -1.744424 0.000000 0.000001
    11 0.028786 -1.075731 -0.023109 -1.070625 0.000000 0.000000
    12 0.125023 -3.051141 -0.574344 -0.799992 -0.047048 -0.393136
    13 -0.049759 -1.680544 0.100479 -1.558614 0.000000 -0.000002
    14 -0.034142 -1.148312 0.084782 -1.112872 0.000000 0.000000
    15 0.957766 -2.746780 -0.090302 0.273204 -0.158969 -0.144550
    16 -0.033420 -1.397129 -0.011257 -0.488110 0.000000 -0.000001
    17 -0.022360 -0.957436 0.018784 -0.774559 0.000000 0.000000
    18 -1.200213 -2.612689 -0.084481 -0.819559 0.107002 -0.434663
    19 -0.024967 -1.123934 0.017597 -1.746587 0.000000 0.000001
    20 -0.020057 -0.890968 0.010090 -0.424577 0.000000 0.000000
    21 0.583510 -1.197277 0.185379 0.041775 -0.932219 -0.526993
    22 1.535927 0.010246 0.005009 -0.115188 0.228157 -1.325298
    23 1.100771 0.004527 -0.010679 -0.031080 0.118321 -0.649585
    24 0.018587 -0.093240 -0.167774 3.423244 6.142883 -1.288278
    25 -6.817844 -3.649180 0.733114 -0.988728 -5.397259 -0.067634
    26 0.096944 -8.450418 -0.009365 -0.088840 -0.882257 0.488076
    27 0.447953 -2.798986 -0.200443 -0.805857 -0.098878 0.556583
    28 -0.032909 -1.480204 0.004940 -1.135932 0.000000 0.000002
    29 -0.027022 -1.076920 -0.020210 0.165353 0.000000 0.000000
    30 -0.249534 -2.846964 -0.174213 -0.518785 -0.091543 0.444345
    31 0.043235 -1.683941 0.096012 -1.409884 0.002823 -0.000167
    32 0.031729 -1.160830 0.058838 0.106677 0.000642 0.008372
    33 -0.963866 -2.785145 -0.085350 -0.084261 0.036917 0.292995
    34 0.028479 -1.403067 0.006271 -1.244457 0.000000 0.000000
    35 0.021413 -0.957781 0.020046 -0.446116 0.000000 0.000000
    36 1.164475 -2.543940 -0.170330 -0.843965 -0.017414 0.527819
    37 0.024032 -1.129042 0.017807 -1.014874 0.000000 0.000001
    38 0.014898 -0.883989 -0.019848 0.153136 0.000000 0.000000
    39 -0.500830 -1.428545 0.403292 -0.012660 0.012671 -2.752590
    40 1.522835 0.058681 0.016848 -0.191602 0.064242 0.505579
    41 1.117947 0.048424 -0.005766 0.004299 -0.024829 -0.115852
    42 -0.115961 -0.170294 -0.005135 0.565529 0.160611 1.289258
    43 -1.393470 8.839177 -0.239433 1.580804 -0.005023 -1.566847
end
