// Created by Crowbar 0.34.0.0

$ModelName "weapons/tfa_cso/w_dualnata.mdl"

$BodyGroup "studio"
{
	studio "v_nataknifed_v_nataknife"
}

$collisionmodel "v_nataknifed_v_nataknife.smd"
{
	$mass 9
}

$CDMaterials "models\weapons\tfa_cso\dualnata"

$Sequence "idle" {
	"anims\idle.smd"
	fps 30
}