version 1
nodes
  0 "Bip01 L Forearm" -1
  1 "Bip01 L Hand" 0
  2 "Bone_QBB95" 1
  3 "Bone_Magazine" 2
  4 "Bone_Magazine_Clip" 2
  5 "Bone_Trigger" 2
  6 "Bone_Bullet_Case" 2
  7 "Bone_Bullet_Clip" 2
  8 "Bip01 L Finger0" 1
  9 "Bip01 L Finger01" 8
  10 "Bip01 L Finger02" 9
  11 "Bip01 L Finger1" 1
  12 "Bip01 L Finger11" 11
  13 "Bip01 L Finger12" 12
  14 "Bip01 L Finger2" 1
  15 "Bip01 L Finger21" 14
  16 "Bip01 L Finger22" 15
  17 "Bip01 L Finger3" 1
  18 "Bip01 L Finger31" 17
  19 "Bip01 L Finger32" 18
  20 "Bip01 L Finger4" 1
  21 "Bip01 L Finger41" 20
  22 "Bip01 L Finger42" 21
  23 "Bone_Se_Hand-L" 1
  24 "Bip01 L ForeTwist2" 0
  25 "Bip01 R Forearm" -1
  26 "Bip01 R Hand" 25
  27 "Bip01 R Finger0" 26
  28 "Bip01 R Finger01" 27
  29 "Bip01 R Finger02" 28
  30 "Bip01 R Finger1" 26
  31 "Bip01 R Finger11" 30
  32 "Bip01 R Finger12" 31
  33 "Bip01 R Finger2" 26
  34 "Bip01 R Finger21" 33
  35 "Bip01 R Finger22" 34
  36 "Bip01 R Finger3" 26
  37 "Bip01 R Finger31" 36
  38 "Bip01 R Finger32" 37
  39 "Bip01 R Finger4" 26
  40 "Bip01 R Finger41" 39
  41 "Bip01 R Finger42" 40
  42 "Bone_Se_Hand-R" 26
  43 "Bip01 R ForeTwist2" 25
end
skeleton
  time 0
    0 13.446035 0.684503 -8.711955 -0.863336 0.269055 -2.129029
    1 8.499673 0.000000 0.000000 -1.934148 0.120615 0.398615
    2 2.590253 0.798589 -0.347197 0.168992 -3.019792 1.443836
    3 1.276065 4.913687 -1.756443 0.000000 0.000000 0.000000
    4 0.000001 6.776258 1.709932 0.000000 0.000000 0.000000
    5 0.000000 -2.155090 2.277096 0.000000 0.000000 0.000000
    6 -0.531231 4.631601 3.001893 0.000000 0.000000 0.000000
    7 0.000000 -2.782812 4.273781 0.000000 0.000000 0.000000
    8 1.066141 0.161471 -0.665475 2.484768 0.749569 0.986721
    9 1.535968 -0.000001 0.000001 0.000000 0.000000 1.180468
    10 1.100831 0.000000 0.000000 0.000000 0.000000 0.433641
    11 2.725985 -0.106123 -1.020465 -0.052019 0.107536 -0.014378
    12 1.397574 0.000001 0.000001 0.000000 0.000000 0.193561
    13 0.957879 0.000000 0.000000 0.000000 0.000000 0.641297
    14 2.818702 -0.176450 -0.444443 -0.118789 0.036080 0.644560
    15 1.684281 0.000000 0.000000 0.000000 0.000000 1.861645
    16 1.151941 0.000000 0.000001 0.000000 0.000000 1.141487
    17 2.804605 -0.069563 0.290472 -0.211325 0.071354 0.840695
    18 1.480629 0.000000 0.000000 0.000000 0.000000 1.698687
    19 1.076366 0.000000 0.000000 0.000000 0.000000 0.748916
    20 2.637186 0.041571 0.929335 -0.346527 0.088471 0.924980
    21 1.124349 -0.000002 0.000000 0.000000 0.000000 1.346295
    22 0.891247 0.000001 0.000000 0.000000 0.000000 0.984495
    23 0.050302 -0.068010 -0.113033 1.724535 0.010837 0.011384
    24 2.428478 0.000000 0.000000 -0.148354 0.000000 0.000000
    25 -3.748046 -1.690630 -5.367946 -1.398237 0.001395 -2.486288
    26 8.499673 0.000001 0.000000 2.187073 0.356278 0.080698
    27 1.066141 0.161471 0.665475 -1.785681 -0.924298 0.871340
    28 1.535968 -0.000001 0.000000 0.000000 0.000000 0.777064
    29 1.100830 -0.000001 0.000000 0.000000 0.000000 0.950950
    30 2.725985 -0.106123 1.020465 -0.121128 -0.138751 0.762743
    31 1.397574 0.000001 -0.000001 0.000000 0.000000 1.453253
    32 0.957878 0.000000 0.000000 0.000000 0.000000 1.294385
    33 2.818702 -0.176451 0.444443 -0.078016 0.000188 1.075865
    34 1.684282 -0.000002 0.000000 0.000000 0.000000 1.335200
    35 1.151941 0.000000 -0.000001 0.000000 0.000000 1.284794
    36 2.804606 -0.069564 -0.290472 0.177125 0.046581 1.248966
    37 1.480629 0.000001 -0.000001 0.000000 0.000000 1.543367
    38 1.076367 0.000000 0.000000 0.000000 0.000000 1.315087
    39 2.637187 0.041571 -0.929335 0.403064 0.045313 1.415022
    40 1.124349 0.000001 0.000000 0.000000 0.000000 1.427852
    41 0.891247 0.000001 0.000000 0.000000 0.000000 1.222249
    42 0.050304 -0.068010 0.113018 -1.417057 3.130757 0.011385
    43 2.428478 0.000000 0.000000 0.216916 0.000000 0.000000
end
triangles
QBB95.bmp
  2 3.839782 -17.777936 -14.412270 0.098999 0.728189 0.678189 0.776471 0.836653
  2 3.840835 -17.887910 -14.294352 0.098999 0.728189 0.678189 0.776471 0.852590
  2 3.907507 -17.895001 -14.296473 0.098999 0.728189 0.678189 0.776471 0.852590
QBB95.bmp
  2 3.907507 -17.895001 -14.296473 0.098999 0.728189 0.678189 0.776471 0.852590
  2 3.840835 -17.887910 -14.294352 0.098999 0.728189 0.678189 0.776471 0.852590
  2 3.828335 -17.999494 -14.172726 0.098999 0.728189 0.678189 0.776471 0.868526
QBB95.bmp
  2 3.840835 -17.887910 -14.294352 0.098999 0.728189 0.678189 0.776471 0.852590
  2 3.786064 -17.964480 -14.204146 0.098999 0.728189 0.678189 0.776471 0.868526
  2 3.828335 -17.999494 -14.172726 0.098999 0.728189 0.678189 0.776471 0.868526
QBB95.bmp
  2 3.828335 -17.999494 -14.172726 0.098999 0.728189 0.678189 0.776471 0.868526
  2 3.786064 -17.964480 -14.204146 0.098999 0.728189 0.678189 0.776471 0.868526
  2 3.664621 -18.033959 -14.111819 0.098999 0.728189 0.678189 0.776471 0.892430
QBB95.bmp
  2 3.786064 -17.964480 -14.204146 0.098999 0.728189 0.678189 0.776471 0.868526
  2 3.649454 -17.995726 -14.150654 0.098999 0.728189 0.678189 0.776471 0.892430
  2 3.664621 -18.033959 -14.111819 0.098999 0.728189 0.678189 0.776471 0.892430
QBB95.bmp
  2 3.664621 -18.033959 -14.111819 0.098999 0.728189 0.678189 0.776471 0.892430
  2 3.649454 -17.995726 -14.150654 0.098999 0.728189 0.678189 0.776471 0.892430
  2 3.483036 -18.005490 -14.115872 -0.326296 0.402295 0.855389 0.776471 0.908367
QBB95.bmp
  2 3.649454 -17.995726 -14.150654 0.098999 0.728189 0.678189 0.776471 0.892430
  2 3.512317 -17.971984 -14.156121 0.098999 0.728189 0.678189 0.776471 0.908367
  2 3.483036 -18.005490 -14.115872 -0.326296 0.402295 0.855389 0.776471 0.908367
QBB95.bmp
  2 3.483036 -18.005490 -14.115872 -0.326296 0.402295 0.855389 0.776471 0.908367
  2 3.512317 -17.971984 -14.156121 0.098999 0.728189 0.678189 0.776471 0.908367
  2 3.352430 -17.890892 -14.219840 -0.629796 0.312798 0.710996 0.776471 0.892430
QBB95.bmp
  2 3.512317 -17.971984 -14.156121 0.098999 0.728189 0.678189 0.776471 0.908367
  2 3.406639 -17.884451 -14.234670 0.098999 0.728189 0.678189 0.776471 0.892430
  2 3.352430 -17.890892 -14.219840 -0.629796 0.312798 0.710996 0.776471 0.892430
QBB95.bmp
  2 3.352430 -17.890892 -14.219840 -0.629796 0.312798 0.710996 0.776471 0.892430
  2 3.406639 -17.884451 -14.234670 0.098999 0.728189 0.678189 0.776471 0.892430
  2 3.325361 -17.768996 -14.346760 -0.683966 0.632569 0.363382 0.776471 0.868526
QBB95.bmp
  2 3.406639 -17.884451 -14.234670 0.098999 0.728189 0.678189 0.776471 0.892430
  2 3.395825 -17.785646 -14.339172 0.098999 0.728189 0.678189 0.776471 0.868526
  2 3.325361 -17.768996 -14.346760 -0.683966 0.632569 0.363382 0.776471 0.868526
QBB95.bmp
  2 3.325361 -17.768996 -14.346760 -0.683966 0.632569 0.363382 0.776471 0.868526
  2 3.395825 -17.785646 -14.339172 0.098999 0.728189 0.678189 0.776471 0.868526
  2 3.421877 -17.672451 -14.464506 -0.455177 0.886755 0.080496 0.776471 0.852590
QBB95.bmp
  2 3.395825 -17.785646 -14.339172 0.098999 0.728189 0.678189 0.776471 0.868526
  2 3.459268 -17.713049 -14.426378 0.098999 0.728189 0.678189 0.776471 0.852590
  2 3.421877 -17.672451 -14.464506 -0.455177 0.886755 0.080496 0.776471 0.852590
QBB95.bmp
  2 3.421877 -17.672451 -14.464506 -0.455177 0.886755 0.080496 0.776471 0.852590
  2 3.459268 -17.713049 -14.426378 0.098999 0.728189 0.678189 0.776471 0.852590
  2 3.591560 -17.617259 -14.548537 -0.496212 0.827120 0.263906 0.776471 0.836653
QBB95.bmp
  2 3.459268 -17.713049 -14.426378 0.098999 0.728189 0.678189 0.776471 0.852590
  2 3.596967 -17.666661 -14.496286 0.098999 0.728189 0.678189 0.776471 0.836653
  2 3.591560 -17.617259 -14.548537 -0.496212 0.827120 0.263906 0.776471 0.836653
QBB95.bmp
  2 3.591560 -17.617259 -14.548537 -0.496212 0.827120 0.263906 0.776471 0.836653
  2 3.596967 -17.666661 -14.496286 0.098999 0.728189 0.678189 0.776471 0.836653
  2 3.903751 -17.760326 -14.440516 0.028101 0.640630 0.767336 0.717647 0.836653
QBB95.bmp
  2 3.596967 -17.666661 -14.496286 0.098999 0.728189 0.678189 0.776471 0.836653
  2 3.839782 -17.777936 -14.412270 0.098999 0.728189 0.678189 0.717647 0.836653
  2 3.903751 -17.760326 -14.440516 0.028101 0.640630 0.767336 0.717647 0.836653
QBB95.bmp
  2 4.971610 -9.192718 -7.679150 -0.867190 0.397395 -0.300096 0.098039 0.908367
  2 5.654913 -7.955836 -8.015782 -0.735806 0.677106 -0.010800 0.039216 0.808765
  2 5.482051 -8.620924 -8.397065 -0.867190 0.397395 -0.300096 0.101961 0.824701
QBB95.bmp
  2 5.482051 -8.620924 -8.397065 -0.867190 0.397395 -0.300096 0.101961 0.824701
  2 5.654913 -7.955836 -8.015782 -0.735806 0.677106 -0.010800 0.039216 0.808765
  2 5.527741 -8.648573 -8.565730 -0.986767 0.159795 -0.027499 0.109804 0.812749
QBB95.bmp
  2 5.654913 -7.955836 -8.015782 -0.735806 0.677106 -0.010800 0.039216 0.808765
  2 5.869642 -7.710125 -8.310938 -0.882457 0.469177 0.033798 0.039216 0.772908
  2 5.527741 -8.648573 -8.565730 -0.986767 0.159795 -0.027499 0.109804 0.812749
QBB95.bmp
  2 5.527741 -8.648573 -8.565730 -0.986767 0.159795 -0.027499 0.109804 0.812749
  2 5.869642 -7.710125 -8.310938 -0.882457 0.469177 0.033798 0.039216 0.772908
  2 4.962320 -12.806361 -12.438351 -0.941337 0.191007 0.278211 0.568627 0.812749
QBB95.bmp
  2 5.869642 -7.710125 -8.310938 -0.882457 0.469177 0.033798 0.039216 0.772908
  2 4.899368 -13.511690 -13.190580 -0.951509 0.271303 -0.145001 0.650980 0.808765
  2 4.962320 -12.806361 -12.438351 -0.941337 0.191007 0.278211 0.568627 0.812749
QBB95.bmp
  2 4.962320 -12.806361 -12.438351 -0.941337 0.191007 0.278211 0.568627 0.812749
  2 4.899368 -13.511690 -13.190580 -0.951509 0.271303 -0.145001 0.650980 0.808765
  2 4.810678 -13.133594 -12.433495 -0.731703 0.668502 0.133101 0.588235 0.836653
QBB95.bmp
  2 4.899368 -13.511690 -13.190580 -0.951509 0.271303 -0.145001 0.650980 0.808765
  2 4.131694 -13.762982 -11.304757 -0.867190 0.397395 -0.300096 0.572549 0.952191
  2 4.810678 -13.133594 -12.433495 -0.731703 0.668502 0.133101 0.588235 0.836653
QBB95.bmp
  2 4.810678 -13.133594 -12.433495 -0.731703 0.668502 0.133101 0.588235 0.836653
  2 4.131694 -13.762982 -11.304757 -0.867190 0.397395 -0.300096 0.572549 0.952191
  2 4.236726 -13.384559 -11.107111 -0.707391 0.684791 -0.175098 0.537255 0.940239
QBB95.bmp
  2 4.131694 -13.762982 -11.304757 -0.867190 0.397395 -0.300096 0.572549 0.952191
  2 4.080276 -13.686552 -11.054928 -0.997684 0.026600 0.062599 0.552941 0.964143
  2 4.236726 -13.384559 -11.107111 -0.707391 0.684791 -0.175098 0.537255 0.940239
QBB95.bmp
  2 4.236726 -13.384559 -11.107111 -0.707391 0.684791 -0.175098 0.537255 0.940239
  2 4.080276 -13.686552 -11.054928 -0.997684 0.026600 0.062599 0.552941 0.964143
  2 4.758364 -9.639631 -7.654762 -0.867190 0.397395 -0.300096 0.125490 0.940239
QBB95.bmp
  2 4.080276 -13.686552 -11.054928 -0.997684 0.026600 0.062599 0.552941 0.964143
  2 4.468596 -9.497775 -6.629427 -0.936237 -0.095604 0.338113 0.062745 1.000000
  2 4.758364 -9.639631 -7.654762 -0.867190 0.397395 -0.300096 0.125490 0.940239
QBB95.bmp
  2 4.758364 -9.639631 -7.654762 -0.867190 0.397395 -0.300096 0.125490 0.940239
  2 4.468596 -9.497775 -6.629427 -0.936237 -0.095604 0.338113 0.062745 1.000000
  2 4.547176 -9.192660 -6.452424 -0.816959 0.220989 0.532674 0.035294 0.996016
QBB95.bmp
  2 4.536523 -17.076683 -15.930392 -0.488018 -0.558420 0.670824 0.560784 0.597610
  2 4.536944 -16.176752 -15.672856 -0.995052 0.067397 0.072997 0.482353 0.553785
  2 4.454755 -16.781124 -16.235776 -0.981430 0.184006 -0.054202 0.560784 0.553785
QBB95.bmp
  2 4.536523 -17.076683 -15.930392 -0.488018 -0.558420 0.670824 0.560784 0.597610
  2 4.609230 -15.645196 -15.177757 -0.995052 0.067397 0.072997 0.407843 0.553785
  2 4.536944 -16.176752 -15.672856 -0.995052 0.067397 0.072997 0.482353 0.553785
QBB95.bmp
  2 4.536523 -17.076683 -15.930392 -0.488018 -0.558420 0.670824 0.560784 0.597610
  2 4.661713 -15.259272 -14.818302 -0.995052 0.067397 0.072997 0.356863 0.553785
  2 4.609230 -15.645196 -15.177757 -0.995052 0.067397 0.072997 0.407843 0.553785
QBB95.bmp
  2 4.536523 -17.076683 -15.930392 -0.488018 -0.558420 0.670824 0.560784 0.597610
  2 4.999950 -13.668898 -12.756335 -0.488018 -0.558420 0.670824 0.101961 0.597610
  2 4.661713 -15.259272 -14.818302 -0.995052 0.067397 0.072997 0.356863 0.553785
QBB95.bmp
  2 4.536523 -17.076683 -15.930392 -0.488018 -0.558420 0.670824 0.560784 0.597610
  2 5.367654 -13.726291 -13.028548 0.354889 -0.662578 0.659579 0.121569 0.553785
  2 4.999950 -13.668898 -12.756335 -0.488018 -0.558420 0.670824 0.101961 0.597610
QBB95.bmp
  2 4.536523 -17.076683 -15.930392 -0.488018 -0.558420 0.670824 0.560784 0.597610
  2 5.334976 -13.966584 -13.252360 0.354889 -0.662578 0.659579 0.156863 0.553785
  2 5.367654 -13.726291 -13.028548 0.354889 -0.662578 0.659579 0.121569 0.553785
QBB95.bmp
  2 4.536523 -17.076683 -15.930392 -0.488018 -0.558420 0.670824 0.560784 0.597610
  2 5.257738 -14.534548 -13.781369 0.354889 -0.662578 0.659579 0.231373 0.553785
  2 5.334976 -13.966584 -13.252360 0.354889 -0.662578 0.659579 0.156863 0.553785
QBB95.bmp
  2 4.536523 -17.076683 -15.930392 -0.488018 -0.558420 0.670824 0.560784 0.597610
  2 5.211198 -14.876783 -14.100132 0.354889 -0.662578 0.659579 0.278431 0.553785
  2 5.257738 -14.534548 -13.781369 0.354889 -0.662578 0.659579 0.231373 0.553785
QBB95.bmp
  2 4.536523 -17.076683 -15.930392 -0.488018 -0.558420 0.670824 0.560784 0.597610
  2 5.129999 -15.473873 -14.656270 0.354889 -0.662578 0.659579 0.356863 0.553785
  2 5.211198 -14.876783 -14.100132 0.354889 -0.662578 0.659579 0.278431 0.553785
QBB95.bmp
  2 4.536523 -17.076683 -15.930392 -0.488018 -0.558420 0.670824 0.560784 0.597610
  2 5.077517 -15.859797 -15.015725 0.354889 -0.662578 0.659579 0.407843 0.553785
  2 5.129999 -15.473873 -14.656270 0.354889 -0.662578 0.659579 0.356863 0.553785
QBB95.bmp
  2 4.536523 -17.076683 -15.930392 -0.488018 -0.558420 0.670824 0.560784 0.597610
  2 5.005230 -16.391354 -15.510824 0.354889 -0.662578 0.659579 0.482353 0.553785
  2 5.077517 -15.859797 -15.015725 0.354889 -0.662578 0.659579 0.407843 0.553785
QBB95.bmp
  2 4.536523 -17.076683 -15.930392 -0.488018 -0.558420 0.670824 0.560784 0.597610
  2 4.923041 -16.995726 -16.073744 0.354889 -0.662578 0.659579 0.560784 0.553785
  2 5.005230 -16.391354 -15.510824 0.354889 -0.662578 0.659579 0.482353 0.553785
QBB95.bmp
  2 4.731050 -20.792489 -20.447475 -0.118999 -0.667993 0.734592 0.988235 0.075697
  2 4.638851 -19.142303 -18.961917 -0.316486 0.025399 0.948257 0.796078 0.103586
  2 4.421000 -20.744253 -20.453995 -0.488018 -0.558420 0.670824 0.988235 0.103586
QBB95.bmp
  2 4.421000 -20.744253 -20.453995 -0.488018 -0.558420 0.670824 0.988235 0.103586
  2 4.638851 -19.142303 -18.961917 -0.316486 0.025399 0.948257 0.796078 0.103586
  2 4.210732 -20.554043 -20.627511 -0.958271 -0.113897 0.262192 0.988235 0.075697
QBB95.bmp
  2 4.638851 -19.142303 -18.961917 -0.316486 0.025399 0.948257 0.796078 0.103586
  2 4.428582 -18.952094 -19.135433 -0.681597 0.370498 0.630997 0.796078 0.075697
  2 4.210732 -20.554043 -20.627511 -0.958271 -0.113897 0.262192 0.988235 0.075697
QBB95.bmp
  2 4.210732 -20.554043 -20.627511 -0.958271 -0.113897 0.262192 0.988235 0.075697
  2 4.428582 -18.952094 -19.135433 -0.681597 0.370498 0.630997 0.796078 0.075697
  2 4.257955 -20.333239 -20.871469 -0.867190 0.397395 -0.300096 0.988235 0.047809
QBB95.bmp
  2 4.428582 -18.952094 -19.135433 -0.681597 0.370498 0.630997 0.796078 0.075697
  2 4.475805 -18.731289 -19.379391 -0.610874 0.767467 0.194492 0.796078 0.047809
  2 4.257955 -20.333239 -20.871469 -0.867190 0.397395 -0.300096 0.988235 0.047809
QBB95.bmp
  2 4.257955 -20.333239 -20.871469 -0.867190 0.397395 -0.300096 0.988235 0.047809
  2 4.475805 -18.731289 -19.379391 -0.610874 0.767467 0.194492 0.796078 0.047809
  2 4.508424 -20.213398 -21.036705 -0.258502 0.678004 -0.688104 0.988235 0.019920
QBB95.bmp
  2 4.475805 -18.731289 -19.379391 -0.610874 0.767467 0.194492 0.796078 0.047809
  2 4.726275 -18.611448 -19.544627 -0.145796 0.983674 -0.105497 0.796078 0.019920
  2 4.508424 -20.213398 -21.036705 -0.258502 0.678004 -0.688104 0.988235 0.019920
QBB95.bmp
  2 4.508424 -20.213398 -21.036705 -0.258502 0.678004 -0.688104 0.988235 0.019920
  2 4.726275 -18.611448 -19.544627 -0.145796 0.983674 -0.105497 0.796078 0.019920
  2 4.840698 -20.263998 -21.030892 0.488018 0.558420 -0.670824 0.988235 0.000000
QBB95.bmp
  2 4.726275 -18.611448 -19.544627 -0.145796 0.983674 -0.105497 0.796078 0.019920
  2 5.058549 -18.662049 -19.538814 0.441294 0.892489 -0.093399 0.796078 0.000000
  2 4.840698 -20.263998 -21.030892 0.488018 0.558420 -0.670824 0.988235 0.000000
QBB95.bmp
  2 4.840698 -20.263998 -21.030892 0.488018 0.558420 -0.670824 0.988235 0.000000
  2 5.058549 -18.662049 -19.538814 0.441294 0.892489 -0.093399 0.796078 0.000000
  2 5.246593 -18.849894 -19.364591 0.516594 0.807690 0.284196 0.796078 0.019920
QBB95.bmp
  2 5.058549 -18.662049 -19.538814 0.441294 0.892489 -0.093399 0.796078 0.000000
  2 5.070415 -18.870827 -19.316394 0.382606 0.811213 0.442207 0.776471 0.019920
  2 5.246593 -18.849894 -19.364591 0.516594 0.807690 0.284196 0.796078 0.019920
QBB95.bmp
  2 5.246593 -18.849894 -19.364591 0.516594 0.807690 0.284196 0.796078 0.019920
  2 5.070415 -18.870827 -19.316394 0.382606 0.811213 0.442207 0.776471 0.019920
  2 5.056827 -18.997554 -19.178351 0.098999 0.728189 0.678189 0.776471 0.047809
QBB95.bmp
  2 5.070415 -18.870827 -19.316394 0.382606 0.811213 0.442207 0.776471 0.019920
  2 5.058549 -18.662049 -19.538814 0.441294 0.892489 -0.093399 0.796078 0.000000
  2 4.970705 -18.762567 -19.418068 0.369699 0.917498 0.146700 0.776471 0.000000
QBB95.bmp
  2 4.970705 -18.762567 -19.418068 0.369699 0.917498 0.146700 0.776471 0.000000
  2 5.058549 -18.662049 -19.538814 0.441294 0.892489 -0.093399 0.796078 0.000000
  2 4.775568 -18.735708 -19.418414 -0.079700 0.987304 0.137401 0.776471 0.019920
QBB95.bmp
  2 5.058549 -18.662049 -19.538814 0.441294 0.892489 -0.093399 0.796078 0.000000
  2 4.726275 -18.611448 -19.544627 -0.145796 0.983674 -0.105497 0.796078 0.019920
  2 4.775568 -18.735708 -19.418414 -0.079700 0.987304 0.137401 0.776471 0.019920
QBB95.bmp
  2 4.775568 -18.735708 -19.418414 -0.079700 0.987304 0.137401 0.776471 0.019920
  2 4.726275 -18.611448 -19.544627 -0.145796 0.983674 -0.105497 0.796078 0.019920
  2 4.631900 -18.802823 -19.325380 -0.435791 0.821784 0.367093 0.776471 0.047809
QBB95.bmp
  2 4.726275 -18.611448 -19.544627 -0.145796 0.983674 -0.105497 0.796078 0.019920
  2 4.475805 -18.731289 -19.379391 -0.610874 0.767467 0.194492 0.796078 0.047809
  2 4.631900 -18.802823 -19.325380 -0.435791 0.821784 0.367093 0.776471 0.047809
QBB95.bmp
  2 4.631900 -18.802823 -19.325380 -0.435791 0.821784 0.367093 0.776471 0.047809
  2 4.475805 -18.731289 -19.379391 -0.610874 0.767467 0.194492 0.796078 0.047809
  2 4.604760 -18.931160 -19.183630 -0.489923 0.517925 0.701234 0.776471 0.075697
QBB95.bmp
  2 4.475805 -18.731289 -19.379391 -0.610874 0.767467 0.194492 0.796078 0.047809
  2 4.428582 -18.952094 -19.135433 -0.681597 0.370498 0.630997 0.796078 0.075697
  2 4.604760 -18.931160 -19.183630 -0.489923 0.517925 0.701234 0.776471 0.075697
QBB95.bmp
  2 4.604760 -18.931160 -19.183630 -0.489923 0.517925 0.701234 0.776471 0.075697
  2 4.428582 -18.952094 -19.135433 -0.681597 0.370498 0.630997 0.796078 0.075697
  2 4.726694 -19.041784 -19.082663 -0.210404 0.253705 0.944121 0.776471 0.103586
QBB95.bmp
  2 4.428582 -18.952094 -19.135433 -0.681597 0.370498 0.630997 0.796078 0.075697
  2 4.638851 -19.142303 -18.961917 -0.316486 0.025399 0.948257 0.796078 0.103586
  2 4.726694 -19.041784 -19.082663 -0.210404 0.253705 0.944121 0.776471 0.103586
QBB95.bmp
  2 4.726694 -19.041784 -19.082663 -0.210404 0.253705 0.944121 0.776471 0.103586
  2 4.638851 -19.142303 -18.961917 -0.316486 0.025399 0.948257 0.796078 0.103586
  2 4.948900 -19.190539 -18.955397 0.016400 0.235296 0.971785 0.796078 0.075697
QBB95.bmp
  2 4.638851 -19.142303 -18.961917 -0.316486 0.025399 0.948257 0.796078 0.103586
  2 4.731050 -20.792489 -20.447475 -0.118999 -0.667993 0.734592 0.988235 0.075697
  2 4.948900 -19.190539 -18.955397 0.016400 0.235296 0.971785 0.796078 0.075697
QBB95.bmp
  3 9.360985 -6.726129 -9.046014 -0.163000 -0.654702 0.738103 0.988235 0.932271
  3 8.509849 -4.132007 -7.416229 -0.629590 -0.466493 0.621290 0.858824 0.996016
  3 8.191590 -6.253053 -9.338955 -0.629590 -0.466493 0.621290 0.988235 0.996016
QBB95.bmp
  3 8.191590 -6.253053 -9.338955 -0.629590 -0.466493 0.621290 0.988235 0.996016
  3 8.509849 -4.132007 -7.416229 -0.629590 -0.466493 0.621290 0.858824 0.996016
  3 7.433739 -5.498815 -10.082316 -0.930051 -0.167591 0.326983 0.988235 0.932271
QBB95.bmp
  3 8.509849 -4.132007 -7.416229 -0.629590 -0.466493 0.621290 0.858824 0.996016
  3 7.698351 -3.314080 -8.220136 -0.930051 -0.167591 0.326983 0.858824 0.932271
  3 7.433739 -5.498815 -10.082316 -0.930051 -0.167591 0.326983 0.988235 0.932271
QBB95.bmp
  3 7.433739 -5.498815 -10.082316 -0.930051 -0.167591 0.326983 0.988235 0.932271
  3 7.698351 -3.314080 -8.220136 -0.930051 -0.167591 0.326983 0.858824 0.932271
  3 7.301394 -4.671043 -11.069676 -0.984473 0.162495 -0.066398 0.988235 0.852590
QBB95.bmp
  3 7.698351 -3.314080 -8.220136 -0.930051 -0.167591 0.326983 0.858824 0.932271
  3 7.552026 -2.425071 -9.285946 -0.984473 0.162495 -0.066398 0.858824 0.852590
  3 7.301394 -4.671043 -11.069676 -0.984473 0.162495 -0.066398 0.988235 0.852590
QBB95.bmp
  3 7.301394 -4.671043 -11.069676 -0.984473 0.162495 -0.066398 0.988235 0.852590
  3 7.552026 -2.425071 -9.285946 -0.984473 0.162495 -0.066398 0.858824 0.852590
  3 7.811104 -3.988654 -12.038923 -0.777931 0.435117 -0.453318 0.988235 0.760956
QBB95.bmp
  3 7.552026 -2.425071 -9.285946 -0.984473 0.162495 -0.066398 0.858824 0.852590
  3 8.110539 -1.686839 -10.322274 -0.777931 0.435117 -0.453318 0.858824 0.760956
  3 7.811104 -3.988654 -12.038923 -0.777931 0.435117 -0.453318 0.988235 0.760956
QBB95.bmp
  3 7.811104 -3.988654 -12.038923 -0.777931 0.435117 -0.453318 0.988235 0.760956
  3 8.110539 -1.686839 -10.322274 -0.777931 0.435117 -0.453318 0.858824 0.760956
  3 8.848154 -3.633958 -12.733342 -0.365711 0.577217 -0.730121 0.988235 0.852590
QBB95.bmp
  3 8.110539 -1.686839 -10.322274 -0.777931 0.435117 -0.453318 0.858824 0.760956
  3 9.225208 -1.305061 -11.071846 -0.365711 0.577217 -0.730121 0.858824 0.852590
  3 8.848154 -3.633958 -12.733342 -0.365711 0.577217 -0.730121 0.988235 0.852590
QBB95.bmp
  3 8.848154 -3.633958 -12.733342 -0.365711 0.577217 -0.730121 0.988235 0.852590
  3 9.225208 -1.305061 -11.071846 -0.365711 0.577217 -0.730121 0.858824 0.852590
  3 10.129268 -3.704198 -12.962936 -0.115297 0.587485 -0.800979 0.988235 0.932271
QBB95.bmp
  3 9.225208 -1.305061 -11.071846 -0.365711 0.577217 -0.730121 0.858824 0.852590
  3 10.595317 -1.376895 -11.327466 -0.115297 0.587485 -0.800979 0.858824 0.932271
  3 10.129268 -3.704198 -12.962936 -0.115297 0.587485 -0.800979 0.988235 0.932271
QBB95.bmp
  2 4.682652 -15.978350 -17.130939 -0.955685 0.278196 -0.096298 0.560784 0.442231
  2 4.853752 -15.058895 -16.241035 -0.951509 0.271303 -0.145001 0.435294 0.442231
  2 4.902261 -15.727054 -17.432803 -0.751433 0.513022 -0.414918 0.560784 0.390438
QBB95.bmp
  2 4.902261 -15.727054 -17.432803 -0.751433 0.513022 -0.414918 0.560784 0.390438
  2 4.853752 -15.058895 -16.241035 -0.951509 0.271303 -0.145001 0.435294 0.442231
  2 5.012177 -14.918798 -16.679982 -0.753176 0.577282 -0.315390 0.450980 0.390438
QBB95.bmp
  2 4.853752 -15.058895 -16.241035 -0.951509 0.271303 -0.145001 0.435294 0.442231
  2 5.073361 -14.807599 -16.542899 -0.711774 0.621077 -0.328088 0.435294 0.390438
  2 5.012177 -14.918798 -16.679982 -0.753176 0.577282 -0.315390 0.450980 0.390438
QBB95.bmp
  2 5.012177 -14.918798 -16.679982 -0.753176 0.577282 -0.315390 0.450980 0.390438
  2 5.073361 -14.807599 -16.542899 -0.711774 0.621077 -0.328088 0.435294 0.390438
  2 5.321736 -14.786931 -16.866756 -0.081898 0.800076 -0.594282 0.450980 0.346614
QBB95.bmp
  2 5.073361 -14.807599 -16.542899 -0.711774 0.621077 -0.328088 0.435294 0.390438
  2 5.349847 -14.699680 -16.699134 -0.057100 0.819592 -0.570095 0.435294 0.346614
  2 5.321736 -14.786931 -16.866756 -0.081898 0.800076 -0.594282 0.450980 0.346614
QBB95.bmp
  2 5.321736 -14.786931 -16.866756 -0.081898 0.800076 -0.594282 0.450980 0.346614
  2 5.349847 -14.699680 -16.699134 -0.057100 0.819592 -0.570095 0.435294 0.346614
  2 5.788407 -14.961688 -16.747266 0.497888 0.702384 -0.508688 0.450980 0.298805
QBB95.bmp
  2 5.349847 -14.699680 -16.699134 -0.057100 0.819592 -0.570095 0.435294 0.346614
  2 5.767190 -14.875294 -16.571522 0.497888 0.702384 -0.508688 0.435294 0.298805
  2 5.788407 -14.961688 -16.747266 0.497888 0.702384 -0.508688 0.450980 0.298805
QBB95.bmp
  2 5.788407 -14.961688 -16.747266 0.497888 0.702384 -0.508688 0.450980 0.298805
  2 5.767190 -14.875294 -16.571522 0.497888 0.702384 -0.508688 0.435294 0.298805
  2 6.156340 -15.069271 -16.420079 0.788699 0.534699 -0.303400 0.435294 0.346614
QBB95.bmp
  2 5.767190 -14.875294 -16.571522 0.497888 0.702384 -0.508688 0.435294 0.298805
  2 6.157340 -12.006347 -13.899346 0.456999 0.874498 -0.162500 0.050980 0.326693
  2 6.156340 -15.069271 -16.420079 0.788699 0.534699 -0.303400 0.435294 0.346614
QBB95.bmp
  2 6.156340 -15.069271 -16.420079 0.788699 0.534699 -0.303400 0.435294 0.346614
  2 6.157340 -12.006347 -13.899346 0.456999 0.874498 -0.162500 0.050980 0.326693
  2 6.546490 -12.200324 -13.747902 0.369699 0.917498 0.146700 0.050980 0.362550
QBB95.bmp
  2 4.899607 -19.066280 -19.081610 0.047701 0.428007 0.902516 0.768627 0.067729
  2 4.934643 -17.512650 -17.658406 -0.488018 -0.558420 0.670824 0.658824 0.087649
  2 4.726694 -19.041784 -19.082663 -0.210404 0.253705 0.944121 0.768627 0.087649
QBB95.bmp
  2 4.726694 -19.041784 -19.082663 -0.210404 0.253705 0.944121 0.768627 0.087649
  2 4.934643 -17.512650 -17.658406 -0.488018 -0.558420 0.670824 0.658824 0.087649
  2 4.604760 -18.931160 -19.183630 -0.489923 0.517925 0.701234 0.768627 0.067729
QBB95.bmp
  2 4.934643 -17.512650 -17.658406 -0.488018 -0.558420 0.670824 0.658824 0.087649
  2 4.812709 -17.402026 -17.759374 -0.958271 -0.113897 0.262192 0.658824 0.067729
  2 4.604760 -18.931160 -19.183630 -0.489923 0.517925 0.701234 0.768627 0.067729
QBB95.bmp
  2 4.604760 -18.931160 -19.183630 -0.489923 0.517925 0.701234 0.768627 0.067729
  2 4.812709 -17.402026 -17.759374 -0.958271 -0.113897 0.262192 0.658824 0.067729
  2 4.631900 -18.802823 -19.325380 -0.435791 0.821784 0.367093 0.768627 0.047809
QBB95.bmp
  2 4.812709 -17.402026 -17.759374 -0.958271 -0.113897 0.262192 0.658824 0.067729
  2 4.839849 -17.273689 -17.901123 -0.867190 0.397395 -0.300096 0.658824 0.047809
  2 4.631900 -18.802823 -19.325380 -0.435791 0.821784 0.367093 0.768627 0.047809
QBB95.bmp
  2 4.631900 -18.802823 -19.325380 -0.435791 0.821784 0.367093 0.768627 0.047809
  2 4.839849 -17.273689 -17.901123 -0.867190 0.397395 -0.300096 0.658824 0.047809
  2 4.775568 -18.735708 -19.418414 -0.079700 0.987304 0.137401 0.768627 0.031873
QBB95.bmp
  2 4.839849 -17.273689 -17.901123 -0.867190 0.397395 -0.300096 0.658824 0.047809
  2 4.983516 -17.206574 -17.994157 -0.258502 0.678004 -0.688104 0.658824 0.031873
  2 4.775568 -18.735708 -19.418414 -0.079700 0.987304 0.137401 0.768627 0.031873
QBB95.bmp
  2 4.775568 -18.735708 -19.418414 -0.079700 0.987304 0.137401 0.768627 0.031873
  2 4.983516 -17.206574 -17.994157 -0.258502 0.678004 -0.688104 0.658824 0.031873
  2 4.970705 -18.762567 -19.418068 0.369699 0.917498 0.146700 0.768627 0.019920
QBB95.bmp
  2 4.983516 -17.206574 -17.994157 -0.258502 0.678004 -0.688104 0.658824 0.031873
  2 5.178653 -17.233433 -17.993811 0.488018 0.558420 -0.670824 0.658824 0.019920
  2 4.970705 -18.762567 -19.418068 0.369699 0.917498 0.146700 0.768627 0.019920
QBB95.bmp
  2 4.970705 -18.762567 -19.418068 0.369699 0.917498 0.146700 0.768627 0.019920
  2 5.178653 -17.233433 -17.993811 0.488018 0.558420 -0.670824 0.658824 0.019920
  2 5.278363 -17.341693 -17.892137 0.782742 0.363819 -0.504927 0.658824 0.031873
QBB95.bmp
  2 5.146562 -17.617587 -17.576683 -0.118999 -0.667993 0.734592 0.545098 0.071713
  2 5.033527 -16.421889 -16.499543 -0.488018 -0.558420 0.670824 0.631373 0.095618
  2 4.876080 -17.579662 -17.577909 -0.488018 -0.558420 0.670824 0.545098 0.095618
QBB95.bmp
  2 4.876080 -17.579662 -17.577909 -0.488018 -0.558420 0.670824 0.545098 0.095618
  2 5.033527 -16.421889 -16.499543 -0.488018 -0.558420 0.670824 0.631373 0.095618
  2 4.704291 -17.414908 -17.729713 -0.958271 -0.113897 0.262192 0.545098 0.071713
QBB95.bmp
  2 5.033527 -16.421889 -16.499543 -0.488018 -0.558420 0.670824 0.631373 0.095618
  2 4.861738 -16.257135 -16.651348 -0.958271 -0.113897 0.262192 0.631373 0.071713
  2 4.704291 -17.414908 -17.729713 -0.958271 -0.113897 0.262192 0.545098 0.071713
QBB95.bmp
  2 4.704291 -17.414908 -17.729713 -0.958271 -0.113897 0.262192 0.545098 0.071713
  2 4.861738 -16.257135 -16.651348 -0.958271 -0.113897 0.262192 0.631373 0.071713
  2 4.735785 -17.226000 -17.937131 -0.867190 0.397395 -0.300096 0.545098 0.043825
QBB95.bmp
  2 4.861738 -16.257135 -16.651348 -0.958271 -0.113897 0.262192 0.631373 0.071713
  2 4.893232 -16.068227 -16.858765 -0.867190 0.397395 -0.300096 0.631373 0.043825
  2 4.735785 -17.226000 -17.937131 -0.867190 0.397395 -0.300096 0.545098 0.043825
QBB95.bmp
  2 4.735785 -17.226000 -17.937131 -0.867190 0.397395 -0.300096 0.545098 0.043825
  2 4.893232 -16.068227 -16.858765 -0.867190 0.397395 -0.300096 0.631373 0.043825
  2 4.958062 -17.124522 -18.078535 -0.258502 0.678004 -0.688104 0.545098 0.027888
QBB95.bmp
  2 4.893232 -16.068227 -16.858765 -0.867190 0.397395 -0.300096 0.631373 0.043825
  2 5.115509 -15.966749 -17.000169 -0.258502 0.678004 -0.688104 0.631373 0.027888
  2 4.958062 -17.124522 -18.078535 -0.258502 0.678004 -0.688104 0.545098 0.027888
QBB95.bmp
  2 4.958062 -17.124522 -18.078535 -0.258502 0.678004 -0.688104 0.545098 0.027888
  2 5.115509 -15.966749 -17.000169 -0.258502 0.678004 -0.688104 0.631373 0.027888
  2 5.237216 -17.166420 -18.074308 0.488018 0.558420 -0.670824 0.545098 0.011952
QBB95.bmp
  2 5.115509 -15.966749 -17.000169 -0.258502 0.678004 -0.688104 0.631373 0.027888
  2 5.394662 -16.008647 -16.995943 0.488018 0.558420 -0.670824 0.631373 0.011952
  2 5.237216 -17.166420 -18.074308 0.488018 0.558420 -0.670824 0.545098 0.011952
QBB95.bmp
  2 5.237216 -17.166420 -18.074308 0.488018 0.558420 -0.670824 0.545098 0.011952
  2 5.394662 -16.008647 -16.995943 0.488018 0.558420 -0.670824 0.631373 0.011952
  2 5.557779 -16.169428 -16.847139 0.782742 0.363819 -0.504927 0.631373 0.027888
QBB95.bmp
  2 3.483036 -18.005490 -14.115872 -0.326296 0.402295 0.855389 0.776471 0.908367
  2 3.352430 -17.890892 -14.219840 -0.629796 0.312798 0.710996 0.776471 0.892430
  2 3.404808 -18.580736 -14.651664 -0.756494 -0.387697 0.526696 0.843137 0.908367
QBB95.bmp
  2 3.404808 -18.580736 -14.651664 -0.756494 -0.387697 0.526696 0.843137 0.908367
  2 3.352430 -17.890892 -14.219840 -0.629796 0.312798 0.710996 0.776471 0.892430
  2 3.274202 -18.466137 -14.755632 -0.910682 -0.208396 0.356693 0.843137 0.892430
QBB95.bmp
  2 3.352430 -17.890892 -14.219840 -0.629796 0.312798 0.710996 0.776471 0.892430
  2 3.325361 -17.768996 -14.346760 -0.683966 0.632569 0.363382 0.776471 0.868526
  2 3.274202 -18.466137 -14.755632 -0.910682 -0.208396 0.356693 0.843137 0.892430
QBB95.bmp
  2 3.274202 -18.466137 -14.755632 -0.910682 -0.208396 0.356693 0.843137 0.892430
  2 3.325361 -17.768996 -14.346760 -0.683966 0.632569 0.363382 0.776471 0.868526
  2 3.247133 -18.344241 -14.882552 -0.971845 0.217210 -0.091304 0.843137 0.868526
QBB95.bmp
  2 3.325361 -17.768996 -14.346760 -0.683966 0.632569 0.363382 0.776471 0.868526
  2 3.421877 -17.672451 -14.464506 -0.455177 0.886755 0.080496 0.776471 0.852590
  2 3.247133 -18.344241 -14.882552 -0.971845 0.217210 -0.091304 0.843137 0.868526
QBB95.bmp
  2 3.247133 -18.344241 -14.882552 -0.971845 0.217210 -0.091304 0.843137 0.868526
  2 3.421877 -17.672451 -14.464506 -0.455177 0.886755 0.080496 0.776471 0.852590
  2 3.343649 -18.247697 -15.000297 -0.688394 0.542295 -0.481695 0.843137 0.852590
QBB95.bmp
  2 3.421877 -17.672451 -14.464506 -0.455177 0.886755 0.080496 0.776471 0.852590
  2 3.591560 -17.617259 -14.548537 -0.496212 0.827120 0.263906 0.776471 0.836653
  2 3.343649 -18.247697 -15.000297 -0.688394 0.542295 -0.481695 0.843137 0.852590
QBB95.bmp
  2 3.343649 -18.247697 -15.000297 -0.688394 0.542295 -0.481695 0.843137 0.852590
  2 3.591560 -17.617259 -14.548537 -0.496212 0.827120 0.263906 0.776471 0.836653
  2 3.513332 -18.192504 -15.084329 -0.688394 0.542295 -0.481695 0.843137 0.836653
QBB95.bmp
  2 3.591560 -17.617259 -14.548537 -0.496212 0.827120 0.263906 0.776471 0.836653
  2 4.612659 -15.956951 -15.300626 -0.584197 0.629496 0.512297 0.709804 0.701195
  2 3.513332 -18.192504 -15.084329 -0.688394 0.542295 -0.481695 0.843137 0.836653
QBB95.bmp
  2 3.513332 -18.192504 -15.084329 -0.688394 0.542295 -0.481695 0.843137 0.836653
  2 4.612659 -15.956951 -15.300626 -0.584197 0.629496 0.512297 0.709804 0.701195
  2 4.504724 -16.750645 -16.039883 -0.867190 0.397395 -0.300096 0.807843 0.701195
QBB95.bmp
  2 6.619706 -10.666594 -14.594312 -0.931296 0.340199 0.130200 0.894118 0.430279
  2 6.648360 -9.213505 -12.752598 -0.981722 0.156503 -0.108302 0.756863 0.462151
  2 6.938335 -10.111388 -14.779843 -0.440279 0.862358 -0.249988 0.870588 0.386454
QBB95.bmp
  2 6.619706 -10.666594 -14.594312 -0.931296 0.340199 0.130200 0.894118 0.430279
  2 7.192056 -10.928884 -14.396273 -0.332118 -0.012701 0.943152 0.886275 0.438247
  2 6.648360 -9.213505 -12.752598 -0.981722 0.156503 -0.108302 0.756863 0.462151
QBB95.bmp
  2 6.619706 -10.666594 -14.594312 -0.931296 0.340199 0.130200 0.894118 0.430279
  2 6.600276 -11.735167 -13.753852 0.199703 0.829611 0.521407 0.909804 0.513944
  2 7.192056 -10.928884 -14.396273 -0.332118 -0.012701 0.943152 0.886275 0.438247
QBB95.bmp
  2 6.619706 -10.666594 -14.594312 -0.931296 0.340199 0.130200 0.894118 0.430279
  2 6.027927 -11.472876 -13.951891 -0.579405 0.812207 0.067901 0.917647 0.509960
  2 6.600276 -11.735167 -13.753852 0.199703 0.829611 0.521407 0.909804 0.513944
QBB95.bmp
  2 6.619706 -10.666594 -14.594312 -0.931296 0.340199 0.130200 0.894118 0.430279
  2 5.972897 -12.119953 -14.649862 -0.867190 0.397395 -0.300096 0.984314 0.501992
  2 6.027927 -11.472876 -13.951891 -0.579405 0.812207 0.067901 0.917647 0.509960
QBB95.bmp
  2 6.619706 -10.666594 -14.594312 -0.931296 0.340199 0.130200 0.894118 0.430279
  2 6.712285 -11.046387 -15.364888 -0.867190 0.397395 -0.300096 0.949020 0.398406
  2 5.972897 -12.119953 -14.649862 -0.867190 0.397395 -0.300096 0.984314 0.501992
QBB95.bmp
  2 6.619706 -10.666594 -14.594312 -0.931296 0.340199 0.130200 0.894118 0.430279
  2 6.818518 -10.992460 -15.600486 -0.867190 0.397395 -0.300096 0.956863 0.382470
  2 6.712285 -11.046387 -15.364888 -0.867190 0.397395 -0.300096 0.949020 0.398406
QBB95.bmp
  2 6.619706 -10.666594 -14.594312 -0.931296 0.340199 0.130200 0.894118 0.430279
  2 7.105959 -10.030251 -15.156830 -0.153498 0.927889 -0.339796 0.882353 0.358566
  2 6.818518 -10.992460 -15.600486 -0.867190 0.397395 -0.300096 0.956863 0.382470
QBB95.bmp
  2 6.619706 -10.666594 -14.594312 -0.931296 0.340199 0.130200 0.894118 0.430279
  2 6.938335 -10.111388 -14.779843 -0.440279 0.862358 -0.249988 0.870588 0.386454
  2 7.105959 -10.030251 -15.156830 -0.153498 0.927889 -0.339796 0.882353 0.358566
QBB95.bmp
  2 6.157336 -7.684136 -7.275005 0.418688 -0.375689 0.826776 0.517647 0.270916
  2 6.435003 -3.449651 -3.368992 -0.488018 -0.558420 0.670824 0.141176 0.286853
  2 5.861660 -7.665692 -7.295870 -0.488018 -0.558420 0.670824 0.517647 0.286853
QBB95.bmp
  2 5.861660 -7.665692 -7.295870 -0.488018 -0.558420 0.670824 0.517647 0.286853
  2 6.435003 -3.449651 -3.368992 -0.488018 -0.558420 0.670824 0.141176 0.286853
  2 5.671706 -7.461586 -7.443038 -0.929978 0.291493 0.223995 0.517647 0.270916
QBB95.bmp
  2 6.435003 -3.449651 -3.368992 -0.488018 -0.558420 0.670824 0.141176 0.286853
  2 6.290354 -3.156560 -3.662546 -0.986767 0.159795 -0.027499 0.141176 0.258964
  2 5.671706 -7.461586 -7.443038 -0.929978 0.291493 0.223995 0.517647 0.270916
QBB95.bmp
  2 5.671706 -7.461586 -7.443038 -0.929978 0.291493 0.223995 0.517647 0.270916
  2 6.290354 -3.156560 -3.662546 -0.986767 0.159795 -0.027499 0.141176 0.258964
  2 5.638783 -7.947846 -8.125216 -0.867190 0.397395 -0.300096 0.564706 0.258964
QBB95.bmp
  2 6.290354 -3.156560 -3.662546 -0.986767 0.159795 -0.027499 0.141176 0.258964
  2 6.471912 -2.942657 -3.903963 -0.951509 0.271303 -0.145001 0.141176 0.231076
  2 5.638783 -7.947846 -8.125216 -0.867190 0.397395 -0.300096 0.564706 0.258964
QBB95.bmp
  2 5.638783 -7.947846 -8.125216 -0.867190 0.397395 -0.300096 0.564706 0.258964
  2 6.471912 -2.942657 -3.903963 -0.951509 0.271303 -0.145001 0.141176 0.231076
  2 5.819351 -7.741225 -8.373416 -0.951509 0.271303 -0.145001 0.564706 0.231076
QBB95.bmp
  2 6.471912 -2.942657 -3.903963 -0.951509 0.271303 -0.145001 0.141176 0.231076
  2 6.546275 -2.593516 -4.289671 -0.941309 0.289603 -0.173402 0.141176 0.191235
  2 5.819351 -7.741225 -8.373416 -0.951509 0.271303 -0.145001 0.564706 0.231076
QBB95.bmp
  2 5.819351 -7.741225 -8.373416 -0.951509 0.271303 -0.145001 0.564706 0.231076
  2 6.546275 -2.593516 -4.289671 -0.941309 0.289603 -0.173402 0.141176 0.191235
  2 5.893714 -7.392084 -8.759124 -0.951509 0.271303 -0.145001 0.564706 0.191235
QBB95.bmp
  2 6.546275 -2.593516 -4.289671 -0.941309 0.289603 -0.173402 0.141176 0.191235
  2 6.126973 -7.131317 -9.087895 -0.867190 0.397395 -0.300096 0.564706 0.155378
  2 5.893714 -7.392084 -8.759124 -0.951509 0.271303 -0.145001 0.564706 0.191235
QBB95.bmp
  2 5.260747 -12.385281 -13.376346 -0.938593 0.331198 0.096699 0.596078 0.733068
  2 5.958858 -7.251760 -8.594913 -0.584197 0.629496 0.512297 0.027451 0.733068
  2 5.734127 -11.843599 -14.027031 -0.867190 0.397395 -0.300096 0.596078 0.653386
QBB95.bmp
  2 5.734127 -11.843599 -14.027031 -0.867190 0.397395 -0.300096 0.596078 0.653386
  2 5.958858 -7.251760 -8.594913 -0.584197 0.629496 0.512297 0.027451 0.733068
  2 6.786020 -6.108500 -9.471304 -0.541791 0.724388 0.426293 0.000000 0.597610
QBB95.bmp
  2 5.958858 -7.251760 -8.594913 -0.584197 0.629496 0.512297 0.027451 0.733068
  2 5.869642 -7.710125 -8.310938 -0.882457 0.469177 0.033798 0.039216 0.772908
  2 6.786020 -6.108500 -9.471304 -0.541791 0.724388 0.426293 0.000000 0.597610
QBB95.bmp
  2 6.786020 -6.108500 -9.471304 -0.541791 0.724388 0.426293 0.000000 0.597610
  2 5.869642 -7.710125 -8.310938 -0.882457 0.469177 0.033798 0.039216 0.772908
  2 5.593875 -8.487156 -6.743432 0.098999 0.728189 0.678189 0.003922 0.904382
QBB95.bmp
  2 5.869642 -7.710125 -8.310938 -0.882457 0.469177 0.033798 0.039216 0.772908
  2 5.654913 -7.955836 -8.015782 -0.735806 0.677106 -0.010800 0.039216 0.808765
  2 5.593875 -8.487156 -6.743432 0.098999 0.728189 0.678189 0.003922 0.904382
QBB95.bmp
  2 5.593875 -8.487156 -6.743432 0.098999 0.728189 0.678189 0.003922 0.904382
  2 5.654913 -7.955836 -8.015782 -0.735806 0.677106 -0.010800 0.039216 0.808765
  2 5.125589 -8.272555 -6.905464 -0.459803 0.837905 0.294102 0.003922 0.904382
QBB95.bmp
  2 5.654913 -7.955836 -8.015782 -0.735806 0.677106 -0.010800 0.039216 0.808765
  2 4.971610 -9.192718 -7.679150 -0.867190 0.397395 -0.300096 0.098039 0.908367
  2 5.125589 -8.272555 -6.905464 -0.459803 0.837905 0.294102 0.003922 0.904382
QBB95.bmp
  2 5.125589 -8.272555 -6.905464 -0.459803 0.837905 0.294102 0.003922 0.904382
  2 4.971610 -9.192718 -7.679150 -0.867190 0.397395 -0.300096 0.098039 0.908367
  2 4.758364 -9.639631 -7.654762 -0.867190 0.397395 -0.300096 0.125490 0.940239
QBB95.bmp
  2 4.974055 -13.629127 -13.561970 -0.867190 0.397395 -0.300096 0.156863 0.533865
  2 5.114097 -13.265979 -13.485737 -0.951509 0.271303 -0.145001 0.121569 0.509960
  2 4.896817 -14.197091 -14.090979 -0.867190 0.397395 -0.300096 0.231373 0.533865
QBB95.bmp
  2 4.896817 -14.197091 -14.090979 -0.867190 0.397395 -0.300096 0.231373 0.533865
  2 5.114097 -13.265979 -13.485737 -0.951509 0.271303 -0.145001 0.121569 0.509960
  2 4.850276 -14.539326 -14.409742 -0.867190 0.397395 -0.300096 0.278431 0.533865
QBB95.bmp
  2 5.114097 -13.265979 -13.485737 -0.951509 0.271303 -0.145001 0.121569 0.509960
  2 4.669484 -16.535413 -16.530932 -0.951509 0.271303 -0.145001 0.560784 0.509960
  2 4.850276 -14.539326 -14.409742 -0.867190 0.397395 -0.300096 0.278431 0.533865
QBB95.bmp
  2 4.850276 -14.539326 -14.409742 -0.867190 0.397395 -0.300096 0.278431 0.533865
  2 4.669484 -16.535413 -16.530932 -0.951509 0.271303 -0.145001 0.560784 0.509960
  2 4.769077 -15.136416 -14.965880 -0.867190 0.397395 -0.300096 0.356863 0.533865
QBB95.bmp
  2 4.669484 -16.535413 -16.530932 -0.951509 0.271303 -0.145001 0.560784 0.509960
  2 4.716595 -15.522340 -15.325335 -0.867190 0.397395 -0.300096 0.407843 0.533865
  2 4.769077 -15.136416 -14.965880 -0.867190 0.397395 -0.300096 0.356863 0.533865
QBB95.bmp
  2 4.769077 -15.136416 -14.965880 -0.867190 0.397395 -0.300096 0.356863 0.533865
  2 4.716595 -15.522340 -15.325335 -0.867190 0.397395 -0.300096 0.407843 0.533865
  2 4.709453 -15.241534 -14.932784 -0.867190 0.397395 -0.300096 0.364706 0.545817
QBB95.bmp
  2 4.716595 -15.522340 -15.325335 -0.867190 0.397395 -0.300096 0.407843 0.533865
  2 4.668854 -15.540079 -15.210853 -0.867190 0.397395 -0.300096 0.403922 0.545817
  2 4.709453 -15.241534 -14.932784 -0.867190 0.397395 -0.300096 0.364706 0.545817
QBB95.bmp
  2 4.709453 -15.241534 -14.932784 -0.867190 0.397395 -0.300096 0.364706 0.545817
  2 4.668854 -15.540079 -15.210853 -0.867190 0.397395 -0.300096 0.403922 0.545817
  2 4.609230 -15.645196 -15.177757 -0.995052 0.067397 0.072997 0.407843 0.553785
QBB95.bmp
  2 8.781750 -6.269220 -12.819188 0.369699 0.917498 0.146700 0.564706 0.282869
  2 8.209401 -6.006929 -13.017227 -0.195505 0.980027 -0.036401 0.576471 0.278884
  2 7.316695 -8.376056 -11.375424 0.138197 0.770980 0.621684 0.631373 0.482072
QBB95.bmp
  2 7.316695 -8.376056 -11.375424 0.138197 0.770980 0.621684 0.631373 0.482072
  2 8.209401 -6.006929 -13.017227 -0.195505 0.980027 -0.036401 0.576471 0.278884
  2 6.744345 -8.113765 -11.573463 -0.596118 0.789024 0.148605 0.643137 0.482072
QBB95.bmp
  2 8.209401 -6.006929 -13.017227 -0.195505 0.980027 -0.036401 0.576471 0.278884
  2 6.834234 -8.816358 -12.763792 -0.867190 0.397395 -0.300096 0.733333 0.442231
  2 6.744345 -8.113765 -11.573463 -0.596118 0.789024 0.148605 0.643137 0.482072
QBB95.bmp
  2 6.744345 -8.113765 -11.573463 -0.596118 0.789024 0.148605 0.643137 0.482072
  2 6.834234 -8.816358 -12.763792 -0.867190 0.397395 -0.300096 0.733333 0.442231
  2 6.648360 -9.213505 -12.752598 -0.981722 0.156503 -0.108302 0.756863 0.462151
QBB95.bmp
  2 6.834234 -8.816358 -12.763792 -0.867190 0.397395 -0.300096 0.733333 0.442231
  2 6.736204 -9.112987 -12.873344 -0.626594 0.660794 -0.413196 0.756863 0.450199
  2 6.648360 -9.213505 -12.752598 -0.981722 0.156503 -0.108302 0.756863 0.462151
QBB95.bmp
  2 6.648360 -9.213505 -12.752598 -0.981722 0.156503 -0.108302 0.756863 0.462151
  2 6.736204 -9.112987 -12.873344 -0.626594 0.660794 -0.413196 0.756863 0.450199
  2 6.938335 -10.111388 -14.779843 -0.440279 0.862358 -0.249988 0.870588 0.386454
QBB95.bmp
  2 6.736204 -9.112987 -12.873344 -0.626594 0.660794 -0.413196 0.756863 0.450199
  2 7.308554 -9.375277 -12.675305 0.489303 0.792104 -0.364902 0.756863 0.450199
  2 6.938335 -10.111388 -14.779843 -0.440279 0.862358 -0.249988 0.870588 0.386454
QBB95.bmp
  2 6.938335 -10.111388 -14.779843 -0.440279 0.862358 -0.249988 0.870588 0.386454
  2 7.308554 -9.375277 -12.675305 0.489303 0.792104 -0.364902 0.756863 0.450199
  2 7.510685 -10.373678 -14.581804 0.421325 0.906754 -0.016801 0.870588 0.386454
QBB95.bmp
  2 6.131341 -15.292439 -16.176828 0.977104 0.092300 0.191701 0.435294 0.390438
  2 6.197604 -15.188315 -16.563696 0.788257 0.516372 -0.334682 0.450980 0.346614
  2 6.156340 -15.069271 -16.420079 0.788699 0.534699 -0.303400 0.435294 0.346614
QBB95.bmp
  2 6.156340 -15.069271 -16.420079 0.788699 0.534699 -0.303400 0.435294 0.346614
  2 6.197604 -15.188315 -16.563696 0.788257 0.516372 -0.334682 0.450980 0.346614
  2 5.788407 -14.961688 -16.747266 0.497888 0.702384 -0.508688 0.450980 0.298805
QBB95.bmp
  2 6.197604 -15.188315 -16.563696 0.788257 0.516372 -0.334682 0.450980 0.346614
  2 5.678492 -15.769944 -17.500087 0.488018 0.558420 -0.670824 0.560784 0.290837
  2 5.788407 -14.961688 -16.747266 0.497888 0.702384 -0.508688 0.450980 0.298805
QBB95.bmp
  2 5.788407 -14.961688 -16.747266 0.497888 0.702384 -0.508688 0.450980 0.298805
  2 5.678492 -15.769944 -17.500087 0.488018 0.558420 -0.670824 0.560784 0.290837
  2 5.321736 -14.786931 -16.866756 -0.081898 0.800076 -0.594282 0.450980 0.346614
QBB95.bmp
  2 5.678492 -15.769944 -17.500087 0.488018 0.558420 -0.670824 0.560784 0.290837
  2 5.211820 -15.595187 -17.619577 -0.103201 0.685408 -0.720809 0.560784 0.342629
  2 5.321736 -14.786931 -16.866756 -0.081898 0.800076 -0.594282 0.450980 0.346614
QBB95.bmp
  2 5.321736 -14.786931 -16.866756 -0.081898 0.800076 -0.594282 0.450980 0.346614
  2 5.211820 -15.595187 -17.619577 -0.103201 0.685408 -0.720809 0.560784 0.342629
  2 5.012177 -14.918798 -16.679982 -0.753176 0.577282 -0.315390 0.450980 0.390438
QBB95.bmp
  2 5.211820 -15.595187 -17.619577 -0.103201 0.685408 -0.720809 0.560784 0.342629
  2 4.902261 -15.727054 -17.432803 -0.751433 0.513022 -0.414918 0.560784 0.390438
  2 5.012177 -14.918798 -16.679982 -0.753176 0.577282 -0.315390 0.450980 0.390438
QBB95.bmp
  2 5.888168 -6.980080 -8.330730 -0.971845 0.217210 -0.091304 0.843137 0.928287
  2 5.778029 -7.328468 -7.940607 -0.941309 0.289603 -0.173402 0.843137 0.972112
  2 5.897080 -6.914546 -8.269690 -0.683966 0.632569 0.363382 0.835294 0.928287
QBB95.bmp
  2 5.897080 -6.914546 -8.269690 -0.683966 0.632569 0.363382 0.835294 0.928287
  2 5.778029 -7.328468 -7.940607 -0.941309 0.289603 -0.173402 0.843137 0.972112
  2 5.786941 -7.262933 -7.879567 -0.550999 0.825599 0.121600 0.835294 0.972112
QBB95.bmp
  2 5.778029 -7.328468 -7.940607 -0.941309 0.289603 -0.173402 0.843137 0.972112
  2 5.736087 -7.364164 -7.866670 -0.867190 0.397395 -0.300096 0.839216 0.980080
  2 5.786941 -7.262933 -7.879567 -0.550999 0.825599 0.121600 0.835294 0.972112
QBB95.bmp
  2 5.786941 -7.262933 -7.879567 -0.550999 0.825599 0.121600 0.835294 0.972112
  2 5.736087 -7.364164 -7.866670 -0.867190 0.397395 -0.300096 0.839216 0.980080
  2 5.761620 -7.267313 -7.812190 -0.666423 0.703924 -0.245708 0.831373 0.980080
QBB95.bmp
  2 5.736087 -7.364164 -7.866670 -0.867190 0.397395 -0.300096 0.839216 0.980080
  2 5.719608 -7.333833 -7.778872 -0.993886 0.038999 0.103299 0.835294 0.988048
  2 5.761620 -7.267313 -7.812190 -0.666423 0.703924 -0.245708 0.831373 0.980080
QBB95.bmp
  2 5.761620 -7.267313 -7.812190 -0.666423 0.703924 -0.245708 0.831373 0.980080
  2 5.719608 -7.333833 -7.778872 -0.993886 0.038999 0.103299 0.835294 0.988048
  2 5.990363 -5.585266 -6.245508 -0.867190 0.397395 -0.300096 0.643137 0.980080
QBB95.bmp
  2 5.719608 -7.333833 -7.778872 -0.993886 0.038999 0.103299 0.835294 0.988048
  2 5.956273 -5.593532 -6.157932 -0.893619 -0.234805 0.382508 0.635294 0.988048
  2 5.990363 -5.585266 -6.245508 -0.867190 0.397395 -0.300096 0.643137 0.980080
QBB95.bmp
  5 6.477669 -10.046259 -12.828990 -0.423687 0.896272 0.131096 0.666667 0.159363
  5 6.420733 -10.252826 -12.938023 -0.867190 0.397395 -0.300096 0.690196 0.167331
  5 6.082227 -10.984488 -12.928755 -0.867190 0.397395 -0.300096 0.741176 0.207171
QBB95.bmp
  5 6.477669 -10.046259 -12.828990 -0.423687 0.896272 0.131096 0.666667 0.159363
  5 6.634613 -9.952749 -13.158724 -0.222593 0.956771 -0.187194 0.678431 0.123506
  5 6.420733 -10.252826 -12.938023 -0.867190 0.397395 -0.300096 0.690196 0.167331
QBB95.bmp
  5 6.477669 -10.046259 -12.828990 -0.423687 0.896272 0.131096 0.666667 0.159363
  5 6.772516 -10.181379 -12.726970 0.232697 0.856189 0.461294 0.666667 0.159363
  5 6.634613 -9.952749 -13.158724 -0.222593 0.956771 -0.187194 0.678431 0.123506
QBB95.bmp
  5 6.477669 -10.046259 -12.828990 -0.423687 0.896272 0.131096 0.666667 0.159363
  5 6.457425 -10.468151 -12.196141 0.185397 0.816886 0.546191 0.666667 0.207171
  5 6.772516 -10.181379 -12.726970 0.232697 0.856189 0.461294 0.666667 0.159363
QBB95.bmp
  5 6.477669 -10.046259 -12.828990 -0.423687 0.896272 0.131096 0.666667 0.159363
  5 6.162578 -10.333032 -12.298161 -0.428115 0.877530 0.216007 0.666667 0.207171
  5 6.457425 -10.468151 -12.196141 0.185397 0.816886 0.546191 0.666667 0.207171
QBB95.bmp
  5 6.477669 -10.046259 -12.828990 -0.423687 0.896272 0.131096 0.666667 0.159363
  5 6.082227 -10.984488 -12.928755 -0.867190 0.397395 -0.300096 0.741176 0.207171
  5 6.162578 -10.333032 -12.298161 -0.428115 0.877530 0.216007 0.666667 0.207171
QBB95.bmp
  3 8.509849 -4.132007 -7.416229 0.153700 0.767299 0.622599 0.874510 0.354582
  3 8.110539 -1.686839 -10.322274 0.153700 0.767299 0.622599 0.992157 0.231076
  3 7.698351 -3.314080 -8.220136 0.153700 0.767299 0.622599 0.933333 0.334661
QBB95.bmp
  3 8.509849 -4.132007 -7.416229 0.153700 0.767299 0.622599 0.874510 0.354582
  3 10.595317 -1.376895 -11.327466 0.153700 0.767299 0.622599 0.929412 0.127490
  3 8.110539 -1.686839 -10.322274 0.153700 0.767299 0.622599 0.992157 0.231076
QBB95.bmp
  3 8.509849 -4.132007 -7.416229 0.153700 0.767299 0.622599 0.874510 0.354582
  3 11.856312 -1.884127 -11.011228 0.153700 0.767299 0.622599 0.870588 0.111554
  3 10.595317 -1.376895 -11.327466 0.153700 0.767299 0.622599 0.929412 0.127490
QBB95.bmp
  3 8.509849 -4.132007 -7.416229 0.153700 0.767299 0.622599 0.874510 0.354582
  3 12.672690 -2.696470 -10.214029 0.153700 0.767299 0.622599 0.811765 0.127490
  3 11.856312 -1.884127 -11.011228 0.153700 0.767299 0.622599 0.870588 0.111554
QBB95.bmp
  3 8.509849 -4.132007 -7.416229 0.153700 0.767299 0.622599 0.874510 0.354582
  3 12.270165 -4.320404 -8.102108 0.153700 0.767299 0.622599 0.752941 0.235060
  3 12.672690 -2.696470 -10.214029 0.153700 0.767299 0.622599 0.811765 0.127490
QBB95.bmp
  3 8.509849 -4.132007 -7.416229 0.153700 0.767299 0.622599 0.874510 0.354582
  3 9.770844 -4.639239 -7.099990 0.153700 0.767299 0.622599 0.811765 0.338645
  3 12.270165 -4.320404 -8.102108 0.153700 0.767299 0.622599 0.752941 0.235060
QBB95.bmp
  6 6.044594 -5.548562 -6.157771 -0.860698 0.404699 -0.308899 0.654902 0.972112
  6 6.127558 -5.453628 -6.271808 -0.942013 0.288204 -0.171902 0.654902 0.960159
  6 5.800008 -7.347115 -7.832968 -0.860698 0.404699 -0.308899 0.815686 0.972112
QBB95.bmp
  6 5.800008 -7.347115 -7.832968 -0.860698 0.404699 -0.308899 0.815686 0.972112
  6 6.127558 -5.453628 -6.271808 -0.942013 0.288204 -0.171902 0.654902 0.960159
  6 5.882971 -7.252181 -7.947005 -0.942013 0.288204 -0.171902 0.815686 0.960159
QBB95.bmp
  6 6.127558 -5.453628 -6.271808 -0.942013 0.288204 -0.171902 0.654902 0.960159
  6 6.192160 -5.115656 -6.644100 -0.973177 0.213095 -0.086698 0.654902 0.928287
  6 5.882971 -7.252181 -7.947005 -0.942013 0.288204 -0.171902 0.815686 0.960159
QBB95.bmp
  6 5.882971 -7.252181 -7.947005 -0.942013 0.288204 -0.171902 0.815686 0.960159
  6 6.192160 -5.115656 -6.644100 -0.973177 0.213095 -0.086698 0.654902 0.928287
  6 5.947574 -6.914209 -8.319297 -0.962453 0.243188 -0.120594 0.815686 0.928287
QBB95.bmp
  6 6.192160 -5.115656 -6.644100 -0.973177 0.213095 -0.086698 0.654902 0.928287
  6 6.217197 -5.234571 -6.873953 -0.860698 0.404699 -0.308899 0.670588 0.920319
  6 5.947574 -6.914209 -8.319297 -0.962453 0.243188 -0.120594 0.815686 0.928287
QBB95.bmp
  6 5.947574 -6.914209 -8.319297 -0.962453 0.243188 -0.120594 0.815686 0.928287
  6 6.217197 -5.234571 -6.873953 -0.860698 0.404699 -0.308899 0.670588 0.920319
  6 6.007268 -6.778268 -8.311774 -0.860698 0.404699 -0.308899 0.807843 0.920319
QBB95.bmp
  2 5.739997 -11.830733 -14.026957 0.004300 0.986452 -0.163992 0.050980 0.362550
  2 5.073361 -14.807599 -16.542899 -0.711774 0.621077 -0.328088 0.435294 0.390438
  2 5.463511 -11.938652 -13.870723 -0.488392 0.864786 0.116698 0.050980 0.390438
QBB95.bmp
  2 5.463511 -11.938652 -13.870723 -0.488392 0.864786 0.116698 0.050980 0.390438
  2 5.073361 -14.807599 -16.542899 -0.711774 0.621077 -0.328088 0.435294 0.390438
  2 5.243902 -12.189948 -13.568859 -0.652972 0.663472 0.365285 0.050980 0.442231
QBB95.bmp
  2 5.073361 -14.807599 -16.542899 -0.711774 0.621077 -0.328088 0.435294 0.390438
  2 4.853752 -15.058895 -16.241035 -0.951509 0.271303 -0.145001 0.435294 0.442231
  2 5.243902 -12.189948 -13.568859 -0.652972 0.663472 0.365285 0.050980 0.442231
QBB95.bmp
  2 5.243902 -12.189948 -13.568859 -0.652972 0.663472 0.365285 0.050980 0.442231
  2 4.853752 -15.058895 -16.241035 -0.951509 0.271303 -0.145001 0.435294 0.442231
  2 5.114097 -13.265979 -13.485737 -0.951509 0.271303 -0.145001 0.121569 0.509960
QBB95.bmp
  2 4.853752 -15.058895 -16.241035 -0.951509 0.271303 -0.145001 0.435294 0.442231
  2 4.669484 -16.535413 -16.530932 -0.951509 0.271303 -0.145001 0.560784 0.509960
  2 5.114097 -13.265979 -13.485737 -0.951509 0.271303 -0.145001 0.121569 0.509960
QBB95.bmp
  2 4.742911 -14.662181 -14.262164 -0.995052 0.067397 0.072997 0.278431 0.553785
  2 4.999950 -13.668898 -12.756335 -0.488018 -0.558420 0.670824 0.101961 0.597610
  2 4.789452 -14.319946 -13.943401 -0.995052 0.067397 0.072997 0.231373 0.553785
QBB95.bmp
  2 4.789452 -14.319946 -13.943401 -0.995052 0.067397 0.072997 0.231373 0.553785
  2 4.999950 -13.668898 -12.756335 -0.488018 -0.558420 0.670824 0.101961 0.597610
  2 4.866690 -13.751983 -13.414392 -0.995052 0.067397 0.072997 0.156863 0.553785
QBB95.bmp
  2 4.999950 -13.668898 -12.756335 -0.488018 -0.558420 0.670824 0.101961 0.597610
  2 4.899368 -13.511690 -13.190580 -0.951509 0.271303 -0.145001 0.121569 0.553785
  2 4.866690 -13.751983 -13.414392 -0.995052 0.067397 0.072997 0.156863 0.553785
QBB95.bmp
  2 4.866690 -13.751983 -13.414392 -0.995052 0.067397 0.072997 0.156863 0.553785
  2 4.899368 -13.511690 -13.190580 -0.951509 0.271303 -0.145001 0.121569 0.553785
  2 4.928294 -13.632302 -13.433924 -0.867190 0.397395 -0.300096 0.149020 0.545817
QBB95.bmp
  2 4.899368 -13.511690 -13.190580 -0.951509 0.271303 -0.145001 0.121569 0.553785
  2 4.974055 -13.629127 -13.561970 -0.867190 0.397395 -0.300096 0.156863 0.533865
  2 4.928294 -13.632302 -13.433924 -0.867190 0.397395 -0.300096 0.149020 0.545817
QBB95.bmp
  2 4.797621 -16.732261 -16.795379 -0.951509 0.271303 -0.145001 0.639216 0.103586
  2 4.592300 -16.696672 -16.154850 -0.867190 0.397395 -0.300096 0.603922 0.151394
  2 4.841191 -16.411871 -16.496963 -0.867190 0.397395 -0.300096 0.603922 0.103586
QBB95.bmp
  2 4.797621 -16.732261 -16.795379 -0.951509 0.271303 -0.145001 0.639216 0.103586
  2 4.532887 -17.133568 -16.561780 -0.867190 0.397395 -0.300096 0.654902 0.151394
  2 4.592300 -16.696672 -16.154850 -0.867190 0.397395 -0.300096 0.603922 0.151394
QBB95.bmp
  2 4.797621 -16.732261 -16.795379 -0.951509 0.271303 -0.145001 0.639216 0.103586
  2 4.781777 -16.848766 -16.903893 -0.981430 0.184006 -0.054202 0.654902 0.103586
  2 4.532887 -17.133568 -16.561780 -0.867190 0.397395 -0.300096 0.654902 0.151394
QBB95.bmp
  2 4.797621 -16.732261 -16.795379 -0.951509 0.271303 -0.145001 0.639216 0.103586
  2 4.707593 -16.572325 -17.189860 -0.981430 0.184006 -0.054202 0.654902 0.075697
  2 4.781777 -16.848766 -16.903893 -0.981430 0.184006 -0.054202 0.654902 0.103586
QBB95.bmp
  2 4.797621 -16.732261 -16.795379 -0.951509 0.271303 -0.145001 0.639216 0.103586
  2 4.723436 -16.455819 -17.081345 -0.981430 0.184006 -0.054202 0.639216 0.075697
  2 4.707593 -16.572325 -17.189860 -0.981430 0.184006 -0.054202 0.654902 0.075697
QBB95.bmp
  2 4.723436 -16.455819 -17.081345 -0.981430 0.184006 -0.054202 0.639216 0.075697
  2 4.941957 -16.219667 -17.366793 -0.473217 0.634023 -0.611622 0.639216 0.039841
  2 4.707593 -16.572325 -17.189860 -0.981430 0.184006 -0.054202 0.654902 0.075697
QBB95.bmp
  2 4.707593 -16.572325 -17.189860 -0.981430 0.184006 -0.054202 0.654902 0.075697
  2 4.941957 -16.219667 -17.366793 -0.473217 0.634023 -0.611622 0.639216 0.039841
  2 4.926114 -16.336172 -17.475307 -0.473217 0.634023 -0.611622 0.654902 0.039841
QBB95.bmp
  2 4.941957 -16.219667 -17.366793 -0.473217 0.634023 -0.611622 0.639216 0.039841
  2 5.403784 -16.274892 -17.374930 0.488018 0.558420 -0.670824 0.639216 0.000000
  2 4.926114 -16.336172 -17.475307 -0.473217 0.634023 -0.611622 0.654902 0.039841
QBB95.bmp
  2 4.926114 -16.336172 -17.475307 -0.473217 0.634023 -0.611622 0.654902 0.039841
  2 5.403784 -16.274892 -17.374930 0.488018 0.558420 -0.670824 0.639216 0.000000
  2 5.387940 -16.391397 -17.483445 0.488018 0.558420 -0.670824 0.654902 0.000000
QBB95.bmp
  2 5.403784 -16.274892 -17.374930 0.488018 0.558420 -0.670824 0.639216 0.000000
  2 5.637215 -16.662048 -17.229259 0.825200 0.320800 -0.464900 0.654902 0.039841
  2 5.387940 -16.391397 -17.483445 0.488018 0.558420 -0.670824 0.654902 0.000000
QBB95.bmp
  7 4.905878 -12.272482 -11.134893 -0.761174 0.298290 0.575880 0.419608 0.924303
  7 4.965499 -12.591614 -11.729872 -0.867190 0.397395 -0.300096 0.478431 0.900398
  7 4.778990 -12.841924 -11.522366 -0.898100 -0.085500 0.431400 0.486275 0.936255
QBB95.bmp
  7 4.905878 -12.272482 -11.134893 -0.761174 0.298290 0.575880 0.419608 0.924303
  7 5.283919 -11.704630 -11.475376 -0.581903 0.671004 0.459503 0.400000 0.852590
  7 4.965499 -12.591614 -11.729872 -0.867190 0.397395 -0.300096 0.478431 0.900398
QBB95.bmp
  7 4.905878 -12.272482 -11.134893 -0.761174 0.298290 0.575880 0.419608 0.924303
  7 5.157365 -12.387731 -11.047876 -0.296406 0.072302 0.952321 0.415686 0.928287
  7 5.283919 -11.704630 -11.475376 -0.581903 0.671004 0.459503 0.400000 0.852590
QBB95.bmp
  7 4.905878 -12.272482 -11.134893 -0.761174 0.298290 0.575880 0.419608 0.924303
  7 5.030477 -12.957173 -11.435349 -0.462297 -0.418797 0.781595 0.482353 0.940239
  7 5.157365 -12.387731 -11.047876 -0.296406 0.072302 0.952321 0.415686 0.928287
QBB95.bmp
  7 4.905878 -12.272482 -11.134893 -0.761174 0.298290 0.575880 0.419608 0.924303
  7 4.778990 -12.841924 -11.522366 -0.898100 -0.085500 0.431400 0.486275 0.936255
  7 5.030477 -12.957173 -11.435349 -0.462297 -0.418797 0.781595 0.482353 0.940239
QBB95.bmp
  2 7.616237 -6.604908 -9.295469 0.488018 0.558420 -0.670824 0.537255 0.067729
  2 6.731697 -6.199550 -9.601529 -0.258502 0.678004 -0.688104 0.537255 0.067729
  2 8.232231 -2.044935 -5.036338 0.488018 0.558420 -0.670824 0.141176 0.067729
QBB95.bmp
  2 8.232231 -2.044935 -5.036338 0.488018 0.558420 -0.670824 0.141176 0.067729
  2 6.731697 -6.199550 -9.601529 -0.258502 0.678004 -0.688104 0.537255 0.067729
  2 7.347690 -1.639577 -5.342399 -0.258502 0.678004 -0.688104 0.141176 0.067729
QBB95.bmp
  2 6.731697 -6.199550 -9.601529 -0.258502 0.678004 -0.688104 0.537255 0.067729
  2 6.370561 -6.612792 -9.105130 -0.867190 0.397395 -0.300096 0.537255 0.123506
  2 7.347690 -1.639577 -5.342399 -0.258502 0.678004 -0.688104 0.141176 0.067729
QBB95.bmp
  2 7.347690 -1.639577 -5.342399 -0.258502 0.678004 -0.688104 0.141176 0.067729
  2 6.370561 -6.612792 -9.105130 -0.867190 0.397395 -0.300096 0.537255 0.123506
  2 6.546275 -2.593516 -4.289671 -0.941309 0.289603 -0.173402 0.141176 0.191235
QBB95.bmp
  2 6.370561 -6.612792 -9.105130 -0.867190 0.397395 -0.300096 0.537255 0.123506
  2 6.126973 -7.131317 -9.087895 -0.867190 0.397395 -0.300096 0.564706 0.155378
  2 6.546275 -2.593516 -4.289671 -0.941309 0.289603 -0.173402 0.141176 0.191235
QBB95.bmp
  2 4.974055 -13.629127 -13.561970 -0.488018 -0.558420 0.670824 0.156863 0.533865
  2 4.896817 -14.197091 -14.090979 -0.389386 -0.165594 0.906067 0.231373 0.533865
  2 5.365103 -14.411692 -13.928948 -0.389386 -0.165594 0.906067 0.231373 0.533865
QBB95.bmp
  2 5.365103 -14.411692 -13.928948 -0.389386 -0.165594 0.906067 0.231373 0.533865
  2 4.896817 -14.197091 -14.090979 -0.389386 -0.165594 0.906067 0.231373 0.533865
  2 5.303499 -14.531373 -13.909416 0.098999 0.728189 0.678189 0.239216 0.545817
QBB95.bmp
  2 4.896817 -14.197091 -14.090979 -0.389386 -0.165594 0.906067 0.231373 0.533865
  2 4.835213 -14.316771 -14.071448 0.098999 0.728189 0.678189 0.239216 0.545817
  2 5.303499 -14.531373 -13.909416 0.098999 0.728189 0.678189 0.239216 0.545817
QBB95.bmp
  2 5.303499 -14.531373 -13.909416 0.098999 0.728189 0.678189 0.239216 0.545817
  2 4.835213 -14.316771 -14.071448 0.098999 0.728189 0.678189 0.239216 0.545817
  2 5.257738 -14.534548 -13.781369 0.369699 0.917498 0.146700 0.231373 0.553785
QBB95.bmp
  2 4.835213 -14.316771 -14.071448 0.098999 0.728189 0.678189 0.239216 0.545817
  2 4.789452 -14.319946 -13.943401 0.369699 0.917498 0.146700 0.231373 0.553785
  2 5.257738 -14.534548 -13.781369 0.369699 0.917498 0.146700 0.231373 0.553785
QBB95.bmp
  2 4.850276 -14.539326 -14.409742 -0.488018 -0.558420 0.670824 0.278431 0.533865
  2 4.769077 -15.136416 -14.965880 -0.368704 -0.107501 0.923310 0.356863 0.533865
  2 5.237363 -15.351017 -14.803848 -0.368704 -0.107501 0.923310 0.356863 0.533865
QBB95.bmp
  2 5.237363 -15.351017 -14.803848 -0.368704 -0.107501 0.923310 0.356863 0.533865
  2 4.769077 -15.136416 -14.965880 -0.368704 -0.107501 0.923310 0.356863 0.533865
  2 5.177740 -15.456135 -14.770752 0.098999 0.728189 0.678189 0.364706 0.545817
QBB95.bmp
  2 4.769077 -15.136416 -14.965880 -0.368704 -0.107501 0.923310 0.356863 0.533865
  2 4.709453 -15.241534 -14.932784 0.098999 0.728189 0.678189 0.364706 0.545817
  2 5.177740 -15.456135 -14.770752 0.098999 0.728189 0.678189 0.364706 0.545817
QBB95.bmp
  2 5.177740 -15.456135 -14.770752 0.098999 0.728189 0.678189 0.364706 0.545817
  2 4.709453 -15.241534 -14.932784 0.098999 0.728189 0.678189 0.364706 0.545817
  2 5.129999 -15.473873 -14.656270 0.312916 0.903646 0.292415 0.356863 0.553785
QBB95.bmp
  2 4.709453 -15.241534 -14.932784 0.098999 0.728189 0.678189 0.364706 0.545817
  2 4.661713 -15.259272 -14.818302 0.312916 0.903646 0.292415 0.356863 0.553785
  2 5.129999 -15.473873 -14.656270 0.312916 0.903646 0.292415 0.356863 0.553785
QBB95.bmp
  2 4.716595 -15.522340 -15.325335 -0.488018 -0.558420 0.670824 0.407843 0.533865
  2 4.644308 -16.053896 -15.820434 -0.368704 -0.107501 0.923310 0.482353 0.533865
  2 5.112594 -16.268498 -15.658402 -0.368704 -0.107501 0.923310 0.482353 0.533865
QBB95.bmp
  2 5.112594 -16.268498 -15.658402 -0.368704 -0.107501 0.923310 0.482353 0.533865
  2 4.644308 -16.053896 -15.820434 -0.368704 -0.107501 0.923310 0.482353 0.533865
  2 5.053961 -16.366334 -15.618524 0.098999 0.728189 0.678189 0.486275 0.545817
QBB95.bmp
  2 4.644308 -16.053896 -15.820434 -0.368704 -0.107501 0.923310 0.482353 0.533865
  2 4.585675 -16.151733 -15.780556 0.098999 0.728189 0.678189 0.486275 0.545817
  2 5.053961 -16.366334 -15.618524 0.098999 0.728189 0.678189 0.486275 0.545817
QBB95.bmp
  2 5.053961 -16.366334 -15.618524 0.098999 0.728189 0.678189 0.486275 0.545817
  2 4.585675 -16.151733 -15.780556 0.098999 0.728189 0.678189 0.486275 0.545817
  2 5.005230 -16.391354 -15.510824 0.312916 0.903646 0.292415 0.482353 0.553785
QBB95.bmp
  2 4.585675 -16.151733 -15.780556 0.098999 0.728189 0.678189 0.486275 0.545817
  2 4.536944 -16.176752 -15.672856 0.312916 0.903646 0.292415 0.482353 0.553785
  2 5.005230 -16.391354 -15.510824 0.312916 0.903646 0.292415 0.482353 0.553785
QBB95.bmp
  2 4.607880 -9.220479 -6.431420 -0.332118 -0.012701 0.943152 0.580392 0.589641
  2 4.775081 -8.900035 -6.490238 -0.210404 0.253705 0.944121 0.607843 0.589641
  2 4.714377 -8.872216 -6.511242 -0.665284 0.584586 0.464389 0.607843 0.593625
QBB95.bmp
  2 4.714377 -8.872216 -6.511242 -0.665284 0.584586 0.464389 0.607843 0.593625
  2 4.775081 -8.900035 -6.490238 -0.210404 0.253705 0.944121 0.607843 0.589641
  2 5.125589 -8.272555 -6.905464 -0.459803 0.837905 0.294102 0.678431 0.593625
QBB95.bmp
  2 4.775081 -8.900035 -6.490238 -0.210404 0.253705 0.944121 0.607843 0.589641
  2 5.121960 -9.058999 -6.370214 -0.370102 0.310102 0.875706 0.607843 0.549801
  2 5.125589 -8.272555 -6.905464 -0.459803 0.837905 0.294102 0.678431 0.593625
QBB95.bmp
  2 5.125589 -8.272555 -6.905464 -0.459803 0.837905 0.294102 0.678431 0.593625
  2 5.121960 -9.058999 -6.370214 -0.370102 0.310102 0.875706 0.607843 0.549801
  2 5.593875 -8.487156 -6.743432 0.098999 0.728189 0.678189 0.678431 0.545817
QBB95.bmp
  2 5.121960 -9.058999 -6.370214 -0.370102 0.310102 0.875706 0.607843 0.549801
  2 5.182664 -9.086818 -6.349210 -0.113603 0.428811 0.896223 0.607843 0.545817
  2 5.593875 -8.487156 -6.743432 0.098999 0.728189 0.678189 0.678431 0.545817
QBB95.bmp
  2 5.121960 -9.058999 -6.370214 -0.370102 0.310102 0.875706 0.117647 0.904382
  2 4.876179 -9.684558 -6.488400 -0.936237 -0.095604 0.338113 0.160784 0.928287
  2 4.954759 -9.379443 -6.311397 -0.816959 0.220989 0.532674 0.129412 0.924303
QBB95.bmp
  2 5.121960 -9.058999 -6.370214 -0.370102 0.310102 0.875706 0.117647 0.904382
  2 4.487858 -13.873335 -10.913900 -0.997684 0.026600 0.062599 0.368627 0.928287
  2 4.876179 -9.684558 -6.488400 -0.936237 -0.095604 0.338113 0.160784 0.928287
QBB95.bmp
  2 5.121960 -9.058999 -6.370214 -0.370102 0.310102 0.875706 0.117647 0.904382
  2 4.539276 -13.949765 -11.163729 -0.867190 0.397395 -0.300096 0.384314 0.904382
  2 4.487858 -13.873335 -10.913900 -0.997684 0.026600 0.062599 0.368627 0.928287
QBB95.bmp
  2 5.121960 -9.058999 -6.370214 -0.370102 0.310102 0.875706 0.117647 0.904382
  2 4.192398 -13.790801 -11.283753 -0.085899 -0.712892 -0.695993 0.384314 0.888446
  2 4.539276 -13.949765 -11.163729 -0.867190 0.397395 -0.300096 0.384314 0.904382
QBB95.bmp
  2 5.121960 -9.058999 -6.370214 -0.370102 0.310102 0.875706 0.117647 0.904382
  2 4.775081 -8.900035 -6.490238 -0.210404 0.253705 0.944121 0.117647 0.888446
  2 4.192398 -13.790801 -11.283753 -0.085899 -0.712892 -0.695993 0.384314 0.888446
QBB95.bmp
  3 12.270165 -4.320404 -8.102108 0.571187 -0.628386 0.528088 0.858824 0.760956
  3 11.149625 -4.715047 -7.352610 0.344890 -0.681379 0.645580 0.858824 0.852590
  3 11.670477 -6.437698 -9.973027 0.571187 -0.628386 0.528088 0.988235 0.760956
QBB95.bmp
  3 11.670477 -6.437698 -9.973027 0.571187 -0.628386 0.528088 0.988235 0.760956
  3 11.149625 -4.715047 -7.352610 0.344890 -0.681379 0.645580 0.858824 0.852590
  3 10.633427 -6.792394 -9.278608 0.344890 -0.681379 0.645580 0.988235 0.852590
QBB95.bmp
  3 11.149625 -4.715047 -7.352610 0.344890 -0.681379 0.645580 0.858824 0.852590
  3 9.770844 -4.639239 -7.099990 -0.163000 -0.654702 0.738103 0.858824 0.932271
  3 10.633427 -6.792394 -9.278608 0.344890 -0.681379 0.645580 0.988235 0.852590
QBB95.bmp
  3 10.633427 -6.792394 -9.278608 0.344890 -0.681379 0.645580 0.988235 0.852590
  3 9.770844 -4.639239 -7.099990 -0.163000 -0.654702 0.738103 0.858824 0.932271
  3 9.360985 -6.726129 -9.046014 -0.163000 -0.654702 0.738103 0.988235 0.932271
QBB95.bmp
  3 9.770844 -4.639239 -7.099990 -0.163000 -0.654702 0.738103 0.858824 0.932271
  3 8.509849 -4.132007 -7.416229 -0.629590 -0.466493 0.621290 0.858824 0.996016
  3 9.360985 -6.726129 -9.046014 -0.163000 -0.654702 0.738103 0.988235 0.932271
QBB95.bmp
  2 5.638783 -7.947846 -8.125216 -0.867190 0.397395 -0.300096 0.764706 0.665339
  2 5.023877 -8.651475 -7.279996 -0.957815 -0.070501 0.278604 0.666667 0.637450
  2 5.671706 -7.461586 -7.443038 -0.929978 0.291493 0.223995 0.764706 0.597610
QBB95.bmp
  2 5.671706 -7.461586 -7.443038 -0.929978 0.291493 0.223995 0.764706 0.597610
  2 5.023877 -8.651475 -7.279996 -0.957815 -0.070501 0.278604 0.666667 0.637450
  2 5.112037 -8.274165 -6.901756 -0.754764 0.238588 0.611071 0.678431 0.597610
QBB95.bmp
  2 5.023877 -8.651475 -7.279996 -0.957815 -0.070501 0.278604 0.666667 0.637450
  2 5.578882 -8.905817 -7.087958 -0.488018 -0.558420 0.670824 0.666667 0.637450
  2 5.112037 -8.274165 -6.901756 -0.754764 0.238588 0.611071 0.678431 0.597610
QBB95.bmp
  2 5.112037 -8.274165 -6.901756 -0.754764 0.238588 0.611071 0.678431 0.597610
  2 5.578882 -8.905817 -7.087958 -0.488018 -0.558420 0.670824 0.666667 0.637450
  2 5.597667 -8.496715 -6.733723 -0.332118 -0.012701 0.943152 0.678431 0.597610
QBB95.bmp
  2 4.802535 -14.557064 -14.295260 -0.867190 0.397395 -0.300096 0.270588 0.545817
  2 4.896817 -14.197091 -14.090979 -0.867190 0.397395 -0.300096 0.231373 0.533865
  2 4.850276 -14.539326 -14.409742 -0.867190 0.397395 -0.300096 0.278431 0.533865
QBB95.bmp
  2 4.802535 -14.557064 -14.295260 -0.867190 0.397395 -0.300096 0.270588 0.545817
  2 4.835213 -14.316771 -14.071448 -0.867190 0.397395 -0.300096 0.239216 0.545817
  2 4.896817 -14.197091 -14.090979 -0.867190 0.397395 -0.300096 0.231373 0.533865
QBB95.bmp
  2 4.802535 -14.557064 -14.295260 -0.867190 0.397395 -0.300096 0.270588 0.545817
  2 4.789452 -14.319946 -13.943401 -0.995052 0.067397 0.072997 0.231373 0.553785
  2 4.835213 -14.316771 -14.071448 -0.867190 0.397395 -0.300096 0.239216 0.545817
QBB95.bmp
  2 4.802535 -14.557064 -14.295260 -0.867190 0.397395 -0.300096 0.270588 0.545817
  2 4.742911 -14.662181 -14.262164 -0.995052 0.067397 0.072997 0.278431 0.553785
  2 4.789452 -14.319946 -13.943401 -0.995052 0.067397 0.072997 0.231373 0.553785
QBB95.bmp
  2 7.105959 -10.030251 -15.156830 -0.153498 0.927889 -0.339796 0.882353 0.358566
  2 7.017758 -10.709136 -15.801062 -0.330910 0.667920 -0.666620 0.945098 0.354582
  2 6.818518 -10.992460 -15.600486 -0.867190 0.397395 -0.300096 0.956863 0.382470
QBB95.bmp
  2 7.105959 -10.030251 -15.156830 -0.153498 0.927889 -0.339796 0.882353 0.358566
  2 7.678309 -10.292542 -14.958791 0.464313 0.863024 -0.199006 0.882353 0.358566
  2 7.017758 -10.709136 -15.801062 -0.330910 0.667920 -0.666620 0.945098 0.354582
QBB95.bmp
  2 7.105959 -10.030251 -15.156830 -0.153498 0.927889 -0.339796 0.882353 0.358566
  2 7.510685 -10.373678 -14.581804 0.421325 0.906754 -0.016801 0.870588 0.386454
  2 7.678309 -10.292542 -14.958791 0.464313 0.863024 -0.199006 0.882353 0.358566
QBB95.bmp
  2 7.105959 -10.030251 -15.156830 -0.153498 0.927889 -0.339796 0.882353 0.358566
  2 6.938335 -10.111388 -14.779843 -0.440279 0.862358 -0.249988 0.870588 0.386454
  2 7.510685 -10.373678 -14.581804 0.421325 0.906754 -0.016801 0.870588 0.386454
QBB95.bmp
  2 6.834234 -8.816358 -12.763792 -0.867190 0.397395 -0.300096 0.733333 0.442231
  2 8.209401 -6.006929 -13.017227 -0.195505 0.980027 -0.036401 0.576471 0.278884
  2 7.920966 -7.400669 -14.029549 -0.867190 0.397395 -0.300096 0.701961 0.286853
QBB95.bmp
  2 7.920966 -7.400669 -14.029549 -0.867190 0.397395 -0.300096 0.701961 0.286853
  2 8.209401 -6.006929 -13.017227 -0.195505 0.980027 -0.036401 0.576471 0.278884
  2 8.111081 -7.275350 -14.413021 -0.111998 0.737687 -0.665788 0.709804 0.254980
QBB95.bmp
  2 8.209401 -6.006929 -13.017227 -0.195505 0.980027 -0.036401 0.576471 0.278884
  2 8.781750 -6.269220 -12.819188 0.369699 0.917498 0.146700 0.576471 0.278884
  2 8.111081 -7.275350 -14.413021 -0.111998 0.737687 -0.665788 0.709804 0.254980
QBB95.bmp
  2 8.111081 -7.275350 -14.413021 -0.111998 0.737687 -0.665788 0.709804 0.254980
  2 8.781750 -6.269220 -12.819188 0.369699 0.917498 0.146700 0.576471 0.278884
  2 8.683431 -7.537641 -14.214982 0.495097 0.623197 -0.605397 0.709804 0.254980
QBB95.bmp
  5 6.420733 -10.252826 -12.938023 -0.867190 0.397395 -0.300096 0.690196 0.167331
  5 6.634613 -9.952749 -13.158724 -0.222593 0.956771 -0.187194 0.678431 0.123506
  5 6.562188 -10.121704 -13.173177 -0.867190 0.397395 -0.300096 0.694118 0.135458
QBB95.bmp
  5 6.562188 -10.121704 -13.173177 -0.867190 0.397395 -0.300096 0.694118 0.135458
  5 6.634613 -9.952749 -13.158724 -0.222593 0.956771 -0.187194 0.678431 0.123506
  5 6.681787 -10.181600 -13.598157 0.285093 0.859279 -0.424690 0.725490 0.099602
QBB95.bmp
  5 6.634613 -9.952749 -13.158724 -0.222593 0.956771 -0.187194 0.678431 0.123506
  5 6.929460 -10.087869 -13.056703 0.415986 0.909369 0.002200 0.678431 0.123506
  5 6.681787 -10.181600 -13.598157 0.285093 0.859279 -0.424690 0.725490 0.099602
QBB95.bmp
  5 6.681787 -10.181600 -13.598157 0.285093 0.859279 -0.424690 0.725490 0.099602
  5 6.929460 -10.087869 -13.056703 0.415986 0.909369 0.002200 0.678431 0.123506
  5 6.976634 -10.316719 -13.496137 0.489490 0.790883 -0.367292 0.725490 0.099602
QBB95.bmp
  2 4.548562 -13.901154 -10.892896 -0.493910 -0.609213 0.620413 0.192157 0.876494
  2 4.936882 -9.712377 -6.467396 -0.477090 -0.490290 0.729384 0.149020 0.876494
  2 4.487858 -13.873335 -10.913900 -0.997684 0.026600 0.062599 0.192157 0.868526
QBB95.bmp
  2 4.487858 -13.873335 -10.913900 -0.997684 0.026600 0.062599 0.192157 0.868526
  2 4.936882 -9.712377 -6.467396 -0.477090 -0.490290 0.729384 0.149020 0.876494
  2 4.876179 -9.684558 -6.488400 -0.936237 -0.095604 0.338113 0.149020 0.868526
QBB95.bmp
  2 4.936882 -9.712377 -6.467396 -0.477090 -0.490290 0.729384 0.149020 0.876494
  2 5.015462 -9.407261 -6.290392 -0.332118 -0.012701 0.943152 0.125490 0.876494
  2 4.876179 -9.684558 -6.488400 -0.936237 -0.095604 0.338113 0.149020 0.868526
QBB95.bmp
  2 4.876179 -9.684558 -6.488400 -0.936237 -0.095604 0.338113 0.149020 0.868526
  2 5.015462 -9.407261 -6.290392 -0.332118 -0.012701 0.943152 0.125490 0.876494
  2 4.954759 -9.379443 -6.311397 -0.816959 0.220989 0.532674 0.125490 0.868526
QBB95.bmp
  2 6.744345 -8.113765 -11.573463 -0.596118 0.789024 0.148605 0.643137 0.482072
  2 7.022327 -8.540738 -10.742789 0.282804 0.889014 0.360106 0.615686 0.529880
  2 7.316695 -8.376056 -11.375424 0.138197 0.770980 0.621684 0.631373 0.482072
QBB95.bmp
  2 6.744345 -8.113765 -11.573463 -0.596118 0.789024 0.148605 0.643137 0.482072
  2 6.449977 -8.278448 -10.940828 -0.308994 0.945782 0.100098 0.627451 0.529880
  2 7.022327 -8.540738 -10.742789 0.282804 0.889014 0.360106 0.615686 0.529880
QBB95.bmp
  2 6.744345 -8.113765 -11.573463 -0.596118 0.789024 0.148605 0.643137 0.482072
  2 6.205181 -9.745223 -12.175998 -0.867190 0.397395 -0.300096 0.764706 0.525896
  2 6.449977 -8.278448 -10.940828 -0.308994 0.945782 0.100098 0.627451 0.529880
QBB95.bmp
  2 6.744345 -8.113765 -11.573463 -0.596118 0.789024 0.148605 0.643137 0.482072
  2 6.648360 -9.213505 -12.752598 -0.981722 0.156503 -0.108302 0.756863 0.462151
  2 6.205181 -9.745223 -12.175998 -0.867190 0.397395 -0.300096 0.764706 0.525896
QBB95.bmp
  2 6.027927 -11.472876 -13.951891 -0.579405 0.812207 0.067901 0.917647 0.509960
  2 6.461015 -11.759255 -13.383277 0.369699 0.917498 0.146700 0.901961 0.541833
  2 6.600276 -11.735167 -13.753852 0.199703 0.829611 0.521407 0.917647 0.509960
QBB95.bmp
  2 6.027927 -11.472876 -13.951891 -0.579405 0.812207 0.067901 0.917647 0.509960
  2 5.888665 -11.496965 -13.581315 -0.153903 0.988018 -0.011600 0.901961 0.541833
  2 6.461015 -11.759255 -13.383277 0.369699 0.917498 0.146700 0.901961 0.541833
QBB95.bmp
  2 6.027927 -11.472876 -13.951891 -0.579405 0.812207 0.067901 0.917647 0.509960
  2 5.691822 -12.853531 -14.809111 -0.867190 0.397395 -0.300096 0.992157 0.529880
  2 5.888665 -11.496965 -13.581315 -0.153903 0.988018 -0.011600 0.901961 0.541833
QBB95.bmp
  2 6.027927 -11.472876 -13.951891 -0.579405 0.812207 0.067901 0.917647 0.509960
  2 5.972897 -12.119953 -14.649862 -0.867190 0.397395 -0.300096 0.984314 0.501992
  2 5.691822 -12.853531 -14.809111 -0.867190 0.397395 -0.300096 0.992157 0.529880
QBB95.bmp
  4 7.679414 -2.910003 -7.217193 -0.605162 0.742654 0.286782 0.607843 0.171315
  4 7.731554 -3.683926 -6.526595 0.045997 0.663958 0.746353 0.603922 0.231076
  4 8.165045 -3.132553 -7.049160 0.045997 0.663958 0.746353 0.607843 0.171315
QBB95.bmp
  4 7.679414 -2.910003 -7.217193 -0.605162 0.742654 0.286782 0.607843 0.171315
  4 7.245924 -3.461376 -6.694628 -0.605162 0.742654 0.286782 0.603922 0.231076
  4 7.731554 -3.683926 -6.526595 0.045997 0.663958 0.746353 0.603922 0.231076
QBB95.bmp
  4 7.679414 -2.910003 -7.217193 -0.605162 0.742654 0.286782 0.607843 0.171315
  4 7.189126 -4.030545 -7.284306 -0.867190 0.397395 -0.300096 0.658824 0.239044
  4 7.245924 -3.461376 -6.694628 -0.605162 0.742654 0.286782 0.603922 0.231076
QBB95.bmp
  4 7.679414 -2.910003 -7.217193 -0.605162 0.742654 0.286782 0.607843 0.171315
  4 7.684717 -3.143726 -7.542070 -0.867190 0.397395 -0.300096 0.635294 0.171315
  4 7.189126 -4.030545 -7.284306 -0.867190 0.397395 -0.300096 0.658824 0.239044
QBB95.bmp
  3 7.210044 -3.967430 -7.240958 -0.909128 0.356311 -0.215706 0.827451 0.689243
  3 7.694461 -3.312383 -8.206646 -0.764277 0.583882 0.273792 0.827451 0.605578
  3 6.776015 -6.160811 -9.024885 -0.909128 0.356311 -0.215706 0.972549 0.689243
QBB95.bmp
  3 6.776015 -6.160811 -9.024885 -0.909128 0.356311 -0.215706 0.972549 0.689243
  3 7.694461 -3.312383 -8.206646 -0.764277 0.583882 0.273792 0.827451 0.605578
  3 7.506075 -4.517604 -9.391742 -0.969772 0.233393 -0.071198 0.909804 0.597610
QBB95.bmp
  3 7.694461 -3.312383 -8.206646 -0.764277 0.583882 0.273792 0.827451 0.605578
  3 7.583341 -2.861745 -8.821689 -0.983253 -0.015201 0.181610 0.827451 0.561753
  3 7.506075 -4.517604 -9.391742 -0.969772 0.233393 -0.071198 0.909804 0.597610
QBB95.bmp
  3 7.506075 -4.517604 -9.391742 -0.969772 0.233393 -0.071198 0.909804 0.597610
  3 7.583341 -2.861745 -8.821689 -0.983253 -0.015201 0.181610 0.827451 0.561753
  3 7.377022 -4.106185 -9.873592 -0.974191 -0.030200 0.223698 0.909804 0.561753
QBB95.bmp
  2 5.260747 -12.385281 -13.376346 -0.938593 0.331198 0.096699 0.596078 0.733068
  2 5.114097 -13.265979 -13.485737 -0.951509 0.271303 -0.145001 0.650980 0.772908
  2 5.958858 -7.251760 -8.594913 -0.584197 0.629496 0.512297 0.027451 0.733068
QBB95.bmp
  2 5.958858 -7.251760 -8.594913 -0.584197 0.629496 0.512297 0.027451 0.733068
  2 5.114097 -13.265979 -13.485737 -0.951509 0.271303 -0.145001 0.650980 0.772908
  2 5.869642 -7.710125 -8.310938 -0.882457 0.469177 0.033798 0.039216 0.772908
QBB95.bmp
  2 5.114097 -13.265979 -13.485737 -0.951509 0.271303 -0.145001 0.650980 0.772908
  2 4.899368 -13.511690 -13.190580 -0.951509 0.271303 -0.145001 0.650980 0.808765
  2 5.869642 -7.710125 -8.310938 -0.882457 0.469177 0.033798 0.039216 0.772908
QBB95.bmp
  2 5.767190 -14.875294 -16.571522 0.497888 0.702384 -0.508688 0.435294 0.298805
  2 5.349847 -14.699680 -16.699134 -0.057100 0.819592 -0.570095 0.435294 0.346614
  2 6.157340 -12.006347 -13.899346 0.456999 0.874498 -0.162500 0.050980 0.326693
QBB95.bmp
  2 6.157340 -12.006347 -13.899346 0.456999 0.874498 -0.162500 0.050980 0.326693
  2 5.349847 -14.699680 -16.699134 -0.057100 0.819592 -0.570095 0.435294 0.346614
  2 5.739997 -11.830733 -14.026957 0.004300 0.986452 -0.163992 0.050980 0.362550
QBB95.bmp
  2 5.349847 -14.699680 -16.699134 -0.057100 0.819592 -0.570095 0.435294 0.346614
  2 5.073361 -14.807599 -16.542899 -0.711774 0.621077 -0.328088 0.435294 0.390438
  2 5.739997 -11.830733 -14.026957 0.004300 0.986452 -0.163992 0.050980 0.362550
QBB95.bmp
  2 5.260747 -12.385281 -13.376346 -0.938593 0.331198 0.096699 0.596078 0.509960
  2 6.157340 -12.006347 -13.899346 0.456999 0.874498 -0.162500 0.596078 0.462151
  2 5.243902 -12.189948 -13.568859 -0.652972 0.663472 0.365285 0.603922 0.501992
QBB95.bmp
  2 5.243902 -12.189948 -13.568859 -0.652972 0.663472 0.365285 0.603922 0.501992
  2 6.157340 -12.006347 -13.899346 0.456999 0.874498 -0.162500 0.596078 0.462151
  2 5.463511 -11.938652 -13.870723 -0.488392 0.864786 0.116698 0.611765 0.482072
QBB95.bmp
  2 6.157340 -12.006347 -13.899346 0.456999 0.874498 -0.162500 0.596078 0.462151
  2 5.739997 -11.830733 -14.026957 0.004300 0.986452 -0.163992 0.611765 0.470120
  2 5.463511 -11.938652 -13.870723 -0.488392 0.864786 0.116698 0.611765 0.482072
QBB95.bmp
  2 4.585675 -16.151733 -15.780556 -0.867190 0.397395 -0.300096 0.486275 0.545817
  2 4.644308 -16.053896 -15.820434 -0.867190 0.397395 -0.300096 0.482353 0.533865
  2 4.454755 -16.781124 -16.235776 -0.981430 0.184006 -0.054202 0.560784 0.553785
QBB95.bmp
  2 4.454755 -16.781124 -16.235776 -0.981430 0.184006 -0.054202 0.560784 0.553785
  2 4.644308 -16.053896 -15.820434 -0.867190 0.397395 -0.300096 0.482353 0.533865
  2 4.669484 -16.535413 -16.530932 -0.951509 0.271303 -0.145001 0.560784 0.509960
QBB95.bmp
  2 4.644308 -16.053896 -15.820434 -0.867190 0.397395 -0.300096 0.482353 0.533865
  2 4.716595 -15.522340 -15.325335 -0.867190 0.397395 -0.300096 0.407843 0.533865
  2 4.669484 -16.535413 -16.530932 -0.951509 0.271303 -0.145001 0.560784 0.509960
QBB95.bmp
  2 6.546490 -12.200324 -13.747902 0.369699 0.917498 0.146700 0.611765 0.470120
  2 6.157340 -12.006347 -13.899346 0.456999 0.874498 -0.162500 0.596078 0.462151
  2 6.521491 -12.423492 -13.504651 0.098999 0.728189 0.678189 0.611765 0.482072
QBB95.bmp
  2 6.521491 -12.423492 -13.504651 0.098999 0.728189 0.678189 0.611765 0.482072
  2 6.157340 -12.006347 -13.899346 0.456999 0.874498 -0.162500 0.596078 0.462151
  2 6.301882 -12.674788 -13.202787 0.098999 0.728189 0.678189 0.603922 0.501992
QBB95.bmp
  2 6.157340 -12.006347 -13.899346 0.456999 0.874498 -0.162500 0.596078 0.462151
  2 6.058567 -12.750898 -13.100292 0.098999 0.728189 0.678189 0.596078 0.509960
  2 6.301882 -12.674788 -13.202787 0.098999 0.728189 0.678189 0.603922 0.501992
QBB95.bmp
  2 5.056827 -18.997554 -19.178351 0.098999 0.728189 0.678189 0.776471 0.047809
  2 4.899607 -19.066280 -19.081610 0.047701 0.428007 0.902516 0.776471 0.075697
  2 5.212922 -19.069088 -19.124341 0.098999 0.728189 0.678189 0.796078 0.047809
QBB95.bmp
  2 5.212922 -19.069088 -19.124341 0.098999 0.728189 0.678189 0.796078 0.047809
  2 4.899607 -19.066280 -19.081610 0.047701 0.428007 0.902516 0.776471 0.075697
  2 4.948900 -19.190539 -18.955397 0.016400 0.235296 0.971785 0.796078 0.075697
QBB95.bmp
  2 4.899607 -19.066280 -19.081610 0.047701 0.428007 0.902516 0.776471 0.075697
  2 4.726694 -19.041784 -19.082663 -0.210404 0.253705 0.944121 0.776471 0.103586
  2 4.948900 -19.190539 -18.955397 0.016400 0.235296 0.971785 0.796078 0.075697
QBB95.bmp
  2 4.140979 -13.714371 -11.033923 -0.493910 -0.609213 0.620413 0.192157 0.876494
  2 4.529300 -9.525594 -6.608423 -0.477090 -0.490290 0.729384 0.149020 0.876494
  2 4.468596 -9.497775 -6.629427 -0.936237 -0.095604 0.338113 0.149020 0.868526
QBB95.bmp
  2 4.468596 -9.497775 -6.629427 -0.936237 -0.095604 0.338113 0.149020 0.868526
  2 4.529300 -9.525594 -6.608423 -0.477090 -0.490290 0.729384 0.149020 0.876494
  2 4.547176 -9.192660 -6.452424 -0.816959 0.220989 0.532674 0.125490 0.868526
QBB95.bmp
  2 4.529300 -9.525594 -6.608423 -0.477090 -0.490290 0.729384 0.149020 0.876494
  2 4.607880 -9.220479 -6.431420 -0.332118 -0.012701 0.943152 0.125490 0.876494
  2 4.547176 -9.192660 -6.452424 -0.816959 0.220989 0.532674 0.125490 0.868526
QBB95.bmp
  2 7.583841 -6.474117 -9.195250 -0.024300 0.597901 0.801201 0.000000 0.597610
  2 6.786020 -6.108500 -9.471304 -0.541791 0.724388 0.426293 0.000000 0.597610
  2 6.337928 -7.924726 -8.148906 0.433998 0.468697 0.769395 0.039216 0.772908
QBB95.bmp
  2 6.337928 -7.924726 -8.148906 0.433998 0.468697 0.769395 0.039216 0.772908
  2 6.786020 -6.108500 -9.471304 -0.541791 0.724388 0.426293 0.000000 0.597610
  2 6.123199 -8.170438 -7.853750 0.866637 0.107505 0.487220 0.039216 0.808765
QBB95.bmp
  2 6.786020 -6.108500 -9.471304 -0.541791 0.724388 0.426293 0.000000 0.597610
  2 5.593875 -8.487156 -6.743432 0.098999 0.728189 0.678189 0.003922 0.904382
  2 6.123199 -8.170438 -7.853750 0.866637 0.107505 0.487220 0.039216 0.808765
QBB95.bmp
  2 4.705012 -13.599160 -10.945079 0.312916 0.903646 0.292415 0.533333 0.940239
  2 5.278965 -13.348195 -12.271463 0.028101 0.640630 0.767336 0.588235 0.836653
  2 4.810678 -13.133594 -12.433495 -0.731703 0.668502 0.133101 0.588235 0.836653
QBB95.bmp
  2 4.810678 -13.133594 -12.433495 -0.731703 0.668502 0.133101 0.588235 0.836653
  2 5.278965 -13.348195 -12.271463 0.028101 0.640630 0.767336 0.588235 0.836653
  2 4.962320 -12.806361 -12.438351 -0.941337 0.191007 0.278211 0.568627 0.812749
QBB95.bmp
  2 5.278965 -13.348195 -12.271463 0.028101 0.640630 0.767336 0.588235 0.836653
  2 5.430606 -13.020962 -12.276319 -0.408020 -0.221711 0.885643 0.568627 0.816733
  2 4.962320 -12.806361 -12.438351 -0.941337 0.191007 0.278211 0.568627 0.812749
QBB95.bmp
  2 5.897080 -6.914546 -8.269690 -0.683966 0.632569 0.363382 0.835294 0.928287
  2 5.786941 -7.262933 -7.879567 -0.550999 0.825599 0.121600 0.835294 0.972112
  2 5.891004 -7.310623 -7.843560 0.282804 0.889014 0.360106 0.827451 0.968127
QBB95.bmp
  2 5.891004 -7.310623 -7.843560 0.282804 0.889014 0.360106 0.827451 0.968127
  2 5.786941 -7.262933 -7.879567 -0.550999 0.825599 0.121600 0.835294 0.972112
  2 5.865684 -7.315002 -7.776183 0.388108 0.916919 0.092902 0.827451 0.976096
QBB95.bmp
  2 5.786941 -7.262933 -7.879567 -0.550999 0.825599 0.121600 0.835294 0.972112
  2 5.761620 -7.267313 -7.812190 -0.666423 0.703924 -0.245708 0.831373 0.980080
  2 5.865684 -7.315002 -7.776183 0.388108 0.916919 0.092902 0.827451 0.976096
QBB95.bmp
  2 5.125589 -8.272555 -6.905464 -0.459803 0.837905 0.294102 0.003922 0.904382
  2 4.758364 -9.639631 -7.654762 -0.867190 0.397395 -0.300096 0.125490 0.940239
  2 4.714377 -8.872216 -6.511242 -0.665284 0.584586 0.464389 0.019608 0.968127
QBB95.bmp
  2 4.714377 -8.872216 -6.511242 -0.665284 0.584586 0.464389 0.019608 0.968127
  2 4.758364 -9.639631 -7.654762 -0.867190 0.397395 -0.300096 0.125490 0.940239
  2 4.547176 -9.192660 -6.452424 -0.816959 0.220989 0.532674 0.035294 0.996016
QBB95.bmp
  2 4.962320 -12.806361 -12.438351 -0.941337 0.191007 0.278211 0.568627 0.812749
  2 5.430606 -13.020962 -12.276319 -0.408020 -0.221711 0.885643 0.568627 0.848606
  2 5.527741 -8.648573 -8.565730 -0.986767 0.159795 -0.027499 0.109804 0.812749
QBB95.bmp
  2 5.527741 -8.648573 -8.565730 -0.986767 0.159795 -0.027499 0.109804 0.812749
  2 5.430606 -13.020962 -12.276319 -0.408020 -0.221711 0.885643 0.568627 0.848606
  2 5.996027 -8.863174 -8.403698 -0.488018 -0.558420 0.670824 0.109804 0.848606
QBB95.bmp
  2 6.193789 -8.202189 -7.933179 0.735590 -0.512593 0.442894 0.564706 0.258964
  2 6.845360 -3.410902 -3.470508 0.227202 -0.667706 0.708906 0.141176 0.258964
  2 6.157336 -7.684136 -7.275005 0.418688 -0.375689 0.826776 0.517647 0.270916
QBB95.bmp
  2 6.157336 -7.684136 -7.275005 0.418688 -0.375689 0.826776 0.517647 0.270916
  2 6.845360 -3.410902 -3.470508 0.227202 -0.667706 0.708906 0.141176 0.258964
  2 6.435003 -3.449651 -3.368992 -0.488018 -0.558420 0.670824 0.141176 0.286853
QBB95.bmp
  2 5.734127 -11.843599 -14.027031 0.477200 0.491200 -0.728700 0.596078 0.653386
  2 6.786020 -6.108500 -9.471304 0.477200 0.491200 -0.728700 0.000000 0.597610
  2 6.531948 -12.209216 -13.750977 0.477200 0.491200 -0.728700 0.596078 0.653386
QBB95.bmp
  2 6.531948 -12.209216 -13.750977 0.477200 0.491200 -0.728700 0.596078 0.653386
  2 6.786020 -6.108500 -9.471304 0.477200 0.491200 -0.728700 0.000000 0.597610
  2 7.583841 -6.474117 -9.195250 0.477200 0.491200 -0.728700 0.000000 0.597610
QBB95.bmp
  2 5.112037 -8.274165 -6.901756 -0.754764 0.238588 0.611071 0.678431 0.597610
  2 5.597667 -8.496715 -6.733723 -0.332118 -0.012701 0.943152 0.678431 0.545817
  2 5.671706 -7.461586 -7.443038 -0.929978 0.291493 0.223995 0.764706 0.597610
QBB95.bmp
  2 5.671706 -7.461586 -7.443038 -0.929978 0.291493 0.223995 0.764706 0.597610
  2 5.597667 -8.496715 -6.733723 -0.332118 -0.012701 0.943152 0.678431 0.545817
  2 6.157336 -7.684136 -7.275005 0.418688 -0.375689 0.826776 0.764706 0.545817
QBB95.bmp
  2 5.121960 -9.058999 -6.370214 -0.370102 0.310102 0.875706 0.607843 0.549801
  2 4.954759 -9.379443 -6.311397 -0.816959 0.220989 0.532674 0.580392 0.549801
  2 5.182664 -9.086818 -6.349210 -0.113603 0.428811 0.896223 0.607843 0.545817
QBB95.bmp
  2 5.182664 -9.086818 -6.349210 -0.113603 0.428811 0.896223 0.607843 0.545817
  2 4.954759 -9.379443 -6.311397 -0.816959 0.220989 0.532674 0.580392 0.549801
  2 5.015462 -9.407261 -6.290392 -0.332118 -0.012701 0.943152 0.580392 0.545817
QBB95.bmp
  2 3.591560 -17.617259 -14.548537 -0.496212 0.827120 0.263906 0.776471 0.836653
  2 3.903751 -17.760326 -14.440516 0.028101 0.640630 0.767336 0.717647 0.836653
  2 4.612659 -15.956951 -15.300626 -0.584197 0.629496 0.512297 0.709804 0.701195
QBB95.bmp
  2 4.612659 -15.956951 -15.300626 -0.584197 0.629496 0.512297 0.709804 0.701195
  2 3.903751 -17.760326 -14.440516 0.028101 0.640630 0.767336 0.717647 0.836653
  2 4.924850 -16.100019 -15.192605 -0.113603 0.428811 0.896223 0.654902 0.701195
QBB95.bmp
  3 8.275279 -3.523040 -8.197980 0.255700 0.768299 0.586799 0.792157 0.601594
  3 7.694461 -3.312383 -8.206646 -0.764277 0.583882 0.273792 0.827451 0.605578
  3 7.788460 -4.201132 -7.089242 0.188598 0.777689 0.599692 0.792157 0.689243
QBB95.bmp
  3 7.788460 -4.201132 -7.089242 0.188598 0.777689 0.599692 0.792157 0.689243
  3 7.694461 -3.312383 -8.206646 -0.764277 0.583882 0.273792 0.827451 0.605578
  3 7.210044 -3.967430 -7.240958 0.188598 0.777689 0.599692 0.827451 0.689243
QBB95.bmp
  2 5.719608 -7.333833 -7.778872 -0.993886 0.038999 0.103299 0.835294 0.988048
  2 5.823672 -7.381522 -7.742865 -0.488018 -0.558420 0.670824 0.835294 0.996016
  2 5.956273 -5.593532 -6.157932 -0.893619 -0.234805 0.382508 0.635294 0.988048
QBB95.bmp
  2 5.956273 -5.593532 -6.157932 -0.893619 -0.234805 0.382508 0.635294 0.988048
  2 5.823672 -7.381522 -7.742865 -0.488018 -0.558420 0.670824 0.835294 0.996016
  2 6.060337 -5.641222 -6.121925 -0.488018 -0.558420 0.670824 0.635294 0.996016
QBB95.bmp
  2 5.131720 -9.047830 -6.383630 0.488018 0.558420 -0.670824 0.384314 0.904382
  2 4.539276 -13.949765 -11.163729 -0.867190 0.397395 -0.300096 0.384314 0.904382
  2 4.784842 -8.888866 -6.503654 0.488018 0.558420 -0.670824 0.384314 0.888446
QBB95.bmp
  2 4.784842 -8.888866 -6.503654 0.488018 0.558420 -0.670824 0.384314 0.888446
  2 4.539276 -13.949765 -11.163729 -0.867190 0.397395 -0.300096 0.384314 0.904382
  2 4.192398 -13.790801 -11.283753 -0.085899 -0.712892 -0.695993 0.384314 0.888446
QBB95.bmp
  2 5.243902 -12.189948 -13.568859 -0.652972 0.663472 0.365285 0.050980 0.442231
  2 5.114097 -13.265979 -13.485737 -0.951509 0.271303 -0.145001 0.121569 0.509960
  2 5.260747 -12.385281 -13.376346 -0.938593 0.331198 0.096699 0.050980 0.462151
QBB95.bmp
  2 4.669484 -16.535413 -16.530932 -0.951509 0.271303 -0.145001 0.560784 0.509960
  2 4.853752 -15.058895 -16.241035 -0.951509 0.271303 -0.145001 0.435294 0.442231
  2 4.682652 -15.978350 -17.130939 -0.955685 0.278196 -0.096298 0.560784 0.442231
QBB95.bmp
  2 4.999950 -13.668898 -12.756335 -0.488018 -0.558420 0.670824 0.101961 0.597610
  2 4.742911 -14.662181 -14.262164 -0.995052 0.067397 0.072997 0.278431 0.553785
  2 4.661713 -15.259272 -14.818302 -0.995052 0.067397 0.072997 0.356863 0.553785
QBB95.bmp
  2 4.974055 -13.629127 -13.561970 -0.867190 0.397395 -0.300096 0.156863 0.533865
  2 4.899368 -13.511690 -13.190580 -0.951509 0.271303 -0.145001 0.121569 0.553785
  2 5.114097 -13.265979 -13.485737 -0.951509 0.271303 -0.145001 0.121569 0.509960
QBB95.bmp
  2 4.709453 -15.241534 -14.932784 -0.867190 0.397395 -0.300096 0.364706 0.545817
  2 4.609230 -15.645196 -15.177757 -0.995052 0.067397 0.072997 0.407843 0.553785
  2 4.661713 -15.259272 -14.818302 -0.995052 0.067397 0.072997 0.356863 0.553785
QBB95.bmp
  2 4.585675 -16.151733 -15.780556 -0.867190 0.397395 -0.300096 0.486275 0.545817
  2 4.454755 -16.781124 -16.235776 -0.981430 0.184006 -0.054202 0.560784 0.553785
  2 4.536944 -16.176752 -15.672856 -0.995052 0.067397 0.072997 0.482353 0.553785
QBB95.bmp
  7 4.965499 -12.591614 -11.729872 -0.867190 0.397395 -0.300096 0.478431 0.900398
  7 5.283919 -11.704630 -11.475376 -0.581903 0.671004 0.459503 0.400000 0.852590
  7 5.181925 -12.454633 -12.173940 -0.867190 0.397395 -0.300096 0.498039 0.852590
QBB95.bmp
  2 6.197604 -15.188315 -16.563696 0.788257 0.516372 -0.334682 0.450980 0.346614
  2 6.131341 -15.292439 -16.176828 0.977104 0.092300 0.191701 0.435294 0.390438
  2 6.165548 -15.447353 -16.280903 0.977104 0.092300 0.191701 0.450980 0.390438
QBB95.bmp
  2 5.678492 -15.769944 -17.500087 0.488018 0.558420 -0.670824 0.560784 0.290837
  2 6.197604 -15.188315 -16.563696 0.788257 0.516372 -0.334682 0.450980 0.346614
  2 6.087689 -15.996571 -17.316517 0.562413 0.521312 -0.641815 0.560784 0.342629
QBB95.bmp
  2 4.840698 -20.263998 -21.030892 0.488018 0.558420 -0.670824 0.988235 0.000000
  2 5.246593 -18.849894 -19.364591 0.516594 0.807690 0.284196 0.796078 0.019920
  2 5.028742 -20.451844 -20.856669 0.782742 0.363819 -0.504927 0.988235 0.019920
QBB95.bmp
  2 5.246593 -18.849894 -19.364591 0.516594 0.807690 0.284196 0.796078 0.019920
  2 5.056827 -18.997554 -19.178351 0.098999 0.728189 0.678189 0.776471 0.047809
  2 5.212922 -19.069088 -19.124341 0.098999 0.728189 0.678189 0.796078 0.047809
QBB95.bmp
  2 4.934643 -17.512650 -17.658406 -0.488018 -0.558420 0.670824 0.658824 0.087649
  2 4.899607 -19.066280 -19.081610 0.047701 0.428007 0.902516 0.768627 0.067729
  2 5.107556 -17.537145 -17.657353 -0.118999 -0.667993 0.734592 0.658824 0.067729
QBB95.bmp
  2 4.970705 -18.762567 -19.418068 0.369699 0.917498 0.146700 0.768627 0.019920
  2 5.278363 -17.341693 -17.892137 0.782742 0.363819 -0.504927 0.658824 0.031873
  2 5.070415 -18.870827 -19.316394 0.382606 0.811213 0.442207 0.768627 0.031873
QBB95.bmp
  2 5.033527 -16.421889 -16.499543 -0.488018 -0.558420 0.670824 0.631373 0.095618
  2 5.146562 -17.617587 -17.576683 -0.118999 -0.667993 0.734592 0.545098 0.071713
  2 5.304008 -16.459814 -16.498318 -0.118999 -0.667993 0.734592 0.631373 0.071713
QBB95.bmp
  2 5.237216 -17.166420 -18.074308 0.488018 0.558420 -0.670824 0.545098 0.011952
  2 5.557779 -16.169428 -16.847139 0.782742 0.363819 -0.504927 0.631373 0.027888
  2 5.400332 -17.327201 -17.925505 0.782742 0.363819 -0.504927 0.545098 0.027888
QBB95.bmp
  2 5.637215 -16.662048 -17.229259 0.825200 0.320800 -0.464900 0.654902 0.039841
  2 5.403784 -16.274892 -17.374930 0.488018 0.558420 -0.670824 0.639216 0.000000
  2 5.653058 -16.545543 -17.120744 0.825200 0.320800 -0.464900 0.639216 0.039841
QBB95.bmp
  2 4.974055 -13.629127 -13.561970 -0.488018 -0.558420 0.670824 0.156863 0.533865
  2 5.365103 -14.411692 -13.928948 -0.389386 -0.165594 0.906067 0.231373 0.533865
  2 5.442341 -13.843728 -13.399938 -0.488018 -0.558420 0.670824 0.156863 0.533865
QBB95.bmp
  2 4.850276 -14.539326 -14.409742 -0.488018 -0.558420 0.670824 0.278431 0.533865
  2 5.237363 -15.351017 -14.803848 -0.368704 -0.107501 0.923310 0.356863 0.533865
  2 5.318562 -14.753927 -14.247710 -0.488018 -0.558420 0.670824 0.278431 0.533865
QBB95.bmp
  2 4.716595 -15.522340 -15.325335 -0.488018 -0.558420 0.670824 0.407843 0.533865
  2 5.112594 -16.268498 -15.658402 -0.368704 -0.107501 0.923310 0.482353 0.533865
  2 5.184881 -15.736942 -15.163303 -0.488018 -0.558420 0.670824 0.407843 0.533865
QBB95.bmp
  2 4.607880 -9.220479 -6.431420 -0.332118 -0.012701 0.943152 0.580392 0.589641
  2 4.714377 -8.872216 -6.511242 -0.665284 0.584586 0.464389 0.607843 0.593625
  2 4.547176 -9.192660 -6.452424 -0.816959 0.220989 0.532674 0.580392 0.593625
QBB95.bmp
  2 4.140979 -13.714371 -11.033923 -0.493910 -0.609213 0.620413 0.192157 0.876494
  2 4.468596 -9.497775 -6.629427 -0.936237 -0.095604 0.338113 0.149020 0.868526
  2 4.080276 -13.686552 -11.054928 -0.997684 0.026600 0.062599 0.192157 0.868526
QBB95.bmp
  2 7.583841 -6.474117 -9.195250 -0.024300 0.597901 0.801201 0.000000 0.597610
  2 6.337928 -7.924726 -8.148906 0.433998 0.468697 0.769395 0.039216 0.772908
  2 6.756679 -7.617377 -8.318859 -0.268204 0.703812 0.657811 0.027451 0.733068
QBB95.bmp
  7 5.283919 -11.704630 -11.475376 -0.581903 0.671004 0.459503 0.400000 0.852590
  7 5.157365 -12.387731 -11.047876 -0.296406 0.072302 0.952321 0.415686 0.928287
  7 5.535406 -11.819878 -11.388359 -0.042102 0.541824 0.839437 0.396078 0.856574
QBB95.bmp
  2 4.705012 -13.599160 -10.945079 0.312916 0.903646 0.292415 0.533333 0.940239
  2 4.810678 -13.133594 -12.433495 -0.731703 0.668502 0.133101 0.588235 0.836653
  2 4.236726 -13.384559 -11.107111 -0.707391 0.684791 -0.175098 0.537255 0.940239
QBB95.bmp
  2 6.648360 -9.213505 -12.752598 -0.981722 0.156503 -0.108302 0.756863 0.462151
  2 7.192056 -10.928884 -14.396273 -0.332118 -0.012701 0.943152 0.886275 0.438247
  2 7.220710 -9.475795 -12.554559 -0.497778 -0.677270 0.541776 0.760784 0.474104
QBB95.bmp
  2 7.017758 -10.709136 -15.801062 -0.330910 0.667920 -0.666620 0.945098 0.354582
  2 7.678309 -10.292542 -14.958791 0.464313 0.863024 -0.199006 0.882353 0.358566
  2 7.590108 -10.971427 -15.603023 0.488018 0.558420 -0.670824 0.945098 0.354582
QBB95.bmp
  5 6.634613 -9.952749 -13.158724 -0.222593 0.956771 -0.187194 0.678431 0.123506
  5 6.772516 -10.181379 -12.726970 0.232697 0.856189 0.461294 0.666667 0.159363
  5 6.929460 -10.087869 -13.056703 0.415986 0.909369 0.002200 0.678431 0.123506
QBB95.bmp
  2 3.839782 -17.777936 -14.412270 0.098999 0.728189 0.678189 0.776471 0.836653
  2 3.907507 -17.895001 -14.296473 0.098999 0.728189 0.678189 0.776471 0.852590
  2 3.903751 -17.760326 -14.440516 0.028101 0.640630 0.767336 0.776471 0.836653
QBB95.bmp
  3 8.110539 -1.686839 -10.322274 0.153700 0.767299 0.622599 0.992157 0.231076
  3 10.595317 -1.376895 -11.327466 0.153700 0.767299 0.622599 0.929412 0.127490
  3 9.225208 -1.305061 -11.071846 0.153700 0.767299 0.622599 0.972549 0.171315
QBB95.bmp
  3 7.698351 -3.314080 -8.220136 0.153700 0.767299 0.622599 0.933333 0.334661
  3 8.110539 -1.686839 -10.322274 0.153700 0.767299 0.622599 0.992157 0.231076
  3 7.552026 -2.425071 -9.285946 0.153700 0.767299 0.622599 0.976471 0.290837
QBB95.bmp
  3 12.270165 -4.320404 -8.102108 0.153700 0.767299 0.622599 0.752941 0.235060
  3 9.770844 -4.639239 -7.099990 0.153700 0.767299 0.622599 0.811765 0.338645
  3 11.149625 -4.715047 -7.352610 0.153700 0.767299 0.622599 0.768627 0.294821
QBB95.bmp
  3 12.672690 -2.696470 -10.214029 0.153700 0.767299 0.622599 0.811765 0.127490
  3 12.270165 -4.320404 -8.102108 0.153700 0.767299 0.622599 0.752941 0.235060
  3 12.827688 -3.589453 -9.145218 0.153700 0.767299 0.622599 0.768627 0.171315
QBB95.bmp
  2 5.897080 -6.914546 -8.269690 -0.683966 0.632569 0.363382 0.835294 0.928287
  2 5.891004 -7.310623 -7.843560 0.282804 0.889014 0.360106 0.827451 0.968127
  2 5.992472 -6.958261 -8.236684 0.098999 0.728189 0.678189 0.827451 0.928287
QBB95.bmp
  3 7.506075 -4.517604 -9.391742 -0.969772 0.233393 -0.071198 0.909804 0.597610
  3 7.370002 -5.375586 -10.234803 -0.909128 0.356311 -0.215706 0.972549 0.593625
  3 6.776015 -6.160811 -9.024885 -0.909128 0.356311 -0.215706 0.972549 0.689243
end
