version 1
nodes
  0 "Bone04" -1
  1 "Bone_Righthand" 0
  2 "NEXON_CSO_infi_Root_R" 1
  3 "NEXON_CSO_infi_Dummy_R" 2
  4 "NEXON_CSO_infi_Triigger_R" 3
  5 "NEXON_CSO_infi_Nori_R" 3
  6 "NEXON_CSO_infi_Slide_R" 3
  7 "NEXON_CSO_infi_Magazine_R" 3
  8 "NEXON_CSO_infi_Bullet_R" 7
  9 "Bone01" -1
  10 "Bone_Lefthand" 9
  11 "NEXON_CSO_infi_Root_L" 10
  12 "NEXON_CSO_infi_Dummy_L" 11
  13 "NEXON_CSO_infi_Slide_L" 12
  14 "NEXON_CSO_infi_Nori_L" 12
  15 "NEXON_CSO_infi_Triigger_L" 12
  16 "NEXON_CSO_infi_Magazine_L" 12
  17 "NEXON_CSO_infi_Bullet_L" 16
  18 "Bone27" 1
  19 "Bone28" 18
  20 "Bone29" 19
  21 "Bone31" 1
  22 "Bone32" 21
  23 "Bone33" 22
  24 "Bone35" 1
  25 "Bone36" 24
  26 "Bone37" 25
  27 "Bone39" 1
  28 "Bone40" 27
  29 "Bone41" 28
  30 "Bone43" 1
  31 "Bone44" 30
  32 "Bone45" 31
  33 "Bone_Se_Hand-R" 1
  34 "Bone05" 10
  35 "Bone06" 34
  36 "Bone07" 35
  37 "Bone21" 10
  38 "Bone22" 37
  39 "Bone23" 38
  40 "Bone17" 10
  41 "Bone18" 40
  42 "Bone19" 41
  43 "Bone13" 10
  44 "Bone14" 43
  45 "Bone15" 44
  46 "Bone09" 10
  47 "Bone10" 46
  48 "Bone11" 47
  49 "Bone_Se_Hand-L" 10
end
skeleton
  time 0
    0 -11.960718 0.864584 -7.922828 0.847156 1.867272 1.276235
    1 0.096946 -8.450420 -0.009364 0.352763 -0.231470 0.212837
    2 -0.192877 -2.997167 0.750521 0.973027 -1.502063 -0.975592
    3 0.000000 -1.808650 1.012937 0.000000 0.000000 0.000000
    4 0.000000 0.706666 0.002903 0.000000 0.000000 0.000000
    5 0.000000 2.290614 1.335354 0.000000 0.000000 0.000000
    6 -0.115835 -1.983282 1.652799 0.000000 0.000000 0.000000
    7 -0.194965 1.740244 -0.776688 0.000000 0.000000 0.000000
    8 0.000000 -0.273072 1.043217 0.000000 0.000000 0.000000
    9 11.470110 0.978882 -7.922828 0.777557 -1.819456 -1.208763
    10 -0.071918 -8.498731 -0.104137 0.336082 0.321142 -0.096334
    11 0.270583 -2.982786 0.320373 0.554706 1.379928 0.480518
    12 -0.000001 -1.808650 1.012938 0.000000 0.000000 0.000000
    13 -0.115835 -1.983282 1.652800 0.000000 0.000000 0.000000
    14 0.000000 2.290614 1.335354 0.000000 0.000000 0.000000
    15 0.000001 0.948860 0.002903 0.000000 0.000000 0.000000
    16 -0.194964 1.736338 -0.761062 0.000000 0.000000 0.000000
    17 0.000000 -0.273071 1.043216 0.000000 0.000000 0.000000
    18 -0.586769 -1.264477 0.200164 -0.224469 -0.772272 -2.217911
    19 1.522835 0.058680 0.016850 -0.042975 0.166884 0.909410
    20 1.117947 0.048424 -0.005765 -0.000024 0.000000 0.654951
    21 -0.963867 -2.785143 -0.085346 0.230928 0.199964 -0.171417
    22 0.028478 -1.403067 0.006272 -1.008258 -0.000007 -0.000010
    23 0.021412 -0.957782 0.020047 -0.332307 -0.000003 -0.000008
    24 -0.249534 -2.846963 -0.174215 -0.001196 0.000966 -0.025445
    25 0.043235 -1.683940 0.096015 -2.021659 -0.002971 -0.000336
    26 0.031729 -1.160830 0.058836 -1.017648 0.000000 0.000000
    27 0.447951 -2.798983 -0.200441 -0.016250 0.053282 0.116306
    28 -0.032909 -1.480207 0.004935 -1.783731 0.000000 0.000000
    29 -0.027023 -1.076921 -0.020212 -0.898892 0.000000 0.000000
    30 1.164474 -2.543939 -0.170327 0.050355 -0.000995 -0.002105
    31 0.024033 -1.129040 0.017807 -1.291468 -0.100239 0.187007
    32 0.014896 -0.883992 -0.019846 -1.038734 0.074161 0.017318
    33 -0.138841 -0.113067 0.013658 0.285538 -0.040593 1.576220
    34 0.583509 -1.197274 0.185379 -0.077873 -0.765978 -0.796238
    35 1.535926 0.010247 0.005009 -0.072801 0.036313 -1.031055
    36 1.100770 0.004528 -0.010675 0.000000 0.000000 -0.670693
    37 0.957766 -2.746777 -0.090301 0.131391 -0.051003 0.111154
    38 -0.033419 -1.397128 -0.011255 -1.199362 -0.041047 -0.084827
    39 -0.022361 -0.957433 0.018783 -0.813207 0.000000 0.000000
    40 0.250029 -2.820664 -0.238396 -0.282660 0.057277 -0.106688
    41 -0.049759 -1.680544 0.100479 -2.012794 0.000000 0.000000
    42 -0.034141 -1.148311 0.084779 -1.037503 0.000000 0.000000
    43 -0.488517 -2.755600 -0.228261 -0.195785 0.054586 -0.144146
    44 0.039889 -1.479791 0.029854 -2.042748 0.000000 0.000000
    45 0.028785 -1.075733 -0.023110 -0.841838 0.000000 0.000000
    46 -1.180679 -2.507216 -0.193861 0.008677 0.244088 -0.056758
    47 -0.024967 -1.123934 0.017595 -1.466594 0.000000 0.000000
    48 -0.020058 -0.890965 0.010091 -1.308778 0.000000 0.000000
    49 0.120180 -0.051600 -0.055246 0.287567 -3.172226 1.561008
  time 1
    0 -11.960718 0.864584 -7.922828 0.847156 1.867272 1.276235
    1 0.096946 -8.450420 -0.009364 0.352763 -0.231470 0.212837
    2 -0.192877 -2.997167 0.750521 0.973027 -1.502063 -0.975592
    3 0.000000 -1.808650 1.012937 0.000000 0.000000 0.000000
    4 0.000000 0.706666 0.002903 0.000000 0.000000 0.000000
    5 0.000000 2.290614 1.335354 0.000000 0.000000 0.000000
    6 -0.115835 -1.983282 1.652799 0.000000 0.000000 0.000000
    7 -0.194965 1.740244 -0.776688 0.000000 0.000000 0.000000
    8 0.000000 -0.273072 1.043217 0.000000 0.000000 0.000000
    9 11.470110 2.408613 -7.922828 0.961232 -1.878726 -1.385544
    10 -0.071918 -8.498731 -0.104137 0.359940 0.230953 0.114614
    11 0.270583 -2.982786 0.320373 0.554706 1.379928 0.480518
    12 -0.000001 -1.808650 1.012938 0.000000 0.000000 0.000000
    13 -0.115835 0.075375 1.652800 0.000000 0.000000 0.000000
    14 0.000000 2.290614 1.335354 0.000000 0.000000 0.000000
    15 0.000001 0.941047 0.002903 0.000000 0.000000 0.000000
    16 -0.194964 1.736338 -0.761062 0.000000 0.000000 0.000000
    17 0.000000 -0.273071 1.043216 0.000000 0.000000 0.000000
    18 -0.586769 -1.264477 0.200164 -0.224469 -0.772272 -2.217911
    19 1.522835 0.058680 0.016850 -0.042975 0.166884 0.909410
    20 1.117947 0.048424 -0.005765 -0.000024 0.000000 0.654951
    21 -0.963867 -2.785143 -0.085346 0.230928 0.199964 -0.171417
    22 0.028478 -1.403067 0.006272 -1.008258 -0.000007 -0.000010
    23 0.021412 -0.957782 0.020047 -0.332307 -0.000003 -0.000008
    24 -0.249534 -2.846963 -0.174215 -0.001196 0.000966 -0.025445
    25 0.043235 -1.683940 0.096015 -2.021659 -0.002971 -0.000336
    26 0.031729 -1.160830 0.058836 -1.017648 0.000000 0.000000
    27 0.447951 -2.798983 -0.200441 -0.016250 0.053282 0.116306
    28 -0.032909 -1.480207 0.004935 -1.783731 0.000000 0.000000
    29 -0.027023 -1.076921 -0.020212 -0.898892 0.000000 0.000000
    30 1.164474 -2.543939 -0.170327 0.050355 -0.000995 -0.002105
    31 0.024033 -1.129040 0.017807 -1.291468 -0.100239 0.187007
    32 0.014896 -0.883992 -0.019846 -1.038734 0.074161 0.017318
    33 -0.138841 -0.113067 0.013658 0.285538 -0.040593 1.576220
    34 0.583509 -1.197274 0.185379 -0.077873 -0.765978 -0.796238
    35 1.535926 0.010247 0.005009 -0.072801 0.036313 -1.031055
    36 1.100770 0.004528 -0.010675 0.000000 0.000000 -0.670693
    37 0.957766 -2.746777 -0.090301 0.130479 -0.051003 0.111154
    38 -0.033419 -1.397128 -0.011255 -1.159669 -0.037644 -0.086409
    39 -0.022361 -0.957433 0.018783 -0.815115 0.000000 0.000000
    40 0.250029 -2.820664 -0.238396 -0.282660 0.057277 -0.106688
    41 -0.049759 -1.680544 0.100479 -2.012794 0.000000 0.000000
    42 -0.034141 -1.148311 0.084779 -1.037503 0.000000 0.000000
    43 -0.488517 -2.755600 -0.228261 -0.195785 0.054586 -0.144146
    44 0.039889 -1.479791 0.029854 -2.042748 0.000000 0.000000
    45 0.028785 -1.075733 -0.023110 -0.841838 0.000000 0.000000
    46 -1.180679 -2.507216 -0.193861 0.008677 0.244088 -0.056758
    47 -0.024967 -1.123934 0.017595 -1.466594 0.000000 0.000000
    48 -0.020058 -0.890965 0.010091 -1.308778 0.000000 0.000000
    49 0.120180 -0.051600 -0.055246 0.287567 -3.172226 1.561008
  time 2
    0 -11.960718 0.864584 -7.922828 0.847156 1.867272 1.276235
    1 0.096946 -8.450420 -0.009364 0.352763 -0.231470 0.212837
    2 -0.192877 -2.997167 0.750521 0.973027 -1.502063 -0.975592
    3 0.000000 -1.808650 1.012937 0.000000 0.000000 0.000000
    4 0.000000 0.706666 0.002903 0.000000 0.000000 0.000000
    5 0.000000 2.290614 1.335354 0.000000 0.000000 0.000000
    6 -0.115835 -1.983282 1.652799 0.000000 0.000000 0.000000
    7 -0.194965 1.740244 -0.776688 0.000000 0.000000 0.000000
    8 0.000000 -0.273072 1.043217 0.000000 0.000000 0.000000
    9 11.470110 3.268015 -7.918922 0.953287 -1.875367 -1.377972
    10 -0.071918 -8.498731 -0.104137 0.355877 0.225886 0.122657
    11 0.270583 -2.982786 0.320373 0.554706 1.379928 0.480518
    12 -0.000001 -1.808650 1.012938 0.000000 0.000000 0.000000
    13 -0.115835 0.020685 1.652800 0.000000 0.000000 0.000000
    14 0.000000 2.290614 1.335354 0.000000 0.000000 0.000000
    15 0.000001 0.929328 0.002903 0.000000 0.000000 0.000000
    16 -0.194964 1.736338 -0.761062 0.000000 0.000000 0.000000
    17 0.000000 -0.273071 1.043216 0.000000 0.000000 0.000000
    18 -0.586769 -1.264477 0.200164 -0.224469 -0.772272 -2.217911
    19 1.522835 0.058680 0.016850 -0.042975 0.166884 0.909410
    20 1.117947 0.048424 -0.005765 -0.000024 0.000000 0.654951
    21 -0.963867 -2.785143 -0.085346 0.230928 0.199964 -0.171417
    22 0.028478 -1.403067 0.006272 -1.008258 -0.000007 -0.000010
    23 0.021412 -0.957782 0.020047 -0.332307 -0.000003 -0.000008
    24 -0.249534 -2.846963 -0.174215 -0.001196 0.000966 -0.025445
    25 0.043235 -1.683940 0.096015 -2.021659 -0.002971 -0.000336
    26 0.031729 -1.160830 0.058836 -1.017648 0.000000 0.000000
    27 0.447951 -2.798983 -0.200441 -0.016250 0.053282 0.116306
    28 -0.032909 -1.480207 0.004935 -1.783731 0.000000 0.000000
    29 -0.027023 -1.076921 -0.020212 -0.898892 0.000000 0.000000
    30 1.164474 -2.543939 -0.170327 0.050355 -0.000995 -0.002105
    31 0.024033 -1.129040 0.017807 -1.291468 -0.100239 0.187007
    32 0.014896 -0.883992 -0.019846 -1.038734 0.074161 0.017318
    33 -0.138841 -0.113067 0.013658 0.285538 -0.040593 1.576220
    34 0.583509 -1.197274 0.185379 -0.077873 -0.765978 -0.796238
    35 1.535926 0.010247 0.005009 -0.072801 0.036313 -1.031055
    36 1.100770 0.004528 -0.010675 0.000000 0.000000 -0.670693
    37 0.957766 -2.746777 -0.090301 0.128460 -0.051003 0.111154
    38 -0.033419 -1.397128 -0.011255 -1.119283 -0.034120 -0.087907
    39 -0.022361 -0.957433 0.018783 -0.819313 0.000000 0.000000
    40 0.250029 -2.820664 -0.238396 -0.282660 0.057277 -0.106688
    41 -0.049759 -1.680544 0.100479 -2.012794 0.000000 0.000000
    42 -0.034141 -1.148311 0.084779 -1.037503 0.000000 0.000000
    43 -0.488517 -2.755600 -0.228261 -0.195785 0.054586 -0.144146
    44 0.039889 -1.479791 0.029854 -2.042748 0.000000 0.000000
    45 0.028785 -1.075733 -0.023110 -0.841838 0.000000 0.000000
    46 -1.180679 -2.507216 -0.193861 0.008677 0.244088 -0.056758
    47 -0.024967 -1.123934 0.017595 -1.466594 0.000000 0.000000
    48 -0.020058 -0.890965 0.010091 -1.308778 0.000000 0.000000
    49 0.120180 -0.051600 -0.055246 0.287567 -3.172226 1.561008
  time 3
    0 -11.960718 0.864584 -7.922828 0.847156 1.867272 1.276235
    1 0.096946 -8.450420 -0.009364 0.352763 -0.231470 0.212837
    2 -0.192877 -2.997167 0.750521 0.973027 -1.502063 -0.975592
    3 0.000000 -1.808650 1.012937 0.000000 0.000000 0.000000
    4 0.000000 0.706666 0.002903 0.000000 0.000000 0.000000
    5 0.000000 2.290614 1.335354 0.000000 0.000000 0.000000
    6 -0.115835 -1.983282 1.652799 0.000000 0.000000 0.000000
    7 -0.194965 1.740244 -0.776688 0.000000 0.000000 0.000000
    8 0.000000 -0.273072 1.043217 0.000000 0.000000 0.000000
    9 11.470110 3.498490 -7.907203 0.932763 -1.867140 -1.358340
    10 -0.071918 -8.498731 -0.104137 0.348684 0.237410 0.092448
    11 0.270583 -2.982786 0.320373 0.554706 1.379928 0.480518
    12 -0.000001 -1.808650 1.012938 0.000000 0.000000 0.000000
    13 -0.115835 -0.147288 1.652800 0.000000 0.000000 0.000000
    14 0.000000 2.290614 1.335354 0.000000 0.000000 0.000000
    15 0.000001 0.921515 0.002903 0.000000 0.000000 0.000000
    16 -0.194964 1.736338 -0.761062 0.000000 0.000000 0.000000
    17 0.000000 -0.273071 1.043216 0.000000 0.000000 0.000000
    18 -0.586769 -1.264477 0.200164 -0.224469 -0.772272 -2.217911
    19 1.522835 0.058680 0.016850 -0.042975 0.166884 0.909410
    20 1.117947 0.048424 -0.005765 -0.000024 0.000000 0.654951
    21 -0.963867 -2.785143 -0.085346 0.230928 0.199964 -0.171417
    22 0.028478 -1.403067 0.006272 -1.008258 -0.000007 -0.000010
    23 0.021412 -0.957782 0.020047 -0.332307 -0.000003 -0.000008
    24 -0.249534 -2.846963 -0.174215 -0.001196 0.000966 -0.025445
    25 0.043235 -1.683940 0.096015 -2.021659 -0.002971 -0.000336
    26 0.031729 -1.160830 0.058836 -1.017648 0.000000 0.000000
    27 0.447951 -2.798983 -0.200441 -0.016250 0.053282 0.116306
    28 -0.032909 -1.480207 0.004935 -1.783731 0.000000 0.000000
    29 -0.027023 -1.076921 -0.020212 -0.898892 0.000000 0.000000
    30 1.164474 -2.543939 -0.170327 0.050355 -0.000995 -0.002105
    31 0.024033 -1.129040 0.017807 -1.291468 -0.100239 0.187007
    32 0.014896 -0.883992 -0.019846 -1.038734 0.074161 0.017318
    33 -0.138841 -0.113067 0.013658 0.285538 -0.040593 1.576220
    34 0.583509 -1.197274 0.185379 -0.077873 -0.765978 -0.796238
    35 1.535926 0.010247 0.005009 -0.072801 0.036313 -1.031055
    36 1.100770 0.004528 -0.010675 0.000000 0.000000 -0.670693
    37 0.957766 -2.746777 -0.090301 0.126442 -0.051003 0.111154
    38 -0.033419 -1.397128 -0.011255 -1.078897 -0.030549 -0.089261
    39 -0.022361 -0.957433 0.018783 -0.823511 0.000000 0.000000
    40 0.250029 -2.820664 -0.238396 -0.282660 0.057277 -0.106688
    41 -0.049759 -1.680544 0.100479 -2.012794 0.000000 0.000000
    42 -0.034141 -1.148311 0.084779 -1.037503 0.000000 0.000000
    43 -0.488517 -2.755600 -0.228261 -0.195785 0.054586 -0.144146
    44 0.039889 -1.479791 0.029854 -2.042748 0.000000 0.000000
    45 0.028785 -1.075733 -0.023110 -0.841838 0.000000 0.000000
    46 -1.180679 -2.507216 -0.193861 0.008677 0.244088 -0.056758
    47 -0.024967 -1.123934 0.017595 -1.466594 0.000000 0.000000
    48 -0.020058 -0.890965 0.010091 -1.308778 0.000000 0.000000
    49 0.120180 -0.051600 -0.055246 0.287567 -3.172226 1.561008
  time 4
    0 -11.960718 0.864584 -7.922828 0.847156 1.867272 1.276235
    1 0.096946 -8.450420 -0.009364 0.352763 -0.231470 0.212837
    2 -0.192877 -2.997167 0.750521 0.973027 -1.502063 -0.975592
    3 0.000000 -1.808650 1.012937 0.000000 0.000000 0.000000
    4 0.000000 0.706666 0.002903 0.000000 0.000000 0.000000
    5 0.000000 2.290614 1.335354 0.000000 0.000000 0.000000
    6 -0.115835 -1.983282 1.652799 0.000000 0.000000 0.000000
    7 -0.194965 1.740244 -0.776688 0.000000 0.000000 0.000000
    8 0.000000 -0.273072 1.043217 0.000000 0.000000 0.000000
    9 11.470110 3.275827 -7.895484 0.902497 -1.855947 -1.329359
    10 -0.071918 -8.498731 -0.104137 0.344078 0.254895 0.048542
    11 0.270583 -2.982786 0.320373 0.554706 1.379928 0.480518
    12 -0.000001 -1.808650 1.012938 0.000000 0.000000 0.000000
    13 -0.115835 -0.432453 1.652800 0.000000 0.000000 0.000000
    14 0.000000 2.290614 1.335354 0.000000 0.000000 0.000000
    15 0.000001 0.909796 0.002903 0.000000 0.000000 0.000000
    16 -0.194964 1.736338 -0.761062 0.000000 0.000000 0.000000
    17 0.000000 -0.273071 1.043216 0.000000 0.000000 0.000000
    18 -0.586769 -1.264477 0.200164 -0.224469 -0.772272 -2.217911
    19 1.522835 0.058680 0.016850 -0.042975 0.166884 0.909410
    20 1.117947 0.048424 -0.005765 -0.000024 0.000000 0.654951
    21 -0.963867 -2.785143 -0.085346 0.230928 0.199964 -0.171417
    22 0.028478 -1.403067 0.006272 -1.008258 -0.000007 -0.000010
    23 0.021412 -0.957782 0.020047 -0.332307 -0.000003 -0.000008
    24 -0.249534 -2.846963 -0.174215 -0.001196 0.000966 -0.025445
    25 0.043235 -1.683940 0.096015 -2.021659 -0.002971 -0.000336
    26 0.031729 -1.160830 0.058836 -1.017648 0.000000 0.000000
    27 0.447951 -2.798983 -0.200441 -0.016250 0.053282 0.116306
    28 -0.032909 -1.480207 0.004935 -1.783731 0.000000 0.000000
    29 -0.027023 -1.076921 -0.020212 -0.898892 0.000000 0.000000
    30 1.164474 -2.543939 -0.170327 0.050355 -0.000995 -0.002105
    31 0.024033 -1.129040 0.017807 -1.291468 -0.100239 0.187007
    32 0.014896 -0.883992 -0.019846 -1.038734 0.074161 0.017318
    33 -0.138841 -0.113067 0.013658 0.285538 -0.040593 1.576220
    34 0.583509 -1.197274 0.185379 -0.077873 -0.765978 -0.796238
    35 1.535926 0.010247 0.005009 -0.072801 0.036313 -1.031055
    36 1.100770 0.004528 -0.010675 0.000000 0.000000 -0.670693
    37 0.957766 -2.746777 -0.090301 0.125530 -0.051003 0.111154
    38 -0.033419 -1.397128 -0.011255 -1.039204 -0.026977 -0.090424
    39 -0.022361 -0.957433 0.018783 -0.825392 0.000000 0.000000
    40 0.250029 -2.820664 -0.238396 -0.282660 0.057277 -0.106688
    41 -0.049759 -1.680544 0.100479 -2.012794 0.000000 0.000000
    42 -0.034141 -1.148311 0.084779 -1.037503 0.000000 0.000000
    43 -0.488517 -2.755600 -0.228261 -0.195785 0.054586 -0.144146
    44 0.039889 -1.479791 0.029854 -2.042748 0.000000 0.000000
    45 0.028785 -1.075733 -0.023110 -0.841838 0.000000 0.000000
    46 -1.180679 -2.507216 -0.193861 0.008677 0.244088 -0.056758
    47 -0.024967 -1.123934 0.017595 -1.466594 0.000000 0.000000
    48 -0.020058 -0.890965 0.010091 -1.308778 0.000000 0.000000
    49 0.120180 -0.051600 -0.055246 0.287567 -3.172226 1.561008
  time 5
    0 -11.960718 0.864584 -7.922828 0.847156 1.867272 1.276235
    1 0.096946 -8.450420 -0.009364 0.352763 -0.231470 0.212837
    2 -0.192877 -2.997167 0.750521 0.973027 -1.502063 -0.975592
    3 0.000000 -1.808650 1.012937 0.000000 0.000000 0.000000
    4 0.000000 0.706666 0.002903 0.000000 0.000000 0.000000
    5 0.000000 2.290614 1.335354 0.000000 0.000000 0.000000
    6 -0.115835 -1.983282 1.652799 0.000000 0.000000 0.000000
    7 -0.194965 1.740244 -0.776688 0.000000 0.000000 0.000000
    8 0.000000 -0.273072 1.043217 0.000000 0.000000 0.000000
    9 11.470110 2.775812 -7.875952 0.865706 -1.843746 -1.294022
    10 -0.071918 -8.498731 -0.104137 0.343948 0.278990 -0.010312
    11 0.270583 -2.982786 0.320373 0.554706 1.379928 0.480518
    12 -0.000001 -1.808650 1.012938 0.000000 0.000000 0.000000
    13 -0.115835 -0.987158 1.652800 0.000000 0.000000 0.000000
    14 0.000000 2.290614 1.335354 0.000000 0.000000 0.000000
    15 0.000001 0.901983 0.002903 0.000000 0.000000 0.000000
    16 -0.194964 1.736338 -0.761062 0.000000 0.000000 0.000000
    17 0.000000 -0.273071 1.043216 0.000000 0.000000 0.000000
    18 -0.586769 -1.264477 0.200164 -0.224469 -0.772272 -2.217911
    19 1.522835 0.058680 0.016850 -0.042975 0.166884 0.909410
    20 1.117947 0.048424 -0.005765 -0.000024 0.000000 0.654951
    21 -0.963867 -2.785143 -0.085346 0.230928 0.199964 -0.171417
    22 0.028478 -1.403067 0.006272 -1.008258 -0.000007 -0.000010
    23 0.021412 -0.957782 0.020047 -0.332307 -0.000003 -0.000008
    24 -0.249534 -2.846963 -0.174215 -0.001196 0.000966 -0.025445
    25 0.043235 -1.683940 0.096015 -2.021659 -0.002971 -0.000336
    26 0.031729 -1.160830 0.058836 -1.017648 0.000000 0.000000
    27 0.447951 -2.798983 -0.200441 -0.016250 0.053282 0.116306
    28 -0.032909 -1.480207 0.004935 -1.783731 0.000000 0.000000
    29 -0.027023 -1.076921 -0.020212 -0.898892 0.000000 0.000000
    30 1.164474 -2.543939 -0.170327 0.050355 -0.000995 -0.002105
    31 0.024033 -1.129040 0.017807 -1.291468 -0.100239 0.187007
    32 0.014896 -0.883992 -0.019846 -1.038734 0.074161 0.017318
    33 -0.138841 -0.113067 0.013658 0.285538 -0.040593 1.576220
    34 0.583509 -1.197274 0.185379 -0.077873 -0.765978 -0.796238
    35 1.535926 0.010247 0.005009 -0.072801 0.036313 -1.031055
    36 1.100770 0.004528 -0.010675 0.000000 0.000000 -0.670693
    37 0.957766 -2.746777 -0.090301 0.126815 -0.051003 0.111154
    38 -0.033419 -1.397128 -0.011255 -1.000922 -0.023490 -0.091359
    39 -0.022361 -0.957433 0.018783 -0.822748 0.000000 0.000000
    40 0.250029 -2.820664 -0.238396 -0.282660 0.057277 -0.106688
    41 -0.049759 -1.680544 0.100479 -2.012794 0.000000 0.000000
    42 -0.034141 -1.148311 0.084779 -1.037503 0.000000 0.000000
    43 -0.488517 -2.755600 -0.228261 -0.195785 0.054586 -0.144146
    44 0.039889 -1.479791 0.029854 -2.042748 0.000000 0.000000
    45 0.028785 -1.075733 -0.023110 -0.841838 0.000000 0.000000
    46 -1.180679 -2.507216 -0.193861 0.008677 0.244088 -0.056758
    47 -0.024967 -1.123934 0.017595 -1.466594 0.000000 0.000000
    48 -0.020058 -0.890965 0.010091 -1.308778 0.000000 0.000000
    49 0.120180 -0.051600 -0.055246 0.287567 -3.172226 1.561008
  time 6
    0 -11.960718 0.864584 -7.922828 0.847156 1.867272 1.276235
    1 0.096946 -8.450420 -0.009364 0.352763 -0.231470 0.212837
    2 -0.192877 -2.997167 0.750521 0.973027 -1.502063 -0.975592
    3 0.000000 -1.808650 1.012937 0.000000 0.000000 0.000000
    4 0.000000 0.706666 0.002903 0.000000 0.000000 0.000000
    5 0.000000 2.290614 1.335354 0.000000 0.000000 0.000000
    6 -0.115835 -1.983282 1.652799 0.000000 0.000000 0.000000
    7 -0.194965 1.740244 -0.776688 0.000000 0.000000 0.000000
    8 0.000000 -0.273072 1.043217 0.000000 0.000000 0.000000
    9 11.470110 2.170325 -7.864233 0.826928 -1.832273 -1.256628
    10 -0.071918 -8.498731 -0.104137 0.343741 0.310076 -0.085649
    11 0.270583 -2.982786 0.320373 0.554706 1.379928 0.480518
    12 -0.000001 -1.808650 1.012938 0.000000 0.000000 0.000000
    13 -0.115835 -1.659053 1.652800 0.000000 0.000000 0.000000
    14 0.000000 2.290614 1.335354 0.000000 0.000000 0.000000
    15 0.000001 0.890264 0.002903 0.000000 0.000000 0.000000
    16 -0.194964 1.736338 -0.761062 0.000000 0.000000 0.000000
    17 0.000000 -0.273071 1.043216 0.000000 0.000000 0.000000
    18 -0.586769 -1.264477 0.200164 -0.224469 -0.772272 -2.217911
    19 1.522835 0.058680 0.016850 -0.042975 0.166884 0.909410
    20 1.117947 0.048424 -0.005765 -0.000024 0.000000 0.654951
    21 -0.963867 -2.785143 -0.085346 0.230928 0.199964 -0.171417
    22 0.028478 -1.403067 0.006272 -1.008258 -0.000007 -0.000010
    23 0.021412 -0.957782 0.020047 -0.332307 -0.000003 -0.000008
    24 -0.249534 -2.846963 -0.174215 -0.001196 0.000966 -0.025445
    25 0.043235 -1.683940 0.096015 -2.021659 -0.002971 -0.000336
    26 0.031729 -1.160830 0.058836 -1.017648 0.000000 0.000000
    27 0.447951 -2.798983 -0.200441 -0.016250 0.053282 0.116306
    28 -0.032909 -1.480207 0.004935 -1.783731 0.000000 0.000000
    29 -0.027023 -1.076921 -0.020212 -0.898892 0.000000 0.000000
    30 1.164474 -2.543939 -0.170327 0.050355 -0.000995 -0.002105
    31 0.024033 -1.129040 0.017807 -1.291468 -0.100239 0.187007
    32 0.014896 -0.883992 -0.019846 -1.038734 0.074161 0.017318
    33 -0.138841 -0.113067 0.013658 0.285538 -0.040593 1.576220
    34 0.583509 -1.197274 0.185379 -0.077873 -0.765978 -0.796238
    35 1.535926 0.010247 0.005009 -0.072801 0.036313 -1.031055
    36 1.100770 0.004528 -0.010675 0.000000 0.000000 -0.670693
    37 0.957766 -2.746777 -0.090301 0.131391 -0.051003 0.111154
    38 -0.033419 -1.397128 -0.011255 -0.964692 -0.020158 -0.092042
    39 -0.022361 -0.957433 0.018783 -0.813207 0.000000 0.000000
    40 0.250029 -2.820664 -0.238396 -0.282660 0.057277 -0.106688
    41 -0.049759 -1.680544 0.100479 -2.012794 0.000000 0.000000
    42 -0.034141 -1.148311 0.084779 -1.037503 0.000000 0.000000
    43 -0.488517 -2.755600 -0.228261 -0.195785 0.054586 -0.144146
    44 0.039889 -1.479791 0.029854 -2.042748 0.000000 0.000000
    45 0.028785 -1.075733 -0.023110 -0.841838 0.000000 0.000000
    46 -1.180679 -2.507216 -0.193861 0.008677 0.244088 -0.056758
    47 -0.024967 -1.123934 0.017595 -1.466594 0.000000 0.000000
    48 -0.020058 -0.890965 0.010091 -1.308778 0.000000 0.000000
    49 0.120180 -0.051600 -0.055246 0.287567 -3.172226 1.561008
  time 7
    0 -11.960718 0.864584 -7.922828 0.847156 1.867272 1.276235
    1 0.096946 -8.450420 -0.009364 0.352763 -0.231470 0.212837
    2 -0.192877 -2.997167 0.750521 0.973027 -1.502063 -0.975592
    3 0.000000 -1.808650 1.012937 0.000000 0.000000 0.000000
    4 0.000000 0.706666 0.002903 0.000000 0.000000 0.000000
    5 0.000000 2.290614 1.335354 0.000000 0.000000 0.000000
    6 -0.115835 -1.983282 1.652799 0.000000 0.000000 0.000000
    7 -0.194965 1.740244 -0.776688 0.000000 0.000000 0.000000
    8 0.000000 -0.273072 1.043217 0.000000 0.000000 0.000000
    9 11.470110 1.639059 -7.848607 0.792501 -1.823094 -1.223253
    10 -0.071918 -8.498731 -0.104137 0.342266 0.337733 -0.152545
    11 0.270583 -2.982786 0.320373 0.554706 1.379928 0.480518
    12 -0.000001 -1.808650 1.012938 0.000000 0.000000 0.000000
    13 -0.115835 -1.983282 1.652800 0.000000 0.000000 0.000000
    14 0.000000 2.290614 1.335354 0.000000 0.000000 0.000000
    15 0.000001 0.882452 0.002903 0.000000 0.000000 0.000000
    16 -0.194964 1.736338 -0.761062 0.000000 0.000000 0.000000
    17 0.000000 -0.273071 1.043216 0.000000 0.000000 0.000000
    18 -0.586769 -1.264477 0.200164 -0.224469 -0.772272 -2.217911
    19 1.522835 0.058680 0.016850 -0.042975 0.166884 0.909410
    20 1.117947 0.048424 -0.005765 -0.000024 0.000000 0.654951
    21 -0.963867 -2.785143 -0.085346 0.230928 0.199964 -0.171417
    22 0.028478 -1.403067 0.006272 -1.008258 -0.000007 -0.000010
    23 0.021412 -0.957782 0.020047 -0.332307 -0.000003 -0.000008
    24 -0.249534 -2.846963 -0.174215 -0.001196 0.000966 -0.025445
    25 0.043235 -1.683940 0.096015 -2.021659 -0.002971 -0.000336
    26 0.031729 -1.160830 0.058836 -1.017648 0.000000 0.000000
    27 0.447951 -2.798983 -0.200441 -0.016250 0.053282 0.116306
    28 -0.032909 -1.480207 0.004935 -1.783731 0.000000 0.000000
    29 -0.027023 -1.076921 -0.020212 -0.898892 0.000000 0.000000
    30 1.164474 -2.543939 -0.170327 0.050355 -0.000995 -0.002105
    31 0.024033 -1.129040 0.017807 -1.291468 -0.100239 0.187007
    32 0.014896 -0.883992 -0.019846 -1.038734 0.074161 0.017318
    33 -0.138841 -0.113067 0.013658 0.285538 -0.040593 1.576220
    34 0.583509 -1.197274 0.185379 -0.077873 -0.765978 -0.796238
    35 1.535926 0.010247 0.005009 -0.072801 0.036313 -1.031055
    36 1.100770 0.004528 -0.010675 0.000000 0.000000 -0.670693
    37 0.957766 -2.746777 -0.090301 0.140711 -0.051003 0.111154
    38 -0.033419 -1.397128 -0.011255 -0.927463 -0.016659 -0.092665
    39 -0.022361 -0.957433 0.018783 -0.794098 0.000000 0.000000
    40 0.250029 -2.820664 -0.238396 -0.282660 0.057277 -0.106688
    41 -0.049759 -1.680544 0.100479 -2.012794 0.000000 0.000000
    42 -0.034141 -1.148311 0.084779 -1.037503 0.000000 0.000000
    43 -0.488517 -2.755600 -0.228261 -0.195785 0.054586 -0.144146
    44 0.039889 -1.479791 0.029854 -2.042748 0.000000 0.000000
    45 0.028785 -1.075733 -0.023110 -0.841838 0.000000 0.000000
    46 -1.180679 -2.507216 -0.193861 0.008677 0.244088 -0.056758
    47 -0.024967 -1.123934 0.017595 -1.466594 0.000000 0.000000
    48 -0.020058 -0.890965 0.010091 -1.308778 0.000000 0.000000
    49 0.120180 -0.051600 -0.055246 0.287567 -3.172226 1.561008
  time 8
    0 -11.960718 0.864584 -7.922828 0.847156 1.867272 1.276235
    1 0.096946 -8.450420 -0.009364 0.352763 -0.231470 0.212837
    2 -0.192877 -2.997167 0.750521 0.973027 -1.502063 -0.975592
    3 0.000000 -1.808650 1.012937 0.000000 0.000000 0.000000
    4 0.000000 0.706666 0.002903 0.000000 0.000000 0.000000
    5 0.000000 2.290614 1.335354 0.000000 0.000000 0.000000
    6 -0.115835 -1.983282 1.652799 0.000000 0.000000 0.000000
    7 -0.194965 1.740244 -0.776688 0.000000 0.000000 0.000000
    8 0.000000 -0.273072 1.043217 0.000000 0.000000 0.000000
    9 11.470110 1.349987 -7.844701 0.770180 -1.817721 -1.201565
    10 -0.071918 -8.498731 -0.104137 0.341231 0.351504 -0.185141
    11 0.270583 -2.982786 0.320373 0.554706 1.379928 0.480518
    12 -0.000001 -1.808650 1.012938 0.000000 0.000000 0.000000
    13 -0.115835 -1.983282 1.652800 0.000000 0.000000 0.000000
    14 0.000000 2.290614 1.335354 0.000000 0.000000 0.000000
    15 0.000001 0.870732 0.002903 0.000000 0.000000 0.000000
    16 -0.194964 1.736338 -0.761062 0.000000 0.000000 0.000000
    17 0.000000 -0.273071 1.043216 0.000000 0.000000 0.000000
    18 -0.586769 -1.264477 0.200164 -0.224469 -0.772272 -2.217911
    19 1.522835 0.058680 0.016850 -0.042975 0.166884 0.909410
    20 1.117947 0.048424 -0.005765 -0.000024 0.000000 0.654951
    21 -0.963867 -2.785143 -0.085346 0.230928 0.199964 -0.171417
    22 0.028478 -1.403067 0.006272 -1.008258 -0.000007 -0.000010
    23 0.021412 -0.957782 0.020047 -0.332307 -0.000003 -0.000008
    24 -0.249534 -2.846963 -0.174215 -0.001196 0.000966 -0.025445
    25 0.043235 -1.683940 0.096015 -2.021659 -0.002971 -0.000336
    26 0.031729 -1.160830 0.058836 -1.017648 0.000000 0.000000
    27 0.447951 -2.798983 -0.200441 -0.016250 0.053282 0.116306
    28 -0.032909 -1.480207 0.004935 -1.783731 0.000000 0.000000
    29 -0.027023 -1.076921 -0.020212 -0.898892 0.000000 0.000000
    30 1.164474 -2.543939 -0.170327 0.050355 -0.000995 -0.002105
    31 0.024033 -1.129040 0.017807 -1.291468 -0.100239 0.187007
    32 0.014896 -0.883992 -0.019846 -1.038734 0.074161 0.017318
    33 -0.138841 -0.113067 0.013658 0.285538 -0.040593 1.576220
    34 0.583509 -1.197274 0.185379 -0.077873 -0.765978 -0.796238
    35 1.535926 0.010247 0.005009 -0.072801 0.036313 -1.031055
    36 1.100770 0.004528 -0.010675 0.000000 0.000000 -0.670693
    37 0.957766 -2.746777 -0.090301 0.154221 -0.051003 0.111154
    38 -0.033419 -1.397128 -0.011255 -0.887538 -0.012835 -0.093276
    39 -0.022361 -0.957433 0.018783 -0.766730 0.000000 0.000000
    40 0.250029 -2.820664 -0.238396 -0.282660 0.057277 -0.106688
    41 -0.049759 -1.680544 0.100479 -2.012794 0.000000 0.000000
    42 -0.034141 -1.148311 0.084779 -1.037503 0.000000 0.000000
    43 -0.488517 -2.755600 -0.228261 -0.195785 0.054586 -0.144146
    44 0.039889 -1.479791 0.029854 -2.042748 0.000000 0.000000
    45 0.028785 -1.075733 -0.023110 -0.841838 0.000000 0.000000
    46 -1.180679 -2.507216 -0.193861 0.008677 0.244088 -0.056758
    47 -0.024967 -1.123934 0.017595 -1.466594 0.000000 0.000000
    48 -0.020058 -0.890965 0.010091 -1.308778 0.000000 0.000000
    49 0.120180 -0.051600 -0.055246 0.287567 -3.172226 1.561008
  time 9
    0 -11.960718 0.864584 -7.922828 0.847156 1.867272 1.276235
    1 0.096946 -8.450420 -0.009364 0.352763 -0.231470 0.212837
    2 -0.192877 -2.997167 0.750521 0.973027 -1.502063 -0.975592
    3 0.000000 -1.808650 1.012937 0.000000 0.000000 0.000000
    4 0.000000 0.706666 0.002903 0.000000 0.000000 0.000000
    5 0.000000 2.290614 1.335354 0.000000 0.000000 0.000000
    6 -0.115835 -1.983282 1.652799 0.000000 0.000000 0.000000
    7 -0.194965 1.740244 -0.776688 0.000000 0.000000 0.000000
    8 0.000000 -0.273072 1.043217 0.000000 0.000000 0.000000
    9 11.470110 1.260141 -7.840794 0.759398 -1.815202 -1.191094
    10 -0.071918 -8.498731 -0.104137 0.341620 0.353123 -0.187045
    11 0.270583 -2.982786 0.320373 0.554706 1.379928 0.480518
    12 -0.000001 -1.808650 1.012938 0.000000 0.000000 0.000000
    13 -0.115835 -1.983282 1.652800 0.000000 0.000000 0.000000
    14 0.000000 2.290614 1.335354 0.000000 0.000000 0.000000
    15 0.000001 0.859013 0.002903 0.000000 0.000000 0.000000
    16 -0.194964 1.736338 -0.761062 0.000000 0.000000 0.000000
    17 0.000000 -0.273071 1.043216 0.000000 0.000000 0.000000
    18 -0.586769 -1.264477 0.200164 -0.224469 -0.772272 -2.217911
    19 1.522835 0.058680 0.016850 -0.042975 0.166884 0.909410
    20 1.117947 0.048424 -0.005765 -0.000024 0.000000 0.654951
    21 -0.963867 -2.785143 -0.085346 0.230928 0.199964 -0.171417
    22 0.028478 -1.403067 0.006272 -1.008258 -0.000007 -0.000010
    23 0.021412 -0.957782 0.020047 -0.332307 -0.000003 -0.000008
    24 -0.249534 -2.846963 -0.174215 -0.001196 0.000966 -0.025445
    25 0.043235 -1.683940 0.096015 -2.021659 -0.002971 -0.000336
    26 0.031729 -1.160830 0.058836 -1.017648 0.000000 0.000000
    27 0.447951 -2.798983 -0.200441 -0.016250 0.053282 0.116306
    28 -0.032909 -1.480207 0.004935 -1.783731 0.000000 0.000000
    29 -0.027023 -1.076921 -0.020212 -0.898892 0.000000 0.000000
    30 1.164474 -2.543939 -0.170327 0.050355 -0.000995 -0.002105
    31 0.024033 -1.129040 0.017807 -1.291468 -0.100239 0.187007
    32 0.014896 -0.883992 -0.019846 -1.038734 0.074161 0.017318
    33 -0.138841 -0.113067 0.013658 0.285538 -0.040593 1.576220
    34 0.583509 -1.197274 0.185379 -0.077873 -0.765978 -0.796238
    35 1.535926 0.010247 0.005009 -0.072801 0.036313 -1.031055
    36 1.100770 0.004528 -0.010675 0.000000 0.000000 -0.670693
    37 0.957766 -2.746777 -0.090301 0.169993 -0.051003 0.111154
    38 -0.033419 -1.397128 -0.011255 -0.847717 -0.008988 -0.093743
    39 -0.022361 -0.957433 0.018783 -0.734727 0.000000 0.000000
    40 0.250029 -2.820664 -0.238396 -0.282660 0.057277 -0.106688
    41 -0.049759 -1.680544 0.100479 -2.012794 0.000000 0.000000
    42 -0.034141 -1.148311 0.084779 -1.037503 0.000000 0.000000
    43 -0.488517 -2.755600 -0.228261 -0.195785 0.054586 -0.144146
    44 0.039889 -1.479791 0.029854 -2.042748 0.000000 0.000000
    45 0.028785 -1.075733 -0.023110 -0.841838 0.000000 0.000000
    46 -1.180679 -2.507216 -0.193861 0.008677 0.244088 -0.056758
    47 -0.024967 -1.123934 0.017595 -1.466594 0.000000 0.000000
    48 -0.020058 -0.890965 0.010091 -1.308778 0.000000 0.000000
    49 0.120180 -0.051600 -0.055246 0.287567 -3.172226 1.561008
  time 10
    0 -11.960718 0.864584 -7.922828 0.847156 1.867272 1.276235
    1 0.096946 -8.450420 -0.009364 0.352763 -0.231470 0.212837
    2 -0.192877 -2.997167 0.750521 0.973027 -1.502063 -0.975592
    3 0.000000 -1.808650 1.012937 0.000000 0.000000 0.000000
    4 0.000000 0.706666 0.002903 0.000000 0.000000 0.000000
    5 0.000000 2.290614 1.335354 0.000000 0.000000 0.000000
    6 -0.115835 -1.983282 1.652799 0.000000 0.000000 0.000000
    7 -0.194965 1.740244 -0.776688 0.000000 0.000000 0.000000
    8 0.000000 -0.273072 1.043217 0.000000 0.000000 0.000000
    9 11.470110 1.185920 -7.844701 0.753439 -1.813859 -1.185298
    10 -0.071918 -8.498731 -0.104137 0.342655 0.351561 -0.180680
    11 0.270583 -2.982786 0.320373 0.554706 1.379928 0.480518
    12 -0.000001 -1.808650 1.012938 0.000000 0.000000 0.000000
    13 -0.115835 -1.983282 1.652800 0.000000 0.000000 0.000000
    14 0.000000 2.290614 1.335354 0.000000 0.000000 0.000000
    15 0.000001 0.847294 0.002903 0.000000 0.000000 0.000000
    16 -0.194964 1.736338 -0.761062 0.000000 0.000000 0.000000
    17 0.000000 -0.273071 1.043216 0.000000 0.000000 0.000000
    18 -0.586769 -1.264477 0.200164 -0.224469 -0.772272 -2.217911
    19 1.522835 0.058680 0.016850 -0.042975 0.166884 0.909410
    20 1.117947 0.048424 -0.005765 -0.000024 0.000000 0.654951
    21 -0.963867 -2.785143 -0.085346 0.230928 0.199964 -0.171417
    22 0.028478 -1.403067 0.006272 -1.008258 -0.000007 -0.000010
    23 0.021412 -0.957782 0.020047 -0.332307 -0.000003 -0.000008
    24 -0.249534 -2.846963 -0.174215 -0.001196 0.000966 -0.025445
    25 0.043235 -1.683940 0.096015 -2.021659 -0.002971 -0.000336
    26 0.031729 -1.160830 0.058836 -1.017648 0.000000 0.000000
    27 0.447951 -2.798983 -0.200441 -0.016250 0.053282 0.116306
    28 -0.032909 -1.480207 0.004935 -1.783731 0.000000 0.000000
    29 -0.027023 -1.076921 -0.020212 -0.898892 0.000000 0.000000
    30 1.164474 -2.543939 -0.170327 0.050355 -0.000995 -0.002105
    31 0.024033 -1.129040 0.017807 -1.291468 -0.100239 0.187007
    32 0.014896 -0.883992 -0.019846 -1.038734 0.074161 0.017318
    33 -0.138841 -0.113067 0.013658 0.285538 -0.040593 1.576220
    34 0.583509 -1.197274 0.185379 -0.077873 -0.765978 -0.796238
    35 1.535926 0.010247 0.005009 -0.072801 0.036313 -1.031055
    36 1.100770 0.004528 -0.010675 0.000000 0.000000 -0.670693
    37 0.957766 -2.746777 -0.090301 0.186086 -0.051003 0.111154
    38 -0.033419 -1.397128 -0.011255 -0.810769 -0.005417 -0.093935
    39 -0.022361 -0.957433 0.018783 -0.701852 0.000000 0.000000
    40 0.250029 -2.820664 -0.238396 -0.282660 0.057277 -0.106688
    41 -0.049759 -1.680544 0.100479 -2.012794 0.000000 0.000000
    42 -0.034141 -1.148311 0.084779 -1.037503 0.000000 0.000000
    43 -0.488517 -2.755600 -0.228261 -0.195785 0.054586 -0.144146
    44 0.039889 -1.479791 0.029854 -2.042748 0.000000 0.000000
    45 0.028785 -1.075733 -0.023110 -0.841838 0.000000 0.000000
    46 -1.180679 -2.507216 -0.193861 0.008677 0.244088 -0.056758
    47 -0.024967 -1.123934 0.017595 -1.466594 0.000000 0.000000
    48 -0.020058 -0.890965 0.010091 -1.308778 0.000000 0.000000
    49 0.120180 -0.051600 -0.055246 0.287567 -3.172226 1.561008
  time 11
    0 -11.960718 0.864584 -7.922828 0.847156 1.867272 1.276235
    1 0.096946 -8.450420 -0.009364 0.352763 -0.231470 0.212837
    2 -0.192877 -2.997167 0.750521 0.973027 -1.502063 -0.975592
    3 0.000000 -1.808650 1.012937 0.000000 0.000000 0.000000
    4 0.000000 0.706666 0.002903 0.000000 0.000000 0.000000
    5 0.000000 2.290614 1.335354 0.000000 0.000000 0.000000
    6 -0.115835 -1.983282 1.652799 0.000000 0.000000 0.000000
    7 -0.194965 1.740244 -0.776688 0.000000 0.000000 0.000000
    8 0.000000 -0.273072 1.043217 0.000000 0.000000 0.000000
    9 11.470110 1.131231 -7.852514 0.751547 -1.813411 -1.183429
    10 -0.071918 -8.498731 -0.104137 0.344130 0.347485 -0.167749
    11 0.270583 -2.982786 0.320373 0.554706 1.379928 0.480518
    12 -0.000001 -1.808650 1.012938 0.000000 0.000000 0.000000
    13 -0.115835 -1.983282 1.652800 0.000000 0.000000 0.000000
    14 0.000000 2.290614 1.335354 0.000000 0.000000 0.000000
    15 0.000001 0.839482 0.002903 0.000000 0.000000 0.000000
    16 -0.194964 1.736338 -0.761062 0.000000 0.000000 0.000000
    17 0.000000 -0.273071 1.043216 0.000000 0.000000 0.000000
    18 -0.586769 -1.264477 0.200164 -0.224469 -0.772272 -2.217911
    19 1.522835 0.058680 0.016850 -0.042975 0.166884 0.909410
    20 1.117947 0.048424 -0.005765 -0.000024 0.000000 0.654951
    21 -0.963867 -2.785143 -0.085346 0.230928 0.199964 -0.171417
    22 0.028478 -1.403067 0.006272 -1.008258 -0.000007 -0.000010
    23 0.021412 -0.957782 0.020047 -0.332307 -0.000003 -0.000008
    24 -0.249534 -2.846963 -0.174215 -0.001196 0.000966 -0.025445
    25 0.043235 -1.683940 0.096015 -2.021659 -0.002971 -0.000336
    26 0.031729 -1.160830 0.058836 -1.017648 0.000000 0.000000
    27 0.447951 -2.798983 -0.200441 -0.016250 0.053282 0.116306
    28 -0.032909 -1.480207 0.004935 -1.783731 0.000000 0.000000
    29 -0.027023 -1.076921 -0.020212 -0.898892 0.000000 0.000000
    30 1.164474 -2.543939 -0.170327 0.050355 -0.000995 -0.002105
    31 0.024033 -1.129040 0.017807 -1.291468 -0.100239 0.187007
    32 0.014896 -0.883992 -0.019846 -1.038734 0.074161 0.017318
    33 -0.138841 -0.113067 0.013658 0.285538 -0.040593 1.576220
    34 0.583509 -1.197274 0.185379 -0.077873 -0.765978 -0.796238
    35 1.535926 0.010247 0.005009 -0.072801 0.036313 -1.031055
    36 1.100770 0.004528 -0.010675 0.000000 0.000000 -0.670693
    37 0.957766 -2.746777 -0.090301 0.200586 -0.051003 0.111154
    38 -0.033419 -1.397128 -0.011255 -0.779466 -0.002469 -0.093779
    39 -0.022361 -0.957433 0.018783 -0.671784 0.000000 0.000000
    40 0.250029 -2.820664 -0.238396 -0.282660 0.057277 -0.106688
    41 -0.049759 -1.680544 0.100479 -2.012794 0.000000 0.000000
    42 -0.034141 -1.148311 0.084779 -1.037503 0.000000 0.000000
    43 -0.488517 -2.755600 -0.228261 -0.195785 0.054586 -0.144146
    44 0.039889 -1.479791 0.029854 -2.042748 0.000000 0.000000
    45 0.028785 -1.075733 -0.023110 -0.841838 0.000000 0.000000
    46 -1.180679 -2.507216 -0.193861 0.008677 0.244088 -0.056770
    47 -0.024967 -1.123934 0.017595 -1.466594 0.000000 0.000000
    48 -0.020058 -0.890965 0.010091 -1.308778 0.000000 0.000000
    49 0.120180 -0.051600 -0.055246 0.287567 -3.172226 1.561008
  time 12
    0 -11.960718 0.864584 -7.922828 0.847156 1.867272 1.276235
    1 0.096946 -8.450420 -0.009364 0.352763 -0.231470 0.212837
    2 -0.192877 -2.997167 0.750521 0.973027 -1.502063 -0.975592
    3 0.000000 -1.808650 1.012937 0.000000 0.000000 0.000000
    4 0.000000 0.706666 0.002903 0.000000 0.000000 0.000000
    5 0.000000 2.290614 1.335354 0.000000 0.000000 0.000000
    6 -0.115835 -1.983282 1.652799 0.000000 0.000000 0.000000
    7 -0.194965 1.740244 -0.776688 0.000000 0.000000 0.000000
    8 0.000000 -0.273072 1.043217 0.000000 0.000000 0.000000
    9 11.470110 1.088261 -7.864233 0.752872 -1.813747 -1.184737
    10 -0.071918 -8.498731 -0.104137 0.345837 0.341504 -0.150102
    11 0.270583 -2.982786 0.320373 0.554706 1.379928 0.480518
    12 -0.000001 -1.808650 1.012938 0.000000 0.000000 0.000000
    13 -0.115835 -1.983282 1.652800 0.000000 0.000000 0.000000
    14 0.000000 2.290614 1.335354 0.000000 0.000000 0.000000
    15 0.000001 0.827762 0.002903 0.000000 0.000000 0.000000
    16 -0.194964 1.736338 -0.761062 0.000000 0.000000 0.000000
    17 0.000000 -0.273071 1.043216 0.000000 0.000000 0.000000
    18 -0.586769 -1.264477 0.200164 -0.224469 -0.772272 -2.217911
    19 1.522835 0.058680 0.016850 -0.042975 0.166884 0.909410
    20 1.117947 0.048424 -0.005765 -0.000024 0.000000 0.654951
    21 -0.963867 -2.785143 -0.085346 0.230928 0.199964 -0.171417
    22 0.028478 -1.403067 0.006272 -1.008258 -0.000007 -0.000010
    23 0.021412 -0.957782 0.020047 -0.332307 -0.000003 -0.000008
    24 -0.249534 -2.846963 -0.174215 -0.001196 0.000966 -0.025445
    25 0.043235 -1.683940 0.096015 -2.021659 -0.002971 -0.000336
    26 0.031729 -1.160830 0.058836 -1.017648 0.000000 0.000000
    27 0.447951 -2.798983 -0.200441 -0.016250 0.053282 0.116306
    28 -0.032909 -1.480207 0.004935 -1.783731 0.000000 0.000000
    29 -0.027023 -1.076921 -0.020212 -0.898892 0.000000 0.000000
    30 1.164474 -2.543939 -0.170327 0.050355 -0.000995 -0.002105
    31 0.024033 -1.129040 0.017807 -1.291468 -0.100239 0.187007
    32 0.014896 -0.883992 -0.019846 -1.038734 0.074161 0.017318
    33 -0.138841 -0.113067 0.013658 0.285538 -0.040593 1.576220
    34 0.583509 -1.197274 0.185379 -0.077873 -0.765978 -0.796238
    35 1.535926 0.010247 0.005009 -0.072801 0.036313 -1.031055
    36 1.100770 0.004528 -0.010675 0.000000 0.000000 -0.670693
    37 0.957766 -2.746777 -0.090301 0.211551 -0.051003 0.111154
    38 -0.033419 -1.397128 -0.011255 -0.756631 -0.000467 -0.093264
    39 -0.022361 -0.957433 0.018783 -0.648178 0.000000 0.000000
    40 0.250029 -2.820664 -0.238396 -0.282660 0.057277 -0.106688
    41 -0.049759 -1.680544 0.100479 -2.012794 0.000000 0.000000
    42 -0.034141 -1.148311 0.084779 -1.037503 0.000000 0.000000
    43 -0.488517 -2.755600 -0.228261 -0.195785 0.054586 -0.144146
    44 0.039889 -1.479791 0.029854 -2.042748 0.000000 0.000000
    45 0.028785 -1.075733 -0.023110 -0.841838 0.000000 0.000000
    46 -1.180679 -2.507216 -0.193861 0.008677 0.244088 -0.056758
    47 -0.024967 -1.123934 0.017595 -1.466594 0.000000 0.000000
    48 -0.020058 -0.890965 0.010091 -1.308778 0.000000 0.000000
    49 0.120180 -0.051600 -0.055246 0.287567 -3.172226 1.561008
  time 13
    0 -11.960718 0.864584 -7.922828 0.847156 1.867272 1.276235
    1 0.096946 -8.450420 -0.009364 0.352763 -0.231470 0.212837
    2 -0.192877 -2.997167 0.750521 0.973027 -1.502063 -0.975592
    3 0.000000 -1.808650 1.012937 0.000000 0.000000 0.000000
    4 0.000000 0.706666 0.002903 0.000000 0.000000 0.000000
    5 0.000000 2.290614 1.335354 0.000000 0.000000 0.000000
    6 -0.115835 -1.983282 1.652799 0.000000 0.000000 0.000000
    7 -0.194965 1.740244 -0.776688 0.000000 0.000000 0.000000
    8 0.000000 -0.273072 1.043217 0.000000 0.000000 0.000000
    9 11.470110 1.060916 -7.875952 0.756560 -1.814531 -1.188290
    10 -0.071918 -8.498731 -0.104137 0.347571 0.334285 -0.129441
    11 0.270583 -2.982786 0.320373 0.554706 1.379928 0.480518
    12 -0.000001 -1.808650 1.012938 0.000000 0.000000 0.000000
    13 -0.115835 -1.983282 1.652800 0.000000 0.000000 0.000000
    14 0.000000 2.290614 1.335354 0.000000 0.000000 0.000000
    15 0.000001 0.816043 0.002903 0.000000 0.000000 0.000000
    16 -0.194964 1.736338 -0.761062 0.000000 0.000000 0.000000
    17 0.000000 -0.273071 1.043216 0.000000 0.000000 0.000000
    18 -0.586769 -1.264477 0.200164 -0.224469 -0.772272 -2.217911
    19 1.522835 0.058680 0.016850 -0.042975 0.166884 0.909410
    20 1.117947 0.048424 -0.005765 -0.000024 0.000000 0.654951
    21 -0.963867 -2.785143 -0.085346 0.230928 0.199964 -0.171417
    22 0.028478 -1.403067 0.006272 -1.008258 -0.000007 -0.000010
    23 0.021412 -0.957782 0.020047 -0.332307 -0.000003 -0.000008
    24 -0.249534 -2.846963 -0.174215 -0.001196 0.000966 -0.025445
    25 0.043235 -1.683940 0.096015 -2.021659 -0.002971 -0.000336
    26 0.031729 -1.160830 0.058836 -1.017648 0.000000 0.000000
    27 0.447951 -2.798983 -0.200441 -0.016250 0.053282 0.116306
    28 -0.032909 -1.480207 0.004935 -1.783731 0.000000 0.000000
    29 -0.027023 -1.076921 -0.020212 -0.898892 0.000000 0.000000
    30 1.164474 -2.543939 -0.170327 0.050355 -0.000995 -0.002105
    31 0.024033 -1.129040 0.017807 -1.291468 -0.100239 0.187007
    32 0.014896 -0.883992 -0.019846 -1.038734 0.074161 0.017318
    33 -0.138841 -0.113067 0.013658 0.285538 -0.040593 1.576220
    34 0.583509 -1.197274 0.185379 -0.077873 -0.765978 -0.796238
    35 1.535926 0.010247 0.005009 -0.072801 0.036313 -1.031055
    36 1.100770 0.004528 -0.010675 0.000000 0.000000 -0.670693
    37 0.957766 -2.746777 -0.090301 0.217053 -0.051003 0.111154
    38 -0.033419 -1.397128 -0.011255 -0.744982 0.000276 -0.092329
    39 -0.022361 -0.957433 0.018783 -0.634739 0.000000 0.000000
    40 0.250029 -2.820664 -0.238396 -0.282660 0.057277 -0.106688
    41 -0.049759 -1.680544 0.100479 -2.012794 0.000000 0.000000
    42 -0.034141 -1.148311 0.084779 -1.037503 0.000000 0.000000
    43 -0.488517 -2.755600 -0.228261 -0.195785 0.054586 -0.144146
    44 0.039889 -1.479791 0.029854 -2.042748 0.000000 0.000000
    45 0.028785 -1.075733 -0.023110 -0.841838 0.000000 0.000000
    46 -1.180679 -2.507216 -0.193861 0.008677 0.244088 -0.056770
    47 -0.024967 -1.123934 0.017595 -1.466594 0.000000 0.000000
    48 -0.020058 -0.890965 0.010091 -1.308778 0.000000 0.000000
    49 0.120180 -0.051600 -0.055246 0.287567 -3.172226 1.561008
  time 14
    0 -11.960718 0.864584 -7.922828 0.847156 1.867272 1.276235
    1 0.096946 -8.450420 -0.009364 0.352763 -0.231470 0.212837
    2 -0.192877 -2.997167 0.750521 0.973027 -1.502063 -0.975592
    3 0.000000 -1.808650 1.012937 0.000000 0.000000 0.000000
    4 0.000000 0.706666 0.002903 0.000000 0.000000 0.000000
    5 0.000000 2.290614 1.335354 0.000000 0.000000 0.000000
    6 -0.115835 -1.983282 1.652799 0.000000 0.000000 0.000000
    7 -0.194965 1.740244 -0.776688 0.000000 0.000000 0.000000
    8 0.000000 -0.273072 1.043217 0.000000 0.000000 0.000000
    9 11.470110 1.041384 -7.887671 0.761573 -1.815706 -1.193245
    10 -0.071918 -8.498731 -0.104137 0.349175 0.326457 -0.107559
    11 0.270583 -2.982786 0.320373 0.554706 1.379928 0.480518
    12 -0.000001 -1.808650 1.012938 0.000000 0.000000 0.000000
    13 -0.115835 -1.983282 1.652800 0.000000 0.000000 0.000000
    14 0.000000 2.290614 1.335354 0.000000 0.000000 0.000000
    15 0.000001 0.804324 0.002903 0.000000 0.000000 0.000000
    16 -0.194964 1.736338 -0.761062 0.000000 0.000000 0.000000
    17 0.000000 -0.273071 1.043216 0.000000 0.000000 0.000000
    18 -0.586769 -1.264477 0.200164 -0.224469 -0.772272 -2.217911
    19 1.522835 0.058680 0.016850 -0.042975 0.166884 0.909410
    20 1.117947 0.048424 -0.005765 -0.000024 0.000000 0.654951
    21 -0.963867 -2.785143 -0.085346 0.230928 0.199964 -0.171417
    22 0.028478 -1.403067 0.006272 -1.008258 -0.000007 -0.000010
    23 0.021412 -0.957782 0.020047 -0.332307 -0.000003 -0.000008
    24 -0.249534 -2.846963 -0.174215 -0.001196 0.000966 -0.025445
    25 0.043235 -1.683940 0.096015 -2.021659 -0.002971 -0.000336
    26 0.031729 -1.160830 0.058836 -1.017648 0.000000 0.000000
    27 0.447951 -2.798983 -0.200441 -0.016250 0.053282 0.116306
    28 -0.032909 -1.480207 0.004935 -1.783731 0.000000 0.000000
    29 -0.027023 -1.076921 -0.020212 -0.898892 0.000000 0.000000
    30 1.164474 -2.543939 -0.170327 0.050355 -0.000995 -0.002105
    31 0.024033 -1.129040 0.017807 -1.291468 -0.100239 0.187007
    32 0.014896 -0.883992 -0.019846 -1.038734 0.074161 0.017318
    33 -0.138841 -0.113067 0.013658 0.285538 -0.040593 1.576220
    34 0.583509 -1.197274 0.185379 -0.077873 -0.765978 -0.796238
    35 1.535926 0.010247 0.005009 -0.072801 0.036313 -1.031055
    36 1.100770 0.004528 -0.010675 0.000000 0.000000 -0.670693
    37 0.957766 -2.746777 -0.090301 0.218711 -0.051003 0.111154
    38 -0.033419 -1.397128 -0.011255 -0.741107 0.000156 -0.091143
    39 -0.022361 -0.957433 0.018783 -0.628469 0.000000 0.000000
    40 0.250029 -2.820664 -0.238396 -0.282660 0.057277 -0.106688
    41 -0.049759 -1.680544 0.100479 -2.012794 0.000000 0.000000
    42 -0.034141 -1.148311 0.084779 -1.037503 0.000000 0.000000
    43 -0.488517 -2.755600 -0.228261 -0.195785 0.054586 -0.144146
    44 0.039889 -1.479791 0.029854 -2.042748 0.000000 0.000000
    45 0.028785 -1.075733 -0.023110 -0.841838 0.000000 0.000000
    46 -1.180679 -2.507216 -0.193861 0.008677 0.244088 -0.056770
    47 -0.024967 -1.123934 0.017595 -1.466576 0.000000 0.000000
    48 -0.020058 -0.890965 0.010091 -1.308778 0.000000 0.000000
    49 0.120180 -0.051600 -0.055246 0.287567 -3.172226 1.561008
  time 15
    0 -11.960718 0.864584 -7.922828 0.847156 1.867272 1.276235
    1 0.096946 -8.450420 -0.009364 0.352763 -0.231470 0.212837
    2 -0.192877 -2.997167 0.750521 0.973027 -1.502063 -0.975592
    3 0.000000 -1.808650 1.012937 0.000000 0.000000 0.000000
    4 0.000000 0.706666 0.002903 0.000000 0.000000 0.000000
    5 0.000000 2.290614 1.335354 0.000000 0.000000 0.000000
    6 -0.115835 -1.983282 1.652799 0.000000 0.000000 0.000000
    7 -0.194965 1.740244 -0.776688 0.000000 0.000000 0.000000
    8 0.000000 -0.273072 1.043217 0.000000 0.000000 0.000000
    9 11.470110 1.025759 -7.899390 0.767059 -1.816993 -1.198573
    10 -0.071918 -8.498731 -0.104137 0.350521 0.318685 -0.086160
    11 0.270583 -2.982786 0.320373 0.554706 1.379928 0.480518
    12 -0.000001 -1.808650 1.012938 0.000000 0.000000 0.000000
    13 -0.115835 -1.983282 1.652800 0.000000 0.000000 0.000000
    14 0.000000 2.290614 1.335354 0.000000 0.000000 0.000000
    15 0.000001 0.796511 0.002903 0.000000 0.000000 0.000000
    16 -0.194964 1.736338 -0.761062 0.000000 0.000000 0.000000
    17 0.000000 -0.273071 1.043216 0.000000 0.000000 0.000000
    18 -0.586769 -1.264477 0.200164 -0.224469 -0.772272 -2.217911
    19 1.522835 0.058680 0.016850 -0.042975 0.166884 0.909410
    20 1.117947 0.048424 -0.005765 -0.000024 0.000000 0.654951
    21 -0.963867 -2.785143 -0.085346 0.230928 0.199964 -0.171417
    22 0.028478 -1.403067 0.006272 -1.008258 -0.000007 -0.000010
    23 0.021412 -0.957782 0.020047 -0.332307 -0.000003 -0.000008
    24 -0.249534 -2.846963 -0.174215 -0.001196 0.000966 -0.025445
    25 0.043235 -1.683940 0.096015 -2.021659 -0.002971 -0.000336
    26 0.031729 -1.160830 0.058836 -1.017648 0.000000 0.000000
    27 0.447951 -2.798983 -0.200441 -0.016250 0.053282 0.116306
    28 -0.032909 -1.480207 0.004935 -1.783731 0.000000 0.000000
    29 -0.027023 -1.076921 -0.020212 -0.898892 0.000000 0.000000
    30 1.164474 -2.543939 -0.170327 0.050355 -0.000995 -0.002105
    31 0.024033 -1.129040 0.017807 -1.291468 -0.100239 0.187007
    32 0.014896 -0.883992 -0.019846 -1.038734 0.074161 0.017318
    33 -0.138841 -0.113067 0.013658 0.285538 -0.040593 1.576220
    34 0.583509 -1.197274 0.185379 -0.077873 -0.765978 -0.796238
    35 1.535926 0.010247 0.005009 -0.072801 0.036313 -1.031055
    36 1.100770 0.004528 -0.010675 0.000000 0.000000 -0.670693
    37 0.957766 -2.746777 -0.090301 0.219482 -0.051003 0.111154
    38 -0.033419 -1.397128 -0.011255 -0.739568 -0.000216 -0.089872
    39 -0.022361 -0.957433 0.018783 -0.623835 0.000000 0.000000
    40 0.250029 -2.820664 -0.238396 -0.282660 0.057277 -0.106688
    41 -0.049759 -1.680544 0.100479 -2.012794 0.000000 0.000000
    42 -0.034141 -1.148311 0.084779 -1.037503 0.000000 0.000000
    43 -0.488517 -2.755600 -0.228261 -0.195785 0.054586 -0.144146
    44 0.039889 -1.479791 0.029854 -2.042748 0.000000 0.000000
    45 0.028785 -1.075733 -0.023110 -0.841838 0.000000 0.000000
    46 -1.180679 -2.507216 -0.193861 0.008677 0.244088 -0.056770
    47 -0.024967 -1.123934 0.017595 -1.466576 0.000000 0.000000
    48 -0.020058 -0.890965 0.010091 -1.308778 0.000000 0.000000
    49 0.120180 -0.051600 -0.055246 0.287567 -3.172226 1.561008
  time 16
    0 -11.960718 0.864584 -7.922828 0.847156 1.867272 1.276235
    1 0.096946 -8.450420 -0.009364 0.352763 -0.231470 0.212837
    2 -0.192877 -2.997167 0.750521 0.973027 -1.502063 -0.975592
    3 0.000000 -1.808650 1.012937 0.000000 0.000000 0.000000
    4 0.000000 0.706666 0.002903 0.000000 0.000000 0.000000
    5 0.000000 2.290614 1.335354 0.000000 0.000000 0.000000
    6 -0.115835 -1.983282 1.652799 0.000000 0.000000 0.000000
    7 -0.194965 1.740244 -0.776688 0.000000 0.000000 0.000000
    8 0.000000 -0.273072 1.043217 0.000000 0.000000 0.000000
    9 11.470110 1.010133 -7.911109 0.772166 -1.818169 -1.203434
    10 -0.071918 -8.498731 -0.104137 0.351582 0.311657 -0.066950
    11 0.270583 -2.982786 0.320373 0.554706 1.379928 0.480518
    12 -0.000001 -1.808650 1.012938 0.000000 0.000000 0.000000
    13 -0.115835 -1.983282 1.652800 0.000000 0.000000 0.000000
    14 0.000000 2.290614 1.335354 0.000000 0.000000 0.000000
    15 0.000001 0.784792 0.002903 0.000000 0.000000 0.000000
    16 -0.194964 1.736338 -0.761062 0.000000 0.000000 0.000000
    17 0.000000 -0.273071 1.043216 0.000000 0.000000 0.000000
    18 -0.586769 -1.264477 0.200164 -0.224469 -0.772272 -2.217911
    19 1.522835 0.058680 0.016850 -0.042975 0.166884 0.909410
    20 1.117947 0.048424 -0.005765 -0.000024 0.000000 0.654951
    21 -0.963867 -2.785143 -0.085346 0.230928 0.199964 -0.171417
    22 0.028478 -1.403067 0.006272 -1.008258 -0.000007 -0.000010
    23 0.021412 -0.957782 0.020047 -0.332307 -0.000003 -0.000008
    24 -0.249534 -2.846963 -0.174215 -0.001196 0.000966 -0.025445
    25 0.043235 -1.683940 0.096015 -2.021659 -0.002971 -0.000336
    26 0.031729 -1.160830 0.058836 -1.017648 0.000000 0.000000
    27 0.447951 -2.798983 -0.200441 -0.016250 0.053282 0.116306
    28 -0.032909 -1.480207 0.004935 -1.783731 0.000000 0.000000
    29 -0.027023 -1.076921 -0.020212 -0.898892 0.000000 0.000000
    30 1.164474 -2.543939 -0.170327 0.050355 -0.000995 -0.002105
    31 0.024033 -1.129040 0.017807 -1.291468 -0.100239 0.187007
    32 0.014896 -0.883992 -0.019846 -1.038734 0.074161 0.017318
    33 -0.138841 -0.113067 0.013658 0.285538 -0.040593 1.576220
    34 0.583509 -1.197274 0.185379 -0.077873 -0.765978 -0.796238
    35 1.535926 0.010247 0.005009 -0.072801 0.036313 -1.031055
    36 1.100770 0.004528 -0.010675 0.000000 0.000000 -0.670693
    37 0.957766 -2.746777 -0.090301 0.219431 -0.051003 0.111154
    38 -0.033419 -1.397128 -0.011255 -0.740132 -0.000815 -0.088530
    39 -0.022361 -0.957433 0.018783 -0.620673 0.000000 0.000000
    40 0.250029 -2.820664 -0.238396 -0.282660 0.057277 -0.106688
    41 -0.049759 -1.680544 0.100479 -2.012794 0.000000 0.000000
    42 -0.034141 -1.148311 0.084779 -1.037503 0.000000 0.000000
    43 -0.488517 -2.755600 -0.228261 -0.195785 0.054586 -0.144146
    44 0.039889 -1.479791 0.029854 -2.042748 0.000000 0.000000
    45 0.028785 -1.075733 -0.023110 -0.841838 0.000000 0.000000
    46 -1.180679 -2.507216 -0.193861 0.008677 0.244088 -0.056770
    47 -0.024967 -1.123934 0.017595 -1.466576 0.000000 0.000000
    48 -0.020058 -0.890965 0.010091 -1.308778 0.000000 0.000000
    49 0.120180 -0.051600 -0.055246 0.287567 -3.172226 1.561008
  time 17
    0 -11.960718 0.864584 -7.922828 0.847156 1.867272 1.276235
    1 0.096946 -8.450420 -0.009364 0.352763 -0.231470 0.212837
    2 -0.192877 -2.997167 0.750521 0.973027 -1.502063 -0.975592
    3 0.000000 -1.808650 1.012937 0.000000 0.000000 0.000000
    4 0.000000 0.706666 0.002903 0.000000 0.000000 0.000000
    5 0.000000 2.290614 1.335354 0.000000 0.000000 0.000000
    6 -0.115835 -1.983282 1.652799 0.000000 0.000000 0.000000
    7 -0.194965 1.740244 -0.776688 0.000000 0.000000 0.000000
    8 0.000000 -0.273072 1.043217 0.000000 0.000000 0.000000
    9 11.470110 0.998414 -7.918922 0.775949 -1.819064 -1.207174
    10 -0.071918 -8.498731 -0.104137 0.352332 0.306057 -0.051604
    11 0.270583 -2.982786 0.320373 0.554706 1.379928 0.480518
    12 -0.000001 -1.808650 1.012938 0.000000 0.000000 0.000000
    13 -0.115835 -1.983282 1.652800 0.000000 0.000000 0.000000
    14 0.000000 2.290614 1.335354 0.000000 0.000000 0.000000
    15 0.000001 0.776980 0.002903 0.000000 0.000000 0.000000
    16 -0.194964 1.736338 -0.761062 0.000000 0.000000 0.000000
    17 0.000000 -0.273071 1.043216 0.000000 0.000000 0.000000
    18 -0.586769 -1.264477 0.200164 -0.224469 -0.772272 -2.217911
    19 1.522835 0.058680 0.016850 -0.042975 0.166884 0.909410
    20 1.117947 0.048424 -0.005765 -0.000024 0.000000 0.654951
    21 -0.963867 -2.785143 -0.085346 0.230928 0.199964 -0.171417
    22 0.028478 -1.403067 0.006272 -1.008258 -0.000007 -0.000010
    23 0.021412 -0.957782 0.020047 -0.332307 -0.000003 -0.000008
    24 -0.249534 -2.846963 -0.174215 -0.001196 0.000966 -0.025445
    25 0.043235 -1.683940 0.096015 -2.021659 -0.002971 -0.000336
    26 0.031729 -1.160830 0.058836 -1.017648 0.000000 0.000000
    27 0.447951 -2.798983 -0.200441 -0.016250 0.053282 0.116306
    28 -0.032909 -1.480207 0.004935 -1.783731 0.000000 0.000000
    29 -0.027023 -1.076921 -0.020212 -0.898892 0.000000 0.000000
    30 1.164474 -2.543939 -0.170327 0.050355 -0.000995 -0.002105
    31 0.024033 -1.129040 0.017807 -1.291468 -0.100239 0.187007
    32 0.014896 -0.883992 -0.019846 -1.038734 0.074161 0.017318
    33 -0.138841 -0.113067 0.013658 0.285538 -0.040593 1.576220
    34 0.583509 -1.197274 0.185379 -0.077873 -0.765978 -0.796238
    35 1.535926 0.010247 0.005009 -0.072801 0.036325 -1.031055
    36 1.100770 0.004528 -0.010675 0.000000 0.000000 -0.670693
    37 0.957766 -2.746777 -0.090301 0.218672 -0.051003 0.111154
    38 -0.033419 -1.397128 -0.011255 -0.742570 -0.001618 -0.087128
    39 -0.022361 -0.957433 0.018783 -0.618819 0.000000 0.000000
    40 0.250029 -2.820664 -0.238396 -0.282660 0.057277 -0.106688
    41 -0.049759 -1.680544 0.100479 -2.012794 0.000000 0.000000
    42 -0.034141 -1.148311 0.084779 -1.037503 0.000000 0.000000
    43 -0.488517 -2.755600 -0.228261 -0.195785 0.054586 -0.144146
    44 0.039889 -1.479791 0.029854 -2.042748 0.000000 0.000000
    45 0.028785 -1.075733 -0.023110 -0.841838 0.000000 0.000000
    46 -1.180679 -2.507216 -0.193861 0.008677 0.244088 -0.056770
    47 -0.024967 -1.123934 0.017595 -1.466576 0.000000 0.000000
    48 -0.020058 -0.890965 0.010091 -1.308778 0.000000 0.000000
    49 0.120180 -0.051600 -0.055246 0.287567 -3.172226 1.561008
  time 18
    0 -11.960718 0.864584 -7.922828 0.847156 1.867272 1.276235
    1 0.096946 -8.450420 -0.009364 0.352763 -0.231470 0.212837
    2 -0.192877 -2.997167 0.750521 0.973027 -1.502063 -0.975592
    3 0.000000 -1.808650 1.012937 0.000000 0.000000 0.000000
    4 0.000000 0.706666 0.002903 0.000000 0.000000 0.000000
    5 0.000000 2.290614 1.335354 0.000000 0.000000 0.000000
    6 -0.115835 -1.983282 1.652799 0.000000 0.000000 0.000000
    7 -0.194965 1.740244 -0.776688 0.000000 0.000000 0.000000
    8 0.000000 -0.273072 1.043217 0.000000 0.000000 0.000000
    9 11.470110 0.978882 -7.922828 0.777557 -1.819456 -1.208763
    10 -0.071918 -8.498731 -0.104137 0.352798 0.302533 -0.041828
    11 0.270583 -2.982786 0.320373 0.554706 1.379928 0.480518
    12 -0.000001 -1.808650 1.012938 0.000000 0.000000 0.000000
    13 -0.115835 -1.983282 1.652800 0.000000 0.000000 0.000000
    14 0.000000 2.290614 1.335354 0.000000 0.000000 0.000000
    15 0.000001 0.765261 0.002903 0.000000 0.000000 0.000000
    16 -0.194964 1.736338 -0.761062 0.000000 0.000000 0.000000
    17 0.000000 -0.273071 1.043216 0.000000 0.000000 0.000000
    18 -0.586769 -1.264477 0.200164 -0.224469 -0.772272 -2.217911
    19 1.522835 0.058680 0.016850 -0.042975 0.166884 0.909410
    20 1.117947 0.048424 -0.005765 -0.000024 0.000000 0.654951
    21 -0.963867 -2.785143 -0.085346 0.230928 0.199964 -0.171417
    22 0.028478 -1.403067 0.006272 -1.008258 -0.000007 -0.000010
    23 0.021412 -0.957782 0.020047 -0.332307 -0.000003 -0.000008
    24 -0.249534 -2.846963 -0.174215 -0.001196 0.000966 -0.025445
    25 0.043235 -1.683940 0.096015 -2.021659 -0.002971 -0.000336
    26 0.031729 -1.160830 0.058836 -1.017648 0.000000 0.000000
    27 0.447951 -2.798983 -0.200441 -0.016250 0.053282 0.116306
    28 -0.032909 -1.480207 0.004935 -1.783731 0.000000 0.000000
    29 -0.027023 -1.076921 -0.020212 -0.898892 0.000000 0.000000
    30 1.164474 -2.543939 -0.170327 0.050355 -0.000995 -0.002105
    31 0.024033 -1.129040 0.017807 -1.291468 -0.100239 0.187007
    32 0.014896 -0.883992 -0.019846 -1.038734 0.074161 0.017318
    33 -0.138841 -0.113067 0.013658 0.285538 -0.040593 1.576220
    34 0.583509 -1.197274 0.185379 -0.077873 -0.765978 -0.796238
    35 1.535926 0.010247 0.005009 -0.072801 0.036325 -1.031055
    36 1.100770 0.004528 -0.010675 0.000000 0.000000 -0.670693
    37 0.957766 -2.746777 -0.090301 0.217284 -0.051003 0.111154
    38 -0.033419 -1.397128 -0.011255 -0.746650 -0.002601 -0.085666
    39 -0.022361 -0.957433 0.018783 -0.618110 0.000000 0.000000
    40 0.250029 -2.820664 -0.238396 -0.282660 0.057277 -0.106688
    41 -0.049759 -1.680544 0.100479 -2.012794 0.000000 0.000000
    42 -0.034141 -1.148311 0.084779 -1.037503 0.000000 0.000000
    43 -0.488517 -2.755600 -0.228261 -0.195785 0.054586 -0.144146
    44 0.039889 -1.479791 0.029854 -2.042748 0.000000 0.000000
    45 0.028785 -1.075733 -0.023110 -0.841838 0.000000 0.000000
    46 -1.180679 -2.507216 -0.193861 0.008677 0.244088 -0.056770
    47 -0.024967 -1.123934 0.017595 -1.466576 0.000000 0.000000
    48 -0.020058 -0.890965 0.010091 -1.308778 0.000000 0.000000
    49 0.120180 -0.051600 -0.055246 0.287567 -3.172226 1.561008
  time 19
    0 -11.960718 0.864584 -7.922828 0.847156 1.867272 1.276235
    1 0.096946 -8.450420 -0.009364 0.352763 -0.231470 0.212837
    2 -0.192877 -2.997167 0.750521 0.973027 -1.502063 -0.975592
    3 0.000000 -1.808650 1.012937 0.000000 0.000000 0.000000
    4 0.000000 0.706666 0.002903 0.000000 0.000000 0.000000
    5 0.000000 2.290614 1.335354 0.000000 0.000000 0.000000
    6 -0.115835 -1.983282 1.652799 0.000000 0.000000 0.000000
    7 -0.194965 1.740244 -0.776688 0.000000 0.000000 0.000000
    8 0.000000 -0.273072 1.043217 0.000000 0.000000 0.000000
    9 11.470110 0.963257 -7.922828 0.777746 -1.819512 -1.209044
    10 -0.071918 -8.498731 -0.104137 0.353083 0.300647 -0.036429
    11 0.270583 -2.982786 0.320373 0.554706 1.379928 0.480518
    12 -0.000001 -1.808650 1.012938 0.000000 0.000000 0.000000
    13 -0.115835 -1.983282 1.652800 0.000000 0.000000 0.000000
    14 0.000000 2.290614 1.335354 0.000000 0.000000 0.000000
    15 0.000001 0.757448 0.002903 0.000000 0.000000 0.000000
    16 -0.194964 1.736338 -0.761062 0.000000 0.000000 0.000000
    17 0.000000 -0.273071 1.043216 0.000000 0.000000 0.000000
    18 -0.586769 -1.264477 0.200164 -0.224469 -0.772272 -2.217911
    19 1.522835 0.058680 0.016850 -0.042975 0.166884 0.909410
    20 1.117947 0.048424 -0.005765 -0.000024 0.000000 0.654951
    21 -0.963867 -2.785143 -0.085346 0.230928 0.199964 -0.171417
    22 0.028478 -1.403067 0.006272 -1.008258 -0.000007 -0.000010
    23 0.021412 -0.957782 0.020047 -0.332307 -0.000003 -0.000008
    24 -0.249534 -2.846963 -0.174215 -0.001196 0.000966 -0.025445
    25 0.043235 -1.683940 0.096015 -2.021659 -0.002971 -0.000336
    26 0.031729 -1.160830 0.058836 -1.017648 0.000000 0.000000
    27 0.447951 -2.798983 -0.200441 -0.016250 0.053282 0.116306
    28 -0.032909 -1.480207 0.004935 -1.783731 0.000000 0.000000
    29 -0.027023 -1.076921 -0.020212 -0.898892 0.000000 0.000000
    30 1.164474 -2.543939 -0.170327 0.050355 -0.000995 -0.002105
    31 0.024033 -1.129040 0.017807 -1.291468 -0.100239 0.187007
    32 0.014896 -0.883992 -0.019846 -1.038734 0.074161 0.017318
    33 -0.138841 -0.113067 0.013658 0.285538 -0.040593 1.576220
    34 0.583509 -1.197274 0.185379 -0.077873 -0.765978 -0.796238
    35 1.535926 0.010247 0.005009 -0.072801 0.036325 -1.031055
    36 1.100770 0.004528 -0.010675 0.000000 0.000000 -0.670693
    37 0.957766 -2.746777 -0.090301 0.215343 -0.051003 0.111154
    38 -0.033419 -1.397128 -0.011255 -0.752140 -0.003727 -0.084156
    39 -0.022361 -0.957433 0.018783 -0.618410 0.000000 0.000000
    40 0.250029 -2.820664 -0.238396 -0.282660 0.057277 -0.106688
    41 -0.049759 -1.680544 0.100479 -2.012794 0.000000 0.000000
    42 -0.034141 -1.148311 0.084779 -1.037503 0.000000 0.000000
    43 -0.488517 -2.755600 -0.228261 -0.195785 0.054586 -0.144146
    44 0.039889 -1.479791 0.029854 -2.042748 0.000000 0.000000
    45 0.028785 -1.075733 -0.023110 -0.841838 0.000000 0.000000
    46 -1.180679 -2.507216 -0.193861 0.008677 0.244088 -0.056770
    47 -0.024967 -1.123934 0.017595 -1.466576 0.000000 0.000000
    48 -0.020058 -0.890965 0.010091 -1.308778 0.000000 0.000000
    49 0.120180 -0.051600 -0.055246 0.287567 -3.172226 1.561008
  time 20
    0 -11.960718 0.864584 -7.922828 0.847156 1.867272 1.276235
    1 0.096946 -8.450420 -0.009364 0.352763 -0.231470 0.212837
    2 -0.192877 -2.997167 0.750521 0.973027 -1.502063 -0.975592
    3 0.000000 -1.808650 1.012937 0.000000 0.000000 0.000000
    4 0.000000 0.706666 0.002903 0.000000 0.000000 0.000000
    5 0.000000 2.290614 1.335354 0.000000 0.000000 0.000000
    6 -0.115835 -1.983282 1.652799 0.000000 0.000000 0.000000
    7 -0.194965 1.740244 -0.776688 0.000000 0.000000 0.000000
    8 0.000000 -0.273072 1.043217 0.000000 0.000000 0.000000
    9 11.470110 0.951538 -7.926735 0.777935 -1.819568 -1.209231
    10 -0.071918 -8.498731 -0.104137 0.353264 0.299409 -0.032876
    11 0.270583 -2.982786 0.320373 0.554706 1.379928 0.480518
    12 -0.000001 -1.808650 1.012938 0.000000 0.000000 0.000000
    13 -0.115835 -1.983282 1.652800 0.000000 0.000000 0.000000
    14 0.000000 2.290614 1.335354 0.000000 0.000000 0.000000
    15 0.000001 0.749635 0.002903 0.000000 0.000000 0.000000
    16 -0.194964 1.736338 -0.761062 0.000000 0.000000 0.000000
    17 0.000000 -0.273071 1.043216 0.000000 0.000000 0.000000
    18 -0.586769 -1.264477 0.200164 -0.224469 -0.772272 -2.217911
    19 1.522835 0.058680 0.016850 -0.042975 0.166884 0.909410
    20 1.117947 0.048424 -0.005765 -0.000024 0.000000 0.654951
    21 -0.963867 -2.785143 -0.085346 0.230928 0.199964 -0.171417
    22 0.028478 -1.403067 0.006272 -1.008258 -0.000007 -0.000010
    23 0.021412 -0.957782 0.020047 -0.332307 -0.000003 -0.000008
    24 -0.249534 -2.846963 -0.174215 -0.001196 0.000966 -0.025445
    25 0.043235 -1.683940 0.096015 -2.021659 -0.002971 -0.000336
    26 0.031729 -1.160830 0.058836 -1.017648 0.000000 0.000000
    27 0.447951 -2.798983 -0.200441 -0.016250 0.053282 0.116306
    28 -0.032909 -1.480207 0.004935 -1.783731 0.000000 0.000000
    29 -0.027023 -1.076921 -0.020212 -0.898892 0.000000 0.000000
    30 1.164474 -2.543939 -0.170327 0.050355 -0.000995 -0.002105
    31 0.024033 -1.129040 0.017807 -1.291468 -0.100239 0.187007
    32 0.014896 -0.883992 -0.019846 -1.038734 0.074161 0.017318
    33 -0.138841 -0.113067 0.013658 0.285538 -0.040593 1.576220
    34 0.583509 -1.197274 0.185379 -0.077873 -0.765978 -0.796238
    35 1.535926 0.010247 0.005009 -0.072801 0.036325 -1.031055
    36 1.100770 0.004528 -0.010675 0.000000 0.000000 -0.670693
    37 0.957766 -2.746777 -0.090301 0.212939 -0.051003 0.111154
    38 -0.033419 -1.397128 -0.011255 -0.758863 -0.004962 -0.082586
    39 -0.022361 -0.957433 0.018783 -0.619528 0.000000 0.000000
    40 0.250029 -2.820664 -0.238396 -0.282660 0.057277 -0.106688
    41 -0.049759 -1.680544 0.100479 -2.012794 0.000000 0.000000
    42 -0.034141 -1.148311 0.084779 -1.037503 0.000000 0.000000
    43 -0.488517 -2.755600 -0.228261 -0.195785 0.054586 -0.144146
    44 0.039889 -1.479791 0.029854 -2.042748 0.000000 0.000000
    45 0.028785 -1.075733 -0.023110 -0.841838 0.000000 0.000000
    46 -1.180679 -2.507216 -0.193861 0.008677 0.244088 -0.056770
    47 -0.024967 -1.123934 0.017595 -1.466576 0.000000 0.000000
    48 -0.020058 -0.890965 0.010091 -1.308778 0.000000 0.000000
    49 0.120180 -0.051600 -0.055246 0.287567 -3.172226 1.561008
  time 21
    0 -11.960718 0.864584 -7.922828 0.847156 1.867272 1.276235
    1 0.096946 -8.450420 -0.009364 0.352763 -0.231470 0.212837
    2 -0.192877 -2.997167 0.750521 0.973027 -1.502063 -0.975592
    3 0.000000 -1.808650 1.012937 0.000000 0.000000 0.000000
    4 0.000000 0.706666 0.002903 0.000000 0.000000 0.000000
    5 0.000000 2.290614 1.335354 0.000000 0.000000 0.000000
    6 -0.115835 -1.983282 1.652799 0.000000 0.000000 0.000000
    7 -0.194965 1.740244 -0.776688 0.000000 0.000000 0.000000
    8 0.000000 -0.273072 1.043217 0.000000 0.000000 0.000000
    9 11.470110 0.943725 -7.926735 0.778030 -1.819568 -1.209324
    10 -0.071918 -8.498731 -0.104137 0.353367 0.298724 -0.030972
    11 0.270583 -2.982786 0.320373 0.554706 1.379928 0.480518
    12 -0.000001 -1.808650 1.012938 0.000000 0.000000 0.000000
    13 -0.115835 -1.983282 1.652800 0.000000 0.000000 0.000000
    14 0.000000 2.290614 1.335354 0.000000 0.000000 0.000000
    15 0.000001 0.741822 0.002903 0.000000 0.000000 0.000000
    16 -0.194964 1.736338 -0.761062 0.000000 0.000000 0.000000
    17 0.000000 -0.273071 1.043216 0.000000 0.000000 0.000000
    18 -0.586769 -1.264477 0.200164 -0.224469 -0.772272 -2.217911
    19 1.522835 0.058680 0.016850 -0.042975 0.166884 0.909410
    20 1.117947 0.048424 -0.005765 -0.000024 0.000000 0.654951
    21 -0.963867 -2.785143 -0.085346 0.230928 0.199964 -0.171417
    22 0.028478 -1.403067 0.006272 -1.008258 -0.000007 -0.000010
    23 0.021412 -0.957782 0.020047 -0.332307 -0.000003 -0.000008
    24 -0.249534 -2.846963 -0.174215 -0.001196 0.000966 -0.025445
    25 0.043235 -1.683940 0.096015 -2.021659 -0.002971 -0.000336
    26 0.031729 -1.160830 0.058836 -1.017648 0.000000 0.000000
    27 0.447951 -2.798983 -0.200441 -0.016250 0.053282 0.116306
    28 -0.032909 -1.480207 0.004935 -1.783731 0.000000 0.000000
    29 -0.027023 -1.076921 -0.020212 -0.898892 0.000000 0.000000
    30 1.164474 -2.543939 -0.170327 0.050355 -0.000995 -0.002105
    31 0.024033 -1.129040 0.017807 -1.291468 -0.100239 0.187007
    32 0.014896 -0.883992 -0.019846 -1.038734 0.074161 0.017318
    33 -0.138841 -0.113067 0.013658 0.285538 -0.040593 1.576220
    34 0.583509 -1.197274 0.185379 -0.077873 -0.765978 -0.796238
    35 1.535926 0.010247 0.005009 -0.072801 0.036325 -1.031055
    36 1.100770 0.004528 -0.010675 0.000000 0.000000 -0.670693
    37 0.957766 -2.746777 -0.090301 0.210163 -0.051003 0.111154
    38 -0.033419 -1.397128 -0.011255 -0.766509 -0.006292 -0.080980
    39 -0.022361 -0.957433 0.018783 -0.621327 0.000000 0.000000
    40 0.250029 -2.820664 -0.238396 -0.282660 0.057277 -0.106688
    41 -0.049759 -1.680544 0.100479 -2.012794 0.000000 0.000000
    42 -0.034141 -1.148311 0.084779 -1.037503 0.000000 0.000000
    43 -0.488517 -2.755600 -0.228261 -0.195785 0.054586 -0.144146
    44 0.039889 -1.479791 0.029854 -2.042748 0.000000 0.000000
    45 0.028785 -1.075733 -0.023110 -0.841838 0.000000 0.000000
    46 -1.180679 -2.507216 -0.193861 0.008677 0.244088 -0.056770
    47 -0.024967 -1.123934 0.017595 -1.466576 0.000000 0.000000
    48 -0.020058 -0.890965 0.010091 -1.308778 0.000000 0.000000
    49 0.120180 -0.051600 -0.055246 0.287567 -3.172226 1.561008
  time 22
    0 -11.960718 0.864584 -7.922828 0.847156 1.867272 1.276235
    1 0.096946 -8.450420 -0.009364 0.352763 -0.231470 0.212837
    2 -0.192877 -2.997167 0.750521 0.973027 -1.502063 -0.975592
    3 0.000000 -1.808650 1.012937 0.000000 0.000000 0.000000
    4 0.000000 0.706666 0.002903 0.000000 0.000000 0.000000
    5 0.000000 2.290614 1.335354 0.000000 0.000000 0.000000
    6 -0.115835 -1.983282 1.652799 0.000000 0.000000 0.000000
    7 -0.194965 1.740244 -0.776688 0.000000 0.000000 0.000000
    8 0.000000 -0.273072 1.043217 0.000000 0.000000 0.000000
    9 11.470110 0.943725 -7.930641 0.778124 -1.819568 -1.209324
    10 -0.071918 -8.498731 -0.104137 0.353393 0.298533 -0.030375
    11 0.270583 -2.982786 0.320373 0.554706 1.379928 0.480518
    12 -0.000001 -1.808650 1.012938 0.000000 0.000000 0.000000
    13 -0.115835 -1.983282 1.652800 0.000000 0.000000 0.000000
    14 0.000000 2.290614 1.335354 0.000000 0.000000 0.000000
    15 0.000001 0.734010 0.002903 0.000000 0.000000 0.000000
    16 -0.194964 1.736338 -0.761062 0.000000 0.000000 0.000000
    17 0.000000 -0.273071 1.043216 0.000000 0.000000 0.000000
    18 -0.586769 -1.264477 0.200164 -0.224469 -0.772272 -2.217911
    19 1.522835 0.058680 0.016850 -0.042975 0.166884 0.909410
    20 1.117947 0.048424 -0.005765 -0.000024 0.000000 0.654951
    21 -0.963867 -2.785143 -0.085346 0.230928 0.199964 -0.171417
    22 0.028478 -1.403067 0.006272 -1.008258 -0.000007 -0.000010
    23 0.021412 -0.957782 0.020047 -0.332307 -0.000003 -0.000008
    24 -0.249534 -2.846963 -0.174215 -0.001196 0.000966 -0.025445
    25 0.043235 -1.683940 0.096015 -2.021659 -0.002971 -0.000336
    26 0.031729 -1.160830 0.058836 -1.017648 0.000000 0.000000
    27 0.447951 -2.798983 -0.200441 -0.016250 0.053282 0.116306
    28 -0.032909 -1.480207 0.004935 -1.783731 0.000000 0.000000
    29 -0.027023 -1.076921 -0.020212 -0.898892 0.000000 0.000000
    30 1.164474 -2.543939 -0.170327 0.050355 -0.000995 -0.002105
    31 0.024033 -1.129040 0.017807 -1.291468 -0.100239 0.187007
    32 0.014896 -0.883992 -0.019846 -1.038734 0.074161 0.017318
    33 -0.138841 -0.113067 0.013658 0.285538 -0.040593 1.576220
    34 0.583509 -1.197274 0.185379 -0.077873 -0.765978 -0.796238
    35 1.535926 0.010247 0.005009 -0.072801 0.036325 -1.031055
    36 1.100770 0.004528 -0.010675 0.000000 0.000000 -0.670693
    37 0.957766 -2.746777 -0.090301 0.207090 -0.051003 0.111154
    38 -0.033419 -1.397128 -0.011255 -0.774951 -0.007694 -0.079338
    39 -0.022361 -0.957433 0.018783 -0.623671 0.000000 0.000000
    40 0.250029 -2.820664 -0.238396 -0.282660 0.057277 -0.106688
    41 -0.049759 -1.680544 0.100479 -2.012794 0.000000 0.000000
    42 -0.034141 -1.148311 0.084779 -1.037503 0.000000 0.000000
    43 -0.488517 -2.755600 -0.228261 -0.195785 0.054586 -0.144146
    44 0.039889 -1.479791 0.029854 -2.042748 0.000000 0.000000
    45 0.028785 -1.075733 -0.023110 -0.841838 0.000000 0.000000
    46 -1.180679 -2.507216 -0.193861 0.008677 0.244088 -0.056770
    47 -0.024967 -1.123934 0.017595 -1.466576 0.000000 0.000000
    48 -0.020058 -0.890965 0.010091 -1.308778 0.000000 0.000000
    49 0.120180 -0.051600 -0.055246 0.287567 -3.172226 1.561008
  time 23
    0 -11.960718 0.864584 -7.922828 0.847156 1.867272 1.276235
    1 0.096946 -8.450420 -0.009364 0.352763 -0.231470 0.212837
    2 -0.192877 -2.997167 0.750521 0.973027 -1.502063 -0.975592
    3 0.000000 -1.808650 1.012937 0.000000 0.000000 0.000000
    4 0.000000 0.706666 0.002903 0.000000 0.000000 0.000000
    5 0.000000 2.290614 1.335354 0.000000 0.000000 0.000000
    6 -0.115835 -1.983282 1.652799 0.000000 0.000000 0.000000
    7 -0.194965 1.740244 -0.776688 0.000000 0.000000 0.000000
    8 0.000000 -0.273072 1.043217 0.000000 0.000000 0.000000
    9 11.470110 0.943725 -7.926735 0.778124 -1.819568 -1.209324
    10 -0.071918 -8.498731 -0.104137 0.353367 0.298704 -0.030887
    11 0.270583 -2.982786 0.320373 0.554706 1.379928 0.480518
    12 -0.000001 -1.808650 1.012938 0.000000 0.000000 0.000000
    13 -0.115835 -1.983282 1.652800 0.000000 0.000000 0.000000
    14 0.000000 2.290614 1.335354 0.000000 0.000000 0.000000
    15 0.000001 0.726197 0.002903 0.000000 0.000000 0.000000
    16 -0.194964 1.736338 -0.761062 0.000000 0.000000 0.000000
    17 0.000000 -0.273071 1.043216 0.000000 0.000000 0.000000
    18 -0.586769 -1.264477 0.200164 -0.224469 -0.772272 -2.217911
    19 1.522835 0.058680 0.016850 -0.042975 0.166884 0.909410
    20 1.117947 0.048424 -0.005765 -0.000024 0.000000 0.654951
    21 -0.963867 -2.785143 -0.085346 0.230928 0.199964 -0.171417
    22 0.028478 -1.403067 0.006272 -1.008258 -0.000007 -0.000010
    23 0.021412 -0.957782 0.020047 -0.332307 -0.000003 -0.000008
    24 -0.249534 -2.846963 -0.174215 -0.001196 0.000966 -0.025445
    25 0.043235 -1.683940 0.096015 -2.021659 -0.002971 -0.000336
    26 0.031729 -1.160830 0.058836 -1.017648 0.000000 0.000000
    27 0.447951 -2.798983 -0.200441 -0.016250 0.053282 0.116306
    28 -0.032909 -1.480207 0.004935 -1.783731 0.000000 0.000000
    29 -0.027023 -1.076921 -0.020212 -0.898892 0.000000 0.000000
    30 1.164474 -2.543939 -0.170327 0.050355 -0.000995 -0.002105
    31 0.024033 -1.129040 0.017807 -1.291468 -0.100239 0.187007
    32 0.014896 -0.883992 -0.019846 -1.038734 0.074161 0.017318
    33 -0.138841 -0.113067 0.013658 0.285538 -0.040593 1.576220
    34 0.583509 -1.197274 0.185379 -0.077873 -0.765978 -0.796238
    35 1.535926 0.010247 0.005009 -0.072801 0.036325 -1.031055
    36 1.100770 0.004528 -0.010675 0.000000 0.000000 -0.670693
    37 0.957766 -2.746777 -0.090301 0.203825 -0.051003 0.111154
    38 -0.033419 -1.397128 -0.011255 -0.783905 -0.009132 -0.077648
    39 -0.022361 -0.957433 0.018783 -0.626370 0.000000 0.000000
    40 0.250029 -2.820664 -0.238396 -0.282660 0.057277 -0.106688
    41 -0.049759 -1.680544 0.100479 -2.012794 0.000000 0.000000
    42 -0.034141 -1.148311 0.084779 -1.037503 0.000000 0.000000
    43 -0.488517 -2.755600 -0.228261 -0.195785 0.054586 -0.144146
    44 0.039889 -1.479791 0.029854 -2.042748 0.000000 0.000000
    45 0.028785 -1.075733 -0.023110 -0.841838 0.000000 0.000000
    46 -1.180679 -2.507216 -0.193861 0.008677 0.244088 -0.056770
    47 -0.024967 -1.123934 0.017595 -1.466576 0.000000 0.000000
    48 -0.020058 -0.890965 0.010091 -1.308778 0.000000 0.000000
    49 0.120180 -0.051600 -0.055246 0.287567 -3.172226 1.561008
  time 24
    0 -11.960718 0.864584 -7.922828 0.847156 1.867272 1.276235
    1 0.096946 -8.450420 -0.009364 0.352763 -0.231470 0.212837
    2 -0.192877 -2.997167 0.750521 0.973027 -1.502063 -0.975592
    3 0.000000 -1.808650 1.012937 0.000000 0.000000 0.000000
    4 0.000000 0.706666 0.002903 0.000000 0.000000 0.000000
    5 0.000000 2.290614 1.335354 0.000000 0.000000 0.000000
    6 -0.115835 -1.983282 1.652799 0.000000 0.000000 0.000000
    7 -0.194965 1.740244 -0.776688 0.000000 0.000000 0.000000
    8 0.000000 -0.273072 1.043217 0.000000 0.000000 0.000000
    9 11.470110 0.947631 -7.926735 0.778030 -1.819568 -1.209231
    10 -0.071918 -8.498731 -0.104137 0.353290 0.299162 -0.032166
    11 0.270583 -2.982786 0.320373 0.554706 1.379928 0.480518
    12 -0.000001 -1.808650 1.012938 0.000000 0.000000 0.000000
    13 -0.115835 -1.983282 1.652800 0.000000 0.000000 0.000000
    14 0.000000 2.290614 1.335354 0.000000 0.000000 0.000000
    15 0.000001 0.722290 0.002903 0.000000 0.000000 0.000000
    16 -0.194964 1.736338 -0.761062 0.000000 0.000000 0.000000
    17 0.000000 -0.273071 1.043216 0.000000 0.000000 0.000000
    18 -0.586769 -1.264477 0.200164 -0.224469 -0.772272 -2.217911
    19 1.522835 0.058680 0.016850 -0.042975 0.166884 0.909410
    20 1.117947 0.048424 -0.005765 -0.000024 0.000000 0.654951
    21 -0.963867 -2.785143 -0.085346 0.230928 0.199964 -0.171417
    22 0.028478 -1.403067 0.006272 -1.008258 -0.000007 -0.000010
    23 0.021412 -0.957782 0.020047 -0.332307 -0.000003 -0.000008
    24 -0.249534 -2.846963 -0.174215 -0.001196 0.000966 -0.025445
    25 0.043235 -1.683940 0.096015 -2.021659 -0.002971 -0.000336
    26 0.031729 -1.160830 0.058836 -1.017648 0.000000 0.000000
    27 0.447951 -2.798983 -0.200441 -0.016250 0.053282 0.116306
    28 -0.032909 -1.480207 0.004935 -1.783731 0.000000 0.000000
    29 -0.027023 -1.076921 -0.020212 -0.898892 0.000000 0.000000
    30 1.164474 -2.543939 -0.170327 0.050355 -0.000995 -0.002105
    31 0.024033 -1.129040 0.017807 -1.291468 -0.100239 0.187007
    32 0.014896 -0.883992 -0.019846 -1.038734 0.074161 0.017318
    33 -0.138841 -0.113067 0.013658 0.285538 -0.040593 1.576220
    34 0.583509 -1.197274 0.185379 -0.077873 -0.765978 -0.796238
    35 1.535926 0.010247 0.005009 -0.072801 0.036325 -1.031055
    36 1.100770 0.004528 -0.010675 0.000000 0.000000 -0.670693
    37 0.957766 -2.746777 -0.090301 0.200445 -0.051003 0.111154
    38 -0.033419 -1.397128 -0.011255 -0.793168 -0.010582 -0.075946
    39 -0.022361 -0.957433 0.018783 -0.629287 0.000000 0.000000
    40 0.250029 -2.820664 -0.238396 -0.282660 0.057277 -0.106688
    41 -0.049759 -1.680544 0.100479 -2.012794 0.000000 0.000000
    42 -0.034141 -1.148311 0.084779 -1.037503 0.000000 0.000000
    43 -0.488517 -2.755600 -0.228261 -0.195785 0.054586 -0.144146
    44 0.039889 -1.479791 0.029854 -2.042748 0.000000 0.000000
    45 0.028785 -1.075733 -0.023110 -0.841838 0.000000 0.000000
    46 -1.180679 -2.507216 -0.193861 0.008677 0.244088 -0.056770
    47 -0.024967 -1.123934 0.017595 -1.466576 0.000000 0.000000
    48 -0.020058 -0.890965 0.010091 -1.308778 0.000000 0.000000
    49 0.120180 -0.051600 -0.055246 0.287567 -3.172226 1.561008
  time 25
    0 -11.960718 0.864584 -7.922828 0.847156 1.867272 1.276235
    1 0.096946 -8.450420 -0.009364 0.352763 -0.231470 0.212837
    2 -0.192877 -2.997167 0.750521 0.973027 -1.502063 -0.975592
    3 0.000000 -1.808650 1.012937 0.000000 0.000000 0.000000
    4 0.000000 0.706666 0.002903 0.000000 0.000000 0.000000
    5 0.000000 2.290614 1.335354 0.000000 0.000000 0.000000
    6 -0.115835 -1.983282 1.652799 0.000000 0.000000 0.000000
    7 -0.194965 1.740244 -0.776688 0.000000 0.000000 0.000000
    8 0.000000 -0.273072 1.043217 0.000000 0.000000 0.000000
    9 11.470110 0.955444 -7.926735 0.777935 -1.819512 -1.209137
    10 -0.071918 -8.498731 -0.104137 0.353212 0.299790 -0.034013
    11 0.270583 -2.982786 0.320373 0.554706 1.379928 0.480518
    12 -0.000001 -1.808650 1.012938 0.000000 0.000000 0.000000
    13 -0.115835 -1.983282 1.652800 0.000000 0.000000 0.000000
    14 0.000000 2.290614 1.335354 0.000000 0.000000 0.000000
    15 0.000001 0.718384 0.002903 0.000000 0.000000 0.000000
    16 -0.194964 1.736338 -0.761062 0.000000 0.000000 0.000000
    17 0.000000 -0.273071 1.043216 0.000000 0.000000 0.000000
    18 -0.586769 -1.264477 0.200164 -0.224469 -0.772272 -2.217911
    19 1.522835 0.058680 0.016850 -0.042975 0.166884 0.909410
    20 1.117947 0.048424 -0.005765 -0.000024 0.000000 0.654951
    21 -0.963867 -2.785143 -0.085346 0.230928 0.199964 -0.171417
    22 0.028478 -1.403067 0.006272 -1.008258 -0.000007 -0.000010
    23 0.021412 -0.957782 0.020047 -0.332307 -0.000003 -0.000008
    24 -0.249534 -2.846963 -0.174215 -0.001196 0.000966 -0.025445
    25 0.043235 -1.683940 0.096015 -2.021659 -0.002971 -0.000336
    26 0.031729 -1.160830 0.058836 -1.017648 0.000000 0.000000
    27 0.447951 -2.798983 -0.200441 -0.016250 0.053282 0.116306
    28 -0.032909 -1.480207 0.004935 -1.783731 0.000000 0.000000
    29 -0.027023 -1.076921 -0.020212 -0.898892 0.000000 0.000000
    30 1.164474 -2.543939 -0.170327 0.050355 -0.000995 -0.002105
    31 0.024033 -1.129040 0.017807 -1.291468 -0.100239 0.187007
    32 0.014896 -0.883992 -0.019846 -1.038734 0.074161 0.017318
    33 -0.138841 -0.113067 0.013658 0.285538 -0.040593 1.576220
    34 0.583509 -1.197274 0.185379 -0.077873 -0.765978 -0.796238
    35 1.535926 0.010247 0.005009 -0.072801 0.036325 -1.031055
    36 1.100770 0.004528 -0.010675 0.000000 0.000000 -0.670693
    37 0.957766 -2.746777 -0.090301 0.197038 -0.051003 0.111154
    38 -0.033419 -1.397128 -0.011255 -0.802507 -0.012021 -0.074221
    39 -0.022361 -0.957433 0.018783 -0.632231 0.000000 0.000000
    40 0.250029 -2.820664 -0.238396 -0.282660 0.057277 -0.106688
    41 -0.049759 -1.680544 0.100479 -2.012794 0.000000 0.000000
    42 -0.034141 -1.148311 0.084779 -1.037503 0.000000 0.000000
    43 -0.488517 -2.755600 -0.228261 -0.195785 0.054586 -0.144146
    44 0.039889 -1.479791 0.029854 -2.042748 0.000000 0.000000
    45 0.028785 -1.075733 -0.023110 -0.841838 0.000000 0.000000
    46 -1.180679 -2.507216 -0.193861 0.008677 0.244088 -0.056770
    47 -0.024967 -1.123934 0.017595 -1.466576 0.000000 0.000000
    48 -0.020058 -0.890965 0.010091 -1.308778 0.000000 0.000000
    49 0.120180 -0.051600 -0.055246 0.287567 -3.172226 1.561008
  time 26
    0 -11.960718 0.864584 -7.922828 0.847156 1.867272 1.276235
    1 0.096946 -8.450420 -0.009364 0.352763 -0.231470 0.212837
    2 -0.192877 -2.997167 0.750521 0.973027 -1.502063 -0.975592
    3 0.000000 -1.808650 1.012937 0.000000 0.000000 0.000000
    4 0.000000 0.706666 0.002903 0.000000 0.000000 0.000000
    5 0.000000 2.290614 1.335354 0.000000 0.000000 0.000000
    6 -0.115835 -1.983282 1.652799 0.000000 0.000000 0.000000
    7 -0.194965 1.740244 -0.776688 0.000000 0.000000 0.000000
    8 0.000000 -0.273072 1.043217 0.000000 0.000000 0.000000
    9 11.470110 0.959350 -7.926735 0.777841 -1.819512 -1.209044
    10 -0.071918 -8.498731 -0.104137 0.353083 0.300533 -0.036116
    11 0.270583 -2.982786 0.320373 0.554706 1.379928 0.480518
    12 -0.000001 -1.808650 1.012938 0.000000 0.000000 0.000000
    13 -0.115835 -1.983282 1.652800 0.000000 0.000000 0.000000
    14 0.000000 2.290614 1.335354 0.000000 0.000000 0.000000
    15 0.000001 0.714478 0.002903 0.000000 0.000000 0.000000
    16 -0.194964 1.736338 -0.761062 0.000000 0.000000 0.000000
    17 0.000000 -0.273071 1.043216 0.000000 0.000000 0.000000
    18 -0.586769 -1.264477 0.200164 -0.224469 -0.772272 -2.217911
    19 1.522835 0.058680 0.016850 -0.042975 0.166884 0.909410
    20 1.117947 0.048424 -0.005765 -0.000024 0.000000 0.654951
    21 -0.963867 -2.785143 -0.085346 0.230928 0.199964 -0.171417
    22 0.028478 -1.403067 0.006272 -1.008258 -0.000007 -0.000010
    23 0.021412 -0.957782 0.020047 -0.332307 -0.000003 -0.000008
    24 -0.249534 -2.846963 -0.174215 -0.001196 0.000966 -0.025445
    25 0.043235 -1.683940 0.096015 -2.021659 -0.002971 -0.000336
    26 0.031729 -1.160830 0.058836 -1.017648 0.000000 0.000000
    27 0.447951 -2.798983 -0.200441 -0.016250 0.053282 0.116306
    28 -0.032909 -1.480207 0.004935 -1.783731 0.000000 0.000000
    29 -0.027023 -1.076921 -0.020212 -0.898892 0.000000 0.000000
    30 1.164474 -2.543939 -0.170327 0.050355 -0.000995 -0.002105
    31 0.024033 -1.129040 0.017807 -1.291468 -0.100239 0.187007
    32 0.014896 -0.883992 -0.019846 -1.038734 0.074161 0.017318
    33 -0.138841 -0.113067 0.013658 0.285538 -0.040593 1.576220
    34 0.583509 -1.197274 0.185379 -0.077873 -0.765978 -0.796238
    35 1.535926 0.010247 0.005009 -0.072801 0.036325 -1.031055
    36 1.100770 0.004528 -0.010675 0.000000 0.000000 -0.670693
    37 0.957766 -2.746777 -0.090301 0.193683 -0.051003 0.111154
    38 -0.033419 -1.397128 -0.011255 -0.811719 -0.013435 -0.072495
    39 -0.022361 -0.957433 0.018783 -0.635093 0.000000 0.000000
    40 0.250029 -2.820664 -0.238396 -0.282660 0.057277 -0.106688
    41 -0.049759 -1.680544 0.100479 -2.012794 0.000000 0.000000
    42 -0.034141 -1.148311 0.084779 -1.037503 0.000000 0.000000
    43 -0.488517 -2.755600 -0.228261 -0.195785 0.054586 -0.144146
    44 0.039889 -1.479791 0.029854 -2.042748 0.000000 0.000000
    45 0.028785 -1.075733 -0.023110 -0.841838 0.000000 0.000000
    46 -1.180679 -2.507216 -0.193861 0.008677 0.244088 -0.056770
    47 -0.024967 -1.123934 0.017595 -1.466576 0.000000 0.000000
    48 -0.020058 -0.890965 0.010091 -1.308778 0.000000 0.000000
    49 0.120180 -0.051600 -0.055246 0.287567 -3.172226 1.561008
  time 27
    0 -11.960718 0.864584 -7.922828 0.847156 1.867272 1.276235
    1 0.096946 -8.450420 -0.009364 0.352763 -0.231470 0.212837
    2 -0.192877 -2.997167 0.750521 0.973027 -1.502063 -0.975592
    3 0.000000 -1.808650 1.012937 0.000000 0.000000 0.000000
    4 0.000000 0.706666 0.002903 0.000000 0.000000 0.000000
    5 0.000000 2.290614 1.335354 0.000000 0.000000 0.000000
    6 -0.115835 -1.983282 1.652799 0.000000 0.000000 0.000000
    7 -0.194965 1.740244 -0.776688 0.000000 0.000000 0.000000
    8 0.000000 -0.273072 1.043217 0.000000 0.000000 0.000000
    9 11.470110 0.967163 -7.922828 0.777652 -1.819456 -1.208950
    10 -0.071918 -8.498731 -0.104137 0.352979 0.301276 -0.038219
    11 0.270583 -2.982786 0.320373 0.554706 1.379928 0.480518
    12 -0.000001 -1.808650 1.012938 0.000000 0.000000 0.000000
    13 -0.115835 -1.983282 1.652800 0.000000 0.000000 0.000000
    14 0.000000 2.290614 1.335354 0.000000 0.000000 0.000000
    15 0.000001 0.710571 0.002903 0.000000 0.000000 0.000000
    16 -0.194964 1.736338 -0.761062 0.000000 0.000000 0.000000
    17 0.000000 -0.273071 1.043216 0.000000 0.000000 0.000000
    18 -0.586769 -1.264477 0.200164 -0.224469 -0.772272 -2.217911
    19 1.522835 0.058680 0.016850 -0.042975 0.166884 0.909410
    20 1.117947 0.048424 -0.005765 -0.000024 0.000000 0.654951
    21 -0.963867 -2.785143 -0.085346 0.230928 0.199964 -0.171417
    22 0.028478 -1.403067 0.006272 -1.008258 -0.000007 -0.000010
    23 0.021412 -0.957782 0.020047 -0.332307 -0.000003 -0.000008
    24 -0.249534 -2.846963 -0.174215 -0.001196 0.000966 -0.025445
    25 0.043235 -1.683940 0.096015 -2.021659 -0.002971 -0.000336
    26 0.031729 -1.160830 0.058836 -1.017648 0.000000 0.000000
    27 0.447951 -2.798983 -0.200441 -0.016250 0.053282 0.116306
    28 -0.032909 -1.480207 0.004935 -1.783731 0.000000 0.000000
    29 -0.027023 -1.076921 -0.020212 -0.898892 0.000000 0.000000
    30 1.164474 -2.543939 -0.170327 0.050355 -0.000995 -0.002105
    31 0.024033 -1.129040 0.017807 -1.291468 -0.100239 0.187007
    32 0.014896 -0.883992 -0.019846 -1.038734 0.074161 0.017318
    33 -0.138841 -0.113067 0.013658 0.285538 -0.040593 1.576220
    34 0.583509 -1.197274 0.185379 -0.077873 -0.765978 -0.796238
    35 1.535926 0.010247 0.005009 -0.072801 0.036325 -1.031055
    36 1.100770 0.004528 -0.010675 0.000000 0.000000 -0.670693
    37 0.957766 -2.746777 -0.090301 0.190483 -0.051003 0.111154
    38 -0.033419 -1.397128 -0.011255 -0.820545 -0.014789 -0.070769
    39 -0.022361 -0.957433 0.018783 -0.637683 0.000000 0.000000
    40 0.250029 -2.820664 -0.238396 -0.282660 0.057277 -0.106688
    41 -0.049759 -1.680544 0.100479 -2.012794 0.000000 0.000000
    42 -0.034141 -1.148311 0.084779 -1.037503 0.000000 0.000000
    43 -0.488517 -2.755600 -0.228261 -0.195785 0.054586 -0.144146
    44 0.039889 -1.479791 0.029854 -2.042748 0.000000 0.000000
    45 0.028785 -1.075733 -0.023110 -0.841838 0.000000 0.000000
    46 -1.180679 -2.507216 -0.193861 0.008677 0.244088 -0.056770
    47 -0.024967 -1.123934 0.017595 -1.466576 0.000000 0.000000
    48 -0.020058 -0.890965 0.010091 -1.308778 0.000000 0.000000
    49 0.120180 -0.051600 -0.055246 0.287567 -3.172226 1.561008
  time 28
    0 -11.960718 0.864584 -7.922828 0.847156 1.867272 1.276235
    1 0.096946 -8.450420 -0.009364 0.352763 -0.231470 0.212837
    2 -0.192877 -2.997167 0.750521 0.973027 -1.502063 -0.975592
    3 0.000000 -1.808650 1.012937 0.000000 0.000000 0.000000
    4 0.000000 0.706666 0.002903 0.000000 0.000000 0.000000
    5 0.000000 2.290614 1.335354 0.000000 0.000000 0.000000
    6 -0.115835 -1.983282 1.652799 0.000000 0.000000 0.000000
    7 -0.194965 1.740244 -0.776688 0.000000 0.000000 0.000000
    8 0.000000 -0.273072 1.043217 0.000000 0.000000 0.000000
    9 11.470110 0.974976 -7.922828 0.777557 -1.819456 -1.208857
    10 -0.071918 -8.498731 -0.104137 0.352876 0.301923 -0.040038
    11 0.270583 -2.982786 0.320373 0.554706 1.379928 0.480518
    12 -0.000001 -1.808650 1.012938 0.000000 0.000000 0.000000
    13 -0.115835 -1.983282 1.652800 0.000000 0.000000 0.000000
    14 0.000000 2.290614 1.335354 0.000000 0.000000 0.000000
    15 0.000001 0.706665 0.002903 0.000000 0.000000 0.000000
    16 -0.194964 1.736338 -0.761062 0.000000 0.000000 0.000000
    17 0.000000 -0.273071 1.043216 0.000000 0.000000 0.000000
    18 -0.586769 -1.264477 0.200164 -0.224469 -0.772272 -2.217911
    19 1.522835 0.058680 0.016850 -0.042975 0.166884 0.909410
    20 1.117947 0.048424 -0.005765 -0.000024 0.000000 0.654951
    21 -0.963867 -2.785143 -0.085346 0.230928 0.199964 -0.171417
    22 0.028478 -1.403067 0.006272 -1.008258 -0.000007 -0.000010
    23 0.021412 -0.957782 0.020047 -0.332307 -0.000003 -0.000008
    24 -0.249534 -2.846963 -0.174215 -0.001196 0.000966 -0.025445
    25 0.043235 -1.683940 0.096015 -2.021659 -0.002971 -0.000336
    26 0.031729 -1.160830 0.058836 -1.017648 0.000000 0.000000
    27 0.447951 -2.798983 -0.200441 -0.016250 0.053282 0.116306
    28 -0.032909 -1.480207 0.004935 -1.783731 0.000000 0.000000
    29 -0.027023 -1.076921 -0.020212 -0.898892 0.000000 0.000000
    30 1.164474 -2.543939 -0.170327 0.050355 -0.000995 -0.002105
    31 0.024033 -1.129040 0.017807 -1.291468 -0.100239 0.187007
    32 0.014896 -0.883992 -0.019846 -1.038734 0.074161 0.017318
    33 -0.138841 -0.113067 0.013658 0.285538 -0.040593 1.576220
    34 0.583509 -1.197274 0.185379 -0.077873 -0.765978 -0.796238
    35 1.535926 0.010247 0.005009 -0.072801 0.036325 -1.031055
    36 1.100770 0.004528 -0.010675 0.000000 0.000000 -0.670693
    37 0.957766 -2.746777 -0.090301 0.187500 -0.051003 0.111154
    38 -0.033419 -1.397128 -0.011255 -0.828756 -0.016071 -0.069067
    39 -0.022361 -0.957433 0.018783 -0.639863 0.000000 0.000000
    40 0.250029 -2.820664 -0.238396 -0.282660 0.057277 -0.106688
    41 -0.049759 -1.680544 0.100479 -2.012794 0.000000 0.000000
    42 -0.034141 -1.148311 0.084779 -1.037503 0.000000 0.000000
    43 -0.488517 -2.755600 -0.228261 -0.195785 0.054586 -0.144146
    44 0.039889 -1.479791 0.029854 -2.042748 0.000000 0.000000
    45 0.028785 -1.075733 -0.023110 -0.841838 0.000000 0.000000
    46 -1.180679 -2.507216 -0.193861 0.008677 0.244088 -0.056770
    47 -0.024967 -1.123934 0.017595 -1.466576 0.000000 0.000000
    48 -0.020058 -0.890965 0.010091 -1.308739 0.000000 0.000000
    49 0.120180 -0.051600 -0.055246 0.287567 -3.172226 1.561008
  time 29
    0 -11.960718 0.864584 -7.922828 0.847156 1.867272 1.276235
    1 0.096946 -8.450420 -0.009364 0.352763 -0.231470 0.212837
    2 -0.192877 -2.997167 0.750521 0.973027 -1.502063 -0.975592
    3 0.000000 -1.808650 1.012937 0.000000 0.000000 0.000000
    4 0.000000 0.706666 0.002903 0.000000 0.000000 0.000000
    5 0.000000 2.290614 1.335354 0.000000 0.000000 0.000000
    6 -0.115835 -1.983282 1.652799 0.000000 0.000000 0.000000
    7 -0.194965 1.740244 -0.776688 0.000000 0.000000 0.000000
    8 0.000000 -0.273072 1.043217 0.000000 0.000000 0.000000
    9 11.470110 0.978882 -7.922828 0.777557 -1.819456 -1.208763
    10 -0.071918 -8.498731 -0.104137 0.352824 0.302362 -0.041345
    11 0.270583 -2.982786 0.320373 0.554706 1.379928 0.480518
    12 -0.000001 -1.808650 1.012938 0.000000 0.000000 0.000000
    13 -0.115835 -1.983282 1.652800 0.000000 0.000000 0.000000
    14 0.000000 2.290614 1.335354 0.000000 0.000000 0.000000
    15 0.000001 0.706665 0.002903 0.000000 0.000000 0.000000
    16 -0.194964 1.736338 -0.761062 0.000000 0.000000 0.000000
    17 0.000000 -0.273071 1.043216 0.000000 0.000000 0.000000
    18 -0.586769 -1.264477 0.200164 -0.224469 -0.772272 -2.217911
    19 1.522835 0.058680 0.016850 -0.042975 0.166884 0.909410
    20 1.117947 0.048424 -0.005765 -0.000024 0.000000 0.654951
    21 -0.963867 -2.785143 -0.085346 0.230928 0.199964 -0.171417
    22 0.028478 -1.403067 0.006272 -1.008258 -0.000007 -0.000010
    23 0.021412 -0.957782 0.020047 -0.332307 -0.000003 -0.000008
    24 -0.249534 -2.846963 -0.174215 -0.001196 0.000966 -0.025445
    25 0.043235 -1.683940 0.096015 -2.021659 -0.002971 -0.000336
    26 0.031729 -1.160830 0.058836 -1.017648 0.000000 0.000000
    27 0.447951 -2.798983 -0.200441 -0.016250 0.053282 0.116306
    28 -0.032909 -1.480207 0.004935 -1.783731 0.000000 0.000000
    29 -0.027023 -1.076921 -0.020212 -0.898892 0.000000 0.000000
    30 1.164474 -2.543939 -0.170327 0.050355 -0.000995 -0.002105
    31 0.024033 -1.129040 0.017807 -1.291468 -0.100239 0.187007
    32 0.014896 -0.883992 -0.019846 -1.038734 0.074161 0.017318
    33 -0.138841 -0.113067 0.013658 0.285538 -0.040593 1.576220
    34 0.583509 -1.197274 0.185379 -0.077873 -0.765978 -0.796238
    35 1.535926 0.010247 0.005009 -0.072801 0.036325 -1.031055
    36 1.100770 0.004528 -0.010675 0.000000 0.000000 -0.670693
    37 0.957766 -2.746777 -0.090301 0.184840 -0.051003 0.111154
    38 -0.033419 -1.397128 -0.011255 -0.836171 -0.017270 -0.067377
    39 -0.022361 -0.957433 0.018783 -0.641444 0.000000 0.000000
    40 0.250029 -2.820664 -0.238396 -0.282660 0.057277 -0.106688
    41 -0.049759 -1.680544 0.100479 -2.012794 0.000000 0.000000
    42 -0.034141 -1.148311 0.084779 -1.037503 0.000000 0.000000
    43 -0.488517 -2.755600 -0.228261 -0.195785 0.054586 -0.144146
    44 0.039889 -1.479791 0.029854 -2.042748 0.000000 0.000000
    45 0.028785 -1.075733 -0.023110 -0.841838 0.000000 0.000000
    46 -1.180679 -2.507216 -0.193861 0.008677 0.244088 -0.056770
    47 -0.024967 -1.123934 0.017595 -1.466576 0.000000 0.000000
    48 -0.020058 -0.890965 0.010091 -1.308739 0.000000 0.000000
    49 0.120180 -0.051600 -0.055246 0.287567 -3.172226 1.561008
  time 30
    0 -11.960718 0.864584 -7.922828 0.847156 1.867272 1.276235
    1 0.096946 -8.450420 -0.009364 0.352763 -0.231470 0.212837
    2 -0.192877 -2.997167 0.750521 0.973027 -1.502063 -0.975592
    3 0.000000 -1.808650 1.012937 0.000000 0.000000 0.000000
    4 0.000000 0.706666 0.002903 0.000000 0.000000 0.000000
    5 0.000000 2.290614 1.335354 0.000000 0.000000 0.000000
    6 -0.115835 -1.983282 1.652799 0.000000 0.000000 0.000000
    7 -0.194965 1.740244 -0.776688 0.000000 0.000000 0.000000
    8 0.000000 -0.273072 1.043217 0.000000 0.000000 0.000000
    9 11.470110 0.978882 -7.922828 0.777557 -1.819456 -1.208763
    10 -0.071918 -8.498731 -0.104137 0.352798 0.302533 -0.041828
    11 0.270583 -2.982786 0.320373 0.554706 1.379928 0.480518
    12 -0.000001 -1.808650 1.012938 0.000000 0.000000 0.000000
    13 -0.115835 -1.983282 1.652800 0.000000 0.000000 0.000000
    14 0.000000 2.290614 1.335354 0.000000 0.000000 0.000000
    15 0.000001 0.706665 0.002903 0.000000 0.000000 0.000000
    16 -0.194964 1.736338 -0.761062 0.000000 0.000000 0.000000
    17 0.000000 -0.273071 1.043216 0.000000 0.000000 0.000000
    18 -0.586769 -1.264477 0.200164 -0.224469 -0.772272 -2.217911
    19 1.522835 0.058680 0.016850 -0.042975 0.166884 0.909410
    20 1.117947 0.048424 -0.005765 -0.000024 0.000000 0.654951
    21 -0.963867 -2.785143 -0.085346 0.230928 0.199964 -0.171417
    22 0.028478 -1.403067 0.006272 -1.008258 -0.000007 -0.000010
    23 0.021412 -0.957782 0.020047 -0.332307 -0.000003 -0.000008
    24 -0.249534 -2.846963 -0.174215 -0.001196 0.000966 -0.025445
    25 0.043235 -1.683940 0.096015 -2.021659 -0.002971 -0.000336
    26 0.031729 -1.160830 0.058836 -1.017648 0.000000 0.000000
    27 0.447951 -2.798983 -0.200441 -0.016250 0.053282 0.116306
    28 -0.032909 -1.480207 0.004935 -1.783731 0.000000 0.000000
    29 -0.027023 -1.076921 -0.020212 -0.898892 0.000000 0.000000
    30 1.164474 -2.543939 -0.170327 0.050355 -0.000995 -0.002105
    31 0.024033 -1.129040 0.017807 -1.291468 -0.100239 0.187007
    32 0.014896 -0.883992 -0.019846 -1.038734 0.074161 0.017318
    33 -0.138841 -0.113067 0.013658 0.285538 -0.040593 1.576220
    34 0.583509 -1.197274 0.185379 -0.077873 -0.765978 -0.796238
    35 1.535926 0.010247 0.005009 -0.072801 0.036325 -1.031055
    36 1.100770 0.004528 -0.010675 0.000000 0.000000 -0.670693
    37 0.957766 -2.746777 -0.090301 0.182590 -0.051003 0.111154
    38 -0.033419 -1.397128 -0.011255 -0.842508 -0.018348 -0.065735
    39 -0.022361 -0.957433 0.018783 -0.642317 0.000000 0.000000
    40 0.250029 -2.820664 -0.238396 -0.282660 0.057277 -0.106688
    41 -0.049759 -1.680544 0.100479 -2.012794 0.000000 0.000000
    42 -0.034141 -1.148311 0.084779 -1.037503 0.000000 0.000000
    43 -0.488517 -2.755600 -0.228261 -0.195785 0.054586 -0.144146
    44 0.039889 -1.479791 0.029854 -2.042748 0.000000 0.000000
    45 0.028785 -1.075733 -0.023110 -0.841838 0.000000 0.000000
    46 -1.180679 -2.507216 -0.193861 0.008677 0.244088 -0.056770
    47 -0.024967 -1.123934 0.017595 -1.466576 0.000000 0.000000
    48 -0.020058 -0.890965 0.010091 -1.308739 0.000000 0.000000
    49 0.120180 -0.051600 -0.055246 0.287567 -3.172226 1.561008
end
