version 1
nodes
  0 "lightningar_root" -1
  1 "lightningar_triger" 0
  2 "lightningar_megazine" 0
  3 "lightningar_holter" 0
  4 "lightningar_head" 0
  5 "lightningar_fx002" 0
  6 "lightningar_fx003" 0
  7 "lightningar_fx1" 0
  8 "charge_fx1" 0
  9 "charge_fx002" 0
  10 "glow_ROOT" 0
  11 "glow3" 10
  12 "glow4" 10
  13 "glow1" 10
  14 "glow2" 10
  15 "charge_idle2fx_root001" 0
  16 "charge_idle2fx_005" 15
  17 "charge_idle2fx_006" 15
  18 "charge_idle2fx_007" 15
  19 "charge_idle2fx_008" 15
  20 "charge_idle2fx_root" 0
  21 "charge_idle2fx_4" 20
  22 "charge_idle2fx_2" 20
  23 "charge_idle2fx_1" 20
  24 "charge_idle2fx_3" 20
  25 "charge_idle2fx_root002" 0
  26 "charge_idle2fx_009" 25
  27 "charge_idle2fx_010" 25
  28 "charge_idle2fx_011" 25
  29 "charge_idle2fx_012" 25
  30 "root" -1
  31 "Bone01" 30
  32 "Bone_L_Upper" 31
  33 "Bone_Lefthand" 31
  34 "Bone13" 33
  35 "Bone14" 34
  36 "Bone15" 35
  37 "Bone17" 33
  38 "Bone18" 37
  39 "Bone19" 38
  40 "Bone21" 33
  41 "Bone22" 40
  42 "Bone23" 41
  43 "Bone09" 33
  44 "Bone10" 43
  45 "Bone11" 44
  46 "Bone05" 33
  47 "Bone06" 46
  48 "Bone07" 47
  49 "Bone_Se_Hand-L" 33
  50 "Bone04" 30
  51 "Bone_Righthand" 50
  52 "Bone39" 51
  53 "Bone40" 52
  54 "Bone41" 53
  55 "Bone35" 51
  56 "Bone36" 55
  57 "Bone37" 56
  58 "Bone31" 51
  59 "Bone32" 58
  60 "Bone33" 59
  61 "Bone43" 51
  62 "Bone44" 61
  63 "Bone45" 62
  64 "Bone27" 51
  65 "Bone28" 64
  66 "Bone29" 65
  67 "Bone_Se_Hand-R" 51
  68 "Bone_R_Upper" 50
end
skeleton
  time 0
    0 5.859554 -6.851710 -7.508353 0.903075 -1.680815 -0.985762
    1 1.015654 -1.668102 0.000001 0.000006 0.000000 -3.141592
    2 1.145417 -5.369577 0.000002 0.000000 0.000000 3.141592
    3 3.114791 -3.093424 0.000001 0.000001 -1.571142 0.000000
    4 2.156557 -15.664373 0.000005 0.000000 0.000000 -1.570796
    5 2.213366 -8.360288 -0.001159 -4.712619 -1.348360 3.134531
    6 2.182062 -12.854611 -0.000128 -4.712619 -0.562993 -3.148557
    7 2.197905 -10.580413 -0.000649 -1.571027 -1.444134 -0.006965
    8 -36.169212 14.144025 5.297034 -3.141592 0.872611 -0.000096
    9 -36.169212 13.080073 5.297034 0.000000 0.716516 -3.141592
    10 2.154311 -17.275190 -0.000004 1.570796 1.570796 0.000000
    11 9.996155 9.996153 0.000000 0.000000 0.000000 0.000000
    12 -9.996154 9.996155 0.000000 0.000000 0.000000 0.000000
    13 -9.996153 -9.996155 0.000000 0.000000 0.000000 0.000000
    14 9.996154 -9.996155 0.000000 0.000000 0.000000 0.000000
    15 2.156176 -15.661779 -0.000001 1.570796 -0.610851 0.000000
    16 -0.000002 0.000000 0.000000 0.000000 0.000000 0.000000
    17 0.000002 0.000004 0.000002 0.000000 0.000000 0.000000
    18 0.000000 0.000000 0.000000 0.000000 0.000000 0.000000
    19 0.000002 0.000004 0.000004 0.000000 0.000000 0.000000
    20 2.156176 -15.661777 -0.000002 1.570796 -0.698113 0.000001
    21 -9.996397 -9.996395 0.000002 0.000000 0.000000 0.000000
    22 9.996399 9.996395 -0.000004 0.000000 0.000000 0.000000
    23 -9.996388 9.996391 -0.000002 0.000000 0.000000 0.000000
    24 9.996391 -9.996389 0.000002 0.000000 0.000000 0.000000
    25 -4.598289 -45.687843 0.590864 0.111863 5.947147 -3.265350
    26 0.000004 0.000003 0.000003 0.000000 0.000000 0.000000
    27 0.000004 -0.000004 -0.000003 0.000000 0.000000 0.000000
    28 0.000011 -0.000010 0.000000 0.000000 0.000000 0.000000
    29 -0.000008 0.000010 0.000003 0.000000 0.000000 0.000000
    30 -0.748869 0.799541 -4.370608 0.000000 0.000000 0.308293
    31 7.810058 0.235711 -7.092948 0.689280 -2.092434 -0.938218
    32 5.772943 -4.956584 -0.423252 -1.558338 -0.033391 -3.746470
    33 -0.025045 -8.451860 -0.084602 -0.088781 0.523315 -0.017574
    34 -0.488518 -2.755602 -0.228260 -1.030347 -0.157968 -0.394990
    35 0.039887 -1.550105 0.029854 -2.074792 -0.002565 0.045363
    36 0.028786 -1.099169 -0.077798 -0.464682 -0.009624 0.007826
    37 0.250027 -2.820665 -0.238396 -0.798963 -0.161345 -0.387124
    38 -0.049759 -1.598510 0.006726 -1.880353 -0.007406 -0.047305
    39 -0.034142 -1.163937 0.049625 -0.971280 0.008042 -0.025168
    40 0.957766 -2.746780 -0.090302 0.047556 -0.152354 -0.131678
    41 -0.033420 -1.397129 -0.026882 -0.834512 0.006675 -0.041048
    42 -0.022360 -0.965249 -0.008561 -1.195824 -0.001606 -0.057023
    43 -1.180681 -2.507217 -0.193859 -1.027090 0.019838 -0.525290
    44 -0.024967 -1.127840 0.017597 -1.714451 -0.017965 -0.066070
    45 -0.020057 -0.906594 0.025715 -0.858796 0.007107 -0.034731
    46 0.618667 -1.197277 0.185379 0.544193 -1.000238 -0.600279
    47 1.442174 -0.255387 0.079230 0.079059 -0.248260 -0.933461
    48 1.022644 -0.171260 0.040104 0.071221 -0.227578 -0.953828
    49 0.120153 -0.050270 -0.054489 0.287569 3.110905 1.561085
    50 -1.923163 -7.930561 -6.751489 0.691736 -4.230290 0.815417
    51 0.096944 -8.450418 -0.009365 0.158122 -0.239625 0.131677
    52 0.447953 -2.798986 -0.200443 -0.655991 -0.095283 0.190274
    53 -0.032909 -1.499736 0.040097 -1.883027 0.020673 -0.040098
    54 -0.027022 -1.108171 -0.028023 -0.819748 0.019559 -0.011637
    55 -0.249534 -2.846964 -0.174213 -0.587811 0.045980 0.078145
    56 0.043235 -1.656596 0.056948 -1.845438 -0.024897 0.015365
    57 0.031729 -1.141298 0.054932 -1.171127 -0.013068 0.006442
    58 -0.963866 -2.785145 -0.085350 -0.590246 0.210214 -0.028122
    59 0.028479 -1.422599 -0.032793 -1.720764 -0.058617 -0.036421
    60 0.021413 -0.942156 0.012233 -1.038955 -0.028439 -0.034959
    61 1.164475 -2.543940 -0.170330 -0.642751 -0.330838 0.151754
    62 0.024032 -1.156387 -0.009538 -1.529426 0.035331 0.068589
    63 0.014898 -0.899614 -0.015942 -0.830963 0.003655 0.042078
    64 -0.586770 -1.264477 0.200161 0.020491 -0.717858 -2.663666
    65 1.577524 0.035243 0.016848 -0.023422 -0.007470 1.055720
    66 1.114041 0.044518 -0.005766 -0.020353 -0.034714 0.772502
    67 -0.139399 -0.119511 -0.005135 0.373864 0.094176 1.499456
    68 -6.104551 6.257067 -0.376156 1.579737 -0.022425 -0.902523
  time 1
    0 5.863460 -6.871242 -7.543510 0.887478 -1.682148 -0.969586
    1 1.015654 -1.668102 0.000001 0.000006 0.000000 -3.141592
    2 1.145417 -5.369577 0.000002 0.000000 0.000000 3.141592
    3 3.114791 -3.093424 0.000001 0.000001 -1.571142 0.000000
    4 2.156557 -15.664373 0.000005 0.000000 0.000000 -1.570796
    5 2.213366 -8.360288 -0.001159 -4.712619 -0.450770 -3.148557
    6 2.182062 -12.854611 -0.000128 -4.712619 0.334567 -3.148557
    7 2.197905 -10.580413 -0.000649 -4.712619 -0.799809 -3.148557
    8 -36.169212 14.144025 5.297034 -3.141592 0.872611 -0.000096
    9 -36.169212 13.080073 5.297034 0.000000 0.716516 -3.141592
    10 2.154311 -17.275190 -0.000004 1.570796 1.570796 0.000000
    11 6.003845 6.003843 0.000000 0.000000 0.000000 0.000000
    12 -6.003844 6.003845 0.000000 0.000000 0.000000 0.000000
    13 -6.003843 -6.003845 0.000000 0.000000 0.000000 0.000000
    14 6.003844 -6.003845 0.000000 0.000000 0.000000 0.000000
    15 2.156176 -15.661779 -0.000001 1.570796 2.504534 0.000000
    16 -9.996401 -9.996399 0.000000 0.000000 0.000000 0.000000
    17 9.996401 9.996403 0.000002 0.000000 0.000000 0.000000
    18 -9.996399 9.996399 0.000000 0.000000 0.000000 0.000000
    19 9.996401 -9.996395 0.000004 0.000000 0.000000 0.000000
    20 2.156176 -15.661777 -0.000002 1.570796 -1.015162 0.000001
    21 0.000002 0.000004 0.000002 0.000000 0.000000 0.000000
    22 0.000000 -0.000004 -0.000004 0.000000 0.000000 0.000000
    23 0.000011 -0.000008 -0.000002 0.000000 0.000000 0.000000
    24 -0.000008 0.000010 0.000002 0.000000 0.000000 0.000000
    25 -4.598289 -45.687843 0.590864 0.111863 5.947147 -3.265350
    26 0.000004 0.000003 0.000003 0.000000 0.000000 0.000000
    27 0.000004 -0.000004 -0.000003 0.000000 0.000000 0.000000
    28 0.000011 -0.000010 0.000000 0.000000 0.000000 0.000000
    29 -0.000008 0.000010 0.000003 0.000000 0.000000 0.000000
    30 -0.748869 0.799541 -4.370608 0.000000 0.000000 0.308293
    31 7.810058 0.223992 -7.096854 0.684778 -2.089562 -0.934758
    32 5.800287 -4.925333 -0.423252 -1.558446 -0.033367 -3.741476
    33 -0.025045 -8.451860 -0.084602 -0.087048 0.519975 -0.013488
    34 -0.488518 -2.755602 -0.228260 -1.030347 -0.157968 -0.394990
    35 0.039887 -1.550105 0.029854 -2.074792 -0.002565 0.045363
    36 0.028786 -1.099169 -0.077798 -0.464682 -0.009624 0.007826
    37 0.250027 -2.820665 -0.238396 -0.798963 -0.161345 -0.387124
    38 -0.049759 -1.598510 0.006726 -1.880353 -0.007406 -0.047305
    39 -0.034142 -1.163937 0.049625 -0.971280 0.008042 -0.025168
    40 0.957766 -2.746780 -0.090302 0.047556 -0.152354 -0.131678
    41 -0.033420 -1.397129 -0.026882 -0.834512 0.006675 -0.041048
    42 -0.022360 -0.965249 -0.008561 -1.195824 -0.001606 -0.057023
    43 -1.180681 -2.507217 -0.193859 -1.027090 0.019838 -0.525290
    44 -0.024967 -1.127840 0.017597 -1.714503 -0.017965 -0.066070
    45 -0.020057 -0.906594 0.025715 -0.858820 0.007107 -0.034731
    46 0.618667 -1.197277 0.185379 0.544193 -1.000238 -0.600279
    47 1.442174 -0.255387 0.079230 0.079059 -0.248260 -0.933461
    48 1.022644 -0.171260 0.040104 0.071221 -0.227578 -0.953828
    49 0.120153 -0.050270 -0.054489 0.287569 3.110905 1.561085
    50 -1.911444 -7.938374 -6.743677 0.682757 -4.234132 0.806616
    51 0.096944 -8.454325 -0.009365 0.159438 -0.241389 0.124656
    52 0.447953 -2.798986 -0.200443 -0.655991 -0.095283 0.190274
    53 -0.032909 -1.499736 0.040097 -1.883027 0.020673 -0.040098
    54 -0.027022 -1.108171 -0.028023 -0.819748 0.019559 -0.011637
    55 -0.249534 -2.846964 -0.174213 -0.587811 0.045980 0.078145
    56 0.043235 -1.656596 0.056948 -1.845438 -0.024897 0.015365
    57 0.031729 -1.141298 0.054932 -1.171127 -0.013068 0.006442
    58 -0.963866 -2.785145 -0.085350 -0.590246 0.210214 -0.028122
    59 0.028479 -1.422599 -0.032793 -1.720764 -0.058617 -0.036421
    60 0.021413 -0.942156 0.012233 -1.038955 -0.028439 -0.034959
    61 1.164475 -2.543940 -0.170330 -0.642751 -0.330838 0.151754
    62 0.024032 -1.156387 -0.009538 -1.529426 0.035331 0.068589
    63 0.014898 -0.899614 -0.015942 -0.830963 0.003655 0.042078
    64 -0.586770 -1.264477 0.200161 0.020491 -0.717858 -2.663666
    65 1.577524 0.035243 0.016848 -0.023422 -0.007470 1.055686
    66 1.114041 0.044518 -0.005766 -0.020353 -0.034714 0.772502
    67 -0.139399 -0.119511 -0.005135 0.373864 0.094176 1.499456
    68 -6.057675 6.307850 -0.376156 1.579821 -0.022221 -0.910746
  time 2
    0 5.851741 -6.836084 -7.500540 0.871977 -1.683529 -0.953600
    1 1.015654 -1.668102 0.000001 0.000006 0.000000 -3.141592
    2 1.145417 -5.369577 0.000002 0.000000 0.000000 3.141592
    3 3.114791 -3.093424 0.000001 0.000001 -1.571142 0.000000
    4 2.156557 -15.664373 0.000005 0.000000 0.000000 -1.570796
    5 2.213366 -8.360288 -0.001159 -4.712619 0.446775 -3.148557
    6 2.182062 -12.854611 -0.000128 -4.712619 1.232198 3.134531
    7 2.197905 -10.580413 -0.000649 -4.712619 0.097785 -3.148557
    8 -36.169212 14.144025 5.297034 -3.141592 0.872611 -0.000096
    9 -36.169212 13.080073 5.297034 0.000000 0.716516 -3.141592
    10 2.154311 -17.275190 -0.000004 1.570796 1.570796 0.000000
    11 9.996155 9.996153 0.000000 0.000000 0.000000 0.000000
    12 -9.996154 9.996155 0.000000 0.000000 0.000000 0.000000
    13 -9.996153 -9.996155 0.000000 0.000000 0.000000 0.000000
    14 9.996154 -9.996155 0.000000 0.000000 0.000000 0.000000
    15 2.156176 -15.661779 -0.000001 1.570796 -0.663152 0.000000
    16 -0.000002 0.000000 0.000000 0.000000 0.000000 0.000000
    17 0.000002 0.000004 0.000002 0.000000 0.000000 0.000000
    18 0.000000 0.000000 0.000000 0.000000 0.000000 0.000000
    19 0.000002 0.000004 0.000004 0.000000 0.000000 0.000000
    20 2.156176 -15.661777 -0.000002 1.570796 -1.332212 0.000001
    21 -9.996397 -9.996395 0.000002 0.000000 0.000000 0.000000
    22 9.996399 9.996395 -0.000004 0.000000 0.000000 0.000000
    23 -9.996388 9.996391 -0.000002 0.000000 0.000000 0.000000
    24 9.996391 -9.996389 0.000002 0.000000 0.000000 0.000000
    25 -4.598289 -45.687843 0.590864 0.111863 5.947147 -3.265350
    26 0.000004 0.000003 0.000003 0.000000 0.000000 0.000000
    27 0.000004 -0.000004 -0.000003 0.000000 0.000000 0.000000
    28 0.000011 -0.000010 0.000000 0.000000 0.000000 0.000000
    29 -0.000008 0.000010 0.000003 0.000000 0.000000 0.000000
    30 -0.748869 0.799541 -4.370608 0.000000 0.000000 0.308293
    31 7.810058 0.255243 -7.085135 0.689855 -2.092776 -0.938760
    32 5.749505 -4.976116 -0.423252 -1.558254 -0.033403 -3.750195
    33 -0.025045 -8.451860 -0.084602 -0.088820 0.518843 -0.017793
    34 -0.488518 -2.755602 -0.228260 -1.030347 -0.157968 -0.394990
    35 0.039887 -1.550105 0.029854 -2.074792 -0.002565 0.045363
    36 0.028786 -1.099169 -0.077798 -0.464682 -0.009624 0.007826
    37 0.250027 -2.820665 -0.238396 -0.798963 -0.161345 -0.387124
    38 -0.049759 -1.598510 0.006726 -1.880353 -0.007406 -0.047305
    39 -0.034142 -1.163937 0.049625 -0.971280 0.008042 -0.025168
    40 0.957766 -2.746780 -0.090302 0.047556 -0.152354 -0.131678
    41 -0.033420 -1.397129 -0.026882 -0.834512 0.006675 -0.041048
    42 -0.022360 -0.965249 -0.008561 -1.195824 -0.001606 -0.057023
    43 -1.180681 -2.507217 -0.193859 -1.027090 0.019838 -0.525290
    44 -0.024967 -1.127840 0.017597 -1.714451 -0.017965 -0.066070
    45 -0.020057 -0.906594 0.025715 -0.858796 0.007107 -0.034731
    46 0.618667 -1.197277 0.185379 0.544193 -1.000238 -0.600279
    47 1.442174 -0.255387 0.079230 0.079059 -0.248260 -0.933461
    48 1.022644 -0.171260 0.040104 0.071221 -0.227578 -0.953828
    49 0.120153 -0.050270 -0.054489 0.287569 3.110905 1.561085
    50 -1.919257 -7.926655 -6.759302 0.693434 -4.229522 0.818167
    51 0.096944 -8.450418 -0.009365 0.159051 -0.243495 0.130670
    52 0.447953 -2.798986 -0.200443 -0.655991 -0.095283 0.190274
    53 -0.032909 -1.499736 0.040097 -1.883027 0.020673 -0.040098
    54 -0.027022 -1.108171 -0.028023 -0.819748 0.019559 -0.011637
    55 -0.249534 -2.846964 -0.174213 -0.587811 0.045980 0.078145
    56 0.043235 -1.656596 0.056948 -1.845438 -0.024897 0.015365
    57 0.031729 -1.141298 0.054932 -1.171127 -0.013068 0.006442
    58 -0.963866 -2.785145 -0.085350 -0.590246 0.210214 -0.028122
    59 0.028479 -1.422599 -0.032793 -1.720764 -0.058617 -0.036421
    60 0.021413 -0.942156 0.012233 -1.038923 -0.028439 -0.034959
    61 1.164475 -2.543940 -0.170330 -0.642751 -0.330838 0.151754
    62 0.024032 -1.156387 -0.009538 -1.529426 0.035331 0.068589
    63 0.014898 -0.899614 -0.015942 -0.830963 0.003655 0.042078
    64 -0.586770 -1.264477 0.200161 0.020491 -0.717858 -2.663666
    65 1.577524 0.035243 0.016848 -0.023422 -0.007470 1.055686
    66 1.114041 0.044518 -0.005766 -0.020353 -0.034714 0.772502
    67 -0.139399 -0.119511 -0.005135 0.373864 0.094176 1.499456
    68 -6.120177 6.237535 -0.380062 1.579701 -0.022509 -0.899370
  time 3
    0 5.847835 -6.839991 -7.484915 0.858757 -1.684765 -0.939721
    1 1.015654 -1.668102 0.000001 0.000006 0.000000 -3.141592
    2 1.145417 -5.369577 0.000002 0.000000 0.000000 3.141592
    3 3.114791 -3.093424 0.000001 0.000001 -1.571142 0.000000
    4 2.156557 -15.664373 0.000005 0.000000 0.000000 -1.570796
    5 2.213366 -8.360288 -0.001159 -4.712619 1.344365 -3.148557
    6 2.182062 -12.854611 -0.000128 -1.571027 1.011782 -0.006965
    7 2.197905 -10.580413 -0.000649 -4.712619 0.995323 3.134531
    8 -36.169212 14.144025 5.297034 -3.141592 0.872611 -0.000096
    9 -36.169212 13.080073 5.297034 0.000000 0.716516 -3.141592
    10 2.154311 -17.275190 -0.000004 1.570796 1.570796 0.000000
    11 6.003845 6.003843 0.000000 0.000000 0.000000 0.000000
    12 -6.003844 6.003845 0.000000 0.000000 0.000000 0.000000
    13 -6.003843 -6.003845 0.000000 0.000000 0.000000 0.000000
    14 6.003844 -6.003845 0.000000 0.000000 0.000000 0.000000
    15 2.156176 -15.661779 -0.000001 1.570796 2.452141 0.000000
    16 -9.996401 -9.996399 0.000000 0.000000 0.000000 0.000000
    17 9.996401 9.996403 0.000002 0.000000 0.000000 0.000000
    18 -9.996399 9.996399 0.000000 0.000000 0.000000 0.000000
    19 9.996401 -9.996395 0.000004 0.000000 0.000000 0.000000
    20 2.156176 -15.661777 -0.000002 -1.570796 -1.492236 3.141593
    21 0.000002 0.000004 0.000002 0.000000 0.000000 0.000000
    22 0.000000 -0.000004 -0.000004 0.000000 0.000000 0.000000
    23 0.000011 -0.000008 -0.000002 0.000000 0.000000 0.000000
    24 -0.000008 0.000010 0.000002 0.000000 0.000000 0.000000
    25 -4.598289 -45.687843 0.590864 0.111863 5.947147 -3.265350
    26 0.000004 0.000003 0.000003 0.000000 0.000000 0.000000
    27 0.000004 -0.000004 -0.000003 0.000000 0.000000 0.000000
    28 0.000011 -0.000010 0.000000 0.000000 0.000000 0.000000
    29 -0.000008 0.000010 0.000003 0.000000 0.000000 0.000000
    30 -0.748869 0.799541 -4.370608 0.000000 0.000000 0.308293
    31 7.810058 0.243524 -7.089042 0.693207 -2.094622 -0.942011
    32 5.745598 -4.980022 -0.423252 -1.558242 -0.033403 -3.750703
    33 -0.025045 -8.451860 -0.084602 -0.089398 0.517192 -0.020399
    34 -0.488518 -2.755602 -0.228260 -1.030347 -0.157968 -0.394990
    35 0.039887 -1.550105 0.029854 -2.074792 -0.002565 0.045363
    36 0.028786 -1.099169 -0.077798 -0.464682 -0.009624 0.007826
    37 0.250027 -2.820665 -0.238396 -0.798963 -0.161345 -0.387124
    38 -0.049759 -1.598510 0.006726 -1.880353 -0.007406 -0.047305
    39 -0.034142 -1.163937 0.049625 -0.971280 0.008042 -0.025168
    40 0.957766 -2.746780 -0.090302 0.047556 -0.152354 -0.131678
    41 -0.033420 -1.397129 -0.026882 -0.834512 0.006675 -0.041048
    42 -0.022360 -0.965249 -0.008561 -1.195824 -0.001606 -0.057023
    43 -1.180681 -2.507217 -0.193859 -1.027056 0.019838 -0.525290
    44 -0.024967 -1.127840 0.017597 -1.714451 -0.017965 -0.066070
    45 -0.020057 -0.906594 0.025715 -0.858796 0.007107 -0.034731
    46 0.618667 -1.197277 0.185379 0.544193 -1.000238 -0.600279
    47 1.442174 -0.255387 0.079230 0.079059 -0.248260 -0.933461
    48 1.022644 -0.171260 0.040104 0.071221 -0.227578 -0.953828
    49 0.120153 -0.050270 -0.054489 0.287569 3.110905 1.561085
    50 -1.919257 -7.930561 -6.751489 0.693817 -4.229345 0.818442
    51 0.096944 -8.450418 -0.009365 0.158973 -0.245311 0.129902
    52 0.447953 -2.798986 -0.200443 -0.655991 -0.095283 0.190274
    53 -0.032909 -1.499736 0.040097 -1.883027 0.020673 -0.040098
    54 -0.027022 -1.108171 -0.028023 -0.819748 0.019559 -0.011637
    55 -0.249534 -2.846964 -0.174213 -0.587811 0.045980 0.078145
    56 0.043235 -1.656596 0.056948 -1.845438 -0.024897 0.015365
    57 0.031729 -1.141298 0.054932 -1.171127 -0.013068 0.006442
    58 -0.963866 -2.785145 -0.085350 -0.590246 0.210214 -0.028122
    59 0.028479 -1.422599 -0.032793 -1.720764 -0.058617 -0.036421
    60 0.021413 -0.942156 0.012233 -1.038955 -0.028439 -0.034959
    61 1.164475 -2.543940 -0.170330 -0.642751 -0.330838 0.151754
    62 0.024032 -1.156387 -0.009538 -1.529426 0.035331 0.068589
    63 0.014898 -0.899614 -0.015942 -0.830963 0.003655 0.042078
    64 -0.586770 -1.264477 0.200161 0.020491 -0.717858 -2.663666
    65 1.577524 0.035243 0.016848 -0.023422 -0.007470 1.055720
    66 1.114041 0.044518 -0.005766 -0.020353 -0.034714 0.772502
    67 -0.139399 -0.119511 -0.005135 0.373864 0.094176 1.499456
    68 -6.112364 6.249254 -0.376156 1.579713 -0.022461 -0.901163
  time 4
    0 5.847835 -6.847804 -7.523978 0.849437 -1.685662 -0.930054
    1 1.015654 -1.668102 0.000001 0.000006 0.000000 -3.141592
    2 1.145417 -5.369577 0.000002 0.000000 0.000000 3.141592
    3 3.114791 -3.093424 0.000001 0.000001 -1.571142 0.000000
    4 2.156557 -15.664373 0.000005 0.000000 0.000000 -1.570796
    5 2.213366 -8.360288 -0.001159 -1.571027 0.899577 -0.006965
    6 2.182062 -12.854611 -0.000128 -1.571027 0.114151 -0.006965
    7 2.197905 -10.580413 -0.000649 -1.571027 1.248649 -0.006965
    8 -36.169212 14.144025 5.297034 -3.141592 0.872611 -0.000096
    9 -36.169212 13.080073 5.297034 0.000000 0.716516 -3.141592
    10 2.154311 -17.275190 -0.000004 1.570796 1.570796 0.000000
    11 9.996155 9.996153 0.000000 0.000000 0.000000 0.000000
    12 -9.996154 9.996155 0.000000 0.000000 0.000000 0.000000
    13 -9.996153 -9.996155 0.000000 0.000000 0.000000 0.000000
    14 9.996154 -9.996155 0.000000 0.000000 0.000000 0.000000
    15 2.156176 -15.661779 -0.000001 1.570796 -0.715544 0.000000
    16 -0.000002 0.000000 0.000000 0.000000 0.000000 0.000000
    17 0.000002 0.000004 0.000002 0.000000 0.000000 0.000000
    18 0.000000 0.000000 0.000000 0.000000 0.000000 0.000000
    19 0.000002 0.000004 0.000004 0.000000 0.000000 0.000000
    20 2.156176 -15.661777 -0.000002 -1.570796 -1.175187 3.141593
    21 -9.996397 -9.996395 0.000002 0.000000 0.000000 0.000000
    22 9.996399 9.996395 -0.000004 0.000000 0.000000 0.000000
    23 -9.996388 9.996391 -0.000002 0.000000 0.000000 0.000000
    24 9.996391 -9.996389 0.000002 0.000000 0.000000 0.000000
    25 -4.598289 -45.687843 0.590864 0.111863 5.947147 -3.265350
    26 0.000004 0.000003 0.000003 0.000000 0.000000 0.000000
    27 0.000004 -0.000004 -0.000003 0.000000 0.000000 0.000000
    28 0.000011 -0.000010 0.000000 0.000000 0.000000 0.000000
    29 -0.000008 0.000010 0.000003 0.000000 0.000000 0.000000
    30 -0.748869 0.799541 -4.370608 0.000000 0.000000 0.308293
    31 7.810058 0.251337 -7.085135 0.686694 -2.090451 -0.937092
    32 5.765130 -4.960490 -0.423252 -1.558314 -0.033391 -3.747655
    33 -0.025045 -8.451860 -0.084602 -0.086740 0.514102 -0.014475
    34 -0.488518 -2.755602 -0.228260 -1.030347 -0.157968 -0.394990
    35 0.039887 -1.550105 0.029854 -2.074792 -0.002565 0.045363
    36 0.028786 -1.099169 -0.077798 -0.464682 -0.009624 0.007826
    37 0.250027 -2.820665 -0.238396 -0.798963 -0.161345 -0.387124
    38 -0.049759 -1.598510 0.006726 -1.880353 -0.007406 -0.047305
    39 -0.034142 -1.163937 0.049625 -0.971280 0.008042 -0.025168
    40 0.957766 -2.746780 -0.090302 0.047556 -0.152354 -0.131678
    41 -0.033420 -1.397129 -0.026882 -0.834512 0.006675 -0.041048
    42 -0.022360 -0.965249 -0.008561 -1.195824 -0.001606 -0.057023
    43 -1.180681 -2.507217 -0.193859 -1.027090 0.019838 -0.525290
    44 -0.024967 -1.127840 0.017597 -1.714451 -0.017965 -0.066070
    45 -0.020057 -0.906594 0.025715 -0.858796 0.007107 -0.034731
    46 0.618667 -1.197277 0.185379 0.544193 -1.000238 -0.600279
    47 1.442174 -0.255387 0.079230 0.079059 -0.248260 -0.933461
    48 1.022644 -0.171260 0.040104 0.071221 -0.227578 -0.953828
    49 0.120153 -0.050270 -0.054489 0.287569 3.110905 1.561085
    50 -1.915350 -7.930561 -6.759302 0.687082 -4.232300 0.812025
    51 0.096944 -8.454325 -0.009365 0.160135 -0.246364 0.124788
    52 0.447953 -2.798986 -0.200443 -0.655991 -0.095283 0.190274
    53 -0.032909 -1.499736 0.040097 -1.883027 0.020673 -0.040098
    54 -0.027022 -1.108171 -0.028023 -0.819748 0.019559 -0.011637
    55 -0.249534 -2.846964 -0.174213 -0.587811 0.045980 0.078145
    56 0.043235 -1.656596 0.056948 -1.845438 -0.024897 0.015365
    57 0.031729 -1.141298 0.054932 -1.171127 -0.013068 0.006442
    58 -0.963866 -2.785145 -0.085350 -0.590246 0.210214 -0.028122
    59 0.028479 -1.422599 -0.032793 -1.720764 -0.058617 -0.036421
    60 0.021413 -0.942156 0.012233 -1.038923 -0.028439 -0.034959
    61 1.164475 -2.543940 -0.170330 -0.642751 -0.330838 0.151754
    62 0.024032 -1.156387 -0.009538 -1.529426 0.035331 0.068589
    63 0.014898 -0.899614 -0.015942 -0.830963 0.003655 0.042078
    64 -0.586770 -1.264477 0.200161 0.020491 -0.717858 -2.663666
    65 1.577524 0.035243 0.016848 -0.023422 -0.007470 1.055720
    66 1.114041 0.044518 -0.005766 -0.020353 -0.034714 0.772502
    67 -0.139399 -0.119511 -0.005135 0.373864 0.094176 1.499456
    68 -6.092832 6.268786 -0.376156 1.579749 -0.022389 -0.904316
  time 5
    0 5.863460 -6.882961 -7.555229 0.846013 -1.686025 -0.926416
    1 1.015654 -1.668102 0.000001 0.000006 0.000000 -3.141592
    2 1.145417 -5.369577 0.000002 0.000000 0.000000 3.141592
    3 3.114791 -3.093424 0.000001 0.000001 -1.571142 0.000000
    4 2.156557 -15.664373 0.000005 0.000000 0.000000 -1.570796
    5 2.213366 -8.360288 -0.001159 -1.571027 0.001987 -0.006965
    6 2.182062 -12.854611 -0.000128 -1.571027 -0.783409 -0.006965
    7 2.197905 -10.580413 -0.000649 -1.571027 0.351055 -0.006965
    8 -36.169212 14.144025 5.297034 -3.141592 0.872611 -0.000096
    9 -36.169212 13.080073 5.297034 0.000000 0.716516 -3.141592
    10 2.154311 -17.275190 -0.000004 1.570796 1.570796 0.000000
    11 6.003845 6.003843 0.000000 0.000000 0.000000 0.000000
    12 -6.003844 6.003845 0.000000 0.000000 0.000000 0.000000
    13 -6.003843 -6.003845 0.000000 0.000000 0.000000 0.000000
    14 6.003844 -6.003845 0.000000 0.000000 0.000000 0.000000
    15 2.156176 -15.661779 -0.000001 1.570796 2.399749 0.000000
    16 -0.000002 0.000000 0.000000 0.000000 0.000000 0.000000
    17 0.000002 0.000004 0.000002 0.000000 0.000000 0.000000
    18 0.000000 0.000000 0.000000 0.000000 0.000000 0.000000
    19 0.000002 0.000004 0.000004 0.000000 0.000000 0.000000
    20 2.156176 -15.661777 -0.000002 -1.570796 -0.858044 3.141593
    21 -9.996397 -9.996395 0.000002 0.000000 0.000000 0.000000
    22 9.996399 9.996395 -0.000004 0.000000 0.000000 0.000000
    23 -9.996388 9.996391 -0.000002 0.000000 0.000000 0.000000
    24 9.996391 -9.996389 0.000002 0.000000 0.000000 0.000000
    25 -4.598289 -45.687843 0.590864 0.111863 5.947147 -3.265350
    26 0.000004 0.000003 0.000003 0.000000 0.000000 0.000000
    27 0.000004 -0.000004 -0.000003 0.000000 0.000000 0.000000
    28 0.000011 -0.000010 0.000000 0.000000 0.000000 0.000000
    29 -0.000008 0.000010 0.000003 0.000000 0.000000 0.000000
    30 -0.748869 0.799541 -4.370608 0.000000 0.000000 0.308293
    31 7.810058 0.216179 -7.100761 0.684395 -2.089425 -0.934216
    32 5.808100 -4.913614 -0.423252 -1.558482 -0.033367 -3.739613
    33 -0.025045 -8.451860 -0.084602 -0.086933 0.513680 -0.012802
    34 -0.488518 -2.755602 -0.228260 -1.030347 -0.157968 -0.394990
    35 0.039887 -1.550105 0.029854 -2.074792 -0.002565 0.045363
    36 0.028786 -1.099169 -0.077798 -0.464682 -0.009624 0.007826
    37 0.250027 -2.820665 -0.238396 -0.798963 -0.161345 -0.387124
    38 -0.049759 -1.598510 0.006726 -1.880353 -0.007406 -0.047305
    39 -0.034142 -1.163937 0.049625 -0.971280 0.008042 -0.025168
    40 0.957766 -2.746780 -0.090302 0.047556 -0.152354 -0.131678
    41 -0.033420 -1.397129 -0.026882 -0.834512 0.006675 -0.041048
    42 -0.022360 -0.965249 -0.008561 -1.195824 -0.001606 -0.057023
    43 -1.180681 -2.507217 -0.193859 -1.027090 0.019838 -0.525290
    44 -0.024967 -1.127840 0.017597 -1.714451 -0.017965 -0.066070
    45 -0.020057 -0.906594 0.025715 -0.858796 0.007107 -0.034731
    46 0.618667 -1.197277 0.185379 0.544193 -1.000238 -0.600279
    47 1.442174 -0.255387 0.079230 0.079059 -0.248260 -0.933461
    48 1.022644 -0.171260 0.040104 0.071221 -0.227578 -0.953828
    49 0.120153 -0.050270 -0.054489 0.287569 3.110905 1.561085
    50 -1.899725 -7.950093 -6.731957 0.676132 -4.236909 0.801024
    51 0.096944 -8.454325 -0.009365 0.161373 -0.246601 0.117370
    52 0.447953 -2.798986 -0.200443 -0.655991 -0.095283 0.190274
    53 -0.032909 -1.499736 0.040097 -1.883027 0.020673 -0.040098
    54 -0.027022 -1.108171 -0.028023 -0.819748 0.019559 -0.011637
    55 -0.249534 -2.846964 -0.174213 -0.587811 0.045980 0.078145
    56 0.043235 -1.656596 0.056948 -1.845438 -0.024897 0.015365
    57 0.031729 -1.141298 0.054932 -1.171127 -0.013068 0.006442
    58 -0.963866 -2.785145 -0.085350 -0.590246 0.210214 -0.028122
    59 0.028479 -1.422599 -0.032793 -1.720764 -0.058617 -0.036421
    60 0.021413 -0.942156 0.012233 -1.038955 -0.028439 -0.034959
    61 1.164475 -2.543940 -0.170330 -0.642751 -0.330838 0.151754
    62 0.024032 -1.156387 -0.009538 -1.529426 0.035331 0.068589
    63 0.014898 -0.899614 -0.015942 -0.830963 0.003655 0.042078
    64 -0.586770 -1.264477 0.200161 0.020491 -0.717858 -2.663666
    65 1.577524 0.035243 0.016848 -0.023422 -0.007470 1.055686
    66 1.114041 0.044518 -0.005766 -0.020353 -0.034714 0.772502
    67 -0.139399 -0.119511 -0.005135 0.373864 0.094176 1.499456
    68 -6.014705 6.350820 -0.376156 1.579893 -0.022041 -0.918227
  time 6
    0 5.855647 -6.855616 -7.520072 0.848771 -1.685735 -0.929288
    1 1.015654 -1.668102 0.000001 0.000006 0.000000 -3.141592
    2 1.145417 -5.369577 0.000002 0.000000 0.000000 3.141592
    3 3.114791 -3.093424 0.000001 0.000001 -1.571142 0.000000
    4 2.156557 -15.664373 0.000005 0.000000 0.000000 -1.570796
    5 2.213366 -8.360288 -0.001159 -1.571027 -0.895603 -0.006965
    6 2.182062 -12.854611 -0.000128 -4.712523 -1.460553 3.134531
    7 2.197905 -10.580413 -0.000649 -1.571027 -0.546539 -0.006965
    8 -36.169212 14.144025 5.297034 -3.141592 0.872611 -0.000096
    9 -36.169212 13.080073 5.297034 0.000000 0.716516 -3.141592
    10 2.154311 -17.275190 -0.000004 1.570796 1.570796 0.000000
    11 9.996155 9.996153 0.000000 0.000000 0.000000 0.000000
    12 -9.996154 9.996155 0.000000 0.000000 0.000000 0.000000
    13 -9.996153 -9.996155 0.000000 0.000000 0.000000 0.000000
    14 9.996154 -9.996155 0.000000 0.000000 0.000000 0.000000
    15 2.156176 -15.661779 -0.000001 1.570796 -0.767937 0.000000
    16 -9.996401 -9.996399 0.000000 0.000000 0.000000 0.000000
    17 9.996401 9.996403 0.000002 0.000000 0.000000 0.000000
    18 -9.996399 9.996399 0.000000 0.000000 0.000000 0.000000
    19 9.996401 -9.996395 0.000004 0.000000 0.000000 0.000000
    20 2.156176 -15.661777 -0.000002 1.570796 3.682645 0.000001
    21 0.000002 0.000004 0.000002 0.000000 0.000000 0.000000
    22 0.000000 -0.000004 -0.000004 0.000000 0.000000 0.000000
    23 0.000011 -0.000008 -0.000002 0.000000 0.000000 0.000000
    24 -0.000008 0.000010 0.000002 0.000000 0.000000 0.000000
    25 -4.598289 -45.687843 0.590864 0.111863 5.947147 -3.265350
    26 0.000004 0.000003 0.000003 0.000000 0.000000 0.000000
    27 0.000004 -0.000004 -0.000003 0.000000 0.000000 0.000000
    28 0.000011 -0.000010 0.000000 0.000000 0.000000 0.000000
    29 -0.000008 0.000010 0.000003 0.000000 0.000000 0.000000
    30 -0.748869 0.799541 -4.370608 0.000000 0.000000 0.308293
    31 7.810058 0.235711 -7.092948 0.688705 -2.091955 -0.938093
    32 5.772943 -4.952678 -0.423252 -1.558338 -0.033391 -3.746216
    33 -0.025045 -8.451860 -0.084602 -0.088011 0.514793 -0.016422
    34 -0.488518 -2.755602 -0.228260 -1.030347 -0.157968 -0.394990
    35 0.039887 -1.550105 0.029854 -2.074792 -0.002565 0.045363
    36 0.028786 -1.099169 -0.077798 -0.464682 -0.009624 0.007826
    37 0.250027 -2.820665 -0.238396 -0.798963 -0.161345 -0.387124
    38 -0.049759 -1.598510 0.006726 -1.880353 -0.007406 -0.047305
    39 -0.034142 -1.163937 0.049625 -0.971280 0.008042 -0.025168
    40 0.957766 -2.746780 -0.090302 0.047556 -0.152354 -0.131678
    41 -0.033420 -1.397129 -0.026882 -0.834512 0.006675 -0.041048
    42 -0.022360 -0.965249 -0.008561 -1.195824 -0.001606 -0.057023
    43 -1.180681 -2.507217 -0.193859 -1.027090 0.019838 -0.525290
    44 -0.024967 -1.127840 0.017597 -1.714503 -0.017965 -0.066070
    45 -0.020057 -0.906594 0.025715 -0.858796 0.007107 -0.034731
    46 0.618667 -1.197277 0.185379 0.544193 -1.000238 -0.600279
    47 1.442174 -0.255387 0.079230 0.079059 -0.248260 -0.933461
    48 1.022644 -0.171260 0.040104 0.071221 -0.227578 -0.953828
    49 0.120153 -0.050270 -0.054489 0.287569 3.110905 1.561085
    50 -1.911444 -7.938374 -6.747583 0.685933 -4.232772 0.810833
    51 0.096944 -8.454325 -0.009365 0.160251 -0.246443 0.123941
    52 0.447953 -2.798986 -0.200443 -0.655991 -0.095283 0.190274
    53 -0.032909 -1.499736 0.040097 -1.883027 0.020673 -0.040098
    54 -0.027022 -1.108171 -0.028023 -0.819748 0.019559 -0.011637
    55 -0.249534 -2.846964 -0.174213 -0.587811 0.045980 0.078145
    56 0.043235 -1.656596 0.056948 -1.845438 -0.024897 0.015365
    57 0.031729 -1.141298 0.054932 -1.171127 -0.013068 0.006442
    58 -0.963866 -2.785145 -0.085350 -0.590246 0.210214 -0.028122
    59 0.028479 -1.422599 -0.032793 -1.720764 -0.058617 -0.036421
    60 0.021413 -0.942156 0.012233 -1.038923 -0.028439 -0.034959
    61 1.164475 -2.543940 -0.170330 -0.642751 -0.330838 0.151754
    62 0.024032 -1.156387 -0.009538 -1.529426 0.035331 0.068589
    63 0.014898 -0.899614 -0.015942 -0.830963 0.003655 0.042078
    64 -0.586770 -1.264477 0.200161 0.020491 -0.717858 -2.663666
    65 1.577524 0.035243 0.016848 -0.023422 -0.007470 1.055686
    66 1.114041 0.044518 -0.005766 -0.020353 -0.034714 0.772502
    67 -0.139399 -0.119511 -0.005135 0.373864 0.094176 1.499456
    68 -6.073300 6.292224 -0.376156 1.579785 -0.022293 -0.908088
  time 7
    0 5.824396 -6.839991 -7.543510 0.856570 -1.684983 -0.937424
    1 1.015654 -1.668102 0.000001 0.000006 0.000000 -3.141592
    2 1.145417 -5.369577 0.000002 0.000000 0.000000 3.141592
    3 3.114791 -3.093424 0.000001 0.000001 -1.571142 0.000000
    4 2.156557 -15.664373 0.000005 0.000000 0.000000 -1.570796
    5 2.213366 -8.360288 -0.001159 -4.712619 -1.348360 -3.148557
    6 2.182062 -12.854611 -0.000128 -4.712619 -0.562993 -3.148557
    7 2.197905 -10.580413 -0.000649 -1.571027 -1.444134 -0.006965
    8 -36.169212 14.144025 5.297034 -3.141592 0.872611 -0.000096
    9 -36.169212 13.080073 5.297034 0.000000 0.716516 -3.141592
    10 2.154311 -17.275190 -0.000004 1.570796 1.570796 0.000000
    11 6.003845 6.003843 0.000000 0.000000 0.000000 0.000000
    12 -6.003844 6.003845 0.000000 0.000000 0.000000 0.000000
    13 -6.003843 -6.003845 0.000000 0.000000 0.000000 0.000000
    14 6.003844 -6.003845 0.000000 0.000000 0.000000 0.000000
    15 2.156176 -15.661779 -0.000001 1.570796 2.347448 0.000000
    16 -0.000002 0.000000 0.000000 0.000000 0.000000 0.000000
    17 0.000002 0.000004 0.000002 0.000000 0.000000 0.000000
    18 0.000000 0.000000 0.000000 0.000000 0.000000 0.000000
    19 0.000002 0.000004 0.000004 0.000000 0.000000 0.000000
    20 2.156176 -15.661777 -0.000002 -1.570796 -0.223945 3.141593
    21 -9.996397 -9.996395 0.000002 0.000000 0.000000 0.000000
    22 9.996399 9.996395 -0.000004 0.000000 0.000000 0.000000
    23 -9.996388 9.996391 -0.000002 0.000000 0.000000 0.000000
    24 9.996391 -9.996389 0.000002 0.000000 0.000000 0.000000
    25 -4.598289 -45.687843 0.590864 0.111863 5.947147 -3.265350
    26 0.000004 0.000003 0.000003 0.000000 0.000000 0.000000
    27 0.000004 -0.000004 -0.000003 0.000000 0.000000 0.000000
    28 0.000011 -0.000010 0.000000 0.000000 0.000000 0.000000
    29 -0.000008 0.000010 0.000003 0.000000 0.000000 0.000000
    30 -0.748869 0.799541 -4.370608 0.000000 0.000000 0.308293
    31 7.813964 0.266962 -7.077323 0.683629 -2.087305 -0.937384
    32 5.757317 -4.968303 -0.423252 -1.558290 -0.033391 -3.748756
    33 -0.025045 -8.455766 -0.084602 -0.082889 0.512701 -0.010745
    34 -0.488518 -2.755602 -0.228260 -1.030347 -0.157968 -0.394990
    35 0.039887 -1.550105 0.029854 -2.074792 -0.002565 0.045363
    36 0.028786 -1.099169 -0.077798 -0.464682 -0.009624 0.007826
    37 0.250027 -2.820665 -0.238396 -0.798963 -0.161345 -0.387124
    38 -0.049759 -1.598510 0.006726 -1.880353 -0.007406 -0.047305
    39 -0.034142 -1.163937 0.049625 -0.971280 0.008042 -0.025168
    40 0.957766 -2.746780 -0.090302 0.047556 -0.152354 -0.131678
    41 -0.033420 -1.397129 -0.026882 -0.834512 0.006675 -0.041048
    42 -0.022360 -0.965249 -0.008561 -1.195824 -0.001606 -0.057023
    43 -1.180681 -2.507217 -0.193859 -1.027090 0.019838 -0.525290
    44 -0.024967 -1.127840 0.017597 -1.714503 -0.017965 -0.066070
    45 -0.020057 -0.906594 0.025715 -0.858796 0.007107 -0.034731
    46 0.618667 -1.197277 0.185379 0.544193 -1.000238 -0.600279
    47 1.442174 -0.255387 0.079230 0.079059 -0.248260 -0.933461
    48 1.022644 -0.171260 0.040104 0.071221 -0.227578 -0.953828
    49 0.120153 -0.050270 -0.054489 0.287569 3.110905 1.561085
    50 -1.930976 -7.914935 -6.778834 0.688177 -4.231827 0.812116
    51 0.096944 -8.454325 -0.009365 0.158973 -0.245601 0.125901
    52 0.447953 -2.798986 -0.200443 -0.655991 -0.095283 0.190274
    53 -0.032909 -1.499736 0.040097 -1.883027 0.020673 -0.040098
    54 -0.027022 -1.108171 -0.028023 -0.819748 0.019559 -0.011637
    55 -0.249534 -2.846964 -0.174213 -0.587811 0.045980 0.078145
    56 0.043235 -1.656596 0.056948 -1.845438 -0.024897 0.015365
    57 0.031729 -1.141298 0.054932 -1.171127 -0.013068 0.006442
    58 -0.963866 -2.785145 -0.085350 -0.590246 0.210214 -0.028122
    59 0.028479 -1.422599 -0.032793 -1.720764 -0.058617 -0.036421
    60 0.021413 -0.942156 0.012233 -1.038923 -0.028439 -0.034959
    61 1.164475 -2.543940 -0.170330 -0.642751 -0.330838 0.151754
    62 0.024032 -1.156387 -0.009538 -1.529426 0.035331 0.068589
    63 0.014898 -0.899614 -0.015942 -0.830963 0.003655 0.042078
    64 -0.586770 -1.264477 0.200161 0.020491 -0.717858 -2.663666
    65 1.577524 0.035243 0.016848 -0.023422 -0.007470 1.055686
    66 1.114041 0.044518 -0.005766 -0.020353 -0.034714 0.772502
    67 -0.139399 -0.119511 -0.005135 0.373864 0.094176 1.499456
    68 -6.124083 6.237535 -0.380062 1.579689 -0.022521 -0.898937
  time 8
    0 5.859554 -6.859523 -7.523978 0.868648 -1.683844 -0.950059
    1 1.015654 -1.668102 0.000001 0.000006 0.000000 -3.141592
    2 1.145417 -5.369577 0.000002 0.000000 0.000000 3.141592
    3 3.114791 -3.093424 0.000001 0.000001 -1.571142 0.000000
    4 2.156557 -15.664373 0.000005 0.000000 0.000000 -1.570796
    5 2.213366 -8.360288 -0.001159 -4.712619 -0.450770 -3.148557
    6 2.182062 -12.854611 -0.000128 -4.712619 0.334567 3.134531
    7 2.197905 -10.580413 -0.000649 -4.712619 -0.799809 -3.148557
    8 -36.169212 14.144025 5.297034 -3.141592 0.872611 -0.000096
    9 -36.169212 13.080073 5.297034 0.000000 0.716516 -3.141592
    10 2.154311 -17.275190 -0.000004 1.570796 1.570796 0.000000
    11 9.996155 9.996153 0.000000 0.000000 0.000000 0.000000
    12 -9.996154 9.996155 0.000000 0.000000 0.000000 0.000000
    13 -9.996153 -9.996155 0.000000 0.000000 0.000000 0.000000
    14 9.996154 -9.996155 0.000000 0.000000 0.000000 0.000000
    15 2.156176 -15.661779 -0.000001 1.570796 -0.820238 0.000000
    16 -9.996401 -9.996399 0.000000 0.000000 0.000000 0.000000
    17 9.996401 9.996403 0.000002 0.000000 0.000000 0.000000
    18 -9.996399 9.996399 0.000000 0.000000 0.000000 0.000000
    19 9.996401 -9.996395 0.000004 0.000000 0.000000 0.000000
    20 2.156176 -15.661777 -0.000002 1.570796 3.048453 0.000001
    21 0.000002 0.000004 0.000002 0.000000 0.000000 0.000000
    22 0.000000 -0.000004 -0.000004 0.000000 0.000000 0.000000
    23 0.000011 -0.000008 -0.000002 0.000000 0.000000 0.000000
    24 -0.000008 0.000010 0.000002 0.000000 0.000000 0.000000
    25 -4.598289 -45.687843 0.590864 0.111863 5.947147 -3.265350
    26 0.000004 0.000003 0.000003 0.000000 0.000000 0.000000
    27 0.000004 -0.000004 -0.000003 0.000000 0.000000 0.000000
    28 0.000011 -0.000010 0.000000 0.000000 0.000000 0.000000
    29 -0.000008 0.000010 0.000003 0.000000 0.000000 0.000000
    30 -0.748869 0.799541 -4.370608 0.000000 0.000000 0.308293
    31 7.810058 0.235711 -7.092948 0.687460 -2.091272 -0.936884
    32 5.780756 -4.948771 -0.423252 -1.558362 -0.033379 -3.745031
    33 -0.025045 -8.451860 -0.084602 -0.087896 0.517749 -0.015627
    34 -0.488518 -2.755602 -0.228260 -1.030347 -0.157968 -0.394990
    35 0.039887 -1.550105 0.029854 -2.074792 -0.002565 0.045363
    36 0.028786 -1.099169 -0.077798 -0.464682 -0.009624 0.007826
    37 0.250027 -2.820665 -0.238396 -0.798963 -0.161345 -0.387124
    38 -0.049759 -1.598510 0.006726 -1.880353 -0.007406 -0.047305
    39 -0.034142 -1.163937 0.049625 -0.971280 0.008042 -0.025168
    40 0.957766 -2.746780 -0.090302 0.047556 -0.152354 -0.131678
    41 -0.033420 -1.397129 -0.026882 -0.834512 0.006675 -0.041048
    42 -0.022360 -0.965249 -0.008561 -1.195824 -0.001606 -0.057023
    43 -1.180681 -2.507217 -0.193859 -1.027056 0.019838 -0.525290
    44 -0.024967 -1.127840 0.017597 -1.714451 -0.017965 -0.066070
    45 -0.020057 -0.906594 0.025715 -0.858796 0.007107 -0.034731
    46 0.618667 -1.197277 0.185379 0.544193 -1.000238 -0.600279
    47 1.442174 -0.255387 0.079230 0.079059 -0.248260 -0.933461
    48 1.022644 -0.171260 0.040104 0.071221 -0.227578 -0.953828
    49 0.120153 -0.050270 -0.054489 0.287569 3.110905 1.561085
    50 -1.911444 -7.938374 -6.747583 0.686152 -4.232654 0.810650
    51 0.096944 -8.454325 -0.009365 0.159709 -0.243837 0.125583
    52 0.447953 -2.798986 -0.200443 -0.655991 -0.095283 0.190274
    53 -0.032909 -1.499736 0.040097 -1.883027 0.020673 -0.040098
    54 -0.027022 -1.108171 -0.028023 -0.819748 0.019559 -0.011637
    55 -0.249534 -2.846964 -0.174213 -0.587811 0.045980 0.078145
    56 0.043235 -1.656596 0.056948 -1.845438 -0.024897 0.015365
    57 0.031729 -1.141298 0.054932 -1.171127 -0.013068 0.006442
    58 -0.963866 -2.785145 -0.085350 -0.590246 0.210214 -0.028122
    59 0.028479 -1.422599 -0.032793 -1.720764 -0.058617 -0.036421
    60 0.021413 -0.942156 0.012233 -1.038955 -0.028439 -0.034959
    61 1.164475 -2.543940 -0.170330 -0.642751 -0.330838 0.151754
    62 0.024032 -1.156387 -0.009538 -1.529426 0.035331 0.068589
    63 0.014898 -0.899614 -0.015942 -0.830963 0.003655 0.042078
    64 -0.586770 -1.264477 0.200161 0.020491 -0.717858 -2.663666
    65 1.577524 0.035243 0.016848 -0.023422 -0.007470 1.055686
    66 1.114041 0.044518 -0.005766 -0.020353 -0.034714 0.772502
    67 -0.139399 -0.119511 -0.005135 0.373864 0.094176 1.499456
    68 -6.077207 6.288318 -0.376156 1.579785 -0.022305 -0.907531
  time 9
    0 5.879086 -6.851710 -7.512259 0.884340 -1.682415 -0.966331
    1 1.015654 -1.668102 0.000001 0.000006 0.000000 -3.141592
    2 1.145417 -5.369577 0.000002 0.000000 0.000000 3.141592
    3 3.114791 -3.093424 0.000001 0.000001 -1.570806 0.000000
    4 2.156557 -15.664373 0.000005 0.000000 0.000000 -1.570796
    5 2.213366 -8.360288 -0.001159 -4.712619 0.446775 -3.148557
    6 2.182062 -12.854611 -0.000128 -4.712619 1.232198 -3.148557
    7 2.197905 -10.580413 -0.000649 -4.712619 0.097785 -3.148557
    8 -36.169212 14.144025 5.297034 -3.141592 0.872611 -0.000096
    9 -36.169212 13.080073 5.297034 0.000000 0.716516 -3.141592
    10 2.154311 -17.275190 -0.000004 1.570796 1.570796 0.000000
    11 6.003845 6.003843 0.000000 0.000000 0.000000 0.000000
    12 -6.003844 6.003845 0.000000 0.000000 0.000000 0.000000
    13 -6.003843 -6.003845 0.000000 0.000000 0.000000 0.000000
    14 6.003844 -6.003845 0.000000 0.000000 0.000000 0.000000
    15 2.156176 -15.661779 -0.000001 1.570796 2.295055 0.000000
    16 -0.000002 0.000000 0.000000 0.000000 0.000000 0.000000
    17 0.000002 0.000004 0.000002 0.000000 0.000000 0.000000
    18 0.000000 0.000000 0.000000 0.000000 0.000000 0.000000
    19 0.000002 0.000004 0.000004 0.000000 0.000000 0.000000
    20 2.156176 -15.661777 -0.000002 -1.570796 0.410248 3.141593
    21 -9.996397 -9.996395 0.000002 0.000000 0.000000 0.000000
    22 9.996399 9.996395 -0.000004 0.000000 0.000000 0.000000
    23 -9.996388 9.996391 -0.000002 0.000000 0.000000 0.000000
    24 9.996391 -9.996389 0.000002 0.000000 0.000000 0.000000
    25 -4.598289 -45.687843 0.590864 0.111863 5.947147 -3.265350
    26 0.000004 0.000003 0.000003 0.000000 0.000000 0.000000
    27 0.000004 -0.000004 -0.000003 0.000000 0.000000 0.000000
    28 0.000011 -0.000010 0.000000 0.000000 0.000000 0.000000
    29 -0.000008 0.000010 0.000003 0.000000 0.000000 0.000000
    30 -0.748869 0.799541 -4.370608 0.000000 0.000000 0.308293
    31 7.810058 0.239618 -7.092948 0.688035 -2.093118 -0.933883
    32 5.776849 -4.952678 -0.423252 -1.558350 -0.033379 -3.745708
    33 -0.025045 -8.451860 -0.084602 -0.091708 0.522451 -0.017656
    34 -0.488518 -2.755602 -0.228260 -1.030347 -0.157968 -0.394990
    35 0.039887 -1.550105 0.029854 -2.074854 -0.002565 0.045363
    36 0.028786 -1.099169 -0.077798 -0.464682 -0.009624 0.007826
    37 0.250027 -2.820665 -0.238396 -0.798963 -0.161345 -0.387124
    38 -0.049759 -1.598510 0.006726 -1.880353 -0.007406 -0.047305
    39 -0.034142 -1.163937 0.049625 -0.971280 0.008042 -0.025168
    40 0.957766 -2.746780 -0.090302 0.047556 -0.152354 -0.131678
    41 -0.033420 -1.397129 -0.026882 -0.834512 0.006675 -0.041048
    42 -0.022360 -0.965249 -0.008561 -1.195824 -0.001606 -0.057023
    43 -1.180681 -2.507217 -0.193859 -1.027090 0.019838 -0.525290
    44 -0.024967 -1.127840 0.017597 -1.714451 -0.017965 -0.066070
    45 -0.020057 -0.906594 0.025715 -0.858796 0.007107 -0.034731
    46 0.618667 -1.197277 0.185379 0.544193 -1.000238 -0.600279
    47 1.442174 -0.255387 0.079230 0.079059 -0.248260 -0.933461
    48 1.022644 -0.171260 0.040104 0.071221 -0.227578 -0.953828
    49 0.120153 -0.050270 -0.054489 0.287569 3.110905 1.561085
    50 -1.907538 -7.938374 -6.743677 0.688670 -4.231590 0.814225
    51 0.096944 -8.450418 -0.009365 0.160367 -0.241626 0.128551
    52 0.447953 -2.798986 -0.200443 -0.655991 -0.095283 0.190274
    53 -0.032909 -1.499736 0.040097 -1.883027 0.020673 -0.040098
    54 -0.027022 -1.108171 -0.028023 -0.819748 0.019559 -0.011637
    55 -0.249534 -2.846964 -0.174213 -0.587811 0.045980 0.078145
    56 0.043235 -1.656596 0.056948 -1.845438 -0.024897 0.015365
    57 0.031729 -1.141298 0.054932 -1.171127 -0.013068 0.006442
    58 -0.963866 -2.785145 -0.085350 -0.590246 0.210214 -0.028122
    59 0.028479 -1.422599 -0.032793 -1.720764 -0.058617 -0.036421
    60 0.021413 -0.942156 0.012233 -1.038923 -0.028439 -0.034959
    61 1.164475 -2.543940 -0.170330 -0.642751 -0.330838 0.151754
    62 0.024032 -1.156387 -0.009538 -1.529426 0.035331 0.068589
    63 0.014898 -0.899614 -0.015942 -0.830963 0.003655 0.042078
    64 -0.586770 -1.264477 0.200161 0.020491 -0.717858 -2.663666
    65 1.577524 0.035243 0.016848 -0.023422 -0.007470 1.055686
    66 1.114041 0.044518 -0.005766 -0.020353 -0.034714 0.772502
    67 -0.139399 -0.119511 -0.005135 0.373864 0.094176 1.499456
    68 -6.081113 6.284412 -0.376156 1.579773 -0.022329 -0.906604
  time 10
    0 5.859554 -6.851710 -7.508353 0.903075 -1.680815 -0.985762
    1 1.015654 -1.668102 0.000001 0.000006 0.000000 -3.141592
    2 1.145417 -5.369577 0.000002 0.000000 0.000000 3.141592
    3 3.114791 -3.093424 0.000001 0.000001 -1.571142 0.000000
    4 2.156557 -15.664373 0.000005 0.000000 0.000000 -1.570796
    5 2.213366 -8.360288 -0.001159 -4.712619 -1.348360 3.134531
    6 2.182062 -12.854611 -0.000128 -4.712619 -0.562993 -3.148557
    7 2.197905 -10.580413 -0.000649 -1.571027 -1.444134 -0.006965
    8 -36.169212 14.144025 5.297034 -3.141592 0.872611 -0.000096
    9 -36.169212 13.080073 5.297034 0.000000 0.716516 -3.141592
    10 2.154311 -17.275190 -0.000004 1.570796 1.570796 0.000000
    11 9.996155 9.996153 0.000000 0.000000 0.000000 0.000000
    12 -9.996154 9.996155 0.000000 0.000000 0.000000 0.000000
    13 -9.996153 -9.996155 0.000000 0.000000 0.000000 0.000000
    14 9.996154 -9.996155 0.000000 0.000000 0.000000 0.000000
    15 2.156176 -15.661779 -0.000001 1.570796 -0.610851 0.000000
    16 -0.000002 0.000000 0.000000 0.000000 0.000000 0.000000
    17 0.000002 0.000004 0.000002 0.000000 0.000000 0.000000
    18 0.000000 0.000000 0.000000 0.000000 0.000000 0.000000
    19 0.000002 0.000004 0.000004 0.000000 0.000000 0.000000
    20 2.156176 -15.661777 -0.000002 1.570796 -0.698113 0.000001
    21 -9.996397 -9.996395 0.000002 0.000000 0.000000 0.000000
    22 9.996399 9.996395 -0.000004 0.000000 0.000000 0.000000
    23 -9.996388 9.996391 -0.000002 0.000000 0.000000 0.000000
    24 9.996391 -9.996389 0.000002 0.000000 0.000000 0.000000
    25 -4.598289 -45.687843 0.590864 0.111863 5.947147 -3.265350
    26 0.000004 0.000003 0.000003 0.000000 0.000000 0.000000
    27 0.000004 -0.000004 -0.000003 0.000000 0.000000 0.000000
    28 0.000011 -0.000010 0.000000 0.000000 0.000000 0.000000
    29 -0.000008 0.000010 0.000003 0.000000 0.000000 0.000000
    30 -0.748869 0.799541 -4.370608 0.000000 0.000000 0.308293
    31 7.810058 0.235711 -7.092948 0.689280 -2.092434 -0.938218
    32 5.772943 -4.956584 -0.423252 -1.558338 -0.033391 -3.746470
    33 -0.025045 -8.451860 -0.084602 -0.088781 0.523315 -0.017574
    34 -0.488518 -2.755602 -0.228260 -1.030347 -0.157968 -0.394990
    35 0.039887 -1.550105 0.029854 -2.074792 -0.002565 0.045363
    36 0.028786 -1.099169 -0.077798 -0.464682 -0.009624 0.007826
    37 0.250027 -2.820665 -0.238396 -0.798963 -0.161345 -0.387124
    38 -0.049759 -1.598510 0.006726 -1.880353 -0.007406 -0.047305
    39 -0.034142 -1.163937 0.049625 -0.971280 0.008042 -0.025168
    40 0.957766 -2.746780 -0.090302 0.047556 -0.152354 -0.131678
    41 -0.033420 -1.397129 -0.026882 -0.834512 0.006675 -0.041048
    42 -0.022360 -0.965249 -0.008561 -1.195824 -0.001606 -0.057023
    43 -1.180681 -2.507217 -0.193859 -1.027090 0.019838 -0.525290
    44 -0.024967 -1.127840 0.017597 -1.714451 -0.017965 -0.066070
    45 -0.020057 -0.906594 0.025715 -0.858796 0.007107 -0.034731
    46 0.618667 -1.197277 0.185379 0.544193 -1.000238 -0.600279
    47 1.442174 -0.255387 0.079230 0.079059 -0.248260 -0.933461
    48 1.022644 -0.171260 0.040104 0.071221 -0.227578 -0.953828
    49 0.120153 -0.050270 -0.054489 0.287569 3.110905 1.561085
    50 -1.923163 -7.930561 -6.751489 0.691736 -4.230290 0.815417
    51 0.096944 -8.450418 -0.009365 0.158122 -0.239625 0.131677
    52 0.447953 -2.798986 -0.200443 -0.655991 -0.095283 0.190274
    53 -0.032909 -1.499736 0.040097 -1.883027 0.020673 -0.040098
    54 -0.027022 -1.108171 -0.028023 -0.819748 0.019559 -0.011637
    55 -0.249534 -2.846964 -0.174213 -0.587811 0.045980 0.078145
    56 0.043235 -1.656596 0.056948 -1.845438 -0.024897 0.015365
    57 0.031729 -1.141298 0.054932 -1.171127 -0.013068 0.006442
    58 -0.963866 -2.785145 -0.085350 -0.590246 0.210214 -0.028122
    59 0.028479 -1.422599 -0.032793 -1.720764 -0.058617 -0.036421
    60 0.021413 -0.942156 0.012233 -1.038955 -0.028439 -0.034959
    61 1.164475 -2.543940 -0.170330 -0.642751 -0.330838 0.151754
    62 0.024032 -1.156387 -0.009538 -1.529426 0.035331 0.068589
    63 0.014898 -0.899614 -0.015942 -0.830963 0.003655 0.042078
    64 -0.586770 -1.264477 0.200161 0.020491 -0.717858 -2.663666
    65 1.577524 0.035243 0.016848 -0.023422 -0.007470 1.055720
    66 1.114041 0.044518 -0.005766 -0.020353 -0.034714 0.772502
    67 -0.139399 -0.119511 -0.005135 0.373864 0.094176 1.499456
    68 -6.104551 6.257067 -0.376156 1.579737 -0.022425 -0.902523
end
