// Created by Crowbar 0.34.0.0

$ModelName "weapons/tfa_cso/w_ancient_bringer.mdl"

$BodyGroup "studio"
{
	studio "v_bufffiveseven02"
}

$collisionmodel "v_bufffiveseven02.smd"
{
	$mass 9
}

$CDMaterials "models\weapons\tfa_cso\ancient_bringer\"

$attachment "0" "root" -0.00 -4.00 -0.00 rotate -0 -90 0

$Sequence "idle" {
	"anims\idle.smd"
	fps 30
}