version 1
nodes
  0 "Bone_Root" -1
  1 "Bone04" 0
  2 "Bone_Righthand" 1
  3 "gatling_root" 2
  4 "load" 3
  5 "gun01" 3
  6 "gun02" 5
  7 "gunstock" 3
  8 "trigger" 7
  9 "magazine" 3
  10 "Bone39" 2
  11 "Bone40" 10
  12 "Bone41" 11
  13 "Bone35" 2
  14 "Bone36" 13
  15 "Bone37" 14
  16 "Bone31" 2
  17 "Bone32" 16
  18 "Bone33" 17
  19 "Bone43" 2
  20 "Bone44" 19
  21 "Bone45" 20
  22 "Bone27" 2
  23 "Bone28" 22
  24 "Bone29" 23
  25 "Bone_Se_Hand-R" 2
  26 "Bone01" 0
  27 "Bone_Lefthand" 26
  28 "Bone13" 27
  29 "Bone14" 28
  30 "Bone15" 29
  31 "Bone17" 27
  32 "Bone18" 31
  33 "Bone19" 32
  34 "Bone21" 27
  35 "Bone22" 34
  36 "Bone23" 35
  37 "Bone09" 27
  38 "Bone10" 37
  39 "Bone11" 38
  40 "Bone05" 27
  41 "Bone06" 40
  42 "Bone07" 41
  43 "Bone_Se_Hand-L" 27
end
skeleton
  time 0
    0 0.000000 0.000000 0.000000 0.000000 0.000000 -0.000094
    1 0.058160 -6.761723 -17.892889 0.467029 -0.111791 0.702816
    2 0.096944 -8.450418 -0.009364 0.278066 -0.276658 0.114440
    3 3.768138 0.512573 0.996006 4.368260 0.090750 0.732941
    4 -3.054055 -6.061510 0.000003 0.000001 0.000001 0.005300
    5 -2.010682 -3.271751 0.000002 0.000000 0.000000 -3.136292
    6 11.679249 -0.000002 0.000000 0.000000 0.000000 0.000000
    7 10.482985 -0.550526 -0.000004 0.000000 0.000000 -3.136292
    8 4.552885 2.143378 -0.000001 0.000000 0.000000 -1.570796
    9 3.124239 -3.246087 -0.000008 0.000000 0.000000 -3.136292
    10 0.447952 -2.798983 -0.200442 -0.738074 -0.102210 0.041797
    11 -0.032910 -1.480206 0.004936 -0.802775 0.000000 0.000002
    12 -0.027022 -1.076919 -0.020212 -0.434237 0.000000 0.000000
    13 -0.249534 -2.846962 -0.174215 -0.372660 -0.091819 0.024622
    14 0.043235 -1.683940 0.096014 -1.033446 0.002823 -0.000167
    15 0.031729 -1.160831 0.058836 -1.000043 0.000642 0.008372
    16 -0.963866 -2.785142 -0.085346 -0.269123 0.014961 -0.024958
    17 0.028479 -1.403069 0.006271 -0.285440 0.000000 0.000000
    18 0.021413 -0.957782 0.020047 -0.431473 0.000000 0.000000
    19 1.164474 -2.543938 -0.170328 -0.858262 -0.318398 0.068471
    20 0.024033 -1.129042 0.017806 -0.500933 0.000000 0.000001
    21 0.014896 -0.883989 -0.019845 -0.267454 0.000000 0.000000
    22 -0.547706 -1.276194 0.008752 -0.015000 -0.716336 -2.528360
    23 1.522835 0.128996 -0.182375 0.265658 0.160195 0.522271
    24 1.117948 0.048424 -0.005764 -0.002580 -0.025066 0.158722
    25 -0.139399 -0.111697 0.014397 0.285382 -0.030687 1.580508
    26 9.587823 7.275833 -11.673667 5.108591 -1.733499 1.077755
    27 -0.071918 -8.498732 -0.104137 -0.036395 0.273210 -0.341615
    28 -0.488517 -2.755600 -0.228261 -1.091352 -0.300440 -0.445601
    29 0.039888 -1.479789 0.029853 -0.928028 0.000000 0.000000
    30 0.028786 -1.075730 -0.023111 -1.481379 0.000000 0.000000
    31 0.250028 -2.820664 -0.238396 -0.620838 -0.150751 -0.537343
    32 -0.049759 -1.680545 0.100480 -1.463615 0.000000 -0.000002
    33 -0.034141 -1.148312 0.084779 -1.087260 0.000000 0.000000
    34 0.957766 -2.746776 -0.090301 -0.063286 -0.242586 -0.427231
    35 -0.033419 -1.397128 -0.011255 -0.779083 0.124808 -0.122316
    36 -0.022361 -0.957434 0.018783 -1.043272 0.000000 0.000000
    37 -1.180680 -2.507215 -0.193861 -1.402521 -0.167650 -0.612250
    38 -0.024966 -1.123935 0.017594 -0.977951 0.000000 0.000001
    39 -0.020057 -0.890966 0.010091 -0.933396 0.000000 0.000000
    40 0.583510 -1.197274 0.185377 0.272562 -1.003483 -0.533072
    41 1.535926 0.010244 0.005008 0.440185 -0.138709 -1.296608
    42 1.100770 0.004526 -0.010676 -0.011449 0.011503 -0.607426
    43 0.120152 -0.050266 -0.054488 0.287568 3.110905 1.561085
  time 1
    0 0.000000 0.000000 0.000000 0.000000 0.000000 -0.000094
    1 0.058160 -6.761723 -17.849919 0.463306 -0.105087 0.686191
    2 0.096944 -8.450418 -0.009364 0.278066 -0.276658 0.114440
    3 3.768138 0.520386 1.023350 4.368260 0.090750 0.732941
    4 -3.054055 -6.061510 0.000003 0.000001 0.000001 0.005300
    5 -2.010682 -3.271751 0.000002 0.000000 0.000000 -3.136292
    6 11.679249 -0.000002 0.000000 0.000000 0.000000 0.000000
    7 10.482985 -0.550526 -0.000004 0.000000 0.000000 -3.136292
    8 4.552885 2.143378 -0.000001 0.000000 0.000000 -1.570796
    9 3.124239 -3.246087 -0.000008 0.000000 0.000000 -3.136292
    10 0.447952 -2.798983 -0.200442 -0.738074 -0.102210 0.041797
    11 -0.032910 -1.480206 0.004936 -0.802775 0.000000 0.000002
    12 -0.027022 -1.076919 -0.020212 -0.434237 0.000000 0.000000
    13 -0.249534 -2.846962 -0.174215 -0.372660 -0.091819 0.024622
    14 0.043235 -1.683940 0.096014 -1.033446 0.002823 -0.000167
    15 0.031729 -1.160831 0.058836 -1.000043 0.000642 0.008372
    16 -0.963866 -2.785142 -0.085346 -0.269123 0.014961 -0.024958
    17 0.028479 -1.403069 0.006271 -0.285440 0.000000 0.000000
    18 0.021413 -0.957782 0.020047 -0.431473 0.000000 0.000000
    19 1.164474 -2.543938 -0.170328 -0.858262 -0.318398 0.068471
    20 0.024033 -1.129042 0.017806 -0.500933 0.000000 0.000001
    21 0.014896 -0.883989 -0.019845 -0.267454 0.000000 0.000000
    22 -0.547706 -1.276194 0.008752 -0.015000 -0.716336 -2.528360
    23 1.522835 0.128996 -0.182375 0.265658 0.160195 0.522271
    24 1.117948 0.048424 -0.005764 -0.002580 -0.025066 0.158722
    25 -0.139399 -0.111697 0.014397 0.285382 -0.030687 1.580508
    26 9.607355 7.252395 -11.634603 5.106294 -1.732542 1.078703
    27 -0.071918 -8.498732 -0.104137 -0.036395 0.273210 -0.341615
    28 -0.488517 -2.755600 -0.228261 -1.091352 -0.300440 -0.445601
    29 0.039888 -1.479789 0.029853 -0.928028 0.000000 0.000000
    30 0.028786 -1.075730 -0.023111 -1.481379 0.000000 0.000000
    31 0.250028 -2.820664 -0.238396 -0.620838 -0.150751 -0.537343
    32 -0.049759 -1.680545 0.100480 -1.463615 0.000000 -0.000002
    33 -0.034141 -1.148312 0.084779 -1.087260 0.000000 0.000000
    34 0.957766 -2.746776 -0.090301 -0.063286 -0.242586 -0.427231
    35 -0.033419 -1.397128 -0.011255 -0.779083 0.124808 -0.122316
    36 -0.022361 -0.957434 0.018783 -1.043272 0.000000 0.000000
    37 -1.180680 -2.507215 -0.193861 -1.402521 -0.167650 -0.612250
    38 -0.024966 -1.123935 0.017594 -0.977951 0.000000 0.000001
    39 -0.020057 -0.890966 0.010091 -0.933396 0.000000 0.000000
    40 0.583510 -1.197274 0.185377 0.272562 -1.003483 -0.533072
    41 1.535926 0.010244 0.005008 0.440185 -0.138709 -1.296608
    42 1.100770 0.004526 -0.010676 -0.011449 0.011503 -0.607426
    43 0.120152 -0.050266 -0.054488 0.287568 3.110905 1.561085
  time 2
    0 0.000000 0.000000 0.000000 0.000000 0.000000 -0.000094
    1 0.058160 -6.761723 -17.724916 0.452975 -0.086891 0.642344
    2 0.096944 -8.450418 -0.009364 0.278066 -0.276658 0.114440
    3 3.768138 0.543824 1.105384 4.368260 0.090750 0.732941
    4 -3.054055 -6.061510 0.000003 0.000001 0.000001 0.005300
    5 -2.010682 -3.271751 0.000002 0.000000 0.000000 -3.136292
    6 11.679249 -0.000002 0.000000 0.000000 0.000000 0.000000
    7 10.482985 -0.550526 -0.000004 0.000000 0.000000 -3.136292
    8 4.552885 2.143378 -0.000001 0.000000 0.000000 -1.570796
    9 3.124239 -3.246087 -0.000008 0.000000 0.000000 -3.136292
    10 0.447952 -2.798983 -0.200442 -0.738074 -0.102210 0.041797
    11 -0.032910 -1.480206 0.004936 -0.802775 0.000000 0.000002
    12 -0.027022 -1.076919 -0.020212 -0.434237 0.000000 0.000000
    13 -0.249534 -2.846962 -0.174215 -0.372660 -0.091819 0.024622
    14 0.043235 -1.683940 0.096014 -1.033446 0.002823 -0.000167
    15 0.031729 -1.160831 0.058836 -1.000043 0.000642 0.008372
    16 -0.963866 -2.785142 -0.085346 -0.269123 0.014961 -0.024958
    17 0.028479 -1.403069 0.006271 -0.285440 0.000000 0.000000
    18 0.021413 -0.957782 0.020047 -0.431473 0.000000 0.000000
    19 1.164474 -2.543938 -0.170328 -0.858262 -0.318398 0.068471
    20 0.024033 -1.129042 0.017806 -0.500933 0.000000 0.000001
    21 0.014896 -0.883989 -0.019845 -0.267454 0.000000 0.000000
    22 -0.547706 -1.276194 0.008752 -0.015000 -0.716336 -2.528360
    23 1.522835 0.128996 -0.182375 0.265658 0.160195 0.522271
    24 1.117948 0.048424 -0.005764 -0.002580 -0.025066 0.158722
    25 -0.139399 -0.111697 0.014397 0.285382 -0.030687 1.580508
    26 9.658138 7.185987 -11.505693 5.099977 -1.729384 1.081643
    27 -0.071918 -8.498732 -0.104137 -0.036395 0.273210 -0.341615
    28 -0.488517 -2.755600 -0.228261 -1.091352 -0.300440 -0.445601
    29 0.039888 -1.479789 0.029853 -0.928028 0.000000 0.000000
    30 0.028786 -1.075730 -0.023111 -1.481379 0.000000 0.000000
    31 0.250028 -2.820664 -0.238396 -0.620838 -0.150751 -0.537343
    32 -0.049759 -1.680545 0.100480 -1.463615 0.000000 -0.000002
    33 -0.034141 -1.148312 0.084779 -1.087260 0.000000 0.000000
    34 0.957766 -2.746776 -0.090301 -0.063286 -0.242586 -0.427231
    35 -0.033419 -1.397128 -0.011255 -0.779083 0.124808 -0.122316
    36 -0.022361 -0.957434 0.018783 -1.043272 0.000000 0.000000
    37 -1.180680 -2.507215 -0.193861 -1.402521 -0.167650 -0.612250
    38 -0.024966 -1.123935 0.017594 -0.977951 0.000000 0.000001
    39 -0.020057 -0.890966 0.010091 -0.933396 0.000000 0.000000
    40 0.583510 -1.197274 0.185377 0.272562 -1.003483 -0.533072
    41 1.535926 0.010244 0.005008 0.440185 -0.138709 -1.296608
    42 1.100770 0.004526 -0.010676 -0.011449 0.011503 -0.607426
    43 0.120152 -0.050266 -0.054488 0.287568 3.110905 1.561085
  time 3
    0 0.000000 0.000000 0.000000 0.000000 0.000000 -0.000094
    1 0.058160 -6.761723 -17.529597 0.437264 -0.060172 0.580349
    2 0.096944 -8.450418 -0.009364 0.278066 -0.276658 0.114440
    3 3.768138 0.582888 1.234294 4.368260 0.090750 0.732941
    4 -3.054055 -6.061510 0.000003 0.000001 0.000001 0.005300
    5 -2.010682 -3.271751 0.000002 0.000000 0.000000 -3.136292
    6 11.679249 -0.000002 0.000000 0.000000 0.000000 0.000000
    7 10.482985 -0.550526 -0.000004 0.000000 0.000000 -3.136292
    8 4.552885 2.143378 -0.000001 0.000000 0.000000 -1.570796
    9 3.124239 -3.246087 -0.000008 0.000000 0.000000 -3.136292
    10 0.447952 -2.798983 -0.200442 -0.738074 -0.102210 0.041797
    11 -0.032910 -1.480206 0.004936 -0.802775 0.000000 0.000002
    12 -0.027022 -1.076919 -0.020212 -0.434237 0.000000 0.000000
    13 -0.249534 -2.846962 -0.174215 -0.372660 -0.091819 0.024622
    14 0.043235 -1.683940 0.096014 -1.033446 0.002823 -0.000167
    15 0.031729 -1.160831 0.058836 -1.000043 0.000642 0.008372
    16 -0.963866 -2.785142 -0.085346 -0.269123 0.014961 -0.024958
    17 0.028479 -1.403069 0.006271 -0.285440 0.000000 0.000000
    18 0.021413 -0.957782 0.020047 -0.431473 0.000000 0.000000
    19 1.164474 -2.543938 -0.170328 -0.858262 -0.318398 0.068471
    20 0.024033 -1.129042 0.017806 -0.500933 0.000000 0.000001
    21 0.014896 -0.883989 -0.019845 -0.267454 0.000000 0.000000
    22 -0.547706 -1.276194 0.008752 -0.015000 -0.716336 -2.528360
    23 1.522835 0.128996 -0.182375 0.265658 0.160195 0.522271
    24 1.117948 0.048424 -0.005764 -0.002580 -0.025066 0.158722
    25 -0.139399 -0.111697 0.014397 0.285382 -0.030687 1.580508
    26 9.736265 7.088328 -11.310375 5.089736 -1.724216 1.086384
    27 -0.071918 -8.498732 -0.104137 -0.036395 0.273210 -0.341615
    28 -0.488517 -2.755600 -0.228261 -1.091352 -0.300440 -0.445601
    29 0.039888 -1.479789 0.029853 -0.928028 0.000000 0.000000
    30 0.028786 -1.075730 -0.023111 -1.481379 0.000000 0.000000
    31 0.250028 -2.820664 -0.238396 -0.620838 -0.150751 -0.537343
    32 -0.049759 -1.680545 0.100480 -1.463615 0.000000 -0.000002
    33 -0.034141 -1.148312 0.084779 -1.087260 0.000000 0.000000
    34 0.957766 -2.746776 -0.090301 -0.063286 -0.242586 -0.427231
    35 -0.033419 -1.397128 -0.011255 -0.779083 0.124808 -0.122316
    36 -0.022361 -0.957434 0.018783 -1.043272 0.000000 0.000000
    37 -1.180680 -2.507215 -0.193861 -1.402521 -0.167650 -0.612250
    38 -0.024966 -1.123935 0.017594 -0.977951 0.000000 0.000001
    39 -0.020057 -0.890966 0.010091 -0.933396 0.000000 0.000000
    40 0.583510 -1.197274 0.185377 0.272562 -1.003483 -0.533072
    41 1.535926 0.010244 0.005008 0.440185 -0.138709 -1.296608
    42 1.100770 0.004526 -0.010676 -0.011449 0.011503 -0.607426
    43 0.120152 -0.050266 -0.054488 0.287568 3.110905 1.561085
  time 4
    0 0.000000 0.000000 0.000000 0.000000 0.000000 -0.000094
    1 0.058160 -6.761723 -17.275683 0.417398 -0.028089 0.509279
    2 0.096944 -8.450418 -0.009364 0.278066 -0.276658 0.114440
    3 3.768138 0.633671 1.398362 4.368260 0.090750 0.732941
    4 -3.054055 -6.061510 0.000003 0.000001 0.000001 0.005300
    5 -2.010682 -3.271751 0.000002 0.000000 0.000000 -3.136292
    6 11.679249 -0.000002 0.000000 0.000000 0.000000 0.000000
    7 10.482985 -0.550526 -0.000004 0.000000 0.000000 -3.136292
    8 4.552885 2.143378 -0.000001 0.000000 0.000000 -1.570796
    9 3.124239 -3.246087 -0.000008 0.000000 0.000000 -3.136292
    10 0.447952 -2.798983 -0.200442 -0.738074 -0.102210 0.041797
    11 -0.032910 -1.480206 0.004936 -0.802775 0.000000 0.000002
    12 -0.027022 -1.076919 -0.020212 -0.434237 0.000000 0.000000
    13 -0.249534 -2.846962 -0.174215 -0.372660 -0.091819 0.024622
    14 0.043235 -1.683940 0.096014 -1.033446 0.002823 -0.000167
    15 0.031729 -1.160831 0.058836 -1.000043 0.000642 0.008372
    16 -0.963866 -2.785142 -0.085346 -0.269123 0.014961 -0.024958
    17 0.028479 -1.403069 0.006271 -0.285440 0.000000 0.000000
    18 0.021413 -0.957782 0.020047 -0.431473 0.000000 0.000000
    19 1.164474 -2.543938 -0.170328 -0.858262 -0.318398 0.068471
    20 0.024033 -1.129042 0.017806 -0.500933 0.000000 0.000001
    21 0.014896 -0.883989 -0.019845 -0.267454 0.000000 0.000000
    22 -0.547706 -1.276194 0.008752 -0.015000 -0.716336 -2.528360
    23 1.522835 0.128996 -0.182375 0.265658 0.160195 0.522271
    24 1.117948 0.048424 -0.005764 -0.002580 -0.025066 0.158722
    25 -0.139399 -0.111697 0.014397 0.285382 -0.030687 1.580508
    26 9.833924 6.951605 -11.044742 5.076050 -1.717421 1.092927
    27 -0.071918 -8.498732 -0.104137 -0.036395 0.273210 -0.341615
    28 -0.488517 -2.755600 -0.228261 -1.091352 -0.300440 -0.445601
    29 0.039888 -1.479789 0.029853 -0.928028 0.000000 0.000000
    30 0.028786 -1.075730 -0.023111 -1.481379 0.000000 0.000000
    31 0.250028 -2.820664 -0.238396 -0.620838 -0.150751 -0.537343
    32 -0.049759 -1.680545 0.100480 -1.463615 0.000000 -0.000002
    33 -0.034141 -1.148312 0.084779 -1.087260 0.000000 0.000000
    34 0.957766 -2.746776 -0.090301 -0.063286 -0.242586 -0.427231
    35 -0.033419 -1.397128 -0.011255 -0.779083 0.124808 -0.122316
    36 -0.022361 -0.957434 0.018783 -1.043272 0.000000 0.000000
    37 -1.180680 -2.507215 -0.193861 -1.402521 -0.167650 -0.612250
    38 -0.024966 -1.123935 0.017594 -0.977951 0.000000 0.000001
    39 -0.020057 -0.890966 0.010091 -0.933396 0.000000 0.000000
    40 0.583510 -1.197274 0.185377 0.272562 -1.003483 -0.533072
    41 1.535926 0.010244 0.005008 0.440185 -0.138709 -1.296608
    42 1.100770 0.004526 -0.010676 -0.011449 0.011503 -0.607426
    43 0.120152 -0.050266 -0.054488 0.287568 3.110905 1.561085
  time 5
    0 0.000000 0.000000 0.000000 0.000000 0.000000 -0.000094
    1 0.058160 -6.761723 -16.970986 0.394606 0.006387 0.438209
    2 0.096944 -8.450418 -0.009364 0.278066 -0.276658 0.114440
    3 3.768138 0.692266 1.589774 4.368260 0.090750 0.732941
    4 -3.054055 -6.061510 0.000003 0.000001 0.000001 0.005300
    5 -2.010682 -3.271751 0.000002 0.000000 0.000000 -3.136292
    6 11.679249 -0.000002 0.000000 0.000000 0.000000 0.000000
    7 10.482985 -0.550526 -0.000004 0.000000 0.000000 -3.136292
    8 4.552885 2.143378 -0.000001 0.000000 0.000000 -1.570796
    9 3.124239 -3.246087 -0.000008 0.000000 0.000000 -3.136292
    10 0.447952 -2.798983 -0.200442 -0.738074 -0.102210 0.041797
    11 -0.032910 -1.480206 0.004936 -0.802775 0.000000 0.000002
    12 -0.027022 -1.076919 -0.020212 -0.434237 0.000000 0.000000
    13 -0.249534 -2.846962 -0.174215 -0.372660 -0.091819 0.024622
    14 0.043235 -1.683940 0.096014 -1.033446 0.002823 -0.000167
    15 0.031729 -1.160831 0.058836 -1.000043 0.000642 0.008372
    16 -0.963866 -2.785142 -0.085346 -0.269123 0.014961 -0.024958
    17 0.028479 -1.403069 0.006271 -0.285440 0.000000 0.000000
    18 0.021413 -0.957782 0.020047 -0.431473 0.000000 0.000000
    19 1.164474 -2.543938 -0.170328 -0.858262 -0.318398 0.068471
    20 0.024033 -1.129042 0.017806 -0.500933 0.000000 0.000001
    21 0.014896 -0.883989 -0.019845 -0.267454 0.000000 0.000000
    22 -0.547706 -1.276194 0.008752 -0.015000 -0.716336 -2.528360
    23 1.522835 0.128996 -0.182375 0.265658 0.160195 0.522271
    24 1.117948 0.048424 -0.005764 -0.002580 -0.025066 0.158722
    25 -0.139399 -0.111697 0.014397 0.285382 -0.030687 1.580508
    26 9.955022 6.795350 -10.736139 5.059301 -1.708807 1.101082
    27 -0.071918 -8.498732 -0.104137 -0.036395 0.273210 -0.341615
    28 -0.488517 -2.755600 -0.228261 -1.091352 -0.300440 -0.445601
    29 0.039888 -1.479789 0.029853 -0.928028 0.000000 0.000000
    30 0.028786 -1.075730 -0.023111 -1.481379 0.000000 0.000000
    31 0.250028 -2.820664 -0.238396 -0.620838 -0.150751 -0.537343
    32 -0.049759 -1.680545 0.100480 -1.463615 0.000000 -0.000002
    33 -0.034141 -1.148312 0.084779 -1.087260 0.000000 0.000000
    34 0.957766 -2.746776 -0.090301 -0.063286 -0.242586 -0.427231
    35 -0.033419 -1.397128 -0.011255 -0.779083 0.124808 -0.122316
    36 -0.022361 -0.957434 0.018783 -1.043272 0.000000 0.000000
    37 -1.180680 -2.507215 -0.193861 -1.402521 -0.167650 -0.612250
    38 -0.024966 -1.123935 0.017594 -0.977951 0.000000 0.000001
    39 -0.020057 -0.890966 0.010091 -0.933396 0.000000 0.000000
    40 0.583510 -1.197274 0.185377 0.272562 -1.003483 -0.533072
    41 1.535926 0.010244 0.005008 0.440185 -0.138709 -1.296608
    42 1.100770 0.004526 -0.010676 -0.011449 0.011503 -0.607426
    43 0.120152 -0.050266 -0.054488 0.287568 3.110905 1.561085
  time 6
    0 0.000000 0.000000 0.000000 0.000000 0.000000 -0.000094
    1 0.058160 -6.761723 -16.623319 0.370114 -6.242702 0.376144
    2 0.096944 -8.450418 -0.009364 0.278066 -0.276658 0.114440
    3 3.768138 0.754768 1.796811 4.368260 0.090750 0.732941
    4 -3.054055 -6.061510 0.000003 0.000001 0.000001 0.005300
    5 -2.010682 -3.271751 0.000002 0.000000 0.000000 -3.136292
    6 11.679249 -0.000002 0.000000 0.000000 0.000000 0.000000
    7 10.482985 -0.550526 -0.000004 0.000000 0.000000 -3.136292
    8 4.552885 2.143378 -0.000001 0.000000 0.000000 -1.570796
    9 3.124239 -3.246087 -0.000008 0.000000 0.000000 -3.136292
    10 0.447952 -2.798983 -0.200442 -0.738074 -0.102210 0.041797
    11 -0.032910 -1.480206 0.004936 -0.802775 0.000000 0.000002
    12 -0.027022 -1.076919 -0.020212 -0.434237 0.000000 0.000000
    13 -0.249534 -2.846962 -0.174215 -0.372660 -0.091819 0.024622
    14 0.043235 -1.683940 0.096014 -1.033446 0.002823 -0.000167
    15 0.031729 -1.160831 0.058836 -1.000043 0.000642 0.008372
    16 -0.963866 -2.785142 -0.085346 -0.269123 0.014961 -0.024958
    17 0.028479 -1.403069 0.006271 -0.285440 0.000000 0.000000
    18 0.021413 -0.957782 0.020047 -0.431473 0.000000 0.000000
    19 1.164474 -2.543938 -0.170328 -0.858262 -0.318398 0.068471
    20 0.024033 -1.129042 0.017806 -0.500933 0.000000 0.000001
    21 0.014896 -0.883989 -0.019845 -0.267454 0.000000 0.000000
    22 -0.547706 -1.276194 0.008752 -0.015000 -0.716336 -2.528360
    23 1.522835 0.128996 -0.182375 0.265658 0.160195 0.522271
    24 1.117948 0.048424 -0.005764 -0.002580 -0.025066 0.158722
    25 -0.139399 -0.111697 0.014397 0.285382 -0.030687 1.580508
    26 10.099558 6.611751 -10.384565 5.039873 -1.698759 1.110944
    27 -0.071918 -8.498732 -0.104137 -0.036395 0.273210 -0.341615
    28 -0.488517 -2.755600 -0.228261 -1.091352 -0.300440 -0.445601
    29 0.039888 -1.479789 0.029853 -0.928028 0.000000 0.000000
    30 0.028786 -1.075730 -0.023111 -1.481379 0.000000 0.000000
    31 0.250028 -2.820664 -0.238396 -0.620838 -0.150751 -0.537343
    32 -0.049759 -1.680545 0.100480 -1.463615 0.000000 -0.000002
    33 -0.034141 -1.148312 0.084779 -1.087260 0.000000 0.000000
    34 0.957766 -2.746776 -0.090301 -0.063286 -0.242586 -0.427231
    35 -0.033419 -1.397128 -0.011255 -0.779083 0.124808 -0.122316
    36 -0.022361 -0.957434 0.018783 -1.043272 0.000000 0.000000
    37 -1.180680 -2.507215 -0.193861 -1.402521 -0.167650 -0.612250
    38 -0.024966 -1.123935 0.017594 -0.977951 0.000000 0.000001
    39 -0.020057 -0.890966 0.010091 -0.933396 0.000000 0.000000
    40 0.583510 -1.197274 0.185377 0.272562 -1.003483 -0.533072
    41 1.535926 0.010244 0.005008 0.440185 -0.138709 -1.296608
    42 1.100770 0.004526 -0.010676 -0.011449 0.011503 -0.607426
    43 0.120152 -0.050266 -0.054488 0.287568 3.110905 1.561085
  time 7
    0 0.000000 0.000000 0.000000 0.000000 0.000000 -0.000094
    1 0.058160 -6.761723 -16.248308 0.345147 -6.212535 0.332297
    2 0.096944 -8.450418 -0.009364 0.278066 -0.276658 0.114440
    3 3.768138 0.821176 2.011662 4.368260 0.090750 0.732941
    4 -3.054055 -6.061510 0.000003 0.000001 0.000001 0.005300
    5 -2.010682 -3.271751 0.000002 0.000000 0.000000 -3.136292
    6 11.679249 -0.000002 0.000000 0.000000 0.000000 0.000000
    7 10.482985 -0.550526 -0.000004 0.000000 0.000000 -3.136292
    8 4.552885 2.143378 -0.000001 0.000000 0.000000 -1.570796
    9 3.124239 -3.246087 -0.000008 0.000000 0.000000 -3.136292
    10 0.447952 -2.798983 -0.200442 -0.738074 -0.102210 0.041797
    11 -0.032910 -1.480206 0.004936 -0.802775 0.000000 0.000002
    12 -0.027022 -1.076919 -0.020212 -0.434237 0.000000 0.000000
    13 -0.249534 -2.846962 -0.174215 -0.372660 -0.091819 0.024622
    14 0.043235 -1.683940 0.096014 -1.033446 0.002823 -0.000167
    15 0.031729 -1.160831 0.058836 -1.000043 0.000642 0.008372
    16 -0.963866 -2.785142 -0.085346 -0.269123 0.014961 -0.024958
    17 0.028479 -1.403069 0.006271 -0.285440 0.000000 0.000000
    18 0.021413 -0.957782 0.020047 -0.431473 0.000000 0.000000
    19 1.164474 -2.543938 -0.170328 -0.858262 -0.318398 0.068471
    20 0.024033 -1.129042 0.017806 -0.500933 0.000000 0.000001
    21 0.014896 -0.883989 -0.019845 -0.267454 0.000000 0.000000
    22 -0.547706 -1.276194 0.008752 -0.015000 -0.716336 -2.528360
    23 1.522835 0.128996 -0.182375 0.265658 0.160195 0.522271
    24 1.117948 0.048424 -0.005764 -0.002580 -0.025066 0.158722
    25 -0.139399 -0.111697 0.014397 0.285382 -0.030687 1.580508
    26 10.244093 6.420339 -10.005648 5.017956 -1.687466 1.122229
    27 -0.071918 -8.498732 -0.104137 -0.036395 0.273210 -0.341615
    28 -0.488517 -2.755600 -0.228261 -1.091352 -0.300440 -0.445601
    29 0.039888 -1.479789 0.029853 -0.928028 0.000000 0.000000
    30 0.028786 -1.075730 -0.023111 -1.481379 0.000000 0.000000
    31 0.250028 -2.820664 -0.238396 -0.620838 -0.150751 -0.537343
    32 -0.049759 -1.680545 0.100480 -1.463615 0.000000 -0.000002
    33 -0.034141 -1.148312 0.084779 -1.087260 0.000000 0.000000
    34 0.957766 -2.746776 -0.090301 -0.063286 -0.242586 -0.427231
    35 -0.033419 -1.397128 -0.011255 -0.779083 0.124808 -0.122316
    36 -0.022361 -0.957434 0.018783 -1.043272 0.000000 0.000000
    37 -1.180680 -2.507215 -0.193861 -1.402521 -0.167650 -0.612250
    38 -0.024966 -1.123935 0.017594 -0.977951 0.000000 0.000001
    39 -0.020057 -0.890966 0.010091 -0.933396 0.000000 0.000000
    40 0.583510 -1.197274 0.185377 0.272562 -1.003483 -0.533072
    41 1.535926 0.010244 0.005008 0.440185 -0.138709 -1.296608
    42 1.100770 0.004526 -0.010676 -0.011449 0.011503 -0.607426
    43 0.120152 -0.050266 -0.054488 0.287568 3.110905 1.561085
  time 8
    0 0.000000 0.000000 0.000000 0.000000 0.000000 -0.000094
    1 0.058160 -6.761723 -15.853765 0.320956 -6.188976 0.315672
    2 0.096944 -8.450418 -0.009364 0.278066 -0.276658 0.114440
    3 3.772044 0.883678 2.230418 4.368260 0.090750 0.732941
    4 -3.054055 -6.061510 0.000003 0.000001 0.000001 0.005300
    5 -2.010682 -3.271751 0.000002 0.000000 0.000000 -3.136292
    6 11.679249 -0.000002 0.000000 0.000000 0.000000 0.000000
    7 10.482985 -0.550526 -0.000004 0.000000 0.000000 -3.136292
    8 4.552885 2.143378 -0.000001 0.000000 0.000000 -1.570796
    9 3.124239 -3.246087 -0.000008 0.000000 0.000000 -3.136292
    10 0.447952 -2.798983 -0.200442 -0.738074 -0.102210 0.041797
    11 -0.032910 -1.480206 0.004936 -0.802775 0.000000 0.000002
    12 -0.027022 -1.076919 -0.020212 -0.434237 0.000000 0.000000
    13 -0.249534 -2.846962 -0.174215 -0.372660 -0.091819 0.024622
    14 0.043235 -1.683940 0.096014 -1.033446 0.002823 -0.000167
    15 0.031729 -1.160831 0.058836 -1.000043 0.000642 0.008372
    16 -0.963866 -2.785142 -0.085346 -0.269123 0.014961 -0.024958
    17 0.028479 -1.403069 0.006271 -0.285440 0.000000 0.000000
    18 0.021413 -0.957782 0.020047 -0.431473 0.000000 0.000000
    19 1.164474 -2.543938 -0.170328 -0.858262 -0.318398 0.068471
    20 0.024033 -1.129042 0.017806 -0.500933 0.000000 0.000001
    21 0.014896 -0.883989 -0.019845 -0.267454 0.000000 0.000000
    22 -0.547706 -1.276194 0.008752 -0.015000 -0.716336 -2.528360
    23 1.522835 0.128996 -0.182375 0.265658 0.160195 0.522271
    24 1.117948 0.048424 -0.005764 -0.002580 -0.025066 0.158722
    25 -0.139399 -0.111697 0.014397 0.285382 -0.030687 1.580508
    26 10.408161 6.213301 -9.599385 4.994124 -1.674642 1.135125
    27 -0.071918 -8.498732 -0.104137 -0.036395 0.273210 -0.341615
    28 -0.488517 -2.755600 -0.228261 -1.091352 -0.300440 -0.445601
    29 0.039888 -1.479789 0.029853 -0.928028 0.000000 0.000000
    30 0.028786 -1.075730 -0.023111 -1.481379 0.000000 0.000000
    31 0.250028 -2.820664 -0.238396 -0.620838 -0.150751 -0.537343
    32 -0.049759 -1.680545 0.100480 -1.463615 0.000000 -0.000002
    33 -0.034141 -1.148312 0.084779 -1.087260 0.000000 0.000000
    34 0.957766 -2.746776 -0.090301 -0.063286 -0.242586 -0.427231
    35 -0.033419 -1.397128 -0.011255 -0.779083 0.124808 -0.122316
    36 -0.022361 -0.957434 0.018783 -1.043272 0.000000 0.000000
    37 -1.180680 -2.507215 -0.193861 -1.402521 -0.167650 -0.612250
    38 -0.024966 -1.123935 0.017594 -0.977951 0.000000 0.000001
    39 -0.020057 -0.890966 0.010091 -0.933396 0.000000 0.000000
    40 0.583510 -1.197274 0.185377 0.272562 -1.003483 -0.533072
    41 1.535926 0.010244 0.005008 0.440185 -0.138709 -1.296608
    42 1.100770 0.004526 -0.010676 -0.011449 0.011503 -0.607426
    43 0.120152 -0.050266 -0.054488 0.287568 3.110905 1.561085
  time 9
    0 0.000000 0.000000 0.000000 0.000000 0.000000 -0.000094
    1 0.058160 -6.761723 -15.447502 0.296378 -6.170589 0.318166
    2 0.096944 -8.450418 -0.009364 0.278066 -0.276658 0.114440
    3 3.772044 0.950086 2.437456 4.368260 0.090750 0.732941
    4 -3.054055 -6.061510 0.000003 0.000001 0.000001 0.005300
    5 -2.010682 -3.271751 0.000002 0.000000 0.000000 -3.136292
    6 11.679249 -0.000002 0.000000 0.000000 0.000000 0.000000
    7 10.482985 -0.550526 -0.000004 0.000000 0.000000 -3.136292
    8 4.552885 2.143378 -0.000001 0.000000 0.000000 -1.570796
    9 3.124239 -3.246087 -0.000008 0.000000 0.000000 -3.136292
    10 0.447952 -2.798983 -0.200442 -0.738074 -0.102210 0.041797
    11 -0.032910 -1.480206 0.004936 -0.802775 0.000000 0.000002
    12 -0.027022 -1.076919 -0.020212 -0.434237 0.000000 0.000000
    13 -0.249534 -2.846962 -0.174215 -0.372660 -0.091819 0.024622
    14 0.043235 -1.683940 0.096014 -1.033446 0.002823 -0.000167
    15 0.031729 -1.160831 0.058836 -1.000043 0.000642 0.008372
    16 -0.963866 -2.785142 -0.085346 -0.269123 0.014961 -0.024958
    17 0.028479 -1.403069 0.006271 -0.285440 0.000000 0.000000
    18 0.021413 -0.957782 0.020047 -0.431473 0.000000 0.000000
    19 1.164474 -2.543938 -0.170328 -0.858262 -0.318398 0.068471
    20 0.024033 -1.129042 0.017806 -0.500933 0.000000 0.000001
    21 0.014896 -0.883989 -0.019845 -0.267454 0.000000 0.000000
    22 -0.547706 -1.276194 0.008752 -0.015000 -0.716336 -2.528360
    23 1.522835 0.128996 -0.182375 0.265658 0.160195 0.522271
    24 1.117948 0.048424 -0.005764 -0.002580 -0.025066 0.158722
    25 -0.139399 -0.111697 0.014397 0.285382 -0.030687 1.580508
    26 10.572228 5.998451 -9.185310 4.968666 -1.660956 1.149255
    27 -0.071918 -8.498732 -0.104137 -0.036395 0.273210 -0.341615
    28 -0.488517 -2.755600 -0.228261 -1.091352 -0.300440 -0.445601
    29 0.039888 -1.479789 0.029853 -0.928028 0.000000 0.000000
    30 0.028786 -1.075730 -0.023111 -1.481379 0.000000 0.000000
    31 0.250028 -2.820664 -0.238396 -0.620838 -0.150751 -0.537343
    32 -0.049759 -1.680545 0.100480 -1.463615 0.000000 -0.000002
    33 -0.034141 -1.148312 0.084779 -1.087260 0.000000 0.000000
    34 0.957766 -2.746776 -0.090301 -0.063286 -0.242586 -0.427231
    35 -0.033419 -1.397128 -0.011255 -0.779083 0.124808 -0.122316
    36 -0.022361 -0.957434 0.018783 -1.043272 0.000000 0.000000
    37 -1.180680 -2.507215 -0.193861 -1.402521 -0.167650 -0.612250
    38 -0.024966 -1.123935 0.017594 -0.977951 0.000000 0.000001
    39 -0.020057 -0.890966 0.010091 -0.933396 0.000000 0.000000
    40 0.583510 -1.197274 0.185377 0.272562 -1.003483 -0.533072
    41 1.535926 0.010244 0.005008 0.440185 -0.138709 -1.296608
    42 1.100770 0.004526 -0.010676 -0.011449 0.011503 -0.607426
    43 0.120152 -0.050266 -0.054488 0.287568 3.110905 1.561085
  time 10
    0 0.000000 0.000000 0.000000 0.000000 0.000000 -0.000094
    1 0.058160 -6.761723 -15.041240 0.269819 -6.154021 0.325231
    2 0.096944 -8.450418 -0.009364 0.278066 -0.276658 0.114440
    3 3.772044 1.004776 2.628868 4.368260 0.090750 0.732941
    4 -3.054055 -6.061510 0.000003 0.000001 0.000001 0.005300
    5 -2.010682 -3.271751 0.000002 0.000000 0.000000 -3.136292
    6 11.679249 -0.000002 0.000000 0.000000 0.000000 0.000000
    7 10.482985 -0.550526 -0.000004 0.000000 0.000000 -3.136292
    8 4.552885 2.143378 -0.000001 0.000000 0.000000 -1.570796
    9 3.124239 -3.246087 -0.000008 0.000000 0.000000 -3.136292
    10 0.447952 -2.798983 -0.200442 -0.738074 -0.102210 0.041797
    11 -0.032910 -1.480206 0.004936 -0.802775 0.000000 0.000002
    12 -0.027022 -1.076919 -0.020212 -0.434237 0.000000 0.000000
    13 -0.249534 -2.846962 -0.174215 -0.372660 -0.091819 0.024622
    14 0.043235 -1.683940 0.096014 -1.033446 0.002823 -0.000167
    15 0.031729 -1.160831 0.058836 -1.000043 0.000642 0.008372
    16 -0.963866 -2.785142 -0.085346 -0.269123 0.014961 -0.024958
    17 0.028479 -1.403069 0.006271 -0.285440 0.000000 0.000000
    18 0.021413 -0.957782 0.020047 -0.431473 0.000000 0.000000
    19 1.164474 -2.543938 -0.170328 -0.858262 -0.318398 0.068471
    20 0.024033 -1.129042 0.017806 -0.500933 0.000000 0.000001
    21 0.014896 -0.883989 -0.019845 -0.267454 0.000000 0.000000
    22 -0.547706 -1.276194 0.008752 -0.015000 -0.716336 -2.528360
    23 1.522835 0.128996 -0.182375 0.265658 0.160195 0.522271
    24 1.117948 0.048424 -0.005764 -0.002580 -0.025066 0.158722
    25 -0.139399 -0.111697 0.014397 0.285382 -0.030687 1.580508
    26 10.732389 5.787507 -8.771235 4.941868 -1.646218 1.164807
    27 -0.071918 -8.498732 -0.104137 -0.036395 0.273210 -0.341615
    28 -0.488517 -2.755600 -0.228261 -1.091352 -0.300440 -0.445601
    29 0.039888 -1.479789 0.029853 -0.928028 0.000000 0.000000
    30 0.028786 -1.075730 -0.023111 -1.481379 0.000000 0.000000
    31 0.250028 -2.820664 -0.238396 -0.620838 -0.150751 -0.537343
    32 -0.049759 -1.680545 0.100480 -1.463615 0.000000 -0.000002
    33 -0.034141 -1.148312 0.084779 -1.087260 0.000000 0.000000
    34 0.957766 -2.746776 -0.090301 -0.063286 -0.242586 -0.427231
    35 -0.033419 -1.397128 -0.011255 -0.779083 0.124808 -0.122316
    36 -0.022361 -0.957434 0.018783 -1.043272 0.000000 0.000000
    37 -1.180680 -2.507215 -0.193861 -1.402521 -0.167650 -0.612250
    38 -0.024966 -1.123935 0.017594 -0.977951 0.000000 0.000001
    39 -0.020057 -0.890966 0.010091 -0.933396 0.000000 0.000000
    40 0.583510 -1.197274 0.185377 0.272562 -1.003483 -0.533072
    41 1.535926 0.010244 0.005008 0.440185 -0.138709 -1.296608
    42 1.100770 0.004526 -0.010676 -0.011449 0.011503 -0.607426
    43 0.120152 -0.050266 -0.054488 0.287568 3.110905 1.561085
  time 11
    0 0.000000 0.000000 0.000000 0.000000 0.000000 -0.000094
    1 0.058160 -6.761723 -14.642790 0.241775 -6.138793 0.335968
    2 0.096944 -8.450418 -0.009364 0.278066 -0.276658 0.114440
    3 3.772044 1.055558 2.789029 4.368260 0.090750 0.732941
    4 -3.054055 -6.061510 0.000003 0.000001 0.000001 0.005300
    5 -2.010682 -3.271751 0.000002 0.000000 0.000000 -3.136292
    6 11.679249 -0.000002 0.000000 0.000000 0.000000 0.000000
    7 10.482985 -0.550526 -0.000004 0.000000 0.000000 -3.136292
    8 4.552885 2.143378 -0.000001 0.000000 0.000000 -1.570796
    9 3.124239 -3.246087 -0.000008 0.000000 0.000000 -3.136292
    10 0.447952 -2.798983 -0.200442 -0.738074 -0.102210 0.041797
    11 -0.032910 -1.480206 0.004936 -0.802775 0.000000 0.000002
    12 -0.027022 -1.076919 -0.020212 -0.434237 0.000000 0.000000
    13 -0.249534 -2.846962 -0.174215 -0.372660 -0.091819 0.024622
    14 0.043235 -1.683940 0.096014 -1.033446 0.002823 -0.000167
    15 0.031729 -1.160831 0.058836 -1.000043 0.000642 0.008372
    16 -0.963866 -2.785142 -0.085346 -0.269123 0.014961 -0.024958
    17 0.028479 -1.403069 0.006271 -0.285440 0.000000 0.000000
    18 0.021413 -0.957782 0.020047 -0.431473 0.000000 0.000000
    19 1.164474 -2.543938 -0.170328 -0.858262 -0.318398 0.068471
    20 0.024033 -1.129042 0.017806 -0.500933 0.000000 0.000001
    21 0.014896 -0.883989 -0.019845 -0.267454 0.000000 0.000000
    22 -0.547706 -1.276194 0.008752 -0.015000 -0.716336 -2.528360
    23 1.522835 0.128996 -0.182375 0.265658 0.160195 0.522271
    24 1.117948 0.048424 -0.005764 -0.002580 -0.025066 0.158722
    25 -0.139399 -0.111697 0.014397 0.285382 -0.030687 1.580508
    26 10.892550 5.580469 -8.364972 4.914209 -1.630522 1.181591
    27 -0.071918 -8.498732 -0.104137 -0.036395 0.273210 -0.341615
    28 -0.488517 -2.755600 -0.228261 -1.091352 -0.300440 -0.445601
    29 0.039888 -1.479789 0.029853 -0.928028 0.000000 0.000000
    30 0.028786 -1.075730 -0.023111 -1.481379 0.000000 0.000000
    31 0.250028 -2.820664 -0.238396 -0.620838 -0.150751 -0.537343
    32 -0.049759 -1.680545 0.100480 -1.463615 0.000000 -0.000002
    33 -0.034141 -1.148312 0.084779 -1.087260 0.000000 0.000000
    34 0.957766 -2.746776 -0.090301 -0.063286 -0.242586 -0.427231
    35 -0.033419 -1.397128 -0.011255 -0.779083 0.124808 -0.122316
    36 -0.022361 -0.957434 0.018783 -1.043272 0.000000 0.000000
    37 -1.180680 -2.507215 -0.193861 -1.402521 -0.167650 -0.612250
    38 -0.024966 -1.123935 0.017594 -0.977951 0.000000 0.000001
    39 -0.020057 -0.890966 0.010091 -0.933396 0.000000 0.000000
    40 0.583510 -1.197274 0.185377 0.272562 -1.003483 -0.533072
    41 1.535926 0.010244 0.005008 0.440185 -0.138709 -1.296608
    42 1.100770 0.004526 -0.010676 -0.011449 0.011503 -0.607426
    43 0.120152 -0.050266 -0.054488 0.287568 3.110905 1.561085
  time 12
    0 0.000000 0.000000 0.000000 0.000000 0.000000 -0.000094
    1 0.058160 -6.761723 -14.267779 0.212720 -6.124620 0.349683
    2 0.096944 -8.450418 -0.009364 0.278066 -0.276658 0.114440
    3 3.772044 1.094622 2.917939 4.368260 0.090750 0.732941
    4 -3.054055 -6.061510 0.000003 0.000001 0.000001 0.005300
    5 -2.010682 -3.271751 0.000002 0.000000 0.000000 -3.136292
    6 11.679249 -0.000002 0.000000 0.000000 0.000000 0.000000
    7 10.482985 -0.550526 -0.000004 0.000000 0.000000 -3.136292
    8 4.552885 2.143378 -0.000001 0.000000 0.000000 -1.570796
    9 3.124239 -3.246087 -0.000008 0.000000 0.000000 -3.136292
    10 0.447952 -2.798983 -0.200442 -0.738074 -0.102210 0.041797
    11 -0.032910 -1.480206 0.004936 -0.802775 0.000000 0.000002
    12 -0.027022 -1.076919 -0.020212 -0.434237 0.000000 0.000000
    13 -0.249534 -2.846962 -0.174215 -0.372660 -0.091819 0.024622
    14 0.043235 -1.683940 0.096014 -1.033446 0.002823 -0.000167
    15 0.031729 -1.160831 0.058836 -1.000043 0.000642 0.008372
    16 -0.963866 -2.785142 -0.085346 -0.269123 0.014961 -0.024958
    17 0.028479 -1.403069 0.006271 -0.285440 0.000000 0.000000
    18 0.021413 -0.957782 0.020047 -0.431473 0.000000 0.000000
    19 1.164474 -2.543938 -0.170328 -0.858262 -0.318398 0.068471
    20 0.024033 -1.129042 0.017806 -0.500933 0.000000 0.000001
    21 0.014896 -0.883989 -0.019845 -0.267454 0.000000 0.000000
    22 -0.547706 -1.276194 0.008752 -0.015000 -0.716336 -2.528360
    23 1.522835 0.128996 -0.182375 0.265658 0.160195 0.522271
    24 1.117948 0.048424 -0.005764 -0.002580 -0.025066 0.158722
    25 -0.139399 -0.111697 0.014397 0.285382 -0.030687 1.580508
    26 11.044899 5.389057 -7.982148 4.885975 -1.614253 1.199514
    27 -0.071918 -8.498732 -0.104137 -0.036395 0.273210 -0.341615
    28 -0.488517 -2.755600 -0.228261 -1.091352 -0.300440 -0.445601
    29 0.039888 -1.479789 0.029853 -0.928028 0.000000 0.000000
    30 0.028786 -1.075730 -0.023111 -1.481379 0.000000 0.000000
    31 0.250028 -2.820664 -0.238396 -0.620838 -0.150751 -0.537343
    32 -0.049759 -1.680545 0.100480 -1.463615 0.000000 -0.000002
    33 -0.034141 -1.148312 0.084779 -1.087260 0.000000 0.000000
    34 0.957766 -2.746776 -0.090301 -0.063286 -0.242586 -0.427231
    35 -0.033419 -1.397128 -0.011255 -0.779083 0.124808 -0.122316
    36 -0.022361 -0.957434 0.018783 -1.043272 0.000000 0.000000
    37 -1.180680 -2.507215 -0.193861 -1.402521 -0.167650 -0.612250
    38 -0.024966 -1.123935 0.017594 -0.977951 0.000000 0.000001
    39 -0.020057 -0.890966 0.010091 -0.933396 0.000000 0.000000
    40 0.583510 -1.197274 0.185377 0.272562 -1.003483 -0.533072
    41 1.535926 0.010244 0.005008 0.440185 -0.138709 -1.296608
    42 1.100770 0.004526 -0.010676 -0.011449 0.011503 -0.607426
    43 0.120152 -0.050266 -0.054488 0.287568 3.110905 1.561085
  time 13
    0 0.000000 0.000000 0.000000 0.000000 0.000000 -0.000094
    1 0.058160 -6.761723 -13.924018 0.183191 -6.111404 0.365546
    2 0.096944 -8.450418 -0.009364 0.278066 -0.276658 0.114440
    3 3.772044 1.118060 2.999973 4.368260 0.090750 0.732941
    4 -3.054055 -6.061510 0.000003 0.000001 0.000001 0.005300
    5 -2.010682 -3.271751 0.000002 0.000000 0.000000 -3.136292
    6 11.679249 -0.000002 0.000000 0.000000 0.000000 0.000000
    7 10.482985 -0.550526 -0.000004 0.000000 0.000000 -3.136292
    8 4.552885 2.143378 -0.000001 0.000000 0.000000 -1.570796
    9 3.124239 -3.246087 -0.000008 0.000000 0.000000 -3.136292
    10 0.447952 -2.798983 -0.200442 -0.738074 -0.102210 0.041797
    11 -0.032910 -1.480206 0.004936 -0.802775 0.000000 0.000002
    12 -0.027022 -1.076919 -0.020212 -0.434237 0.000000 0.000000
    13 -0.249534 -2.846962 -0.174215 -0.372660 -0.091819 0.024622
    14 0.043235 -1.683940 0.096014 -1.033446 0.002823 -0.000167
    15 0.031729 -1.160831 0.058836 -1.000043 0.000642 0.008372
    16 -0.963866 -2.785142 -0.085346 -0.269123 0.014961 -0.024958
    17 0.028479 -1.403069 0.006271 -0.285440 0.000000 0.000000
    18 0.021413 -0.957782 0.020047 -0.431473 0.000000 0.000000
    19 1.164474 -2.543938 -0.170328 -0.858262 -0.318398 0.068471
    20 0.024033 -1.129042 0.017806 -0.500933 0.000000 0.000001
    21 0.014896 -0.883989 -0.019845 -0.267454 0.000000 0.000000
    22 -0.547706 -1.276194 0.008752 -0.015000 -0.716336 -2.528360
    23 1.522835 0.128996 -0.182375 0.265658 0.160195 0.522271
    24 1.117948 0.048424 -0.005764 -0.002580 -0.025066 0.158722
    25 -0.139399 -0.111697 0.014397 0.285382 -0.030687 1.580508
    26 11.177715 5.205458 -7.630575 4.857550 -1.597314 1.218479
    27 -0.071918 -8.498732 -0.104137 -0.036395 0.273210 -0.341615
    28 -0.488517 -2.755600 -0.228261 -1.091352 -0.300440 -0.445601
    29 0.039888 -1.479789 0.029853 -0.928028 0.000000 0.000000
    30 0.028786 -1.075730 -0.023111 -1.481379 0.000000 0.000000
    31 0.250028 -2.820664 -0.238396 -0.620838 -0.150751 -0.537343
    32 -0.049759 -1.680545 0.100480 -1.463615 0.000000 -0.000002
    33 -0.034141 -1.148312 0.084779 -1.087260 0.000000 0.000000
    34 0.957766 -2.746776 -0.090301 -0.063286 -0.242586 -0.427231
    35 -0.033419 -1.397128 -0.011255 -0.779083 0.124808 -0.122316
    36 -0.022361 -0.957434 0.018783 -1.043272 0.000000 0.000000
    37 -1.180680 -2.507215 -0.193861 -1.402521 -0.167650 -0.612250
    38 -0.024966 -1.123935 0.017594 -0.977951 0.000000 0.000001
    39 -0.020057 -0.890966 0.010091 -0.933396 0.000000 0.000000
    40 0.583510 -1.197274 0.185377 0.272562 -1.003483 -0.533072
    41 1.535926 0.010244 0.005008 0.440185 -0.138709 -1.296608
    42 1.100770 0.004526 -0.010676 -0.011449 0.011503 -0.607426
    43 0.120152 -0.050266 -0.054488 0.287568 3.110905 1.561085
  time 14
    0 0.000000 0.000000 0.000000 0.000000 0.000000 -0.000094
    1 0.058160 -6.761723 -13.615415 0.153662 -6.098762 0.382725
    2 0.096944 -8.450418 -0.009364 0.278066 -0.276658 0.114440
    3 3.775951 1.129779 3.031224 4.368260 0.090750 0.732941
    4 -3.054055 -6.061510 0.000003 0.000001 0.000001 0.005300
    5 -2.010682 -3.271751 0.000002 0.000000 0.000000 -3.136292
    6 11.679249 -0.000002 0.000000 0.000000 0.000000 0.000000
    7 10.482985 -0.550526 -0.000004 0.000000 0.000000 -3.136292
    8 4.552885 2.143378 -0.000001 0.000000 0.000000 -1.570796
    9 3.124239 -3.246087 -0.000008 0.000000 0.000000 -3.136292
    10 0.447952 -2.798983 -0.200442 -0.738074 -0.102210 0.041797
    11 -0.032910 -1.480206 0.004936 -0.802775 0.000000 0.000002
    12 -0.027022 -1.076919 -0.020212 -0.434237 0.000000 0.000000
    13 -0.249534 -2.846962 -0.174215 -0.372660 -0.091819 0.024622
    14 0.043235 -1.683940 0.096014 -1.033446 0.002823 -0.000167
    15 0.031729 -1.160831 0.058836 -1.000043 0.000642 0.008372
    16 -0.963866 -2.785142 -0.085346 -0.269123 0.014961 -0.024958
    17 0.028479 -1.403069 0.006271 -0.285440 0.000000 0.000000
    18 0.021413 -0.957782 0.020047 -0.431473 0.000000 0.000000
    19 1.164474 -2.543938 -0.170328 -0.858262 -0.318398 0.068471
    20 0.024033 -1.129042 0.017806 -0.500933 0.000000 0.000001
    21 0.014896 -0.883989 -0.019845 -0.267454 0.000000 0.000000
    22 -0.547706 -1.276194 0.008752 -0.015000 -0.716336 -2.528360
    23 1.522835 0.128996 -0.182375 0.265658 0.160195 0.522271
    24 1.117948 0.048424 -0.005764 -0.002580 -0.025066 0.158722
    25 -0.139399 -0.111697 0.014397 0.285382 -0.030687 1.580508
    26 11.298813 5.045297 -7.321972 4.829316 -1.579896 1.238488
    27 -0.071918 -8.498732 -0.104137 -0.036395 0.273210 -0.341615
    28 -0.488517 -2.755600 -0.228261 -1.091352 -0.300440 -0.445601
    29 0.039888 -1.479789 0.029853 -0.928028 0.000000 0.000000
    30 0.028786 -1.075730 -0.023111 -1.481379 0.000000 0.000000
    31 0.250028 -2.820664 -0.238396 -0.620838 -0.150751 -0.537343
    32 -0.049759 -1.680545 0.100480 -1.463615 0.000000 -0.000002
    33 -0.034141 -1.148312 0.084779 -1.087260 0.000000 0.000000
    34 0.957766 -2.746776 -0.090301 -0.063286 -0.242586 -0.427231
    35 -0.033419 -1.397128 -0.011255 -0.779083 0.124808 -0.122316
    36 -0.022361 -0.957434 0.018783 -1.043272 0.000000 0.000000
    37 -1.180680 -2.507215 -0.193861 -1.402521 -0.167650 -0.612250
    38 -0.024966 -1.123935 0.017594 -0.977951 0.000000 0.000001
    39 -0.020057 -0.890966 0.010091 -0.933396 0.000000 0.000000
    40 0.583510 -1.197274 0.185377 0.272562 -1.003483 -0.533072
    41 1.535926 0.010244 0.005008 0.440185 -0.138709 -1.296608
    42 1.100770 0.004526 -0.010676 -0.011449 0.011503 -0.607426
    43 0.120152 -0.050266 -0.054488 0.287568 3.110905 1.561085
  time 15
    0 0.000000 0.000000 0.000000 0.000000 0.000000 -0.000094
    1 0.058160 -6.761723 -13.361501 0.124671 -6.086408 0.400388
    2 0.096944 -8.450418 -0.009364 0.278066 -0.276658 0.114440
    3 3.775951 1.121967 3.007786 4.368260 0.090750 0.732941
    4 -3.054055 -6.061510 0.000003 0.000001 0.000001 0.005300
    5 -2.010682 -3.271751 0.000002 0.000000 0.000000 -3.136292
    6 11.679249 -0.000002 0.000000 0.000000 0.000000 0.000000
    7 10.482985 -0.550526 -0.000004 0.000000 0.000000 -3.136292
    8 4.552885 2.143378 -0.000001 0.000000 0.000000 -1.570796
    9 3.124239 -3.246087 -0.000008 0.000000 0.000000 -3.136292
    10 0.447952 -2.798983 -0.200442 -0.738074 -0.102210 0.041797
    11 -0.032910 -1.480206 0.004936 -0.802775 0.000000 0.000002
    12 -0.027022 -1.076919 -0.020212 -0.434237 0.000000 0.000000
    13 -0.249534 -2.846962 -0.174215 -0.372660 -0.091819 0.024622
    14 0.043235 -1.683940 0.096014 -1.033446 0.002823 -0.000167
    15 0.031729 -1.160831 0.058836 -1.000043 0.000642 0.008372
    16 -0.963866 -2.785142 -0.085346 -0.269123 0.014961 -0.024958
    17 0.028479 -1.403069 0.006271 -0.285440 0.000000 0.000000
    18 0.021413 -0.957782 0.020047 -0.431473 0.000000 0.000000
    19 1.164474 -2.543938 -0.170328 -0.858262 -0.318398 0.068471
    20 0.024033 -1.129042 0.017806 -0.500933 0.000000 0.000001
    21 0.014896 -0.883989 -0.019845 -0.267454 0.000000 0.000000
    22 -0.547706 -1.276194 0.008752 -0.015000 -0.716336 -2.528360
    23 1.522835 0.128996 -0.182375 0.265658 0.160195 0.522271
    24 1.117948 0.048424 -0.005764 -0.002580 -0.025066 0.158722
    25 -0.139399 -0.111697 0.014397 0.285382 -0.030687 1.580508
    26 11.408191 4.916386 -7.060245 4.801561 -1.562286 1.259445
    27 -0.071918 -8.498732 -0.104137 -0.036395 0.273210 -0.341615
    28 -0.488517 -2.755600 -0.228261 -1.091352 -0.300440 -0.445601
    29 0.039888 -1.479789 0.029853 -0.928028 0.000000 0.000000
    30 0.028786 -1.075730 -0.023111 -1.481379 0.000000 0.000000
    31 0.250028 -2.820664 -0.238396 -0.620838 -0.150751 -0.537343
    32 -0.049759 -1.680545 0.100480 -1.463615 0.000000 -0.000002
    33 -0.034141 -1.148312 0.084779 -1.087260 0.000000 0.000000
    34 0.957766 -2.746776 -0.090301 -0.063286 -0.242586 -0.427231
    35 -0.033419 -1.397128 -0.011255 -0.779083 0.124808 -0.122316
    36 -0.022361 -0.957434 0.018783 -1.043272 0.000000 0.000000
    37 -1.180680 -2.507215 -0.193861 -1.402521 -0.167650 -0.612250
    38 -0.024966 -1.123935 0.017594 -0.977951 0.000000 0.000001
    39 -0.020057 -0.890966 0.010091 -0.933396 0.000000 0.000000
    40 0.583510 -1.197274 0.185377 0.272562 -1.003483 -0.533072
    41 1.535926 0.010244 0.005008 0.440185 -0.138709 -1.296608
    42 1.100770 0.004526 -0.010676 -0.011449 0.011503 -0.607426
    43 0.120152 -0.050266 -0.054488 0.287568 3.110905 1.561085
  time 16
    0 0.000000 0.000000 0.000000 0.000000 0.000000 -0.000094
    1 0.058160 -6.761723 -13.166183 0.096692 -6.074150 0.417844
    2 0.096944 -8.450418 -0.009364 0.278066 -0.276658 0.114440
    3 3.772044 1.102435 2.945284 4.368260 0.090750 0.732941
    4 -3.054055 -6.061510 0.000003 0.000001 0.000001 0.005300
    5 -2.010682 -3.271751 0.000002 0.000000 0.000000 -3.136292
    6 11.679249 -0.000002 0.000000 0.000000 0.000000 0.000000
    7 10.482985 -0.550526 -0.000004 0.000000 0.000000 -3.136292
    8 4.552885 2.143378 -0.000001 0.000000 0.000000 -1.570796
    9 3.124239 -3.246087 -0.000008 0.000000 0.000000 -3.136292
    10 0.447952 -2.798983 -0.200442 -0.738074 -0.102210 0.041797
    11 -0.032910 -1.480206 0.004936 -0.802775 0.000000 0.000002
    12 -0.027022 -1.076919 -0.020212 -0.434237 0.000000 0.000000
    13 -0.249534 -2.846962 -0.174215 -0.372660 -0.091819 0.024622
    14 0.043235 -1.683940 0.096014 -1.033446 0.002823 -0.000167
    15 0.031729 -1.160831 0.058836 -1.000043 0.000642 0.008372
    16 -0.963866 -2.785142 -0.085346 -0.269123 0.014961 -0.024958
    17 0.028479 -1.403069 0.006271 -0.285440 0.000000 0.000000
    18 0.021413 -0.957782 0.020047 -0.431473 0.000000 0.000000
    19 1.164474 -2.543938 -0.170328 -0.858262 -0.318398 0.068471
    20 0.024033 -1.129042 0.017806 -0.500933 0.000000 0.000001
    21 0.014896 -0.883989 -0.019845 -0.267454 0.000000 0.000000
    22 -0.547706 -1.276194 0.008752 -0.015000 -0.716336 -2.528360
    23 1.522835 0.128996 -0.182375 0.265658 0.160195 0.522271
    24 1.117948 0.048424 -0.005764 -0.002580 -0.025066 0.158722
    25 -0.139399 -0.111697 0.014397 0.285382 -0.030687 1.580508
    26 11.486319 4.810914 -6.864927 4.774763 -1.544486 1.281255
    27 -0.071918 -8.498732 -0.104137 -0.036395 0.273210 -0.341615
    28 -0.488517 -2.755600 -0.228261 -1.091352 -0.300440 -0.445601
    29 0.039888 -1.479789 0.029853 -0.928028 0.000000 0.000000
    30 0.028786 -1.075730 -0.023111 -1.481379 0.000000 0.000000
    31 0.250028 -2.820664 -0.238396 -0.620838 -0.150751 -0.537343
    32 -0.049759 -1.680545 0.100480 -1.463615 0.000000 -0.000002
    33 -0.034141 -1.148312 0.084779 -1.087260 0.000000 0.000000
    34 0.957766 -2.746776 -0.090301 -0.063286 -0.242586 -0.427231
    35 -0.033419 -1.397128 -0.011255 -0.779083 0.124808 -0.122316
    36 -0.022361 -0.957434 0.018783 -1.043272 0.000000 0.000000
    37 -1.180680 -2.507215 -0.193861 -1.402521 -0.167650 -0.612250
    38 -0.024966 -1.123935 0.017594 -0.977951 0.000000 0.000001
    39 -0.020057 -0.890966 0.010091 -0.933396 0.000000 0.000000
    40 0.583510 -1.197274 0.185377 0.272562 -1.003483 -0.533072
    41 1.535926 0.010244 0.005008 0.440185 -0.138709 -1.296608
    42 1.100770 0.004526 -0.010676 -0.011449 0.011503 -0.607426
    43 0.120152 -0.050266 -0.054488 0.287568 3.110905 1.561085
  time 17
    0 0.000000 0.000000 0.000000 0.000000 0.000000 -0.000094
    1 0.058160 -6.761723 -13.041179 0.070220 -6.061604 0.434261
    2 0.096944 -8.450418 -0.009364 0.278066 -0.276658 0.114440
    3 3.772044 1.071184 2.843718 4.368260 0.090750 0.732941
    4 -3.054055 -6.061510 0.000003 0.000001 0.000001 0.005300
    5 -2.010682 -3.271751 0.000002 0.000000 0.000000 -3.136292
    6 11.679249 -0.000002 0.000000 0.000000 0.000000 0.000000
    7 10.482985 -0.550526 -0.000004 0.000000 0.000000 -3.136292
    8 4.552885 2.143378 -0.000001 0.000000 0.000000 -1.570796
    9 3.124239 -3.246087 -0.000008 0.000000 0.000000 -3.136292
    10 0.447952 -2.798983 -0.200442 -0.738074 -0.102210 0.041797
    11 -0.032910 -1.480206 0.004936 -0.802775 0.000000 0.000002
    12 -0.027022 -1.076919 -0.020212 -0.434237 0.000000 0.000000
    13 -0.249534 -2.846962 -0.174215 -0.372660 -0.091819 0.024622
    14 0.043235 -1.683940 0.096014 -1.033446 0.002823 -0.000167
    15 0.031729 -1.160831 0.058836 -1.000043 0.000642 0.008372
    16 -0.963866 -2.785142 -0.085346 -0.269123 0.014961 -0.024958
    17 0.028479 -1.403069 0.006271 -0.285440 0.000000 0.000000
    18 0.021413 -0.957782 0.020047 -0.431473 0.000000 0.000000
    19 1.164474 -2.543938 -0.170328 -0.858262 -0.318398 0.068471
    20 0.024033 -1.129042 0.017806 -0.500933 0.000000 0.000001
    21 0.014896 -0.883989 -0.019845 -0.267454 0.000000 0.000000
    22 -0.547706 -1.276194 0.008752 -0.015000 -0.716336 -2.528360
    23 1.522835 0.128996 -0.182375 0.265658 0.160195 0.522271
    24 1.117948 0.048424 -0.005764 -0.002580 -0.025066 0.158722
    25 -0.139399 -0.111697 0.014397 0.285382 -0.030687 1.580508
    26 11.529289 4.748413 -6.739923 4.749209 -1.526781 1.303919
    27 -0.071918 -8.498732 -0.104137 -0.036395 0.273210 -0.341615
    28 -0.488517 -2.755600 -0.228261 -1.091352 -0.300440 -0.445601
    29 0.039888 -1.479789 0.029853 -0.928028 0.000000 0.000000
    30 0.028786 -1.075730 -0.023111 -1.481379 0.000000 0.000000
    31 0.250028 -2.820664 -0.238396 -0.620838 -0.150751 -0.537343
    32 -0.049759 -1.680545 0.100480 -1.463615 0.000000 -0.000002
    33 -0.034141 -1.148312 0.084779 -1.087260 0.000000 0.000000
    34 0.957766 -2.746776 -0.090301 -0.063286 -0.242586 -0.427231
    35 -0.033419 -1.397128 -0.011255 -0.779083 0.124808 -0.122316
    36 -0.022361 -0.957434 0.018783 -1.043272 0.000000 0.000000
    37 -1.180680 -2.507215 -0.193861 -1.402521 -0.167650 -0.612250
    38 -0.024966 -1.123935 0.017594 -0.977951 0.000000 0.000001
    39 -0.020057 -0.890966 0.010091 -0.933396 0.000000 0.000000
    40 0.583510 -1.197274 0.185377 0.272562 -1.003483 -0.533072
    41 1.535926 0.010244 0.005008 0.440185 -0.138709 -1.296608
    42 1.100770 0.004526 -0.010676 -0.011449 0.011503 -0.607426
    43 0.120152 -0.050266 -0.054488 0.287568 3.110905 1.561085
  time 18
    0 0.000000 0.000000 0.000000 0.000000 0.000000 -0.000094
    1 0.058160 -6.761723 -12.998209 0.045749 -6.048580 0.448738
    2 0.096944 -8.450418 -0.009364 0.278066 -0.276658 0.114440
    3 3.772044 1.032120 2.714808 4.368260 0.090750 0.732941
    4 -3.054055 -6.061510 0.000003 0.000001 0.000001 0.005300
    5 -2.010682 -3.271751 0.000002 0.000000 0.000000 -3.136292
    6 11.679249 -0.000002 0.000000 0.000000 0.000000 0.000000
    7 10.482985 -0.550526 -0.000004 0.000000 0.000000 -3.136292
    8 4.552885 2.143378 -0.000001 0.000000 0.000000 -1.570796
    9 3.124239 -3.246087 -0.000008 0.000000 0.000000 -3.136292
    10 0.447952 -2.798983 -0.200442 -0.738074 -0.102210 0.041797
    11 -0.032910 -1.480206 0.004936 -0.802775 0.000000 0.000002
    12 -0.027022 -1.076919 -0.020212 -0.434237 0.000000 0.000000
    13 -0.249534 -2.846962 -0.174215 -0.372660 -0.091819 0.024622
    14 0.043235 -1.683940 0.096014 -1.033446 0.002823 -0.000167
    15 0.031729 -1.160831 0.058836 -1.000043 0.000642 0.008372
    16 -0.963866 -2.785142 -0.085346 -0.269123 0.014961 -0.024958
    17 0.028479 -1.403069 0.006271 -0.285440 0.000000 0.000000
    18 0.021413 -0.957782 0.020047 -0.431473 0.000000 0.000000
    19 1.164474 -2.543938 -0.170328 -0.858262 -0.318398 0.068471
    20 0.024033 -1.129042 0.017806 -0.500933 0.000000 0.000001
    21 0.014896 -0.883989 -0.019845 -0.267454 0.000000 0.000000
    22 -0.547706 -1.276194 0.008752 -0.015000 -0.716336 -2.528360
    23 1.522835 0.128996 -0.182375 0.265658 0.160195 0.522271
    24 1.117948 0.048424 -0.005764 -0.002580 -0.025066 0.158722
    25 -0.139399 -0.111697 0.014397 0.285382 -0.030687 1.580508
    26 11.548820 4.728881 -6.696953 4.725283 -1.509076 1.327247
    27 -0.071918 -8.498732 -0.104137 -0.036395 0.273210 -0.341615
    28 -0.488517 -2.755600 -0.228261 -1.091352 -0.300440 -0.445601
    29 0.039888 -1.479789 0.029853 -0.928028 0.000000 0.000000
    30 0.028786 -1.075730 -0.023111 -1.481379 0.000000 0.000000
    31 0.250028 -2.820664 -0.238396 -0.620838 -0.150751 -0.537343
    32 -0.049759 -1.680545 0.100480 -1.463615 0.000000 -0.000002
    33 -0.034141 -1.148312 0.084779 -1.087260 0.000000 0.000000
    34 0.957766 -2.746776 -0.090301 -0.063286 -0.242586 -0.427231
    35 -0.033419 -1.397128 -0.011255 -0.779083 0.124808 -0.122316
    36 -0.022361 -0.957434 0.018783 -1.043272 0.000000 0.000000
    37 -1.180680 -2.507215 -0.193861 -1.402521 -0.167650 -0.612250
    38 -0.024966 -1.123935 0.017594 -0.977951 0.000000 0.000001
    39 -0.020057 -0.890966 0.010091 -0.933396 0.000000 0.000000
    40 0.583510 -1.197274 0.185377 0.272562 -1.003483 -0.533072
    41 1.535926 0.010244 0.005008 0.440185 -0.138709 -1.296608
    42 1.100770 0.004526 -0.010676 -0.011449 0.011503 -0.607426
    43 0.120152 -0.050266 -0.054488 0.287568 3.110905 1.561085
  time 19
    0 0.000000 0.000000 0.000000 0.000000 0.000000 -0.000094
    1 0.058160 -6.761723 -13.064617 0.024097 -6.035268 0.461760
    2 0.096944 -8.450418 -0.009364 0.278066 -0.276658 0.114440
    3 3.772044 0.985244 2.558553 4.368260 0.090750 0.732941
    4 -3.054055 -6.061510 0.000003 0.000001 0.000001 0.005300
    5 -2.010682 -3.271751 0.000002 0.000000 0.000000 -3.136292
    6 11.679249 -0.000002 0.000000 0.000000 0.000000 0.000000
    7 10.482985 -0.550526 -0.000004 0.000000 0.000000 -3.136292
    8 4.552885 2.143378 -0.000001 0.000000 0.000000 -1.570796
    9 3.124239 -3.246087 -0.000008 0.000000 0.000000 -3.136292
    10 0.447952 -2.798983 -0.200442 -0.738074 -0.102210 0.041797
    11 -0.032910 -1.480206 0.004936 -0.802775 0.000000 0.000002
    12 -0.027022 -1.076919 -0.020212 -0.434237 0.000000 0.000000
    13 -0.249534 -2.846962 -0.174215 -0.372660 -0.091819 0.024622
    14 0.043235 -1.683940 0.096014 -1.033446 0.002823 -0.000167
    15 0.031729 -1.160831 0.058836 -1.000043 0.000642 0.008372
    16 -0.963866 -2.785142 -0.085346 -0.269123 0.014961 -0.024958
    17 0.028479 -1.403069 0.006271 -0.285440 0.000000 0.000000
    18 0.021413 -0.957782 0.020047 -0.431473 0.000000 0.000000
    19 1.164474 -2.543938 -0.170328 -0.858262 -0.318398 0.068471
    20 0.024033 -1.129042 0.017806 -0.500933 0.000000 0.000001
    21 0.014896 -0.883989 -0.019845 -0.267454 0.000000 0.000000
    22 -0.547706 -1.276194 0.008752 -0.015000 -0.716336 -2.528360
    23 1.522835 0.128996 -0.182375 0.265658 0.160195 0.522271
    24 1.117948 0.048424 -0.005764 -0.002580 -0.025066 0.158722
    25 -0.139399 -0.111697 0.014397 0.285382 -0.030687 1.580508
    26 11.513663 4.779664 -6.790706 4.699920 -1.488212 1.356075
    27 -0.071918 -8.498732 -0.104137 -0.036395 0.273210 -0.341615
    28 -0.488517 -2.755600 -0.228261 -1.091352 -0.300440 -0.445601
    29 0.039888 -1.479789 0.029853 -0.928028 0.000000 0.000000
    30 0.028786 -1.075730 -0.023111 -1.481379 0.000000 0.000000
    31 0.250028 -2.820664 -0.238396 -0.620838 -0.150751 -0.537343
    32 -0.049759 -1.680545 0.100480 -1.463615 0.000000 -0.000002
    33 -0.034141 -1.148312 0.084779 -1.087260 0.000000 0.000000
    34 0.957766 -2.746776 -0.090301 -0.063286 -0.242586 -0.427231
    35 -0.033419 -1.397128 -0.011255 -0.779083 0.124808 -0.122316
    36 -0.022361 -0.957434 0.018783 -1.043272 0.000000 0.000000
    37 -1.180680 -2.507215 -0.193861 -1.402521 -0.167650 -0.612250
    38 -0.024966 -1.123935 0.017594 -0.977951 0.000000 0.000001
    39 -0.020057 -0.890966 0.010091 -0.933396 0.000000 0.000000
    40 0.583510 -1.197274 0.185377 0.272562 -1.003483 -0.533072
    41 1.535926 0.010244 0.005008 0.440185 -0.138709 -1.296608
    42 1.100770 0.004526 -0.010676 -0.011449 0.011503 -0.607426
    43 0.120152 -0.050266 -0.054488 0.287568 3.110905 1.561085
  time 20
    0 0.000000 0.000000 0.000000 0.000000 0.000000 -0.000094
    1 0.058160 -6.761723 -13.224778 0.005265 -6.021956 0.474575
    2 0.096944 -8.450418 -0.009364 0.278066 -0.276658 0.114440
    3 3.772044 0.934461 2.386673 4.368260 0.090750 0.732941
    4 -3.054055 -6.061510 0.000003 0.000001 0.000001 0.005300
    5 -2.010682 -3.271751 0.000002 0.000000 0.000000 -3.136292
    6 11.679249 -0.000002 0.000000 0.000000 0.000000 0.000000
    7 10.482985 -0.550526 -0.000004 0.000000 0.000000 -3.136292
    8 4.552885 2.143378 -0.000001 0.000000 0.000000 -1.570796
    9 3.124239 -3.246087 -0.000008 0.000000 0.000000 -3.136292
    10 0.447952 -2.798983 -0.200442 -0.738074 -0.102210 0.041797
    11 -0.032910 -1.480206 0.004936 -0.802775 0.000000 0.000002
    12 -0.027022 -1.076919 -0.020212 -0.434237 0.000000 0.000000
    13 -0.249534 -2.846962 -0.174215 -0.372660 -0.091819 0.024622
    14 0.043235 -1.683940 0.096014 -1.033446 0.002823 -0.000167
    15 0.031729 -1.160831 0.058836 -1.000043 0.000642 0.008372
    16 -0.963866 -2.785142 -0.085346 -0.269123 0.014961 -0.024958
    17 0.028479 -1.403069 0.006271 -0.285440 0.000000 0.000000
    18 0.021413 -0.957782 0.020047 -0.431473 0.000000 0.000000
    19 1.164474 -2.543938 -0.170328 -0.858262 -0.318398 0.068471
    20 0.024033 -1.129042 0.017806 -0.500933 0.000000 0.000001
    21 0.014896 -0.883989 -0.019845 -0.267454 0.000000 0.000000
    22 -0.547706 -1.276194 0.008752 -0.015000 -0.716336 -2.528360
    23 1.522835 0.128996 -0.182375 0.265658 0.160195 0.522271
    24 1.117948 0.048424 -0.005764 -0.002580 -0.025066 0.158722
    25 -0.139399 -0.111697 0.014397 0.285382 -0.030687 1.580508
    26 11.408191 4.916386 -7.060245 4.670634 -1.461990 1.394101
    27 -0.071918 -8.498732 -0.104137 -0.036395 0.273210 -0.341615
    28 -0.488517 -2.755600 -0.228261 -1.091352 -0.300440 -0.445601
    29 0.039888 -1.479789 0.029853 -0.928028 0.000000 0.000000
    30 0.028786 -1.075730 -0.023111 -1.481379 0.000000 0.000000
    31 0.250028 -2.820664 -0.238396 -0.620838 -0.150751 -0.537343
    32 -0.049759 -1.680545 0.100480 -1.463615 0.000000 -0.000002
    33 -0.034141 -1.148312 0.084779 -1.087260 0.000000 0.000000
    34 0.957766 -2.746776 -0.090301 -0.063286 -0.242586 -0.427231
    35 -0.033419 -1.397128 -0.011255 -0.779083 0.124808 -0.122316
    36 -0.022361 -0.957434 0.018783 -1.043272 0.000000 0.000000
    37 -1.180680 -2.507215 -0.193861 -1.402521 -0.167650 -0.612250
    38 -0.024966 -1.123935 0.017594 -0.977951 0.000000 0.000001
    39 -0.020057 -0.890966 0.010091 -0.933396 0.000000 0.000000
    40 0.583510 -1.197274 0.185377 0.272562 -1.003483 -0.533072
    41 1.535926 0.010244 0.005008 0.440185 -0.138709 -1.296608
    42 1.100770 0.004526 -0.010676 -0.011449 0.011503 -0.607426
    43 0.120152 -0.050266 -0.054488 0.287568 3.110905 1.561085
  time 21
    0 0.000000 0.000000 0.000000 0.000000 0.000000 -0.000094
    1 0.058160 -6.761723 -13.435722 -0.011178 -6.009027 0.487321
    2 0.096944 -8.450418 -0.009364 0.278066 -0.276658 0.114440
    3 3.772044 0.875865 2.203074 4.368260 0.090750 0.732941
    4 -3.054055 -6.061510 0.000003 0.000001 0.000001 0.005300
    5 -2.010682 -3.271751 0.000002 0.000000 0.000000 -3.136292
    6 11.679249 -0.000002 0.000000 0.000000 0.000000 0.000000
    7 10.482985 -0.550526 -0.000004 0.000000 0.000000 -3.136292
    8 4.552885 2.143378 -0.000001 0.000000 0.000000 -1.570796
    9 3.124239 -3.246087 -0.000008 0.000000 0.000000 -3.136292
    10 0.447952 -2.798983 -0.200442 -0.738074 -0.102210 0.041797
    11 -0.032910 -1.480206 0.004936 -0.802775 0.000000 0.000002
    12 -0.027022 -1.076919 -0.020212 -0.434237 0.000000 0.000000
    13 -0.249534 -2.846962 -0.174215 -0.372660 -0.091819 0.024622
    14 0.043235 -1.683940 0.096014 -1.033446 0.002823 -0.000167
    15 0.031729 -1.160831 0.058836 -1.000043 0.000642 0.008372
    16 -0.963866 -2.785142 -0.085346 -0.269123 0.014961 -0.024958
    17 0.028479 -1.403069 0.006271 -0.285440 0.000000 0.000000
    18 0.021413 -0.957782 0.020047 -0.431473 0.000000 0.000000
    19 1.164474 -2.543938 -0.170328 -0.858262 -0.318398 0.068471
    20 0.024033 -1.129042 0.017806 -0.500933 0.000000 0.000001
    21 0.014896 -0.883989 -0.019845 -0.267454 0.000000 0.000000
    22 -0.547706 -1.276194 0.008752 -0.015000 -0.716336 -2.528360
    23 1.522835 0.128996 -0.182375 0.265658 0.160195 0.522271
    24 1.117948 0.048424 -0.005764 -0.002580 -0.025066 0.158722
    25 -0.139399 -0.111697 0.014397 0.285382 -0.030687 1.580508
    26 11.240217 5.123424 -7.470414 4.638572 -1.431748 1.438954
    27 -0.071918 -8.498732 -0.104137 -0.036395 0.273210 -0.341615
    28 -0.488517 -2.755600 -0.228261 -1.091352 -0.300440 -0.445601
    29 0.039888 -1.479789 0.029853 -0.928028 0.000000 0.000000
    30 0.028786 -1.075730 -0.023111 -1.481379 0.000000 0.000000
    31 0.250028 -2.820664 -0.238396 -0.620838 -0.150751 -0.537343
    32 -0.049759 -1.680545 0.100480 -1.463615 0.000000 -0.000002
    33 -0.034141 -1.148312 0.084779 -1.087260 0.000000 0.000000
    34 0.957766 -2.746776 -0.090301 -0.063286 -0.242586 -0.427231
    35 -0.033419 -1.397128 -0.011255 -0.779083 0.124808 -0.122316
    36 -0.022361 -0.957434 0.018783 -1.043272 0.000000 0.000000
    37 -1.180680 -2.507215 -0.193861 -1.402521 -0.167650 -0.612250
    38 -0.024966 -1.123935 0.017594 -0.977951 0.000000 0.000001
    39 -0.020057 -0.890966 0.010091 -0.933396 0.000000 0.000000
    40 0.583510 -1.197274 0.185377 0.272562 -1.003483 -0.533072
    41 1.535926 0.010244 0.005008 0.440185 -0.138709 -1.296608
    42 1.100770 0.004526 -0.010676 -0.011449 0.011503 -0.607426
    43 0.120152 -0.050266 -0.054488 0.287568 3.110905 1.561085
  time 22
    0 0.000000 0.000000 0.000000 0.000000 0.000000 -0.000094
    1 0.058160 -6.761723 -13.642760 -0.025771 -5.996769 0.500412
    2 0.096944 -8.450418 -0.009364 0.278066 -0.276658 0.114440
    3 3.768138 0.821176 2.011662 4.368260 0.090750 0.732941
    4 -3.054055 -6.061510 0.000003 0.000001 0.000001 0.005300
    5 -2.010682 -3.271751 0.000002 0.000000 0.000000 -3.136292
    6 11.679249 -0.000002 0.000000 0.000000 0.000000 0.000000
    7 10.482985 -0.550526 -0.000004 0.000000 0.000000 -3.136292
    8 4.552885 2.143378 -0.000001 0.000000 0.000000 -1.570796
    9 3.124239 -3.246087 -0.000008 0.000000 0.000000 -3.136292
    10 0.447952 -2.798983 -0.200442 -0.738074 -0.102210 0.041797
    11 -0.032910 -1.480206 0.004936 -0.802775 0.000000 0.000002
    12 -0.027022 -1.076919 -0.020212 -0.434237 0.000000 0.000000
    13 -0.249534 -2.846962 -0.174215 -0.372660 -0.091819 0.024622
    14 0.043235 -1.683940 0.096014 -1.033446 0.002823 -0.000167
    15 0.031729 -1.160831 0.058836 -1.000043 0.000642 0.008372
    16 -0.963866 -2.785142 -0.085346 -0.269123 0.014961 -0.024958
    17 0.028479 -1.403069 0.006271 -0.285440 0.000000 0.000000
    18 0.021413 -0.957782 0.020047 -0.431473 0.000000 0.000000
    19 1.164474 -2.543938 -0.170328 -0.858262 -0.318398 0.068471
    20 0.024033 -1.129042 0.017806 -0.500933 0.000000 0.000001
    21 0.014896 -0.883989 -0.019845 -0.267454 0.000000 0.000000
    22 -0.547706 -1.276194 0.008752 -0.015000 -0.716336 -2.528360
    23 1.522835 0.128996 -0.182375 0.265658 0.160195 0.522271
    24 1.117948 0.048424 -0.005764 -0.002580 -0.025066 0.158722
    25 -0.139399 -0.111697 0.014397 0.285382 -0.030687 1.580508
    26 11.044899 5.389057 -7.982148 4.604883 -1.398826 1.488454
    27 -0.071918 -8.498732 -0.104137 -0.036395 0.273210 -0.341615
    28 -0.488517 -2.755600 -0.228261 -1.091352 -0.300440 -0.445601
    29 0.039888 -1.479789 0.029853 -0.928028 0.000000 0.000000
    30 0.028786 -1.075730 -0.023111 -1.481379 0.000000 0.000000
    31 0.250028 -2.820664 -0.238396 -0.620838 -0.150751 -0.537343
    32 -0.049759 -1.680545 0.100480 -1.463615 0.000000 -0.000002
    33 -0.034141 -1.148312 0.084779 -1.087260 0.000000 0.000000
    34 0.957766 -2.746776 -0.090301 -0.063286 -0.242586 -0.427231
    35 -0.033419 -1.397128 -0.011255 -0.779083 0.124808 -0.122316
    36 -0.022361 -0.957434 0.018783 -1.043272 0.000000 0.000000
    37 -1.180680 -2.507215 -0.193861 -1.402521 -0.167650 -0.612250
    38 -0.024966 -1.123935 0.017594 -0.977951 0.000000 0.000001
    39 -0.020057 -0.890966 0.010091 -0.933396 0.000000 0.000000
    40 0.583510 -1.197274 0.185377 0.272562 -1.003483 -0.533072
    41 1.535926 0.010244 0.005008 0.440185 -0.138709 -1.296608
    42 1.100770 0.004526 -0.010676 -0.011449 0.011503 -0.607426
    43 0.120152 -0.050266 -0.054488 0.287568 3.110905 1.561085
  time 23
    0 0.000000 0.000000 0.000000 0.000000 0.000000 -0.000094
    1 0.058160 -6.761723 -13.806827 -0.039028 -5.985372 0.514128
    2 0.096944 -8.450418 -0.009364 0.278066 -0.276658 0.114440
    3 3.768138 0.762581 1.824156 4.368260 0.090750 0.732941
    4 -3.054055 -6.061510 0.000003 0.000001 0.000001 0.005300
    5 -2.010682 -3.271751 0.000002 0.000000 0.000000 -3.136292
    6 11.679249 -0.000002 0.000000 0.000000 0.000000 0.000000
    7 10.482985 -0.550526 -0.000004 0.000000 0.000000 -3.136292
    8 4.552885 2.143378 -0.000001 0.000000 0.000000 -1.570796
    9 3.124239 -3.246087 -0.000008 0.000000 0.000000 -3.136292
    10 0.447952 -2.798983 -0.200442 -0.738074 -0.102210 0.041797
    11 -0.032910 -1.480206 0.004936 -0.802775 0.000000 0.000002
    12 -0.027022 -1.076919 -0.020212 -0.434237 0.000000 0.000000
    13 -0.249534 -2.846962 -0.174215 -0.372660 -0.091819 0.024622
    14 0.043235 -1.683940 0.096014 -1.033446 0.002823 -0.000167
    15 0.031729 -1.160831 0.058836 -1.000043 0.000642 0.008372
    16 -0.963866 -2.785142 -0.085346 -0.269123 0.014961 -0.024958
    17 0.028479 -1.403069 0.006271 -0.285440 0.000000 0.000000
    18 0.021413 -0.957782 0.020047 -0.431473 0.000000 0.000000
    19 1.164474 -2.543938 -0.170328 -0.858262 -0.318398 0.068471
    20 0.024033 -1.129042 0.017806 -0.500933 0.000000 0.000001
    21 0.014896 -0.883989 -0.019845 -0.267454 0.000000 0.000000
    22 -0.547706 -1.276194 0.008752 -0.015000 -0.716336 -2.528360
    23 1.522835 0.128996 -0.182375 0.265658 0.160195 0.522271
    24 1.117948 0.048424 -0.005764 -0.002580 -0.025066 0.158722
    25 -0.139399 -0.111697 0.014397 0.285382 -0.030687 1.580508
    26 10.810517 5.685941 -8.568104 4.570811 -1.364756 1.540325
    27 -0.071918 -8.498732 -0.104137 -0.036395 0.273210 -0.341615
    28 -0.488517 -2.755600 -0.228261 -1.091352 -0.300440 -0.445601
    29 0.039888 -1.479789 0.029853 -0.928028 0.000000 0.000000
    30 0.028786 -1.075730 -0.023111 -1.481379 0.000000 0.000000
    31 0.250028 -2.820664 -0.238396 -0.620838 -0.150751 -0.537343
    32 -0.049759 -1.680545 0.100480 -1.463615 0.000000 -0.000002
    33 -0.034141 -1.148312 0.084779 -1.087260 0.000000 0.000000
    34 0.957766 -2.746776 -0.090301 -0.063286 -0.242586 -0.427231
    35 -0.033419 -1.397128 -0.011255 -0.779083 0.124808 -0.122316
    36 -0.022361 -0.957434 0.018783 -1.043272 0.000000 0.000000
    37 -1.180680 -2.507215 -0.193861 -1.402521 -0.167650 -0.612250
    38 -0.024966 -1.123935 0.017594 -0.977951 0.000000 0.000001
    39 -0.020057 -0.890966 0.010091 -0.933396 0.000000 0.000000
    40 0.583510 -1.197274 0.185377 0.272562 -1.003483 -0.533072
    41 1.535926 0.010244 0.005008 0.440185 -0.138709 -1.296608
    42 1.100770 0.004526 -0.010676 -0.011449 0.011503 -0.607426
    43 0.120152 -0.050266 -0.054488 0.287568 3.110905 1.561085
  time 24
    0 0.000000 0.000000 0.000000 0.000000 0.000000 -0.000094
    1 0.058160 -6.761723 -13.869329 -0.051425 -5.975221 0.528813
    2 0.096944 -8.450418 -0.009364 0.278066 -0.276658 0.114440
    3 3.768138 0.707892 1.640557 4.368260 0.090750 0.732941
    4 -3.054055 -6.061510 0.000003 0.000001 0.000001 0.005300
    5 -2.010682 -3.271751 0.000002 0.000000 0.000000 -3.136292
    6 11.679249 -0.000002 0.000000 0.000000 0.000000 0.000000
    7 10.482985 -0.550526 -0.000004 0.000000 0.000000 -3.136292
    8 4.552885 2.143378 -0.000001 0.000000 0.000000 -1.570796
    9 3.124239 -3.246087 -0.000008 0.000000 0.000000 -3.136292
    10 0.447952 -2.798983 -0.200442 -0.738074 -0.102210 0.041797
    11 -0.032910 -1.480206 0.004936 -0.802775 0.000000 0.000002
    12 -0.027022 -1.076919 -0.020212 -0.434237 0.000000 0.000000
    13 -0.249534 -2.846962 -0.174215 -0.372660 -0.091819 0.024622
    14 0.043235 -1.683940 0.096014 -1.033446 0.002823 -0.000167
    15 0.031729 -1.160831 0.058836 -1.000043 0.000642 0.008372
    16 -0.963866 -2.785142 -0.085346 -0.269123 0.014961 -0.024958
    17 0.028479 -1.403069 0.006271 -0.285440 0.000000 0.000000
    18 0.021413 -0.957782 0.020047 -0.431473 0.000000 0.000000
    19 1.164474 -2.543938 -0.170328 -0.858262 -0.318398 0.068471
    20 0.024033 -1.129042 0.017806 -0.500933 0.000000 0.000001
    21 0.014896 -0.883989 -0.019845 -0.267454 0.000000 0.000000
    22 -0.547706 -1.276194 0.008752 -0.015000 -0.716336 -2.528360
    23 1.522835 0.128996 -0.182375 0.265658 0.160195 0.522271
    24 1.117948 0.048424 -0.005764 -0.002580 -0.025066 0.158722
    25 -0.139399 -0.111697 0.014397 0.285382 -0.030687 1.580508
    26 10.572228 5.998451 -9.185310 1.396102 -1.810827 -1.548979
    27 -0.071918 -8.498732 -0.104137 -0.036395 0.273210 -0.341615
    28 -0.488517 -2.755600 -0.228261 -1.091352 -0.300440 -0.445601
    29 0.039888 -1.479789 0.029853 -0.928028 0.000000 0.000000
    30 0.028786 -1.075730 -0.023111 -1.481379 0.000000 0.000000
    31 0.250028 -2.820664 -0.238396 -0.620838 -0.150751 -0.537343
    32 -0.049759 -1.680545 0.100480 -1.463615 0.000000 -0.000002
    33 -0.034141 -1.148312 0.084779 -1.087260 0.000000 0.000000
    34 0.957766 -2.746776 -0.090301 -0.063286 -0.242586 -0.427231
    35 -0.033419 -1.397128 -0.011255 -0.779083 0.124808 -0.122316
    36 -0.022361 -0.957434 0.018783 -1.043272 0.000000 0.000000
    37 -1.180680 -2.507215 -0.193861 -1.402521 -0.167650 -0.612250
    38 -0.024966 -1.123935 0.017594 -0.977951 0.000000 0.000001
    39 -0.020057 -0.890966 0.010091 -0.933396 0.000000 0.000000
    40 0.583510 -1.197274 0.185377 0.272562 -1.003483 -0.533072
    41 1.535926 0.010244 0.005008 0.440185 -0.138709 -1.296608
    42 1.100770 0.004526 -0.010676 -0.011449 0.011503 -0.607426
    43 0.120152 -0.050266 -0.054488 0.287568 3.110905 1.561085
  time 25
    0 0.000000 0.000000 0.000000 0.000000 0.000000 -0.000094
    1 0.058160 -6.761723 -13.767764 -0.063478 -5.965548 0.547100
    2 0.096944 -8.450418 -0.009364 0.278066 -0.276658 0.114440
    3 3.768138 0.653202 1.464770 4.368260 0.090750 0.732941
    4 -3.054055 -6.061510 0.000003 0.000001 0.000001 0.005300
    5 -2.010682 -3.271751 0.000002 0.000000 0.000000 -3.136292
    6 11.679249 -0.000002 0.000000 0.000000 0.000000 0.000000
    7 10.482985 -0.550526 -0.000004 0.000000 0.000000 -3.136292
    8 4.552885 2.143378 -0.000001 0.000000 0.000000 -1.570796
    9 3.124239 -3.246087 -0.000008 0.000000 0.000000 -3.136292
    10 0.447952 -2.798983 -0.200442 -0.738074 -0.102210 0.041797
    11 -0.032910 -1.480206 0.004936 -0.802775 0.000000 0.000002
    12 -0.027022 -1.076919 -0.020212 -0.434237 0.000000 0.000000
    13 -0.249534 -2.846962 -0.174215 -0.372660 -0.091819 0.024622
    14 0.043235 -1.683940 0.096014 -1.033446 0.002823 -0.000167
    15 0.031729 -1.160831 0.058836 -1.000043 0.000642 0.008372
    16 -0.963866 -2.785142 -0.085346 -0.269123 0.014961 -0.024958
    17 0.028479 -1.403069 0.006271 -0.285440 0.000000 0.000000
    18 0.021413 -0.957782 0.020047 -0.431473 0.000000 0.000000
    19 1.164474 -2.543938 -0.170328 -0.858262 -0.318398 0.068471
    20 0.024033 -1.129042 0.017806 -0.500933 0.000000 0.000001
    21 0.014896 -0.883989 -0.019845 -0.267454 0.000000 0.000000
    22 -0.547706 -1.276194 0.008752 -0.015000 -0.716336 -2.528360
    23 1.522835 0.128996 -0.182375 0.265658 0.160195 0.522271
    24 1.117948 0.048424 -0.005764 -0.002580 -0.025066 0.158722
    25 -0.139399 -0.111697 0.014397 0.285382 -0.030687 1.580508
    26 10.330033 6.314867 -9.798610 1.364710 -1.843366 -1.498721
    27 -0.071918 -8.498732 -0.104137 -0.036395 0.273210 -0.341615
    28 -0.488517 -2.755600 -0.228261 -1.091352 -0.300440 -0.445601
    29 0.039888 -1.479789 0.029853 -0.928028 0.000000 0.000000
    30 0.028786 -1.075730 -0.023111 -1.481379 0.000000 0.000000
    31 0.250028 -2.820664 -0.238396 -0.620838 -0.150751 -0.537343
    32 -0.049759 -1.680545 0.100480 -1.463615 0.000000 -0.000002
    33 -0.034141 -1.148312 0.084779 -1.087260 0.000000 0.000000
    34 0.957766 -2.746776 -0.090301 -0.063286 -0.242586 -0.427231
    35 -0.033419 -1.397128 -0.011255 -0.779083 0.124808 -0.122316
    36 -0.022361 -0.957434 0.018783 -1.043272 0.000000 0.000000
    37 -1.180680 -2.507215 -0.193861 -1.402521 -0.167650 -0.612250
    38 -0.024966 -1.123935 0.017594 -0.977951 0.000000 0.000001
    39 -0.020057 -0.890966 0.010091 -0.933396 0.000000 0.000000
    40 0.583510 -1.197274 0.185377 0.272562 -1.003483 -0.533072
    41 1.535926 0.010244 0.005008 0.440185 -0.138709 -1.296608
    42 1.100770 0.004526 -0.010676 -0.011449 0.011503 -0.607426
    43 0.120152 -0.050266 -0.054488 0.287568 3.110905 1.561085
  time 26
    0 0.000000 0.000000 0.000000 0.000000 0.000000 -0.000094
    1 0.058160 -6.761723 -13.509943 -0.074842 -5.956259 0.569196
    2 0.096944 -8.450418 -0.009364 0.278066 -0.276658 0.114440
    3 3.768138 0.606326 1.312422 4.368260 0.090750 0.732941
    4 -3.054055 -6.061510 0.000003 0.000001 0.000001 0.005300
    5 -2.010682 -3.271751 0.000002 0.000000 0.000000 -3.136292
    6 11.679249 -0.000002 0.000000 0.000000 0.000000 0.000000
    7 10.482985 -0.550526 -0.000004 0.000000 0.000000 -3.136292
    8 4.552885 2.143378 -0.000001 0.000000 0.000000 -1.570796
    9 3.124239 -3.246087 -0.000008 0.000000 0.000000 -3.136292
    10 0.447952 -2.798983 -0.200442 -0.738074 -0.102210 0.041797
    11 -0.032910 -1.480206 0.004936 -0.802775 0.000000 0.000002
    12 -0.027022 -1.076919 -0.020212 -0.434237 0.000000 0.000000
    13 -0.249534 -2.846962 -0.174215 -0.372660 -0.091819 0.024622
    14 0.043235 -1.683940 0.096014 -1.033446 0.002823 -0.000167
    15 0.031729 -1.160831 0.058836 -1.000043 0.000642 0.008372
    16 -0.963866 -2.785142 -0.085346 -0.269123 0.014961 -0.024958
    17 0.028479 -1.403069 0.006271 -0.285440 0.000000 0.000000
    18 0.021413 -0.957782 0.020047 -0.431473 0.000000 0.000000
    19 1.164474 -2.543938 -0.170328 -0.858262 -0.318398 0.068471
    20 0.024033 -1.129042 0.017806 -0.500933 0.000000 0.000001
    21 0.014896 -0.883989 -0.019845 -0.267454 0.000000 0.000000
    22 -0.547706 -1.276194 0.008752 -0.015000 -0.716336 -2.528360
    23 1.522835 0.128996 -0.182375 0.265658 0.160195 0.522271
    24 1.117948 0.048424 -0.005764 -0.002580 -0.025066 0.158722
    25 -0.139399 -0.111697 0.014397 0.285382 -0.030687 1.580508
    26 10.099558 6.611751 -10.384565 1.336380 -1.873225 -1.452729
    27 -0.071918 -8.498732 -0.104137 -0.036395 0.273210 -0.341615
    28 -0.488517 -2.755600 -0.228261 -1.091352 -0.300440 -0.445601
    29 0.039888 -1.479789 0.029853 -0.928028 0.000000 0.000000
    30 0.028786 -1.075730 -0.023111 -1.481379 0.000000 0.000000
    31 0.250028 -2.820664 -0.238396 -0.620838 -0.150751 -0.537343
    32 -0.049759 -1.680545 0.100480 -1.463615 0.000000 -0.000002
    33 -0.034141 -1.148312 0.084779 -1.087260 0.000000 0.000000
    34 0.957766 -2.746776 -0.090301 -0.063286 -0.242586 -0.427231
    35 -0.033419 -1.397128 -0.011255 -0.779083 0.124808 -0.122316
    36 -0.022361 -0.957434 0.018783 -1.043272 0.000000 0.000000
    37 -1.180680 -2.507215 -0.193861 -1.402521 -0.167650 -0.612250
    38 -0.024966 -1.123935 0.017594 -0.977951 0.000000 0.000001
    39 -0.020057 -0.890966 0.010091 -0.933396 0.000000 0.000000
    40 0.583510 -1.197274 0.185377 0.272562 -1.003483 -0.533072
    41 1.535926 0.010244 0.005008 0.440185 -0.138709 -1.296608
    42 1.100770 0.004526 -0.010676 -0.011449 0.011503 -0.607426
    43 0.120152 -0.050266 -0.054488 0.287568 3.110905 1.561085
  time 27
    0 0.000000 0.000000 0.000000 0.000000 0.000000 -0.000094
    1 0.058160 -6.761723 -13.173995 -0.084850 -5.947831 0.591986
    2 0.096944 -8.450418 -0.009364 0.278066 -0.276658 0.114440
    3 3.768138 0.567262 1.183511 4.368260 0.090750 0.732941
    4 -3.054055 -6.061510 0.000003 0.000001 0.000001 0.005300
    5 -2.010682 -3.271751 0.000002 0.000000 0.000000 -3.136292
    6 11.679249 -0.000002 0.000000 0.000000 0.000000 0.000000
    7 10.482985 -0.550526 -0.000004 0.000000 0.000000 -3.136292
    8 4.552885 2.143378 -0.000001 0.000000 0.000000 -1.570796
    9 3.124239 -3.246087 -0.000008 0.000000 0.000000 -3.136292
    10 0.447952 -2.798983 -0.200442 -0.738074 -0.102210 0.041797
    11 -0.032910 -1.480206 0.004936 -0.802775 0.000000 0.000002
    12 -0.027022 -1.076919 -0.020212 -0.434237 0.000000 0.000000
    13 -0.249534 -2.846962 -0.174215 -0.372660 -0.091819 0.024622
    14 0.043235 -1.683940 0.096014 -1.033446 0.002823 -0.000167
    15 0.031729 -1.160831 0.058836 -1.000043 0.000642 0.008372
    16 -0.963866 -2.785142 -0.085346 -0.269123 0.014961 -0.024958
    17 0.028479 -1.403069 0.006271 -0.285440 0.000000 0.000000
    18 0.021413 -0.957782 0.020047 -0.431473 0.000000 0.000000
    19 1.164474 -2.543938 -0.170328 -0.858262 -0.318398 0.068471
    20 0.024033 -1.129042 0.017806 -0.500933 0.000000 0.000001
    21 0.014896 -0.883989 -0.019845 -0.267454 0.000000 0.000000
    22 -0.547706 -1.276194 0.008752 -0.015000 -0.716336 -2.528360
    23 1.522835 0.128996 -0.182375 0.265658 0.160195 0.522271
    24 1.117948 0.048424 -0.005764 -0.002580 -0.025066 0.158722
    25 -0.139399 -0.111697 0.014397 0.285382 -0.030687 1.580508
    26 9.892520 6.877384 -10.896300 1.312262 -1.898778 -1.413091
    27 -0.071918 -8.498732 -0.104137 -0.036395 0.273210 -0.341615
    28 -0.488517 -2.755600 -0.228261 -1.091352 -0.300440 -0.445601
    29 0.039888 -1.479789 0.029853 -0.928028 0.000000 0.000000
    30 0.028786 -1.075730 -0.023111 -1.481379 0.000000 0.000000
    31 0.250028 -2.820664 -0.238396 -0.620838 -0.150751 -0.537343
    32 -0.049759 -1.680545 0.100480 -1.463615 0.000000 -0.000002
    33 -0.034141 -1.148312 0.084779 -1.087260 0.000000 0.000000
    34 0.957766 -2.746776 -0.090301 -0.063286 -0.242586 -0.427231
    35 -0.033419 -1.397128 -0.011255 -0.779083 0.124808 -0.122316
    36 -0.022361 -0.957434 0.018783 -1.043272 0.000000 0.000000
    37 -1.180680 -2.507215 -0.193861 -1.402521 -0.167650 -0.612250
    38 -0.024966 -1.123935 0.017594 -0.977951 0.000000 0.000001
    39 -0.020057 -0.890966 0.010091 -0.933396 0.000000 0.000000
    40 0.583510 -1.197274 0.185377 0.272562 -1.003483 -0.533072
    41 1.535926 0.010244 0.005008 0.440185 -0.138709 -1.296608
    42 1.100770 0.004526 -0.010676 -0.011449 0.011503 -0.607426
    43 0.120152 -0.050266 -0.054488 0.287568 3.110905 1.561085
  time 28
    0 0.000000 0.000000 0.000000 0.000000 0.000000 -0.000094
    1 0.058160 -6.761723 -12.841954 -0.092835 -5.940936 0.612212
    2 0.096944 -8.450418 -0.009364 0.278066 -0.276658 0.114440
    3 3.768138 0.536011 1.081946 4.368260 0.090750 0.732941
    4 -3.054055 -6.061510 0.000003 0.000001 0.000001 0.005300
    5 -2.010682 -3.271751 0.000002 0.000000 0.000000 -3.136292
    6 11.679249 -0.000002 0.000000 0.000000 0.000000 0.000000
    7 10.482985 -0.550526 -0.000004 0.000000 0.000000 -3.136292
    8 4.552885 2.143378 -0.000001 0.000000 0.000000 -1.570796
    9 3.124239 -3.246087 -0.000008 0.000000 0.000000 -3.136292
    10 0.447952 -2.798983 -0.200442 -0.738074 -0.102210 0.041797
    11 -0.032910 -1.480206 0.004936 -0.802775 0.000000 0.000002
    12 -0.027022 -1.076919 -0.020212 -0.434237 0.000000 0.000000
    13 -0.249534 -2.846962 -0.174215 -0.372660 -0.091819 0.024622
    14 0.043235 -1.683940 0.096014 -1.033446 0.002823 -0.000167
    15 0.031729 -1.160831 0.058836 -1.000043 0.000642 0.008372
    16 -0.963866 -2.785142 -0.085346 -0.269123 0.014961 -0.024958
    17 0.028479 -1.403069 0.006271 -0.285440 0.000000 0.000000
    18 0.021413 -0.957782 0.020047 -0.431473 0.000000 0.000000
    19 1.164474 -2.543938 -0.170328 -0.858262 -0.318398 0.068471
    20 0.024033 -1.129042 0.017806 -0.500933 0.000000 0.000001
    21 0.014896 -0.883989 -0.019845 -0.267454 0.000000 0.000000
    22 -0.547706 -1.276194 0.008752 -0.015000 -0.716336 -2.528360
    23 1.522835 0.128996 -0.182375 0.265658 0.160195 0.522271
    24 1.117948 0.048424 -0.005764 -0.002580 -0.025066 0.158722
    25 -0.139399 -0.111697 0.014397 0.285382 -0.030687 1.580508
    26 9.736265 7.088328 -11.310375 1.293695 -1.918684 -1.381987
    27 -0.071918 -8.498732 -0.104137 -0.036395 0.273210 -0.341615
    28 -0.488517 -2.755600 -0.228261 -1.091352 -0.300440 -0.445601
    29 0.039888 -1.479789 0.029853 -0.928028 0.000000 0.000000
    30 0.028786 -1.075730 -0.023111 -1.481379 0.000000 0.000000
    31 0.250028 -2.820664 -0.238396 -0.620838 -0.150751 -0.537343
    32 -0.049759 -1.680545 0.100480 -1.463615 0.000000 -0.000002
    33 -0.034141 -1.148312 0.084779 -1.087260 0.000000 0.000000
    34 0.957766 -2.746776 -0.090301 -0.063286 -0.242586 -0.427231
    35 -0.033419 -1.397128 -0.011255 -0.779083 0.124808 -0.122316
    36 -0.022361 -0.957434 0.018783 -1.043272 0.000000 0.000000
    37 -1.180680 -2.507215 -0.193861 -1.402521 -0.167650 -0.612250
    38 -0.024966 -1.123935 0.017594 -0.977951 0.000000 0.000001
    39 -0.020057 -0.890966 0.010091 -0.933396 0.000000 0.000000
    40 0.583510 -1.197274 0.185377 0.272562 -1.003483 -0.533072
    41 1.535926 0.010244 0.005008 0.440185 -0.138709 -1.296608
    42 1.100770 0.004526 -0.010676 -0.011449 0.011503 -0.607426
    43 0.120152 -0.050266 -0.054488 0.287568 3.110905 1.561085
  time 29
    0 0.000000 0.000000 0.000000 0.000000 0.000000 -0.000094
    1 0.058160 -6.761723 -12.584134 -0.098129 -5.936339 0.626689
    2 0.096944 -8.450418 -0.009364 0.278066 -0.276658 0.114440
    3 3.768138 0.516479 1.015538 4.368260 0.090750 0.732941
    4 -3.054055 -6.061510 0.000003 0.000001 0.000001 0.005300
    5 -2.010682 -3.271751 0.000002 0.000000 0.000000 -3.136292
    6 11.679249 -0.000002 0.000000 0.000000 0.000000 0.000000
    7 10.482985 -0.550526 -0.000004 0.000000 0.000000 -3.136292
    8 4.552885 2.143378 -0.000001 0.000000 0.000000 -1.570796
    9 3.124239 -3.246087 -0.000008 0.000000 0.000000 -3.136292
    10 0.447952 -2.798983 -0.200442 -0.738074 -0.102210 0.041797
    11 -0.032910 -1.480206 0.004936 -0.802775 0.000000 0.000002
    12 -0.027022 -1.076919 -0.020212 -0.434237 0.000000 0.000000
    13 -0.249534 -2.846962 -0.174215 -0.372660 -0.091819 0.024622
    14 0.043235 -1.683940 0.096014 -1.033446 0.002823 -0.000167
    15 0.031729 -1.160831 0.058836 -1.000043 0.000642 0.008372
    16 -0.963866 -2.785142 -0.085346 -0.269123 0.014961 -0.024958
    17 0.028479 -1.403069 0.006271 -0.285440 0.000000 0.000000
    18 0.021413 -0.957782 0.020047 -0.431473 0.000000 0.000000
    19 1.164474 -2.543938 -0.170328 -0.858262 -0.318398 0.068471
    20 0.024033 -1.129042 0.017806 -0.500933 0.000000 0.000001
    21 0.014896 -0.883989 -0.019845 -0.267454 0.000000 0.000000
    22 -0.547706 -1.276194 0.008752 -0.015000 -0.716336 -2.528360
    23 1.522835 0.128996 -0.182375 0.265658 0.160195 0.522271
    24 1.117948 0.048424 -0.005764 -0.002580 -0.025066 0.158722
    25 -0.139399 -0.111697 0.014397 0.285382 -0.030687 1.580508
    26 9.630793 7.228957 -11.576008 1.281636 -1.931604 -1.361789
    27 -0.071918 -8.498732 -0.104137 -0.036395 0.273210 -0.341615
    28 -0.488517 -2.755600 -0.228261 -1.091352 -0.300440 -0.445601
    29 0.039888 -1.479789 0.029853 -0.928028 0.000000 0.000000
    30 0.028786 -1.075730 -0.023111 -1.481379 0.000000 0.000000
    31 0.250028 -2.820664 -0.238396 -0.620838 -0.150751 -0.537343
    32 -0.049759 -1.680545 0.100480 -1.463615 0.000000 -0.000002
    33 -0.034141 -1.148312 0.084779 -1.087260 0.000000 0.000000
    34 0.957766 -2.746776 -0.090301 -0.063286 -0.242586 -0.427231
    35 -0.033419 -1.397128 -0.011255 -0.779083 0.124808 -0.122316
    36 -0.022361 -0.957434 0.018783 -1.043272 0.000000 0.000000
    37 -1.180680 -2.507215 -0.193861 -1.402521 -0.167650 -0.612250
    38 -0.024966 -1.123935 0.017594 -0.977951 0.000000 0.000001
    39 -0.020057 -0.890966 0.010091 -0.933396 0.000000 0.000000
    40 0.583510 -1.197274 0.185377 0.272562 -1.003483 -0.533072
    41 1.535926 0.010244 0.005008 0.440185 -0.138709 -1.296608
    42 1.100770 0.004526 -0.010676 -0.011449 0.011503 -0.607426
    43 0.120152 -0.050266 -0.054488 0.287568 3.110905 1.561085
  time 30
    0 0.000000 0.000000 0.000000 0.000000 0.000000 -0.000094
    1 0.058160 -6.761723 -12.482568 -0.100045 -5.934615 0.632231
    2 0.096944 -8.450418 -0.009364 0.278066 -0.276658 0.114440
    3 3.768138 0.512573 0.996006 4.368260 0.090750 0.732941
    4 -3.054055 -6.061510 0.000003 0.000001 0.000001 0.005300
    5 -2.010682 -3.271751 0.000002 0.000000 0.000000 -3.136292
    6 11.679249 -0.000002 0.000000 0.000000 0.000000 0.000000
    7 10.482985 -0.550526 -0.000004 0.000000 0.000000 -3.136292
    8 4.552885 2.143378 -0.000001 0.000000 0.000000 -1.570796
    9 3.124239 -3.246087 -0.000008 0.000000 0.000000 -3.136292
    10 0.447952 -2.798983 -0.200442 -0.738074 -0.102210 0.041797
    11 -0.032910 -1.480206 0.004936 -0.802775 0.000000 0.000002
    12 -0.027022 -1.076919 -0.020212 -0.434237 0.000000 0.000000
    13 -0.249534 -2.846962 -0.174215 -0.372660 -0.091819 0.024622
    14 0.043235 -1.683940 0.096014 -1.033446 0.002823 -0.000167
    15 0.031729 -1.160831 0.058836 -1.000043 0.000642 0.008372
    16 -0.963866 -2.785142 -0.085346 -0.269123 0.014961 -0.024958
    17 0.028479 -1.403069 0.006271 -0.285440 0.000000 0.000000
    18 0.021413 -0.957782 0.020047 -0.431473 0.000000 0.000000
    19 1.164474 -2.543938 -0.170328 -0.858262 -0.318398 0.068471
    20 0.024033 -1.129042 0.017806 -0.500933 0.000000 0.000001
    21 0.014896 -0.883989 -0.019845 -0.267454 0.000000 0.000000
    22 -0.547706 -1.276194 0.008752 -0.015000 -0.716336 -2.528360
    23 1.522835 0.128996 -0.182375 0.265658 0.160195 0.522271
    24 1.117948 0.048424 -0.005764 -0.002580 -0.025066 0.158722
    25 -0.139399 -0.111697 0.014397 0.285382 -0.030687 1.580508
    26 9.587823 7.275833 -11.673667 1.277329 -1.936197 -1.354487
    27 -0.071918 -8.498732 -0.104137 -0.036395 0.273210 -0.341615
    28 -0.488517 -2.755600 -0.228261 -1.091352 -0.300440 -0.445601
    29 0.039888 -1.479789 0.029853 -0.928028 0.000000 0.000000
    30 0.028786 -1.075730 -0.023111 -1.481379 0.000000 0.000000
    31 0.250028 -2.820664 -0.238396 -0.620838 -0.150751 -0.537343
    32 -0.049759 -1.680545 0.100480 -1.463615 0.000000 -0.000002
    33 -0.034141 -1.148312 0.084779 -1.087260 0.000000 0.000000
    34 0.957766 -2.746776 -0.090301 -0.063286 -0.242586 -0.427231
    35 -0.033419 -1.397128 -0.011255 -0.779083 0.124808 -0.122316
    36 -0.022361 -0.957434 0.018783 -1.043272 0.000000 0.000000
    37 -1.180680 -2.507215 -0.193861 -1.402521 -0.167650 -0.612250
    38 -0.024966 -1.123935 0.017594 -0.977951 0.000000 0.000001
    39 -0.020057 -0.890966 0.010091 -0.933396 0.000000 0.000000
    40 0.583510 -1.197274 0.185377 0.272562 -1.003483 -0.533072
    41 1.535926 0.010244 0.005008 0.440185 -0.138709 -1.296608
    42 1.100770 0.004526 -0.010676 -0.011449 0.011503 -0.607426
    43 0.120152 -0.050266 -0.054488 0.287568 3.110905 1.561085
end
