// Created by Crowbar 0.49.0.0

$modelname "weapons/tfa_cso/c_janus3b.mdl"

$Include "csonline_gmod.qci"

$bodygroup "studio"
{
	studio "v_janus3_1"
}
$bodygroup "studio"
{
	studio "v_janus3_2"
}

$CDMaterials "models\weapons\tfa_cso\janus3\"

$attachment 0 "Bone02" 13 0 0
//$attachment 1 "Bone02" 0 0 -1

$definebone "root" "" -0.349714 1.166272 0.203512 0.000000 0.000000 0.000000 0.000000 0.000000 0.000000 -0.000000 0.000000 0.000000
$definebone "Bone01" "root" 9.164136 0.187388 -8.599345 -76.217481 70.092734 -90.018486 0.000000 0.000000 0.000000 -0.000000 0.000000 0.000000
$definebone "Bone_Lefthand" "Bone01" -0.071918 -8.498731 -0.104136 5.089814 -13.452421 12.732268 0.000000 0.000000 -0.000000 -0.000000 -0.000000 -0.000001
$definebone "Bone02" "Bone_Lefthand" 3.168342 -6.001605 0.281405 7.144666 -88.567071 5.072454 0.000000 0.000000 0.000000 -0.000003 0.000000 0.000000
$definebone "Dummy04" "Bone02" 5.123465 -0.644737 -1.000001 -0.000000 89.999983 -0.000003 0.000000 0.000000 0.000000 -0.000000 -0.000000 -0.000003
$definebone "Bone46" "Dummy04" 0.000000 0.000000 0.000001 -0.000000 -0.000000 -0.000003 0.000000 0.000000 0.000000 -0.000000 -0.000000 -0.000003
$definebone "Dummy01" "Bone46" -7.800515 -0.626144 -2.001106 -0.000000 -0.000000 -0.000003 0.000000 0.000000 -0.000001 -0.000000 -0.000000 -0.000003
$definebone "Bone64" "Dummy01" -24.230825 40.196480 -0.000001 -0.000000 -0.000000 -0.000003 0.000000 0.000000 0.000000 -0.000000 -0.000000 -0.000003
$definebone "Dummy03" "Bone02" 5.123466 -0.644737 1.000000 -0.000000 89.999983 -0.000003 0.000000 0.000000 0.000000 -0.000000 -0.000000 -0.000003
$definebone "Bone24" "Dummy03" 0.000000 0.000000 0.000002 -0.000000 -0.000000 -0.000003 0.000000 0.000000 0.000000 -0.000000 -0.000000 -0.000003
$definebone "Dummy02" "Bone24" -7.800516 -0.626143 1.998895 -0.000000 -0.000000 -0.000003 0.000000 0.000000 0.000000 -0.000000 -0.000000 -0.000003
$definebone "Bone50" "Dummy02" -24.230827 40.196480 -0.000000 -0.000000 -0.000000 -0.000003 0.000000 0.000000 0.000000 -0.000000 -0.000000 -0.000003
$definebone "Dummy07" "Bone02" 0.783618 -3.527024 0.000000 0.000000 -89.999983 0.000003 0.000000 0.000000 0.000000 0.000000 -0.000000 0.000003
$definebone "Bone65" "Dummy07" 0.000000 -0.000001 0.000000 0.000033 90.000024 -180.000007 0.000000 -0.000000 0.000000 0.000003 -0.000000 0.000000
$definebone "Bone12" "Bone65" 0.000001 -0.000000 0.000000 0.000036 90.000024 -180.000007 0.000000 0.000000 0.000000 0.000000 -0.000000 0.000003
$definebone "Bone08" "Bone12" 0.000000 0.000000 0.000000 0.000000 -0.000000 0.000003 0.000000 0.000000 0.000000 0.000000 -0.000000 0.000003
$definebone "Dummy05" "Bone08" 0.000000 0.000002 -4.999999 0.000000 -0.000000 0.000003 0.000000 0.000000 0.000001 0.000000 -0.000000 0.000003
$definebone "Bone57" "Dummy05" 0.000000 0.000000 0.000001 0.000000 -0.000000 0.000003 0.000000 0.000000 0.000001 0.000000 -0.000000 0.000003
$definebone "Bone30" "Bone57" 1.029107 -0.000004 6.029105 44.999992 179.999966 89.999922 0.000000 0.000000 0.000000 0.000002 0.000000 0.000002
$definebone "Bone48" "Bone57" -1.029103 -0.000006 6.029105 44.999992 0.000055 -89.999976 0.000000 0.000000 0.000000 0.000002 0.000000 -0.000002
$definebone "Dummy06" "Bone08" 0.000000 -0.000001 5.000000 0.000000 -0.000000 0.000003 0.000000 0.000000 0.000000 0.000000 -0.000000 0.000003
$definebone "Bone59" "Dummy06" 0.000000 0.000000 0.000000 0.000000 -0.000000 0.000003 0.000000 0.000000 0.000000 0.000000 -0.000000 0.000003
$definebone "Bone54" "Bone59" -1.029103 0.000002 -6.029104 -44.999992 0.000002 -89.999976 0.000000 0.000000 0.000000 -0.000002 0.000000 -0.000002
$definebone "Bone20" "Bone59" 1.029105 0.000004 -6.029105 -44.999992 179.999966 89.999976 0.000000 0.000000 0.000000 -0.000002 0.000000 0.000002
$definebone "Bone51" "Bone02" 8.643551 0.024466 0.000000 -0.000000 89.999983 -0.000003 0.000000 0.000000 0.000000 -0.000000 -0.000000 -0.000003
$definebone "Bone42" "Bone51" 0.000000 -1.304510 0.000000 -60.000009 -180.000007 -180.000007 0.000000 0.000000 0.000000 -0.000002 -0.000002 0.000001
$definebone "Bone47" "Bone51" 0.000000 -1.304510 0.000000 -0.000000 -0.000000 -0.000003 0.000000 0.000000 0.000000 -0.000000 -0.000000 -0.000003
$definebone "Bone49" "Bone51" 0.000000 -1.304510 0.000000 60.000009 180.000007 -180.000007 0.000000 0.000000 0.000000 -0.000002 0.000002 0.000001
$definebone "Bone16" "Bone02" -0.662210 0.297436 1.013178 -89.999976 -89.999983 0.000000 0.000000 0.000000 0.000000 -0.000000 0.000003 0.000000
$definebone "Bone61" "Bone02" -1.325817 -1.544499 0.000000 0.000000 -89.999983 0.000003 0.000000 0.000000 0.000000 0.000000 -0.000000 0.000003
$definebone "Bone63" "Bone02" 2.957089 0.024467 0.000000 -0.000000 89.999983 -0.000003 0.000000 0.000000 0.000000 -0.000000 -0.000000 -0.000003
$definebone "Bone03" "Bone63" 0.823792 4.997480 -0.000001 -0.000000 -0.000000 -0.000003 0.000000 0.000000 0.000000 -0.000000 -0.000000 -0.000003
$definebone "Bone58" "Bone03" 0.972660 2.397356 0.000000 -0.000000 -0.000000 -0.000003 0.000000 0.000000 0.000000 -0.000000 -0.000000 -0.000003
$definebone "Dummy08" "Bone58" 0.073770 0.372674 0.000000 0.000003 89.999983 -0.000000 0.000000 0.000000 0.000000 0.000003 0.000000 -0.000000
$definebone "Bone34" "Dummy08" 37.632721 23.278603 -0.000010 0.000003 0.000000 -0.000000 0.000000 0.000000 0.000000 0.000003 0.000000 -0.000000
$definebone "Bone26" "Bone03" 0.345100 1.668495 0.000000 -89.999983 0.000000 0.000000 -0.000000 0.000000 0.000000 0.000000 -0.000003 0.000000

$sequence "idle1" {
	"v_janus3_anims\idle1"
	fps 30
	loop
}
$sequence "reload1" {
	"v_janus3_anims\reload1"
	{ event 5004 11 "Janus3.ClipOut" }
	{ event 5004 38 "Janus3.Clipin" }
	{ event 5004 56 "Janus3.Boltpull1" }
	fps 30
}
$sequence "draw1" {
	"v_janus3_anims\draw1"
	{ event 5004 9 "Janus3.Boltpull2" }
	fps 30
}
$sequence "shoot1_1" {
	"v_janus3_anims\shoot1_1"
	{ event 5001 0 "22" }
	fps 30
}
$sequence "shoot1_signal" {
	"v_janus3_anims\shoot1_signal"
	{ event 5001 0 "22" }
	fps 30
}
$sequence "change1" {
	"v_janus3_anims\change1"
	{ event 5004 12 "Janus3.Change1" }
	fps 30
	activity "ACT_VM_DRAW" 1
	snap
}
$sequence "idle2" {
	"v_janus3_anims\idle2"
	fps 30
	loop
	activity "ACT_VM_IDLE" 1
	snap
}
$sequence "draw2" {
	"v_janus3_anims\draw2"
	{ event 5004 9 "Janus3.Draw" }
	fps 30
}
$sequence "shoot2_1" {
	"v_janus3_anims\shoot2_1"
	{ event 5001 0 "#I32 S0.15 R1.5 F0 P30 T0.01 A1 L0 O0" }
	fps 30
	activity "ACT_VM_PRIMARYATTACK" 1
	snap
}
$sequence "shoot2_2" {
	"v_janus3_anims\shoot2_2"
	{ event 5001 0 "#I32 S0.15 R1.5 F0 P30 T0.01 A1 L0 O0" }
	fps 30
	activity "ACT_VM_PRIMARYATTACK" 2
	snap
}
$sequence "shoot2_3" {
	"v_janus3_anims\shoot2_3"
	{ event 5001 0 "#I32 S0.15 R1.5 F0 P30 T0.01 A1 L0 O0" }
	fps 30
	activity "ACT_VM_PRIMARYATTACK" 3
	snap
}
$sequence "change2" {
	"v_janus3_anims\change2"
	{ event 5004 10 "Janus3.Change2" }
	fps 30
	activity "ACT_VM_PRIMARYATTACK_EMPTY" 1
	snap
}
$sequence "signal" {
	"v_janus3_anims\signal"
	fps 30
	loop
}
$sequence "reload_signal" {
	"v_janus3_anims\reload_signal"
	{ event 5004 11 "Janus3.ClipOut" }
	{ event 5004 38 "Janus3.Clipin" }
	{ event 5004 56 "Janus3.Boltpull1" }
	fps 30
}
$sequence "draw_signal" {
	"v_janus3_anims\draw_signal"
	{ event 5004 9 "Janus3.Boltpull2" }
	fps 30
}
