// Created by Crowbar 0.68

$modelname "weapons\tfa_cso\c_ump45.mdl"

$bodygroup "studio"
{
	studio "f_ump45_template.smd"
}


$surfaceprop "default"

$contents "solid"

$illumposition 0 0 0

$cdmaterials "models\weapons\tfa_cso\ump45\"

$attachment "0" "Bone51" 0 -10.79 0 rotate 0 0 0

$cbox 0 0 0 0 0 0

$bbox 0 0 0 0 0 0

$definebone "ValveBiped.Bip01_Spine4" "" 0.000006 0 0 -79.749938 -89.999873 -90.000098 0 0 0 0 0 0
$definebone "ValveBiped.Bip01_L_Clavicle" "ValveBiped.Bip01_Spine4" 2.033349 1.000767 1.93766 -73.711859 168.619271 91.480542 0 0 0 0 0 0
$definebone "ValveBiped.Bip01_L_UpperArm" "ValveBiped.Bip01_L_Clavicle" 6.028141 0 0 2.738853 -33.527944 -90.505156 0 0 0 0 0 0
$definebone "ValveBiped.Bip01_L_Forearm" "ValveBiped.Bip01_L_UpperArm" 11.692554 0.000001 -0.000001 -0.000002 -3.459061 -0.000001 0 0 0 0 0 0
$definebone "ValveBiped.Bip01_L_Elbow" "ValveBiped.Bip01_L_UpperArm" -0.383998 -5.343996 -19.290001 61.775004 148.801996 34.895006 0 0 0 0 0 0
$definebone "ValveBiped.Bip01_L_Wrist" "ValveBiped.Bip01_L_Forearm" -2.162001 -1.261 -7.88 42.251031 150.333994 138.609004 0 0 0 0 0 0
$definebone "ValveBiped.Bip01_L_Ulna" "ValveBiped.Bip01_L_Forearm" -3.021 -9.992002 -1.191998 21.227005 -158.560984 60.433008 0 0 0 0 0 0
$definebone "ValveBiped.Bip01_L_Hand" "ValveBiped.Bip01_L_Forearm" 11.481668 0.000001 -0.000032 -6.108474 2.532073 90.136743 0 0 0 0 0 0
$definebone "ValveBiped.Bip01_L_Finger4" "ValveBiped.Bip01_L_Hand" 3.859711 -0.142405 -1.191975 8.682206 -50.431559 -26.82204 0 0 0 0 0 0
$definebone "ValveBiped.Bip01_L_Finger41" "ValveBiped.Bip01_L_Finger4" 1.312555 -0.000002 0 0 -25.194097 0.00001 0 0 0 0 0 0
$definebone "ValveBiped.Bip01_L_Finger42" "ValveBiped.Bip01_L_Finger41" 0.729363 -0.000002 -0.000003 0.000002 -13.997301 0.000017 0 0 0 0 0 0
$definebone "ValveBiped.Bip01_L_Finger3" "ValveBiped.Bip01_L_Hand" 3.942337 0.046767 -0.431443 4.1944 -46.465995 -8.696352 0 0 0 0 0 0
$definebone "ValveBiped.Bip01_L_Finger31" "ValveBiped.Bip01_L_Finger3" 1.539097 0 0 0 -14.197714 0.000003 0 0 0 0 0 0
$definebone "ValveBiped.Bip01_L_Finger32" "ValveBiped.Bip01_L_Finger31" 1.196324 -0.000002 -0.000001 0.000002 -24.683141 0.000004 0 0 0 0 0 0
$definebone "ValveBiped.Bip01_L_Finger2" "ValveBiped.Bip01_L_Hand" 3.883698 -0.046763 0.431443 1.250768 -33.682279 4.921822 0 0 0 0 0 0
$definebone "ValveBiped.Bip01_L_Finger21" "ValveBiped.Bip01_L_Finger2" 1.71957 -0.000004 -0.000001 0.316048 -20.99762 0.000001 0 0 0 0 0 0
$definebone "ValveBiped.Bip01_L_Finger22" "ValveBiped.Bip01_L_Finger21" 1.209169 -0.000002 0 0.176704 -12.398782 0 0 0 0 0 0 0
$definebone "ValveBiped.Bip01_L_Finger1" "ValveBiped.Bip01_L_Hand" 3.859863 -0.137945 1.332466 -2.449394 -30.465181 20.308441 0 0 0 0 0 0
$definebone "ValveBiped.Bip01_L_Finger11" "ValveBiped.Bip01_L_Finger1" 1.719433 0 0 0.233435 -20.798875 0.000002 0 0 0 0 0 0
$definebone "ValveBiped.Bip01_L_Finger12" "ValveBiped.Bip01_L_Finger11" 1.099669 -0.000002 -0.000001 0.148753 -13.999139 -0.000002 0 0 0 0 0 0
$definebone "ValveBiped.Bip01_L_Finger0" "ValveBiped.Bip01_L_Hand" 0.806053 -0.348927 1.321258 -38.916044 -45.195994 -70.054231 0 0 0 0 0 0
$definebone "ValveBiped.Bip01_L_Finger01" "ValveBiped.Bip01_L_Finger0" 1.789778 -0.000002 0.000002 -0.000015 13.093407 0.000005 0 0 0 0 0 0
$definebone "ValveBiped.Bip01_L_Finger02" "ValveBiped.Bip01_L_Finger01" 1.207008 0.000001 0.000002 -0.000017 20.790351 0 0 0 0 0 0 0
$definebone "ValveBiped.Bip01_R_Clavicle" "ValveBiped.Bip01_Spine4" 2.033356 1.000772 -1.93761 73.712037 168.618779 -95.596496 0 0 0 0 0 0
$definebone "ValveBiped.Bip01_R_UpperArm" "ValveBiped.Bip01_R_Clavicle" 6.028146 0 0 -0.46209 -33.623802 93.935243 0 0 0 0 0 0
$definebone "ValveBiped.Bip01_R_Forearm" "ValveBiped.Bip01_R_UpperArm" 11.692553 0.000001 0.000001 -0.000003 -3.459062 0.000003 0 0 0 0 0 0
$definebone "ValveBiped.Bip01_R_Elbow" "ValveBiped.Bip01_R_UpperArm" -9.646999 5.335 -13.562006 31.344015 137.425974 63.166996 0 0 0 0 0 0
$definebone "ValveBiped.Bip01_R_Wrist" "ValveBiped.Bip01_R_Forearm" -5.657995 -14.639002 -15.09301 12.624007 -158.560984 60.433002 0 0 0 0 0 0
$definebone "ValveBiped.Bip01_R_Ulna" "ValveBiped.Bip01_R_Forearm" -5.904001 2.037 -10.721001 27.93802 150.333994 138.609004 0 0 0 0 0 0
$definebone "ValveBiped.Bip01_R_Hand" "ValveBiped.Bip01_R_Forearm" 11.481699 0.000001 0.000001 6.108078 2.532071 -89.664285 0 0 0 0 0 0
$definebone "ValveBiped.Bip01_R_Finger4" "ValveBiped.Bip01_R_Hand" 3.85968 -0.132565 1.193109 -9.056515 -50.352988 26.71335 0 0 0 0 0 0
$definebone "ValveBiped.Bip01_R_Finger41" "ValveBiped.Bip01_R_Finger4" 1.312555 0 0 -0.000009 -25.191377 -0.000007 0 0 0 0 0 0
$definebone "ValveBiped.Bip01_R_Finger42" "ValveBiped.Bip01_R_Finger41" 0.729365 -0.000002 -0.000002 -0.000007 -13.995706 0 0 0 0 0 0 0
$definebone "ValveBiped.Bip01_R_Finger3" "ValveBiped.Bip01_R_Hand" 3.942307 0.050327 0.431044 -4.537309 -46.421347 8.598834 0 0 0 0 0 0
$definebone "ValveBiped.Bip01_R_Finger31" "ValveBiped.Bip01_R_Finger3" 1.539099 -0.000002 0 -0.000004 -14.196245 -0.000001 0 0 0 0 0 0
$definebone "ValveBiped.Bip01_R_Finger32" "ValveBiped.Bip01_R_Finger31" 1.196321 0.00001 0.000001 -0.000001 -24.680791 0.000003 0 0 0 0 0 0
$definebone "ValveBiped.Bip01_R_Finger2" "ValveBiped.Bip01_R_Hand" 3.883659 -0.050321 -0.431042 -1.512838 -33.672471 -4.921998 0 0 0 0 0 0
$definebone "ValveBiped.Bip01_R_Finger21" "ValveBiped.Bip01_R_Finger2" 1.719578 0.000002 0 -0.456876 -20.995274 -0.000003 0 0 0 0 0 0
$definebone "ValveBiped.Bip01_R_Finger22" "ValveBiped.Bip01_R_Finger21" 1.209187 0.000002 0 -0.255596 -12.39746 -0.000001 0 0 0 0 0 0
$definebone "ValveBiped.Bip01_R_Finger1" "ValveBiped.Bip01_R_Hand" 3.859837 -0.148937 -1.331282 2.209729 -30.481427 -20.306714 0 0 0 0 0 0
$definebone "ValveBiped.Bip01_R_Finger11" "ValveBiped.Bip01_R_Finger1" 1.719419 0 0 -0.378889 -20.796661 0.000007 0 0 0 0 0 0
$definebone "ValveBiped.Bip01_R_Finger12" "ValveBiped.Bip01_R_Finger11" 1.09967 0.000002 0 -0.241266 -13.998068 -0.000005 0 0 0 0 0 0
$definebone "ValveBiped.Bip01_R_Finger0" "ValveBiped.Bip01_R_Hand" 0.806023 -0.359837 -1.318334 38.596446 -45.467548 69.98164 0 0 0 0 0 0
$definebone "ValveBiped.Bip01_R_Finger01" "ValveBiped.Bip01_R_Finger0" 1.789782 -0.000002 -0.000002 -0.000016 13.095231 0.000007 0 0 0 0 0 0
$definebone "ValveBiped.Bip01_R_Finger02" "ValveBiped.Bip01_R_Finger01" 1.207001 0.000002 0 -0.000016 20.792933 0 0 0 0 0 0 0
$definebone "Bone24" "" 11.737748 -6.170459 2.044813 -75.91717 104.81413 -126.346342 0 0 0 0 0 0
$definebone "Bone25" "Bone24" -0.318181 -11.61363 0.000006 17.164561 -14.309963 11.983184 0 0 0 0 0 0
$definebone "Bone49" "Bone25" 2.799057 -5.421062 1.197803 79.585822 -105.757345 -110.184113 0 0 0 0 0 0
$definebone "Bone53" "Bone25" 3.365477 -9.501756 1.891336 79.585822 -105.757345 -110.184113 0 0 0 0 0 0
$definebone "Bone51" "Bone25" 4.958797 -7.517659 1.46086 79.585822 -105.757345 -110.184113 0 0 0 0 0 0
$definebone "Bone57" "Bone25" 6.56776 -15.035581 2.718979 79.970963 -92.586848 -96.803185 0 0 0 0 0 0
$definebone "Bone01" "" -11.733887 -6.04503 1.707785 73.697304 -114.139824 -136.292723 0 0 0 0 0 0
$definebone "Bone02" "Bone01" 0.034926 -11.800225 -0.000003 -19.723732 14.12163 13.691107 0 0 0 0 0 0
$definebone "Bone04" "Bone02" -0.548481 -0.290428 0.620797 -21.517486 -119.836352 -12.192365 0 0 0 0 0 0
$definebone "Bone05" "Bone04" 2.375729 -0.136101 0.000001 -0.000005 30.000021 -0.000007 0 0 0 0 0 0
$definebone "Bone06" "Bone05" 1.39028 0.073403 -0.000001 0 48.599996 -0.000007 0 0 0 0 0 0
$definebone "Bone07" "Bone02" -1.417156 -2.972264 -0.159343 -0.000003 -93.899993 0.000001 0 0 0 0 0 0
$definebone "Bone08" "Bone07" 1.807446 -0.000758 -0.000002 -27.599994 0.3 0.000001 0 0 0 0 0 0
$definebone "Bone09" "Bone08" 1.254421 -0.014226 0 -38.40002 -0.000001 0.000001 0 0 0 0 0 0
$definebone "Bone11" "Bone02" -0.453039 -3.186044 -0.159342 -14.904525 -82.358961 -4.524132 0 0 0 0 0 0
$definebone "Bone12" "Bone11" 2.010221 0.006014 0.000005 -87.000074 -179.999677 179.999704 0 0 0 0 0 0
$definebone "Bone13" "Bone12" 1.47646 0.011019 0.000005 -63.599969 1.200071 0.000012 0 0 0 0 0 0
$definebone "Bone15" "Bone02" 0.403343 -2.854383 -0.159344 -10.467254 -82.423711 -3.233088 0 0 0 0 0 0
$definebone "Bone16" "Bone15" 2.040548 0.064713 0.000005 -85.800085 -0.599891 -0.000166 0 0 0 0 0 0
$definebone "Bone17" "Bone16" 1.425242 0.004429 -0.000002 -69.59999 0.300031 0.00002 0 0 0 0 0 0
$definebone "Bone19" "Bone02" 1.243433 -2.329614 -0.159344 -15.299979 -82.800034 0 0 0 0 0 0 0
$definebone "Bone20" "Bone19" 1.750136 0.023665 0 -35.100007 -0.300005 0.000001 0 0 0 0 0 0
$definebone "Bone21" "Bone20" 1.136784 -0.001366 0.000006 -79.800044 0.000072 -0.000047 0 0 0 0 0 0
$definebone "Bone27" "Bone25" 0.59091 -0.318185 0.614668 -28.251621 -60.064315 17.020806 0 0 0 0 0 0
$definebone "Bone28" "Bone27" 2.414815 0.013782 -0.000002 0.000005 -26.09999 -0.00001 0 0 0 0 0 0
$definebone "Bone29" "Bone28" 1.29485 -0.01302 0.000002 -0.000004 -49.200008 -0.000012 0 0 0 0 0 0
$definebone "Bone31" "Bone25" 1.456362 -2.995915 -0.178205 -3.000006 -87.299974 0.000003 0 0 0 0 0 0
$definebone "Bone32" "Bone31" 1.775335 0.019331 -0.000003 -21.599981 -0.299995 -0.000002 0 0 0 0 0 0
$definebone "Bone33" "Bone32" 1.219421 -0.007365 0.000004 -35.100007 0.600005 -0.000003 0 0 0 0 0 0

$bonemerge "ValveBiped.Bip01_Spine4"
$bonemerge "ValveBiped.Bip01_L_Clavicle"
$bonemerge "ValveBiped.Bip01_L_UpperArm"
$bonemerge "ValveBiped.Bip01_L_Forearm"
$bonemerge "ValveBiped.Bip01_L_Elbow"
$bonemerge "ValveBiped.Bip01_L_Wrist"
$bonemerge "ValveBiped.Bip01_L_Ulna"
$bonemerge "ValveBiped.Bip01_L_Hand"
$bonemerge "ValveBiped.Bip01_L_Finger4"
$bonemerge "ValveBiped.Bip01_L_Finger41"
$bonemerge "ValveBiped.Bip01_L_Finger42"
$bonemerge "ValveBiped.Bip01_L_Finger3"
$bonemerge "ValveBiped.Bip01_L_Finger31"
$bonemerge "ValveBiped.Bip01_L_Finger32"
$bonemerge "ValveBiped.Bip01_L_Finger2"
$bonemerge "ValveBiped.Bip01_L_Finger21"
$bonemerge "ValveBiped.Bip01_L_Finger22"
$bonemerge "ValveBiped.Bip01_L_Finger1"
$bonemerge "ValveBiped.Bip01_L_Finger11"
$bonemerge "ValveBiped.Bip01_L_Finger12"
$bonemerge "ValveBiped.Bip01_L_Finger0"
$bonemerge "ValveBiped.Bip01_L_Finger01"
$bonemerge "ValveBiped.Bip01_L_Finger02"
$bonemerge "ValveBiped.Bip01_R_Clavicle"
$bonemerge "ValveBiped.Bip01_R_UpperArm"
$bonemerge "ValveBiped.Bip01_R_Forearm"
$bonemerge "ValveBiped.Bip01_R_Elbow"
$bonemerge "ValveBiped.Bip01_R_Wrist"
$bonemerge "ValveBiped.Bip01_R_Ulna"
$bonemerge "ValveBiped.Bip01_R_Hand"
$bonemerge "ValveBiped.Bip01_R_Finger4"
$bonemerge "ValveBiped.Bip01_R_Finger41"
$bonemerge "ValveBiped.Bip01_R_Finger42"
$bonemerge "ValveBiped.Bip01_R_Finger3"
$bonemerge "ValveBiped.Bip01_R_Finger31"
$bonemerge "ValveBiped.Bip01_R_Finger32"
$bonemerge "ValveBiped.Bip01_R_Finger2"
$bonemerge "ValveBiped.Bip01_R_Finger21"
$bonemerge "ValveBiped.Bip01_R_Finger22"
$bonemerge "ValveBiped.Bip01_R_Finger1"
$bonemerge "ValveBiped.Bip01_R_Finger11"
$bonemerge "ValveBiped.Bip01_R_Finger12"
$bonemerge "ValveBiped.Bip01_R_Finger0"
$bonemerge "ValveBiped.Bip01_R_Finger01"
$bonemerge "ValveBiped.Bip01_R_Finger02"


$sequence "idle1" {
	"c_ump45_anims\idle1.smd"
	activity "ACT_VM_IDLE" 1
	fadein 0.2
	fadeout 0.2
	snap
	fps 12
	loop
}

$sequence "reload" {
	"c_ump45_anims\reload.smd"
	activity "ACT_VM_RELOAD" 1
	{ event 5004 23 "UMP45.ClipOut" }
	{ event 5004 59 "UMP45.ClipIn" }
	{ event 5004 86 "UMP45.BoltPull" }
	fadein 0.2
	fadeout 0.2
	snap
	fps 33
}

$sequence "draw" {
	"c_ump45_anims\draw.smd"
	activity "ACT_VM_DRAW" 1
	fadein 0.2
	fadeout 0.2
	snap
	fps 30
}

$sequence "shoot1" {
	"c_ump45_anims\shoot1.smd"
	activity "ACT_VM_PRIMARYATTACK" 1
	{ event 5001 0 "1" }
	fadein 0.2
	fadeout 0.2
	snap
	fps 32
}

$sequence "shoot2" {
	"c_ump45_anims\shoot2.smd"
	activity "ACT_VM_PRIMARYATTACK" 1
	{ event 5001 0 "1" }
	fadein 0.2
	fadeout 0.2
	snap
	fps 32
}

$sequence "shoot3" {
	"c_ump45_anims\shoot3.smd"
	activity "ACT_VM_PRIMARYATTACK" 1
	fadein 0.2
	fadeout 0.2
	snap
	fps 32
}
