// Created by Crowbar 0.34.0.0

$ModelName "weapons/tfa_cso/w_pkmg.mdl"

$BodyGroup "studio"
{
	studio "v_pkmg_ref_pkm"
}

$collisionmodel "v_pkmg_ref_pkm"
{
	$mass 9
}

$CDMaterials "models\weapons\tfa_cso\pkmg"

$attachment "0" "root" -1.10 -19.80 0.80 rotate -0 0 0

$Sequence "idle" {
	"anims\idle.smd"
	fps 30
}