// Created by Crowbar 0.34.0.0

$ModelName "weapons/tfa_cso/w_machete.mdl"

$BodyGroup "studio"
{
	studio "v_zsh_machete"
}

$collisionmodel "v_zsh_machete.smd"
{
	$mass 9
}

$CDMaterials "models\weapons\tfa_cso\machete\"

$Sequence "idle" {
	"anims\idle.smd"
	fps 30
}