version 1
nodes
  0 "root" -1
  1 "Bone01" 0
  2 "Bone_Lefthand" 1
  3 "Dummy03" 2
  4 "Bone02" 3
  5 "Bone16" 4
  6 "Bone24" 4
  7 "Dummy02" 4
  8 "Bone08" 7
  9 "Bone_L_Upper" 1
  10 "Bone13" 2
  11 "Bone14" 10
  12 "Bone15" 11
  13 "Bone17" 2
  14 "Bone18" 13
  15 "Bone19" 14
  16 "Bone21" 2
  17 "Bone22" 16
  18 "Bone23" 17
  19 "Bone09" 2
  20 "Bone10" 19
  21 "Bone11" 20
  22 "Bone05" 2
  23 "Bone06" 22
  24 "Bone07" 23
  25 "Bone_Se_Hand-L" 2
  26 "Bone04" 0
  27 "Bone_Righthand" 26
  28 "Bone39" 27
  29 "Bone40" 28
  30 "Bone41" 29
  31 "Bone35" 27
  32 "Bone36" 31
  33 "Bone37" 32
  34 "Bone31" 27
  35 "Bone32" 34
  36 "Bone33" 35
  37 "Bone43" 27
  38 "Bone44" 37
  39 "Bone45" 38
  40 "Bone27" 27
  41 "Bone28" 40
  42 "Bone29" 41
  43 "Bone_Se_Hand-R" 27
  44 "Bone_R_Upper" 26
end
skeleton
  time 0
    0 -0.999830 1.628956 -2.947361 0.000000 0.000000 0.000000
    1 10.985936 3.754207 -4.282818 6.028581 -1.612705 -0.045791
    2 -0.071918 -8.498730 -0.104137 -0.259884 -0.184611 -0.858748
    3 3.877622 -5.248455 1.421663 0.246215 -3.194606 1.568953
    4 0.000000 0.000000 0.000000 0.000000 0.000000 0.000000
    5 -0.248228 2.512564 0.000000 0.000001 0.000000 1.570796
    6 4.320393 -1.031701 0.000001 -1.570795 -1.570796 0.000000
    7 4.110973 2.892190 0.000001 0.000000 0.000000 1.570796
    8 0.000000 -0.000002 0.000000 0.000001 0.000000 0.000000
    9 1.257180 8.762585 -0.153713 -1.570562 0.002683 -1.566807
    10 -0.488518 -2.755602 -0.228260 -0.871614 -0.202562 -0.209541
    11 0.039887 -1.479790 0.029854 -2.058953 0.000000 0.000001
    12 0.028786 -1.075731 -0.023109 -0.606330 0.000000 0.000000
    13 0.250027 -2.820665 -0.238396 -0.797118 -0.167517 -0.114938
    14 -0.049759 -1.680544 0.100479 -1.934765 0.000000 -0.000002
    15 -0.034142 -1.148312 0.084782 -0.925879 0.000000 0.000000
    16 0.957766 -2.746780 -0.090302 0.005849 -0.162684 0.097910
    17 -0.033420 -1.397129 -0.011257 -0.521003 0.000000 -0.000001
    18 -0.022360 -0.957436 0.018784 -0.975516 0.000000 0.000000
    19 -1.180681 -2.507217 -0.193859 -0.671429 -0.081516 -0.261329
    20 -0.024967 -1.123934 0.017597 -2.056303 0.000000 0.000001
    21 -0.020057 -0.890968 0.010090 -0.677843 0.000000 0.000000
    22 0.583510 -1.197277 0.185379 0.180209 -0.812077 -1.291294
    23 1.535927 0.010246 0.005009 -0.002964 -0.012979 -0.506634
    24 1.100771 0.004527 -0.010679 -0.015488 -0.004784 -1.694062
    25 0.120153 -0.050270 -0.054489 0.287569 3.110905 1.561085
    26 -1.212204 -2.383517 -14.150153 0.198218 -5.611524 0.226717
    27 0.096944 -8.450418 -0.009365 0.495784 -1.145436 -0.075755
    28 0.447953 -2.798986 -0.200443 -0.246068 -0.067958 0.142839
    29 -0.032909 -1.480204 0.004940 -0.232685 0.000000 0.000002
    30 -0.027022 -1.076920 -0.020210 -0.251526 0.000000 0.000000
    31 -0.249534 -2.846964 -0.174213 -0.067584 0.012411 0.088176
    32 0.043235 -1.683941 0.096012 -0.332850 0.002823 -0.000167
    33 0.031729 -1.160830 0.058838 -0.317050 0.000642 0.008372
    34 -0.963866 -2.785145 -0.085350 0.029537 0.160514 0.097512
    35 0.028479 -1.403067 0.006271 -0.165719 0.000000 0.000000
    36 0.021413 -0.957781 0.020046 -0.229193 0.000000 0.000000
    37 1.164475 -2.543940 -0.170330 -0.240833 -0.190582 0.231608
    38 0.024032 -1.129042 0.017807 -0.230189 0.000000 0.000001
    39 0.014898 -0.883989 -0.019848 -0.211861 0.000000 0.000000
    40 -0.586770 -1.264477 0.200161 0.144611 -0.402663 -2.961071
    41 1.522835 0.058681 0.016848 0.001410 0.008985 0.019620
    42 1.117947 0.048424 -0.005766 0.001267 -0.025174 0.005124
    43 -0.139399 -0.111698 0.014397 0.653621 -0.030687 1.580508
    44 -1.393470 8.839177 -0.239433 1.580804 -0.005023 -1.566847
  time 1
    0 -0.999830 1.628956 -2.931735 0.000000 0.000000 0.000000
    1 10.427325 3.754207 -4.321881 6.030589 -1.609311 -0.000160
    2 -0.071918 -8.498730 -0.104137 -0.251591 -0.159796 -0.770123
    3 3.877622 -5.248455 1.421663 0.246215 -3.194606 1.568953
    4 0.000000 0.000000 0.000000 0.000000 0.000000 0.000000
    5 -0.248228 2.512564 0.000000 0.000001 0.000000 1.570796
    6 4.320393 -1.031701 0.000001 -1.570795 -1.570796 0.000000
    7 4.110973 2.892190 0.000001 0.000000 0.000000 1.570796
    8 0.000000 -0.000002 0.000000 0.000001 0.000000 0.000000
    9 1.257180 8.762585 -0.153713 -1.570562 0.002683 -1.566807
    10 -0.488518 -2.755602 -0.228260 -0.871614 -0.202562 -0.209541
    11 0.039887 -1.479790 0.029854 -2.058953 0.000000 0.000001
    12 0.028786 -1.075731 -0.023109 -0.606330 0.000000 0.000000
    13 0.250027 -2.820665 -0.238396 -0.797118 -0.167517 -0.114938
    14 -0.049759 -1.680544 0.100479 -1.934765 0.000000 -0.000002
    15 -0.034142 -1.148312 0.084782 -0.925906 0.000000 0.000000
    16 0.957766 -2.746780 -0.090302 0.005849 -0.162684 0.097910
    17 -0.033420 -1.397129 -0.011257 -0.521019 0.000000 -0.000001
    18 -0.022360 -0.957436 0.018784 -0.975516 0.000000 0.000000
    19 -1.180681 -2.507217 -0.193859 -0.671429 -0.081516 -0.261329
    20 -0.024967 -1.123934 0.017597 -2.056303 0.000000 0.000001
    21 -0.020057 -0.890968 0.010090 -0.677843 0.000000 0.000000
    22 0.583510 -1.197277 0.185379 0.180209 -0.812065 -1.291294
    23 1.535927 0.010246 0.005009 -0.002964 -0.012979 -0.506634
    24 1.100771 0.004527 -0.010679 -0.015488 -0.004784 -1.694062
    25 0.120153 -0.050270 -0.054489 0.287569 3.110905 1.561085
    26 -1.579403 -3.938252 -13.634512 0.107340 -5.556184 0.230696
    27 0.096944 -8.450418 -0.009365 0.430294 -1.145436 -0.075755
    28 0.447953 -2.798986 -0.200443 -0.226951 -0.067958 0.142839
    29 -0.032909 -1.480204 0.004940 -0.139414 0.000000 0.000002
    30 -0.027022 -1.076920 -0.020210 -0.218480 0.000000 0.000000
    31 -0.249534 -2.846964 -0.174213 -0.061473 0.012411 0.088176
    32 0.043235 -1.683941 0.096012 -0.235231 0.002823 -0.000167
    33 0.031729 -1.160830 0.058838 -0.274250 0.000642 0.008372
    34 -0.963866 -2.785145 -0.085350 0.029537 0.160514 0.097512
    35 0.028479 -1.403067 0.006271 -0.123795 0.000000 0.000000
    36 0.021413 -0.957781 0.020046 -0.229193 0.000000 0.000000
    37 1.164475 -2.543940 -0.170330 -0.203846 -0.190582 0.231608
    38 0.024032 -1.129042 0.017807 -0.182179 0.000000 0.000001
    39 0.014898 -0.883989 -0.019848 -0.148496 0.000000 0.000000
    40 -0.586770 -1.264477 0.200161 0.115800 -0.407769 -2.890097
    41 1.522835 0.058681 0.016848 0.001410 0.008985 0.076010
    42 1.117947 0.048424 -0.005766 0.001267 -0.025174 0.005124
    43 -0.139399 -0.111698 0.014397 0.653621 -0.030687 1.580508
    44 -1.393470 8.839177 -0.239433 1.580804 -0.005023 -1.566847
  time 2
    0 -0.999830 1.628956 -2.884859 0.000000 0.000000 0.000000
    1 9.915591 3.754207 -4.403915 6.033171 -1.606349 0.041176
    2 -0.071918 -8.498730 -0.104137 -0.242518 -0.135313 -0.685896
    3 3.877622 -5.248455 1.421663 0.246215 -3.194606 1.568953
    4 0.000000 0.000000 0.000000 0.000000 0.000000 0.000000
    5 -0.248228 2.512564 0.000000 0.000001 0.000000 1.570796
    6 4.320393 -1.031701 0.000001 -1.570795 -1.570796 0.000000
    7 4.110973 2.892190 0.000001 0.000000 0.000000 1.570796
    8 0.000000 -0.000002 0.000000 0.000001 0.000000 0.000000
    9 1.257180 8.762585 -0.153713 -1.570562 0.002683 -1.566807
    10 -0.488518 -2.755602 -0.228260 -0.871614 -0.202562 -0.209541
    11 0.039887 -1.479790 0.029854 -2.058953 0.000000 0.000001
    12 0.028786 -1.075731 -0.023109 -0.606330 0.000000 0.000000
    13 0.250027 -2.820665 -0.238396 -0.797118 -0.167517 -0.114938
    14 -0.049759 -1.680544 0.100479 -1.934765 0.000000 -0.000002
    15 -0.034142 -1.148312 0.084782 -0.925906 0.000000 0.000000
    16 0.957766 -2.746780 -0.090302 0.005849 -0.162684 0.097910
    17 -0.033420 -1.397129 -0.011257 -0.521019 0.000000 -0.000001
    18 -0.022360 -0.957436 0.018784 -0.975516 0.000000 0.000000
    19 -1.180681 -2.507217 -0.193859 -0.671429 -0.081516 -0.261329
    20 -0.024967 -1.123934 0.017597 -2.056303 0.000000 0.000001
    21 -0.020057 -0.890968 0.010090 -0.677843 0.000000 0.000000
    22 0.583510 -1.197277 0.185379 0.180209 -0.812077 -1.291294
    23 1.535927 0.010246 0.005009 -0.002964 -0.012979 -0.506650
    24 1.100771 0.004527 -0.010679 -0.015488 -0.004784 -1.694062
    25 0.120153 -0.050270 -0.054489 0.287569 3.110905 1.561085
    26 -1.786440 -5.321106 -13.114965 0.014277 -5.505726 0.225865
    27 0.096944 -8.450418 -0.009365 0.370794 -1.145436 -0.075755
    28 0.447953 -2.798986 -0.200443 -0.214197 -0.067958 0.142839
    29 -0.032909 -1.480204 0.004940 -0.077218 0.000000 0.000002
    30 -0.027022 -1.076920 -0.020210 -0.196467 0.000000 0.000000
    31 -0.249534 -2.846964 -0.174213 -0.057399 0.012411 0.088176
    32 0.043235 -1.683941 0.096012 -0.170131 0.002823 -0.000167
    33 0.031729 -1.160830 0.058838 -0.245731 0.000642 0.008372
    34 -0.963866 -2.785145 -0.085350 0.029537 0.160514 0.097512
    35 0.028479 -1.403067 0.006271 -0.095829 0.000000 0.000000
    36 0.021413 -0.957781 0.020046 -0.229193 0.000000 0.000000
    37 1.164475 -2.543940 -0.170330 -0.179188 -0.190582 0.231608
    38 0.024032 -1.129042 0.017807 -0.150207 0.000000 0.000001
    39 0.014898 -0.883989 -0.019848 -0.106253 0.000000 0.000000
    40 -0.586770 -1.264477 0.200161 0.090488 -0.412287 -2.827721
    41 1.522835 0.058681 0.016848 0.001410 0.008985 0.130736
    42 1.117947 0.048424 -0.005766 0.001267 -0.025174 0.005124
    43 -0.139399 -0.111698 0.014397 0.653621 -0.030687 1.580508
    44 -1.393470 8.839177 -0.239433 1.580804 -0.005023 -1.566847
  time 3
    0 -0.999830 1.628956 -2.806731 0.000000 0.000000 0.000000
    1 9.446826 3.754207 -4.532825 6.036232 -1.603943 0.078216
    2 -0.071918 -8.498730 -0.104137 -0.232679 -0.111175 -0.606016
    3 3.877622 -5.248455 1.421663 0.246215 -3.194606 1.568953
    4 0.000000 0.000000 0.000000 0.000000 0.000000 0.000000
    5 -0.248228 2.512564 0.000000 0.000001 0.000000 1.570796
    6 4.320393 -1.031701 0.000001 -1.570795 -1.570796 0.000000
    7 4.110973 2.892190 0.000001 0.000000 0.000000 1.570796
    8 0.000000 -0.000002 0.000000 0.000001 0.000000 0.000000
    9 1.257180 8.762585 -0.153713 -1.570562 0.002683 -1.566807
    10 -0.488518 -2.755602 -0.228260 -0.871614 -0.202562 -0.209541
    11 0.039887 -1.479790 0.029854 -2.058953 0.000000 0.000001
    12 0.028786 -1.075731 -0.023109 -0.606330 0.000000 0.000000
    13 0.250027 -2.820665 -0.238396 -0.797118 -0.167517 -0.114938
    14 -0.049759 -1.680544 0.100479 -1.934765 0.000000 -0.000002
    15 -0.034142 -1.148312 0.084782 -0.925906 0.000000 0.000000
    16 0.957766 -2.746780 -0.090302 0.005849 -0.162684 0.097910
    17 -0.033420 -1.397129 -0.011257 -0.521019 0.000000 -0.000001
    18 -0.022360 -0.957436 0.018784 -0.975516 0.000000 0.000000
    19 -1.180681 -2.507217 -0.193859 -0.671429 -0.081516 -0.261329
    20 -0.024967 -1.123934 0.017597 -2.056303 0.000000 0.000001
    21 -0.020057 -0.890968 0.010090 -0.677843 0.000000 0.000000
    22 0.583510 -1.197277 0.185379 0.180209 -0.812077 -1.291294
    23 1.535927 0.010246 0.005009 -0.002964 -0.012979 -0.506650
    24 1.100771 0.004527 -0.010679 -0.015488 -0.004784 -1.694062
    25 0.120153 -0.050270 -0.054489 0.287569 3.110905 1.561085
    26 -1.868474 -6.543800 -12.614949 -0.080974 -5.460226 0.212508
    27 0.096944 -8.450418 -0.009365 0.317239 -1.145436 -0.075755
    28 0.447953 -2.798986 -0.200443 -0.207805 -0.067958 0.142839
    29 -0.032909 -1.480204 0.004940 -0.046144 0.000000 0.000002
    30 -0.027022 -1.076920 -0.020210 -0.185452 0.000000 0.000000
    31 -0.249534 -2.846964 -0.174213 -0.055362 0.012411 0.088176
    32 0.043235 -1.683941 0.096012 -0.137552 0.002823 -0.000167
    33 0.031729 -1.160830 0.058838 -0.231471 0.000642 0.008372
    34 -0.963866 -2.785145 -0.085350 0.029537 0.160514 0.097512
    35 0.028479 -1.403067 0.006271 -0.081871 0.000000 0.000000
    36 0.021413 -0.957781 0.020046 -0.229193 0.000000 0.000000
    37 1.164475 -2.543940 -0.170330 -0.166859 -0.190582 0.231608
    38 0.024032 -1.129042 0.017807 -0.134221 0.000000 0.000001
    39 0.014898 -0.883989 -0.019848 -0.085131 0.000000 0.000000
    40 -0.586770 -1.264477 0.200161 0.068664 -0.416242 -2.773931
    41 1.522835 0.058681 0.016848 0.001410 0.008985 0.183798
    42 1.117947 0.048424 -0.005766 0.001267 -0.025174 0.005124
    43 -0.139399 -0.111698 0.014397 0.653621 -0.030687 1.580508
    44 -1.393470 8.839177 -0.239433 1.580804 -0.005023 -1.566847
  time 4
    0 -0.999830 1.628956 -2.705166 0.000000 0.000000 0.000000
    1 9.024938 3.754207 -4.708612 6.039771 -1.601968 0.110959
    2 -0.071918 -8.498730 -0.104137 -0.222061 -0.087369 -0.530534
    3 3.877622 -5.248455 1.421663 0.246215 -3.194606 1.568953
    4 0.000000 0.000000 0.000000 0.000000 0.000000 0.000000
    5 -0.248228 2.512564 0.000000 0.000001 0.000000 1.570796
    6 4.320393 -1.031701 0.000001 -1.570795 -1.570796 0.000000
    7 4.110973 2.892190 0.000001 0.000000 0.000000 1.570796
    8 0.000000 -0.000002 0.000000 0.000001 0.000000 0.000000
    9 1.257180 8.762585 -0.153713 -1.570562 0.002683 -1.566807
    10 -0.488518 -2.755602 -0.228260 -0.871614 -0.202562 -0.209541
    11 0.039887 -1.479790 0.029854 -2.058953 0.000000 0.000001
    12 0.028786 -1.075731 -0.023109 -0.606330 0.000000 0.000000
    13 0.250027 -2.820665 -0.238396 -0.797118 -0.167517 -0.114938
    14 -0.049759 -1.680544 0.100479 -1.934765 0.000000 -0.000002
    15 -0.034142 -1.148312 0.084782 -0.925879 0.000000 0.000000
    16 0.957766 -2.746780 -0.090302 0.005849 -0.162684 0.097910
    17 -0.033420 -1.397129 -0.011257 -0.521003 0.000000 -0.000001
    18 -0.022360 -0.957436 0.018784 -0.975486 0.000000 0.000000
    19 -1.180681 -2.507217 -0.193859 -0.671429 -0.081516 -0.261329
    20 -0.024967 -1.123934 0.017597 -2.056303 0.000000 0.000001
    21 -0.020057 -0.890968 0.010090 -0.677843 0.000000 0.000000
    22 0.583510 -1.197277 0.185379 0.180209 -0.812077 -1.291294
    23 1.535927 0.010246 0.005009 -0.002964 -0.012979 -0.506650
    24 1.100771 0.004527 -0.010679 -0.015488 -0.004784 -1.694062
    25 0.120153 -0.050270 -0.054489 0.287569 3.110905 1.561085
    26 -1.856755 -7.606332 -12.153998 -0.178137 -5.419765 0.191384
    27 0.096944 -8.450418 -0.009365 0.269587 -1.145436 -0.075755
    28 0.447953 -2.798986 -0.200443 -0.207805 -0.067958 0.142839
    29 -0.032909 -1.480204 0.004940 -0.046144 0.000000 0.000002
    30 -0.027022 -1.076920 -0.020210 -0.185452 0.000000 0.000000
    31 -0.249534 -2.846964 -0.174213 -0.055362 0.012411 0.088176
    32 0.043235 -1.683941 0.096012 -0.137552 0.002823 -0.000167
    33 0.031729 -1.160830 0.058838 -0.231471 0.000642 0.008372
    34 -0.963866 -2.785145 -0.085350 0.029537 0.160514 0.097512
    35 0.028479 -1.403067 0.006271 -0.081871 0.000000 0.000000
    36 0.021413 -0.957781 0.020046 -0.229193 0.000000 0.000000
    37 1.164475 -2.543940 -0.170330 -0.166859 -0.190582 0.231608
    38 0.024032 -1.129042 0.017807 -0.134221 0.000000 0.000001
    39 0.014898 -0.883989 -0.019848 -0.085131 0.000000 0.000000
    40 -0.586770 -1.264477 0.200161 0.050340 -0.419597 -2.728740
    41 1.522835 0.058681 0.016848 0.001410 0.008985 0.235171
    42 1.117947 0.048424 -0.005766 0.001267 -0.025174 0.005124
    43 -0.139399 -0.111698 0.014397 0.653621 -0.030687 1.580508
    44 -1.393470 8.839177 -0.239433 1.580804 -0.005023 -1.566847
  time 5
    0 -0.999830 1.628956 -2.580162 0.000000 0.000000 0.000000
    1 8.634302 3.754207 -4.919556 6.043883 -1.600487 0.139407
    2 -0.071918 -8.498730 -0.104137 -0.210675 -0.063895 -0.459426
    3 3.877622 -5.248455 1.421663 0.246215 -3.194606 1.568953
    4 0.000000 0.000000 0.000000 0.000000 0.000000 0.000000
    5 -0.248228 2.512564 0.000000 0.000001 0.000000 1.570796
    6 4.320393 -1.031701 0.000001 -1.570795 -1.570796 0.000000
    7 4.110973 2.892190 0.000001 0.000000 0.000000 1.570796
    8 0.000000 -0.000002 0.000000 0.000001 0.000000 0.000000
    9 1.257180 8.762585 -0.153713 -1.570562 0.002683 -1.566807
    10 -0.488518 -2.755602 -0.228260 -0.871614 -0.202562 -0.209541
    11 0.039887 -1.479790 0.029854 -2.058953 0.000000 0.000001
    12 0.028786 -1.075731 -0.023109 -0.606330 0.000000 0.000000
    13 0.250027 -2.820665 -0.238396 -0.797118 -0.167517 -0.114938
    14 -0.049759 -1.680544 0.100479 -1.934765 0.000000 -0.000002
    15 -0.034142 -1.148312 0.084782 -0.925879 0.000000 0.000000
    16 0.957766 -2.746780 -0.090302 0.005849 -0.162684 0.097910
    17 -0.033420 -1.397129 -0.011257 -0.521003 0.000000 -0.000001
    18 -0.022360 -0.957436 0.018784 -0.975486 0.000000 0.000000
    19 -1.180681 -2.507217 -0.193859 -0.671429 -0.081516 -0.261329
    20 -0.024967 -1.123934 0.017597 -2.056303 0.000000 0.000001
    21 -0.020057 -0.890968 0.010090 -0.677843 0.000000 0.000000
    22 0.583510 -1.197277 0.185379 0.180209 -0.812077 -1.291294
    23 1.535927 0.010246 0.005009 -0.002964 -0.012979 -0.506650
    24 1.100771 0.004527 -0.010679 -0.015488 -0.004784 -1.694062
    25 0.120153 -0.050270 -0.054489 0.287569 3.110905 1.561085
    26 -1.778627 -8.520423 -11.728204 -0.276530 -5.384262 0.163155
    27 0.096944 -8.450418 -0.009365 0.227923 -1.145436 -0.075755
    28 0.447953 -2.798986 -0.200443 -0.214197 -0.067958 0.142839
    29 -0.032909 -1.480204 0.004940 -0.077218 0.000000 0.000002
    30 -0.027022 -1.076920 -0.020210 -0.196467 0.000000 0.000000
    31 -0.249534 -2.846964 -0.174213 -0.057399 0.012411 0.088176
    32 0.043235 -1.683941 0.096012 -0.170131 0.002823 -0.000167
    33 0.031729 -1.160830 0.058838 -0.245731 0.000642 0.008372
    34 -0.963866 -2.785145 -0.085350 0.029537 0.160514 0.097512
    35 0.028479 -1.403067 0.006271 -0.095829 0.000000 0.000000
    36 0.021413 -0.957781 0.020046 -0.229193 0.000000 0.000000
    37 1.164475 -2.543940 -0.170330 -0.179188 -0.190582 0.231608
    38 0.024032 -1.129042 0.017807 -0.150207 0.000000 0.000001
    39 0.014898 -0.883989 -0.019848 -0.106253 0.000000 0.000000
    40 -0.586770 -1.264477 0.200161 0.035503 -0.422378 -2.692135
    41 1.522835 0.058681 0.016848 0.001410 0.008985 0.284880
    42 1.117947 0.048424 -0.005766 0.001267 -0.025174 0.005124
    43 -0.139399 -0.111698 0.014397 0.653621 -0.030687 1.580508
    44 -1.393470 8.839177 -0.239433 1.580804 -0.005023 -1.566847
  time 6
    0 -0.999830 1.628956 -2.435626 0.000000 0.000000 0.000000
    1 8.286635 3.754207 -5.173470 6.048474 -1.599562 0.163655
    2 -0.071918 -8.498730 -0.104137 -0.198511 -0.040766 -0.392717
    3 3.877622 -5.248455 1.421663 0.246215 -3.194694 1.568953
    4 0.000000 0.000000 0.000000 0.000000 0.000000 0.000000
    5 -0.248228 2.512564 0.000000 0.000001 0.000000 1.570796
    6 4.320393 -1.031701 0.000001 -1.570795 -1.570796 0.000000
    7 4.110973 2.892190 0.000001 0.000000 0.000000 1.570796
    8 0.000000 -0.000002 0.000000 0.000001 0.000000 0.000000
    9 1.257180 8.762585 -0.153713 -1.570562 0.002683 -1.566807
    10 -0.488518 -2.755602 -0.228260 -0.871614 -0.202562 -0.209541
    11 0.039887 -1.479790 0.029854 -2.058953 0.000000 0.000001
    12 0.028786 -1.075731 -0.023109 -0.606330 0.000000 0.000000
    13 0.250027 -2.820665 -0.238396 -0.797118 -0.167517 -0.114938
    14 -0.049759 -1.680544 0.100479 -1.934765 0.000000 -0.000002
    15 -0.034142 -1.148312 0.084782 -0.925906 0.000000 0.000000
    16 0.957766 -2.746780 -0.090302 0.005849 -0.162684 0.097910
    17 -0.033420 -1.397129 -0.011257 -0.521003 0.000000 -0.000001
    18 -0.022360 -0.957436 0.018784 -0.975516 0.000000 0.000000
    19 -1.180681 -2.507217 -0.193859 -0.671429 -0.081516 -0.261329
    20 -0.024967 -1.123934 0.017597 -2.056303 0.000000 0.000001
    21 -0.020057 -0.890968 0.010090 -0.677843 0.000000 0.000000
    22 0.583510 -1.197277 0.185379 0.180209 -0.812065 -1.291294
    23 1.535927 0.010246 0.005009 -0.002964 -0.012979 -0.506650
    24 1.100771 0.004527 -0.010679 -0.015488 -0.004784 -1.694062
    25 0.120153 -0.050270 -0.054489 0.287569 3.110905 1.561085
    26 -1.661436 -9.297790 -11.357099 -0.375402 -5.353562 0.128864
    27 0.096944 -8.450418 -0.009365 0.192248 -1.145436 -0.075755
    28 0.447953 -2.798986 -0.200443 -0.226951 -0.067958 0.142839
    29 -0.032909 -1.480204 0.004940 -0.139414 0.000000 0.000002
    30 -0.027022 -1.076920 -0.020210 -0.218480 0.000000 0.000000
    31 -0.249534 -2.846964 -0.174213 -0.061473 0.012411 0.088176
    32 0.043235 -1.683941 0.096012 -0.235231 0.002823 -0.000167
    33 0.031729 -1.160830 0.058838 -0.274250 0.000642 0.008372
    34 -0.963866 -2.785145 -0.085350 0.029537 0.160514 0.097512
    35 0.028479 -1.403067 0.006271 -0.123795 0.000000 0.000000
    36 0.021413 -0.957781 0.020046 -0.229193 0.000000 0.000000
    37 1.164475 -2.543940 -0.170330 -0.203846 -0.190582 0.231608
    38 0.024032 -1.129042 0.017807 -0.182179 0.000000 0.000001
    39 0.014898 -0.883989 -0.019848 -0.148496 0.000000 0.000000
    40 -0.586770 -1.264477 0.200161 0.024153 -0.424583 -2.664116
    41 1.522835 0.058681 0.016848 0.001410 0.008985 0.332925
    42 1.117947 0.048424 -0.005766 0.001267 -0.025174 0.005124
    43 -0.139399 -0.111698 0.014397 0.653621 -0.030687 1.580508
    44 -1.393470 8.839177 -0.239433 1.580804 -0.005023 -1.566847
  time 7
    0 -0.999830 1.628956 -2.271559 0.000000 0.000000 0.000000
    1 7.970219 3.754207 -5.462541 6.053543 -1.599068 0.183702
    2 -0.071918 -8.498730 -0.104137 -0.185568 -0.017968 -0.330353
    3 3.877622 -5.248455 1.421663 0.246215 -3.194606 1.568953
    4 0.000000 0.000000 0.000000 0.000000 0.000000 0.000000
    5 -0.248228 2.512564 0.000000 0.000001 0.000000 1.570796
    6 4.320393 -1.031701 0.000001 -1.570795 -1.570796 0.000000
    7 4.110973 2.892190 0.000001 0.000000 0.000000 1.570796
    8 0.000000 -0.000002 0.000000 0.000001 0.000000 0.000000
    9 1.257180 8.762585 -0.153713 -1.570562 0.002683 -1.566807
    10 -0.488518 -2.755602 -0.228260 -0.871614 -0.202562 -0.209541
    11 0.039887 -1.479790 0.029854 -2.058953 0.000000 0.000001
    12 0.028786 -1.075731 -0.023109 -0.606330 0.000000 0.000000
    13 0.250027 -2.820665 -0.238396 -0.797118 -0.167517 -0.114938
    14 -0.049759 -1.680544 0.100479 -1.934765 0.000000 -0.000002
    15 -0.034142 -1.148312 0.084782 -0.925879 0.000000 0.000000
    16 0.957766 -2.746780 -0.090302 0.005849 -0.162684 0.097910
    17 -0.033420 -1.397129 -0.011257 -0.521003 0.000000 -0.000001
    18 -0.022360 -0.957436 0.018784 -0.975516 0.000000 0.000000
    19 -1.180681 -2.507217 -0.193859 -0.671429 -0.081516 -0.261329
    20 -0.024967 -1.123934 0.017597 -2.056303 0.000000 0.000001
    21 -0.020057 -0.890968 0.010090 -0.677843 0.000000 0.000000
    22 0.583510 -1.197277 0.185379 0.180209 -0.812077 -1.291294
    23 1.535927 0.010246 0.005009 -0.002964 -0.012979 -0.506650
    24 1.100771 0.004527 -0.010679 -0.015488 -0.004784 -1.694062
    25 0.120153 -0.050270 -0.054489 0.287569 3.110905 1.561085
    26 -1.524713 -9.954060 -11.048495 -0.473727 -5.327349 0.089742
    27 0.096944 -8.450418 -0.009365 0.162477 -1.145436 -0.075755
    28 0.447953 -2.798986 -0.200443 -0.246068 -0.067958 0.142839
    29 -0.032909 -1.480204 0.004940 -0.232685 0.000000 0.000002
    30 -0.027022 -1.076920 -0.020210 -0.251526 0.000000 0.000000
    31 -0.249534 -2.846964 -0.174213 -0.067584 0.012411 0.088176
    32 0.043235 -1.683941 0.096012 -0.332850 0.002823 -0.000167
    33 0.031729 -1.160830 0.058838 -0.317050 0.000642 0.008372
    34 -0.963866 -2.785145 -0.085350 0.029537 0.160514 0.097512
    35 0.028479 -1.403067 0.006271 -0.165719 0.000000 0.000000
    36 0.021413 -0.957781 0.020046 -0.229193 0.000000 0.000000
    37 1.164475 -2.543940 -0.170330 -0.240833 -0.190582 0.231608
    38 0.024032 -1.129042 0.017807 -0.230189 0.000000 0.000001
    39 0.014898 -0.883989 -0.019848 -0.211861 0.000000 0.000000
    40 -0.586770 -1.264477 0.200161 0.016303 -0.426201 -2.644683
    41 1.522835 0.058681 0.016848 0.001410 0.008985 0.379307
    42 1.117947 0.048424 -0.005766 0.001267 -0.025174 0.005124
    43 -0.139399 -0.111698 0.014397 0.653621 -0.030687 1.580508
    44 -1.393470 8.839177 -0.239433 1.580804 -0.005023 -1.566847
  time 8
    0 -0.999830 1.628956 -2.095772 0.000000 0.000000 0.000000
    1 7.692867 3.754207 -5.790676 6.059091 -1.599068 0.199358
    2 -0.071918 -8.498730 -0.104137 -0.171857 0.004512 -0.272389
    3 3.877622 -5.248455 1.421663 0.246215 -3.194606 1.568953
    4 0.000000 0.000000 0.000000 0.000000 0.000000 0.000000
    5 -0.248228 2.512564 0.000000 0.000001 0.000000 1.570796
    6 4.320393 -1.031701 0.000001 -1.570795 -1.570796 0.000000
    7 4.110973 2.892190 0.000001 0.000000 0.000000 1.570796
    8 0.000000 -0.000002 0.000000 0.000001 0.000000 0.000000
    9 1.257180 8.762585 -0.153713 -1.570562 0.002683 -1.566807
    10 -0.488518 -2.755602 -0.228260 -0.871614 -0.202562 -0.209541
    11 0.039887 -1.479790 0.029854 -2.058953 0.000000 0.000001
    12 0.028786 -1.075731 -0.023109 -0.606330 0.000000 0.000000
    13 0.250027 -2.820665 -0.238396 -0.797118 -0.167517 -0.114938
    14 -0.049759 -1.680544 0.100479 -1.934765 0.000000 -0.000002
    15 -0.034142 -1.148312 0.084782 -0.925879 0.000000 0.000000
    16 0.957766 -2.746780 -0.090302 0.005849 -0.162684 0.097910
    17 -0.033420 -1.397129 -0.011257 -0.521003 0.000000 -0.000001
    18 -0.022360 -0.957436 0.018784 -0.975516 0.000000 0.000000
    19 -1.180681 -2.507217 -0.193859 -0.671429 -0.081516 -0.261329
    20 -0.024967 -1.123934 0.017597 -2.056303 0.000000 0.000001
    21 -0.020057 -0.890968 0.010090 -0.677843 0.000000 0.000000
    22 0.583510 -1.197277 0.185379 0.180209 -0.812077 -1.291294
    23 1.535927 0.010246 0.005009 -0.002964 -0.012979 -0.506650
    24 1.100771 0.004527 -0.010679 -0.015488 -0.004784 -1.694062
    25 0.120153 -0.050270 -0.054489 0.287569 3.110905 1.561085
    26 -1.384084 -10.504858 -10.798488 -0.570344 -5.305150 0.047020
    27 0.096944 -8.450418 -0.009365 0.141303 -1.145436 -0.075755
    28 0.447953 -2.798986 -0.200443 -0.271607 -0.067958 0.142839
    29 -0.032909 -1.480204 0.004940 -0.357078 0.000000 0.000002
    30 -0.027022 -1.076920 -0.020210 -0.295587 0.000000 0.000000
    31 -0.249534 -2.846964 -0.174213 -0.075747 0.012411 0.088176
    32 0.043235 -1.683941 0.096012 -0.462989 0.002823 -0.000167
    33 0.031729 -1.160830 0.058838 -0.374089 0.000642 0.008372
    34 -0.963866 -2.785145 -0.085350 0.029537 0.160514 0.097512
    35 0.028479 -1.403067 0.006271 -0.221601 0.000000 0.000000
    36 0.021413 -0.957781 0.020046 -0.265833 0.000000 0.000000
    37 1.164475 -2.543940 -0.170330 -0.290120 -0.190582 0.231608
    38 0.024032 -1.129042 0.017807 -0.294132 0.000000 0.000001
    39 0.014898 -0.883989 -0.019848 -0.296347 0.000000 0.000000
    40 -0.586770 -1.264477 0.200161 0.011941 -0.427232 -2.633850
    41 1.522835 0.058681 0.016848 0.001410 0.008985 0.423999
    42 1.117947 0.048424 -0.005766 0.001267 -0.025174 0.005124
    43 -0.139399 -0.111698 0.014397 0.653621 -0.030687 1.580508
    44 -1.393470 8.839177 -0.239433 1.580804 -0.005023 -1.566847
  time 9
    0 -0.999830 1.628956 -1.904360 0.000000 0.000000 0.000000
    1 7.454578 3.754207 -6.204751 6.065212 -1.599562 0.210814
    2 -0.071918 -8.498730 -0.104137 -0.157368 0.026646 -0.218824
    3 3.877622 -5.248455 1.421663 0.246215 -3.194606 1.568953
    4 0.000000 0.000000 0.000000 0.000000 0.000000 0.000000
    5 -0.248228 2.512564 0.000000 0.000001 0.000000 1.570796
    6 4.320393 -1.031701 0.000001 -1.570795 -1.570796 0.000000
    7 4.110973 2.892190 0.000001 0.000000 0.000000 1.570796
    8 0.000000 -0.000002 0.000000 0.000001 0.000000 0.000000
    9 1.257180 8.762585 -0.153713 -1.570562 0.002683 -1.566807
    10 -0.488518 -2.755602 -0.228260 -0.871614 -0.202562 -0.209541
    11 0.039887 -1.479790 0.029854 -2.058953 0.000000 0.000001
    12 0.028786 -1.075731 -0.023109 -0.606330 0.000000 0.000000
    13 0.250027 -2.820665 -0.238396 -0.797118 -0.167517 -0.114938
    14 -0.049759 -1.680544 0.100479 -1.934765 0.000000 -0.000002
    15 -0.034142 -1.148312 0.084782 -0.925879 0.000000 0.000000
    16 0.957766 -2.746780 -0.090302 0.005849 -0.162684 0.097910
    17 -0.033420 -1.397129 -0.011257 -0.521003 0.000000 -0.000001
    18 -0.022360 -0.957436 0.018784 -0.975516 0.000000 0.000000
    19 -1.180681 -2.507217 -0.193859 -0.671429 -0.081516 -0.261329
    20 -0.024967 -1.123934 0.017597 -2.056303 0.000000 0.000001
    21 -0.020057 -0.890968 0.010090 -0.677843 0.000000 0.000000
    22 0.583510 -1.197277 0.185379 0.180209 -0.812077 -1.291294
    23 1.535927 0.010246 0.005009 -0.002964 -0.012979 -0.506650
    24 1.100771 0.004527 -0.010679 -0.015488 -0.004784 -1.694062
    25 0.120153 -0.050270 -0.054489 0.287569 3.110905 1.561085
    26 -1.239548 -10.961903 -10.669578 -0.664091 -5.286572 0.002024
    27 0.096944 -8.450418 -0.009365 0.130053 -1.145436 -0.075755
    28 0.447953 -2.798986 -0.200443 -0.303477 -0.067958 0.142839
    29 -0.032909 -1.480204 0.004940 -0.512544 0.000000 0.000002
    30 -0.027022 -1.076920 -0.020210 -0.350664 0.000000 0.000000
    31 -0.249534 -2.846964 -0.174213 -0.085932 0.012411 0.088176
    32 0.043235 -1.683941 0.096012 -0.625707 0.002823 -0.000167
    33 0.031729 -1.160830 0.058838 -0.445409 0.000642 0.008372
    34 -0.963866 -2.785145 -0.085350 0.029537 0.160514 0.097512
    35 0.028479 -1.403067 0.006271 -0.291490 0.000000 0.000000
    36 0.021413 -0.957781 0.020046 -0.359494 0.000000 0.000000
    37 1.164475 -2.543940 -0.170330 -0.351764 -0.190582 0.231608
    38 0.024032 -1.129042 0.017807 -0.374062 0.000000 0.000001
    39 0.014898 -0.883989 -0.019848 -0.401954 0.000000 0.000000
    40 -0.586770 -1.264477 0.200161 0.011078 -0.427687 -2.631615
    41 1.522835 0.058681 0.016848 0.001410 0.008985 0.467027
    42 1.117947 0.048424 -0.005766 0.001267 -0.025174 0.005124
    43 -0.139399 -0.111698 0.014397 0.653621 -0.030687 1.580508
    44 -1.393470 8.839177 -0.239433 1.580804 -0.005023 -1.566847
  time 10
    0 -0.999830 1.628956 -1.705135 0.000000 0.000000 0.000000
    1 7.267072 3.754207 -6.743830 6.071811 -1.600487 0.217974
    2 -0.071918 -8.498730 -0.104137 -0.142111 0.048435 -0.169606
    3 3.877622 -5.248455 1.421663 0.246215 -3.194606 1.568953
    4 0.000000 0.000000 0.000000 0.000000 0.000000 0.000000
    5 -0.248228 2.512564 0.000000 0.000001 0.000000 1.570796
    6 4.320393 -1.031701 0.000001 -1.570795 -1.570796 0.000000
    7 4.110973 2.892190 0.000001 0.000000 0.000000 1.570796
    8 0.000000 -0.000002 0.000000 0.000001 0.000000 0.000000
    9 1.257180 8.762585 -0.153713 -1.570562 0.002683 -1.566807
    10 -0.488518 -2.755602 -0.228260 -0.871614 -0.202562 -0.209541
    11 0.039887 -1.479790 0.029854 -2.058953 0.000000 0.000001
    12 0.028786 -1.075731 -0.023109 -0.606330 0.000000 0.000000
    13 0.250027 -2.820665 -0.238396 -0.797118 -0.167517 -0.114938
    14 -0.049759 -1.680544 0.100479 -1.934765 0.000000 -0.000002
    15 -0.034142 -1.148312 0.084782 -0.925879 0.000000 0.000000
    16 0.957766 -2.746780 -0.090302 0.005849 -0.162684 0.097910
    17 -0.033420 -1.397129 -0.011257 -0.521003 0.000000 -0.000001
    18 -0.022360 -0.957436 0.018784 -0.975486 0.000000 0.000000
    19 -1.180681 -2.507217 -0.193859 -0.671429 -0.081516 -0.261329
    20 -0.024967 -1.123934 0.017597 -2.056303 0.000000 0.000001
    21 -0.020057 -0.890968 0.010090 -0.677843 0.000000 0.000000
    22 0.583510 -1.197277 0.185379 0.180209 -0.812077 -1.291294
    23 1.535927 0.010246 0.005009 -0.002964 -0.012979 -0.506650
    24 1.100771 0.004527 -0.010679 -0.015488 -0.004784 -1.694062
    25 0.120153 -0.050270 -0.054489 0.287569 3.110905 1.561085
    26 -1.091106 -11.340821 -10.696922 -0.753807 -5.271065 -0.044013
    27 0.096944 -8.450418 -0.009365 0.126759 -1.145436 -0.075755
    28 0.447953 -2.798986 -0.200443 -0.341740 -0.067958 0.142839
    29 -0.032909 -1.480204 0.004940 -0.699085 0.000000 0.000002
    30 -0.027022 -1.076920 -0.020210 -0.416738 0.000000 0.000000
    31 -0.249534 -2.846964 -0.174213 -0.098153 0.012411 0.088176
    32 0.043235 -1.683941 0.096012 -0.820946 0.002823 -0.000167
    33 0.031729 -1.160830 0.058838 -0.530988 0.000642 0.008372
    34 -0.963866 -2.785145 -0.085350 0.029537 0.160514 0.097512
    35 0.028479 -1.403067 0.006271 -0.375338 0.000000 0.000000
    36 0.021413 -0.957781 0.020046 -0.485720 0.000000 0.000000
    37 1.164475 -2.543940 -0.170330 -0.425738 -0.190582 0.231608
    38 0.024032 -1.129042 0.017807 -0.469978 0.000000 0.000001
    39 0.014898 -0.883989 -0.019848 -0.528683 0.000000 0.000000
    40 -0.586770 -1.264477 0.200161 0.013691 -0.427543 -2.637953
    41 1.522835 0.058681 0.016848 0.001410 0.008985 0.508366
    42 1.117947 0.048424 -0.005766 0.001267 -0.025174 0.005124
    43 -0.139399 -0.111698 0.014397 0.653621 -0.030687 1.580508
    44 -1.393470 8.839177 -0.239433 1.580804 -0.005023 -1.566847
  time 11
    0 -0.999830 1.628956 -1.498098 0.000000 0.000000 0.000000
    1 7.130349 3.754207 -7.345411 6.078889 -1.601968 0.220933
    2 -0.071918 -8.498730 -0.104137 -0.126076 0.069907 -0.124786
    3 3.877622 -5.248455 1.421663 0.246215 -3.194606 1.568953
    4 0.000000 0.000000 0.000000 0.000000 0.000000 0.000000
    5 -0.248228 2.512564 0.000000 0.000001 0.000000 1.570796
    6 4.320393 -1.031701 0.000001 -1.570795 -1.570796 0.000000
    7 4.110973 2.892190 0.000001 0.000000 0.000000 1.570796
    8 0.000000 -0.000002 0.000000 0.000001 0.000000 0.000000
    9 1.257180 8.762585 -0.153713 -1.570562 0.002683 -1.566807
    10 -0.488518 -2.755602 -0.228260 -0.871614 -0.202562 -0.209541
    11 0.039887 -1.479790 0.029854 -2.058953 0.000000 0.000001
    12 0.028786 -1.075731 -0.023109 -0.606330 0.000000 0.000000
    13 0.250027 -2.820665 -0.238396 -0.797118 -0.167517 -0.114938
    14 -0.049759 -1.680544 0.100479 -1.934765 0.000000 -0.000002
    15 -0.034142 -1.148312 0.084782 -0.925879 0.000000 0.000000
    16 0.957766 -2.746780 -0.090302 0.005849 -0.162684 0.097910
    17 -0.033420 -1.397129 -0.011257 -0.521019 0.000000 -0.000001
    18 -0.022360 -0.957436 0.018784 -0.975516 0.000000 0.000000
    19 -1.180681 -2.507217 -0.193859 -0.671429 -0.081516 -0.261329
    20 -0.024967 -1.123934 0.017597 -2.056303 0.000000 0.000001
    21 -0.020057 -0.890968 0.010090 -0.677843 0.000000 0.000000
    22 0.583510 -1.197277 0.185379 0.180209 -0.812065 -1.291294
    23 1.535927 0.010246 0.005009 -0.002964 -0.012979 -0.506650
    24 1.100771 0.004527 -0.010679 -0.015488 -0.004784 -1.694062
    25 0.120153 -0.050270 -0.054489 0.287569 3.110905 1.561085
    26 -0.950477 -11.653331 -10.829739 -0.838602 -5.257919 -0.089956
    27 0.096944 -8.450418 -0.009365 0.129411 -1.145436 -0.075755
    28 0.447953 -2.798986 -0.200443 -0.386395 -0.067958 0.142839
    29 -0.032909 -1.480204 0.004940 -0.916749 0.000000 0.000002
    30 -0.027022 -1.076920 -0.020210 -0.493845 0.000000 0.000000
    31 -0.249534 -2.846964 -0.174213 -0.112427 0.012411 0.088176
    32 0.043235 -1.683941 0.096012 -1.048764 0.002823 -0.000167
    33 0.031729 -1.160830 0.058838 -0.630827 0.000642 0.008372
    34 -0.963866 -2.785145 -0.085350 0.029537 0.160514 0.097512
    35 0.028479 -1.403067 0.006271 -0.473192 0.000000 0.000000
    36 0.021413 -0.957781 0.020046 -0.620097 0.000000 0.000000
    37 1.164475 -2.543940 -0.170330 -0.512040 -0.190582 0.231608
    38 0.024032 -1.129042 0.017807 -0.581931 0.000000 0.000001
    39 0.014898 -0.883989 -0.019848 -0.676534 0.000000 0.000000
    40 -0.586770 -1.264477 0.200161 0.019815 -0.426836 -2.652903
    41 1.522835 0.058681 0.016848 0.001410 0.008985 0.548066
    42 1.117947 0.048424 -0.005766 0.001267 -0.025174 0.005124
    43 -0.139399 -0.111698 0.014397 0.653621 -0.030687 1.580508
    44 -1.393470 8.839177 -0.239433 1.580804 -0.005023 -1.566847
  time 12
    0 -0.999830 1.628956 -1.291060 0.000000 0.000000 0.000000
    1 7.040503 3.754207 -7.962617 6.086445 -1.603943 0.219501
    2 -0.071918 -8.498730 -0.104137 -0.109262 0.091032 -0.084366
    3 3.877622 -5.248455 1.421663 0.246215 -3.194606 1.568953
    4 0.000000 0.000000 0.000000 0.000000 0.000000 0.000000
    5 -0.248228 2.512564 0.000000 0.000001 0.000000 1.570796
    6 4.320393 -1.031701 0.000001 -1.570795 -1.570796 0.000000
    7 4.110973 2.892190 0.000001 0.000000 0.000000 1.570796
    8 0.000000 -0.000002 0.000000 0.000001 0.000000 0.000000
    9 1.257180 8.762585 -0.153713 -1.570562 0.002683 -1.566807
    10 -0.488518 -2.755602 -0.228260 -0.871614 -0.202562 -0.209541
    11 0.039887 -1.479790 0.029854 -2.058953 0.000000 0.000001
    12 0.028786 -1.075731 -0.023109 -0.606330 0.000000 0.000000
    13 0.250027 -2.820665 -0.238396 -0.797118 -0.167517 -0.114938
    14 -0.049759 -1.680544 0.100479 -1.934765 0.000000 -0.000002
    15 -0.034142 -1.148312 0.084782 -0.925879 0.000000 0.000000
    16 0.957766 -2.746780 -0.090302 0.005849 -0.162684 0.097910
    17 -0.033420 -1.397129 -0.011257 -0.521019 0.000000 -0.000001
    18 -0.022360 -0.957436 0.018784 -0.975516 0.000000 0.000000
    19 -1.180681 -2.507217 -0.193859 -0.671429 -0.081516 -0.261329
    20 -0.024967 -1.123934 0.017597 -2.056303 0.000000 0.000001
    21 -0.020057 -0.890968 0.010090 -0.677843 0.000000 0.000000
    22 0.583510 -1.197277 0.185379 0.180209 -0.812065 -1.291294
    23 1.535927 0.010246 0.005009 -0.002964 -0.012979 -0.506650
    24 1.100771 0.004527 -0.010679 -0.015488 -0.004784 -1.694062
    25 0.120153 -0.050270 -0.054489 0.287569 3.110905 1.561085
    26 -0.821567 -11.911151 -11.013338 -0.917590 -5.246504 -0.134856
    27 0.096944 -8.450418 -0.009365 0.136041 -1.145436 -0.075755
    28 0.447953 -2.798986 -0.200443 -0.437412 -0.067958 0.142839
    29 -0.032909 -1.480204 0.004940 -1.165534 0.000000 0.000002
    30 -0.027022 -1.076920 -0.020210 -0.581968 0.000000 0.000000
    31 -0.249534 -2.846964 -0.174213 -0.128738 0.012411 0.088176
    32 0.043235 -1.683941 0.096012 -1.309101 0.002823 -0.000167
    33 0.031729 -1.160830 0.058838 -0.744926 0.000642 0.008372
    34 -0.963866 -2.785145 -0.085350 0.029537 0.160514 0.097512
    35 0.028479 -1.403067 0.006271 -0.585005 0.000000 0.000000
    36 0.021413 -0.957781 0.020046 -0.738170 0.000000 0.000000
    37 1.164475 -2.543940 -0.170330 -0.610671 -0.190582 0.231608
    38 0.024032 -1.129042 0.017807 -0.709819 0.000000 0.000001
    39 0.014898 -0.883989 -0.019848 -0.845482 0.000000 0.000000
    40 -0.586770 -1.264477 0.200161 0.029415 -0.425542 -2.676427
    41 1.522835 0.058681 0.016848 0.001410 0.008985 0.586077
    42 1.117947 0.048424 -0.005766 0.001267 -0.025174 0.005124
    43 -0.139399 -0.111698 0.014397 0.653621 -0.030687 1.580508
    44 -1.393470 8.839177 -0.239433 1.580804 -0.005023 -1.566847
  time 13
    0 -0.999830 1.628956 -1.080116 0.000000 0.000000 0.000000
    1 6.997533 3.754207 -8.548573 6.094574 -1.606349 0.213964
    2 -0.071918 -8.498730 -0.104137 -0.091680 0.111827 -0.048292
    3 3.877622 -5.248455 1.421663 0.246215 -3.194606 1.568953
    4 0.000000 0.000000 0.000000 0.000000 0.000000 0.000000
    5 -0.248228 2.512564 0.000000 0.000001 0.000000 1.570796
    6 4.320393 -1.031701 0.000001 -1.570795 -1.570796 0.000000
    7 4.110973 2.892190 0.000001 0.000000 0.000000 1.570796
    8 0.000000 -0.000002 0.000000 0.000001 0.000000 0.000000
    9 1.257180 8.762585 -0.153713 -1.570562 0.002683 -1.566807
    10 -0.488518 -2.755602 -0.228260 -0.871614 -0.202562 -0.209541
    11 0.039887 -1.479790 0.029854 -2.058953 0.000000 0.000001
    12 0.028786 -1.075731 -0.023109 -0.606330 0.000000 0.000000
    13 0.250027 -2.820665 -0.238396 -0.797118 -0.167517 -0.114938
    14 -0.049759 -1.680544 0.100479 -1.934765 0.000000 -0.000002
    15 -0.034142 -1.148312 0.084782 -0.925906 0.000000 0.000000
    16 0.957766 -2.746780 -0.090302 0.005849 -0.162684 0.097910
    17 -0.033420 -1.397129 -0.011257 -0.521003 0.000000 -0.000001
    18 -0.022360 -0.957436 0.018784 -0.975516 0.000000 0.000000
    19 -1.180681 -2.507217 -0.193859 -0.671429 -0.081516 -0.261329
    20 -0.024967 -1.123934 0.017597 -2.056303 0.000000 0.000001
    21 -0.020057 -0.890968 0.010090 -0.677843 0.000000 0.000000
    22 0.583510 -1.197277 0.185379 0.180209 -0.812077 -1.291294
    23 1.535927 0.010246 0.005009 -0.002964 -0.012979 -0.506650
    24 1.100771 0.004527 -0.010679 -0.015488 -0.004784 -1.694062
    25 0.120153 -0.050270 -0.054489 0.287569 3.110905 1.561085
    26 -0.712189 -12.129908 -11.200844 -0.990224 -5.236271 -0.178052
    27 0.096944 -8.450418 -0.009365 0.144596 -1.145436 -0.075755
    28 0.447953 -2.798986 -0.200443 -0.437412 -0.067958 0.142839
    29 -0.032909 -1.480204 0.004940 -1.165534 0.000000 0.000002
    30 -0.027022 -1.076920 -0.020210 -0.581968 0.000000 0.000000
    31 -0.249534 -2.846964 -0.174213 -0.128738 0.012411 0.088176
    32 0.043235 -1.683941 0.096012 -1.309101 0.002823 -0.000167
    33 0.031729 -1.160830 0.058838 -0.744926 0.000642 0.008372
    34 -0.963866 -2.785145 -0.085350 0.029537 0.160514 0.097512
    35 0.028479 -1.403067 0.006271 -0.585005 0.000000 0.000000
    36 0.021413 -0.957781 0.020046 -0.738170 0.000000 0.000000
    37 1.164475 -2.543940 -0.170330 -0.610671 -0.190582 0.231608
    38 0.024032 -1.129042 0.017807 -0.709819 0.000000 0.000001
    39 0.014898 -0.883989 -0.019848 -0.845482 0.000000 0.000000
    40 -0.586770 -1.264477 0.200161 0.029415 -0.425542 -2.676427
    41 1.522835 0.058681 0.016848 0.001410 0.008985 0.586077
    42 1.117947 0.048424 -0.005766 0.001267 -0.025174 0.005124
    43 -0.139399 -0.111698 0.014397 0.653621 -0.030687 1.580508
    44 -1.393470 8.839177 -0.239433 1.580804 -0.005023 -1.566847
  time 14
    0 -0.999830 1.628956 -0.869172 0.000000 0.000000 0.000000
    1 6.993626 3.754207 -9.048588 6.103182 -1.609311 0.204036
    2 -0.071918 -8.498730 -0.104137 -0.073332 0.132289 -0.016617
    3 3.877622 -5.248455 1.421663 0.246215 -3.194606 1.568953
    4 0.000000 0.000000 0.000000 0.000000 0.000000 0.000000
    5 -0.248228 2.512564 0.000000 0.000001 0.000000 1.570796
    6 4.320393 -1.031701 0.000001 -1.570795 -1.570796 0.000000
    7 4.110973 2.892190 0.000001 0.000000 0.000000 1.570796
    8 0.000000 -0.000002 0.000000 0.000001 0.000000 0.000000
    9 1.257180 8.762585 -0.153713 -1.570562 0.002683 -1.566807
    10 -0.488518 -2.755602 -0.228260 -0.871614 -0.202562 -0.209541
    11 0.039887 -1.479790 0.029854 -2.058953 0.000000 0.000001
    12 0.028786 -1.075731 -0.023109 -0.606330 0.000000 0.000000
    13 0.250027 -2.820665 -0.238396 -0.797118 -0.167517 -0.114938
    14 -0.049759 -1.680544 0.100479 -1.934765 0.000000 -0.000002
    15 -0.034142 -1.148312 0.084782 -0.925879 0.000000 0.000000
    16 0.957766 -2.746780 -0.090302 0.005849 -0.162684 0.097910
    17 -0.033420 -1.397129 -0.011257 -0.521019 0.000000 -0.000001
    18 -0.022360 -0.957436 0.018784 -0.975486 0.000000 0.000000
    19 -1.180681 -2.507217 -0.193859 -0.671429 -0.081516 -0.261329
    20 -0.024967 -1.123934 0.017597 -2.056303 0.000000 0.000001
    21 -0.020057 -0.890968 0.010090 -0.677843 0.000000 0.000000
    22 0.583510 -1.197277 0.185379 0.180209 -0.812077 -1.291294
    23 1.535927 0.010246 0.005009 -0.002964 -0.012979 -0.506650
    24 1.100771 0.004527 -0.010679 -0.015488 -0.004784 -1.694062
    25 0.120153 -0.050270 -0.054489 0.287569 3.110905 1.561085
    26 -0.630155 -12.321320 -11.345379 -1.056093 -5.226588 -0.218879
    27 0.096944 -8.450418 -0.009365 0.153194 -1.145436 -0.075755
    28 0.447953 -2.798986 -0.200443 -0.437412 -0.067958 0.142839
    29 -0.032909 -1.480204 0.004940 -1.165534 0.000000 0.000002
    30 -0.027022 -1.076920 -0.020210 -0.581968 0.000000 0.000000
    31 -0.249534 -2.846964 -0.174213 -0.128738 0.012411 0.088176
    32 0.043235 -1.683941 0.096012 -1.309101 0.002823 -0.000167
    33 0.031729 -1.160830 0.058838 -0.744926 0.000642 0.008372
    34 -0.963866 -2.785145 -0.085350 0.029537 0.160514 0.097512
    35 0.028479 -1.403067 0.006271 -0.585005 0.000000 0.000000
    36 0.021413 -0.957781 0.020046 -0.738170 0.000000 0.000000
    37 1.164475 -2.543940 -0.170330 -0.610671 -0.190582 0.231608
    38 0.024032 -1.129042 0.017807 -0.709819 0.000000 0.000001
    39 0.014898 -0.883989 -0.019848 -0.845482 0.000000 0.000000
    40 -0.586770 -1.264477 0.200161 0.029415 -0.425542 -2.676427
    41 1.522835 0.058681 0.016848 0.001410 0.008985 0.586077
    42 1.117947 0.048424 -0.005766 0.001267 -0.025174 0.005124
    43 -0.139399 -0.111698 0.014397 0.653621 -0.030687 1.580508
    44 -1.393470 8.839177 -0.239433 1.580804 -0.005023 -1.566847
  time 15
    0 -0.999830 1.628956 -0.662135 0.000000 0.000000 0.000000
    1 7.024877 3.754207 -9.407974 6.112268 -1.612705 0.189908
    2 -0.071918 -8.498730 -0.104137 -0.054205 0.152421 0.010685
    3 3.877622 -5.248455 1.421663 0.246215 -3.194606 1.568953
    4 0.000000 0.000000 0.000000 0.000000 0.000000 0.000000
    5 -0.248228 2.512564 0.000000 0.000001 0.000000 1.570796
    6 4.320393 -1.031701 0.000001 -1.570795 -1.570796 0.000000
    7 4.110973 2.892190 0.000001 0.000000 0.000000 1.570796
    8 0.000000 -0.000002 0.000000 0.000001 0.000000 0.000000
    9 1.257180 8.762585 -0.153713 -1.570562 0.002683 -1.566807
    10 -0.488518 -2.755602 -0.228260 -0.871614 -0.202562 -0.209541
    11 0.039887 -1.479790 0.029854 -2.058953 0.000000 0.000001
    12 0.028786 -1.075731 -0.023109 -0.606330 0.000000 0.000000
    13 0.250027 -2.820665 -0.238396 -0.797118 -0.167517 -0.114938
    14 -0.049759 -1.680544 0.100479 -1.934765 0.000000 -0.000002
    15 -0.034142 -1.148312 0.084782 -0.925879 0.000000 0.000000
    16 0.957766 -2.746780 -0.090302 0.005849 -0.162684 0.097910
    17 -0.033420 -1.397129 -0.011257 -0.521003 0.000000 -0.000001
    18 -0.022360 -0.957436 0.018784 -0.975516 0.000000 0.000000
    19 -1.180681 -2.507217 -0.193859 -0.671429 -0.081516 -0.261329
    20 -0.024967 -1.123934 0.017597 -2.056303 0.000000 0.000001
    21 -0.020057 -0.890968 0.010090 -0.677843 0.000000 0.000000
    22 0.583510 -1.197277 0.185379 0.180209 -0.812077 -1.291294
    23 1.535927 0.010246 0.005009 -0.002964 -0.012979 -0.506650
    24 1.100771 0.004527 -0.010679 -0.015488 -0.004784 -1.694062
    25 0.120153 -0.050270 -0.054489 0.287569 3.110905 1.561085
    26 -0.575466 -12.481481 -11.388350 -1.114651 -5.216985 -0.256770
    27 0.096944 -8.450418 -0.009365 0.159825 -1.145436 -0.075755
    28 0.447953 -2.798986 -0.200443 -0.437412 -0.067958 0.142839
    29 -0.032909 -1.480204 0.004940 -1.165534 0.000000 0.000002
    30 -0.027022 -1.076920 -0.020210 -0.581968 0.000000 0.000000
    31 -0.249534 -2.846964 -0.174213 -0.128738 0.012411 0.088176
    32 0.043235 -1.683941 0.096012 -1.309101 0.002823 -0.000167
    33 0.031729 -1.160830 0.058838 -0.744926 0.000642 0.008372
    34 -0.963866 -2.785145 -0.085350 0.029537 0.160514 0.097512
    35 0.028479 -1.403067 0.006271 -0.585005 0.000000 0.000000
    36 0.021413 -0.957781 0.020046 -0.738170 0.000000 0.000000
    37 1.164475 -2.543940 -0.170330 -0.610671 -0.190582 0.231608
    38 0.024032 -1.129042 0.017807 -0.709819 0.000000 0.000001
    39 0.014898 -0.883989 -0.019848 -0.845482 0.000000 0.000000
    40 -0.586770 -1.264477 0.200161 0.029415 -0.425542 -2.676427
    41 1.522835 0.058681 0.016848 0.001410 0.008985 0.586077
    42 1.117947 0.048424 -0.005766 0.001267 -0.025174 0.005124
    43 -0.139399 -0.111698 0.014397 0.653621 -0.030687 1.580508
    44 -1.393470 8.839177 -0.239433 1.580804 -0.005023 -1.566847
  time 16
    0 -0.999830 1.628956 -0.466816 0.000000 0.000000 0.000000
    1 7.134256 3.754207 -9.618918 6.123554 -1.617703 0.166615
    2 -0.071918 -8.498730 -0.104137 -0.032572 0.173503 0.032015
    3 3.877622 -5.248455 1.421663 0.246215 -3.194606 1.568953
    4 0.000000 0.000000 0.000000 0.000000 0.000000 0.000000
    5 -0.248228 2.512564 0.000000 0.000001 0.000000 1.570796
    6 4.320393 -1.031701 0.000001 -1.570795 -1.570796 0.000000
    7 4.110973 2.892190 0.000001 0.000000 0.000000 1.570796
    8 0.000000 -0.000002 0.000000 0.000001 0.000000 0.000000
    9 1.257180 8.762585 -0.153713 -1.570562 0.002683 -1.566807
    10 -0.488518 -2.755602 -0.228260 -0.871614 -0.202562 -0.209541
    11 0.039887 -1.479790 0.029854 -2.058953 0.000000 0.000001
    12 0.028786 -1.075731 -0.023109 -0.606330 0.000000 0.000000
    13 0.250027 -2.820665 -0.238396 -0.797118 -0.167517 -0.114938
    14 -0.049759 -1.680544 0.100479 -1.934765 0.000000 -0.000002
    15 -0.034142 -1.148312 0.084782 -0.925879 0.000000 0.000000
    16 0.957766 -2.746780 -0.090302 0.005849 -0.162684 0.097910
    17 -0.033420 -1.397129 -0.011257 -0.521003 0.000000 -0.000001
    18 -0.022360 -0.957436 0.018784 -0.975516 0.000000 0.000000
    19 -1.180681 -2.507217 -0.193859 -0.671429 -0.081516 -0.261329
    20 -0.024967 -1.123934 0.017597 -2.056303 0.000000 0.000001
    21 -0.020057 -0.890968 0.010090 -0.677843 0.000000 0.000000
    22 0.583510 -1.197277 0.185379 0.180209 -0.812065 -1.291294
    23 1.535927 0.010246 0.005009 -0.002964 -0.012979 -0.506650
    24 1.100771 0.004527 -0.010679 -0.015488 -0.004784 -1.694062
    25 0.120153 -0.050270 -0.054489 0.287569 3.110905 1.561085
    26 -0.536402 -12.590859 -11.329754 -1.161387 -5.206436 -0.289451
    27 0.096944 -8.450418 -0.009365 0.162477 -1.145436 -0.075755
    28 0.447953 -2.798986 -0.200443 -0.437412 -0.067958 0.142839
    29 -0.032909 -1.480204 0.004940 -1.165534 0.000000 0.000002
    30 -0.027022 -1.076920 -0.020210 -0.581968 0.000000 0.000000
    31 -0.249534 -2.846964 -0.174213 -0.128738 0.012411 0.088176
    32 0.043235 -1.683941 0.096012 -1.309101 0.002823 -0.000167
    33 0.031729 -1.160830 0.058838 -0.744926 0.000642 0.008372
    34 -0.963866 -2.785145 -0.085350 0.029537 0.160514 0.097512
    35 0.028479 -1.403067 0.006271 -0.584957 0.000000 0.000000
    36 0.021413 -0.957781 0.020046 -0.738170 0.000000 0.000000
    37 1.164475 -2.543940 -0.170330 -0.610671 -0.190582 0.231608
    38 0.024032 -1.129042 0.017807 -0.709819 0.000000 0.000001
    39 0.014898 -0.883989 -0.019848 -0.845482 0.000000 0.000000
    40 -0.586770 -1.264477 0.200161 0.029415 -0.425542 -2.676427
    41 1.522835 0.058681 0.016848 0.001410 0.008985 0.586077
    42 1.117947 0.048424 -0.005766 0.001267 -0.025174 0.005124
    43 -0.139399 -0.111698 0.014397 0.653621 -0.030687 1.580508
    44 -1.393470 8.839177 -0.239433 1.580804 -0.005023 -1.566847
  time 17
    0 -0.999830 1.628956 -0.275404 0.000000 0.000000 0.000000
    1 7.333481 3.754207 -9.708764 6.137997 -1.624799 0.131866
    2 -0.071918 -8.498730 -0.104137 -0.007596 0.196185 0.046600
    3 3.877622 -5.248455 1.421663 0.246215 -3.194606 1.568953
    4 0.000000 0.000000 0.000000 0.000000 0.000000 0.000000
    5 -0.248228 2.512564 0.000000 0.000001 0.000000 1.570796
    6 4.320393 -1.031701 0.000001 -1.570795 -1.570796 0.000000
    7 4.110973 2.892190 0.000001 0.000000 0.000000 1.570796
    8 0.000000 -0.000002 0.000000 0.000001 0.000000 0.000000
    9 1.257180 8.762585 -0.153713 -1.570562 0.002683 -1.566807
    10 -0.488518 -2.755602 -0.228260 -0.871614 -0.202562 -0.209541
    11 0.039887 -1.479790 0.029854 -2.058953 0.000000 0.000001
    12 0.028786 -1.075731 -0.023109 -0.606330 0.000000 0.000000
    13 0.250027 -2.820665 -0.238396 -0.797118 -0.167517 -0.114938
    14 -0.049759 -1.680544 0.100479 -1.934765 0.000000 -0.000002
    15 -0.034142 -1.148312 0.084782 -0.925906 0.000000 0.000000
    16 0.957766 -2.746780 -0.090302 0.005849 -0.162684 0.097910
    17 -0.033420 -1.397129 -0.011257 -0.521003 0.000000 -0.000001
    18 -0.022360 -0.957436 0.018784 -0.975516 0.000000 0.000000
    19 -1.180681 -2.507217 -0.193859 -0.671429 -0.081516 -0.261329
    20 -0.024967 -1.123934 0.017597 -2.056303 0.000000 0.000001
    21 -0.020057 -0.890968 0.010090 -0.677843 0.000000 0.000000
    22 0.583510 -1.197277 0.185379 0.180209 -0.812077 -1.291294
    23 1.535927 0.010246 0.005009 -0.002964 -0.012979 -0.506650
    24 1.100771 0.004527 -0.010679 -0.015488 -0.004784 -1.694062
    25 0.120153 -0.050270 -0.054489 0.287569 3.110905 1.561085
    26 -0.509057 -12.629923 -11.208657 -1.193775 -5.193999 -0.315028
    27 0.096944 -8.450418 -0.009365 0.162477 -1.145436 -0.075755
    28 0.447953 -2.798986 -0.200443 -0.437412 -0.067958 0.142839
    29 -0.032909 -1.480204 0.004940 -1.165534 0.000000 0.000002
    30 -0.027022 -1.076920 -0.020210 -0.581968 0.000000 0.000000
    31 -0.249534 -2.846964 -0.174213 -0.128738 0.012411 0.088176
    32 0.043235 -1.683941 0.096012 -1.309101 0.002823 -0.000167
    33 0.031729 -1.160830 0.058838 -0.744926 0.000642 0.008372
    34 -0.963866 -2.785145 -0.085350 0.029537 0.160514 0.097512
    35 0.028479 -1.403067 0.006271 -0.585005 0.000000 0.000000
    36 0.021413 -0.957781 0.020046 -0.738193 0.000000 0.000000
    37 1.164475 -2.543940 -0.170330 -0.610671 -0.190582 0.231608
    38 0.024032 -1.129042 0.017807 -0.709819 0.000000 0.000001
    39 0.014898 -0.883989 -0.019848 -0.845482 0.000000 0.000000
    40 -0.586770 -1.264477 0.200161 0.029415 -0.425542 -2.676427
    41 1.522835 0.058681 0.016848 0.001410 0.008985 0.586077
    42 1.117947 0.048424 -0.005766 0.001267 -0.025174 0.005124
    43 -0.139399 -0.111698 0.014397 0.653621 -0.030687 1.580508
    44 -1.393470 8.839177 -0.239433 1.580804 -0.005023 -1.566847
  time 18
    0 -0.999830 1.628956 -0.099618 0.000000 0.000000 0.000000
    1 7.599114 3.754207 -9.708764 6.154256 -1.633191 0.089194
    2 -0.071918 -8.498730 -0.104137 0.019453 0.219516 0.055665
    3 3.877622 -5.248455 1.421663 0.246215 -3.194606 1.568953
    4 0.000000 0.000000 0.000000 0.000000 0.000000 0.000000
    5 -0.248228 2.512564 0.000000 0.000001 0.000000 1.570796
    6 4.320393 -1.031701 0.000001 -1.570795 -1.570796 0.000000
    7 4.110973 2.892190 0.000001 0.000000 0.000000 1.570796
    8 0.000000 -0.000002 0.000000 0.000001 0.000000 0.000000
    9 1.257180 8.762585 -0.153713 -1.570562 0.002683 -1.566807
    10 -0.488518 -2.755602 -0.228260 -0.871614 -0.202562 -0.209541
    11 0.039887 -1.479790 0.029854 -2.058953 0.000000 0.000001
    12 0.028786 -1.075731 -0.023109 -0.606330 0.000000 0.000000
    13 0.250027 -2.820665 -0.238396 -0.797118 -0.167517 -0.114938
    14 -0.049759 -1.680544 0.100479 -1.934765 0.000000 -0.000002
    15 -0.034142 -1.148312 0.084782 -0.925906 0.000000 0.000000
    16 0.957766 -2.746780 -0.090302 0.005849 -0.162684 0.097910
    17 -0.033420 -1.397129 -0.011257 -0.521003 0.000000 -0.000001
    18 -0.022360 -0.957436 0.018784 -0.975516 0.000000 0.000000
    19 -1.180681 -2.507217 -0.193859 -0.671429 -0.081516 -0.261329
    20 -0.024967 -1.123934 0.017597 -2.056303 0.000000 0.000001
    21 -0.020057 -0.890968 0.010090 -0.677843 0.000000 0.000000
    22 0.583510 -1.197277 0.185379 0.180209 -0.812077 -1.291294
    23 1.535927 0.010246 0.005009 -0.002964 -0.012979 -0.506650
    24 1.100771 0.004527 -0.010679 -0.015488 -0.004784 -1.694062
    25 0.120153 -0.050270 -0.054489 0.287569 3.110905 1.561085
    26 -0.493432 -12.622110 -11.048495 -1.213932 -5.180144 -0.334162
    27 0.096944 -8.450418 -0.009365 0.162477 -1.145436 -0.075755
    28 0.447953 -2.798986 -0.200443 -0.437412 -0.067958 0.142839
    29 -0.032909 -1.480204 0.004940 -1.165534 0.000000 0.000002
    30 -0.027022 -1.076920 -0.020210 -0.581968 0.000000 0.000000
    31 -0.249534 -2.846964 -0.174213 -0.128738 0.012411 0.088176
    32 0.043235 -1.683941 0.096012 -1.309101 0.002823 -0.000167
    33 0.031729 -1.160830 0.058838 -0.744926 0.000642 0.008372
    34 -0.963866 -2.785145 -0.085350 0.029537 0.160514 0.097512
    35 0.028479 -1.403067 0.006271 -0.585005 0.000000 0.000000
    36 0.021413 -0.957781 0.020046 -0.738170 0.000000 0.000000
    37 1.164475 -2.543940 -0.170330 -0.610671 -0.190582 0.231608
    38 0.024032 -1.129042 0.017807 -0.709819 0.000000 0.000001
    39 0.014898 -0.883989 -0.019848 -0.845482 0.000000 0.000000
    40 -0.586770 -1.264477 0.200161 0.029415 -0.425542 -2.676427
    41 1.522835 0.058681 0.016848 0.001410 0.008985 0.586077
    42 1.117947 0.048424 -0.005766 0.001267 -0.025174 0.005124
    43 -0.139399 -0.111698 0.014397 0.653621 -0.030687 1.580508
    44 -1.393470 8.839177 -0.239433 1.580804 -0.005023 -1.566847
  time 19
    0 -0.999830 1.628956 0.060544 0.000000 0.000000 0.000000
    1 7.907717 3.754207 -9.638450 6.171089 -1.642077 0.042321
    2 -0.071918 -8.498730 -0.104137 0.047281 0.242501 0.060331
    3 3.877622 -5.248455 1.421663 0.246215 -3.194606 1.568953
    4 0.000000 0.000000 0.000000 0.000000 0.000000 0.000000
    5 -0.248228 2.512564 0.000000 0.000001 0.000000 1.570796
    6 4.320393 -1.031701 0.000001 -1.570795 -1.570796 0.000000
    7 4.110973 2.892190 0.000001 0.000000 0.000000 1.570796
    8 0.000000 -0.000002 0.000000 0.000001 0.000000 0.000000
    9 1.257180 8.762585 -0.153713 -1.570562 0.002683 -1.566807
    10 -0.488518 -2.755602 -0.228260 -0.871614 -0.202562 -0.209541
    11 0.039887 -1.479790 0.029854 -2.058953 0.000000 0.000001
    12 0.028786 -1.075731 -0.023109 -0.606330 0.000000 0.000000
    13 0.250027 -2.820665 -0.238396 -0.797118 -0.167517 -0.114938
    14 -0.049759 -1.680544 0.100479 -1.934765 0.000000 -0.000002
    15 -0.034142 -1.148312 0.084782 -0.925906 0.000000 0.000000
    16 0.957766 -2.746780 -0.090302 0.005849 -0.162684 0.097910
    17 -0.033420 -1.397129 -0.011257 -0.521003 0.000000 -0.000001
    18 -0.022360 -0.957436 0.018784 -0.975516 0.000000 0.000000
    19 -1.180681 -2.507217 -0.193859 -0.671429 -0.081516 -0.261329
    20 -0.024967 -1.123934 0.017597 -2.056303 0.000000 0.000001
    21 -0.020057 -0.890968 0.010090 -0.677843 0.000000 0.000000
    22 0.583510 -1.197277 0.185379 0.180209 -0.812077 -1.291294
    23 1.535927 0.010246 0.005009 -0.002964 -0.012979 -0.506650
    24 1.100771 0.004527 -0.010679 -0.015488 -0.004784 -1.694062
    25 0.120153 -0.050270 -0.054489 0.287569 3.110905 1.561085
    26 -0.493432 -12.579140 -10.860990 -1.223772 -5.165424 -0.347235
    27 0.096944 -8.450418 -0.009365 0.162477 -1.145436 -0.075755
    28 0.447953 -2.798986 -0.200443 -0.437412 -0.067958 0.142839
    29 -0.032909 -1.480204 0.004940 -1.165534 0.000000 0.000002
    30 -0.027022 -1.076920 -0.020210 -0.581968 0.000000 0.000000
    31 -0.249534 -2.846964 -0.174213 -0.128738 0.012411 0.088176
    32 0.043235 -1.683941 0.096012 -1.309101 0.002823 -0.000167
    33 0.031729 -1.160830 0.058838 -0.744926 0.000642 0.008372
    34 -0.963866 -2.785145 -0.085350 0.029537 0.160514 0.097512
    35 0.028479 -1.403067 0.006271 -0.585005 0.000000 0.000000
    36 0.021413 -0.957781 0.020046 -0.738170 0.000000 0.000000
    37 1.164475 -2.543940 -0.170330 -0.610671 -0.190582 0.231608
    38 0.024032 -1.129042 0.017807 -0.709819 0.000000 0.000001
    39 0.014898 -0.883989 -0.019848 -0.845482 0.000000 0.000000
    40 -0.586770 -1.264477 0.200161 0.029415 -0.425542 -2.676427
    41 1.522835 0.058681 0.016848 0.001410 0.008985 0.586077
    42 1.117947 0.048424 -0.005766 0.001267 -0.025174 0.005124
    43 -0.139399 -0.111698 0.014397 0.653621 -0.030687 1.580508
    44 -1.393470 8.839177 -0.239433 1.580804 -0.005023 -1.566847
  time 20
    0 -0.999830 1.628956 0.205079 0.000000 0.000000 0.000000
    1 8.235852 3.754207 -9.525165 6.186966 -1.650592 -0.005219
    2 -0.071918 -8.498730 -0.104137 0.074582 0.264188 0.061797
    3 3.877622 -5.248455 1.421663 0.246215 -3.194606 1.568953
    4 0.000000 0.000000 0.000000 0.000000 0.000000 0.000000
    5 -0.248228 2.512564 0.000000 0.000001 0.000000 1.570796
    6 4.320393 -1.031701 0.000001 -1.570795 -1.570796 0.000000
    7 4.110973 2.892190 0.000001 0.000000 0.000000 1.570796
    8 0.000000 -0.000002 0.000000 0.000001 0.000000 0.000000
    9 1.257180 8.762585 -0.153713 -1.570562 0.002683 -1.566807
    10 -0.488518 -2.755602 -0.228260 -0.871614 -0.202562 -0.209541
    11 0.039887 -1.479790 0.029854 -2.058953 0.000000 0.000001
    12 0.028786 -1.075731 -0.023109 -0.606330 0.000000 0.000000
    13 0.250027 -2.820665 -0.238396 -0.797118 -0.167517 -0.114938
    14 -0.049759 -1.680544 0.100479 -1.934765 0.000000 -0.000002
    15 -0.034142 -1.148312 0.084782 -0.925879 0.000000 0.000000
    16 0.957766 -2.746780 -0.090302 0.005849 -0.162684 0.097910
    17 -0.033420 -1.397129 -0.011257 -0.521003 0.000000 -0.000001
    18 -0.022360 -0.957436 0.018784 -0.975516 0.000000 0.000000
    19 -1.180681 -2.507217 -0.193859 -0.671429 -0.081516 -0.261329
    20 -0.024967 -1.123934 0.017597 -2.056303 0.000000 0.000001
    21 -0.020057 -0.890968 0.010090 -0.677843 0.000000 0.000000
    22 0.583510 -1.197277 0.185379 0.180209 -0.812077 -1.291294
    23 1.535927 0.010246 0.005009 -0.002964 -0.012979 -0.506650
    24 1.100771 0.004527 -0.010679 -0.015488 -0.004784 -1.694062
    25 0.120153 -0.050270 -0.054489 0.287569 3.110905 1.561085
    26 -0.497338 -12.504919 -10.665671 -1.225480 -5.150625 -0.354813
    27 0.096944 -8.450418 -0.009365 0.162477 -1.145436 -0.075755
    28 0.447953 -2.798986 -0.200443 -0.437412 -0.067958 0.142839
    29 -0.032909 -1.480204 0.004940 -1.165534 0.000000 0.000002
    30 -0.027022 -1.076920 -0.020210 -0.581968 0.000000 0.000000
    31 -0.249534 -2.846964 -0.174213 -0.128738 0.012411 0.088176
    32 0.043235 -1.683941 0.096012 -1.309101 0.002823 -0.000167
    33 0.031729 -1.160830 0.058838 -0.744926 0.000642 0.008372
    34 -0.963866 -2.785145 -0.085350 0.029537 0.160514 0.097512
    35 0.028479 -1.403067 0.006271 -0.585005 0.000000 0.000000
    36 0.021413 -0.957781 0.020046 -0.738170 0.000000 0.000000
    37 1.164475 -2.543940 -0.170330 -0.610671 -0.190582 0.231608
    38 0.024032 -1.129042 0.017807 -0.709819 0.000000 0.000001
    39 0.014898 -0.883989 -0.019848 -0.845482 0.000000 0.000000
    40 -0.586770 -1.264477 0.200161 0.029415 -0.425542 -2.676427
    41 1.522835 0.058681 0.016848 0.001410 0.008985 0.586077
    42 1.117947 0.048424 -0.005766 0.001267 -0.025174 0.005124
    43 -0.139399 -0.111698 0.014397 0.653621 -0.030687 1.580508
    44 -1.393470 8.839177 -0.239433 1.580804 -0.005023 -1.566847
  time 21
    0 -0.999830 1.628956 0.326177 0.000000 0.000000 0.000000
    1 8.552268 3.754207 -9.392349 6.200834 -1.657997 -0.049801
    2 -0.071918 -8.498730 -0.104137 0.100085 0.283599 0.061237
    3 3.877622 -5.248455 1.421663 0.246215 -3.194606 1.568953
    4 0.000000 0.000000 0.000000 0.000000 0.000000 0.000000
    5 -0.248228 2.512564 0.000000 0.000001 0.000000 1.570796
    6 4.320393 -1.031701 0.000001 -1.570795 -1.570796 0.000000
    7 4.110973 2.892190 0.000001 0.000000 0.000000 1.570796
    8 0.000000 -0.000002 0.000000 0.000001 0.000000 0.000000
    9 1.257180 8.762585 -0.153713 -1.570562 0.002683 -1.566807
    10 -0.488518 -2.755602 -0.228260 -0.871614 -0.202562 -0.209541
    11 0.039887 -1.479790 0.029854 -2.058953 0.000000 0.000001
    12 0.028786 -1.075731 -0.023109 -0.606330 0.000000 0.000000
    13 0.250027 -2.820665 -0.238396 -0.797118 -0.167517 -0.114938
    14 -0.049759 -1.680544 0.100479 -1.934765 0.000000 -0.000002
    15 -0.034142 -1.148312 0.084782 -0.925879 0.000000 0.000000
    16 0.957766 -2.746780 -0.090302 0.005849 -0.162684 0.097910
    17 -0.033420 -1.397129 -0.011257 -0.521003 0.000000 -0.000001
    18 -0.022360 -0.957436 0.018784 -0.975516 0.000000 0.000000
    19 -1.180681 -2.507217 -0.193859 -0.671429 -0.081516 -0.261329
    20 -0.024967 -1.123934 0.017597 -2.056303 0.000000 0.000001
    21 -0.020057 -0.890968 0.010090 -0.677843 0.000000 0.000000
    22 0.583510 -1.197277 0.185379 0.180209 -0.812077 -1.291294
    23 1.535927 0.010246 0.005009 -0.002964 -0.012979 -0.506650
    24 1.100771 0.004527 -0.010679 -0.015488 -0.004784 -1.694062
    25 0.120153 -0.050270 -0.054489 0.287569 3.110905 1.561085
    26 -0.501245 -12.418979 -10.478166 -1.221380 -5.136613 -0.357844
    27 0.096944 -8.450418 -0.009365 0.162477 -1.145436 -0.075755
    28 0.447953 -2.798986 -0.200443 -0.437412 -0.067958 0.142839
    29 -0.032909 -1.480204 0.004940 -1.165534 0.000000 0.000002
    30 -0.027022 -1.076920 -0.020210 -0.581968 0.000000 0.000000
    31 -0.249534 -2.846964 -0.174213 -0.128738 0.012411 0.088176
    32 0.043235 -1.683941 0.096012 -1.309101 0.002823 -0.000167
    33 0.031729 -1.160830 0.058838 -0.744926 0.000642 0.008372
    34 -0.963866 -2.785145 -0.085350 0.029537 0.160514 0.097512
    35 0.028479 -1.403067 0.006271 -0.585005 0.000000 0.000000
    36 0.021413 -0.957781 0.020046 -0.738170 0.000000 0.000000
    37 1.164475 -2.543940 -0.170330 -0.610671 -0.190582 0.231608
    38 0.024032 -1.129042 0.017807 -0.709819 0.000000 0.000001
    39 0.014898 -0.883989 -0.019848 -0.845482 0.000000 0.000000
    40 -0.586770 -1.264477 0.200161 0.029415 -0.425542 -2.676427
    41 1.522835 0.058681 0.016848 0.001410 0.008985 0.586077
    42 1.117947 0.048424 -0.005766 0.001267 -0.025174 0.005124
    43 -0.139399 -0.111698 0.014397 0.653621 -0.030687 1.580508
    44 -1.393470 8.839177 -0.239433 1.580804 -0.005023 -1.566847
  time 22
    0 -0.999830 1.628956 0.423836 0.000000 0.000000 0.000000
    1 8.841339 3.754207 -9.259532 6.211259 -1.663488 -0.087795
    2 -0.071918 -8.498730 -0.104137 0.122472 0.299753 0.059851
    3 3.877622 -5.248455 1.421663 0.246215 -3.194606 1.568953
    4 0.000000 0.000000 0.000000 0.000000 0.000000 0.000000
    5 -0.248228 2.512564 0.000000 0.000001 0.000000 1.570796
    6 4.320393 -1.031701 0.000001 -1.570795 -1.570796 0.000000
    7 4.110973 2.892190 0.000001 0.000000 0.000000 1.570796
    8 0.000000 -0.000002 0.000000 0.000001 0.000000 0.000000
    9 1.257180 8.762585 -0.153713 -1.570562 0.002683 -1.566807
    10 -0.488518 -2.755602 -0.228260 -0.871614 -0.202562 -0.209541
    11 0.039887 -1.479790 0.029854 -2.058953 0.000000 0.000001
    12 0.028786 -1.075731 -0.023109 -0.606330 0.000000 0.000000
    13 0.250027 -2.820665 -0.238396 -0.797118 -0.167517 -0.114938
    14 -0.049759 -1.680544 0.100479 -1.934765 0.000000 -0.000002
    15 -0.034142 -1.148312 0.084782 -0.925906 0.000000 0.000000
    16 0.957766 -2.746780 -0.090302 0.005849 -0.162684 0.097910
    17 -0.033420 -1.397129 -0.011257 -0.521003 0.000000 -0.000001
    18 -0.022360 -0.957436 0.018784 -0.975486 0.000000 0.000000
    19 -1.180681 -2.507217 -0.193859 -0.671429 -0.081516 -0.261329
    20 -0.024967 -1.123934 0.017597 -2.056303 0.000000 0.000001
    21 -0.020057 -0.890968 0.010090 -0.677843 0.000000 0.000000
    22 0.583510 -1.197277 0.185379 0.180209 -0.812077 -1.291294
    23 1.535927 0.010246 0.005009 -0.002964 -0.012979 -0.506650
    24 1.100771 0.004527 -0.010679 -0.015488 -0.004784 -1.694062
    25 0.120153 -0.050270 -0.054489 0.287569 3.110905 1.561085
    26 -0.505151 -12.329133 -10.310192 -1.214342 -5.123939 -0.357844
    27 0.096944 -8.450418 -0.009365 0.162477 -1.145436 -0.075755
    28 0.447953 -2.798986 -0.200443 -0.437412 -0.067958 0.142839
    29 -0.032909 -1.480204 0.004940 -1.165534 0.000000 0.000002
    30 -0.027022 -1.076920 -0.020210 -0.581968 0.000000 0.000000
    31 -0.249534 -2.846964 -0.174213 -0.128738 0.012411 0.088176
    32 0.043235 -1.683941 0.096012 -1.309101 0.002823 -0.000167
    33 0.031729 -1.160830 0.058838 -0.744926 0.000642 0.008372
    34 -0.963866 -2.785145 -0.085350 0.029537 0.160514 0.097512
    35 0.028479 -1.403067 0.006271 -0.585005 0.000000 0.000000
    36 0.021413 -0.957781 0.020046 -0.738170 0.000000 0.000000
    37 1.164475 -2.543940 -0.170330 -0.610671 -0.190582 0.231608
    38 0.024032 -1.129042 0.017807 -0.709819 0.000000 0.000001
    39 0.014898 -0.883989 -0.019848 -0.845482 0.000000 0.000000
    40 -0.586770 -1.264477 0.200161 0.029415 -0.425542 -2.676427
    41 1.522835 0.058681 0.016848 0.001410 0.008985 0.586077
    42 1.117947 0.048424 -0.005766 0.001267 -0.025174 0.005124
    43 -0.139399 -0.111698 0.014397 0.653621 -0.030687 1.580508
    44 -1.393470 8.839177 -0.239433 1.580804 -0.005023 -1.566847
  time 23
    0 -0.999830 1.628956 0.498057 0.000000 0.000000 0.000000
    1 9.067909 3.754207 -9.157966 6.216998 -1.666203 -0.115575
    2 -0.071918 -8.498730 -0.104137 0.140473 0.311700 0.058758
    3 3.877622 -5.248455 1.421663 0.246215 -3.194606 1.568953
    4 0.000000 0.000000 0.000000 0.000000 0.000000 0.000000
    5 -0.248228 2.512564 0.000000 0.000001 0.000000 1.570796
    6 4.320393 -1.031701 0.000001 -1.570795 -1.570796 0.000000
    7 4.110973 2.892190 0.000001 0.000000 0.000000 1.570796
    8 0.000000 -0.000002 0.000000 0.000001 0.000000 0.000000
    9 1.257180 8.762585 -0.153713 -1.570562 0.002683 -1.566807
    10 -0.488518 -2.755602 -0.228260 -0.871614 -0.202562 -0.209541
    11 0.039887 -1.479790 0.029854 -2.058953 0.000000 0.000001
    12 0.028786 -1.075731 -0.023109 -0.606330 0.000000 0.000000
    13 0.250027 -2.820665 -0.238396 -0.797118 -0.167517 -0.114938
    14 -0.049759 -1.680544 0.100479 -1.934765 0.000000 -0.000002
    15 -0.034142 -1.148312 0.084782 -0.925906 0.000000 0.000000
    16 0.957766 -2.746780 -0.090302 0.005849 -0.162684 0.097910
    17 -0.033420 -1.397129 -0.011257 -0.521003 0.000000 -0.000001
    18 -0.022360 -0.957436 0.018784 -0.975516 0.000000 0.000000
    19 -1.180681 -2.507217 -0.193859 -0.671429 -0.081516 -0.261329
    20 -0.024967 -1.123934 0.017597 -2.056303 0.000000 0.000001
    21 -0.020057 -0.890968 0.010090 -0.677843 0.000000 0.000000
    22 0.583510 -1.197277 0.185379 0.180209 -0.812077 -1.291294
    23 1.535927 0.010246 0.005009 -0.002964 -0.012979 -0.506650
    24 1.100771 0.004527 -0.010679 -0.015488 -0.004784 -1.694062
    25 0.120153 -0.050270 -0.054489 0.287569 3.110905 1.561085
    26 -0.509057 -12.254912 -10.177375 -1.207714 -5.113233 -0.356802
    27 0.096944 -8.450418 -0.009365 0.162477 -1.145436 -0.075755
    28 0.447953 -2.798986 -0.200443 -0.437412 -0.067958 0.142839
    29 -0.032909 -1.480204 0.004940 -1.165534 0.000000 0.000002
    30 -0.027022 -1.076920 -0.020210 -0.581968 0.000000 0.000000
    31 -0.249534 -2.846964 -0.174213 -0.128738 0.012411 0.088176
    32 0.043235 -1.683941 0.096012 -1.309101 0.002823 -0.000167
    33 0.031729 -1.160830 0.058838 -0.744926 0.000642 0.008372
    34 -0.963866 -2.785145 -0.085350 0.029537 0.160514 0.097512
    35 0.028479 -1.403067 0.006271 -0.585005 0.000000 0.000000
    36 0.021413 -0.957781 0.020046 -0.738170 0.000000 0.000000
    37 1.164475 -2.543940 -0.170330 -0.610671 -0.190582 0.231608
    38 0.024032 -1.129042 0.017807 -0.709819 0.000000 0.000001
    39 0.014898 -0.883989 -0.019848 -0.845482 0.000000 0.000000
    40 -0.586770 -1.264477 0.200161 0.029415 -0.425542 -2.676427
    41 1.522835 0.058681 0.016848 0.001410 0.008985 0.586077
    42 1.117947 0.048424 -0.005766 0.001267 -0.025174 0.005124
    43 -0.139399 -0.111698 0.014397 0.653621 -0.030687 1.580508
    44 -1.393470 8.839177 -0.239433 1.580804 -0.005023 -1.566847
  time 24
    0 -0.999830 1.628956 0.541027 0.000000 0.000000 0.000000
    1 9.216351 3.754207 -9.111090 6.216807 -1.665340 -0.129512
    2 -0.071918 -8.498730 -0.104137 0.152781 0.318487 0.059211
    3 3.877622 -5.248455 1.421663 0.246215 -3.194606 1.568953
    4 0.000000 0.000000 0.000000 0.000000 0.000000 0.000000
    5 -0.248228 2.512564 0.000000 0.000001 0.000000 1.570796
    6 4.320393 -1.031701 0.000001 -1.570795 -1.570796 0.000000
    7 4.110973 2.892190 0.000001 0.000000 0.000000 1.570796
    8 0.000000 -0.000002 0.000000 0.000001 0.000000 0.000000
    9 1.257180 8.762585 -0.153713 -1.570562 0.002683 -1.566807
    10 -0.488518 -2.755602 -0.228260 -0.871614 -0.202562 -0.209541
    11 0.039887 -1.479790 0.029854 -2.058953 0.000000 0.000001
    12 0.028786 -1.075731 -0.023109 -0.606330 0.000000 0.000000
    13 0.250027 -2.820665 -0.238396 -0.797118 -0.167517 -0.114938
    14 -0.049759 -1.680544 0.100479 -1.934765 0.000000 -0.000002
    15 -0.034142 -1.148312 0.084782 -0.925879 0.000000 0.000000
    16 0.957766 -2.746780 -0.090302 0.005849 -0.162684 0.097910
    17 -0.033420 -1.397129 -0.011257 -0.521003 0.000000 -0.000001
    18 -0.022360 -0.957436 0.018784 -0.975516 0.000000 0.000000
    19 -1.180681 -2.507217 -0.193859 -0.671429 -0.081516 -0.261329
    20 -0.024967 -1.123934 0.017597 -2.056303 0.000000 0.000001
    21 -0.020057 -0.890968 0.010090 -0.677843 0.000000 0.000000
    22 0.583510 -1.197277 0.185379 0.180209 -0.812077 -1.291294
    23 1.535927 0.010246 0.005009 -0.002964 -0.012979 -0.506650
    24 1.100771 0.004527 -0.010679 -0.015488 -0.004784 -1.694062
    25 0.120153 -0.050270 -0.054489 0.287569 3.110905 1.561085
    26 -0.509057 -12.208035 -10.095341 -1.205528 -5.104653 -0.357371
    27 0.096944 -8.450418 -0.009365 0.162477 -1.145436 -0.075755
    28 0.447953 -2.798986 -0.200443 -0.437412 -0.067958 0.142839
    29 -0.032909 -1.480204 0.004940 -1.165534 0.000000 0.000002
    30 -0.027022 -1.076920 -0.020210 -0.581968 0.000000 0.000000
    31 -0.249534 -2.846964 -0.174213 -0.128738 0.012411 0.088176
    32 0.043235 -1.683941 0.096012 -1.309101 0.002823 -0.000167
    33 0.031729 -1.160830 0.058838 -0.744926 0.000642 0.008372
    34 -0.963866 -2.785145 -0.085350 0.029537 0.160514 0.097512
    35 0.028479 -1.403067 0.006271 -0.585005 0.000000 0.000000
    36 0.021413 -0.957781 0.020046 -0.738170 0.000000 0.000000
    37 1.164475 -2.543940 -0.170330 -0.610671 -0.190582 0.231608
    38 0.024032 -1.129042 0.017807 -0.709819 0.000000 0.000001
    39 0.014898 -0.883989 -0.019848 -0.845482 0.000000 0.000000
    40 -0.586770 -1.264477 0.200161 0.029415 -0.425542 -2.676427
    41 1.522835 0.058681 0.016848 0.001410 0.008985 0.586077
    42 1.117947 0.048424 -0.005766 0.001267 -0.025174 0.005124
    43 -0.139399 -0.111698 0.014397 0.653621 -0.030687 1.580508
    44 -1.393470 8.839177 -0.239433 1.580804 -0.005023 -1.566847
  time 25
    0 -0.999830 1.628956 0.564465 0.000000 0.000000 0.000000
    1 9.294478 3.754207 -9.099371 6.211355 -1.661452 -0.131995
    2 -0.071918 -8.498730 -0.104137 0.160260 0.320721 0.060384
    3 3.877622 -5.248455 1.421663 0.246215 -3.194606 1.568953
    4 0.000000 0.000000 0.000000 0.000000 0.000000 0.000000
    5 -0.248228 2.512564 0.000000 0.000001 0.000000 1.570796
    6 4.320393 -1.031701 0.000001 -1.570795 -1.570796 0.000000
    7 4.110973 2.892190 0.000001 0.000000 0.000000 1.570796
    8 0.000000 -0.000002 0.000000 0.000001 0.000000 0.000000
    9 1.257180 8.762585 -0.153713 -1.570562 0.002683 -1.566807
    10 -0.488518 -2.755602 -0.228260 -0.871614 -0.202562 -0.209541
    11 0.039887 -1.479790 0.029854 -2.058953 0.000000 0.000001
    12 0.028786 -1.075731 -0.023109 -0.606330 0.000000 0.000000
    13 0.250027 -2.820665 -0.238396 -0.797118 -0.167517 -0.114938
    14 -0.049759 -1.680544 0.100479 -1.934765 0.000000 -0.000002
    15 -0.034142 -1.148312 0.084782 -0.925879 0.000000 0.000000
    16 0.957766 -2.746780 -0.090302 0.005849 -0.162684 0.097910
    17 -0.033420 -1.397129 -0.011257 -0.521003 0.000000 -0.000001
    18 -0.022360 -0.957436 0.018784 -0.975516 0.000000 0.000000
    19 -1.180681 -2.507217 -0.193859 -0.671429 -0.081516 -0.261329
    20 -0.024967 -1.123934 0.017597 -2.056303 0.000000 0.000001
    21 -0.020057 -0.890968 0.010090 -0.677843 0.000000 0.000000
    22 0.583510 -1.197277 0.185379 0.180209 -0.812077 -1.291294
    23 1.535927 0.010246 0.005009 -0.002964 -0.012979 -0.506650
    24 1.100771 0.004527 -0.010679 -0.015488 -0.004784 -1.694062
    25 0.120153 -0.050270 -0.054489 0.287569 3.110905 1.561085
    26 -0.505151 -12.188503 -10.052371 -1.206279 -5.098119 -0.358981
    27 0.096944 -8.450418 -0.009365 0.162477 -1.145436 -0.075755
    28 0.447953 -2.798986 -0.200443 -0.437412 -0.067958 0.142839
    29 -0.032909 -1.480204 0.004940 -1.165534 0.000000 0.000002
    30 -0.027022 -1.076920 -0.020210 -0.581968 0.000000 0.000000
    31 -0.249534 -2.846964 -0.174213 -0.128738 0.012411 0.088176
    32 0.043235 -1.683941 0.096012 -1.309101 0.002823 -0.000167
    33 0.031729 -1.160830 0.058838 -0.744926 0.000642 0.008372
    34 -0.963866 -2.785145 -0.085350 0.029537 0.160514 0.097512
    35 0.028479 -1.403067 0.006271 -0.585005 0.000000 0.000000
    36 0.021413 -0.957781 0.020046 -0.738170 0.000000 0.000000
    37 1.164475 -2.543940 -0.170330 -0.610671 -0.190582 0.231608
    38 0.024032 -1.129042 0.017807 -0.709819 0.000000 0.000001
    39 0.014898 -0.883989 -0.019848 -0.845482 0.000000 0.000000
    40 -0.586770 -1.264477 0.200161 0.029415 -0.425542 -2.676427
    41 1.522835 0.058681 0.016848 0.001410 0.008985 0.586077
    42 1.117947 0.048424 -0.005766 0.001267 -0.025174 0.005124
    43 -0.139399 -0.111698 0.014397 0.653621 -0.030687 1.580508
    44 -1.393470 8.839177 -0.239433 1.580804 -0.005023 -1.566847
  time 26
    0 -0.999830 1.628956 0.576184 0.000000 0.000000 0.000000
    1 9.341354 3.754207 -9.095464 6.202556 -1.655590 -0.127985
    2 -0.071918 -8.498730 -0.104137 0.164634 0.319726 0.060704
    3 3.877622 -5.248455 1.421663 0.246215 -3.194606 1.568953
    4 0.000000 0.000000 0.000000 0.000000 0.000000 0.000000
    5 -0.248228 2.512564 0.000000 0.000001 0.000000 1.570796
    6 4.320393 -1.031701 0.000001 -1.570795 -1.570796 0.000000
    7 4.110973 2.892190 0.000001 0.000000 0.000000 1.570796
    8 0.000000 -0.000002 0.000000 0.000001 0.000000 0.000000
    9 1.257180 8.762585 -0.153713 -1.570562 0.002683 -1.566807
    10 -0.488518 -2.755602 -0.228260 -0.871614 -0.202562 -0.209541
    11 0.039887 -1.479790 0.029854 -2.058953 0.000000 0.000001
    12 0.028786 -1.075731 -0.023109 -0.606330 0.000000 0.000000
    13 0.250027 -2.820665 -0.238396 -0.797118 -0.167517 -0.114938
    14 -0.049759 -1.680544 0.100479 -1.934765 0.000000 -0.000002
    15 -0.034142 -1.148312 0.084782 -0.925879 0.000000 0.000000
    16 0.957766 -2.746780 -0.090302 0.005849 -0.162684 0.097910
    17 -0.033420 -1.397129 -0.011257 -0.521003 0.000000 -0.000001
    18 -0.022360 -0.957436 0.018784 -0.975486 0.000000 0.000000
    19 -1.180681 -2.507217 -0.193859 -0.671429 -0.081516 -0.261329
    20 -0.024967 -1.123934 0.017597 -2.056303 0.000000 0.000001
    21 -0.020057 -0.890968 0.010090 -0.677843 0.000000 0.000000
    22 0.583510 -1.197277 0.185379 0.180209 -0.812077 -1.291294
    23 1.535927 0.010246 0.005009 -0.002964 -0.012979 -0.506650
    24 1.100771 0.004527 -0.010679 -0.015488 -0.004784 -1.694062
    25 0.120153 -0.050270 -0.054489 0.287569 3.110905 1.561085
    26 -0.505151 -12.172878 -10.025027 -1.205733 -5.092924 -0.358886
    27 0.096944 -8.450418 -0.009365 0.162477 -1.145436 -0.075755
    28 0.447953 -2.798986 -0.200443 -0.437412 -0.067958 0.142839
    29 -0.032909 -1.480204 0.004940 -1.165534 0.000000 0.000002
    30 -0.027022 -1.076920 -0.020210 -0.581968 0.000000 0.000000
    31 -0.249534 -2.846964 -0.174213 -0.128738 0.012411 0.088176
    32 0.043235 -1.683941 0.096012 -1.309101 0.002823 -0.000167
    33 0.031729 -1.160830 0.058838 -0.744926 0.000642 0.008372
    34 -0.963866 -2.785145 -0.085350 0.029537 0.160514 0.097512
    35 0.028479 -1.403067 0.006271 -0.584957 0.000000 0.000000
    36 0.021413 -0.957781 0.020046 -0.738170 0.000000 0.000000
    37 1.164475 -2.543940 -0.170330 -0.610671 -0.190582 0.231608
    38 0.024032 -1.129042 0.017807 -0.709819 0.000000 0.000001
    39 0.014898 -0.883989 -0.019848 -0.845482 0.000000 0.000000
    40 -0.586770 -1.264477 0.200161 0.029415 -0.425542 -2.676427
    41 1.522835 0.058681 0.016848 0.001410 0.008985 0.586077
    42 1.117947 0.048424 -0.005766 0.001267 -0.025174 0.005124
    43 -0.139399 -0.111698 0.014397 0.653621 -0.030687 1.580508
    44 -1.393470 8.839177 -0.239433 1.580804 -0.005023 -1.566847
  time 27
    0 -0.999830 1.628956 0.583997 0.000000 0.000000 0.000000
    1 9.356980 3.754207 -9.091558 6.190313 -1.647815 -0.117293
    2 -0.071918 -8.498730 -0.104137 0.165904 0.315475 0.060197
    3 3.877622 -5.248455 1.421663 0.246215 -3.194606 1.568953
    4 0.000000 0.000000 0.000000 0.000000 0.000000 0.000000
    5 -0.248228 2.512564 0.000000 0.000001 0.000000 1.570796
    6 4.320393 -1.031701 0.000001 -1.570795 -1.570796 0.000000
    7 4.110973 2.892190 0.000001 0.000000 0.000000 1.570796
    8 0.000000 -0.000002 0.000000 0.000001 0.000000 0.000000
    9 1.257180 8.762585 -0.153713 -1.570562 0.002683 -1.566807
    10 -0.488518 -2.755602 -0.228260 -0.871614 -0.202562 -0.209541
    11 0.039887 -1.479790 0.029854 -2.058953 0.000000 0.000001
    12 0.028786 -1.075731 -0.023109 -0.606330 0.000000 0.000000
    13 0.250027 -2.820665 -0.238396 -0.797118 -0.167517 -0.114938
    14 -0.049759 -1.680544 0.100479 -1.934765 0.000000 -0.000002
    15 -0.034142 -1.148312 0.084782 -0.925879 0.000000 0.000000
    16 0.957766 -2.746780 -0.090302 0.005849 -0.162684 0.097910
    17 -0.033420 -1.397129 -0.011257 -0.521003 0.000000 -0.000001
    18 -0.022360 -0.957436 0.018784 -0.975486 0.000000 0.000000
    19 -1.180681 -2.507217 -0.193859 -0.671429 -0.081516 -0.261329
    20 -0.024967 -1.123934 0.017597 -2.056303 0.000000 0.000001
    21 -0.020057 -0.890968 0.010090 -0.677843 0.000000 0.000000
    22 0.583510 -1.197277 0.185379 0.180209 -0.812077 -1.291294
    23 1.535927 0.010246 0.005009 -0.002964 -0.012979 -0.506650
    24 1.100771 0.004527 -0.010679 -0.015488 -0.004784 -1.694062
    25 0.120153 -0.050270 -0.054489 0.287569 3.110905 1.561085
    26 -0.505151 -12.168972 -10.013308 -1.204230 -5.089067 -0.357465
    27 0.096944 -8.450418 -0.009365 0.162477 -1.145436 -0.075755
    28 0.447953 -2.798986 -0.200443 -0.437412 -0.067958 0.142839
    29 -0.032909 -1.480204 0.004940 -1.165534 0.000000 0.000002
    30 -0.027022 -1.076920 -0.020210 -0.581968 0.000000 0.000000
    31 -0.249534 -2.846964 -0.174213 -0.128738 0.012411 0.088176
    32 0.043235 -1.683941 0.096012 -1.309101 0.002823 -0.000167
    33 0.031729 -1.160830 0.058838 -0.744926 0.000642 0.008372
    34 -0.963866 -2.785145 -0.085350 0.029537 0.160514 0.097512
    35 0.028479 -1.403067 0.006271 -0.585005 0.000000 0.000000
    36 0.021413 -0.957781 0.020046 -0.738170 0.000000 0.000000
    37 1.164475 -2.543940 -0.170330 -0.610671 -0.190582 0.231608
    38 0.024032 -1.129042 0.017807 -0.709819 0.000000 0.000001
    39 0.014898 -0.883989 -0.019848 -0.845482 0.000000 0.000000
    40 -0.586770 -1.264477 0.200161 0.029415 -0.425542 -2.676427
    41 1.522835 0.058681 0.016848 0.001410 0.008985 0.586077
    42 1.117947 0.048424 -0.005766 0.001267 -0.025174 0.005124
    43 -0.139399 -0.111698 0.014397 0.653621 -0.030687 1.580508
    44 -1.393470 8.839177 -0.239433 1.580804 -0.005023 -1.566847
  time 28
    0 -0.999830 1.628956 0.576184 0.000000 0.000000 0.000000
    1 9.341354 3.754207 -9.095464 6.174628 -1.638066 -0.100014
    2 -0.071918 -8.498730 -0.104137 0.164083 0.307982 0.058838
    3 3.877622 -5.248455 1.421663 0.246215 -3.194606 1.568953
    4 0.000000 0.000000 0.000000 0.000000 0.000000 0.000000
    5 -0.248228 2.512564 0.000000 0.000001 0.000000 1.570796
    6 4.320393 -1.031701 0.000001 -1.570795 -1.570796 0.000000
    7 4.110973 2.892190 0.000001 0.000000 0.000000 1.570796
    8 0.000000 -0.000002 0.000000 0.000001 0.000000 0.000000
    9 1.257180 8.762585 -0.153713 -1.570562 0.002683 -1.566807
    10 -0.488518 -2.755602 -0.228260 -0.871614 -0.202562 -0.209541
    11 0.039887 -1.479790 0.029854 -2.058953 0.000000 0.000001
    12 0.028786 -1.075731 -0.023109 -0.606330 0.000000 0.000000
    13 0.250027 -2.820665 -0.238396 -0.797118 -0.167517 -0.114938
    14 -0.049759 -1.680544 0.100479 -1.934765 0.000000 -0.000002
    15 -0.034142 -1.148312 0.084782 -0.925906 0.000000 0.000000
    16 0.957766 -2.746780 -0.090302 0.005849 -0.162684 0.097910
    17 -0.033420 -1.397129 -0.011257 -0.521003 0.000000 -0.000001
    18 -0.022360 -0.957436 0.018784 -0.975516 0.000000 0.000000
    19 -1.180681 -2.507217 -0.193859 -0.671429 -0.081516 -0.261329
    20 -0.024967 -1.123934 0.017597 -2.056303 0.000000 0.000001
    21 -0.020057 -0.890968 0.010090 -0.677843 0.000000 0.000000
    22 0.583510 -1.197277 0.185379 0.180209 -0.812077 -1.291294
    23 1.535927 0.010246 0.005009 -0.002964 -0.012979 -0.506650
    24 1.100771 0.004527 -0.010679 -0.015488 -0.004784 -1.694062
    25 0.120153 -0.050270 -0.054489 0.287569 3.110905 1.561085
    26 -0.505151 -12.172878 -10.013308 -1.202316 -5.086705 -0.355381
    27 0.096944 -8.450418 -0.009365 0.162477 -1.145436 -0.075755
    28 0.447953 -2.798986 -0.200443 -0.437412 -0.067958 0.142839
    29 -0.032909 -1.480204 0.004940 -1.165534 0.000000 0.000002
    30 -0.027022 -1.076920 -0.020210 -0.581968 0.000000 0.000000
    31 -0.249534 -2.846964 -0.174213 -0.128738 0.012411 0.088176
    32 0.043235 -1.683941 0.096012 -1.309101 0.002823 -0.000167
    33 0.031729 -1.160830 0.058838 -0.744926 0.000642 0.008372
    34 -0.963866 -2.785145 -0.085350 0.029537 0.160514 0.097512
    35 0.028479 -1.403067 0.006271 -0.585005 0.000000 0.000000
    36 0.021413 -0.957781 0.020046 -0.738170 0.000000 0.000000
    37 1.164475 -2.543940 -0.170330 -0.610671 -0.190582 0.231608
    38 0.024032 -1.129042 0.017807 -0.709819 0.000000 0.000001
    39 0.014898 -0.883989 -0.019848 -0.845482 0.000000 0.000000
    40 -0.586770 -1.264477 0.200161 0.029415 -0.425542 -2.676427
    41 1.522835 0.058681 0.016848 0.001410 0.008985 0.586077
    42 1.117947 0.048424 -0.005766 0.001267 -0.025174 0.005124
    43 -0.139399 -0.111698 0.014397 0.653621 -0.030687 1.580508
    44 -1.393470 8.839177 -0.239433 1.580804 -0.005023 -1.566847
  time 29
    0 -0.999830 1.628956 0.564465 0.000000 0.000000 0.000000
    1 9.294478 3.754207 -9.099371 6.155595 -1.626342 -0.076149
    2 -0.071918 -8.498730 -0.104137 0.159145 0.297260 0.056625
    3 3.877622 -5.248455 1.421663 0.246215 -3.194606 1.568953
    4 0.000000 0.000000 0.000000 0.000000 0.000000 0.000000
    5 -0.248228 2.512564 0.000000 0.000001 0.000000 1.570796
    6 4.320393 -1.031701 0.000001 -1.570795 -1.570796 0.000000
    7 4.110973 2.892190 0.000001 0.000000 0.000000 1.570796
    8 0.000000 -0.000002 0.000000 0.000001 0.000000 0.000000
    9 1.257180 8.762585 -0.153713 -1.570562 0.002683 -1.566807
    10 -0.488518 -2.755602 -0.228260 -0.871614 -0.202562 -0.209541
    11 0.039887 -1.479790 0.029854 -2.058953 0.000000 0.000001
    12 0.028786 -1.075731 -0.023109 -0.606330 0.000000 0.000000
    13 0.250027 -2.820665 -0.238396 -0.797118 -0.167517 -0.114938
    14 -0.049759 -1.680544 0.100479 -1.934765 0.000000 -0.000002
    15 -0.034142 -1.148312 0.084782 -0.925906 0.000000 0.000000
    16 0.957766 -2.746780 -0.090302 0.005849 -0.162684 0.097910
    17 -0.033420 -1.397129 -0.011257 -0.521003 0.000000 -0.000001
    18 -0.022360 -0.957436 0.018784 -0.975516 0.000000 0.000000
    19 -1.180681 -2.507217 -0.193859 -0.671429 -0.081516 -0.261329
    20 -0.024967 -1.123934 0.017597 -2.056303 0.000000 0.000001
    21 -0.020057 -0.890968 0.010090 -0.677843 0.000000 0.000000
    22 0.583510 -1.197277 0.185379 0.180209 -0.812077 -1.291294
    23 1.535927 0.010246 0.005009 -0.002964 -0.012979 -0.506650
    24 1.100771 0.004527 -0.010679 -0.015488 -0.004784 -1.694062
    25 0.120153 -0.050270 -0.054489 0.287569 3.110905 1.561085
    26 -0.512964 -12.184597 -10.021120 -1.200540 -5.085839 -0.353013
    27 0.096944 -8.450418 -0.009365 0.162477 -1.145436 -0.075755
    28 0.447953 -2.798986 -0.200443 -0.437412 -0.067958 0.142839
    29 -0.032909 -1.480204 0.004940 -1.165534 0.000000 0.000002
    30 -0.027022 -1.076920 -0.020210 -0.581968 0.000000 0.000000
    31 -0.249534 -2.846964 -0.174213 -0.128738 0.012411 0.088176
    32 0.043235 -1.683941 0.096012 -1.309101 0.002823 -0.000167
    33 0.031729 -1.160830 0.058838 -0.744926 0.000642 0.008372
    34 -0.963866 -2.785145 -0.085350 0.029537 0.160514 0.097512
    35 0.028479 -1.403067 0.006271 -0.585005 0.000000 0.000000
    36 0.021413 -0.957781 0.020046 -0.738170 0.000000 0.000000
    37 1.164475 -2.543940 -0.170330 -0.610671 -0.190582 0.231608
    38 0.024032 -1.129042 0.017807 -0.709819 0.000000 0.000001
    39 0.014898 -0.883989 -0.019848 -0.845482 0.000000 0.000000
    40 -0.586770 -1.264477 0.200161 0.029415 -0.425542 -2.676427
    41 1.522835 0.058681 0.016848 0.001410 0.008985 0.586077
    42 1.117947 0.048424 -0.005766 0.001267 -0.025174 0.005124
    43 -0.139399 -0.111698 0.014397 0.653621 -0.030687 1.580508
    44 -1.393470 8.839177 -0.239433 1.580804 -0.005023 -1.566847
  time 30
    0 -0.999830 1.628956 0.541027 0.000000 0.000000 0.000000
    1 9.216351 3.754207 -9.111090 6.133214 -1.612705 -0.045791
    2 -0.071918 -8.498730 -0.104137 0.151104 0.283297 0.053558
    3 3.877622 -5.248455 1.421663 0.246215 -3.194606 1.568953
    4 0.000000 0.000000 0.000000 0.000000 0.000000 0.000000
    5 -0.248228 2.512564 0.000000 0.000001 0.000000 1.570796
    6 4.320393 -1.031701 0.000001 -1.570795 -1.570796 0.000000
    7 4.110973 2.892190 0.000001 0.000000 0.000000 1.570796
    8 0.000000 -0.000002 0.000000 0.000001 0.000000 0.000000
    9 1.257180 8.762585 -0.153713 -1.570562 0.002683 -1.566807
    10 -0.488518 -2.755602 -0.228260 -0.871614 -0.202562 -0.209541
    11 0.039887 -1.479790 0.029854 -2.058953 0.000000 0.000001
    12 0.028786 -1.075731 -0.023109 -0.606330 0.000000 0.000000
    13 0.250027 -2.820665 -0.238396 -0.797118 -0.167517 -0.114938
    14 -0.049759 -1.680544 0.100479 -1.934765 0.000000 -0.000002
    15 -0.034142 -1.148312 0.084782 -0.925879 0.000000 0.000000
    16 0.957766 -2.746780 -0.090302 0.005849 -0.162684 0.097910
    17 -0.033420 -1.397129 -0.011257 -0.521003 0.000000 -0.000001
    18 -0.022360 -0.957436 0.018784 -0.975516 0.000000 0.000000
    19 -1.180681 -2.507217 -0.193859 -0.671429 -0.081516 -0.261329
    20 -0.024967 -1.123934 0.017597 -2.056303 0.000000 0.000001
    21 -0.020057 -0.890968 0.010090 -0.677843 0.000000 0.000000
    22 0.583510 -1.197277 0.185379 0.180209 -0.812077 -1.291294
    23 1.535927 0.010246 0.005009 -0.002964 -0.012979 -0.506650
    24 1.100771 0.004527 -0.010679 -0.015488 -0.004784 -1.694062
    25 0.120153 -0.050270 -0.054489 0.287569 3.110905 1.561085
    26 -0.516870 -12.208035 -10.032839 -1.199515 -5.086469 -0.350929
    27 0.096944 -8.450418 -0.009365 0.162477 -1.145436 -0.075755
    28 0.447953 -2.798986 -0.200443 -0.437412 -0.067958 0.142839
    29 -0.032909 -1.480204 0.004940 -1.165534 0.000000 0.000002
    30 -0.027022 -1.076920 -0.020210 -0.581968 0.000000 0.000000
    31 -0.249534 -2.846964 -0.174213 -0.128738 0.012411 0.088176
    32 0.043235 -1.683941 0.096012 -1.309101 0.002823 -0.000167
    33 0.031729 -1.160830 0.058838 -0.744926 0.000642 0.008372
    34 -0.963866 -2.785145 -0.085350 0.029537 0.160514 0.097512
    35 0.028479 -1.403067 0.006271 -0.585005 0.000000 0.000000
    36 0.021413 -0.957781 0.020046 -0.738170 0.000000 0.000000
    37 1.164475 -2.543940 -0.170330 -0.610671 -0.190582 0.231608
    38 0.024032 -1.129042 0.017807 -0.709819 0.000000 0.000001
    39 0.014898 -0.883989 -0.019848 -0.845482 0.000000 0.000000
    40 -0.586770 -1.264477 0.200161 0.029415 -0.425542 -2.676427
    41 1.522835 0.058681 0.016848 0.001410 0.008985 0.586077
    42 1.117947 0.048424 -0.005766 0.001267 -0.025174 0.005124
    43 -0.139399 -0.111698 0.014397 0.653621 -0.030687 1.580508
    44 -1.393470 8.839177 -0.239433 1.580804 -0.005023 -1.566847
end
