// Created by Crowbar 0.58

$modelname "weapons/tfa_cso/w_waterpistol.mdl"

$bodygroup "studio"
{
	studio "Waterpistol_REF"
}

$collisionmodel "Waterpistol_REF.smd"
{
	$mass 9
}

$CDMaterials "models\weapons\tfa_cso\waterpistol"

$attachment "0" "root" 0.00 -7.00 -0.50 rotate -0 -90 0

$sequence "idle" {
	"anims\idle"
	fps 30
}
