// Created by Crowbar 0.68

$modelname "weapons/tfa_cso/w_hegrenade.mdl"

$bodygroup "studio"
{
	studio "w_gren"
}

$collisionmodel "w_gren.smd"
{
	$mass 9
}

$CDMaterials "models\weapons\tfa_cso\hegrenade\"

$sequence "idle" {
	"w_hegrenade_anims\idle"
	fps 30
}
