// Created by Crowbar 0.34.0.0

$ModelName "weapons/tfa_cso/w_x-15.mdl"

$BodyGroup "studio"
{
	studio "v_kronos5_ef"
}

$collisionmodel "v_kronos5_ef.smd"
{
	$mass 9
}

$CDMaterials "models\weapons\tfa_cso\x-15"

$attachment "0" "root" 0.80 -12.50 0.10 rotate -0 0 -2

$Sequence "idle" {
	"anims\idle.smd"
	fps 30
}