// Created by Crowbar 0.34.0.0

$ModelName "weapons/tfa_cso/w_sl8.mdl"

$BodyGroup "studio"
{
	studio "v_sl8_f_sl8_template"
}

$collisionmodel "v_sl8_f_sl8_template.smd"
{
	$mass 9
}

$CDMaterials "models\weapons\tfa_cso\sl8\"

$attachment "0" "root" 0.00 -18.00 -0.80 rotate -0 0 0

$Sequence "idle" {
	"anims\idle.smd"
	fps 30
}