version 1
nodes
  0 "Bone01" -1
  1 "Bone_Lefthand" 0
  2 "Bone02" 1
  3 "Bone03" 2
  4 "Bone50" 3
  5 "Bone25" 3
  6 "Bone48" 3
  7 "Bone04" -1
  8 "Bone_Righthand" 7
  9 "Bone27" 8
  10 "Bone28" 9
  11 "Bone29" 10
  12 "Bone31" 8
  13 "Bone32" 12
  14 "Bone33" 13
  15 "Bone35" 8
  16 "Bone36" 15
  17 "Bone37" 16
  18 "Bone39" 8
  19 "Bone40" 18
  20 "Bone41" 19
  21 "Bone43" 8
  22 "Bone44" 21
  23 "Bone45" 22
  24 "Bone_Se_Hand-R" 8
  25 "Bone05" 1
  26 "Bone06" 25
  27 "Bone07" 26
  28 "Bone21" 1
  29 "Bone22" 28
  30 "Bone23" 29
  31 "Bone17" 1
  32 "Bone18" 31
  33 "Bone19" 32
  34 "Bone13" 1
  35 "Bone14" 34
  36 "Bone15" 35
  37 "Bone09" 1
  38 "Bone10" 37
  39 "Bone11" 38
  40 "Bone_Se_Hand-L" 1
end
skeleton
  time 0
    0 7.394315 4.638477 -7.973703 1.227443 -1.318429 -1.819441
    1 -0.071918 -8.498730 -0.104136 0.329398 -0.231804 -0.372130
    2 -0.376959 -3.448742 0.808508 -1.055308 1.425598 -1.076486
    3 0.000000 2.241500 1.549502 0.000000 0.000000 0.000000
    4 0.000000 -2.463371 2.261211 0.000000 0.000000 0.000000
    5 0.000000 -3.140381 0.680599 0.000000 0.000000 0.000000
    6 0.000000 -5.761764 0.714481 0.000000 0.000000 0.000000
    7 -7.558337 -1.141323 -10.688637 0.306703 0.226308 0.889049
    8 0.096946 -8.450419 -0.009363 0.639981 -0.828184 -0.005025
    9 -0.586769 -1.264477 0.200164 0.066863 -0.419239 -2.731787
    10 1.522835 0.058680 0.016850 -0.000011 0.000010 0.118522
    11 1.117947 0.048424 -0.005765 0.000000 0.000000 1.175345
    12 -0.963867 -2.785143 -0.085346 -0.710748 0.000001 -0.000001
    13 0.028478 -1.403067 0.006272 -0.692429 -0.000007 -0.000010
    14 0.021412 -0.957782 0.020047 -0.391772 -0.000003 -0.000008
    15 -0.249534 -2.846963 -0.174215 -0.810197 -0.000004 0.000010
    16 0.043235 -1.683940 0.096015 -0.926287 0.000001 0.000000
    17 0.031729 -1.160830 0.058836 -0.532362 0.000000 0.000000
    18 0.447951 -2.798983 -0.200441 -1.257854 0.046343 0.005340
    19 -0.032909 -1.480207 0.004935 -0.375265 0.000000 0.000000
    20 -0.027023 -1.076921 -0.020212 -0.453799 0.000000 0.000000
    21 1.164474 -2.543939 -0.170327 -0.541411 -0.008474 0.040009
    22 0.024033 -1.129040 0.017807 -1.602002 0.000000 -0.000001
    23 0.014896 -0.883992 -0.019846 -0.523607 0.000000 0.000000
    24 -0.095871 -0.159943 -0.103533 0.372506 0.352681 1.421822
    25 0.583509 -1.197274 0.185379 0.445269 -0.729595 -0.964282
    26 1.535926 0.010247 0.005009 -0.145284 -0.095326 -0.659564
    27 1.100770 0.004528 -0.010675 0.000000 0.000000 -0.764799
    28 0.957766 -2.746777 -0.090301 -0.124565 0.035585 0.131228
    29 -0.033419 -1.397128 -0.011255 -0.740022 0.000000 0.000000
    30 -0.022361 -0.957433 0.018783 -0.567778 0.000000 0.000000
    31 0.250029 -2.820664 -0.238396 -1.173776 0.124630 -0.038460
    32 -0.049759 -1.680544 0.100479 -1.895757 0.000000 0.000000
    33 -0.034141 -1.148311 0.084779 -0.962234 0.000000 0.000000
    34 -0.488517 -2.755600 -0.228261 -1.291960 -0.000003 -0.122179
    35 0.039889 -1.479791 0.029854 -1.660510 0.000000 0.000000
    36 0.028785 -1.075733 -0.023110 -1.186831 0.000000 0.000000
    37 -1.180679 -2.507216 -0.193861 -1.390534 0.102933 -0.174926
    38 -0.024967 -1.123934 0.017595 -1.403775 0.000000 0.000000
    39 -0.020058 -0.890965 0.010091 -1.542928 0.000000 0.000000
    40 0.120180 -0.051600 -0.063059 0.012085 -2.987703 1.512552
  time 1
    0 7.413846 4.700979 -7.774478 1.217174 -1.340498 -1.778289
    1 -0.071918 -8.498730 -0.104136 0.322182 -0.211118 -0.385791
    2 -0.376959 -3.448742 0.808508 -1.055308 1.425598 -1.076486
    3 0.000000 2.241500 1.549502 0.000000 0.000000 0.000000
    4 0.000000 -2.463371 2.261211 0.000000 0.000000 0.000000
    5 0.000000 -3.140381 0.680599 0.000000 0.000000 0.000000
    6 0.000000 -5.761764 0.714481 0.000000 0.000000 0.000000
    7 -7.417708 -1.461645 -11.270686 0.259976 0.227518 0.893820
    8 0.096946 -8.450419 -0.009363 0.580066 -0.804253 0.018885
    9 -0.586769 -1.264477 0.200164 0.069149 -0.430476 -2.738630
    10 1.522835 0.058680 0.016850 -0.000011 0.000010 0.121992
    11 1.117947 0.048424 -0.005765 0.000000 0.000000 1.159641
    12 -0.963867 -2.785143 -0.085346 -0.710748 0.000001 -0.000001
    13 0.028478 -1.403067 0.006272 -0.692429 -0.000007 -0.000010
    14 0.021412 -0.957782 0.020047 -0.391772 -0.000003 -0.000008
    15 -0.249534 -2.846963 -0.174215 -0.810197 -0.000004 0.000010
    16 0.043235 -1.683940 0.096015 -0.926287 0.000001 0.000000
    17 0.031729 -1.160830 0.058836 -0.532362 0.000000 0.000000
    18 0.447951 -2.798983 -0.200441 -1.257854 0.046343 0.005340
    19 -0.032909 -1.480207 0.004935 -0.375265 0.000000 0.000000
    20 -0.027023 -1.076921 -0.020212 -0.453799 0.000000 0.000000
    21 1.164474 -2.543939 -0.170327 -0.541411 -0.008474 0.040009
    22 0.024033 -1.129040 0.017807 -1.602002 0.000000 -0.000001
    23 0.014896 -0.883992 -0.019846 -0.523607 0.000000 0.000000
    24 -0.095871 -0.159943 -0.103533 0.372506 0.352681 1.421822
    25 0.583509 -1.197274 0.185379 0.446359 -0.732136 -0.965911
    26 1.535926 0.010247 0.005009 -0.146350 -0.093672 -0.648214
    27 1.100770 0.004528 -0.010675 0.000000 0.000000 -0.695964
    28 0.957766 -2.746777 -0.090301 -0.088053 0.035585 0.131228
    29 -0.033419 -1.397128 -0.011255 -0.747824 0.000000 0.000000
    30 -0.022361 -0.957433 0.018783 -0.566100 0.000000 0.000000
    31 0.250029 -2.820664 -0.238396 -1.173776 0.124630 -0.038460
    32 -0.049759 -1.680544 0.100479 -1.895757 0.000000 0.000000
    33 -0.034141 -1.148311 0.084779 -0.962234 0.000000 0.000000
    34 -0.488517 -2.755600 -0.228261 -1.291960 -0.000003 -0.122179
    35 0.039889 -1.479791 0.029854 -1.660510 0.000000 0.000000
    36 0.028785 -1.075733 -0.023110 -1.186831 0.000000 0.000000
    37 -1.180679 -2.507216 -0.193861 -1.390534 0.102933 -0.174926
    38 -0.024967 -1.123934 0.017595 -1.403775 0.000000 0.000000
    39 -0.020058 -0.890965 0.010091 -1.542928 0.000000 0.000000
    40 0.120180 -0.051600 -0.063059 0.012085 -2.987703 1.512552
  time 2
    0 7.437285 4.751762 -7.583066 1.204120 -1.362653 -1.733328
    1 -0.071918 -8.498730 -0.104136 0.314200 -0.189198 -0.404985
    2 -0.376959 -3.448742 0.808508 -1.055308 1.425598 -1.076486
    3 0.000000 2.241500 1.549502 0.000000 0.000000 0.000000
    4 0.000000 -2.463371 2.261211 0.000000 0.000000 0.000000
    5 0.000000 -3.140381 0.680599 0.000000 0.000000 0.000000
    6 0.000000 -5.761764 0.714481 0.000000 0.000000 0.000000
    7 -7.245827 -1.793686 -11.774608 0.213249 0.229007 0.898512
    8 0.096946 -8.450419 -0.009363 0.516631 -0.779281 0.040503
    9 -0.586769 -1.264477 0.200164 0.071888 -0.442568 -2.746524
    10 1.522835 0.058680 0.016850 -0.000011 0.000010 0.125622
    11 1.117947 0.048424 -0.005765 0.000000 0.000000 1.147401
    12 -0.963867 -2.785143 -0.085346 -0.710748 0.000001 -0.000001
    13 0.028478 -1.403067 0.006272 -0.692429 -0.000007 -0.000010
    14 0.021412 -0.957782 0.020047 -0.391772 -0.000003 -0.000008
    15 -0.249534 -2.846963 -0.174215 -0.810197 -0.000004 0.000010
    16 0.043235 -1.683940 0.096015 -0.926287 0.000001 0.000000
    17 0.031729 -1.160830 0.058836 -0.532362 0.000000 0.000000
    18 0.447951 -2.798983 -0.200441 -1.257854 0.046343 0.005340
    19 -0.032909 -1.480207 0.004935 -0.375265 0.000000 0.000000
    20 -0.027023 -1.076921 -0.020212 -0.453799 0.000000 0.000000
    21 1.164474 -2.543939 -0.170327 -0.541411 -0.008474 0.040009
    22 0.024033 -1.129040 0.017807 -1.602002 0.000000 -0.000001
    23 0.014896 -0.883992 -0.019846 -0.523607 0.000000 0.000000
    24 -0.095871 -0.159943 -0.103533 0.372506 0.352681 1.421822
    25 0.583509 -1.197274 0.185379 0.447582 -0.734964 -0.967745
    26 1.535926 0.010247 0.005009 -0.147525 -0.091802 -0.635559
    27 1.100770 0.004528 -0.010675 0.000000 0.000000 -0.619143
    28 0.957766 -2.746777 -0.090301 -0.048047 0.035585 0.131228
    29 -0.033419 -1.397128 -0.011255 -0.756309 0.000000 0.000000
    30 -0.022361 -0.957433 0.018783 -0.564278 0.000000 0.000000
    31 0.250029 -2.820664 -0.238396 -1.173776 0.124630 -0.038460
    32 -0.049759 -1.680544 0.100479 -1.895757 0.000000 0.000000
    33 -0.034141 -1.148311 0.084779 -0.962234 0.000000 0.000000
    34 -0.488517 -2.755600 -0.228261 -1.291960 -0.000003 -0.122179
    35 0.039889 -1.479791 0.029854 -1.660510 0.000000 0.000000
    36 0.028785 -1.075733 -0.023110 -1.186831 0.000000 0.000000
    37 -1.180679 -2.507216 -0.193861 -1.390534 0.102933 -0.174926
    38 -0.024967 -1.123934 0.017595 -1.403775 0.000000 0.000000
    39 -0.020058 -0.890965 0.010091 -1.542928 0.000000 0.000000
    40 0.120180 -0.051600 -0.063059 0.012085 -2.987703 1.512552
  time 3
    0 7.456817 4.794732 -7.411186 1.186308 -1.384807 -1.682962
    1 -0.071918 -8.498730 -0.104136 0.305579 -0.166751 -0.427006
    2 -0.376959 -3.448742 0.808508 -1.055308 1.425598 -1.076486
    3 0.000000 2.241500 1.549502 0.000000 0.000000 0.000000
    4 0.000000 -2.463371 2.261211 0.000000 0.000000 0.000000
    5 0.000000 -3.140381 0.680599 0.000000 0.000000 0.000000
    6 0.000000 -5.761764 0.714481 0.000000 0.000000 0.000000
    7 -7.046602 -2.141353 -12.200402 0.166589 0.230682 0.903124
    8 0.096946 -8.450419 -0.009363 0.452621 -0.753321 0.059469
    9 -0.586769 -1.264477 0.200164 0.075106 -0.455316 -2.755298
    10 1.522835 0.058680 0.016850 -0.000011 0.000010 0.129445
    11 1.117947 0.048424 -0.005765 0.000000 0.000000 1.137972
    12 -0.963867 -2.785143 -0.085346 -0.710748 0.000001 -0.000001
    13 0.028478 -1.403067 0.006272 -0.692429 -0.000007 -0.000010
    14 0.021412 -0.957782 0.020047 -0.391772 -0.000003 -0.000008
    15 -0.249534 -2.846963 -0.174215 -0.810197 -0.000004 0.000010
    16 0.043235 -1.683940 0.096015 -0.926287 0.000001 0.000000
    17 0.031729 -1.160830 0.058836 -0.532362 0.000000 0.000000
    18 0.447951 -2.798983 -0.200441 -1.257854 0.046343 0.005340
    19 -0.032909 -1.480207 0.004935 -0.375265 0.000000 0.000000
    20 -0.027023 -1.076921 -0.020212 -0.453799 0.000000 0.000000
    21 1.164474 -2.543939 -0.170327 -0.541411 -0.008474 0.040009
    22 0.024033 -1.129040 0.017807 -1.602002 0.000000 -0.000001
    23 0.014896 -0.883992 -0.019846 -0.523607 0.000000 0.000000
    24 -0.095871 -0.159943 -0.103533 0.372506 0.352681 1.421822
    25 0.583509 -1.197274 0.185379 0.448900 -0.737996 -0.969711
    26 1.535926 0.010247 0.005009 -0.148747 -0.089789 -0.622016
    27 1.100770 0.004528 -0.010675 0.000000 0.000000 -0.537009
    28 0.957766 -2.746777 -0.090301 -0.005335 0.035585 0.131228
    29 -0.033419 -1.397128 -0.011255 -0.765334 0.000000 0.000000
    30 -0.022361 -0.957433 0.018783 -0.562325 0.000000 0.000000
    31 0.250029 -2.820664 -0.238396 -1.173776 0.124630 -0.038460
    32 -0.049759 -1.680544 0.100479 -1.895757 0.000000 0.000000
    33 -0.034141 -1.148311 0.084779 -0.962234 0.000000 0.000000
    34 -0.488517 -2.755600 -0.228261 -1.291960 -0.000003 -0.122179
    35 0.039889 -1.479791 0.029854 -1.660510 0.000000 0.000000
    36 0.028785 -1.075733 -0.023110 -1.186831 0.000000 0.000000
    37 -1.180679 -2.507216 -0.193861 -1.390534 0.102933 -0.174926
    38 -0.024967 -1.123934 0.017595 -1.403775 0.000000 0.000000
    39 -0.020058 -0.890965 0.010091 -1.542928 0.000000 0.000000
    40 0.120180 -0.051600 -0.063059 0.012085 -2.987703 1.512552
  time 4
    0 7.476348 4.822077 -7.251025 1.160955 -1.406791 -1.624612
    1 -0.071918 -8.498730 -0.104136 0.296447 -0.144520 -0.449144
    2 -0.376959 -3.448742 0.808508 -1.055308 1.425598 -1.076486
    3 0.000000 2.241500 1.549502 0.000000 0.000000 0.000000
    4 0.000000 -2.463371 2.261211 0.000000 0.000000 0.000000
    5 0.000000 -3.140381 0.680599 0.000000 0.000000 0.000000
    6 0.000000 -5.761764 0.714481 0.000000 0.000000 0.000000
    7 -6.820033 -2.500739 -12.548069 0.119997 0.232636 0.907578
    8 0.096946 -8.450419 -0.009363 0.390820 -0.726528 0.075706
    9 -0.586769 -1.264477 0.200164 0.078696 -0.468574 -2.764829
    10 1.522835 0.058680 0.016850 -0.000011 0.000010 0.133397
    11 1.117947 0.048424 -0.005765 0.000000 0.000000 1.130702
    12 -0.963867 -2.785143 -0.085346 -0.710748 0.000001 -0.000001
    13 0.028478 -1.403067 0.006272 -0.692429 -0.000007 -0.000010
    14 0.021412 -0.957782 0.020047 -0.391772 -0.000003 -0.000008
    15 -0.249534 -2.846963 -0.174215 -0.810197 -0.000004 0.000010
    16 0.043235 -1.683940 0.096015 -0.926287 0.000001 0.000000
    17 0.031729 -1.160830 0.058836 -0.532362 0.000000 0.000000
    18 0.447951 -2.798983 -0.200441 -1.257854 0.046343 0.005340
    19 -0.032909 -1.480207 0.004935 -0.375265 0.000000 0.000000
    20 -0.027023 -1.076921 -0.020212 -0.453799 0.000000 0.000000
    21 1.164474 -2.543939 -0.170327 -0.541411 -0.008474 0.040009
    22 0.024033 -1.129040 0.017807 -1.602002 0.000000 -0.000001
    23 0.014896 -0.883992 -0.019846 -0.523607 0.000000 0.000000
    24 -0.095871 -0.159943 -0.103533 0.372506 0.352681 1.421822
    25 0.583509 -1.197274 0.185379 0.450278 -0.741124 -0.971760
    26 1.535926 0.010247 0.005009 -0.149981 -0.087692 -0.608054
    27 1.100770 0.004528 -0.010675 0.000000 0.000000 -0.452183
    28 0.957766 -2.746777 -0.090301 0.039259 0.035585 0.131228
    29 -0.033419 -1.397128 -0.011255 -0.774778 0.000000 0.000000
    30 -0.022361 -0.957433 0.018783 -0.560300 0.000000 0.000000
    31 0.250029 -2.820664 -0.238396 -1.173776 0.124630 -0.038460
    32 -0.049759 -1.680544 0.100479 -1.895757 0.000000 0.000000
    33 -0.034141 -1.148311 0.084779 -0.962234 0.000000 0.000000
    34 -0.488517 -2.755600 -0.228261 -1.291960 -0.000003 -0.122179
    35 0.039889 -1.479791 0.029854 -1.660510 0.000000 0.000000
    36 0.028785 -1.075733 -0.023110 -1.186831 0.000000 0.000000
    37 -1.180679 -2.507216 -0.193861 -1.390534 0.102933 -0.174926
    38 -0.024967 -1.123934 0.017595 -1.403775 0.000000 0.000000
    39 -0.020058 -0.890965 0.010091 -1.542928 0.000000 0.000000
    40 0.120180 -0.051600 -0.063059 0.012085 -2.987703 1.512552
  time 5
    0 7.491974 4.837702 -7.106489 1.123823 -1.428518 -1.554222
    1 -0.071918 -8.498730 -0.104136 0.287220 -0.123103 -0.468690
    2 -0.376959 -3.448742 0.808508 -1.055308 1.425598 -1.076486
    3 0.000000 2.241500 1.549502 0.000000 0.000000 0.000000
    4 0.000000 -2.463371 2.261211 0.000000 0.000000 0.000000
    5 0.000000 -3.140381 0.680599 0.000000 0.000000 0.000000
    6 0.000000 -5.761764 0.714481 0.000000 0.000000 0.000000
    7 -6.562213 -2.875750 -12.813702 0.073404 0.234683 0.911951
    8 0.096946 -8.450419 -0.009363 0.333779 -0.699189 0.089423
    9 -0.586769 -1.264477 0.200164 0.082658 -0.482176 -2.774898
    10 1.522835 0.058680 0.016850 -0.000011 0.000010 0.137413
    11 1.117947 0.048424 -0.005765 0.000000 0.000000 1.124937
    12 -0.963867 -2.785143 -0.085346 -0.710748 0.000001 -0.000001
    13 0.028478 -1.403067 0.006272 -0.692429 -0.000007 -0.000010
    14 0.021412 -0.957782 0.020047 -0.391772 -0.000003 -0.000008
    15 -0.249534 -2.846963 -0.174215 -0.810197 -0.000004 0.000010
    16 0.043235 -1.683940 0.096015 -0.926287 0.000001 0.000000
    17 0.031729 -1.160830 0.058836 -0.532362 0.000000 0.000000
    18 0.447951 -2.798983 -0.200441 -1.257854 0.046343 0.005340
    19 -0.032909 -1.480207 0.004935 -0.375265 0.000000 0.000000
    20 -0.027023 -1.076921 -0.020212 -0.453799 0.000000 0.000000
    21 1.164474 -2.543939 -0.170327 -0.541411 -0.008474 0.040009
    22 0.024033 -1.129040 0.017807 -1.602002 0.000000 -0.000001
    23 0.014896 -0.883992 -0.019846 -0.523607 0.000000 0.000000
    24 -0.095871 -0.159943 -0.103533 0.372506 0.352681 1.421822
    25 0.583509 -1.197274 0.185379 0.451668 -0.744252 -0.973809
    26 1.535926 0.010247 0.005009 -0.151192 -0.085582 -0.594092
    27 1.100770 0.004528 -0.010675 0.000000 0.000000 -0.367357
    28 0.957766 -2.746777 -0.090301 0.084928 0.035585 0.131228
    29 -0.033419 -1.397128 -0.011255 -0.784497 0.000000 0.000000
    30 -0.022361 -0.957433 0.018783 -0.558202 0.000000 0.000000
    31 0.250029 -2.820664 -0.238396 -1.173776 0.124630 -0.038460
    32 -0.049759 -1.680544 0.100479 -1.895757 0.000000 0.000000
    33 -0.034141 -1.148311 0.084779 -0.962234 0.000000 0.000000
    34 -0.488517 -2.755600 -0.228261 -1.291960 -0.000003 -0.122179
    35 0.039889 -1.479791 0.029854 -1.660510 0.000000 0.000000
    36 0.028785 -1.075733 -0.023110 -1.186831 0.000000 0.000000
    37 -1.180679 -2.507216 -0.193861 -1.390534 0.102933 -0.174926
    38 -0.024967 -1.123934 0.017595 -1.403775 0.000000 0.000000
    39 -0.020058 -0.890965 0.010091 -1.542928 0.000000 0.000000
    40 0.120180 -0.051600 -0.063059 0.012085 -2.987703 1.512552
  time 6
    0 7.507599 4.845515 -6.977579 1.067778 -1.449774 -1.464915
    1 -0.071918 -8.498730 -0.104136 0.278408 -0.103089 -0.482952
    2 -0.376959 -3.448742 0.808508 -1.055308 1.425598 -1.076486
    3 0.000000 2.241500 1.549502 0.000000 0.000000 0.000000
    4 0.000000 -2.463371 2.261211 0.000000 0.000000 0.000000
    5 0.000000 -3.140381 0.680599 0.000000 0.000000 0.000000
    6 0.000000 -5.761764 0.714481 0.000000 0.000000 0.000000
    7 -6.280954 -3.258575 -13.001208 0.026879 0.237010 0.916246
    8 0.096946 -8.450419 -0.009363 0.283993 -0.671590 0.100942
    9 -0.586769 -1.264477 0.200164 0.086913 -0.495943 -2.785359
    10 1.522835 0.058680 0.016850 -0.000011 0.000010 0.141461
    11 1.117947 0.048424 -0.005765 0.000000 0.000000 1.120053
    12 -0.963867 -2.785143 -0.085346 -0.710748 0.000001 -0.000001
    13 0.028478 -1.403067 0.006272 -0.692429 -0.000007 -0.000010
    14 0.021412 -0.957782 0.020047 -0.391772 -0.000003 -0.000008
    15 -0.249534 -2.846963 -0.174215 -0.810197 -0.000004 0.000010
    16 0.043235 -1.683940 0.096015 -0.926287 0.000001 0.000000
    17 0.031729 -1.160830 0.058836 -0.532362 0.000000 0.000000
    18 0.447951 -2.798983 -0.200441 -1.257854 0.046343 0.005340
    19 -0.032909 -1.480207 0.004935 -0.375265 0.000000 0.000000
    20 -0.027023 -1.076921 -0.020212 -0.453799 0.000000 0.000000
    21 1.164474 -2.543939 -0.170327 -0.541411 -0.008474 0.040009
    22 0.024033 -1.129040 0.017807 -1.602002 0.000000 -0.000001
    23 0.014896 -0.883992 -0.019846 -0.523607 0.000000 0.000000
    24 -0.095871 -0.159943 -0.103533 0.372506 0.352681 1.421822
    25 0.583509 -1.197274 0.185379 0.453023 -0.747260 -0.975811
    26 1.535926 0.010247 0.005009 -0.152330 -0.083533 -0.580573
    27 1.100770 0.004528 -0.010675 0.000000 0.000000 -0.285205
    28 0.957766 -2.746777 -0.090301 0.130884 0.035585 0.131228
    29 -0.033419 -1.397128 -0.011255 -0.794348 0.000000 0.000000
    30 -0.022361 -0.957433 0.018783 -0.556081 0.000000 0.000000
    31 0.250029 -2.820664 -0.238396 -1.173776 0.124630 -0.038460
    32 -0.049759 -1.680544 0.100479 -1.895757 0.000000 0.000000
    33 -0.034141 -1.148311 0.084779 -0.962234 0.000000 0.000000
    34 -0.488517 -2.755600 -0.228261 -1.291960 -0.000003 -0.122179
    35 0.039889 -1.479791 0.029854 -1.660510 0.000000 0.000000
    36 0.028785 -1.075733 -0.023110 -1.186831 0.000000 0.000000
    37 -1.180679 -2.507216 -0.193861 -1.390534 0.102933 -0.174926
    38 -0.024967 -1.123934 0.017595 -1.403775 0.000000 0.000000
    39 -0.020058 -0.890965 0.010091 -1.542928 0.000000 0.000000
    40 0.120180 -0.051600 -0.063059 0.012085 -2.987703 1.512552
  time 7
    0 7.519318 4.837702 -6.860388 0.981041 -1.470132 -1.345143
    1 -0.071918 -8.498730 -0.104136 0.270553 -0.085004 -0.489155
    2 -0.376959 -3.448742 0.808508 -1.055308 1.425598 -1.076486
    3 0.000000 2.241500 1.549502 0.000000 0.000000 0.000000
    4 0.000000 -2.463371 2.261211 0.000000 0.000000 0.000000
    5 0.000000 -3.140381 0.680599 0.000000 0.000000 0.000000
    6 0.000000 -5.761764 0.714481 0.000000 0.000000 0.000000
    7 -5.968445 -3.657024 -13.110586 -0.019713 0.239522 0.920381
    8 0.096946 -8.450419 -0.009363 0.243799 -0.644017 0.110851
    9 -0.586769 -1.264477 0.200164 0.091407 -0.509710 -2.796039
    10 1.522835 0.058680 0.016850 -0.000011 0.000010 0.145541
    11 1.117947 0.048424 -0.005765 0.000000 0.000000 1.115395
    12 -0.963867 -2.785143 -0.085346 -0.710748 0.000001 -0.000001
    13 0.028478 -1.403067 0.006272 -0.692429 -0.000007 -0.000010
    14 0.021412 -0.957782 0.020047 -0.391772 -0.000003 -0.000008
    15 -0.249534 -2.846963 -0.174215 -0.810197 -0.000004 0.000010
    16 0.043235 -1.683940 0.096015 -0.926287 0.000001 0.000000
    17 0.031729 -1.160830 0.058836 -0.532362 0.000000 0.000000
    18 0.447951 -2.798983 -0.200441 -1.257854 0.046343 0.005340
    19 -0.032909 -1.480207 0.004935 -0.375265 0.000000 0.000000
    20 -0.027023 -1.076921 -0.020212 -0.453799 0.000000 0.000000
    21 1.164474 -2.543939 -0.170327 -0.541411 -0.008474 0.040009
    22 0.024033 -1.129040 0.017807 -1.602002 0.000000 -0.000001
    23 0.014896 -0.883992 -0.019846 -0.523607 0.000000 0.000000
    24 -0.095871 -0.159943 -0.103533 0.372506 0.352681 1.421822
    25 0.583509 -1.197274 0.185379 0.454305 -0.750088 -0.977692
    26 1.535926 0.010247 0.005009 -0.153373 -0.081591 -0.567942
    27 1.100770 0.004528 -0.010675 0.000000 0.000000 -0.208384
    28 0.957766 -2.746777 -0.090301 0.176284 0.035585 0.131228
    29 -0.033419 -1.397128 -0.011255 -0.804212 0.000000 0.000000
    30 -0.022361 -0.957433 0.018783 -0.553960 0.000000 0.000000
    31 0.250029 -2.820664 -0.238396 -1.173776 0.124630 -0.038460
    32 -0.049759 -1.680544 0.100479 -1.895757 0.000000 0.000000
    33 -0.034141 -1.148311 0.084779 -0.962234 0.000000 0.000000
    34 -0.488517 -2.755600 -0.228261 -1.291960 -0.000003 -0.122179
    35 0.039889 -1.479791 0.029854 -1.660510 0.000000 0.000000
    36 0.028785 -1.075733 -0.023110 -1.186831 0.000000 0.000000
    37 -1.180679 -2.507216 -0.193861 -1.390534 0.102933 -0.174926
    38 -0.024967 -1.123934 0.017595 -1.403775 0.000000 0.000000
    39 -0.020058 -0.890965 0.010091 -1.542928 0.000000 0.000000
    40 0.120180 -0.051600 -0.063059 0.012085 -2.987703 1.512552
  time 8
    0 7.531038 4.822077 -6.758822 0.843017 -1.488737 -1.174391
    1 -0.071918 -8.498730 -0.104136 0.264359 -0.069341 -0.484591
    2 -0.376959 -3.448742 0.808508 -1.055308 1.425598 -1.076486
    3 0.000000 2.241500 1.549502 0.000000 0.000000 0.000000
    4 0.000000 -2.463371 2.261211 0.000000 0.000000 0.000000
    5 0.000000 -3.140381 0.680599 0.000000 0.000000 0.000000
    6 0.000000 -5.761764 0.714481 0.000000 0.000000 0.000000
    7 -5.628590 -4.071099 -13.137931 -0.066373 0.242128 0.924436
    8 0.096946 -8.450419 -0.009363 0.215493 -0.616835 0.119813
    9 -0.586769 -1.264477 0.200164 0.096034 -0.523346 -2.806743
    10 1.522835 0.058680 0.016850 -0.000011 0.000010 0.149621
    11 1.117947 0.048424 -0.005765 0.000000 0.000000 1.110283
    12 -0.963867 -2.785143 -0.085346 -0.710748 0.000001 -0.000001
    13 0.028478 -1.403067 0.006272 -0.692429 -0.000007 -0.000010
    14 0.021412 -0.957782 0.020047 -0.391772 -0.000003 -0.000008
    15 -0.249534 -2.846963 -0.174215 -0.810197 -0.000004 0.000010
    16 0.043235 -1.683940 0.096015 -0.926287 0.000001 0.000000
    17 0.031729 -1.160830 0.058836 -0.532362 0.000000 0.000000
    18 0.447951 -2.798983 -0.200441 -1.257854 0.046343 0.005340
    19 -0.032909 -1.480207 0.004935 -0.375265 0.000000 0.000000
    20 -0.027023 -1.076921 -0.020212 -0.453799 0.000000 0.000000
    21 1.164474 -2.543939 -0.170327 -0.541411 -0.008474 0.040009
    22 0.024033 -1.129040 0.017807 -1.602002 0.000000 -0.000001
    23 0.014896 -0.883992 -0.019846 -0.523607 0.000000 0.000000
    24 -0.095871 -0.159943 -0.103533 0.372506 0.352681 1.421822
    25 0.583509 -1.197274 0.185379 0.455467 -0.752617 -0.979382
    26 1.535926 0.010247 0.005009 -0.154296 -0.079842 -0.556616
    27 1.100770 0.004528 -0.010675 0.000000 0.000000 -0.139549
    28 0.957766 -2.746777 -0.090301 0.220340 0.035585 0.131228
    29 -0.033419 -1.397128 -0.011255 -0.813931 0.000000 0.000000
    30 -0.022361 -0.957433 0.018783 -0.551862 0.000000 0.000000
    31 0.250029 -2.820664 -0.238396 -1.173776 0.124630 -0.038460
    32 -0.049759 -1.680544 0.100479 -1.895757 0.000000 0.000000
    33 -0.034141 -1.148311 0.084779 -0.962234 0.000000 0.000000
    34 -0.488517 -2.755600 -0.228261 -1.291960 -0.000003 -0.122179
    35 0.039889 -1.479791 0.029854 -1.660510 0.000000 0.000000
    36 0.028785 -1.075733 -0.023110 -1.186831 0.000000 0.000000
    37 -1.180679 -2.507216 -0.193861 -1.390534 0.102933 -0.174926
    38 -0.024967 -1.123934 0.017595 -1.403775 0.000000 0.000000
    39 -0.020058 -0.890965 0.010091 -1.542928 0.000000 0.000000
    40 0.120180 -0.051600 -0.063059 0.012085 -2.987703 1.512552
  time 9
    0 7.538850 4.794732 -6.676788 0.621679 -1.504134 -0.921149
    1 -0.071918 -8.498730 -0.104136 0.260560 -0.056637 -0.466466
    2 -0.376959 -3.448742 0.808508 -1.055308 1.425598 -1.076486
    3 0.000000 2.241500 1.549502 0.000000 0.000000 0.000000
    4 0.000000 -2.463371 2.261211 0.000000 0.000000 0.000000
    5 0.000000 -3.140381 0.680599 0.000000 0.000000 0.000000
    6 0.000000 -5.761764 0.714481 0.000000 0.000000 0.000000
    7 -5.257485 -4.496894 -13.087148 -0.113032 0.245013 0.928333
    8 0.096946 -8.450419 -0.009363 0.201287 -0.590380 0.128699
    9 -0.586769 -1.264477 0.200164 0.100714 -0.536686 -2.817277
    10 1.522835 0.058680 0.016850 -0.000011 0.000010 0.153605
    11 1.117947 0.048424 -0.005765 0.000000 0.000000 1.104092
    12 -0.963867 -2.785143 -0.085346 -0.710748 0.000001 -0.000001
    13 0.028478 -1.403067 0.006272 -0.692429 -0.000007 -0.000010
    14 0.021412 -0.957782 0.020047 -0.391772 -0.000003 -0.000008
    15 -0.249534 -2.846963 -0.174215 -0.810197 -0.000004 0.000010
    16 0.043235 -1.683940 0.096015 -0.926287 0.000001 0.000000
    17 0.031729 -1.160830 0.058836 -0.532362 0.000000 0.000000
    18 0.447951 -2.798983 -0.200441 -1.257854 0.046343 0.005340
    19 -0.032909 -1.480207 0.004935 -0.375265 0.000000 0.000000
    20 -0.027023 -1.076921 -0.020212 -0.453799 0.000000 0.000000
    21 1.164474 -2.543939 -0.170327 -0.541411 -0.008474 0.040009
    22 0.024033 -1.129040 0.017807 -1.602002 0.000000 -0.000001
    23 0.014896 -0.883992 -0.019846 -0.523607 0.000000 0.000000
    24 -0.095871 -0.159943 -0.103533 0.372506 0.352681 1.421822
    25 0.583509 -1.197274 0.185379 0.456450 -0.754762 -0.980820
    26 1.535926 0.010247 0.005009 -0.155051 -0.078356 -0.547052
    27 1.100770 0.004528 -0.010675 0.000000 0.000000 -0.081375
    28 0.957766 -2.746777 -0.090301 0.262247 0.035585 0.131228
    29 -0.033419 -1.397128 -0.011255 -0.823375 0.000000 0.000000
    30 -0.022361 -0.957433 0.018783 -0.549825 0.000000 0.000000
    31 0.250029 -2.820664 -0.238396 -1.173776 0.124630 -0.038460
    32 -0.049759 -1.680544 0.100479 -1.895757 0.000000 0.000000
    33 -0.034141 -1.148311 0.084779 -0.962234 0.000000 0.000000
    34 -0.488517 -2.755600 -0.228261 -1.291960 -0.000003 -0.122179
    35 0.039889 -1.479791 0.029854 -1.660510 0.000000 0.000000
    36 0.028785 -1.075733 -0.023110 -1.186831 0.000000 0.000000
    37 -1.180679 -2.507216 -0.193861 -1.390534 0.102933 -0.174926
    38 -0.024967 -1.123934 0.017595 -1.403775 0.000000 0.000000
    39 -0.020058 -0.890965 0.010091 -1.542928 0.000000 0.000000
    40 0.120180 -0.051600 -0.063059 0.012085 -2.987703 1.512552
  time 10
    0 7.546663 4.751762 -6.602567 0.290514 -1.513458 -0.558762
    1 -0.071918 -8.498730 -0.104136 0.259666 -0.051304 -0.450598
    2 -0.376959 -3.448742 0.808508 -1.055308 1.425598 -1.076486
    3 0.000000 2.241500 1.549502 0.000000 0.000000 0.000000
    4 0.000000 -2.463371 2.261211 0.000000 0.000000 0.000000
    5 0.000000 -3.140381 0.680599 0.000000 0.000000 0.000000
    6 0.000000 -5.761764 0.714481 0.000000 0.000000 0.000000
    7 -4.862942 -4.934407 -12.958238 -0.159760 0.247991 0.932150
    8 0.096946 -8.450419 -0.009363 0.213661 -0.564420 0.139271
    9 -0.586769 -1.264477 0.200164 0.105341 -0.549565 -2.827419
    10 1.522835 0.058680 0.016850 -0.000011 0.000010 0.157492
    11 1.117947 0.048424 -0.005765 0.000000 0.000000 1.096169
    12 -0.963867 -2.785143 -0.085346 -0.710748 0.000001 -0.000001
    13 0.028478 -1.403067 0.006272 -0.692429 -0.000007 -0.000010
    14 0.021412 -0.957782 0.020047 -0.391772 -0.000003 -0.000008
    15 -0.249534 -2.846963 -0.174215 -0.810197 -0.000004 0.000010
    16 0.043235 -1.683940 0.096015 -0.926287 0.000001 0.000000
    17 0.031729 -1.160830 0.058836 -0.532362 0.000000 0.000000
    18 0.447951 -2.798983 -0.200441 -1.257854 0.046343 0.005340
    19 -0.032909 -1.480207 0.004935 -0.375265 0.000000 0.000000
    20 -0.027023 -1.076921 -0.020212 -0.453799 0.000000 0.000000
    21 1.164474 -2.543939 -0.170327 -0.541411 -0.008474 0.040009
    22 0.024033 -1.129040 0.017807 -1.602002 0.000000 -0.000001
    23 0.014896 -0.883992 -0.019846 -0.523607 0.000000 0.000000
    24 -0.095871 -0.159943 -0.103533 0.372506 0.352681 1.421822
    25 0.583509 -1.197274 0.185379 0.457205 -0.756404 -0.981935
    26 1.535926 0.010247 0.005009 -0.155614 -0.077205 -0.539682
    27 1.100770 0.004528 -0.010675 0.000000 0.000000 -0.036519
    28 0.957766 -2.746777 -0.090301 0.301177 0.035585 0.131228
    29 -0.033419 -1.397128 -0.011255 -0.832400 0.000000 0.000000
    30 -0.022361 -0.957433 0.018783 -0.547884 0.000000 0.000000
    31 0.250029 -2.820664 -0.238396 -1.173776 0.124630 -0.038460
    32 -0.049759 -1.680544 0.100479 -1.895757 0.000000 0.000000
    33 -0.034141 -1.148311 0.084779 -0.962234 0.000000 0.000000
    34 -0.488517 -2.755600 -0.228261 -1.291960 -0.000003 -0.122179
    35 0.039889 -1.479791 0.029854 -1.660510 0.000000 0.000000
    36 0.028785 -1.075733 -0.023110 -1.186831 0.000000 0.000000
    37 -1.180679 -2.507216 -0.193861 -1.390534 0.102933 -0.174926
    38 -0.024967 -1.123934 0.017595 -1.403775 0.000000 0.000000
    39 -0.020058 -0.890965 0.010091 -1.542928 0.000000 0.000000
    40 0.120180 -0.051600 -0.063059 0.012085 -2.987703 1.512552
  time 11
    0 7.554476 4.700979 -6.547878 -0.103717 -1.513672 -0.134338
    1 -0.071918 -8.498730 -0.104136 0.260464 -0.046606 -0.417325
    2 -0.376959 -3.448742 0.808508 -1.055308 1.425598 -1.076486
    3 0.000000 2.241500 1.549502 0.000000 0.000000 0.000000
    4 0.000000 -2.463371 2.261211 0.000000 0.000000 0.000000
    5 0.000000 -3.140381 0.680599 0.000000 0.000000 0.000000
    6 0.000000 -5.761764 0.714481 0.000000 0.000000 0.000000
    7 -4.405897 -5.387546 -12.704324 -0.206622 0.251248 0.935888
    8 0.096946 -8.450419 -0.009363 0.255419 -0.539370 0.153026
    9 -0.586769 -1.264477 0.200164 0.109808 -0.561837 -2.836975
    10 1.522835 0.058680 0.016850 -0.000011 0.000010 0.161283
    11 1.117947 0.048424 -0.005765 0.000000 0.000000 1.085889
    12 -0.963867 -2.785143 -0.085346 -0.710748 0.000001 -0.000001
    13 0.028478 -1.403067 0.006272 -0.692429 -0.000007 -0.000010
    14 0.021412 -0.957782 0.020047 -0.391772 -0.000003 -0.000008
    15 -0.249534 -2.846963 -0.174215 -0.810197 -0.000004 0.000010
    16 0.043235 -1.683940 0.096015 -0.926287 0.000001 0.000000
    17 0.031729 -1.160830 0.058836 -0.532362 0.000000 0.000000
    18 0.447951 -2.798983 -0.200441 -1.257854 0.046343 0.005340
    19 -0.032909 -1.480207 0.004935 -0.375265 0.000000 0.000000
    20 -0.027023 -1.076921 -0.020212 -0.453799 0.000000 0.000000
    21 1.164474 -2.543939 -0.170327 -0.541411 -0.008474 0.040009
    22 0.024033 -1.129040 0.017807 -1.602002 0.000000 -0.000001
    23 0.014896 -0.883992 -0.019846 -0.523607 0.000000 0.000000
    24 -0.095871 -0.159943 -0.103533 0.372506 0.352681 1.421822
    25 0.583509 -1.197274 0.185379 0.457697 -0.757471 -0.982654
    26 1.535926 0.010247 0.005009 -0.155986 -0.076462 -0.534936
    27 1.100770 0.004528 -0.010675 0.000000 0.000000 -0.007653
    28 0.957766 -2.746777 -0.090301 0.336345 0.035585 0.131228
    29 -0.033419 -1.397128 -0.011255 -0.840885 0.000000 0.000000
    30 -0.022361 -0.957433 0.018783 -0.546062 0.000000 0.000000
    31 0.250029 -2.820664 -0.238396 -1.173776 0.124630 -0.038460
    32 -0.049759 -1.680544 0.100479 -1.895757 0.000000 0.000000
    33 -0.034141 -1.148311 0.084779 -0.962234 0.000000 0.000000
    34 -0.488517 -2.755600 -0.228261 -1.291960 -0.000003 -0.122179
    35 0.039889 -1.479791 0.029854 -1.660510 0.000000 0.000000
    36 0.028785 -1.075733 -0.023110 -1.186831 0.000000 0.000000
    37 -1.180679 -2.507216 -0.193861 -1.390534 0.102933 -0.174926
    38 -0.024967 -1.123934 0.017595 -1.403775 0.000000 0.000000
    39 -0.020058 -0.890965 0.010091 -1.542928 0.000000 0.000000
    40 0.120180 -0.051600 -0.063059 0.012085 -2.987703 1.512552
  time 12
    0 7.558382 4.638477 -6.504908 -0.438422 -1.504562 0.229278
    1 -0.071918 -8.498730 -0.104136 0.263784 -0.047553 -0.378868
    2 -0.376959 -3.448742 0.808508 -1.055308 1.425598 -1.076486
    3 0.000000 2.241500 1.549502 0.000000 0.000000 0.000000
    4 0.000000 -2.463371 2.261211 0.000000 0.000000 0.000000
    5 0.000000 -3.140381 0.680599 0.000000 0.000000 0.000000
    6 0.000000 -5.761764 0.714481 0.000000 0.000000 0.000000
    7 -3.886350 -5.860217 -12.325406 -0.253619 0.254598 0.939387
    8 0.096946 -8.450419 -0.009363 0.314633 -0.516453 0.169794
    9 -0.586769 -1.264477 0.200164 0.113957 -0.573354 -2.845700
    10 1.522835 0.058680 0.016850 -0.000011 0.000010 0.164881
    11 1.117947 0.048424 -0.005765 0.000000 0.000000 1.072541
    12 -0.963867 -2.785143 -0.085346 -0.710748 0.000001 -0.000001
    13 0.028478 -1.403067 0.006272 -0.692429 -0.000007 -0.000010
    14 0.021412 -0.957782 0.020047 -0.391772 -0.000003 -0.000008
    15 -0.249534 -2.846963 -0.174215 -0.810197 -0.000004 0.000010
    16 0.043235 -1.683940 0.096015 -0.926287 0.000001 0.000000
    17 0.031729 -1.160830 0.058836 -0.532362 0.000000 0.000000
    18 0.447951 -2.798983 -0.200441 -1.257854 0.046343 0.005340
    19 -0.032909 -1.480207 0.004935 -0.375265 0.000000 0.000000
    20 -0.027023 -1.076921 -0.020212 -0.453799 0.000000 0.000000
    21 1.164474 -2.543939 -0.170327 -0.541411 -0.008474 0.040009
    22 0.024033 -1.129040 0.017807 -1.602002 0.000000 -0.000001
    23 0.014896 -0.883992 -0.019846 -0.523607 0.000000 0.000000
    24 -0.095871 -0.159943 -0.103533 0.372506 0.352681 1.421822
    25 0.583509 -1.197274 0.185379 0.457876 -0.757843 -0.982906
    26 1.535926 0.010247 0.005009 -0.156118 -0.076198 -0.533258
    27 1.100770 0.004528 -0.010675 0.000000 0.000000 0.002547
    28 0.957766 -2.746777 -0.090301 0.366926 0.035585 0.131228
    29 -0.033419 -1.397128 -0.011255 -0.848687 0.000000 0.000000
    30 -0.022361 -0.957433 0.018783 -0.544372 0.000000 0.000000
    31 0.250029 -2.820664 -0.238396 -1.173776 0.124630 -0.038460
    32 -0.049759 -1.680544 0.100479 -1.895757 0.000000 0.000000
    33 -0.034141 -1.148311 0.084779 -0.962234 0.000000 0.000000
    34 -0.488517 -2.755600 -0.228261 -1.291960 -0.000003 -0.122179
    35 0.039889 -1.479791 0.029854 -1.660510 0.000000 0.000000
    36 0.028785 -1.075733 -0.023110 -1.186831 0.000000 0.000000
    37 -1.180679 -2.507216 -0.193861 -1.390534 0.102933 -0.174926
    38 -0.024967 -1.123934 0.017595 -1.403775 0.000000 0.000000
    39 -0.020058 -0.890965 0.010091 -1.542928 0.000000 0.000000
    40 0.120180 -0.051600 -0.063059 0.012085 -2.987703 1.512552
  time 13
    0 7.558382 4.544724 -6.485376 -0.661384 -1.489165 0.479633
    1 -0.071918 -8.498730 -0.104136 0.268893 -0.053125 -0.335931
    2 -0.376959 -3.448742 0.808508 -1.055308 1.425598 -1.076486
    3 0.000000 2.241500 1.549502 0.000000 0.000000 0.000000
    4 0.000000 -2.463371 2.261211 0.000000 0.000000 0.000000
    5 0.000000 -3.140381 0.680599 0.000000 0.000000 0.000000
    6 0.000000 -5.761764 0.714481 0.000000 0.000000 0.000000
    7 -3.358990 -6.340700 -11.891799 -0.300750 0.258134 0.942886
    8 0.096946 -8.450419 -0.009363 0.379703 -0.496528 0.188627
    9 -0.586769 -1.264477 0.200164 0.117680 -0.583983 -2.853350
    10 1.522835 0.058680 0.016850 -0.000011 0.000010 0.168255
    11 1.117947 0.048424 -0.005765 0.000000 0.000000 1.055558
    12 -0.963867 -2.785143 -0.085346 -0.710748 0.000001 -0.000001
    13 0.028478 -1.403067 0.006272 -0.692429 -0.000007 -0.000010
    14 0.021412 -0.957782 0.020047 -0.391772 -0.000003 -0.000008
    15 -0.249534 -2.846963 -0.174215 -0.810197 -0.000004 0.000010
    16 0.043235 -1.683940 0.096015 -0.926287 0.000001 0.000000
    17 0.031729 -1.160830 0.058836 -0.532362 0.000000 0.000000
    18 0.447951 -2.798983 -0.200441 -1.257854 0.046343 0.005340
    19 -0.032909 -1.480207 0.004935 -0.375265 0.000000 0.000000
    20 -0.027023 -1.076921 -0.020212 -0.453799 0.000000 0.000000
    21 1.164474 -2.543939 -0.170327 -0.541411 -0.008474 0.040009
    22 0.024033 -1.129040 0.017807 -1.602002 0.000000 -0.000001
    23 0.014896 -0.883992 -0.019846 -0.523607 0.000000 0.000000
    24 -0.095871 -0.159943 -0.103533 0.372506 0.352681 1.421822
    25 0.583509 -1.197274 0.185379 0.456702 -0.755314 -0.981204
    26 1.535926 0.010247 0.005009 -0.155518 -0.077409 -0.541048
    27 1.100770 0.004528 -0.010675 0.000000 0.000000 -0.022954
    28 0.957766 -2.746777 -0.090301 0.392131 0.035585 0.131228
    29 -0.033419 -1.397128 -0.011255 -0.855662 0.000000 0.000000
    30 -0.022361 -0.957433 0.018783 -0.542874 0.000000 0.000000
    31 0.250029 -2.820664 -0.238396 -1.173776 0.124630 -0.038460
    32 -0.049759 -1.680544 0.100479 -1.895757 0.000000 0.000000
    33 -0.034141 -1.148311 0.084779 -0.962234 0.000000 0.000000
    34 -0.488517 -2.755600 -0.228261 -1.291960 -0.000003 -0.122179
    35 0.039889 -1.479791 0.029854 -1.660510 0.000000 0.000000
    36 0.028785 -1.075733 -0.023110 -1.186831 0.000000 0.000000
    37 -1.180679 -2.507216 -0.193861 -1.390534 0.102933 -0.174926
    38 -0.024967 -1.123934 0.017595 -1.403775 0.000000 0.000000
    39 -0.020058 -0.890965 0.010091 -1.542928 0.000000 0.000000
    40 0.120180 -0.051600 -0.063059 0.012085 -2.987703 1.512552
  time 14
    0 7.546663 4.411908 -6.489283 -0.797436 -1.470303 0.641540
    1 -0.071918 -8.498730 -0.104136 0.275055 -0.062306 -0.289147
    2 -0.376959 -3.448742 0.808508 -1.055308 1.425598 -1.076486
    3 0.000000 2.241500 1.549502 0.000000 0.000000 0.000000
    4 0.000000 -2.463371 2.261211 0.000000 0.000000 0.000000
    5 0.000000 -3.140381 0.680599 0.000000 0.000000 0.000000
    6 0.000000 -5.761764 0.714481 0.000000 0.000000 0.000000
    7 -2.862881 -6.828996 -11.466005 -0.348017 0.261857 0.946146
    8 0.096946 -8.450419 -0.009363 0.439277 -0.479958 0.207933
    9 -0.586769 -1.264477 0.200164 0.120817 -0.593593 -2.859729
    10 1.522835 0.058680 0.016850 -0.000011 0.000010 0.171403
    11 1.117947 0.048424 -0.005765 0.000000 0.000000 1.034231
    12 -0.963867 -2.785143 -0.085346 -0.710748 0.000001 -0.000001
    13 0.028478 -1.403067 0.006272 -0.692429 -0.000007 -0.000010
    14 0.021412 -0.957782 0.020047 -0.391772 -0.000003 -0.000008
    15 -0.249534 -2.846963 -0.174215 -0.810197 -0.000004 0.000010
    16 0.043235 -1.683940 0.096015 -0.926287 0.000001 0.000000
    17 0.031729 -1.160830 0.058836 -0.532362 0.000000 0.000000
    18 0.447951 -2.798983 -0.200441 -1.257854 0.046343 0.005340
    19 -0.032909 -1.480207 0.004935 -0.375265 0.000000 0.000000
    20 -0.027023 -1.076921 -0.020212 -0.453799 0.000000 0.000000
    21 1.164474 -2.543939 -0.170327 -0.541411 -0.008474 0.040009
    22 0.024033 -1.129040 0.017807 -1.602002 0.000000 -0.000001
    23 0.014896 -0.883992 -0.019846 -0.523607 0.000000 0.000000
    24 -0.095871 -0.159943 -0.103533 0.372506 0.352681 1.421822
    25 0.583509 -1.197274 0.185379 0.453861 -0.749118 -0.977045
    26 1.535926 0.010247 0.005009 -0.153936 -0.080513 -0.560979
    27 1.100770 0.004528 -0.010675 0.000000 0.000000 -0.091771
    28 0.957766 -2.746777 -0.090301 0.411116 0.035585 0.131228
    29 -0.033419 -1.397128 -0.011255 -0.861678 0.000000 0.000000
    30 -0.022361 -0.957433 0.018783 -0.541580 0.000000 0.000000
    31 0.250029 -2.820664 -0.238396 -1.173776 0.124630 -0.038460
    32 -0.049759 -1.680544 0.100479 -1.895757 0.000000 0.000000
    33 -0.034141 -1.148311 0.084779 -0.962234 0.000000 0.000000
    34 -0.488517 -2.755600 -0.228261 -1.291960 -0.000003 -0.122179
    35 0.039889 -1.479791 0.029854 -1.660510 0.000000 0.000000
    36 0.028785 -1.075733 -0.023110 -1.186831 0.000000 0.000000
    37 -1.180679 -2.507216 -0.193861 -1.390534 0.102933 -0.174926
    38 -0.024967 -1.123934 0.017595 -1.403775 0.000000 0.000000
    39 -0.020058 -0.890965 0.010091 -1.542928 0.000000 0.000000
    40 0.120180 -0.051600 -0.063059 0.012085 -2.987703 1.512552
  time 15
    0 7.531038 4.247840 -6.516627 -0.879241 -1.449517 0.747124
    1 -0.071918 -8.498730 -0.104136 0.281664 -0.074003 -0.239187
    2 -0.376959 -3.448742 0.808508 -1.055308 1.425598 -1.076486
    3 0.000000 2.241500 1.549502 0.000000 0.000000 0.000000
    4 0.000000 -2.463371 2.261211 0.000000 0.000000 0.000000
    5 0.000000 -3.140381 0.680599 0.000000 0.000000 0.000000
    6 0.000000 -5.761764 0.714481 0.000000 0.000000 0.000000
    7 -2.456619 -7.317292 -11.118338 -0.395418 0.265672 0.949407
    8 0.096946 -8.450419 -0.009363 0.482112 -0.466588 0.225686
    9 -0.586769 -1.264477 0.200164 0.123237 -0.602005 -2.864543
    10 1.522835 0.058680 0.016850 -0.000011 0.000010 0.174263
    11 1.117947 0.048424 -0.005765 0.000000 0.000000 1.007905
    12 -0.963867 -2.785143 -0.085346 -0.710748 0.000001 -0.000001
    13 0.028478 -1.403067 0.006272 -0.692429 -0.000007 -0.000010
    14 0.021412 -0.957782 0.020047 -0.391772 -0.000003 -0.000008
    15 -0.249534 -2.846963 -0.174215 -0.810197 -0.000004 0.000010
    16 0.043235 -1.683940 0.096015 -0.926287 0.000001 0.000000
    17 0.031729 -1.160830 0.058836 -0.532362 0.000000 0.000000
    18 0.447951 -2.798983 -0.200441 -1.257854 0.046343 0.005340
    19 -0.032909 -1.480207 0.004935 -0.375265 0.000000 0.000000
    20 -0.027023 -1.076921 -0.020212 -0.453799 0.000000 0.000000
    21 1.164474 -2.543939 -0.170327 -0.541411 -0.008474 0.040009
    22 0.024033 -1.129040 0.017807 -1.602002 0.000000 -0.000001
    23 0.014896 -0.883992 -0.019846 -0.523607 0.000000 0.000000
    24 -0.095871 -0.159943 -0.103533 0.372506 0.352681 1.421822
    25 0.583509 -1.197274 0.185379 0.450386 -0.741376 -0.971916
    26 1.535926 0.010247 0.005009 -0.151719 -0.084647 -0.587944
    27 1.100770 0.004528 -0.010675 0.000000 0.000000 -0.192287
    28 0.957766 -2.746777 -0.090301 0.423114 0.035585 0.131228
    29 -0.033419 -1.397128 -0.011255 -0.866592 0.000000 0.000000
    30 -0.022361 -0.957433 0.018783 -0.540525 0.000000 0.000000
    31 0.250029 -2.820664 -0.238396 -1.173776 0.124630 -0.038460
    32 -0.049759 -1.680544 0.100479 -1.895757 0.000000 0.000000
    33 -0.034141 -1.148311 0.084779 -0.962234 0.000000 0.000000
    34 -0.488517 -2.755600 -0.228261 -1.291960 -0.000003 -0.122179
    35 0.039889 -1.479791 0.029854 -1.660510 0.000000 0.000000
    36 0.028785 -1.075733 -0.023110 -1.186831 0.000000 0.000000
    37 -1.180679 -2.507216 -0.193861 -1.390534 0.102933 -0.174926
    38 -0.024967 -1.123934 0.017595 -1.403775 0.000000 0.000000
    39 -0.020058 -0.890965 0.010091 -1.542928 0.000000 0.000000
    40 0.120180 -0.051600 -0.063059 0.012085 -2.987703 1.512552
  time 16
    0 7.511506 4.072054 -6.559597 -0.927802 -1.427577 0.817329
    1 -0.071918 -8.498730 -0.104136 0.288178 -0.087066 -0.186702
    2 -0.376959 -3.448742 0.808508 -1.055308 1.425598 -1.076486
    3 0.000000 2.241500 1.549502 0.000000 0.000000 0.000000
    4 0.000000 -2.463371 2.261211 0.000000 0.000000 0.000000
    5 0.000000 -3.140381 0.680599 0.000000 0.000000 0.000000
    6 0.000000 -5.761764 0.714481 0.000000 0.000000 0.000000
    7 -2.136296 -7.821214 -10.809735 -0.443089 0.269674 0.952429
    8 0.096946 -8.450419 -0.009363 0.494684 -0.456677 0.242302
    9 -0.586769 -1.264477 0.200164 0.124780 -0.609118 -2.867574
    10 1.522835 0.058680 0.016850 -0.000011 0.000010 0.176833
    11 1.117947 0.048424 -0.005765 0.000000 0.000000 0.975985
    12 -0.963867 -2.785143 -0.085346 -0.710748 0.000001 -0.000001
    13 0.028478 -1.403067 0.006272 -0.692429 -0.000007 -0.000010
    14 0.021412 -0.957782 0.020047 -0.391772 -0.000003 -0.000008
    15 -0.249534 -2.846963 -0.174215 -0.810197 -0.000004 0.000010
    16 0.043235 -1.683940 0.096015 -0.926287 0.000001 0.000000
    17 0.031729 -1.160830 0.058836 -0.532362 0.000000 0.000000
    18 0.447951 -2.798983 -0.200441 -1.257854 0.046343 0.005340
    19 -0.032909 -1.480207 0.004935 -0.375265 0.000000 0.000000
    20 -0.027023 -1.076921 -0.020212 -0.453799 0.000000 0.000000
    21 1.164474 -2.543939 -0.170327 -0.541411 -0.008474 0.040009
    22 0.024033 -1.129040 0.017807 -1.602002 0.000000 -0.000001
    23 0.014896 -0.883992 -0.019846 -0.523607 0.000000 0.000000
    24 -0.095871 -0.159943 -0.103533 0.372506 0.352681 1.421822
    25 0.583509 -1.197274 0.185379 0.447222 -0.734149 -0.967218
    26 1.535926 0.010247 0.005009 -0.149214 -0.089010 -0.616791
    27 1.100770 0.004528 -0.010675 0.000000 0.000000 -0.312920
    28 0.957766 -2.746777 -0.090301 0.427299 0.035585 0.131228
    29 -0.033419 -1.397128 -0.011255 -0.870283 0.000000 0.000000
    30 -0.022361 -0.957433 0.018783 -0.539722 0.000000 0.000000
    31 0.250029 -2.820664 -0.238396 -1.173776 0.124630 -0.038460
    32 -0.049759 -1.680544 0.100479 -1.895757 0.000000 0.000000
    33 -0.034141 -1.148311 0.084779 -0.962234 0.000000 0.000000
    34 -0.488517 -2.755600 -0.228261 -1.291960 -0.000003 -0.122179
    35 0.039889 -1.479791 0.029854 -1.660510 0.000000 0.000000
    36 0.028785 -1.075733 -0.023110 -1.186831 0.000000 0.000000
    37 -1.180679 -2.507216 -0.193861 -1.390534 0.102933 -0.174926
    38 -0.024967 -1.123934 0.017595 -1.403775 0.000000 0.000000
    39 -0.020058 -0.890965 0.010091 -1.542928 0.000000 0.000000
    40 0.120180 -0.051600 -0.063059 0.012085 -2.987703 1.512552
  time 17
    0 7.491974 3.888454 -6.610380 -0.939638 -1.419536 0.836431
    1 -0.071918 -8.498730 -0.104136 0.294180 -0.100309 -0.132311
    2 -0.376959 -3.448742 0.808508 -1.055308 1.425598 -1.076486
    3 0.000000 2.241500 1.549502 0.000000 0.000000 0.000000
    4 0.000000 -2.463371 2.261211 0.000000 0.000000 0.000000
    5 0.000000 -3.140381 0.680599 0.000000 0.000000 0.000000
    6 0.000000 -5.761764 0.714481 0.000000 0.000000 0.000000
    7 -1.870663 -8.332948 -10.528476 -0.490963 0.273862 0.955371
    8 0.096946 -8.450419 -0.009363 0.486368 -0.455403 0.255432
    9 -0.586769 -1.264477 0.200164 0.125258 -0.614769 -2.868552
    10 1.522835 0.058680 0.016850 -0.000011 0.000010 0.179017
    11 1.117947 0.048424 -0.005765 0.000000 0.000000 0.937788
    12 -0.963867 -2.785143 -0.085346 -0.710748 0.000001 -0.000001
    13 0.028478 -1.403067 0.006272 -0.692429 -0.000007 -0.000010
    14 0.021412 -0.957782 0.020047 -0.391772 -0.000003 -0.000008
    15 -0.249534 -2.846963 -0.174215 -0.810197 -0.000004 0.000010
    16 0.043235 -1.683940 0.096015 -0.926287 0.000001 0.000000
    17 0.031729 -1.160830 0.058836 -0.532362 0.000000 0.000000
    18 0.447951 -2.798983 -0.200441 -1.257854 0.046343 0.005340
    19 -0.032909 -1.480207 0.004935 -0.375265 0.000000 0.000000
    20 -0.027023 -1.076921 -0.020212 -0.453799 0.000000 0.000000
    21 1.164474 -2.543939 -0.170327 -0.541411 -0.008474 0.040009
    22 0.024033 -1.129040 0.017807 -1.602002 0.000000 -0.000001
    23 0.014896 -0.883992 -0.019846 -0.523607 0.000000 0.000000
    24 -0.095871 -0.159943 -0.103533 0.372506 0.352681 1.421822
    25 0.583509 -1.197274 0.185379 0.445269 -0.729595 -0.964282
    26 1.535926 0.010247 0.005009 -0.146889 -0.092809 -0.642378
    27 1.100770 0.004528 -0.010675 0.000000 0.000000 -0.442089
    28 0.957766 -2.746777 -0.090301 0.414591 0.035585 0.131228
    29 -0.033419 -1.397128 -0.011255 -0.872584 0.000000 0.000000
    30 -0.022361 -0.957433 0.018783 -0.539231 0.000000 0.000000
    31 0.250029 -2.820664 -0.238396 -1.173776 0.124630 -0.038460
    32 -0.049759 -1.680544 0.100479 -1.895757 0.000000 0.000000
    33 -0.034141 -1.148311 0.084779 -0.962234 0.000000 0.000000
    34 -0.488517 -2.755600 -0.228261 -1.291960 -0.000003 -0.122179
    35 0.039889 -1.479791 0.029854 -1.660510 0.000000 0.000000
    36 0.028785 -1.075733 -0.023110 -1.186831 0.000000 0.000000
    37 -1.180679 -2.507216 -0.193861 -1.390534 0.102933 -0.174926
    38 -0.024967 -1.123934 0.017595 -1.403775 0.000000 0.000000
    39 -0.020058 -0.890965 0.010091 -1.542928 0.000000 0.000000
    40 0.120180 -0.051600 -0.063059 0.012085 -2.987703 1.512552
  time 18
    0 7.476348 3.716574 -6.672882 -0.957333 -1.401359 0.868555
    1 -0.071918 -8.498730 -0.104136 0.299417 -0.112485 -0.076616
    2 -0.376959 -3.448742 0.808508 -1.055308 1.425598 -1.076486
    3 0.000000 2.241500 1.549502 0.000000 0.000000 0.000000
    4 0.000000 -2.463371 2.261211 0.000000 0.000000 0.000000
    5 0.000000 -3.140381 0.680599 0.000000 0.000000 0.000000
    6 0.000000 -5.761764 0.714481 0.000000 0.000000 0.000000
    7 -1.632375 -8.789993 -10.395660 -0.539106 0.278235 0.958154
    8 0.096946 -8.450419 -0.009363 0.480100 -0.470334 0.259316
    9 -0.586769 -1.264477 0.200164 0.124593 -0.618811 -2.867256
    10 1.522835 0.058680 0.016850 -0.000011 0.000010 0.180849
    11 1.117947 0.048424 -0.005765 0.000000 0.000000 0.892662
    12 -0.963867 -2.785143 -0.085346 -0.710748 0.000001 -0.000001
    13 0.028478 -1.403067 0.006272 -0.692429 -0.000007 -0.000010
    14 0.021412 -0.957782 0.020047 -0.391772 -0.000003 -0.000008
    15 -0.249534 -2.846963 -0.174215 -0.810197 -0.000004 0.000010
    16 0.043235 -1.683940 0.096015 -0.926287 0.000001 0.000000
    17 0.031729 -1.160830 0.058836 -0.532362 0.000000 0.000000
    18 0.447951 -2.798983 -0.200441 -1.257854 0.046343 0.005340
    19 -0.032909 -1.480207 0.004935 -0.375265 0.000000 0.000000
    20 -0.027023 -1.076921 -0.020212 -0.453799 0.000000 0.000000
    21 1.164474 -2.543939 -0.170327 -0.541411 -0.008474 0.040009
    22 0.024033 -1.129040 0.017807 -1.602002 0.000000 -0.000001
    23 0.014896 -0.883992 -0.019846 -0.523607 0.000000 0.000000
    24 -0.095871 -0.159943 -0.103533 0.372506 0.352681 1.421822
    25 0.583509 -1.197274 0.185379 0.444861 -0.728636 -0.963670
    26 1.535926 0.010247 0.005009 -0.145284 -0.095326 -0.659564
    27 1.100770 0.004528 -0.010675 0.000000 0.000000 -0.568177
    28 0.957766 -2.746777 -0.090301 0.379442 0.035585 0.131228
    29 -0.033419 -1.397128 -0.011255 -0.873387 0.000000 0.000000
    30 -0.022361 -0.957433 0.018783 -0.539063 0.000000 0.000000
    31 0.250029 -2.820664 -0.238396 -1.173776 0.124630 -0.038460
    32 -0.049759 -1.680544 0.100479 -1.895757 0.000000 0.000000
    33 -0.034141 -1.148311 0.084779 -0.962234 0.000000 0.000000
    34 -0.488517 -2.755600 -0.228261 -1.291960 -0.000003 -0.122179
    35 0.039889 -1.479791 0.029854 -1.660510 0.000000 0.000000
    36 0.028785 -1.075733 -0.023110 -1.186831 0.000000 0.000000
    37 -1.180679 -2.507216 -0.193861 -1.390534 0.102933 -0.174926
    38 -0.024967 -1.123934 0.017595 -1.403775 0.000000 0.000000
    39 -0.020058 -0.890965 0.010091 -1.542928 0.000000 0.000000
    40 0.120180 -0.051600 -0.063059 0.012085 -2.987703 1.512552
  time 19
    0 7.468536 3.568132 -6.735384 -0.962555 -1.386689 0.882375
    1 -0.071918 -8.498730 -0.104136 0.302290 -0.120311 -0.041118
    2 -0.376959 -3.448742 0.808508 -1.055308 1.425598 -1.076486
    3 0.000000 2.241500 1.549502 0.000000 0.000000 0.000000
    4 0.000000 -2.463371 2.261211 0.000000 0.000000 0.000000
    5 0.000000 -3.140381 0.680599 0.000000 0.000000 0.000000
    6 0.000000 -5.761764 0.714481 0.000000 0.000000 0.000000
    7 -1.397993 -9.204069 -10.493319 -0.600398 0.285866 0.964914
    8 0.096946 -8.450419 -0.009363 0.489457 -0.518430 0.246565
    9 -0.586769 -1.264477 0.200164 0.122599 -0.621078 -2.863444
    10 1.522835 0.058680 0.016850 -0.000011 0.000010 0.182230
    11 1.117947 0.048424 -0.005765 0.000000 0.000000 0.839982
    12 -0.963867 -2.785143 -0.085346 -0.710748 0.000001 -0.000001
    13 0.028478 -1.403067 0.006272 -0.692429 -0.000007 -0.000010
    14 0.021412 -0.957782 0.020047 -0.391772 -0.000003 -0.000008
    15 -0.249534 -2.846963 -0.174215 -0.810197 -0.000004 0.000010
    16 0.043235 -1.683940 0.096015 -0.926287 0.000001 0.000000
    17 0.031729 -1.160830 0.058836 -0.532362 0.000000 0.000000
    18 0.447951 -2.798983 -0.200441 -1.257854 0.046343 0.005340
    19 -0.032909 -1.480207 0.004935 -0.375265 0.000000 0.000000
    20 -0.027023 -1.076921 -0.020212 -0.453799 0.000000 0.000000
    21 1.164474 -2.543939 -0.170327 -0.541411 -0.008474 0.040009
    22 0.024033 -1.129040 0.017807 -1.602002 0.000000 -0.000001
    23 0.014896 -0.883992 -0.019846 -0.523607 0.000000 0.000000
    24 -0.095871 -0.159943 -0.103533 0.372506 0.352681 1.421822
    25 0.583509 -1.197274 0.185379 0.444058 -0.726742 -0.962472
    26 1.535926 0.010247 0.005009 -0.144840 -0.095997 -0.664142
    27 1.100770 0.004528 -0.010675 0.000000 0.000000 -0.679601
    28 0.957766 -2.746777 -0.090301 0.326267 0.035585 0.131228
    29 -0.033419 -1.397128 -0.011255 -0.872116 0.000000 0.000000
    30 -0.022361 -0.957433 0.018783 -0.539327 0.000000 0.000000
    31 0.250029 -2.820664 -0.238396 -1.173776 0.124630 -0.038460
    32 -0.049759 -1.680544 0.100479 -1.895757 0.000000 0.000000
    33 -0.034141 -1.148311 0.084779 -0.962234 0.000000 0.000000
    34 -0.488517 -2.755600 -0.228261 -1.291960 -0.000003 -0.122179
    35 0.039889 -1.479791 0.029854 -1.660510 0.000000 0.000000
    36 0.028785 -1.075733 -0.023110 -1.186831 0.000000 0.000000
    37 -1.180679 -2.507216 -0.193861 -1.390534 0.102933 -0.174926
    38 -0.024967 -1.123934 0.017595 -1.403775 0.000000 0.000000
    39 -0.020058 -0.890965 0.010091 -1.542928 0.000000 0.000000
    40 0.120180 -0.051600 -0.063059 0.012085 -2.987703 1.512552
  time 20
    0 7.468536 3.454847 -6.797886 -0.959248 -1.376125 0.881576
    1 -0.071918 -8.498730 -0.104136 0.304493 -0.128916 -0.011757
    2 -0.376959 -3.448742 0.808508 -1.055308 1.425598 -1.076486
    3 0.000000 2.241500 1.549502 0.000000 0.000000 0.000000
    4 0.000000 -2.463371 2.261211 0.000000 0.000000 0.000000
    5 0.000000 -3.140381 0.680599 0.000000 0.000000 0.000000
    6 0.000000 -5.761764 0.714481 0.000000 0.000000 0.000000
    7 -1.194861 -9.563455 -10.739420 -0.665735 0.294521 0.972548
    8 0.096946 -8.450419 -0.009363 0.502963 -0.582603 0.222825
    9 -0.586769 -1.264477 0.200164 0.107761 -0.607377 -2.834409
    10 1.522835 0.058680 0.016850 -0.000011 0.000010 0.181877
    11 1.117947 0.048424 -0.005765 0.000000 0.000000 0.692194
    12 -0.963867 -2.785143 -0.085346 -0.710748 0.000001 -0.000001
    13 0.028478 -1.403067 0.006272 -0.692429 -0.000007 -0.000010
    14 0.021412 -0.957782 0.020047 -0.391772 -0.000003 -0.000008
    15 -0.249534 -2.846963 -0.174215 -0.810197 -0.000004 0.000010
    16 0.043235 -1.683940 0.096015 -0.926287 0.000001 0.000000
    17 0.031729 -1.160830 0.058836 -0.532362 0.000000 0.000000
    18 0.447951 -2.798983 -0.200441 -1.257854 0.046343 0.005340
    19 -0.032909 -1.480207 0.004935 -0.375265 0.000000 0.000000
    20 -0.027023 -1.076921 -0.020212 -0.453799 0.000000 0.000000
    21 1.164474 -2.543939 -0.170327 -0.541411 -0.008474 0.040009
    22 0.024033 -1.129040 0.017807 -1.602002 0.000000 -0.000001
    23 0.014896 -0.883992 -0.019846 -0.523607 0.000000 0.000000
    24 -0.095871 -0.159943 -0.103533 0.372506 0.352681 1.421822
    25 0.583509 -1.197274 0.185379 0.443531 -0.725496 -0.961681
    26 1.535926 0.010247 0.005009 -0.144049 -0.097171 -0.672315
    27 1.100770 0.004528 -0.010675 0.000000 0.000000 -0.764799
    28 0.957766 -2.746777 -0.090301 0.259444 0.035585 0.131228
    29 -0.033419 -1.397128 -0.011255 -0.868449 0.000000 0.000000
    30 -0.022361 -0.957433 0.018783 -0.540118 0.000000 0.000000
    31 0.250029 -2.820664 -0.238396 -1.173776 0.124630 -0.038460
    32 -0.049759 -1.680544 0.100479 -1.895757 0.000000 0.000000
    33 -0.034141 -1.148311 0.084779 -0.962234 0.000000 0.000000
    34 -0.488517 -2.755600 -0.228261 -1.291960 -0.000003 -0.122179
    35 0.039889 -1.479791 0.029854 -1.660510 0.000000 0.000000
    36 0.028785 -1.075733 -0.023110 -1.186831 0.000000 0.000000
    37 -1.180679 -2.507216 -0.193861 -1.390534 0.102933 -0.174926
    38 -0.024967 -1.123934 0.017595 -1.403775 0.000000 0.000000
    39 -0.020058 -0.890965 0.010091 -1.542928 0.000000 0.000000
    40 0.120180 -0.051600 -0.063059 0.012085 -2.987703 1.512552
  time 21
    0 7.484161 3.392346 -6.856481 -0.950023 -1.368940 0.869538
    1 -0.071918 -8.498730 -0.104136 0.305962 -0.135519 0.001602
    2 -0.376959 -3.448742 0.808508 -1.055308 1.425598 -1.076486
    3 0.000000 2.241500 1.549502 0.000000 0.000000 0.000000
    4 0.000000 -2.463371 2.261211 0.000000 0.000000 0.000000
    5 0.000000 -3.140381 0.680599 0.000000 0.000000 0.000000
    6 0.000000 -5.761764 0.714481 0.000000 0.000000 0.000000
    7 -1.069858 -9.774399 -10.973802 -0.701943 0.294800 0.971037
    8 0.096946 -8.450419 -0.009363 0.502263 -0.620216 0.205394
    9 -0.586769 -1.264477 0.200164 0.078270 -0.570544 -2.773823
    10 1.522835 0.058680 0.016850 -0.000011 0.000010 0.178343
    11 1.117947 0.048424 -0.005765 0.000000 0.000000 0.423653
    12 -0.963867 -2.785143 -0.085346 -0.710748 0.000001 -0.000001
    13 0.028478 -1.403067 0.006272 -0.692429 -0.000007 -0.000010
    14 0.021412 -0.957782 0.020047 -0.391772 -0.000003 -0.000008
    15 -0.249534 -2.846963 -0.174215 -0.810197 -0.000004 0.000010
    16 0.043235 -1.683940 0.096015 -0.926287 0.000001 0.000000
    17 0.031729 -1.160830 0.058836 -0.532362 0.000000 0.000000
    18 0.447951 -2.798983 -0.200441 -1.257854 0.046343 0.005340
    19 -0.032909 -1.480207 0.004935 -0.375265 0.000000 0.000000
    20 -0.027023 -1.076921 -0.020212 -0.453799 0.000000 0.000000
    21 1.164474 -2.543939 -0.170327 -0.541411 -0.008474 0.040009
    22 0.024033 -1.129040 0.017807 -1.602002 0.000000 -0.000001
    23 0.014896 -0.883992 -0.019846 -0.523607 0.000000 0.000000
    24 -0.095871 -0.159943 -0.103533 0.372506 0.352681 1.421822
    25 0.583509 -1.197274 0.185379 0.443267 -0.724873 -0.961273
    26 1.535926 0.010247 0.005009 -0.143570 -0.097890 -0.677265
    27 1.100770 0.004528 -0.010675 0.000000 0.000000 -0.797029
    28 0.957766 -2.746777 -0.090301 0.183425 0.035585 0.131228
    29 -0.033419 -1.397128 -0.011255 -0.862553 0.000000 0.000000
    30 -0.022361 -0.957433 0.018783 -0.541388 0.000000 0.000000
    31 0.250029 -2.820664 -0.238396 -1.173776 0.124630 -0.038460
    32 -0.049759 -1.680544 0.100479 -1.895757 0.000000 0.000000
    33 -0.034141 -1.148311 0.084779 -0.962234 0.000000 0.000000
    34 -0.488517 -2.755600 -0.228261 -1.291960 -0.000003 -0.122179
    35 0.039889 -1.479791 0.029854 -1.660510 0.000000 0.000000
    36 0.028785 -1.075733 -0.023110 -1.186831 0.000000 0.000000
    37 -1.180679 -2.507216 -0.193861 -1.390534 0.102933 -0.174926
    38 -0.024967 -1.123934 0.017595 -1.403775 0.000000 0.000000
    39 -0.020058 -0.890965 0.010091 -1.542928 0.000000 0.000000
    40 0.120180 -0.051600 -0.063059 0.012085 -2.987703 1.512552
  time 22
    0 7.511506 3.388439 -6.899451 -0.936157 -1.364363 0.848347
    1 -0.071918 -8.498730 -0.104136 0.307686 -0.140289 0.003909
    2 -0.376959 -3.448742 0.808508 -1.055308 1.425598 -1.076486
    3 0.000000 2.241500 1.549502 0.000000 0.000000 0.000000
    4 0.000000 -2.463371 2.261211 0.000000 0.000000 0.000000
    5 0.000000 -3.140381 0.680599 0.000000 0.000000 0.000000
    6 0.000000 -5.761764 0.714481 0.000000 0.000000 0.000000
    7 -1.069858 -9.774399 -11.157402 -0.706663 0.290705 0.966027
    8 0.096946 -8.450419 -0.009363 0.484069 -0.616210 0.203348
    9 -0.586769 -1.264477 0.200164 0.047663 -0.521785 -2.705049
    10 1.522835 0.058680 0.016850 -0.000011 0.000010 0.171403
    11 1.117947 0.048424 -0.005765 0.000000 0.000000 0.126458
    12 -0.963867 -2.785143 -0.085346 -0.710748 0.000001 -0.000001
    13 0.028478 -1.403067 0.006272 -0.692429 -0.000007 -0.000010
    14 0.021412 -0.957782 0.020047 -0.391772 -0.000003 -0.000008
    15 -0.249534 -2.846963 -0.174215 -0.810197 -0.000004 0.000010
    16 0.043235 -1.683940 0.096015 -0.926287 0.000001 0.000000
    17 0.031729 -1.160830 0.058836 -0.532362 0.000000 0.000000
    18 0.447951 -2.798983 -0.200441 -1.257854 0.046343 0.005340
    19 -0.032909 -1.480207 0.004935 -0.375265 0.000000 0.000000
    20 -0.027023 -1.076921 -0.020212 -0.453799 0.000000 0.000000
    21 1.164474 -2.543939 -0.170327 -0.541411 -0.008474 0.040009
    22 0.024033 -1.129040 0.017807 -1.602002 0.000000 -0.000001
    23 0.014896 -0.883992 -0.019846 -0.523607 0.000000 0.000000
    24 -0.095871 -0.159943 -0.103533 0.372506 0.352681 1.421822
    25 0.583509 -1.197274 0.185379 0.443207 -0.724741 -0.961202
    26 1.535926 0.010247 0.005009 -0.143366 -0.098190 -0.679386
    27 1.100770 0.004528 -0.010675 0.000000 0.000000 -0.841178
    28 0.957766 -2.746777 -0.090301 0.102588 0.035585 0.131228
    29 -0.033419 -1.397128 -0.011255 -0.854619 0.000000 0.000000
    30 -0.022361 -0.957433 0.018783 -0.543102 0.000000 0.000000
    31 0.250029 -2.820664 -0.238396 -1.173776 0.124630 -0.038460
    32 -0.049759 -1.680544 0.100479 -1.895757 0.000000 0.000000
    33 -0.034141 -1.148311 0.084779 -0.962234 0.000000 0.000000
    34 -0.488517 -2.755600 -0.228261 -1.291960 -0.000003 -0.122179
    35 0.039889 -1.479791 0.029854 -1.660510 0.000000 0.000000
    36 0.028785 -1.075733 -0.023110 -1.186831 0.000000 0.000000
    37 -1.180679 -2.507216 -0.193861 -1.390534 0.102933 -0.174926
    38 -0.024967 -1.123934 0.017595 -1.403775 0.000000 0.000000
    39 -0.020058 -0.890965 0.010091 -1.542928 0.000000 0.000000
    40 0.120180 -0.051600 -0.063059 0.012085 -2.987703 1.512552
  time 23
    0 7.558382 3.435316 -6.942421 -0.918461 -1.361583 0.819725
    1 -0.071918 -8.498730 -0.104136 0.310560 -0.143441 0.000131
    2 -0.376959 -3.448742 0.808508 -1.055308 1.425598 -1.076486
    3 0.000000 2.241500 1.549502 0.000000 0.000000 0.000000
    4 0.000000 -2.463371 2.261211 0.000000 0.000000 0.000000
    5 0.000000 -3.140381 0.680599 0.000000 0.000000 0.000000
    6 0.000000 -5.761764 0.714481 0.000000 0.000000 0.000000
    7 -1.167517 -9.602518 -11.329282 -0.709495 0.283726 0.957677
    8 0.096946 -8.450419 -0.009363 0.453376 -0.585880 0.208710
    9 -0.586769 -1.264477 0.200164 0.025140 -0.474192 -2.647909
    10 1.522835 0.058680 0.016850 -0.000011 0.000010 0.160833
    11 1.117947 0.048424 -0.005765 0.000000 0.000000 -0.107209
    12 -0.963867 -2.785143 -0.085346 -0.710748 0.000001 -0.000001
    13 0.028478 -1.403067 0.006272 -0.692429 -0.000007 -0.000010
    14 0.021412 -0.957782 0.020047 -0.391772 -0.000003 -0.000008
    15 -0.249534 -2.846963 -0.174215 -0.810197 -0.000004 0.000010
    16 0.043235 -1.683940 0.096015 -0.926287 0.000001 0.000000
    17 0.031729 -1.160830 0.058836 -0.532362 0.000000 0.000000
    18 0.447951 -2.798983 -0.200441 -1.257854 0.046343 0.005340
    19 -0.032909 -1.480207 0.004935 -0.375265 0.000000 0.000000
    20 -0.027023 -1.076921 -0.020212 -0.453799 0.000000 0.000000
    21 1.164474 -2.543939 -0.170327 -0.541411 -0.008474 0.040009
    22 0.024033 -1.129040 0.017807 -1.602002 0.000000 -0.000001
    23 0.014896 -0.883992 -0.019846 -0.523607 0.000000 0.000000
    24 -0.095871 -0.159943 -0.103533 0.372506 0.352681 1.421822
    25 0.583509 -1.197274 0.185379 0.443327 -0.725029 -0.961381
    26 1.535926 0.010247 0.005009 -0.143378 -0.098166 -0.679207
    27 1.100770 0.004528 -0.010675 0.000000 0.000000 -0.862251
    28 0.957766 -2.746777 -0.090301 0.021387 0.035585 0.131228
    29 -0.033419 -1.397128 -0.011255 -0.844828 0.000000 0.000000
    30 -0.022361 -0.957433 0.018783 -0.545211 0.000000 0.000000
    31 0.250029 -2.820664 -0.238396 -1.173776 0.124630 -0.038460
    32 -0.049759 -1.680544 0.100479 -1.895757 0.000000 0.000000
    33 -0.034141 -1.148311 0.084779 -0.962234 0.000000 0.000000
    34 -0.488517 -2.755600 -0.228261 -1.291960 -0.000003 -0.122179
    35 0.039889 -1.479791 0.029854 -1.660510 0.000000 0.000000
    36 0.028785 -1.075733 -0.023110 -1.186831 0.000000 0.000000
    37 -1.180679 -2.507216 -0.193861 -1.390534 0.102933 -0.174926
    38 -0.024967 -1.123934 0.017595 -1.403775 0.000000 0.000000
    39 -0.020058 -0.890965 0.010091 -1.542928 0.000000 0.000000
    40 0.120180 -0.051600 -0.063059 0.012085 -2.987703 1.512552
  time 24
    0 7.609165 3.513443 -6.981485 -0.897517 -1.359915 0.785083
    1 -0.071918 -8.498730 -0.104136 0.314072 -0.145023 -0.007176
    2 -0.376959 -3.448742 0.808508 -1.055308 1.425598 -1.076486
    3 0.000000 2.241500 1.549502 0.000000 0.000000 0.000000
    4 0.000000 -2.463371 2.261211 0.000000 0.000000 0.000000
    5 0.000000 -3.140381 0.680599 0.000000 0.000000 0.000000
    6 0.000000 -5.761764 0.714481 0.000000 0.000000 0.000000
    7 -1.312052 -9.329072 -11.489443 -0.705787 0.277026 0.950043
    8 0.096946 -8.450419 -0.009363 0.425663 -0.545639 0.217274
    9 -0.586769 -1.264477 0.200164 0.015434 -0.442354 -2.618826
    10 1.522835 0.058680 0.016850 -0.000011 0.000010 0.146440
    11 1.117947 0.048424 -0.005765 0.000000 0.000000 -0.185249
    12 -0.963867 -2.785143 -0.085346 -0.710748 0.000001 -0.000001
    13 0.028478 -1.403067 0.006272 -0.692429 -0.000007 -0.000010
    14 0.021412 -0.957782 0.020047 -0.391772 -0.000003 -0.000008
    15 -0.249534 -2.846963 -0.174215 -0.810197 -0.000004 0.000010
    16 0.043235 -1.683940 0.096015 -0.926287 0.000001 0.000000
    17 0.031729 -1.160830 0.058836 -0.532362 0.000000 0.000000
    18 0.447951 -2.798983 -0.200441 -1.257854 0.046343 0.005340
    19 -0.032909 -1.480207 0.004935 -0.375265 0.000000 0.000000
    20 -0.027023 -1.076921 -0.020212 -0.453799 0.000000 0.000000
    21 1.164474 -2.543939 -0.170327 -0.541411 -0.008474 0.040009
    22 0.024033 -1.129040 0.017807 -1.602002 0.000000 -0.000001
    23 0.014896 -0.883992 -0.019846 -0.523607 0.000000 0.000000
    24 -0.095871 -0.159943 -0.103533 0.372506 0.352681 1.421822
    25 0.583509 -1.197274 0.185379 0.443579 -0.725616 -0.961753
    26 1.535926 0.010247 0.005009 -0.143570 -0.097890 -0.677265
    27 1.100770 0.004528 -0.010675 0.000000 0.000000 -0.865049
    28 0.957766 -2.746777 -0.090301 -0.055822 0.035585 0.131228
    29 -0.033419 -1.397128 -0.011255 -0.833370 0.000000 0.000000
    30 -0.022361 -0.957433 0.018783 -0.547680 0.000000 0.000000
    31 0.250029 -2.820664 -0.238396 -1.173776 0.124630 -0.038460
    32 -0.049759 -1.680544 0.100479 -1.895757 0.000000 0.000000
    33 -0.034141 -1.148311 0.084779 -0.962234 0.000000 0.000000
    34 -0.488517 -2.755600 -0.228261 -1.291960 -0.000003 -0.122179
    35 0.039889 -1.479791 0.029854 -1.660510 0.000000 0.000000
    36 0.028785 -1.075733 -0.023110 -1.186831 0.000000 0.000000
    37 -1.180679 -2.507216 -0.193861 -1.390534 0.102933 -0.174926
    38 -0.024967 -1.123934 0.017595 -1.403775 0.000000 0.000000
    39 -0.020058 -0.890965 0.010091 -1.542928 0.000000 0.000000
    40 0.120180 -0.051600 -0.063059 0.012085 -2.987703 1.512552
  time 25
    0 7.671667 3.622821 -7.020549 -0.874252 -1.358504 0.746141
    1 -0.071918 -8.498730 -0.104136 0.317680 -0.145335 -0.019081
    2 -0.376959 -3.448742 0.808508 -1.055308 1.425598 -1.076486
    3 0.000000 2.241500 1.549502 0.000000 0.000000 0.000000
    4 0.000000 -2.463371 2.261211 0.000000 0.000000 0.000000
    5 0.000000 -3.140381 0.680599 0.000000 0.000000 0.000000
    6 0.000000 -5.761764 0.714481 0.000000 0.000000 0.000000
    7 -1.444869 -9.024376 -11.610541 -0.696819 0.270325 0.942568
    8 0.096946 -8.450419 -0.009363 0.411888 -0.515491 0.225364
    9 -0.586769 -1.264477 0.200164 0.015859 -0.428390 -2.616211
    10 1.522835 0.058680 0.016850 -0.000011 0.000010 0.129670
    11 1.117947 0.048424 -0.005765 0.000000 0.000000 -0.113684
    12 -0.963867 -2.785143 -0.085346 -0.710748 0.000001 -0.000001
    13 0.028478 -1.403067 0.006272 -0.692429 -0.000007 -0.000010
    14 0.021412 -0.957782 0.020047 -0.391772 -0.000003 -0.000008
    15 -0.249534 -2.846963 -0.174215 -0.810197 -0.000004 0.000010
    16 0.043235 -1.683940 0.096015 -0.926287 0.000001 0.000000
    17 0.031729 -1.160830 0.058836 -0.532362 0.000000 0.000000
    18 0.447951 -2.798983 -0.200441 -1.257854 0.046343 0.005340
    19 -0.032909 -1.480207 0.004935 -0.375265 0.000000 0.000000
    20 -0.027023 -1.076921 -0.020212 -0.453799 0.000000 0.000000
    21 1.164474 -2.543939 -0.170327 -0.541411 -0.008474 0.040009
    22 0.024033 -1.129040 0.017807 -1.602002 0.000000 -0.000001
    23 0.014896 -0.883992 -0.019846 -0.523607 0.000000 0.000000
    24 -0.095871 -0.159943 -0.103533 0.372506 0.352681 1.421822
    25 0.583509 -1.197274 0.185379 0.443902 -0.726395 -0.962244
    26 1.535926 0.010247 0.005009 -0.143881 -0.097435 -0.674137
    27 1.100770 0.004528 -0.010675 0.000000 0.000000 -0.854300
    28 0.957766 -2.746777 -0.090301 -0.124565 0.035585 0.131228
    29 -0.033419 -1.397128 -0.011255 -0.820439 0.000000 0.000000
    30 -0.022361 -0.957433 0.018783 -0.550460 0.000000 0.000000
    31 0.250029 -2.820664 -0.238396 -1.173776 0.124630 -0.038460
    32 -0.049759 -1.680544 0.100479 -1.895757 0.000000 0.000000
    33 -0.034141 -1.148311 0.084779 -0.962234 0.000000 0.000000
    34 -0.488517 -2.755600 -0.228261 -1.291960 -0.000003 -0.122179
    35 0.039889 -1.479791 0.029854 -1.660510 0.000000 0.000000
    36 0.028785 -1.075733 -0.023110 -1.186831 0.000000 0.000000
    37 -1.180679 -2.507216 -0.193861 -1.390534 0.102933 -0.174926
    38 -0.024967 -1.123934 0.017595 -1.403775 0.000000 0.000000
    39 -0.020058 -0.890965 0.010091 -1.542928 0.000000 0.000000
    40 0.120180 -0.051600 -0.063059 0.012085 -2.987703 1.512552
  time 26
    0 7.738075 3.763451 -7.059613 -0.849826 -1.356622 0.704866
    1 -0.071918 -8.498730 -0.104136 0.321479 -0.144664 -0.035233
    2 -0.376959 -3.448742 0.808508 -1.055308 1.425598 -1.076486
    3 0.000000 2.241500 1.549502 0.000000 0.000000 0.000000
    4 0.000000 -2.463371 2.261211 0.000000 0.000000 0.000000
    5 0.000000 -3.140381 0.680599 0.000000 0.000000 0.000000
    6 0.000000 -5.761764 0.714481 0.000000 0.000000 0.000000
    7 -1.558154 -8.700147 -11.696481 -0.683738 0.263346 0.934615
    8 0.096946 -8.450419 -0.009363 0.412768 -0.501575 0.232166
    9 -0.586769 -1.264477 0.200164 0.020832 -0.422542 -2.626036
    10 1.522835 0.058680 0.016850 -0.000011 0.000010 0.111486
    11 1.117947 0.048424 -0.005765 0.000000 0.000000 0.033338
    12 -0.963867 -2.785143 -0.085346 -0.710748 0.000001 -0.000001
    13 0.028478 -1.403067 0.006272 -0.692429 -0.000007 -0.000010
    14 0.021412 -0.957782 0.020047 -0.391772 -0.000003 -0.000008
    15 -0.249534 -2.846963 -0.174215 -0.810197 -0.000004 0.000010
    16 0.043235 -1.683940 0.096015 -0.926287 0.000001 0.000000
    17 0.031729 -1.160830 0.058836 -0.532362 0.000000 0.000000
    18 0.447951 -2.798983 -0.200441 -1.257854 0.046343 0.005340
    19 -0.032909 -1.480207 0.004935 -0.375265 0.000000 0.000000
    20 -0.027023 -1.076921 -0.020212 -0.453799 0.000000 0.000000
    21 1.164474 -2.543939 -0.170327 -0.541411 -0.008474 0.040009
    22 0.024033 -1.129040 0.017807 -1.602002 0.000000 -0.000001
    23 0.014896 -0.883992 -0.019846 -0.523607 0.000000 0.000000
    24 -0.095871 -0.159943 -0.103533 0.372506 0.352681 1.421822
    25 0.583509 -1.197274 0.185379 0.444274 -0.727270 -0.962795
    26 1.535926 0.010247 0.005009 -0.144241 -0.096896 -0.670350
    27 1.100770 0.004528 -0.010675 0.000000 0.000000 -0.834820
    28 0.957766 -2.746777 -0.090301 -0.159887 0.035585 0.131228
    29 -0.033419 -1.397128 -0.011255 -0.806201 0.000000 0.000000
    30 -0.022361 -0.957433 0.018783 -0.553528 0.000000 0.000000
    31 0.250029 -2.820664 -0.238396 -1.173776 0.124630 -0.038460
    32 -0.049759 -1.680544 0.100479 -1.895757 0.000000 0.000000
    33 -0.034141 -1.148311 0.084779 -0.962234 0.000000 0.000000
    34 -0.488517 -2.755600 -0.228261 -1.291960 -0.000003 -0.122179
    35 0.039889 -1.479791 0.029854 -1.660510 0.000000 0.000000
    36 0.028785 -1.075733 -0.023110 -1.186831 0.000000 0.000000
    37 -1.180679 -2.507216 -0.193861 -1.390534 0.102933 -0.174926
    38 -0.024967 -1.123934 0.017595 -1.403775 0.000000 0.000000
    39 -0.020058 -0.890965 0.010091 -1.542928 0.000000 0.000000
    40 0.120180 -0.051600 -0.063059 0.012085 -2.987703 1.512552
  time 27
    0 7.816203 3.935331 -7.098676 -0.825807 -1.353628 0.663652
    1 -0.071918 -8.498730 -0.104136 0.325726 -0.143285 -0.055264
    2 -0.376959 -3.448742 0.808508 -1.055308 1.425598 -1.076486
    3 0.000000 2.241500 1.549502 0.000000 0.000000 0.000000
    4 0.000000 -2.463371 2.261211 0.000000 0.000000 0.000000
    5 0.000000 -3.140381 0.680599 0.000000 0.000000 0.000000
    6 0.000000 -5.761764 0.714481 0.000000 0.000000 0.000000
    7 -1.679251 -8.321229 -11.747263 -0.667825 0.255808 0.925788
    8 0.096946 -8.450419 -0.009363 0.420760 -0.492678 0.239612
    9 -0.586769 -1.264477 0.200164 0.029341 -0.421786 -2.645392
    10 1.522835 0.058680 0.016850 -0.000011 0.000010 0.090700
    11 1.117947 0.048424 -0.005765 0.000000 0.000000 0.245790
    12 -0.963867 -2.785143 -0.085346 -0.710748 0.000001 -0.000001
    13 0.028478 -1.403067 0.006272 -0.692429 -0.000007 -0.000010
    14 0.021412 -0.957782 0.020047 -0.391772 -0.000003 -0.000008
    15 -0.249534 -2.846963 -0.174215 -0.810197 -0.000004 0.000010
    16 0.043235 -1.683940 0.096015 -0.926287 0.000001 0.000000
    17 0.031729 -1.160830 0.058836 -0.532362 0.000000 0.000000
    18 0.447951 -2.798983 -0.200441 -1.257854 0.046343 0.005340
    19 -0.032909 -1.480207 0.004935 -0.375265 0.000000 0.000000
    20 -0.027023 -1.076921 -0.020212 -0.453799 0.000000 0.000000
    21 1.164474 -2.543939 -0.170327 -0.541411 -0.008474 0.040009
    22 0.024033 -1.129040 0.017807 -1.602002 0.000000 -0.000001
    23 0.014896 -0.883992 -0.019846 -0.523607 0.000000 0.000000
    24 -0.095871 -0.159943 -0.103533 0.372506 0.352681 1.421822
    25 0.583509 -1.197274 0.185379 0.444645 -0.728121 -0.963347
    26 1.535926 0.010247 0.005009 -0.144624 -0.096332 -0.666443
    27 1.100770 0.004528 -0.010675 0.000000 0.000000 -0.811338
    28 0.957766 -2.746777 -0.090301 -0.170905 0.035585 0.131228
    29 -0.033419 -1.397128 -0.011255 -0.790861 0.000000 0.000000
    30 -0.022361 -0.957433 0.018783 -0.556824 0.000000 0.000000
    31 0.250029 -2.820664 -0.238396 -1.173776 0.124630 -0.038460
    32 -0.049759 -1.680544 0.100479 -1.895757 0.000000 0.000000
    33 -0.034141 -1.148311 0.084779 -0.962234 0.000000 0.000000
    34 -0.488517 -2.755600 -0.228261 -1.291960 -0.000003 -0.122179
    35 0.039889 -1.479791 0.029854 -1.660510 0.000000 0.000000
    36 0.028785 -1.075733 -0.023110 -1.186831 0.000000 0.000000
    37 -1.180679 -2.507216 -0.193861 -1.390534 0.102933 -0.174926
    38 -0.024967 -1.123934 0.017595 -1.403775 0.000000 0.000000
    39 -0.020058 -0.890965 0.010091 -1.542928 0.000000 0.000000
    40 0.120180 -0.051600 -0.063059 0.012085 -2.987703 1.512552
  time 28
    0 7.906049 4.138462 -7.137740 -0.803934 -1.348795 0.625264
    1 -0.071918 -8.498730 -0.104136 0.330611 -0.141464 -0.078839
    2 -0.376959 -3.448742 0.808508 -1.055308 1.425598 -1.076486
    3 0.000000 2.241500 1.549502 0.000000 0.000000 0.000000
    4 0.000000 -2.463371 2.261211 0.000000 0.000000 0.000000
    5 0.000000 -3.140381 0.680599 0.000000 0.000000 0.000000
    6 0.000000 -5.761764 0.714481 0.000000 0.000000 0.000000
    7 -1.812068 -7.887622 -11.770702 -0.650226 0.247340 0.915609
    8 0.096946 -8.450419 -0.009363 0.433979 -0.485655 0.248479
    9 -0.586769 -1.264477 0.200164 0.040510 -0.422985 -2.671445
    10 1.522835 0.058680 0.016850 -0.000011 0.000010 0.066219
    11 1.117947 0.048424 -0.005765 0.000000 0.000000 0.513621
    12 -0.963867 -2.785143 -0.085346 -0.710748 0.000001 -0.000001
    13 0.028478 -1.403067 0.006272 -0.692429 -0.000007 -0.000010
    14 0.021412 -0.957782 0.020047 -0.391772 -0.000003 -0.000008
    15 -0.249534 -2.846963 -0.174215 -0.810197 -0.000004 0.000010
    16 0.043235 -1.683940 0.096015 -0.926287 0.000001 0.000000
    17 0.031729 -1.160830 0.058836 -0.532362 0.000000 0.000000
    18 0.447951 -2.798983 -0.200441 -1.257854 0.046343 0.005340
    19 -0.032909 -1.480207 0.004935 -0.375265 0.000000 0.000000
    20 -0.027023 -1.076921 -0.020212 -0.453799 0.000000 0.000000
    21 1.164474 -2.543939 -0.170327 -0.541411 -0.008474 0.040009
    22 0.024033 -1.129040 0.017807 -1.602002 0.000000 -0.000001
    23 0.014896 -0.883992 -0.019846 -0.523607 0.000000 0.000000
    24 -0.095871 -0.159943 -0.103533 0.372506 0.352681 1.421822
    25 0.583509 -1.197274 0.185379 0.444957 -0.728876 -0.963826
    26 1.535926 0.010247 0.005009 -0.144948 -0.095829 -0.662979
    27 1.100770 0.004528 -0.010675 0.000000 0.000000 -0.788671
    28 0.957766 -2.746777 -0.090301 -0.156930 0.035585 0.131228
    29 -0.033419 -1.397128 -0.011255 -0.774598 0.000000 0.000000
    30 -0.022361 -0.957433 0.018783 -0.560336 0.000000 0.000000
    31 0.250029 -2.820664 -0.238396 -1.173776 0.124630 -0.038460
    32 -0.049759 -1.680544 0.100479 -1.895757 0.000000 0.000000
    33 -0.034141 -1.148311 0.084779 -0.962234 0.000000 0.000000
    34 -0.488517 -2.755600 -0.228261 -1.291960 -0.000003 -0.122179
    35 0.039889 -1.479791 0.029854 -1.660510 0.000000 0.000000
    36 0.028785 -1.075733 -0.023110 -1.186831 0.000000 0.000000
    37 -1.180679 -2.507216 -0.193861 -1.390534 0.102933 -0.174926
    38 -0.024967 -1.123934 0.017595 -1.403775 0.000000 0.000000
    39 -0.020058 -0.890965 0.010091 -1.542928 0.000000 0.000000
    40 0.120180 -0.051600 -0.063059 0.012085 -2.987703 1.512552
  time 29
    0 7.999802 4.372844 -7.176804 -0.786181 -1.341567 0.592280
    1 -0.071918 -8.498730 -0.104136 0.336294 -0.139450 -0.105592
    2 -0.376959 -3.448742 0.808508 -1.055308 1.425598 -1.076486
    3 0.000000 2.241500 1.549502 0.000000 0.000000 0.000000
    4 0.000000 -2.463371 2.261211 0.000000 0.000000 0.000000
    5 0.000000 -3.140381 0.680599 0.000000 0.000000 0.000000
    6 0.000000 -5.761764 0.714481 0.000000 0.000000 0.000000
    7 -1.948791 -7.395420 -11.766795 -0.632223 0.237568 0.903522
    8 0.096946 -8.450419 -0.009363 0.450556 -0.477409 0.259487
    9 -0.586769 -1.264477 0.200164 0.053434 -0.423133 -2.701261
    10 1.522835 0.058680 0.016850 -0.000011 0.000010 0.036919
    11 1.117947 0.048424 -0.005765 0.000000 0.000000 0.826833
    12 -0.963867 -2.785143 -0.085346 -0.710748 0.000001 -0.000001
    13 0.028478 -1.403067 0.006272 -0.692429 -0.000007 -0.000010
    14 0.021412 -0.957782 0.020047 -0.391772 -0.000003 -0.000008
    15 -0.249534 -2.846963 -0.174215 -0.810197 -0.000004 0.000010
    16 0.043235 -1.683940 0.096015 -0.926287 0.000001 0.000000
    17 0.031729 -1.160830 0.058836 -0.532362 0.000000 0.000000
    18 0.447951 -2.798983 -0.200441 -1.257854 0.046343 0.005340
    19 -0.032909 -1.480207 0.004935 -0.375265 0.000000 0.000000
    20 -0.027023 -1.076921 -0.020212 -0.453799 0.000000 0.000000
    21 1.164474 -2.543939 -0.170327 -0.541411 -0.008474 0.040009
    22 0.024033 -1.129040 0.017807 -1.602002 0.000000 -0.000001
    23 0.014896 -0.883992 -0.019846 -0.523607 0.000000 0.000000
    24 -0.095871 -0.159943 -0.103533 0.372506 0.352681 1.421822
    25 0.583509 -1.197274 0.185379 0.445185 -0.729391 -0.964162
    26 1.535926 0.010247 0.005009 -0.145188 -0.095470 -0.660511
    27 1.100770 0.004528 -0.010675 0.000000 0.000000 -0.771564
    28 0.957766 -2.746777 -0.090301 -0.135603 0.035585 0.131228
    29 -0.033419 -1.397128 -0.011255 -0.757592 0.000000 0.000000
    30 -0.022361 -0.957433 0.018783 -0.564003 0.000000 0.000000
    31 0.250029 -2.820664 -0.238396 -1.173776 0.124630 -0.038460
    32 -0.049759 -1.680544 0.100479 -1.895757 0.000000 0.000000
    33 -0.034141 -1.148311 0.084779 -0.962234 0.000000 0.000000
    34 -0.488517 -2.755600 -0.228261 -1.291960 -0.000003 -0.122179
    35 0.039889 -1.479791 0.029854 -1.660510 0.000000 0.000000
    36 0.028785 -1.075733 -0.023110 -1.186831 0.000000 0.000000
    37 -1.180679 -2.507216 -0.193861 -1.390534 0.102933 -0.174926
    38 -0.024967 -1.123934 0.017595 -1.403775 0.000000 0.000000
    39 -0.020058 -0.890965 0.010091 -1.542928 0.000000 0.000000
    40 0.120180 -0.051600 -0.063059 0.012085 -2.987703 1.512552
  time 30
    0 8.105274 4.638477 -7.215867 -0.774287 -1.331388 0.567282
    1 -0.071918 -8.498730 -0.104136 0.343031 -0.137497 -0.135187
    2 -0.376959 -3.448742 0.808508 -1.055308 1.425598 -1.076486
    3 0.000000 2.241500 1.549502 0.000000 0.000000 0.000000
    4 0.000000 -2.463371 2.261211 0.000000 0.000000 0.000000
    5 0.000000 -3.140381 0.680599 0.000000 0.000000 0.000000
    6 0.000000 -5.761764 0.714481 0.000000 0.000000 0.000000
    7 -2.097233 -6.852434 -11.727732 -0.614827 0.226308 0.889049
    8 0.096946 -8.450419 -0.009363 0.468731 -0.464819 0.273450
    9 -0.586769 -1.264477 0.200164 0.066863 -0.419239 -2.731787
    10 1.522835 0.058680 0.016850 -0.000011 0.000010 0.001675
    11 1.117947 0.048424 -0.005765 0.000000 0.000000 1.175345
    12 -0.963867 -2.785143 -0.085346 -0.710748 0.000001 -0.000001
    13 0.028478 -1.403067 0.006272 -0.692429 -0.000007 -0.000010
    14 0.021412 -0.957782 0.020047 -0.391772 -0.000003 -0.000008
    15 -0.249534 -2.846963 -0.174215 -0.810197 -0.000004 0.000010
    16 0.043235 -1.683940 0.096015 -0.926287 0.000001 0.000000
    17 0.031729 -1.160830 0.058836 -0.532362 0.000000 0.000000
    18 0.447951 -2.798983 -0.200441 -1.257854 0.046343 0.005340
    19 -0.032909 -1.480207 0.004935 -0.375265 0.000000 0.000000
    20 -0.027023 -1.076921 -0.020212 -0.453799 0.000000 0.000000
    21 1.164474 -2.543939 -0.170327 -0.541411 -0.008474 0.040009
    22 0.024033 -1.129040 0.017807 -1.602002 0.000000 -0.000001
    23 0.014896 -0.883992 -0.019846 -0.523607 0.000000 0.000000
    24 -0.095871 -0.159943 -0.103533 0.372506 0.352681 1.421822
    25 0.583509 -1.197274 0.185379 0.445269 -0.729595 -0.964282
    26 1.535926 0.010247 0.005009 -0.145284 -0.095326 -0.659564
    27 1.100770 0.004528 -0.010675 0.000000 0.000000 -0.764799
    28 0.957766 -2.746777 -0.090301 -0.124565 0.035585 0.131228
    29 -0.033419 -1.397128 -0.011255 -0.740022 0.000000 0.000000
    30 -0.022361 -0.957433 0.018783 -0.567778 0.000000 0.000000
    31 0.250029 -2.820664 -0.238396 -1.173776 0.124630 -0.038460
    32 -0.049759 -1.680544 0.100479 -1.895757 0.000000 0.000000
    33 -0.034141 -1.148311 0.084779 -0.962234 0.000000 0.000000
    34 -0.488517 -2.755600 -0.228261 -1.291960 -0.000003 -0.122179
    35 0.039889 -1.479791 0.029854 -1.660510 0.000000 0.000000
    36 0.028785 -1.075733 -0.023110 -1.186831 0.000000 0.000000
    37 -1.180679 -2.507216 -0.193861 -1.390534 0.102933 -0.174926
    38 -0.024967 -1.123934 0.017595 -1.403775 0.000000 0.000000
    39 -0.020058 -0.890965 0.010091 -1.542928 0.000000 0.000000
    40 0.120180 -0.051600 -0.063059 0.012085 -2.987703 1.512552
end
