// Created by Crowbar 0.62

$modelname "weapons/tfa_cso/c_petrolboomer.mdl"

$Include "csonline_gmod.qci"

$bodygroup "weapon"
{
	studio "v_petrolboomer"
}

$CDMaterials "models\weapons\tfa_cso\petrolboomer\"

$attachment 0 "Bone02" 21 0 0
//$attachment 1 "Bone26" 0 0 0
//$attachment 2 "Bone34" 0 0 0

$definebone "root" "" -0.349714 1.166272 0.203512 0.000000 0.000000 0.000000 0.000000 0.000000 0.000000 -0.000000 0.000000 0.000000
$definebone "Bone01" "root" 9.164136 4.053676 -9.281898 -76.217481 70.092734 -90.018486 0.000000 0.000001 0.000000 -0.000000 0.000000 0.000000
$definebone "Bone_Lefthand" "Bone01" -0.071918 -8.498730 -0.104136 5.089814 -13.452421 12.732268 0.000000 0.000000 0.000000 -0.000000 -0.000000 -0.000001
$definebone "Bone02" "Bone_Lefthand" 3.954280 -4.909126 0.762943 7.144666 -88.567071 5.072454 0.000000 0.000000 0.000000 -0.000003 0.000000 0.000000
$definebone "Bone08" "Bone02" 0.015446 3.532679 0.001871 -0.000000 89.999983 -89.999983 0.000000 0.000000 0.000000 0.000000 -0.000000 0.000003
$definebone "Bone42" "Bone02" 4.529123 0.723825 0.820159 -41.151952 89.999976 89.999976 0.000000 0.000000 0.000000 -0.000002 0.000000 0.000002
$definebone "Bone47" "Bone02" 0.294553 1.103322 1.448328 0.000000 -89.999983 0.000003 0.000000 0.000000 0.000000 0.000000 -0.000000 0.000003
$definebone "Dummy01" "Bone02" 18.319103 -0.035907 0.015351 -0.000003 0.000000 0.000000 0.000000 0.000000 0.000000 -0.000003 0.000000 0.000000
$definebone "Bone24" "Dummy01" 0.000000 0.000000 0.000000 -0.000003 0.000000 0.000000 0.000000 0.000000 0.000000 -0.000003 0.000000 0.000000
$definebone "Bone25" "Bone24" 4.803577 0.000001 0.000001 -0.000002 -20.371454 0.000001 0.000000 0.000000 0.000000 -0.000002 0.000003 0.000001
$definebone "Bone26" "Bone25" 0.937576 0.000002 0.000000 0.000001 -71.795282 0.000003 -0.000000 0.000000 -0.000000 0.000001 -0.000000 0.000003
$definebone "Bone30" "Bone26" 1.232890 0.000002 -0.000000 0.000116 -14.069897 -0.000341 0.000000 0.000000 0.000000 0.000001 -0.000002 0.000002
$definebone "Bone34" "Bone30" 1.158767 0.000000 0.000000 -0.000229 17.388239 -0.000398 0.000000 0.000000 0.000000 0.000000 0.000002 0.000003
$definebone "Bone38" "Bone34" 1.027089 0.000000 0.000000 0.000173 -5.357382 -0.000169 0.000000 0.000000 0.000000 0.000001 0.000002 0.000003

$sequence "idle1" {
	"v_petrolboomer_anims\idle1"
	{ event 5004 0 "PetrolBoomer.Idle" }
	fps 30
	activity "ACT_VM_IDLE" 1
	snap
	loop
}
$sequence "shoot1" {
	"v_petrolboomer_anims\shoot1"
	fps 30
	activity "ACT_VM_PRIMARYATTACK" 1
	snap
}
$sequence "reload" {
	"v_petrolboomer_anims\reload"
	{ event 5004 13 "PetrolBoomer.Reload" }
	fps 30
	activity "ACT_VM_RELOAD" 1
	snap
}
$sequence "draw" {
	"v_petrolboomer_anims\draw"
	{ event 5004 18 "PetrolBoomer.Draw" }
	fps 30
	activity "ACT_VM_DRAW" 1
	snap
}
$sequence "draw_empty" {
	"v_petrolboomer_anims\draw_empty"
	{ event 5004 18 "PetrolBoomer.Draw_Empty" }
	fps 30
	activity "ACT_VM_DRAW_EMPTY" 1
	snap
}
$sequence "idle_empty" {
	"v_petrolboomer_anims\idle_empty"
	fps 30
	activity "ACT_VM_IDLE_EMPTY" 1
	snap
	loop
}
