version 1
nodes
  0 "Bone01" -1
  1 "Bone_Lefthand" 0
  2 "Bone02" 1
  3 "Bone03" 2
  4 "Bone25" 3
  5 "Bone54" 3
  6 "Bone48" 3
  7 "Bone50" 3
  8 "Bone52" 3
  9 "Bone56" 3
  10 "Bone_Dragon" 3
  11 "Bone4" 1
  12 "Bone13" 11
  13 "Bone14" 12
  14 "Bone15" 13
  15 "Bone17" 11
  16 "Bone18" 15
  17 "Bone19" 16
  18 "Bone21" 11
  19 "Bone22" 18
  20 "Bone23" 19
  21 "Bone05" 11
  22 "Bone06" 21
  23 "Bone07" 22
  24 "Bone09" 11
  25 "Bone10" 24
  26 "Bone11" 25
  27 "Bone04" -1
  28 "Bone_Righthand" 27
  29 "Bone26" 28
  30 "Bone35" 29
  31 "Bone36" 30
  32 "Bone37" 31
  33 "Bone31" 29
  34 "Bone32" 33
  35 "Bone33" 34
  36 "Bone39" 29
  37 "Bone40" 36
  38 "Bone41" 37
  39 "Bone43" 29
  40 "Bone44" 39
  41 "Bone45" 40
  42 "Bone27" 29
  43 "Bone28" 42
  44 "Bone29" 43
end
skeleton
  time 0
    0 8.106567 3.165656 -8.096398 -0.539034 -1.241314 0.311552
    1 0.000000 -8.563283 0.000000 0.344690 -0.091140 -0.140417
    2 -0.627912 -3.172447 0.559143 -1.247017 1.437605 -1.233822
    3 0.000000 1.888488 0.974220 0.000000 0.000000 0.000000
    4 -0.013949 -2.603323 1.100494 0.209431 0.000000 0.000000
    5 -0.013949 -4.784638 0.650335 0.000000 0.000000 0.000000
    6 -0.716955 15.708819 -2.564272 0.000000 0.000000 0.000000
    7 -0.013948 -3.609847 2.626636 0.000000 0.000000 0.000000
    8 -0.551583 -1.713882 2.571739 0.000000 0.000000 0.340339
    9 -0.666018 -4.704159 1.993687 0.000000 0.337298 0.000000
    10 -0.018541 -0.368503 3.177891 0.000000 0.000000 0.000000
    11 -0.003480 -0.404828 0.000000 -0.000001 0.000000 0.000000
    12 -0.519309 -2.501155 -0.278957 -1.107358 -0.060907 -0.152582
    13 -0.010599 -1.208185 -0.000001 -1.179843 0.000000 0.000000
    14 -0.000001 -0.763065 0.000000 -1.228712 0.000000 0.000000
    15 0.105981 -2.607135 -0.278958 -0.873864 -0.036146 -0.178594
    16 0.000001 -1.250578 0.000000 -1.223476 0.000000 0.000000
    17 -0.000001 -0.932635 0.000000 -1.567306 0.000000 0.000000
    18 0.763064 -2.490555 -0.278958 -0.307169 0.000000 0.130900
    19 -0.012322 -1.280916 0.000000 -1.192048 0.000000 0.000000
    20 -0.001697 -0.749371 0.000001 -0.593412 0.000000 0.000000
    21 0.354566 0.016268 0.318133 0.458018 -0.443926 -1.167637
    22 1.887166 0.012878 0.000000 -0.304014 -0.029870 -0.496333
    23 1.001873 -0.000270 0.000000 0.000000 0.000000 -0.577704
    24 -1.123359 -2.195093 -0.278958 -1.174574 -0.118742 -0.146524
    25 0.010771 -0.963792 0.000000 -0.977385 0.000000 0.000000
    26 -0.010412 -0.631916 0.000000 -1.034980 0.000000 0.000000
    27 -0.590500 -9.566937 -10.627959 -0.822916 0.449913 0.466876
    28 0.089928 -8.543164 0.000000 0.682096 -0.551340 0.128920
    29 -0.000001 -0.359712 0.000000 0.000000 0.000000 0.000000
    30 -0.170479 -2.636146 -0.277655 -1.043760 -0.052696 0.090280
    31 0.010598 -1.261177 -0.000001 -0.473452 0.000000 0.000000
    32 0.000001 -0.943234 0.000001 -0.944915 0.000000 0.000000
    33 -0.827562 -2.508972 -0.277655 -0.649173 0.000000 0.000000
    34 0.000000 -1.292971 -0.000001 -0.710603 -0.058257 0.000120
    35 0.000000 -0.752466 0.000000 -0.777529 -0.248776 0.191909
    36 0.444213 -2.561960 -0.277655 -1.341909 0.037893 0.167997
    37 0.021024 -1.208187 0.000001 -0.304120 0.000000 0.000000
    38 0.010598 -0.741867 -0.000001 -0.721185 0.000000 0.000000
    39 1.047446 -2.222820 -0.277655 -1.356430 -0.069497 -0.040770
    40 0.000000 -0.996224 -0.000001 -1.199041 0.000000 0.000000
    41 0.000001 -0.614692 0.000001 -1.031490 0.000000 0.000000
    42 -0.308254 -0.007813 0.307166 -0.295074 -0.605320 -2.458737
    43 1.978377 0.019542 -0.000001 -0.101948 -0.023968 0.319700
    44 0.982424 0.003187 0.000000 0.000000 0.000000 0.541337
  time 1
    0 8.583144 3.403944 -9.819107 -0.962012 -1.108285 0.683238
    1 0.000000 -8.563283 0.000000 0.411086 0.000040 -0.290195
    2 -0.627912 -3.172447 0.559143 -1.247017 1.437605 -1.233822
    3 0.000000 1.888488 0.974220 0.000000 0.000000 0.000000
    4 -0.013949 -2.603323 1.100494 0.212786 0.000000 0.000000
    5 -0.013949 -4.784638 0.650335 0.000000 0.000000 0.000000
    6 -0.716955 15.708819 -2.564272 0.000000 0.000000 0.000000
    7 -0.010042 -3.059049 2.630542 0.000000 0.000000 0.000000
    8 -0.551583 -1.713882 2.571739 0.000000 0.000000 0.340339
    9 -0.666018 -4.704159 1.993687 0.000000 -0.789279 0.000000
    10 -0.018541 -0.368503 3.177891 0.000000 0.000000 0.000000
    11 -0.003480 -0.404828 0.000000 -0.000001 0.000000 0.000000
    12 -0.519309 -2.501155 -0.278957 -1.107358 -0.060907 -0.152582
    13 -0.010599 -1.208185 -0.000001 -1.179843 0.000000 0.000000
    14 -0.000001 -0.763065 0.000000 -1.228712 0.000000 0.000000
    15 0.105981 -2.607135 -0.278958 -0.873864 -0.036146 -0.178594
    16 0.000001 -1.250578 0.000000 -1.223476 0.000000 0.000000
    17 -0.000001 -0.932635 0.000000 -1.567306 0.000000 0.000000
    18 0.763064 -2.490555 -0.278958 -0.307169 0.000000 0.130900
    19 -0.012322 -1.280916 0.000000 -1.192048 0.000000 0.000000
    20 -0.001697 -0.749371 0.000001 -0.755723 0.000000 0.000000
    21 0.354566 0.016268 0.318133 0.458018 -0.443926 -1.167637
    22 1.887166 0.012878 0.000000 -0.304014 -0.029870 -0.496333
    23 1.001873 -0.000270 0.000000 0.000000 0.000000 -0.577704
    24 -1.123359 -2.195093 -0.278958 -1.174574 -0.118742 -0.146524
    25 0.010771 -0.963792 0.000000 -0.977385 0.000000 0.000000
    26 -0.010412 -0.631916 0.000000 -1.034980 0.000000 0.000000
    27 -0.625658 -9.895072 -10.452172 -0.778586 0.452290 -5.596651
    28 0.089928 -8.543164 0.000000 0.615153 -0.466095 -0.055048
    29 -0.000001 -0.359712 0.000000 0.000000 0.000000 0.000000
    30 -0.170479 -2.636146 -0.277655 -1.050926 -0.053679 0.089693
    31 0.010598 -1.261177 -0.000001 -0.473452 0.000000 0.000000
    32 0.000001 -0.943234 0.000001 -0.945690 0.000000 0.000000
    33 -0.827562 -2.508972 -0.277655 -0.649173 0.000000 0.000000
    34 0.000000 -1.292971 -0.000001 -0.710603 -0.058257 0.000120
    35 0.000000 -0.752466 0.000000 -0.777529 -0.248776 0.191909
    36 0.444213 -2.561960 -0.277655 -1.339076 0.024830 0.164977
    37 0.021024 -1.208187 0.000001 -0.304711 0.000000 0.000000
    38 0.010598 -0.741867 -0.000001 -0.721185 0.000000 0.000000
    39 1.047446 -2.222820 -0.277655 -1.356430 -0.069497 -0.040770
    40 0.000000 -0.996224 -0.000001 -1.199041 0.000000 0.000000
    41 0.000001 -0.614692 0.000001 -1.031490 0.000000 0.000000
    42 -0.308254 -0.007813 0.307166 -0.257602 -0.604985 -2.460367
    43 1.978377 0.019542 -0.000001 -0.103202 -0.018263 0.380347
    44 0.982424 0.003187 0.000000 0.000000 0.000000 0.490126
  time 2
    0 8.426889 2.939086 -9.229245 -0.956065 -1.114490 0.671575
    1 0.000000 -8.563283 0.000000 0.411675 0.004735 -0.295200
    2 -0.627912 -3.172447 0.559143 -1.247017 1.437605 -1.233822
    3 0.000000 1.888488 0.974220 0.000000 0.000000 0.000000
    4 -0.013949 -2.603323 1.100494 0.219486 0.000000 0.000000
    5 -0.013949 -4.784638 0.650335 0.000000 0.000000 0.000000
    6 -0.716955 15.708819 -2.564272 0.000000 0.000000 0.000000
    7 0.001677 -1.402748 2.650074 0.000000 0.000000 0.000000
    8 -0.551583 -1.713882 2.571739 0.000000 0.000000 0.340339
    9 -0.666018 -4.704159 1.993687 0.000000 2.721938 0.000000
    10 -0.018541 -0.368503 3.177891 0.000000 0.000000 0.000000
    11 -0.003480 -0.404828 0.000000 -0.000001 0.000000 0.000000
    12 -0.519309 -2.501155 -0.278957 -1.107358 -0.060907 -0.152582
    13 -0.010599 -1.208185 -0.000001 -1.179843 0.000000 0.000000
    14 -0.000001 -0.763065 0.000000 -1.228712 0.000000 0.000000
    15 0.105981 -2.607135 -0.278958 -0.873864 -0.036146 -0.178594
    16 0.000001 -1.250578 0.000000 -1.223476 0.000000 0.000000
    17 -0.000001 -0.932635 0.000000 -1.567306 0.000000 0.000000
    18 0.763064 -2.490555 -0.278958 -0.309889 0.000000 0.130900
    19 -0.012322 -1.280916 0.000000 -1.203103 0.000000 0.000000
    20 -0.001697 -0.749371 0.000001 -0.777761 0.000000 0.000000
    21 0.354566 0.016268 0.318133 0.458018 -0.443926 -1.167637
    22 1.887166 0.012878 0.000000 -0.304014 -0.029870 -0.496333
    23 1.001873 -0.000270 0.000000 0.000000 0.000000 -0.577704
    24 -1.123359 -2.195093 -0.278958 -1.174574 -0.118742 -0.146524
    25 0.010771 -0.963792 0.000000 -0.977385 0.000000 0.000000
    26 -0.010412 -0.631916 0.000000 -1.034980 0.000000 0.000000
    27 -0.758474 -10.262271 -10.084974 -0.782139 0.452385 -5.614194
    28 0.089928 -8.543164 0.000000 0.626844 -0.466248 -0.061247
    29 -0.000001 -0.359712 0.000000 0.000000 0.000000 0.000000
    30 -0.170479 -2.636146 -0.277655 -1.058423 -0.055632 0.088518
    31 0.010598 -1.261177 -0.000001 -0.473452 0.000000 0.000000
    32 0.000001 -0.943234 0.000001 -0.947500 0.000000 0.000000
    33 -0.827562 -2.508972 -0.277655 -0.649173 0.000000 0.000000
    34 0.000000 -1.292971 -0.000001 -0.710603 -0.058257 0.000120
    35 0.000000 -0.752466 0.000000 -0.777529 -0.248776 0.191909
    36 0.444213 -2.561960 -0.277655 -1.336186 0.011779 0.161909
    37 0.021024 -1.208187 0.000001 -0.306163 0.000000 0.000000
    38 0.010598 -0.741867 -0.000001 -0.721185 0.000000 0.000000
    39 1.047446 -2.222820 -0.277655 -1.356430 -0.069497 -0.040770
    40 0.000000 -0.996224 -0.000001 -1.199041 0.000000 0.000000
    41 0.000001 -0.614692 0.000001 -1.031490 0.000000 0.000000
    42 -0.308254 -0.007813 0.307166 -0.217346 -0.604236 -2.463563
    43 1.978377 0.019542 -0.000001 -0.104194 -0.012619 0.444886
    44 0.982424 0.003187 0.000000 0.000000 0.000000 0.435874
  time 3
    0 8.317511 2.603139 -8.807358 -0.888735 -1.148305 0.608082
    1 0.000000 -8.563283 0.000000 0.403528 -0.005187 -0.277438
    2 -0.627912 -3.172447 0.559143 -1.247017 1.437605 -1.233822
    3 0.000000 1.888488 0.974220 0.000000 0.000000 0.000000
    4 -0.013949 -2.603323 1.100494 0.224507 0.000000 0.000000
    5 -0.013949 -4.784638 0.650335 0.000000 0.000000 0.000000
    6 -0.716955 15.708819 -2.564272 0.000000 0.000000 0.000000
    7 -0.002229 -1.648850 2.646168 0.000000 0.000000 0.000000
    8 -0.551583 -1.713882 2.571739 0.000000 0.000000 0.340339
    9 -0.666018 -4.704159 1.993687 0.000000 -1.856047 0.000000
    10 -0.018541 -0.368503 3.177891 0.000000 0.000000 0.000000
    11 -0.003480 -0.404828 0.000000 -0.000001 0.000000 0.000000
    12 -0.519309 -2.501155 -0.278957 -1.107358 -0.060907 -0.152582
    13 -0.010599 -1.208185 -0.000001 -1.179843 0.000000 0.000000
    14 -0.000001 -0.763065 0.000000 -1.228712 0.000000 0.000000
    15 0.105981 -2.607135 -0.278958 -0.873864 -0.036146 -0.178594
    16 0.000001 -1.250578 0.000000 -1.223476 0.000000 0.000000
    17 -0.000001 -0.932635 0.000000 -1.567306 0.000000 0.000000
    18 0.763064 -2.490555 -0.278958 -0.312598 0.000000 0.130900
    19 -0.012322 -1.280916 0.000000 -1.214181 0.000000 0.000000
    20 -0.001697 -0.749371 0.000001 -0.772742 0.000000 0.000000
    21 0.354566 0.016268 0.318133 0.458018 -0.443926 -1.167637
    22 1.887166 0.012878 0.000000 -0.304014 -0.029870 -0.496333
    23 1.001873 -0.000270 0.000000 0.000000 0.000000 -0.577704
    24 -1.123359 -2.195093 -0.278958 -1.174574 -0.118742 -0.146524
    25 0.010771 -0.963792 0.000000 -0.977385 0.000000 0.000000
    26 -0.010412 -0.631916 0.000000 -1.034980 0.000000 0.000000
    27 -0.961605 -10.543529 -10.116225 -0.789513 0.452480 0.632439
    28 0.089928 -8.543164 0.000000 0.644828 -0.471458 -0.055693
    29 -0.000001 -0.359712 0.000000 0.000000 0.000000 0.000000
    30 -0.170479 -2.636146 -0.277655 -1.065722 -0.057107 0.087667
    31 0.010598 -1.261177 -0.000001 -0.473452 0.000000 0.000000
    32 0.000001 -0.943234 0.000001 -0.949752 0.000000 0.000000
    33 -0.827562 -2.508972 -0.277655 -0.649173 0.000000 0.000000
    34 0.000000 -1.292971 -0.000001 -0.710603 -0.058257 0.000120
    35 0.000000 -0.752466 0.000000 -0.777529 -0.248776 0.191909
    36 0.444213 -2.561960 -0.277655 -1.335203 0.002407 0.160183
    37 0.021024 -1.208187 0.000001 -0.307937 0.000000 0.000000
    38 0.010598 -0.741867 -0.000001 -0.721185 0.000000 0.000000
    39 1.047446 -2.222820 -0.277655 -1.356430 -0.069497 -0.040770
    40 0.000000 -0.996224 -0.000001 -1.199041 0.000000 0.000000
    41 0.000001 -0.614692 0.000001 -1.031490 0.000000 0.000000
    42 -0.308254 -0.007813 0.307166 -0.178493 -0.603583 -2.465944
    43 1.978377 0.019542 -0.000001 -0.104777 -0.006854 0.507494
    44 0.982424 0.003187 0.000000 0.000000 0.000000 0.383159
  time 4
    0 8.251102 2.403914 -8.557350 -0.793385 -1.185258 0.520259
    1 0.000000 -8.563283 0.000000 0.390645 -0.022417 -0.248400
    2 -0.627912 -3.172447 0.559143 -1.247017 1.437605 -1.233822
    3 0.000000 1.888488 0.974220 0.000000 0.000000 0.000000
    4 -0.013949 -2.603323 1.100494 0.222841 0.000000 0.000000
    5 -0.013949 -4.784638 0.650335 0.000000 0.000000 0.000000
    6 -0.716955 15.708819 -2.564272 0.000000 0.000000 0.000000
    7 -0.006135 -2.383247 2.638355 0.000000 0.000000 0.000000
    8 -0.551583 -1.713882 2.571739 0.000000 0.000000 0.340339
    9 -0.666018 -4.704159 1.993687 0.000000 -0.161425 0.000000
    10 -0.018541 -0.368503 3.177891 0.000000 0.000000 0.000000
    11 -0.003480 -0.404828 0.000000 -0.000001 0.000000 0.000000
    12 -0.519309 -2.501155 -0.278957 -1.107358 -0.060907 -0.152582
    13 -0.010599 -1.208185 -0.000001 -1.179843 0.000000 0.000000
    14 -0.000001 -0.763065 0.000000 -1.228712 0.000000 0.000000
    15 0.105981 -2.607135 -0.278958 -0.873864 -0.036146 -0.178594
    16 0.000001 -1.250578 0.000000 -1.223476 0.000000 0.000000
    17 -0.000001 -0.932635 0.000000 -1.567306 0.000000 0.000000
    18 0.763064 -2.490555 -0.278958 -0.307169 0.000000 0.130900
    19 -0.012322 -1.280916 0.000000 -1.192048 0.000000 0.000000
    20 -0.001697 -0.749371 0.000001 -0.755723 0.000000 0.000000
    21 0.354566 0.016268 0.318133 0.458018 -0.443926 -1.167637
    22 1.887166 0.012878 0.000000 -0.304014 -0.029870 -0.496333
    23 1.001873 -0.000270 0.000000 0.000000 0.000000 -0.577704
    24 -1.123359 -2.195093 -0.278958 -1.174574 -0.118742 -0.146524
    25 0.010771 -0.963792 0.000000 -0.977385 0.000000 0.000000
    26 -0.010412 -0.631916 0.000000 -1.034980 0.000000 0.000000
    27 -1.008482 -10.656814 -10.420921 -0.799285 0.452290 0.584314
    28 0.089928 -8.543164 0.000000 0.666872 -0.480559 -0.042165
    29 -0.000001 -0.359712 0.000000 0.000000 0.000000 0.000000
    30 -0.170479 -2.636146 -0.277655 -1.072423 -0.056627 0.087967
    31 0.010598 -1.261177 -0.000001 -0.473452 0.000000 0.000000
    32 0.000001 -0.943234 0.000001 -0.951783 0.000000 0.000000
    33 -0.827562 -2.508972 -0.277655 -0.649173 0.000000 0.000000
    34 0.000000 -1.292971 -0.000001 -0.710603 -0.058257 0.000120
    35 0.000000 -0.752466 0.000000 -0.777529 -0.248776 0.191909
    36 0.444213 -2.561960 -0.277655 -1.334856 -0.005107 0.160914
    37 0.021024 -1.208187 0.000001 -0.309549 0.000000 0.000000
    38 0.010598 -0.741867 -0.000001 -0.721185 0.000000 0.000000
    39 1.047446 -2.222820 -0.277655 -1.356430 -0.069497 -0.040770
    40 0.000000 -0.996224 -0.000001 -1.199041 0.000000 0.000000
    41 0.000001 -0.614692 0.000001 -1.031490 0.000000 0.000000
    42 -0.308254 -0.007813 0.307166 -0.145210 -0.603679 -2.465098
    43 1.978377 0.019542 -0.000001 -0.104894 -0.000826 0.562288
    44 0.982424 0.003187 0.000000 0.000000 0.000000 0.336493
  time 5
    0 8.231570 2.337506 -8.471410 -0.727920 -1.205338 0.460242
    1 0.000000 -8.563283 0.000000 0.377362 -0.039869 -0.219724
    2 -0.627912 -3.172447 0.559143 -1.247017 1.437605 -1.233822
    3 0.000000 1.888488 0.974220 0.000000 0.000000 0.000000
    4 -0.013949 -2.603323 1.100494 0.209431 0.000000 0.000000
    5 -0.013949 -4.784638 0.650335 0.000000 0.000000 0.000000
    6 -0.716955 15.708819 -2.564272 0.000000 0.000000 0.000000
    7 -0.013948 -3.609847 2.626636 0.000000 0.000000 0.000000
    8 -0.551583 -1.713882 2.571739 0.000000 0.000000 0.340339
    9 -0.666018 -4.704159 1.993687 0.000000 0.337298 0.000000
    10 -0.018541 -0.368503 3.177891 0.000000 0.000000 0.000000
    11 -0.003480 -0.404828 0.000000 -0.000001 0.000000 0.000000
    12 -0.519309 -2.501155 -0.278957 -1.107358 -0.060907 -0.152582
    13 -0.010599 -1.208185 -0.000001 -1.179843 0.000000 0.000000
    14 -0.000001 -0.763065 0.000000 -1.228712 0.000000 0.000000
    15 0.105981 -2.607135 -0.278958 -0.873864 -0.036146 -0.178594
    16 0.000001 -1.250578 0.000000 -1.223476 0.000000 0.000000
    17 -0.000001 -0.932635 0.000000 -1.567306 0.000000 0.000000
    18 0.763064 -2.490555 -0.278958 -0.291133 0.000000 0.130900
    19 -0.012322 -1.280916 0.000000 -1.126574 0.000000 0.000000
    20 -0.001697 -0.749371 0.000001 -0.732037 0.000000 0.000000
    21 0.354566 0.016268 0.318133 0.458018 -0.443926 -1.167637
    22 1.887166 0.012878 0.000000 -0.304014 -0.029870 -0.496333
    23 1.001873 -0.000270 0.000000 0.000000 0.000000 -0.577704
    24 -1.123359 -2.195093 -0.278958 -1.174574 -0.118742 -0.146524
    25 0.010771 -0.963792 0.000000 -0.977385 0.000000 0.000000
    26 -0.010412 -0.631916 0.000000 -1.034980 0.000000 0.000000
    27 -0.918635 -10.484934 -10.577176 -0.809857 0.451529 0.531874
    28 0.089928 -8.543164 0.000000 0.690743 -0.492319 -0.024408
    29 -0.000001 -0.359712 0.000000 0.000000 0.000000 0.000000
    30 -0.170479 -2.636146 -0.277655 -1.077864 -0.052696 0.090280
    31 0.010598 -1.261177 -0.000001 -0.473452 0.000000 0.000000
    32 0.000001 -0.943234 0.000001 -0.952965 0.000000 0.000000
    33 -0.827562 -2.508972 -0.277655 -0.649173 0.000000 0.000000
    34 0.000000 -1.292971 -0.000001 -0.710603 -0.058257 0.000120
    35 0.000000 -0.752466 0.000000 -0.777529 -0.248776 0.191909
    36 0.444213 -2.561960 -0.277655 -1.336475 -0.008942 0.163012
    37 0.021024 -1.208187 0.000001 -0.310463 0.000000 0.000000
    38 0.010598 -0.741867 -0.000001 -0.721185 0.000000 0.000000
    39 1.047446 -2.222820 -0.277655 -1.356430 -0.069497 -0.040770
    40 0.000000 -0.996224 -0.000001 -1.199041 0.000000 0.000000
    41 0.000001 -0.614692 0.000001 -1.031490 0.000000 0.000000
    42 -0.308254 -0.007813 0.307166 -0.121685 -0.605320 -2.458737
    43 1.978377 0.019542 -0.000001 -0.104544 0.005634 0.603446
    44 0.982424 0.003187 0.000000 0.000000 0.000000 0.300389
  time 6
    0 8.243290 2.446884 -8.526099 -0.710029 -1.210044 0.444485
    1 0.000000 -8.563283 0.000000 0.368709 -0.050943 -0.203389
    2 -0.627912 -3.172447 0.559143 -1.247017 1.437605 -1.233822
    3 0.000000 1.888488 0.974220 0.000000 0.000000 0.000000
    4 -0.013949 -2.615042 1.100494 0.174244 0.000000 0.000000
    5 -0.013949 -4.784638 0.650335 0.000000 0.000000 0.000000
    6 -0.716955 15.708819 -2.564272 0.000000 0.000000 0.000000
    7 -0.013948 -3.609847 2.626636 0.000000 0.000000 0.000000
    8 -0.551583 -1.713882 2.571739 0.000000 0.000000 0.340339
    9 -0.666018 -4.704159 1.993687 0.000000 0.337298 0.000000
    10 -0.018541 -0.368503 3.177891 0.000000 0.000000 0.000000
    11 -0.003480 -0.404828 0.000000 -0.000001 0.000000 0.000000
    12 -0.519309 -2.501155 -0.278957 -1.107358 -0.060907 -0.152582
    13 -0.010599 -1.208185 -0.000001 -1.179843 0.000000 0.000000
    14 -0.000001 -0.763065 0.000000 -1.228712 0.000000 0.000000
    15 0.105981 -2.607135 -0.278958 -0.873864 -0.036146 -0.178594
    16 0.000001 -1.250578 0.000000 -1.223476 0.000000 0.000000
    17 -0.000001 -0.932635 0.000000 -1.567306 0.000000 0.000000
    18 0.763064 -2.490555 -0.278958 -0.269681 0.000000 0.130900
    19 -0.012322 -1.280916 0.000000 -1.038942 0.000000 0.000000
    20 -0.001697 -0.749371 0.000001 -0.700375 0.000000 0.000000
    21 0.354566 0.016268 0.318133 0.458018 -0.443926 -1.167637
    22 1.887166 0.012878 0.000000 -0.304014 -0.029870 -0.496333
    23 1.001873 -0.000270 0.000000 0.000000 0.000000 -0.577704
    24 -1.123359 -2.195093 -0.278958 -1.174574 -0.118742 -0.146524
    25 0.010771 -0.963792 0.000000 -0.977385 0.000000 0.000000
    26 -0.010412 -0.631916 0.000000 -1.034980 0.000000 0.000000
    27 -0.781912 -10.156799 -10.577176 -0.819806 0.450388 0.482407
    28 0.089928 -8.543164 0.000000 0.714207 -0.505244 -0.006134
    29 -0.000001 -0.359712 0.000000 0.000000 0.000000 0.000000
    30 -0.170479 -2.636146 -0.277655 -1.080518 -0.037212 0.099268
    31 0.010598 -1.261177 -0.000001 -0.473452 0.000000 0.000000
    32 0.000001 -0.943234 0.000001 -0.952633 0.000000 0.000000
    33 -0.827562 -2.508972 -0.277655 -0.649173 0.000000 0.000000
    34 0.000000 -1.292971 -0.000001 -0.710603 -0.058257 0.000120
    35 0.000000 -0.752466 0.000000 -0.777529 -0.248776 0.191909
    36 0.444213 -2.561960 -0.277655 -1.345262 0.000082 0.164594
    37 0.021024 -1.208187 0.000001 -0.310194 0.000000 0.000000
    38 0.010598 -0.741867 -0.000001 -0.721185 0.000000 0.000000
    39 1.047446 -2.222820 -0.277655 -1.356430 -0.069497 -0.040770
    40 0.000000 -0.996224 -0.000001 -1.199041 0.000000 0.000000
    41 0.000001 -0.614692 0.000001 -1.031490 0.000000 0.000000
    42 -0.308254 -0.007813 0.307166 -0.120576 -0.610308 -2.433639
    43 1.978377 0.019542 -0.000001 -0.103406 0.016024 0.614031
    44 0.982424 0.003187 0.000000 0.000000 0.000000 0.286946
  time 7
    0 8.255009 2.548450 -8.576882 -0.703226 -1.211613 0.439155
    1 0.000000 -8.563283 0.000000 0.365047 -0.055682 -0.199197
    2 -0.627912 -3.172447 0.559143 -1.247017 1.437605 -1.233822
    3 0.000000 1.888488 0.974220 0.000000 0.000000 0.000000
    4 -0.013949 -2.646293 1.100494 0.120637 0.000000 0.000000
    5 -0.013949 -4.784638 0.650335 0.000000 0.000000 0.000000
    6 -0.716955 15.708819 -2.564272 0.000000 0.000000 0.000000
    7 -0.013948 -3.609847 2.626636 0.000000 0.000000 0.000000
    8 -0.551583 -1.713882 2.571739 0.000000 0.000000 0.340339
    9 -0.666018 -4.704159 1.993687 0.000000 0.337298 0.000000
    10 -0.018541 -0.368503 3.177891 0.000000 0.000000 0.000000
    11 -0.003480 -0.404828 0.000000 -0.000001 0.000000 0.000000
    12 -0.519309 -2.501155 -0.278957 -1.107358 -0.060907 -0.152582
    13 -0.010599 -1.208185 -0.000001 -1.179843 0.000000 0.000000
    14 -0.000001 -0.763065 0.000000 -1.228712 0.000000 0.000000
    15 0.105981 -2.607135 -0.278958 -0.873864 -0.036146 -0.178594
    16 0.000001 -1.250578 0.000000 -1.223476 0.000000 0.000000
    17 -0.000001 -0.932635 0.000000 -1.567306 0.000000 0.000000
    18 0.763064 -2.490555 -0.278958 -0.246203 0.000000 0.130900
    19 -0.012322 -1.280916 0.000000 -0.943014 0.000000 0.000000
    20 -0.001697 -0.749371 0.000001 -0.665707 0.000000 0.000000
    21 0.354566 0.016268 0.318133 0.458018 -0.443926 -1.167637
    22 1.887166 0.012878 0.000000 -0.304014 -0.029870 -0.496333
    23 1.001873 -0.000270 0.000000 0.000000 0.000000 -0.577704
    24 -1.123359 -2.195093 -0.278958 -1.174574 -0.118742 -0.146524
    25 0.010771 -0.963792 0.000000 -0.977385 0.000000 0.000000
    26 -0.010412 -0.631916 0.000000 -1.034980 0.000000 0.000000
    27 -0.649096 -9.918510 -10.588895 -0.827624 0.449152 0.443389
    28 0.089928 -8.543164 0.000000 0.735155 -0.517708 0.009041
    29 -0.000001 -0.359712 0.000000 0.000000 0.000000 0.000000
    30 -0.170479 -2.636146 -0.277655 -1.080584 -0.014885 0.112236
    31 0.010598 -1.261177 -0.000001 -0.473452 0.000000 0.000000
    32 0.000001 -0.943234 0.000001 -0.950158 0.000000 0.000000
    33 -0.827562 -2.508972 -0.277655 -0.649173 0.000000 0.000000
    34 0.000000 -1.292971 -0.000001 -0.710603 -0.058257 0.000120
    35 0.000000 -0.752466 0.000000 -0.777529 -0.248776 0.191909
    36 0.444213 -2.561960 -0.277655 -1.378964 0.049686 0.163132
    37 0.021024 -1.208187 0.000001 -0.308259 0.000000 0.000000
    38 0.010598 -0.741867 -0.000001 -0.721185 0.000000 0.000000
    39 1.047446 -2.222820 -0.277655 -1.356430 -0.069497 -0.040770
    40 0.000000 -0.996224 -0.000001 -1.199041 0.000000 0.000000
    41 0.000001 -0.614692 0.000001 -1.031490 0.000000 0.000000
    42 -0.308254 -0.007813 0.307166 -0.139142 -0.617783 -2.397198
    43 1.978377 0.019542 -0.000001 -0.102152 0.027302 0.597593
    44 0.982424 0.003187 0.000000 0.000000 0.000000 0.294468
  time 8
    0 8.262821 2.638296 -8.619852 -0.705846 -1.210636 0.442631
    1 0.000000 -8.563283 0.000000 0.362984 -0.058539 -0.198420
    2 -0.627912 -3.172447 0.559143 -1.247017 1.437605 -1.233822
    3 0.000000 1.888488 0.974220 0.000000 0.000000 0.000000
    4 -0.013949 -2.681450 1.100494 0.063662 0.000000 0.000000
    5 -0.013949 -4.784638 0.650335 0.000000 0.000000 0.000000
    6 -0.716955 15.708819 -2.564272 0.000000 0.000000 0.000000
    7 -0.013948 -3.609847 2.626636 0.000000 0.000000 0.000000
    8 -0.551583 -1.713882 2.571739 0.000000 0.000000 0.340339
    9 -0.666018 -4.704159 1.993687 0.000000 0.337298 0.000000
    10 -0.018541 -0.368503 3.177891 0.000000 0.000000 0.000000
    11 -0.003480 -0.404828 0.000000 -0.000001 0.000000 0.000000
    12 -0.519309 -2.501155 -0.278957 -1.107358 -0.060907 -0.152582
    13 -0.010599 -1.208185 -0.000001 -1.179843 0.000000 0.000000
    14 -0.000001 -0.763065 0.000000 -1.228712 0.000000 0.000000
    15 0.105981 -2.607135 -0.278958 -0.873864 -0.036146 -0.178594
    16 0.000001 -1.250578 0.000000 -1.223476 0.000000 0.000000
    17 -0.000001 -0.932635 0.000000 -1.567306 0.000000 0.000000
    18 0.763064 -2.490555 -0.278958 -0.224055 0.000000 0.130900
    19 -0.012322 -1.280916 0.000000 -0.852625 0.000000 0.000000
    20 -0.001697 -0.749371 0.000001 -0.633026 0.000000 0.000000
    21 0.354566 0.016268 0.318133 0.458018 -0.443926 -1.167637
    22 1.887166 0.012878 0.000000 -0.304014 -0.029870 -0.496333
    23 1.001873 -0.000270 0.000000 0.000000 0.000000 -0.577704
    24 -1.123359 -2.195093 -0.278958 -1.174574 -0.118742 -0.146524
    25 0.010771 -0.963792 0.000000 -0.977385 0.000000 0.000000
    26 -0.010412 -0.631916 0.000000 -1.034980 0.000000 0.000000
    27 -0.543624 -9.742723 -10.588895 -0.831888 0.448391 0.421914
    28 0.089928 -8.543164 0.000000 0.751597 -0.527841 0.017532
    29 -0.000001 -0.359712 0.000000 0.000000 0.000000 0.000000
    30 -0.170479 -2.636146 -0.277655 -1.080849 -0.003511 0.118863
    31 0.010598 -1.261177 -0.000001 -0.473452 0.000000 0.000000
    32 0.000001 -0.943234 0.000001 -0.944915 0.000000 0.000000
    33 -0.827562 -2.508972 -0.277655 -0.649173 0.000000 0.000000
    34 0.000000 -1.292971 -0.000001 -0.710603 -0.058257 0.000120
    35 0.000000 -0.752466 0.000000 -0.777529 -0.248776 0.191909
    36 0.444213 -2.561960 -0.277655 -1.406307 0.094772 0.160243
    37 0.021024 -1.208187 0.000001 -0.304120 0.000000 0.000000
    38 0.010598 -0.741867 -0.000001 -0.721185 0.000000 0.000000
    39 1.047446 -2.222820 -0.277655 -1.356430 -0.069497 -0.040770
    40 0.000000 -0.996224 -0.000001 -1.199041 0.000000 0.000000
    41 0.000001 -0.614692 0.000001 -1.031490 0.000000 0.000000
    42 -0.308254 -0.007813 0.307166 -0.157731 -0.625353 -2.378555
    43 1.978377 0.019542 -0.000001 -0.101977 0.029699 0.578976
    44 0.982424 0.003187 0.000000 0.000000 0.000000 0.306918
  time 9
    0 8.270634 2.720330 -8.662822 -0.715674 -1.207638 0.452981
    1 0.000000 -8.563283 0.000000 0.362268 -0.059846 -0.200408
    2 -0.627912 -3.172447 0.559143 -1.247017 1.437605 -1.233822
    3 0.000000 1.888488 0.974220 0.000000 0.000000 0.000000
    4 -0.013949 -2.708795 1.100494 0.018420 0.000000 0.000000
    5 -0.013949 -4.784638 0.650335 0.000000 0.000000 0.000000
    6 -0.716955 15.708819 -2.564272 0.000000 0.000000 0.000000
    7 -0.013948 -3.609847 2.626636 0.000000 0.000000 0.000000
    8 -0.551583 -1.713882 2.571739 0.000000 0.000000 0.340339
    9 -0.666018 -4.704159 1.993687 0.000000 0.337298 0.000000
    10 -0.018541 -0.368503 3.177891 0.000000 0.000000 0.000000
    11 -0.003480 -0.404828 0.000000 -0.000001 0.000000 0.000000
    12 -0.519309 -2.501155 -0.278957 -1.107358 -0.060907 -0.152582
    13 -0.010599 -1.208185 -0.000001 -1.179843 0.000000 0.000000
    14 -0.000001 -0.763065 0.000000 -1.228712 0.000000 0.000000
    15 0.105981 -2.607135 -0.278958 -0.873864 -0.036146 -0.178594
    16 0.000001 -1.250578 0.000000 -1.223476 0.000000 0.000000
    17 -0.000001 -0.932635 0.000000 -1.567306 0.000000 0.000000
    18 0.763064 -2.490555 -0.278958 -0.206606 0.000000 0.130900
    19 -0.012322 -1.280916 0.000000 -0.781659 0.000000 0.000000
    20 -0.001697 -0.749371 0.000001 -0.607255 0.000000 0.000000
    21 0.354566 0.016268 0.318133 0.458018 -0.443926 -1.167637
    22 1.887166 0.012878 0.000000 -0.304014 -0.029870 -0.496333
    23 1.001873 -0.000270 0.000000 0.000000 0.000000 -0.577704
    24 -1.123359 -2.195093 -0.278958 -1.174574 -0.118742 -0.146524
    25 0.010771 -0.963792 0.000000 -0.977385 0.000000 0.000000
    26 -0.010412 -0.631916 0.000000 -1.034980 0.000000 0.000000
    27 -0.492841 -9.609907 -10.549832 -0.833043 0.448106 0.415970
    28 0.089928 -8.543164 0.000000 0.762963 -0.536766 0.017791
    29 -0.000001 -0.359712 0.000000 0.000000 0.000000 0.000000
    30 -0.170479 -2.636146 -0.277655 -1.082508 -0.005093 0.117964
    31 0.010598 -1.261177 -0.000001 -0.473452 0.000000 0.000000
    32 0.000001 -0.943234 0.000001 -0.930476 0.000276 0.000228
    33 -0.827562 -2.508972 -0.277655 -0.649173 0.000000 0.000000
    34 0.000000 -1.292971 -0.000001 -0.710603 -0.058257 0.000120
    35 0.000000 -0.752466 0.000000 -0.777529 -0.248776 0.191909
    36 0.444213 -2.561960 -0.277655 -1.404920 0.101640 0.160423
    37 0.021024 -1.208187 0.000001 -0.296756 0.000240 0.000899
    38 0.010598 -0.741867 -0.000001 -0.721185 0.000000 0.000000
    39 1.047446 -2.222820 -0.277655 -1.356430 -0.069497 -0.040770
    40 0.000000 -0.996224 -0.000001 -1.199041 0.000000 0.000000
    41 0.000001 -0.614692 0.000001 -1.031490 0.000000 0.000000
    42 -0.308254 -0.007813 0.307166 -0.170002 -0.633481 -2.380623
    43 1.978377 0.019542 -0.000001 -0.102619 0.023539 0.567207
    44 0.982424 0.003187 0.000000 0.000000 0.000000 0.316649
  time 10
    0 8.278447 2.790644 -8.697979 -0.730389 -1.203141 0.467966
    1 0.000000 -8.563283 0.000000 0.362605 -0.059957 -0.204509
    2 -0.627912 -3.172447 0.559143 -1.247017 1.437605 -1.233822
    3 0.000000 1.888488 0.974220 0.000000 0.000000 0.000000
    4 -0.013949 -2.720514 1.100494 0.000000 0.000000 0.000000
    5 -0.013949 -4.784638 0.650335 0.000000 0.000000 0.000000
    6 -0.716955 15.708819 -2.564272 0.000000 0.000000 0.000000
    7 -0.013948 -3.609847 2.626636 0.000000 0.000000 0.000000
    8 -0.551583 -1.713882 2.571739 0.000000 0.000000 0.340339
    9 -0.666018 -4.704159 1.993687 0.000000 0.337298 0.000000
    10 -0.018541 -0.368503 3.177891 0.000000 0.000000 0.000000
    11 -0.003480 -0.404828 0.000000 -0.000001 0.000000 0.000000
    12 -0.519309 -2.501155 -0.278957 -1.107358 -0.060907 -0.152582
    13 -0.010599 -1.208185 -0.000001 -1.179843 0.000000 0.000000
    14 -0.000001 -0.763065 0.000000 -1.228712 0.000000 0.000000
    15 0.105981 -2.607135 -0.278958 -0.873864 -0.036146 -0.178594
    16 0.000001 -1.250578 0.000000 -1.223476 0.000000 0.000000
    17 -0.000001 -0.932635 0.000000 -1.567306 0.000000 0.000000
    18 0.763064 -2.490555 -0.278958 -0.197222 0.000000 0.130900
    19 -0.012322 -1.280916 0.000000 -0.743930 0.000000 0.000000
    20 -0.001697 -0.749371 0.000001 -0.593412 0.000000 0.000000
    21 0.354566 0.016268 0.318133 0.458018 -0.443926 -1.167637
    22 1.887166 0.012878 0.000000 -0.304014 -0.029870 -0.496333
    23 1.001873 -0.000270 0.000000 0.000000 0.000000 -0.577704
    24 -1.123359 -2.195093 -0.278958 -1.174574 -0.118742 -0.146524
    25 0.010771 -0.963792 0.000000 -0.977385 0.000000 0.000000
    26 -0.010412 -0.631916 0.000000 -1.034980 0.000000 0.000000
    27 -0.481122 -9.523967 -10.487330 -0.832777 0.448201 0.417504
    28 0.089928 -8.543164 0.000000 0.770596 -0.545888 0.012625
    29 -0.000001 -0.359712 0.000000 0.000000 0.000000 0.000000
    30 -0.170479 -2.636146 -0.277655 -1.084299 -0.009372 0.115519
    31 0.010598 -1.261177 -0.000001 -0.473452 0.000000 0.000000
    32 0.000001 -0.943234 0.000001 -0.906400 0.000743 0.000623
    33 -0.827562 -2.508972 -0.277655 -0.649173 0.000000 0.000000
    34 0.000000 -1.292971 -0.000001 -0.710603 -0.058257 0.000120
    35 0.000000 -0.752466 0.000000 -0.777529 -0.248776 0.191909
    36 0.444213 -2.561960 -0.277655 -1.399139 0.103881 0.161142
    37 0.021024 -1.208187 0.000001 -0.286112 0.000779 0.003008
    38 0.010598 -0.741867 -0.000001 -0.721185 0.000000 0.000000
    39 1.047446 -2.222820 -0.277655 -1.356430 -0.069497 -0.040770
    40 0.000000 -0.996224 -0.000001 -1.199041 0.000000 0.000000
    41 0.000001 -0.614692 0.000001 -1.031490 0.000000 0.000000
    42 -0.308254 -0.007813 0.307166 -0.182976 -0.642980 -2.386012
    43 1.978377 0.019542 -0.000001 -0.103319 0.015857 0.554879
    44 0.982424 0.003187 0.000000 0.000000 0.000000 0.326539
  time 11
    0 8.286260 2.853146 -8.729230 -0.747726 -1.197633 0.485423
    1 0.000000 -8.563283 0.000000 0.363741 -0.059182 -0.210057
    2 -0.627912 -3.172447 0.559143 -1.247017 1.437605 -1.233822
    3 0.000000 1.888488 0.974220 0.000000 0.000000 0.000000
    4 -0.013949 -2.720514 1.100494 0.001019 0.000000 0.000000
    5 -0.013949 -4.784638 0.650335 0.000000 0.000000 0.000000
    6 -0.716955 15.708819 -2.564272 0.000000 0.000000 0.000000
    7 -0.013948 -3.609847 2.626636 0.000000 0.000000 0.000000
    8 -0.551583 -1.713882 2.571739 0.000000 0.000000 0.340339
    9 -0.666018 -4.704159 1.993687 0.000000 0.337298 0.000000
    10 -0.018541 -0.368503 3.177891 0.000000 0.000000 0.000000
    11 -0.003480 -0.404828 0.000000 -0.000001 0.000000 0.000000
    12 -0.519309 -2.501155 -0.278957 -1.107358 -0.060907 -0.152582
    13 -0.010599 -1.208185 -0.000001 -1.179843 0.000000 0.000000
    14 -0.000001 -0.763065 0.000000 -1.228712 0.000000 0.000000
    15 0.105981 -2.607135 -0.278958 -0.873864 -0.036146 -0.178594
    16 0.000001 -1.250578 0.000000 -1.223476 0.000000 0.000000
    17 -0.000001 -0.932635 0.000000 -1.567306 0.000000 0.000000
    18 0.763064 -2.490555 -0.278958 -0.193411 0.000000 0.130900
    19 -0.012322 -1.280916 0.000000 -0.729142 0.000000 0.000000
    20 -0.001697 -0.749371 0.000001 -0.587787 0.000000 0.000000
    21 0.354566 0.016268 0.318133 0.458018 -0.443926 -1.167637
    22 1.887166 0.012878 0.000000 -0.304014 -0.029870 -0.496333
    23 1.001873 -0.000270 0.000000 0.000000 0.000000 -0.577704
    24 -1.123359 -2.195093 -0.278958 -1.174574 -0.118742 -0.146524
    25 0.010771 -0.963792 0.000000 -0.977385 0.000000 0.000000
    26 -0.010412 -0.631916 0.000000 -1.034980 0.000000 0.000000
    27 -0.485028 -9.469278 -10.432640 -0.831266 0.448486 0.424982
    28 0.089928 -8.543164 0.000000 0.775264 -0.553934 0.005102
    29 -0.000001 -0.359712 0.000000 0.000000 0.000000 0.000000
    30 -0.170479 -2.636146 -0.277655 -1.086157 -0.015676 0.111936
    31 0.010598 -1.261177 -0.000001 -0.473452 0.000000 0.000000
    32 0.000001 -0.943234 0.000001 -0.881031 0.000827 0.000707
    33 -0.827562 -2.508972 -0.277655 -0.649173 0.000000 0.000000
    34 0.000000 -1.292971 -0.000001 -0.710603 -0.058257 0.000120
    35 0.000000 -0.752466 0.000000 -0.777529 -0.248776 0.191909
    36 0.444213 -2.561960 -0.277655 -1.390352 0.102658 0.162209
    37 0.021024 -1.208187 0.000001 -0.273373 0.001378 0.005429
    38 0.010598 -0.741867 -0.000001 -0.721185 0.000000 0.000000
    39 1.047446 -2.222820 -0.277655 -1.356430 -0.069497 -0.040770
    40 0.000000 -0.996224 -0.000001 -1.199041 0.000000 0.000000
    41 0.000001 -0.614692 0.000001 -1.031490 0.000000 0.000000
    42 -0.308254 -0.007813 0.307166 -0.196312 -0.653371 -2.393971
    43 1.978377 0.019542 -0.000001 -0.104019 0.006988 0.542145
    44 0.982424 0.003187 0.000000 0.000000 0.000000 0.336621
  time 12
    0 8.294072 2.907835 -8.756575 -0.765566 -1.191672 0.503420
    1 0.000000 -8.563283 0.000000 0.365362 -0.057853 -0.216363
    2 -0.627912 -3.172447 0.559143 -1.247017 1.437605 -1.233822
    3 0.000000 1.888488 0.974220 0.000000 0.000000 0.000000
    4 -0.013949 -2.720514 1.100494 0.003979 0.000000 0.000000
    5 -0.013949 -4.784638 0.650335 0.000000 0.000000 0.000000
    6 -0.716955 15.708819 -2.564272 0.000000 0.000000 0.000000
    7 -0.013948 -3.609847 2.626636 0.000000 0.000000 0.000000
    8 -0.551583 -1.713882 2.571739 0.000000 0.000000 0.340339
    9 -0.666018 -4.704159 1.993687 0.000000 0.337298 0.000000
    10 -0.018541 -0.368503 3.177891 0.000000 0.000000 0.000000
    11 -0.003480 -0.404828 0.000000 -0.000001 0.000000 0.000000
    12 -0.519309 -2.501155 -0.278957 -1.107358 -0.060907 -0.152582
    13 -0.010599 -1.208185 -0.000001 -1.179843 0.000000 0.000000
    14 -0.000001 -0.763065 0.000000 -1.228712 0.000000 0.000000
    15 0.105981 -2.607135 -0.278958 -0.873864 -0.036146 -0.178594
    16 0.000001 -1.250578 0.000000 -1.223476 0.000000 0.000000
    17 -0.000001 -0.932635 0.000000 -1.567306 0.000000 0.000000
    18 0.763064 -2.490555 -0.278958 -0.190379 0.000000 0.130900
    19 -0.012322 -1.280916 0.000000 -0.717612 0.000000 0.000000
    20 -0.001697 -0.749371 0.000001 -0.583302 0.000000 0.000000
    21 0.354566 0.016268 0.318133 0.458018 -0.443926 -1.167637
    22 1.887166 0.012878 0.000000 -0.304014 -0.029870 -0.496333
    23 1.001873 -0.000270 0.000000 0.000000 0.000000 -0.577704
    24 -1.123359 -2.195093 -0.278958 -1.174574 -0.118742 -0.146524
    25 0.010771 -0.963792 0.000000 -0.977385 0.000000 0.000000
    26 -0.010412 -0.631916 0.000000 -1.034980 0.000000 0.000000
    27 -0.496747 -9.441933 -10.381858 -0.828868 0.448962 0.436870
    28 0.089928 -8.543164 0.000000 0.777619 -0.559671 -0.001646
    29 -0.000001 -0.359712 0.000000 0.000000 0.000000 0.000000
    30 -0.170479 -2.636146 -0.277655 -1.088081 -0.023286 0.107598
    31 0.010598 -1.261177 -0.000001 -0.473452 0.000000 0.000000
    32 0.000001 -0.943234 0.000001 -0.862788 0.000000 0.000000
    33 -0.827562 -2.508972 -0.277655 -0.649173 0.000000 0.000000
    34 0.000000 -1.292971 -0.000001 -0.710603 -0.058257 0.000120
    35 0.000000 -0.752466 0.000000 -0.777529 -0.248776 0.191909
    36 0.444213 -2.561960 -0.277655 -1.380293 0.099111 0.163395
    37 0.021024 -1.208187 0.000001 -0.259558 0.001786 0.007251
    38 0.010598 -0.741867 -0.000001 -0.721185 0.000000 0.000000
    39 1.047446 -2.222820 -0.277655 -1.356430 -0.069497 -0.040770
    40 0.000000 -0.996224 -0.000001 -1.199041 0.000000 0.000000
    41 0.000001 -0.614692 0.000001 -1.031490 0.000000 0.000000
    42 -0.308254 -0.007813 0.307166 -0.209670 -0.664113 -2.403684
    43 1.978377 0.019542 -0.000001 -0.104661 -0.002767 0.529132
    44 0.982424 0.003187 0.000000 0.000000 0.000000 0.346799
  time 13
    0 8.297979 2.950806 -8.776107 -0.781945 -1.185885 0.520027
    1 0.000000 -8.563283 0.000000 0.367236 -0.056258 -0.222814
    2 -0.627912 -3.172447 0.559143 -1.247017 1.437605 -1.233822
    3 0.000000 1.888488 0.974220 0.000000 0.000000 0.000000
    4 -0.013949 -2.716608 1.100494 0.008713 0.000000 0.000000
    5 -0.013949 -4.784638 0.650335 0.000000 0.000000 0.000000
    6 -0.716955 15.708819 -2.564272 0.000000 0.000000 0.000000
    7 -0.013948 -3.609847 2.626636 0.000000 0.000000 0.000000
    8 -0.551583 -1.713882 2.571739 0.000000 0.000000 0.340339
    9 -0.666018 -4.704159 1.993687 0.000000 0.337298 0.000000
    10 -0.018541 -0.368503 3.177891 0.000000 0.000000 0.000000
    11 -0.003480 -0.404828 0.000000 -0.000001 0.000000 0.000000
    12 -0.519309 -2.501155 -0.278957 -1.107358 -0.060907 -0.152582
    13 -0.010599 -1.208185 -0.000001 -1.179843 0.000000 0.000000
    14 -0.000001 -0.763065 0.000000 -1.228712 0.000000 0.000000
    15 0.105981 -2.607135 -0.278958 -0.873864 -0.036146 -0.178594
    16 0.000001 -1.250578 0.000000 -1.223476 0.000000 0.000000
    17 -0.000001 -0.932635 0.000000 -1.567306 0.000000 0.000000
    18 0.763064 -2.490555 -0.278958 -0.188066 0.000000 0.130900
    19 -0.012322 -1.280916 0.000000 -0.709029 0.000000 0.000000
    20 -0.001697 -0.749371 0.000001 -0.579884 0.000000 0.000000
    21 0.354566 0.016268 0.318133 0.458018 -0.443926 -1.167637
    22 1.887166 0.012878 0.000000 -0.304014 -0.029870 -0.496333
    23 1.001873 -0.000270 0.000000 0.000000 0.000000 -0.577704
    24 -1.123359 -2.195093 -0.278958 -1.174574 -0.118742 -0.146524
    25 0.010771 -0.963792 0.000000 -0.977385 0.000000 0.000000
    26 -0.010412 -0.631916 0.000000 -1.034980 0.000000 0.000000
    27 -0.524092 -9.445839 -10.334981 -0.825936 0.449437 0.451441
    28 0.089928 -8.543164 0.000000 0.778268 -0.561869 -0.004616
    29 -0.000001 -0.359712 0.000000 0.000000 0.000000 0.000000
    30 -0.170479 -2.636146 -0.277655 -1.089939 -0.031519 0.102936
    31 0.010598 -1.261177 -0.000001 -0.473452 0.000000 0.000000
    32 0.000001 -0.943234 0.000001 -0.853077 -0.002661 -0.002325
    33 -0.827562 -2.508972 -0.277655 -0.649173 0.000000 0.000000
    34 0.000000 -1.292971 -0.000001 -0.710603 -0.058257 0.000120
    35 0.000000 -0.752466 0.000000 -0.777529 -0.248776 0.191909
    36 0.444213 -2.561960 -0.277655 -1.370350 0.094389 0.164522
    37 0.021024 -1.208187 0.000001 -0.245904 0.001810 0.007562
    38 0.010598 -0.741867 -0.000001 -0.721185 0.000000 0.000000
    39 1.047446 -2.222820 -0.277655 -1.356430 -0.069497 -0.040770
    40 0.000000 -0.996224 -0.000001 -1.199041 0.000000 0.000000
    41 0.000001 -0.614692 0.000001 -1.031490 0.000000 0.000000
    42 -0.308254 -0.007813 0.307166 -0.222712 -0.674679 -2.414494
    43 1.978377 0.019542 -0.000001 -0.105186 -0.013098 0.515994
    44 0.982424 0.003187 0.000000 0.000000 0.000000 0.357169
  time 14
    0 8.301885 2.985963 -8.791732 -0.795149 -1.180865 0.533930
    1 0.000000 -8.563283 0.000000 0.369046 -0.054774 -0.228704
    2 -0.627912 -3.172447 0.559143 -1.247017 1.437605 -1.233822
    3 0.000000 1.888488 0.974220 0.000000 0.000000 0.000000
    4 -0.013949 -2.708795 1.100494 0.015077 0.000000 0.000000
    5 -0.013949 -4.784638 0.650335 0.000000 0.000000 0.000000
    6 -0.716955 15.708819 -2.564272 0.000000 0.000000 0.000000
    7 -0.013948 -3.609847 2.626636 0.000000 0.000000 0.000000
    8 -0.551583 -1.713882 2.571739 0.000000 0.000000 0.340339
    9 -0.666018 -4.704159 1.993687 0.000000 0.337298 0.000000
    10 -0.018541 -0.368503 3.177891 0.000000 0.000000 0.000000
    11 -0.003480 -0.404828 0.000000 -0.000001 0.000000 0.000000
    12 -0.519309 -2.501155 -0.278957 -1.107358 -0.060907 -0.152582
    13 -0.010599 -1.208185 -0.000001 -1.179843 0.000000 0.000000
    14 -0.000001 -0.763065 0.000000 -1.228712 0.000000 0.000000
    15 0.105981 -2.607135 -0.278958 -0.873864 -0.036146 -0.178594
    16 0.000001 -1.250578 0.000000 -1.223476 0.000000 0.000000
    17 -0.000001 -0.932635 0.000000 -1.567306 0.000000 0.000000
    18 0.763064 -2.490555 -0.278958 -0.186400 0.000000 0.130900
    19 -0.012322 -1.280916 0.000000 -0.703157 0.000000 0.000000
    20 -0.001697 -0.749371 0.000001 -0.577435 0.000000 0.000000
    21 0.354566 0.016268 0.318133 0.458018 -0.443926 -1.167637
    22 1.887166 0.012878 0.000000 -0.304014 -0.029870 -0.496333
    23 1.001873 -0.000270 0.000000 0.000000 0.000000 -0.577704
    24 -1.123359 -2.195093 -0.278958 -1.174574 -0.118742 -0.146524
    25 0.010771 -0.963792 0.000000 -0.977385 0.000000 0.000000
    26 -0.010412 -0.631916 0.000000 -1.034980 0.000000 0.000000
    27 -0.547530 -9.461465 -10.299824 -0.822827 0.449913 0.467355
    28 0.089928 -8.543164 0.000000 0.776320 -0.558396 -0.003486
    29 -0.000001 -0.359712 0.000000 0.000000 0.000000 0.000000
    30 -0.170479 -2.636146 -0.277655 -1.091731 -0.039681 0.098322
    31 0.010598 -1.261177 -0.000001 -0.473452 0.000000 0.000000
    32 0.000001 -0.943234 0.000001 -0.847759 -0.006592 -0.005813
    33 -0.827562 -2.508972 -0.277655 -0.649173 0.000000 0.000000
    34 0.000000 -1.292971 -0.000001 -0.710603 -0.058257 0.000120
    35 0.000000 -0.752466 0.000000 -0.777529 -0.248776 0.191909
    36 0.444213 -2.561960 -0.277655 -1.362084 0.089643 0.165433
    37 0.021024 -1.208187 0.000001 -0.233379 0.001270 0.005453
    38 0.010598 -0.741867 -0.000001 -0.721185 0.000000 0.000000
    39 1.047446 -2.222820 -0.277655 -1.356430 -0.069497 -0.040770
    40 0.000000 -0.996224 -0.000001 -1.199041 0.000000 0.000000
    41 0.000001 -0.614692 0.000001 -1.031490 0.000000 0.000000
    42 -0.308254 -0.007813 0.307166 -0.235142 -0.684528 -2.425586
    43 1.978377 0.019542 -0.000001 -0.105623 -0.023669 0.502949
    44 0.982424 0.003187 0.000000 0.000000 0.000000 0.367603
  time 15
    0 8.301885 3.009401 -8.803451 -0.803767 -1.177310 0.543431
    1 0.000000 -8.563283 0.000000 0.370541 -0.053711 -0.233384
    2 -0.627912 -3.172447 0.559143 -1.247017 1.437605 -1.233822
    3 0.000000 1.888488 0.974220 0.000000 0.000000 0.000000
    4 -0.013949 -2.704889 1.100494 0.022903 0.000000 0.000000
    5 -0.013949 -4.784638 0.650335 0.000000 0.000000 0.000000
    6 -0.716955 15.708819 -2.564272 0.000000 0.000000 0.000000
    7 -0.013948 -3.609847 2.626636 0.000000 0.000000 0.000000
    8 -0.551583 -1.713882 2.571739 0.000000 0.000000 0.340339
    9 -0.666018 -4.704159 1.993687 0.000000 0.337298 0.000000
    10 -0.018541 -0.368503 3.177891 0.000000 0.000000 0.000000
    11 -0.003480 -0.404828 0.000000 -0.000001 0.000000 0.000000
    12 -0.519309 -2.501155 -0.278957 -1.107358 -0.060907 -0.152582
    13 -0.010599 -1.208185 -0.000001 -1.179843 0.000000 0.000000
    14 -0.000001 -0.763065 0.000000 -1.228712 0.000000 0.000000
    15 0.105981 -2.607135 -0.278958 -0.873864 -0.036146 -0.178594
    16 0.000001 -1.250578 0.000000 -1.223476 0.000000 0.000000
    17 -0.000001 -0.932635 0.000000 -1.567306 0.000000 0.000000
    18 0.763064 -2.490555 -0.278958 -0.185333 0.000000 0.130900
    19 -0.012322 -1.280916 0.000000 -0.699734 0.000000 0.000000
    20 -0.001697 -0.749371 0.000001 -0.575860 0.000000 0.000000
    21 0.354566 0.016268 0.318133 0.458018 -0.443926 -1.167637
    22 1.887166 0.012878 0.000000 -0.304014 -0.029870 -0.496333
    23 1.001873 -0.000270 0.000000 0.000000 0.000000 -0.577704
    24 -1.123359 -2.195093 -0.278958 -1.174574 -0.118742 -0.146524
    25 0.010771 -0.963792 0.000000 -0.977385 0.000000 0.000000
    26 -0.010412 -0.631916 0.000000 -1.034980 0.000000 0.000000
    27 -0.559249 -9.496622 -10.284198 -0.819718 0.450388 0.482982
    28 0.089928 -8.543164 0.000000 0.771408 -0.550109 -0.000419
    29 -0.000001 -0.359712 0.000000 0.000000 0.000000 0.000000
    30 -0.170479 -2.636146 -0.277655 -1.093522 -0.047087 0.094163
    31 0.010598 -1.261177 -0.000001 -0.473452 0.000000 0.000000
    32 0.000001 -0.943234 0.000001 -0.846577 -0.010163 -0.008964
    33 -0.827562 -2.508972 -0.277655 -0.649173 0.000000 0.000000
    34 0.000000 -1.292971 -0.000001 -0.710603 -0.058257 0.000120
    35 0.000000 -0.752466 0.000000 -0.777529 -0.248776 0.191909
    36 0.444213 -2.561960 -0.277655 -1.357054 0.086060 0.165996
    37 0.021024 -1.208187 0.000001 -0.223166 0.000000 0.000000
    38 0.010598 -0.741867 -0.000001 -0.721185 0.000000 0.000000
    39 1.047446 -2.222820 -0.277655 -1.356430 -0.069497 -0.040770
    40 0.000000 -0.996224 -0.000001 -1.199041 0.000000 0.000000
    41 0.000001 -0.614692 0.000001 -1.031490 0.000000 0.000000
    42 -0.308254 -0.007813 0.307166 -0.246666 -0.693055 -2.436271
    43 1.978377 0.019542 -0.000001 -0.105915 -0.034143 0.490091
    44 0.982424 0.003187 0.000000 0.000000 0.000000 0.378198
  time 16
    0 8.305791 3.021120 -8.811264 -0.806085 -1.175880 0.547370
    1 0.000000 -8.563283 0.000000 0.371467 -0.053423 -0.236221
    2 -0.627912 -3.172447 0.559143 -1.247017 1.437605 -1.233822
    3 0.000000 1.888488 0.974220 0.000000 0.000000 0.000000
    4 -0.013949 -2.697076 1.100494 0.032035 0.000000 0.000000
    5 -0.013949 -4.784638 0.650335 0.000000 0.000000 0.000000
    6 -0.716955 15.708819 -2.564272 0.000000 0.000000 0.000000
    7 -0.013948 -3.609847 2.626636 0.000000 0.000000 0.000000
    8 -0.551583 -1.713882 2.571739 0.000000 0.000000 0.340339
    9 -0.666018 -4.704159 1.993687 0.000000 0.337298 0.000000
    10 -0.018541 -0.368503 3.177891 0.000000 0.000000 0.000000
    11 -0.003480 -0.404828 0.000000 -0.000001 0.000000 0.000000
    12 -0.519309 -2.501155 -0.278957 -1.107358 -0.060907 -0.152582
    13 -0.010599 -1.208185 -0.000001 -1.179843 0.000000 0.000000
    14 -0.000001 -0.763065 0.000000 -1.228712 0.000000 0.000000
    15 0.105981 -2.607135 -0.278958 -0.873864 -0.036146 -0.178594
    16 0.000001 -1.250578 0.000000 -1.223476 0.000000 0.000000
    17 -0.000001 -0.932635 0.000000 -1.567306 0.000000 0.000000
    18 0.763064 -2.490555 -0.278958 -0.184794 0.000000 0.130900
    19 -0.012322 -1.280916 0.000000 -0.698474 0.000000 0.000000
    20 -0.001697 -0.749371 0.000001 -0.575060 0.000000 0.000000
    21 0.354566 0.016268 0.318133 0.458018 -0.443926 -1.167637
    22 1.887166 0.012878 0.000000 -0.304014 -0.029870 -0.496333
    23 1.001873 -0.000270 0.000000 0.000000 0.000000 -0.577704
    24 -1.123359 -2.195093 -0.278958 -1.174574 -0.118742 -0.146524
    25 0.010771 -0.963792 0.000000 -0.977385 0.000000 0.000000
    26 -0.010412 -0.631916 0.000000 -1.034980 0.000000 0.000000
    27 -0.567062 -9.551311 -10.284198 -0.816964 0.450769 0.496595
    28 0.089928 -8.543164 0.000000 0.764831 -0.540151 0.004295
    29 -0.000001 -0.359712 0.000000 0.000000 0.000000 0.000000
    30 -0.170479 -2.636146 -0.277655 -1.095181 -0.053020 0.090843
    31 0.010598 -1.261177 -0.000001 -0.473452 0.000000 0.000000
    32 0.000001 -0.943234 0.000001 -0.849273 -0.011733 -0.010319
    33 -0.827562 -2.508972 -0.277655 -0.649173 0.000000 0.000000
    34 0.000000 -1.292971 -0.000001 -0.710603 -0.058257 0.000120
    35 0.000000 -0.752466 0.000000 -0.777529 -0.248776 0.191909
    36 0.444213 -2.561960 -0.277655 -1.354338 0.083339 0.166319
    37 0.021024 -1.208187 0.000001 -0.220801 -0.008018 -0.035331
    38 0.010598 -0.741867 -0.000001 -0.721185 0.000000 0.000000
    39 1.047446 -2.222820 -0.277655 -1.356430 -0.069497 -0.040770
    40 0.000000 -0.996224 -0.000001 -1.199041 0.000000 0.000000
    41 0.000001 -0.614692 0.000001 -1.031490 0.000000 0.000000
    42 -0.308254 -0.007813 0.307166 -0.256991 -0.699668 -2.445828
    43 1.978377 0.019542 -0.000001 -0.106061 -0.044246 0.477607
    44 0.982424 0.003187 0.000000 0.000000 0.000000 0.388856
  time 17
    0 8.305791 3.028933 -8.815170 -0.800642 -1.177205 0.544126
    1 0.000000 -8.563283 0.000000 0.371572 -0.054243 -0.236528
    2 -0.627912 -3.172447 0.559143 -1.247017 1.437605 -1.233822
    3 0.000000 1.888488 0.974220 0.000000 0.000000 0.000000
    4 -0.013949 -2.689263 1.100494 0.042330 0.000000 0.000000
    5 -0.013949 -4.784638 0.650335 0.000000 0.000000 0.000000
    6 -0.716955 15.708819 -2.564272 0.000000 0.000000 0.000000
    7 -0.013948 -3.609847 2.626636 0.000000 0.000000 0.000000
    8 -0.551583 -1.713882 2.571739 0.000000 0.000000 0.340339
    9 -0.666018 -4.704159 1.993687 0.000000 0.337298 0.000000
    10 -0.018541 -0.368503 3.177891 0.000000 0.000000 0.000000
    11 -0.003480 -0.404828 0.000000 -0.000001 0.000000 0.000000
    12 -0.519309 -2.501155 -0.278957 -1.107358 -0.060907 -0.152582
    13 -0.010599 -1.208185 -0.000001 -1.179843 0.000000 0.000000
    14 -0.000001 -0.763065 0.000000 -1.228712 0.000000 0.000000
    15 0.105981 -2.607135 -0.278958 -0.873864 -0.036146 -0.178594
    16 0.000001 -1.250578 0.000000 -1.223476 0.000000 0.000000
    17 -0.000001 -0.932635 0.000000 -1.567306 0.000000 0.000000
    18 0.763064 -2.490555 -0.278958 -0.184722 0.000000 0.130900
    19 -0.012322 -1.280916 0.000000 -0.699163 0.000000 0.000000
    20 -0.001697 -0.749371 0.000001 -0.574963 0.000000 0.000000
    21 0.354566 0.016268 0.318133 0.458018 -0.443926 -1.167637
    22 1.887166 0.012878 0.000000 -0.304014 -0.029870 -0.496333
    23 1.001873 -0.000270 0.000000 0.000000 0.000000 -0.577704
    24 -1.123359 -2.195093 -0.278958 -1.174574 -0.118742 -0.146524
    25 0.010771 -0.963792 0.000000 -0.977385 0.000000 0.000000
    26 -0.010412 -0.631916 0.000000 -1.034980 0.000000 0.000000
    27 -0.574875 -9.609907 -10.284198 -0.814920 0.450959 0.506757
    28 0.089928 -8.543164 0.000000 0.757848 -0.531666 0.010365
    29 -0.000001 -0.359712 0.000000 0.000000 0.000000 0.000000
    30 -0.170479 -2.636146 -0.277655 -1.097768 -0.054266 0.090148
    31 0.010598 -1.261177 -0.000001 -0.473452 0.000000 0.000000
    32 0.000001 -0.943234 0.000001 -0.854147 -0.011649 -0.010187
    33 -0.827562 -2.508972 -0.277655 -0.649173 0.000000 0.000000
    34 0.000000 -1.292971 -0.000001 -0.710603 -0.058257 0.000120
    35 0.000000 -0.752466 0.000000 -0.777529 -0.248776 0.191909
    36 0.444213 -2.561960 -0.277655 -1.352141 0.080475 0.166583
    37 0.021024 -1.208187 0.000001 -0.225316 -0.015352 -0.066922
    38 0.010598 -0.741867 -0.000001 -0.721185 0.000000 0.000000
    39 1.047446 -2.222820 -0.277655 -1.356430 -0.069497 -0.040770
    40 0.000000 -0.996224 -0.000001 -1.199041 0.000000 0.000000
    41 0.000001 -0.614692 0.000001 -1.031490 0.000000 0.000000
    42 -0.308254 -0.007813 0.307166 -0.265867 -0.703780 -2.453442
    43 1.978377 0.019542 -0.000001 -0.106090 -0.053642 0.465652
    44 0.982424 0.003187 0.000000 0.000000 0.000000 0.399610
  time 18
    0 8.274541 3.048465 -8.709698 -0.790462 -1.180203 0.536479
    1 0.000000 -8.563283 0.000000 0.370541 -0.056524 -0.233655
    2 -0.627912 -3.172447 0.559143 -1.247017 1.437605 -1.233822
    3 0.000000 1.888488 0.974220 0.000000 0.000000 0.000000
    4 -0.013949 -2.681450 1.100494 0.053607 0.000000 0.000000
    5 -0.013949 -4.784638 0.650335 0.000000 0.000000 0.000000
    6 -0.716955 15.708819 -2.564272 0.000000 0.000000 0.000000
    7 -0.013948 -3.609847 2.626636 0.000000 0.000000 0.000000
    8 -0.551583 -1.713882 2.571739 0.000000 0.000000 0.340339
    9 -0.666018 -4.704159 1.993687 0.000000 0.337298 0.000000
    10 -0.018541 -0.368503 3.177891 0.000000 0.000000 0.000000
    11 -0.003480 -0.404828 0.000000 -0.000001 0.000000 0.000000
    12 -0.519309 -2.501155 -0.278957 -1.107358 -0.060907 -0.152582
    13 -0.010599 -1.208185 -0.000001 -1.179843 0.000000 0.000000
    14 -0.000001 -0.763065 0.000000 -1.228712 0.000000 0.000000
    15 0.105981 -2.607135 -0.278958 -0.873864 -0.036146 -0.178594
    16 0.000001 -1.250578 0.000000 -1.223476 0.000000 0.000000
    17 -0.000001 -0.932635 0.000000 -1.567306 0.000000 0.000000
    18 0.763064 -2.490555 -0.278958 -0.185046 0.000000 0.130900
    19 -0.012322 -1.280916 0.000000 -0.701493 0.000000 0.000000
    20 -0.001697 -0.749371 0.000001 -0.575447 0.000000 0.000000
    21 0.354566 0.016268 0.318133 0.458018 -0.443926 -1.167637
    22 1.887166 0.012878 0.000000 -0.304014 -0.029870 -0.496333
    23 1.001873 -0.000270 0.000000 0.000000 0.000000 -0.577704
    24 -1.123359 -2.195093 -0.278958 -1.174574 -0.118742 -0.146524
    25 0.010771 -0.963792 0.000000 -0.977385 0.000000 0.000000
    26 -0.010412 -0.631916 0.000000 -1.034980 0.000000 0.000000
    27 -0.586594 -9.648971 -10.280292 -0.813854 0.451149 0.511838
    28 0.089928 -8.543164 0.000000 0.751597 -0.527841 0.017532
    29 -0.000001 -0.359712 0.000000 0.000000 0.000000 0.000000
    30 -0.170479 -2.636146 -0.277655 -1.097768 -0.053020 0.090843
    31 0.010598 -1.261177 -0.000001 -0.473452 0.000000 0.000000
    32 0.000001 -0.943234 0.000001 -0.859613 -0.011337 -0.009875
    33 -0.827562 -2.508972 -0.277655 -0.649173 0.000000 0.000000
    34 0.000000 -1.292971 -0.000001 -0.710603 -0.058257 0.000120
    35 0.000000 -0.752466 0.000000 -0.777529 -0.248776 0.191909
    36 0.444213 -2.561960 -0.277655 -1.350291 0.077467 0.166799
    37 0.021024 -1.208187 0.000001 -0.230853 -0.015364 -0.066119
    38 0.010598 -0.741867 -0.000001 -0.721185 0.000000 0.000000
    39 1.047446 -2.222820 -0.277655 -1.356430 -0.069497 -0.040770
    40 0.000000 -0.996224 -0.000001 -1.199041 0.000000 0.000000
    41 0.000001 -0.614692 0.000001 -1.031490 0.000000 0.000000
    42 -0.308254 -0.007813 0.307166 -0.273021 -0.704768 -2.458455
    43 1.978377 0.019542 -0.000001 -0.105973 -0.061995 0.454350
    44 0.982424 0.003187 0.000000 0.000000 0.000000 0.410429
  time 19
    0 8.247196 3.067997 -8.608133 -0.779879 -1.183375 0.528060
    1 0.000000 -8.563283 0.000000 0.368899 -0.059447 -0.228867
    2 -0.627912 -3.172447 0.559143 -1.247017 1.437605 -1.233822
    3 0.000000 1.888488 0.974220 0.000000 0.000000 0.000000
    4 -0.013949 -2.673638 1.100494 0.065735 0.000000 0.000000
    5 -0.013949 -4.784638 0.650335 0.000000 0.000000 0.000000
    6 -0.716955 15.708819 -2.564272 0.000000 0.000000 0.000000
    7 -0.013948 -3.609847 2.626636 0.000000 0.000000 0.000000
    8 -0.551583 -1.713882 2.571739 0.000000 0.000000 0.340339
    9 -0.666018 -4.704159 1.993687 0.000000 0.337298 0.000000
    10 -0.018541 -0.368503 3.177891 0.000000 0.000000 0.000000
    11 -0.003480 -0.404828 0.000000 -0.000001 0.000000 0.000000
    12 -0.519309 -2.501155 -0.278957 -1.107358 -0.060907 -0.152582
    13 -0.010599 -1.208185 -0.000001 -1.179843 0.000000 0.000000
    14 -0.000001 -0.763065 0.000000 -1.228712 0.000000 0.000000
    15 0.105981 -2.607135 -0.278958 -0.873864 -0.036146 -0.178594
    16 0.000001 -1.250578 0.000000 -1.223476 0.000000 0.000000
    17 -0.000001 -0.932635 0.000000 -1.567306 0.000000 0.000000
    18 0.763064 -2.490555 -0.278958 -0.185717 0.000000 0.130900
    19 -0.012322 -1.280916 0.000000 -0.705225 0.000000 0.000000
    20 -0.001697 -0.749371 0.000001 -0.576417 0.000000 0.000000
    21 0.354566 0.016268 0.318133 0.458018 -0.443926 -1.167637
    22 1.887166 0.012878 0.000000 -0.304014 -0.029870 -0.496333
    23 1.001873 -0.000270 0.000000 0.000000 0.000000 -0.577704
    24 -1.123359 -2.195093 -0.278958 -1.174574 -0.118742 -0.146524
    25 0.010771 -0.963792 0.000000 -0.977385 0.000000 0.000000
    26 -0.010412 -0.631916 0.000000 -1.034980 0.000000 0.000000
    27 -0.606126 -9.664596 -10.256854 -0.813677 0.451149 0.512988
    28 0.089928 -8.543164 0.000000 0.746075 -0.527819 0.025475
    29 -0.000001 -0.359712 0.000000 0.000000 0.000000 0.000000
    30 -0.170479 -2.636146 -0.277655 -1.094053 -0.053020 0.090843
    31 0.010598 -1.261177 -0.000001 -0.473452 0.000000 0.000000
    32 0.000001 -0.943234 0.000001 -0.865558 -0.010846 -0.009384
    33 -0.827562 -2.508972 -0.277655 -0.649173 0.000000 0.000000
    34 0.000000 -1.292971 -0.000001 -0.710603 -0.058257 0.000120
    35 0.000000 -0.752466 0.000000 -0.777529 -0.248776 0.191909
    36 0.444213 -2.561960 -0.277655 -1.348846 0.074351 0.166967
    37 0.021024 -1.208187 0.000001 -0.236497 -0.015041 -0.063926
    38 0.010598 -0.741867 -0.000001 -0.721185 0.000000 0.000000
    39 1.047446 -2.222820 -0.277655 -1.356430 -0.069497 -0.040770
    40 0.000000 -0.996224 -0.000001 -1.199041 0.000000 0.000000
    41 0.000001 -0.614692 0.000001 -1.031490 0.000000 0.000000
    42 -0.308254 -0.007813 0.307166 -0.278523 -0.702776 -2.461338
    43 1.978377 0.019542 -0.000001 -0.105740 -0.068994 0.443890
    44 0.982424 0.003187 0.000000 0.000000 0.000000 0.421311
  time 20
    0 8.223758 3.083622 -8.522193 -0.768640 -1.186792 0.518636
    1 0.000000 -8.563283 0.000000 0.367320 -0.062105 -0.223808
    2 -0.627912 -3.172447 0.559143 -1.247017 1.437605 -1.233822
    3 0.000000 1.888488 0.974220 0.000000 0.000000 0.000000
    4 -0.013949 -2.661919 1.100494 0.078535 0.000000 0.000000
    5 -0.013949 -4.784638 0.650335 0.000000 0.000000 0.000000
    6 -0.716955 15.708819 -2.564272 0.000000 0.000000 0.000000
    7 -0.013948 -3.609847 2.626636 0.000000 0.000000 0.000000
    8 -0.551583 -1.713882 2.571739 0.000000 0.000000 0.340339
    9 -0.666018 -4.704159 1.993687 0.000000 0.337298 0.000000
    10 -0.018541 -0.368503 3.177891 0.000000 0.000000 0.000000
    11 -0.003480 -0.404828 0.000000 -0.000001 0.000000 0.000000
    12 -0.519309 -2.501155 -0.278957 -1.107358 -0.060907 -0.152582
    13 -0.010599 -1.208185 -0.000001 -1.179843 0.000000 0.000000
    14 -0.000001 -0.763065 0.000000 -1.228712 0.000000 0.000000
    15 0.105981 -2.607135 -0.278958 -0.873864 -0.036146 -0.178594
    16 0.000001 -1.250578 0.000000 -1.223476 0.000000 0.000000
    17 -0.000001 -0.932635 0.000000 -1.567306 0.000000 0.000000
    18 0.763064 -2.490555 -0.278958 -0.186652 0.000000 0.130900
    19 -0.012322 -1.280916 0.000000 -0.710099 0.000000 0.000000
    20 -0.001697 -0.749371 0.000001 -0.577823 0.000000 0.000000
    21 0.354566 0.016268 0.318133 0.458018 -0.443926 -1.167637
    22 1.887166 0.012878 0.000000 -0.304014 -0.029870 -0.496333
    23 1.001873 -0.000270 0.000000 0.000000 0.000000 -0.577704
    24 -1.123359 -2.195093 -0.278958 -1.174574 -0.118742 -0.146524
    25 0.010771 -0.963792 0.000000 -0.977385 0.000000 0.000000
    26 -0.010412 -0.631916 0.000000 -1.034980 0.000000 0.000000
    27 -0.625658 -9.668502 -10.221696 -0.813766 0.451149 0.512413
    28 0.089928 -8.543164 0.000000 0.740514 -0.528523 0.033805
    29 -0.000001 -0.359712 0.000000 0.000000 0.000000 0.000000
    30 -0.170479 -2.636146 -0.277655 -1.090072 -0.053020 0.090843
    31 0.010598 -1.261177 -0.000001 -0.473452 0.000000 0.000000
    32 0.000001 -0.943234 0.000001 -0.871983 -0.010199 -0.008761
    33 -0.827562 -2.508972 -0.277655 -0.649173 0.000000 0.000000
    34 0.000000 -1.292971 -0.000001 -0.710603 -0.058257 0.000120
    35 0.000000 -0.752466 0.000000 -0.777529 -0.248776 0.191909
    36 0.444213 -2.561960 -0.277655 -1.347690 0.071127 0.167110
    37 0.021024 -1.208187 0.000001 -0.242356 -0.014429 -0.060498
    38 0.010598 -0.741867 -0.000001 -0.721185 0.000000 0.000000
    39 1.047446 -2.222820 -0.277655 -1.356430 -0.069497 -0.040770
    40 0.000000 -0.996224 -0.000001 -1.199041 0.000000 0.000000
    41 0.000001 -0.614692 0.000001 -1.031490 0.000000 0.000000
    42 -0.308254 -0.007813 0.307166 -0.282757 -0.698585 -2.463249
    43 1.978377 0.019542 -0.000001 -0.105565 -0.073668 0.436729
    44 0.982424 0.003187 0.000000 0.000000 0.000000 0.432257
  time 21
    0 8.200320 3.099248 -8.440159 -0.756344 -1.190487 0.508132
    1 0.000000 -8.563283 0.000000 0.365741 -0.064563 -0.218387
    2 -0.627912 -3.172447 0.559143 -1.247017 1.437605 -1.233822
    3 0.000000 1.888488 0.974220 0.000000 0.000000 0.000000
    4 -0.013949 -2.654106 1.100494 0.091862 0.000000 0.000000
    5 -0.013949 -4.784638 0.650335 0.000000 0.000000 0.000000
    6 -0.716955 15.708819 -2.564272 0.000000 0.000000 0.000000
    7 -0.013948 -3.609847 2.626636 0.000000 0.000000 0.000000
    8 -0.551583 -1.713882 2.571739 0.000000 0.000000 0.340339
    9 -0.666018 -4.704159 1.993687 0.000000 0.337298 0.000000
    10 -0.018541 -0.368503 3.177891 0.000000 0.000000 0.000000
    11 -0.003480 -0.404828 0.000000 -0.000001 0.000000 0.000000
    12 -0.519309 -2.501155 -0.278957 -1.107358 -0.060907 -0.152582
    13 -0.010599 -1.208185 -0.000001 -1.179843 0.000000 0.000000
    14 -0.000001 -0.763065 0.000000 -1.228712 0.000000 0.000000
    15 0.105981 -2.607135 -0.278958 -0.873864 -0.036146 -0.178594
    16 0.000001 -1.250578 0.000000 -1.223476 0.000000 0.000000
    17 -0.000001 -0.932635 0.000000 -1.567306 0.000000 0.000000
    18 0.763064 -2.490555 -0.278958 -0.187802 0.000000 0.130900
    19 -0.012322 -1.280916 0.000000 -0.715829 0.000000 0.000000
    20 -0.001697 -0.749371 0.000001 -0.579520 0.000000 0.000000
    21 0.354566 0.016268 0.318133 0.458018 -0.443926 -1.167637
    22 1.887166 0.012878 0.000000 -0.304014 -0.029870 -0.496333
    23 1.001873 -0.000270 0.000000 0.000000 0.000000 -0.577704
    24 -1.123359 -2.195093 -0.278958 -1.174574 -0.118742 -0.146524
    25 0.010771 -0.963792 0.000000 -0.977385 0.000000 0.000000
    26 -0.010412 -0.631916 0.000000 -1.034980 0.000000 0.000000
    27 -0.653002 -9.660690 -10.186539 -0.814210 0.451054 0.510400
    28 0.089928 -8.543164 0.000000 0.734911 -0.529842 0.042554
    29 -0.000001 -0.359712 0.000000 0.000000 0.000000 0.000000
    30 -0.170479 -2.636146 -0.277655 -1.085892 -0.053032 0.090843
    31 0.010598 -1.261177 -0.000001 -0.473452 0.000000 0.000000
    32 0.000001 -0.943234 0.000001 -0.878741 -0.009396 -0.008018
    33 -0.827562 -2.508972 -0.277655 -0.649173 0.000000 0.000000
    34 0.000000 -1.292971 -0.000001 -0.710603 -0.058257 0.000120
    35 0.000000 -0.752466 0.000000 -0.777529 -0.248776 0.191909
    36 0.444213 -2.561960 -0.277655 -1.346822 0.067819 0.167218
    37 0.021024 -1.208187 0.000001 -0.248377 -0.013543 -0.056052
    38 0.010598 -0.741867 -0.000001 -0.721185 0.000000 0.000000
    39 1.047446 -2.222820 -0.277655 -1.356430 -0.069497 -0.040770
    40 0.000000 -0.996224 -0.000001 -1.199041 0.000000 0.000000
    41 0.000001 -0.614692 0.000001 -1.031490 0.000000 0.000000
    42 -0.308254 -0.007813 0.307166 -0.285859 -0.692497 -2.464283
    43 1.978377 0.019542 -0.000001 -0.105448 -0.075574 0.433460
    44 0.982424 0.003187 0.000000 0.000000 0.000000 0.443204
  time 22
    0 8.180788 3.114873 -8.365938 -0.742787 -1.194531 0.496159
    1 0.000000 -8.563283 0.000000 0.364120 -0.066889 -0.212532
    2 -0.627912 -3.172447 0.559143 -1.247017 1.437605 -1.233822
    3 0.000000 1.888488 0.974220 0.000000 0.000000 0.000000
    4 -0.013949 -2.646293 1.100494 0.105548 0.000000 0.000000
    5 -0.013949 -4.784638 0.650335 0.000000 0.000000 0.000000
    6 -0.716955 15.708819 -2.564272 0.000000 0.000000 0.000000
    7 -0.013948 -3.609847 2.626636 0.000000 0.000000 0.000000
    8 -0.551583 -1.713882 2.571739 0.000000 0.000000 0.340339
    9 -0.666018 -4.704159 1.993687 0.000000 0.337298 0.000000
    10 -0.018541 -0.368503 3.177891 0.000000 0.000000 0.000000
    11 -0.003480 -0.404828 0.000000 -0.000001 0.000000 0.000000
    12 -0.519309 -2.501155 -0.278957 -1.107358 -0.060907 -0.152582
    13 -0.010599 -1.208185 -0.000001 -1.179843 0.000000 0.000000
    14 -0.000001 -0.763065 0.000000 -1.228712 0.000000 0.000000
    15 0.105981 -2.607135 -0.278958 -0.873864 -0.036146 -0.178594
    16 0.000001 -1.250578 0.000000 -1.223476 0.000000 0.000000
    17 -0.000001 -0.932635 0.000000 -1.567306 0.000000 0.000000
    18 0.763064 -2.490555 -0.278958 -0.189108 0.000000 0.130900
    19 -0.012322 -1.280916 0.000000 -0.722200 0.000000 0.000000
    20 -0.001697 -0.749371 0.000001 -0.581436 0.000000 0.000000
    21 0.354566 0.016268 0.318133 0.458018 -0.443926 -1.167637
    22 1.887166 0.012878 0.000000 -0.304014 -0.029870 -0.496333
    23 1.001873 -0.000270 0.000000 0.000000 0.000000 -0.577704
    24 -1.123359 -2.195093 -0.278958 -1.174574 -0.118742 -0.146524
    25 0.010771 -0.963792 0.000000 -0.977385 0.000000 0.000000
    26 -0.010412 -0.631916 0.000000 -1.034980 0.000000 0.000000
    27 -0.676440 -9.648971 -10.151382 -0.814832 0.451054 0.507140
    28 0.089928 -8.543164 0.000000 0.729228 -0.531688 0.051627
    29 -0.000001 -0.359712 0.000000 0.000000 0.000000 0.000000
    30 -0.170479 -2.636146 -0.277655 -1.081513 -0.053032 0.090831
    31 0.010598 -1.261177 -0.000001 -0.473452 0.000000 0.000000
    32 0.000001 -0.943234 0.000001 -0.885831 -0.008485 -0.007191
    33 -0.827562 -2.508972 -0.277655 -0.649173 0.000000 0.000000
    34 0.000000 -1.292971 -0.000001 -0.710603 -0.058257 0.000120
    35 0.000000 -0.752466 0.000000 -0.777529 -0.248776 0.191909
    36 0.444213 -2.561960 -0.277655 -1.346129 0.064439 0.167302
    37 0.021024 -1.208187 0.000001 -0.254505 -0.012428 -0.050767
    38 0.010598 -0.741867 -0.000001 -0.721185 0.000000 0.000000
    39 1.047446 -2.222820 -0.277655 -1.356430 -0.069497 -0.040770
    40 0.000000 -0.996224 -0.000001 -1.199041 0.000000 0.000000
    41 0.000001 -0.614692 0.000001 -1.031490 0.000000 0.000000
    42 -0.308254 -0.007813 0.307166 -0.288055 -0.684831 -2.464597
    43 1.978377 0.019542 -0.000001 -0.105302 -0.075202 0.431281
    44 0.982424 0.003187 0.000000 0.000000 0.000000 0.454214
  time 23
    0 8.165162 3.126592 -8.303436 -0.727618 -1.198923 0.482642
    1 0.000000 -8.563283 0.000000 0.362436 -0.069214 -0.206172
    2 -0.627912 -3.172447 0.559143 -1.247017 1.437605 -1.233822
    3 0.000000 1.888488 0.974220 0.000000 0.000000 0.000000
    4 -0.013949 -2.638480 1.100494 0.119450 0.000000 0.000000
    5 -0.013949 -4.784638 0.650335 0.000000 0.000000 0.000000
    6 -0.716955 15.708819 -2.564272 0.000000 0.000000 0.000000
    7 -0.013948 -3.609847 2.626636 0.000000 0.000000 0.000000
    8 -0.551583 -1.713882 2.571739 0.000000 0.000000 0.340339
    9 -0.666018 -4.704159 1.993687 0.000000 0.337298 0.000000
    10 -0.018541 -0.368503 3.177891 0.000000 0.000000 0.000000
    11 -0.003480 -0.404828 0.000000 -0.000001 0.000000 0.000000
    12 -0.519309 -2.501155 -0.278957 -1.107358 -0.060907 -0.152582
    13 -0.010599 -1.208185 -0.000001 -1.179843 0.000000 0.000000
    14 -0.000001 -0.763065 0.000000 -1.228712 0.000000 0.000000
    15 0.105981 -2.607135 -0.278958 -0.873864 -0.036146 -0.178594
    16 0.000001 -1.250578 0.000000 -1.223476 0.000000 0.000000
    17 -0.000001 -0.932635 0.000000 -1.567306 0.000000 0.000000
    18 0.763064 -2.490555 -0.278958 -0.190499 0.000000 0.130900
    19 -0.012322 -1.280916 0.000000 -0.728881 0.000000 0.000000
    20 -0.001697 -0.749371 0.000001 -0.583472 0.000000 0.000000
    21 0.354566 0.016268 0.318133 0.458018 -0.443926 -1.167637
    22 1.887166 0.012878 0.000000 -0.304014 -0.029870 -0.496333
    23 1.001873 -0.000270 0.000000 0.000000 0.000000 -0.577704
    24 -1.123359 -2.195093 -0.278958 -1.174574 -0.118742 -0.146524
    25 0.010771 -0.963792 0.000000 -0.977385 0.000000 0.000000
    26 -0.010412 -0.631916 0.000000 -1.034980 0.000000 0.000000
    27 -0.692066 -9.633345 -10.135756 -0.815631 0.450959 0.502922
    28 0.089928 -8.543164 0.000000 0.723504 -0.533930 0.060958
    29 -0.000001 -0.359712 0.000000 0.000000 0.000000 0.000000
    30 -0.170479 -2.636146 -0.277655 -1.077001 -0.053032 0.090831
    31 0.010598 -1.261177 -0.000001 -0.473452 0.000000 0.000000
    32 0.000001 -0.943234 0.000001 -0.893143 -0.007478 -0.006292
    33 -0.827562 -2.508972 -0.277655 -0.649173 0.000000 0.000000
    34 0.000000 -1.292971 -0.000001 -0.710603 -0.058257 0.000120
    35 0.000000 -0.752466 0.000000 -0.777529 -0.248776 0.191909
    36 0.444213 -2.561960 -0.277655 -1.345608 0.061012 0.167374
    37 0.021024 -1.208187 0.000001 -0.260687 -0.011122 -0.044810
    38 0.010598 -0.741867 -0.000001 -0.721185 0.000000 0.000000
    39 1.047446 -2.222820 -0.277655 -1.356430 -0.069497 -0.040770
    40 0.000000 -0.996224 -0.000001 -1.199041 0.000000 0.000000
    41 0.000001 -0.614692 0.000001 -1.031490 0.000000 0.000000
    42 -0.308254 -0.007813 0.307166 -0.289482 -0.675906 -2.464377
    43 1.978377 0.019542 -0.000001 -0.105040 -0.073093 0.427483
    44 0.982424 0.003187 0.000000 0.000000 0.000000 0.465192
  time 24
    0 8.149537 3.138311 -8.248747 -0.710432 -1.203734 0.467116
    1 0.000000 -8.563283 0.000000 0.360626 -0.071562 -0.199197
    2 -0.627912 -3.172447 0.559143 -1.247017 1.437605 -1.233822
    3 0.000000 1.888488 0.974220 0.000000 0.000000 0.000000
    4 -0.013949 -2.630668 1.100494 0.133412 0.000000 0.000000
    5 -0.013949 -4.784638 0.650335 0.000000 0.000000 0.000000
    6 -0.716955 15.708819 -2.564272 0.000000 0.000000 0.000000
    7 -0.013948 -3.609847 2.626636 0.000000 0.000000 0.000000
    8 -0.551583 -1.713882 2.571739 0.000000 0.000000 0.340339
    9 -0.666018 -4.704159 1.993687 0.000000 0.337298 0.000000
    10 -0.018541 -0.368503 3.177891 0.000000 0.000000 0.000000
    11 -0.003480 -0.404828 0.000000 -0.000001 0.000000 0.000000
    12 -0.519309 -2.501155 -0.278957 -1.107358 -0.060907 -0.152582
    13 -0.010599 -1.208185 -0.000001 -1.179843 0.000000 0.000000
    14 -0.000001 -0.763065 0.000000 -1.228712 0.000000 0.000000
    15 0.105981 -2.607135 -0.278958 -0.873864 -0.036146 -0.178594
    16 0.000001 -1.250578 0.000000 -1.223476 0.000000 0.000000
    17 -0.000001 -0.932635 0.000000 -1.567306 0.000000 0.000000
    18 0.763064 -2.490555 -0.278958 -0.191901 0.000000 0.130900
    19 -0.012322 -1.280916 0.000000 -0.735680 0.000000 0.000000
    20 -0.001697 -0.749371 0.000001 -0.585557 0.000000 0.000000
    21 0.354566 0.016268 0.318133 0.458018 -0.443926 -1.167637
    22 1.887166 0.012878 0.000000 -0.304014 -0.029870 -0.496333
    23 1.001873 -0.000270 0.000000 0.000000 0.000000 -0.577704
    24 -1.123359 -2.195093 -0.278958 -1.174574 -0.118742 -0.146524
    25 0.010771 -0.963792 0.000000 -0.977385 0.000000 0.000000
    26 -0.010412 -0.631916 0.000000 -1.034980 0.000000 0.000000
    27 -0.699879 -9.621626 -10.151382 -0.816608 0.450769 0.498033
    28 0.089928 -8.543164 0.000000 0.717699 -0.536458 0.070514
    29 -0.000001 -0.359712 0.000000 0.000000 0.000000 0.000000
    30 -0.170479 -2.636146 -0.277655 -1.072423 -0.053032 0.090831
    31 0.010598 -1.261177 -0.000001 -0.473452 0.000000 0.000000
    32 0.000001 -0.943234 0.000001 -0.900602 -0.006400 -0.005345
    33 -0.827562 -2.508972 -0.277655 -0.649173 0.000000 0.000000
    34 0.000000 -1.292971 -0.000001 -0.710603 -0.058257 0.000120
    35 0.000000 -0.752466 0.000000 -0.777529 -0.248776 0.191909
    36 0.444213 -2.561960 -0.277655 -1.345204 0.057548 0.167434
    37 0.021024 -1.208187 0.000001 -0.266922 -0.009648 -0.038375
    38 0.010598 -0.741867 -0.000001 -0.721185 0.000000 0.000000
    39 1.047446 -2.222820 -0.277655 -1.356430 -0.069497 -0.040770
    40 0.000000 -0.996224 -0.000001 -1.199041 0.000000 0.000000
    41 0.000001 -0.614692 0.000001 -1.031490 0.000000 0.000000
    42 -0.308254 -0.007813 0.307166 -0.290342 -0.666025 -2.463719
    43 1.978377 0.019542 -0.000001 -0.104573 -0.069713 0.419295
    44 0.982424 0.003187 0.000000 0.000000 0.000000 0.476171
  time 25
    0 8.133911 3.146124 -8.201870 -0.690828 -1.208963 0.449351
    1 0.000000 -8.563283 0.000000 0.358668 -0.074065 -0.191572
    2 -0.627912 -3.172447 0.559143 -1.247017 1.437605 -1.233822
    3 0.000000 1.888488 0.974220 0.000000 0.000000 0.000000
    4 -0.013949 -2.622855 1.100494 0.147255 0.000000 0.000000
    5 -0.013949 -4.784638 0.650335 0.000000 0.000000 0.000000
    6 -0.716955 15.708819 -2.564272 0.000000 0.000000 0.000000
    7 -0.013948 -3.609847 2.626636 0.000000 0.000000 0.000000
    8 -0.551583 -1.713882 2.571739 0.000000 0.000000 0.340339
    9 -0.666018 -4.704159 1.993687 0.000000 0.337298 0.000000
    10 -0.018541 -0.368503 3.177891 0.000000 0.000000 0.000000
    11 -0.003480 -0.404828 0.000000 -0.000001 0.000000 0.000000
    12 -0.519309 -2.501155 -0.278957 -1.107358 -0.060907 -0.152582
    13 -0.010599 -1.208185 -0.000001 -1.179843 0.000000 0.000000
    14 -0.000001 -0.763065 0.000000 -1.228712 0.000000 0.000000
    15 0.105981 -2.607135 -0.278958 -0.873864 -0.036146 -0.178594
    16 0.000001 -1.250578 0.000000 -1.223476 0.000000 0.000000
    17 -0.000001 -0.932635 0.000000 -1.567306 0.000000 0.000000
    18 0.763064 -2.490555 -0.278958 -0.193267 0.000000 0.130900
    19 -0.012322 -1.280916 0.000000 -0.742289 0.000000 0.000000
    20 -0.001697 -0.749371 0.000001 -0.587569 0.000000 0.000000
    21 0.354566 0.016268 0.318133 0.458018 -0.443926 -1.167637
    22 1.887166 0.012878 0.000000 -0.304014 -0.029870 -0.496333
    23 1.001873 -0.000270 0.000000 0.000000 0.000000 -0.577704
    24 -1.123359 -2.195093 -0.278958 -1.174574 -0.118742 -0.146524
    25 0.010771 -0.963792 0.000000 -0.977385 0.000000 0.000000
    26 -0.010412 -0.631916 0.000000 -1.034980 0.000000 0.000000
    27 -0.695972 -9.617720 -10.186539 -0.817763 0.450673 0.492664
    28 0.089928 -8.543164 0.000000 0.711853 -0.539140 0.080200
    29 -0.000001 -0.359712 0.000000 0.000000 0.000000 0.000000
    30 -0.170479 -2.636146 -0.277655 -1.067712 -0.053032 0.090831
    31 0.010598 -1.261177 -0.000001 -0.473452 0.000000 0.000000
    32 0.000001 -0.943234 0.000001 -0.908172 -0.005285 -0.004374
    33 -0.827562 -2.508972 -0.277655 -0.649173 0.000000 0.000000
    34 0.000000 -1.292971 -0.000001 -0.710603 -0.058257 0.000120
    35 0.000000 -0.752466 0.000000 -0.777529 -0.248776 0.191909
    36 0.444213 -2.561960 -0.277655 -1.344799 0.054073 0.167482
    37 0.021024 -1.208187 0.000001 -0.273158 -0.008066 -0.031651
    38 0.010598 -0.741867 -0.000001 -0.721185 0.000000 0.000000
    39 1.047446 -2.222820 -0.277655 -1.356430 -0.069497 -0.040770
    40 0.000000 -0.996224 -0.000001 -1.199041 0.000000 0.000000
    41 0.000001 -0.614692 0.000001 -1.031490 0.000000 0.000000
    42 -0.308254 -0.007813 0.307166 -0.290817 -0.655522 -2.462811
    43 1.978377 0.019542 -0.000001 -0.103902 -0.064872 0.406375
    44 0.982424 0.003187 0.000000 0.000000 0.000000 0.487149
  time 26
    0 8.126099 3.153937 -8.162807 -0.668351 -1.214645 0.428882
    1 0.000000 -8.563283 0.000000 0.356479 -0.076744 -0.183187
    2 -0.627912 -3.172447 0.559143 -1.247017 1.437605 -1.233822
    3 0.000000 1.888488 0.974220 0.000000 0.000000 0.000000
    4 -0.013949 -2.615042 1.100494 0.160845 0.000000 0.000000
    5 -0.013949 -4.784638 0.650335 0.000000 0.000000 0.000000
    6 -0.716955 15.708819 -2.564272 0.000000 0.000000 0.000000
    7 -0.013948 -3.609847 2.626636 0.000000 0.000000 0.000000
    8 -0.551583 -1.713882 2.571739 0.000000 0.000000 0.340339
    9 -0.666018 -4.704159 1.993687 0.000000 0.337298 0.000000
    10 -0.018541 -0.368503 3.177891 0.000000 0.000000 0.000000
    11 -0.003480 -0.404828 0.000000 -0.000001 0.000000 0.000000
    12 -0.519309 -2.501155 -0.278957 -1.107358 -0.060907 -0.152582
    13 -0.010599 -1.208185 -0.000001 -1.179843 0.000000 0.000000
    14 -0.000001 -0.763065 0.000000 -1.228712 0.000000 0.000000
    15 0.105981 -2.607135 -0.278958 -0.873864 -0.036146 -0.178594
    16 0.000001 -1.250578 0.000000 -1.223476 0.000000 0.000000
    17 -0.000001 -0.932635 0.000000 -1.567306 0.000000 0.000000
    18 0.763064 -2.490555 -0.278958 -0.194525 0.000000 0.130900
    19 -0.012322 -1.280916 0.000000 -0.748470 0.000000 0.000000
    20 -0.001697 -0.749371 0.000001 -0.589436 0.000000 0.000000
    21 0.354566 0.016268 0.318133 0.458018 -0.443926 -1.167637
    22 1.887166 0.012878 0.000000 -0.304014 -0.029870 -0.496333
    23 1.001873 -0.000270 0.000000 0.000000 0.000000 -0.577704
    24 -1.123359 -2.195093 -0.278958 -1.174574 -0.118742 -0.146524
    25 0.010771 -0.963792 0.000000 -0.977385 0.000000 0.000000
    26 -0.010412 -0.631916 0.000000 -1.034980 0.000000 0.000000
    27 -0.688160 -9.609907 -10.241228 -0.818829 0.450483 0.487008
    28 0.089928 -8.543164 0.000000 0.705966 -0.541910 0.090015
    29 -0.000001 -0.359712 0.000000 0.000000 0.000000 0.000000
    30 -0.170479 -2.636146 -0.277655 -1.063001 -0.053044 0.090831
    31 0.010598 -1.261177 -0.000001 -0.473452 0.000000 0.000000
    32 0.000001 -0.943234 0.000001 -0.915742 -0.004147 -0.003416
    33 -0.827562 -2.508972 -0.277655 -0.649173 0.000000 0.000000
    34 0.000000 -1.292971 -0.000001 -0.710603 -0.058257 0.000120
    35 0.000000 -0.752466 0.000000 -0.777529 -0.248776 0.191909
    36 0.444213 -2.561960 -0.277655 -1.344395 0.050597 0.167542
    37 0.021024 -1.208187 0.000001 -0.279447 -0.006400 -0.024820
    38 0.010598 -0.741867 -0.000001 -0.721185 0.000000 0.000000
    39 1.047446 -2.222820 -0.277655 -1.356430 -0.069497 -0.040770
    40 0.000000 -0.996224 -0.000001 -1.199041 0.000000 0.000000
    41 0.000001 -0.614692 0.000001 -1.031490 0.000000 0.000000
    42 -0.308254 -0.007813 0.307166 -0.291112 -0.644685 -2.461745
    43 1.978377 0.019542 -0.000001 -0.103173 -0.058352 0.390808
    44 0.982424 0.003187 0.000000 0.000000 0.000000 0.498095
  time 27
    0 8.118286 3.157843 -8.131556 -0.642548 -1.220746 0.405478
    1 0.000000 -8.563283 0.000000 0.354058 -0.079734 -0.173954
    2 -0.627912 -3.172447 0.559143 -1.247017 1.437605 -1.233822
    3 0.000000 1.888488 0.974220 0.000000 0.000000 0.000000
    4 -0.013949 -2.611136 1.100494 0.174016 0.000000 0.000000
    5 -0.013949 -4.784638 0.650335 0.000000 0.000000 0.000000
    6 -0.716955 15.708819 -2.564272 0.000000 0.000000 0.000000
    7 -0.013948 -3.609847 2.626636 0.000000 0.000000 0.000000
    8 -0.551583 -1.713882 2.571739 0.000000 0.000000 0.340339
    9 -0.666018 -4.704159 1.993687 0.000000 0.337298 0.000000
    10 -0.018541 -0.368503 3.177891 0.000000 0.000000 0.000000
    11 -0.003480 -0.404828 0.000000 -0.000001 0.000000 0.000000
    12 -0.519309 -2.501155 -0.278957 -1.107358 -0.060907 -0.152582
    13 -0.010599 -1.208185 -0.000001 -1.179843 0.000000 0.000000
    14 -0.000001 -0.763065 0.000000 -1.228712 0.000000 0.000000
    15 0.105981 -2.607135 -0.278958 -0.873864 -0.036146 -0.178594
    16 0.000001 -1.250578 0.000000 -1.223476 0.000000 0.000000
    17 -0.000001 -0.932635 0.000000 -1.567306 0.000000 0.000000
    18 0.763064 -2.490555 -0.278958 -0.195616 0.000000 0.130900
    19 -0.012322 -1.280916 0.000000 -0.753939 0.000000 0.000000
    20 -0.001697 -0.749371 0.000001 -0.591036 0.000000 0.000000
    21 0.354566 0.016268 0.318133 0.458018 -0.443926 -1.167637
    22 1.887166 0.012878 0.000000 -0.304014 -0.029870 -0.496333
    23 1.001873 -0.000270 0.000000 0.000000 0.000000 -0.577704
    24 -1.123359 -2.195093 -0.278958 -1.174574 -0.118742 -0.146524
    25 0.010771 -0.963792 0.000000 -0.977385 0.000000 0.000000
    26 -0.010412 -0.631916 0.000000 -1.034980 0.000000 0.000000
    27 -0.672534 -9.598188 -10.311543 -0.819984 0.450388 0.481352
    28 0.089928 -8.543164 0.000000 0.699999 -0.544613 0.099863
    29 -0.000001 -0.359712 0.000000 0.000000 0.000000 0.000000
    30 -0.170479 -2.636146 -0.277655 -1.058291 -0.053044 0.090831
    31 0.010598 -1.261177 -0.000001 -0.473452 0.000000 0.000000
    32 0.000001 -0.943234 0.000001 -0.923312 -0.003032 -0.002469
    33 -0.827562 -2.508972 -0.277655 -0.649173 0.000000 0.000000
    34 0.000000 -1.292971 -0.000001 -0.710603 -0.058257 0.000120
    35 0.000000 -0.752466 0.000000 -0.777529 -0.248776 0.191909
    36 0.444213 -2.561960 -0.277655 -1.343990 0.047134 0.167590
    37 0.021024 -1.208187 0.000001 -0.285736 -0.004722 -0.018049
    38 0.010598 -0.741867 -0.000001 -0.721185 0.000000 0.000000
    39 1.047446 -2.222820 -0.277655 -1.356430 -0.069497 -0.040770
    40 0.000000 -0.996224 -0.000001 -1.199041 0.000000 0.000000
    41 0.000001 -0.614692 0.000001 -1.031490 0.000000 0.000000
    42 -0.308254 -0.007813 0.307166 -0.291361 -0.633848 -2.460680
    43 1.978377 0.019542 -0.000001 -0.102502 -0.050718 0.373498
    44 0.982424 0.003187 0.000000 0.000000 0.000000 0.509010
  time 28
    0 8.110473 3.161749 -8.112024 -0.612814 -1.227300 0.378443
    1 0.000000 -8.563283 0.000000 0.351321 -0.083078 -0.163817
    2 -0.627912 -3.172447 0.559143 -1.247017 1.437605 -1.233822
    3 0.000000 1.888488 0.974220 0.000000 0.000000 0.000000
    4 -0.013949 -2.607229 1.100494 0.186600 0.000000 0.000000
    5 -0.013949 -4.784638 0.650335 0.000000 0.000000 0.000000
    6 -0.716955 15.708819 -2.564272 0.000000 0.000000 0.000000
    7 -0.013948 -3.609847 2.626636 0.000000 0.000000 0.000000
    8 -0.551583 -1.713882 2.571739 0.000000 0.000000 0.340339
    9 -0.666018 -4.704159 1.993687 0.000000 0.337298 0.000000
    10 -0.018541 -0.368503 3.177891 0.000000 0.000000 0.000000
    11 -0.003480 -0.404828 0.000000 -0.000001 0.000000 0.000000
    12 -0.519309 -2.501155 -0.278957 -1.107358 -0.060907 -0.152582
    13 -0.010599 -1.208185 -0.000001 -1.179843 0.000000 0.000000
    14 -0.000001 -0.763065 0.000000 -1.228712 0.000000 0.000000
    15 0.105981 -2.607135 -0.278958 -0.873864 -0.036146 -0.178594
    16 0.000001 -1.250578 0.000000 -1.223476 0.000000 0.000000
    17 -0.000001 -0.932635 0.000000 -1.567306 0.000000 0.000000
    18 0.763064 -2.490555 -0.278958 -0.196467 0.000000 0.130900
    19 -0.012322 -1.280916 0.000000 -0.758456 0.000000 0.000000
    20 -0.001697 -0.749371 0.000001 -0.592297 0.000000 0.000000
    21 0.354566 0.016268 0.318133 0.458018 -0.443926 -1.167637
    22 1.887166 0.012878 0.000000 -0.304014 -0.029870 -0.496333
    23 1.001873 -0.000270 0.000000 0.000000 0.000000 -0.577704
    24 -1.123359 -2.195093 -0.278958 -1.174574 -0.118742 -0.146524
    25 0.010771 -0.963792 0.000000 -0.977385 0.000000 0.000000
    26 -0.010412 -0.631916 0.000000 -1.034980 0.000000 0.000000
    27 -0.653002 -9.590375 -10.401389 -0.821050 0.450198 0.475984
    28 0.089928 -8.543164 0.000000 0.694031 -0.547163 0.109678
    29 -0.000001 -0.359712 0.000000 0.000000 0.000000 0.000000
    30 -0.170479 -2.636146 -0.277655 -1.053646 -0.053044 0.090831
    31 0.010598 -1.261177 -0.000001 -0.473452 0.000000 0.000000
    32 0.000001 -0.943234 0.000001 -0.930698 -0.001942 -0.001570
    33 -0.827562 -2.508972 -0.277655 -0.649173 0.000000 0.000000
    34 0.000000 -1.292971 -0.000001 -0.710603 -0.058257 0.000120
    35 0.000000 -0.752466 0.000000 -0.777529 -0.248776 0.191909
    36 0.444213 -2.561960 -0.277655 -1.343470 0.043706 0.167650
    37 0.021024 -1.208187 0.000001 -0.291918 -0.003056 -0.011541
    38 0.010598 -0.741867 -0.000001 -0.721185 0.000000 0.000000
    39 1.047446 -2.222820 -0.277655 -1.356430 -0.069497 -0.040770
    40 0.000000 -0.996224 -0.000001 -1.199041 0.000000 0.000000
    41 0.000001 -0.614692 0.000001 -1.031490 0.000000 0.000000
    42 -0.308254 -0.007813 0.307166 -0.291791 -0.623345 -2.459803
    43 1.978377 0.019542 -0.000001 -0.101918 -0.042520 0.355317
    44 0.982424 0.003187 0.000000 0.000000 0.000000 0.519828
  time 29
    0 8.106567 3.165656 -8.100305 -0.578545 -1.234168 0.347315
    1 0.000000 -8.563283 0.000000 0.348206 -0.086866 -0.152650
    2 -0.627912 -3.172447 0.559143 -1.247017 1.437605 -1.233822
    3 0.000000 1.888488 0.974220 0.000000 0.000000 0.000000
    4 -0.013949 -2.603323 1.100494 0.198465 0.000000 0.000000
    5 -0.013949 -4.784638 0.650335 0.000000 0.000000 0.000000
    6 -0.716955 15.708819 -2.564272 0.000000 0.000000 0.000000
    7 -0.013948 -3.609847 2.626636 0.000000 0.000000 0.000000
    8 -0.551583 -1.713882 2.571739 0.000000 0.000000 0.340339
    9 -0.666018 -4.704159 1.993687 0.000000 0.337298 0.000000
    10 -0.018541 -0.368503 3.177891 0.000000 0.000000 0.000000
    11 -0.003480 -0.404828 0.000000 -0.000001 0.000000 0.000000
    12 -0.519309 -2.501155 -0.278957 -1.107358 -0.060907 -0.152582
    13 -0.010599 -1.208185 -0.000001 -1.179843 0.000000 0.000000
    14 -0.000001 -0.763065 0.000000 -1.228712 0.000000 0.000000
    15 0.105981 -2.607135 -0.278958 -0.873864 -0.036146 -0.178594
    16 0.000001 -1.250578 0.000000 -1.223476 0.000000 0.000000
    17 -0.000001 -0.932635 0.000000 -1.567306 0.000000 0.000000
    18 0.763064 -2.490555 -0.278958 -0.197030 0.000000 0.130900
    19 -0.012322 -1.280916 0.000000 -0.761760 0.000000 0.000000
    20 -0.001697 -0.749371 0.000001 -0.593121 0.000000 0.000000
    21 0.354566 0.016268 0.318133 0.458018 -0.443926 -1.167637
    22 1.887166 0.012878 0.000000 -0.304014 -0.029870 -0.496333
    23 1.001873 -0.000270 0.000000 0.000000 0.000000 -0.577704
    24 -1.123359 -2.195093 -0.278958 -1.174574 -0.118742 -0.146524
    25 0.010771 -0.963792 0.000000 -0.977385 0.000000 0.000000
    26 -0.010412 -0.631916 0.000000 -1.034980 0.000000 0.000000
    27 -0.625658 -9.578656 -10.502955 -0.822027 0.450008 0.471094
    28 0.089928 -8.543164 0.000000 0.688063 -0.549427 0.119396
    29 -0.000001 -0.359712 0.000000 0.000000 0.000000 0.000000
    30 -0.170479 -2.636146 -0.277655 -1.049068 -0.053044 0.090819
    31 0.010598 -1.261177 -0.000001 -0.473452 0.000000 0.000000
    32 0.000001 -0.943234 0.000001 -0.937936 -0.000923 -0.000743
    33 -0.827562 -2.508972 -0.277655 -0.649173 0.000000 0.000000
    34 0.000000 -1.292971 -0.000001 -0.710603 -0.058257 0.000120
    35 0.000000 -0.752466 0.000000 -0.777529 -0.248776 0.191909
    36 0.444213 -2.561960 -0.277655 -1.342776 0.040338 0.167722
    37 0.021024 -1.208187 0.000001 -0.298100 -0.001462 -0.005465
    38 0.010598 -0.741867 -0.000001 -0.721185 0.000000 0.000000
    39 1.047446 -2.222820 -0.277655 -1.356430 -0.069497 -0.040770
    40 0.000000 -0.996224 -0.000001 -1.199041 0.000000 0.000000
    41 0.000001 -0.614692 0.000001 -1.031490 0.000000 0.000000
    42 -0.308254 -0.007813 0.307166 -0.292584 -0.613464 -2.459239
    43 1.978377 0.019542 -0.000001 -0.101510 -0.034311 0.337135
    44 0.982424 0.003187 0.000000 0.000000 0.000000 0.530614
  time 30
    0 8.106567 3.165656 -8.096398 -0.539034 -1.241314 0.311552
    1 0.000000 -8.563283 0.000000 0.344690 -0.091140 -0.140417
    2 -0.627912 -3.172447 0.559143 -1.247017 1.437605 -1.233822
    3 0.000000 1.888488 0.974220 0.000000 0.000000 0.000000
    4 -0.013949 -2.603323 1.100494 0.209431 0.000000 0.000000
    5 -0.013949 -4.784638 0.650335 0.000000 0.000000 0.000000
    6 -0.716955 15.708819 -2.564272 0.000000 0.000000 0.000000
    7 -0.013948 -3.609847 2.626636 0.000000 0.000000 0.000000
    8 -0.551583 -1.713882 2.571739 0.000000 0.000000 0.340339
    9 -0.666018 -4.704159 1.993687 0.000000 0.337298 0.000000
    10 -0.018541 -0.368503 3.177891 0.000000 0.000000 0.000000
    11 -0.003480 -0.404828 0.000000 -0.000001 0.000000 0.000000
    12 -0.519309 -2.501155 -0.278957 -1.107358 -0.060907 -0.152582
    13 -0.010599 -1.208185 -0.000001 -1.179843 0.000000 0.000000
    14 -0.000001 -0.763065 0.000000 -1.228712 0.000000 0.000000
    15 0.105981 -2.607135 -0.278958 -0.873864 -0.036146 -0.178594
    16 0.000001 -1.250578 0.000000 -1.223476 0.000000 0.000000
    17 -0.000001 -0.932635 0.000000 -1.567306 0.000000 0.000000
    18 0.763064 -2.490555 -0.278958 -0.197222 0.000000 0.130900
    19 -0.012322 -1.280916 0.000000 -0.763567 0.000000 0.000000
    20 -0.001697 -0.749371 0.000001 -0.593412 0.000000 0.000000
    21 0.354566 0.016268 0.318133 0.458018 -0.443926 -1.167637
    22 1.887166 0.012878 0.000000 -0.304014 -0.029870 -0.496333
    23 1.001873 -0.000270 0.000000 0.000000 0.000000 -0.577704
    24 -1.123359 -2.195093 -0.278958 -1.174574 -0.118742 -0.146524
    25 0.010771 -0.963792 0.000000 -0.977385 0.000000 0.000000
    26 -0.010412 -0.631916 0.000000 -1.034980 0.000000 0.000000
    27 -0.590500 -9.566937 -10.627959 -0.822916 0.449913 0.466876
    28 0.089928 -8.543164 0.000000 0.682096 -0.551340 0.128920
    29 -0.000001 -0.359712 0.000000 0.000000 0.000000 0.000000
    30 -0.170479 -2.636146 -0.277655 -1.044556 -0.053056 0.090819
    31 0.010598 -1.261177 -0.000001 -0.473452 0.000000 0.000000
    32 0.000001 -0.943234 0.000001 -0.944915 0.000000 0.000000
    33 -0.827562 -2.508972 -0.277655 -0.649173 0.000000 0.000000
    34 0.000000 -1.292971 -0.000001 -0.710603 -0.058257 0.000120
    35 0.000000 -0.752466 0.000000 -0.777529 -0.248776 0.191909
    36 0.444213 -2.561960 -0.277655 -1.341909 0.037019 0.167818
    37 0.021024 -1.208187 0.000001 -0.304120 0.000000 0.000000
    38 0.010598 -0.741867 -0.000001 -0.721185 0.000000 0.000000
    39 1.047446 -2.222820 -0.277655 -1.356430 -0.069497 -0.040770
    40 0.000000 -0.996224 -0.000001 -1.199041 0.000000 0.000000
    41 0.000001 -0.614692 0.000001 -1.031490 0.000000 0.000000
    42 -0.308254 -0.007813 0.307166 -0.293919 -0.604523 -2.459113
    43 1.978377 0.019542 -0.000001 -0.101218 -0.026653 0.319856
    44 0.982424 0.003187 0.000000 0.000000 0.000000 0.541337
end
