// Created by Crowbar 0.49.0.0

$modelname "weapons/tfa_cso/c_dualkriss.mdl"

$Include "csonline_gmod.qci"

$bodygroup "studio"
{
	studio "v_dualkriss_v_ref"
}

$CDMaterials "models\weapons\tfa_cso\dualkriss"

$attachment 0 "Kriss_root_L" -2.31 12.45 0
$attachment 1 "Kriss_root_R" -2.31 12.45 0
//$attachment 2 "Kriss_root_L" -1.8 6.5 0.7
//$attachment 3 "Kriss_root_R" -1.8 6.5 0.7
	  
$sequence "idle" {
	"v_dualkriss_anims\idle"
	fps 10
	activity "ACT_VM_IDLE" 1
	snap
	loop
}
$sequence "idle_leftempty" {
	"v_dualkriss_anims\idle_leftempty"
	fps 30
}
$sequence "shoot_left1" {
	"v_dualkriss_anims\shoot_left1"
	{ event 5021 0 "22" }
	fps 30
	activity "ACT_VM_PRIMARYATTACK" 1
	snap
}
$sequence "shoot_left2" {
	"v_dualkriss_anims\shoot_left2"
	{ event 5021 0 "22" }
	fps 30
	activity "ACT_VM_PRIMARYATTACK" 2
	snap
}
$sequence "shoot_leftlast" {
	"v_dualkriss_anims\shoot_leftlast"
	{ event 5021 0 "22" }
	fps 30
}
$sequence "shoot_right1" {
	"v_dualkriss_anims\shoot_right1"
	{ event 5011 0 "22" }
	fps 30
	activity "ACT_VM_SECONDARYATTACK" 1
	snap
}
$sequence "shoot_right2" {
	"v_dualkriss_anims\shoot_right2"
	{ event 5011 0 "22" }
	fps 30
	activity "ACT_VM_SECONDARYATTACK" 2
	snap
}
$sequence "shoot_rightlast" {
	"v_dualkriss_anims\shoot_rightlast"
	{ event 5011 0 "22" }
	fps 30
}
$sequence "reload" {
	"v_dualkriss_anims\reload"
	{ event 5004 12 "DualKriss.ClipOut" }
	{ event 5004 45 "DualKriss.ClipIn" }
	{ event 5004 67 "DualKriss.ClipIn" }
	fps 30
	activity "ACT_VM_RELOAD" 1
	snap
}
$sequence "draw" {
	"v_dualkriss_anims\draw"
	{ event 5004 10 "DualKriss.Draw" }
	fps 30
	activity "ACT_VM_DRAW" 1
	snap
}
