version 1
nodes
  0 "Bone03" -1
  1 "Bone02" 0
  2 "Bone56" 1
  3 "Bone54" 1
  4 "Bone48" 1
  5 "Bone25" 1
  6 "Bone50" 1
  7 "Bone51" 6
  8 "Bone52" 7
  9 "Bone53" 8
  10 "root" -1
  11 "Bone01" 10
  12 "Bone_L_Upper" 11
  13 "Bone_Lefthand" 11
  14 "Bone13" 13
  15 "Bone14" 14
  16 "Bone15" 15
  17 "Bone17" 13
  18 "Bone18" 17
  19 "Bone19" 18
  20 "Bone21" 13
  21 "Bone22" 20
  22 "Bone23" 21
  23 "Bone09" 13
  24 "Bone10" 23
  25 "Bone11" 24
  26 "Bone05" 13
  27 "Bone06" 26
  28 "Bone07" 27
  29 "Bone_Se_Hand-L" 13
  30 "Bone04" 10
  31 "Bone_Righthand" 30
  32 "Bone39" 31
  33 "Bone40" 32
  34 "Bone41" 33
  35 "Bone35" 31
  36 "Bone36" 35
  37 "Bone37" 36
  38 "Bone31" 31
  39 "Bone32" 38
  40 "Bone33" 39
  41 "Bone43" 31
  42 "Bone44" 41
  43 "Bone45" 42
  44 "Bone27" 31
  45 "Bone28" 44
  46 "Bone29" 45
  47 "Bone_Se_Hand-R" 31
  48 "Bone_R_Upper" 30
end
skeleton
  time 0
    0 4.719761 -7.431585 -9.244552 0.060266 -0.182834 -0.040563
    1 -0.025678 2.701180 0.658172 0.000000 0.000000 0.000000
    2 0.000000 -3.947159 3.041922 0.000000 0.000000 0.000000
    3 0.000000 -1.548280 0.485224 0.000000 0.000000 0.000000
    4 0.000000 -0.980124 2.284383 0.000000 0.000000 0.000000
    5 0.000000 -2.905540 1.621535 0.000000 0.000000 0.000000
    6 -0.000001 -5.746316 1.557464 0.000000 0.000000 0.000000
    7 0.000000 -0.031565 -0.614062 0.000000 0.000000 0.000000
    8 0.000000 -0.000002 -0.824931 0.000000 0.000000 0.000000
    9 0.000000 -0.015647 -0.615740 0.000000 0.000000 0.000000
    10 -2.686428 2.537875 -5.745650 0.000000 0.000000 0.374718
    11 7.270979 -1.104173 -6.323393 0.708638 -2.124392 -0.889069
    12 8.046450 -0.015027 -0.388095 1.570631 -3.114954 0.076051
    13 -0.060202 -8.397171 -0.123666 -0.248855 0.270958 -0.234815
    14 -0.488518 -2.755602 -0.228260 -0.677757 0.222160 -0.237357
    15 0.039887 -1.546198 0.022041 -1.865677 -0.006771 0.041659
    16 0.028786 -1.157765 -0.124675 -1.010741 -0.015017 0.021249
    17 0.250027 -2.820665 -0.238396 -0.583312 0.207576 -0.172896
    18 -0.049759 -1.594604 0.022352 -1.674032 -0.002301 -0.044045
    19 -0.034142 -1.171750 0.045718 -1.215231 0.006076 -0.032059
    20 0.957766 -2.746780 -0.090302 0.002002 -0.079703 0.138406
    21 -0.033420 -1.397129 -0.026882 -0.920366 0.005369 -0.045183
    22 -0.022360 -0.957436 -0.000748 -0.725796 0.007394 -0.035283
    23 -1.180681 -2.507217 -0.193859 -0.486179 0.356856 -0.282099
    24 -0.024967 -1.127840 0.017597 -1.310231 -0.003476 -0.054840
    25 -0.020057 -0.906594 0.041341 -1.373954 -0.003092 -0.055632
    26 0.630386 -1.197277 0.185379 0.386032 -1.009532 -0.241400
    27 1.446081 -0.251481 0.079230 0.075511 -0.244881 -0.915391
    28 1.007018 -0.182979 0.044010 0.088023 -0.242978 -1.037980
    29 0.120153 -0.050270 -0.054489 0.287569 3.110905 1.561085
    30 -8.431174 2.909614 -6.103032 -0.302770 -3.963773 -0.310268
    31 0.018817 -8.364478 -0.009365 -0.247189 -0.415554 0.516113
    32 0.447953 -2.798986 -0.200443 -1.565065 0.021902 0.192779
    33 -0.032909 -1.495829 0.040097 -1.901672 0.020446 -0.040578
    34 -0.027022 -1.147235 0.018854 -2.379679 0.013303 -0.051210
    35 -0.249534 -2.846964 -0.174213 -1.277011 0.015419 0.071733
    36 0.043235 -1.656596 0.053042 -1.896152 -0.024993 0.016360
    37 0.031729 -1.137392 0.043213 -1.886250 -0.019480 0.012806
    38 -0.963866 -2.785145 -0.085350 -0.835517 0.138403 -0.076564
    39 0.028479 -1.414786 -0.028886 -1.405696 -0.044595 -0.038590
    40 0.021413 -0.942156 0.012233 -0.973400 -0.025707 -0.033809
    41 1.164475 -2.543940 -0.170330 -1.539294 -0.092093 0.357254
    42 0.024032 -1.160293 -0.009538 -1.777093 0.048909 0.071561
    43 0.014898 -0.907427 -0.000316 -1.807452 0.046908 0.072351
    44 -0.586770 -1.264477 0.200161 -0.356786 -0.728663 -2.405470
    45 1.542367 0.043056 0.016848 -0.007926 -0.002245 0.472399
    46 1.110134 0.040611 -0.005766 -0.037719 -0.031382 1.329780
    47 -0.139399 -0.111698 0.014397 0.285382 -0.030687 1.580508
    48 -7.315526 -3.071343 -0.477722 1.554072 -0.038815 0.313263
  time 1
    0 3.743169 -7.873004 -8.728912 0.010515 0.086428 -0.186871
    1 -0.025678 2.701180 0.658172 0.000000 0.000000 0.000000
    2 0.000000 -3.947159 3.041922 0.000000 0.000000 0.000000
    3 0.000000 -1.548280 0.485224 0.000000 0.000000 0.000000
    4 0.000000 -0.980124 2.284383 0.000000 0.000000 0.000000
    5 0.000000 -2.905540 1.621535 0.000000 0.000000 0.000000
    6 -0.000001 -5.746316 1.557464 0.060834 -0.065168 0.000000
    7 0.000000 -0.031565 -0.614062 0.060810 -0.063469 0.000000
    8 0.000000 -0.000002 -0.824931 0.060666 -0.060140 -0.000240
    9 0.000000 -0.015647 -0.615740 0.060187 -0.055355 -0.000911
    10 -2.686428 2.537875 -5.745650 0.000000 0.000000 0.374718
    11 6.817840 -1.572938 -6.221828 0.869891 -2.042229 -1.094898
    12 8.069888 0.336546 -0.384189 1.569960 -3.115624 0.119032
    13 -0.025045 -8.393264 -0.104134 -0.323221 0.437692 -0.266010
    14 -0.488518 -2.755602 -0.228260 -0.677757 0.222160 -0.237357
    15 0.039887 -1.546198 0.022041 -1.865677 -0.006771 0.041659
    16 0.028786 -1.157765 -0.124675 -1.010741 -0.015017 0.021249
    17 0.250027 -2.820665 -0.238396 -0.583312 0.207576 -0.172896
    18 -0.049759 -1.594604 0.022352 -1.674032 -0.002301 -0.044045
    19 -0.034142 -1.171750 0.045718 -1.215231 0.006076 -0.032059
    20 0.957766 -2.746780 -0.090302 0.002002 -0.079703 0.138406
    21 -0.033420 -1.397129 -0.026882 -0.920366 0.005369 -0.045183
    22 -0.022360 -0.957436 -0.000748 -0.725796 0.007394 -0.035283
    23 -1.180681 -2.507217 -0.193859 -0.486179 0.356856 -0.282099
    24 -0.024967 -1.127840 0.017597 -1.310231 -0.003476 -0.054840
    25 -0.020057 -0.906594 0.041341 -1.373954 -0.003092 -0.055632
    26 0.630386 -1.197277 0.185379 0.386032 -1.009532 -0.241400
    27 1.446081 -0.251481 0.079230 0.075523 -0.244881 -0.915391
    28 1.007018 -0.182979 0.044010 0.088023 -0.242978 -1.037980
    29 0.120153 -0.050270 -0.054489 0.287569 3.110905 1.561085
    30 -8.528833 1.616605 -6.630392 0.045935 -4.017972 0.011533
    31 0.065693 -8.380104 -0.017178 -0.147706 -0.279614 0.357776
    32 0.447953 -2.798986 -0.200443 -1.324409 0.022274 0.199598
    33 -0.032909 -1.499736 0.032285 -1.581736 0.023094 -0.031901
    34 -0.027022 -1.147235 -0.004585 -1.904495 0.021944 -0.040951
    35 -0.249534 -2.846964 -0.174213 -1.047426 0.018152 0.068449
    36 0.043235 -1.656596 0.064761 -1.596721 -0.023675 0.010607
    37 0.031729 -1.137392 0.051025 -1.518574 -0.016760 0.008947
    38 -0.963866 -2.785145 -0.085350 -0.684427 0.143772 -0.072333
    39 0.028479 -1.406973 -0.024980 -1.176025 -0.034300 -0.037368
    40 0.021413 -0.946062 0.016140 -0.813585 -0.019415 -0.030273
    41 1.164475 -2.543940 -0.170330 -1.341200 -0.102268 0.352808
    42 0.024032 -1.152480 -0.009538 -1.465435 0.031975 0.067282
    43 0.014898 -0.907427 -0.004223 -1.482542 0.029446 0.067234
    44 -0.586770 -1.264477 0.200161 -0.343945 -0.802815 -2.411193
    45 1.542367 0.043056 0.016848 -0.007495 -0.001933 0.453954
    46 1.110134 0.040611 -0.005766 -0.032697 -0.033407 1.161219
    47 -0.139399 -0.111698 0.014397 0.285382 -0.030687 1.580508
    48 -7.057705 -3.532294 -0.473815 1.552347 -0.038719 0.377466
  time 2
    0 2.704075 -8.224578 -7.939825 -0.088157 0.363837 -0.380915
    1 -0.025678 2.701180 0.658172 0.000000 0.000000 0.000000
    2 0.000000 -3.947159 3.041922 0.000000 0.000000 0.000000
    3 0.000000 -1.548280 0.485224 0.000000 0.000000 0.000000
    4 0.000000 -0.980124 2.284383 0.000000 0.000000 0.000000
    5 0.000000 -2.905540 1.621535 0.000000 0.000000 0.000000
    6 -0.000001 -5.746316 1.557464 0.162247 -0.173812 0.000000
    7 0.000000 -0.031565 -0.614062 0.162175 -0.169272 0.000000
    8 0.000000 -0.000002 -0.824931 0.161804 -0.160389 -0.000647
    9 0.000000 -0.015647 -0.615740 0.160498 -0.147624 -0.002433
    10 -2.686428 2.537875 -5.745650 0.000000 0.000000 0.374718
    11 6.267042 -2.041702 -6.014790 1.103652 -1.977420 -1.382143
    12 8.081607 0.688120 -0.376376 1.569385 -3.116389 0.162390
    13 0.017925 -8.385452 -0.100228 -0.423384 0.618372 -0.323135
    14 -0.488518 -2.755602 -0.228260 -0.677757 0.222160 -0.237357
    15 0.039887 -1.546198 0.022041 -1.865677 -0.006771 0.041659
    16 0.028786 -1.157765 -0.124675 -1.010741 -0.015017 0.021249
    17 0.250027 -2.820665 -0.238396 -0.583312 0.207576 -0.172896
    18 -0.049759 -1.594604 0.022352 -1.674032 -0.002301 -0.044045
    19 -0.034142 -1.171750 0.045718 -1.215231 0.006076 -0.032059
    20 0.957766 -2.746780 -0.090302 0.002002 -0.079703 0.138406
    21 -0.033420 -1.397129 -0.026882 -0.920366 0.005369 -0.045183
    22 -0.022360 -0.957436 -0.000748 -0.725796 0.007394 -0.035283
    23 -1.180681 -2.507217 -0.193859 -0.486179 0.356856 -0.282099
    24 -0.024967 -1.127840 0.017597 -1.310231 -0.003476 -0.054840
    25 -0.020057 -0.906594 0.041341 -1.373954 -0.003092 -0.055632
    26 0.630386 -1.197277 0.185379 0.386032 -1.009532 -0.241400
    27 1.446081 -0.251481 0.079230 0.075511 -0.244881 -0.915391
    28 1.007018 -0.182979 0.044010 0.088023 -0.242978 -1.037980
    29 0.120153 -0.050270 -0.054489 0.287569 3.110905 1.561085
    30 -8.501489 0.233751 -7.009310 0.406845 -3.987880 0.343910
    31 0.104757 -8.407448 -0.040616 -0.073841 -0.131295 0.218289
    32 0.447953 -2.798986 -0.200443 -1.083809 0.021016 0.206322
    33 -0.032909 -1.499736 0.024472 -1.261800 0.022879 -0.022829
    34 -0.027022 -1.135516 -0.020210 -1.429149 0.024916 -0.027864
    35 -0.249534 -2.846964 -0.174213 -0.817886 0.021567 0.065884
    36 0.043235 -1.656596 0.072574 -1.297418 -0.020715 0.005502
    37 0.031729 -1.141298 0.054932 -1.150898 -0.012829 0.006335
    38 -0.963866 -2.785145 -0.085350 -0.533225 0.148434 -0.067336
    39 0.028479 -1.403067 -0.021074 -0.946402 -0.024544 -0.033832
    40 0.021413 -0.946062 0.016140 -0.653803 -0.013758 -0.025779
    41 1.164475 -2.543940 -0.170330 -1.142894 -0.111376 0.346420
    42 0.024032 -1.144668 -0.005631 -1.153777 0.017162 0.058006
    43 0.014898 -0.903521 -0.012035 -1.157691 0.014525 0.056819
    44 -0.586770 -1.264477 0.200161 -0.329350 -0.876907 -2.418902
    45 1.542367 0.043056 0.016848 -0.007075 -0.001621 0.435509
    46 1.114041 0.044518 -0.005766 -0.027412 -0.034570 0.992657
    47 -0.139399 -0.111698 0.014397 0.285382 -0.030687 1.580508
    48 -6.772540 -3.977620 -0.469909 1.550623 -0.038528 0.441668
  time 3
    0 1.899363 -8.498024 -7.072611 -0.226637 0.572041 -0.590119
    1 -0.025678 2.701180 0.658172 0.000000 0.000000 0.000000
    2 0.000000 -3.947159 3.041922 0.000000 0.000000 0.000000
    3 0.000000 -1.548280 0.485224 0.000000 0.000000 0.000000
    4 0.000000 -0.980124 2.284383 0.000000 0.000000 0.000000
    5 0.000000 -2.905540 1.621535 0.000000 0.000000 0.000000
    6 -0.000001 -5.746316 1.557464 0.041982 -0.055985 0.007251
    7 0.000000 -0.031565 -0.614062 0.039993 -0.054855 0.006436
    8 0.000000 -0.000002 -0.824931 0.036193 -0.053579 0.003631
    9 0.000000 -0.015647 -0.615740 0.030944 -0.051667 -0.001582
    10 -2.686428 2.537875 -5.745650 0.000000 0.000000 0.374718
    11 5.727963 -2.455777 -5.729625 4.499014 -1.191924 1.455890
    12 8.073794 1.035786 -0.372470 1.568905 -3.117154 0.204843
    13 0.053083 -8.381545 -0.096321 -0.522492 0.760514 -0.390787
    14 -0.488518 -2.755602 -0.228260 -0.677757 0.222160 -0.237357
    15 0.039887 -1.546198 0.022041 -1.865677 -0.006771 0.041659
    16 0.028786 -1.157765 -0.124675 -1.010741 -0.015017 0.021249
    17 0.250027 -2.820665 -0.238396 -0.583312 0.207576 -0.172896
    18 -0.049759 -1.594604 0.022352 -1.674032 -0.002301 -0.044045
    19 -0.034142 -1.171750 0.045718 -1.215231 0.006076 -0.032059
    20 0.957766 -2.746780 -0.090302 0.002002 -0.079703 0.138406
    21 -0.033420 -1.397129 -0.026882 -0.920366 0.005369 -0.045183
    22 -0.022360 -0.957436 -0.000748 -0.725796 0.007394 -0.035283
    23 -1.180681 -2.507217 -0.193859 -0.486179 0.356856 -0.282099
    24 -0.024967 -1.127840 0.017597 -1.310231 -0.003476 -0.054840
    25 -0.020057 -0.906594 0.041341 -1.373954 -0.003092 -0.055632
    26 0.630386 -1.197277 0.185379 0.386032 -1.009532 -0.241400
    27 1.446081 -0.251481 0.079230 0.075523 -0.244881 -0.915419
    28 1.007018 -0.182979 0.044010 0.088023 -0.242978 -1.037980
    29 0.120153 -0.050270 -0.054489 0.287569 3.110905 1.561085
    30 -8.403830 -1.344422 -7.271036 0.683689 -3.910881 0.614852
    31 0.132101 -8.423074 -0.064054 -0.018635 0.008388 0.146389
    32 0.447953 -2.798986 -0.200443 -0.873892 0.018631 0.211799
    33 -0.032909 -1.495829 0.016659 -0.982764 0.020362 -0.015314
    34 -0.027022 -1.119890 -0.028023 -1.014472 0.022339 -0.016431
    35 -0.249534 -2.846964 -0.174213 -0.617621 0.024959 0.064326
    36 0.043235 -1.660503 0.080387 -1.036271 -0.017000 0.001942
    37 0.031729 -1.145205 0.058838 -0.830237 -0.008826 0.005340
    38 -0.963866 -2.785145 -0.085350 -0.401204 0.151861 -0.062434
    39 0.028479 -1.403067 -0.013261 -0.746087 -0.016898 -0.029003
    40 0.021413 -0.949968 0.020046 -0.514378 -0.009456 -0.021165
    41 1.164475 -2.543940 -0.170330 -0.969655 -0.118159 0.339469
    42 0.024032 -1.136855 -0.001725 -0.881885 0.007119 0.046537
    43 0.014898 -0.899614 -0.015942 -0.874231 0.004818 0.044223
    44 -0.586770 -1.264477 0.200161 -0.314635 -0.941446 -2.427737
    45 1.542367 0.043056 0.016848 -0.006716 -0.001334 0.419443
    46 1.114041 0.044518 -0.005766 -0.022702 -0.034846 0.845587
    47 -0.139399 -0.111698 0.014397 0.285382 -0.030687 1.580508
    48 -6.713945 -4.059654 -0.466002 1.550335 -0.038432 0.454097
  time 4
    0 1.493100 -8.771469 -6.451498 -0.329069 0.661706 -0.717213
    1 -0.025678 2.701180 0.658172 0.000000 0.000000 0.000000
    2 0.000000 -3.947159 3.041922 0.000000 0.000000 0.000000
    3 0.000000 -1.548280 0.485224 0.000000 0.000000 0.000000
    4 0.000000 -0.980124 2.284383 0.000000 0.000000 0.000000
    5 0.000000 -2.905540 1.621535 0.000000 0.000000 0.000000
    6 -0.000001 -5.746316 1.557464 -0.078271 0.061824 0.014501
    7 0.000000 -0.031565 -0.614062 -0.082178 0.059544 0.012883
    8 0.000000 -0.000002 -0.824931 -0.089381 0.053198 0.007922
    9 0.000000 -0.015647 -0.615740 -0.098585 0.044275 -0.000743
    10 -2.686428 2.537875 -5.745650 0.000000 0.000000 0.374718
    11 5.341232 -2.787819 -5.463992 4.669878 -1.191170 1.253970
    12 8.054262 1.363921 -0.368563 1.568426 -3.117823 0.245185
    13 0.064802 -8.381545 -0.096321 -0.559867 0.819459 -0.417464
    14 -0.488518 -2.755602 -0.228260 -0.677757 0.222160 -0.237357
    15 0.039887 -1.546198 0.022041 -1.865677 -0.006771 0.041659
    16 0.028786 -1.157765 -0.124675 -1.010741 -0.015017 0.021249
    17 0.250027 -2.820665 -0.238396 -0.583312 0.207576 -0.172896
    18 -0.049759 -1.594604 0.022352 -1.674032 -0.002301 -0.044045
    19 -0.034142 -1.171750 0.045718 -1.215231 0.006076 -0.032059
    20 0.957766 -2.746780 -0.090302 0.002002 -0.079703 0.138406
    21 -0.033420 -1.397129 -0.026882 -0.920366 0.005369 -0.045183
    22 -0.022360 -0.957436 -0.000748 -0.725796 0.007394 -0.035283
    23 -1.180681 -2.507217 -0.193859 -0.486179 0.356856 -0.282099
    24 -0.024967 -1.127840 0.017597 -1.310231 -0.003476 -0.054840
    25 -0.020057 -0.906594 0.041341 -1.373954 -0.003092 -0.055632
    26 0.630386 -1.197277 0.185379 0.386032 -1.009532 -0.241400
    27 1.446081 -0.251481 0.079230 0.075523 -0.244881 -0.915391
    28 1.007018 -0.182979 0.044010 0.088023 -0.242978 -1.037980
    29 0.120153 -0.050270 -0.054489 0.287569 3.110905 1.561085
    30 -8.114758 -3.313233 -7.333538 0.888410 -3.825662 0.864090
    31 0.147727 -8.423074 -0.091399 0.060487 0.153213 0.181506
    32 0.447953 -2.798986 -0.200443 -0.658880 0.015071 0.216760
    33 -0.032909 -1.491923 0.012753 -0.696954 0.015748 -0.008639
    34 -0.027022 -1.100358 -0.028023 -0.589873 0.015161 -0.006795
    35 -0.249534 -2.846964 -0.174213 -0.412425 0.028674 0.063464
    36 0.043235 -1.664409 0.088199 -0.768861 -0.012361 -0.000574
    37 0.031729 -1.153017 0.058838 -0.501698 -0.004607 0.005675
    38 -0.963866 -2.785145 -0.085350 -0.265885 0.154666 -0.056981
    39 0.028479 -1.403067 -0.009354 -0.540879 -0.010211 -0.022579
    40 0.021413 -0.953875 0.020046 -0.371549 -0.005777 -0.015856
    41 1.164475 -2.543940 -0.170330 -0.792008 -0.123768 0.331224
    42 0.024032 -1.132948 0.002182 -0.603227 0.000395 0.032431
    43 0.014898 -0.895708 -0.019848 -0.583784 -0.001067 0.029051
    44 -0.586770 -1.264477 0.200161 -0.296929 -1.007485 -2.439560
    45 1.538460 0.043056 0.016848 -0.006356 -0.001034 0.402961
    46 1.114041 0.044518 -0.005766 -0.017884 -0.034402 0.694936
    47 -0.139399 -0.111698 0.014397 0.285382 -0.030687 1.580508
    48 -7.003016 -3.622141 -0.473815 1.551964 -0.038719 0.389984
  time 5
    0 1.442318 -9.099604 -6.150708 -0.345448 0.656113 -0.705955
    1 -0.025678 2.701180 0.658172 0.000000 0.000000 0.000000
    2 0.000000 -3.947159 3.041922 0.000000 0.000000 0.000000
    3 0.000000 -1.548280 0.485224 0.000000 0.000000 0.000000
    4 0.000000 -0.980124 2.284383 0.000000 0.000000 0.000000
    5 0.000000 -2.905540 1.621535 0.000000 0.000000 0.000000
    6 -0.000001 -5.746316 1.557464 -0.198549 0.179651 0.021764
    7 0.000000 -0.031565 -0.614062 -0.204361 0.173944 0.019319
    8 0.000000 -0.000002 -0.824931 -0.214992 0.159992 0.012224
    9 0.000000 -0.015647 -0.615740 -0.228127 0.140217 0.000084
    10 -2.686428 2.537875 -5.745650 0.000000 0.000000 0.374718
    11 5.134195 -3.057358 -5.268674 4.746585 -1.183037 1.168550
    12 8.026918 1.668618 -0.360751 1.567947 -3.118589 0.283189
    13 0.056989 -8.385452 -0.092415 -0.507866 0.795582 -0.374727
    14 -0.488518 -2.755602 -0.228260 -0.677757 0.222160 -0.237357
    15 0.039887 -1.546198 0.022041 -1.865677 -0.006771 0.041659
    16 0.028786 -1.157765 -0.124675 -1.010741 -0.015017 0.021249
    17 0.250027 -2.820665 -0.238396 -0.583312 0.207576 -0.172896
    18 -0.049759 -1.594604 0.022352 -1.674032 -0.002301 -0.044045
    19 -0.034142 -1.171750 0.045718 -1.215231 0.006076 -0.032059
    20 0.957766 -2.746780 -0.090302 0.002002 -0.079703 0.138406
    21 -0.033420 -1.397129 -0.026882 -0.920366 0.005369 -0.045183
    22 -0.022360 -0.957436 -0.000748 -0.725796 0.007394 -0.035283
    23 -1.180681 -2.507217 -0.193859 -0.486179 0.356856 -0.282099
    24 -0.024967 -1.127840 0.017597 -1.310231 -0.003476 -0.054840
    25 -0.020057 -0.906594 0.041341 -1.373954 -0.003092 -0.055632
    26 0.630386 -1.197277 0.185379 0.386032 -1.009532 -0.241400
    27 1.446081 -0.251481 0.079230 0.075511 -0.244881 -0.915391
    28 1.007018 -0.182979 0.044010 0.088023 -0.242978 -1.037980
    29 0.120153 -0.050270 -0.054489 0.287569 3.110905 1.561085
    30 -7.489739 -5.340638 -7.040561 1.024387 -3.739893 1.084540
    31 0.151633 -8.411355 -0.118743 0.156568 0.272407 0.284994
    32 0.447953 -2.798986 -0.200443 -0.474663 0.011224 0.220332
    33 -0.032909 -1.488017 0.004940 -0.451982 0.010427 -0.004145
    34 -0.027022 -1.084733 -0.024116 -0.225942 0.006292 -0.001534
    35 -0.249534 -2.846964 -0.174213 -0.236549 0.031946 0.063344
    36 0.043235 -1.668316 0.092106 -0.539606 -0.007987 -0.001713
    37 0.031729 -1.160830 0.058838 -0.220175 -0.001252 0.007042
    38 -0.963866 -2.785145 -0.085350 -0.149830 0.156487 -0.052031
    39 0.028479 -1.403067 -0.001542 -0.364980 -0.005633 -0.016071
    40 0.021413 -0.953875 0.020046 -0.249110 -0.003236 -0.010942
    41 1.164475 -2.543940 -0.170330 -0.639640 -0.127351 0.323446
    42 0.024032 -1.129042 0.009994 -0.364334 -0.002061 0.019260
    43 0.014898 -0.887895 -0.019848 -0.334727 -0.002457 0.015149
    44 -0.586770 -1.264477 0.200161 -0.278824 -1.063972 -2.452706
    45 1.538460 0.043056 0.016848 -0.006044 -0.000782 0.388833
    46 1.114041 0.048424 -0.005766 -0.013846 -0.033455 0.565859
    47 -0.139399 -0.111698 0.014397 0.285382 -0.030687 1.580508
    48 -7.460061 -2.782271 -0.477722 1.555126 -0.038815 0.274098
  time 6
    0 1.598572 -9.458990 -6.010079 -0.318149 0.604277 -0.617890
    1 -0.025678 2.701180 0.658172 0.000000 0.000000 0.000000
    2 0.000000 -3.947159 3.041922 0.000000 0.000000 0.000000
    3 0.000000 -1.548280 0.485224 0.000000 0.000000 0.000000
    4 0.000000 -0.980124 2.284383 0.000000 0.000000 0.000000
    5 0.000000 -2.905540 1.621535 0.000000 0.000000 0.000000
    6 -0.000001 -5.746316 1.557464 -0.132358 0.119755 0.014501
    7 0.000000 -0.031565 -0.614062 -0.136241 0.115963 0.012883
    8 0.000000 -0.000002 -0.824931 -0.143324 0.106666 0.008150
    9 0.000000 -0.015647 -0.615740 -0.152084 0.093483 0.000060
    10 -2.686428 2.537875 -5.745650 0.000000 0.000000 0.374718
    11 5.017004 -3.287834 -5.112419 4.781859 -1.174821 1.137089
    12 7.983948 1.965502 -0.356844 1.567563 -3.119258 0.319912
    13 0.037457 -8.393264 -0.088509 -0.415584 0.723712 -0.302557
    14 -0.488518 -2.755602 -0.228260 -0.677757 0.222160 -0.237357
    15 0.039887 -1.546198 0.022041 -1.865677 -0.006771 0.041659
    16 0.028786 -1.157765 -0.124675 -1.010741 -0.015017 0.021249
    17 0.250027 -2.820665 -0.238396 -0.583312 0.207576 -0.172896
    18 -0.049759 -1.594604 0.022352 -1.674032 -0.002301 -0.044045
    19 -0.034142 -1.171750 0.045718 -1.215231 0.006076 -0.032059
    20 0.957766 -2.746780 -0.090302 0.002002 -0.079703 0.138406
    21 -0.033420 -1.397129 -0.026882 -0.920366 0.005369 -0.045183
    22 -0.022360 -0.957436 -0.000748 -0.725796 0.007394 -0.035283
    23 -1.180681 -2.507217 -0.193859 -0.486179 0.356856 -0.282099
    24 -0.024967 -1.127840 0.017597 -1.310231 -0.003476 -0.054840
    25 -0.020057 -0.906594 0.041341 -1.373954 -0.003092 -0.055632
    26 0.630386 -1.197277 0.185379 0.386032 -1.009532 -0.241400
    27 1.446081 -0.251481 0.079230 0.075511 -0.244881 -0.915391
    28 1.007018 -0.182979 0.044010 0.088023 -0.242978 -1.037980
    29 0.120153 -0.050270 -0.054489 0.287569 3.110905 1.561085
    30 -6.774874 -6.840684 -6.501482 1.080169 -3.688858 1.220563
    31 0.147727 -8.395729 -0.122650 0.183217 0.294144 0.359083
    32 0.447953 -2.798986 -0.200443 -0.459266 0.010877 0.220595
    33 -0.032909 -1.488017 0.004940 -0.431594 0.009935 -0.003833
    34 -0.027022 -1.080826 -0.024116 -0.195608 0.005477 -0.001246
    35 -0.249534 -2.846964 -0.174213 -0.221889 0.032221 0.063356
    36 0.043235 -1.668316 0.092106 -0.520496 -0.007616 -0.001761
    37 0.031729 -1.160830 0.058838 -0.196667 -0.000988 0.007186
    38 -0.963866 -2.785145 -0.085350 -0.140184 0.156607 -0.051612
    39 0.028479 -1.403067 -0.001542 -0.350302 -0.005297 -0.015496
    40 0.021413 -0.953875 0.020046 -0.238932 -0.003056 -0.010510
    41 1.164475 -2.543940 -0.170330 -0.626948 -0.127603 0.322774
    42 0.024032 -1.129042 0.009994 -0.344451 -0.002121 0.018146
    43 0.014898 -0.887895 -0.019848 -0.314002 -0.002421 0.013986
    44 -0.586770 -1.264477 0.200161 -0.277163 -1.068677 -2.453958
    45 1.538460 0.043056 0.016848 -0.006020 -0.000758 0.387655
    46 1.114041 0.048424 -0.005766 -0.013510 -0.033348 0.555071
    47 -0.139399 -0.111698 0.014397 0.285382 -0.030687 1.580508
    48 -7.885856 -1.672862 -0.481628 1.558959 -0.038623 0.129330
  time 7
    0 1.922801 -9.822283 -5.978828 -0.272122 0.518054 -0.489845
    1 -0.025678 2.701180 0.658172 0.000000 0.000000 0.000000
    2 0.000000 -3.947159 3.041922 0.000000 0.000000 0.000000
    3 0.000000 -1.548280 0.485224 0.000000 0.000000 0.000000
    4 0.000000 -0.980124 2.284383 0.000000 0.000000 0.000000
    5 0.000000 -2.905540 1.621535 0.000000 0.000000 0.000000
    6 -0.000001 -5.746316 1.557464 -0.066179 0.059878 0.007251
    7 0.000000 -0.031565 -0.614062 -0.068120 0.057981 0.006436
    8 0.000000 -0.000002 -0.824931 -0.071656 0.053325 0.004075
    9 0.000000 -0.015647 -0.615740 -0.076042 0.046734 0.000024
    10 -2.686428 2.537875 -5.745650 0.000000 0.000000 0.374718
    11 4.977940 -3.498778 -4.983509 4.786525 -1.168198 1.144812
    12 7.937071 2.254574 -0.352938 1.567180 -3.119928 0.355955
    13 0.010113 -8.404984 -0.092415 -0.316274 0.616501 -0.231517
    14 -0.488518 -2.755602 -0.228260 -0.677757 0.222160 -0.237357
    15 0.039887 -1.546198 0.022041 -1.865677 -0.006771 0.041659
    16 0.028786 -1.157765 -0.124675 -1.010741 -0.015017 0.021249
    17 0.250027 -2.820665 -0.238396 -0.583312 0.207576 -0.172896
    18 -0.049759 -1.594604 0.022352 -1.674032 -0.002301 -0.044045
    19 -0.034142 -1.171750 0.045718 -1.215231 0.006076 -0.032059
    20 0.957766 -2.746780 -0.090302 0.002002 -0.079703 0.138406
    21 -0.033420 -1.397129 -0.026882 -0.920366 0.005369 -0.045183
    22 -0.022360 -0.957436 -0.000748 -0.725796 0.007394 -0.035283
    23 -1.180681 -2.507217 -0.193859 -0.486179 0.356856 -0.282099
    24 -0.024967 -1.127840 0.017597 -1.310231 -0.003476 -0.054840
    25 -0.020057 -0.906594 0.041341 -1.373954 -0.003092 -0.055632
    26 0.630386 -1.197277 0.185379 0.386032 -1.009532 -0.241400
    27 1.446081 -0.251481 0.079230 0.075511 -0.244881 -0.915391
    28 1.007018 -0.182979 0.044010 0.088023 -0.242978 -1.037980
    29 0.120153 -0.050270 -0.054489 0.287569 3.110905 1.561085
    30 -6.325641 -7.758681 -5.931152 1.054804 -3.722251 1.242084
    31 0.128195 -8.384010 -0.091399 0.040797 0.143380 0.353399
    32 0.447953 -2.798986 -0.200443 -0.786879 0.017324 0.213896
    33 -0.032909 -1.495829 0.012753 -0.867085 0.018732 -0.012450
    34 -0.027022 -1.112077 -0.028023 -0.842631 0.019930 -0.012164
    35 -0.249534 -2.846964 -0.174213 -0.534547 0.026433 0.063883
    36 0.043235 -1.660503 0.084293 -0.928003 -0.015202 0.000768
    37 0.031729 -1.149111 0.058838 -0.697259 -0.007100 0.005304
    38 -0.963866 -2.785145 -0.085350 -0.346434 0.153084 -0.060265
    39 0.028479 -1.403067 -0.013261 -0.663054 -0.014034 -0.026570
    40 0.021413 -0.949968 0.020046 -0.456579 -0.007874 -0.019079
    41 1.164475 -2.543940 -0.170330 -0.897800 -0.120604 0.336245
    42 0.024032 -1.136855 -0.001725 -0.769116 0.003919 0.041060
    43 0.014898 -0.895708 -0.019848 -0.756690 0.001906 0.038291
    44 -0.586770 -1.264477 0.200161 -0.307829 -0.968198 -2.432137
    45 1.538460 0.043056 0.016848 -0.006572 -0.001214 0.412772
    46 1.114041 0.044518 -0.005766 -0.020737 -0.034750 0.784610
    47 -0.139399 -0.111698 0.014397 0.285382 -0.030687 1.580508
    48 -8.210084 0.018595 -0.477722 1.564324 -0.037187 -0.080178
  time 8
    0 2.356408 -10.162137 -5.990547 -0.227360 0.410538 -0.354145
    1 -0.025678 2.701180 0.658172 0.000000 0.000000 0.000000
    2 0.000000 -3.947159 3.041922 0.000000 0.000000 0.000000
    3 0.000000 -1.548280 0.485224 0.000000 0.000000 0.000000
    4 0.000000 -0.980124 2.284383 0.000000 0.000000 0.000000
    5 0.000000 -2.905540 1.621535 0.000000 0.000000 0.000000
    6 -0.000001 -5.746316 1.557464 0.000000 0.000000 0.000000
    7 0.000000 -0.031565 -0.614062 0.000000 0.000000 0.000000
    8 0.000000 -0.000002 -0.824931 0.000000 0.000000 0.000000
    9 0.000000 -0.015647 -0.615740 0.000000 0.000000 0.000000
    10 -2.686428 2.537875 -5.745650 0.000000 0.000000 0.374718
    11 4.993565 -3.698003 -4.870224 4.769261 -1.162832 1.178751
    12 7.874569 2.539739 -0.345125 1.566892 -3.120597 0.391547
    13 -0.021138 -8.416703 -0.096321 -0.229314 0.491434 -0.178367
    14 -0.488518 -2.755602 -0.228260 -0.677757 0.222160 -0.237357
    15 0.039887 -1.546198 0.022041 -1.865677 -0.006771 0.041659
    16 0.028786 -1.157765 -0.124675 -1.010741 -0.015017 0.021249
    17 0.250027 -2.820665 -0.238396 -0.583312 0.207576 -0.172896
    18 -0.049759 -1.594604 0.022352 -1.674032 -0.002301 -0.044045
    19 -0.034142 -1.171750 0.045718 -1.215231 0.006076 -0.032059
    20 0.957766 -2.746780 -0.090302 0.002002 -0.079703 0.138406
    21 -0.033420 -1.397129 -0.026882 -0.920366 0.005369 -0.045183
    22 -0.022360 -0.957436 -0.000748 -0.725796 0.007394 -0.035283
    23 -1.180681 -2.507217 -0.193859 -0.486179 0.356856 -0.282099
    24 -0.024967 -1.127840 0.017597 -1.310231 -0.003476 -0.054840
    25 -0.020057 -0.906594 0.041341 -1.373954 -0.003092 -0.055632
    26 0.630386 -1.197277 0.185379 0.386032 -1.009532 -0.241400
    27 1.446081 -0.251481 0.079230 0.075511 -0.244881 -0.915391
    28 1.007018 -0.182979 0.044010 0.088023 -0.242978 -1.037980
    29 0.120153 -0.050270 -0.054489 0.287569 3.110905 1.561085
    30 -6.075634 -8.301666 -5.419417 0.975823 -3.802724 1.186167
    31 0.093038 -8.368385 -0.052335 -0.173891 -0.098652 0.356927
    32 0.447953 -2.798986 -0.200443 -1.283478 0.022178 0.200761
    33 -0.032909 -1.499736 0.032285 -1.527284 0.023262 -0.030355
    34 -0.027022 -1.143328 -0.004585 -1.823577 0.022879 -0.038842
    35 -0.249534 -2.846964 -0.174213 -1.008377 0.018691 0.067958
    36 0.043235 -1.656596 0.064761 -1.545783 -0.023279 0.009684
    37 0.031729 -1.137392 0.051025 -1.455992 -0.016160 0.008396
    38 -0.963866 -2.785145 -0.085350 -0.658704 0.144611 -0.071530
    39 0.028479 -1.406973 -0.024980 -1.136931 -0.032586 -0.036925
    40 0.021413 -0.946062 0.016140 -0.786387 -0.018396 -0.029566
    41 1.164475 -2.543940 -0.170330 -1.307476 -0.103909 0.351849
    42 0.024032 -1.152480 -0.009538 -1.412374 0.029254 0.066036
    43 0.014898 -0.907427 -0.008129 -1.427295 0.026678 0.065807
    44 -0.586770 -1.264477 0.200161 -0.341606 -0.815431 -2.412338
    45 1.542367 0.043056 0.016848 -0.007423 -0.001873 0.450815
    46 1.114041 0.040611 -0.005766 -0.031810 -0.033671 1.132521
    47 -0.139399 -0.111698 0.014397 0.285382 -0.030687 1.580508
    48 -8.143676 1.979593 -0.462096 1.569977 -0.034316 -0.318656
  time 9
    0 2.817360 -10.455114 -5.998359 -0.192577 0.298423 -0.234256
    1 -0.025678 2.701180 0.658172 0.000000 0.000000 0.000000
    2 0.000000 -3.947159 3.041922 0.000000 0.000000 0.000000
    3 0.000000 -1.548280 0.485224 0.000000 0.000000 0.000000
    4 0.000000 -0.980124 2.284383 0.000000 0.000000 0.000000
    5 0.000000 -2.905540 1.621535 0.000000 0.000000 0.000000
    6 -0.000001 -5.746316 1.557464 0.000000 0.000000 0.000000
    7 0.000000 -0.031565 -0.614062 0.000000 0.000000 0.000000
    8 0.000000 -0.000002 -0.824931 0.000000 0.000000 0.000000
    9 0.000000 -0.015647 -0.615740 0.000000 0.000000 0.000000
    10 -2.686428 2.537875 -5.745650 0.000000 0.000000 0.374718
    11 5.048255 -3.897227 -4.756939 4.736880 -1.158137 1.227372
    12 7.804255 2.824903 -0.341219 1.566605 -3.121362 0.427364
    13 -0.048483 -8.424515 -0.104134 -0.162626 0.369019 -0.147737
    14 -0.488518 -2.755602 -0.228260 -0.677757 0.222160 -0.237357
    15 0.039887 -1.546198 0.022041 -1.865677 -0.006771 0.041659
    16 0.028786 -1.157765 -0.124675 -1.010741 -0.015017 0.021249
    17 0.250027 -2.820665 -0.238396 -0.583312 0.207576 -0.172896
    18 -0.049759 -1.594604 0.022352 -1.674032 -0.002301 -0.044045
    19 -0.034142 -1.171750 0.045718 -1.215231 0.006076 -0.032059
    20 0.957766 -2.746780 -0.090302 0.002002 -0.079703 0.138406
    21 -0.033420 -1.397129 -0.026882 -0.920366 0.005369 -0.045183
    22 -0.022360 -0.957436 -0.000748 -0.725796 0.007394 -0.035283
    23 -1.180681 -2.507217 -0.193859 -0.486179 0.356856 -0.282099
    24 -0.024967 -1.127840 0.017597 -1.310231 -0.003476 -0.054840
    25 -0.020057 -0.906594 0.041341 -1.373954 -0.003092 -0.055632
    26 0.630386 -1.197277 0.185379 0.386032 -1.009513 -0.241400
    27 1.446081 -0.251481 0.079230 0.075523 -0.244881 -0.915419
    28 1.007018 -0.182979 0.044010 0.088023 -0.242978 -1.037980
    29 0.120153 -0.050270 -0.054489 0.287569 3.110905 1.561085
    30 -5.946723 -8.528235 -5.149878 0.917318 -3.851489 1.135215
    31 0.065693 -8.360572 -0.036710 -0.297136 -0.241679 0.374730
    32 0.447953 -2.798986 -0.200443 -1.565065 0.021902 0.192779
    33 -0.032909 -1.495829 0.040097 -1.901672 0.020446 -0.040578
    34 -0.027022 -1.147235 0.018854 -2.379679 0.013303 -0.051210
    35 -0.249534 -2.846964 -0.174213 -1.277011 0.015419 0.071733
    36 0.043235 -1.656596 0.053042 -1.896152 -0.024993 0.016360
    37 0.031729 -1.137392 0.043213 -1.886250 -0.019480 0.012806
    38 -0.963866 -2.785145 -0.085350 -0.835517 0.138403 -0.076564
    39 0.028479 -1.414786 -0.028886 -1.405696 -0.044595 -0.038590
    40 0.021413 -0.942156 0.012233 -0.973400 -0.025707 -0.033809
    41 1.164475 -2.543940 -0.170330 -1.539294 -0.092093 0.357254
    42 0.024032 -1.160293 -0.009538 -1.777093 0.048909 0.071561
    43 0.014898 -0.907427 -0.000316 -1.807452 0.046908 0.072351
    44 -0.586770 -1.264477 0.200161 -0.356786 -0.728663 -2.405470
    45 1.542367 0.043056 0.016848 -0.007926 -0.002245 0.472399
    46 1.110134 0.040611 -0.005766 -0.037719 -0.031382 1.329780
    47 -0.139399 -0.111698 0.014397 0.285382 -0.030687 1.580508
    48 -7.897575 3.081189 -0.446471 1.572947 -0.032018 -0.456003
  time 10
    0 3.196277 -10.709028 -5.974921 -0.166870 0.200532 -0.147742
    1 -0.025678 2.701180 0.658172 0.000000 0.000000 0.000000
    2 0.000000 -3.947159 3.041922 0.000000 0.000000 0.000000
    3 0.000000 -1.548280 0.485224 0.000000 0.000000 0.000000
    4 0.000000 -0.980124 2.284383 0.000000 0.000000 0.000000
    5 0.000000 -2.905540 1.621535 0.000000 0.000000 0.000000
    6 -0.000001 -5.746316 1.557464 0.000000 0.000000 0.000000
    7 0.000000 -0.031565 -0.614062 0.000000 0.000000 0.000000
    8 0.000000 -0.000002 -0.824931 0.000000 0.000000 0.000000
    9 0.000000 -0.015647 -0.615740 0.000000 0.000000 0.000000
    10 -2.686428 2.537875 -5.745650 0.000000 0.000000 0.374718
    11 5.114663 -4.100359 -4.624123 4.694607 -1.153526 1.280664
    12 7.726127 3.106162 -0.337312 1.566317 -3.122032 0.463634
    13 -0.068015 -8.428422 -0.111947 -0.119887 0.270516 -0.138567
    14 -0.488518 -2.755602 -0.228260 -0.677757 0.222160 -0.237357
    15 0.039887 -1.546198 0.022041 -1.865677 -0.006771 0.041659
    16 0.028786 -1.157765 -0.124675 -1.010741 -0.015017 0.021249
    17 0.250027 -2.820665 -0.238396 -0.583312 0.207576 -0.172896
    18 -0.049759 -1.594604 0.022352 -1.674032 -0.002301 -0.044045
    19 -0.034142 -1.171750 0.045718 -1.215231 0.006076 -0.032059
    20 0.957766 -2.746780 -0.090302 0.002002 -0.079703 0.138406
    21 -0.033420 -1.397129 -0.026882 -0.920366 0.005369 -0.045183
    22 -0.022360 -0.957436 -0.000748 -0.725796 0.007394 -0.035283
    23 -1.180681 -2.507217 -0.193859 -0.486179 0.356856 -0.282099
    24 -0.024967 -1.127840 0.017597 -1.310231 -0.003476 -0.054840
    25 -0.020057 -0.906594 0.041341 -1.373954 -0.003092 -0.055632
    26 0.630386 -1.197277 0.185379 0.386032 -1.009532 -0.241400
    27 1.446081 -0.251481 0.079230 0.075511 -0.244881 -0.915391
    28 1.007018 -0.182979 0.044010 0.088023 -0.242978 -1.037980
    29 0.120153 -0.050270 -0.054489 0.287569 3.110905 1.561085
    30 -5.677184 -8.789962 -4.868619 0.857007 -3.915661 1.081045
    31 0.069599 -8.380104 -0.021084 -0.318012 -0.339909 0.240731
    32 0.447953 -2.798986 -0.200443 -1.606882 0.021675 0.191605
    33 -0.032909 -1.495829 0.044004 -1.957243 0.019703 -0.041980
    34 -0.027022 -1.147235 0.022760 -2.462224 0.011361 -0.052528
    35 -0.249534 -2.846964 -0.174213 -1.316860 0.015024 0.072368
    36 0.043235 -1.656596 0.053042 -1.948113 -0.025041 0.017390
    37 0.031729 -1.137392 0.039306 -1.950093 -0.019792 0.013561
    38 -0.963866 -2.785145 -0.085350 -0.861766 0.137420 -0.077211
    39 0.028479 -1.414786 -0.028886 -1.445597 -0.046392 -0.038566
    40 0.021413 -0.942156 0.012233 -1.001154 -0.026857 -0.034324
    41 1.164475 -2.543940 -0.170330 -1.573708 -0.090247 0.357817
    42 0.024032 -1.164199 -0.009538 -1.831282 0.051941 0.071765
    43 0.014898 -0.907427 0.003590 -1.863884 0.050072 0.072651
    44 -0.586770 -1.264477 0.200161 -0.358873 -0.715784 -2.404629
    45 1.542367 0.039149 0.016848 -0.007998 -0.002293 0.475588
    46 1.110134 0.036705 -0.005766 -0.038546 -0.030951 1.359061
    47 -0.139399 -0.111698 0.014397 0.285382 -0.030687 1.580508
    48 -7.424904 4.296070 -0.426939 1.575822 -0.028955 -0.614363
  time 11
    0 3.473630 -10.919972 -6.017891 -0.128110 0.093876 -0.100457
    1 -0.025678 2.701180 0.658172 0.000000 0.000000 0.000000
    2 0.000000 -3.947159 3.041922 0.000000 0.000000 0.000000
    3 0.000000 -1.548280 0.485224 0.000000 0.000000 0.000000
    4 0.000000 -0.980124 2.284383 0.000000 0.000000 0.000000
    5 0.000000 -2.905540 1.621535 0.000000 0.000000 0.000000
    6 -0.000001 -5.746316 1.557464 0.000000 0.000000 0.000000
    7 0.000000 -0.031565 -0.614062 0.000000 0.000000 0.000000
    8 0.000000 -0.000002 -0.824931 0.000000 0.000000 0.000000
    9 0.000000 -0.015647 -0.615740 0.000000 0.000000 0.000000
    10 -2.686428 2.537875 -5.745650 0.000000 0.000000 0.374718
    11 5.294356 -4.338647 -4.479587 4.580760 -1.147573 1.400215
    12 7.620655 3.418672 -0.329500 1.566029 -3.122893 0.503976
    13 -0.075827 -8.424515 -0.123666 -0.112758 0.200653 -0.156795
    14 -0.488518 -2.755602 -0.228260 -0.677757 0.222160 -0.237357
    15 0.039887 -1.546198 0.022041 -1.865677 -0.006771 0.041659
    16 0.028786 -1.157765 -0.124675 -1.010741 -0.015017 0.021249
    17 0.250027 -2.820665 -0.238396 -0.583312 0.207576 -0.172896
    18 -0.049759 -1.594604 0.022352 -1.674032 -0.002301 -0.044045
    19 -0.034142 -1.171750 0.045718 -1.215231 0.006076 -0.032059
    20 0.957766 -2.746780 -0.090302 0.002002 -0.079703 0.138406
    21 -0.033420 -1.397129 -0.026882 -0.920366 0.005369 -0.045183
    22 -0.022360 -0.957436 -0.000748 -0.725796 0.007394 -0.035283
    23 -1.180681 -2.507217 -0.193859 -0.486179 0.356856 -0.282099
    24 -0.024967 -1.127840 0.017597 -1.310231 -0.003476 -0.054840
    25 -0.020057 -0.906594 0.041341 -1.373954 -0.003092 -0.055632
    26 0.630386 -1.197277 0.185379 0.386032 -1.009532 -0.241400
    27 1.446081 -0.251481 0.079230 0.075523 -0.244881 -0.915391
    28 1.007018 -0.182979 0.044010 0.088023 -0.242978 -1.037980
    29 0.120153 -0.050270 -0.054489 0.287569 3.110905 1.561085
    30 -5.477959 -8.922779 -4.751428 0.792300 -3.971614 1.024300
    31 0.065693 -8.403542 -0.009365 -0.292291 -0.439587 0.121758
    32 0.447953 -2.798986 -0.200443 -1.640502 0.021447 0.190670
    33 -0.032909 -1.495829 0.044004 -2.001936 0.019055 -0.043083
    34 -0.027022 -1.147235 0.026666 -2.528667 0.009720 -0.053463
    35 -0.249534 -2.846964 -0.174213 -1.348979 0.014724 0.072883
    36 0.043235 -1.656596 0.053042 -1.989976 -0.025053 0.018217
    37 0.031729 -1.137392 0.039306 -2.001519 -0.020019 0.014197
    38 -0.963866 -2.785145 -0.085350 -0.882860 0.136605 -0.077714
    39 0.028479 -1.414786 -0.028886 -1.477709 -0.047842 -0.038495
    40 0.021413 -0.942156 0.012233 -1.023475 -0.027792 -0.034707
    41 1.164475 -2.543940 -0.170330 -1.601377 -0.088749 0.358225
    42 0.024032 -1.164199 -0.009538 -1.874846 0.054398 0.071801
    43 0.014898 -0.907427 0.003590 -1.909360 0.052624 0.072758
    44 -0.586770 -1.264477 0.200161 -0.360521 -0.705419 -2.404003
    45 1.542367 0.039149 0.016848 -0.008058 -0.002328 0.478163
    46 1.110134 0.036705 -0.005766 -0.039217 -0.030579 1.382594
    47 -0.139399 -0.111698 0.014397 0.285382 -0.030687 1.580508
    48 -6.967859 5.120314 -0.407407 1.577642 -0.026466 -0.728818
  time 12
    0 3.750982 -11.080134 -6.174146 -0.066354 -0.020282 -0.080793
    1 -0.025678 2.701180 0.658172 0.000000 0.000000 0.000000
    2 0.000000 -3.947159 3.041922 0.000000 0.000000 0.000000
    3 0.000000 -1.548280 0.485224 0.000000 0.000000 0.000000
    4 0.000000 -0.980124 2.284383 0.000000 0.000000 0.000000
    5 0.000000 -2.905540 1.621535 0.000000 0.000000 0.000000
    6 -0.000001 -5.746316 1.557464 0.000000 0.000000 0.000000
    7 0.000000 -0.031565 -0.614062 0.000000 0.000000 0.000000
    8 0.000000 -0.000002 -0.824931 0.000000 0.000000 0.000000
    9 0.000000 -0.015647 -0.615740 0.000000 0.000000 0.000000
    10 -2.686428 2.537875 -5.745650 0.000000 0.000000 0.374718
    11 5.595146 -4.576936 -4.327239 1.266584 -2.010286 -1.562422
    12 7.507371 3.731181 -0.325593 1.565742 -3.123753 0.544771
    13 -0.079734 -8.416703 -0.131479 -0.133152 0.154462 -0.201204
    14 -0.488518 -2.755602 -0.228260 -0.677757 0.222160 -0.237357
    15 0.039887 -1.546198 0.022041 -1.865677 -0.006771 0.041659
    16 0.028786 -1.157765 -0.124675 -1.010741 -0.015017 0.021249
    17 0.250027 -2.820665 -0.238396 -0.583312 0.207576 -0.172896
    18 -0.049759 -1.594604 0.022352 -1.674032 -0.002301 -0.044045
    19 -0.034142 -1.171750 0.045718 -1.215231 0.006076 -0.032059
    20 0.957766 -2.746780 -0.090302 0.002002 -0.079703 0.138406
    21 -0.033420 -1.397129 -0.026882 -0.920366 0.005369 -0.045183
    22 -0.022360 -0.957436 -0.000748 -0.725796 0.007394 -0.035283
    23 -1.180681 -2.507217 -0.193859 -0.486179 0.356856 -0.282099
    24 -0.024967 -1.127840 0.017597 -1.310231 -0.003476 -0.054840
    25 -0.020057 -0.906594 0.041341 -1.373954 -0.003092 -0.055632
    26 0.630386 -1.197277 0.185379 0.386032 -1.009532 -0.241400
    27 1.446081 -0.251481 0.079230 0.075523 -0.244881 -0.915419
    28 1.007018 -0.182979 0.044010 0.088023 -0.242978 -1.037980
    29 0.120153 -0.050270 -0.054489 0.287569 3.110905 1.561085
    30 -5.290453 -8.961842 -4.798305 0.713680 -4.025847 0.964980
    31 0.053974 -8.426980 0.010167 -0.219869 -0.544356 0.003994
    32 0.447953 -2.798986 -0.200443 -1.666645 0.021255 0.189951
    33 -0.032909 -1.495829 0.044004 -2.036683 0.018516 -0.043910
    34 -0.027022 -1.147235 0.026666 -2.580227 0.008401 -0.054122
    35 -0.249534 -2.846964 -0.174213 -1.373901 0.014496 0.073291
    36 0.043235 -1.660503 0.049136 -2.022507 -0.025029 0.018853
    37 0.031729 -1.137392 0.039306 -2.041413 -0.020175 0.014688
    38 -0.963866 -2.785145 -0.085350 -0.899269 0.135970 -0.078098
    39 0.028479 -1.418692 -0.028886 -1.502647 -0.048969 -0.038399
    40 0.021413 -0.942156 0.012233 -1.040821 -0.028523 -0.034995
    41 1.164475 -2.543940 -0.170330 -1.622833 -0.087574 0.358513
    42 0.024032 -1.164199 -0.009538 -1.908736 0.056304 0.071753
    43 0.014898 -0.907427 0.003590 -1.944652 0.054614 0.072770
    44 -0.586770 -1.264477 0.200161 -0.361784 -0.697367 -2.403520
    45 1.542367 0.039149 0.016848 -0.008106 -0.002364 0.480174
    46 1.110134 0.036705 -0.005766 -0.039720 -0.030279 1.400920
    47 -0.139399 -0.111698 0.014397 0.285382 -0.030687 1.580508
    48 -6.581128 5.678924 -0.395688 1.578696 -0.024551 -0.811441
  time 13
    0 3.993177 -11.169980 -6.357745 0.005814 -0.086421 -0.077540
    1 -0.025678 2.701180 0.658172 0.000000 0.000000 0.000000
    2 0.000000 -3.947159 3.041922 0.000000 0.000000 0.000000
    3 0.000000 -1.548280 0.485224 0.000000 0.000000 0.000000
    4 0.000000 -0.980124 2.284383 0.000000 0.000000 0.000000
    5 0.000000 -2.905540 1.621535 0.000000 0.000000 0.000000
    6 -0.000001 -5.746316 1.557464 0.000000 0.000000 0.000000
    7 0.000000 -0.031565 -0.614062 0.000000 0.000000 0.000000
    8 0.000000 -0.000002 -0.824931 0.000000 0.000000 0.000000
    9 0.000000 -0.015647 -0.615740 0.000000 0.000000 0.000000
    10 -2.686428 2.537875 -5.745650 0.000000 0.000000 0.374718
    11 5.829528 -4.744910 -4.186609 1.142005 -2.031832 -1.430478
    12 7.409711 3.965563 -0.317781 1.565646 -3.124327 0.575838
    13 -0.075827 -8.401077 -0.135385 -0.158787 0.138340 -0.262712
    14 -0.488518 -2.755602 -0.228260 -0.677757 0.222160 -0.237357
    15 0.039887 -1.546198 0.022041 -1.865677 -0.006771 0.041659
    16 0.028786 -1.157765 -0.124675 -1.010741 -0.015017 0.021249
    17 0.250027 -2.820665 -0.238396 -0.583312 0.207576 -0.172896
    18 -0.049759 -1.594604 0.022352 -1.674032 -0.002301 -0.044045
    19 -0.034142 -1.171750 0.045718 -1.215231 0.006076 -0.032059
    20 0.957766 -2.746780 -0.090302 0.002002 -0.079703 0.138406
    21 -0.033420 -1.397129 -0.026882 -0.920366 0.005369 -0.045183
    22 -0.022360 -0.957436 -0.000748 -0.725796 0.007394 -0.035283
    23 -1.180681 -2.507217 -0.193859 -0.486179 0.356856 -0.282099
    24 -0.024967 -1.127840 0.017597 -1.310231 -0.003476 -0.054840
    25 -0.020057 -0.906594 0.041341 -1.373954 -0.003092 -0.055632
    26 0.630386 -1.197277 0.185379 0.386032 -1.009532 -0.241400
    27 1.446081 -0.251481 0.079230 0.075523 -0.244881 -0.915391
    28 1.007018 -0.182979 0.044010 0.088023 -0.242978 -1.037980
    29 0.120153 -0.050270 -0.054489 0.287569 3.110905 1.561085
    30 -5.130292 -8.969655 -4.876432 0.643624 -4.065430 0.916144
    31 0.042255 -8.442606 0.021886 -0.164561 -0.620724 -0.060687
    32 0.447953 -2.798986 -0.200443 -1.685864 0.021100 0.189435
    33 -0.032909 -1.495829 0.044004 -2.062231 0.018109 -0.044509
    34 -0.027022 -1.147235 0.030573 -2.618206 0.007406 -0.054554
    35 -0.249534 -2.846964 -0.174213 -1.392248 0.014340 0.073591
    36 0.043235 -1.660503 0.049136 -2.046411 -0.024993 0.019332
    37 0.031729 -1.137392 0.039306 -2.070782 -0.020271 0.015047
    38 -0.963866 -2.785145 -0.085350 -0.911326 0.135490 -0.078362
    39 0.028479 -1.418692 -0.028886 -1.521030 -0.049796 -0.038315
    40 0.021413 -0.942156 0.012233 -1.053618 -0.029063 -0.035199
    41 1.164475 -2.543940 -0.170330 -1.638659 -0.086712 0.358704
    42 0.024032 -1.168106 -0.009538 -1.933664 0.057694 0.071681
    43 0.014898 -0.907427 0.003590 -1.970647 0.056076 0.072722
    44 -0.586770 -1.264477 0.200161 -0.362714 -0.691424 -2.403181
    45 1.542367 0.039149 0.016848 -0.008142 -0.002388 0.481646
    46 1.110134 0.036705 -0.005766 -0.040092 -0.030052 1.414374
    47 -0.139399 -0.111698 0.014397 0.285382 -0.030687 1.580508
    48 -6.292057 6.042217 -0.383969 1.579367 -0.023211 -0.867685
  time 14
    0 3.969738 -11.142635 -6.678068 0.111862 -0.021330 -0.105661
    1 -0.025678 2.701180 0.658172 0.000000 0.000000 0.000000
    2 0.000000 -3.947159 3.041922 0.000000 0.000000 0.000000
    3 0.000000 -1.548280 0.485224 0.000000 0.000000 0.000000
    4 0.000000 -0.980124 2.284383 0.000000 0.000000 0.000000
    5 0.000000 -2.905540 1.621535 0.000000 0.000000 0.000000
    6 -0.000001 -5.746316 1.557464 0.000000 0.000000 0.000000
    7 0.000000 -0.031565 -0.614062 0.000000 0.000000 0.000000
    8 0.000000 -0.000002 -0.824931 0.000000 0.000000 0.000000
    9 0.000000 -0.015647 -0.615740 0.000000 0.000000 0.000000
    10 -2.686428 2.537875 -5.745650 0.000000 0.000000 0.374718
    11 5.888124 -4.783973 -4.155358 1.117369 -2.037031 -1.402640
    12 7.386273 4.016346 -0.317781 1.565550 -3.124519 0.582473
    13 -0.056296 -8.381545 -0.131479 -0.204044 0.195585 -0.380826
    14 -0.488518 -2.755602 -0.228260 -0.677757 0.222160 -0.237357
    15 0.039887 -1.546198 0.022041 -1.865677 -0.006771 0.041659
    16 0.028786 -1.157765 -0.124675 -1.010741 -0.015017 0.021249
    17 0.250027 -2.820665 -0.238396 -0.583312 0.207576 -0.172896
    18 -0.049759 -1.594604 0.022352 -1.674032 -0.002301 -0.044045
    19 -0.034142 -1.171750 0.045718 -1.215231 0.006076 -0.032059
    20 0.957766 -2.746780 -0.090302 0.002002 -0.079703 0.138406
    21 -0.033420 -1.397129 -0.026882 -0.920366 0.005369 -0.045183
    22 -0.022360 -0.957436 -0.000748 -0.725796 0.007394 -0.035283
    23 -1.180681 -2.507217 -0.193859 -0.486179 0.356856 -0.282099
    24 -0.024967 -1.127840 0.017597 -1.310231 -0.003476 -0.054840
    25 -0.020057 -0.906594 0.041341 -1.373954 -0.003092 -0.055632
    26 0.630386 -1.197277 0.185379 0.386032 -1.009532 -0.241400
    27 1.446081 -0.251481 0.079230 0.075511 -0.244881 -0.915391
    28 1.007018 -0.182979 0.044010 0.088023 -0.242978 -1.037980
    29 0.120153 -0.050270 -0.054489 0.287569 3.110905 1.561085
    30 -5.286547 -8.758711 -5.255350 0.640868 -4.066840 0.926445
    31 0.026629 -8.423074 0.021886 -0.203169 -0.639641 0.083472
    32 0.447953 -2.798986 -0.200443 -1.698825 0.020992 0.189076
    33 -0.032909 -1.495829 0.044004 -2.079449 0.017821 -0.044904
    34 -0.027022 -1.147235 0.030573 -2.643742 0.006735 -0.054830
    35 -0.249534 -2.846964 -0.174213 -1.404598 0.014245 0.073806
    36 0.043235 -1.660503 0.049136 -2.062516 -0.024969 0.019644
    37 0.031729 -1.137392 0.039306 -2.090571 -0.020331 0.015299
    38 -0.963866 -2.785145 -0.085350 -0.919448 0.135179 -0.078541
    39 0.028479 -1.418692 -0.028886 -1.533381 -0.050347 -0.038243
    40 0.021413 -0.942156 0.012233 -1.062193 -0.029434 -0.035331
    41 1.164475 -2.543940 -0.170330 -1.649334 -0.086124 0.358824
    42 0.024032 -1.168106 -0.009538 -1.950461 0.058641 0.071609
    43 0.014898 -0.907427 0.007497 -1.988116 0.057059 0.072675
    44 -0.586770 -1.264477 0.200161 -0.363326 -0.687429 -2.402966
    45 1.542367 0.039149 0.016848 -0.008166 -0.002400 0.482652
    46 1.110134 0.036705 -0.005766 -0.040331 -0.029896 1.423453
    47 -0.139399 -0.111698 0.014397 0.285382 -0.030687 1.580508
    48 -6.713945 5.499231 -0.399594 1.578409 -0.025222 -0.784079
  time 15
    0 3.813484 -11.048883 -6.931982 0.194769 0.083094 -0.131380
    1 -0.025678 2.701180 0.658172 0.000000 0.000000 0.000000
    2 0.000000 -3.947159 3.041922 0.000000 0.000000 0.000000
    3 0.000000 -1.548280 0.485224 0.000000 0.000000 0.000000
    4 0.000000 -0.980124 2.284383 0.000000 0.000000 0.000000
    5 0.000000 -2.905540 1.621535 0.000000 0.000000 0.000000
    6 -0.000001 -5.746316 1.557464 0.000000 0.000000 0.000000
    7 0.000000 -0.031565 -0.614062 0.000000 0.000000 0.000000
    8 0.000000 -0.000002 -0.824931 0.000000 0.000000 0.000000
    9 0.000000 -0.015647 -0.615740 0.000000 0.000000 0.000000
    10 -2.686428 2.537875 -5.745650 0.000000 0.000000 0.374718
    11 5.876405 -4.764441 -4.178797 1.127728 -2.034012 -1.412841
    12 7.401899 3.981189 -0.317781 1.565646 -3.124423 0.577874
    13 -0.025045 -8.369826 -0.123666 -0.253385 0.270176 -0.490243
    14 -0.488518 -2.755602 -0.228260 -0.677757 0.222160 -0.237357
    15 0.039887 -1.546198 0.022041 -1.865677 -0.006771 0.041659
    16 0.028786 -1.157765 -0.124675 -1.010741 -0.015017 0.021249
    17 0.250027 -2.820665 -0.238396 -0.583312 0.207576 -0.172896
    18 -0.049759 -1.594604 0.022352 -1.674032 -0.002301 -0.044045
    19 -0.034142 -1.171750 0.045718 -1.215231 0.006076 -0.032059
    20 0.957766 -2.746780 -0.090302 0.002002 -0.079703 0.138406
    21 -0.033420 -1.397129 -0.026882 -0.920366 0.005369 -0.045183
    22 -0.022360 -0.957436 -0.000748 -0.725796 0.007394 -0.035283
    23 -1.180681 -2.507217 -0.193859 -0.486179 0.356856 -0.282099
    24 -0.024967 -1.127840 0.017597 -1.310231 -0.003476 -0.054840
    25 -0.020057 -0.906594 0.041341 -1.373954 -0.003092 -0.055632
    26 0.630386 -1.197277 0.185379 0.386032 -1.009532 -0.241400
    27 1.446081 -0.251481 0.079230 0.075523 -0.244881 -0.915391
    28 1.007018 -0.182979 0.044010 0.088023 -0.242978 -1.037980
    29 0.120153 -0.050270 -0.054489 0.287569 3.110905 1.561085
    30 -5.536555 -8.500891 -5.603017 0.670334 -4.049714 0.958818
    31 0.011004 -8.395729 0.017980 -0.269869 -0.619102 0.274835
    32 0.447953 -2.798986 -0.200443 -1.706136 0.020932 0.188884
    33 -0.032909 -1.495829 0.044004 -2.089146 0.017653 -0.045132
    34 -0.027022 -1.147235 0.030573 -2.658218 0.006352 -0.054973
    35 -0.249534 -2.846964 -0.174213 -1.411573 0.014185 0.073914
    36 0.043235 -1.660503 0.049136 -2.071656 -0.024957 0.019823
    37 0.031729 -1.137392 0.039306 -2.101789 -0.020355 0.015443
    38 -0.963866 -2.785145 -0.085350 -0.924021 0.134987 -0.078649
    39 0.028479 -1.418692 -0.028886 -1.540363 -0.050671 -0.038207
    40 0.021413 -0.942156 0.012233 -1.067070 -0.029638 -0.035402
    41 1.164475 -2.543940 -0.170330 -1.655335 -0.085789 0.358896
    42 0.024032 -1.168106 -0.005631 -1.959898 0.059168 0.071573
    43 0.014898 -0.907427 0.007497 -1.998005 0.057610 0.072639
    44 -0.586770 -1.264477 0.200161 -0.363685 -0.685177 -2.402841
    45 1.542367 0.039149 0.016848 -0.008178 -0.002412 0.483191
    46 1.110134 0.036705 -0.005766 -0.040475 -0.029812 1.428577
    47 -0.139399 -0.111698 0.014397 0.285382 -0.030687 1.580508
    48 -7.221773 4.694519 -0.419126 1.576684 -0.027806 -0.668729
  time 16
    0 3.743169 -11.033257 -6.974952 0.214908 0.131812 -0.135633
    1 -0.025678 2.701180 0.658172 0.000000 0.000000 0.000000
    2 0.000000 -3.947159 3.041922 0.000000 0.000000 0.000000
    3 0.000000 -1.548280 0.485224 0.000000 0.000000 0.000000
    4 0.000000 -0.980124 2.284383 0.000000 0.000000 0.000000
    5 0.000000 -2.905540 1.621535 0.000000 0.000000 0.000000
    6 -0.000001 -5.746316 1.557464 0.000000 0.000000 0.000000
    7 0.000000 -0.031565 -0.614062 0.000000 0.000000 0.000000
    8 0.000000 -0.000002 -0.824931 0.000000 0.000000 0.000000
    9 0.000000 -0.015647 -0.615740 0.000000 0.000000 0.000000
    10 -2.686428 2.537875 -5.745650 0.000000 0.000000 0.374718
    11 5.833435 -4.752722 -4.178797 1.141165 -2.029736 -1.425520
    12 7.386273 4.020252 -0.317781 1.565550 -3.124519 0.583152
    13 -0.017232 -8.365920 -0.119759 -0.268233 0.303713 -0.523245
    14 -0.488518 -2.755602 -0.228260 -0.677757 0.222160 -0.237357
    15 0.039887 -1.546198 0.022041 -1.865677 -0.006771 0.041659
    16 0.028786 -1.157765 -0.124675 -1.010741 -0.015017 0.021249
    17 0.250027 -2.820665 -0.238396 -0.583312 0.207576 -0.172896
    18 -0.049759 -1.594604 0.022352 -1.674032 -0.002301 -0.044045
    19 -0.034142 -1.171750 0.045718 -1.215231 0.006076 -0.032059
    20 0.957766 -2.746780 -0.090302 0.002002 -0.079703 0.138406
    21 -0.033420 -1.397129 -0.026882 -0.920366 0.005369 -0.045183
    22 -0.022360 -0.957436 -0.000748 -0.725796 0.007394 -0.035283
    23 -1.180681 -2.507217 -0.193859 -0.486179 0.356856 -0.282099
    24 -0.024967 -1.127840 0.017597 -1.310231 -0.003476 -0.054840
    25 -0.020057 -0.906594 0.041341 -1.373954 -0.003092 -0.055632
    26 0.630386 -1.197277 0.185379 0.386032 -1.009532 -0.241400
    27 1.446081 -0.251481 0.079230 0.075511 -0.244881 -0.915391
    28 1.007018 -0.182979 0.044010 0.088023 -0.242978 -1.037980
    29 0.120153 -0.050270 -0.054489 0.287569 3.110905 1.561085
    30 -5.622495 -8.442295 -5.657706 0.685231 -4.039259 0.969119
    31 0.007098 -8.384010 0.010167 -0.305899 -0.597664 0.350132
    32 0.447953 -2.798986 -0.200443 -1.708407 0.020908 0.188812
    33 -0.032909 -1.495829 0.044004 -2.092192 0.017593 -0.045192
    34 -0.027022 -1.147235 0.030573 -2.662691 0.006220 -0.055021
    35 -0.249534 -2.846964 -0.174213 -1.413750 0.014173 0.073950
    36 0.043235 -1.660503 0.049136 -2.074468 -0.024945 0.019883
    37 0.031729 -1.137392 0.039306 -2.105255 -0.020367 0.015491
    38 -0.963866 -2.785145 -0.085350 -0.925462 0.134939 -0.078673
    39 0.028479 -1.418692 -0.028886 -1.542549 -0.050767 -0.038195
    40 0.021413 -0.942156 0.012233 -1.068575 -0.029698 -0.035426
    41 1.164475 -2.543940 -0.170330 -1.657194 -0.085693 0.358920
    42 0.024032 -1.168106 -0.005631 -1.962925 0.059336 0.071549
    43 0.014898 -0.907427 0.007497 -2.001143 0.057778 0.072627
    44 -0.586770 -1.264477 0.200161 -0.363791 -0.684468 -2.402805
    45 1.542367 0.039149 0.016848 -0.008178 -0.002412 0.483388
    46 1.110134 0.036705 -0.005766 -0.040523 -0.029788 1.430201
    47 -0.139399 -0.111698 0.014397 0.285382 -0.030687 1.580508
    48 -7.338964 4.467950 -0.423032 1.576205 -0.028476 -0.637433
  time 17
    0 3.661135 -11.037163 -6.971045 0.218307 0.172786 -0.137434
    1 -0.025678 2.701180 0.658172 0.000000 0.000000 0.000000
    2 0.000000 -3.947159 3.041922 0.000000 0.000000 0.000000
    3 0.000000 -1.548280 0.485224 0.000000 0.000000 0.000000
    4 0.000000 -0.980124 2.284383 0.000000 0.000000 0.000000
    5 0.000000 -2.905540 1.621535 0.000000 0.000000 0.000000
    6 -0.000001 -5.746316 1.557464 0.000000 0.000000 0.000000
    7 0.000000 -0.031565 -0.614062 0.000000 0.000000 0.000000
    8 0.000000 -0.000002 -0.824931 0.000000 0.000000 0.000000
    9 0.000000 -0.015647 -0.615740 0.000000 0.000000 0.000000
    10 -2.686428 2.537875 -5.745650 0.000000 0.000000 0.374718
    11 5.755307 -4.733190 -4.182703 1.166454 -2.022359 -1.450212
    12 7.358929 4.082754 -0.317781 1.565550 -3.124710 0.591522
    13 -0.009419 -8.369826 -0.115853 -0.273596 0.328951 -0.535962
    14 -0.488518 -2.755602 -0.228260 -0.677757 0.222160 -0.237357
    15 0.039887 -1.546198 0.022041 -1.865677 -0.006771 0.041659
    16 0.028786 -1.157765 -0.124675 -1.010741 -0.015017 0.021249
    17 0.250027 -2.820665 -0.238396 -0.583312 0.207576 -0.172896
    18 -0.049759 -1.594604 0.022352 -1.674032 -0.002301 -0.044045
    19 -0.034142 -1.171750 0.045718 -1.215231 0.006076 -0.032059
    20 0.957766 -2.746780 -0.090302 0.002002 -0.079703 0.138406
    21 -0.033420 -1.397129 -0.026882 -0.920366 0.005369 -0.045183
    22 -0.022360 -0.957436 -0.000748 -0.725796 0.007394 -0.035283
    23 -1.180681 -2.507217 -0.193859 -0.486179 0.356856 -0.282099
    24 -0.024967 -1.127840 0.017597 -1.310231 -0.003476 -0.054840
    25 -0.020057 -0.906594 0.041341 -1.373954 -0.003092 -0.055632
    26 0.630386 -1.197277 0.185379 0.386032 -1.009532 -0.241400
    27 1.446081 -0.251481 0.079230 0.075523 -0.244881 -0.915391
    28 1.007018 -0.182979 0.044010 0.088023 -0.242978 -1.037980
    29 0.120153 -0.050270 -0.054489 0.287569 3.110905 1.561085
    30 -5.688903 -8.426670 -5.649893 0.700916 -4.028220 0.976660
    31 0.007098 -8.376197 0.006260 -0.334610 -0.570710 0.402595
    32 0.447953 -2.798986 -0.200443 -1.706357 0.020920 0.188872
    33 -0.032909 -1.495829 0.044004 -2.089457 0.017641 -0.045132
    34 -0.027022 -1.147235 0.030573 -2.658624 0.006340 -0.054973
    35 -0.249534 -2.846964 -0.174213 -1.411795 0.014185 0.073926
    36 0.043235 -1.660503 0.049136 -2.071912 -0.024957 0.019835
    37 0.031729 -1.137392 0.039306 -2.102104 -0.020355 0.015443
    38 -0.963866 -2.785145 -0.085350 -0.924160 0.134987 -0.078649
    39 0.028479 -1.418692 -0.028886 -1.540601 -0.050671 -0.038207
    40 0.021413 -0.942156 0.012233 -1.067201 -0.029638 -0.035402
    41 1.164475 -2.543940 -0.170330 -1.655494 -0.085777 0.358896
    42 0.024032 -1.168106 -0.005631 -1.960195 0.059192 0.071573
    43 0.014898 -0.907427 0.007497 -1.998301 0.057622 0.072639
    44 -0.586770 -1.264477 0.200161 -0.363685 -0.685117 -2.402841
    45 1.542367 0.039149 0.016848 -0.008178 -0.002412 0.483216
    46 1.110134 0.036705 -0.005766 -0.040475 -0.029812 1.428702
    47 -0.139399 -0.111698 0.014397 0.285382 -0.030687 1.580508
    48 -7.405372 4.335133 -0.423032 1.575918 -0.028859 -0.619817
  time 18
    0 3.649416 -11.052789 -6.912450 0.208436 0.202091 -0.134933
    1 -0.025678 2.701180 0.658172 0.000000 0.000000 0.000000
    2 0.000000 -3.947159 3.041922 0.000000 0.000000 0.000000
    3 0.000000 -1.548280 0.485224 0.000000 0.000000 0.000000
    4 0.000000 -0.980124 2.284383 0.000000 0.000000 0.000000
    5 0.000000 -2.905540 1.621535 0.000000 0.000000 0.000000
    6 -0.000001 -5.746316 1.557464 0.000000 0.000000 0.000000
    7 0.000000 -0.031565 -0.614062 0.000000 0.000000 0.000000
    8 0.000000 -0.000002 -0.824931 0.000000 0.000000 0.000000
    9 0.000000 -0.015647 -0.615740 0.000000 0.000000 0.000000
    10 -2.686428 2.537875 -5.745650 0.000000 0.000000 0.374718
    11 5.735776 -4.725378 -4.182703 1.172333 -2.020849 -1.456123
    12 7.351116 4.094473 -0.317781 1.565550 -3.124710 0.593105
    13 -0.005513 -8.369826 -0.111947 -0.271382 0.357251 -0.533839
    14 -0.488518 -2.755602 -0.228260 -0.677757 0.222160 -0.237357
    15 0.039887 -1.546198 0.022041 -1.865677 -0.006771 0.041659
    16 0.028786 -1.157765 -0.124675 -1.010741 -0.015017 0.021249
    17 0.250027 -2.820665 -0.238396 -0.583312 0.207576 -0.172896
    18 -0.049759 -1.594604 0.022352 -1.674032 -0.002301 -0.044045
    19 -0.034142 -1.171750 0.045718 -1.215231 0.006076 -0.032059
    20 0.957766 -2.746780 -0.090302 0.002002 -0.079703 0.138406
    21 -0.033420 -1.397129 -0.026882 -0.920366 0.005369 -0.045183
    22 -0.022360 -0.957436 -0.000748 -0.725796 0.007394 -0.035283
    23 -1.180681 -2.507217 -0.193859 -0.486179 0.356856 -0.282099
    24 -0.024967 -1.127840 0.017597 -1.310231 -0.003476 -0.054840
    25 -0.020057 -0.906594 0.041341 -1.373954 -0.003092 -0.055632
    26 0.630386 -1.197277 0.185379 0.386032 -1.009532 -0.241400
    27 1.446081 -0.251481 0.079230 0.075523 -0.244881 -0.915391
    28 1.007018 -0.182979 0.044010 0.088023 -0.242978 -1.037980
    29 0.120153 -0.050270 -0.054489 0.287569 3.110905 1.561085
    30 -5.688903 -8.469640 -5.571766 0.712925 -4.019313 0.982822
    31 0.007098 -8.368385 0.002354 -0.352135 -0.544431 0.428108
    32 0.447953 -2.798986 -0.200443 -1.700486 0.020980 0.189028
    33 -0.032909 -1.495829 0.044004 -2.081687 0.017773 -0.044952
    34 -0.027022 -1.147235 0.030573 -2.647076 0.006639 -0.054865
    35 -0.249534 -2.846964 -0.174213 -1.406197 0.014233 0.073830
    36 0.043235 -1.660503 0.049136 -2.064626 -0.024969 0.019691
    37 0.031729 -1.137392 0.039306 -2.093155 -0.020331 0.015335
    38 -0.963866 -2.785145 -0.085350 -0.920501 0.135131 -0.078565
    39 0.028479 -1.418692 -0.028886 -1.534996 -0.050419 -0.038243
    40 0.021413 -0.942156 0.012233 -1.063306 -0.029470 -0.035343
    41 1.164475 -2.543940 -0.170330 -1.650715 -0.086052 0.358848
    42 0.024032 -1.168106 -0.009538 -1.952598 0.058760 0.071609
    43 0.014898 -0.907427 0.007497 -1.990366 0.057178 0.072675
    44 -0.586770 -1.264477 0.200161 -0.363419 -0.686922 -2.402930
    45 1.542367 0.039149 0.016848 -0.008166 -0.002412 0.482774
    46 1.110134 0.036705 -0.005766 -0.040367 -0.029884 1.424620
    47 -0.139399 -0.111698 0.014397 0.285382 -0.030687 1.580508
    48 -7.389747 4.366384 -0.423032 1.576013 -0.028763 -0.623931
  time 19
    0 3.770514 -11.052789 -6.791352 0.188478 0.215884 -0.125976
    1 -0.025678 2.701180 0.658172 0.000000 0.000000 0.000000
    2 0.000000 -3.947159 3.041922 0.000000 0.000000 0.000000
    3 0.000000 -1.548280 0.485224 0.000000 0.000000 0.000000
    4 0.000000 -0.980124 2.284383 0.000000 0.000000 0.000000
    5 0.000000 -2.905540 1.621535 0.000000 0.000000 0.000000
    6 -0.000001 -5.746316 1.557464 0.000000 0.000000 0.000000
    7 0.000000 -0.031565 -0.614062 0.000000 0.000000 0.000000
    8 0.000000 -0.000002 -0.824931 0.000000 0.000000 0.000000
    9 0.000000 -0.015647 -0.615740 0.000000 0.000000 0.000000
    10 -2.686428 2.537875 -5.745650 0.000000 0.000000 0.374718
    11 5.876405 -4.764441 -4.178797 1.127728 -2.034012 -1.412841
    12 7.401899 3.981189 -0.317781 1.565646 -3.124423 0.577874
    13 -0.001606 -8.377639 -0.104134 -0.263886 0.399699 -0.522567
    14 -0.488518 -2.755602 -0.228260 -0.677757 0.222160 -0.237357
    15 0.039887 -1.546198 0.022041 -1.865677 -0.006771 0.041659
    16 0.028786 -1.157765 -0.124675 -1.010741 -0.015017 0.021249
    17 0.250027 -2.820665 -0.238396 -0.583312 0.207576 -0.172896
    18 -0.049759 -1.594604 0.022352 -1.674032 -0.002301 -0.044045
    19 -0.034142 -1.171750 0.045718 -1.215231 0.006076 -0.032059
    20 0.957766 -2.746780 -0.090302 0.002002 -0.079703 0.138406
    21 -0.033420 -1.397129 -0.026882 -0.920366 0.005369 -0.045183
    22 -0.022360 -0.957436 -0.000748 -0.725796 0.007394 -0.035283
    23 -1.180681 -2.507217 -0.193859 -0.486179 0.356856 -0.282099
    24 -0.024967 -1.127840 0.017597 -1.310231 -0.003476 -0.054840
    25 -0.020057 -0.906594 0.041341 -1.373954 -0.003092 -0.055632
    26 0.630386 -1.197277 0.185379 0.386032 -1.009532 -0.241400
    27 1.446081 -0.251481 0.079230 0.075523 -0.244881 -0.915391
    28 1.007018 -0.182979 0.044010 0.088023 -0.242978 -1.037980
    29 0.120153 -0.050270 -0.054489 0.287569 3.110905 1.561085
    30 -5.587337 -8.586831 -5.407698 0.717158 -4.015083 0.988892
    31 0.011004 -8.368385 -0.001552 -0.355383 -0.524964 0.423698
    32 0.447953 -2.798986 -0.200443 -1.691514 0.021052 0.189279
    33 -0.032909 -1.495829 0.044004 -2.069752 0.017977 -0.044677
    34 -0.027022 -1.147235 0.030573 -2.629347 0.007119 -0.054674
    35 -0.249534 -2.846964 -0.174213 -1.397624 0.014292 0.073686
    36 0.043235 -1.660503 0.049136 -2.053441 -0.024993 0.019464
    37 0.031729 -1.137392 0.039306 -2.079416 -0.020295 0.015155
    38 -0.963866 -2.785145 -0.085350 -0.914846 0.135359 -0.078445
    39 0.028479 -1.418692 -0.028886 -1.526398 -0.050036 -0.038291
    40 0.021413 -0.942156 0.012233 -1.057349 -0.029218 -0.035259
    41 1.164475 -2.543940 -0.170330 -1.643280 -0.086460 0.358764
    42 0.024032 -1.168106 -0.009538 -1.940965 0.058113 0.071657
    43 0.014898 -0.907427 0.003590 -1.978227 0.056495 0.072711
    44 -0.586770 -1.264477 0.200161 -0.362980 -0.689700 -2.403091
    45 1.542367 0.039149 0.016848 -0.008154 -0.002400 0.482088
    46 1.110134 0.036705 -0.005766 -0.040200 -0.029992 1.418330
    47 -0.139399 -0.111698 0.014397 0.285382 -0.030687 1.580508
    48 -7.264743 4.612486 -0.419126 1.576588 -0.028093 -0.657373
  time 20
    0 4.051772 -11.029351 -6.576502 0.153840 0.210775 -0.110765
    1 -0.025678 2.701180 0.658172 0.000000 0.000000 0.000000
    2 0.000000 -3.947159 3.041922 0.000000 0.000000 0.000000
    3 0.000000 -1.548280 0.485224 0.000000 0.000000 0.000000
    4 0.000000 -0.980124 2.284383 0.000000 0.000000 0.000000
    5 0.000000 -2.905540 1.621535 0.000000 0.000000 0.000000
    6 -0.000001 -5.746316 1.557464 0.000000 0.000000 0.000000
    7 0.000000 -0.031565 -0.614062 0.000000 0.000000 0.000000
    8 0.000000 -0.000002 -0.824931 0.000000 0.000000 0.000000
    9 0.000000 -0.015647 -0.615740 0.000000 0.000000 0.000000
    10 -2.686428 2.537875 -5.745650 0.000000 0.000000 0.374718
    11 6.227978 -4.854288 -4.155358 1.022465 -2.071489 -1.312071
    12 7.522996 3.688211 -0.325593 1.565838 -3.123562 0.538964
    13 0.006206 -8.389358 -0.100228 -0.248063 0.464835 -0.498398
    14 -0.488518 -2.755602 -0.228260 -0.677757 0.222160 -0.237357
    15 0.039887 -1.546198 0.022041 -1.865677 -0.006771 0.041659
    16 0.028786 -1.157765 -0.124675 -1.010741 -0.015017 0.021249
    17 0.250027 -2.820665 -0.238396 -0.583312 0.207576 -0.172896
    18 -0.049759 -1.594604 0.022352 -1.674032 -0.002301 -0.044045
    19 -0.034142 -1.171750 0.045718 -1.215231 0.006076 -0.032059
    20 0.957766 -2.746780 -0.090302 0.002002 -0.079703 0.138406
    21 -0.033420 -1.397129 -0.026882 -0.920366 0.005369 -0.045183
    22 -0.022360 -0.957436 -0.000748 -0.725796 0.007394 -0.035283
    23 -1.180681 -2.507217 -0.193859 -0.486179 0.356856 -0.282099
    24 -0.024967 -1.127840 0.017597 -1.310231 -0.003476 -0.054840
    25 -0.020057 -0.906594 0.041341 -1.373954 -0.003092 -0.055632
    26 0.630386 -1.197277 0.185379 0.386032 -1.009532 -0.241400
    27 1.446081 -0.251481 0.079230 0.075523 -0.244881 -0.915391
    28 1.007018 -0.182979 0.044010 0.088023 -0.242978 -1.037980
    29 0.120153 -0.050270 -0.054489 0.287569 3.110905 1.561085
    30 -5.360768 -8.782149 -5.122533 0.713418 -4.015289 0.994778
    31 0.018817 -8.372291 -0.001552 -0.343218 -0.512711 0.384073
    32 0.447953 -2.798986 -0.200443 -1.679993 0.021147 0.189591
    33 -0.032909 -1.495829 0.044004 -2.054461 0.018229 -0.044329
    34 -0.027022 -1.147235 0.026666 -2.606658 0.007706 -0.054422
    35 -0.249534 -2.846964 -0.174213 -1.386651 0.014388 0.073507
    36 0.043235 -1.660503 0.049136 -2.039124 -0.025005 0.019188
    37 0.031729 -1.137392 0.039306 -2.061832 -0.020235 0.014940
    38 -0.963866 -2.785145 -0.085350 -0.907640 0.135634 -0.078278
    39 0.028479 -1.418692 -0.028886 -1.515425 -0.049544 -0.038339
    40 0.021413 -0.942156 0.012233 -1.049724 -0.028895 -0.035139
    41 1.164475 -2.543940 -0.170330 -1.633826 -0.086975 0.358644
    42 0.024032 -1.168106 -0.009538 -1.926067 0.057274 0.071705
    43 0.014898 -0.907427 0.003590 -1.962713 0.055632 0.072746
    44 -0.586770 -1.264477 0.200161 -0.362435 -0.693230 -2.403288
    45 1.542367 0.039149 0.016848 -0.008130 -0.002388 0.481205
    46 1.110134 0.036705 -0.005766 -0.039972 -0.030124 1.410292
    47 -0.139399 -0.111698 0.014397 0.285382 -0.030687 1.580508
    48 -6.979578 5.104688 -0.407407 1.577642 -0.026562 -0.726672
  time 21
    0 4.379907 -10.982474 -6.271805 0.104269 0.191283 -0.096604
    1 -0.025678 2.701180 0.658172 0.000000 0.000000 0.000000
    2 0.000000 -3.947159 3.041922 0.000000 0.000000 0.000000
    3 0.000000 -1.548280 0.485224 0.000000 0.000000 0.000000
    4 0.000000 -0.980124 2.284383 0.000000 0.000000 0.000000
    5 0.000000 -2.905540 1.621535 0.000000 0.000000 0.000000
    6 -0.000001 -5.746316 1.557464 0.000000 0.000000 0.000000
    7 0.000000 -0.031565 -0.614062 0.000000 0.000000 0.000000
    8 0.000000 -0.000002 -0.824931 0.000000 0.000000 0.000000
    9 0.000000 -0.015647 -0.615740 0.000000 0.000000 0.000000
    10 -2.686428 2.537875 -5.745650 0.000000 0.000000 0.374718
    11 6.724087 -4.975385 -4.085044 0.895740 -2.131350 -1.196239
    12 7.675345 3.262417 -0.333406 1.566221 -3.122414 0.483692
    13 0.017925 -8.401077 -0.092415 -0.220457 0.544597 -0.457626
    14 -0.488518 -2.755602 -0.228260 -0.677757 0.222160 -0.237357
    15 0.039887 -1.546198 0.022041 -1.865677 -0.006771 0.041659
    16 0.028786 -1.157765 -0.124675 -1.010741 -0.015017 0.021249
    17 0.250027 -2.820665 -0.238396 -0.583312 0.207576 -0.172896
    18 -0.049759 -1.594604 0.022352 -1.674032 -0.002301 -0.044045
    19 -0.034142 -1.171750 0.045718 -1.215231 0.006076 -0.032059
    20 0.957766 -2.746780 -0.090302 0.002002 -0.079703 0.138406
    21 -0.033420 -1.397129 -0.026882 -0.920366 0.005369 -0.045183
    22 -0.022360 -0.957436 -0.000748 -0.725796 0.007394 -0.035283
    23 -1.180681 -2.507217 -0.193859 -0.486179 0.356856 -0.282099
    24 -0.024967 -1.127840 0.017597 -1.310231 -0.003476 -0.054840
    25 -0.020057 -0.906594 0.041341 -1.373954 -0.003092 -0.055632
    26 0.630386 -1.197277 0.185379 0.386032 -1.009532 -0.241400
    27 1.446081 -0.251481 0.079230 0.075511 -0.244881 -0.915391
    28 1.007018 -0.182979 0.044010 0.088023 -0.242978 -1.037980
    29 0.120153 -0.050270 -0.054489 0.287569 3.110905 1.561085
    30 -5.079509 -8.981374 -4.751428 0.709086 -4.015324 1.000756
    31 0.030536 -8.380104 -0.001552 -0.319249 -0.502678 0.320373
    32 0.447953 -2.798986 -0.200443 -1.666645 0.021255 0.189951
    33 -0.032909 -1.495829 0.044004 -2.036683 0.018516 -0.043910
    34 -0.027022 -1.147235 0.026666 -2.580227 0.008401 -0.054122
    35 -0.249534 -2.846964 -0.174213 -1.373901 0.014496 0.073291
    36 0.043235 -1.660503 0.049136 -2.022507 -0.025029 0.018853
    37 0.031729 -1.137392 0.039306 -2.041413 -0.020163 0.014688
    38 -0.963866 -2.785145 -0.085350 -0.899269 0.135970 -0.078098
    39 0.028479 -1.418692 -0.028886 -1.502647 -0.048969 -0.038399
    40 0.021413 -0.942156 0.012233 -1.040821 -0.028523 -0.034995
    41 1.164475 -2.543940 -0.170330 -1.622833 -0.087574 0.358513
    42 0.024032 -1.164199 -0.009538 -1.908736 0.056304 0.071753
    43 0.014898 -0.907427 0.003590 -1.944652 0.054614 0.072770
    44 -0.586770 -1.264477 0.200161 -0.361784 -0.697367 -2.403520
    45 1.542367 0.039149 0.016848 -0.008106 -0.002364 0.480174
    46 1.110134 0.036705 -0.005766 -0.039720 -0.030279 1.400920
    47 -0.139399 -0.111698 0.014397 0.285382 -0.030687 1.580508
    48 -6.577222 5.682831 -0.395688 1.578792 -0.024551 -0.812156
  time 22
    0 4.629915 -10.916066 -5.939764 0.050540 0.165338 -0.089999
    1 -0.025678 2.701180 0.658172 0.000000 0.000000 0.000000
    2 0.000000 -3.947159 3.041922 0.000000 0.000000 0.000000
    3 0.000000 -1.548280 0.485224 0.000000 0.000000 0.000000
    4 0.000000 -0.980124 2.284383 0.000000 0.000000 0.000000
    5 0.000000 -2.905540 1.621535 0.000000 0.000000 0.000000
    6 -0.000001 -5.746316 1.557464 0.000000 0.000000 0.000000
    7 0.000000 -0.031565 -0.614062 0.000000 0.000000 0.000000
    8 0.000000 -0.000002 -0.824931 0.000000 0.000000 0.000000
    9 0.000000 -0.015647 -0.615740 0.000000 0.000000 0.000000
    10 -2.686428 2.537875 -5.745650 0.000000 0.000000 0.374718
    11 7.243634 -5.100389 -3.963946 0.781986 -2.202363 -1.099951
    12 7.812068 2.793653 -0.341219 1.566605 -3.121267 0.423594
    13 0.029645 -8.416703 -0.080696 -0.184036 0.625209 -0.406780
    14 -0.488518 -2.755602 -0.228260 -0.677757 0.222160 -0.237357
    15 0.039887 -1.546198 0.022041 -1.865677 -0.006771 0.041659
    16 0.028786 -1.157765 -0.124675 -1.010741 -0.015017 0.021249
    17 0.250027 -2.820665 -0.238396 -0.583312 0.207576 -0.172896
    18 -0.049759 -1.594604 0.022352 -1.674032 -0.002301 -0.044045
    19 -0.034142 -1.171750 0.045718 -1.215231 0.006076 -0.032059
    20 0.957766 -2.746780 -0.090302 0.002002 -0.079703 0.138406
    21 -0.033420 -1.397129 -0.026882 -0.920366 0.005369 -0.045183
    22 -0.022360 -0.957436 -0.000748 -0.725796 0.007394 -0.035283
    23 -1.180681 -2.507217 -0.193859 -0.486179 0.356856 -0.282099
    24 -0.024967 -1.127840 0.017597 -1.310231 -0.003476 -0.054840
    25 -0.020057 -0.906594 0.041341 -1.373954 -0.003092 -0.055632
    26 0.630386 -1.197277 0.185379 0.386032 -1.009532 -0.241400
    27 1.446081 -0.251481 0.079230 0.075523 -0.244881 -0.915391
    28 1.007018 -0.182979 0.044010 0.088023 -0.242978 -1.037980
    29 0.120153 -0.050270 -0.054489 0.287569 3.110905 1.561085
    30 -4.841221 -9.125910 -4.407668 0.711547 -4.011438 1.010137
    31 0.042255 -8.387917 -0.001552 -0.287806 -0.492945 0.255072
    32 0.447953 -2.798986 -0.200443 -1.652023 0.021363 0.190358
    33 -0.032909 -1.495829 0.044004 -2.017227 0.018828 -0.043442
    34 -0.027022 -1.147235 0.026666 -2.551356 0.009132 -0.053763
    35 -0.249534 -2.846964 -0.174213 -1.359952 0.014616 0.073063
    36 0.043235 -1.660503 0.049136 -2.004292 -0.025041 0.018505
    37 0.031729 -1.137392 0.039306 -2.019040 -0.020091 0.014412
    38 -0.963866 -2.785145 -0.085350 -0.890094 0.136329 -0.077882
    39 0.028479 -1.414786 -0.028886 -1.488682 -0.048346 -0.038447
    40 0.021413 -0.942156 0.012233 -1.031134 -0.028116 -0.034839
    41 1.164475 -2.543940 -0.170330 -1.610830 -0.088234 0.358357
    42 0.024032 -1.164199 -0.009538 -1.889744 0.055237 0.071789
    43 0.014898 -0.907427 0.003590 -1.924875 0.053499 0.072770
    44 -0.586770 -1.264477 0.200161 -0.361079 -0.701870 -2.403789
    45 1.542367 0.039149 0.016848 -0.008082 -0.002352 0.479046
    46 1.110134 0.036705 -0.005766 -0.039433 -0.030447 1.390674
    47 -0.139399 -0.111698 0.014397 0.285382 -0.030687 1.580508
    48 -6.217836 6.128157 -0.380062 1.579558 -0.022924 -0.881634
  time 23
    0 4.762731 -10.845751 -5.654599 0.004079 0.140926 -0.091400
    1 -0.025678 2.701180 0.658172 0.000000 0.000000 0.000000
    2 0.000000 -3.947159 3.041922 0.000000 0.000000 0.000000
    3 0.000000 -1.548280 0.485224 0.000000 0.000000 0.000000
    4 0.000000 -0.980124 2.284383 0.000000 0.000000 0.000000
    5 0.000000 -2.905540 1.621535 0.000000 0.000000 0.000000
    6 -0.000001 -5.746316 1.557464 0.000000 0.000000 0.000000
    7 0.000000 -0.031565 -0.614062 0.000000 0.000000 0.000000
    8 0.000000 -0.000002 -0.824931 0.000000 0.000000 0.000000
    9 0.000000 -0.015647 -0.615740 0.000000 0.000000 0.000000
    10 -2.686428 2.537875 -5.745650 0.000000 0.000000 0.374718
    11 7.685054 -5.205861 -3.819411 0.696134 -2.268512 -1.034932
    12 7.913633 2.371765 -0.349031 1.567084 -3.120215 0.370282
    13 0.037457 -8.428422 -0.076789 -0.145299 0.693712 -0.355459
    14 -0.488518 -2.755602 -0.228260 -0.677757 0.222160 -0.237357
    15 0.039887 -1.546198 0.022041 -1.865677 -0.006771 0.041659
    16 0.028786 -1.157765 -0.124675 -1.010741 -0.015017 0.021249
    17 0.250027 -2.820665 -0.238396 -0.583312 0.207576 -0.172896
    18 -0.049759 -1.594604 0.022352 -1.674032 -0.002301 -0.044045
    19 -0.034142 -1.171750 0.045718 -1.215231 0.006076 -0.032059
    20 0.957766 -2.746780 -0.090302 0.002002 -0.079703 0.138406
    21 -0.033420 -1.397129 -0.026882 -0.920366 0.005369 -0.045183
    22 -0.022360 -0.957436 -0.000748 -0.725796 0.007394 -0.035283
    23 -1.180681 -2.507217 -0.193859 -0.486179 0.356856 -0.282099
    24 -0.024967 -1.127840 0.017597 -1.310231 -0.003476 -0.054840
    25 -0.020057 -0.906594 0.041341 -1.373954 -0.003092 -0.055632
    26 0.630386 -1.197277 0.185379 0.386032 -1.009532 -0.241400
    27 1.446081 -0.251481 0.079230 0.075523 -0.244881 -0.915391
    28 1.007018 -0.182979 0.044010 0.088023 -0.242978 -1.037980
    29 0.120153 -0.050270 -0.054489 0.287569 3.110905 1.561085
    30 -4.700592 -9.196225 -4.173286 0.722244 -4.003115 1.024484
    31 0.046161 -8.399636 0.002354 -0.254869 -0.483336 0.205254
    32 0.447953 -2.798986 -0.200443 -1.636736 0.021471 0.190778
    33 -0.032909 -1.495829 0.044004 -1.996963 0.019127 -0.042951
    34 -0.027022 -1.147235 0.026666 -2.521185 0.009899 -0.053367
    35 -0.249534 -2.846964 -0.174213 -1.345381 0.014748 0.072824
    36 0.043235 -1.656596 0.053042 -1.985310 -0.025053 0.018121
    37 0.031729 -1.137392 0.039306 -1.995784 -0.019995 0.014125
    38 -0.963866 -2.785145 -0.085350 -0.880504 0.136689 -0.077654
    39 0.028479 -1.414786 -0.028886 -1.474146 -0.047687 -0.038495
    40 0.021413 -0.942156 0.012233 -1.020988 -0.027684 -0.034671
    41 1.164475 -2.543940 -0.170330 -1.598297 -0.088917 0.358177
    42 0.024032 -1.164199 -0.009538 -1.869979 0.054122 0.071801
    43 0.014898 -0.907427 0.003590 -1.904268 0.052337 0.072758
    44 -0.586770 -1.264477 0.200161 -0.360335 -0.706575 -2.404075
    45 1.542367 0.039149 0.016848 -0.008046 -0.002328 0.477893
    46 1.110134 0.036705 -0.005766 -0.039133 -0.030615 1.379970
    47 -0.139399 -0.111698 0.014397 0.285382 -0.030687 1.580508
    48 -6.022518 6.346914 -0.376156 1.579942 -0.022063 -0.917402
  time 24
    0 4.809608 -10.794969 -5.474906 -0.025389 0.125816 -0.095954
    1 -0.025678 2.701180 0.658172 0.000000 0.000000 0.000000
    2 0.000000 -3.947159 3.041922 0.000000 0.000000 0.000000
    3 0.000000 -1.548280 0.485224 0.000000 0.000000 0.000000
    4 0.000000 -0.980124 2.284383 0.000000 0.000000 0.000000
    5 0.000000 -2.905540 1.621535 0.000000 0.000000 0.000000
    6 -0.000001 -5.746316 1.557464 0.000000 0.000000 0.000000
    7 0.000000 -0.031565 -0.614062 0.000000 0.000000 0.000000
    8 0.000000 -0.000002 -0.824931 0.000000 0.000000 0.000000
    9 0.000000 -0.015647 -0.615740 0.000000 0.000000 0.000000
    10 -2.686428 2.537875 -5.745650 0.000000 0.000000 0.374718
    11 7.962406 -5.268363 -3.702220 0.645462 -2.312948 -1.000516
    12 7.964416 2.090506 -0.356844 1.567467 -3.119545 0.335294
    13 0.045270 -8.440141 -0.072883 -0.116008 0.738541 -0.318234
    14 -0.488518 -2.755602 -0.228260 -0.677757 0.222160 -0.237357
    15 0.039887 -1.546198 0.022041 -1.865677 -0.006771 0.041659
    16 0.028786 -1.157765 -0.124675 -1.010741 -0.015017 0.021249
    17 0.250027 -2.820665 -0.238396 -0.583312 0.207576 -0.172896
    18 -0.049759 -1.594604 0.022352 -1.674032 -0.002301 -0.044045
    19 -0.034142 -1.171750 0.045718 -1.215231 0.006076 -0.032059
    20 0.957766 -2.746780 -0.090302 0.002002 -0.079703 0.138406
    21 -0.033420 -1.397129 -0.026882 -0.920366 0.005369 -0.045183
    22 -0.022360 -0.957436 -0.000748 -0.725796 0.007394 -0.035283
    23 -1.180681 -2.507217 -0.193859 -0.486179 0.356856 -0.282099
    24 -0.024967 -1.127840 0.017597 -1.310231 -0.003476 -0.054840
    25 -0.020057 -0.906594 0.041341 -1.373954 -0.003092 -0.055632
    26 0.630386 -1.197277 0.185379 0.386032 -1.009532 -0.241400
    27 1.446081 -0.251481 0.079230 0.075511 -0.244881 -0.915391
    28 1.007018 -0.182979 0.044010 0.088023 -0.242978 -1.037980
    29 0.120153 -0.050270 -0.054489 0.287569 3.110905 1.561085
    30 -4.645902 -9.223569 -4.067814 0.734254 -3.994621 1.038556
    31 0.050068 -8.403542 0.002354 -0.227756 -0.475799 0.177880
    32 0.447953 -2.798986 -0.200443 -1.621505 0.021579 0.191197
    33 -0.032909 -1.495829 0.044004 -1.976699 0.019427 -0.042459
    34 -0.027022 -1.147235 0.022760 -2.491094 0.010654 -0.052948
    35 -0.249534 -2.846964 -0.174213 -1.330854 0.014892 0.072584
    36 0.043235 -1.656596 0.053042 -1.966328 -0.025053 0.017750
    37 0.031729 -1.137392 0.039306 -1.972466 -0.019900 0.013837
    38 -0.963866 -2.785145 -0.085350 -0.870941 0.137060 -0.077427
    39 0.028479 -1.414786 -0.028886 -1.459563 -0.047028 -0.038542
    40 0.021413 -0.942156 0.012233 -1.010874 -0.027265 -0.034492
    41 1.164475 -2.543940 -0.170330 -1.585710 -0.089600 0.357997
    42 0.024032 -1.164199 -0.009538 -1.850215 0.053008 0.071789
    43 0.014898 -0.907427 0.003590 -1.883661 0.051186 0.072711
    44 -0.586770 -1.264477 0.200161 -0.359591 -0.711281 -2.404361
    45 1.542367 0.039149 0.016848 -0.008022 -0.002304 0.476716
    46 1.110134 0.036705 -0.005766 -0.038833 -0.030783 1.369307
    47 -0.139399 -0.111698 0.014397 0.285382 -0.030687 1.580508
    48 -5.975641 6.393790 -0.372250 1.580037 -0.021871 -0.925181
  time 25
    0 4.813514 -10.798875 -5.463187 -0.038875 0.120385 -0.093402
    1 -0.025678 2.701180 0.658172 0.000000 0.000000 0.000000
    2 0.000000 -3.947159 3.041922 0.000000 0.000000 0.000000
    3 0.000000 -1.548280 0.485224 0.000000 0.000000 0.000000
    4 0.000000 -0.980124 2.284383 0.000000 0.000000 0.000000
    5 0.000000 -2.905540 1.621535 0.000000 0.000000 0.000000
    6 -0.000001 -5.746316 1.557464 0.000000 0.000000 0.000000
    7 0.000000 -0.031565 -0.614062 0.000000 0.000000 0.000000
    8 0.000000 -0.000002 -0.824931 0.000000 0.000000 0.000000
    9 0.000000 -0.015647 -0.615740 0.000000 0.000000 0.000000
    10 -2.686428 2.537875 -5.745650 0.000000 0.000000 0.374718
    11 8.067878 -5.291801 -3.663156 0.617374 -2.327620 -0.984023
    12 7.980041 1.996753 -0.356844 1.567563 -3.119258 0.323757
    13 0.045270 -8.444047 -0.068977 -0.087935 0.756943 -0.289050
    14 -0.488518 -2.755602 -0.228260 -0.677757 0.222160 -0.237357
    15 0.039887 -1.546198 0.022041 -1.865677 -0.006771 0.041659
    16 0.028786 -1.157765 -0.124675 -1.010741 -0.015017 0.021249
    17 0.250027 -2.820665 -0.238396 -0.583312 0.207576 -0.172896
    18 -0.049759 -1.594604 0.022352 -1.674032 -0.002301 -0.044045
    19 -0.034142 -1.171750 0.045718 -1.215231 0.006076 -0.032059
    20 0.957766 -2.746780 -0.090302 0.002002 -0.079703 0.138406
    21 -0.033420 -1.397129 -0.026882 -0.920366 0.005369 -0.045183
    22 -0.022360 -0.957436 -0.000748 -0.725796 0.007394 -0.035283
    23 -1.180681 -2.507217 -0.193859 -0.486179 0.356856 -0.282099
    24 -0.024967 -1.127840 0.017597 -1.310231 -0.003476 -0.054840
    25 -0.020057 -0.906594 0.041341 -1.373954 -0.003092 -0.055632
    26 0.630386 -1.197277 0.185379 0.386032 -1.009532 -0.241400
    27 1.446081 -0.251481 0.079230 0.075511 -0.244881 -0.915391
    28 1.007018 -0.182979 0.044010 0.088023 -0.242978 -1.037980
    29 0.120153 -0.050270 -0.054489 0.287569 3.110905 1.561085
    30 -4.622464 -9.231382 -4.040469 0.732777 -3.996237 1.037820
    31 0.053974 -8.407448 0.002354 -0.212034 -0.473079 0.155601
    32 0.447953 -2.798986 -0.200443 -1.606882 0.021675 0.191605
    33 -0.032909 -1.495829 0.044004 -1.957243 0.019703 -0.041980
    34 -0.027022 -1.147235 0.022760 -2.462224 0.011361 -0.052528
    35 -0.249534 -2.846964 -0.174213 -1.316860 0.015024 0.072368
    36 0.043235 -1.656596 0.053042 -1.948113 -0.025041 0.017390
    37 0.031729 -1.137392 0.039306 -1.950093 -0.019792 0.013561
    38 -0.963866 -2.785145 -0.085350 -0.861766 0.137420 -0.077211
    39 0.028479 -1.414786 -0.028886 -1.445597 -0.046392 -0.038566
    40 0.021413 -0.942156 0.012233 -1.001154 -0.026857 -0.034324
    41 1.164475 -2.543940 -0.170330 -1.573708 -0.090247 0.357817
    42 0.024032 -1.164199 -0.009538 -1.831282 0.051941 0.071765
    43 0.014898 -0.907427 0.003590 -1.863884 0.050072 0.072651
    44 -0.586770 -1.264477 0.200161 -0.358873 -0.715784 -2.404629
    45 1.542367 0.039149 0.016848 -0.007998 -0.002293 0.475588
    46 1.110134 0.036705 -0.005766 -0.038546 -0.030951 1.359061
    47 -0.139399 -0.111698 0.014397 0.285382 -0.030687 1.580508
    48 -5.932671 6.440666 -0.372250 1.580037 -0.021584 -0.933139
  time 26
    0 4.813514 -10.798875 -5.459280 -0.042672 0.118853 -0.092701
    1 -0.025678 2.701180 0.658172 0.000000 0.000000 0.000000
    2 0.000000 -3.947159 3.041922 0.000000 0.000000 0.000000
    3 0.000000 -1.548280 0.485224 0.000000 0.000000 0.000000
    4 0.000000 -0.980124 2.284383 0.000000 0.000000 0.000000
    5 0.000000 -2.905540 1.621535 0.000000 0.000000 0.000000
    6 -0.000001 -5.746316 1.557464 0.000000 0.000000 0.000000
    7 0.000000 -0.031565 -0.614062 0.000000 0.000000 0.000000
    8 0.000000 -0.000002 -0.824931 0.000000 0.000000 0.000000
    9 0.000000 -0.015647 -0.615740 0.000000 0.000000 0.000000
    10 -2.686428 2.537875 -5.745650 0.000000 0.000000 0.374718
    11 8.099129 -5.295708 -3.655343 0.609628 -2.331728 -0.979638
    12 7.983948 1.973315 -0.356844 1.567563 -3.119258 0.320590
    13 0.045270 -8.447954 -0.068977 -0.079769 0.761977 -0.280624
    14 -0.488518 -2.755602 -0.228260 -0.677757 0.222160 -0.237357
    15 0.039887 -1.546198 0.022041 -1.865677 -0.006771 0.041659
    16 0.028786 -1.157765 -0.124675 -1.010741 -0.015017 0.021249
    17 0.250027 -2.820665 -0.238396 -0.583312 0.207576 -0.172896
    18 -0.049759 -1.594604 0.022352 -1.674032 -0.002301 -0.044045
    19 -0.034142 -1.171750 0.045718 -1.215231 0.006076 -0.032059
    20 0.957766 -2.746780 -0.090302 0.002002 -0.079703 0.138406
    21 -0.033420 -1.397129 -0.026882 -0.920366 0.005369 -0.045183
    22 -0.022360 -0.957436 -0.000748 -0.725796 0.007394 -0.035283
    23 -1.180681 -2.507217 -0.193859 -0.486179 0.356856 -0.282099
    24 -0.024967 -1.127840 0.017597 -1.310231 -0.003476 -0.054840
    25 -0.020057 -0.906594 0.041341 -1.373954 -0.003092 -0.055632
    26 0.630386 -1.197277 0.185379 0.386032 -1.009532 -0.241400
    27 1.446081 -0.251481 0.079230 0.075511 -0.244881 -0.915391
    28 1.007018 -0.182979 0.044010 0.088023 -0.242978 -1.037980
    29 0.120153 -0.050270 -0.054489 0.287569 3.110905 1.561085
    30 -4.610745 -9.227476 -4.044375 0.732285 -3.996753 1.039015
    31 0.053974 -8.411355 0.002354 -0.198323 -0.473329 0.146062
    32 0.447953 -2.798986 -0.200443 -1.593479 0.021747 0.191976
    33 -0.032909 -1.495829 0.044004 -1.939465 0.019942 -0.041537
    34 -0.027022 -1.147235 0.022760 -2.435793 0.011997 -0.052121
    35 -0.249534 -2.846964 -0.174213 -1.304110 0.015143 0.072164
    36 0.043235 -1.656596 0.053042 -1.931496 -0.025041 0.017055
    37 0.031729 -1.137392 0.043213 -1.929673 -0.019696 0.013322
    38 -0.963866 -2.785145 -0.085350 -0.853368 0.137732 -0.077007
    39 0.028479 -1.414786 -0.028886 -1.432820 -0.045817 -0.038578
    40 0.021413 -0.942156 0.012233 -0.992252 -0.026486 -0.034156
    41 1.164475 -2.543940 -0.170330 -1.562714 -0.090846 0.357650
    42 0.024032 -1.164199 -0.009538 -1.813951 0.050970 0.071717
    43 0.014898 -0.907427 0.003590 -1.845823 0.049065 0.072579
    44 -0.586770 -1.264477 0.200161 -0.358208 -0.719901 -2.404898
    45 1.542367 0.039149 0.016848 -0.007974 -0.002269 0.474582
    46 1.110134 0.040611 -0.005766 -0.038282 -0.031082 1.349690
    47 -0.139399 -0.111698 0.014397 0.285382 -0.030687 1.580508
    48 -5.928765 6.444573 -0.372250 1.580037 -0.021584 -0.933318
  time 27
    0 4.813514 -10.798875 -5.463187 -0.039960 0.119955 -0.093202
    1 -0.025678 2.701180 0.658172 0.000000 0.000000 0.000000
    2 0.000000 -3.947159 3.041922 0.000000 0.000000 0.000000
    3 0.000000 -1.548280 0.485224 0.000000 0.000000 0.000000
    4 0.000000 -0.980124 2.284383 0.000000 0.000000 0.000000
    5 0.000000 -2.905540 1.621535 0.000000 0.000000 0.000000
    6 -0.000001 -5.746316 1.557464 0.000000 0.000000 0.000000
    7 0.000000 -0.031565 -0.614062 0.000000 0.000000 0.000000
    8 0.000000 -0.000002 -0.824931 0.000000 0.000000 0.000000
    9 0.000000 -0.015647 -0.615740 0.000000 0.000000 0.000000
    10 -2.686428 2.537875 -5.745650 0.000000 0.000000 0.374718
    11 8.079597 -5.291801 -3.663156 0.615134 -2.328793 -0.982784
    12 7.980041 1.988940 -0.356844 1.567563 -3.119258 0.322852
    13 0.045270 -8.444047 -0.068977 -0.085619 0.758405 -0.286655
    14 -0.488518 -2.755602 -0.228260 -0.677757 0.222160 -0.237357
    15 0.039887 -1.546198 0.022041 -1.865677 -0.006771 0.041659
    16 0.028786 -1.157765 -0.124675 -1.010741 -0.015017 0.021249
    17 0.250027 -2.820665 -0.238396 -0.583312 0.207576 -0.172896
    18 -0.049759 -1.594604 0.022352 -1.674032 -0.002301 -0.044045
    19 -0.034142 -1.171750 0.045718 -1.215231 0.006076 -0.032059
    20 0.957766 -2.746780 -0.090302 0.002002 -0.079703 0.138406
    21 -0.033420 -1.397129 -0.026882 -0.920366 0.005369 -0.045183
    22 -0.022360 -0.957436 -0.000748 -0.725796 0.007394 -0.035283
    23 -1.180681 -2.507217 -0.193859 -0.486179 0.356856 -0.282099
    24 -0.024967 -1.127840 0.017597 -1.310231 -0.003476 -0.054840
    25 -0.020057 -0.906594 0.041341 -1.373954 -0.003092 -0.055632
    26 0.630386 -1.197277 0.185379 0.386032 -1.009532 -0.241400
    27 1.446081 -0.251481 0.079230 0.075511 -0.244881 -0.915391
    28 1.007018 -0.182979 0.044010 0.088023 -0.242978 -1.037980
    29 0.120153 -0.050270 -0.054489 0.287569 3.110905 1.561085
    30 -4.610745 -9.219663 -4.063907 0.732383 -3.996478 1.041315
    31 0.053974 -8.415261 0.006260 -0.186880 -0.475500 0.145409
    32 0.447953 -2.798986 -0.200443 -1.582014 0.021819 0.192300
    33 -0.032909 -1.495829 0.040097 -1.924174 0.020146 -0.041153
    34 -0.027022 -1.147235 0.018854 -2.413103 0.012536 -0.051761
    35 -0.249534 -2.846964 -0.174213 -1.293138 0.015251 0.071985
    36 0.043235 -1.656596 0.053042 -1.917179 -0.025017 0.016779
    37 0.031729 -1.137392 0.043213 -1.912090 -0.019612 0.013106
    38 -0.963866 -2.785145 -0.085350 -0.846161 0.138007 -0.076828
    39 0.028479 -1.414786 -0.028886 -1.421847 -0.045326 -0.038590
    40 0.021413 -0.942156 0.012233 -0.984626 -0.026174 -0.034024
    41 1.164475 -2.543940 -0.170330 -1.553261 -0.091350 0.357494
    42 0.024032 -1.164199 -0.009538 -1.799054 0.050132 0.071669
    43 0.014898 -0.907427 0.003590 -1.830309 0.048190 0.072495
    44 -0.586770 -1.264477 0.200161 -0.357637 -0.723450 -2.405112
    45 1.542367 0.043056 0.016848 -0.007950 -0.002257 0.473699
    46 1.110134 0.040611 -0.005766 -0.038054 -0.031214 1.341651
    47 -0.139399 -0.111698 0.014397 0.285382 -0.030687 1.580508
    48 -5.956109 6.413322 -0.372250 1.580037 -0.021775 -0.928489
  time 28
    0 4.813514 -10.798875 -5.467093 -0.034030 0.122348 -0.094353
    1 -0.025678 2.701180 0.658172 0.000000 0.000000 0.000000
    2 0.000000 -3.947159 3.041922 0.000000 0.000000 0.000000
    3 0.000000 -1.548280 0.485224 0.000000 0.000000 0.000000
    4 0.000000 -0.980124 2.284383 0.000000 0.000000 0.000000
    5 0.000000 -2.905540 1.621535 0.000000 0.000000 0.000000
    6 -0.000001 -5.746316 1.557464 0.000000 0.000000 0.000000
    7 0.000000 -0.031565 -0.614062 0.000000 0.000000 0.000000
    8 0.000000 -0.000002 -0.824931 0.000000 0.000000 0.000000
    9 0.000000 -0.015647 -0.615740 0.000000 0.000000 0.000000
    10 -2.686428 2.537875 -5.745650 0.000000 0.000000 0.374718
    11 8.032721 -5.283988 -3.678781 0.627358 -2.322338 -0.989934
    12 7.976135 2.031911 -0.356844 1.567467 -3.119354 0.327905
    13 0.045270 -8.444047 -0.068977 -0.098234 0.750412 -0.299711
    14 -0.488518 -2.755602 -0.228260 -0.677757 0.222160 -0.237357
    15 0.039887 -1.546198 0.022041 -1.865677 -0.006771 0.041659
    16 0.028786 -1.157765 -0.124675 -1.010741 -0.015017 0.021249
    17 0.250027 -2.820665 -0.238396 -0.583312 0.207576 -0.172896
    18 -0.049759 -1.594604 0.022352 -1.674032 -0.002301 -0.044045
    19 -0.034142 -1.171750 0.045718 -1.215231 0.006076 -0.032059
    20 0.957766 -2.746780 -0.090302 0.002002 -0.079703 0.138406
    21 -0.033420 -1.397129 -0.026882 -0.920366 0.005369 -0.045183
    22 -0.022360 -0.957436 -0.000748 -0.725796 0.007394 -0.035283
    23 -1.180681 -2.507217 -0.193859 -0.486179 0.356856 -0.282099
    24 -0.024967 -1.127840 0.017597 -1.310231 -0.003476 -0.054840
    25 -0.020057 -0.906594 0.041341 -1.373954 -0.003092 -0.055632
    26 0.630386 -1.197277 0.185379 0.386032 -1.009532 -0.241400
    27 1.446081 -0.251481 0.079230 0.075523 -0.244881 -0.915391
    28 1.007018 -0.182979 0.044010 0.088023 -0.242978 -1.037980
    29 0.120153 -0.050270 -0.054489 0.287569 3.110905 1.561085
    30 -4.618558 -9.211850 -4.095158 0.732646 -3.995687 1.043706
    31 0.053974 -8.415261 0.006260 -0.178117 -0.478644 0.149688
    32 0.447953 -2.798986 -0.200443 -1.573041 0.021867 0.192551
    33 -0.032909 -1.495829 0.040097 -1.912239 0.020302 -0.040853
    34 -0.027022 -1.147235 0.018854 -2.395375 0.012943 -0.051474
    35 -0.249534 -2.846964 -0.174213 -1.284564 0.015335 0.071853
    36 0.043235 -1.656596 0.053042 -1.905994 -0.025005 0.016552
    37 0.031729 -1.137392 0.043213 -1.898351 -0.019540 0.012950
    38 -0.963866 -2.785145 -0.085350 -0.840507 0.138223 -0.076684
    39 0.028479 -1.414786 -0.028886 -1.413296 -0.044930 -0.038590
    40 0.021413 -0.942156 0.012233 -0.978669 -0.025923 -0.033916
    41 1.164475 -2.543940 -0.170330 -1.545826 -0.091745 0.357362
    42 0.024032 -1.164199 -0.009538 -1.787421 0.049484 0.071609
    43 0.014898 -0.907427 0.003590 -1.818170 0.047507 0.072423
    44 -0.586770 -1.264477 0.200161 -0.357185 -0.726229 -2.405309
    45 1.542367 0.043056 0.016848 -0.007938 -0.002245 0.473012
    46 1.110134 0.040611 -0.005766 -0.037875 -0.031298 1.335320
    47 -0.139399 -0.111698 0.014397 0.285382 -0.030687 1.580508
    48 -5.999079 6.374258 -0.372250 1.579942 -0.021871 -0.921515
  time 29
    0 4.809608 -10.794969 -5.474906 -0.028065 0.124741 -0.095453
    1 -0.025678 2.701180 0.658172 0.000000 0.000000 0.000000
    2 0.000000 -3.947159 3.041922 0.000000 0.000000 0.000000
    3 0.000000 -1.548280 0.485224 0.000000 0.000000 0.000000
    4 0.000000 -0.980124 2.284383 0.000000 0.000000 0.000000
    5 0.000000 -2.905540 1.621535 0.000000 0.000000 0.000000
    6 -0.000001 -5.746316 1.557464 0.000000 0.000000 0.000000
    7 0.000000 -0.031565 -0.614062 0.000000 0.000000 0.000000
    8 0.000000 -0.000002 -0.824931 0.000000 0.000000 0.000000
    9 0.000000 -0.015647 -0.615740 0.000000 0.000000 0.000000
    10 -2.686428 2.537875 -5.745650 0.000000 0.000000 0.374718
    11 7.985844 -5.276176 -3.694407 0.639770 -2.315882 -0.997179
    12 7.968322 2.070974 -0.356844 1.567467 -3.119449 0.332957
    13 0.045270 -8.440141 -0.072883 -0.110523 0.742283 -0.312496
    14 -0.488518 -2.755602 -0.228260 -0.677757 0.222160 -0.237357
    15 0.039887 -1.546198 0.022041 -1.865677 -0.006771 0.041659
    16 0.028786 -1.157765 -0.124675 -1.010741 -0.015017 0.021249
    17 0.250027 -2.820665 -0.238396 -0.583312 0.207576 -0.172896
    18 -0.049759 -1.594604 0.022352 -1.674032 -0.002301 -0.044045
    19 -0.034142 -1.171750 0.045718 -1.215231 0.006076 -0.032059
    20 0.957766 -2.746780 -0.090302 0.002002 -0.079703 0.138406
    21 -0.033420 -1.397129 -0.026882 -0.920366 0.005369 -0.045183
    22 -0.022360 -0.957436 -0.000748 -0.725796 0.007394 -0.035283
    23 -1.180681 -2.507217 -0.193859 -0.486179 0.356856 -0.282099
    24 -0.024967 -1.127840 0.017597 -1.310231 -0.003476 -0.054840
    25 -0.020057 -0.906594 0.041341 -1.373954 -0.003092 -0.055632
    26 0.630386 -1.197277 0.185379 0.386032 -1.009532 -0.241400
    27 1.446081 -0.251481 0.079230 0.075511 -0.244881 -0.915391
    28 1.007018 -0.182979 0.044010 0.088023 -0.242978 -1.037980
    29 0.120153 -0.050270 -0.054489 0.287569 3.110905 1.561085
    30 -4.626371 -9.204037 -4.118596 0.732712 -3.994724 1.045453
    31 0.050068 -8.415261 0.006260 -0.172499 -0.481664 0.155078
    32 0.447953 -2.798986 -0.200443 -1.567170 0.021890 0.192719
    33 -0.032909 -1.495829 0.040097 -1.904469 0.020410 -0.040650
    34 -0.027022 -1.147235 0.018854 -2.383826 0.013207 -0.051282
    35 -0.249534 -2.846964 -0.174213 -1.279011 0.015395 0.071769
    36 0.043235 -1.656596 0.053042 -1.898708 -0.024993 0.016408
    37 0.031729 -1.137392 0.043213 -1.889401 -0.019492 0.012842
    38 -0.963866 -2.785145 -0.085350 -0.836848 0.138355 -0.076600
    39 0.028479 -1.414786 -0.028886 -1.407691 -0.044679 -0.038590
    40 0.021413 -0.942156 0.012233 -0.974774 -0.025767 -0.033832
    41 1.164475 -2.543940 -0.170330 -1.541046 -0.092009 0.357290
    42 0.024032 -1.160293 -0.009538 -1.779824 0.049053 0.071573
    43 0.014898 -0.907427 -0.000316 -1.810294 0.047075 0.072375
    44 -0.586770 -1.264477 0.200161 -0.356892 -0.728014 -2.405416
    45 1.542367 0.043056 0.016848 -0.007926 -0.002245 0.472546
    46 1.110134 0.040611 -0.005766 -0.037755 -0.031358 1.331238
    47 -0.139399 -0.111698 0.014397 0.285382 -0.030687 1.580508
    48 -6.034237 6.335194 -0.376156 1.579942 -0.022063 -0.915255
  time 30
    0 4.809608 -10.794969 -5.474906 -0.025389 0.125816 -0.095954
    1 -0.025678 2.701180 0.658172 0.000000 0.000000 0.000000
    2 0.000000 -3.947159 3.041922 0.000000 0.000000 0.000000
    3 0.000000 -1.548280 0.485224 0.000000 0.000000 0.000000
    4 0.000000 -0.980124 2.284383 0.000000 0.000000 0.000000
    5 0.000000 -2.905540 1.621535 0.000000 0.000000 0.000000
    6 -0.000001 -5.746316 1.557464 0.000000 0.000000 0.000000
    7 0.000000 -0.031565 -0.614062 0.000000 0.000000 0.000000
    8 0.000000 -0.000002 -0.824931 0.000000 0.000000 0.000000
    9 0.000000 -0.015647 -0.615740 0.000000 0.000000 0.000000
    10 -2.686428 2.537875 -5.745650 0.000000 0.000000 0.374718
    11 7.962406 -5.268363 -3.702220 0.645462 -2.312948 -1.000516
    12 7.964416 2.090506 -0.356844 1.567467 -3.119545 0.335294
    13 0.045270 -8.440141 -0.072883 -0.116008 0.738541 -0.318234
    14 -0.488518 -2.755602 -0.228260 -0.677757 0.222160 -0.237357
    15 0.039887 -1.546198 0.022041 -1.865677 -0.006771 0.041659
    16 0.028786 -1.157765 -0.124675 -1.010741 -0.015017 0.021249
    17 0.250027 -2.820665 -0.238396 -0.583312 0.207576 -0.172896
    18 -0.049759 -1.594604 0.022352 -1.674032 -0.002301 -0.044045
    19 -0.034142 -1.171750 0.045718 -1.215231 0.006076 -0.032059
    20 0.957766 -2.746780 -0.090302 0.002002 -0.079703 0.138406
    21 -0.033420 -1.397129 -0.026882 -0.920366 0.005369 -0.045183
    22 -0.022360 -0.957436 -0.000748 -0.725796 0.007394 -0.035283
    23 -1.180681 -2.507217 -0.193859 -0.486179 0.356856 -0.282099
    24 -0.024967 -1.127840 0.017597 -1.310231 -0.003476 -0.054840
    25 -0.020057 -0.906594 0.041341 -1.373954 -0.003092 -0.055632
    26 0.630386 -1.197277 0.185379 0.386032 -1.009532 -0.241400
    27 1.446081 -0.251481 0.079230 0.075511 -0.244881 -0.915391
    28 1.007018 -0.182979 0.044010 0.088023 -0.242978 -1.037980
    29 0.120153 -0.050270 -0.054489 0.287569 3.110905 1.561085
    30 -4.630277 -9.200131 -4.130316 0.732187 -3.993899 1.045637
    31 0.050068 -8.415261 0.006260 -0.170386 -0.483536 0.157691
    32 0.447953 -2.798986 -0.200443 -1.565065 0.021902 0.192779
    33 -0.032909 -1.495829 0.040097 -1.901672 0.020446 -0.040578
    34 -0.027022 -1.147235 0.018854 -2.379679 0.013303 -0.051210
    35 -0.249534 -2.846964 -0.174213 -1.277011 0.015419 0.071733
    36 0.043235 -1.656596 0.053042 -1.896152 -0.024993 0.016360
    37 0.031729 -1.137392 0.043213 -1.886250 -0.019480 0.012806
    38 -0.963866 -2.785145 -0.085350 -0.835517 0.138403 -0.076564
    39 0.028479 -1.414786 -0.028886 -1.405696 -0.044595 -0.038590
    40 0.021413 -0.942156 0.012233 -0.973400 -0.025707 -0.033809
    41 1.164475 -2.543940 -0.170330 -1.539294 -0.092093 0.357254
    42 0.024032 -1.160293 -0.009538 -1.777093 0.048909 0.071561
    43 0.014898 -0.907427 -0.000316 -1.807452 0.046908 0.072351
    44 -0.586770 -1.264477 0.200161 -0.356786 -0.728663 -2.405470
    45 1.542367 0.043056 0.016848 -0.007926 -0.002245 0.472399
    46 1.110134 0.040611 -0.005766 -0.037719 -0.031382 1.329780
    47 -0.139399 -0.111698 0.014397 0.285382 -0.030687 1.580508
    48 -6.045956 6.319569 -0.376156 1.579846 -0.022158 -0.912573
end
