version 1
nodes
  0 "Bone03" -1
  1 "Bone02" 0
  2 "Bone56" 1
  3 "Bone54" 1
  4 "Bone48" 1
  5 "Bone25" 1
  6 "Bone50" 1
  7 "Bone51" 6
  8 "Bone52" 7
  9 "Bone53" 8
  10 "root" -1
  11 "Bone01" 10
  12 "Bone_L_Upper" 11
  13 "Bone_Lefthand" 11
  14 "Bone13" 13
  15 "Bone14" 14
  16 "Bone15" 15
  17 "Bone17" 13
  18 "Bone18" 17
  19 "Bone19" 18
  20 "Bone21" 13
  21 "Bone22" 20
  22 "Bone23" 21
  23 "Bone09" 13
  24 "Bone10" 23
  25 "Bone11" 24
  26 "Bone05" 13
  27 "Bone06" 26
  28 "Bone07" 27
  29 "Bone_Se_Hand-L" 13
  30 "Bone04" 10
  31 "Bone_Righthand" 30
  32 "Bone39" 31
  33 "Bone40" 32
  34 "Bone41" 33
  35 "Bone35" 31
  36 "Bone36" 35
  37 "Bone37" 36
  38 "Bone31" 31
  39 "Bone32" 38
  40 "Bone33" 39
  41 "Bone43" 31
  42 "Bone44" 41
  43 "Bone45" 42
  44 "Bone27" 31
  45 "Bone28" 44
  46 "Bone29" 45
  47 "Bone_Se_Hand-R" 31
  48 "Bone_R_Upper" 30
end
skeleton
  time 0
    0 4.809608 -10.794969 -5.474906 -0.025389 0.125816 -0.095954
    1 -0.025678 2.701180 0.658172 0.000000 0.000000 0.000000
    2 0.000000 -3.947159 3.041922 0.000000 0.000000 0.000000
    3 0.000000 -1.548280 0.485224 0.000000 0.000000 0.000000
    4 0.000000 -0.980124 2.284383 0.000000 0.000000 0.000000
    5 0.000000 -2.905540 1.621535 0.000000 0.000000 0.000000
    6 -0.000001 -5.746316 1.557464 0.000000 0.000000 0.000000
    7 0.000000 -0.031565 -0.614062 0.000000 0.000000 0.000000
    8 0.000000 -0.000002 -0.824931 0.000000 0.000000 0.000000
    9 0.000000 -0.015647 -0.615740 0.000000 0.000000 0.000000
    10 -2.686428 2.537875 -5.745650 0.000000 0.000000 0.374718
    11 7.962406 -5.268363 -3.702220 0.645462 -2.312948 -1.000516
    12 7.964416 2.090506 -0.356844 1.567467 -3.119545 0.335294
    13 0.045270 -8.440141 -0.072883 -0.116008 0.738541 -0.318234
    14 -0.488518 -2.755602 -0.228260 -0.677757 0.222160 -0.237357
    15 0.039887 -1.546198 0.022041 -1.865677 -0.006771 0.041659
    16 0.028786 -1.157765 -0.124675 -1.010741 -0.015017 0.021249
    17 0.250027 -2.820665 -0.238396 -0.583312 0.207576 -0.172896
    18 -0.049759 -1.594604 0.022352 -1.674032 -0.002301 -0.044045
    19 -0.034142 -1.171750 0.045718 -1.215231 0.006076 -0.032059
    20 0.957766 -2.746780 -0.090302 0.002002 -0.079703 0.138406
    21 -0.033420 -1.397129 -0.026882 -0.920366 0.005369 -0.045183
    22 -0.022360 -0.957436 -0.000748 -0.725796 0.007394 -0.035283
    23 -1.180681 -2.507217 -0.193859 -0.486179 0.356856 -0.282099
    24 -0.024967 -1.127840 0.017597 -1.310231 -0.003476 -0.054840
    25 -0.020057 -0.906594 0.041341 -1.373954 -0.003092 -0.055632
    26 0.630386 -1.197277 0.185379 0.386032 -1.009532 -0.241400
    27 1.446081 -0.251481 0.079230 0.075523 -0.244881 -0.915391
    28 1.007018 -0.182979 0.044010 0.088023 -0.242978 -1.037980
    29 0.120153 -0.050270 -0.054489 0.287569 3.110905 1.561085
    30 -4.630277 -9.200131 -4.130316 0.732187 -3.993899 1.045637
    31 0.050068 -8.415261 0.006260 -0.170386 -0.483536 0.157691
    32 0.447953 -2.798986 -0.200443 -1.565065 0.021902 0.192779
    33 -0.032909 -1.495829 0.040097 -1.901672 0.020446 -0.040578
    34 -0.027022 -1.147235 0.018854 -2.379679 0.013303 -0.051210
    35 -0.249534 -2.846964 -0.174213 -1.277011 0.015419 0.071733
    36 0.043235 -1.656596 0.053042 -1.896152 -0.024993 0.016360
    37 0.031729 -1.137392 0.043213 -1.886250 -0.019480 0.012806
    38 -0.963866 -2.785145 -0.085350 -0.835517 0.138403 -0.076564
    39 0.028479 -1.414786 -0.028886 -1.405696 -0.044595 -0.038590
    40 0.021413 -0.942156 0.012233 -0.973400 -0.025707 -0.033809
    41 1.164475 -2.543940 -0.170330 -1.539294 -0.092093 0.357254
    42 0.024032 -1.160293 -0.009538 -1.777093 0.048909 0.071561
    43 0.014898 -0.907427 -0.000316 -1.807452 0.046908 0.072351
    44 -0.586770 -1.264477 0.200161 -0.356786 -0.728663 -2.405470
    45 1.542367 0.043056 0.016848 -0.007926 -0.002245 0.472399
    46 1.110134 0.040611 -0.005766 -0.037719 -0.031382 1.329780
    47 -0.139399 -0.111698 0.014397 0.285382 -0.030687 1.580508
    48 -6.045956 6.319569 -0.376156 1.579846 -0.022158 -0.912573
  time 1
    0 4.950237 -9.775406 -5.576472 -0.045528 0.106028 -0.141537
    1 -0.025678 2.701180 0.658172 0.000000 0.000000 0.000000
    2 0.000000 -1.755686 3.041922 0.000000 0.000000 0.000000
    3 0.000000 -1.548280 0.485224 0.000000 0.000000 0.000000
    4 0.000000 0.129285 2.284383 0.000000 0.000000 0.000000
    5 0.000000 -2.905540 1.621535 0.574986 0.000000 0.000000
    6 -0.000001 -5.746316 1.557464 -0.124999 0.000000 0.000000
    7 0.000000 -0.031565 -0.614062 0.000000 0.000000 0.000000
    8 0.000000 -0.000002 -0.824931 0.000000 0.000000 0.000000
    9 0.000000 -0.015647 -0.615740 0.000000 0.000000 0.000000
    10 -2.686428 2.537875 -5.745650 0.000000 0.000000 0.374718
    11 8.462421 -4.537872 -4.073325 0.673271 -2.334159 -1.003281
    12 8.077701 0.609992 -0.380282 1.569577 -3.116198 0.152587
    13 0.045270 -8.428422 -0.076789 -0.189419 0.736807 -0.337614
    14 -0.488518 -2.755602 -0.228260 -0.677757 0.222160 -0.237357
    15 0.039887 -1.546198 0.022041 -1.865677 -0.006771 0.041659
    16 0.028786 -1.157765 -0.124675 -1.010741 -0.015017 0.021249
    17 0.250027 -2.820665 -0.238396 -0.583312 0.207576 -0.172896
    18 -0.049759 -1.594604 0.022352 -1.674032 -0.002301 -0.044045
    19 -0.034142 -1.171750 0.045718 -1.215231 0.006076 -0.032059
    20 0.957766 -2.746780 -0.090302 0.002002 -0.079703 0.138406
    21 -0.033420 -1.397129 -0.034695 -1.367397 -0.006759 -0.064023
    22 -0.022360 -0.957436 -0.000748 -0.814598 0.006496 -0.039669
    23 -1.180681 -2.507217 -0.193859 -0.486179 0.356856 -0.282099
    24 -0.024967 -1.127840 0.017597 -1.310231 -0.003476 -0.054840
    25 -0.020057 -0.906594 0.041341 -1.373954 -0.003092 -0.055632
    26 0.630386 -1.197277 0.185379 0.386032 -1.009532 -0.241400
    27 1.446081 -0.251481 0.079230 0.075511 -0.244881 -0.915391
    28 1.007018 -0.182979 0.044010 0.088023 -0.242978 -1.037980
    29 0.120153 -0.050270 -0.054489 0.287569 3.110905 1.561085
    30 -4.770906 -8.954030 -4.661582 0.775795 -3.946303 1.142573
    31 0.077412 -8.426980 -0.001552 -0.086882 -0.372578 0.108952
    32 0.447953 -2.798986 -0.200443 -1.565065 0.021902 0.192779
    33 -0.032909 -1.495829 0.040097 -1.901672 0.020446 -0.040578
    34 -0.027022 -1.147235 0.018854 -2.379679 0.013303 -0.051210
    35 -0.249534 -2.846964 -0.174213 -1.277011 0.015419 0.071733
    36 0.043235 -1.656596 0.053042 -1.896152 -0.024993 0.016360
    37 0.031729 -1.137392 0.043213 -1.886250 -0.019480 0.012806
    38 -0.963866 -2.785145 -0.085350 -0.835517 0.138403 -0.076564
    39 0.028479 -1.414786 -0.028886 -1.405696 -0.044595 -0.038590
    40 0.021413 -0.942156 0.012233 -0.973400 -0.025707 -0.033809
    41 1.164475 -2.543940 -0.170330 -1.539294 -0.092093 0.357254
    42 0.024032 -1.160293 -0.009538 -1.777093 0.048909 0.071561
    43 0.014898 -0.907427 -0.000316 -1.807452 0.046908 0.072351
    44 -0.586770 -1.264477 0.200161 -0.356786 -0.728663 -2.405470
    45 1.542367 0.043056 0.016848 -0.007926 -0.002245 0.472399
    46 1.110134 0.040611 -0.005766 -0.037719 -0.031382 1.329780
    47 -0.139399 -0.111698 0.014397 0.285382 -0.030687 1.580508
    48 -6.975672 5.108595 -0.407407 1.577642 -0.026562 -0.727030
  time 2
    0 4.934612 -9.623058 -5.381153 -0.109164 0.060752 -0.153596
    1 -0.025678 2.701180 0.658172 0.000000 0.000000 0.000000
    2 0.000000 -2.650244 3.041922 0.000000 0.000000 0.000000
    3 0.000000 -1.548280 0.485224 0.000000 0.000000 0.000000
    4 0.000000 -0.323854 2.284383 0.000000 0.000000 0.000000
    5 0.000000 -2.905540 1.621535 0.574986 0.000000 0.000000
    6 -0.000001 -5.746316 1.557464 -0.017737 0.000000 0.000000
    7 0.000000 -0.031565 -0.614062 0.000000 0.000000 0.000000
    8 0.000000 -0.000002 -0.824931 0.000000 0.000000 0.000000
    9 0.000000 -0.015647 -0.615740 0.000000 0.000000 0.000000
    10 -2.686428 2.537875 -5.745650 0.000000 0.000000 0.374718
    11 8.513204 -4.451932 -4.108482 0.676537 -2.337261 -1.003853
    12 8.073794 0.442018 -0.380282 1.569768 -3.115911 0.132001
    13 0.033551 -8.432328 -0.076789 -0.155374 0.709800 -0.250378
    14 -0.488518 -2.755602 -0.228260 -0.677757 0.222160 -0.237357
    15 0.039887 -1.546198 0.022041 -1.865677 -0.006771 0.041659
    16 0.028786 -1.157765 -0.124675 -1.010741 -0.015017 0.021249
    17 0.250027 -2.820665 -0.238396 -0.583312 0.207576 -0.172896
    18 -0.049759 -1.594604 0.022352 -1.674032 -0.002301 -0.044045
    19 -0.034142 -1.171750 0.045718 -1.215231 0.006076 -0.032059
    20 0.957766 -2.746780 -0.090302 0.002002 -0.079703 0.138406
    21 -0.033420 -1.397129 -0.034695 -1.420589 -0.008737 -0.065844
    22 -0.022360 -0.957436 -0.000748 -0.825173 0.006352 -0.040196
    23 -1.180681 -2.507217 -0.193859 -0.486179 0.356856 -0.282099
    24 -0.024967 -1.127840 0.017597 -1.310231 -0.003476 -0.054840
    25 -0.020057 -0.906594 0.041341 -1.373954 -0.003092 -0.055632
    26 0.630386 -1.197277 0.185379 0.386032 -1.009532 -0.241400
    27 1.446081 -0.251481 0.079230 0.075511 -0.244881 -0.915391
    28 1.007018 -0.182979 0.044010 0.088023 -0.242978 -1.037980
    29 0.120153 -0.050270 -0.054489 0.287569 3.110905 1.561085
    30 -4.767000 -8.883715 -4.727990 0.811758 -3.904278 1.205848
    31 0.061787 -8.430887 0.006260 -0.033274 -0.420844 0.159194
    32 0.447953 -2.798986 -0.200443 -1.565065 0.021902 0.192779
    33 -0.032909 -1.495829 0.040097 -1.901672 0.020446 -0.040578
    34 -0.027022 -1.147235 0.018854 -2.379679 0.013303 -0.051210
    35 -0.249534 -2.846964 -0.174213 -1.277011 0.015419 0.071733
    36 0.043235 -1.656596 0.053042 -1.896152 -0.024993 0.016360
    37 0.031729 -1.137392 0.043213 -1.886250 -0.019480 0.012806
    38 -0.963866 -2.785145 -0.085350 -0.835517 0.138403 -0.076564
    39 0.028479 -1.414786 -0.028886 -1.405696 -0.044595 -0.038590
    40 0.021413 -0.942156 0.012233 -0.973400 -0.025707 -0.033809
    41 1.164475 -2.543940 -0.170330 -1.539294 -0.092093 0.357254
    42 0.024032 -1.160293 -0.009538 -1.777093 0.048909 0.071561
    43 0.014898 -0.907427 -0.000316 -1.807452 0.046908 0.072351
    44 -0.586770 -1.264477 0.200161 -0.356786 -0.728663 -2.405470
    45 1.542367 0.043056 0.016848 -0.007926 -0.002245 0.472399
    46 1.110134 0.040611 -0.005766 -0.037719 -0.031382 1.329780
    47 -0.139399 -0.111698 0.014397 0.285382 -0.030687 1.580508
    48 -7.295994 4.553890 -0.419126 1.576397 -0.028285 -0.649504
  time 3
    0 4.907267 -9.728530 -5.248337 -0.147815 0.034216 -0.151195
    1 -0.025678 2.701180 0.658172 0.000000 0.000000 0.000000
    2 0.000000 -3.544803 3.041922 0.000000 0.000000 0.000000
    3 0.000000 -1.548280 0.485224 0.000000 0.000000 0.000000
    4 0.000000 -0.776993 2.284383 0.000000 0.000000 0.000000
    5 0.000000 -2.905540 1.621535 0.574986 0.000000 0.000000
    6 -0.000001 -5.746316 1.557464 0.089501 0.000000 0.000000
    7 0.000000 -0.031565 -0.614062 0.000000 0.000000 0.000000
    8 0.000000 -0.000002 -0.824931 0.000000 0.000000 0.000000
    9 0.000000 -0.015647 -0.615740 0.000000 0.000000 0.000000
    10 -2.686428 2.537875 -5.745650 0.000000 0.000000 0.374718
    11 8.454609 -4.545685 -4.069418 0.672897 -2.333824 -1.003281
    12 8.077701 0.629524 -0.380282 1.569481 -3.116293 0.155000
    13 0.025738 -8.440141 -0.072883 -0.120192 0.688644 -0.189345
    14 -0.488518 -2.755602 -0.228260 -0.677757 0.222160 -0.237357
    15 0.039887 -1.546198 0.022041 -1.865677 -0.006771 0.041659
    16 0.028786 -1.157765 -0.124675 -1.010741 -0.015017 0.021249
    17 0.250027 -2.820665 -0.238396 -0.583312 0.207576 -0.172896
    18 -0.049759 -1.594604 0.022352 -1.674032 -0.002301 -0.044045
    19 -0.034142 -1.171750 0.045718 -1.215231 0.006076 -0.032059
    20 0.957766 -2.746780 -0.090302 0.002002 -0.079703 0.138406
    21 -0.033420 -1.397129 -0.034695 -1.367397 -0.006759 -0.064023
    22 -0.022360 -0.957436 -0.000748 -0.814598 0.006496 -0.039669
    23 -1.180681 -2.507217 -0.193859 -0.486179 0.356856 -0.282099
    24 -0.024967 -1.127840 0.017597 -1.310231 -0.003476 -0.054840
    25 -0.020057 -0.906594 0.041341 -1.373954 -0.003092 -0.055632
    26 0.630386 -1.197277 0.185379 0.386032 -1.009532 -0.241400
    27 1.446081 -0.251481 0.079230 0.075511 -0.244881 -0.915391
    28 1.007018 -0.182979 0.044010 0.088023 -0.242978 -1.037980
    29 0.120153 -0.050270 -0.054489 0.287569 3.110905 1.561085
    30 -4.727936 -8.879809 -4.685020 0.827115 -3.884125 1.232151
    31 0.046161 -8.430887 0.017980 -0.011831 -0.486656 0.206202
    32 0.447953 -2.798986 -0.200443 -1.565065 0.021902 0.192779
    33 -0.032909 -1.495829 0.040097 -1.901672 0.020446 -0.040578
    34 -0.027022 -1.147235 0.018854 -2.379679 0.013303 -0.051210
    35 -0.249534 -2.846964 -0.174213 -1.277011 0.015419 0.071733
    36 0.043235 -1.656596 0.053042 -1.896152 -0.024993 0.016360
    37 0.031729 -1.137392 0.043213 -1.886250 -0.019480 0.012806
    38 -0.963866 -2.785145 -0.085350 -0.835517 0.138403 -0.076564
    39 0.028479 -1.414786 -0.028886 -1.405696 -0.044595 -0.038590
    40 0.021413 -0.942156 0.012233 -0.973400 -0.025707 -0.033809
    41 1.164475 -2.543940 -0.170330 -1.539294 -0.092093 0.357254
    42 0.024032 -1.160293 -0.009538 -1.777093 0.048909 0.071561
    43 0.014898 -0.907427 -0.000316 -1.807452 0.046908 0.072351
    44 -0.586770 -1.264477 0.200161 -0.356786 -0.728663 -2.405470
    45 1.542367 0.043056 0.016848 -0.007926 -0.002245 0.472399
    46 1.110134 0.040611 -0.005766 -0.037719 -0.031382 1.329780
    47 -0.139399 -0.111698 0.014397 0.285382 -0.030687 1.580508
    48 -7.370215 4.405448 -0.423032 1.576109 -0.028668 -0.629117
  time 4
    0 4.903361 -9.939474 -5.334277 -0.125398 0.047739 -0.141037
    1 -0.025678 2.701180 0.658172 0.000000 0.000000 0.000000
    2 0.000000 -3.947159 3.041922 0.000000 0.000000 0.000000
    3 0.000000 -1.548280 0.485224 0.000000 0.000000 0.000000
    4 0.000000 -0.980124 2.284383 0.000000 0.000000 0.000000
    5 0.000000 -2.905540 1.621535 0.441588 0.000000 0.000000
    6 -0.000001 -5.746316 1.557464 0.196763 0.000000 0.000000
    7 0.000000 -0.031565 -0.614062 0.000000 0.000000 0.000000
    8 0.000000 -0.000002 -0.824931 0.000000 0.000000 0.000000
    9 0.000000 -0.015647 -0.615740 0.000000 0.000000 0.000000
    10 -2.686428 2.537875 -5.745650 0.000000 0.000000 0.374718
    11 8.372575 -4.678501 -4.018636 0.664779 -2.326949 -1.000135
    12 8.077701 0.906876 -0.372470 1.569097 -3.116867 0.189460
    13 0.025738 -8.440141 -0.072883 -0.116983 0.692623 -0.207913
    14 -0.488518 -2.755602 -0.228260 -0.677757 0.222160 -0.237357
    15 0.039887 -1.546198 0.022041 -1.865677 -0.006771 0.041659
    16 0.028786 -1.157765 -0.124675 -1.010741 -0.015017 0.021249
    17 0.250027 -2.820665 -0.238396 -0.583312 0.207576 -0.172896
    18 -0.049759 -1.594604 0.022352 -1.674032 -0.002301 -0.044045
    19 -0.034142 -1.171750 0.045718 -1.215231 0.006076 -0.032059
    20 0.957766 -2.746780 -0.090302 0.002002 -0.079703 0.138406
    21 -0.033420 -1.397129 -0.034695 -1.285573 -0.003931 -0.061003
    22 -0.022360 -0.957436 -0.000748 -0.798330 0.006687 -0.038878
    23 -1.180681 -2.507217 -0.193859 -0.486179 0.356856 -0.282099
    24 -0.024967 -1.127840 0.017597 -1.310231 -0.003476 -0.054840
    25 -0.020057 -0.906594 0.041341 -1.373954 -0.003092 -0.055632
    26 0.630386 -1.197277 0.185379 0.386032 -1.009532 -0.241400
    27 1.446081 -0.251481 0.079230 0.075523 -0.244881 -0.915391
    28 1.007018 -0.182979 0.044010 0.088023 -0.242978 -1.037980
    29 0.120153 -0.050270 -0.054489 0.287569 3.110905 1.561085
    30 -4.704498 -8.860277 -4.720177 0.825966 -3.881305 1.241624
    31 0.014910 -8.423074 0.025792 -0.025491 -0.579370 0.308123
    32 0.447953 -2.798986 -0.200443 -1.565065 0.021902 0.192779
    33 -0.032909 -1.495829 0.040097 -1.901672 0.020446 -0.040578
    34 -0.027022 -1.147235 0.018854 -2.379679 0.013303 -0.051210
    35 -0.249534 -2.846964 -0.174213 -1.277011 0.015419 0.071733
    36 0.043235 -1.656596 0.053042 -1.896152 -0.024993 0.016360
    37 0.031729 -1.137392 0.043213 -1.886250 -0.019480 0.012806
    38 -0.963866 -2.785145 -0.085350 -0.835517 0.138403 -0.076564
    39 0.028479 -1.414786 -0.028886 -1.405696 -0.044595 -0.038590
    40 0.021413 -0.942156 0.012233 -0.973400 -0.025707 -0.033809
    41 1.164475 -2.543940 -0.170330 -1.539294 -0.092093 0.357254
    42 0.024032 -1.160293 -0.009538 -1.777093 0.048909 0.071561
    43 0.014898 -0.907427 -0.000316 -1.807452 0.046908 0.072351
    44 -0.586770 -1.264477 0.200161 -0.356786 -0.728663 -2.405470
    45 1.542367 0.043056 0.016848 -0.007926 -0.002245 0.472399
    46 1.110134 0.040611 -0.005766 -0.037719 -0.031382 1.329780
    47 -0.139399 -0.111698 0.014397 0.285382 -0.030687 1.580508
    48 -7.409279 4.331227 -0.426939 1.575918 -0.028859 -0.618923
  time 5
    0 4.899454 -10.209013 -5.482719 -0.084831 0.071775 -0.126376
    1 -0.025678 2.701180 0.658172 0.000000 0.000000 0.000000
    2 0.000000 -3.947159 3.041922 0.000000 0.000000 0.000000
    3 0.000000 -1.548280 0.485224 0.000000 0.000000 0.000000
    4 0.000000 -0.980124 2.284383 0.000000 0.000000 0.000000
    5 0.000000 -2.905540 1.621535 0.289783 0.000000 0.000000
    6 -0.000001 -5.746316 1.557464 0.304013 0.000000 0.000000
    7 0.000000 -0.031565 -0.614062 0.000000 0.000000 0.000000
    8 0.000000 -0.000002 -0.824931 0.000000 0.000000 0.000000
    9 0.000000 -0.015647 -0.615740 0.000000 0.000000 0.000000
    10 -2.686428 2.537875 -5.745650 0.000000 0.000000 0.374718
    11 8.259290 -4.838662 -3.952227 0.653674 -2.318230 -0.995654
    12 8.062075 1.266262 -0.368563 1.568522 -3.117632 0.233346
    13 0.029645 -8.440141 -0.072883 -0.120152 0.703133 -0.247555
    14 -0.488518 -2.755602 -0.228260 -0.677757 0.222160 -0.237357
    15 0.039887 -1.546198 0.022041 -1.865677 -0.006771 0.041659
    16 0.028786 -1.157765 -0.124675 -1.010741 -0.015017 0.021249
    17 0.250027 -2.820665 -0.238396 -0.583312 0.207576 -0.172896
    18 -0.049759 -1.594604 0.022352 -1.674032 -0.002301 -0.044045
    19 -0.034142 -1.171750 0.045718 -1.215231 0.006076 -0.032059
    20 0.957766 -2.746780 -0.090302 0.002002 -0.079703 0.138406
    21 -0.033420 -1.397129 -0.030789 -1.180590 -0.000671 -0.056820
    22 -0.022360 -0.957436 -0.000748 -0.777483 0.006915 -0.037847
    23 -1.180681 -2.507217 -0.193859 -0.486179 0.356856 -0.282099
    24 -0.024967 -1.127840 0.017597 -1.310231 -0.003476 -0.054840
    25 -0.020057 -0.906594 0.041341 -1.373954 -0.003092 -0.055632
    26 0.630386 -1.197277 0.185379 0.386032 -1.009532 -0.241400
    27 1.446081 -0.251481 0.079230 0.075511 -0.244881 -0.915391
    28 1.007018 -0.182979 0.044010 0.088023 -0.242978 -1.037980
    29 0.120153 -0.050270 -0.054489 0.287569 3.110905 1.561085
    30 -4.681060 -8.856370 -4.727990 0.821602 -3.883885 1.242544
    31 -0.016341 -8.415261 0.033605 -0.068428 -0.677151 0.437614
    32 0.447953 -2.798986 -0.200443 -1.565065 0.021902 0.192779
    33 -0.032909 -1.495829 0.040097 -1.901672 0.020446 -0.040578
    34 -0.027022 -1.147235 0.018854 -2.379679 0.013303 -0.051210
    35 -0.249534 -2.846964 -0.174213 -1.277011 0.015419 0.071733
    36 0.043235 -1.656596 0.053042 -1.896152 -0.024993 0.016360
    37 0.031729 -1.137392 0.043213 -1.886250 -0.019480 0.012806
    38 -0.963866 -2.785145 -0.085350 -0.835517 0.138403 -0.076564
    39 0.028479 -1.414786 -0.028886 -1.405696 -0.044595 -0.038590
    40 0.021413 -0.942156 0.012233 -0.973400 -0.025707 -0.033809
    41 1.164475 -2.543940 -0.170330 -1.539294 -0.092093 0.357254
    42 0.024032 -1.160293 -0.009538 -1.777093 0.048909 0.071561
    43 0.014898 -0.907427 -0.000316 -1.807452 0.046908 0.072351
    44 -0.586770 -1.264477 0.200161 -0.356786 -0.728663 -2.405470
    45 1.542367 0.043056 0.016848 -0.007926 -0.002245 0.472399
    46 1.110134 0.040611 -0.005766 -0.037719 -0.031382 1.329780
    47 -0.139399 -0.111698 0.014397 0.285382 -0.030687 1.580508
    48 -7.397560 4.346853 -0.423032 1.575918 -0.028859 -0.621516
  time 6
    0 4.883829 -10.482459 -5.650693 -0.037682 0.098419 -0.109464
    1 -0.025678 2.701180 0.658172 0.000000 0.000000 0.000000
    2 0.000000 -3.947159 3.041922 0.000000 0.000000 0.000000
    3 0.000000 -1.548280 0.485224 0.000000 0.000000 0.000000
    4 0.000000 -0.980124 2.284383 0.000000 0.000000 0.000000
    5 0.000000 -2.905540 1.621535 0.147190 0.000000 0.000000
    6 -0.000001 -5.746316 1.557464 0.218923 0.000000 0.000000
    7 0.000000 -0.031565 -0.614062 0.000000 0.000000 0.000000
    8 0.000000 -0.000002 -0.824931 0.000000 0.000000 0.000000
    9 0.000000 -0.015647 -0.615740 0.000000 0.000000 0.000000
    10 -2.686428 2.537875 -5.745650 0.000000 0.000000 0.374718
    11 8.142099 -5.002730 -3.878006 0.641729 -2.309678 -0.990506
    12 8.030824 1.633461 -0.364657 1.568043 -3.118493 0.278665
    13 0.037457 -8.436234 -0.072883 -0.127139 0.716195 -0.295532
    14 -0.488518 -2.755602 -0.228260 -0.677757 0.222160 -0.237357
    15 0.039887 -1.546198 0.022041 -1.865677 -0.006771 0.041659
    16 0.028786 -1.157765 -0.124675 -1.010741 -0.015017 0.021249
    17 0.250027 -2.820665 -0.238396 -0.583312 0.207576 -0.172896
    18 -0.049759 -1.594604 0.022352 -1.674032 -0.002301 -0.044045
    19 -0.034142 -1.171750 0.045718 -1.215231 0.006076 -0.032059
    20 0.957766 -2.746780 -0.090302 0.002002 -0.079703 0.138406
    21 -0.033420 -1.397129 -0.030789 -1.071842 0.002217 -0.052158
    22 -0.022360 -0.957436 -0.000748 -0.755877 0.007131 -0.036781
    23 -1.180681 -2.507217 -0.193859 -0.486179 0.356856 -0.282099
    24 -0.024967 -1.127840 0.017597 -1.310231 -0.003476 -0.054840
    25 -0.020057 -0.906594 0.041341 -1.373954 -0.003092 -0.055632
    26 0.630386 -1.197277 0.185379 0.386032 -1.009532 -0.241400
    27 1.446081 -0.251481 0.079230 0.075511 -0.244881 -0.915391
    28 1.007018 -0.182979 0.044010 0.088023 -0.242978 -1.037980
    29 0.120153 -0.050270 -0.054489 0.287569 3.110905 1.561085
    30 -4.692779 -8.934498 -4.661582 0.785639 -3.930655 1.174670
    31 -0.004622 -8.411355 0.029699 -0.110696 -0.634450 0.376298
    32 0.447953 -2.798986 -0.200443 -1.565065 0.021902 0.192779
    33 -0.032909 -1.495829 0.040097 -1.901672 0.020446 -0.040578
    34 -0.027022 -1.147235 0.018854 -2.379679 0.013303 -0.051210
    35 -0.249534 -2.846964 -0.174213 -1.277011 0.015419 0.071733
    36 0.043235 -1.656596 0.053042 -1.896152 -0.024993 0.016360
    37 0.031729 -1.137392 0.043213 -1.886250 -0.019480 0.012806
    38 -0.963866 -2.785145 -0.085350 -0.835517 0.138403 -0.076564
    39 0.028479 -1.414786 -0.028886 -1.405696 -0.044595 -0.038590
    40 0.021413 -0.942156 0.012233 -0.973400 -0.025707 -0.033809
    41 1.164475 -2.543940 -0.170330 -1.539294 -0.092093 0.357254
    42 0.024032 -1.160293 -0.009538 -1.777093 0.048909 0.071561
    43 0.014898 -0.907427 -0.000316 -1.807452 0.046908 0.072351
    44 -0.586770 -1.264477 0.200161 -0.356786 -0.728663 -2.405470
    45 1.542367 0.043056 0.016848 -0.007926 -0.002245 0.472399
    46 1.110134 0.040611 -0.005766 -0.037719 -0.031382 1.329780
    47 -0.139399 -0.111698 0.014397 0.285382 -0.030687 1.580508
    48 -7.069425 4.956246 -0.411313 1.577259 -0.027040 -0.705391
  time 7
    0 4.864297 -10.701216 -5.795228 0.003970 0.120950 -0.093852
    1 -0.025678 2.701180 0.658172 0.000000 0.000000 0.000000
    2 0.000000 -3.947159 3.041922 0.000000 0.000000 0.000000
    3 0.000000 -1.548280 0.485224 0.000000 0.000000 0.000000
    4 0.000000 -0.980124 2.284383 0.000000 0.000000 0.000000
    5 0.000000 -2.905540 1.621535 0.041395 0.000000 0.000000
    6 -0.000001 -5.746316 1.557464 0.133844 0.000000 0.000000
    7 0.000000 -0.031565 -0.614062 0.000000 0.000000 0.000000
    8 0.000000 -0.000002 -0.824931 0.000000 0.000000 0.000000
    9 0.000000 -0.015647 -0.615740 0.000000 0.000000 0.000000
    10 -2.686428 2.537875 -5.745650 0.000000 0.000000 0.374718
    11 8.036627 -5.139453 -3.807692 0.631464 -2.302971 -0.986025
    12 7.987854 1.945970 -0.356844 1.567563 -3.119163 0.317348
    13 0.045270 -8.436234 -0.072883 -0.134553 0.728031 -0.338699
    14 -0.488518 -2.755602 -0.228260 -0.677757 0.222160 -0.237357
    15 0.039887 -1.546198 0.022041 -1.865677 -0.006771 0.041659
    16 0.028786 -1.157765 -0.124675 -1.010741 -0.015017 0.021249
    17 0.250027 -2.820665 -0.238396 -0.583312 0.207576 -0.172896
    18 -0.049759 -1.594604 0.022352 -1.674032 -0.002301 -0.044045
    19 -0.034142 -1.171750 0.045718 -1.215231 0.006076 -0.032059
    20 0.957766 -2.746780 -0.090302 0.002002 -0.079703 0.138406
    21 -0.033420 -1.397129 -0.026882 -0.978680 0.004278 -0.047927
    22 -0.022360 -0.957436 -0.000748 -0.737358 0.007299 -0.035858
    23 -1.180681 -2.507217 -0.193859 -0.486179 0.356856 -0.282099
    24 -0.024967 -1.127840 0.017597 -1.310231 -0.003476 -0.054840
    25 -0.020057 -0.906594 0.041341 -1.373954 -0.003092 -0.055632
    26 0.630386 -1.197277 0.185379 0.386032 -1.009532 -0.241400
    27 1.446081 -0.251481 0.079230 0.075511 -0.244881 -0.915391
    28 1.007018 -0.182979 0.044010 0.088023 -0.242978 -1.037980
    29 0.120153 -0.050270 -0.054489 0.287569 3.110905 1.561085
    30 -4.688872 -9.016532 -4.567829 0.745607 -3.972611 1.105877
    31 0.011004 -8.407448 0.021886 -0.146108 -0.592048 0.306914
    32 0.447953 -2.798986 -0.200443 -1.565065 0.021902 0.192779
    33 -0.032909 -1.495829 0.040097 -1.901672 0.020446 -0.040578
    34 -0.027022 -1.147235 0.018854 -2.379679 0.013303 -0.051210
    35 -0.249534 -2.846964 -0.174213 -1.277011 0.015419 0.071733
    36 0.043235 -1.656596 0.053042 -1.896152 -0.024993 0.016360
    37 0.031729 -1.137392 0.043213 -1.886250 -0.019480 0.012806
    38 -0.963866 -2.785145 -0.085350 -0.835517 0.138403 -0.076564
    39 0.028479 -1.414786 -0.028886 -1.405696 -0.044595 -0.038590
    40 0.021413 -0.942156 0.012233 -0.973400 -0.025707 -0.033809
    41 1.164475 -2.543940 -0.170330 -1.539294 -0.092093 0.357254
    42 0.024032 -1.160293 -0.009538 -1.777093 0.048909 0.071561
    43 0.014898 -0.907427 -0.000316 -1.807452 0.046908 0.072351
    44 -0.586770 -1.264477 0.200161 -0.356786 -0.728663 -2.405470
    45 1.542367 0.043056 0.016848 -0.007926 -0.002245 0.472399
    46 1.110134 0.040611 -0.005766 -0.037719 -0.031382 1.329780
    47 -0.139399 -0.111698 0.014397 0.285382 -0.030687 1.580508
    48 -6.686600 5.538295 -0.399594 1.578504 -0.025126 -0.789980
  time 8
    0 4.844765 -10.834032 -5.865543 0.027327 0.133694 -0.084145
    1 -0.025678 2.701180 0.658172 0.000000 0.000000 0.000000
    2 0.000000 -3.947159 3.041922 0.000000 0.000000 0.000000
    3 0.000000 -1.548280 0.485224 0.000000 0.000000 0.000000
    4 0.000000 -0.980124 2.284383 0.000000 0.000000 0.000000
    5 0.000000 -2.905540 1.621535 0.000000 0.000000 0.000000
    6 -0.000001 -5.746316 1.557464 0.048753 0.000000 0.000000
    7 0.000000 -0.031565 -0.614062 0.000000 0.000000 0.000000
    8 0.000000 -0.000002 -0.824931 0.000000 0.000000 0.000000
    9 0.000000 -0.015647 -0.615740 0.000000 0.000000 0.000000
    10 -2.686428 2.537875 -5.745650 0.000000 0.000000 0.374718
    11 7.970219 -5.225393 -3.760815 0.625679 -2.299449 -0.983832
    12 7.956603 2.137383 -0.352938 1.567372 -3.119641 0.341327
    13 0.045270 -8.436234 -0.072883 -0.138149 0.735208 -0.363071
    14 -0.488518 -2.755602 -0.228260 -0.677757 0.222160 -0.237357
    15 0.039887 -1.546198 0.022041 -1.865677 -0.006771 0.041659
    16 0.028786 -1.157765 -0.124675 -1.010741 -0.015017 0.021249
    17 0.250027 -2.820665 -0.238396 -0.583312 0.207576 -0.172896
    18 -0.049759 -1.594604 0.022352 -1.674032 -0.002301 -0.044045
    19 -0.034142 -1.171750 0.045718 -1.215231 0.006076 -0.032059
    20 0.957766 -2.746780 -0.090302 0.002002 -0.079703 0.138406
    21 -0.033420 -1.397129 -0.026882 -0.920366 0.005369 -0.045183
    22 -0.022360 -0.957436 -0.000748 -0.725796 0.007394 -0.035283
    23 -1.180681 -2.507217 -0.193859 -0.486179 0.356856 -0.282099
    24 -0.024967 -1.127840 0.017597 -1.310231 -0.003476 -0.054840
    25 -0.020057 -0.906594 0.041341 -1.373954 -0.003092 -0.055632
    26 0.630386 -1.197277 0.185379 0.386032 -1.009532 -0.241400
    27 1.446081 -0.251481 0.079230 0.075523 -0.244881 -0.915391
    28 1.007018 -0.182979 0.044010 0.088023 -0.242978 -1.037980
    29 0.120153 -0.050270 -0.054489 0.287569 3.110905 1.561085
    30 -4.669341 -9.094659 -4.442825 0.709185 -4.004869 1.044901
    31 0.030536 -8.411355 0.014073 -0.167293 -0.544830 0.223123
    32 0.447953 -2.798986 -0.200443 -1.565065 0.021902 0.192779
    33 -0.032909 -1.495829 0.040097 -1.901672 0.020446 -0.040578
    34 -0.027022 -1.147235 0.018854 -2.379679 0.013303 -0.051210
    35 -0.249534 -2.846964 -0.174213 -1.277011 0.015419 0.071733
    36 0.043235 -1.656596 0.053042 -1.896152 -0.024993 0.016360
    37 0.031729 -1.137392 0.043213 -1.886250 -0.019480 0.012806
    38 -0.963866 -2.785145 -0.085350 -0.835517 0.138403 -0.076564
    39 0.028479 -1.414786 -0.028886 -1.405696 -0.044595 -0.038590
    40 0.021413 -0.942156 0.012233 -0.973400 -0.025707 -0.033809
    41 1.164475 -2.543940 -0.170330 -1.539294 -0.092093 0.357254
    42 0.024032 -1.160293 -0.009538 -1.777093 0.048909 0.071561
    43 0.014898 -0.907427 -0.000316 -1.807452 0.046908 0.072351
    44 -0.586770 -1.264477 0.200161 -0.356786 -0.728663 -2.405470
    45 1.542367 0.043056 0.016848 -0.007926 -0.002245 0.472399
    46 1.110134 0.040611 -0.005766 -0.037719 -0.031382 1.329780
    47 -0.139399 -0.111698 0.014397 0.285382 -0.030687 1.580508
    48 -6.288151 6.046123 -0.383969 1.579367 -0.023211 -0.868221
  time 9
    0 4.833046 -10.888721 -5.861637 0.033004 0.138076 -0.080743
    1 -0.025678 2.701180 0.658172 0.000000 0.000000 0.000000
    2 0.000000 -3.947159 3.041922 0.000000 0.000000 0.000000
    3 0.000000 -1.548280 0.485224 0.000000 0.000000 0.000000
    4 0.000000 -0.980124 2.284383 0.000000 0.000000 0.000000
    5 0.000000 -2.905540 1.621535 0.000000 0.000000 0.000000
    6 -0.000001 -5.746316 1.557464 -0.036325 0.000000 0.000000
    7 0.000000 -0.031565 -0.614062 0.000000 0.000000 0.000000
    8 0.000000 -0.000002 -0.824931 0.000000 0.000000 0.000000
    9 0.000000 -0.015647 -0.615740 0.000000 0.000000 0.000000
    10 -2.686428 2.537875 -5.745650 0.000000 0.000000 0.374718
    11 7.938968 -5.264457 -3.737377 0.624466 -2.298863 -0.984118
    12 7.940978 2.223323 -0.352938 1.567276 -3.119832 0.351733
    13 0.049176 -8.436234 -0.072883 -0.137458 0.738235 -0.369283
    14 -0.488518 -2.755602 -0.228260 -0.677757 0.222160 -0.237357
    15 0.039887 -1.546198 0.022041 -1.865677 -0.006771 0.041659
    16 0.028786 -1.157765 -0.124675 -1.010741 -0.015017 0.021249
    17 0.250027 -2.820665 -0.238396 -0.583312 0.207576 -0.172896
    18 -0.049759 -1.594604 0.022352 -1.674032 -0.002301 -0.044045
    19 -0.034142 -1.171750 0.045718 -1.215231 0.006076 -0.032059
    20 0.957766 -2.746780 -0.090302 0.002002 -0.079703 0.138406
    21 -0.033420 -1.397129 -0.026882 -0.894054 0.005801 -0.043925
    22 -0.022360 -0.957436 -0.000748 -0.720559 0.007430 -0.035019
    23 -1.180681 -2.507217 -0.193859 -0.486179 0.356856 -0.282099
    24 -0.024967 -1.127840 0.017597 -1.310231 -0.003476 -0.054840
    25 -0.020057 -0.906594 0.041341 -1.373954 -0.003092 -0.055632
    26 0.630386 -1.197277 0.185379 0.386032 -1.009532 -0.241400
    27 1.446081 -0.251481 0.079230 0.075523 -0.244881 -0.915391
    28 1.007018 -0.182979 0.044010 0.088023 -0.242978 -1.037980
    29 0.120153 -0.050270 -0.054489 0.287569 3.110905 1.561085
    30 -4.638090 -9.176693 -4.282664 0.678898 -4.028702 0.992755
    31 0.053974 -8.415261 0.006260 -0.178324 -0.492146 0.128487
    32 0.447953 -2.798986 -0.200443 -1.565065 0.021902 0.192779
    33 -0.032909 -1.495829 0.040097 -1.901672 0.020446 -0.040578
    34 -0.027022 -1.147235 0.018854 -2.379679 0.013303 -0.051210
    35 -0.249534 -2.846964 -0.174213 -1.277011 0.015419 0.071733
    36 0.043235 -1.656596 0.053042 -1.896152 -0.024993 0.016360
    37 0.031729 -1.137392 0.043213 -1.886250 -0.019480 0.012806
    38 -0.963866 -2.785145 -0.085350 -0.835517 0.138403 -0.076564
    39 0.028479 -1.414786 -0.028886 -1.405696 -0.044595 -0.038590
    40 0.021413 -0.942156 0.012233 -0.973400 -0.025707 -0.033809
    41 1.164475 -2.543940 -0.170330 -1.539294 -0.092093 0.357254
    42 0.024032 -1.160293 -0.009538 -1.777093 0.048909 0.071561
    43 0.014898 -0.907427 -0.000316 -1.807452 0.046908 0.072351
    44 -0.586770 -1.264477 0.200161 -0.356786 -0.728663 -2.405470
    45 1.542367 0.043056 0.016848 -0.007926 -0.002245 0.472399
    46 1.110134 0.040611 -0.005766 -0.037719 -0.031382 1.329780
    47 -0.139399 -0.111698 0.014397 0.285382 -0.030687 1.580508
    48 -5.881888 6.495356 -0.368343 1.580133 -0.021392 -0.941992
  time 10
    0 4.825233 -10.912160 -5.830386 0.031413 0.139555 -0.080092
    1 -0.025678 2.701180 0.658172 0.000000 0.000000 0.000000
    2 0.000000 -3.947159 3.041922 0.000000 0.000000 0.000000
    3 0.000000 -1.548280 0.485224 0.000000 0.000000 0.000000
    4 0.000000 -0.980124 2.284383 0.000000 0.000000 0.000000
    5 0.000000 -2.905540 1.621535 0.000000 0.000000 0.000000
    6 -0.000001 -5.746316 1.557464 -0.121416 0.000000 0.000000
    7 0.000000 -0.031565 -0.614062 0.000000 0.000000 0.000000
    8 0.000000 -0.000002 -0.824931 0.000000 0.000000 0.000000
    9 0.000000 -0.015647 -0.615740 0.000000 0.000000 0.000000
    10 -2.686428 2.537875 -5.745650 0.000000 0.000000 0.374718
    11 7.923342 -5.287895 -3.717845 0.625585 -2.299701 -0.985548
    12 7.933165 2.258480 -0.352938 1.567180 -3.119928 0.356106
    13 0.049176 -8.436234 -0.072883 -0.135366 0.739936 -0.368583
    14 -0.488518 -2.755602 -0.228260 -0.677757 0.222160 -0.237357
    15 0.039887 -1.546198 0.022041 -1.865677 -0.006771 0.041659
    16 0.028786 -1.157765 -0.124675 -1.010741 -0.015017 0.021249
    17 0.250027 -2.820665 -0.238396 -0.583312 0.207576 -0.172896
    18 -0.049759 -1.594604 0.022352 -1.674032 -0.002301 -0.044045
    19 -0.034142 -1.171750 0.045718 -1.215231 0.006076 -0.032059
    20 0.957766 -2.746780 -0.090302 0.002002 -0.079703 0.138406
    21 -0.033420 -1.397129 -0.026882 -0.881665 0.005992 -0.043337
    22 -0.022360 -0.957436 -0.000748 -0.718105 0.007454 -0.034899
    23 -1.180681 -2.507217 -0.193859 -0.486179 0.356856 -0.282099
    24 -0.024967 -1.127840 0.017597 -1.310231 -0.003476 -0.054840
    25 -0.020057 -0.906594 0.041341 -1.373954 -0.003092 -0.055632
    26 0.630386 -1.197277 0.185379 0.386032 -1.009532 -0.241400
    27 1.446081 -0.251481 0.079230 0.075511 -0.244881 -0.915391
    28 1.007018 -0.182979 0.044010 0.088023 -0.242978 -1.037980
    29 0.120153 -0.050270 -0.054489 0.287569 3.110905 1.561085
    30 -4.591213 -9.258726 -4.079533 0.649924 -4.049336 0.942448
    31 0.073506 -8.426980 -0.001552 -0.188323 -0.437640 0.029964
    32 0.447953 -2.798986 -0.200443 -1.565065 0.021902 0.192779
    33 -0.032909 -1.495829 0.040097 -1.901672 0.020446 -0.040578
    34 -0.027022 -1.147235 0.018854 -2.379679 0.013303 -0.051210
    35 -0.249534 -2.846964 -0.174213 -1.277011 0.015419 0.071733
    36 0.043235 -1.656596 0.053042 -1.896152 -0.024993 0.016360
    37 0.031729 -1.137392 0.043213 -1.886250 -0.019480 0.012806
    38 -0.963866 -2.785145 -0.085350 -0.835517 0.138403 -0.076564
    39 0.028479 -1.414786 -0.028886 -1.405696 -0.044595 -0.038590
    40 0.021413 -0.942156 0.012233 -0.973400 -0.025707 -0.033809
    41 1.164475 -2.543940 -0.170330 -1.539294 -0.092093 0.357254
    42 0.024032 -1.160293 -0.009538 -1.777093 0.048909 0.071561
    43 0.014898 -0.907427 -0.000316 -1.807452 0.046908 0.072351
    44 -0.586770 -1.264477 0.200161 -0.356786 -0.728663 -2.405470
    45 1.542367 0.043056 0.016848 -0.007926 -0.002245 0.472399
    46 1.110134 0.040611 -0.005766 -0.037719 -0.031382 1.329780
    47 -0.139399 -0.111698 0.014397 0.285382 -0.030687 1.580508
    48 -5.413124 6.932869 -0.356624 1.580804 -0.019478 -1.019607
  time 11
    0 4.817421 -10.912160 -5.775696 0.024399 0.138802 -0.081543
    1 -0.025678 2.701180 0.658172 0.000000 0.000000 0.000000
    2 0.000000 -3.947159 3.041922 0.000000 0.000000 0.000000
    3 0.000000 -1.548280 0.485224 0.000000 0.000000 0.000000
    4 0.000000 -0.980124 2.284383 0.000000 0.000000 0.000000
    5 0.000000 -2.905540 1.621535 0.000000 0.000000 0.000000
    6 -0.000001 -5.746316 1.557464 -0.088482 0.000000 0.000000
    7 0.000000 -0.031565 -0.614062 0.000000 0.000000 0.000000
    8 0.000000 -0.000002 -0.824931 0.000000 0.000000 0.000000
    9 0.000000 -0.015647 -0.615740 0.000000 0.000000 0.000000
    10 -2.686428 2.537875 -5.745650 0.000000 0.000000 0.374718
    11 7.919436 -5.295708 -3.710032 0.628292 -2.301462 -0.987932
    12 7.937071 2.254574 -0.352938 1.567180 -3.119928 0.355880
    13 0.049176 -8.436234 -0.072883 -0.132238 0.740650 -0.362755
    14 -0.488518 -2.755602 -0.228260 -0.677757 0.222160 -0.237357
    15 0.039887 -1.546198 0.022041 -1.865677 -0.006771 0.041659
    16 0.028786 -1.157765 -0.124675 -1.010741 -0.015017 0.021249
    17 0.250027 -2.820665 -0.238396 -0.583312 0.207576 -0.172896
    18 -0.049759 -1.594604 0.022352 -1.674032 -0.002301 -0.044045
    19 -0.034142 -1.171750 0.045718 -1.215231 0.006076 -0.032059
    20 0.957766 -2.746780 -0.090302 0.002002 -0.079703 0.138406
    21 -0.033420 -1.397129 -0.026882 -0.880089 0.006016 -0.043253
    22 -0.022360 -0.957436 -0.000748 -0.717776 0.007454 -0.034875
    23 -1.180681 -2.507217 -0.193859 -0.486179 0.356856 -0.282099
    24 -0.024967 -1.127840 0.017597 -1.310231 -0.003476 -0.054840
    25 -0.020057 -0.906594 0.041341 -1.373954 -0.003092 -0.055632
    26 0.630386 -1.197277 0.185379 0.386032 -1.009532 -0.241400
    27 1.446081 -0.251481 0.079230 0.075523 -0.244881 -0.915391
    28 1.007018 -0.182979 0.044010 0.088023 -0.242978 -1.037980
    29 0.120153 -0.050270 -0.054489 0.287569 3.110905 1.561085
    30 -4.602932 -9.243101 -4.106877 0.667118 -4.038778 0.964704
    31 0.065693 -8.423074 0.002354 -0.186829 -0.454237 0.066878
    32 0.447953 -2.798986 -0.200443 -1.565065 0.021902 0.192779
    33 -0.032909 -1.495829 0.040097 -1.901672 0.020446 -0.040578
    34 -0.027022 -1.147235 0.018854 -2.379679 0.013303 -0.051210
    35 -0.249534 -2.846964 -0.174213 -1.277011 0.015419 0.071733
    36 0.043235 -1.656596 0.053042 -1.896152 -0.024993 0.016360
    37 0.031729 -1.137392 0.043213 -1.886250 -0.019480 0.012806
    38 -0.963866 -2.785145 -0.085350 -0.835517 0.138403 -0.076564
    39 0.028479 -1.414786 -0.028886 -1.405696 -0.044595 -0.038590
    40 0.021413 -0.942156 0.012233 -0.973400 -0.025707 -0.033809
    41 1.164475 -2.543940 -0.170330 -1.539294 -0.092093 0.357254
    42 0.024032 -1.160293 -0.009538 -1.777093 0.048909 0.071561
    43 0.014898 -0.907427 -0.000316 -1.807452 0.046908 0.072351
    44 -0.586770 -1.264477 0.200161 -0.356786 -0.728663 -2.405470
    45 1.542367 0.043056 0.016848 -0.007926 -0.002245 0.472399
    46 1.110134 0.040611 -0.005766 -0.037719 -0.031382 1.329780
    47 -0.139399 -0.111698 0.014397 0.285382 -0.030687 1.580508
    48 -5.569379 6.792240 -0.360530 1.580612 -0.020052 -0.994301
  time 12
    0 4.813514 -10.892628 -5.709288 0.013913 0.136517 -0.084445
    1 -0.025678 2.701180 0.658172 0.000000 0.000000 0.000000
    2 0.000000 -3.947159 3.041922 0.000000 0.000000 0.000000
    3 0.000000 -1.548280 0.485224 0.000000 0.000000 0.000000
    4 0.000000 -0.980124 2.284383 0.000000 0.000000 0.000000
    5 0.000000 -2.905540 1.621535 0.000000 0.000000 0.000000
    6 -0.000001 -5.746316 1.557464 -0.055561 0.000000 0.000000
    7 0.000000 -0.031565 -0.614062 0.000000 0.000000 0.000000
    8 0.000000 -0.000002 -0.824931 0.000000 0.000000 0.000000
    9 0.000000 -0.015647 -0.615740 0.000000 0.000000 0.000000
    10 -2.686428 2.537875 -5.745650 0.000000 0.000000 0.374718
    11 7.927249 -5.295708 -3.706126 0.632024 -2.303977 -0.990792
    12 7.940978 2.227229 -0.352938 1.567276 -3.119832 0.352487
    13 0.049176 -8.436234 -0.072883 -0.128521 0.740582 -0.353516
    14 -0.488518 -2.755602 -0.228260 -0.677757 0.222160 -0.237357
    15 0.039887 -1.546198 0.022041 -1.865677 -0.006771 0.041659
    16 0.028786 -1.157765 -0.124675 -1.010741 -0.015017 0.021249
    17 0.250027 -2.820665 -0.238396 -0.583312 0.207576 -0.172896
    18 -0.049759 -1.594604 0.022352 -1.674032 -0.002301 -0.044045
    19 -0.034142 -1.171750 0.045718 -1.215231 0.006076 -0.032059
    20 0.957766 -2.746780 -0.090302 0.002002 -0.079703 0.138406
    21 -0.033420 -1.397129 -0.026882 -0.885999 0.005932 -0.043541
    22 -0.022360 -0.957436 -0.000748 -0.718965 0.007442 -0.034935
    23 -1.180681 -2.507217 -0.193859 -0.486179 0.356856 -0.282099
    24 -0.024967 -1.127840 0.017597 -1.310231 -0.003476 -0.054840
    25 -0.020057 -0.906594 0.041341 -1.373954 -0.003092 -0.055632
    26 0.630386 -1.197277 0.185379 0.386032 -1.009532 -0.241400
    27 1.446081 -0.251481 0.079230 0.075523 -0.244881 -0.915391
    28 1.007018 -0.182979 0.044010 0.088023 -0.242978 -1.037980
    29 0.120153 -0.050270 -0.054489 0.287569 3.110905 1.561085
    30 -4.618558 -9.223569 -4.134222 0.686412 -4.026191 0.989812
    31 0.061787 -8.419168 0.006260 -0.183324 -0.469186 0.102844
    32 0.447953 -2.798986 -0.200443 -1.565065 0.021902 0.192779
    33 -0.032909 -1.495829 0.040097 -1.901672 0.020446 -0.040578
    34 -0.027022 -1.147235 0.018854 -2.379679 0.013303 -0.051210
    35 -0.249534 -2.846964 -0.174213 -1.277011 0.015419 0.071733
    36 0.043235 -1.656596 0.053042 -1.896152 -0.024993 0.016360
    37 0.031729 -1.137392 0.043213 -1.886250 -0.019480 0.012806
    38 -0.963866 -2.785145 -0.085350 -0.835517 0.138403 -0.076564
    39 0.028479 -1.414786 -0.028886 -1.405696 -0.044595 -0.038590
    40 0.021413 -0.942156 0.012233 -0.973400 -0.025707 -0.033809
    41 1.164475 -2.543940 -0.170330 -1.539294 -0.092093 0.357254
    42 0.024032 -1.160293 -0.009538 -1.777093 0.048909 0.071561
    43 0.014898 -0.907427 -0.000316 -1.807452 0.046908 0.072351
    44 -0.586770 -1.264477 0.200161 -0.356786 -0.728663 -2.405470
    45 1.542367 0.043056 0.016848 -0.007926 -0.002245 0.472399
    46 1.110134 0.040611 -0.005766 -0.037719 -0.031382 1.329780
    47 -0.139399 -0.111698 0.014397 0.285382 -0.030687 1.580508
    48 -5.737353 6.635985 -0.364437 1.580421 -0.020818 -0.966403
  time 13
    0 4.813514 -10.865283 -5.635067 0.001837 0.133344 -0.087998
    1 -0.025678 2.701180 0.658172 0.000000 0.000000 0.000000
    2 0.000000 -3.947159 3.041922 0.000000 0.000000 0.000000
    3 0.000000 -1.548280 0.485224 0.000000 0.000000 0.000000
    4 0.000000 -0.980124 2.284383 0.000000 0.000000 0.000000
    5 0.000000 -2.905540 1.621535 0.000000 0.000000 0.000000
    6 -0.000001 -5.746316 1.557464 -0.022627 0.000000 0.000000
    7 0.000000 -0.031565 -0.614062 0.000000 0.000000 0.000000
    8 0.000000 -0.000002 -0.824931 0.000000 0.000000 0.000000
    9 0.000000 -0.015647 -0.615740 0.000000 0.000000 0.000000
    10 -2.686428 2.537875 -5.745650 0.000000 0.000000 0.374718
    11 7.938968 -5.287895 -3.702220 0.636224 -2.306743 -0.993843
    12 7.948790 2.188165 -0.352938 1.567276 -3.119736 0.347359
    13 0.045270 -8.436234 -0.072883 -0.124620 0.740038 -0.342697
    14 -0.488518 -2.755602 -0.228260 -0.677757 0.222160 -0.237357
    15 0.039887 -1.546198 0.022041 -1.865677 -0.006771 0.041659
    16 0.028786 -1.157765 -0.124675 -1.010741 -0.015017 0.021249
    17 0.250027 -2.820665 -0.238396 -0.583312 0.207576 -0.172896
    18 -0.049759 -1.594604 0.022352 -1.674032 -0.002301 -0.044045
    19 -0.034142 -1.171750 0.045718 -1.215231 0.006076 -0.032059
    20 0.957766 -2.746780 -0.090302 0.002002 -0.079703 0.138406
    21 -0.033420 -1.397129 -0.026882 -0.896199 0.005765 -0.044032
    22 -0.022360 -0.957436 -0.000748 -0.720989 0.007430 -0.035043
    23 -1.180681 -2.507217 -0.193859 -0.486179 0.356856 -0.282099
    24 -0.024967 -1.127840 0.017597 -1.310231 -0.003476 -0.054840
    25 -0.020057 -0.906594 0.041341 -1.373954 -0.003092 -0.055632
    26 0.630386 -1.197277 0.185379 0.386032 -1.009532 -0.241400
    27 1.446081 -0.251481 0.079230 0.075523 -0.244881 -0.915391
    28 1.007018 -0.182979 0.044010 0.088023 -0.242978 -1.037980
    29 0.120153 -0.050270 -0.054489 0.287569 3.110905 1.561085
    30 -4.630277 -9.204037 -4.161566 0.705871 -4.012538 1.015655
    31 0.053974 -8.415261 0.006260 -0.178633 -0.483561 0.138026
    32 0.447953 -2.798986 -0.200443 -1.565065 0.021902 0.192779
    33 -0.032909 -1.495829 0.040097 -1.901672 0.020446 -0.040578
    34 -0.027022 -1.147235 0.018854 -2.379679 0.013303 -0.051210
    35 -0.249534 -2.846964 -0.174213 -1.277011 0.015419 0.071733
    36 0.043235 -1.656596 0.053042 -1.896152 -0.024993 0.016360
    37 0.031729 -1.137392 0.043213 -1.886250 -0.019480 0.012806
    38 -0.963866 -2.785145 -0.085350 -0.835517 0.138403 -0.076564
    39 0.028479 -1.414786 -0.028886 -1.405696 -0.044595 -0.038590
    40 0.021413 -0.942156 0.012233 -0.973400 -0.025707 -0.033809
    41 1.164475 -2.543940 -0.170330 -1.539294 -0.092093 0.357254
    42 0.024032 -1.160293 -0.009538 -1.777093 0.048909 0.071561
    43 0.014898 -0.907427 -0.000316 -1.807452 0.046908 0.072351
    44 -0.586770 -1.264477 0.200161 -0.356786 -0.728663 -2.405470
    45 1.542367 0.043056 0.016848 -0.007926 -0.002245 0.472399
    46 1.110134 0.040611 -0.005766 -0.037719 -0.031382 1.329780
    47 -0.139399 -0.111698 0.014397 0.285382 -0.030687 1.580508
    48 -5.905326 6.468011 -0.372250 1.580133 -0.021488 -0.937699
  time 14
    0 4.809608 -10.834032 -5.564752 -0.010022 0.130010 -0.091551
    1 -0.025678 2.701180 0.658172 0.000000 0.000000 0.000000
    2 0.000000 -3.947159 3.041922 0.000000 0.000000 0.000000
    3 0.000000 -1.548280 0.485224 0.000000 0.000000 0.000000
    4 0.000000 -0.980124 2.284383 0.000000 0.000000 0.000000
    5 0.000000 -2.905540 1.621535 0.000000 0.000000 0.000000
    6 -0.000001 -5.746316 1.557464 0.010283 0.000000 0.000000
    7 0.000000 -0.031565 -0.614062 0.000000 0.000000 0.000000
    8 0.000000 -0.000002 -0.824931 0.000000 0.000000 0.000000
    9 0.000000 -0.015647 -0.615740 0.000000 0.000000 0.000000
    10 -2.686428 2.537875 -5.745650 0.000000 0.000000 0.374718
    11 7.950687 -5.280082 -3.706126 0.640236 -2.309343 -0.996703
    12 7.956603 2.141289 -0.352938 1.567372 -3.119641 0.341855
    13 0.045270 -8.436234 -0.072883 -0.120964 0.739290 -0.332035
    14 -0.488518 -2.755602 -0.228260 -0.677757 0.222160 -0.237357
    15 0.039887 -1.546198 0.022041 -1.865677 -0.006771 0.041659
    16 0.028786 -1.157765 -0.124675 -1.010741 -0.015017 0.021249
    17 0.250027 -2.820665 -0.238396 -0.583312 0.207576 -0.172896
    18 -0.049759 -1.594604 0.022352 -1.674032 -0.002301 -0.044045
    19 -0.034142 -1.171750 0.045718 -1.215231 0.006076 -0.032059
    20 0.957766 -2.746780 -0.090302 0.002002 -0.079703 0.138406
    21 -0.033420 -1.397129 -0.026882 -0.907494 0.005585 -0.044572
    22 -0.022360 -0.957436 -0.000748 -0.723216 0.007418 -0.035151
    23 -1.180681 -2.507217 -0.193859 -0.486179 0.356856 -0.282099
    24 -0.024967 -1.127840 0.017597 -1.310231 -0.003476 -0.054840
    25 -0.020057 -0.906594 0.041341 -1.373954 -0.003092 -0.055632
    26 0.630386 -1.197277 0.185379 0.386032 -1.009532 -0.241400
    27 1.446081 -0.251481 0.079230 0.075523 -0.244881 -0.915391
    28 1.007018 -0.182979 0.044010 0.088023 -0.242978 -1.037980
    29 0.120153 -0.050270 -0.054489 0.287569 3.110905 1.561085
    30 -4.638090 -9.184505 -4.185005 0.724016 -3.998851 1.040395
    31 0.046161 -8.411355 0.010167 -0.173685 -0.498310 0.172751
    32 0.447953 -2.798986 -0.200443 -1.565065 0.021902 0.192779
    33 -0.032909 -1.495829 0.040097 -1.901672 0.020446 -0.040578
    34 -0.027022 -1.147235 0.018854 -2.379679 0.013303 -0.051210
    35 -0.249534 -2.846964 -0.174213 -1.277011 0.015419 0.071733
    36 0.043235 -1.656596 0.053042 -1.896152 -0.024993 0.016360
    37 0.031729 -1.137392 0.043213 -1.886250 -0.019480 0.012806
    38 -0.963866 -2.785145 -0.085350 -0.835517 0.138403 -0.076564
    39 0.028479 -1.414786 -0.028886 -1.405696 -0.044595 -0.038590
    40 0.021413 -0.942156 0.012233 -0.973400 -0.025707 -0.033809
    41 1.164475 -2.543940 -0.170330 -1.539294 -0.092093 0.357254
    42 0.024032 -1.160293 -0.009538 -1.777093 0.048909 0.071561
    43 0.014898 -0.907427 -0.000316 -1.807452 0.046908 0.072351
    44 -0.586770 -1.264477 0.200161 -0.356786 -0.728663 -2.405470
    45 1.542367 0.043056 0.016848 -0.007926 -0.002245 0.472399
    46 1.110134 0.040611 -0.005766 -0.037719 -0.031382 1.329780
    47 -0.139399 -0.111698 0.014397 0.285382 -0.030687 1.580508
    48 -6.065488 6.300037 -0.376156 1.579846 -0.022254 -0.909622
  time 15
    0 4.809608 -10.806688 -5.510063 -0.019712 0.127214 -0.094403
    1 -0.025678 2.701180 0.658172 0.000000 0.000000 0.000000
    2 0.000000 -3.947159 3.041922 0.000000 0.000000 0.000000
    3 0.000000 -1.548280 0.485224 0.000000 0.000000 0.000000
    4 0.000000 -0.980124 2.284383 0.000000 0.000000 0.000000
    5 0.000000 -2.905540 1.621535 0.000000 0.000000 0.000000
    6 -0.000001 -5.746316 1.557464 0.043216 0.000000 0.000000
    7 0.000000 -0.031565 -0.614062 0.000000 0.000000 0.000000
    8 0.000000 -0.000002 -0.824931 0.000000 0.000000 0.000000
    9 0.000000 -0.015647 -0.615740 0.000000 0.000000 0.000000
    10 -2.686428 2.537875 -5.745650 0.000000 0.000000 0.374718
    11 7.958500 -5.272269 -3.706126 0.643502 -2.311606 -0.999086
    12 7.960510 2.106132 -0.352938 1.567372 -3.119545 0.337330
    13 0.045270 -8.440141 -0.072883 -0.117958 0.738711 -0.323293
    14 -0.488518 -2.755602 -0.228260 -0.677757 0.222160 -0.237357
    15 0.039887 -1.546198 0.022041 -1.865677 -0.006771 0.041659
    16 0.028786 -1.157765 -0.124675 -1.010741 -0.015017 0.021249
    17 0.250027 -2.820665 -0.238396 -0.583312 0.207576 -0.172896
    18 -0.049759 -1.594604 0.022352 -1.674032 -0.002301 -0.044045
    19 -0.034142 -1.171750 0.045718 -1.215231 0.006076 -0.032059
    20 0.957766 -2.746780 -0.090302 0.002002 -0.079703 0.138406
    21 -0.033420 -1.397129 -0.026882 -0.916601 0.005429 -0.045003
    22 -0.022360 -0.957436 -0.000748 -0.725037 0.007394 -0.035247
    23 -1.180681 -2.507217 -0.193859 -0.486179 0.356856 -0.282099
    24 -0.024967 -1.127840 0.017597 -1.310231 -0.003476 -0.054840
    25 -0.020057 -0.906594 0.041341 -1.373954 -0.003092 -0.055632
    26 0.630386 -1.197277 0.185379 0.386032 -1.009532 -0.241400
    27 1.446081 -0.251481 0.079230 0.075511 -0.244881 -0.915391
    28 1.007018 -0.182979 0.044010 0.088023 -0.242978 -1.037980
    29 0.120153 -0.050270 -0.054489 0.287569 3.110905 1.561085
    30 -4.645902 -9.164974 -4.212349 0.739602 -3.986195 1.062560
    31 0.038348 -8.411355 0.010167 -0.169612 -0.514383 0.207607
    32 0.447953 -2.798986 -0.200443 -1.565065 0.021902 0.192779
    33 -0.032909 -1.495829 0.040097 -1.901672 0.020446 -0.040578
    34 -0.027022 -1.147235 0.018854 -2.379679 0.013303 -0.051210
    35 -0.249534 -2.846964 -0.174213 -1.277011 0.015419 0.071733
    36 0.043235 -1.656596 0.053042 -1.896152 -0.024993 0.016360
    37 0.031729 -1.137392 0.043213 -1.886250 -0.019480 0.012806
    38 -0.963866 -2.785145 -0.085350 -0.835517 0.138403 -0.076564
    39 0.028479 -1.414786 -0.028886 -1.405696 -0.044595 -0.038590
    40 0.021413 -0.942156 0.012233 -0.973400 -0.025707 -0.033809
    41 1.164475 -2.543940 -0.170330 -1.539294 -0.092093 0.357254
    42 0.024032 -1.160293 -0.009538 -1.777093 0.048909 0.071561
    43 0.014898 -0.907427 -0.000316 -1.807452 0.046908 0.072351
    44 -0.586770 -1.264477 0.200161 -0.356786 -0.728663 -2.405470
    45 1.542367 0.043056 0.016848 -0.007926 -0.002245 0.472399
    46 1.110134 0.040611 -0.005766 -0.037719 -0.031382 1.329780
    47 -0.139399 -0.111698 0.014397 0.285382 -0.030687 1.580508
    48 -6.206117 6.143782 -0.380062 1.579558 -0.022828 -0.883691
  time 16
    0 4.809608 -10.794969 -5.474906 -0.025389 0.125816 -0.095954
    1 -0.025678 2.701180 0.658172 0.000000 0.000000 0.000000
    2 0.000000 -3.947159 3.041922 0.000000 0.000000 0.000000
    3 0.000000 -1.548280 0.485224 0.000000 0.000000 0.000000
    4 0.000000 -0.980124 2.284383 0.000000 0.000000 0.000000
    5 0.000000 -2.905540 1.621535 0.000000 0.000000 0.000000
    6 -0.000001 -5.746316 1.557464 0.030381 0.000000 0.000000
    7 0.000000 -0.031565 -0.614062 0.000000 0.000000 0.000000
    8 0.000000 -0.000002 -0.824931 0.000000 0.000000 0.000000
    9 0.000000 -0.015647 -0.615740 0.000000 0.000000 0.000000
    10 -2.686428 2.537875 -5.745650 0.000000 0.000000 0.374718
    11 7.962406 -5.268363 -3.702220 0.645462 -2.312948 -1.000516
    12 7.964416 2.090506 -0.356844 1.567467 -3.119545 0.335294
    13 0.045270 -8.440141 -0.072883 -0.116008 0.738541 -0.318234
    14 -0.488518 -2.755602 -0.228260 -0.677757 0.222160 -0.237357
    15 0.039887 -1.546198 0.022041 -1.865677 -0.006771 0.041659
    16 0.028786 -1.157765 -0.124675 -1.010741 -0.015017 0.021249
    17 0.250027 -2.820665 -0.238396 -0.583312 0.207576 -0.172896
    18 -0.049759 -1.594604 0.022352 -1.674032 -0.002301 -0.044045
    19 -0.034142 -1.171750 0.045718 -1.215231 0.006076 -0.032059
    20 0.957766 -2.746780 -0.090302 0.002002 -0.079703 0.138406
    21 -0.033420 -1.397129 -0.026882 -0.920366 0.005369 -0.045183
    22 -0.022360 -0.957436 -0.000748 -0.725796 0.007394 -0.035283
    23 -1.180681 -2.507217 -0.193859 -0.486179 0.356856 -0.282099
    24 -0.024967 -1.127840 0.017597 -1.310231 -0.003476 -0.054840
    25 -0.020057 -0.906594 0.041341 -1.373954 -0.003092 -0.055632
    26 0.630386 -1.197277 0.185379 0.386032 -1.009532 -0.241400
    27 1.446081 -0.251481 0.079230 0.075523 -0.244881 -0.915391
    28 1.007018 -0.182979 0.044010 0.088023 -0.242978 -1.037980
    29 0.120153 -0.050270 -0.054489 0.287569 3.110905 1.561085
    30 -4.638090 -9.180599 -4.177192 0.740193 -3.986574 1.059984
    31 0.042255 -8.411355 0.010167 -0.168891 -0.503027 0.191828
    32 0.447953 -2.798986 -0.200443 -1.565065 0.021902 0.192779
    33 -0.032909 -1.495829 0.040097 -1.901672 0.020446 -0.040578
    34 -0.027022 -1.147235 0.018854 -2.379679 0.013303 -0.051210
    35 -0.249534 -2.846964 -0.174213 -1.277011 0.015419 0.071733
    36 0.043235 -1.656596 0.053042 -1.896152 -0.024993 0.016360
    37 0.031729 -1.137392 0.043213 -1.886250 -0.019480 0.012806
    38 -0.963866 -2.785145 -0.085350 -0.835517 0.138403 -0.076564
    39 0.028479 -1.414786 -0.028886 -1.405696 -0.044595 -0.038590
    40 0.021413 -0.942156 0.012233 -0.973400 -0.025707 -0.033809
    41 1.164475 -2.543940 -0.170330 -1.539294 -0.092093 0.357254
    42 0.024032 -1.160293 -0.009538 -1.777093 0.048909 0.071561
    43 0.014898 -0.907427 -0.000316 -1.807452 0.046908 0.072351
    44 -0.586770 -1.264477 0.200161 -0.356786 -0.728663 -2.405470
    45 1.542367 0.043056 0.016848 -0.007926 -0.002245 0.472399
    46 1.110134 0.040611 -0.005766 -0.037719 -0.031382 1.329780
    47 -0.139399 -0.111698 0.014397 0.285382 -0.030687 1.580508
    48 -6.163147 6.190659 -0.380062 1.579654 -0.022637 -0.891381
  time 17
    0 4.805701 -10.791062 -5.459280 -0.027811 0.125440 -0.096504
    1 -0.025678 2.701180 0.658172 0.000000 0.000000 0.000000
    2 0.000000 -3.947159 3.041922 0.000000 0.000000 0.000000
    3 0.000000 -1.548280 0.485224 0.000000 0.000000 0.000000
    4 0.000000 -0.980124 2.284383 0.000000 0.000000 0.000000
    5 0.000000 -2.905540 1.621535 0.000000 0.000000 0.000000
    6 -0.000001 -5.746316 1.557464 0.016203 0.000000 0.000000
    7 0.000000 -0.031565 -0.614062 0.000000 0.000000 0.000000
    8 0.000000 -0.000002 -0.824931 0.000000 0.000000 0.000000
    9 0.000000 -0.015647 -0.615740 0.000000 0.000000 0.000000
    10 -2.686428 2.537875 -5.745650 0.000000 0.000000 0.374718
    11 7.962406 -5.272269 -3.702220 0.646302 -2.313534 -1.001279
    12 7.964416 2.086600 -0.356844 1.567467 -3.119545 0.334993
    13 0.045270 -8.440141 -0.072883 -0.114972 0.738677 -0.316156
    14 -0.488518 -2.755602 -0.228260 -0.677757 0.222160 -0.237357
    15 0.039887 -1.546198 0.022041 -1.865677 -0.006771 0.041659
    16 0.028786 -1.157765 -0.124675 -1.010741 -0.015017 0.021249
    17 0.250027 -2.820665 -0.238396 -0.583312 0.207576 -0.172896
    18 -0.049759 -1.594604 0.022352 -1.674032 -0.002301 -0.044045
    19 -0.034142 -1.171750 0.045718 -1.215231 0.006076 -0.032059
    20 0.957766 -2.746780 -0.090302 0.002002 -0.079703 0.138406
    21 -0.033420 -1.397129 -0.026882 -0.920366 0.005369 -0.045183
    22 -0.022360 -0.957436 -0.000748 -0.725796 0.007394 -0.035283
    23 -1.180681 -2.507217 -0.193859 -0.486179 0.356856 -0.282099
    24 -0.024967 -1.127840 0.017597 -1.310231 -0.003476 -0.054840
    25 -0.020057 -0.906594 0.041341 -1.373954 -0.003092 -0.055632
    26 0.630386 -1.197277 0.185379 0.386032 -1.009532 -0.241400
    27 1.446081 -0.251481 0.079230 0.075523 -0.244881 -0.915391
    28 1.007018 -0.182979 0.044010 0.088023 -0.242978 -1.037980
    29 0.120153 -0.050270 -0.054489 0.287569 3.110905 1.561085
    30 -4.634183 -9.192318 -4.142035 0.738159 -3.988947 1.054466
    31 0.046161 -8.411355 0.010167 -0.169664 -0.492520 0.175397
    32 0.447953 -2.798986 -0.200443 -1.565065 0.021902 0.192779
    33 -0.032909 -1.495829 0.040097 -1.901672 0.020446 -0.040578
    34 -0.027022 -1.147235 0.018854 -2.379679 0.013303 -0.051210
    35 -0.249534 -2.846964 -0.174213 -1.277011 0.015419 0.071733
    36 0.043235 -1.656596 0.053042 -1.896152 -0.024993 0.016360
    37 0.031729 -1.137392 0.043213 -1.886250 -0.019480 0.012806
    38 -0.963866 -2.785145 -0.085350 -0.835517 0.138403 -0.076564
    39 0.028479 -1.414786 -0.028886 -1.405696 -0.044595 -0.038590
    40 0.021413 -0.942156 0.012233 -0.973400 -0.025707 -0.033809
    41 1.164475 -2.543940 -0.170330 -1.539294 -0.092093 0.357254
    42 0.024032 -1.160293 -0.009538 -1.777093 0.048909 0.071561
    43 0.014898 -0.907427 -0.000316 -1.807452 0.046908 0.072351
    44 -0.586770 -1.264477 0.200161 -0.356786 -0.728663 -2.405470
    45 1.542367 0.043056 0.016848 -0.007926 -0.002245 0.472399
    46 1.110134 0.040611 -0.005766 -0.037719 -0.031382 1.329780
    47 -0.139399 -0.111698 0.014397 0.285382 -0.030687 1.580508
    48 -6.108458 6.253161 -0.376156 1.579750 -0.022445 -0.901664
  time 18
    0 4.805701 -10.791062 -5.447561 -0.029113 0.125251 -0.096754
    1 -0.025678 2.701180 0.658172 0.000000 0.000000 0.000000
    2 0.000000 -3.947159 3.041922 0.000000 0.000000 0.000000
    3 0.000000 -1.548280 0.485224 0.000000 0.000000 0.000000
    4 0.000000 -0.980124 2.284383 0.000000 0.000000 0.000000
    5 0.000000 -2.905540 1.621535 0.000000 0.000000 0.000000
    6 -0.000001 -5.746316 1.557464 0.004722 0.000000 0.000000
    7 0.000000 -0.031565 -0.614062 0.000000 0.000000 0.000000
    8 0.000000 -0.000002 -0.824931 0.000000 0.000000 0.000000
    9 0.000000 -0.015647 -0.615740 0.000000 0.000000 0.000000
    10 -2.686428 2.537875 -5.745650 0.000000 0.000000 0.374718
    11 7.962406 -5.272269 -3.698313 0.646862 -2.313870 -1.001755
    12 7.964416 2.086600 -0.356844 1.567467 -3.119545 0.334842
    13 0.045270 -8.440141 -0.072883 -0.114423 0.738746 -0.315026
    14 -0.488518 -2.755602 -0.228260 -0.677757 0.222160 -0.237357
    15 0.039887 -1.546198 0.022041 -1.865677 -0.006771 0.041659
    16 0.028786 -1.157765 -0.124675 -1.010741 -0.015017 0.021249
    17 0.250027 -2.820665 -0.238396 -0.583312 0.207576 -0.172896
    18 -0.049759 -1.594604 0.022352 -1.674032 -0.002301 -0.044045
    19 -0.034142 -1.171750 0.045718 -1.215231 0.006076 -0.032059
    20 0.957766 -2.746780 -0.090302 0.002002 -0.079703 0.138406
    21 -0.033420 -1.397129 -0.026882 -0.920366 0.005369 -0.045183
    22 -0.022360 -0.957436 -0.000748 -0.725796 0.007394 -0.035283
    23 -1.180681 -2.507217 -0.193859 -0.486179 0.356856 -0.282099
    24 -0.024967 -1.127840 0.017597 -1.310231 -0.003476 -0.054840
    25 -0.020057 -0.906594 0.041341 -1.373954 -0.003092 -0.055632
    26 0.630386 -1.197277 0.185379 0.386032 -1.009532 -0.241400
    27 1.446081 -0.251481 0.079230 0.075511 -0.244881 -0.915391
    28 1.007018 -0.182979 0.044010 0.088023 -0.242978 -1.037980
    29 0.120153 -0.050270 -0.054489 0.287569 3.110905 1.561085
    30 -4.630277 -9.200131 -4.118596 0.735993 -3.991182 1.049592
    31 0.050068 -8.415261 0.006260 -0.170283 -0.484434 0.162265
    32 0.447953 -2.798986 -0.200443 -1.565065 0.021902 0.192779
    33 -0.032909 -1.495829 0.040097 -1.901672 0.020446 -0.040578
    34 -0.027022 -1.147235 0.018854 -2.379679 0.013303 -0.051210
    35 -0.249534 -2.846964 -0.174213 -1.277011 0.015419 0.071733
    36 0.043235 -1.656596 0.053042 -1.896152 -0.024993 0.016360
    37 0.031729 -1.137392 0.043213 -1.886250 -0.019480 0.012806
    38 -0.963866 -2.785145 -0.085350 -0.835517 0.138403 -0.076564
    39 0.028479 -1.414786 -0.028886 -1.405696 -0.044595 -0.038590
    40 0.021413 -0.942156 0.012233 -0.973400 -0.025707 -0.033809
    41 1.164475 -2.543940 -0.170330 -1.539294 -0.092093 0.357254
    42 0.024032 -1.160293 -0.009538 -1.777093 0.048909 0.071561
    43 0.014898 -0.907427 -0.000316 -1.807452 0.046908 0.072351
    44 -0.586770 -1.264477 0.200161 -0.356786 -0.728663 -2.405470
    45 1.542367 0.043056 0.016848 -0.007926 -0.002245 0.472399
    46 1.110134 0.040611 -0.005766 -0.037719 -0.031382 1.329780
    47 -0.139399 -0.111698 0.014397 0.285382 -0.030687 1.580508
    48 -6.061581 6.303944 -0.376156 1.579846 -0.022158 -0.910069
  time 19
    0 4.805701 -10.791062 -5.447561 -0.029511 0.125198 -0.096854
    1 -0.025678 2.701180 0.658172 0.000000 0.000000 0.000000
    2 0.000000 -3.947159 3.041922 0.000000 0.000000 0.000000
    3 0.000000 -1.548280 0.485224 0.000000 0.000000 0.000000
    4 0.000000 -0.980124 2.284383 0.000000 0.000000 0.000000
    5 0.000000 -2.905540 1.621535 0.000000 0.000000 0.000000
    6 -0.000001 -5.746316 1.557464 0.000000 0.000000 0.000000
    7 0.000000 -0.031565 -0.614062 0.000000 0.000000 0.000000
    8 0.000000 -0.000002 -0.824931 0.000000 0.000000 0.000000
    9 0.000000 -0.015647 -0.615740 0.000000 0.000000 0.000000
    10 -2.686428 2.537875 -5.745650 0.000000 0.000000 0.374718
    11 7.962406 -5.272269 -3.698313 0.646955 -2.314038 -1.001851
    12 7.964416 2.086600 -0.356844 1.567467 -3.119545 0.334842
    13 0.045270 -8.440141 -0.072883 -0.114261 0.738780 -0.314710
    14 -0.488518 -2.755602 -0.228260 -0.677757 0.222160 -0.237357
    15 0.039887 -1.546198 0.022041 -1.865677 -0.006771 0.041659
    16 0.028786 -1.157765 -0.124675 -1.010741 -0.015017 0.021249
    17 0.250027 -2.820665 -0.238396 -0.583312 0.207576 -0.172896
    18 -0.049759 -1.594604 0.022352 -1.674032 -0.002301 -0.044045
    19 -0.034142 -1.171750 0.045718 -1.215231 0.006076 -0.032059
    20 0.957766 -2.746780 -0.090302 0.002002 -0.079703 0.138406
    21 -0.033420 -1.397129 -0.026882 -0.920366 0.005369 -0.045183
    22 -0.022360 -0.957436 -0.000748 -0.725796 0.007394 -0.035283
    23 -1.180681 -2.507217 -0.193859 -0.486179 0.356856 -0.282099
    24 -0.024967 -1.127840 0.017597 -1.310231 -0.003476 -0.054840
    25 -0.020057 -0.906594 0.041341 -1.373954 -0.003092 -0.055632
    26 0.630386 -1.197277 0.185379 0.386032 -1.009532 -0.241400
    27 1.446081 -0.251481 0.079230 0.075511 -0.244881 -0.915391
    28 1.007018 -0.182979 0.044010 0.088023 -0.242978 -1.037980
    29 0.120153 -0.050270 -0.054489 0.287569 3.110905 1.561085
    30 -4.630277 -9.204037 -4.110784 0.735009 -3.992145 1.047569
    31 0.050068 -8.415261 0.006260 -0.170592 -0.481190 0.156875
    32 0.447953 -2.798986 -0.200443 -1.565065 0.021902 0.192779
    33 -0.032909 -1.495829 0.040097 -1.901672 0.020446 -0.040578
    34 -0.027022 -1.147235 0.018854 -2.379679 0.013303 -0.051210
    35 -0.249534 -2.846964 -0.174213 -1.277011 0.015419 0.071733
    36 0.043235 -1.656596 0.053042 -1.896152 -0.024993 0.016360
    37 0.031729 -1.137392 0.043213 -1.886250 -0.019480 0.012806
    38 -0.963866 -2.785145 -0.085350 -0.835517 0.138403 -0.076564
    39 0.028479 -1.414786 -0.028886 -1.405696 -0.044595 -0.038590
    40 0.021413 -0.942156 0.012233 -0.973400 -0.025707 -0.033809
    41 1.164475 -2.543940 -0.170330 -1.539294 -0.092093 0.357254
    42 0.024032 -1.160293 -0.009538 -1.777093 0.048909 0.071561
    43 0.014898 -0.907427 -0.000316 -1.807452 0.046908 0.072351
    44 -0.586770 -1.264477 0.200161 -0.356786 -0.728663 -2.405470
    45 1.542367 0.043056 0.016848 -0.007926 -0.002245 0.472399
    46 1.110134 0.040611 -0.005766 -0.037719 -0.031382 1.329780
    47 -0.139399 -0.111698 0.014397 0.285382 -0.030687 1.580508
    48 -6.042049 6.323475 -0.376156 1.579846 -0.022158 -0.913557
  time 20
    0 4.805701 -10.791062 -5.447561 -0.029185 0.125225 -0.096804
    1 -0.025678 2.701180 0.658172 0.000000 0.000000 0.000000
    2 0.000000 -3.947159 3.041922 0.000000 0.000000 0.000000
    3 0.000000 -1.548280 0.485224 0.000000 0.000000 0.000000
    4 0.000000 -0.980124 2.284383 0.000000 0.000000 0.000000
    5 0.000000 -2.905540 1.621535 0.000000 0.000000 0.000000
    6 -0.000001 -5.746316 1.557464 0.000000 0.000000 0.000000
    7 0.000000 -0.031565 -0.614062 0.000000 0.000000 0.000000
    8 0.000000 -0.000002 -0.824931 0.000000 0.000000 0.000000
    9 0.000000 -0.015647 -0.615740 0.000000 0.000000 0.000000
    10 -2.686428 2.537875 -5.745650 0.000000 0.000000 0.374718
    11 7.962406 -5.272269 -3.698313 0.646862 -2.313954 -1.001755
    12 7.964416 2.086600 -0.356844 1.567467 -3.119545 0.334842
    13 0.045270 -8.440141 -0.072883 -0.114383 0.738746 -0.314981
    14 -0.488518 -2.755602 -0.228260 -0.677757 0.222160 -0.237357
    15 0.039887 -1.546198 0.022041 -1.865622 -0.006771 0.041659
    16 0.028786 -1.157765 -0.124675 -1.010741 -0.015017 0.021249
    17 0.250027 -2.820665 -0.238396 -0.583312 0.207576 -0.172896
    18 -0.049759 -1.594604 0.022352 -1.674032 -0.002301 -0.044045
    19 -0.034142 -1.171750 0.045718 -1.215231 0.006076 -0.032059
    20 0.957766 -2.746780 -0.090302 0.002002 -0.079703 0.138406
    21 -0.033420 -1.397129 -0.026882 -0.920366 0.005369 -0.045183
    22 -0.022360 -0.957436 -0.000748 -0.725796 0.007394 -0.035283
    23 -1.180681 -2.507217 -0.193859 -0.486179 0.356856 -0.282099
    24 -0.024967 -1.127840 0.017597 -1.310231 -0.003476 -0.054840
    25 -0.020057 -0.906594 0.041341 -1.373954 -0.003092 -0.055632
    26 0.630386 -1.197277 0.185379 0.386032 -1.009532 -0.241400
    27 1.446081 -0.251481 0.079230 0.075511 -0.244881 -0.915419
    28 1.007018 -0.182979 0.044010 0.088023 -0.242978 -1.037980
    29 0.120153 -0.050270 -0.054489 0.287569 3.110905 1.561085
    30 -4.630277 -9.204037 -4.110784 0.734812 -3.992282 1.047385
    31 0.050068 -8.415261 0.006260 -0.170592 -0.481365 0.156940
    32 0.447953 -2.798986 -0.200443 -1.565065 0.021902 0.192779
    33 -0.032909 -1.495829 0.040097 -1.901672 0.020446 -0.040578
    34 -0.027022 -1.147235 0.018854 -2.379679 0.013303 -0.051210
    35 -0.249534 -2.846964 -0.174213 -1.277011 0.015419 0.071733
    36 0.043235 -1.656596 0.053042 -1.896152 -0.024993 0.016360
    37 0.031729 -1.137392 0.043213 -1.886250 -0.019480 0.012806
    38 -0.963866 -2.785145 -0.085350 -0.835517 0.138403 -0.076564
    39 0.028479 -1.414786 -0.028886 -1.405696 -0.044595 -0.038590
    40 0.021413 -0.942156 0.012233 -0.973400 -0.025707 -0.033809
    41 1.164475 -2.543940 -0.170330 -1.539294 -0.092093 0.357254
    42 0.024032 -1.160293 -0.009538 -1.777093 0.048909 0.071561
    43 0.014898 -0.907427 -0.000316 -1.807452 0.046908 0.072351
    44 -0.586770 -1.264477 0.200161 -0.356786 -0.728663 -2.405470
    45 1.542367 0.043056 0.016848 -0.007926 -0.002245 0.472399
    46 1.110134 0.040611 -0.005766 -0.037719 -0.031382 1.329780
    47 -0.139399 -0.111698 0.014397 0.285382 -0.030687 1.580508
    48 -6.042049 6.323475 -0.376156 1.579846 -0.022158 -0.913467
  time 21
    0 4.805701 -10.791062 -5.455374 -0.028426 0.125359 -0.096604
    1 -0.025678 2.701180 0.658172 0.000000 0.000000 0.000000
    2 0.000000 -3.947159 3.041922 0.000000 0.000000 0.000000
    3 0.000000 -1.548280 0.485224 0.000000 0.000000 0.000000
    4 0.000000 -0.980124 2.284383 0.000000 0.000000 0.000000
    5 0.000000 -2.905540 1.621535 0.000000 0.000000 0.000000
    6 -0.000001 -5.746316 1.557464 0.000000 0.000000 0.000000
    7 0.000000 -0.031565 -0.614062 0.000000 0.000000 0.000000
    8 0.000000 -0.000002 -0.824931 0.000000 0.000000 0.000000
    9 0.000000 -0.015647 -0.615740 0.000000 0.000000 0.000000
    10 -2.686428 2.537875 -5.745650 0.000000 0.000000 0.374718
    11 7.962406 -5.272269 -3.698313 0.646582 -2.313702 -1.001469
    12 7.964416 2.086600 -0.356844 1.567467 -3.119545 0.334917
    13 0.045270 -8.440141 -0.072883 -0.114708 0.738711 -0.315613
    14 -0.488518 -2.755602 -0.228260 -0.677757 0.222160 -0.237357
    15 0.039887 -1.546198 0.022041 -1.865677 -0.006771 0.041659
    16 0.028786 -1.157765 -0.124675 -1.010741 -0.015017 0.021249
    17 0.250027 -2.820665 -0.238396 -0.583312 0.207576 -0.172896
    18 -0.049759 -1.594604 0.022352 -1.674032 -0.002301 -0.044045
    19 -0.034142 -1.171750 0.045718 -1.215231 0.006076 -0.032059
    20 0.957766 -2.746780 -0.090302 0.002002 -0.079703 0.138406
    21 -0.033420 -1.397129 -0.026882 -0.920366 0.005369 -0.045183
    22 -0.022360 -0.957436 -0.000748 -0.725796 0.007394 -0.035283
    23 -1.180681 -2.507217 -0.193859 -0.486179 0.356856 -0.282099
    24 -0.024967 -1.127840 0.017597 -1.310231 -0.003476 -0.054840
    25 -0.020057 -0.906594 0.041341 -1.373954 -0.003092 -0.055632
    26 0.630386 -1.197277 0.185379 0.386032 -1.009532 -0.241400
    27 1.446081 -0.251481 0.079230 0.075511 -0.244881 -0.915391
    28 1.007018 -0.182979 0.044010 0.088023 -0.242978 -1.037980
    29 0.120153 -0.050270 -0.054489 0.287569 3.110905 1.561085
    30 -4.630277 -9.204037 -4.114690 0.734287 -3.992592 1.047017
    31 0.050068 -8.415261 0.006260 -0.170540 -0.481789 0.157071
    32 0.447953 -2.798986 -0.200443 -1.565065 0.021902 0.192779
    33 -0.032909 -1.495829 0.040097 -1.901672 0.020446 -0.040578
    34 -0.027022 -1.147235 0.018854 -2.379679 0.013303 -0.051210
    35 -0.249534 -2.846964 -0.174213 -1.277011 0.015419 0.071733
    36 0.043235 -1.656596 0.053042 -1.896152 -0.024993 0.016360
    37 0.031729 -1.137392 0.043213 -1.886250 -0.019480 0.012806
    38 -0.963866 -2.785145 -0.085350 -0.835517 0.138403 -0.076564
    39 0.028479 -1.414786 -0.028886 -1.405696 -0.044595 -0.038590
    40 0.021413 -0.942156 0.012233 -0.973400 -0.025707 -0.033809
    41 1.164475 -2.543940 -0.170330 -1.539294 -0.092093 0.357254
    42 0.024032 -1.160293 -0.009538 -1.777093 0.048909 0.071561
    43 0.014898 -0.907427 -0.000316 -1.807452 0.046908 0.072351
    44 -0.586770 -1.264477 0.200161 -0.356786 -0.728663 -2.405470
    45 1.542367 0.043056 0.016848 -0.007926 -0.002245 0.472399
    46 1.110134 0.040611 -0.005766 -0.037719 -0.031382 1.329780
    47 -0.139399 -0.111698 0.014397 0.285382 -0.030687 1.580508
    48 -6.042049 6.323475 -0.376156 1.579846 -0.022158 -0.913288
  time 22
    0 4.805701 -10.791062 -5.463187 -0.027450 0.125520 -0.096404
    1 -0.025678 2.701180 0.658172 0.000000 0.000000 0.000000
    2 0.000000 -3.947159 3.041922 0.000000 0.000000 0.000000
    3 0.000000 -1.548280 0.485224 0.000000 0.000000 0.000000
    4 0.000000 -0.980124 2.284383 0.000000 0.000000 0.000000
    5 0.000000 -2.905540 1.621535 0.000000 0.000000 0.000000
    6 -0.000001 -5.746316 1.557464 0.000000 0.000000 0.000000
    7 0.000000 -0.031565 -0.614062 0.000000 0.000000 0.000000
    8 0.000000 -0.000002 -0.824931 0.000000 0.000000 0.000000
    9 0.000000 -0.015647 -0.615740 0.000000 0.000000 0.000000
    10 -2.686428 2.537875 -5.745650 0.000000 0.000000 0.374718
    11 7.962406 -5.272269 -3.702220 0.646209 -2.313451 -1.001183
    12 7.964416 2.090506 -0.356844 1.567467 -3.119545 0.335068
    13 0.045270 -8.440141 -0.072883 -0.115134 0.738643 -0.316472
    14 -0.488518 -2.755602 -0.228260 -0.677757 0.222160 -0.237357
    15 0.039887 -1.546198 0.022041 -1.865677 -0.006771 0.041659
    16 0.028786 -1.157765 -0.124675 -1.010741 -0.015017 0.021249
    17 0.250027 -2.820665 -0.238396 -0.583312 0.207576 -0.172896
    18 -0.049759 -1.594604 0.022352 -1.674032 -0.002301 -0.044045
    19 -0.034142 -1.171750 0.045718 -1.215231 0.006076 -0.032059
    20 0.957766 -2.746780 -0.090302 0.002002 -0.079703 0.138406
    21 -0.033420 -1.397129 -0.026882 -0.920366 0.005369 -0.045183
    22 -0.022360 -0.957436 -0.000748 -0.725796 0.007394 -0.035283
    23 -1.180681 -2.507217 -0.193859 -0.486179 0.356856 -0.282099
    24 -0.024967 -1.127840 0.017597 -1.310231 -0.003476 -0.054840
    25 -0.020057 -0.906594 0.041341 -1.373954 -0.003092 -0.055632
    26 0.630386 -1.197277 0.185379 0.386032 -1.009532 -0.241400
    27 1.446081 -0.251481 0.079230 0.075523 -0.244881 -0.915391
    28 1.007018 -0.182979 0.044010 0.088023 -0.242978 -1.037980
    29 0.120153 -0.050270 -0.054489 0.287569 3.110905 1.561085
    30 -4.630277 -9.204037 -4.118596 0.733598 -3.993039 1.046557
    31 0.050068 -8.415261 0.006260 -0.170489 -0.482363 0.157267
    32 0.447953 -2.798986 -0.200443 -1.565065 0.021902 0.192779
    33 -0.032909 -1.495829 0.040097 -1.901672 0.020446 -0.040578
    34 -0.027022 -1.147235 0.018854 -2.379679 0.013303 -0.051210
    35 -0.249534 -2.846964 -0.174213 -1.277011 0.015419 0.071733
    36 0.043235 -1.656596 0.053042 -1.896152 -0.024993 0.016360
    37 0.031729 -1.137392 0.043213 -1.886250 -0.019480 0.012806
    38 -0.963866 -2.785145 -0.085350 -0.835517 0.138403 -0.076564
    39 0.028479 -1.414786 -0.028886 -1.405696 -0.044595 -0.038590
    40 0.021413 -0.942156 0.012233 -0.973400 -0.025707 -0.033809
    41 1.164475 -2.543940 -0.170330 -1.539294 -0.092093 0.357254
    42 0.024032 -1.160293 -0.009538 -1.777093 0.048909 0.071561
    43 0.014898 -0.907427 -0.000316 -1.807452 0.046908 0.072351
    44 -0.586770 -1.264477 0.200161 -0.356786 -0.728663 -2.405470
    45 1.542367 0.043056 0.016848 -0.007926 -0.002245 0.472399
    46 1.110134 0.040611 -0.005766 -0.037719 -0.031382 1.329780
    47 -0.139399 -0.111698 0.014397 0.285382 -0.030687 1.580508
    48 -6.045956 6.323475 -0.376156 1.579846 -0.022158 -0.913020
  time 23
    0 4.809608 -10.794969 -5.467093 -0.026438 0.125655 -0.096204
    1 -0.025678 2.701180 0.658172 0.000000 0.000000 0.000000
    2 0.000000 -3.947159 3.041922 0.000000 0.000000 0.000000
    3 0.000000 -1.548280 0.485224 0.000000 0.000000 0.000000
    4 0.000000 -0.980124 2.284383 0.000000 0.000000 0.000000
    5 0.000000 -2.905540 1.621535 0.000000 0.000000 0.000000
    6 -0.000001 -5.746316 1.557464 0.000000 0.000000 0.000000
    7 0.000000 -0.031565 -0.614062 0.000000 0.000000 0.000000
    8 0.000000 -0.000002 -0.824931 0.000000 0.000000 0.000000
    9 0.000000 -0.015647 -0.615740 0.000000 0.000000 0.000000
    10 -2.686428 2.537875 -5.745650 0.000000 0.000000 0.374718
    11 7.962406 -5.272269 -3.702220 0.645835 -2.313199 -1.000897
    12 7.964416 2.090506 -0.356844 1.567467 -3.119545 0.335144
    13 0.045270 -8.440141 -0.072883 -0.115561 0.738609 -0.317330
    14 -0.488518 -2.755602 -0.228260 -0.677757 0.222160 -0.237357
    15 0.039887 -1.546198 0.022041 -1.865677 -0.006771 0.041659
    16 0.028786 -1.157765 -0.124675 -1.010741 -0.015017 0.021249
    17 0.250027 -2.820665 -0.238396 -0.583312 0.207576 -0.172896
    18 -0.049759 -1.594604 0.022352 -1.674032 -0.002301 -0.044045
    19 -0.034142 -1.171750 0.045718 -1.215231 0.006076 -0.032059
    20 0.957766 -2.746780 -0.090302 0.002002 -0.079703 0.138406
    21 -0.033420 -1.397129 -0.026882 -0.920366 0.005369 -0.045183
    22 -0.022360 -0.957436 -0.000748 -0.725796 0.007394 -0.035283
    23 -1.180681 -2.507217 -0.193859 -0.486179 0.356856 -0.282099
    24 -0.024967 -1.127840 0.017597 -1.310231 -0.003476 -0.054840
    25 -0.020057 -0.906594 0.041341 -1.373954 -0.003092 -0.055632
    26 0.630386 -1.197277 0.185379 0.386032 -1.009532 -0.241400
    27 1.446081 -0.251481 0.079230 0.075523 -0.244881 -0.915391
    28 1.007018 -0.182979 0.044010 0.088023 -0.242978 -1.037980
    29 0.120153 -0.050270 -0.054489 0.287569 3.110905 1.561085
    30 -4.630277 -9.200131 -4.122503 0.732908 -3.993452 1.046097
    31 0.050068 -8.415261 0.006260 -0.170437 -0.482937 0.157463
    32 0.447953 -2.798986 -0.200443 -1.565065 0.021902 0.192779
    33 -0.032909 -1.495829 0.040097 -1.901672 0.020446 -0.040578
    34 -0.027022 -1.147235 0.018854 -2.379679 0.013303 -0.051210
    35 -0.249534 -2.846964 -0.174213 -1.277011 0.015419 0.071733
    36 0.043235 -1.656596 0.053042 -1.896152 -0.024993 0.016360
    37 0.031729 -1.137392 0.043213 -1.886250 -0.019480 0.012806
    38 -0.963866 -2.785145 -0.085350 -0.835517 0.138403 -0.076564
    39 0.028479 -1.414786 -0.028886 -1.405696 -0.044595 -0.038590
    40 0.021413 -0.942156 0.012233 -0.973400 -0.025707 -0.033809
    41 1.164475 -2.543940 -0.170330 -1.539294 -0.092093 0.357254
    42 0.024032 -1.160293 -0.009538 -1.777093 0.048909 0.071561
    43 0.014898 -0.907427 -0.000316 -1.807452 0.046908 0.072351
    44 -0.586770 -1.264477 0.200161 -0.356786 -0.728663 -2.405470
    45 1.542367 0.043056 0.016848 -0.007926 -0.002245 0.472399
    46 1.110134 0.040611 -0.005766 -0.037719 -0.031382 1.329780
    47 -0.139399 -0.111698 0.014397 0.285382 -0.030687 1.580508
    48 -6.045956 6.319569 -0.376156 1.579846 -0.022158 -0.912841
  time 24
    0 4.809608 -10.794969 -5.474906 -0.025678 0.125789 -0.096004
    1 -0.025678 2.701180 0.658172 0.000000 0.000000 0.000000
    2 0.000000 -3.947159 3.041922 0.000000 0.000000 0.000000
    3 0.000000 -1.548280 0.485224 0.000000 0.000000 0.000000
    4 0.000000 -0.980124 2.284383 0.000000 0.000000 0.000000
    5 0.000000 -2.905540 1.621535 0.000000 0.000000 0.000000
    6 -0.000001 -5.746316 1.557464 0.000000 0.000000 0.000000
    7 0.000000 -0.031565 -0.614062 0.000000 0.000000 0.000000
    8 0.000000 -0.000002 -0.824931 0.000000 0.000000 0.000000
    9 0.000000 -0.015647 -0.615740 0.000000 0.000000 0.000000
    10 -2.686428 2.537875 -5.745650 0.000000 0.000000 0.374718
    11 7.962406 -5.272269 -3.702220 0.645555 -2.313031 -1.000611
    12 7.964416 2.090506 -0.356844 1.567467 -3.119545 0.335219
    13 0.045270 -8.440141 -0.072883 -0.115886 0.738575 -0.317985
    14 -0.488518 -2.755602 -0.228260 -0.677757 0.222160 -0.237357
    15 0.039887 -1.546198 0.022041 -1.865677 -0.006771 0.041659
    16 0.028786 -1.157765 -0.124675 -1.010741 -0.015017 0.021249
    17 0.250027 -2.820665 -0.238396 -0.583312 0.207576 -0.172896
    18 -0.049759 -1.594604 0.022352 -1.674032 -0.002301 -0.044045
    19 -0.034142 -1.171750 0.045718 -1.215231 0.006076 -0.032059
    20 0.957766 -2.746780 -0.090302 0.002002 -0.079703 0.138406
    21 -0.033420 -1.397129 -0.026882 -0.920366 0.005369 -0.045183
    22 -0.022360 -0.957436 -0.000748 -0.725796 0.007394 -0.035283
    23 -1.180681 -2.507217 -0.193859 -0.486179 0.356856 -0.282099
    24 -0.024967 -1.127840 0.017597 -1.310231 -0.003476 -0.054840
    25 -0.020057 -0.906594 0.041341 -1.373954 -0.003092 -0.055632
    26 0.630386 -1.197277 0.185379 0.386032 -1.009532 -0.241400
    27 1.446081 -0.251481 0.079230 0.075511 -0.244881 -0.915391
    28 1.007018 -0.182979 0.044010 0.088023 -0.242978 -1.037980
    29 0.120153 -0.050270 -0.054489 0.287569 3.110905 1.561085
    30 -4.630277 -9.200131 -4.126409 0.732383 -3.993761 1.045821
    31 0.050068 -8.415261 0.006260 -0.170437 -0.483361 0.157626
    32 0.447953 -2.798986 -0.200443 -1.565065 0.021902 0.192779
    33 -0.032909 -1.495829 0.040097 -1.901672 0.020446 -0.040578
    34 -0.027022 -1.147235 0.018854 -2.379679 0.013303 -0.051210
    35 -0.249534 -2.846964 -0.174213 -1.277011 0.015419 0.071733
    36 0.043235 -1.656596 0.053042 -1.896152 -0.024993 0.016360
    37 0.031729 -1.137392 0.043213 -1.886250 -0.019480 0.012806
    38 -0.963866 -2.785145 -0.085350 -0.835517 0.138403 -0.076564
    39 0.028479 -1.414786 -0.028886 -1.405696 -0.044595 -0.038590
    40 0.021413 -0.942156 0.012233 -0.973400 -0.025707 -0.033809
    41 1.164475 -2.543940 -0.170330 -1.539294 -0.092093 0.357254
    42 0.024032 -1.160293 -0.009538 -1.777093 0.048909 0.071561
    43 0.014898 -0.907427 -0.000316 -1.807452 0.046908 0.072351
    44 -0.586770 -1.264477 0.200161 -0.356786 -0.728663 -2.405470
    45 1.542367 0.043056 0.016848 -0.007926 -0.002245 0.472399
    46 1.110134 0.040611 -0.005766 -0.037719 -0.031382 1.329780
    47 -0.139399 -0.111698 0.014397 0.285382 -0.030687 1.580508
    48 -6.045956 6.319569 -0.376156 1.579846 -0.022158 -0.912662
  time 25
    0 4.809608 -10.794969 -5.474906 -0.025389 0.125816 -0.095954
    1 -0.025678 2.701180 0.658172 0.000000 0.000000 0.000000
    2 0.000000 -3.947159 3.041922 0.000000 0.000000 0.000000
    3 0.000000 -1.548280 0.485224 0.000000 0.000000 0.000000
    4 0.000000 -0.980124 2.284383 0.000000 0.000000 0.000000
    5 0.000000 -2.905540 1.621535 0.000000 0.000000 0.000000
    6 -0.000001 -5.746316 1.557464 0.000000 0.000000 0.000000
    7 0.000000 -0.031565 -0.614062 0.000000 0.000000 0.000000
    8 0.000000 -0.000002 -0.824931 0.000000 0.000000 0.000000
    9 0.000000 -0.015647 -0.615740 0.000000 0.000000 0.000000
    10 -2.686428 2.537875 -5.745650 0.000000 0.000000 0.374718
    11 7.962406 -5.268363 -3.702220 0.645462 -2.312948 -1.000516
    12 7.964416 2.090506 -0.356844 1.567467 -3.119545 0.335294
    13 0.045270 -8.440141 -0.072883 -0.116008 0.738541 -0.318234
    14 -0.488518 -2.755602 -0.228260 -0.677757 0.222160 -0.237357
    15 0.039887 -1.546198 0.022041 -1.865677 -0.006771 0.041659
    16 0.028786 -1.157765 -0.124675 -1.010741 -0.015017 0.021249
    17 0.250027 -2.820665 -0.238396 -0.583312 0.207576 -0.172896
    18 -0.049759 -1.594604 0.022352 -1.674032 -0.002301 -0.044045
    19 -0.034142 -1.171750 0.045718 -1.215231 0.006076 -0.032059
    20 0.957766 -2.746780 -0.090302 0.002002 -0.079703 0.138406
    21 -0.033420 -1.397129 -0.026882 -0.920366 0.005369 -0.045183
    22 -0.022360 -0.957436 -0.000748 -0.725796 0.007394 -0.035283
    23 -1.180681 -2.507217 -0.193859 -0.486179 0.356856 -0.282099
    24 -0.024967 -1.127840 0.017597 -1.310231 -0.003476 -0.054840
    25 -0.020057 -0.906594 0.041341 -1.373954 -0.003092 -0.055632
    26 0.630386 -1.197277 0.185379 0.386032 -1.009532 -0.241400
    27 1.446081 -0.251481 0.079230 0.075523 -0.244881 -0.915391
    28 1.007018 -0.182979 0.044010 0.088023 -0.242978 -1.037980
    29 0.120153 -0.050270 -0.054489 0.287569 3.110905 1.561085
    30 -4.630277 -9.200131 -4.130316 0.732187 -3.993899 1.045637
    31 0.050068 -8.415261 0.006260 -0.170386 -0.483536 0.157691
    32 0.447953 -2.798986 -0.200443 -1.565065 0.021902 0.192779
    33 -0.032909 -1.495829 0.040097 -1.901672 0.020446 -0.040578
    34 -0.027022 -1.147235 0.018854 -2.379679 0.013303 -0.051210
    35 -0.249534 -2.846964 -0.174213 -1.277011 0.015419 0.071733
    36 0.043235 -1.656596 0.053042 -1.896152 -0.024993 0.016360
    37 0.031729 -1.137392 0.043213 -1.886250 -0.019480 0.012806
    38 -0.963866 -2.785145 -0.085350 -0.835517 0.138403 -0.076564
    39 0.028479 -1.414786 -0.028886 -1.405696 -0.044595 -0.038590
    40 0.021413 -0.942156 0.012233 -0.973400 -0.025707 -0.033809
    41 1.164475 -2.543940 -0.170330 -1.539294 -0.092093 0.357254
    42 0.024032 -1.160293 -0.009538 -1.777093 0.048909 0.071561
    43 0.014898 -0.907427 -0.000316 -1.807452 0.046908 0.072351
    44 -0.586770 -1.264477 0.200161 -0.356786 -0.728663 -2.405470
    45 1.542367 0.043056 0.016848 -0.007926 -0.002245 0.472399
    46 1.110134 0.040611 -0.005766 -0.037719 -0.031382 1.329780
    47 -0.139399 -0.111698 0.014397 0.285382 -0.030687 1.580508
    48 -6.045956 6.319569 -0.376156 1.579846 -0.022158 -0.912573
end
