version 1
nodes
0 "root" -1
end
skeleton
time 0
0 0 0 0 0 0 0
end
triangles
holywater_f.bmp
0  -0.745885 1.096599 -0.611869  -0.449760 0.640358 0.622622  0.165354 0.330709 0
0  -0.846678 0.309855 -0.316624  -0.421261 0.150180 0.894419  0.299213 0.393701 0
0  -0.499754 0.784856 -0.320431  -0.262546 0.377729 0.887914  0.165354 0.393701 0
holywater_f.bmp
0  -0.499754 0.784856 -0.320431  -0.262546 0.377729 0.887914  0.165354 0.393701 0
0  -0.846678 0.309855 -0.316624  -0.421261 0.150180 0.894419  0.299213 0.393701 0
0  -0.244732 0.421892 -0.198691  -0.449759 0.640409 0.622569  0.165354 0.456693 0
holywater_f.bmp
0  -0.846678 0.309855 -0.316624  -0.421261 0.150180 0.894419  0.299213 0.393701 0
0  -0.428484 0.164537 -0.196638  -0.732723 0.253573 0.631520  0.299213 0.456693 0
0  -0.244732 0.421892 -0.198691  -0.449759 0.640409 0.622569  0.165354 0.456693 0
holywater_f.bmp
0  -0.244732 0.421892 -0.198691  -0.449759 0.640409 0.622569  0.165354 0.456693 0
0  -0.428484 0.164537 -0.196638  -0.732723 0.253573 0.631520  0.299213 0.456693 0
0  -0.272908 0.465824 0.351106  -0.474729 0.647313 -0.596337  0.157480 0.551181 0
holywater_f.bmp
0  -0.428484 0.164537 -0.196638  -0.732723 0.253573 0.631520  0.299213 0.456693 0
0  -0.476950 0.188764 0.353330  -0.769842 0.250553 -0.586998  0.299213 0.551181 0
0  -0.272908 0.465824 0.351106  -0.474729 0.647313 -0.596337  0.157480 0.551181 0
holywater_f.bmp
0  -0.272908 0.465824 0.351106  -0.474729 0.647313 -0.596337  0.157480 0.551181 0
0  -0.476950 0.188764 0.353330  -0.769842 0.250553 -0.586998  0.299213 0.551181 0
0  -0.576369 0.220594 0.413351  -0.841326 0.277111 -0.464091  0.299213 0.590551 0
holywater_f.bmp
0  -0.476950 0.188764 0.353330  -0.769842 0.250553 -0.586998  0.299213 0.551181 0
0  -0.582172 -0.179358 0.415913  -0.849103 -0.258432 -0.460692  0.433071 0.590551 0
0  -0.576369 0.220594 0.413351  -0.841326 0.277111 -0.464091  0.299213 0.590551 0
holywater_f.bmp
0  -0.576369 0.220594 0.413351  -0.841326 0.277111 -0.464091  0.299213 0.590551 0
0  -0.582172 -0.179358 0.415913  -0.849103 -0.258432 -0.460692  0.433071 0.590551 0
0  -0.581877 -0.178527 0.545909  -0.856151 -0.255373 0.449210  0.433071 0.637795 0
holywater_f.bmp
0  -0.582172 -0.179358 0.415913  -0.849103 -0.258432 -0.460692  0.433071 0.590551 0
0  -0.346689 -0.511971 0.547503  -0.543199 -0.706628 0.453445  0.574803 0.637795 0
0  -0.581877 -0.178527 0.545909  -0.856151 -0.255373 0.449210  0.433071 0.637795 0
holywater_f.bmp
0  -0.581877 -0.178527 0.545909  -0.856151 -0.255373 0.449210  0.433071 0.637795 0
0  -0.346689 -0.511971 0.547503  -0.543199 -0.706628 0.453445  0.574803 0.637795 0
0  -0.295566 -0.442386 0.596946  -0.198192 -0.251108 0.947452  0.574803 0.669291 0
holywater_f.bmp
0  -0.346689 -0.511971 0.547503  -0.543199 -0.706628 0.453445  0.574803 0.637795 0
0  0.022804 -0.557020 0.596960  -0.002565 -0.318021 0.948080  0.700787 0.669291 0
0  -0.295566 -0.442386 0.596946  -0.198192 -0.251108 0.947452  0.574803 0.669291 0
holywater_f.bmp
0  -0.295566 -0.442386 0.596946  -0.198192 -0.251108 0.947452  0.574803 0.669291 0
0  0.022804 -0.557020 0.596960  -0.002565 -0.318021 0.948080  0.700787 0.669291 0
0  0.031070 0.012908 0.593310  0.002254 0.006370 0.999977  0.370079 0.724409 0
holywater_f.bmp
0  0.022804 -0.557020 0.596960  -0.002565 -0.318021 0.948080  0.700787 0.669291 0
0  0.344363 -0.451681 0.595563  0.194895 -0.256788 0.946613  0.574803 0.669291 0
0  0.031070 0.012908 0.593310  0.002254 0.006370 0.999977  0.370079 0.724409 0
holywater_f.bmp
0  0.031070 0.012908 0.593310  0.002254 0.006370 0.999977  0.370079 0.724409 0
0  0.344363 -0.451681 0.595563  0.194895 -0.256788 0.946613  0.574803 0.669291 0
0  0.558548 -0.164765 0.593253  0.314563 -0.096538 0.944315  0.433071 0.669291 0
holywater_f.bmp
0  0.344363 -0.451681 0.595563  0.194895 -0.256788 0.946613  0.574803 0.669291 0
0  0.393229 -0.522716 0.545905  0.524402 -0.722118 0.451163  0.574803 0.637795 0
0  0.558548 -0.164765 0.593253  0.314563 -0.096538 0.944315  0.433071 0.669291 0
holywater_f.bmp
0  0.558548 -0.164765 0.593253  0.314563 -0.096538 0.944315  0.433071 0.669291 0
0  0.393229 -0.522716 0.545905  0.524402 -0.722118 0.451163  0.574803 0.637795 0
0  0.637991 -0.196243 0.543273  0.850315 -0.280149 0.445513  0.433071 0.637795 0
holywater_f.bmp
0  0.393229 -0.522716 0.545905  0.524402 -0.722118 0.451163  0.574803 0.637795 0
0  0.392937 -0.523543 0.415908  0.516846 -0.720261 -0.462703  0.574803 0.590551 0
0  0.637991 -0.196243 0.543273  0.850315 -0.280149 0.445513  0.433071 0.637795 0
holywater_f.bmp
0  0.637991 -0.196243 0.543273  0.850315 -0.280149 0.445513  0.433071 0.637795 0
0  0.392937 -0.523543 0.415908  0.516846 -0.720261 -0.462703  0.574803 0.590551 0
0  0.637699 -0.197070 0.413277  0.839240 -0.282969 -0.464333  0.433071 0.590551 0
holywater_f.bmp
0  0.392937 -0.523543 0.415908  0.516846 -0.720261 -0.462703  0.574803 0.590551 0
0  0.333970 -0.443065 0.355527  0.472056 -0.654875 -0.590171  0.574803 0.551181 0
0  0.637699 -0.197070 0.413277  0.839240 -0.282969 -0.464333  0.433071 0.590551 0
holywater_f.bmp
0  0.637699 -0.197070 0.413277  0.839240 -0.282969 -0.464333  0.433071 0.590551 0
0  0.333970 -0.443065 0.355527  0.472056 -0.654875 -0.590171  0.574803 0.551181 0
0  0.538008 -0.166005 0.353301  0.767167 -0.258118 -0.587222  0.433071 0.551181 0
holywater_f.bmp
0  0.333970 -0.443065 0.355527  0.472056 -0.654875 -0.590171  0.574803 0.551181 0
0  0.487064 -0.148784 -0.196706  0.735574 -0.245523 0.631387  0.433071 0.456693 0
0  0.538008 -0.166005 0.353301  0.767167 -0.258118 -0.587222  0.433071 0.551181 0
holywater_f.bmp
0  0.538008 -0.166005 0.353301  0.767167 -0.258118 -0.587222  0.433071 0.551181 0
0  0.487064 -0.148784 -0.196706  0.735574 -0.245523 0.631387  0.433071 0.456693 0
0  0.491417 0.151179 -0.198626  0.743375 0.231479 0.627544  0.299213 0.456693 0
holywater_f.bmp
0  0.487064 -0.148784 -0.196706  0.735574 -0.245523 0.631387  0.433071 0.456693 0
0  0.904716 -0.295628 -0.316715  0.425211 -0.138737 0.894398  0.433071 0.393701 0
0  0.491417 0.151179 -0.198626  0.743375 0.231479 0.627544  0.299213 0.456693 0
holywater_f.bmp
0  0.491417 0.151179 -0.198626  0.743375 0.231479 0.627544  0.299213 0.456693 0
0  0.904716 -0.295628 -0.316715  0.425211 -0.138737 0.894398  0.433071 0.393701 0
0  0.913131 0.284300 -0.320427  0.428605 0.135178 0.893322  0.299213 0.393701 0
holywater_f.bmp
0  0.904716 -0.295628 -0.316715  0.425211 -0.138737 0.894398  0.433071 0.393701 0
0  1.302280 -0.423267 -0.606804  0.735640 -0.245563 0.631294  0.433071 0.330709 0
0  0.913131 0.284300 -0.320427  0.428605 0.135178 0.893322  0.299213 0.393701 0
holywater_f.bmp
0  0.913131 0.284300 -0.320427  0.428605 0.135178 0.893322  0.299213 0.393701 0
0  1.302280 -0.423267 -0.606804  0.735640 -0.245563 0.631294  0.433071 0.330709 0
0  1.314176 0.396630 -0.612053  0.743399 0.231528 0.627497  0.299213 0.330709 0
holywater_f.bmp
0  1.302280 -0.423267 -0.606804  0.735640 -0.245563 0.631294  0.433071 0.330709 0
0  1.524154 0.460705 -1.062945  0.940999 0.291573 0.171772  0.299213 0.267717 0
0  1.314176 0.396630 -0.612053  0.743399 0.231528 0.627497  0.299213 0.330709 0
holywater_f.bmp
0  1.314176 0.396630 -0.612053  0.743399 0.231528 0.627497  0.299213 0.330709 0
0  1.524154 0.460705 -1.062945  0.940999 0.291573 0.171772  0.299213 0.267717 0
0  0.833944 1.073659 -0.615284  0.471194 0.628209 0.619137  0.165354 0.330709 0
holywater_f.bmp
0  1.524154 0.460705 -1.062945  0.940999 0.291573 0.171772  0.299213 0.267717 0
0  0.965675 1.258882 -1.066770  0.590461 0.788952 0.170030  0.165354 0.267717 0
0  0.833944 1.073659 -0.615284  0.471194 0.628209 0.619137  0.165354 0.330709 0
holywater_f.bmp
0  0.833944 1.073659 -0.615284  0.471194 0.628209 0.619137  0.165354 0.330709 0
0  0.965675 1.258882 -1.066770  0.590461 0.788952 0.170030  0.165354 0.267717 0
0  0.047801 1.345096 -0.615241  0.011994 0.787750 0.615879  0.023622 0.330709 0
holywater_f.bmp
0  0.965675 1.258882 -1.066770  0.590461 0.788952 0.170030  0.165354 0.267717 0
0  0.050123 1.572202 -1.066702  0.014695 0.985354 0.169889  0.023622 0.267717 0
0  0.047801 1.345096 -0.615241  0.011994 0.787750 0.615879  0.023622 0.330709 0
holywater_f.bmp
0  0.047801 1.345096 -0.615241  0.011994 0.787750 0.615879  0.023622 0.330709 0
0  0.050123 1.572202 -1.066702  0.014695 0.985354 0.169889  0.023622 0.267717 0
0  -0.745885 1.096599 -0.611869  -0.449760 0.640358 0.622622  0.165354 0.330709 0
holywater_f.bmp
0  0.050123 1.572202 -1.066702  0.014695 0.985354 0.169889  0.023622 0.267717 0
0  -0.874128 1.285597 -1.062793  -0.566582 0.805767 0.172410  0.165354 0.267717 0
0  -0.745885 1.096599 -0.611869  -0.449760 0.640358 0.622622  0.165354 0.330709 0
holywater_f.bmp
0  -0.745885 1.096599 -0.611869  -0.449760 0.640358 0.622622  0.165354 0.330709 0
0  -0.874128 1.285597 -1.062793  -0.566582 0.805767 0.172410  0.165354 0.267717 0
0  -1.245549 0.433800 -0.606520  -0.732851 0.253608 0.631358  0.299213 0.330709 0
holywater_f.bmp
0  -0.874128 1.285597 -1.062793  -0.566582 0.805767 0.172410  0.165354 0.267717 0
0  -1.455526 0.503972 -1.056505  -0.931475 0.318419 0.175967  0.299213 0.267717 0
0  -1.245549 0.433800 -0.606520  -0.732851 0.253608 0.631358  0.299213 0.330709 0
holywater_f.bmp
0  -1.245549 0.433800 -0.606520  -0.732851 0.253608 0.631358  0.299213 0.330709 0
0  -1.455526 0.503972 -1.056505  -0.931475 0.318419 0.175967  0.299213 0.267717 0
0  -1.257444 -0.386099 -0.601272  -0.740561 -0.223505 0.633731  0.433071 0.330709 0
holywater_f.bmp
0  -1.455526 0.503972 -1.056505  -0.931475 0.318419 0.175967  0.299213 0.267717 0
0  -1.469450 -0.455906 -1.050359  -0.939938 -0.289512 0.180830  0.433071 0.267717 0
0  -1.257444 -0.386099 -0.601272  -0.740561 -0.223505 0.633731  0.433071 0.330709 0
holywater_f.bmp
0  -1.257444 -0.386099 -0.601272  -0.740561 -0.223505 0.633731  0.433071 0.330709 0
0  -1.469450 -0.455906 -1.050359  -0.939938 -0.289512 0.180830  0.433071 0.267717 0
0  -0.777216 -1.063129 -0.598042  -0.468441 -0.620171 0.629246  0.574803 0.330709 0
holywater_f.bmp
0  -1.469450 -0.455906 -1.050359  -0.939938 -0.289512 0.180830  0.433071 0.267717 0
0  -0.910970 -1.254082 -1.046534  -0.589670 -0.786716 0.182667  0.574803 0.267717 0
0  -0.777216 -1.063129 -0.598042  -0.468441 -0.620171 0.629246  0.574803 0.330709 0
holywater_f.bmp
0  -0.777216 -1.063129 -0.598042  -0.468441 -0.620171 0.629246  0.574803 0.330709 0
0  -0.910970 -1.254082 -1.046534  -0.589670 -0.786716 0.182667  0.574803 0.267717 0
0  0.008928 -1.334566 -0.598085  -0.009680 -0.780015 0.625686  0.700787 0.330709 0
holywater_f.bmp
0  -0.910970 -1.254082 -1.046534  -0.589670 -0.786716 0.182667  0.574803 0.267717 0
0  0.004578 -1.567403 -1.046603  -0.013887 -0.983099 0.182547  0.700787 0.267717 0
0  0.008928 -1.334566 -0.598085  -0.009680 -0.780015 0.625686  0.700787 0.330709 0
holywater_f.bmp
0  0.008928 -1.334566 -0.598085  -0.009680 -0.780015 0.625686  0.700787 0.330709 0
0  0.004578 -1.567403 -1.046603  -0.013887 -0.983099 0.182547  0.700787 0.267717 0
0  0.802614 -1.086070 -0.601456  0.452587 -0.632505 0.628572  0.574803 0.330709 0
holywater_f.bmp
0  0.004578 -1.567403 -1.046603  -0.013887 -0.983099 0.182547  0.700787 0.267717 0
0  0.928829 -1.280799 -1.050512  0.567358 -0.803522 0.180159  0.574803 0.267717 0
0  0.802614 -1.086070 -0.601456  0.452587 -0.632505 0.628572  0.574803 0.330709 0
holywater_f.bmp
0  0.802614 -1.086070 -0.601456  0.452587 -0.632505 0.628572  0.574803 0.330709 0
0  0.928829 -1.280799 -1.050512  0.567358 -0.803522 0.180159  0.574803 0.267717 0
0  1.302280 -0.423267 -0.606804  0.735640 -0.245563 0.631294  0.433071 0.330709 0
holywater_f.bmp
0  0.928829 -1.280799 -1.050512  0.567358 -0.803522 0.180159  0.574803 0.267717 0
0  1.510228 -0.499175 -1.056800  0.931964 -0.316761 0.176370  0.433071 0.267717 0
0  1.302280 -0.423267 -0.606804  0.735640 -0.245563 0.631294  0.433071 0.330709 0
holywater_f.bmp
0  1.302280 -0.423267 -0.606804  0.735640 -0.245563 0.631294  0.433071 0.330709 0
0  1.510228 -0.499175 -1.056800  0.931964 -0.316761 0.176370  0.433071 0.267717 0
0  1.524154 0.460705 -1.062945  0.940999 0.291573 0.171772  0.299213 0.267717 0
holywater_f.bmp
0  1.510228 -0.499175 -1.056800  0.931964 -0.316761 0.176370  0.433071 0.267717 0
0  1.459105 -0.482462 -1.686805  0.904252 -0.310483 -0.293136  0.433071 0.204724 0
0  1.524154 0.460705 -1.062945  0.940999 0.291573 0.171772  0.299213 0.267717 0
holywater_f.bmp
0  1.524154 0.460705 -1.062945  0.940999 0.291573 0.171772  0.299213 0.267717 0
0  1.459105 -0.482462 -1.686805  0.904252 -0.310483 -0.293136  0.433071 0.204724 0
0  1.472448 0.437420 -1.692695  0.912831 0.280333 -0.296906  0.299213 0.204724 0
holywater_f.bmp
0  1.459105 -0.482462 -1.686805  0.904252 -0.310483 -0.293136  0.433071 0.204724 0
0  1.180002 0.348330 -2.211480  0.718616 0.217977 -0.660361  0.299213 0.141732 0
0  1.472448 0.437420 -1.692695  0.912831 0.280333 -0.296906  0.299213 0.204724 0
holywater_f.bmp
0  1.472448 0.437420 -1.692695  0.912831 0.280333 -0.296906  0.299213 0.204724 0
0  1.180002 0.348330 -2.211480  0.718616 0.217977 -0.660361  0.299213 0.141732 0
0  0.933530 1.205310 -1.696371  0.572435 0.763392 -0.299251  0.165354 0.204724 0
holywater_f.bmp
0  1.180002 0.348330 -2.211480  0.718616 0.217977 -0.660361  0.299213 0.141732 0
0  0.748898 0.964644 -2.214434  0.450179 0.598808 -0.662395  0.165354 0.141732 0
0  0.933530 1.205310 -1.696371  0.572435 0.763392 -0.299251  0.165354 0.204724 0
holywater_f.bmp
0  0.933530 1.205310 -1.696371  0.572435 0.763392 -0.299251  0.165354 0.204724 0
0  0.748898 0.964644 -2.214434  0.450179 0.598808 -0.662395  0.165354 0.141732 0
0  0.047835 1.508196 -1.696303  0.012996 0.954288 -0.298607  0.023622 0.204724 0
holywater_f.bmp
0  0.748898 0.964644 -2.214434  0.450179 0.598808 -0.662395  0.165354 0.141732 0
0  0.042310 1.204922 -2.214372  0.009417 0.749177 -0.662302  0.023622 0.141732 0
0  0.047835 1.508196 -1.696303  0.012996 0.954288 -0.298607  0.023622 0.204724 0
holywater_f.bmp
0  0.047835 1.508196 -1.696303  0.012996 0.954288 -0.298607  0.023622 0.204724 0
0  0.042310 1.204922 -2.214372  0.009417 0.749177 -0.662302  0.023622 0.141732 0
0  -0.846276 1.231155 -1.692523  -0.551329 0.779703 -0.296815  0.165354 0.204724 0
holywater_f.bmp
0  0.042310 1.204922 -2.214372  0.009417 0.749177 -0.662302  0.023622 0.141732 0
0  -0.670948 0.985260 -2.211364  -0.435433 0.611725 -0.660447  0.165354 0.141732 0
0  -0.846276 1.231155 -1.692523  -0.551329 0.779703 -0.296815  0.165354 0.204724 0
holywater_f.bmp
0  -0.846276 1.231155 -1.692523  -0.551329 0.779703 -0.296815  0.165354 0.204724 0
0  -0.670948 0.985260 -2.211364  -0.435433 0.611725 -0.660447  0.165354 0.141732 0
0  -1.407243 0.479235 -1.686471  -0.905626 0.306693 -0.292883  0.299213 0.204724 0
holywater_f.bmp
0  -0.670948 0.985260 -2.211364  -0.435433 0.611725 -0.660447  0.165354 0.141732 0
0  -1.119750 0.381725 -2.206509  -0.714233 0.239500 -0.657656  0.299213 0.141732 0
0  -1.407243 0.479235 -1.686471  -0.905626 0.306693 -0.292883  0.299213 0.204724 0
holywater_f.bmp
0  -1.407243 0.479235 -1.686471  -0.905626 0.306693 -0.292883  0.299213 0.204724 0
0  -1.119750 0.381725 -2.206509  -0.714233 0.239500 -0.657656  0.299213 0.141732 0
0  -1.420585 -0.440649 -1.680580  -0.914212 -0.283991 -0.289078  0.433071 0.204724 0
holywater_f.bmp
0  -1.119750 0.381725 -2.206509  -0.714233 0.239500 -0.657656  0.299213 0.141732 0
0  -1.130484 -0.358183 -2.201772  -0.721207 -0.226638 -0.654595  0.433071 0.141732 0
0  -1.420585 -0.440649 -1.680580  -0.914212 -0.283991 -0.289078  0.433071 0.204724 0
holywater_f.bmp
0  -1.420585 -0.440649 -1.680580  -0.914212 -0.283991 -0.289078  0.433071 0.204724 0
0  -1.130484 -0.358183 -2.201772  -0.721207 -0.226638 -0.654595  0.433071 0.141732 0
0  -0.881668 -1.208537 -1.676905  -0.573889 -0.767059 -0.286831  0.574803 0.204724 0
holywater_f.bmp
0  -1.130484 -0.358183 -2.201772  -0.721207 -0.226638 -0.654595  0.433071 0.141732 0
0  -0.699379 -0.974493 -2.198818  -0.453379 -0.607163 -0.652533  0.574803 0.141732 0
0  -0.881668 -1.208537 -1.676905  -0.573889 -0.767059 -0.286831  0.574803 0.204724 0
holywater_f.bmp
0  -0.881668 -1.208537 -1.676905  -0.573889 -0.767059 -0.286831  0.574803 0.204724 0
0  -0.699379 -0.974493 -2.198818  -0.453379 -0.607163 -0.652533  0.574803 0.141732 0
0  0.004028 -1.511425 -1.676972  -0.014314 -0.958013 -0.286366  0.700787 0.204724 0
holywater_f.bmp
0  -0.699379 -0.974493 -2.198818  -0.453379 -0.607163 -0.652533  0.574803 0.141732 0
0  0.007210 -1.214772 -2.198880  -0.012376 -0.757588 -0.652615  0.700787 0.141732 0
0  0.004028 -1.511425 -1.676972  -0.014314 -0.958013 -0.286366  0.700787 0.204724 0
holywater_f.bmp
0  0.004028 -1.511425 -1.676972  -0.014314 -0.958013 -0.286366  0.700787 0.204724 0
0  0.007210 -1.214772 -2.198880  -0.012376 -0.757588 -0.652615  0.700787 0.141732 0
0  0.898138 -1.234382 -1.680752  0.549964 -0.783457 -0.289371  0.574803 0.204724 0
holywater_f.bmp
0  0.007210 -1.214772 -2.198880  -0.012376 -0.757588 -0.652615  0.700787 0.141732 0
0  0.720469 -0.995111 -2.201888  0.432444 -0.619907 -0.654757  0.574803 0.141732 0
0  0.898138 -1.234382 -1.680752  0.549964 -0.783457 -0.289371  0.574803 0.204724 0
holywater_f.bmp
0  0.898138 -1.234382 -1.680752  0.549964 -0.783457 -0.289371  0.574803 0.204724 0
0  0.720469 -0.995111 -2.201888  0.432444 -0.619907 -0.654757  0.574803 0.141732 0
0  1.459105 -0.482462 -1.686805  0.904252 -0.310483 -0.293136  0.433071 0.204724 0
holywater_f.bmp
0  0.720469 -0.995111 -2.201888  0.432444 -0.619907 -0.654757  0.574803 0.141732 0
0  1.169270 -0.391574 -2.206742  0.711504 -0.247500 -0.657652  0.433071 0.141732 0
0  1.459105 -0.482462 -1.686805  0.904252 -0.310483 -0.293136  0.433071 0.204724 0
holywater_f.bmp
0  1.459105 -0.482462 -1.686805  0.904252 -0.310483 -0.293136  0.433071 0.204724 0
0  1.169270 -0.391574 -2.206742  0.711504 -0.247500 -0.657652  0.433071 0.141732 0
0  1.180002 0.348330 -2.211480  0.718616 0.217977 -0.660361  0.299213 0.141732 0
holywater_f.bmp
0  1.169270 -0.391574 -2.206742  0.711504 -0.247500 -0.657652  0.433071 0.141732 0
0  0.680829 -0.226775 -2.566700  0.332879 -0.120203 -0.935277  0.433071 0.086614 0
0  1.180002 0.348330 -2.211480  0.718616 0.217977 -0.660361  0.299213 0.141732 0
holywater_f.bmp
0  1.180002 0.348330 -2.211480  0.718616 0.217977 -0.660361  0.299213 0.141732 0
0  0.680829 -0.226775 -2.566700  0.332879 -0.120203 -0.935277  0.433071 0.086614 0
0  0.686922 0.193172 -2.569388  0.336033 0.098563 -0.936679  0.299213 0.086614 0
holywater_f.bmp
0  0.680829 -0.226775 -2.566700  0.332879 -0.120203 -0.935277  0.433071 0.086614 0
0  0.023947 -0.007219 -2.566617  -0.002254 -0.006370 -0.999977  0.370079 0.031496 0
0  0.686922 0.193172 -2.569388  0.336033 0.098563 -0.936679  0.299213 0.086614 0
holywater_f.bmp
0  0.686922 0.193172 -2.569388  0.336033 0.098563 -0.936679  0.299213 0.086614 0
0  0.023947 -0.007219 -2.566617  -0.002254 -0.006370 -0.999977  0.370079 0.031496 0
0  0.432027 0.546902 -2.571067  0.209981 0.277266 -0.937567  0.165354 0.086614 0
holywater_f.bmp
0  0.023947 -0.007219 -2.566617  -0.002254 -0.006370 -0.999977  0.370079 0.031496 0
0  0.033955 0.682694 -2.571034  0.003030 0.348025 -0.937480  0.023622 0.086614 0
0  0.432027 0.546902 -2.571067  0.209981 0.277266 -0.937567  0.165354 0.086614 0
holywater_f.bmp
0  0.432027 0.546902 -2.571067  0.209981 0.277266 -0.937567  0.165354 0.086614 0
0  0.033955 0.682694 -2.571034  0.003030 0.348025 -0.937480  0.023622 0.086614 0
0  0.748898 0.964644 -2.214434  0.450179 0.598808 -0.662395  0.165354 0.141732 0
holywater_f.bmp
0  0.033955 0.682694 -2.571034  0.003030 0.348025 -0.937480  0.023622 0.086614 0
0  0.042310 1.204922 -2.214372  0.009417 0.749177 -0.662302  0.023622 0.141732 0
0  0.748898 0.964644 -2.214434  0.450179 0.598808 -0.662395  0.165354 0.141732 0
holywater_f.bmp
0  -0.749907 -0.499798 -2.225925  -0.498912 -0.305773 -0.810919  0.960630 0.724409 0
0  -0.430944 -0.670645 -2.301948  -0.314006 -0.414238 -0.854287  0.889764 0.724409 0
0  -0.977853 -0.775008 -1.814380  -0.714362 -0.557695 -0.422686  0.960630 0.818898 0
holywater_f.bmp
0  -0.977853 -0.775008 -1.814380  -0.714362 -0.557695 -0.422686  0.960630 0.818898 0
0  -0.430944 -0.670645 -2.301948  -0.314006 -0.414238 -0.854287  0.889764 0.724409 0
0  -0.425920 -1.095917 -1.943990  -0.310662 -0.783746 -0.537803  0.889764 0.818898 0
holywater_f.bmp
0  -0.430944 -0.670645 -2.301948  -0.314006 -0.414238 -0.854287  0.889764 0.724409 0
0  -0.073600 -0.639385 -2.404163  -0.104985 -0.390805 -0.914467  0.811024 0.724409 0
0  -0.425920 -1.095917 -1.943990  -0.310662 -0.783746 -0.537803  0.889764 0.818898 0
holywater_f.bmp
0  -0.425920 -1.095917 -1.943990  -0.310662 -0.783746 -0.537803  0.889764 0.818898 0
0  -0.073600 -0.639385 -2.404163  -0.104985 -0.390805 -0.914467  0.811024 0.724409 0
0  0.193716 -1.023801 -2.122604  0.151343 -0.733647 -0.662463  0.811024 0.818898 0
holywater_f.bmp
0  -0.073600 -0.639385 -2.404163  -0.104985 -0.390805 -0.914467  0.811024 0.724409 0
0  0.187608 -0.392280 -2.490563  0.048286 -0.244396 -0.968472  0.740157 0.724409 0
0  0.193716 -1.023801 -2.122604  0.151343 -0.733647 -0.662463  0.811024 0.818898 0
holywater_f.bmp
0  0.193716 -1.023801 -2.122604  0.151343 -0.733647 -0.662463  0.811024 0.818898 0
0  0.187608 -0.392280 -2.490563  0.048286 -0.244396 -0.968472  0.740157 0.724409 0
0  0.650948 -0.596204 -2.287991  0.487180 -0.445275 -0.751256  0.740157 0.818898 0
holywater_f.bmp
0  0.187608 -0.392280 -2.490563  0.048286 -0.244396 -0.968472  0.740157 0.724409 0
0  0.244437 -0.026974 -2.539891  0.087214 -0.030863 -0.995711  0.661417 0.724409 0
0  0.650948 -0.596204 -2.287991  0.487180 -0.445275 -0.751256  0.740157 0.818898 0
holywater_f.bmp
0  0.650948 -0.596204 -2.287991  0.487180 -0.445275 -0.751256  0.740157 0.818898 0
0  0.244437 -0.026974 -2.539891  0.087214 -0.030863 -0.995711  0.661417 0.724409 0
0  0.766861 0.039276 -2.364095  0.543312 0.032354 -0.838907  0.661417 0.818898 0
holywater_f.bmp
0  0.244437 -0.026974 -2.539891  0.087214 -0.030863 -0.995711  0.661417 0.724409 0
0  0.096634 0.309122 -2.524335  -0.003091 0.168008 -0.985781  0.590551 0.724409 0
0  0.766861 0.039276 -2.364095  0.543312 0.032354 -0.838907  0.661417 0.818898 0
holywater_f.bmp
0  0.766861 0.039276 -2.364095  0.543312 0.032354 -0.838907  0.661417 0.818898 0
0  0.096634 0.309122 -2.524335  -0.003091 0.168008 -0.985781  0.590551 0.724409 0
0  0.497128 0.634417 -2.334311  0.351268 0.456014 -0.817717  0.590551 0.818898 0
holywater_f.bmp
0  0.096634 0.309122 -2.524335  -0.003091 0.168008 -0.985781  0.590551 0.724409 0
0  -0.209326 0.488173 -2.452574  -0.187847 0.276709 -0.942415  0.661417 0.724409 0
0  0.497128 0.634417 -2.334311  0.351268 0.456014 -0.817717  0.590551 0.818898 0
holywater_f.bmp
0  0.497128 0.634417 -2.334311  0.351268 0.456014 -0.817717  0.590551 0.818898 0
0  -0.209326 0.488173 -2.452574  -0.187847 0.276709 -0.942415  0.661417 0.724409 0
0  -0.046849 0.954034 -2.206824  -0.030123 0.676075 -0.736216  0.661417 0.818898 0
holywater_f.bmp
0  -0.209326 0.488173 -2.452574  -0.187847 0.276709 -0.942415  0.661417 0.724409 0
0  -0.570810 0.444785 -2.342789  -0.396916 0.253325 -0.882204  0.740157 0.724409 0
0  -0.046849 0.954034 -2.206824  -0.030123 0.676075 -0.736216  0.661417 0.818898 0
holywater_f.bmp
0  -0.046849 0.954034 -2.206824  -0.030123 0.676075 -0.736216  0.661417 0.818898 0
0  -0.570810 0.444785 -2.342789  -0.396916 0.253325 -0.882204  0.740157 0.724409 0
0  -0.671981 0.880457 -2.031490  -0.459176 0.597987 -0.656939  0.740157 0.818898 0
holywater_f.bmp
0  -0.570810 0.444785 -2.342789  -0.396916 0.253325 -0.882204  0.740157 0.724409 0
0  -0.823181 0.200043 -2.259037  -0.475861 0.095714 -0.874297  0.811024 0.724409 0
0  -0.671981 0.880457 -2.031490  -0.459176 0.597987 -0.656939  0.740157 0.818898 0
holywater_f.bmp
0  -0.671981 0.880457 -2.031490  -0.459176 0.597987 -0.656939  0.740157 0.818898 0
0  -0.823181 0.200043 -2.259037  -0.475861 0.095714 -0.874297  0.811024 0.724409 0
0  -1.146708 0.416789 -1.978792  -0.766053 0.283775 -0.576745  0.811024 0.818898 0
holywater_f.bmp
0  -0.823181 0.200043 -2.259037  -0.475861 0.095714 -0.874297  0.811024 0.724409 0
0  -0.891698 -0.155033 -2.212712  -0.568226 -0.136426 -0.811485  0.889764 0.724409 0
0  -1.146708 0.416789 -1.978792  -0.766053 0.283775 -0.576745  0.811024 0.818898 0
holywater_f.bmp
0  -1.146708 0.416789 -1.978792  -0.766053 0.283775 -0.576745  0.811024 0.818898 0
0  -0.891698 -0.155033 -2.212712  -0.568226 -0.136426 -0.811485  0.889764 0.724409 0
0  -1.241877 -0.187887 -1.785575  -0.894919 -0.181959 -0.407445  0.889764 0.818898 0
holywater_f.bmp
0  -0.891698 -0.155033 -2.212712  -0.568226 -0.136426 -0.811485  0.889764 0.724409 0
0  -0.749907 -0.499798 -2.225925  -0.498912 -0.305773 -0.810919  0.960630 0.724409 0
0  -1.241877 -0.187887 -1.785575  -0.894919 -0.181959 -0.407445  0.889764 0.818898 0
holywater_f.bmp
0  -1.241877 -0.187887 -1.785575  -0.894919 -0.181959 -0.407445  0.889764 0.818898 0
0  -0.749907 -0.499798 -2.225925  -0.498912 -0.305773 -0.810919  0.960630 0.724409 0
0  -0.977853 -0.775008 -1.814380  -0.714362 -0.557695 -0.422686  0.960630 0.818898 0
holywater_f.bmp
0  -1.024595 -0.896497 -1.267958  -0.757982 -0.651094 -0.039246  0.960630 0.889764 0
0  -0.352159 -1.315618 -1.488940  -0.250968 -0.951259 -0.179223  0.889764 0.889764 0
0  -0.232758 -1.357242 -1.070543  -0.143851 -0.988565 -0.045233  0.889764 0.960630 0
holywater_f.bmp
0  -0.232758 -1.357242 -1.070543  -0.143851 -0.988565 -0.045233  0.889764 0.960630 0
0  -0.352159 -1.315618 -1.488940  -0.250968 -0.951259 -0.179223  0.889764 0.889764 0
0  0.602529 -1.207208 -1.070537  0.405885 -0.907869 -0.105026  0.811024 0.960630 0
holywater_f.bmp
0  -0.352159 -1.315618 -1.488940  -0.250968 -0.951259 -0.179223  0.889764 0.889764 0
0  0.413186 -1.232598 -1.709092  0.331283 -0.887230 -0.321052  0.811024 0.889764 0
0  0.602529 -1.207208 -1.070537  0.405885 -0.907869 -0.105026  0.811024 0.960630 0
holywater_f.bmp
0  0.602529 -1.207208 -1.070537  0.405885 -0.907869 -0.105026  0.811024 0.960630 0
0  0.413186 -1.232598 -1.709092  0.331283 -0.887230 -0.321052  0.811024 0.889764 0
0  1.171582 -0.671869 -1.394298  0.822904 -0.471162 -0.317546  0.740157 0.960630 0
holywater_f.bmp
0  0.413186 -1.232598 -1.709092  0.331283 -0.887230 -0.321052  0.811024 0.889764 0
0  1.003039 -0.664481 -1.817622  0.751728 -0.486267 -0.445477  0.740157 0.889764 0
0  1.171582 -0.671869 -1.394298  0.822904 -0.471162 -0.317546  0.740157 0.960630 0
holywater_f.bmp
0  1.171582 -0.671869 -1.394298  0.822904 -0.471162 -0.317546  0.740157 0.960630 0
0  1.003039 -0.664481 -1.817622  0.751728 -0.486267 -0.445477  0.740157 0.889764 0
0  1.356700 0.179792 -1.316543  0.932417 0.137108 -0.334365  0.661417 0.960630 0
holywater_f.bmp
0  1.003039 -0.664481 -1.817622  0.751728 -0.486267 -0.445477  0.740157 0.889764 0
0  1.131315 0.101928 -2.011868  0.849326 0.067130 -0.523583  0.661417 0.889764 0
0  1.356700 0.179792 -1.316543  0.932417 0.137108 -0.334365  0.661417 0.960630 0
holywater_f.bmp
0  1.356700 0.179792 -1.316543  0.932417 0.137108 -0.334365  0.661417 0.960630 0
0  1.131315 0.101928 -2.011868  0.849326 0.067130 -0.523583  0.661417 0.889764 0
0  1.013470 0.955590 -1.280140  0.673432 0.668861 -0.314825  0.590551 0.960630 0
holywater_f.bmp
0  1.131315 0.101928 -2.011868  0.849326 0.067130 -0.523583  0.661417 0.889764 0
0  0.798455 0.841765 -1.975527  0.598508 0.617145 -0.510804  0.590551 0.889764 0
0  1.013470 0.955590 -1.280140  0.673432 0.668861 -0.314825  0.590551 0.960630 0
holywater_f.bmp
0  1.013470 0.955590 -1.280140  0.673432 0.668861 -0.314825  0.590551 0.960630 0
0  0.798455 0.841765 -1.975527  0.598508 0.617145 -0.510804  0.590551 0.889764 0
0  0.296397 1.365193 -1.111107  0.181313 0.957403 -0.224733  0.661417 0.960630 0
holywater_f.bmp
0  0.798455 0.841765 -1.975527  0.598508 0.617145 -0.510804  0.590551 0.889764 0
0  0.115680 1.232505 -1.814711  0.105438 0.912383 -0.395524  0.661417 0.889764 0
0  0.296397 1.365193 -1.111107  0.181313 0.957403 -0.224733  0.661417 0.960630 0
holywater_f.bmp
0  0.296397 1.365193 -1.111107  0.181313 0.957403 -0.224733  0.661417 0.960630 0
0  0.115680 1.232505 -1.814711  0.105438 0.912383 -0.395524  0.661417 0.889764 0
0  -0.562867 1.207435 -1.210707  -0.423110 0.904672 -0.050467  0.740157 0.960630 0
holywater_f.bmp
0  0.115680 1.232505 -1.814711  0.105438 0.912383 -0.395524  0.661417 0.889764 0
0  -0.688840 1.131309 -1.733914  -0.469261 0.828848 -0.304638  0.740157 0.889764 0
0  -0.562867 1.207435 -1.210707  -0.423110 0.904672 -0.050467  0.740157 0.960630 0
holywater_f.bmp
0  -0.562867 1.207435 -1.210707  -0.423110 0.904672 -0.050467  0.740157 0.960630 0
0  -0.688840 1.131309 -1.733914  -0.469261 0.828848 -0.304638  0.740157 0.889764 0
0  -1.116172 0.692979 -0.791834  -0.869792 0.484762 0.092022  0.811024 0.960630 0
holywater_f.bmp
0  -0.688840 1.131309 -1.733914  -0.469261 0.828848 -0.304638  0.740157 0.889764 0
0  -1.270694 0.573801 -1.577074  -0.893843 0.421414 -0.153148  0.811024 0.889764 0
0  -1.116172 0.692979 -0.791834  -0.869792 0.484762 0.092022  0.811024 0.960630 0
holywater_f.bmp
0  -1.116172 0.692979 -0.791834  -0.869792 0.484762 0.092022  0.811024 0.960630 0
0  -1.270694 0.573801 -1.577074  -0.893843 0.421414 -0.153148  0.811024 0.889764 0
0  -1.293063 -0.171840 -0.865106  -0.979009 -0.098565 0.178400  0.889764 0.960630 0
holywater_f.bmp
0  -1.270694 0.573801 -1.577074  -0.893843 0.421414 -0.153148  0.811024 0.889764 0
0  -1.367796 -0.185040 -1.291782  -0.990407 -0.137764 -0.010679  0.889764 0.889764 0
0  -1.293063 -0.171840 -0.865106  -0.979009 -0.098565 0.178400  0.889764 0.960630 0
holywater_f.bmp
0  -1.293063 -0.171840 -0.865106  -0.979009 -0.098565 0.178400  0.889764 0.960630 0
0  -1.367796 -0.185040 -1.291782  -0.990407 -0.137764 -0.010679  0.889764 0.889764 0
0  -0.949553 -0.938370 -0.902659  -0.719904 -0.686313 0.103502  0.960630 0.960630 0
holywater_f.bmp
0  -1.367796 -0.185040 -1.291782  -0.990407 -0.137764 -0.010679  0.889764 0.889764 0
0  -1.024595 -0.896497 -1.267958  -0.757982 -0.651094 -0.039246  0.960630 0.889764 0
0  -0.949553 -0.938370 -0.902659  -0.719904 -0.686313 0.103502  0.960630 0.960630 0
holywater_f.bmp
0  -0.977853 -0.775008 -1.814380  -0.714362 -0.557695 -0.422686  0.960630 0.818898 0
0  -0.425920 -1.095917 -1.943990  -0.310662 -0.783746 -0.537803  0.889764 0.818898 0
0  -0.352159 -1.315618 -1.488940  -0.250968 -0.951259 -0.179223  0.889764 0.889764 0
holywater_f.bmp
0  -0.352159 -1.315618 -1.488940  -0.250968 -0.951259 -0.179223  0.889764 0.889764 0
0  -0.425920 -1.095917 -1.943990  -0.310662 -0.783746 -0.537803  0.889764 0.818898 0
0  0.413186 -1.232598 -1.709092  0.331283 -0.887230 -0.321052  0.811024 0.889764 0
holywater_f.bmp
0  -0.425920 -1.095917 -1.943990  -0.310662 -0.783746 -0.537803  0.889764 0.818898 0
0  0.193716 -1.023801 -2.122604  0.151343 -0.733647 -0.662463  0.811024 0.818898 0
0  0.413186 -1.232598 -1.709092  0.331283 -0.887230 -0.321052  0.811024 0.889764 0
holywater_f.bmp
0  0.413186 -1.232598 -1.709092  0.331283 -0.887230 -0.321052  0.811024 0.889764 0
0  0.193716 -1.023801 -2.122604  0.151343 -0.733647 -0.662463  0.811024 0.818898 0
0  1.003039 -0.664481 -1.817622  0.751728 -0.486267 -0.445477  0.740157 0.889764 0
holywater_f.bmp
0  0.193716 -1.023801 -2.122604  0.151343 -0.733647 -0.662463  0.811024 0.818898 0
0  0.650948 -0.596204 -2.287991  0.487180 -0.445275 -0.751256  0.740157 0.818898 0
0  1.003039 -0.664481 -1.817622  0.751728 -0.486267 -0.445477  0.740157 0.889764 0
holywater_f.bmp
0  1.003039 -0.664481 -1.817622  0.751728 -0.486267 -0.445477  0.740157 0.889764 0
0  0.650948 -0.596204 -2.287991  0.487180 -0.445275 -0.751256  0.740157 0.818898 0
0  1.131315 0.101928 -2.011868  0.849326 0.067130 -0.523583  0.661417 0.889764 0
holywater_f.bmp
0  0.650948 -0.596204 -2.287991  0.487180 -0.445275 -0.751256  0.740157 0.818898 0
0  0.766861 0.039276 -2.364095  0.543312 0.032354 -0.838907  0.661417 0.818898 0
0  1.131315 0.101928 -2.011868  0.849326 0.067130 -0.523583  0.661417 0.889764 0
holywater_f.bmp
0  1.131315 0.101928 -2.011868  0.849326 0.067130 -0.523583  0.661417 0.889764 0
0  0.766861 0.039276 -2.364095  0.543312 0.032354 -0.838907  0.661417 0.818898 0
0  0.798455 0.841765 -1.975527  0.598508 0.617145 -0.510804  0.590551 0.889764 0
holywater_f.bmp
0  0.766861 0.039276 -2.364095  0.543312 0.032354 -0.838907  0.661417 0.818898 0
0  0.497128 0.634417 -2.334311  0.351268 0.456014 -0.817717  0.590551 0.818898 0
0  0.798455 0.841765 -1.975527  0.598508 0.617145 -0.510804  0.590551 0.889764 0
holywater_f.bmp
0  0.798455 0.841765 -1.975527  0.598508 0.617145 -0.510804  0.590551 0.889764 0
0  0.497128 0.634417 -2.334311  0.351268 0.456014 -0.817717  0.590551 0.818898 0
0  0.115680 1.232505 -1.814711  0.105438 0.912383 -0.395524  0.661417 0.889764 0
holywater_f.bmp
0  0.497128 0.634417 -2.334311  0.351268 0.456014 -0.817717  0.590551 0.818898 0
0  -0.046849 0.954034 -2.206824  -0.030123 0.676075 -0.736216  0.661417 0.818898 0
0  0.115680 1.232505 -1.814711  0.105438 0.912383 -0.395524  0.661417 0.889764 0
holywater_f.bmp
0  0.115680 1.232505 -1.814711  0.105438 0.912383 -0.395524  0.661417 0.889764 0
0  -0.046849 0.954034 -2.206824  -0.030123 0.676075 -0.736216  0.661417 0.818898 0
0  -0.688840 1.131309 -1.733914  -0.469261 0.828848 -0.304638  0.740157 0.889764 0
holywater_f.bmp
0  -0.046849 0.954034 -2.206824  -0.030123 0.676075 -0.736216  0.661417 0.818898 0
0  -0.671981 0.880457 -2.031490  -0.459176 0.597987 -0.656939  0.740157 0.818898 0
0  -0.688840 1.131309 -1.733914  -0.469261 0.828848 -0.304638  0.740157 0.889764 0
holywater_f.bmp
0  -0.688840 1.131309 -1.733914  -0.469261 0.828848 -0.304638  0.740157 0.889764 0
0  -0.671981 0.880457 -2.031490  -0.459176 0.597987 -0.656939  0.740157 0.818898 0
0  -1.270694 0.573801 -1.577074  -0.893843 0.421414 -0.153148  0.811024 0.889764 0
holywater_f.bmp
0  -0.671981 0.880457 -2.031490  -0.459176 0.597987 -0.656939  0.740157 0.818898 0
0  -1.146708 0.416789 -1.978792  -0.766053 0.283775 -0.576745  0.811024 0.818898 0
0  -1.270694 0.573801 -1.577074  -0.893843 0.421414 -0.153148  0.811024 0.889764 0
holywater_f.bmp
0  -1.270694 0.573801 -1.577074  -0.893843 0.421414 -0.153148  0.811024 0.889764 0
0  -1.146708 0.416789 -1.978792  -0.766053 0.283775 -0.576745  0.811024 0.818898 0
0  -1.367796 -0.185040 -1.291782  -0.990407 -0.137764 -0.010679  0.889764 0.889764 0
holywater_f.bmp
0  -1.146708 0.416789 -1.978792  -0.766053 0.283775 -0.576745  0.811024 0.818898 0
0  -1.241877 -0.187887 -1.785575  -0.894919 -0.181959 -0.407445  0.889764 0.818898 0
0  -1.367796 -0.185040 -1.291782  -0.990407 -0.137764 -0.010679  0.889764 0.889764 0
holywater_f.bmp
0  -1.367796 -0.185040 -1.291782  -0.990407 -0.137764 -0.010679  0.889764 0.889764 0
0  -1.241877 -0.187887 -1.785575  -0.894919 -0.181959 -0.407445  0.889764 0.818898 0
0  -1.024595 -0.896497 -1.267958  -0.757982 -0.651094 -0.039246  0.960630 0.889764 0
holywater_f.bmp
0  -1.241877 -0.187887 -1.785575  -0.894919 -0.181959 -0.407445  0.889764 0.818898 0
0  -0.977853 -0.775008 -1.814380  -0.714362 -0.557695 -0.422686  0.960630 0.818898 0
0  -1.024595 -0.896497 -1.267958  -0.757982 -0.651094 -0.039246  0.960630 0.889764 0
holywater_f.bmp
0  1.510228 -0.499175 -1.056800  0.931964 -0.316761 0.176370  0.433071 0.267717 0
0  0.928829 -1.280799 -1.050512  0.567358 -0.803522 0.180159  0.574803 0.267717 0
0  0.898138 -1.234382 -1.680752  0.549964 -0.783457 -0.289371  0.574803 0.204724 0
holywater_f.bmp
0  0.898138 -1.234382 -1.680752  0.549964 -0.783457 -0.289371  0.574803 0.204724 0
0  0.928829 -1.280799 -1.050512  0.567358 -0.803522 0.180159  0.574803 0.267717 0
0  0.004028 -1.511425 -1.676972  -0.014314 -0.958013 -0.286366  0.700787 0.204724 0
holywater_f.bmp
0  0.928829 -1.280799 -1.050512  0.567358 -0.803522 0.180159  0.574803 0.267717 0
0  0.004578 -1.567403 -1.046603  -0.013887 -0.983099 0.182547  0.700787 0.267717 0
0  0.004028 -1.511425 -1.676972  -0.014314 -0.958013 -0.286366  0.700787 0.204724 0
holywater_f.bmp
0  0.004028 -1.511425 -1.676972  -0.014314 -0.958013 -0.286366  0.700787 0.204724 0
0  0.004578 -1.567403 -1.046603  -0.013887 -0.983099 0.182547  0.700787 0.267717 0
0  -0.881668 -1.208537 -1.676905  -0.573889 -0.767059 -0.286831  0.574803 0.204724 0
holywater_f.bmp
0  0.004578 -1.567403 -1.046603  -0.013887 -0.983099 0.182547  0.700787 0.267717 0
0  -0.910970 -1.254082 -1.046534  -0.589670 -0.786716 0.182667  0.574803 0.267717 0
0  -0.881668 -1.208537 -1.676905  -0.573889 -0.767059 -0.286831  0.574803 0.204724 0
holywater_f.bmp
0  -0.881668 -1.208537 -1.676905  -0.573889 -0.767059 -0.286831  0.574803 0.204724 0
0  -0.910970 -1.254082 -1.046534  -0.589670 -0.786716 0.182667  0.574803 0.267717 0
0  -1.420585 -0.440649 -1.680580  -0.914212 -0.283991 -0.289078  0.433071 0.204724 0
holywater_f.bmp
0  -0.910970 -1.254082 -1.046534  -0.589670 -0.786716 0.182667  0.574803 0.267717 0
0  -1.469450 -0.455906 -1.050359  -0.939938 -0.289512 0.180830  0.433071 0.267717 0
0  -1.420585 -0.440649 -1.680580  -0.914212 -0.283991 -0.289078  0.433071 0.204724 0
holywater_f.bmp
0  -1.420585 -0.440649 -1.680580  -0.914212 -0.283991 -0.289078  0.433071 0.204724 0
0  -1.469450 -0.455906 -1.050359  -0.939938 -0.289512 0.180830  0.433071 0.267717 0
0  -1.407243 0.479235 -1.686471  -0.905626 0.306693 -0.292883  0.299213 0.204724 0
holywater_f.bmp
0  -1.469450 -0.455906 -1.050359  -0.939938 -0.289512 0.180830  0.433071 0.267717 0
0  -1.455526 0.503972 -1.056505  -0.931475 0.318419 0.175967  0.299213 0.267717 0
0  -1.407243 0.479235 -1.686471  -0.905626 0.306693 -0.292883  0.299213 0.204724 0
holywater_f.bmp
0  -1.407243 0.479235 -1.686471  -0.905626 0.306693 -0.292883  0.299213 0.204724 0
0  -1.455526 0.503972 -1.056505  -0.931475 0.318419 0.175967  0.299213 0.267717 0
0  -0.846276 1.231155 -1.692523  -0.551329 0.779703 -0.296815  0.165354 0.204724 0
holywater_f.bmp
0  -1.455526 0.503972 -1.056505  -0.931475 0.318419 0.175967  0.299213 0.267717 0
0  -0.874128 1.285597 -1.062793  -0.566582 0.805767 0.172410  0.165354 0.267717 0
0  -0.846276 1.231155 -1.692523  -0.551329 0.779703 -0.296815  0.165354 0.204724 0
holywater_f.bmp
0  -0.846276 1.231155 -1.692523  -0.551329 0.779703 -0.296815  0.165354 0.204724 0
0  -0.874128 1.285597 -1.062793  -0.566582 0.805767 0.172410  0.165354 0.267717 0
0  0.047835 1.508196 -1.696303  0.012996 0.954288 -0.298607  0.023622 0.204724 0
holywater_f.bmp
0  -0.874128 1.285597 -1.062793  -0.566582 0.805767 0.172410  0.165354 0.267717 0
0  0.050123 1.572202 -1.066702  0.014695 0.985354 0.169889  0.023622 0.267717 0
0  0.047835 1.508196 -1.696303  0.012996 0.954288 -0.298607  0.023622 0.204724 0
holywater_f.bmp
0  0.047835 1.508196 -1.696303  0.012996 0.954288 -0.298607  0.023622 0.204724 0
0  0.050123 1.572202 -1.066702  0.014695 0.985354 0.169889  0.023622 0.267717 0
0  0.933530 1.205310 -1.696371  0.572435 0.763392 -0.299251  0.165354 0.204724 0
holywater_f.bmp
0  0.050123 1.572202 -1.066702  0.014695 0.985354 0.169889  0.023622 0.267717 0
0  0.965675 1.258882 -1.066770  0.590461 0.788952 0.170030  0.165354 0.267717 0
0  0.933530 1.205310 -1.696371  0.572435 0.763392 -0.299251  0.165354 0.204724 0
holywater_f.bmp
0  0.933530 1.205310 -1.696371  0.572435 0.763392 -0.299251  0.165354 0.204724 0
0  0.965675 1.258882 -1.066770  0.590461 0.788952 0.170030  0.165354 0.267717 0
0  1.472448 0.437420 -1.692695  0.912831 0.280333 -0.296906  0.299213 0.204724 0
holywater_f.bmp
0  0.965675 1.258882 -1.066770  0.590461 0.788952 0.170030  0.165354 0.267717 0
0  1.524154 0.460705 -1.062945  0.940999 0.291573 0.171772  0.299213 0.267717 0
0  1.472448 0.437420 -1.692695  0.912831 0.280333 -0.296906  0.299213 0.204724 0
holywater_f.bmp
0  1.314176 0.396630 -0.612053  0.743399 0.231528 0.627497  0.299213 0.330709 0
0  0.580131 0.769175 -0.322765  0.275405 0.368685 0.887819  0.165354 0.393701 0
0  0.913131 0.284300 -0.320427  0.428605 0.135178 0.893322  0.299213 0.393701 0
holywater_f.bmp
0  0.913131 0.284300 -0.320427  0.428605 0.135178 0.893322  0.299213 0.393701 0
0  0.580131 0.769175 -0.322765  0.275405 0.368685 0.887819  0.165354 0.393701 0
0  0.491417 0.151179 -0.198626  0.743375 0.231479 0.627544  0.299213 0.456693 0
holywater_f.bmp
0  0.580131 0.769175 -0.322765  0.275405 0.368685 0.887819  0.165354 0.393701 0
0  0.315206 0.413761 -0.199902  0.471238 0.628159 0.619153  0.165354 0.456693 0
0  0.491417 0.151179 -0.198626  0.743375 0.231479 0.627544  0.299213 0.456693 0
holywater_f.bmp
0  0.491417 0.151179 -0.198626  0.743375 0.231479 0.627544  0.299213 0.456693 0
0  0.315206 0.413761 -0.199902  0.471238 0.628159 0.619153  0.165354 0.456693 0
0  0.542942 0.173953 0.351126  0.774234 0.228218 -0.590320  0.299213 0.551181 0
holywater_f.bmp
0  0.315206 0.413761 -0.199902  0.471238 0.628159 0.619153  0.165354 0.456693 0
0  0.347024 0.456821 0.349765  0.490748 0.633298 -0.598416  0.157480 0.551181 0
0  0.542942 0.173953 0.351126  0.774234 0.228218 -0.590320  0.299213 0.551181 0
holywater_f.bmp
0  0.542942 0.173953 0.351126  0.774234 0.228218 -0.590320  0.299213 0.551181 0
0  0.347024 0.456821 0.349765  0.490748 0.633298 -0.598416  0.157480 0.551181 0
0  0.408314 0.536324 0.409122  0.537447 0.698990 -0.471766  0.157480 0.590551 0
holywater_f.bmp
0  0.347024 0.456821 0.349765  0.490748 0.633298 -0.598416  0.157480 0.551181 0
0  0.040238 0.671679 0.409090  0.011765 0.881078 -0.472826  0.023622 0.590551 0
0  0.408314 0.536324 0.409122  0.537447 0.698990 -0.471766  0.157480 0.590551 0
holywater_f.bmp
0  0.408314 0.536324 0.409122  0.537447 0.698990 -0.471766  0.157480 0.590551 0
0  0.040238 0.671679 0.409090  0.011765 0.881078 -0.472826  0.023622 0.590551 0
0  0.040530 0.672507 0.539086  0.013963 0.896268 0.443293  0.023622 0.637795 0
holywater_f.bmp
0  0.040238 0.671679 0.409090  0.011765 0.881078 -0.472826  0.023622 0.590551 0
0  -0.331315 0.547894 0.540718  -0.522374 0.727826 0.444291  0.157480 0.637795 0
0  0.040530 0.672507 0.539086  0.013963 0.896268 0.443293  0.023622 0.637795 0
holywater_f.bmp
0  0.040530 0.672507 0.539086  0.013963 0.896268 0.443293  0.023622 0.637795 0
0  -0.331315 0.547894 0.540718  -0.522374 0.727826 0.444291  0.157480 0.637795 0
0  -0.282223 0.477496 0.591057  -0.190658 0.268877 0.944116  0.165354 0.669291 0
holywater_f.bmp
0  -0.331315 0.547894 0.540718  -0.522374 0.727826 0.444291  0.157480 0.637795 0
0  -0.496406 0.190583 0.593367  -0.310304 0.108558 0.944419  0.299213 0.669291 0
0  -0.282223 0.477496 0.591057  -0.190658 0.268877 0.944116  0.165354 0.669291 0
holywater_f.bmp
0  -0.282223 0.477496 0.591057  -0.190658 0.268877 0.944116  0.165354 0.669291 0
0  -0.496406 0.190583 0.593367  -0.310304 0.108558 0.944419  0.299213 0.669291 0
0  0.031070 0.012908 0.593310  0.002254 0.006370 0.999977  0.370079 0.724409 0
holywater_f.bmp
0  -0.496406 0.190583 0.593367  -0.310304 0.108558 0.944419  0.299213 0.669291 0
0  -0.501339 -0.149377 0.595544  -0.313115 -0.087411 0.945684  0.433071 0.669291 0
0  0.031070 0.012908 0.593310  0.002254 0.006370 0.999977  0.370079 0.724409 0
holywater_f.bmp
0  0.031070 0.012908 0.593310  0.002254 0.006370 0.999977  0.370079 0.724409 0
0  -0.501339 -0.149377 0.595544  -0.313115 -0.087411 0.945684  0.433071 0.669291 0
0  -0.295566 -0.442386 0.596946  -0.198192 -0.251108 0.947452  0.574803 0.669291 0
holywater_f.bmp
0  -0.501339 -0.149377 0.595544  -0.313115 -0.087411 0.945684  0.433071 0.669291 0
0  -0.581877 -0.178527 0.545909  -0.856151 -0.255373 0.449210  0.433071 0.637795 0
0  -0.295566 -0.442386 0.596946  -0.198192 -0.251108 0.947452  0.574803 0.669291 0
holywater_f.bmp
0  1.169270 -0.391574 -2.206742  0.711504 -0.247500 -0.657652  0.433071 0.141732 0
0  0.720469 -0.995111 -2.201888  0.432444 -0.619907 -0.654757  0.574803 0.141732 0
0  0.680829 -0.226775 -2.566700  0.332879 -0.120203 -0.935277  0.433071 0.086614 0
holywater_f.bmp
0  0.680829 -0.226775 -2.566700  0.332879 -0.120203 -0.935277  0.433071 0.086614 0
0  0.720469 -0.995111 -2.201888  0.432444 -0.619907 -0.654757  0.574803 0.141732 0
0  0.415784 -0.572955 -2.563897  0.201737 -0.295274 -0.933871  0.574803 0.086614 0
holywater_f.bmp
0  0.720469 -0.995111 -2.201888  0.432444 -0.619907 -0.654757  0.574803 0.141732 0
0  0.007210 -1.214772 -2.198880  -0.012376 -0.757588 -0.652615  0.700787 0.141732 0
0  0.415784 -0.572955 -2.563897  0.201737 -0.295274 -0.933871  0.574803 0.086614 0
holywater_f.bmp
0  0.415784 -0.572955 -2.563897  0.201737 -0.295274 -0.933871  0.574803 0.086614 0
0  0.007210 -1.214772 -2.198880  -0.012376 -0.757588 -0.652615  0.700787 0.141732 0
0  0.013940 -0.697132 -2.562200  -0.007253 -0.359991 -0.932927  0.700787 0.086614 0
holywater_f.bmp
0  0.007210 -1.214772 -2.198880  -0.012376 -0.757588 -0.652615  0.700787 0.141732 0
0  -0.699379 -0.974493 -2.198818  -0.453379 -0.607163 -0.652533  0.574803 0.141732 0
0  0.013940 -0.697132 -2.562200  -0.007253 -0.359991 -0.932927  0.700787 0.086614 0
holywater_f.bmp
0  0.013940 -0.697132 -2.562200  -0.007253 -0.359991 -0.932927  0.700787 0.086614 0
0  -0.699379 -0.974493 -2.198818  -0.453379 -0.607163 -0.652533  0.574803 0.141732 0
0  -0.384131 -0.561340 -2.562168  -0.214241 -0.289210 -0.932984  0.574803 0.086614 0
holywater_f.bmp
0  -0.699379 -0.974493 -2.198818  -0.453379 -0.607163 -0.652533  0.574803 0.141732 0
0  -1.130484 -0.358183 -2.201772  -0.721207 -0.226638 -0.654595  0.433071 0.141732 0
0  -0.384131 -0.561340 -2.562168  -0.214241 -0.289210 -0.932984  0.574803 0.086614 0
holywater_f.bmp
0  -0.384131 -0.561340 -2.562168  -0.214241 -0.289210 -0.932984  0.574803 0.086614 0
0  -1.130484 -0.358183 -2.201772  -0.721207 -0.226638 -0.654595  0.433071 0.141732 0
0  -0.639027 -0.207610 -2.563846  -0.340124 -0.110698 -0.933842  0.433071 0.086614 0
holywater_f.bmp
0  -1.130484 -0.358183 -2.201772  -0.721207 -0.226638 -0.654595  0.433071 0.141732 0
0  -1.119750 0.381725 -2.206509  -0.714233 0.239500 -0.657656  0.299213 0.141732 0
0  -0.639027 -0.207610 -2.563846  -0.340124 -0.110698 -0.933842  0.433071 0.086614 0
holywater_f.bmp
0  -0.639027 -0.207610 -2.563846  -0.340124 -0.110698 -0.933842  0.433071 0.086614 0
0  -1.119750 0.381725 -2.206509  -0.714233 0.239500 -0.657656  0.299213 0.141732 0
0  -0.632935 0.212338 -2.566535  -0.337239 0.108312 -0.935167  0.299213 0.086614 0
holywater_f.bmp
0  -1.119750 0.381725 -2.206509  -0.714233 0.239500 -0.657656  0.299213 0.141732 0
0  -0.670948 0.985260 -2.211364  -0.435433 0.611725 -0.660447  0.165354 0.141732 0
0  -0.632935 0.212338 -2.566535  -0.337239 0.108312 -0.935167  0.299213 0.086614 0
holywater_f.bmp
0  -0.632935 0.212338 -2.566535  -0.337239 0.108312 -0.935167  0.299213 0.086614 0
0  -0.670948 0.985260 -2.211364  -0.435433 0.611725 -0.660447  0.165354 0.141732 0
0  -0.367886 0.558520 -2.569338  -0.205905 0.283339 -0.936655  0.165354 0.086614 0
holywater_f.bmp
0  -0.670948 0.985260 -2.211364  -0.435433 0.611725 -0.660447  0.165354 0.141732 0
0  0.042310 1.204922 -2.214372  0.009417 0.749177 -0.662302  0.023622 0.141732 0
0  -0.367886 0.558520 -2.569338  -0.205905 0.283339 -0.936655  0.165354 0.086614 0
holywater_f.bmp
0  -0.367886 0.558520 -2.569338  -0.205905 0.283339 -0.936655  0.165354 0.086614 0
0  0.042310 1.204922 -2.214372  0.009417 0.749177 -0.662302  0.023622 0.141732 0
0  0.033955 0.682694 -2.571034  0.003030 0.348025 -0.937480  0.023622 0.086614 0
holywater_f.bmp
0  0.344363 -0.451681 0.595563  0.194895 -0.256788 0.946613  0.574803 0.669291 0
0  0.021384 -0.647328 0.547537  -0.011946 -0.890573 0.454684  0.700787 0.637795 0
0  0.393229 -0.522716 0.545905  0.524402 -0.722118 0.451163  0.574803 0.637795 0
holywater_f.bmp
0  0.393229 -0.522716 0.545905  0.524402 -0.722118 0.451163  0.574803 0.637795 0
0  0.021384 -0.647328 0.547537  -0.011946 -0.890573 0.454684  0.700787 0.637795 0
0  0.021092 -0.648156 0.417540  -0.013877 -0.887030 -0.461502  0.700787 0.590551 0
holywater_f.bmp
0  0.021384 -0.647328 0.547537  -0.011946 -0.890573 0.454684  0.700787 0.637795 0
0  -0.346984 -0.512801 0.417507  -0.539547 -0.704934 -0.460389  0.574803 0.590551 0
0  0.021092 -0.648156 0.417540  -0.013877 -0.887030 -0.461502  0.700787 0.590551 0
holywater_f.bmp
0  0.021092 -0.648156 0.417540  -0.013877 -0.887030 -0.461502  0.700787 0.590551 0
0  -0.346984 -0.512801 0.417507  -0.539547 -0.704934 -0.460389  0.574803 0.590551 0
0  -0.285965 -0.434065 0.356867  -0.493419 -0.640857 -0.588081  0.574803 0.551181 0
holywater_f.bmp
0  -0.346984 -0.512801 0.417507  -0.539547 -0.704934 -0.460389  0.574803 0.590551 0
0  -0.481880 -0.151194 0.355507  -0.776885 -0.235698 -0.583863  0.433071 0.551181 0
0  -0.285965 -0.434065 0.356867  -0.493419 -0.640857 -0.588081  0.574803 0.551181 0
holywater_f.bmp
0  -0.285965 -0.434065 0.356867  -0.493419 -0.640857 -0.588081  0.574803 0.551181 0
0  -0.481880 -0.151194 0.355507  -0.776885 -0.235698 -0.583863  0.433071 0.551181 0
0  -0.256627 -0.398007 -0.193442  -0.468428 -0.620202 0.629225  0.574803 0.456693 0
holywater_f.bmp
0  -0.481880 -0.151194 0.355507  -0.776885 -0.235698 -0.583863  0.433071 0.551181 0
0  -0.432837 -0.135427 -0.194718  -0.740533 -0.223430 0.633790  0.433071 0.456693 0
0  -0.256627 -0.398007 -0.193442  -0.468428 -0.620202 0.629225  0.574803 0.456693 0
holywater_f.bmp
0  -0.256627 -0.398007 -0.193442  -0.468428 -0.620202 0.629225  0.574803 0.456693 0
0  -0.432837 -0.135427 -0.194718  -0.740533 -0.223430 0.633790  0.433071 0.456693 0
0  -0.522092 -0.754951 -0.310573  -0.271245 -0.357276 0.893745  0.574803 0.393701 0
holywater_f.bmp
0  -0.432837 -0.135427 -0.194718  -0.740533 -0.223430 0.633790  0.433071 0.456693 0
0  -0.855092 -0.270075 -0.312911  -0.424650 -0.123828 0.896849  0.433071 0.393701 0
0  -0.522092 -0.754951 -0.310573  -0.271245 -0.357276 0.893745  0.574803 0.393701 0
holywater_f.bmp
0  -0.522092 -0.754951 -0.310573  -0.271245 -0.357276 0.893745  0.574803 0.393701 0
0  -0.855092 -0.270075 -0.312911  -0.424650 -0.123828 0.896849  0.433071 0.393701 0
0  -1.257444 -0.386099 -0.601272  -0.740561 -0.223505 0.633731  0.433071 0.330709 0
holywater_f.bmp
0  -0.855092 -0.270075 -0.312911  -0.424650 -0.123828 0.896849  0.433071 0.393701 0
0  -0.846678 0.309855 -0.316624  -0.421261 0.150180 0.894419  0.299213 0.393701 0
0  -1.257444 -0.386099 -0.601272  -0.740561 -0.223505 0.633731  0.433071 0.330709 0
holywater_f.bmp
0  -1.257444 -0.386099 -0.601272  -0.740561 -0.223505 0.633731  0.433071 0.330709 0
0  -0.846678 0.309855 -0.316624  -0.421261 0.150180 0.894419  0.299213 0.393701 0
0  -1.245549 0.433800 -0.606520  -0.732851 0.253608 0.631358  0.299213 0.330709 0
holywater_f.bmp
0  -0.846678 0.309855 -0.316624  -0.421261 0.150180 0.894419  0.299213 0.393701 0
0  -0.745885 1.096599 -0.611869  -0.449760 0.640358 0.622622  0.165354 0.330709 0
0  -1.245549 0.433800 -0.606520  -0.732851 0.253608 0.631358  0.299213 0.330709 0
holywater_f.bmp
0  0.833944 1.073659 -0.615284  0.471194 0.628209 0.619137  0.165354 0.330709 0
0  0.042946 0.966992 -0.322814  0.007155 0.466843 0.884311  0.023622 0.393701 0
0  0.580131 0.769175 -0.322765  0.275405 0.368685 0.887819  0.165354 0.393701 0
holywater_f.bmp
0  0.580131 0.769175 -0.322765  0.275405 0.368685 0.887819  0.165354 0.393701 0
0  0.042946 0.966992 -0.322814  0.007155 0.466843 0.884311  0.023622 0.393701 0
0  0.315206 0.413761 -0.199902  0.471238 0.628159 0.619153  0.165354 0.456693 0
holywater_f.bmp
0  0.042946 0.966992 -0.322814  0.007155 0.466843 0.884311  0.023622 0.393701 0
0  0.036541 0.507814 -0.199873  0.012178 0.787793 0.615820  0.023622 0.456693 0
0  0.315206 0.413761 -0.199902  0.471238 0.628159 0.619153  0.165354 0.456693 0
holywater_f.bmp
0  0.315206 0.413761 -0.199902  0.471238 0.628159 0.619153  0.165354 0.456693 0
0  0.036541 0.507814 -0.199873  0.012178 0.787793 0.615820  0.023622 0.456693 0
0  0.347024 0.456821 0.349765  0.490748 0.633298 -0.598416  0.157480 0.551181 0
holywater_f.bmp
0  0.036541 0.507814 -0.199873  0.012178 0.787793 0.615820  0.023622 0.456693 0
0  0.038652 0.571308 0.349731  0.010288 0.798188 -0.602320  0.023622 0.551181 0
0  0.347024 0.456821 0.349765  0.490748 0.633298 -0.598416  0.157480 0.551181 0
holywater_f.bmp
0  0.347024 0.456821 0.349765  0.490748 0.633298 -0.598416  0.157480 0.551181 0
0  0.038652 0.571308 0.349731  0.010288 0.798188 -0.602320  0.023622 0.551181 0
0  0.040238 0.671679 0.409090  0.011765 0.881078 -0.472826  0.023622 0.590551 0
holywater_f.bmp
0  0.038652 0.571308 0.349731  0.010288 0.798188 -0.602320  0.023622 0.551181 0
0  -0.331608 0.547067 0.410721  -0.518958 0.714350 -0.469453  0.157480 0.590551 0
0  0.040238 0.671679 0.409090  0.011765 0.881078 -0.472826  0.023622 0.590551 0
holywater_f.bmp
0  0.040238 0.671679 0.409090  0.011765 0.881078 -0.472826  0.023622 0.590551 0
0  -0.331608 0.547067 0.410721  -0.518958 0.714350 -0.469453  0.157480 0.590551 0
0  -0.331315 0.547894 0.540718  -0.522374 0.727826 0.444291  0.157480 0.637795 0
holywater_f.bmp
0  -0.331608 0.547067 0.410721  -0.518958 0.714350 -0.469453  0.157480 0.590551 0
0  -0.576077 0.221421 0.543349  -0.848307 0.285823 0.445736  0.299213 0.637795 0
0  -0.331315 0.547894 0.540718  -0.522374 0.727826 0.444291  0.157480 0.637795 0
holywater_f.bmp
0  -0.331315 0.547894 0.540718  -0.522374 0.727826 0.444291  0.157480 0.637795 0
0  -0.576077 0.221421 0.543349  -0.848307 0.285823 0.445736  0.299213 0.637795 0
0  -0.496406 0.190583 0.593367  -0.310304 0.108558 0.944419  0.299213 0.669291 0
holywater_f.bmp
0  -0.576077 0.221421 0.543349  -0.848307 0.285823 0.445736  0.299213 0.637795 0
0  -0.501339 -0.149377 0.595544  -0.313115 -0.087411 0.945684  0.433071 0.669291 0
0  -0.496406 0.190583 0.593367  -0.310304 0.108558 0.944419  0.299213 0.669291 0
holywater_f.bmp
0  -0.501339 -0.149377 0.595544  -0.313115 -0.087411 0.945684  0.433071 0.669291 0
0  -0.576077 0.221421 0.543349  -0.848307 0.285823 0.445736  0.299213 0.637795 0
0  -0.581877 -0.178527 0.545909  -0.856151 -0.255373 0.449210  0.433071 0.637795 0
holywater_f.bmp
0  -0.581877 -0.178527 0.545909  -0.856151 -0.255373 0.449210  0.433071 0.637795 0
0  -0.576077 0.221421 0.543349  -0.848307 0.285823 0.445736  0.299213 0.637795 0
0  -0.576369 0.220594 0.413351  -0.841326 0.277111 -0.464091  0.299213 0.590551 0
holywater_f.bmp
0  -0.576077 0.221421 0.543349  -0.848307 0.285823 0.445736  0.299213 0.637795 0
0  -0.331608 0.547067 0.410721  -0.518958 0.714350 -0.469453  0.157480 0.590551 0
0  -0.576369 0.220594 0.413351  -0.841326 0.277111 -0.464091  0.299213 0.590551 0
holywater_f.bmp
0  -0.576369 0.220594 0.413351  -0.841326 0.277111 -0.464091  0.299213 0.590551 0
0  -0.331608 0.547067 0.410721  -0.518958 0.714350 -0.469453  0.157480 0.590551 0
0  -0.272908 0.465824 0.351106  -0.474729 0.647313 -0.596337  0.157480 0.551181 0
holywater_f.bmp
0  -0.331608 0.547067 0.410721  -0.518958 0.714350 -0.469453  0.157480 0.590551 0
0  0.038652 0.571308 0.349731  0.010288 0.798188 -0.602320  0.023622 0.551181 0
0  -0.272908 0.465824 0.351106  -0.474729 0.647313 -0.596337  0.157480 0.551181 0
holywater_f.bmp
0  -0.272908 0.465824 0.351106  -0.474729 0.647313 -0.596337  0.157480 0.551181 0
0  0.038652 0.571308 0.349731  0.010288 0.798188 -0.602320  0.023622 0.551181 0
0  -0.244732 0.421892 -0.198691  -0.449759 0.640409 0.622569  0.165354 0.456693 0
holywater_f.bmp
0  0.038652 0.571308 0.349731  0.010288 0.798188 -0.602320  0.023622 0.551181 0
0  0.036541 0.507814 -0.199873  0.012178 0.787793 0.615820  0.023622 0.456693 0
0  -0.244732 0.421892 -0.198691  -0.449759 0.640409 0.622569  0.165354 0.456693 0
holywater_f.bmp
0  -0.244732 0.421892 -0.198691  -0.449759 0.640409 0.622569  0.165354 0.456693 0
0  0.036541 0.507814 -0.199873  0.012178 0.787793 0.615820  0.023622 0.456693 0
0  -0.499754 0.784856 -0.320431  -0.262546 0.377729 0.887914  0.165354 0.393701 0
holywater_f.bmp
0  0.036541 0.507814 -0.199873  0.012178 0.787793 0.615820  0.023622 0.456693 0
0  0.042946 0.966992 -0.322814  0.007155 0.466843 0.884311  0.023622 0.393701 0
0  -0.499754 0.784856 -0.320431  -0.262546 0.377729 0.887914  0.165354 0.393701 0
holywater_f.bmp
0  -0.499754 0.784856 -0.320431  -0.262546 0.377729 0.887914  0.165354 0.393701 0
0  0.042946 0.966992 -0.322814  0.007155 0.466843 0.884311  0.023622 0.393701 0
0  0.047801 1.345096 -0.615241  0.011994 0.787750 0.615879  0.023622 0.330709 0
holywater_f.bmp
0  0.042946 0.966992 -0.322814  0.007155 0.466843 0.884311  0.023622 0.393701 0
0  0.833944 1.073659 -0.615284  0.471194 0.628209 0.619137  0.165354 0.330709 0
0  0.047801 1.345096 -0.615241  0.011994 0.787750 0.615879  0.023622 0.330709 0
holywater_f.bmp
0  -0.329554 -0.098123 -2.374104  -0.268170 -0.073381 -0.960573  0.779528 0.669291 0
0  -0.430944 -0.670645 -2.301948  -0.314006 -0.414238 -0.854287  0.889764 0.724409 0
0  -0.749907 -0.499798 -2.225925  -0.498912 -0.305773 -0.810919  0.960630 0.724409 0
holywater_f.bmp
0  -0.329554 -0.098123 -2.374104  -0.268170 -0.073381 -0.960573  0.779528 0.669291 0
0  -0.073600 -0.639385 -2.404163  -0.104985 -0.390805 -0.914467  0.811024 0.724409 0
0  -0.430944 -0.670645 -2.301948  -0.314006 -0.414238 -0.854287  0.889764 0.724409 0
holywater_f.bmp
0  -0.329554 -0.098123 -2.374104  -0.268170 -0.073381 -0.960573  0.779528 0.669291 0
0  0.187608 -0.392280 -2.490563  0.048286 -0.244396 -0.968472  0.740157 0.724409 0
0  -0.073600 -0.639385 -2.404163  -0.104985 -0.390805 -0.914467  0.811024 0.724409 0
holywater_f.bmp
0  -0.329554 -0.098123 -2.374104  -0.268170 -0.073381 -0.960573  0.779528 0.669291 0
0  0.244437 -0.026974 -2.539891  0.087214 -0.030863 -0.995711  0.661417 0.724409 0
0  0.187608 -0.392280 -2.490563  0.048286 -0.244396 -0.968472  0.740157 0.724409 0
holywater_f.bmp
0  -0.329554 -0.098123 -2.374104  -0.268170 -0.073381 -0.960573  0.779528 0.669291 0
0  0.096634 0.309122 -2.524335  -0.003091 0.168008 -0.985781  0.590551 0.724409 0
0  0.244437 -0.026974 -2.539891  0.087214 -0.030863 -0.995711  0.661417 0.724409 0
holywater_f.bmp
0  -0.329554 -0.098123 -2.374104  -0.268170 -0.073381 -0.960573  0.779528 0.669291 0
0  -0.209326 0.488173 -2.452574  -0.187847 0.276709 -0.942415  0.661417 0.724409 0
0  0.096634 0.309122 -2.524335  -0.003091 0.168008 -0.985781  0.590551 0.724409 0
holywater_f.bmp
0  -0.329554 -0.098123 -2.374104  -0.268170 -0.073381 -0.960573  0.779528 0.669291 0
0  -0.570810 0.444785 -2.342789  -0.396916 0.253325 -0.882204  0.740157 0.724409 0
0  -0.209326 0.488173 -2.452574  -0.187847 0.276709 -0.942415  0.661417 0.724409 0
holywater_f.bmp
0  -0.329554 -0.098123 -2.374104  -0.268170 -0.073381 -0.960573  0.779528 0.669291 0
0  -0.823181 0.200043 -2.259037  -0.475861 0.095714 -0.874297  0.811024 0.724409 0
0  -0.570810 0.444785 -2.342789  -0.396916 0.253325 -0.882204  0.740157 0.724409 0
holywater_f.bmp
0  -0.329554 -0.098123 -2.374104  -0.268170 -0.073381 -0.960573  0.779528 0.669291 0
0  -0.891698 -0.155033 -2.212712  -0.568226 -0.136426 -0.811485  0.889764 0.724409 0
0  -0.823181 0.200043 -2.259037  -0.475861 0.095714 -0.874297  0.811024 0.724409 0
holywater_f.bmp
0  -0.329554 -0.098123 -2.374104  -0.268170 -0.073381 -0.960573  0.779528 0.669291 0
0  -0.749907 -0.499798 -2.225925  -0.498912 -0.305773 -0.810919  0.960630 0.724409 0
0  -0.891698 -0.155033 -2.212712  -0.568226 -0.136426 -0.811485  0.889764 0.724409 0
holywater_f.bmp
0  -0.855092 -0.270075 -0.312911  -0.424650 -0.123828 0.896849  0.433071 0.393701 0
0  -0.432837 -0.135427 -0.194718  -0.740533 -0.223430 0.633790  0.433071 0.456693 0
0  -0.428484 0.164537 -0.196638  -0.732723 0.253573 0.631520  0.299213 0.456693 0
holywater_f.bmp
0  -0.428484 0.164537 -0.196638  -0.732723 0.253573 0.631520  0.299213 0.456693 0
0  -0.432837 -0.135427 -0.194718  -0.740533 -0.223430 0.633790  0.433071 0.456693 0
0  -0.476950 0.188764 0.353330  -0.769842 0.250553 -0.586998  0.299213 0.551181 0
holywater_f.bmp
0  -0.432837 -0.135427 -0.194718  -0.740533 -0.223430 0.633790  0.433071 0.456693 0
0  -0.481880 -0.151194 0.355507  -0.776885 -0.235698 -0.583863  0.433071 0.551181 0
0  -0.476950 0.188764 0.353330  -0.769842 0.250553 -0.586998  0.299213 0.551181 0
holywater_f.bmp
0  -0.476950 0.188764 0.353330  -0.769842 0.250553 -0.586998  0.299213 0.551181 0
0  -0.481880 -0.151194 0.355507  -0.776885 -0.235698 -0.583863  0.433071 0.551181 0
0  -0.582172 -0.179358 0.415913  -0.849103 -0.258432 -0.460692  0.433071 0.590551 0
holywater_f.bmp
0  -0.481880 -0.151194 0.355507  -0.776885 -0.235698 -0.583863  0.433071 0.551181 0
0  -0.346984 -0.512801 0.417507  -0.539547 -0.704934 -0.460389  0.574803 0.590551 0
0  -0.582172 -0.179358 0.415913  -0.849103 -0.258432 -0.460692  0.433071 0.590551 0
holywater_f.bmp
0  -0.582172 -0.179358 0.415913  -0.849103 -0.258432 -0.460692  0.433071 0.590551 0
0  -0.346984 -0.512801 0.417507  -0.539547 -0.704934 -0.460389  0.574803 0.590551 0
0  -0.346689 -0.511971 0.547503  -0.543199 -0.706628 0.453445  0.574803 0.637795 0
holywater_f.bmp
0  -0.346984 -0.512801 0.417507  -0.539547 -0.704934 -0.460389  0.574803 0.590551 0
0  0.021384 -0.647328 0.547537  -0.011946 -0.890573 0.454684  0.700787 0.637795 0
0  -0.346689 -0.511971 0.547503  -0.543199 -0.706628 0.453445  0.574803 0.637795 0
holywater_f.bmp
0  -0.346689 -0.511971 0.547503  -0.543199 -0.706628 0.453445  0.574803 0.637795 0
0  0.021384 -0.647328 0.547537  -0.011946 -0.890573 0.454684  0.700787 0.637795 0
0  0.022804 -0.557020 0.596960  -0.002565 -0.318021 0.948080  0.700787 0.669291 0
holywater_f.bmp
0  0.021384 -0.647328 0.547537  -0.011946 -0.890573 0.454684  0.700787 0.637795 0
0  0.344363 -0.451681 0.595563  0.194895 -0.256788 0.946613  0.574803 0.669291 0
0  0.022804 -0.557020 0.596960  -0.002565 -0.318021 0.948080  0.700787 0.669291 0
holywater_f.bmp
0  0.491417 0.151179 -0.198626  0.743375 0.231479 0.627544  0.299213 0.456693 0
0  0.542942 0.173953 0.351126  0.774234 0.228218 -0.590320  0.299213 0.551181 0
0  0.538008 -0.166005 0.353301  0.767167 -0.258118 -0.587222  0.433071 0.551181 0
holywater_f.bmp
0  0.538008 -0.166005 0.353301  0.767167 -0.258118 -0.587222  0.433071 0.551181 0
0  0.542942 0.173953 0.351126  0.774234 0.228218 -0.590320  0.299213 0.551181 0
0  0.643499 0.202880 0.410715  0.846999 0.252571 -0.467762  0.299213 0.590551 0
holywater_f.bmp
0  0.542942 0.173953 0.351126  0.774234 0.228218 -0.590320  0.299213 0.551181 0
0  0.408314 0.536324 0.409122  0.537447 0.698990 -0.471766  0.157480 0.590551 0
0  0.643499 0.202880 0.410715  0.846999 0.252571 -0.467762  0.299213 0.590551 0
holywater_f.bmp
0  0.643499 0.202880 0.410715  0.846999 0.252571 -0.467762  0.299213 0.590551 0
0  0.408314 0.536324 0.409122  0.537447 0.698990 -0.471766  0.157480 0.590551 0
0  0.408606 0.537152 0.539119  0.545222 0.712330 0.441949  0.157480 0.637795 0
holywater_f.bmp
0  0.408314 0.536324 0.409122  0.537447 0.698990 -0.471766  0.157480 0.590551 0
0  0.040530 0.672507 0.539086  0.013963 0.896268 0.443293  0.023622 0.637795 0
0  0.408606 0.537152 0.539119  0.545222 0.712330 0.441949  0.157480 0.637795 0
holywater_f.bmp
0  0.408606 0.537152 0.539119  0.545222 0.712330 0.441949  0.157480 0.637795 0
0  0.040530 0.672507 0.539086  0.013963 0.896268 0.443293  0.023622 0.637795 0
0  0.039339 0.582836 0.589662  0.006830 0.330076 0.943930  0.023622 0.669291 0
holywater_f.bmp
0  0.040530 0.672507 0.539086  0.013963 0.896268 0.443293  0.023622 0.637795 0
0  -0.282223 0.477496 0.591057  -0.190658 0.268877 0.944116  0.165354 0.669291 0
0  0.039339 0.582836 0.589662  0.006830 0.330076 0.943930  0.023622 0.669291 0
holywater_f.bmp
0  0.039339 0.582836 0.589662  0.006830 0.330076 0.943930  0.023622 0.669291 0
0  -0.282223 0.477496 0.591057  -0.190658 0.268877 0.944116  0.165354 0.669291 0
0  0.031070 0.012908 0.593310  0.002254 0.006370 0.999977  0.370079 0.724409 0
holywater_f.bmp
0  1.302280 -0.423267 -0.606804  0.735640 -0.245563 0.631294  0.433071 0.330709 0
0  0.904716 -0.295628 -0.316715  0.425211 -0.138737 0.894398  0.433071 0.393701 0
0  0.802614 -1.086070 -0.601456  0.452587 -0.632505 0.628572  0.574803 0.330709 0
holywater_f.bmp
0  0.802614 -1.086070 -0.601456  0.452587 -0.632505 0.628572  0.574803 0.330709 0
0  0.904716 -0.295628 -0.316715  0.425211 -0.138737 0.894398  0.433071 0.393701 0
0  0.557792 -0.770631 -0.312907  0.266501 -0.366317 0.891510  0.574803 0.393701 0
holywater_f.bmp
0  0.904716 -0.295628 -0.316715  0.425211 -0.138737 0.894398  0.433071 0.393701 0
0  0.303311 -0.406137 -0.194653  0.452584 -0.632467 0.628613  0.574803 0.456693 0
0  0.557792 -0.770631 -0.312907  0.266501 -0.366317 0.891510  0.574803 0.393701 0
holywater_f.bmp
0  0.557792 -0.770631 -0.312907  0.266501 -0.366317 0.891510  0.574803 0.393701 0
0  0.303311 -0.406137 -0.194653  0.452584 -0.632467 0.628613  0.574803 0.456693 0
0  0.022038 -0.492060 -0.193471  -0.009379 -0.779928 0.625799  0.700787 0.456693 0
holywater_f.bmp
0  0.303311 -0.406137 -0.194653  0.452584 -0.632467 0.628613  0.574803 0.456693 0
0  0.022406 -0.548550 0.356900  -0.012975 -0.805799 -0.592046  0.700787 0.551181 0
0  0.022038 -0.492060 -0.193471  -0.009379 -0.779928 0.625799  0.700787 0.456693 0
holywater_f.bmp
0  0.022038 -0.492060 -0.193471  -0.009379 -0.779928 0.625799  0.700787 0.456693 0
0  0.022406 -0.548550 0.356900  -0.012975 -0.805799 -0.592046  0.700787 0.551181 0
0  -0.285965 -0.434065 0.356867  -0.493419 -0.640857 -0.588081  0.574803 0.551181 0
holywater_f.bmp
0  0.022406 -0.548550 0.356900  -0.012975 -0.805799 -0.592046  0.700787 0.551181 0
0  0.021092 -0.648156 0.417540  -0.013877 -0.887030 -0.461502  0.700787 0.590551 0
0  -0.285965 -0.434065 0.356867  -0.493419 -0.640857 -0.588081  0.574803 0.551181 0
holywater_f.bmp
0  0.023947 -0.007219 -2.566617  -0.002254 -0.006370 -0.999977  0.370079 0.031496 0
0  -0.367886 0.558520 -2.569338  -0.205905 0.283339 -0.936655  0.165354 0.086614 0
0  0.033955 0.682694 -2.571034  0.003030 0.348025 -0.937480  0.023622 0.086614 0
holywater_f.bmp
0  0.023947 -0.007219 -2.566617  -0.002254 -0.006370 -0.999977  0.370079 0.031496 0
0  -0.632935 0.212338 -2.566535  -0.337239 0.108312 -0.935167  0.299213 0.086614 0
0  -0.367886 0.558520 -2.569338  -0.205905 0.283339 -0.936655  0.165354 0.086614 0
holywater_f.bmp
0  0.023947 -0.007219 -2.566617  -0.002254 -0.006370 -0.999977  0.370079 0.031496 0
0  -0.639027 -0.207610 -2.563846  -0.340124 -0.110698 -0.933842  0.433071 0.086614 0
0  -0.632935 0.212338 -2.566535  -0.337239 0.108312 -0.935167  0.299213 0.086614 0
holywater_f.bmp
0  0.023947 -0.007219 -2.566617  -0.002254 -0.006370 -0.999977  0.370079 0.031496 0
0  -0.384131 -0.561340 -2.562168  -0.214241 -0.289210 -0.932984  0.574803 0.086614 0
0  -0.639027 -0.207610 -2.563846  -0.340124 -0.110698 -0.933842  0.433071 0.086614 0
holywater_f.bmp
0  0.023947 -0.007219 -2.566617  -0.002254 -0.006370 -0.999977  0.370079 0.031496 0
0  0.013940 -0.697132 -2.562200  -0.007253 -0.359991 -0.932927  0.700787 0.086614 0
0  -0.384131 -0.561340 -2.562168  -0.214241 -0.289210 -0.932984  0.574803 0.086614 0
holywater_f.bmp
0  0.023947 -0.007219 -2.566617  -0.002254 -0.006370 -0.999977  0.370079 0.031496 0
0  0.415784 -0.572955 -2.563897  0.201737 -0.295274 -0.933871  0.574803 0.086614 0
0  0.013940 -0.697132 -2.562200  -0.007253 -0.359991 -0.932927  0.700787 0.086614 0
holywater_f.bmp
0  0.023947 -0.007219 -2.566617  -0.002254 -0.006370 -0.999977  0.370079 0.031496 0
0  0.680829 -0.226775 -2.566700  0.332879 -0.120203 -0.935277  0.433071 0.086614 0
0  0.415784 -0.572955 -2.563897  0.201737 -0.295274 -0.933871  0.574803 0.086614 0
holywater_f.bmp
0  0.538008 -0.166005 0.353301  0.767167 -0.258118 -0.587222  0.433071 0.551181 0
0  0.643499 0.202880 0.410715  0.846999 0.252571 -0.467762  0.299213 0.590551 0
0  0.637699 -0.197070 0.413277  0.839240 -0.282969 -0.464333  0.433071 0.590551 0
holywater_f.bmp
0  0.637699 -0.197070 0.413277  0.839240 -0.282969 -0.464333  0.433071 0.590551 0
0  0.643499 0.202880 0.410715  0.846999 0.252571 -0.467762  0.299213 0.590551 0
0  0.643794 0.203709 0.540713  0.858162 0.261050 0.442054  0.299213 0.637795 0
holywater_f.bmp
0  0.643499 0.202880 0.410715  0.846999 0.252571 -0.467762  0.299213 0.590551 0
0  0.408606 0.537152 0.539119  0.545222 0.712330 0.441949  0.157480 0.637795 0
0  0.643794 0.203709 0.540713  0.858162 0.261050 0.442054  0.299213 0.637795 0
holywater_f.bmp
0  0.643794 0.203709 0.540713  0.858162 0.261050 0.442054  0.299213 0.637795 0
0  0.408606 0.537152 0.539119  0.545222 0.712330 0.441949  0.157480 0.637795 0
0  0.357709 0.468204 0.589673  0.202450 0.263147 0.943275  0.165354 0.669291 0
holywater_f.bmp
0  0.408606 0.537152 0.539119  0.545222 0.712330 0.441949  0.157480 0.637795 0
0  0.039339 0.582836 0.589662  0.006830 0.330076 0.943930  0.023622 0.669291 0
0  0.357709 0.468204 0.589673  0.202450 0.263147 0.943275  0.165354 0.669291 0
holywater_f.bmp
0  0.357709 0.468204 0.589673  0.202450 0.263147 0.943275  0.165354 0.669291 0
0  0.039339 0.582836 0.589662  0.006830 0.330076 0.943930  0.023622 0.669291 0
0  0.031070 0.012908 0.593310  0.002254 0.006370 0.999977  0.370079 0.724409 0
holywater_f.bmp
0  0.802614 -1.086070 -0.601456  0.452587 -0.632505 0.628572  0.574803 0.330709 0
0  0.557792 -0.770631 -0.312907  0.266501 -0.366317 0.891510  0.574803 0.393701 0
0  0.008928 -1.334566 -0.598085  -0.009680 -0.780015 0.625686  0.700787 0.330709 0
holywater_f.bmp
0  0.008928 -1.334566 -0.598085  -0.009680 -0.780015 0.625686  0.700787 0.330709 0
0  0.557792 -0.770631 -0.312907  0.266501 -0.366317 0.891510  0.574803 0.393701 0
0  0.015093 -0.952768 -0.310524  -0.003153 -0.455541 0.890209  0.700787 0.393701 0
holywater_f.bmp
0  0.557792 -0.770631 -0.312907  0.266501 -0.366317 0.891510  0.574803 0.393701 0
0  0.022038 -0.492060 -0.193471  -0.009379 -0.779928 0.625799  0.700787 0.456693 0
0  0.015093 -0.952768 -0.310524  -0.003153 -0.455541 0.890209  0.700787 0.393701 0
holywater_f.bmp
0  0.015093 -0.952768 -0.310524  -0.003153 -0.455541 0.890209  0.700787 0.393701 0
0  0.022038 -0.492060 -0.193471  -0.009379 -0.779928 0.625799  0.700787 0.456693 0
0  -0.522092 -0.754951 -0.310573  -0.271245 -0.357276 0.893745  0.574803 0.393701 0
holywater_f.bmp
0  0.022038 -0.492060 -0.193471  -0.009379 -0.779928 0.625799  0.700787 0.456693 0
0  -0.256627 -0.398007 -0.193442  -0.468428 -0.620202 0.629225  0.574803 0.456693 0
0  -0.522092 -0.754951 -0.310573  -0.271245 -0.357276 0.893745  0.574803 0.393701 0
holywater_f.bmp
0  0.487064 -0.148784 -0.196706  0.735574 -0.245523 0.631387  0.433071 0.456693 0
0  0.333970 -0.443065 0.355527  0.472056 -0.654875 -0.590171  0.574803 0.551181 0
0  0.303311 -0.406137 -0.194653  0.452584 -0.632467 0.628613  0.574803 0.456693 0
holywater_f.bmp
0  0.303311 -0.406137 -0.194653  0.452584 -0.632467 0.628613  0.574803 0.456693 0
0  0.333970 -0.443065 0.355527  0.472056 -0.654875 -0.590171  0.574803 0.551181 0
0  0.022406 -0.548550 0.356900  -0.012975 -0.805799 -0.592046  0.700787 0.551181 0
holywater_f.bmp
0  0.333970 -0.443065 0.355527  0.472056 -0.654875 -0.590171  0.574803 0.551181 0
0  0.392937 -0.523543 0.415908  0.516846 -0.720261 -0.462703  0.574803 0.590551 0
0  0.022406 -0.548550 0.356900  -0.012975 -0.805799 -0.592046  0.700787 0.551181 0
holywater_f.bmp
0  0.022406 -0.548550 0.356900  -0.012975 -0.805799 -0.592046  0.700787 0.551181 0
0  0.392937 -0.523543 0.415908  0.516846 -0.720261 -0.462703  0.574803 0.590551 0
0  0.021092 -0.648156 0.417540  -0.013877 -0.887030 -0.461502  0.700787 0.590551 0
holywater_f.bmp
0  0.392937 -0.523543 0.415908  0.516846 -0.720261 -0.462703  0.574803 0.590551 0
0  0.393229 -0.522716 0.545905  0.524402 -0.722118 0.451163  0.574803 0.637795 0
0  0.021092 -0.648156 0.417540  -0.013877 -0.887030 -0.461502  0.700787 0.590551 0
holywater_f.bmp
0  0.563478 0.175192 0.591076  0.317355 0.099443 0.943078  0.299213 0.669291 0
0  0.558548 -0.164765 0.593253  0.314563 -0.096538 0.944315  0.433071 0.669291 0
0  0.637991 -0.196243 0.543273  0.850315 -0.280149 0.445513  0.433071 0.637795 0
holywater_f.bmp
0  0.563478 0.175192 0.591076  0.317355 0.099443 0.943078  0.299213 0.669291 0
0  0.031070 0.012908 0.593310  0.002254 0.006370 0.999977  0.370079 0.724409 0
0  0.558548 -0.164765 0.593253  0.314563 -0.096538 0.944315  0.433071 0.669291 0
holywater_f.bmp
0  0.563478 0.175192 0.591076  0.317355 0.099443 0.943078  0.299213 0.669291 0
0  0.357709 0.468204 0.589673  0.202450 0.263147 0.943275  0.165354 0.669291 0
0  0.031070 0.012908 0.593310  0.002254 0.006370 0.999977  0.370079 0.724409 0
holywater_f.bmp
0  0.563478 0.175192 0.591076  0.317355 0.099443 0.943078  0.299213 0.669291 0
0  0.643794 0.203709 0.540713  0.858162 0.261050 0.442054  0.299213 0.637795 0
0  0.357709 0.468204 0.589673  0.202450 0.263147 0.943275  0.165354 0.669291 0
holywater_f.bmp
0  0.563478 0.175192 0.591076  0.317355 0.099443 0.943078  0.299213 0.669291 0
0  0.637991 -0.196243 0.543273  0.850315 -0.280149 0.445513  0.433071 0.637795 0
0  0.643794 0.203709 0.540713  0.858162 0.261050 0.442054  0.299213 0.637795 0
holywater_f.bmp
0  -1.257444 -0.386099 -0.601272  -0.740561 -0.223505 0.633731  0.433071 0.330709 0
0  -0.777216 -1.063129 -0.598042  -0.468441 -0.620171 0.629246  0.574803 0.330709 0
0  -0.522092 -0.754951 -0.310573  -0.271245 -0.357276 0.893745  0.574803 0.393701 0
holywater_f.bmp
0  -0.522092 -0.754951 -0.310573  -0.271245 -0.357276 0.893745  0.574803 0.393701 0
0  -0.777216 -1.063129 -0.598042  -0.468441 -0.620171 0.629246  0.574803 0.330709 0
0  0.015093 -0.952768 -0.310524  -0.003153 -0.455541 0.890209  0.700787 0.393701 0
holywater_f.bmp
0  -0.777216 -1.063129 -0.598042  -0.468441 -0.620171 0.629246  0.574803 0.330709 0
0  0.008928 -1.334566 -0.598085  -0.009680 -0.780015 0.625686  0.700787 0.330709 0
0  0.015093 -0.952768 -0.310524  -0.003153 -0.455541 0.890209  0.700787 0.393701 0
holywater_f.bmp
0  0.748898 0.964644 -2.214434  0.450179 0.598808 -0.662395  0.165354 0.141732 0
0  1.180002 0.348330 -2.211480  0.718616 0.217977 -0.660361  0.299213 0.141732 0
0  0.432027 0.546902 -2.571067  0.209981 0.277266 -0.937567  0.165354 0.086614 0
holywater_f.bmp
0  0.432027 0.546902 -2.571067  0.209981 0.277266 -0.937567  0.165354 0.086614 0
0  1.180002 0.348330 -2.211480  0.718616 0.217977 -0.660361  0.299213 0.141732 0
0  0.686922 0.193172 -2.569388  0.336033 0.098563 -0.936679  0.299213 0.086614 0
holywater_f.bmp
0  -1.024595 -0.896497 -1.267958  -0.757982 -0.651094 -0.039246  0.960630 0.889764 0
0  -0.232758 -1.357242 -1.070543  -0.143851 -0.988565 -0.045233  0.889764 0.960630 0
0  -0.949553 -0.938370 -0.902659  -0.719904 -0.686313 0.103502  0.960630 0.960630 0
holywater_f.bmp
0  -0.977853 -0.775008 -1.814380  -0.714362 -0.557695 -0.422686  0.960630 0.818898 0
0  -0.352159 -1.315618 -1.488940  -0.250968 -0.951259 -0.179223  0.889764 0.889764 0
0  -1.024595 -0.896497 -1.267958  -0.757982 -0.651094 -0.039246  0.960630 0.889764 0
holywater_f.bmp
0  0.291092 -0.838014 -0.956598  0.039443 -0.261455 0.964410  0.842520 0.905512 0
0  -0.232758 -1.357242 -1.070543  0.039443 -0.261454 0.964410  0.905512 0.905512 0
0  0.602529 -1.207208 -1.070537  0.039443 -0.261455 0.964410  0.842520 0.952756 0
holywater_f.bmp
0  -0.816945 0.284087 -1.039489  0.474747 -0.177438 0.862050  0.842520 0.748031 0
0  -1.116172 0.692979 -0.791834  0.474747 -0.177437 0.862050  0.842520 0.700787 0
0  -1.293063 -0.171840 -0.865106  0.474747 -0.177437 0.862051  0.905512 0.748031 0
holywater_f.bmp
0  0.291092 -0.838014 -0.956598  0.444073 0.024187 0.895664  0.842520 0.905512 0
0  1.171582 -0.671869 -1.394298  0.444073 0.024187 0.895664  0.763780 0.952756 0
0  0.865090 -0.296118 -1.250479  0.444073 0.024187 0.895664  0.763780 0.905512 0
holywater_f.bmp
0  1.171582 -0.671869 -1.394298  0.432632 0.091242 0.896942  0.763780 0.952756 0
0  0.291092 -0.838014 -0.956598  0.432632 0.091242 0.896942  0.842520 0.905512 0
0  0.602529 -1.207208 -1.070537  0.432632 0.091242 0.896942  0.842520 0.952756 0
holywater_f.bmp
0  -0.816945 0.284087 -1.039489  0.621235 -0.022517 0.783301  0.842520 0.748031 0
0  -0.562867 1.207435 -1.210707  0.621234 -0.022516 0.783301  0.763780 0.700787 0
0  -1.116172 0.692979 -0.791834  0.621234 -0.022516 0.783301  0.842520 0.700787 0
holywater_f.bmp
0  -0.562867 1.207435 -1.210707  0.079766 0.166857 0.982749  0.763780 0.700787 0
0  -0.816945 0.284087 -1.039489  0.079766 0.166857 0.982749  0.842520 0.748031 0
0  -0.217614 0.859579 -1.180338  0.079766 0.166858 0.982749  0.763780 0.748031 0
holywater_f.bmp
0  0.865090 -0.296118 -1.250479  0.267282 -0.142067 0.953088  0.763780 0.905512 0
0  1.171582 -0.671869 -1.394298  0.267282 -0.142067 0.953088  0.763780 0.952756 0
0  1.356700 0.179792 -1.316543  0.267282 -0.142067 0.953088  0.700787 0.905512 0
holywater_f.bmp
0  -0.217614 0.859579 -1.180338  -0.110266 -0.020954 0.993681  0.763780 0.748031 0
0  0.296397 1.365193 -1.111107  -0.110266 -0.020954 0.993681  0.700787 0.748031 0
0  -0.562867 1.207435 -1.210707  -0.110266 -0.020954 0.993681  0.763780 0.700787 0
holywater_f.bmp
0  -0.232639 -0.231529 -0.801654  -0.068747 -0.080914 0.994347  0.842520 0.826772 0
0  -1.293063 -0.171840 -0.865106  -0.068747 -0.080913 0.994347  0.905512 0.748031 0
0  -0.949553 -0.938370 -0.902659  -0.068747 -0.080914 0.994347  0.929134 0.826772 0
holywater_f.bmp
0  -1.293063 -0.171840 -0.865106  -0.037411 0.381433 0.923639  0.905512 0.748031 0
0  -0.232639 -0.231529 -0.801654  -0.037411 0.381433 0.923639  0.842520 0.826772 0
0  -0.816945 0.284087 -1.039489  -0.037411 0.381433 0.923639  0.842520 0.748031 0
holywater_f.bmp
0  -0.217614 0.859579 -1.180338  0.479405 0.284951 0.830045  0.763780 0.748031 0
0  -0.232639 -0.231529 -0.801654  0.479405 0.284951 0.830045  0.842520 0.826772 0
0  0.310382 0.269290 -1.282638  0.479405 0.284950 0.830045  0.763780 0.826772 0
holywater_f.bmp
0  -0.232639 -0.231529 -0.801654  -0.088506 0.330848 0.939525  0.842520 0.826772 0
0  -0.217614 0.859579 -1.180338  -0.088505 0.330847 0.939525  0.763780 0.748031 0
0  -0.816945 0.284087 -1.039489  -0.088505 0.330848 0.939525  0.842520 0.748031 0
holywater_f.bmp
0  0.296397 1.365193 -1.111107  0.141401 -0.150097 0.978507  0.700787 0.748031 0
0  0.310382 0.269290 -1.282638  0.141401 -0.150097 0.978507  0.763780 0.826772 0
0  1.013470 0.955590 -1.280140  0.141401 -0.150097 0.978507  0.677165 0.826772 0
holywater_f.bmp
0  0.310382 0.269290 -1.282638  0.020565 -0.152836 0.988038  0.763780 0.826772 0
0  0.296397 1.365193 -1.111107  0.020566 -0.152836 0.988038  0.700787 0.748031 0
0  -0.217614 0.859579 -1.180338  0.020565 -0.152836 0.988038  0.763780 0.748031 0
holywater_f.bmp
0  0.310382 0.269290 -1.282638  0.030130 -0.036238 0.998889  0.763780 0.826772 0
0  1.356700 0.179792 -1.316543  0.030131 -0.036238 0.998889  0.700787 0.905512 0
0  1.013470 0.955590 -1.280140  0.030130 -0.036238 0.998889  0.677165 0.826772 0
holywater_f.bmp
0  1.356700 0.179792 -1.316543  0.040774 0.097707 0.994380  0.700787 0.905512 0
0  0.310382 0.269290 -1.282638  0.040774 0.097707 0.994380  0.763780 0.826772 0
0  0.865090 -0.296118 -1.250479  0.040774 0.097707 0.994380  0.763780 0.905512 0
holywater_f.bmp
0  0.291092 -0.838014 -0.956598  0.517490 0.236398 0.822387  0.842520 0.905512 0
0  0.310382 0.269290 -1.282638  0.517489 0.236398 0.822387  0.763780 0.826772 0
0  -0.232639 -0.231529 -0.801654  0.517490 0.236398 0.822387  0.842520 0.826772 0
holywater_f.bmp
0  0.310382 0.269290 -1.282638  0.225988 0.276027 0.934205  0.763780 0.826772 0
0  0.291092 -0.838014 -0.956598  0.225988 0.276027 0.934205  0.842520 0.905512 0
0  0.865090 -0.296118 -1.250479  0.225988 0.276027 0.934205  0.763780 0.905512 0
holywater_f.bmp
0  -0.232639 -0.231529 -0.801654  0.013498 -0.236914 0.971437  0.842520 0.826772 0
0  -0.232758 -1.357242 -1.070543  0.013498 -0.236914 0.971437  0.905512 0.905512 0
0  0.291092 -0.838014 -0.956598  0.013498 -0.236914 0.971437  0.842520 0.905512 0
holywater_f.bmp
0  -0.232758 -1.357242 -1.070543  0.088217 -0.236194 0.967693  0.905512 0.905512 0
0  -0.232639 -0.231529 -0.801654  0.088217 -0.236194 0.967693  0.842520 0.826772 0
0  -0.949553 -0.938370 -0.902659  0.088217 -0.236194 0.967693  0.929134 0.826772 0
holywater_f.bmp
0  0.580131 0.769175 -0.322765  0.275405 0.368685 0.887819  0.165354 0.393701 0
0  1.314176 0.396630 -0.612053  0.743399 0.231528 0.627497  0.299213 0.330709 0
0  0.833944 1.073659 -0.615284  0.471194 0.628209 0.619137  0.165354 0.330709 0
holywater_f.bmp
0  -0.499754 0.784856 -0.320431  -0.262546 0.377729 0.887914  0.165354 0.393701 0
0  0.047801 1.345096 -0.615241  0.011994 0.787750 0.615879  0.023622 0.330709 0
0  -0.745885 1.096599 -0.611869  -0.449760 0.640358 0.622622  0.165354 0.330709 0
holywater_f.bmp
0  1.510228 -0.499175 -1.056800  0.931964 -0.316761 0.176370  0.433071 0.267717 0
0  0.898138 -1.234382 -1.680752  0.549964 -0.783457 -0.289371  0.574803 0.204724 0
0  1.459105 -0.482462 -1.686805  0.904252 -0.310483 -0.293136  0.433071 0.204724 0
holywater_f.bmp
0  0.303311 -0.406137 -0.194653  0.452584 -0.632467 0.628613  0.574803 0.456693 0
0  0.904716 -0.295628 -0.316715  0.425211 -0.138737 0.894398  0.433071 0.393701 0
0  0.487064 -0.148784 -0.196706  0.735574 -0.245523 0.631387  0.433071 0.456693 0
holywater_f.bmp
0  -0.855092 -0.270075 -0.312911  -0.424650 -0.123828 0.896849  0.433071 0.393701 0
0  -0.428484 0.164537 -0.196638  -0.732723 0.253573 0.631520  0.299213 0.456693 0
0  -0.846678 0.309855 -0.316624  -0.421261 0.150180 0.894419  0.299213 0.393701 0
holywater_f.bmp
0  0.022038 -0.492060 -0.193471  -0.009379 -0.779928 0.625799  0.700787 0.456693 0
0  -0.285965 -0.434065 0.356867  -0.493419 -0.640857 -0.588081  0.574803 0.551181 0
0  -0.256627 -0.398007 -0.193442  -0.468428 -0.620202 0.629225  0.574803 0.456693 0
holywater_f.bmp
0  0.637699 -0.197070 0.413277  0.839240 -0.282969 -0.464333  0.433071 0.590551 0
0  0.643794 0.203709 0.540713  0.858162 0.261050 0.442054  0.299213 0.637795 0
0  0.637991 -0.196243 0.543273  0.850315 -0.280149 0.445513  0.433071 0.637795 0
end
