// Created by Crowbar 0.49.0.0

$modelname "weapons/tfa_cso/c_mg3.mdl"

$Include "csonline_gmod.qci"

$bodygroup "weapon"
{
	studio "v_mg3_ref_mg3"
}

$CDMaterials "models\weapons\tfa_cso\mg3\"

$attachment 0 "Bone52" 0 -29.707001 3.228
//$attachment 1 "Bone57" 1.199 0.2 0.826

$sequence "idle1" {
	"v_mg3_anims\idle1"
	fps 30
	loop
	activity "ACT_VM_IDLE" 1
	snap
}
$sequence "shoot1" {
	"v_mg3_anims\shoot1"
	{ event 5001 0 "31" }
	{ event 5001 0 "125" }
	fps 30
	activity "ACT_VM_PRIMARYATTACK" 1
	snap
}
$sequence "shoot2" {
	"v_mg3_anims\shoot2"
	{ event 5001 0 "21" }
	{ event 5001 0 "125" }
	fps 30
	activity "ACT_VM_PRIMARYATTACK" 2
	snap
}
$sequence "reload" {
	"v_mg3_anims\reload"
	{ event 5004 8 "MG3.Open" }
	{ event 5004 30 "MG3.ClipOut" }
	{ event 5004 72 "MG3.ClipIn" }
	{ event 5004 114 "MG3.Close" }
	{ event 5004 127 "MG3.ClipLock" }
	fps 30
	activity "ACT_VM_RELOAD" 1
	snap
}
$sequence "draw" {
	"v_mg3_anims\draw"
	fps 30
	activity "ACT_VM_DRAW" 1
	snap
}
