version 1
nodes
  0 "Bone24" -1
  1 "Bone25" 0
  2 "Bone47" 1
  3 "Bone48" 2
  4 "Bone55" 3
  5 "Bone51" 3
  6 "Bone49" 3
  7 "Bone53" 3
  8 "Bone01" -1
  9 "Bone02" 8
  10 "Bone03" 9
  11 "Bone04" 10
  12 "Bone05" 11
  13 "Bone07" 10
  14 "Bone08" 13
  15 "Bone09" 14
  16 "Bone11" 10
  17 "Bone12" 16
  18 "Bone13" 17
  19 "Bone15" 10
  20 "Bone16" 19
  21 "Bone17" 20
  22 "Bone19" 10
  23 "Bone20" 22
  24 "Bone21" 23
  25 "Bone26" 1
  26 "Bone27" 25
  27 "Bone28" 26
  28 "Bone29" 27
  29 "Bone31" 25
  30 "Bone32" 29
  31 "Bone33" 30
  32 "Bone35" 25
  33 "Bone36" 32
  34 "Bone37" 33
  35 "Bone39" 25
  36 "Bone40" 35
  37 "Bone41" 36
  38 "Bone43" 25
  39 "Bone44" 38
  40 "Bone45" 39
end
skeleton
  time 0
    0 6.545656 1.324527 -7.103113 -1.443603 -1.359266 1.295283
    1 -0.244755 -8.933565 -0.000001 0.328257 -0.062774 -0.298039
    2 -0.069481 -3.465251 0.968036 1.218516 1.752558 1.295778
    3 0.000000 2.398083 0.584532 0.000000 0.000000 0.000000
    4 0.007811 -1.374990 1.049161 0.000000 0.000000 0.000000
    5 -0.000001 -1.588729 1.528777 0.000000 0.000000 0.000000
    6 -0.000001 -2.892687 1.423861 0.000000 0.000000 0.000000
    7 0.000000 -1.079136 2.293165 0.000000 0.000000 0.000000
    8 -1.704729 -2.854112 -12.300015 -0.571019 0.132516 0.726811
    9 0.026865 -9.077094 0.000000 0.462046 0.053114 0.094195
    10 0.000000 -0.456721 0.000000 0.000000 0.000000 0.000000
    11 -0.710981 0.147373 0.477534 0.078676 -0.093885 -2.154182
    12 1.647791 0.090625 0.000001 0.000000 0.000000 0.373509
    13 -1.090121 -1.829638 -0.122573 0.000000 -0.130889 -1.696450
    14 1.390341 -0.000582 0.000000 0.000000 -1.089060 0.005236
    15 0.964939 -0.010943 0.000000 0.000000 -0.884864 0.000000
    16 -0.348493 -1.994085 -0.122573 -0.000007 -0.450292 -1.644097
    17 1.546316 0.004628 0.000002 0.000000 -1.455639 -0.000001
    18 1.135736 0.008475 -0.000001 0.000000 -0.544558 0.020944
    19 0.310264 -1.738958 -0.122573 -0.000005 -0.785379 -1.518430
    20 1.569654 0.049780 0.000001 0.000000 -1.230502 -0.010472
    21 1.096338 0.003407 -0.000001 0.000000 -0.780198 0.005236
    22 0.956486 -1.335291 -0.122573 0.000000 -1.094316 -1.445133
    23 1.346260 0.018204 0.000000 0.000000 -1.356105 -0.005236
    24 0.874448 -0.001050 0.000000 0.000000 -0.926807 0.000000
    25 -0.017482 -0.437063 0.000000 0.000000 0.000000 0.000000
    26 0.714223 0.114180 0.472822 -0.048916 -0.322244 -0.907438
    27 1.728637 -0.122215 -0.000001 0.000000 0.000000 -0.528829
    28 0.882756 0.056391 0.000000 0.000000 0.000000 -0.534113
    29 1.137759 -1.867486 -0.137080 0.006196 -0.130751 -1.497905
    30 1.365644 0.014869 0.000000 0.000000 -0.387463 -0.005236
    31 0.938014 -0.005664 0.000001 0.000000 -0.869167 0.010472
    32 0.409682 -2.071858 -0.137080 0.028594 -0.396954 -1.597491
    33 1.470907 0.007359 -0.000001 0.000000 -1.560324 0.010472
    34 1.152100 0.010338 0.000000 0.000000 -1.261865 0.005236
    35 -0.292848 -1.816393 -0.137080 0.008057 -0.298339 -1.671501
    36 1.511618 -0.004263 0.000000 0.000000 -1.544617 0.036652
    37 1.099637 -0.010806 -0.000001 0.000000 -1.314229 0.010472
    38 -0.957059 -1.356555 -0.137080 -0.026917 -0.376066 -1.612798
    39 1.351391 -0.010799 0.000000 0.000000 -0.842992 0.005229
    40 0.859052 0.017735 -0.000002 0.000000 -1.513199 -0.010472
  time 1
    0 6.545656 1.324527 -7.103113 -1.443603 -1.359266 1.295283
    1 -0.244755 -8.933565 -0.000001 0.328257 -0.062774 -0.298039
    2 -0.069481 -3.465251 0.968036 1.218516 1.752558 1.295778
    3 0.000000 2.398083 0.584532 0.000000 0.000000 0.000000
    4 0.007811 -1.374990 1.049161 0.000000 0.000000 0.000000
    5 -0.000001 -1.588729 1.528777 0.000000 0.000000 0.000000
    6 -0.000001 -2.892687 1.423861 0.000000 0.000000 0.000000
    7 0.000000 -1.079136 2.293165 0.000000 0.000000 0.000000
    8 -1.704729 -2.854112 -12.300015 -0.571019 0.132516 0.726811
    9 0.026865 -9.077094 0.000000 0.462046 0.053114 0.094195
    10 0.000000 -0.456721 0.000000 0.000000 0.000000 0.000000
    11 -0.710981 0.147373 0.477534 0.078676 -0.093885 -2.154182
    12 1.647791 0.090625 0.000001 0.000000 0.000000 0.373509
    13 -1.090121 -1.829638 -0.122573 0.000000 -0.130889 -1.696450
    14 1.390341 -0.000582 0.000000 0.000000 -1.089060 0.005236
    15 0.964939 -0.010943 0.000000 0.000000 -0.884864 0.000000
    16 -0.348493 -1.994085 -0.122573 -0.000007 -0.450292 -1.644097
    17 1.546316 0.004628 0.000002 0.000000 -1.455639 -0.000001
    18 1.135736 0.008475 -0.000001 0.000000 -0.544558 0.020944
    19 0.310264 -1.738958 -0.122573 -0.000005 -0.785379 -1.518430
    20 1.569654 0.049780 0.000001 0.000000 -1.230502 -0.010472
    21 1.096338 0.003407 -0.000001 0.000000 -0.780198 0.005236
    22 0.956486 -1.335291 -0.122573 0.000000 -1.094316 -1.445133
    23 1.346260 0.018204 0.000000 0.000000 -1.356105 -0.005236
    24 0.874448 -0.001050 0.000000 0.000000 -0.926807 0.000000
    25 -0.017482 -0.437063 0.000000 0.000000 0.000000 0.000000
    26 0.714223 0.114180 0.472822 -0.048916 -0.322244 -0.907438
    27 1.728637 -0.122215 -0.000001 0.000000 0.000000 -0.528829
    28 0.882756 0.056391 0.000000 0.000000 0.000000 -0.534113
    29 1.137759 -1.867486 -0.137080 0.006196 -0.130751 -1.497905
    30 1.365644 0.014869 0.000000 0.000000 -0.387463 -0.005236
    31 0.938014 -0.005664 0.000001 0.000000 -0.869167 0.010472
    32 0.409682 -2.071858 -0.137080 0.028594 -0.396954 -1.597491
    33 1.470907 0.007359 -0.000001 0.000000 -1.560324 0.010472
    34 1.152100 0.010338 0.000000 0.000000 -1.261865 0.005236
    35 -0.292848 -1.816393 -0.137080 0.008057 -0.298339 -1.671501
    36 1.511618 -0.004263 0.000000 0.000000 -1.544617 0.036652
    37 1.099637 -0.010806 -0.000001 0.000000 -1.314229 0.010472
    38 -0.957059 -1.356555 -0.137080 -0.026917 -0.376066 -1.612798
    39 1.351391 -0.010799 0.000000 0.000000 -0.842992 0.005229
    40 0.859052 0.017735 -0.000002 0.000000 -1.513199 -0.010472
  time 2
    0 6.545656 1.324527 -7.103113 -1.443603 -1.359266 1.295283
    1 -0.244755 -8.933565 -0.000001 0.328257 -0.062774 -0.298039
    2 -0.069481 -3.465251 0.968036 1.218516 1.752558 1.295778
    3 0.000000 2.398083 0.584532 0.000000 0.000000 0.000000
    4 0.007811 -1.374990 1.049161 0.000000 0.000000 0.000000
    5 -0.000001 -1.588729 1.528777 0.000000 0.000000 0.000000
    6 -0.000001 -2.892687 1.423861 0.000000 0.000000 0.000000
    7 0.000000 -1.079136 2.293165 0.000000 0.000000 0.000000
    8 -1.704729 -2.854112 -12.300015 -0.571019 0.132516 0.726811
    9 0.026865 -9.077094 0.000000 0.462046 0.053114 0.094195
    10 0.000000 -0.456721 0.000000 0.000000 0.000000 0.000000
    11 -0.710981 0.147373 0.477534 0.078676 -0.093885 -2.154182
    12 1.647791 0.090625 0.000001 0.000000 0.000000 0.373509
    13 -1.090121 -1.829638 -0.122573 0.000000 -0.130889 -1.696450
    14 1.390341 -0.000582 0.000000 0.000000 -1.089060 0.005236
    15 0.964939 -0.010943 0.000000 0.000000 -0.884864 0.000000
    16 -0.348493 -1.994085 -0.122573 -0.000007 -0.450292 -1.644097
    17 1.546316 0.004628 0.000002 0.000000 -1.455639 -0.000001
    18 1.135736 0.008475 -0.000001 0.000000 -0.544558 0.020944
    19 0.310264 -1.738958 -0.122573 -0.000005 -0.785379 -1.518430
    20 1.569654 0.049780 0.000001 0.000000 -1.230502 -0.010472
    21 1.096338 0.003407 -0.000001 0.000000 -0.780198 0.005236
    22 0.956486 -1.335291 -0.122573 0.000000 -1.094316 -1.445133
    23 1.346260 0.018204 0.000000 0.000000 -1.356105 -0.005236
    24 0.874448 -0.001050 0.000000 0.000000 -0.926807 0.000000
    25 -0.017482 -0.437063 0.000000 0.000000 0.000000 0.000000
    26 0.714223 0.114180 0.472822 -0.048916 -0.322244 -0.907438
    27 1.728637 -0.122215 -0.000001 0.000000 0.000000 -0.528829
    28 0.882756 0.056391 0.000000 0.000000 0.000000 -0.534113
    29 1.137759 -1.867486 -0.137080 0.006196 -0.130751 -1.497905
    30 1.365644 0.014869 0.000000 0.000000 -0.387463 -0.005236
    31 0.938014 -0.005664 0.000001 0.000000 -0.869167 0.010472
    32 0.409682 -2.071858 -0.137080 0.028594 -0.396954 -1.597491
    33 1.470907 0.007359 -0.000001 0.000000 -1.560324 0.010472
    34 1.152100 0.010338 0.000000 0.000000 -1.261865 0.005236
    35 -0.292848 -1.816393 -0.137080 0.008057 -0.298339 -1.671501
    36 1.511618 -0.004263 0.000000 0.000000 -1.544617 0.036652
    37 1.099637 -0.010806 -0.000001 0.000000 -1.314229 0.010472
    38 -0.957059 -1.356555 -0.137080 -0.026917 -0.376066 -1.612798
    39 1.351391 -0.010799 0.000000 0.000000 -0.842992 0.005229
    40 0.859052 0.017735 -0.000002 0.000000 -1.513199 -0.010472
end
