version 1
nodes
  0 "bufffiveseven_root" -1
  1 "bone_R" 0
  2 "bone_R01" 1
  3 "bone_R02" 1
  4 "bone_R03" 1
  5 "triger" 0
  6 "magazine" 0
  7 "bone_L" 0
  8 "bone_L01" 7
  9 "bone_L02" 7
  10 "bone_L03" 7
  11 "bone_up" 0
  12 "bone_up01" 11
  13 "bone_up02" 11
  14 "bone_up03" 11
  15 "bone_up_r" 11
  16 "bone_up_l" 11
  17 "bone_slide" 0
  18 "bone_slide_cover" 17
  19 "bone_up2" 0
  20 "smoke01" 0
  21 "smoke_mesh01" 20
  22 "smoke02" 0
  23 "smoke_mesh02" 22
  24 "muzzle" 0
  25 "muzzle_bone001" 24
  26 "muzzle_bone002" 24
  27 "muzzle_bone003" 24
  28 "muzzle_bone004" 24
  29 "root" -1
  30 "Bone01" 29
  31 "Bone_L_Upper" 30
  32 "Bone_Lefthand" 30
  33 "Bone13" 32
  34 "Bone14" 33
  35 "Bone15" 34
  36 "Bone17" 32
  37 "Bone18" 36
  38 "Bone19" 37
  39 "Bone21" 32
  40 "Bone22" 39
  41 "Bone23" 40
  42 "Bone09" 32
  43 "Bone10" 42
  44 "Bone11" 43
  45 "Bone05" 32
  46 "Bone06" 45
  47 "Bone07" 46
  48 "Bone_Se_Hand-L" 32
  49 "Bone04" 29
  50 "Bone_Righthand" 49
  51 "Bone39" 50
  52 "Bone40" 51
  53 "Bone41" 52
  54 "Bone35" 50
  55 "Bone36" 54
  56 "Bone37" 55
  57 "Bone31" 50
  58 "Bone32" 57
  59 "Bone33" 58
  60 "Bone43" 50
  61 "Bone44" 60
  62 "Bone45" 61
  63 "Bone27" 50
  64 "Bone28" 63
  65 "Bone29" 64
  66 "Bone_Se_Hand-R" 50
  67 "Bone_R_Upper" 49
end
skeleton
  time 0
    0 6.470250 -12.642319 -4.360943 1.570796 0.000000 0.000000
    1 -1.064977 0.427841 3.494147 -1.570789 1.456595 -2.443453
    2 0.631628 -0.525761 0.000000 -0.000001 0.000000 0.000000
    3 -0.359356 -0.525757 0.000000 -0.000001 0.000000 0.000000
    4 -1.349792 -0.525757 0.000000 -0.000001 0.000000 0.000000
    5 0.000000 0.444557 -0.150236 -1.570796 3.141592 1.570796
    6 0.000000 0.444557 -1.633967 -1.570796 2.879793 1.570796
    7 1.065000 0.427841 3.494147 -1.570792 -1.684999 -0.698137
    8 -0.631627 0.525760 0.000000 0.000000 0.000000 0.000000
    9 0.359358 0.525757 0.000000 0.000000 0.000000 0.000000
    10 1.349793 0.525756 0.000000 0.000000 0.000000 0.000000
    11 0.000000 2.775445 -3.287100 0.000000 -1.570796 0.000000
    12 4.055391 0.787430 -0.000001 0.000001 0.000000 -3.141592
    13 5.638199 0.787432 -0.000001 0.000001 0.000000 -3.141592
    14 7.208800 0.787434 -0.000002 0.000001 0.000000 -3.141592
    15 7.161302 -0.436564 0.542799 -3.141591 -1.570451 0.000000
    16 7.161302 -0.436564 -0.539481 -3.141592 1.570796 0.000000
    17 0.000000 1.803919 -3.985617 0.000000 -1.570796 0.000000
    18 4.656112 0.438828 0.399058 1.570796 0.000000 -1.570796
    19 0.000000 2.705573 -0.826574 -1.570796 0.698132 1.570796
    20 -0.624302 5.320284 0.532680 -1.570796 0.000000 0.000000
    21 0.000001 49.921204 -0.000001 1.570796 0.000000 0.000000
    22 -2.098057 0.171298 1.780126 -1.570796 0.000000 0.000000
    23 0.000002 49.921204 -0.000001 1.570796 0.000000 0.000000
    24 0.001787 1.627478 -66.965790 -1.570796 0.000000 0.000000
    25 11.764790 0.000004 5.034005 -0.000001 0.000001 1.570796
    26 -16.920902 -0.000004 5.034000 -0.000001 0.000001 1.570796
    27 -16.920902 -0.000004 -4.642414 -0.000001 0.000001 1.570796
    28 11.764790 0.000004 -4.642411 -0.000001 0.000001 1.570796
    29 0.001265 -0.569176 -20.601572 0.000000 0.000000 0.000000
    30 9.310103 -5.299614 -12.557959 3.138909 -0.000224 -1.566807
    31 1.257180 8.762585 -0.153713 -1.570562 0.002683 -1.566807
    32 -0.071921 -8.498736 -0.104134 -0.025046 0.287591 0.014898
    33 -0.488518 -2.755602 -0.228260 0.106454 0.010332 -0.264490
    34 0.039887 -1.479790 0.029854 -0.055395 0.000000 0.000001
    35 0.028786 -1.075731 -0.023109 0.002099 0.000000 0.000000
    36 0.250027 -2.820665 -0.238396 0.041826 -0.002921 0.008443
    37 -0.049759 -1.680544 0.100479 0.019826 0.000000 -0.000002
    38 -0.034142 -1.148312 0.084782 -0.040115 0.000000 0.000000
    39 0.957766 -2.746780 -0.090302 -0.017221 -0.162277 0.191558
    40 -0.033420 -1.397129 -0.011257 0.013931 0.000000 -0.000001
    41 -0.022360 -0.957436 0.018784 0.003845 0.000000 0.000000
    42 -1.180681 -2.507217 -0.193859 0.082999 0.013294 -0.477915
    43 -0.024967 -1.123934 0.017597 -0.018065 0.000000 0.000001
    44 -0.020057 -0.890968 0.010090 -0.060797 0.000000 0.000000
    45 0.583510 -1.197277 0.185379 0.158049 -0.404973 -0.364290
    46 1.535927 0.010246 0.005009 -0.002964 -0.012979 0.000887
    47 1.100771 0.004527 -0.010679 -0.002796 0.015973 0.003458
    48 0.120153 -0.050270 -0.054489 0.287569 3.110905 1.561085
    49 -9.310107 -5.231260 -12.513384 0.004984 -3.131565 -1.566847
    50 0.096944 -8.450418 -0.009365 -0.032965 -0.297907 -0.004663
    51 0.447953 -2.798986 -0.200443 0.106456 -0.010396 0.265094
    52 -0.032909 -1.480204 0.004940 -0.055403 0.000000 0.000002
    53 -0.027022 -1.076920 -0.020210 0.002094 0.000000 0.000000
    54 -0.249534 -2.846964 -0.174213 0.041903 -0.000125 -0.008396
    55 0.043235 -1.683941 0.096012 0.019757 0.002823 -0.000167
    56 0.031729 -1.160830 0.058838 -0.040181 0.000642 0.008372
    57 -0.963866 -2.785145 -0.085350 -0.017227 0.162276 -0.191556
    58 0.028479 -1.403067 0.006271 0.013941 0.000000 0.000000
    59 0.021413 -0.957781 0.020046 0.003851 0.000000 0.000000
    60 1.164475 -2.543940 -0.170330 0.083003 -0.013294 0.477915
    61 0.024032 -1.129042 0.017807 -0.018074 0.000000 0.000001
    62 0.014898 -0.883989 -0.019848 -0.060801 0.000000 0.000000
    63 -0.586770 -1.264477 0.200161 -0.152092 -0.410513 -2.814816
    64 1.522835 0.058681 0.016848 0.001410 0.008985 -0.046880
    65 1.117947 0.048424 -0.005766 -0.000243 -0.025198 0.065422
    66 -0.139399 -0.111698 0.014397 0.285382 -0.030687 1.580508
    67 -1.393470 8.839177 -0.239433 1.580804 -0.005023 -1.566847
end
triangles
$20@004_bufffiveseven_v.bmp
  21 5.815949 36.746207 0.989340 0.000000 -1.000000 0.000000 0.000000 1.000000
  21 5.815949 36.746207 0.929340 0.000000 -1.000000 0.000000 0.000000 0.000000
  21 5.875949 36.746207 0.989340 0.000000 -1.000000 0.000000 1.000000 1.000000
$20@004_bufffiveseven_v.bmp
  21 5.875949 36.746207 0.989340 0.000000 -1.000000 0.000000 1.000000 1.000000
  21 5.815949 36.746207 0.929340 0.000000 -1.000000 0.000000 0.000000 0.000000
  21 5.875949 36.746207 0.929340 0.000000 -1.000000 0.000000 1.000000 0.000000
$20@004_bufffiveseven_v.bmp
  23 4.342195 35.498759 -4.159645 0.000000 -1.000000 0.000000 0.000000 1.000000
  23 4.342195 35.498759 -4.219645 0.000000 -1.000000 0.000000 0.000000 0.000000
  23 4.402195 35.498759 -4.159645 0.000000 -1.000000 0.000000 1.000000 1.000000
$20@004_bufffiveseven_v.bmp
  23 4.402195 35.498759 -4.159645 0.000000 -1.000000 0.000000 1.000000 1.000000
  23 4.342195 35.498759 -4.219645 0.000000 -1.000000 0.000000 0.000000 0.000000
  23 4.402195 35.498759 -4.219645 0.000000 -1.000000 0.000000 1.000000 0.000000
$0b_bufffiveseven_blue02.bmp
  25 18.236827 54.323476 2.300519 0.000000 0.999999 0.001176 0.000000 1.000000
  28 18.236827 54.323476 -7.375897 0.000000 0.999999 0.001176 0.000000 0.000000
  26 -10.448865 54.323468 2.300514 0.000000 0.999999 0.001176 1.000000 1.000000
$0b_bufffiveseven_blue02.bmp
  26 -10.448865 54.323468 2.300514 0.000000 0.999999 0.001176 1.000000 1.000000
  28 18.236827 54.323476 -7.375897 0.000000 0.999999 0.001176 0.000000 0.000000
  27 -10.448865 54.323468 -7.375900 0.000000 0.999999 0.001176 1.000000 0.000000
end
