version 1
nodes
  0 "root" -1
  1 "Bone01" 0
  2 "Bone_Lefthand" 1
  3 "Dummy02" 2
  4 "y20s3_root" 3
  5 "bone001" 4
  6 "magagine_Dummy" 4
  7 "magagine" 6
  8 "triger" 4
  9 "bone002" 4
  10 "light_bone003" 7
  11 "light_bone004" 10
  12 "light_bone005" 7
  13 "light_bone006" 12
  14 "light_bone001" 4
  15 "light_bone002" 14
  16 "light_bone007" 4
  17 "light_bone008" 16
  18 "laser_bone001" 3
  19 "laser_bone002" 18
  20 "laser_bone004" 3
  21 "laser_bone003" 20
  22 "laser_bone005" 3
  23 "laser_bone006" 22
  24 "laser_bone007" 3
  25 "laser_bone008" 24
  26 "Bone_L_Upper" 1
  27 "Bone13" 2
  28 "Bone14" 27
  29 "Bone15" 28
  30 "Bone17" 2
  31 "Bone18" 30
  32 "Bone19" 31
  33 "Bone21" 2
  34 "Bone22" 33
  35 "Bone23" 34
  36 "Bone09" 2
  37 "Bone10" 36
  38 "Bone11" 37
  39 "Bone05" 2
  40 "Bone06" 39
  41 "Bone07" 40
  42 "Bone_Se_Hand-L" 2
  43 "Bone04" 0
  44 "Bone_Righthand" 43
  45 "Bone39" 44
  46 "Bone40" 45
  47 "Bone41" 46
  48 "Bone35" 44
  49 "Bone36" 48
  50 "Bone37" 49
  51 "Bone31" 44
  52 "Bone32" 51
  53 "Bone33" 52
  54 "Bone43" 44
  55 "Bone44" 54
  56 "Bone45" 55
  57 "Bone27" 44
  58 "Bone28" 57
  59 "Bone29" 58
  60 "Bone_Se_Hand-R" 44
  61 "Bone_R_Upper" 43
end
skeleton
  time 0
    0 -1.000000 0.136412 1.352245 0.000000 0.000000 0.000000
    1 9.889112 -1.998802 -9.644734 1.393576 -1.745553 -1.566805
    2 -0.071919 -8.498731 -0.104136 -0.003809 0.098126 -0.116481
    3 3.925159 2.218052 1.918653 0.073919 2.961480 1.518945
    4 6.051824 -0.144293 -0.052775 3.134428 0.000078 -0.007991
    5 5.730157 -3.971989 -0.000627 -0.000003 0.000000 0.000000
    6 0.396099 -1.382789 -0.000384 3.141592 0.000000 1.570796
    7 0.000000 -0.000001 0.000000 0.000008 0.000001 0.000001
    8 0.175185 -2.244853 0.000094 0.000000 0.000000 -1.570796
    9 -4.212039 2.038040 -0.000638 -0.000003 0.000000 0.000000
    10 0.674423 -27.282658 -0.831180 3.134520 0.007247 0.000003
    11 1.124295 0.000005 0.000001 0.000000 0.000000 0.000000
    12 0.674536 -29.410095 -0.816327 3.134520 0.007247 0.000003
    13 1.124295 0.000005 0.000001 0.000000 0.000000 0.000000
    14 -23.970781 -0.342481 0.980053 0.000002 -0.000003 -0.000001
    15 1.317813 0.000005 0.000002 0.000000 0.000000 0.000000
    16 -35.346695 0.046643 0.980157 0.000002 -0.000003 -0.000001
    17 1.167194 0.000004 0.000002 0.000000 0.000000 0.000000
    18 -39.342926 0.432420 0.184427 1.563634 0.000082 -0.007990
    19 -0.000008 0.000000 0.000000 0.000000 0.000000 0.000000
    20 -39.342361 0.501842 0.178016 1.563634 0.000082 -0.007990
    21 0.000000 0.000000 0.000000 0.000000 0.000000 0.000000
    22 -39.340183 0.783832 -0.599291 1.563634 0.000082 -0.007990
    23 -0.000004 -0.000004 0.000005 0.000000 0.000000 0.000000
    24 -39.340893 0.694901 -0.591078 1.563634 0.000082 -0.007990
    25 0.000000 0.000000 0.000000 0.000000 0.000000 0.000000
    26 1.257180 8.762585 -0.153713 -1.570562 0.002683 -1.566807
    27 -0.488518 -2.755602 -0.228260 0.106454 0.010332 -0.264490
    28 0.039887 -1.479790 0.029854 -0.055395 0.000000 0.000001
    29 0.028786 -1.075731 -0.023109 0.002099 0.000000 0.000000
    30 0.250027 -2.820665 -0.238396 0.041826 -0.002921 0.008443
    31 -0.049759 -1.680544 0.100479 0.019826 0.000000 -0.000002
    32 -0.034142 -1.148312 0.084782 -0.040115 0.000000 0.000000
    33 0.957766 -2.746780 -0.090302 -0.017221 -0.162277 0.191558
    34 -0.033420 -1.397129 -0.011257 0.013931 0.000000 -0.000001
    35 -0.022360 -0.957436 0.018784 0.003845 0.000000 0.000000
    36 -1.180681 -2.507217 -0.193859 0.082999 0.013294 -0.477915
    37 -0.024967 -1.123934 0.017597 -0.018065 0.000000 0.000001
    38 -0.020057 -0.890968 0.010090 -0.060797 0.000000 0.000000
    39 0.583510 -1.197277 0.185379 0.158049 -0.404973 -0.364290
    40 1.535927 0.010246 0.005009 -0.002964 -0.012979 0.000887
    41 1.100771 0.004527 -0.010679 -0.002796 0.015973 0.003458
    42 0.120153 -0.050270 -0.054489 0.287569 3.110905 1.561085
    43 -9.310107 -5.231260 -12.513384 0.004984 -3.131565 -1.566847
    44 0.096944 -8.450418 -0.009365 -0.032965 -0.297907 -0.004663
    45 0.447953 -2.798986 -0.200443 0.106456 -0.010396 0.265094
    46 -0.032909 -1.480204 0.004940 -0.055403 0.000000 0.000002
    47 -0.027022 -1.076920 -0.020210 0.002094 0.000000 0.000000
    48 -0.249534 -2.846964 -0.174213 0.041903 -0.000125 -0.008396
    49 0.043235 -1.683941 0.096012 0.019757 0.002823 -0.000167
    50 0.031729 -1.160830 0.058838 -0.040181 0.000642 0.008372
    51 -0.963866 -2.785145 -0.085350 -0.017227 0.162276 -0.191556
    52 0.028479 -1.403067 0.006271 0.013941 0.000000 0.000000
    53 0.021413 -0.957781 0.020046 0.003851 0.000000 0.000000
    54 1.164475 -2.543940 -0.170330 0.083003 -0.013294 0.477915
    55 0.024032 -1.129042 0.017807 -0.018074 0.000000 0.000001
    56 0.014898 -0.883989 -0.019848 -0.060801 0.000000 0.000000
    57 -0.586770 -1.264477 0.200161 -0.152092 -0.410513 -2.814816
    58 1.522835 0.058681 0.016848 0.001410 0.008985 -0.046880
    59 1.117947 0.048424 -0.005766 -0.000243 -0.025198 0.065422
    60 -0.139399 -0.111698 0.014397 0.285382 -0.030687 1.580508
    61 -1.393470 8.839177 -0.239433 1.580804 -0.005023 -1.566847
end
triangles
$0b_y20s3_c_glow.bmp
  9 5.706321 -11.405690 0.593088 0.000000 1.000000 0.000000 0.952941 0.541176
  9 5.846322 -11.405690 0.793088 0.000000 1.000000 0.000000 0.870588 0.662745
  9 5.666320 -11.405690 0.353088 0.000000 1.000000 0.000000 0.980392 0.396078
$0b_y20s3_c_glow.bmp
  9 5.666320 -11.405690 0.353088 0.000000 1.000000 0.000000 0.980392 0.396078
  9 5.846322 -11.405690 0.793088 0.000000 1.000000 0.000000 0.870588 0.662745
  9 6.046319 -11.405691 -0.216913 0.000000 1.000000 0.000000 0.749020 0.047059
$0b_y20s3_c_glow.bmp
  9 5.846322 -11.405690 0.793088 0.000000 1.000000 0.000000 0.870588 0.662745
  9 6.276322 -11.405692 0.973087 0.000000 1.000000 0.000000 0.607843 0.772549
  9 6.046319 -11.405691 -0.216913 0.000000 1.000000 0.000000 0.749020 0.047059
$0b_y20s3_c_glow.bmp
  9 6.046319 -11.405691 -0.216913 0.000000 1.000000 0.000000 0.749020 0.047059
  9 6.276322 -11.405692 0.973087 0.000000 1.000000 0.000000 0.607843 0.772549
  9 6.276319 -11.405692 -0.266913 0.000000 1.000000 0.000000 0.607843 0.019608
$0b_y20s3_c_glow.bmp
  9 6.276322 -11.405692 0.973087 0.000000 1.000000 0.000000 0.607843 0.772549
  9 6.706322 -11.405694 0.793085 0.000000 1.000000 0.000000 0.341176 0.662745
  9 6.276319 -11.405692 -0.266913 0.000000 1.000000 0.000000 0.607843 0.019608
$0b_y20s3_c_glow.bmp
  9 6.276319 -11.405692 -0.266913 0.000000 1.000000 0.000000 0.607843 0.019608
  9 6.706322 -11.405694 0.793085 0.000000 1.000000 0.000000 0.341176 0.662745
  9 6.506319 -11.405693 -0.216914 0.000000 1.000000 0.000000 0.462745 0.047059
$0b_y20s3_c_glow.bmp
  9 6.706322 -11.405694 0.793085 0.000000 1.000000 0.000000 0.341176 0.662745
  9 6.886320 -11.405695 0.353085 0.000000 1.000000 0.000000 0.231373 0.396078
  9 6.506319 -11.405693 -0.216914 0.000000 1.000000 0.000000 0.462745 0.047059
$0b_y20s3_c_glow.bmp
  9 6.506319 -11.405693 -0.216914 0.000000 1.000000 0.000000 0.462745 0.047059
  9 6.886320 -11.405695 0.353085 0.000000 1.000000 0.000000 0.231373 0.396078
  9 6.846320 -11.405694 0.113085 0.000000 1.000000 0.000000 0.258824 0.250980
$0b_y20s3_c_glow.bmp
  14 5.295713 10.433054 -3.197435 -1.000000 -0.000004 0.000000 0.094118 0.760784
  14 5.295713 10.473054 -3.277435 -1.000000 -0.000004 0.000000 0.058824 0.780392
  15 5.295702 9.155241 -3.197431 -1.000000 -0.000004 0.000000 0.094118 0.015686
$0b_y20s3_c_glow.bmp
  15 5.295702 9.155241 -3.197431 -1.000000 -0.000004 0.000000 0.094118 0.015686
  14 5.295713 10.473054 -3.277435 -1.000000 -0.000004 0.000000 0.058824 0.780392
  15 5.295702 9.155241 -3.277431 -1.000000 -0.000004 0.000000 0.058824 0.015686
$0b_y20s3_c_glow.bmp
  14 5.295713 10.473054 -3.277435 -1.000000 -0.000004 0.000000 0.058824 0.780392
  14 5.295713 10.433054 -3.357435 -1.000000 -0.000004 0.000000 0.019608 0.760784
  15 5.295702 9.155241 -3.277431 -1.000000 -0.000004 0.000000 0.058824 0.015686
$0b_y20s3_c_glow.bmp
  15 5.295702 9.155241 -3.277431 -1.000000 -0.000004 0.000000 0.058824 0.015686
  14 5.295713 10.433054 -3.357435 -1.000000 -0.000004 0.000000 0.019608 0.760784
  15 5.295702 9.155241 -3.357431 -1.000000 -0.000004 0.000000 0.019608 0.015686
$0b_y20s3_c_glow.bmp
  16 5.355654 21.848967 -2.838311 -0.985105 -0.000343 0.171953 0.156863 0.698039
  16 5.345654 21.848967 -2.868311 -0.999786 -0.000412 0.020689 0.137255 0.698039
  17 5.355644 20.661773 -2.838309 -0.985105 -0.000343 0.171954 0.156863 0.015686
$0b_y20s3_c_glow.bmp
  17 5.355644 20.661773 -2.838309 -0.985105 -0.000343 0.171954 0.156863 0.015686
  16 5.345654 21.848967 -2.868311 -0.999786 -0.000412 0.020689 0.137255 0.698039
  17 5.345644 20.661773 -2.868309 -0.999788 -0.000419 0.020573 0.137255 0.015686
$0b_y20s3_c_glow.bmp
  16 5.345654 21.848967 -2.868311 -0.999786 -0.000412 0.020689 0.137255 0.698039
  16 5.345654 21.848967 -2.908311 -0.991385 -0.000472 -0.130982 0.117647 0.698039
  17 5.345644 20.661773 -2.868309 -0.999788 -0.000419 0.020573 0.137255 0.015686
$0b_y20s3_c_glow.bmp
  17 5.345644 20.661773 -2.868309 -0.999788 -0.000419 0.020573 0.137255 0.015686
  16 5.345654 21.848967 -2.908311 -0.991385 -0.000472 -0.130982 0.117647 0.698039
  17 5.355644 20.661773 -2.908309 -0.991333 -0.000486 -0.131375 0.117647 0.015686
$0b_y20s3_c_glow.bmp
  13 5.435489 14.546358 -2.599027 -0.999991 -0.000009 0.004296 0.490196 0.984314
  13 5.430509 15.256411 -2.599060 -0.999991 -0.000009 0.004296 0.313725 0.984314
  12 5.433641 14.536429 -3.733366 -0.999991 -0.000009 0.004295 0.490196 0.811765
$0b_y20s3_c_glow.bmp
  12 5.433641 14.536429 -3.733366 -0.999991 -0.000009 0.004295 0.490196 0.811765
  13 5.430509 15.256411 -2.599060 -0.999991 -0.000009 0.004296 0.313725 0.984314
  12 5.425094 16.156529 -3.733420 -0.999991 -0.000009 0.004295 0.070588 0.811765
$0b_y20s3_c_glow.bmp
  13 5.430509 15.256411 -2.599060 -0.999991 -0.000009 0.004296 0.313725 0.984314
  13 5.436871 16.156388 -2.599010 -0.999991 -0.000009 0.004296 0.070588 0.984314
  12 5.425094 16.156529 -3.733420 -0.999991 -0.000009 0.004295 0.070588 0.811765
$0b_y20s3_c_glow.bmp
  11 5.440218 12.358780 -2.599001 -0.999991 -0.000009 0.004295 0.490196 0.984314
  11 5.446298 13.218759 -2.598954 -0.999991 -0.000009 0.004295 0.313725 0.984314
  10 5.438441 12.358851 -3.733339 -0.999991 -0.000009 0.004295 0.490196 0.811765
$0b_y20s3_c_glow.bmp
  10 5.438441 12.358851 -3.733339 -0.999991 -0.000009 0.004295 0.490196 0.811765
  11 5.446298 13.218759 -2.598954 -0.999991 -0.000009 0.004295 0.313725 0.984314
  10 5.450741 14.098807 -3.733242 -0.999991 -0.000009 0.004295 0.070588 0.811765
$0b_y20s3_c_glow.bmp
  11 5.446298 13.218759 -2.598954 -0.999991 -0.000009 0.004295 0.313725 0.984314
  11 5.442519 14.098807 -2.598977 -0.999991 -0.000009 0.004295 0.070588 0.984314
  10 5.450741 14.098807 -3.733242 -0.999991 -0.000009 0.004295 0.070588 0.811765
$0b_y20s3_c_glow.bmp
  9 5.666320 -11.405690 0.353088 0.000000 1.000000 0.000000 0.980392 0.396078
  9 6.046319 -11.405691 -0.216913 0.000000 1.000000 0.000000 0.749020 0.047059
  9 5.706320 -11.405690 0.113088 0.000000 1.000000 0.000000 0.952941 0.250980
$0b_y20s3_c_glow.bmp
  9 5.706320 -11.405690 0.113088 0.000000 1.000000 0.000000 0.952941 0.250980
  9 6.046319 -11.405691 -0.216913 0.000000 1.000000 0.000000 0.749020 0.047059
  9 5.846319 -11.405690 -0.086912 0.000000 1.000000 0.000000 0.870588 0.129412
$0b_y20s3_c_glow.bmp
  9 6.276322 -11.405692 0.973087 0.000000 1.000000 0.000000 0.607843 0.772549
  9 5.846322 -11.405690 0.793088 0.000000 1.000000 0.000000 0.870588 0.662745
  9 6.046322 -11.405691 0.933087 0.000000 1.000000 0.000000 0.749020 0.745098
$0b_y20s3_c_glow.bmp
  9 6.886320 -11.405695 0.353085 0.000000 1.000000 0.000000 0.231373 0.396078
  9 6.706322 -11.405694 0.793085 0.000000 1.000000 0.000000 0.341176 0.662745
  9 6.846321 -11.405694 0.593085 0.000000 1.000000 0.000000 0.258824 0.541176
$0b_y20s3_c_glow.bmp
  9 6.506319 -11.405693 -0.216914 0.000000 1.000000 0.000000 0.462745 0.047059
  9 6.846320 -11.405694 0.113085 0.000000 1.000000 0.000000 0.258824 0.250980
  9 6.706319 -11.405694 -0.086915 0.000000 1.000000 0.000000 0.341176 0.129412
$0b_y20s3_c_glow.bmp
  9 6.506322 -11.405693 0.933086 0.000000 1.000000 0.000000 0.454902 0.733333
  9 6.706322 -11.405694 0.793085 0.000000 1.000000 0.000000 0.341176 0.662745
  9 6.276322 -11.405692 0.973087 0.000000 1.000000 0.000000 0.607843 0.772549
$0b_y20s3_laser02.bmp
  19 5.301039 31.920213 -3.137227 -0.000006 -0.000021 1.000000 1.000000 0.886275
  19 7.771039 31.920193 -3.137221 -0.000006 -0.000021 1.000000 0.000000 0.886275
  18 5.251092 38.480205 -3.137221 0.000098 0.000019 1.000000 1.000000 0.000000
$0b_y20s3_laser02.bmp
  18 5.251092 38.480205 -3.137221 0.000098 0.000019 1.000000 1.000000 0.000000
  19 7.771039 31.920193 -3.137221 -0.000006 -0.000021 1.000000 0.000000 0.886275
  18 7.731092 38.490186 -3.137215 0.000098 0.000019 1.000000 0.000000 0.000000
$0b_y20s3_laser02.bmp
  19 5.661037 31.920209 -2.267226 0.707096 0.005066 0.707100 1.000000 0.886275
  19 7.411042 31.920197 -4.007222 0.707096 0.005066 0.707100 0.000000 0.886275
  18 5.621090 38.480201 -2.267220 0.707162 0.005102 0.707034 1.000000 0.000000
$0b_y20s3_laser02.bmp
  18 5.621090 38.480201 -2.267220 0.707162 0.005102 0.707034 1.000000 0.000000
  19 7.411042 31.920197 -4.007222 0.707096 0.005066 0.707100 0.000000 0.886275
  18 7.361094 38.490190 -4.007216 0.707162 0.005102 0.707034 0.000000 0.000000
$0b_y20s3_laser02.bmp
  23 4.619855 31.920216 -3.484251 -0.000007 -0.000015 1.000000 1.000000 0.886275
  23 6.899855 31.920197 -3.484245 -0.000007 -0.000015 1.000000 0.000000 0.886275
  22 4.569908 37.960212 -3.484250 0.000096 0.000024 1.000000 1.000000 0.000000
$0b_y20s3_laser02.bmp
  22 4.569908 37.960212 -3.484250 0.000096 0.000024 1.000000 1.000000 0.000000
  23 6.899855 31.920197 -3.484245 -0.000007 -0.000015 1.000000 0.000000 0.886275
  22 6.849908 37.980194 -3.484244 0.000096 0.000024 1.000000 0.000000 0.000000
$0b_y20s3_laser02.bmp
  23 4.949853 31.920212 -2.694250 0.707096 0.005068 0.707099 1.000000 0.886275
  23 6.559857 31.920201 -4.294246 0.707096 0.005068 0.707099 0.000000 0.886275
  22 4.909906 37.960208 -2.694249 0.707158 0.005102 0.707037 1.000000 0.000000
$0b_y20s3_laser02.bmp
  22 4.909906 37.960208 -2.694249 0.707158 0.005102 0.707037 1.000000 0.000000
  23 6.559857 31.920201 -4.294246 0.707096 0.005068 0.707099 0.000000 0.886275
  22 6.519910 37.970197 -4.294245 0.707158 0.005102 0.707037 0.000000 0.000000
$0b_y20s3_laser03.bmp
  19 6.531042 31.920204 -4.377224 -0.999974 -0.007216 -0.000003 1.000000 0.886275
  19 6.531036 31.920202 -1.897224 -0.999974 -0.007216 -0.000003 0.000000 0.886275
  18 6.501095 38.490197 -4.377218 -0.999974 -0.007178 0.000099 1.000000 0.000000
$0b_y20s3_laser03.bmp
  18 6.501095 38.490197 -4.377218 -0.999974 -0.007178 0.000099 1.000000 0.000000
  19 6.531036 31.920202 -1.897224 -0.999974 -0.007216 -0.000003 0.000000 0.886275
  18 6.501089 38.490194 -1.907218 -0.999974 -0.007178 0.000099 0.000000 0.000000
$0b_y20s3_laser03.bmp
  19 5.661042 31.920211 -4.007226 -0.707100 -0.005108 0.707095 1.000000 0.886275
  19 7.411037 31.920195 -2.267222 -0.707100 -0.005108 0.707095 0.000000 0.886275
  18 5.621094 38.480203 -4.007220 -0.707022 -0.005065 0.707174 1.000000 0.000000
$0b_y20s3_laser03.bmp
  18 5.621094 38.480203 -4.007220 -0.707022 -0.005065 0.707174 1.000000 0.000000
  19 7.411037 31.920195 -2.267222 -0.707100 -0.005108 0.707095 0.000000 0.886275
  18 7.361090 38.490188 -2.267216 -0.707022 -0.005065 0.707174 0.000000 0.000000
$0b_y20s3_laser03.bmp
  23 5.749858 31.920208 -4.634248 -0.999974 -0.007216 -0.000003 1.000000 0.886275
  23 5.749853 31.920205 -2.354248 -0.999974 -0.007216 -0.000003 0.000000 0.886275
  22 5.719910 37.970204 -4.634247 -0.999974 -0.007177 0.000099 1.000000 0.000000
$0b_y20s3_laser03.bmp
  22 5.719910 37.970204 -4.634247 -0.999974 -0.007177 0.000099 1.000000 0.000000
  23 5.749853 31.920205 -2.354248 -0.999974 -0.007216 -0.000003 0.000000 0.886275
  22 5.719905 37.970202 -2.354247 -0.999974 -0.007177 0.000099 0.000000 0.000000
$0b_y20s3_laser03.bmp
  23 4.949857 31.920214 -4.294250 -0.707098 -0.005102 0.707097 1.000000 0.886275
  23 6.559853 31.920199 -2.694246 -0.707098 -0.005102 0.707097 0.000000 0.886275
  22 4.909909 37.960210 -4.294249 -0.707022 -0.005061 0.707174 1.000000 0.000000
$0b_y20s3_laser03.bmp
  22 4.909909 37.960210 -4.294249 -0.707022 -0.005061 0.707174 1.000000 0.000000
  23 6.559853 31.920199 -2.694246 -0.707098 -0.005102 0.707097 0.000000 0.886275
  22 6.519906 37.970196 -2.694245 -0.707022 -0.005061 0.707174 0.000000 0.000000
$0b_y20s3_laser01.bmp
  21 6.515128 31.910186 -3.896693 -0.999974 -0.007217 -0.000002 1.000000 0.886275
  21 6.515124 31.910184 -2.486693 -0.999974 -0.007217 -0.000002 0.000000 0.886275
  20 6.495158 35.670186 -3.896689 -0.999974 -0.007179 0.000099 1.000000 0.000000
$0b_y20s3_laser01.bmp
  20 6.495158 35.670186 -3.896689 -0.999974 -0.007179 0.000099 1.000000 0.000000
  21 6.515124 31.910184 -2.486693 -0.999974 -0.007217 -0.000002 0.000000 0.886275
  20 6.495154 35.670184 -2.486689 -0.999974 -0.007179 0.000099 0.000000 0.000000
$0b_y20s3_laser01.bmp
  21 6.025125 31.910188 -2.696694 0.707094 0.005060 0.707101 1.000000 0.886275
  21 7.015127 31.910181 -3.696691 0.707094 0.005060 0.707101 0.000000 0.886275
  20 5.995155 35.670189 -2.696690 0.707164 0.005098 0.707031 1.000000 0.000000
$0b_y20s3_laser01.bmp
  20 5.995155 35.670189 -2.696690 0.707164 0.005098 0.707031 1.000000 0.000000
  21 7.015127 31.910181 -3.696691 0.707094 0.005060 0.707101 0.000000 0.886275
  20 6.995157 35.680182 -3.696688 0.707164 0.005098 0.707031 0.000000 0.000000
$0b_y20s3_laser01.bmp
  21 6.025127 31.910189 -3.696694 -0.707106 -0.005113 0.707089 1.000000 0.886275
  21 7.015125 31.910180 -2.696692 -0.707106 -0.005113 0.707089 0.000000 0.886275
  20 5.995157 35.670190 -3.696690 -0.707018 -0.005065 0.707177 1.000000 0.000000
$0b_y20s3_laser01.bmp
  20 5.995157 35.670190 -3.696690 -0.707018 -0.005065 0.707177 1.000000 0.000000
  21 7.015125 31.910180 -2.696692 -0.707106 -0.005113 0.707089 0.000000 0.886275
  20 6.995155 35.680181 -2.696688 -0.707018 -0.005065 0.707177 0.000000 0.000000
$0b_y20s3_laser01.bmp
  21 5.815126 31.910191 -3.186694 0.000000 -0.000028 1.000000 1.000000 0.886275
  21 7.225126 31.910179 -3.186691 0.000000 -0.000028 1.000000 0.000000 0.886275
  20 5.785156 35.670191 -3.186691 0.000099 0.000010 1.000000 1.000000 0.000000
$0b_y20s3_laser01.bmp
  20 5.785156 35.670191 -3.186691 0.000099 0.000010 1.000000 1.000000 0.000000
  21 7.225126 31.910179 -3.186691 0.000000 -0.000028 1.000000 0.000000 0.886275
  20 7.205156 35.680179 -3.186687 0.000099 0.000010 1.000000 0.000000 0.000000
$0b_y20s3_laser01.bmp
  25 5.747436 31.910203 -4.045263 -0.999974 -0.007216 -0.000002 1.000000 0.886275
  25 5.747433 31.910201 -2.745263 -0.999974 -0.007216 -0.000002 0.000000 0.886275
  24 5.727464 35.370203 -4.045259 -0.999974 -0.007178 0.000099 1.000000 0.000000
$0b_y20s3_laser01.bmp
  24 5.727464 35.370203 -4.045259 -0.999974 -0.007178 0.000099 1.000000 0.000000
  25 5.747433 31.910201 -2.745263 -0.999974 -0.007216 -0.000002 0.000000 0.886275
  24 5.727461 35.370202 -2.745259 -0.999974 -0.007178 0.000099 0.000000 0.000000
$0b_y20s3_laser01.bmp
  25 5.297434 31.910205 -2.935264 0.707097 0.005071 0.707098 1.000000 0.886275
  25 6.207436 31.910199 -3.855261 0.707097 0.005071 0.707098 0.000000 0.886275
  24 5.267461 35.370205 -2.935260 0.707156 0.005104 0.707039 1.000000 0.000000
$0b_y20s3_laser01.bmp
  24 5.267461 35.370205 -2.935260 0.707156 0.005104 0.707039 1.000000 0.000000
  25 6.207436 31.910199 -3.855261 0.707097 0.005071 0.707098 0.000000 0.886275
  24 6.187464 35.380199 -3.855258 0.707156 0.005104 0.707039 0.000000 0.000000
$0b_y20s3_laser01.bmp
  25 5.297436 31.910206 -3.855264 -0.707110 -0.005110 0.707085 1.000000 0.886275
  25 6.207434 31.910198 -2.935261 -0.707110 -0.005110 0.707085 0.000000 0.886275
  24 5.267464 35.370206 -3.855260 -0.707018 -0.005061 0.707177 1.000000 0.000000
$0b_y20s3_laser01.bmp
  24 5.267464 35.370206 -3.855260 -0.707018 -0.005061 0.707177 1.000000 0.000000
  25 6.207434 31.910198 -2.935261 -0.707110 -0.005110 0.707085 0.000000 0.886275
  24 6.187461 35.380198 -2.935258 -0.707018 -0.005061 0.707177 0.000000 0.000000
$0b_y20s3_laser01.bmp
  25 5.097435 31.910207 -3.385264 -0.000011 -0.000026 1.000000 1.000000 0.886275
  25 6.407435 31.910197 -3.385261 -0.000011 -0.000026 1.000000 0.000000 0.886275
  24 5.077462 35.370207 -3.385261 0.000096 0.000015 1.000000 1.000000 0.000000
$0b_y20s3_laser01.bmp
  24 5.077462 35.370207 -3.385261 0.000096 0.000015 1.000000 1.000000 0.000000
  25 6.407435 31.910197 -3.385261 -0.000011 -0.000026 1.000000 0.000000 0.886275
  24 6.377463 35.380197 -3.385258 0.000096 0.000015 1.000000 0.000000 0.000000
end
