// Created by Crowbar 0.34.0.0

$ModelName "weapons/tfa_cso/w_howitzer.mdl"

$BodyGroup "studio"
{
	studio "v_blockas2_1"
}

$collisionmodel "v_blockas2_1.smd"
{
	$mass 9
}

$CDMaterials "models\weapons\tfa_cso\howitzer"

$attachment "0" "root" -0.40 -17.30 2.00 rotate -0 0 0

$Sequence "idle" {
	"anims\idle.smd"
	fps 30
}