version 1
nodes
  0 "root" -1
  1 "Bone01" 0
  2 "Bone_Lefthand" 1
  3 "AT4_root" 2
  4 "AT4_lens" 3
  5 "Bone_L_Upper" 1
  6 "Bone13" 2
  7 "Bone14" 6
  8 "Bone15" 7
  9 "Bone17" 2
  10 "Bone18" 9
  11 "Bone19" 10
  12 "Bone21" 2
  13 "Bone22" 12
  14 "Bone23" 13
  15 "Bone09" 2
  16 "Bone10" 15
  17 "Bone11" 16
  18 "Bone05" 2
  19 "Bone06" 18
  20 "Bone07" 19
  21 "Bone_Se_Hand-L" 2
  22 "Bone04" 0
  23 "Bone_Righthand" 22
  24 "Bone39" 23
  25 "Bone40" 24
  26 "Bone41" 25
  27 "Bone35" 23
  28 "Bone36" 27
  29 "Bone37" 28
  30 "Bone31" 23
  31 "Bone32" 30
  32 "Bone33" 31
  33 "Bone43" 23
  34 "Bone44" 33
  35 "Bone45" 34
  36 "Bone27" 23
  37 "Bone28" 36
  38 "Bone29" 37
  39 "Bone_Se_Hand-R" 23
  40 "Bone_R_Upper" 22
end
skeleton
  time 0
    0 0.001154 -0.567689 -22.617259 0.000000 0.000000 0.000000
    1 18.009588 -8.897380 10.325552 1.158761 -2.719487 -1.344242
    2 -0.071921 -8.498736 -0.104134 -0.323161 0.102711 0.079207
    3 -1.879609 -3.584201 0.911484 0.316169 -0.168185 0.360303
    4 -2.855127 1.648684 1.176711 0.050587 0.000000 -3.140162
    5 1.343120 8.715708 1.092419 -1.422480 0.140206 -1.590417
    6 -0.488518 -2.755602 -0.228260 -0.381031 -0.035162 0.165783
    7 0.039887 -1.479790 0.029854 -1.069855 0.000000 0.000001
    8 0.028786 -1.075731 -0.023109 -0.231031 0.000000 0.000000
    9 0.250027 -2.820665 -0.238396 0.040160 -0.012053 0.230266
    10 -0.049759 -1.680544 0.100479 -1.590087 0.000000 -0.000002
    11 -0.034142 -1.148312 0.084782 -0.460177 0.000000 0.000000
    12 0.957766 -2.746780 -0.090302 -0.017221 -0.162277 0.191558
    13 -0.033420 -1.397129 -0.011257 -1.261472 0.000000 -0.000001
    14 -0.022360 -0.957436 0.018784 -0.566969 0.000000 0.000000
    15 -1.180681 -2.507217 -0.193859 -0.234855 -0.038887 0.160527
    16 -0.024967 -1.123934 0.017597 -0.664637 0.000000 0.000001
    17 -0.020057 -0.890968 0.010090 -0.340158 0.000000 0.000000
    18 0.583510 -1.197277 0.185379 0.396231 -0.133810 -0.943146
    19 1.535927 0.010246 0.005009 -0.365210 -0.013303 -0.218193
    20 1.100771 0.004527 -0.010679 -0.001813 0.016105 0.065336
    21 0.120153 -0.050270 -0.054489 0.287569 3.110905 1.561085
    22 0.252685 -15.618296 5.494978 1.003203 -3.101321 0.783393
    23 0.096944 -8.450418 -0.009365 1.026618 -0.339154 -0.206590
    24 0.447953 -2.798986 -0.200443 0.000747 0.016521 0.013537
    25 -0.032909 -1.480204 0.004940 -0.791070 0.000000 0.000002
    26 -0.027022 -1.076920 -0.020210 -0.564547 0.000000 0.000000
    27 -0.249534 -2.846964 -0.174213 0.099043 -0.000125 -0.008396
    28 0.043235 -1.683941 0.096012 -0.907534 0.002823 -0.000167
    29 0.031729 -1.160830 0.058838 -0.413501 0.000642 0.008372
    30 -0.963866 -2.785145 -0.085350 0.223413 0.162612 -0.001720
    31 0.028479 -1.403067 0.006271 -0.168681 0.000000 0.000000
    32 0.021413 -0.957781 0.020046 -0.392959 0.000000 0.000000
    33 1.164475 -2.543940 -0.170330 0.316824 0.028640 -0.027609
    34 0.024032 -1.129042 0.017807 -0.797294 0.000000 0.000001
    35 0.014898 -0.883989 -0.019848 -0.236543 0.000000 0.000000
    36 -0.676616 -1.377762 0.418918 -0.353613 0.031923 -2.390715
    37 1.432989 0.253999 0.016848 0.627556 0.007289 0.439087
    38 1.117947 0.048424 -0.005766 0.000009 -0.025198 0.055341
    39 -0.041740 0.021119 -0.243423 0.261931 0.632819 1.806394
    40 -7.038174 6.628172 -0.282403 1.574392 -0.010596 -0.787827
  time 1
    0 0.001154 -0.567689 -22.617259 0.000000 0.000000 0.000000
    1 18.009588 -8.678623 10.227893 1.160577 -2.726896 -1.344925
    2 -0.071921 -8.498736 -0.104134 -0.317731 0.101065 0.083054
    3 -1.879609 -3.584201 0.911484 0.316169 -0.168185 0.360303
    4 -2.855127 1.648684 1.176711 0.050587 0.000000 -3.140162
    5 1.343120 8.715708 1.092419 -1.422480 0.140206 -1.590417
    6 -0.488518 -2.755602 -0.228260 -0.384008 0.064071 0.125521
    7 0.039887 -1.479790 0.029854 -1.069855 0.000000 0.000001
    8 0.028786 -1.075731 -0.023109 -0.231031 0.000000 0.000000
    9 0.250027 -2.820665 -0.238396 -0.043660 -0.012053 0.230266
    10 -0.049759 -1.680544 0.100479 -1.688789 0.000000 -0.000002
    11 -0.034142 -1.148312 0.084782 -0.460177 0.000000 0.000000
    12 0.957766 -2.746780 -0.090302 -0.101042 -0.162277 0.191558
    13 -0.033420 -1.397129 -0.011257 -1.360160 0.000000 -0.000001
    14 -0.022360 -0.957436 0.018784 -0.566969 0.000000 0.000000
    15 -1.180681 -2.507217 -0.193859 -0.400205 -0.011226 0.187824
    16 -0.024967 -1.123934 0.017597 -0.472345 0.000000 0.000001
    17 -0.020057 -0.890968 0.010090 -0.237690 -0.004674 0.012596
    18 0.583510 -1.197277 0.185379 0.396231 -0.133810 -0.943146
    19 1.535927 0.010246 0.005009 -0.365210 -0.013303 -0.218193
    20 1.100771 0.004527 -0.010679 -0.001813 0.016105 0.065336
    21 0.120153 -0.050270 -0.054489 0.287569 3.110905 1.561085
    22 0.252685 -15.157344 5.268409 1.003203 -3.101321 0.783393
    23 0.096944 -8.450418 -0.009365 1.018165 -0.346080 -0.196248
    24 0.447953 -2.798986 -0.200443 0.000747 0.016521 0.013537
    25 -0.032909 -1.480204 0.004940 -0.791070 0.000000 0.000002
    26 -0.027022 -1.076920 -0.020210 -0.564547 0.000000 0.000000
    27 -0.249534 -2.846964 -0.174213 0.099043 -0.000125 -0.008396
    28 0.043235 -1.683941 0.096012 -0.907534 0.002823 -0.000167
    29 0.031729 -1.160830 0.058838 -0.413501 0.000642 0.008372
    30 -0.963866 -2.785145 -0.085350 0.223413 0.162612 -0.001720
    31 0.028479 -1.403067 0.006271 -0.215694 0.000000 0.000000
    32 0.021413 -0.957781 0.020046 -0.392959 0.000000 0.000000
    33 1.164475 -2.543940 -0.170330 0.303392 0.028640 -0.027609
    34 0.024032 -1.129042 0.017807 -0.812690 0.000000 0.000001
    35 0.014898 -0.883989 -0.019848 -0.236543 0.000000 0.000000
    36 -0.676616 -1.377762 0.418918 -0.353613 0.031923 -2.390715
    37 1.432989 0.253999 0.016848 0.627556 0.007289 0.439087
    38 1.117947 0.048424 -0.005766 0.000009 -0.025198 0.055341
    39 -0.041740 0.021119 -0.243423 0.261931 0.632819 1.806394
    40 -7.038174 6.628172 -0.282403 1.574272 -0.010596 -0.787827
  time 2
    0 0.001154 -0.567689 -22.617259 0.000000 0.000000 0.000000
    1 18.009588 -8.233297 10.130234 1.164935 -2.744523 -1.346537
    2 -0.071921 -8.498736 -0.104134 -0.341843 0.131508 -0.009155
    3 -1.879609 -3.584201 0.911484 0.316169 -0.168185 0.360303
    4 -2.855127 1.648684 1.176711 0.050587 0.000000 -3.140162
    5 1.343120 8.715708 1.092419 -1.422480 0.140206 -1.590417
    6 -0.488518 -2.755602 -0.228260 -0.386188 0.163363 0.085666
    7 0.039887 -1.479790 0.029854 -1.069855 0.000000 0.000001
    8 0.028786 -1.075731 -0.023109 -0.231031 0.000000 0.000000
    9 0.250027 -2.820665 -0.238396 -0.127480 -0.012053 0.230266
    10 -0.049759 -1.680544 0.100479 -1.787490 0.000000 -0.000002
    11 -0.034142 -1.148312 0.084782 -0.460177 0.000000 0.000000
    12 0.957766 -2.746780 -0.090302 -0.184864 -0.162277 0.191558
    13 -0.033420 -1.397129 -0.011257 -1.458848 0.000000 -0.000001
    14 -0.022360 -0.957436 0.018784 -0.566969 0.000000 0.000000
    15 -1.180681 -2.507217 -0.193859 -0.565575 0.016458 0.215078
    16 -0.024967 -1.123934 0.017597 -0.280052 0.000000 0.000001
    17 -0.020057 -0.890968 0.010090 -0.135221 -0.009348 0.025192
    18 0.583510 -1.197277 0.185379 0.396231 -0.133810 -0.943146
    19 1.535927 0.010246 0.005009 -0.365210 -0.013303 -0.218193
    20 1.100771 0.004527 -0.010679 -0.001813 0.016105 0.065336
    21 0.120153 -0.050270 -0.054489 0.287569 3.110905 1.561085
    22 0.252685 -14.551857 5.092622 1.003203 -3.101321 0.783393
    23 0.096944 -8.450418 -0.009365 1.009711 -0.352949 -0.185865
    24 0.447953 -2.798986 -0.200443 0.000747 0.016521 0.013537
    25 -0.032909 -1.480204 0.004940 -0.791070 0.000000 0.000002
    26 -0.027022 -1.076920 -0.020210 -0.564547 0.000000 0.000000
    27 -0.249534 -2.846964 -0.174213 0.099043 -0.000125 -0.008396
    28 0.043235 -1.683941 0.096012 -0.907534 0.002823 -0.000167
    29 0.031729 -1.160830 0.058838 -0.413501 0.000642 0.008372
    30 -0.963866 -2.785145 -0.085350 0.223413 0.162612 -0.001720
    31 0.028479 -1.403067 0.006271 -0.327686 0.000000 0.000000
    32 0.021413 -0.957781 0.020046 -0.392959 0.000000 0.000000
    33 1.164475 -2.543940 -0.170330 0.271357 0.028640 -0.027609
    34 0.024032 -1.129042 0.017807 -0.849455 0.000000 0.000001
    35 0.014898 -0.883989 -0.019848 -0.236543 0.000000 0.000000
    36 -0.676616 -1.377762 0.418918 -0.353613 0.031923 -2.390715
    37 1.432989 0.253999 0.016848 0.627556 0.007289 0.439087
    38 1.117947 0.048424 -0.005766 0.000009 -0.025198 0.055341
    39 -0.041740 0.021119 -0.243423 0.261931 0.632819 1.806394
    40 -7.038174 6.628172 -0.282403 1.573901 -0.010596 -0.787827
  time 3
    0 0.001154 -0.567689 -22.617259 0.000000 0.000000 0.000000
    1 18.009588 -7.127795 10.239612 1.170111 -2.765556 -1.348504
    2 -0.071921 -8.498736 -0.104134 -0.331910 0.101782 0.055885
    3 -1.879609 -3.584201 0.911484 0.316169 -0.168185 0.360303
    4 -2.855127 1.648684 1.176711 0.050587 0.000000 -3.140162
    5 1.343120 8.715708 1.092419 -1.422480 0.140206 -1.590417
    6 -0.488518 -2.755602 -0.228260 -0.386068 0.156556 0.088385
    7 0.039887 -1.479790 0.029854 -1.069855 0.000000 0.000001
    8 0.028786 -1.075731 -0.023109 -0.231031 0.000000 0.000000
    9 0.250027 -2.820665 -0.238396 -0.121728 -0.012053 0.230266
    10 -0.049759 -1.680544 0.100479 -1.780677 0.000000 -0.000002
    11 -0.034142 -1.148312 0.084782 -0.460177 0.000000 0.000000
    12 0.957766 -2.746780 -0.090302 -0.179114 -0.162277 0.191558
    13 -0.033420 -1.397129 -0.011257 -1.452077 0.000000 -0.000001
    14 -0.022360 -0.957436 0.018784 -0.566969 0.000000 0.000000
    15 -1.180681 -2.507217 -0.193859 -0.554234 0.014552 0.213201
    16 -0.024967 -1.123934 0.017597 -0.293234 0.000000 0.000001
    17 -0.020057 -0.890968 0.010090 -0.142256 -0.009024 0.024329
    18 0.583510 -1.197277 0.185379 0.396231 -0.133810 -0.943146
    19 1.535927 0.010246 0.005009 -0.365210 -0.013303 -0.218193
    20 1.100771 0.004527 -0.010679 -0.001813 0.016105 0.065336
    21 0.120153 -0.050270 -0.054489 0.287569 3.110905 1.561085
    22 0.358157 -13.684643 5.717641 1.003203 -3.101321 0.783393
    23 0.096944 -8.450418 -0.009365 1.068152 -0.330770 -0.260026
    24 0.447953 -2.798986 -0.200443 0.000747 0.016521 0.013537
    25 -0.032909 -1.480204 0.004940 -0.791070 0.000000 0.000002
    26 -0.027022 -1.076920 -0.020210 -0.564547 0.000000 0.000000
    27 -0.249534 -2.846964 -0.174213 0.099043 -0.000125 -0.008396
    28 0.043235 -1.683941 0.096012 -0.907534 0.002823 -0.000167
    29 0.031729 -1.160830 0.058838 -0.413501 0.000642 0.008372
    30 -0.963866 -2.785145 -0.085350 0.223413 0.162612 -0.001720
    31 0.028479 -1.403067 0.006271 -0.461410 0.000000 0.000000
    32 0.021413 -0.957781 0.020046 -0.392959 0.000000 0.000000
    33 1.164475 -2.543940 -0.170330 0.233121 0.028640 -0.027609
    34 0.024032 -1.129042 0.017807 -0.893324 0.000000 0.000001
    35 0.014898 -0.883989 -0.019848 -0.236543 0.000000 0.000000
    36 -0.676616 -1.377762 0.418918 -0.353613 0.031923 -2.390715
    37 1.432989 0.253999 0.016848 0.627556 0.007289 0.439087
    38 1.117947 0.048424 -0.005766 0.000009 -0.025198 0.055341
    39 -0.041740 0.021119 -0.243423 0.261931 0.632819 1.806394
    40 -7.038174 6.628172 -0.282403 1.573290 -0.010596 -0.787827
  time 4
    0 0.001154 -0.567689 -22.617259 0.000000 0.000000 0.000000
    1 18.009588 -5.842599 10.446650 1.174378 -2.783183 -1.350115
    2 -0.071921 -8.498736 -0.104134 -0.312973 0.043344 0.176235
    3 -1.879609 -3.584201 0.911484 0.316169 -0.168185 0.360303
    4 -2.855127 1.648684 1.176711 0.050587 0.000000 -3.140162
    5 1.343120 8.715708 1.092419 -1.422480 0.140206 -1.590417
    6 -0.488518 -2.755602 -0.228260 -0.385722 0.138303 0.095673
    7 0.039887 -1.479790 0.029854 -1.069855 0.000000 0.000001
    8 0.028786 -1.075731 -0.023109 -0.231031 0.000000 0.000000
    9 0.250027 -2.820665 -0.238396 -0.106328 -0.012053 0.230266
    10 -0.049759 -1.680544 0.100479 -1.762567 0.000000 -0.000002
    11 -0.034142 -1.148312 0.084782 -0.460177 0.000000 0.000000
    12 0.957766 -2.746780 -0.090302 -0.163704 -0.162277 0.191558
    13 -0.033420 -1.397129 -0.011257 -1.433924 0.000000 -0.000001
    14 -0.022360 -0.957436 0.018784 -0.566969 0.000000 0.000000
    15 -1.180681 -2.507217 -0.193859 -0.523832 0.009483 0.208194
    16 -0.024967 -1.123934 0.017597 -0.328594 0.000000 0.000001
    17 -0.020057 -0.890968 0.010090 -0.161084 -0.008162 0.022004
    18 0.583510 -1.197277 0.185379 0.396231 -0.133810 -0.943146
    19 1.535927 0.010246 0.005009 -0.365210 -0.013303 -0.218193
    20 1.100771 0.004527 -0.010679 -0.001813 0.016105 0.065336
    21 0.120153 -0.050270 -0.054489 0.287569 3.110905 1.561085
    22 0.557381 -12.766646 6.877833 1.003203 -3.101321 0.783393
    23 0.096944 -8.450418 -0.009365 1.175269 -0.283551 -0.394775
    24 0.447953 -2.798986 -0.200443 0.000747 0.016521 0.013537
    25 -0.032909 -1.480204 0.004940 -0.791070 0.000000 0.000002
    26 -0.027022 -1.076920 -0.020210 -0.564547 0.000000 0.000000
    27 -0.249534 -2.846964 -0.174213 0.099043 -0.000125 -0.008396
    28 0.043235 -1.683941 0.096012 -0.907534 0.002823 -0.000167
    29 0.031729 -1.160830 0.058838 -0.413501 0.000642 0.008372
    30 -0.963866 -2.785145 -0.085350 0.223413 0.162612 -0.001720
    31 0.028479 -1.403067 0.006271 -0.573401 0.000000 0.000000
    32 0.021413 -0.957781 0.020046 -0.392959 0.000000 0.000000
    33 1.164475 -2.543940 -0.170330 0.201086 0.028640 -0.027609
    34 0.024032 -1.129042 0.017807 -0.930060 0.000000 0.000001
    35 0.014898 -0.883989 -0.019848 -0.236543 0.000000 0.000000
    36 -0.676616 -1.377762 0.418918 -0.353613 0.031923 -2.390715
    37 1.432989 0.253999 0.016848 0.627556 0.007289 0.439087
    38 1.117947 0.048424 -0.005766 0.000009 -0.025198 0.055341
    39 -0.041740 0.021119 -0.243423 0.261931 0.632819 1.806394
    40 -7.038174 6.628172 -0.282403 1.572463 -0.010596 -0.787827
  time 5
    0 0.001154 -0.567689 -22.617259 0.000000 0.000000 0.000000
    1 18.009588 -5.229299 10.556028 1.176194 -2.790592 -1.350798
    2 -0.071921 -8.498736 -0.104134 -0.300836 0.009860 0.246908
    3 -1.879609 -3.584201 0.911484 0.316169 -0.168185 0.360303
    4 -2.855127 1.648684 1.176711 0.050587 0.000000 -3.140162
    5 1.343120 8.715708 1.092419 -1.422480 0.140206 -1.590417
    6 -0.488518 -2.755602 -0.228260 -0.385166 0.111877 0.106270
    7 0.039887 -1.479790 0.029854 -1.069855 0.000000 0.000001
    8 0.028786 -1.075731 -0.023109 -0.231031 0.000000 0.000000
    9 0.250027 -2.820665 -0.238396 -0.084012 -0.012053 0.230266
    10 -0.049759 -1.680544 0.100479 -1.736305 0.000000 -0.000002
    11 -0.034142 -1.148312 0.084782 -0.460177 0.000000 0.000000
    12 0.957766 -2.746780 -0.090302 -0.141401 -0.162277 0.191558
    13 -0.033420 -1.397129 -0.011257 -1.407703 0.000000 -0.000001
    14 -0.022360 -0.957436 0.018784 -0.566969 0.000000 0.000000
    15 -1.180681 -2.507217 -0.193859 -0.479832 0.002112 0.200966
    16 -0.024967 -1.123934 0.017597 -0.379760 0.000000 0.000001
    17 -0.020057 -0.890968 0.010090 -0.188361 -0.006915 0.018660
    18 0.583510 -1.197277 0.185379 0.396231 -0.133810 -0.943128
    19 1.535927 0.010246 0.005009 -0.365210 -0.013303 -0.218193
    20 1.100771 0.004527 -0.010679 -0.001813 0.016105 0.065336
    21 0.120153 -0.050270 -0.054489 0.287569 3.110905 1.561085
    22 0.662853 -12.336945 7.502852 1.003203 -3.101321 0.783393
    23 0.096944 -8.450418 -0.009365 1.231857 -0.249903 -0.465072
    24 0.447953 -2.798986 -0.200443 0.000747 0.016521 0.013537
    25 -0.032909 -1.480204 0.004940 -0.791070 0.000000 0.000002
    26 -0.027022 -1.076920 -0.020210 -0.564547 0.000000 0.000000
    27 -0.249534 -2.846964 -0.174213 0.099043 -0.000125 -0.008396
    28 0.043235 -1.683941 0.096012 -0.907534 0.002823 -0.000167
    29 0.031729 -1.160830 0.058838 -0.413501 0.000642 0.008372
    30 -0.963866 -2.785145 -0.085350 0.223413 0.162612 -0.001720
    31 0.028479 -1.403067 0.006271 -0.620371 0.000000 0.000000
    32 0.021413 -0.957781 0.020046 -0.392959 0.000000 0.000000
    33 1.164475 -2.543940 -0.170330 0.187654 0.028640 -0.027609
    34 0.024032 -1.129042 0.017807 -0.945457 0.000000 0.000001
    35 0.014898 -0.883989 -0.019848 -0.236543 0.000000 0.000000
    36 -0.676616 -1.377762 0.418918 -0.353613 0.031923 -2.390715
    37 1.432989 0.253999 0.016848 0.627556 0.007289 0.439087
    38 1.117947 0.048424 -0.005766 0.000009 -0.025198 0.055341
    39 -0.041740 0.021119 -0.243423 0.261931 0.632819 1.806394
    40 -7.038174 6.628172 -0.282403 1.571408 -0.010596 -0.787827
  time 6
    0 0.001154 -0.567689 -22.617259 0.000000 0.000000 0.000000
    1 18.009588 -5.463681 10.313833 1.174923 -2.785312 -1.350307
    2 -0.071921 -8.498736 -0.104134 -0.298098 0.009923 0.256807
    3 -1.879609 -3.584201 0.911484 0.316169 -0.168185 0.360303
    4 -2.855127 1.648684 1.176711 0.050587 0.000000 -3.140162
    5 1.343120 8.715708 1.092419 -1.422480 0.140206 -1.590417
    6 -0.488518 -2.755602 -0.228260 -0.384429 0.080550 0.118876
    7 0.039887 -1.479790 0.029854 -1.069855 0.000000 0.000001
    8 0.028786 -1.075731 -0.023109 -0.231031 0.000000 0.000000
    9 0.250027 -2.820665 -0.238396 -0.057574 -0.012053 0.230266
    10 -0.049759 -1.680544 0.100479 -1.705152 0.000000 -0.000002
    11 -0.034142 -1.148312 0.084782 -0.460177 0.000000 0.000000
    12 0.957766 -2.746780 -0.090302 -0.114949 -0.162277 0.191558
    13 -0.033420 -1.397129 -0.011257 -1.376536 0.000000 -0.000001
    14 -0.022360 -0.957436 0.018784 -0.566969 0.000000 0.000000
    15 -1.180681 -2.507217 -0.193859 -0.427658 -0.006624 0.192356
    16 -0.024967 -1.123934 0.017597 -0.440438 0.000000 0.000001
    17 -0.020057 -0.890968 0.010090 -0.220683 -0.005441 0.014681
    18 0.583510 -1.197277 0.185379 0.396231 -0.133810 -0.943146
    19 1.535927 0.010246 0.005009 -0.365210 -0.013303 -0.218193
    20 1.100771 0.004527 -0.010679 -0.001813 0.016105 0.065336
    21 0.120153 -0.050270 -0.054489 0.287569 3.110905 1.561085
    22 0.639415 -12.567421 7.280189 1.003203 -3.101321 0.783393
    23 0.096944 -8.450418 -0.009365 1.226877 -0.242668 -0.458187
    24 0.447953 -2.798986 -0.200443 0.000747 0.016521 0.013537
    25 -0.032909 -1.480204 0.004940 -0.791070 0.000000 0.000002
    26 -0.027022 -1.076920 -0.020210 -0.564547 0.000000 0.000000
    27 -0.249534 -2.846964 -0.174213 0.099043 -0.000125 -0.008396
    28 0.043235 -1.683941 0.096012 -0.907534 0.002823 -0.000167
    29 0.031729 -1.160830 0.058838 -0.413501 0.000642 0.008372
    30 -0.963866 -2.785145 -0.085350 0.223413 0.162612 -0.001720
    31 0.028479 -1.403067 0.006271 -0.586940 0.000000 0.000000
    32 0.021413 -0.957781 0.020046 -0.392959 0.000000 0.000000
    33 1.164475 -2.543940 -0.170330 0.197207 0.028640 -0.027609
    34 0.024032 -1.129042 0.017807 -0.934504 0.000000 0.000001
    35 0.014898 -0.883989 -0.019848 -0.236543 0.000000 0.000000
    36 -0.676616 -1.377762 0.418918 -0.353613 0.031923 -2.390715
    37 1.432989 0.253999 0.016848 0.627556 0.007289 0.439087
    38 1.117947 0.048424 -0.005766 0.000009 -0.025198 0.055341
    39 -0.041740 0.021119 -0.243423 0.261931 0.632819 1.806394
    40 -7.038174 6.628172 -0.282403 1.570150 -0.010596 -0.787827
  time 7
    0 0.001154 -0.567689 -22.617259 0.000000 0.000000 0.000000
    1 18.009588 -6.018386 9.868507 1.171654 -2.772113 -1.349105
    2 -0.071921 -8.498736 -0.104134 -0.296937 0.012435 0.261193
    3 -1.879609 -3.584201 0.911484 0.316169 -0.168185 0.360303
    4 -2.855127 1.648684 1.176711 0.050587 0.000000 -3.140162
    5 1.343120 8.715708 1.092419 -1.422480 0.140206 -1.590417
    6 -0.488518 -2.755602 -0.228260 -0.383572 0.047592 0.132179
    7 0.039887 -1.479790 0.029854 -1.069855 0.000000 0.000001
    8 0.028786 -1.075731 -0.023109 -0.231031 0.000000 0.000000
    9 0.250027 -2.820665 -0.238396 -0.029746 -0.012053 0.230266
    10 -0.049759 -1.680544 0.100479 -1.672367 0.000000 -0.000002
    11 -0.034142 -1.148312 0.084782 -0.460177 0.000000 0.000000
    12 0.957766 -2.746780 -0.090302 -0.087124 -0.162277 0.191558
    13 -0.033420 -1.397129 -0.011257 -1.343784 0.000000 -0.000001
    14 -0.022360 -0.957436 0.018784 -0.566969 0.000000 0.000000
    15 -1.180681 -2.507217 -0.193859 -0.372772 -0.015817 0.183314
    16 -0.024967 -1.123934 0.017597 -0.504272 0.000000 0.000001
    17 -0.020057 -0.890968 0.010090 -0.254696 -0.003895 0.010499
    18 0.583510 -1.197277 0.185379 0.396231 -0.133810 -0.943128
    19 1.535927 0.010246 0.005009 -0.365210 -0.013303 -0.218193
    20 1.100771 0.004527 -0.010679 -0.001813 0.016105 0.065336
    21 0.120153 -0.050270 -0.054489 0.287569 3.110905 1.561085
    22 0.576913 -13.094781 6.811425 1.003203 -3.101321 0.783393
    23 0.096944 -8.450418 -0.009365 1.211514 -0.241407 -0.438375
    24 0.447953 -2.798986 -0.200443 0.000747 0.016521 0.013537
    25 -0.032909 -1.480204 0.004940 -0.791070 0.000000 0.000002
    26 -0.027022 -1.076920 -0.020210 -0.564547 0.000000 0.000000
    27 -0.249534 -2.846964 -0.174213 0.099043 -0.000125 -0.008396
    28 0.043235 -1.683941 0.096012 -0.907534 0.002823 -0.000167
    29 0.031729 -1.160830 0.058838 -0.413501 0.000642 0.008372
    30 -0.963866 -2.785145 -0.085350 0.223413 0.162612 -0.001720
    31 0.028479 -1.403067 0.006271 -0.503297 0.000000 0.000000
    32 0.021413 -0.957781 0.020046 -0.392959 0.000000 0.000000
    33 1.164475 -2.543940 -0.170330 0.221135 0.028640 -0.027609
    34 0.024032 -1.129042 0.017807 -0.907050 0.000000 0.000001
    35 0.014898 -0.883989 -0.019848 -0.236543 0.000000 0.000000
    36 -0.676616 -1.377762 0.418918 -0.353613 0.031923 -2.390715
    37 1.432989 0.253999 0.016848 0.627556 0.007289 0.439087
    38 1.117947 0.048424 -0.005766 0.000009 -0.025198 0.055341
    39 -0.041740 0.021119 -0.243423 0.261931 0.632819 1.806394
    40 -7.038174 6.628172 -0.282403 1.568700 -0.010596 -0.787827
  time 8
    0 0.001154 -0.567689 -22.617259 0.000000 0.000000 0.000000
    1 18.009588 -6.662937 9.626312 1.167478 -2.754997 -1.347520
    2 -0.071921 -8.498736 -0.104134 -0.296682 0.019255 0.262428
    3 -1.879609 -3.584201 0.911484 0.316169 -0.168185 0.360303
    4 -2.855127 1.648684 1.176711 0.050587 0.000000 -3.140162
    5 1.343120 8.715708 1.092419 -1.422480 0.140206 -1.590417
    6 -0.488518 -2.755602 -0.228260 -0.382670 0.016276 0.144864
    7 0.039887 -1.479790 0.029854 -1.069855 0.000000 0.000001
    8 0.028786 -1.075731 -0.023109 -0.231031 0.000000 0.000000
    9 0.250027 -2.820665 -0.238396 -0.003296 -0.012053 0.230266
    10 -0.049759 -1.680544 0.100479 -1.641272 0.000000 -0.000002
    11 -0.034142 -1.148312 0.084782 -0.460177 0.000000 0.000000
    12 0.957766 -2.746780 -0.090302 -0.060684 -0.162277 0.191558
    13 -0.033420 -1.397129 -0.011257 -1.312665 0.000000 -0.000001
    14 -0.022360 -0.957436 0.018784 -0.566969 0.000000 0.000000
    15 -1.180681 -2.507217 -0.193859 -0.320598 -0.024541 0.174705
    16 -0.024967 -1.123934 0.017597 -0.564929 0.000000 0.000001
    17 -0.020057 -0.890968 0.010090 -0.287030 -0.002421 0.006532
    18 0.583510 -1.197277 0.185379 0.396231 -0.133810 -0.943128
    19 1.535927 0.010246 0.005009 -0.365210 -0.013303 -0.218193
    20 1.100771 0.004527 -0.010679 -0.001813 0.016105 0.065336
    21 0.120153 -0.050270 -0.054489 0.287569 3.110905 1.561085
    22 0.506599 -13.688549 6.370005 1.003203 -3.101321 0.783393
    23 0.096944 -8.450418 -0.009365 1.184070 -0.243874 -0.403486
    24 0.447953 -2.798986 -0.200443 0.000747 0.016521 0.013537
    25 -0.032909 -1.480204 0.004940 -0.791070 0.000000 0.000002
    26 -0.027022 -1.076920 -0.020210 -0.564547 0.000000 0.000000
    27 -0.249534 -2.846964 -0.174213 0.099043 -0.000125 -0.008396
    28 0.043235 -1.683941 0.096012 -0.907534 0.002823 -0.000167
    29 0.031729 -1.160830 0.058838 -0.413501 0.000642 0.008372
    30 -0.963866 -2.785145 -0.085350 0.223413 0.162612 -0.001720
    31 0.028479 -1.403067 0.006271 -0.394548 0.000000 0.000000
    32 0.021413 -0.957781 0.020046 -0.392959 0.000000 0.000000
    33 1.164475 -2.543940 -0.170330 0.252228 0.028640 -0.027609
    34 0.024032 -1.129042 0.017807 -0.871389 0.000000 0.000001
    35 0.014898 -0.883989 -0.019848 -0.236543 0.000000 0.000000
    36 -0.676616 -1.377762 0.418918 -0.353613 0.031923 -2.390715
    37 1.432989 0.253999 0.016848 0.627556 0.007289 0.439087
    38 1.117947 0.048424 -0.005766 0.000009 -0.025198 0.055341
    39 -0.041740 0.021119 -0.243423 0.261931 0.632819 1.806394
    40 -7.038174 6.628172 -0.282403 1.567046 -0.010596 -0.787827
  time 9
    0 0.001154 -0.567689 -22.617259 0.000000 0.000000 0.000000
    1 18.009588 -7.514525 9.806005 1.163301 -2.737881 -1.345936
    2 -0.071921 -8.498736 -0.104134 -0.303435 0.043238 0.215820
    3 -1.879609 -3.584201 0.911484 0.316169 -0.168185 0.360303
    4 -2.855127 1.648684 1.176711 0.050587 0.000000 -3.140162
    5 1.343120 8.715708 1.092419 -1.422480 0.140206 -1.590417
    6 -0.488518 -2.755602 -0.228260 -0.381858 -0.010114 0.155593
    7 0.039887 -1.479790 0.029854 -1.069855 0.000000 0.000001
    8 0.028786 -1.075731 -0.023109 -0.231031 0.000000 0.000000
    9 0.250027 -2.820665 -0.238396 0.019007 -0.012053 0.230266
    10 -0.049759 -1.680544 0.100479 -1.615010 0.000000 -0.000002
    11 -0.034142 -1.148312 0.084782 -0.460177 0.000000 0.000000
    12 0.957766 -2.746780 -0.090302 -0.038369 -0.162277 0.191558
    13 -0.033420 -1.397129 -0.011257 -1.286396 0.000000 -0.000001
    14 -0.022360 -0.957436 0.018784 -0.566969 0.000000 0.000000
    15 -1.180681 -2.507217 -0.193859 -0.276579 -0.031900 0.167433
    16 -0.024967 -1.123934 0.017597 -0.616115 0.000000 0.000001
    17 -0.020057 -0.890968 0.010090 -0.314295 -0.001174 0.003176
    18 0.583510 -1.197277 0.185379 0.396231 -0.133810 -0.943146
    19 1.535927 0.010246 0.005009 -0.365210 -0.013303 -0.218193
    20 1.100771 0.004527 -0.010679 -0.001813 0.016105 0.065336
    21 0.120153 -0.050270 -0.054489 0.287569 3.110905 1.561085
    22 0.420658 -14.430759 6.030151 1.003203 -3.101321 0.783393
    23 0.096944 -8.450418 -0.009365 1.128446 -0.270849 -0.334173
    24 0.447953 -2.798986 -0.200443 0.000747 0.016521 0.013537
    25 -0.032909 -1.480204 0.004940 -0.791070 0.000000 0.000002
    26 -0.027022 -1.076920 -0.020210 -0.564547 0.000000 0.000000
    27 -0.249534 -2.846964 -0.174213 0.099043 -0.000125 -0.008396
    28 0.043235 -1.683941 0.096012 -0.907534 0.002823 -0.000167
    29 0.031729 -1.160830 0.058838 -0.413501 0.000642 0.008372
    30 -0.963866 -2.785145 -0.085350 0.223413 0.162612 -0.001720
    31 0.028479 -1.403067 0.006271 -0.285798 0.000000 0.000000
    32 0.021413 -0.957781 0.020046 -0.392959 0.000000 0.000000
    33 1.164475 -2.543940 -0.170330 0.283343 0.028640 -0.027609
    34 0.024032 -1.129042 0.017807 -0.835700 0.000000 0.000001
    35 0.014898 -0.883989 -0.019848 -0.236543 0.000000 0.000000
    36 -0.676616 -1.377762 0.418918 -0.353613 0.031923 -2.390715
    37 1.432989 0.253999 0.016848 0.627556 0.007289 0.439087
    38 1.117947 0.048424 -0.005766 0.000009 -0.025198 0.055341
    39 -0.041740 0.021119 -0.243423 0.261931 0.632819 1.806394
    40 -7.038174 6.628172 -0.282403 1.565224 -0.010596 -0.787827
  time 10
    0 0.001154 -0.567689 -22.617259 0.000000 0.000000 0.000000
    1 18.009588 -8.455960 10.145859 1.160032 -2.724767 -1.344734
    2 -0.071921 -8.498736 -0.104134 -0.316199 0.078453 0.127529
    3 -1.879609 -3.584201 0.911484 0.316169 -0.168185 0.360303
    4 -2.855127 1.648684 1.176711 0.050587 0.000000 -3.140162
    5 1.343120 8.715708 1.092419 -1.422480 0.140206 -1.590417
    6 -0.488518 -2.755602 -0.228260 -0.381257 -0.028354 0.163012
    7 0.039887 -1.479790 0.029854 -1.069855 0.000000 0.000001
    8 0.028786 -1.075731 -0.023109 -0.231031 0.000000 0.000000
    9 0.250027 -2.820665 -0.238396 0.034420 -0.012053 0.230266
    10 -0.049759 -1.680544 0.100479 -1.596842 0.000000 -0.000002
    11 -0.034142 -1.148312 0.084782 -0.460177 0.000000 0.000000
    12 0.957766 -2.746780 -0.090302 -0.022959 -0.162277 0.191558
    13 -0.033420 -1.397129 -0.011257 -1.268244 0.000000 -0.000001
    14 -0.022360 -0.957436 0.018784 -0.566969 0.000000 0.000000
    15 -1.180681 -2.507217 -0.193859 -0.246197 -0.036981 0.162405
    16 -0.024967 -1.123934 0.017597 -0.651456 0.000000 0.000001
    17 -0.020057 -0.890968 0.010090 -0.333123 -0.000312 0.000863
    18 0.583510 -1.197277 0.185379 0.396231 -0.133810 -0.943128
    19 1.535927 0.010246 0.005009 -0.365210 -0.013303 -0.218193
    20 1.100771 0.004527 -0.010679 -0.001813 0.016105 0.065336
    21 0.120153 -0.050270 -0.054489 0.287569 3.110905 1.561085
    22 0.322999 -15.239378 5.721548 1.003203 -3.101321 0.783393
    23 0.096944 -8.450418 -0.009365 1.060162 -0.315881 -0.248897
    24 0.447953 -2.798986 -0.200443 0.000747 0.016521 0.013537
    25 -0.032909 -1.480204 0.004940 -0.791070 0.000000 0.000002
    26 -0.027022 -1.076920 -0.020210 -0.564547 0.000000 0.000000
    27 -0.249534 -2.846964 -0.174213 0.099043 -0.000125 -0.008396
    28 0.043235 -1.683941 0.096012 -0.907534 0.002823 -0.000167
    29 0.031729 -1.160830 0.058838 -0.413501 0.000642 0.008372
    30 -0.963866 -2.785145 -0.085350 0.223413 0.162612 -0.001720
    31 0.028479 -1.403067 0.006271 -0.202155 0.000000 0.000000
    32 0.021413 -0.957781 0.020046 -0.392959 0.000000 0.000000
    33 1.164475 -2.543940 -0.170330 0.307271 0.028640 -0.027609
    34 0.024032 -1.129042 0.017807 -0.808275 0.000000 0.000001
    35 0.014898 -0.883989 -0.019848 -0.236543 0.000000 0.000000
    36 -0.676616 -1.377762 0.418918 -0.353613 0.031923 -2.390715
    37 1.432989 0.253999 0.016848 0.627556 0.007289 0.439087
    38 1.117947 0.048424 -0.005766 0.000009 -0.025198 0.055341
    39 -0.041740 0.021119 -0.243423 0.261931 0.632819 1.806394
    40 -7.038174 6.628172 -0.282403 1.563223 -0.010596 -0.787827
  time 11
    0 0.001154 -0.567689 -22.617259 0.000000 0.000000 0.000000
    1 18.009588 -8.897380 10.325552 1.158761 -2.719487 -1.344242
    2 -0.071921 -8.498736 -0.104134 -0.323161 0.102711 0.079207
    3 -1.879609 -3.584201 0.911484 0.316169 -0.168185 0.360303
    4 -2.855127 1.648684 1.176711 0.050587 0.000000 -3.140162
    5 1.343120 8.715708 1.092419 -1.422480 0.140206 -1.590417
    6 -0.488518 -2.755602 -0.228260 -0.381031 -0.035162 0.165783
    7 0.039887 -1.479790 0.029854 -1.069855 0.000000 0.000001
    8 0.028786 -1.075731 -0.023109 -0.231031 0.000000 0.000000
    9 0.250027 -2.820665 -0.238396 0.040160 -0.012053 0.230266
    10 -0.049759 -1.680544 0.100479 -1.590087 0.000000 -0.000002
    11 -0.034142 -1.148312 0.084782 -0.460177 0.000000 0.000000
    12 0.957766 -2.746780 -0.090302 -0.017221 -0.162277 0.191558
    13 -0.033420 -1.397129 -0.011257 -1.261472 0.000000 -0.000001
    14 -0.022360 -0.957436 0.018784 -0.566969 0.000000 0.000000
    15 -1.180681 -2.507217 -0.193859 -0.234855 -0.038887 0.160527
    16 -0.024967 -1.123934 0.017597 -0.664637 0.000000 0.000001
    17 -0.020057 -0.890968 0.010090 -0.340158 0.000000 0.000000
    18 0.583510 -1.197277 0.185379 0.396231 -0.133810 -0.943146
    19 1.535927 0.010246 0.005009 -0.365210 -0.013303 -0.218193
    20 1.100771 0.004527 -0.010679 -0.001813 0.016105 0.065336
    21 0.120153 -0.050270 -0.054489 0.287569 3.110905 1.561085
    22 0.252685 -15.618296 5.494978 1.003203 -3.101321 0.783393
    23 0.096944 -8.450418 -0.009365 1.026618 -0.339154 -0.206590
    24 0.447953 -2.798986 -0.200443 0.000747 0.016521 0.013537
    25 -0.032909 -1.480204 0.004940 -0.791070 0.000000 0.000002
    26 -0.027022 -1.076920 -0.020210 -0.564547 0.000000 0.000000
    27 -0.249534 -2.846964 -0.174213 0.099043 -0.000125 -0.008396
    28 0.043235 -1.683941 0.096012 -0.907534 0.002823 -0.000167
    29 0.031729 -1.160830 0.058838 -0.413501 0.000642 0.008372
    30 -0.963866 -2.785145 -0.085350 0.223413 0.162612 -0.001720
    31 0.028479 -1.403067 0.006271 -0.168681 0.000000 0.000000
    32 0.021413 -0.957781 0.020046 -0.392959 0.000000 0.000000
    33 1.164475 -2.543940 -0.170330 0.316824 0.028640 -0.027609
    34 0.024032 -1.129042 0.017807 -0.797294 0.000000 0.000001
    35 0.014898 -0.883989 -0.019848 -0.236543 0.000000 0.000000
    36 -0.676616 -1.377762 0.418918 -0.353613 0.031923 -2.390715
    37 1.432989 0.253999 0.016848 0.627556 0.007289 0.439087
    38 1.117947 0.048424 -0.005766 0.000009 -0.025198 0.055341
    39 -0.041740 0.021119 -0.243423 0.261931 0.632819 1.806394
    40 -7.038174 6.628172 -0.282403 1.561065 -0.010596 -0.787827
end
