version 1
nodes
  0 "root_y22s2gatlingexm" -1
  1 "body" 0
  2 "wing3" 1
  3 "wing2" 1
  4 "wing4" 1
  5 "wing1" 1
  6 "head" 1
  7 "reloader" 0
  8 "handle" 0
  9 "megazine" 8
  10 "root" -1
  11 "Bone01" 10
  12 "Bone_L_Upper" 11
  13 "Bone_Lefthand" 11
  14 "Bone13" 13
  15 "Bone14" 14
  16 "Bone15" 15
  17 "Bone17" 13
  18 "Bone18" 17
  19 "Bone19" 18
  20 "Bone21" 13
  21 "Bone22" 20
  22 "Bone23" 21
  23 "Bone09" 13
  24 "Bone10" 23
  25 "Bone11" 24
  26 "Bone05" 13
  27 "Bone06" 26
  28 "Bone07" 27
  29 "Bone_Se_Hand-L" 13
  30 "Bone04" 10
  31 "Bone_Righthand" 30
  32 "Bone39" 31
  33 "Bone40" 32
  34 "Bone41" 33
  35 "Bone35" 31
  36 "Bone36" 35
  37 "Bone37" 36
  38 "Bone31" 31
  39 "Bone32" 38
  40 "Bone33" 39
  41 "Bone43" 31
  42 "Bone44" 41
  43 "Bone45" 42
  44 "Bone27" 31
  45 "Bone28" 44
  46 "Bone29" 45
  47 "Bone_Se_Hand-R" 31
  48 "Bone_R_Upper" 30
end
skeleton
  time 0
    0 0.000000 0.000000 0.000000 1.570796 -1.570796 0.000000
    1 0.000000 0.000001 10.045625 0.000000 -1.570451 0.000000
    2 0.969732 0.000001 3.486000 0.000000 0.000000 3.141592
    3 0.962896 3.486496 -0.006800 -1.570796 3.141592 0.000000
    4 0.959279 -3.486093 -0.006798 -1.570796 3.141592 0.000000
    5 0.969732 -0.000001 -3.486426 0.000000 0.000000 0.000000
    6 13.897334 -0.000002 -0.000001 -0.000001 0.000000 0.000000
    7 1.668199 0.000001 9.582899 0.000000 0.000000 -0.000001
    8 -4.304724 0.000000 -4.342782 0.000001 0.000000 0.000000
    9 4.304724 0.000005 7.992675 0.000000 -1.570796 0.000000
    10 0.001265 -0.569176 -20.601572 0.000000 0.000000 0.000000
    11 9.310103 -5.299614 -12.557959 3.138909 -0.000224 -1.566807
    12 1.257180 8.762585 -0.153713 -1.570562 0.002683 -1.566807
    13 -0.071921 -8.498736 -0.104134 -0.025046 0.287591 0.014898
    14 -0.488518 -2.755602 -0.228260 0.106454 0.010332 -0.264490
    15 0.039887 -1.479790 0.029854 -0.055395 0.000000 0.000001
    16 0.028786 -1.075731 -0.023109 0.002099 0.000000 0.000000
    17 0.250027 -2.820665 -0.238396 0.041826 -0.002921 0.008443
    18 -0.049759 -1.680544 0.100479 0.019826 0.000000 -0.000002
    19 -0.034142 -1.148312 0.084782 -0.040115 0.000000 0.000000
    20 0.957766 -2.746780 -0.090302 -0.017221 -0.162277 0.191558
    21 -0.033420 -1.397129 -0.011257 0.013931 0.000000 -0.000001
    22 -0.022360 -0.957436 0.018784 0.003845 0.000000 0.000000
    23 -1.180681 -2.507217 -0.193859 0.082999 0.013294 -0.477915
    24 -0.024967 -1.123934 0.017597 -0.018065 0.000000 0.000001
    25 -0.020057 -0.890968 0.010090 -0.060797 0.000000 0.000000
    26 0.583510 -1.197277 0.185379 0.158049 -0.404973 -0.364290
    27 1.535927 0.010246 0.005009 -0.002964 -0.012979 0.000887
    28 1.100771 0.004527 -0.010679 -0.002796 0.015973 0.003458
    29 0.120153 -0.050270 -0.054489 0.287569 3.110905 1.561085
    30 -9.310107 -5.231260 -12.513384 0.004984 -3.131565 -1.566847
    31 0.096944 -8.450418 -0.009365 -0.032965 -0.297907 -0.004663
    32 0.447953 -2.798986 -0.200443 0.106456 -0.010396 0.265094
    33 -0.032909 -1.480204 0.004940 -0.055403 0.000000 0.000002
    34 -0.027022 -1.076920 -0.020210 0.002094 0.000000 0.000000
    35 -0.249534 -2.846964 -0.174213 0.041903 -0.000125 -0.008396
    36 0.043235 -1.683941 0.096012 0.019757 0.002823 -0.000167
    37 0.031729 -1.160830 0.058838 -0.040181 0.000642 0.008372
    38 -0.963866 -2.785145 -0.085350 -0.017227 0.162276 -0.191556
    39 0.028479 -1.403067 0.006271 0.013941 0.000000 0.000000
    40 0.021413 -0.957781 0.020046 0.003851 0.000000 0.000000
    41 1.164475 -2.543940 -0.170330 0.083003 -0.013294 0.477915
    42 0.024032 -1.129042 0.017807 -0.018074 0.000000 0.000001
    43 0.014898 -0.883989 -0.019848 -0.060801 0.000000 0.000000
    44 -0.586770 -1.264477 0.200161 -0.152092 -0.410513 -2.814816
    45 1.522835 0.058681 0.016848 0.001410 0.008985 -0.046880
    46 1.117947 0.048424 -0.005766 -0.000243 -0.025198 0.065422
    47 -0.139399 -0.111698 0.014397 0.285382 -0.030687 1.580508
    48 -1.393470 8.839177 -0.239433 1.580804 -0.005023 -1.566847
end
triangles
$0b_y22s2lunarcannon_v_light.bmp
  9 0.290001 -3.659893 -1.970000 0.000001 1.000000 0.000000 0.360784 0.905882
  9 0.670001 -3.659893 -1.900000 0.000001 1.000000 0.000000 0.474510 0.898039
  9 0.290001 -3.659893 -2.170000 0.000001 1.000000 0.000000 0.352941 0.968627
$0b_y22s2lunarcannon_v_light.bmp
  9 0.290001 -3.659893 -2.170000 0.000001 1.000000 0.000000 0.352941 0.968627
  9 0.670001 -3.659893 -1.900000 0.000001 1.000000 0.000000 0.474510 0.898039
  9 0.730001 -3.659893 -2.080000 0.000001 1.000000 0.000000 0.490196 0.960784
$0b_y22s2lunarcannon_v_light.bmp
  9 0.670001 -3.659893 -1.900000 0.000001 1.000000 0.000000 0.474510 0.898039
  9 1.290001 -3.659892 -1.540000 0.000001 1.000000 0.000000 0.674510 0.815686
  9 0.730001 -3.659893 -2.080000 0.000001 1.000000 0.000000 0.490196 0.960784
$0b_y22s2lunarcannon_v_light.bmp
  9 0.730001 -3.659893 -2.080000 0.000001 1.000000 0.000000 0.490196 0.960784
  9 1.290001 -3.659892 -1.540000 0.000001 1.000000 0.000000 0.674510 0.815686
  9 1.410001 -3.659892 -1.690000 0.000001 1.000000 0.000000 0.705882 0.870588
$0b_y22s2lunarcannon_v_light.bmp
  9 1.290001 -3.659892 -1.540000 0.000001 1.000000 0.000000 0.674510 0.815686
  9 1.750002 -3.659892 -0.990001 0.000001 1.000000 0.000000 0.831373 0.670588
  9 1.410001 -3.659892 -1.690000 0.000001 1.000000 0.000000 0.705882 0.870588
$0b_y22s2lunarcannon_v_light.bmp
  9 1.410001 -3.659892 -1.690000 0.000001 1.000000 0.000000 0.705882 0.870588
  9 1.750002 -3.659892 -0.990001 0.000001 1.000000 0.000000 0.831373 0.670588
  9 1.900001 -3.659892 -1.080001 0.000001 1.000000 0.000000 0.878431 0.709804
$0b_y22s2lunarcannon_v_light.bmp
  9 1.750002 -3.659892 -0.990001 0.000001 1.000000 0.000000 0.831373 0.670588
  9 1.960002 -3.659892 -0.300001 0.000001 1.000000 0.000000 0.929412 0.478431
  9 1.900001 -3.659892 -1.080001 0.000001 1.000000 0.000000 0.878431 0.709804
$0b_y22s2lunarcannon_v_light.bmp
  9 1.900001 -3.659892 -1.080001 0.000001 1.000000 0.000000 0.878431 0.709804
  9 1.960002 -3.659892 -0.300001 0.000001 1.000000 0.000000 0.929412 0.478431
  9 2.160002 -3.659891 -0.310001 0.000001 1.000000 0.000000 0.992157 0.490196
$0b_y22s2lunarcannon_v_light.bmp
  9 -0.289998 -3.659892 1.930000 0.000001 1.000000 0.000000 0.360784 0.905882
  9 -0.669998 -3.659893 1.900000 0.000001 1.000000 0.000000 0.474510 0.898039
  9 -0.289997 -3.659892 2.140000 0.000001 1.000000 0.000000 0.352941 0.968627
$0b_y22s2lunarcannon_v_light.bmp
  9 -0.289997 -3.659892 2.140000 0.000001 1.000000 0.000000 0.352941 0.968627
  9 -0.669998 -3.659893 1.900000 0.000001 1.000000 0.000000 0.474510 0.898039
  9 -0.729998 -3.659893 2.080000 0.000001 1.000000 0.000000 0.490196 0.960784
$0b_y22s2lunarcannon_v_light.bmp
  9 -0.669998 -3.659893 1.900000 0.000001 1.000000 0.000000 0.474510 0.898039
  9 -1.289998 -3.659893 1.540000 0.000001 1.000000 0.000000 0.674510 0.815686
  9 -0.729998 -3.659893 2.080000 0.000001 1.000000 0.000000 0.490196 0.960784
$0b_y22s2lunarcannon_v_light.bmp
  9 -0.729998 -3.659893 2.080000 0.000001 1.000000 0.000000 0.490196 0.960784
  9 -1.289998 -3.659893 1.540000 0.000001 1.000000 0.000000 0.674510 0.815686
  9 -1.409998 -3.659893 1.680000 0.000001 1.000000 0.000000 0.705882 0.870588
$0b_y22s2lunarcannon_v_light.bmp
  9 -1.289998 -3.659893 1.540000 0.000001 1.000000 0.000000 0.674510 0.815686
  9 -1.749998 -3.659894 0.990001 0.000001 1.000000 0.000000 0.831373 0.670588
  9 -1.409998 -3.659893 1.680000 0.000001 1.000000 0.000000 0.705882 0.870588
$0b_y22s2lunarcannon_v_light.bmp
  9 -1.409998 -3.659893 1.680000 0.000001 1.000000 0.000000 0.705882 0.870588
  9 -1.749998 -3.659894 0.990001 0.000001 1.000000 0.000000 0.831373 0.670588
  9 -1.919998 -3.659894 1.070001 0.000001 1.000000 0.000000 0.878431 0.709804
$0b_y22s2lunarcannon_v_light.bmp
  9 -1.749998 -3.659894 0.990001 0.000001 1.000000 0.000000 0.831373 0.670588
  9 -1.959998 -3.659894 0.300001 0.000001 1.000000 0.000000 0.929412 0.478431
  9 -1.919998 -3.659894 1.070001 0.000001 1.000000 0.000000 0.878431 0.709804
$0b_y22s2lunarcannon_v_light.bmp
  9 -1.919998 -3.659894 1.070001 0.000001 1.000000 0.000000 0.878431 0.709804
  9 -1.959998 -3.659894 0.300001 0.000001 1.000000 0.000000 0.929412 0.478431
  9 -2.149998 -3.659894 0.310001 0.000001 1.000000 0.000000 0.992157 0.490196
$0b_y22s2lunarcannon_v_light.bmp
  0 -1.610000 -3.630000 2.620000 0.000000 1.000000 0.000000 0.011765 0.364706
  0 -1.350000 -3.630000 2.800000 0.000000 1.000000 0.000000 0.211765 0.443137
  0 -1.540000 -3.630000 2.520000 0.000000 1.000000 0.000000 0.047059 0.266667
$0b_y22s2lunarcannon_v_light.bmp
  0 -1.540000 -3.630000 2.520000 0.000000 1.000000 0.000000 0.047059 0.266667
  0 -1.350000 -3.630000 2.800000 0.000000 1.000000 0.000000 0.211765 0.443137
  0 -1.310000 -3.630000 2.670000 0.000000 1.000000 0.000000 0.215686 0.313725
$0b_y22s2lunarcannon_v_light.bmp
  0 -1.350000 -3.630000 2.800000 0.000000 1.000000 0.000000 0.211765 0.443137
  0 -0.690000 -3.630000 3.050000 0.000000 1.000000 0.000000 0.588235 0.486275
  0 -1.310000 -3.630000 2.670000 0.000000 1.000000 0.000000 0.215686 0.313725
$0b_y22s2lunarcannon_v_light.bmp
  0 -1.310000 -3.630000 2.670000 0.000000 1.000000 0.000000 0.215686 0.313725
  0 -0.690000 -3.630000 3.050000 0.000000 1.000000 0.000000 0.588235 0.486275
  0 -0.660000 -3.630000 2.880000 0.000000 1.000000 0.000000 0.584314 0.341176
$0b_y22s2lunarcannon_v_light.bmp
  0 -0.690000 -3.630000 3.050000 0.000000 1.000000 0.000000 0.588235 0.486275
  0 0.000000 -3.630000 3.160000 0.000000 1.000000 0.000000 0.992157 0.454902
  0 -0.660000 -3.630000 2.880000 0.000000 1.000000 0.000000 0.584314 0.341176
$0b_y22s2lunarcannon_v_light.bmp
  0 -0.660000 -3.630000 2.880000 0.000000 1.000000 0.000000 0.584314 0.341176
  0 0.000000 -3.630000 3.160000 0.000000 1.000000 0.000000 0.992157 0.454902
  0 0.000000 -3.630000 2.990000 0.000000 1.000000 0.000000 0.956863 0.313725
$0b_y22s2lunarcannon_v_light.bmp
  0 0.000000 -3.630000 3.160000 0.000000 1.000000 0.000000 0.992157 0.454902
  0 0.660000 -3.630000 2.880000 0.000000 1.000000 0.000000 0.584314 0.341176
  0 0.000000 -3.630000 2.990000 0.000000 1.000000 0.000000 0.956863 0.313725
$0b_y22s2lunarcannon_v_light.bmp
  9 0.290003 -3.659892 2.140000 0.000001 1.000000 0.000000 0.352941 0.968627
  9 0.730003 -3.659892 2.070000 0.000001 1.000000 0.000000 0.490196 0.960784
  9 0.670002 -3.659892 1.900000 0.000001 1.000000 0.000000 0.474510 0.898039
$0b_y22s2lunarcannon_v_light.bmp
  9 0.670002 -3.659892 1.900000 0.000001 1.000000 0.000000 0.474510 0.898039
  9 0.730003 -3.659892 2.070000 0.000001 1.000000 0.000000 0.490196 0.960784
  9 1.290002 -3.659891 1.540000 0.000001 1.000000 0.000000 0.674510 0.815686
$0b_y22s2lunarcannon_v_light.bmp
  9 0.730003 -3.659892 2.070000 0.000001 1.000000 0.000000 0.490196 0.960784
  9 1.410002 -3.659891 1.680000 0.000001 1.000000 0.000000 0.705882 0.870588
  9 1.290002 -3.659891 1.540000 0.000001 1.000000 0.000000 0.674510 0.815686
$0b_y22s2lunarcannon_v_light.bmp
  9 1.290002 -3.659891 1.540000 0.000001 1.000000 0.000000 0.674510 0.815686
  9 1.410002 -3.659891 1.680000 0.000001 1.000000 0.000000 0.705882 0.870588
  9 1.750002 -3.659891 0.989999 0.000001 1.000000 0.000000 0.831373 0.670588
$0b_y22s2lunarcannon_v_light.bmp
  9 1.410002 -3.659891 1.680000 0.000001 1.000000 0.000000 0.705882 0.870588
  9 1.890002 -3.659891 1.079999 0.000001 1.000000 0.000000 0.878431 0.709804
  9 1.750002 -3.659891 0.989999 0.000001 1.000000 0.000000 0.831373 0.670588
$0b_y22s2lunarcannon_v_light.bmp
  9 1.750002 -3.659891 0.989999 0.000001 1.000000 0.000000 0.831373 0.670588
  9 1.890002 -3.659891 1.079999 0.000001 1.000000 0.000000 0.878431 0.709804
  9 1.960002 -3.659891 0.299999 0.000001 1.000000 0.000000 0.929412 0.478431
$0b_y22s2lunarcannon_v_light.bmp
  9 1.890002 -3.659891 1.079999 0.000001 1.000000 0.000000 0.878431 0.709804
  9 2.160002 -3.659891 0.309999 0.000001 1.000000 0.000000 0.992157 0.490196
  9 1.960002 -3.659891 0.299999 0.000001 1.000000 0.000000 0.929412 0.478431
$0b_y22s2lunarcannon_v_light.bmp
  9 -0.289999 -3.659894 -2.170000 0.000001 1.000000 0.000000 0.352941 0.968627
  9 -0.729999 -3.659894 -2.080000 0.000001 1.000000 0.000000 0.490196 0.960784
  9 -0.669999 -3.659894 -1.900000 0.000001 1.000000 0.000000 0.474510 0.898039
$0b_y22s2lunarcannon_v_light.bmp
  9 -0.669999 -3.659894 -1.900000 0.000001 1.000000 0.000000 0.474510 0.898039
  9 -0.729999 -3.659894 -2.080000 0.000001 1.000000 0.000000 0.490196 0.960784
  9 -1.289999 -3.659894 -1.540000 0.000001 1.000000 0.000000 0.674510 0.815686
$0b_y22s2lunarcannon_v_light.bmp
  9 -0.729999 -3.659894 -2.080000 0.000001 1.000000 0.000000 0.490196 0.960784
  9 -1.409999 -3.659894 -1.690000 0.000001 1.000000 0.000000 0.705882 0.870588
  9 -1.289999 -3.659894 -1.540000 0.000001 1.000000 0.000000 0.674510 0.815686
$0b_y22s2lunarcannon_v_light.bmp
  9 -1.289999 -3.659894 -1.540000 0.000001 1.000000 0.000000 0.674510 0.815686
  9 -1.409999 -3.659894 -1.690000 0.000001 1.000000 0.000000 0.705882 0.870588
  9 -1.749998 -3.659894 -0.989999 0.000001 1.000000 0.000000 0.831373 0.670588
$0b_y22s2lunarcannon_v_light.bmp
  9 -1.409999 -3.659894 -1.690000 0.000001 1.000000 0.000000 0.705882 0.870588
  9 -1.899998 -3.659894 -1.079999 0.000001 1.000000 0.000000 0.878431 0.709804
  9 -1.749998 -3.659894 -0.989999 0.000001 1.000000 0.000000 0.831373 0.670588
$0b_y22s2lunarcannon_v_light.bmp
  9 -1.749998 -3.659894 -0.989999 0.000001 1.000000 0.000000 0.831373 0.670588
  9 -1.899998 -3.659894 -1.079999 0.000001 1.000000 0.000000 0.878431 0.709804
  9 -1.959998 -3.659894 -0.299999 0.000001 1.000000 0.000000 0.929412 0.478431
$0b_y22s2lunarcannon_v_light.bmp
  9 -1.899998 -3.659894 -1.079999 0.000001 1.000000 0.000000 0.878431 0.709804
  9 -2.149998 -3.659894 -0.309999 0.000001 1.000000 0.000000 0.992157 0.490196
  9 -1.959998 -3.659894 -0.299999 0.000001 1.000000 0.000000 0.929412 0.478431
$0b_y22s2lunarcannon_v_light.bmp
  0 2.629998 -6.920001 0.969999 0.951056 0.000004 0.309019 0.698039 0.152941
  0 2.609998 -7.040001 1.039999 0.951056 0.000004 0.309019 0.658824 0.184314
  0 2.659998 -6.870001 0.859999 0.951056 0.000004 0.309019 0.717647 0.101961
$0b_y22s2lunarcannon_v_light.bmp
  0 2.659998 -6.870001 0.859999 0.951056 0.000004 0.309019 0.717647 0.101961
  0 2.609998 -7.040001 1.039999 0.951056 0.000004 0.309019 0.658824 0.184314
  0 2.719998 -7.040001 0.689999 0.951056 0.000004 0.309019 0.658824 0.023529
$0b_y22s2lunarcannon_v_light.bmp
  0 2.609998 -7.040001 1.039999 0.951056 0.000004 0.309019 0.658824 0.184314
  0 2.609997 -8.840001 1.039999 0.951056 0.000004 0.309019 0.062745 0.184314
  0 2.719998 -7.040001 0.689999 0.951056 0.000004 0.309019 0.658824 0.023529
$0b_y22s2lunarcannon_v_light.bmp
  0 2.719998 -7.040001 0.689999 0.951056 0.000004 0.309019 0.658824 0.023529
  0 2.609997 -8.840001 1.039999 0.951056 0.000004 0.309019 0.062745 0.184314
  0 2.719997 -8.840001 0.689999 0.951056 0.000004 0.309019 0.062745 0.023529
$0b_y22s2lunarcannon_v_light.bmp
  0 2.609997 -8.840001 1.039999 0.951056 0.000004 0.309019 0.062745 0.184314
  0 2.629998 -8.960001 0.969999 0.951056 0.000004 0.309019 0.019608 0.152941
  0 2.719997 -8.840001 0.689999 0.951056 0.000004 0.309019 0.062745 0.023529
$0b_y22s2lunarcannon_v_light.bmp
  0 2.719997 -8.840001 0.689999 0.951056 0.000004 0.309019 0.062745 0.023529
  0 2.629998 -8.960001 0.969999 0.951056 0.000004 0.309019 0.019608 0.152941
  0 2.659998 -9.010001 0.859999 0.951056 0.000004 0.309019 0.003922 0.101961
$0b_y22s2lunarcannon_v_light.bmp
  0 1.420000 -4.380001 3.069999 0.529920 0.000001 0.848048 0.698039 0.152941
  0 1.390000 -4.440000 3.089999 0.529920 0.000001 0.848048 0.658824 0.184314
  0 1.470000 -4.360001 3.040000 0.529920 0.000001 0.848048 0.717647 0.101961
$0b_y22s2lunarcannon_v_light.bmp
  0 1.470000 -4.360001 3.040000 0.529920 0.000001 0.848048 0.717647 0.101961
  0 1.390000 -4.440000 3.089999 0.529920 0.000001 0.848048 0.658824 0.184314
  0 1.549999 -4.440001 2.980000 0.529920 0.000001 0.848048 0.658824 0.023529
$0b_y22s2lunarcannon_v_light.bmp
  0 1.390000 -4.440000 3.089999 0.529920 0.000001 0.848048 0.658824 0.184314
  0 1.389999 -5.140000 3.089999 0.529920 0.000001 0.848048 0.062745 0.184314
  0 1.549999 -4.440001 2.980000 0.529920 0.000001 0.848048 0.658824 0.023529
$0b_y22s2lunarcannon_v_light.bmp
  0 1.549999 -4.440001 2.980000 0.529920 0.000001 0.848048 0.658824 0.023529
  0 1.389999 -5.140000 3.089999 0.529920 0.000001 0.848048 0.062745 0.184314
  0 1.549999 -5.140000 2.980000 0.529920 0.000001 0.848048 0.062745 0.023529
$0b_y22s2lunarcannon_v_light.bmp
  0 1.389999 -5.140000 3.089999 0.529920 0.000001 0.848048 0.062745 0.184314
  0 1.419999 -5.190001 3.069999 0.529920 0.000001 0.848048 0.019608 0.152941
  0 1.549999 -5.140000 2.980000 0.529920 0.000001 0.848048 0.062745 0.023529
$0b_y22s2lunarcannon_v_light.bmp
  0 1.549999 -5.140000 2.980000 0.529920 0.000001 0.848048 0.062745 0.023529
  0 1.419999 -5.190001 3.069999 0.529920 0.000001 0.848048 0.019608 0.152941
  0 1.469999 -5.210000 3.040000 0.529920 0.000001 0.848048 0.003922 0.101961
$0b_y22s2lunarcannon_v_light.bmp
  1 -2.470007 -17.275679 -0.157503 -1.000000 0.000000 0.000000 0.698039 0.152941
  1 -2.470007 -17.415713 -0.257454 -1.000000 0.000000 0.000000 0.658824 0.184314
  1 -2.470006 -17.225623 0.002480 -1.000000 0.000000 0.000000 0.717647 0.101961
$0b_y22s2lunarcannon_v_light.bmp
  1 -2.470006 -17.225623 0.002480 -1.000000 0.000000 0.000000 0.717647 0.101961
  1 -2.470007 -17.415713 -0.257454 -1.000000 0.000000 0.000000 0.658824 0.184314
  1 -2.470006 -17.415534 0.262546 -1.000000 0.000000 0.000000 0.658824 0.023529
$0b_y22s2lunarcannon_v_light.bmp
  1 -2.470007 -17.415713 -0.257454 -1.000000 0.000000 0.000000 0.658824 0.184314
  1 -2.470007 -18.875713 -0.256950 -1.000000 0.000000 0.000000 0.062745 0.184314
  1 -2.470006 -17.415534 0.262546 -1.000000 0.000000 0.000000 0.658824 0.023529
$0b_y22s2lunarcannon_v_light.bmp
  1 -2.470006 -17.415534 0.262546 -1.000000 0.000000 0.000000 0.658824 0.023529
  1 -2.470007 -18.875713 -0.256950 -1.000000 0.000000 0.000000 0.062745 0.184314
  1 -2.470007 -18.875534 0.263050 -1.000000 0.000000 0.000000 0.062745 0.023529
$0b_y22s2lunarcannon_v_light.bmp
  1 -2.470007 -18.875713 -0.256950 -1.000000 0.000000 0.000000 0.062745 0.184314
  1 -2.470007 -19.015679 -0.156902 -1.000000 0.000000 0.000000 0.019608 0.152941
  1 -2.470007 -18.875534 0.263050 -1.000000 0.000000 0.000000 0.062745 0.023529
$0b_y22s2lunarcannon_v_light.bmp
  1 -2.470007 -18.875534 0.263050 -1.000000 0.000000 0.000000 0.062745 0.023529
  1 -2.470007 -19.015679 -0.156902 -1.000000 0.000000 0.000000 0.019608 0.152941
  1 -2.470007 -19.075623 0.003119 -1.000000 0.000000 0.000000 0.003922 0.101961
$0b_y22s2lunarcannon_v_light.bmp
  6 -1.430005 -24.462516 1.284981 -0.707107 -0.000001 0.707106 0.698039 0.152941
  6 -1.480005 -24.552533 1.235012 -0.707107 -0.000001 0.707106 0.658824 0.184314
  6 -1.360005 -24.432491 1.354971 -0.707107 -0.000001 0.707106 0.717647 0.101961
$0b_y22s2lunarcannon_v_light.bmp
  6 -1.360005 -24.432491 1.354971 -0.707107 -0.000001 0.707106 0.717647 0.101961
  6 -1.480005 -24.552533 1.235012 -0.707107 -0.000001 0.707106 0.658824 0.184314
  6 -1.230005 -24.552450 1.475012 -0.707107 -0.000001 0.707106 0.658824 0.023529
$0b_y22s2lunarcannon_v_light.bmp
  6 -1.480005 -24.552533 1.235012 -0.707107 -0.000001 0.707106 0.658824 0.184314
  6 -1.480006 -26.872533 1.235813 -0.707107 -0.000001 0.707106 0.062745 0.184314
  6 -1.230005 -24.552450 1.475012 -0.707107 -0.000001 0.707106 0.658824 0.023529
$0b_y22s2lunarcannon_v_light.bmp
  6 -1.230005 -24.552450 1.475012 -0.707107 -0.000001 0.707106 0.658824 0.023529
  6 -1.480006 -26.872533 1.235813 -0.707107 -0.000001 0.707106 0.062745 0.184314
  6 -1.230006 -26.872450 1.475813 -0.707107 -0.000001 0.707106 0.062745 0.023529
$0b_y22s2lunarcannon_v_light.bmp
  6 -1.480006 -26.872533 1.235813 -0.707107 -0.000001 0.707106 0.062745 0.184314
  6 -1.430006 -26.962519 1.275844 -0.707107 -0.000001 0.707106 0.019608 0.152941
  6 -1.230006 -26.872450 1.475813 -0.707107 -0.000001 0.707106 0.062745 0.023529
$0b_y22s2lunarcannon_v_light.bmp
  6 -1.230006 -26.872450 1.475813 -0.707107 -0.000001 0.707106 0.062745 0.023529
  6 -1.430006 -26.962519 1.275844 -0.707107 -0.000001 0.707106 0.019608 0.152941
  6 -1.360006 -26.992491 1.355855 -0.707107 -0.000001 0.707106 0.003922 0.101961
$0b_y22s2lunarcannon_v_light.bmp
  6 1.279995 -24.462465 1.434978 0.707107 -0.000005 0.707106 0.698039 0.152941
  6 1.229995 -24.552451 1.475009 0.707107 -0.000005 0.707106 0.658824 0.184314
  6 1.359995 -24.422492 1.354964 0.707107 -0.000005 0.707106 0.717647 0.101961
$0b_y22s2lunarcannon_v_light.bmp
  6 1.359995 -24.422492 1.354964 0.707107 -0.000005 0.707106 0.717647 0.101961
  6 1.229995 -24.552451 1.475009 0.707107 -0.000005 0.707106 0.658824 0.184314
  6 1.479995 -24.552534 1.235008 0.707107 -0.000005 0.707106 0.658824 0.023529
$0b_y22s2lunarcannon_v_light.bmp
  6 1.229995 -24.552451 1.475009 0.707107 -0.000005 0.707106 0.658824 0.184314
  6 1.229995 -26.882451 1.475813 0.707107 -0.000005 0.707106 0.062745 0.184314
  6 1.479995 -24.552534 1.235008 0.707107 -0.000005 0.707106 0.658824 0.023529
$0b_y22s2lunarcannon_v_light.bmp
  6 1.479995 -24.552534 1.235008 0.707107 -0.000005 0.707106 0.658824 0.023529
  6 1.229995 -26.882451 1.475813 0.707107 -0.000005 0.707106 0.062745 0.184314
  6 1.479994 -26.882534 1.235813 0.707107 -0.000005 0.707106 0.062745 0.023529
$0b_y22s2lunarcannon_v_light.bmp
  6 1.229995 -26.882451 1.475813 0.707107 -0.000005 0.707106 0.062745 0.184314
  6 1.279994 -26.972464 1.435844 0.707107 -0.000005 0.707106 0.019608 0.152941
  6 1.479994 -26.882534 1.235813 0.707107 -0.000005 0.707106 0.062745 0.023529
$0b_y22s2lunarcannon_v_light.bmp
  6 1.479994 -26.882534 1.235813 0.707107 -0.000005 0.707106 0.062745 0.023529
  6 1.279994 -26.972464 1.435844 0.707107 -0.000005 0.707106 0.019608 0.152941
  6 1.359994 -27.012492 1.355858 0.707107 -0.000005 0.707106 0.003922 0.101961
$0b_y22s2lunarcannon_v_light.bmp
  6 -1.280009 -24.463455 -1.435019 -0.707108 -0.000006 -0.707105 0.698039 0.152941
  6 -1.230009 -24.553469 -1.474988 -0.707108 -0.000006 -0.707105 0.658824 0.184314
  6 -1.360008 -24.423427 -1.355033 -0.707108 -0.000006 -0.707105 0.717647 0.101961
$0b_y22s2lunarcannon_v_light.bmp
  6 -1.360008 -24.423427 -1.355033 -0.707108 -0.000006 -0.707105 0.717647 0.101961
  6 -1.230009 -24.553469 -1.474988 -0.707108 -0.000006 -0.707105 0.658824 0.184314
  6 -1.480008 -24.553386 -1.234988 -0.707108 -0.000006 -0.707105 0.658824 0.023529
$0b_y22s2lunarcannon_v_light.bmp
  6 -1.230009 -24.553469 -1.474988 -0.707108 -0.000006 -0.707105 0.658824 0.184314
  6 -1.230009 -26.863469 -1.474190 -0.707108 -0.000006 -0.707105 0.062745 0.184314
  6 -1.480008 -24.553386 -1.234988 -0.707108 -0.000006 -0.707105 0.658824 0.023529
$0b_y22s2lunarcannon_v_light.bmp
  6 -1.480008 -24.553386 -1.234988 -0.707108 -0.000006 -0.707105 0.658824 0.023529
  6 -1.230009 -26.863469 -1.474190 -0.707108 -0.000006 -0.707105 0.062745 0.184314
  6 -1.480009 -26.863386 -1.234190 -0.707108 -0.000006 -0.707105 0.062745 0.023529
$0b_y22s2lunarcannon_v_light.bmp
  6 -1.230009 -26.863469 -1.474190 -0.707108 -0.000006 -0.707105 0.062745 0.184314
  6 -1.280009 -26.953455 -1.434159 -0.707108 -0.000006 -0.707105 0.019608 0.152941
  6 -1.480009 -26.863386 -1.234190 -0.707108 -0.000006 -0.707105 0.062745 0.023529
$0b_y22s2lunarcannon_v_light.bmp
  6 -1.480009 -26.863386 -1.234190 -0.707108 -0.000006 -0.707105 0.062745 0.023529
  6 -1.280009 -26.953455 -1.434159 -0.707108 -0.000006 -0.707105 0.019608 0.152941
  6 -1.360009 -26.983427 -1.354149 -0.707108 -0.000006 -0.707105 0.003922 0.101961
$0b_y22s2lunarcannon_v_light.bmp
  6 1.429992 -24.453404 -1.285026 0.707106 -0.000007 -0.707107 0.698039 0.152941
  6 1.479992 -24.553387 -1.234991 0.707106 -0.000007 -0.707107 0.658824 0.184314
  6 1.359992 -24.423428 -1.355036 0.707106 -0.000007 -0.707107 0.717647 0.101961
$0b_y22s2lunarcannon_v_light.bmp
  6 1.359992 -24.423428 -1.355036 0.707106 -0.000007 -0.707107 0.717647 0.101961
  6 1.479992 -24.553387 -1.234991 0.707106 -0.000007 -0.707107 0.658824 0.184314
  6 1.229991 -24.553469 -1.474991 0.707106 -0.000007 -0.707107 0.658824 0.023529
$0b_y22s2lunarcannon_v_light.bmp
  6 1.479992 -24.553387 -1.234991 0.707106 -0.000007 -0.707107 0.658824 0.184314
  6 1.479991 -26.863387 -1.234194 0.707106 -0.000007 -0.707107 0.062745 0.184314
  6 1.229991 -24.553469 -1.474991 0.707106 -0.000007 -0.707107 0.658824 0.023529
$0b_y22s2lunarcannon_v_light.bmp
  6 1.229991 -24.553469 -1.474991 0.707106 -0.000007 -0.707107 0.658824 0.023529
  6 1.479991 -26.863387 -1.234194 0.707106 -0.000007 -0.707107 0.062745 0.184314
  6 1.229991 -26.863469 -1.474193 0.707106 -0.000007 -0.707107 0.062745 0.023529
$0b_y22s2lunarcannon_v_light.bmp
  6 1.479991 -26.863387 -1.234194 0.707106 -0.000007 -0.707107 0.062745 0.184314
  6 1.429991 -26.953404 -1.284163 0.707106 -0.000007 -0.707107 0.019608 0.152941
  6 1.229991 -26.863469 -1.474193 0.707106 -0.000007 -0.707107 0.062745 0.023529
$0b_y22s2lunarcannon_v_light.bmp
  6 1.229991 -26.863469 -1.474193 0.707106 -0.000007 -0.707107 0.062745 0.023529
  6 1.429991 -26.953404 -1.284163 0.707106 -0.000007 -0.707107 0.019608 0.152941
  6 1.359991 -26.983428 -1.354152 0.707106 -0.000007 -0.707107 0.003922 0.101961
$0b_y22s2lunarcannon_v_light.bmp
  1 2.469994 -17.275570 0.162496 1.000000 0.000000 0.000000 0.698039 0.152941
  1 2.469994 -17.415535 0.262544 1.000000 0.000000 0.000000 0.658824 0.184314
  1 2.469994 -17.225625 0.002479 1.000000 0.000000 0.000000 0.717647 0.101961
$0b_y22s2lunarcannon_v_light.bmp
  1 2.469994 -17.225625 0.002479 1.000000 0.000000 0.000000 0.717647 0.101961
  1 2.469994 -17.415535 0.262544 1.000000 0.000000 0.000000 0.658824 0.184314
  1 2.469993 -17.415715 -0.257456 1.000000 0.000000 0.000000 0.658824 0.023529
$0b_y22s2lunarcannon_v_light.bmp
  1 2.469994 -17.415535 0.262544 1.000000 0.000000 0.000000 0.658824 0.184314
  1 2.469993 -18.875535 0.263048 1.000000 0.000000 0.000000 0.062745 0.184314
  1 2.469993 -17.415715 -0.257456 1.000000 0.000000 0.000000 0.658824 0.023529
$0b_y22s2lunarcannon_v_light.bmp
  1 2.469993 -17.415715 -0.257456 1.000000 0.000000 0.000000 0.658824 0.023529
  1 2.469993 -18.875535 0.263048 1.000000 0.000000 0.000000 0.062745 0.184314
  1 2.469993 -18.875715 -0.256952 1.000000 0.000000 0.000000 0.062745 0.023529
$0b_y22s2lunarcannon_v_light.bmp
  1 2.469993 -18.875535 0.263048 1.000000 0.000000 0.000000 0.062745 0.184314
  1 2.469993 -19.025569 0.163100 1.000000 0.000000 0.000000 0.019608 0.152941
  1 2.469993 -18.875715 -0.256952 1.000000 0.000000 0.000000 0.062745 0.023529
$0b_y22s2lunarcannon_v_light.bmp
  1 2.469993 -18.875715 -0.256952 1.000000 0.000000 0.000000 0.062745 0.023529
  1 2.469993 -19.025569 0.163100 1.000000 0.000000 0.000000 0.019608 0.152941
  1 2.469993 -19.075625 0.003117 1.000000 0.000000 0.000000 0.003922 0.101961
$0b_y22s2lunarcannon_v_light.bmp
  1 -0.160006 -17.274771 2.472496 0.000000 0.000001 1.000000 0.698039 0.152941
  1 -0.260006 -17.414771 2.472545 0.000000 0.000001 1.000000 0.658824 0.184314
  1 -0.000006 -17.224771 2.472479 0.000000 0.000001 1.000000 0.717647 0.101961
$0b_y22s2lunarcannon_v_light.bmp
  1 -0.000006 -17.224771 2.472479 0.000000 0.000001 1.000000 0.717647 0.101961
  1 -0.260006 -17.414771 2.472545 0.000000 0.000001 1.000000 0.658824 0.184314
  1 0.259994 -17.414771 2.472545 0.000000 0.000001 1.000000 0.658824 0.023529
$0b_y22s2lunarcannon_v_light.bmp
  1 -0.260006 -17.414771 2.472545 0.000000 0.000001 1.000000 0.658824 0.184314
  1 -0.260006 -18.884775 2.463052 0.000000 0.000001 1.000000 0.062745 0.184314
  1 0.259994 -17.414771 2.472545 0.000000 0.000001 1.000000 0.658824 0.023529
$0b_y22s2lunarcannon_v_light.bmp
  1 0.259994 -17.414771 2.472545 0.000000 0.000001 1.000000 0.658824 0.023529
  1 -0.260006 -18.884775 2.463052 0.000000 0.000001 1.000000 0.062745 0.184314
  1 0.259994 -18.884775 2.463052 0.000000 0.000001 1.000000 0.062745 0.023529
$0b_y22s2lunarcannon_v_light.bmp
  1 -0.260006 -18.884775 2.463052 0.000000 0.000001 1.000000 0.062745 0.184314
  1 -0.160006 -19.024774 2.463101 0.000000 0.000001 1.000000 0.019608 0.152941
  1 0.259994 -18.884775 2.463052 0.000000 0.000001 1.000000 0.062745 0.023529
$0b_y22s2lunarcannon_v_light.bmp
  1 0.259994 -18.884775 2.463052 0.000000 0.000001 1.000000 0.062745 0.023529
  1 -0.160006 -19.024774 2.463101 0.000000 0.000001 1.000000 0.019608 0.152941
  1 -0.000006 -19.074774 2.463118 0.000000 0.000001 1.000000 0.003922 0.101961
$0b_y22s2lunarcannon_v_light.bmp
  1 0.159993 -17.276477 -2.467503 0.000000 0.000001 -1.000000 0.698039 0.152941
  1 0.259993 -17.416477 -2.467455 0.000000 0.000001 -1.000000 0.658824 0.184314
  1 -0.000007 -17.226477 -2.467521 0.000000 0.000001 -1.000000 0.717647 0.101961
$0b_y22s2lunarcannon_v_light.bmp
  1 -0.000007 -17.226477 -2.467521 0.000000 0.000001 -1.000000 0.717647 0.101961
  1 0.259993 -17.416477 -2.467455 0.000000 0.000001 -1.000000 0.658824 0.184314
  1 -0.260007 -17.416477 -2.467455 0.000000 0.000001 -1.000000 0.658824 0.023529
$0b_y22s2lunarcannon_v_light.bmp
  1 0.259993 -17.416477 -2.467455 0.000000 0.000001 -1.000000 0.658824 0.184314
  1 0.259992 -18.876477 -2.466951 0.000000 0.000001 -1.000000 0.062745 0.184314
  1 -0.260007 -17.416477 -2.467455 0.000000 0.000001 -1.000000 0.658824 0.023529
$0b_y22s2lunarcannon_v_light.bmp
  1 -0.260007 -17.416477 -2.467455 0.000000 0.000001 -1.000000 0.658824 0.023529
  1 0.259992 -18.876477 -2.466951 0.000000 0.000001 -1.000000 0.062745 0.184314
  1 -0.260008 -18.876477 -2.466951 0.000000 0.000001 -1.000000 0.062745 0.023529
$0b_y22s2lunarcannon_v_light.bmp
  1 0.259992 -18.876477 -2.466951 0.000000 0.000001 -1.000000 0.062745 0.184314
  1 0.159992 -19.016477 -2.466903 0.000000 0.000001 -1.000000 0.019608 0.152941
  1 -0.260008 -18.876477 -2.466951 0.000000 0.000001 -1.000000 0.062745 0.023529
$0b_y22s2lunarcannon_v_light.bmp
  1 -0.260008 -18.876477 -2.466951 0.000000 0.000001 -1.000000 0.062745 0.023529
  1 0.159992 -19.016477 -2.466903 0.000000 0.000001 -1.000000 0.019608 0.152941
  1 -0.000008 -19.076477 -2.466882 0.000000 0.000001 -1.000000 0.003922 0.101961
$0b_y22s2lunarcannon_v_light.bmp
  0 0.000000 -3.630000 3.160000 0.000000 1.000000 0.000000 0.992157 0.454902
  0 0.690000 -3.630000 3.050000 0.000000 1.000000 0.000000 0.588235 0.486275
  0 0.660000 -3.630000 2.880000 0.000000 1.000000 0.000000 0.584314 0.341176
$0b_y22s2lunarcannon_v_light.bmp
  0 0.660000 -3.630000 2.880000 0.000000 1.000000 0.000000 0.584314 0.341176
  0 0.690000 -3.630000 3.050000 0.000000 1.000000 0.000000 0.588235 0.486275
  0 1.310000 -3.630001 2.670000 0.000000 1.000000 0.000000 0.215686 0.313725
$0b_y22s2lunarcannon_v_light.bmp
  0 0.690000 -3.630000 3.050000 0.000000 1.000000 0.000000 0.588235 0.486275
  0 1.350000 -3.630001 2.800000 0.000000 1.000000 0.000000 0.211765 0.443137
  0 1.310000 -3.630001 2.670000 0.000000 1.000000 0.000000 0.215686 0.313725
$0b_y22s2lunarcannon_v_light.bmp
  0 1.310000 -3.630001 2.670000 0.000000 1.000000 0.000000 0.215686 0.313725
  0 1.350000 -3.630001 2.800000 0.000000 1.000000 0.000000 0.211765 0.443137
  0 1.550000 -3.630001 2.510000 0.000000 1.000000 0.000000 0.047059 0.266667
$0b_y22s2lunarcannon_v_light.bmp
  0 1.350000 -3.630001 2.800000 0.000000 1.000000 0.000000 0.211765 0.443137
  0 1.620000 -3.630001 2.609999 0.000000 1.000000 0.000000 0.011765 0.364706
  0 1.550000 -3.630001 2.510000 0.000000 1.000000 0.000000 0.047059 0.266667
$0b_y22s2lunarcannon_v_light.bmp
  0 2.209998 -8.840001 2.269999 0.731356 -0.000001 0.681996 0.254902 0.980392
  0 2.179998 -8.960001 2.299999 0.731356 -0.000001 0.681996 0.137255 0.980392
  0 2.279998 -8.770001 2.199999 0.731356 -0.000001 0.681996 0.349020 0.909804
$0b_y22s2lunarcannon_v_light.bmp
  0 2.279998 -8.770001 2.199999 0.731356 -0.000001 0.681996 0.349020 0.909804
  0 2.179998 -8.960001 2.299999 0.731356 -0.000001 0.681996 0.137255 0.980392
  0 2.459998 -8.960001 1.999999 0.731356 -0.000001 0.681996 0.254902 0.619608
$0b_y22s2lunarcannon_v_light.bmp
  0 2.179998 -8.960001 2.299999 0.731356 -0.000001 0.681996 0.137255 0.980392
  0 2.209998 -9.080001 2.269999 0.731356 -0.000001 0.681996 0.043137 0.909804
  0 2.459998 -8.960001 1.999999 0.731356 -0.000001 0.681996 0.254902 0.619608
$0b_y22s2lunarcannon_v_light.bmp
  0 2.459998 -8.960001 1.999999 0.731356 -0.000001 0.681996 0.254902 0.619608
  0 2.209998 -9.080001 2.269999 0.731356 -0.000001 0.681996 0.043137 0.909804
  0 2.369998 -9.160001 2.099999 0.731356 -0.000001 0.681996 0.043137 0.686275
$0b_y22s2lunarcannon_v_light.bmp
  0 2.209998 -9.080001 2.269999 0.731356 -0.000001 0.681996 0.043137 0.909804
  0 2.279998 -9.160001 2.199999 0.731356 -0.000001 0.681996 0.003922 0.800000
  0 2.369998 -9.160001 2.099999 0.731356 -0.000001 0.681996 0.043137 0.686275
$0b_y22s2lunarcannon_v_light.bmp
  0 2.919999 -5.660001 1.089999 0.951056 0.000004 0.309019 0.254902 0.980392
  0 2.909999 -5.720001 1.109999 0.951056 0.000004 0.309019 0.137255 0.980392
  0 2.939999 -5.620001 1.039999 0.951056 0.000004 0.309019 0.349020 0.909804
$0b_y22s2lunarcannon_v_light.bmp
  0 2.939999 -5.620001 1.039999 0.951056 0.000004 0.309019 0.349020 0.909804
  0 2.909999 -5.720001 1.109999 0.951056 0.000004 0.309019 0.137255 0.980392
  0 2.979999 -5.720001 0.909999 0.951056 0.000004 0.309019 0.254902 0.619608
$0b_y22s2lunarcannon_v_light.bmp
  0 2.909999 -5.720001 1.109999 0.951056 0.000004 0.309019 0.137255 0.980392
  0 2.919999 -5.780001 1.089999 0.951056 0.000004 0.309019 0.043137 0.909804
  0 2.979999 -5.720001 0.909999 0.951056 0.000004 0.309019 0.254902 0.619608
$0b_y22s2lunarcannon_v_light.bmp
  0 2.979999 -5.720001 0.909999 0.951056 0.000004 0.309019 0.254902 0.619608
  0 2.919999 -5.780001 1.089999 0.951056 0.000004 0.309019 0.043137 0.909804
  0 2.959999 -5.820001 0.979999 0.951056 0.000004 0.309019 0.043137 0.686275
$0b_y22s2lunarcannon_v_light.bmp
  0 2.919999 -5.780001 1.089999 0.951056 0.000004 0.309019 0.043137 0.909804
  0 2.939999 -5.820001 1.039999 0.951056 0.000004 0.309019 0.003922 0.800000
  0 2.959999 -5.820001 0.979999 0.951056 0.000004 0.309019 0.043137 0.686275
$0b_y22s2lunarcannon_v_light.bmp
  0 2.209999 -6.830001 2.269999 0.731356 -0.000001 0.681996 0.254902 0.980392
  0 2.179999 -6.950000 2.299999 0.731356 -0.000001 0.681996 0.137255 0.980392
  0 2.279999 -6.750001 2.199999 0.731356 -0.000001 0.681996 0.349020 0.909804
$0b_y22s2lunarcannon_v_light.bmp
  0 2.279999 -6.750001 2.199999 0.731356 -0.000001 0.681996 0.349020 0.909804
  0 2.179999 -6.950000 2.299999 0.731356 -0.000001 0.681996 0.137255 0.980392
  0 2.459998 -6.950001 1.999999 0.731356 -0.000001 0.681996 0.254902 0.619608
$0b_y22s2lunarcannon_v_light.bmp
  0 2.179999 -6.950000 2.299999 0.731356 -0.000001 0.681996 0.137255 0.980392
  0 2.209999 -7.070001 2.269999 0.731356 -0.000001 0.681996 0.043137 0.909804
  0 2.459998 -6.950001 1.999999 0.731356 -0.000001 0.681996 0.254902 0.619608
$0b_y22s2lunarcannon_v_light.bmp
  0 2.459998 -6.950001 1.999999 0.731356 -0.000001 0.681996 0.254902 0.619608
  0 2.209999 -7.070001 2.269999 0.731356 -0.000001 0.681996 0.043137 0.909804
  0 2.369998 -7.150001 2.099999 0.731356 -0.000001 0.681996 0.043137 0.686275
$0b_y22s2lunarcannon_v_light.bmp
  0 2.209999 -7.070001 2.269999 0.731356 -0.000001 0.681996 0.043137 0.909804
  0 2.279998 -7.150001 2.199999 0.731356 -0.000001 0.681996 0.003922 0.800000
  0 2.369998 -7.150001 2.099999 0.731356 -0.000001 0.681996 0.043137 0.686275
$0b_y22s2lunarcannon_v_light.bmp
  0 2.209999 -4.810001 2.269999 0.731356 -0.000001 0.681996 0.254902 0.980392
  0 2.179999 -4.930001 2.299999 0.731356 -0.000001 0.681996 0.137255 0.980392
  0 2.279999 -4.730001 2.199999 0.731356 -0.000001 0.681996 0.349020 0.909804
$0b_y22s2lunarcannon_v_light.bmp
  0 2.279999 -4.730001 2.199999 0.731356 -0.000001 0.681996 0.349020 0.909804
  0 2.179999 -4.930001 2.299999 0.731356 -0.000001 0.681996 0.137255 0.980392
  0 2.459999 -4.930001 1.999999 0.731356 -0.000001 0.681996 0.254902 0.619608
$0b_y22s2lunarcannon_v_light.bmp
  0 2.179999 -4.930001 2.299999 0.731356 -0.000001 0.681996 0.137255 0.980392
  0 2.209999 -5.050001 2.269999 0.731356 -0.000001 0.681996 0.043137 0.909804
  0 2.459999 -4.930001 1.999999 0.731356 -0.000001 0.681996 0.254902 0.619608
$0b_y22s2lunarcannon_v_light.bmp
  0 2.459999 -4.930001 1.999999 0.731356 -0.000001 0.681996 0.254902 0.619608
  0 2.209999 -5.050001 2.269999 0.731356 -0.000001 0.681996 0.043137 0.909804
  0 2.369999 -5.120001 2.099999 0.731356 -0.000001 0.681996 0.043137 0.686275
$0b_y22s2lunarcannon_v_light.bmp
  0 2.209999 -5.050001 2.269999 0.731356 -0.000001 0.681996 0.043137 0.909804
  0 2.279999 -5.120001 2.199999 0.731356 -0.000001 0.681996 0.003922 0.800000
  0 2.369999 -5.120001 2.099999 0.731356 -0.000001 0.681996 0.043137 0.686275
$0b_y22s2lunarcannon_v_light.bmp
  0 2.919999 -4.890001 1.089999 0.951056 0.000004 0.309019 0.254902 0.980392
  0 2.909999 -4.950001 1.109999 0.951056 0.000004 0.309019 0.137255 0.980392
  0 2.939999 -4.850001 1.039999 0.951056 0.000004 0.309019 0.349020 0.909804
$0b_y22s2lunarcannon_v_light.bmp
  0 2.939999 -4.850001 1.039999 0.951056 0.000004 0.309019 0.349020 0.909804
  0 2.909999 -4.950001 1.109999 0.951056 0.000004 0.309019 0.137255 0.980392
  0 2.979999 -4.950001 0.909999 0.951056 0.000004 0.309019 0.254902 0.619608
$0b_y22s2lunarcannon_v_light.bmp
  0 2.909999 -4.950001 1.109999 0.951056 0.000004 0.309019 0.137255 0.980392
  0 2.919999 -5.010001 1.089999 0.951056 0.000004 0.309019 0.043137 0.909804
  0 2.979999 -4.950001 0.909999 0.951056 0.000004 0.309019 0.254902 0.619608
$0b_y22s2lunarcannon_v_light.bmp
  0 2.979999 -4.950001 0.909999 0.951056 0.000004 0.309019 0.254902 0.619608
  0 2.919999 -5.010001 1.089999 0.951056 0.000004 0.309019 0.043137 0.909804
  0 2.959999 -5.050001 0.979999 0.951056 0.000004 0.309019 0.043137 0.686275
$0b_y22s2lunarcannon_v_light.bmp
  0 2.919999 -5.010001 1.089999 0.951056 0.000004 0.309019 0.043137 0.909804
  0 2.939999 -5.050001 1.039999 0.951056 0.000004 0.309019 0.003922 0.800000
  0 2.959999 -5.050001 0.979999 0.951056 0.000004 0.309019 0.043137 0.686275
$0b_y22s2lunarcannon_v_light.bmp
  0 2.919999 -4.110001 1.089999 0.951056 0.000004 0.309019 0.254902 0.980392
  0 2.909999 -4.170001 1.109999 0.951056 0.000004 0.309019 0.137255 0.980392
  0 2.939999 -4.070001 1.039999 0.951056 0.000004 0.309019 0.349020 0.909804
$0b_y22s2lunarcannon_v_light.bmp
  0 2.939999 -4.070001 1.039999 0.951056 0.000004 0.309019 0.349020 0.909804
  0 2.909999 -4.170001 1.109999 0.951056 0.000004 0.309019 0.137255 0.980392
  0 2.979999 -4.170001 0.909999 0.951056 0.000004 0.309019 0.254902 0.619608
$0b_y22s2lunarcannon_v_light.bmp
  0 2.909999 -4.170001 1.109999 0.951056 0.000004 0.309019 0.137255 0.980392
  0 2.919999 -4.230001 1.089999 0.951056 0.000004 0.309019 0.043137 0.909804
  0 2.979999 -4.170001 0.909999 0.951056 0.000004 0.309019 0.254902 0.619608
$0b_y22s2lunarcannon_v_light.bmp
  0 2.979999 -4.170001 0.909999 0.951056 0.000004 0.309019 0.254902 0.619608
  0 2.919999 -4.230001 1.089999 0.951056 0.000004 0.309019 0.043137 0.909804
  0 2.959999 -4.270001 0.979999 0.951056 0.000004 0.309019 0.043137 0.686275
$0b_y22s2lunarcannon_v_light.bmp
  0 2.919999 -4.230001 1.089999 0.951056 0.000004 0.309019 0.043137 0.909804
  0 2.939999 -4.270001 1.039999 0.951056 0.000004 0.309019 0.003922 0.800000
  0 2.959999 -4.270001 0.979999 0.951056 0.000004 0.309019 0.043137 0.686275
$0b_y22s2lunarcannon_v_light.bmp
  1 1.009994 -17.195366 0.752469 0.000000 1.000000 0.000000 0.533333 0.607843
  1 0.839994 -17.195338 0.832469 0.000000 1.000000 0.000000 0.603922 0.643137
  1 1.199994 -17.195355 0.782468 0.000000 1.000000 0.000000 0.454902 0.619608
$0b_y22s2lunarcannon_v_light.bmp
  1 1.199994 -17.195355 0.782468 0.000000 1.000000 0.000000 0.454902 0.619608
  1 0.839994 -17.195338 0.832469 0.000000 1.000000 0.000000 0.603922 0.643137
  1 1.279994 -17.195186 1.272468 0.000000 1.000000 0.000000 0.423529 0.823529
$0b_y22s2lunarcannon_v_light.bmp
  1 0.839994 -17.195338 0.832469 0.000000 1.000000 0.000000 0.603922 0.643137
  1 0.779994 -17.195214 1.192469 0.000000 1.000000 0.000000 0.627451 0.792157
  1 1.279994 -17.195186 1.272468 0.000000 1.000000 0.000000 0.423529 0.823529
$0b_y22s2lunarcannon_v_light.bmp
  1 1.279994 -17.195186 1.272468 0.000000 1.000000 0.000000 0.423529 0.823529
  1 0.779994 -17.195214 1.192469 0.000000 1.000000 0.000000 0.627451 0.792157
  1 1.109994 -17.195155 1.362469 0.000000 1.000000 0.000000 0.494118 0.862745
$0b_y22s2lunarcannon_v_light.bmp
  1 0.779994 -17.195214 1.192469 0.000000 1.000000 0.000000 0.627451 0.792157
  1 0.919994 -17.195165 1.332469 0.000000 1.000000 0.000000 0.572549 0.850980
  1 1.109994 -17.195155 1.362469 0.000000 1.000000 0.000000 0.494118 0.862745
$0b_y22s2lunarcannon_v_light.bmp
  1 0.749993 -17.195973 -1.007531 0.000000 1.000000 0.000000 0.533333 0.607843
  1 0.839993 -17.195915 -0.837531 0.000000 1.000000 0.000000 0.603922 0.643137
  1 0.779993 -17.196039 -1.197531 0.000000 1.000000 0.000000 0.454902 0.619608
$0b_y22s2lunarcannon_v_light.bmp
  1 0.779993 -17.196039 -1.197531 0.000000 1.000000 0.000000 0.454902 0.619608
  1 0.839993 -17.195915 -0.837531 0.000000 1.000000 0.000000 0.603922 0.643137
  1 1.279993 -17.196067 -1.277531 0.000000 1.000000 0.000000 0.423529 0.823529
$0b_y22s2lunarcannon_v_light.bmp
  1 0.839993 -17.195915 -0.837531 0.000000 1.000000 0.000000 0.603922 0.643137
  1 1.199993 -17.195894 -0.777531 0.000000 1.000000 0.000000 0.627451 0.792157
  1 1.279993 -17.196067 -1.277531 0.000000 1.000000 0.000000 0.423529 0.823529
$0b_y22s2lunarcannon_v_light.bmp
  1 1.279993 -17.196067 -1.277531 0.000000 1.000000 0.000000 0.423529 0.823529
  1 1.199993 -17.195894 -0.777531 0.000000 1.000000 0.000000 0.627451 0.792157
  1 1.359993 -17.196008 -1.107531 0.000000 1.000000 0.000000 0.494118 0.862745
$0b_y22s2lunarcannon_v_light.bmp
  1 1.199993 -17.195894 -0.777531 0.000000 1.000000 0.000000 0.627451 0.792157
  1 1.329993 -17.195943 -0.917531 0.000000 1.000000 0.000000 0.572549 0.850980
  1 1.359993 -17.196008 -1.107531 0.000000 1.000000 0.000000 0.494118 0.862745
$0b_y22s2lunarcannon_v_light.bmp
  1 -0.750006 -17.195275 1.012469 0.000000 1.000000 0.000000 0.639216 0.713725
  1 -0.840006 -17.195338 0.832469 0.000000 1.000000 0.000000 0.603922 0.643137
  1 -0.780006 -17.195213 1.192469 0.000000 1.000000 0.000000 0.627451 0.792157
$0b_y22s2lunarcannon_v_light.bmp
  1 -0.780006 -17.195213 1.192469 0.000000 1.000000 0.000000 0.627451 0.792157
  1 -0.840006 -17.195338 0.832469 0.000000 1.000000 0.000000 0.603922 0.643137
  1 -1.280006 -17.195185 1.272469 0.000000 1.000000 0.000000 0.423529 0.823529
$0b_y22s2lunarcannon_v_light.bmp
  1 -0.840006 -17.195338 0.832469 0.000000 1.000000 0.000000 0.603922 0.643137
  1 -1.200006 -17.195355 0.782469 0.000000 1.000000 0.000000 0.454902 0.619608
  1 -1.280006 -17.195185 1.272469 0.000000 1.000000 0.000000 0.423529 0.823529
$0b_y22s2lunarcannon_v_light.bmp
  1 -1.280006 -17.195185 1.272469 0.000000 1.000000 0.000000 0.423529 0.823529
  1 -1.200006 -17.195355 0.782469 0.000000 1.000000 0.000000 0.454902 0.619608
  1 -1.360006 -17.195244 1.102469 0.000000 1.000000 0.000000 0.388235 0.752941
$0b_y22s2lunarcannon_v_light.bmp
  1 -1.200006 -17.195355 0.782469 0.000000 1.000000 0.000000 0.454902 0.619608
  1 -1.330006 -17.195310 0.912469 0.000000 1.000000 0.000000 0.400000 0.674510
  1 -1.360006 -17.195244 1.102469 0.000000 1.000000 0.000000 0.388235 0.752941
$0b_y22s2lunarcannon_v_light.bmp
  1 -1.010007 -17.195883 -0.747531 0.000000 1.000000 0.000000 0.639216 0.713725
  1 -0.840007 -17.195914 -0.837531 0.000000 1.000000 0.000000 0.603922 0.643137
  1 -1.200007 -17.195893 -0.777531 0.000000 1.000000 0.000000 0.627451 0.792157
$0b_y22s2lunarcannon_v_light.bmp
  1 -1.200007 -17.195893 -0.777531 0.000000 1.000000 0.000000 0.627451 0.792157
  1 -0.840007 -17.195914 -0.837531 0.000000 1.000000 0.000000 0.603922 0.643137
  1 -1.280007 -17.196066 -1.277531 0.000000 1.000000 0.000000 0.423529 0.823529
$0b_y22s2lunarcannon_v_light.bmp
  1 -0.840007 -17.195914 -0.837531 0.000000 1.000000 0.000000 0.603922 0.643137
  1 -0.780007 -17.196039 -1.197531 0.000000 1.000000 0.000000 0.454902 0.619608
  1 -1.280007 -17.196066 -1.277531 0.000000 1.000000 0.000000 0.423529 0.823529
$0b_y22s2lunarcannon_v_light.bmp
  1 -1.280007 -17.196066 -1.277531 0.000000 1.000000 0.000000 0.423529 0.823529
  1 -0.780007 -17.196039 -1.197531 0.000000 1.000000 0.000000 0.454902 0.619608
  1 -1.110007 -17.196097 -1.367531 0.000000 1.000000 0.000000 0.388235 0.752941
$0b_y22s2lunarcannon_v_light.bmp
  1 -0.780007 -17.196039 -1.197531 0.000000 1.000000 0.000000 0.454902 0.619608
  1 -0.920007 -17.196087 -1.337531 0.000000 1.000000 0.000000 0.400000 0.674510
  1 -1.110007 -17.196097 -1.367531 0.000000 1.000000 0.000000 0.388235 0.752941
$0b_y22s2lunarcannon_v_light.bmp
  4 3.716088 -10.945213 -0.892893 -0.000002 0.000001 -1.000000 0.254902 0.980392
  4 3.716088 -11.085213 -0.892844 -0.000002 0.000001 -1.000000 0.137255 0.980392
  4 3.626088 -10.815213 -0.892937 -0.000002 0.000001 -1.000000 0.349020 0.909804
$0b_y22s2lunarcannon_v_light.bmp
  4 3.626088 -10.815213 -0.892937 -0.000002 0.000001 -1.000000 0.349020 0.909804
  4 3.716088 -11.085213 -0.892844 -0.000002 0.000001 -1.000000 0.137255 0.980392
  4 3.256088 -10.945213 -0.892892 -0.000002 0.000001 -1.000000 0.254902 0.619608
$0b_y22s2lunarcannon_v_light.bmp
  4 3.716088 -11.085213 -0.892844 -0.000002 0.000001 -1.000000 0.137255 0.980392
  4 3.626088 -11.205213 -0.892803 -0.000002 0.000001 -1.000000 0.043137 0.909804
  4 3.256088 -10.945213 -0.892892 -0.000002 0.000001 -1.000000 0.254902 0.619608
$0b_y22s2lunarcannon_v_light.bmp
  4 3.256088 -10.945213 -0.892892 -0.000002 0.000001 -1.000000 0.254902 0.619608
  4 3.626088 -11.205213 -0.892803 -0.000002 0.000001 -1.000000 0.043137 0.909804
  4 3.346088 -11.205213 -0.892803 -0.000002 0.000001 -1.000000 0.043137 0.686275
$0b_y22s2lunarcannon_v_light.bmp
  4 3.626088 -11.205213 -0.892803 -0.000002 0.000001 -1.000000 0.043137 0.909804
  4 3.486088 -11.255213 -0.892786 -0.000002 0.000001 -1.000000 0.003922 0.800000
  4 3.346088 -11.205213 -0.892803 -0.000002 0.000001 -1.000000 0.043137 0.686275
$0b_y22s2lunarcannon_v_light.bmp
  4 3.256089 -10.944599 0.887108 -0.000001 0.000000 1.000000 0.254902 0.619608
  4 3.626089 -10.814599 0.887062 -0.000001 0.000000 1.000000 0.349020 0.909804
  4 3.346089 -10.814599 0.887063 -0.000001 0.000000 1.000000 0.349020 0.686275
$0b_y22s2lunarcannon_v_light.bmp
  4 3.256089 -10.944599 0.887108 -0.000001 0.000000 1.000000 0.254902 0.619608
  4 3.716089 -11.084599 0.887156 -0.000001 0.000000 1.000000 0.137255 0.980392
  4 3.626089 -10.814599 0.887062 -0.000001 0.000000 1.000000 0.349020 0.909804
$0b_y22s2lunarcannon_v_light.bmp
  4 3.256089 -10.944599 0.887108 -0.000001 0.000000 1.000000 0.254902 0.619608
  4 3.626089 -11.204599 0.887197 -0.000001 0.000000 1.000000 0.043137 0.909804
  4 3.716089 -11.084599 0.887156 -0.000001 0.000000 1.000000 0.137255 0.980392
$0b_y22s2lunarcannon_v_light.bmp
  4 3.256089 -10.944599 0.887108 -0.000001 0.000000 1.000000 0.254902 0.619608
  4 3.346089 -11.204599 0.887197 -0.000001 0.000000 1.000000 0.043137 0.686275
  4 3.626089 -11.204599 0.887197 -0.000001 0.000000 1.000000 0.043137 0.909804
$0b_y22s2lunarcannon_v_light.bmp
  4 3.256089 -10.944599 0.887108 -0.000001 0.000000 1.000000 0.254902 0.619608
  4 3.256089 -11.084599 0.887156 -0.000001 0.000000 1.000000 0.137255 0.619608
  4 3.346089 -11.204599 0.887197 -0.000001 0.000000 1.000000 0.043137 0.686275
$0b_y22s2lunarcannon_v_light.bmp
  5 0.889998 -10.944070 3.726736 1.000000 0.000000 0.000000 0.254902 0.980392
  5 0.889998 -11.084070 3.726785 1.000000 0.000000 0.000000 0.137255 0.980392
  5 0.889998 -10.814101 3.636691 1.000000 0.000000 0.000000 0.349020 0.909804
$0b_y22s2lunarcannon_v_light.bmp
  5 0.889998 -10.814101 3.636691 1.000000 0.000000 0.000000 0.349020 0.909804
  5 0.889998 -11.084070 3.726785 1.000000 0.000000 0.000000 0.137255 0.980392
  5 0.889998 -10.944236 3.246736 1.000000 0.000000 0.000000 0.254902 0.619608
$0b_y22s2lunarcannon_v_light.bmp
  5 0.889998 -11.084070 3.726785 1.000000 0.000000 0.000000 0.137255 0.980392
  5 0.889998 -11.214101 3.636830 1.000000 0.000000 0.000000 0.043137 0.909804
  5 0.889998 -10.944236 3.246736 1.000000 0.000000 0.000000 0.254902 0.619608
$0b_y22s2lunarcannon_v_light.bmp
  5 0.889998 -10.944236 3.246736 1.000000 0.000000 0.000000 0.254902 0.619608
  5 0.889998 -11.214101 3.636830 1.000000 0.000000 0.000000 0.043137 0.909804
  5 0.889998 -11.214205 3.336830 1.000000 0.000000 0.000000 0.043137 0.686275
$0b_y22s2lunarcannon_v_light.bmp
  5 0.889998 -11.214101 3.636830 1.000000 0.000000 0.000000 0.043137 0.909804
  5 0.889998 -11.264153 3.486847 1.000000 0.000000 0.000000 0.003922 0.800000
  5 0.889998 -11.214205 3.336830 1.000000 0.000000 0.000000 0.043137 0.686275
$0b_y22s2lunarcannon_v_light.bmp
  5 -0.890002 -10.944235 3.246737 -1.000000 0.000000 -0.000001 0.254902 0.619608
  5 -0.890002 -10.814101 3.636692 -1.000000 0.000000 -0.000001 0.349020 0.909804
  5 -0.890002 -10.814204 3.336692 -1.000000 0.000000 -0.000001 0.349020 0.686275
$0b_y22s2lunarcannon_v_light.bmp
  5 -0.890002 -10.944235 3.246737 -1.000000 0.000000 -0.000001 0.254902 0.619608
  5 -0.890002 -11.084070 3.726785 -1.000000 0.000000 -0.000001 0.137255 0.980392
  5 -0.890002 -10.814101 3.636692 -1.000000 0.000000 -0.000001 0.349020 0.909804
$0b_y22s2lunarcannon_v_light.bmp
  5 -0.890002 -10.944235 3.246737 -1.000000 0.000000 -0.000001 0.254902 0.619608
  5 -0.890002 -11.214101 3.636830 -1.000000 0.000000 -0.000001 0.043137 0.909804
  5 -0.890002 -11.084070 3.726785 -1.000000 0.000000 -0.000001 0.137255 0.980392
$0b_y22s2lunarcannon_v_light.bmp
  5 -0.890002 -10.944235 3.246737 -1.000000 0.000000 -0.000001 0.254902 0.619608
  5 -0.890002 -11.214204 3.336830 -1.000000 0.000000 -0.000001 0.043137 0.686275
  5 -0.890002 -11.214101 3.636830 -1.000000 0.000000 -0.000001 0.043137 0.909804
$0b_y22s2lunarcannon_v_light.bmp
  5 -0.890002 -10.944235 3.246737 -1.000000 0.000000 -0.000001 0.254902 0.619608
  5 -0.890002 -11.084235 3.246785 -1.000000 0.000000 -0.000001 0.137255 0.619608
  5 -0.890002 -11.214204 3.336830 -1.000000 0.000000 -0.000001 0.043137 0.686275
$0b_y22s2lunarcannon_v_light.bmp
  3 -3.736500 -10.938214 0.887110 0.000002 -0.000001 1.000000 0.254902 0.980392
  3 -3.736500 -11.088214 0.887161 0.000002 -0.000001 1.000000 0.137255 0.980392
  3 -3.636500 -10.808214 0.887065 0.000002 -0.000001 1.000000 0.349020 0.909804
$0b_y22s2lunarcannon_v_light.bmp
  3 -3.636500 -10.808214 0.887065 0.000002 -0.000001 1.000000 0.349020 0.909804
  3 -3.736500 -11.088214 0.887161 0.000002 -0.000001 1.000000 0.137255 0.980392
  3 -3.236500 -10.938214 0.887109 0.000002 -0.000001 1.000000 0.254902 0.619608
$0b_y22s2lunarcannon_v_light.bmp
  3 -3.736500 -11.088214 0.887161 0.000002 -0.000001 1.000000 0.137255 0.980392
  3 -3.636500 -11.218214 0.887206 0.000002 -0.000001 1.000000 0.043137 0.909804
  3 -3.236500 -10.938214 0.887109 0.000002 -0.000001 1.000000 0.254902 0.619608
$0b_y22s2lunarcannon_v_light.bmp
  3 -3.236500 -10.938214 0.887109 0.000002 -0.000001 1.000000 0.254902 0.619608
  3 -3.636500 -11.218214 0.887206 0.000002 -0.000001 1.000000 0.043137 0.909804
  3 -3.336500 -11.218214 0.887206 0.000002 -0.000001 1.000000 0.043137 0.686275
$0b_y22s2lunarcannon_v_light.bmp
  3 -3.636500 -11.218214 0.887206 0.000002 -0.000001 1.000000 0.043137 0.909804
  3 -3.486500 -11.278214 0.887227 0.000002 -0.000001 1.000000 0.003922 0.800000
  3 -3.336500 -11.218214 0.887206 0.000002 -0.000001 1.000000 0.043137 0.686275
$0b_y22s2lunarcannon_v_light.bmp
  3 -3.236501 -10.938828 -0.892891 0.000001 0.000002 -1.000000 0.254902 0.619608
  3 -3.636501 -10.808828 -0.892935 0.000001 0.000002 -1.000000 0.349020 0.909804
  3 -3.336501 -10.808828 -0.892935 0.000001 0.000002 -1.000000 0.349020 0.686275
$0b_y22s2lunarcannon_v_light.bmp
  3 -3.236501 -10.938828 -0.892891 0.000001 0.000002 -1.000000 0.254902 0.619608
  3 -3.736501 -11.088828 -0.892839 0.000001 0.000002 -1.000000 0.137255 0.980392
  3 -3.636501 -10.808828 -0.892935 0.000001 0.000002 -1.000000 0.349020 0.909804
$0b_y22s2lunarcannon_v_light.bmp
  3 -3.236501 -10.938828 -0.892891 0.000001 0.000002 -1.000000 0.254902 0.619608
  3 -3.636501 -11.218828 -0.892794 0.000001 0.000002 -1.000000 0.043137 0.909804
  3 -3.736501 -11.088828 -0.892839 0.000001 0.000002 -1.000000 0.137255 0.980392
$0b_y22s2lunarcannon_v_light.bmp
  3 -3.236501 -10.938828 -0.892891 0.000001 0.000002 -1.000000 0.254902 0.619608
  3 -3.336501 -11.218828 -0.892794 0.000001 0.000002 -1.000000 0.043137 0.686275
  3 -3.636501 -11.218828 -0.892794 0.000001 0.000002 -1.000000 0.043137 0.909804
$0b_y22s2lunarcannon_v_light.bmp
  3 -3.236501 -10.938828 -0.892891 0.000001 0.000002 -1.000000 0.254902 0.619608
  3 -3.236501 -11.088828 -0.892839 0.000001 0.000002 -1.000000 0.137255 0.619608
  3 -3.336501 -11.218828 -0.892794 0.000001 0.000002 -1.000000 0.043137 0.686275
$0b_y22s2lunarcannon_v_light.bmp
  2 -0.890007 -10.936644 -3.725692 -1.000000 0.000000 0.000000 0.254902 0.980392
  2 -0.890007 -11.086644 -3.725641 -1.000000 0.000000 0.000000 0.137255 0.980392
  2 -0.890007 -10.806612 -3.635737 -1.000000 0.000000 0.000000 0.349020 0.909804
$0b_y22s2lunarcannon_v_light.bmp
  2 -0.890007 -10.806612 -3.635737 -1.000000 0.000000 0.000000 0.349020 0.909804
  2 -0.890007 -11.086644 -3.725641 -1.000000 0.000000 0.000000 0.137255 0.980392
  2 -0.890006 -10.936478 -3.245692 -1.000000 0.000000 0.000000 0.254902 0.619608
$0b_y22s2lunarcannon_v_light.bmp
  2 -0.890007 -11.086644 -3.725641 -1.000000 0.000000 0.000000 0.137255 0.980392
  2 -0.890007 -11.216612 -3.635596 -1.000000 0.000000 0.000000 0.043137 0.909804
  2 -0.890006 -10.936478 -3.245692 -1.000000 0.000000 0.000000 0.254902 0.619608
$0b_y22s2lunarcannon_v_light.bmp
  2 -0.890006 -10.936478 -3.245692 -1.000000 0.000000 0.000000 0.254902 0.619608
  2 -0.890007 -11.216612 -3.635596 -1.000000 0.000000 0.000000 0.043137 0.909804
  2 -0.890006 -11.216509 -3.335596 -1.000000 0.000000 0.000000 0.043137 0.686275
$0b_y22s2lunarcannon_v_light.bmp
  2 -0.890007 -11.216612 -3.635596 -1.000000 0.000000 0.000000 0.043137 0.909804
  2 -0.890006 -11.266561 -3.485578 -1.000000 0.000000 0.000000 0.003922 0.800000
  2 -0.890006 -11.216509 -3.335596 -1.000000 0.000000 0.000000 0.043137 0.686275
$0b_y22s2lunarcannon_v_light.bmp
  2 0.889993 -10.936477 -3.245693 1.000000 0.000001 0.000003 0.254902 0.619608
  2 0.889993 -10.806612 -3.635738 1.000000 0.000001 0.000003 0.349020 0.909804
  2 0.889993 -10.806508 -3.335738 1.000000 0.000001 0.000003 0.349020 0.686275
$0b_y22s2lunarcannon_v_light.bmp
  2 0.889993 -10.936477 -3.245693 1.000000 0.000001 0.000003 0.254902 0.619608
  2 0.889993 -11.086643 -3.725641 1.000000 0.000001 0.000003 0.137255 0.980392
  2 0.889993 -10.806612 -3.635738 1.000000 0.000001 0.000003 0.349020 0.909804
$0b_y22s2lunarcannon_v_light.bmp
  2 0.889993 -10.936477 -3.245693 1.000000 0.000001 0.000003 0.254902 0.619608
  2 0.889993 -11.216612 -3.635596 1.000000 0.000001 0.000003 0.043137 0.909804
  2 0.889993 -11.086643 -3.725641 1.000000 0.000001 0.000003 0.137255 0.980392
$0b_y22s2lunarcannon_v_light.bmp
  2 0.889993 -10.936477 -3.245693 1.000000 0.000001 0.000003 0.254902 0.619608
  2 0.889994 -11.216508 -3.335596 1.000000 0.000001 0.000003 0.043137 0.686275
  2 0.889993 -11.216612 -3.635596 1.000000 0.000001 0.000003 0.043137 0.909804
$0b_y22s2lunarcannon_v_light.bmp
  2 0.889993 -10.936477 -3.245693 1.000000 0.000001 0.000003 0.254902 0.619608
  2 0.889994 -11.086477 -3.245641 1.000000 0.000001 0.000003 0.137255 0.619608
  2 0.889994 -11.216508 -3.335596 1.000000 0.000001 0.000003 0.043137 0.686275
$0b_y22s2lunarcannon_v_light.bmp
  0 -2.660002 -6.869999 0.860001 -0.951056 0.000002 0.309018 0.717647 0.101961
  0 -2.730002 -7.019999 0.680001 -0.951056 0.000002 0.309018 0.658824 0.023529
  0 -2.600002 -7.019999 1.050001 -0.951056 0.000002 0.309018 0.658824 0.184314
$0b_y22s2lunarcannon_v_light.bmp
  0 -2.600002 -7.019999 1.050001 -0.951056 0.000002 0.309018 0.658824 0.184314
  0 -2.730002 -7.019999 0.680001 -0.951056 0.000002 0.309018 0.658824 0.023529
  0 -2.600002 -8.869999 1.050001 -0.951056 0.000002 0.309018 0.062745 0.184314
$0b_y22s2lunarcannon_v_light.bmp
  0 -2.730002 -7.019999 0.680001 -0.951056 0.000002 0.309018 0.658824 0.023529
  0 -2.730003 -8.869999 0.680001 -0.951056 0.000002 0.309018 0.062745 0.023529
  0 -2.600002 -8.869999 1.050001 -0.951056 0.000002 0.309018 0.062745 0.184314
$0b_y22s2lunarcannon_v_light.bmp
  0 -2.600002 -8.869999 1.050001 -0.951056 0.000002 0.309018 0.062745 0.184314
  0 -2.730003 -8.869999 0.680001 -0.951056 0.000002 0.309018 0.062745 0.023529
  0 -2.630003 -8.969999 0.980001 -0.951056 0.000002 0.309018 0.019608 0.152941
$0b_y22s2lunarcannon_v_light.bmp
  0 -2.730003 -8.869999 0.680001 -0.951056 0.000002 0.309018 0.062745 0.023529
  0 -2.660003 -9.009999 0.860001 -0.951056 0.000002 0.309018 0.003922 0.101961
  0 -2.630003 -8.969999 0.980001 -0.951056 0.000002 0.309018 0.019608 0.152941
$0b_y22s2lunarcannon_v_light.bmp
  0 -1.470000 -4.449999 3.040000 -0.529920 0.000005 0.848047 0.717647 0.101961
  0 -1.550000 -4.519999 2.990000 -0.529920 0.000005 0.848047 0.658824 0.023529
  0 -1.390000 -4.520000 3.090000 -0.529920 0.000005 0.848047 0.658824 0.184314
$0b_y22s2lunarcannon_v_light.bmp
  0 -1.390000 -4.520000 3.090000 -0.529920 0.000005 0.848047 0.658824 0.184314
  0 -1.550000 -4.519999 2.990000 -0.529920 0.000005 0.848047 0.658824 0.023529
  0 -1.390001 -5.199999 3.090000 -0.529920 0.000005 0.848047 0.062745 0.184314
$0b_y22s2lunarcannon_v_light.bmp
  0 -1.550000 -4.519999 2.990000 -0.529920 0.000005 0.848047 0.658824 0.023529
  0 -1.550001 -5.199999 2.990000 -0.529920 0.000005 0.848047 0.062745 0.023529
  0 -1.390001 -5.199999 3.090000 -0.529920 0.000005 0.848047 0.062745 0.184314
$0b_y22s2lunarcannon_v_light.bmp
  0 -1.390001 -5.199999 3.090000 -0.529920 0.000005 0.848047 0.062745 0.184314
  0 -1.550001 -5.199999 2.990000 -0.529920 0.000005 0.848047 0.062745 0.023529
  0 -1.420001 -5.250000 3.070000 -0.529920 0.000005 0.848047 0.019608 0.152941
$0b_y22s2lunarcannon_v_light.bmp
  0 -1.550001 -5.199999 2.990000 -0.529920 0.000005 0.848047 0.062745 0.023529
  0 -1.470001 -5.270000 3.040000 -0.529920 0.000005 0.848047 0.003922 0.101961
  0 -1.420001 -5.250000 3.070000 -0.529920 0.000005 0.848047 0.019608 0.152941
$0b_y22s2lunarcannon_v_light.bmp
  0 -2.460002 -8.959999 2.000001 -0.731355 0.000002 0.681997 0.254902 0.619608
  0 -2.280002 -8.760000 2.200001 -0.731355 0.000002 0.681997 0.349020 0.909804
  0 -2.440002 -8.839999 2.030001 -0.731355 0.000002 0.681997 0.349020 0.686275
$0b_y22s2lunarcannon_v_light.bmp
  0 -2.460002 -8.959999 2.000001 -0.731355 0.000002 0.681997 0.254902 0.619608
  0 -2.180002 -8.959999 2.300001 -0.731355 0.000002 0.681997 0.137255 0.980392
  0 -2.280002 -8.760000 2.200001 -0.731355 0.000002 0.681997 0.349020 0.909804
$0b_y22s2lunarcannon_v_light.bmp
  0 -2.460002 -8.959999 2.000001 -0.731355 0.000002 0.681997 0.254902 0.619608
  0 -2.210002 -9.079999 2.270001 -0.731355 0.000002 0.681997 0.043137 0.909804
  0 -2.180002 -8.959999 2.300001 -0.731355 0.000002 0.681997 0.137255 0.980392
$0b_y22s2lunarcannon_v_light.bmp
  0 -2.460002 -8.959999 2.000001 -0.731355 0.000002 0.681997 0.254902 0.619608
  0 -2.370002 -9.159999 2.100001 -0.731355 0.000002 0.681997 0.043137 0.686275
  0 -2.210002 -9.079999 2.270001 -0.731355 0.000002 0.681997 0.043137 0.909804
$0b_y22s2lunarcannon_v_light.bmp
  0 -2.460002 -8.959999 2.000001 -0.731355 0.000002 0.681997 0.254902 0.619608
  0 -2.440002 -9.079999 2.030001 -0.731355 0.000002 0.681997 0.137255 0.619608
  0 -2.370002 -9.159999 2.100001 -0.731355 0.000002 0.681997 0.043137 0.686275
$0b_y22s2lunarcannon_v_light.bmp
  0 -2.980002 -5.719999 0.920001 -0.951056 0.000002 0.309018 0.254902 0.619608
  0 -2.940001 -5.629999 1.040001 -0.951056 0.000002 0.309018 0.349020 0.909804
  0 -2.980002 -5.669999 0.940001 -0.951056 0.000002 0.309018 0.349020 0.686275
$0b_y22s2lunarcannon_v_light.bmp
  0 -2.980002 -5.719999 0.920001 -0.951056 0.000002 0.309018 0.254902 0.619608
  0 -2.920002 -5.719999 1.100001 -0.951056 0.000002 0.309018 0.137255 0.980392
  0 -2.940001 -5.629999 1.040001 -0.951056 0.000002 0.309018 0.349020 0.909804
$0b_y22s2lunarcannon_v_light.bmp
  0 -2.980002 -5.719999 0.920001 -0.951056 0.000002 0.309018 0.254902 0.619608
  0 -2.920002 -5.779999 1.080001 -0.951056 0.000002 0.309018 0.043137 0.909804
  0 -2.920002 -5.719999 1.100001 -0.951056 0.000002 0.309018 0.137255 0.980392
$0b_y22s2lunarcannon_v_light.bmp
  0 -2.980002 -5.719999 0.920001 -0.951056 0.000002 0.309018 0.254902 0.619608
  0 -2.960002 -5.809999 0.980001 -0.951056 0.000002 0.309018 0.043137 0.686275
  0 -2.920002 -5.779999 1.080001 -0.951056 0.000002 0.309018 0.043137 0.909804
$0b_y22s2lunarcannon_v_light.bmp
  0 -2.980002 -5.719999 0.920001 -0.951056 0.000002 0.309018 0.254902 0.619608
  0 -2.980002 -5.779999 0.940001 -0.951056 0.000002 0.309018 0.137255 0.619608
  0 -2.960002 -5.809999 0.980001 -0.951056 0.000002 0.309018 0.043137 0.686275
$0b_y22s2lunarcannon_v_light.bmp
  0 -2.460002 -6.949999 2.000001 -0.731355 0.000002 0.681997 0.254902 0.619608
  0 -2.280001 -6.749999 2.200001 -0.731355 0.000002 0.681997 0.349020 0.909804
  0 -2.440002 -6.829999 2.030001 -0.731355 0.000002 0.681997 0.349020 0.686275
$0b_y22s2lunarcannon_v_light.bmp
  0 -2.460002 -6.949999 2.000001 -0.731355 0.000002 0.681997 0.254902 0.619608
  0 -2.180002 -6.949999 2.300001 -0.731355 0.000002 0.681997 0.137255 0.980392
  0 -2.280001 -6.749999 2.200001 -0.731355 0.000002 0.681997 0.349020 0.909804
$0b_y22s2lunarcannon_v_light.bmp
  0 -2.460002 -6.949999 2.000001 -0.731355 0.000002 0.681997 0.254902 0.619608
  0 -2.210002 -7.069999 2.270001 -0.731355 0.000002 0.681997 0.043137 0.909804
  0 -2.180002 -6.949999 2.300001 -0.731355 0.000002 0.681997 0.137255 0.980392
$0b_y22s2lunarcannon_v_light.bmp
  0 -2.460002 -6.949999 2.000001 -0.731355 0.000002 0.681997 0.254902 0.619608
  0 -2.370001 -7.149999 2.100001 -0.731355 0.000002 0.681997 0.043137 0.686275
  0 -2.210002 -7.069999 2.270001 -0.731355 0.000002 0.681997 0.043137 0.909804
$0b_y22s2lunarcannon_v_light.bmp
  0 -2.460002 -6.949999 2.000001 -0.731355 0.000002 0.681997 0.254902 0.619608
  0 -2.440002 -7.069999 2.030001 -0.731355 0.000002 0.681997 0.137255 0.619608
  0 -2.370001 -7.149999 2.100001 -0.731355 0.000002 0.681997 0.043137 0.686275
$0b_y22s2lunarcannon_v_light.bmp
  0 -2.460001 -4.929999 2.000001 -0.731355 0.000002 0.681997 0.254902 0.619608
  0 -2.280001 -4.729999 2.200001 -0.731355 0.000002 0.681997 0.349020 0.909804
  0 -2.440001 -4.809999 2.030001 -0.731355 0.000002 0.681997 0.349020 0.686275
$0b_y22s2lunarcannon_v_light.bmp
  0 -2.460001 -4.929999 2.000001 -0.731355 0.000002 0.681997 0.254902 0.619608
  0 -2.180001 -4.929999 2.300001 -0.731355 0.000002 0.681997 0.137255 0.980392
  0 -2.280001 -4.729999 2.200001 -0.731355 0.000002 0.681997 0.349020 0.909804
$0b_y22s2lunarcannon_v_light.bmp
  0 -2.460001 -4.929999 2.000001 -0.731355 0.000002 0.681997 0.254902 0.619608
  0 -2.210001 -5.049999 2.270001 -0.731355 0.000002 0.681997 0.043137 0.909804
  0 -2.180001 -4.929999 2.300001 -0.731355 0.000002 0.681997 0.137255 0.980392
$0b_y22s2lunarcannon_v_light.bmp
  0 -2.460001 -4.929999 2.000001 -0.731355 0.000002 0.681997 0.254902 0.619608
  0 -2.370001 -5.119999 2.100001 -0.731355 0.000002 0.681997 0.043137 0.686275
  0 -2.210001 -5.049999 2.270001 -0.731355 0.000002 0.681997 0.043137 0.909804
$0b_y22s2lunarcannon_v_light.bmp
  0 -2.460001 -4.929999 2.000001 -0.731355 0.000002 0.681997 0.254902 0.619608
  0 -2.440001 -5.049999 2.030001 -0.731355 0.000002 0.681997 0.137255 0.619608
  0 -2.370001 -5.119999 2.100001 -0.731355 0.000002 0.681997 0.043137 0.686275
$0b_y22s2lunarcannon_v_light.bmp
  0 -2.980001 -4.949999 0.920001 -0.951056 0.000002 0.309018 0.254902 0.619608
  0 -2.940001 -4.859999 1.040001 -0.951056 0.000002 0.309018 0.349020 0.909804
  0 -2.980001 -4.889999 0.940001 -0.951056 0.000002 0.309018 0.349020 0.686275
$0b_y22s2lunarcannon_v_light.bmp
  0 -2.980001 -4.949999 0.920001 -0.951056 0.000002 0.309018 0.254902 0.619608
  0 -2.920001 -4.949999 1.100001 -0.951056 0.000002 0.309018 0.137255 0.980392
  0 -2.940001 -4.859999 1.040001 -0.951056 0.000002 0.309018 0.349020 0.909804
$0b_y22s2lunarcannon_v_light.bmp
  0 -2.980001 -4.949999 0.920001 -0.951056 0.000002 0.309018 0.254902 0.619608
  0 -2.920001 -4.999999 1.080001 -0.951056 0.000002 0.309018 0.043137 0.909804
  0 -2.920001 -4.949999 1.100001 -0.951056 0.000002 0.309018 0.137255 0.980392
$0b_y22s2lunarcannon_v_light.bmp
  0 -2.980001 -4.949999 0.920001 -0.951056 0.000002 0.309018 0.254902 0.619608
  0 -2.960001 -5.039999 0.980001 -0.951056 0.000002 0.309018 0.043137 0.686275
  0 -2.920001 -4.999999 1.080001 -0.951056 0.000002 0.309018 0.043137 0.909804
$0b_y22s2lunarcannon_v_light.bmp
  0 -2.980001 -4.949999 0.920001 -0.951056 0.000002 0.309018 0.254902 0.619608
  0 -2.980001 -4.999999 0.940001 -0.951056 0.000002 0.309018 0.137255 0.619608
  0 -2.960001 -5.039999 0.980001 -0.951056 0.000002 0.309018 0.043137 0.686275
$0b_y22s2lunarcannon_v_light.bmp
  0 -2.980001 -4.169999 0.920001 -0.951056 0.000002 0.309018 0.254902 0.619608
  0 -2.940001 -4.079999 1.040001 -0.951056 0.000002 0.309018 0.349020 0.909804
  0 -2.980001 -4.119999 0.940001 -0.951056 0.000002 0.309018 0.349020 0.686275
$0b_y22s2lunarcannon_v_light.bmp
  0 -2.980001 -4.169999 0.920001 -0.951056 0.000002 0.309018 0.254902 0.619608
  0 -2.920001 -4.169999 1.100001 -0.951056 0.000002 0.309018 0.137255 0.980392
  0 -2.940001 -4.079999 1.040001 -0.951056 0.000002 0.309018 0.349020 0.909804
$0b_y22s2lunarcannon_v_light.bmp
  0 -2.980001 -4.169999 0.920001 -0.951056 0.000002 0.309018 0.254902 0.619608
  0 -2.920001 -4.229999 1.080001 -0.951056 0.000002 0.309018 0.043137 0.909804
  0 -2.920001 -4.169999 1.100001 -0.951056 0.000002 0.309018 0.137255 0.980392
$0b_y22s2lunarcannon_v_light.bmp
  0 -2.980001 -4.169999 0.920001 -0.951056 0.000002 0.309018 0.254902 0.619608
  0 -2.960001 -4.269999 0.980001 -0.951056 0.000002 0.309018 0.043137 0.686275
  0 -2.920001 -4.229999 1.080001 -0.951056 0.000002 0.309018 0.043137 0.909804
$0b_y22s2lunarcannon_v_light.bmp
  0 -2.980001 -4.169999 0.920001 -0.951056 0.000002 0.309018 0.254902 0.619608
  0 -2.980001 -4.229999 0.940001 -0.951056 0.000002 0.309018 0.137255 0.619608
  0 -2.960001 -4.269999 0.980001 -0.951056 0.000002 0.309018 0.043137 0.686275
$0b_y22s2lunarcannon_v_light.bmp
  7 2.259999 -9.212900 3.118196 0.000000 1.000000 0.000000 0.980392 0.062745
  7 1.059999 -9.212899 3.698198 0.000000 1.000000 0.000000 0.698039 0.200000
  7 1.200000 -9.212899 4.038197 0.000000 1.000000 0.000000 0.729412 0.278431
$0b_y22s2lunarcannon_v_light.bmp
  7 1.200000 -9.212899 4.038197 0.000000 1.000000 0.000000 0.729412 0.278431
  7 1.059999 -9.212899 3.698198 0.000000 1.000000 0.000000 0.698039 0.200000
  7 0.000000 -9.212899 4.198199 0.000000 1.000000 0.000000 0.443137 0.321569
$0b_y22s2lunarcannon_v_light.bmp
  7 1.059999 -9.212899 3.698198 0.000000 1.000000 0.000000 0.698039 0.200000
  7 -0.000001 -9.212899 3.698199 0.000000 1.000000 0.000000 0.443137 0.200000
  7 0.000000 -9.212899 4.198199 0.000000 1.000000 0.000000 0.443137 0.321569
$0b_y22s2lunarcannon_v_light.bmp
  7 0.000000 -9.212899 4.198199 0.000000 1.000000 0.000000 0.443137 0.321569
  7 -0.000001 -9.212899 3.698199 0.000000 1.000000 0.000000 0.443137 0.200000
  7 -1.060001 -9.212899 3.698200 0.000000 1.000000 0.000000 0.698039 0.200000
$0b_y22s2lunarcannon_v_light.bmp
  7 0.000000 -9.212899 4.198199 0.000000 1.000000 0.000000 0.443137 0.321569
  7 -1.060001 -9.212899 3.698200 0.000000 1.000000 0.000000 0.698039 0.200000
  7 -1.200000 -9.212899 4.038200 0.000000 1.000000 0.000000 0.729412 0.278431
$0b_y22s2lunarcannon_v_light.bmp
  7 -1.200000 -9.212899 4.038200 0.000000 1.000000 0.000000 0.729412 0.278431
  7 -1.060001 -9.212899 3.698200 0.000000 1.000000 0.000000 0.698039 0.200000
  7 -2.260001 -9.212898 3.118202 0.000000 1.000000 0.000000 0.980392 0.062745
$0b_y22s2lunarcannon_v_light.bmp
  7 -1.060001 -9.212899 3.698200 0.000000 1.000000 0.000000 0.698039 0.200000
  7 -2.190002 -9.212898 2.918202 0.000000 1.000000 0.000000 0.964706 0.011765
  7 -2.260001 -9.212898 3.118202 0.000000 1.000000 0.000000 0.980392 0.062745
$0b_y22s2lunarcannon_v_light.bmp
  0 2.419999 -3.760001 1.629999 0.000000 1.000000 0.000000 0.015686 0.592157
  0 2.369999 -3.760001 1.579999 0.000000 1.000000 0.000000 0.015686 0.490196
  0 1.830000 -3.760001 2.259999 0.000000 1.000000 0.000000 0.780392 0.592157
$0b_y22s2lunarcannon_v_light.bmp
  0 1.830000 -3.760001 2.259999 0.000000 1.000000 0.000000 0.780392 0.592157
  0 2.369999 -3.760001 1.579999 0.000000 1.000000 0.000000 0.015686 0.490196
  0 1.769999 -3.760001 2.209999 0.000000 1.000000 0.000000 0.780392 0.490196
$0b_y22s2lunarcannon_v_light.bmp
  0 2.459998 -8.960001 1.999999 0.731356 -0.000001 0.681996 0.254902 0.619608
  0 2.439998 -8.840001 2.029999 0.731356 -0.000001 0.681996 0.349020 0.686275
  0 2.279998 -8.770001 2.199999 0.731356 -0.000001 0.681996 0.349020 0.909804
$0b_y22s2lunarcannon_v_light.bmp
  0 2.279998 -8.770001 2.199999 0.731356 -0.000001 0.681996 0.349020 0.909804
  0 2.439998 -8.840001 2.029999 0.731356 -0.000001 0.681996 0.349020 0.686275
  0 2.369998 -8.770001 2.099999 0.731356 -0.000001 0.681996 0.384314 0.800000
$0b_y22s2lunarcannon_v_light.bmp
  0 2.979999 -5.720001 0.909999 0.951056 0.000004 0.309019 0.254902 0.619608
  0 2.979999 -5.660001 0.929999 0.951056 0.000004 0.309019 0.349020 0.686275
  0 2.939999 -5.620001 1.039999 0.951056 0.000004 0.309019 0.349020 0.909804
$0b_y22s2lunarcannon_v_light.bmp
  0 2.939999 -5.620001 1.039999 0.951056 0.000004 0.309019 0.349020 0.909804
  0 2.979999 -5.660001 0.929999 0.951056 0.000004 0.309019 0.349020 0.686275
  0 2.959999 -5.620001 0.979999 0.951056 0.000004 0.309019 0.384314 0.800000
$0b_y22s2lunarcannon_v_light.bmp
  0 2.459998 -6.950001 1.999999 0.731356 -0.000001 0.681996 0.254902 0.619608
  0 2.439999 -6.830001 2.029999 0.731356 -0.000001 0.681996 0.349020 0.686275
  0 2.279999 -6.750001 2.199999 0.731356 -0.000001 0.681996 0.349020 0.909804
$0b_y22s2lunarcannon_v_light.bmp
  0 2.279999 -6.750001 2.199999 0.731356 -0.000001 0.681996 0.349020 0.909804
  0 2.439999 -6.830001 2.029999 0.731356 -0.000001 0.681996 0.349020 0.686275
  0 2.369998 -6.750001 2.099999 0.731356 -0.000001 0.681996 0.384314 0.800000
$0b_y22s2lunarcannon_v_light.bmp
  0 2.459999 -4.930001 1.999999 0.731356 -0.000001 0.681996 0.254902 0.619608
  0 2.439999 -4.810001 2.029999 0.731356 -0.000001 0.681996 0.349020 0.686275
  0 2.279999 -4.730001 2.199999 0.731356 -0.000001 0.681996 0.349020 0.909804
$0b_y22s2lunarcannon_v_light.bmp
  0 2.279999 -4.730001 2.199999 0.731356 -0.000001 0.681996 0.349020 0.909804
  0 2.439999 -4.810001 2.029999 0.731356 -0.000001 0.681996 0.349020 0.686275
  0 2.369999 -4.730001 2.099999 0.731356 -0.000001 0.681996 0.384314 0.800000
$0b_y22s2lunarcannon_v_light.bmp
  0 2.979999 -4.950001 0.909999 0.951056 0.000004 0.309019 0.254902 0.619608
  0 2.979999 -4.890001 0.929999 0.951056 0.000004 0.309019 0.349020 0.686275
  0 2.939999 -4.850001 1.039999 0.951056 0.000004 0.309019 0.349020 0.909804
$0b_y22s2lunarcannon_v_light.bmp
  0 2.939999 -4.850001 1.039999 0.951056 0.000004 0.309019 0.349020 0.909804
  0 2.979999 -4.890001 0.929999 0.951056 0.000004 0.309019 0.349020 0.686275
  0 2.959999 -4.850001 0.979999 0.951056 0.000004 0.309019 0.384314 0.800000
$0b_y22s2lunarcannon_v_light.bmp
  0 2.979999 -4.170001 0.909999 0.951056 0.000004 0.309019 0.254902 0.619608
  0 2.979999 -4.110001 0.929999 0.951056 0.000004 0.309019 0.349020 0.686275
  0 2.939999 -4.070001 1.039999 0.951056 0.000004 0.309019 0.349020 0.909804
$0b_y22s2lunarcannon_v_light.bmp
  0 2.939999 -4.070001 1.039999 0.951056 0.000004 0.309019 0.349020 0.909804
  0 2.979999 -4.110001 0.929999 0.951056 0.000004 0.309019 0.349020 0.686275
  0 2.959999 -4.070001 0.979999 0.951056 0.000004 0.309019 0.384314 0.800000
$0b_y22s2lunarcannon_v_light.bmp
  0 -1.770000 -3.759999 2.210001 0.000000 1.000000 0.000000 0.780392 0.490196
  0 -2.370001 -3.759999 1.580001 0.000000 1.000000 0.000000 0.015686 0.490196
  0 -1.820001 -3.759999 2.250001 0.000000 1.000000 0.000000 0.780392 0.592157
$0b_y22s2lunarcannon_v_light.bmp
  0 -1.820001 -3.759999 2.250001 0.000000 1.000000 0.000000 0.780392 0.592157
  0 -2.370001 -3.759999 1.580001 0.000000 1.000000 0.000000 0.015686 0.490196
  0 -2.420001 -3.759999 1.630001 0.000000 1.000000 0.000000 0.015686 0.592157
$0b_y22s2lunarcannon_v_light.bmp
  6 -2.590006 -24.242819 0.404907 0.000000 1.000000 0.000000 0.803922 0.988235
  6 -1.880006 -24.242761 0.574906 0.000000 1.000000 0.000000 0.764706 0.831373
  6 -2.590007 -24.243099 -0.405093 0.000000 1.000000 0.000000 0.956863 0.988235
$0b_y22s2lunarcannon_v_light.bmp
  6 -2.590007 -24.243099 -0.405093 0.000000 1.000000 0.000000 0.956863 0.988235
  6 -1.880006 -24.242761 0.574906 0.000000 1.000000 0.000000 0.764706 0.831373
  6 -1.880007 -24.243154 -0.565094 0.000000 1.000000 0.000000 0.992157 0.831373
$0b_y22s2lunarcannon_v_light.bmp
  6 0.419997 -24.242067 2.584903 0.000000 1.000000 0.000000 0.803922 0.988235
  6 0.589996 -24.242302 1.904903 0.000000 1.000000 0.000000 0.764706 0.831373
  6 -0.420003 -24.242067 2.584904 0.000000 1.000000 0.000000 0.956863 0.988235
$0b_y22s2lunarcannon_v_light.bmp
  6 -0.420003 -24.242067 2.584904 0.000000 1.000000 0.000000 0.956863 0.988235
  6 0.589996 -24.242302 1.904903 0.000000 1.000000 0.000000 0.764706 0.831373
  6 -0.590004 -24.242302 1.904904 0.000000 1.000000 0.000000 0.992157 0.831373
$0b_y22s2lunarcannon_v_light.bmp
  6 -0.420010 -24.243828 -2.515096 0.000000 1.000000 0.000000 0.803922 0.988235
  6 -0.560009 -24.243624 -1.925096 0.000000 1.000000 0.000000 0.764706 0.831373
  6 0.419990 -24.243828 -2.515097 0.000000 1.000000 0.000000 0.956863 0.988235
$0b_y22s2lunarcannon_v_light.bmp
  6 0.419990 -24.243828 -2.515097 0.000000 1.000000 0.000000 0.956863 0.988235
  6 -0.560009 -24.243624 -1.925096 0.000000 1.000000 0.000000 0.764706 0.831373
  6 0.559991 -24.243625 -1.925097 0.000000 1.000000 0.000000 0.992157 0.831373
$0b_y22s2lunarcannon_v_light.bmp
  6 2.529993 -24.243104 -0.415100 0.000000 1.000000 0.000000 0.803922 0.988235
  6 1.879993 -24.243155 -0.565099 0.000000 1.000000 0.000000 0.764706 0.831373
  6 2.529994 -24.242817 0.414900 0.000000 1.000000 0.000000 0.956863 0.988235
$0b_y22s2lunarcannon_v_light.bmp
  6 2.529994 -24.242817 0.414900 0.000000 1.000000 0.000000 0.956863 0.988235
  6 1.879993 -24.243155 -0.565099 0.000000 1.000000 0.000000 0.764706 0.831373
  6 1.879994 -24.242765 0.564901 0.000000 1.000000 0.000000 0.992157 0.831373
$0b_y22s2lunarcannon_v_light.bmp
  1 1.279994 -17.195186 1.272468 0.000000 1.000000 0.000000 0.423529 0.823529
  1 1.359994 -17.195245 1.102468 0.000000 1.000000 0.000000 0.388235 0.752941
  1 1.199994 -17.195355 0.782468 0.000000 1.000000 0.000000 0.454902 0.619608
$0b_y22s2lunarcannon_v_light.bmp
  1 1.199994 -17.195355 0.782468 0.000000 1.000000 0.000000 0.454902 0.619608
  1 1.359994 -17.195245 1.102468 0.000000 1.000000 0.000000 0.388235 0.752941
  1 1.329994 -17.195311 0.912468 0.000000 1.000000 0.000000 0.400000 0.674510
$0b_y22s2lunarcannon_v_light.bmp
  1 1.279993 -17.196067 -1.277531 0.000000 1.000000 0.000000 0.423529 0.823529
  1 1.109993 -17.196098 -1.367531 0.000000 1.000000 0.000000 0.388235 0.752941
  1 0.779993 -17.196039 -1.197531 0.000000 1.000000 0.000000 0.454902 0.619608
$0b_y22s2lunarcannon_v_light.bmp
  1 0.779993 -17.196039 -1.197531 0.000000 1.000000 0.000000 0.454902 0.619608
  1 1.109993 -17.196098 -1.367531 0.000000 1.000000 0.000000 0.388235 0.752941
  1 0.919993 -17.196087 -1.337531 0.000000 1.000000 0.000000 0.400000 0.674510
$0b_y22s2lunarcannon_v_light.bmp
  1 -1.280006 -17.195185 1.272469 0.000000 1.000000 0.000000 0.423529 0.823529
  1 -1.110006 -17.195154 1.362469 0.000000 1.000000 0.000000 0.494118 0.862745
  1 -0.780006 -17.195213 1.192469 0.000000 1.000000 0.000000 0.627451 0.792157
$0b_y22s2lunarcannon_v_light.bmp
  1 -0.780006 -17.195213 1.192469 0.000000 1.000000 0.000000 0.627451 0.792157
  1 -1.110006 -17.195154 1.362469 0.000000 1.000000 0.000000 0.494118 0.862745
  1 -0.920006 -17.195165 1.332469 0.000000 1.000000 0.000000 0.572549 0.850980
$0b_y22s2lunarcannon_v_light.bmp
  1 -1.280007 -17.196066 -1.277531 0.000000 1.000000 0.000000 0.423529 0.823529
  1 -1.360007 -17.196007 -1.107531 0.000000 1.000000 0.000000 0.494118 0.862745
  1 -1.200007 -17.195893 -0.777531 0.000000 1.000000 0.000000 0.627451 0.792157
$0b_y22s2lunarcannon_v_light.bmp
  1 -1.200007 -17.195893 -0.777531 0.000000 1.000000 0.000000 0.627451 0.792157
  1 -1.360007 -17.196007 -1.107531 0.000000 1.000000 0.000000 0.494118 0.862745
  1 -1.330007 -17.195942 -0.917531 0.000000 1.000000 0.000000 0.572549 0.850980
$0b_y22s2lunarcannon_v_light.bmp
  4 3.256088 -10.945213 -0.892892 -0.000002 0.000001 -1.000000 0.254902 0.619608
  4 3.346088 -10.815213 -0.892937 -0.000002 0.000001 -1.000000 0.349020 0.686275
  4 3.626088 -10.815213 -0.892937 -0.000002 0.000001 -1.000000 0.349020 0.909804
$0b_y22s2lunarcannon_v_light.bmp
  4 3.626088 -10.815213 -0.892937 -0.000002 0.000001 -1.000000 0.349020 0.909804
  4 3.346088 -10.815213 -0.892937 -0.000002 0.000001 -1.000000 0.349020 0.686275
  4 3.486088 -10.775213 -0.892951 -0.000002 0.000001 -1.000000 0.384314 0.800000
$0b_y22s2lunarcannon_v_light.bmp
  5 0.889998 -10.944236 3.246736 1.000000 0.000000 0.000000 0.254902 0.619608
  5 0.889998 -10.814205 3.336691 1.000000 0.000000 0.000000 0.349020 0.686275
  5 0.889998 -10.814101 3.636691 1.000000 0.000000 0.000000 0.349020 0.909804
$0b_y22s2lunarcannon_v_light.bmp
  5 0.889998 -10.814101 3.636691 1.000000 0.000000 0.000000 0.349020 0.909804
  5 0.889998 -10.814205 3.336691 1.000000 0.000000 0.000000 0.349020 0.686275
  5 0.889998 -10.764153 3.486674 1.000000 0.000000 0.000000 0.384314 0.800000
$0b_y22s2lunarcannon_v_light.bmp
  3 -3.236500 -10.938214 0.887109 0.000002 -0.000001 1.000000 0.254902 0.619608
  3 -3.336500 -10.808214 0.887064 0.000002 -0.000001 1.000000 0.349020 0.686275
  3 -3.636500 -10.808214 0.887065 0.000002 -0.000001 1.000000 0.349020 0.909804
$0b_y22s2lunarcannon_v_light.bmp
  3 -3.636500 -10.808214 0.887065 0.000002 -0.000001 1.000000 0.349020 0.909804
  3 -3.336500 -10.808214 0.887064 0.000002 -0.000001 1.000000 0.349020 0.686275
  3 -3.486500 -10.758214 0.887047 0.000002 -0.000001 1.000000 0.384314 0.800000
$0b_y22s2lunarcannon_v_light.bmp
  2 -0.890006 -10.936478 -3.245692 -1.000000 0.000000 0.000000 0.254902 0.619608
  2 -0.890007 -10.806509 -3.335737 -1.000000 0.000000 0.000000 0.349020 0.686275
  2 -0.890007 -10.806612 -3.635737 -1.000000 0.000000 0.000000 0.349020 0.909804
$0b_y22s2lunarcannon_v_light.bmp
  2 -0.890007 -10.806612 -3.635737 -1.000000 0.000000 0.000000 0.349020 0.909804
  2 -0.890007 -10.806509 -3.335737 -1.000000 0.000000 0.000000 0.349020 0.686275
  2 -0.890007 -10.766561 -3.485751 -1.000000 0.000000 0.000000 0.384314 0.800000
$0b_y22s2lunarcannon_v_light.bmp
  0 2.719998 -7.040001 0.689999 0.951056 0.000004 0.309019 0.658824 0.023529
  0 2.699998 -6.920001 0.749999 0.951056 0.000004 0.309019 0.698039 0.054902
  0 2.659998 -6.870001 0.859999 0.951056 0.000004 0.309019 0.717647 0.101961
$0b_y22s2lunarcannon_v_light.bmp
  0 2.719997 -8.840001 0.689999 0.951056 0.000004 0.309019 0.062745 0.023529
  0 2.659998 -9.010001 0.859999 0.951056 0.000004 0.309019 0.003922 0.101961
  0 2.699997 -8.960001 0.749999 0.951056 0.000004 0.309019 0.019608 0.054902
$0b_y22s2lunarcannon_v_light.bmp
  0 1.549999 -4.440001 2.980000 0.529920 0.000001 0.848048 0.658824 0.023529
  0 1.520000 -4.380001 3.000000 0.529920 0.000001 0.848048 0.698039 0.054902
  0 1.470000 -4.360001 3.040000 0.529920 0.000001 0.848048 0.717647 0.101961
$0b_y22s2lunarcannon_v_light.bmp
  0 1.549999 -5.140000 2.980000 0.529920 0.000001 0.848048 0.062745 0.023529
  0 1.469999 -5.210000 3.040000 0.529920 0.000001 0.848048 0.003922 0.101961
  0 1.519999 -5.190001 3.000000 0.529920 0.000001 0.848048 0.019608 0.054902
$0b_y22s2lunarcannon_v_light.bmp
  0 2.459998 -8.960001 1.999999 0.731356 -0.000001 0.681996 0.254902 0.619608
  0 2.369998 -9.160001 2.099999 0.731356 -0.000001 0.681996 0.043137 0.686275
  0 2.439998 -9.080001 2.029999 0.731356 -0.000001 0.681996 0.137255 0.619608
$0b_y22s2lunarcannon_v_light.bmp
  0 2.979999 -5.720001 0.909999 0.951056 0.000004 0.309019 0.254902 0.619608
  0 2.959999 -5.820001 0.979999 0.951056 0.000004 0.309019 0.043137 0.686275
  0 2.979998 -5.780001 0.929999 0.951056 0.000004 0.309019 0.137255 0.619608
$0b_y22s2lunarcannon_v_light.bmp
  0 2.459998 -6.950001 1.999999 0.731356 -0.000001 0.681996 0.254902 0.619608
  0 2.369998 -7.150001 2.099999 0.731356 -0.000001 0.681996 0.043137 0.686275
  0 2.439998 -7.070001 2.029999 0.731356 -0.000001 0.681996 0.137255 0.619608
$0b_y22s2lunarcannon_v_light.bmp
  0 2.459999 -4.930001 1.999999 0.731356 -0.000001 0.681996 0.254902 0.619608
  0 2.369999 -5.120001 2.099999 0.731356 -0.000001 0.681996 0.043137 0.686275
  0 2.439999 -5.050001 2.029999 0.731356 -0.000001 0.681996 0.137255 0.619608
$0b_y22s2lunarcannon_v_light.bmp
  0 2.979999 -4.950001 0.909999 0.951056 0.000004 0.309019 0.254902 0.619608
  0 2.959999 -5.050001 0.979999 0.951056 0.000004 0.309019 0.043137 0.686275
  0 2.979999 -5.010001 0.929999 0.951056 0.000004 0.309019 0.137255 0.619608
$0b_y22s2lunarcannon_v_light.bmp
  0 2.979999 -4.170001 0.909999 0.951056 0.000004 0.309019 0.254902 0.619608
  0 2.959999 -4.270001 0.979999 0.951056 0.000004 0.309019 0.043137 0.686275
  0 2.979999 -4.230001 0.929999 0.951056 0.000004 0.309019 0.137255 0.619608
$0b_y22s2lunarcannon_v_light.bmp
  1 -2.470006 -17.415534 0.262546 -1.000000 0.000000 0.000000 0.658824 0.023529
  1 -2.470006 -17.275568 0.162497 -1.000000 0.000000 0.000000 0.698039 0.054902
  1 -2.470006 -17.225623 0.002480 -1.000000 0.000000 0.000000 0.717647 0.101961
$0b_y22s2lunarcannon_v_light.bmp
  1 -2.470007 -18.875534 0.263050 -1.000000 0.000000 0.000000 0.062745 0.023529
  1 -2.470007 -19.075623 0.003119 -1.000000 0.000000 0.000000 0.003922 0.101961
  1 -2.470007 -19.025568 0.163102 -1.000000 0.000000 0.000000 0.019608 0.054902
$0b_y22s2lunarcannon_v_light.bmp
  6 -1.230005 -24.552450 1.475012 -0.707107 -0.000001 0.707106 0.658824 0.023529
  6 -1.280005 -24.462464 1.434981 -0.707107 -0.000001 0.707106 0.698039 0.054902
  6 -1.360005 -24.432491 1.354971 -0.707107 -0.000001 0.707106 0.717647 0.101961
$0b_y22s2lunarcannon_v_light.bmp
  6 -1.230006 -26.872450 1.475813 -0.707107 -0.000001 0.707106 0.062745 0.023529
  6 -1.360006 -26.992491 1.355855 -0.707107 -0.000001 0.707106 0.003922 0.101961
  6 -1.280006 -26.962464 1.435844 -0.707107 -0.000001 0.707106 0.019608 0.054902
$0b_y22s2lunarcannon_v_light.bmp
  6 1.479995 -24.552534 1.235008 0.707107 -0.000005 0.707106 0.658824 0.023529
  6 1.429995 -24.462516 1.284977 0.707107 -0.000005 0.707106 0.698039 0.054902
  6 1.359995 -24.422492 1.354964 0.707107 -0.000005 0.707106 0.717647 0.101961
$0b_y22s2lunarcannon_v_light.bmp
  6 1.479994 -26.882534 1.235813 0.707107 -0.000005 0.707106 0.062745 0.023529
  6 1.359994 -27.012492 1.355858 0.707107 -0.000005 0.707106 0.003922 0.101961
  6 1.429994 -26.972520 1.275844 0.707107 -0.000005 0.707106 0.019608 0.054902
$0b_y22s2lunarcannon_v_light.bmp
  6 -1.480008 -24.553386 -1.234988 -0.707108 -0.000006 -0.707105 0.658824 0.023529
  6 -1.430008 -24.463403 -1.285019 -0.707108 -0.000006 -0.707105 0.698039 0.054902
  6 -1.360008 -24.423427 -1.355033 -0.707108 -0.000006 -0.707105 0.717647 0.101961
$0b_y22s2lunarcannon_v_light.bmp
  6 -1.480009 -26.863386 -1.234190 -0.707108 -0.000006 -0.707105 0.062745 0.023529
  6 -1.360009 -26.983427 -1.354149 -0.707108 -0.000006 -0.707105 0.003922 0.101961
  6 -1.430009 -26.953403 -1.284159 -0.707108 -0.000006 -0.707105 0.019608 0.054902
$0b_y22s2lunarcannon_v_light.bmp
  6 1.229991 -24.553469 -1.474991 0.707106 -0.000007 -0.707107 0.658824 0.023529
  6 1.279991 -24.453456 -1.435026 0.707106 -0.000007 -0.707107 0.698039 0.054902
  6 1.359992 -24.423428 -1.355036 0.707106 -0.000007 -0.707107 0.717647 0.101961
$0b_y22s2lunarcannon_v_light.bmp
  6 1.229991 -26.863469 -1.474193 0.707106 -0.000007 -0.707107 0.062745 0.023529
  6 1.359991 -26.983428 -1.354152 0.707106 -0.000007 -0.707107 0.003922 0.101961
  6 1.279991 -26.953455 -1.434162 0.707106 -0.000007 -0.707107 0.019608 0.054902
$0b_y22s2lunarcannon_v_light.bmp
  1 0.779994 -17.195214 1.192469 0.000000 1.000000 0.000000 0.627451 0.792157
  1 0.839994 -17.195338 0.832469 0.000000 1.000000 0.000000 0.603922 0.643137
  1 0.749994 -17.195276 1.012469 0.000000 1.000000 0.000000 0.639216 0.713725
$0b_y22s2lunarcannon_v_light.bmp
  1 1.199993 -17.195894 -0.777531 0.000000 1.000000 0.000000 0.627451 0.792157
  1 0.839993 -17.195915 -0.837531 0.000000 1.000000 0.000000 0.603922 0.643137
  1 1.009993 -17.195884 -0.747531 0.000000 1.000000 0.000000 0.639216 0.713725
$0b_y22s2lunarcannon_v_light.bmp
  1 -1.200006 -17.195355 0.782469 0.000000 1.000000 0.000000 0.454902 0.619608
  1 -0.840006 -17.195338 0.832469 0.000000 1.000000 0.000000 0.603922 0.643137
  1 -1.010006 -17.195365 0.752469 0.000000 1.000000 0.000000 0.533333 0.607843
$0b_y22s2lunarcannon_v_light.bmp
  1 -0.780007 -17.196039 -1.197531 0.000000 1.000000 0.000000 0.454902 0.619608
  1 -0.840007 -17.195914 -0.837531 0.000000 1.000000 0.000000 0.603922 0.643137
  1 -0.750007 -17.195973 -1.007531 0.000000 1.000000 0.000000 0.533333 0.607843
$0b_y22s2lunarcannon_v_light.bmp
  1 2.469993 -17.415715 -0.257456 1.000000 0.000000 0.000000 0.658824 0.023529
  1 2.469994 -17.275680 -0.157504 1.000000 0.000000 0.000000 0.698039 0.054902
  1 2.469994 -17.225625 0.002479 1.000000 0.000000 0.000000 0.717647 0.101961
$0b_y22s2lunarcannon_v_light.bmp
  1 2.469993 -18.875715 -0.256952 1.000000 0.000000 0.000000 0.062745 0.023529
  1 2.469993 -19.075625 0.003117 1.000000 0.000000 0.000000 0.003922 0.101961
  1 2.469993 -19.015680 -0.156903 1.000000 0.000000 0.000000 0.019608 0.054902
$0b_y22s2lunarcannon_v_light.bmp
  1 0.259994 -17.414771 2.472545 0.000000 0.000001 1.000000 0.658824 0.023529
  1 0.159994 -17.274771 2.472496 0.000000 0.000001 1.000000 0.698039 0.054902
  1 -0.000006 -17.224771 2.472479 0.000000 0.000001 1.000000 0.717647 0.101961
$0b_y22s2lunarcannon_v_light.bmp
  1 0.259994 -18.884775 2.463052 0.000000 0.000001 1.000000 0.062745 0.023529
  1 -0.000006 -19.074774 2.463118 0.000000 0.000001 1.000000 0.003922 0.101961
  1 0.159994 -19.024774 2.463101 0.000000 0.000001 1.000000 0.019608 0.054902
$0b_y22s2lunarcannon_v_light.bmp
  1 -0.260007 -17.416477 -2.467455 0.000000 0.000001 -1.000000 0.658824 0.023529
  1 -0.160007 -17.276477 -2.467503 0.000000 0.000001 -1.000000 0.698039 0.054902
  1 -0.000007 -17.226477 -2.467521 0.000000 0.000001 -1.000000 0.717647 0.101961
$0b_y22s2lunarcannon_v_light.bmp
  1 -0.260008 -18.876477 -2.466951 0.000000 0.000001 -1.000000 0.062745 0.023529
  1 -0.000008 -19.076477 -2.466882 0.000000 0.000001 -1.000000 0.003922 0.101961
  1 -0.160008 -19.016477 -2.466902 0.000000 0.000001 -1.000000 0.019608 0.054902
$0b_y22s2lunarcannon_v_light.bmp
  4 3.256088 -10.945213 -0.892892 -0.000002 0.000001 -1.000000 0.254902 0.619608
  4 3.346088 -11.205213 -0.892803 -0.000002 0.000001 -1.000000 0.043137 0.686275
  4 3.256088 -11.085213 -0.892844 -0.000002 0.000001 -1.000000 0.137255 0.619608
$0b_y22s2lunarcannon_v_light.bmp
  4 3.626089 -10.814599 0.887062 -0.000001 0.000000 1.000000 0.349020 0.909804
  4 3.716089 -11.084599 0.887156 -0.000001 0.000000 1.000000 0.137255 0.980392
  4 3.716089 -10.944599 0.887107 -0.000001 0.000000 1.000000 0.254902 0.980392
$0b_y22s2lunarcannon_v_light.bmp
  4 3.626089 -10.814599 0.887062 -0.000001 0.000000 1.000000 0.349020 0.909804
  4 3.486089 -10.774599 0.887049 -0.000001 0.000000 1.000000 0.384314 0.800000
  4 3.346089 -10.814599 0.887063 -0.000001 0.000000 1.000000 0.349020 0.686275
$0b_y22s2lunarcannon_v_light.bmp
  4 3.626089 -11.204599 0.887197 -0.000001 0.000000 1.000000 0.043137 0.909804
  4 3.346089 -11.204599 0.887197 -0.000001 0.000000 1.000000 0.043137 0.686275
  4 3.486089 -11.254599 0.887214 -0.000001 0.000000 1.000000 0.003922 0.800000
$0b_y22s2lunarcannon_v_light.bmp
  5 0.889998 -10.944236 3.246736 1.000000 0.000000 0.000000 0.254902 0.619608
  5 0.889998 -11.214205 3.336830 1.000000 0.000000 0.000000 0.043137 0.686275
  5 0.889998 -11.084236 3.246785 1.000000 0.000000 0.000000 0.137255 0.619608
$0b_y22s2lunarcannon_v_light.bmp
  5 -0.890002 -10.814101 3.636692 -1.000000 0.000000 -0.000001 0.349020 0.909804
  5 -0.890002 -11.084070 3.726785 -1.000000 0.000000 -0.000001 0.137255 0.980392
  5 -0.890002 -10.944070 3.726737 -1.000000 0.000000 -0.000001 0.254902 0.980392
$0b_y22s2lunarcannon_v_light.bmp
  5 -0.890002 -10.814101 3.636692 -1.000000 0.000000 -0.000001 0.349020 0.909804
  5 -0.890002 -10.764153 3.486675 -1.000000 0.000000 -0.000001 0.384314 0.800000
  5 -0.890002 -10.814204 3.336692 -1.000000 0.000000 -0.000001 0.349020 0.686275
$0b_y22s2lunarcannon_v_light.bmp
  5 -0.890002 -11.214101 3.636830 -1.000000 0.000000 -0.000001 0.043137 0.909804
  5 -0.890002 -11.214204 3.336830 -1.000000 0.000000 -0.000001 0.043137 0.686275
  5 -0.890002 -11.264152 3.486847 -1.000000 0.000000 -0.000001 0.003922 0.800000
$0b_y22s2lunarcannon_v_light.bmp
  3 -3.236500 -10.938214 0.887109 0.000002 -0.000001 1.000000 0.254902 0.619608
  3 -3.336500 -11.218214 0.887206 0.000002 -0.000001 1.000000 0.043137 0.686275
  3 -3.236500 -11.088214 0.887161 0.000002 -0.000001 1.000000 0.137255 0.619608
$0b_y22s2lunarcannon_v_light.bmp
  3 -3.636501 -10.808828 -0.892935 0.000001 0.000002 -1.000000 0.349020 0.909804
  3 -3.736501 -11.088828 -0.892839 0.000001 0.000002 -1.000000 0.137255 0.980392
  3 -3.736501 -10.938828 -0.892890 0.000001 0.000002 -1.000000 0.254902 0.980392
$0b_y22s2lunarcannon_v_light.bmp
  3 -3.636501 -10.808828 -0.892935 0.000001 0.000002 -1.000000 0.349020 0.909804
  3 -3.486501 -10.758828 -0.892953 0.000001 0.000002 -1.000000 0.384314 0.800000
  3 -3.336501 -10.808828 -0.892935 0.000001 0.000002 -1.000000 0.349020 0.686275
$0b_y22s2lunarcannon_v_light.bmp
  3 -3.636501 -11.218828 -0.892794 0.000001 0.000002 -1.000000 0.043137 0.909804
  3 -3.336501 -11.218828 -0.892794 0.000001 0.000002 -1.000000 0.043137 0.686275
  3 -3.486501 -11.268828 -0.892777 0.000001 0.000002 -1.000000 0.003922 0.800000
$0b_y22s2lunarcannon_v_light.bmp
  2 -0.890006 -10.936478 -3.245692 -1.000000 0.000000 0.000000 0.254902 0.619608
  2 -0.890006 -11.216509 -3.335596 -1.000000 0.000000 0.000000 0.043137 0.686275
  2 -0.890006 -11.086478 -3.245641 -1.000000 0.000000 0.000000 0.137255 0.619608
$0b_y22s2lunarcannon_v_light.bmp
  2 0.889993 -10.806612 -3.635738 1.000000 0.000001 0.000003 0.349020 0.909804
  2 0.889993 -11.086643 -3.725641 1.000000 0.000001 0.000003 0.137255 0.980392
  2 0.889993 -10.936643 -3.725693 1.000000 0.000001 0.000003 0.254902 0.980392
$0b_y22s2lunarcannon_v_light.bmp
  2 0.889993 -10.806612 -3.635738 1.000000 0.000001 0.000003 0.349020 0.909804
  2 0.889993 -10.766560 -3.485752 1.000000 0.000001 0.000003 0.384314 0.800000
  2 0.889993 -10.806508 -3.335738 1.000000 0.000001 0.000003 0.349020 0.686275
$0b_y22s2lunarcannon_v_light.bmp
  2 0.889993 -11.216612 -3.635596 1.000000 0.000001 0.000003 0.043137 0.909804
  2 0.889994 -11.216508 -3.335596 1.000000 0.000001 0.000003 0.043137 0.686275
  2 0.889994 -11.266560 -3.485579 1.000000 0.000001 0.000003 0.003922 0.800000
$0b_y22s2lunarcannon_v_light.bmp
  9 0.290003 -3.659892 2.140000 0.000001 1.000000 0.000000 0.352941 0.968627
  9 0.670002 -3.659892 1.900000 0.000001 1.000000 0.000000 0.474510 0.898039
  9 0.290002 -3.659892 1.930000 0.000001 1.000000 0.000000 0.360784 0.905882
$0b_y22s2lunarcannon_v_light.bmp
  9 -0.289999 -3.659894 -2.170000 0.000001 1.000000 0.000000 0.352941 0.968627
  9 -0.669999 -3.659894 -1.900000 0.000001 1.000000 0.000000 0.474510 0.898039
  9 -0.289999 -3.659894 -1.970000 0.000001 1.000000 0.000000 0.360784 0.905882
$0b_y22s2lunarcannon_v_light.bmp
  0 -2.660002 -6.869999 0.860001 -0.951056 0.000002 0.309018 0.717647 0.101961
  0 -2.600002 -7.019999 1.050001 -0.951056 0.000002 0.309018 0.658824 0.184314
  0 -2.630002 -6.909999 0.980001 -0.951056 0.000002 0.309018 0.698039 0.152941
$0b_y22s2lunarcannon_v_light.bmp
  0 -2.660002 -6.869999 0.860001 -0.951056 0.000002 0.309018 0.717647 0.101961
  0 -2.700002 -6.909999 0.750001 -0.951056 0.000002 0.309018 0.698039 0.054902
  0 -2.730002 -7.019999 0.680001 -0.951056 0.000002 0.309018 0.658824 0.023529
$0b_y22s2lunarcannon_v_light.bmp
  0 -2.660003 -9.009999 0.860001 -0.951056 0.000002 0.309018 0.003922 0.101961
  0 -2.730003 -8.869999 0.680001 -0.951056 0.000002 0.309018 0.062745 0.023529
  0 -2.700003 -8.969999 0.750001 -0.951056 0.000002 0.309018 0.019608 0.054902
$0b_y22s2lunarcannon_v_light.bmp
  0 -1.470000 -4.449999 3.040000 -0.529920 0.000005 0.848047 0.717647 0.101961
  0 -1.390000 -4.520000 3.090000 -0.529920 0.000005 0.848047 0.658824 0.184314
  0 -1.420000 -4.469999 3.070000 -0.529920 0.000005 0.848047 0.698039 0.152941
$0b_y22s2lunarcannon_v_light.bmp
  0 -1.470000 -4.449999 3.040000 -0.529920 0.000005 0.848047 0.717647 0.101961
  0 -1.520000 -4.469999 3.010000 -0.529920 0.000005 0.848047 0.698039 0.054902
  0 -1.550000 -4.519999 2.990000 -0.529920 0.000005 0.848047 0.658824 0.023529
$0b_y22s2lunarcannon_v_light.bmp
  0 -1.470001 -5.270000 3.040000 -0.529920 0.000005 0.848047 0.003922 0.101961
  0 -1.550001 -5.199999 2.990000 -0.529920 0.000005 0.848047 0.062745 0.023529
  0 -1.520001 -5.250000 3.010000 -0.529920 0.000005 0.848047 0.019608 0.054902
$0b_y22s2lunarcannon_v_light.bmp
  0 -2.280002 -8.760000 2.200001 -0.731355 0.000002 0.681997 0.349020 0.909804
  0 -2.180002 -8.959999 2.300001 -0.731355 0.000002 0.681997 0.137255 0.980392
  0 -2.210002 -8.839999 2.270001 -0.731355 0.000002 0.681997 0.254902 0.980392
$0b_y22s2lunarcannon_v_light.bmp
  0 -2.280002 -8.760000 2.200001 -0.731355 0.000002 0.681997 0.349020 0.909804
  0 -2.370002 -8.759999 2.100001 -0.731355 0.000002 0.681997 0.384314 0.800000
  0 -2.440002 -8.839999 2.030001 -0.731355 0.000002 0.681997 0.349020 0.686275
$0b_y22s2lunarcannon_v_light.bmp
  0 -2.210002 -9.079999 2.270001 -0.731355 0.000002 0.681997 0.043137 0.909804
  0 -2.370002 -9.159999 2.100001 -0.731355 0.000002 0.681997 0.043137 0.686275
  0 -2.280002 -9.159999 2.200001 -0.731355 0.000002 0.681997 0.003922 0.800000
$0b_y22s2lunarcannon_v_light.bmp
  0 -2.940001 -5.629999 1.040001 -0.951056 0.000002 0.309018 0.349020 0.909804
  0 -2.920002 -5.719999 1.100001 -0.951056 0.000002 0.309018 0.137255 0.980392
  0 -2.920002 -5.669999 1.080001 -0.951056 0.000002 0.309018 0.254902 0.980392
$0b_y22s2lunarcannon_v_light.bmp
  0 -2.940001 -5.629999 1.040001 -0.951056 0.000002 0.309018 0.349020 0.909804
  0 -2.960001 -5.629999 0.980001 -0.951056 0.000002 0.309018 0.384314 0.800000
  0 -2.980002 -5.669999 0.940001 -0.951056 0.000002 0.309018 0.349020 0.686275
$0b_y22s2lunarcannon_v_light.bmp
  0 -2.920002 -5.779999 1.080001 -0.951056 0.000002 0.309018 0.043137 0.909804
  0 -2.960002 -5.809999 0.980001 -0.951056 0.000002 0.309018 0.043137 0.686275
  0 -2.940002 -5.809999 1.040001 -0.951056 0.000002 0.309018 0.003922 0.800000
$0b_y22s2lunarcannon_v_light.bmp
  0 -2.280001 -6.749999 2.200001 -0.731355 0.000002 0.681997 0.349020 0.909804
  0 -2.180002 -6.949999 2.300001 -0.731355 0.000002 0.681997 0.137255 0.980392
  0 -2.210001 -6.829999 2.270001 -0.731355 0.000002 0.681997 0.254902 0.980392
$0b_y22s2lunarcannon_v_light.bmp
  0 -2.280001 -6.749999 2.200001 -0.731355 0.000002 0.681997 0.349020 0.909804
  0 -2.370001 -6.749999 2.100001 -0.731355 0.000002 0.681997 0.384314 0.800000
  0 -2.440002 -6.829999 2.030001 -0.731355 0.000002 0.681997 0.349020 0.686275
$0b_y22s2lunarcannon_v_light.bmp
  0 -2.210002 -7.069999 2.270001 -0.731355 0.000002 0.681997 0.043137 0.909804
  0 -2.370001 -7.149999 2.100001 -0.731355 0.000002 0.681997 0.043137 0.686275
  0 -2.280002 -7.149999 2.200001 -0.731355 0.000002 0.681997 0.003922 0.800000
$0b_y22s2lunarcannon_v_light.bmp
  0 -2.280001 -4.729999 2.200001 -0.731355 0.000002 0.681997 0.349020 0.909804
  0 -2.180001 -4.929999 2.300001 -0.731355 0.000002 0.681997 0.137255 0.980392
  0 -2.210001 -4.809999 2.270001 -0.731355 0.000002 0.681997 0.254902 0.980392
$0b_y22s2lunarcannon_v_light.bmp
  0 -2.280001 -4.729999 2.200001 -0.731355 0.000002 0.681997 0.349020 0.909804
  0 -2.370001 -4.729999 2.100001 -0.731355 0.000002 0.681997 0.384314 0.800000
  0 -2.440001 -4.809999 2.030001 -0.731355 0.000002 0.681997 0.349020 0.686275
$0b_y22s2lunarcannon_v_light.bmp
  0 -2.210001 -5.049999 2.270001 -0.731355 0.000002 0.681997 0.043137 0.909804
  0 -2.370001 -5.119999 2.100001 -0.731355 0.000002 0.681997 0.043137 0.686275
  0 -2.280001 -5.119999 2.200001 -0.731355 0.000002 0.681997 0.003922 0.800000
$0b_y22s2lunarcannon_v_light.bmp
  0 -2.940001 -4.859999 1.040001 -0.951056 0.000002 0.309018 0.349020 0.909804
  0 -2.920001 -4.949999 1.100001 -0.951056 0.000002 0.309018 0.137255 0.980392
  0 -2.920001 -4.889999 1.080001 -0.951056 0.000002 0.309018 0.254902 0.980392
$0b_y22s2lunarcannon_v_light.bmp
  0 -2.940001 -4.859999 1.040001 -0.951056 0.000002 0.309018 0.349020 0.909804
  0 -2.960001 -4.859999 0.980001 -0.951056 0.000002 0.309018 0.384314 0.800000
  0 -2.980001 -4.889999 0.940001 -0.951056 0.000002 0.309018 0.349020 0.686275
$0b_y22s2lunarcannon_v_light.bmp
  0 -2.920001 -4.999999 1.080001 -0.951056 0.000002 0.309018 0.043137 0.909804
  0 -2.960001 -5.039999 0.980001 -0.951056 0.000002 0.309018 0.043137 0.686275
  0 -2.940001 -5.039999 1.040001 -0.951056 0.000002 0.309018 0.003922 0.800000
$0b_y22s2lunarcannon_v_light.bmp
  0 -2.940001 -4.079999 1.040001 -0.951056 0.000002 0.309018 0.349020 0.909804
  0 -2.920001 -4.169999 1.100001 -0.951056 0.000002 0.309018 0.137255 0.980392
  0 -2.920001 -4.119999 1.080001 -0.951056 0.000002 0.309018 0.254902 0.980392
$0b_y22s2lunarcannon_v_light.bmp
  0 -2.940001 -4.079999 1.040001 -0.951056 0.000002 0.309018 0.349020 0.909804
  0 -2.960001 -4.079999 0.980001 -0.951056 0.000002 0.309018 0.384314 0.800000
  0 -2.980001 -4.119999 0.940001 -0.951056 0.000002 0.309018 0.349020 0.686275
$0b_y22s2lunarcannon_v_light.bmp
  0 -2.920001 -4.229999 1.080001 -0.951056 0.000002 0.309018 0.043137 0.909804
  0 -2.960001 -4.269999 0.980001 -0.951056 0.000002 0.309018 0.043137 0.686275
  0 -2.940001 -4.269999 1.040001 -0.951056 0.000002 0.309018 0.003922 0.800000
$0b_y22s2lunarcannon_v_light.bmp
  7 1.059999 -9.212899 3.698198 0.000000 1.000000 0.000000 0.698039 0.200000
  7 2.259999 -9.212900 3.118196 0.000000 1.000000 0.000000 0.980392 0.062745
  7 2.189998 -9.212900 2.918196 0.000000 1.000000 0.000000 0.964706 0.011765
end
