// Created by Crowbar 0.68

$modelname "weapons/tfa_cso/c_lunarcannon.mdl"

$include "csonline_gmod.qci"

$bodygroup "weapon"
{
	studio "v_ref1"
}
$bodygroup "weapon"
{
	studio "v_ref2"
}
$bodygroup "weapon"
{
	studio "v_ref3"
}
$bodygroup "weapon"
{
	studio "v_ref_light"
}

$cdmaterials "models/weapons/tfa_cso/lunarcannon"

$attachment 0 "head" 7 0 0
//$attachment 1 "root_y22s2gatlingexm" 0 -3 10


$sequence "idle" {
	"v_y22s2lunarcannon_anims\idle"
	fps 30
	loop
	activity "ACT_VM_IDLE" 1
	snap
}
$sequence "shoot1" {
	"v_y22s2lunarcannon_anims\shoot1"
	{ event 5001 0 "#I238 S0.15 R1 F0 P30 T999 A1 L0 O0 X0" }
	fps 30
	activity "ACT_VM_PRIMARYATTACK" 1
	snap
}
$sequence "shoot2" {
	"v_y22s2lunarcannon_anims\shoot2"
	{ event 5001 0 "#I238 S0.14 R1 F0 P30 T999 A1 L0 O0 X0" }
	fps 30
	activity "ACT_VM_PRIMARYATTACK" 1
	snap
}
$sequence "reload" {
	"v_y22s2lunarcannon_anims\reload"
	{ event 5004 1 "LunarCannon.ClipOut1" }
	{ event 5004 43 "LunarCannon.ClipOut2" }
	{ event 5004 79 "LunarCannon.ClipIn1" }
	{ event 5004 101 "LunarCannon.ClipIn2" }
	{ event 5004 133 "LunarCannon.Boltpull" }
	fps 30
	activity "ACT_VM_RELOAD" 1
	snap
}
$sequence "draw" {
	"v_y22s2lunarcannon_anims\draw"
	{ event 5004 3 "LunarCannon.Draw" }
	fps 30
	activity "ACT_VM_DRAW" 1
	snap
}
$sequence "shoot_moon" {
	"v_y22s2lunarcannon_anims\shoot_moon"
	{ event 5001 0 "#I239 S0.4 R0 F0 P30 T999 A1 L0 O0 X0" }
	fps 30
	activity "ACT_VM_SECONDARYATTACK" 1
	snap
}
