version 1
nodes
  0 "pistol_root" -1
  1 "pistol_body" 0
  2 "reload" 1
  3 "roller" 1
  4 "triger" 1
  5 "R_stick" 1
  6 "M_pipe" 1
  7 "megazin" 6
  8 "bullet" 7
  9 "root" -1
  10 "Bone01" 9
  11 "Bone_L_Upper" 10
  12 "Bone_Lefthand" 10
  13 "Bone13" 12
  14 "Bone14" 13
  15 "Bone15" 14
  16 "Bone17" 12
  17 "Bone18" 16
  18 "Bone19" 17
  19 "Bone21" 12
  20 "Bone22" 19
  21 "Bone23" 20
  22 "Bone09" 12
  23 "Bone10" 22
  24 "Bone11" 23
  25 "Bone05" 12
  26 "Bone06" 25
  27 "Bone07" 26
  28 "Bone_Se_Hand-L" 12
  29 "Bone04" 9
  30 "Bone_Righthand" 29
  31 "Bone39" 30
  32 "Bone40" 31
  33 "Bone41" 32
  34 "Bone35" 30
  35 "Bone36" 34
  36 "Bone37" 35
  37 "Bone31" 30
  38 "Bone32" 37
  39 "Bone33" 38
  40 "Bone43" 30
  41 "Bone44" 40
  42 "Bone45" 41
  43 "Bone27" 30
  44 "Bone28" 43
  45 "Bone29" 44
  46 "Bone_Se_Hand-R" 30
  47 "Bone_R_Upper" 29
end
skeleton
  time 0
    0 5.410321 -10.019837 -4.078249 -1.453868 -1.519474 -3.355815
    1 1.582369 0.000001 1.434247 0.000000 0.000000 0.000000
    2 -0.135354 -0.000002 -4.511380 0.000000 0.872664 0.000000
    3 0.349163 0.565490 -3.526729 1.570796 0.000000 1.570796
    4 -1.667495 -0.000001 -2.433468 -0.000001 -1.570796 0.000000
    5 1.615030 0.000001 -1.639934 0.000000 0.000000 0.000000
    6 -1.517956 0.000000 1.203503 0.000000 0.000000 0.000000
    7 1.517956 0.000000 -0.122468 -0.000001 1.570796 0.000000
    8 2.374435 0.000000 -0.000001 0.000000 0.000000 0.000000
    9 2.497324 4.323086 -0.003287 0.000000 0.000000 -0.087311
    10 4.888093 -0.436184 -5.088981 0.482456 -1.675633 -0.470042
    11 7.569873 3.559301 -0.325593 1.565883 -3.123270 0.522324
    12 -0.095359 -8.444047 -0.131479 -0.022467 0.123881 -0.117609
    13 -0.488518 -2.755602 -0.228260 -1.012917 -0.027455 -0.375635
    14 0.039887 -1.534479 0.014229 -1.560820 -0.011313 0.034888
    15 0.028786 -1.169484 -0.128581 -1.099051 -0.015172 0.023622
    16 0.250027 -2.820665 -0.238396 -0.660699 -0.075727 -0.247692
    17 -0.049759 -1.598510 0.037977 -1.484984 0.001702 -0.040186
    18 -0.034142 -1.175657 0.045718 -1.265289 0.005465 -0.033401
    19 0.957766 -2.746780 -0.090302 -0.143287 -0.192850 0.066846
    20 -0.033420 -1.393223 -0.019070 -0.492238 0.008245 -0.023910
    21 -0.022360 -0.957436 0.007065 -0.473017 0.007802 -0.022555
    22 -1.180681 -2.507217 -0.193859 -0.872301 0.201272 -0.411077
    23 -0.024967 -1.127840 0.017597 -1.281913 -0.002649 -0.053846
    24 -0.020057 -0.906594 0.029622 -0.919408 0.006484 -0.037428
    25 0.626480 -1.197277 0.185379 0.820553 -1.032445 -0.878010
    26 1.481238 -0.208511 0.067511 0.044759 -0.208987 -0.741725
    27 1.065614 -0.132196 0.032291 0.041619 -0.192379 -0.784517
    28 0.120153 -0.050270 -0.054489 0.287569 3.110905 1.561085
    29 -3.837284 -3.973409 -8.251535 -2.226600 -4.852989 -1.419338
    30 -0.090562 -8.485576 0.057043 0.266365 -1.085839 -0.117387
    31 0.447953 -2.798986 -0.200443 -0.854253 0.007833 0.252378
    32 -0.032909 -1.495829 0.016659 -0.948515 0.019918 -0.014439
    33 -0.027022 -1.080826 -0.024116 -0.191942 0.005381 -0.001210
    34 -0.249534 -2.846964 -0.174213 -0.655860 0.041929 0.076311
    35 0.043235 -1.660503 0.084293 -0.936792 -0.015358 0.000852
    36 0.031729 -1.153017 0.058838 -0.444961 -0.003900 0.005867
    37 -0.963866 -2.785145 -0.085350 -0.710521 0.178583 -0.282454
    38 0.028479 -1.403067 -0.009354 -0.577666 -0.011313 -0.023825
    39 0.021413 -0.953875 0.020046 -0.252060 -0.003284 -0.011062
    40 1.164475 -2.543940 -0.170330 -0.953115 -0.183439 0.410106
    41 0.024032 -1.132948 0.002182 -0.738275 0.003164 0.039502
    42 0.014898 -0.903521 -0.015942 -1.007684 0.008941 0.050491
    43 -0.586770 -1.264477 0.200161 0.043111 -0.358024 -2.590196
    44 1.550180 0.039149 0.016848 -0.010934 -0.004102 0.597022
    45 1.114041 0.044518 -0.005766 -0.028287 -0.034438 1.020160
    46 -0.139399 -0.111698 0.014397 0.285382 -0.030687 1.580508
    47 -8.003047 2.682739 -0.454283 1.571852 -0.032951 -0.405731
  time 1
    0 5.445479 -10.316721 -4.328257 0.985159 -1.631225 0.494128
    1 1.582369 0.000001 1.434247 0.000000 0.000000 0.000000
    2 -0.135354 -0.000002 -4.511380 0.000000 0.000000 0.000000
    3 0.349163 0.565490 -3.526729 1.570796 0.000000 1.570796
    4 -1.667495 -0.000001 -2.874888 -0.000001 -1.570796 0.000000
    5 1.615030 0.000001 1.325000 0.000000 0.000000 0.000000
    6 -1.517956 0.000000 1.203503 0.000000 0.000000 0.000000
    7 1.517956 0.000000 -0.122468 -1.256600 1.570796 0.000000
    8 2.374435 0.000000 -0.000001 0.000000 0.000000 0.000000
    9 2.497324 4.323086 -0.003287 0.000000 0.000000 -0.087311
    10 4.895906 -0.701817 -4.995228 0.326014 -1.669002 -0.312123
    11 7.362835 4.067129 -0.317781 1.565595 -3.124611 0.589448
    12 -0.091453 -8.440141 -0.131479 -0.019976 0.123996 -0.139807
    13 -0.488518 -2.755602 -0.228260 -1.012917 -0.027455 -0.375635
    14 0.039887 -1.534479 0.014229 -1.560820 -0.011313 0.034888
    15 0.028786 -1.169484 -0.128581 -1.099051 -0.015172 0.023622
    16 0.250027 -2.820665 -0.238396 -0.660590 -0.075811 -0.248734
    17 -0.049759 -1.598510 0.037977 -1.484984 0.001702 -0.040186
    18 -0.034142 -1.175657 0.045718 -1.265289 0.005465 -0.033401
    19 0.957766 -2.746780 -0.090302 -0.143287 -0.192850 0.066846
    20 -0.033420 -1.393223 -0.019070 -0.492238 0.008245 -0.023910
    21 -0.022360 -0.957436 0.007065 -0.473017 0.007802 -0.022555
    22 -1.180681 -2.507217 -0.193859 -0.872301 0.201272 -0.411077
    23 -0.024967 -1.127840 0.017597 -1.281913 -0.002649 -0.053846
    24 -0.020057 -0.906594 0.029622 -0.919408 0.006484 -0.037428
    25 0.626480 -1.197277 0.185379 0.820553 -1.032445 -0.878010
    26 1.481238 -0.208511 0.067511 0.044759 -0.208987 -0.741725
    27 1.065614 -0.132196 0.032291 0.041619 -0.192379 -0.784517
    28 0.120153 -0.050270 -0.054489 0.287569 3.110905 1.561085
    29 -3.766969 -4.098413 -8.216378 -2.313731 -4.843985 -1.514903
    30 -0.102281 -8.481669 0.057043 0.243888 -1.119300 -0.084784
    31 0.447953 -2.798986 -0.200443 -0.854253 0.007833 0.252378
    32 -0.032909 -1.495829 0.016659 -0.948515 0.019918 -0.014439
    33 -0.027022 -1.080826 -0.024116 -0.191942 0.005381 -0.001210
    34 -0.249534 -2.846964 -0.174213 -0.655860 0.041929 0.076311
    35 0.043235 -1.660503 0.084293 -0.936792 -0.015358 0.000852
    36 0.031729 -1.153017 0.058838 -0.444961 -0.003900 0.005867
    37 -0.963866 -2.785145 -0.085350 -0.710521 0.178583 -0.282454
    38 0.028479 -1.403067 -0.009354 -0.577666 -0.011313 -0.023825
    39 0.021413 -0.953875 0.020046 -0.252060 -0.003284 -0.011062
    40 1.164475 -2.543940 -0.170330 -0.953115 -0.183439 0.410106
    41 0.024032 -1.132948 0.002182 -0.738275 0.003164 0.039502
    42 0.014898 -0.903521 -0.015942 -1.007684 0.008941 0.050491
    43 -0.586770 -1.264477 0.200161 0.043111 -0.358024 -2.590196
    44 1.550180 0.039149 0.016848 -0.010934 -0.004102 0.597022
    45 1.114041 0.044518 -0.005766 -0.028287 -0.034438 1.020160
    46 -0.139399 -0.111698 0.014397 0.285382 -0.030687 1.580508
    47 -7.917107 3.003062 -0.446471 1.572678 -0.032260 -0.446100
  time 2
    0 5.449385 -10.453444 -4.504044 0.675160 -1.681876 0.806197
    1 1.582369 0.000001 1.434247 0.000000 0.000000 0.000000
    2 -0.135354 -0.000002 -4.511380 0.000000 0.000000 0.000000
    3 0.349163 0.565490 -3.526729 1.570796 0.000000 1.570796
    4 -1.667495 -0.000001 -2.874888 -0.000001 -1.570796 0.000000
    5 1.615030 0.000001 1.325000 0.000000 0.000000 0.000000
    6 -1.517956 0.000000 1.203503 0.000000 0.000000 0.000000
    7 1.517956 0.000000 -0.122468 -1.256600 1.570796 0.000000
    8 2.374435 0.000000 -0.000001 0.000000 0.000000 0.000000
    9 2.497324 4.323086 -0.003287 0.000000 0.000000 -0.087311
    10 4.895906 -0.826821 -4.940539 0.268961 -1.667437 -0.254368
    11 7.261269 4.285886 -0.309968 1.565403 -3.125281 0.619111
    12 -0.095359 -8.436234 -0.135385 -0.019006 0.102875 -0.164058
    13 -0.488518 -2.755602 -0.228260 -1.012917 -0.027455 -0.375635
    14 0.039887 -1.534479 0.014229 -1.560820 -0.011313 0.034888
    15 0.028786 -1.169484 -0.128581 -1.099051 -0.015172 0.023622
    16 0.250027 -2.820665 -0.238396 -0.660590 -0.075823 -0.248794
    17 -0.049759 -1.598510 0.037977 -1.484984 0.001702 -0.040186
    18 -0.034142 -1.175657 0.045718 -1.265289 0.005465 -0.033401
    19 0.957766 -2.746780 -0.090302 -0.143287 -0.192850 0.066846
    20 -0.033420 -1.393223 -0.022976 -0.644177 0.008269 -0.031580
    21 -0.022360 -0.957436 0.003159 -0.683165 0.007682 -0.033149
    22 -1.180681 -2.507217 -0.193859 -0.872301 0.201272 -0.411077
    23 -0.024967 -1.127840 0.017597 -1.281913 -0.002649 -0.053846
    24 -0.020057 -0.906594 0.029622 -0.919408 0.006484 -0.037428
    25 0.626480 -1.197277 0.185379 0.820553 -1.032445 -0.878010
    26 1.481238 -0.208511 0.067511 0.044759 -0.208987 -0.741725
    27 1.065614 -0.132196 0.032291 0.041619 -0.192379 -0.784517
    28 0.120153 -0.050270 -0.054489 0.287569 3.110905 1.561085
    29 -3.708374 -4.141383 -8.196846 0.767272 -4.589591 1.567565
    30 -0.110094 -8.485576 0.053137 0.260455 -1.152529 -0.103395
    31 0.447953 -2.798986 -0.200443 -0.854253 0.007833 0.252378
    32 -0.032909 -1.495829 0.016659 -0.948515 0.019918 -0.014439
    33 -0.027022 -1.080826 -0.024116 -0.191942 0.005381 -0.001210
    34 -0.249534 -2.846964 -0.174213 -0.655860 0.041929 0.076311
    35 0.043235 -1.660503 0.084293 -0.936792 -0.015358 0.000852
    36 0.031729 -1.153017 0.058838 -0.444961 -0.003900 0.005867
    37 -0.963866 -2.785145 -0.085350 -0.710521 0.178583 -0.282454
    38 0.028479 -1.403067 -0.009354 -0.577666 -0.011313 -0.023825
    39 0.021413 -0.953875 0.020046 -0.252060 -0.003284 -0.011062
    40 1.164475 -2.543940 -0.170330 -0.953115 -0.183439 0.410106
    41 0.024032 -1.132948 0.002182 -0.738275 0.003164 0.039502
    42 0.014898 -0.903521 -0.015942 -1.007684 0.008941 0.050491
    43 -0.586770 -1.264477 0.200161 0.043111 -0.358024 -2.590196
    44 1.550180 0.039149 0.016848 -0.010934 -0.004102 0.597022
    45 1.114041 0.044518 -0.005766 -0.028287 -0.034438 1.020160
    46 -0.139399 -0.111698 0.014397 0.285382 -0.030687 1.580508
    47 -7.858511 3.198380 -0.446471 1.573170 -0.031813 -0.471044
  time 3
    0 5.453291 -10.496414 -4.660298 0.593808 -1.732880 0.889480
    1 1.582369 0.000001 1.434247 0.000000 0.000000 0.000000
    2 -0.135354 -0.000002 -4.511380 0.000000 0.000000 0.000000
    3 0.349163 0.565490 -3.526729 1.570796 0.000000 1.570796
    4 -1.667495 -0.000001 -2.874888 -0.000001 -1.570796 0.000000
    5 1.615030 0.000001 1.325000 0.000000 0.000000 0.000000
    6 -1.517956 0.000000 1.203503 0.000000 0.000000 0.000000
    7 1.517956 0.000000 -0.122468 -1.256600 1.570796 0.000000
    8 2.374435 0.000000 -0.000001 0.000000 0.000000 0.000000
    9 2.497324 4.323086 -0.003287 0.000000 0.000000 -0.087311
    10 4.895906 -0.869791 -4.924913 0.245738 -1.666841 -0.230828
    11 7.226112 4.360107 -0.309968 1.565403 -3.125472 0.629160
    12 -0.095359 -8.432328 -0.139291 -0.017374 0.082903 -0.187058
    13 -0.488518 -2.755602 -0.228260 -1.012917 -0.027455 -0.375635
    14 0.039887 -1.534479 0.014229 -1.560820 -0.011313 0.034888
    15 0.028786 -1.169484 -0.128581 -1.099051 -0.015172 0.023622
    16 0.250027 -2.820665 -0.238396 -0.660590 -0.075811 -0.248698
    17 -0.049759 -1.598510 0.037977 -1.484984 0.001702 -0.040186
    18 -0.034142 -1.175657 0.045718 -1.265289 0.005465 -0.033401
    19 0.957766 -2.746780 -0.090302 -0.143287 -0.192850 0.066846
    20 -0.033420 -1.393223 -0.022976 -0.788951 0.007215 -0.038819
    21 -0.022360 -0.961342 -0.004654 -0.883368 0.005525 -0.043013
    22 -1.180681 -2.507217 -0.193859 -0.872301 0.201272 -0.411077
    23 -0.024967 -1.127840 0.017597 -1.281913 -0.002649 -0.053846
    24 -0.020057 -0.906594 0.029622 -0.919408 0.006484 -0.037428
    25 0.626480 -1.197277 0.185379 0.820553 -1.032445 -0.878010
    26 1.481238 -0.208511 0.067511 0.044759 -0.208987 -0.741725
    27 1.065614 -0.132196 0.032291 0.041619 -0.192379 -0.784517
    28 0.120153 -0.050270 -0.054489 0.287569 3.110905 1.561085
    29 -3.677123 -4.133570 -8.200752 0.725757 -4.597193 1.531214
    30 -0.117906 -8.485576 0.053137 0.287390 -1.178687 -0.130322
    31 0.447953 -2.798986 -0.200443 -0.854253 0.007833 0.252378
    32 -0.032909 -1.495829 0.016659 -0.948515 0.019918 -0.014439
    33 -0.027022 -1.080826 -0.024116 -0.191942 0.005381 -0.001210
    34 -0.249534 -2.846964 -0.174213 -0.655860 0.041929 0.076311
    35 0.043235 -1.660503 0.084293 -0.936792 -0.015358 0.000852
    36 0.031729 -1.153017 0.058838 -0.444961 -0.003900 0.005867
    37 -0.963866 -2.785145 -0.085350 -0.710521 0.178583 -0.282454
    38 0.028479 -1.403067 -0.009354 -0.577666 -0.011313 -0.023825
    39 0.021413 -0.953875 0.020046 -0.252060 -0.003284 -0.011062
    40 1.164475 -2.543940 -0.170330 -0.953115 -0.183439 0.410106
    41 0.024032 -1.132948 0.002182 -0.738275 0.003164 0.039502
    42 0.014898 -0.903521 -0.015942 -1.007684 0.008941 0.050491
    43 -0.586770 -1.264477 0.200161 0.043111 -0.358024 -2.590196
    44 1.550180 0.039149 0.016848 -0.010934 -0.004102 0.597022
    45 1.114041 0.044518 -0.005766 -0.028287 -0.034438 1.020160
    46 -0.139399 -0.111698 0.014397 0.285382 -0.030687 1.580508
    47 -7.831167 3.288226 -0.442564 1.573398 -0.031610 -0.482398
  time 4
    0 5.472823 -10.394848 -4.824366 0.555908 -1.751729 0.930259
    1 1.582369 0.000001 1.434247 0.000000 0.000000 0.000000
    2 -0.135354 -0.000002 -4.511380 0.000000 0.000000 0.000000
    3 0.349163 0.565490 -3.526729 1.570796 0.000000 1.570796
    4 -1.667495 -0.000001 -2.874888 -0.000001 -1.570796 0.000000
    5 1.615030 0.000001 1.325000 0.000000 0.000000 0.000000
    6 -1.517956 0.000000 1.203503 0.000000 0.000000 0.000000
    7 1.517956 0.000000 -0.122468 -1.256600 1.570796 0.000000
    8 2.374435 0.000000 -0.000001 0.000000 0.000000 0.000000
    9 2.497324 4.323086 -0.003287 0.000000 0.000000 -0.087311
    10 4.895906 -0.764319 -4.971790 0.238284 -1.666394 -0.224157
    11 7.296427 4.215571 -0.313874 1.565499 -3.125089 0.609786
    12 -0.095359 -8.428422 -0.139291 -0.014222 0.077996 -0.205907
    13 -0.488518 -2.755602 -0.228260 -1.012917 -0.027455 -0.375635
    14 0.039887 -1.534479 0.014229 -1.560820 -0.011313 0.034888
    15 0.028786 -1.169484 -0.128581 -1.099051 -0.015172 0.023622
    16 0.250027 -2.820665 -0.238396 -0.660590 -0.075811 -0.248698
    17 -0.049759 -1.598510 0.037977 -1.484984 0.001702 -0.040186
    18 -0.034142 -1.175657 0.045718 -1.265289 0.005465 -0.033401
    19 0.957766 -2.746780 -0.090302 -0.143287 -0.192850 0.066846
    20 -0.033420 -1.397129 -0.026882 -0.829049 0.006735 -0.040785
    21 -0.022360 -0.961342 -0.004654 -0.938810 0.004578 -0.045649
    22 -1.180681 -2.507217 -0.193859 -0.872301 0.201272 -0.411077
    23 -0.024967 -1.127840 0.017597 -1.281913 -0.002649 -0.053846
    24 -0.020057 -0.906594 0.029622 -0.919408 0.006484 -0.037428
    25 0.626480 -1.197277 0.185379 0.820553 -1.032445 -0.878010
    26 1.481238 -0.208511 0.067511 0.044759 -0.208987 -0.741725
    27 1.065614 -0.132196 0.032291 0.041619 -0.192379 -0.784517
    28 0.120153 -0.050270 -0.054489 0.287569 3.110905 1.561085
    29 -3.723999 -4.032004 -8.239816 0.719021 -4.602949 1.533606
    30 -0.117906 -8.489482 0.053137 0.310013 -1.188438 -0.142532
    31 0.447953 -2.798986 -0.200443 -0.854253 0.007833 0.252378
    32 -0.032909 -1.495829 0.016659 -0.948515 0.019918 -0.014439
    33 -0.027022 -1.080826 -0.024116 -0.191942 0.005381 -0.001210
    34 -0.249534 -2.846964 -0.174213 -0.655860 0.041929 0.076311
    35 0.043235 -1.660503 0.084293 -0.936792 -0.015358 0.000852
    36 0.031729 -1.153017 0.058838 -0.444961 -0.003900 0.005867
    37 -0.963866 -2.785145 -0.085350 -0.710521 0.178583 -0.282454
    38 0.028479 -1.403067 -0.009354 -0.577666 -0.011313 -0.023825
    39 0.021413 -0.953875 0.020046 -0.252060 -0.003284 -0.011062
    40 1.164475 -2.543940 -0.170330 -0.953115 -0.183439 0.410106
    41 0.024032 -1.132948 0.002182 -0.738275 0.003164 0.039502
    42 0.014898 -0.903521 -0.015942 -1.007684 0.008941 0.050491
    43 -0.586770 -1.264477 0.200161 0.043111 -0.358024 -2.590196
    44 1.550180 0.039149 0.016848 -0.010934 -0.004102 0.597022
    45 1.114041 0.044518 -0.005766 -0.028287 -0.034438 1.020160
    46 -0.139399 -0.111698 0.014397 0.285382 -0.030687 1.580508
    47 -7.866324 3.171035 -0.446471 1.573098 -0.031881 -0.467431
  time 5
    0 5.492355 -10.234687 -4.941557 0.519156 -1.762247 0.970178
    1 1.582369 0.000001 1.434247 0.000000 0.000000 0.000000
    2 -0.135354 -0.000002 -4.511380 0.000000 0.000000 0.000000
    3 0.349163 0.565490 -3.526729 1.570796 0.000000 1.570796
    4 -1.667495 -0.000001 -2.874888 -0.000001 -1.570796 0.000000
    5 1.615030 0.000001 1.325000 0.000000 0.000000 0.000000
    6 -1.517956 0.000000 1.203503 0.000000 0.000000 0.000000
    7 1.517956 0.000000 -0.122468 -1.256600 1.570796 0.000000
    8 2.374435 0.000000 -0.000001 0.000000 0.000000 0.000000
    9 2.497324 4.323086 -0.003287 0.000000 0.000000 -0.087311
    10 4.892000 -0.600252 -5.042104 0.267718 -1.666767 -0.254463
    11 7.409711 3.961657 -0.317781 1.565595 -3.124323 0.575541
    12 -0.095359 -8.428422 -0.139291 -0.010827 0.078627 -0.222491
    13 -0.488518 -2.755602 -0.228260 -1.012917 -0.027455 -0.375635
    14 0.039887 -1.534479 0.014229 -1.560820 -0.011313 0.034888
    15 0.028786 -1.169484 -0.128581 -1.099051 -0.015172 0.023622
    16 0.250027 -2.820665 -0.238396 -0.660590 -0.075811 -0.248698
    17 -0.049759 -1.598510 0.037977 -1.484984 0.001702 -0.040186
    18 -0.034142 -1.175657 0.045718 -1.265289 0.005465 -0.033401
    19 0.957766 -2.746780 -0.090302 -0.143287 -0.192850 0.066846
    20 -0.033420 -1.397129 -0.026882 -0.830492 0.006723 -0.040856
    21 -0.022360 -0.961342 -0.004654 -0.940786 0.004542 -0.045745
    22 -1.180681 -2.507217 -0.193859 -0.872301 0.201272 -0.411077
    23 -0.024967 -1.127840 0.017597 -1.281913 -0.002649 -0.053846
    24 -0.020057 -0.906594 0.029622 -0.919408 0.006484 -0.037428
    25 0.626480 -1.197277 0.185379 0.820553 -1.032445 -0.878010
    26 1.481238 -0.208511 0.067511 0.044759 -0.208987 -0.741725
    27 1.065614 -0.132196 0.032291 0.041619 -0.192379 -0.784517
    28 0.120153 -0.050270 -0.054489 0.287569 3.110905 1.561085
    29 -3.794314 -3.899188 -8.290599 -2.394273 -4.818524 -1.569334
    30 -0.121813 -8.489482 0.053137 0.329584 -1.189917 -0.148273
    31 0.447953 -2.798986 -0.200443 -0.854253 0.007833 0.252378
    32 -0.032909 -1.495829 0.016659 -0.948515 0.019918 -0.014439
    33 -0.027022 -1.080826 -0.024116 -0.191942 0.005381 -0.001210
    34 -0.249534 -2.846964 -0.174213 -0.655860 0.041929 0.076311
    35 0.043235 -1.660503 0.084293 -0.936792 -0.015358 0.000852
    36 0.031729 -1.153017 0.058838 -0.444961 -0.003900 0.005867
    37 -0.963866 -2.785145 -0.085350 -0.710521 0.178583 -0.282454
    38 0.028479 -1.403067 -0.009354 -0.577666 -0.011313 -0.023825
    39 0.021413 -0.953875 0.020046 -0.252060 -0.003284 -0.011062
    40 1.164475 -2.543940 -0.170330 -0.953115 -0.183439 0.410106
    41 0.024032 -1.132948 0.002182 -0.738275 0.003164 0.039502
    42 0.014898 -0.903521 -0.015942 -1.007684 0.008941 0.050491
    43 -0.586770 -1.264477 0.200161 0.043111 -0.358024 -2.590196
    44 1.550180 0.039149 0.016848 -0.010934 -0.004102 0.597022
    45 1.114041 0.044518 -0.005766 -0.028287 -0.034438 1.020160
    46 -0.139399 -0.111698 0.014397 0.285382 -0.030687 1.580508
    47 -7.928826 2.960091 -0.450377 1.572571 -0.032355 -0.440882
  time 6
    0 5.511887 -10.066713 -4.949370 0.505469 -1.765671 0.987121
    1 1.582369 0.000001 1.434247 0.000000 0.000000 0.000000
    2 -0.135354 -0.000002 -4.511380 0.000000 0.000000 0.000000
    3 0.349163 0.565490 -3.526729 1.570796 0.000000 1.570796
    4 -1.667495 -0.000001 -2.867075 -0.000001 -1.570796 0.000000
    5 1.615030 0.000001 1.325000 0.000000 0.000000 0.000000
    6 -1.517956 0.000000 1.203503 0.000000 0.000000 0.000000
    7 1.517956 0.000000 -0.122468 -1.256600 1.570796 0.000000
    8 2.374435 0.000000 -0.000001 0.000000 0.000000 0.000000
    9 2.497324 4.323086 -0.003287 0.000000 0.000000 -0.087311
    10 4.888093 -0.432278 -5.104606 0.365005 -1.669822 -0.352627
    11 7.538622 3.649147 -0.325593 1.565883 -3.123462 0.534060
    12 -0.091453 -8.424515 -0.139291 -0.007432 0.079632 -0.238886
    13 -0.488518 -2.755602 -0.228260 -1.012917 -0.027455 -0.375635
    14 0.039887 -1.534479 0.014229 -1.560820 -0.011313 0.034888
    15 0.028786 -1.169484 -0.128581 -1.099051 -0.015172 0.023622
    16 0.250027 -2.820665 -0.238396 -0.660590 -0.075811 -0.248698
    17 -0.049759 -1.598510 0.037977 -1.484984 0.001702 -0.040186
    18 -0.034142 -1.175657 0.045718 -1.265289 0.005465 -0.033401
    19 0.957766 -2.746780 -0.090302 -0.143287 -0.192850 0.066846
    20 -0.033420 -1.397129 -0.026882 -0.829384 0.006735 -0.040797
    21 -0.022360 -0.961342 -0.004654 -0.939266 0.004578 -0.045673
    22 -1.180681 -2.507217 -0.193859 -0.872301 0.201272 -0.411077
    23 -0.024967 -1.127840 0.017597 -1.281913 -0.002649 -0.053846
    24 -0.020057 -0.906594 0.029622 -0.919408 0.006484 -0.037428
    25 0.626480 -1.197277 0.185379 0.820553 -1.032445 -0.878010
    26 1.481238 -0.208511 0.067511 0.044759 -0.208987 -0.741725
    27 1.065614 -0.132196 0.032291 0.041619 -0.192379 -0.784517
    28 0.120153 -0.050270 -0.054489 0.287569 3.110905 1.561085
    29 -3.856816 -3.781997 -8.325756 -2.320394 -4.820664 -1.486109
    30 -0.121813 -8.493389 0.053137 0.343971 -1.187514 -0.147944
    31 0.447953 -2.798986 -0.200443 -0.854253 0.007833 0.252378
    32 -0.032909 -1.495829 0.016659 -0.948515 0.019918 -0.014439
    33 -0.027022 -1.080826 -0.024116 -0.191942 0.005381 -0.001210
    34 -0.249534 -2.846964 -0.174213 -0.655860 0.041929 0.076311
    35 0.043235 -1.660503 0.084293 -0.936792 -0.015358 0.000852
    36 0.031729 -1.153017 0.058838 -0.444961 -0.003900 0.005867
    37 -0.963866 -2.785145 -0.085350 -0.710521 0.178583 -0.282454
    38 0.028479 -1.403067 -0.009354 -0.577666 -0.011313 -0.023825
    39 0.021413 -0.953875 0.020046 -0.252060 -0.003284 -0.011062
    40 1.164475 -2.543940 -0.170330 -0.953115 -0.183439 0.410106
    41 0.024032 -1.132948 0.002182 -0.738275 0.003164 0.039502
    42 0.014898 -0.903521 -0.015942 -1.007684 0.008941 0.050491
    43 -0.586770 -1.264477 0.200161 0.043111 -0.358024 -2.590196
    44 1.550180 0.039149 0.016848 -0.010934 -0.004102 0.597022
    45 1.114041 0.044518 -0.005766 -0.028287 -0.034438 1.020160
    46 -0.139399 -0.111698 0.014397 0.285382 -0.030687 1.580508
    47 -7.995234 2.717897 -0.450377 1.571947 -0.032870 -0.410491
  time 7
    0 5.527512 -9.918271 -4.906400 0.501737 -1.763306 0.993248
    1 1.582369 0.000001 1.434247 0.000000 0.000000 0.000000
    2 -0.135354 -0.000002 -4.511380 0.000000 0.000000 0.000000
    3 0.349163 0.565490 -3.526729 1.570796 0.000000 1.570796
    4 -1.667495 -0.000001 -2.859262 -0.000001 -1.570796 0.000000
    5 1.615030 0.000001 1.325000 0.000000 0.000000 0.000000
    6 -1.517956 0.000000 1.203503 0.000000 0.000000 0.000000
    7 1.517956 0.000000 -0.122468 -1.256600 1.570796 0.000000
    8 2.374435 0.000000 -0.000001 0.000000 0.000000 0.000000
    9 2.497324 4.323086 -0.003287 0.000000 0.000000 -0.087311
    10 4.884187 -0.283836 -5.147576 0.464298 -1.674218 -0.452602
    11 7.644094 3.360076 -0.329500 1.566074 -3.122696 0.496278
    12 -0.091453 -8.424515 -0.139291 -0.005139 0.081698 -0.251365
    13 -0.488518 -2.755602 -0.228260 -1.012917 -0.027455 -0.375635
    14 0.039887 -1.534479 0.014229 -1.560820 -0.011313 0.034888
    15 0.028786 -1.169484 -0.128581 -1.099051 -0.015172 0.023622
    16 0.250027 -2.820665 -0.238396 -0.660590 -0.075811 -0.248710
    17 -0.049759 -1.598510 0.037977 -1.484984 0.001702 -0.040186
    18 -0.034142 -1.175657 0.045718 -1.265289 0.005465 -0.033401
    19 0.957766 -2.746780 -0.090302 -0.143287 -0.192850 0.066846
    20 -0.033420 -1.397129 -0.026882 -0.817762 0.006879 -0.040233
    21 -0.022360 -0.961342 -0.004654 -0.923208 0.004866 -0.044906
    22 -1.180681 -2.507217 -0.193859 -0.872301 0.201272 -0.411077
    23 -0.024967 -1.127840 0.017597 -1.281913 -0.002649 -0.053846
    24 -0.020057 -0.906594 0.029622 -0.919408 0.006484 -0.037428
    25 0.626480 -1.197277 0.185379 0.820553 -1.032445 -0.878010
    26 1.481238 -0.208511 0.067511 0.044759 -0.208987 -0.741725
    27 1.065614 -0.132196 0.032291 0.041619 -0.192379 -0.784517
    28 0.120153 -0.050270 -0.054489 0.287569 3.110905 1.561085
    29 -3.911505 -3.684338 -8.349194 -2.245711 -4.825461 -1.404128
    30 -0.117906 -8.493389 0.053137 0.353563 -1.183170 -0.145172
    31 0.447953 -2.798986 -0.200443 -0.854253 0.007833 0.252378
    32 -0.032909 -1.495829 0.016659 -0.948515 0.019918 -0.014439
    33 -0.027022 -1.080826 -0.024116 -0.191942 0.005381 -0.001210
    34 -0.249534 -2.846964 -0.174213 -0.655860 0.041929 0.076311
    35 0.043235 -1.660503 0.084293 -0.936792 -0.015358 0.000852
    36 0.031729 -1.153017 0.058838 -0.444961 -0.003900 0.005867
    37 -0.963866 -2.785145 -0.085350 -0.710521 0.178583 -0.282454
    38 0.028479 -1.403067 -0.009354 -0.577666 -0.011313 -0.023825
    39 0.021413 -0.953875 0.020046 -0.252060 -0.003284 -0.011062
    40 1.164475 -2.543940 -0.170330 -0.953115 -0.183439 0.410106
    41 0.024032 -1.132948 0.002182 -0.738275 0.003164 0.039502
    42 0.014898 -0.903521 -0.015942 -1.007684 0.008941 0.050491
    43 -0.586770 -1.264477 0.200161 0.043111 -0.358024 -2.590196
    44 1.550180 0.039149 0.016848 -0.010934 -0.004102 0.597022
    45 1.114041 0.044518 -0.005766 -0.028287 -0.034438 1.020160
    46 -0.139399 -0.111698 0.014397 0.285382 -0.030687 1.580508
    47 -8.046017 2.495234 -0.454283 1.571372 -0.033331 -0.382680
  time 8
    0 5.507981 -9.937803 -4.839991 0.517241 -1.752400 0.974677
    1 1.582369 0.000001 1.434247 0.000000 0.000000 0.000000
    2 -0.135354 -0.000002 -4.511380 0.000000 0.000000 0.000000
    3 0.349163 0.565490 -3.526729 1.570796 0.000000 1.570796
    4 -1.667495 -0.000001 -2.847543 -0.000001 -1.570796 0.000000
    5 1.615030 0.000001 1.325000 0.000000 0.000000 0.000000
    6 -1.517956 0.000000 1.203503 0.000000 0.000000 0.000000
    7 1.517956 0.000000 -0.122468 -1.256600 1.570796 0.000000
    8 2.374435 0.000000 -0.000001 0.000000 0.000000 0.000000
    9 2.497324 4.323086 -0.003287 0.000000 0.000000 -0.087311
    10 4.884187 -0.307274 -5.139763 0.484940 -1.675410 -0.473283
    11 7.636281 3.375702 -0.329500 1.566074 -3.122791 0.498047
    12 -0.091453 -8.424515 -0.139291 -0.008049 0.083764 -0.247190
    13 -0.488518 -2.755602 -0.228260 -1.012917 -0.027455 -0.375635
    14 0.039887 -1.534479 0.014229 -1.560820 -0.011313 0.034888
    15 0.028786 -1.169484 -0.128581 -1.099051 -0.015172 0.023622
    16 0.250027 -2.820665 -0.238396 -0.660590 -0.075811 -0.248698
    17 -0.049759 -1.598510 0.037977 -1.484984 0.001702 -0.040186
    18 -0.034142 -1.175657 0.045718 -1.265289 0.005465 -0.033401
    19 0.957766 -2.746780 -0.090302 -0.143287 -0.192850 0.066846
    20 -0.033420 -1.393223 -0.022976 -0.788951 0.007215 -0.038819
    21 -0.022360 -0.961342 -0.004654 -0.883368 0.005525 -0.043013
    22 -1.180681 -2.507217 -0.193859 -0.872301 0.201272 -0.411077
    23 -0.024967 -1.127840 0.017597 -1.281913 -0.002649 -0.053846
    24 -0.020057 -0.906594 0.029622 -0.919408 0.006484 -0.037428
    25 0.626480 -1.197277 0.185379 0.820553 -1.032445 -0.878010
    26 1.481238 -0.208511 0.067511 0.044759 -0.208987 -0.741725
    27 1.065614 -0.132196 0.032291 0.041619 -0.192379 -0.784517
    28 0.120153 -0.050270 -0.054489 0.287569 3.110905 1.561085
    29 -3.907599 -3.707776 -8.341382 -2.234581 -4.829077 -1.395519
    30 -0.117906 -8.493389 0.053137 0.350753 -1.179334 -0.142994
    31 0.447953 -2.798986 -0.200443 -0.854253 0.007833 0.252378
    32 -0.032909 -1.495829 0.016659 -0.948515 0.019918 -0.014439
    33 -0.027022 -1.080826 -0.024116 -0.191942 0.005381 -0.001210
    34 -0.249534 -2.846964 -0.174213 -0.655860 0.041929 0.076311
    35 0.043235 -1.660503 0.084293 -0.936792 -0.015358 0.000852
    36 0.031729 -1.153017 0.058838 -0.444961 -0.003900 0.005867
    37 -0.963866 -2.785145 -0.085350 -0.710521 0.178583 -0.282454
    38 0.028479 -1.403067 -0.009354 -0.577666 -0.011313 -0.023825
    39 0.021413 -0.953875 0.020046 -0.252060 -0.003284 -0.011062
    40 1.164475 -2.543940 -0.170330 -0.953115 -0.183439 0.410106
    41 0.024032 -1.132948 0.002182 -0.738275 0.003164 0.039502
    42 0.014898 -0.903521 -0.015942 -1.007684 0.008941 0.050491
    43 -0.586770 -1.264477 0.200161 0.043111 -0.358024 -2.590196
    44 1.550180 0.039149 0.016848 -0.010934 -0.004102 0.597022
    45 1.114041 0.044518 -0.005766 -0.028287 -0.034438 1.020160
    46 -0.139399 -0.111698 0.014397 0.285382 -0.030687 1.580508
    47 -8.049923 2.491327 -0.454283 1.571348 -0.033344 -0.381992
  time 9
    0 5.437666 -9.945616 -4.656392 0.547007 -1.734998 0.934854
    1 1.582369 0.000001 1.434247 0.000000 0.000000 0.000000
    2 -0.135354 -0.000002 -4.511380 0.000000 0.000000 0.000000
    3 0.349163 0.565490 -3.526729 1.570796 0.000000 1.570796
    4 -1.667495 -0.000001 -2.831918 -0.000001 -1.570796 0.000000
    5 1.615030 0.000001 1.325000 0.000000 0.000000 0.000000
    6 -1.517956 0.000000 1.203503 0.000000 0.000000 0.000000
    7 1.517956 0.000000 -0.122468 -1.256600 1.570796 0.000000
    8 2.374435 0.000000 -0.000001 0.000000 0.000000 0.000000
    9 2.497324 4.323086 -0.003287 0.000000 0.000000 -0.087311
    10 4.884187 -0.338525 -5.120232 0.576397 -1.681147 -0.565537
    11 7.651906 3.332731 -0.333406 1.566074 -3.122600 0.492500
    12 -0.091453 -8.420609 -0.139291 -0.017396 0.086232 -0.246765
    13 -0.488518 -2.755602 -0.228260 -1.018628 -0.027467 -0.375491
    14 0.039887 -1.534479 0.014229 -1.563941 -0.011277 0.034972
    15 0.028786 -1.169484 -0.128581 -1.095821 -0.015172 0.023526
    16 0.250027 -2.820665 -0.238396 -0.663122 -0.075799 -0.248734
    17 -0.049759 -1.598510 0.037977 -1.488607 0.001630 -0.040270
    18 -0.034142 -1.175657 0.045718 -1.259921 0.005537 -0.033257
    19 0.957766 -2.746780 -0.090302 -0.145840 -0.192790 0.066727
    20 -0.033420 -1.393223 -0.022976 -0.793770 0.007167 -0.039047
    21 -0.022360 -0.961342 -0.004654 -0.889877 0.005417 -0.043324
    22 -1.180681 -2.507217 -0.193859 -0.875042 0.201236 -0.411197
    23 -0.024967 -1.127840 0.017597 -1.286900 -0.002792 -0.054026
    24 -0.020057 -0.906594 0.029622 -0.923010 0.006436 -0.037596
    25 0.618667 -1.197277 0.185379 0.460794 -0.931162 -0.439561
    26 1.504676 -0.173353 0.055792 0.025535 -0.177671 -0.607709
    27 1.073426 -0.120477 0.032291 0.032606 -0.178669 -0.724519
    28 0.120153 -0.050270 -0.054489 0.287569 3.110905 1.561085
    29 -3.915411 -3.727308 -8.329662 -2.182302 -4.841255 -1.347210
    30 -0.117906 -8.493389 0.053137 0.357826 -1.172402 -0.144050
    31 0.447953 -2.798986 -0.200443 -0.854253 0.007833 0.252378
    32 -0.032909 -1.495829 0.016659 -0.948515 0.019918 -0.014439
    33 -0.027022 -1.080826 -0.024116 -0.191942 0.005381 -0.001210
    34 -0.249534 -2.846964 -0.174213 -0.655860 0.041929 0.076311
    35 0.043235 -1.660503 0.084293 -0.936792 -0.015358 0.000852
    36 0.031729 -1.153017 0.058838 -0.444961 -0.003900 0.005867
    37 -0.963866 -2.785145 -0.085350 -0.710521 0.178583 -0.282454
    38 0.028479 -1.403067 -0.009354 -0.577666 -0.011313 -0.023825
    39 0.021413 -0.953875 0.020046 -0.252060 -0.003284 -0.011062
    40 1.164475 -2.543940 -0.170330 -0.953115 -0.183439 0.410106
    41 0.024032 -1.132948 0.002182 -0.738275 0.003164 0.039502
    42 0.014898 -0.903521 -0.015942 -1.007684 0.008941 0.050491
    43 -0.586770 -1.264477 0.200161 0.043111 -0.358024 -2.590196
    44 1.550180 0.039149 0.016848 -0.010934 -0.004102 0.597022
    45 1.114041 0.044518 -0.005766 -0.028287 -0.034438 1.020160
    46 -0.139399 -0.111698 0.014397 0.285382 -0.030687 1.580508
    47 -8.069455 2.393668 -0.454283 1.571096 -0.033534 -0.370122
  time 10
    0 5.359539 -9.945616 -4.457167 0.591128 -1.717032 0.878950
    1 1.582369 0.000001 1.434247 0.000000 0.000000 0.000000
    2 -0.135354 -0.000002 -4.511380 0.000000 0.000000 0.000000
    3 0.349163 0.565490 -3.526729 1.570796 0.000000 1.570796
    4 -1.667495 -0.000001 -2.816292 -0.000001 -1.570796 0.000000
    5 1.615030 0.000001 1.325000 0.000000 0.000000 0.000000
    6 -1.517956 0.000000 1.203503 0.000000 0.000000 0.000000
    7 1.517956 0.000000 -0.122468 -1.256600 1.570796 0.000000
    8 2.374435 0.000000 -0.000001 0.000000 0.000000 0.000000
    9 2.497324 4.323086 -0.003287 0.000000 0.000000 -0.087311
    10 4.880281 -0.365870 -5.100700 0.673588 -1.689193 -0.663701
    11 7.675345 3.266323 -0.333406 1.566170 -3.122504 0.483979
    12 -0.091453 -8.420609 -0.139291 -0.028176 0.088327 -0.249101
    13 -0.488518 -2.755602 -0.228260 -1.028088 -0.027479 -0.375228
    14 0.039887 -1.534479 0.014229 -1.569205 -0.011218 0.035092
    15 0.028786 -1.169484 -0.128581 -1.090381 -0.015161 0.023382
    16 0.250027 -2.820665 -0.238396 -0.667312 -0.075787 -0.248830
    17 -0.049759 -1.598510 0.037977 -1.494629 0.001510 -0.040402
    18 -0.034142 -1.175657 0.045718 -1.250868 0.005645 -0.033018
    19 0.957766 -2.746780 -0.090302 -0.150106 -0.192694 0.066535
    20 -0.033420 -1.393223 -0.022976 -0.807557 0.007011 -0.039730
    21 -0.022360 -0.961342 -0.004654 -0.908671 0.005117 -0.044223
    22 -1.180681 -2.507217 -0.193859 -0.879572 0.201176 -0.411401
    23 -0.024967 -1.127840 0.017597 -1.295238 -0.003032 -0.054313
    24 -0.020057 -0.906594 0.029622 -0.929061 0.006364 -0.037859
    25 0.614761 -1.197277 0.185379 0.203750 -0.725701 -0.085419
    26 1.524208 -0.126477 0.044073 0.008086 -0.136181 -0.444736
    27 1.081239 -0.104851 0.024478 0.022336 -0.160356 -0.647983
    28 0.120153 -0.050270 -0.054489 0.287569 3.110905 1.561085
    29 -3.927130 -3.739027 -8.317943 -2.132953 -4.855056 -1.301485
    30 -0.114000 -8.497295 0.053137 0.367709 -1.168057 -0.148471
    31 0.447953 -2.798986 -0.200443 -0.854253 0.007833 0.252378
    32 -0.032909 -1.495829 0.016659 -0.948515 0.019918 -0.014439
    33 -0.027022 -1.080826 -0.024116 -0.191942 0.005381 -0.001210
    34 -0.249534 -2.846964 -0.174213 -0.655860 0.041929 0.076311
    35 0.043235 -1.660503 0.084293 -0.936792 -0.015358 0.000852
    36 0.031729 -1.153017 0.058838 -0.444961 -0.003900 0.005867
    37 -0.963866 -2.785145 -0.085350 -0.710521 0.178583 -0.282454
    38 0.028479 -1.403067 -0.009354 -0.577666 -0.011313 -0.023825
    39 0.021413 -0.953875 0.020046 -0.252060 -0.003284 -0.011062
    40 1.164475 -2.543940 -0.170330 -0.953115 -0.183439 0.410106
    41 0.024032 -1.132948 0.002182 -0.738275 0.003164 0.039502
    42 0.014898 -0.903521 -0.015942 -1.007684 0.008941 0.050491
    43 -0.586770 -1.264477 0.200161 0.043111 -0.358024 -2.590196
    44 1.550180 0.039149 0.016848 -0.010934 -0.004102 0.597022
    45 1.114041 0.044518 -0.005766 -0.028287 -0.034438 1.020160
    46 -0.139399 -0.111698 0.014397 0.285382 -0.030687 1.580508
    47 -8.092893 2.276477 -0.458190 1.570785 -0.033778 -0.355328
  time 11
    0 5.293130 -9.961241 -4.257942 0.670087 -1.695077 0.789350
    1 1.582369 0.000001 1.434247 0.000000 0.000000 0.000000
    2 -0.135354 -0.000002 -4.511380 0.000000 0.000000 0.000000
    3 0.349163 0.565490 -3.526729 1.570796 0.000000 1.570796
    4 -1.667495 -0.000001 -2.796760 -0.000001 -1.570796 0.000000
    5 1.615030 0.000001 1.325000 0.000000 0.000000 0.000000
    6 -1.517956 0.000000 1.203503 0.000000 0.000000 0.000000
    7 1.517956 0.000000 -0.122468 -1.256600 1.570796 0.000000
    8 2.374435 0.000000 -0.000001 0.000000 0.000000 0.000000
    9 2.497324 4.323086 -0.003287 0.000000 0.000000 -0.087311
    10 4.876374 -0.404933 -5.077262 0.744402 -1.696718 -0.735275
    11 7.683157 3.235072 -0.333406 1.566170 -3.122408 0.480120
    12 -0.087546 -8.420609 -0.139291 -0.037898 0.091684 -0.245916
    13 -0.488518 -2.755602 -0.228260 -1.030014 -0.027479 -0.375180
    14 0.039887 -1.534479 0.014229 -1.570230 -0.011206 0.035116
    15 0.028786 -1.169484 -0.128581 -1.089248 -0.015161 0.023358
    16 0.250027 -2.820665 -0.238396 -0.668142 -0.075775 -0.248818
    17 -0.049759 -1.598510 0.037977 -1.495805 0.001486 -0.040426
    18 -0.034142 -1.175657 0.045718 -1.249078 0.005669 -0.032970
    19 0.957766 -2.746780 -0.090302 -0.150957 -0.192682 0.066487
    20 -0.033420 -1.397129 -0.022976 -0.812041 0.006951 -0.039946
    21 -0.022360 -0.961342 -0.004654 -0.914814 0.005010 -0.044511
    22 -1.180681 -2.507217 -0.193859 -0.880496 0.201164 -0.411436
    23 -0.024967 -1.127840 0.017597 -1.296873 -0.003080 -0.054373
    24 -0.020057 -0.906594 0.029622 -0.930262 0.006352 -0.037907
    25 0.610855 -1.201183 0.185379 0.081616 -0.503389 0.142027
    26 1.535927 -0.087413 0.028447 -0.001226 -0.098873 -0.306613
    27 1.085145 -0.097039 0.024478 0.015552 -0.146071 -0.590570
    28 0.120153 -0.050270 -0.054489 0.287569 3.110905 1.561085
    29 -3.931037 -3.774184 -8.302318 -2.105715 -4.867159 -1.279483
    30 -0.114000 -8.497295 0.053137 0.367466 -1.165931 -0.151903
    31 0.447953 -2.798986 -0.200443 -0.854253 0.007833 0.252378
    32 -0.032909 -1.495829 0.016659 -0.948515 0.019918 -0.014439
    33 -0.027022 -1.080826 -0.024116 -0.191942 0.005381 -0.001210
    34 -0.249534 -2.846964 -0.174213 -0.655860 0.041929 0.076311
    35 0.043235 -1.660503 0.084293 -0.936792 -0.015358 0.000852
    36 0.031729 -1.153017 0.058838 -0.444961 -0.003900 0.005867
    37 -0.963866 -2.785145 -0.085350 -0.710521 0.178583 -0.282454
    38 0.028479 -1.403067 -0.009354 -0.577666 -0.011313 -0.023825
    39 0.021413 -0.953875 0.020046 -0.252060 -0.003284 -0.011062
    40 1.164475 -2.543940 -0.170330 -0.953115 -0.183439 0.410106
    41 0.024032 -1.132948 0.002182 -0.738275 0.003164 0.039502
    42 0.014898 -0.903521 -0.015942 -1.007684 0.008941 0.050491
    43 -0.586770 -1.264477 0.200161 0.043111 -0.358024 -2.590196
    44 1.550180 0.039149 0.016848 -0.010934 -0.004102 0.597022
    45 1.114041 0.044518 -0.005766 -0.028287 -0.034438 1.020160
    46 -0.139399 -0.111698 0.014397 0.285382 -0.030687 1.580508
    47 -8.104612 2.206162 -0.458190 1.570593 -0.033913 -0.346555
  time 12
    0 5.250160 -10.012024 -4.070437 0.839491 -1.667051 0.613212
    1 1.582369 0.000001 1.434247 0.000000 0.000000 0.000000
    2 -0.135354 -0.000002 -4.511380 0.000000 0.000000 0.000000
    3 0.349163 0.565490 -3.526729 1.570796 0.000000 1.570796
    4 -1.667495 -0.000001 -2.777229 -0.000001 -1.570796 0.000000
    5 1.615030 0.000001 1.325000 0.000000 0.000000 0.000000
    6 -1.517956 0.000000 1.203503 0.000000 0.000000 0.000000
    7 1.517956 0.000000 -0.122468 -1.256600 1.570796 0.000000
    8 2.374435 0.000000 -0.000001 0.000000 0.000000 0.000000
    9 2.497324 4.323086 -0.003287 0.000000 0.000000 -0.087311
    10 4.876374 -0.471342 -5.046011 0.769536 -1.699996 -0.760340
    11 7.663625 3.301481 -0.333406 1.566170 -3.122504 0.488400
    12 -0.087546 -8.420609 -0.139291 -0.043939 0.098255 -0.228931
    13 -0.488518 -2.755602 -0.228260 -1.012917 -0.027455 -0.375635
    14 0.039887 -1.534479 0.014229 -1.560820 -0.011313 0.034888
    15 0.028786 -1.169484 -0.128581 -1.099051 -0.015172 0.023622
    16 0.250027 -2.820665 -0.238396 -0.660612 -0.075799 -0.248543
    17 -0.049759 -1.598510 0.037977 -1.484984 0.001702 -0.040186
    18 -0.034142 -1.175657 0.045718 -1.265289 0.005465 -0.033401
    19 0.957766 -2.746780 -0.090302 -0.143287 -0.192850 0.066846
    20 -0.033420 -1.393223 -0.022976 -0.788951 0.007215 -0.038819
    21 -0.022360 -0.961342 -0.004654 -0.883368 0.005525 -0.043013
    22 -1.180681 -2.507217 -0.193859 -0.872301 0.201272 -0.411077
    23 -0.024967 -1.127840 0.017597 -1.281913 -0.002649 -0.053846
    24 -0.020057 -0.906594 0.029622 -0.919408 0.006484 -0.037428
    25 0.614761 -1.205090 0.189285 0.039435 -0.359080 0.277160
    26 1.535927 -0.067881 0.024541 -0.003659 -0.081998 -0.245660
    27 1.085145 -0.093132 0.024478 0.015193 -0.145244 -0.587246
    28 0.120153 -0.050270 -0.054489 0.287569 3.110905 1.561085
    29 -3.915411 -3.848405 -8.278880 -2.110694 -4.874318 -1.293162
    30 -0.114000 -8.493389 0.053137 0.344165 -1.164868 -0.148603
    31 0.447953 -2.798986 -0.200443 -0.854253 0.007833 0.252378
    32 -0.032909 -1.495829 0.016659 -0.948515 0.019918 -0.014439
    33 -0.027022 -1.080826 -0.024116 -0.191942 0.005381 -0.001210
    34 -0.249534 -2.846964 -0.174213 -0.655860 0.041929 0.076311
    35 0.043235 -1.660503 0.084293 -0.936792 -0.015358 0.000852
    36 0.031729 -1.153017 0.058838 -0.444961 -0.003900 0.005867
    37 -0.963866 -2.785145 -0.085350 -0.710521 0.178583 -0.282454
    38 0.028479 -1.403067 -0.009354 -0.577666 -0.011313 -0.023825
    39 0.021413 -0.953875 0.020046 -0.252060 -0.003284 -0.011062
    40 1.164475 -2.543940 -0.170330 -0.953115 -0.183439 0.410106
    41 0.024032 -1.132948 0.002182 -0.738275 0.003164 0.039502
    42 0.014898 -0.903521 -0.015942 -1.007684 0.008941 0.050491
    43 -0.586770 -1.264477 0.200161 0.043111 -0.358024 -2.590196
    44 1.550180 0.039149 0.016848 -0.010934 -0.004102 0.597022
    45 1.114041 0.044518 -0.005766 -0.028287 -0.034438 1.020160
    46 -0.139399 -0.111698 0.014397 0.285382 -0.030687 1.580508
    47 -8.096800 2.256945 -0.458190 1.570725 -0.033818 -0.352748
  time 13
    0 5.238441 -10.144841 -3.882931 1.337460 -1.632707 0.111603
    1 1.582369 0.000001 1.434247 0.000000 0.000000 0.000000
    2 -0.135354 -0.000002 -4.511380 0.000000 0.000000 0.000000
    3 0.349163 0.565490 -3.526729 1.570796 0.000000 1.570796
    4 -1.667495 -0.000001 -2.753790 -0.000001 -1.570796 0.000000
    5 1.615030 0.000001 1.325000 0.000000 0.000000 0.000000
    6 -1.517956 0.000000 1.203503 0.000000 0.000000 0.000000
    7 1.517956 0.000000 -0.122468 -1.256600 1.570796 0.000000
    8 2.374435 0.000000 -0.000001 0.000000 0.000000 0.000000
    9 2.497324 4.323086 -0.003287 0.000000 0.000000 -0.087311
    10 4.880281 -0.588533 -5.003041 0.749754 -1.698059 -0.739659
    11 7.597217 3.488986 -0.329500 1.565979 -3.123079 0.512918
    12 -0.091453 -8.428422 -0.135385 -0.046761 0.110480 -0.196188
    13 -0.488518 -2.755602 -0.228260 -0.969334 -0.027372 -0.376810
    14 0.039887 -1.534479 0.014229 -1.536739 -0.011577 0.034301
    15 0.028786 -1.173390 -0.128581 -1.124096 -0.015172 0.024293
    16 0.250027 -2.820665 -0.238396 -0.641362 -0.075871 -0.247931
    17 -0.049759 -1.598510 0.037977 -1.457319 0.002217 -0.039563
    18 -0.034142 -1.175657 0.045718 -1.306660 0.004914 -0.034480
    19 0.957766 -2.746780 -0.090302 -0.125825 -0.193233 0.067661
    20 -0.033420 -1.393223 -0.022976 -0.733907 0.007742 -0.036087
    21 -0.022360 -0.957436 -0.000748 -0.808311 0.006568 -0.039369
    22 -1.180681 -2.507217 -0.193859 -0.851440 0.201524 -0.410154
    23 -0.024967 -1.127840 0.017597 -1.243734 -0.001570 -0.052480
    24 -0.020057 -0.906594 0.029622 -0.891841 0.006783 -0.036205
    25 0.614761 -1.205090 0.189285 0.031110 -0.304385 0.359801
    26 1.535927 -0.075694 0.028447 -0.002772 -0.089141 -0.271368
    27 1.081239 -0.108758 0.024478 0.022695 -0.161075 -0.650896
    28 0.120153 -0.050270 -0.054489 0.287569 3.110905 1.561085
    29 -3.872441 -3.977315 -8.239816 -2.142837 -4.877196 -1.338888
    30 -0.114000 -8.485576 0.053137 0.293833 -1.162049 -0.132368
    31 0.447953 -2.798986 -0.200443 -0.854253 0.007833 0.252378
    32 -0.032909 -1.495829 0.016659 -0.948515 0.019918 -0.014439
    33 -0.027022 -1.080826 -0.024116 -0.191942 0.005381 -0.001210
    34 -0.249534 -2.846964 -0.174213 -0.655860 0.041929 0.076311
    35 0.043235 -1.660503 0.084293 -0.936792 -0.015358 0.000852
    36 0.031729 -1.153017 0.058838 -0.444961 -0.003900 0.005867
    37 -0.963866 -2.785145 -0.085350 -0.710521 0.178583 -0.282454
    38 0.028479 -1.403067 -0.009354 -0.577666 -0.011313 -0.023825
    39 0.021413 -0.953875 0.020046 -0.252060 -0.003284 -0.011062
    40 1.164475 -2.543940 -0.170330 -0.953115 -0.183439 0.410106
    41 0.024032 -1.132948 0.002182 -0.738275 0.003164 0.039502
    42 0.014898 -0.903521 -0.015942 -1.007684 0.008941 0.050491
    43 -0.586770 -1.264477 0.200161 0.043111 -0.358024 -2.590196
    44 1.550180 0.039149 0.016848 -0.010934 -0.004102 0.597022
    45 1.114041 0.044518 -0.005766 -0.028287 -0.034438 1.020160
    46 -0.139399 -0.111698 0.014397 0.285382 -0.030687 1.580508
    47 -8.061642 2.440544 -0.454283 1.571216 -0.033453 -0.375512
  time 14
    0 5.234535 -10.347972 -3.679800 -0.719595 -1.500237 -4.117131
    1 1.582369 0.000001 1.434247 0.000000 0.000000 0.000000
    2 -0.135354 -0.000002 -4.511380 0.000000 0.000000 0.000000
    3 0.349163 0.565490 -3.526729 1.570796 0.000000 1.570796
    4 -1.667495 -0.000001 -2.730352 -0.000001 -1.570796 0.000000
    5 1.615030 0.000001 1.325000 0.000000 0.000000 0.000000
    6 -1.517956 0.000000 1.203503 0.000000 0.000000 0.000000
    7 1.517956 0.000000 -0.122468 -1.256600 1.570460 0.000000
    8 2.374435 0.000000 -0.000001 0.000000 0.000000 0.000000
    9 2.497324 4.323086 -0.003287 0.000000 0.000000 -0.087311
    10 4.888093 -0.733068 -4.944445 0.702736 -1.693365 -0.691149
    11 7.495652 3.758526 -0.321687 1.565787 -3.123749 0.548370
    12 -0.091453 -8.432328 -0.131479 -0.048127 0.127267 -0.154126
    13 -0.488518 -2.755602 -0.228260 -0.907216 -0.027156 -0.378463
    14 0.039887 -1.530573 0.014229 -1.502409 -0.011937 0.033450
    15 0.028786 -1.177297 -0.128581 -1.159794 -0.015161 0.025240
    16 0.250027 -2.820665 -0.238396 -0.613905 -0.076003 -0.247092
    17 -0.049759 -1.598510 0.041883 -1.417892 0.002936 -0.038652
    18 -0.034142 -1.179563 0.045718 -1.365664 0.004051 -0.035990
    19 0.957766 -2.746780 -0.090302 -0.102551 -0.193773 0.068740
    20 -0.033420 -1.393223 -0.022976 -0.660541 0.008209 -0.032407
    21 -0.022360 -0.957436 -0.000748 -0.708316 0.007526 -0.034408
    22 -1.180681 -2.507217 -0.193859 -0.821669 0.201860 -0.408824
    23 -0.024967 -1.127840 0.017597 -1.189319 -0.000132 -0.050442
    24 -0.020057 -0.906594 0.025715 -0.852508 0.007155 -0.034456
    25 0.618667 -1.205090 0.189285 0.033524 -0.290198 0.425333
    26 1.535927 -0.099132 0.032354 0.000811 -0.109227 -0.344409
    27 1.069520 -0.124383 0.032291 0.037292 -0.186027 -0.756405
    28 0.120153 -0.050270 -0.054489 0.287569 3.110905 1.561085
    29 -3.813846 -4.145289 -8.185127 -2.186330 -4.878746 -1.399250
    30 -0.110094 -8.477763 0.053137 0.226981 -1.156966 -0.106563
    31 0.447953 -2.798986 -0.200443 -0.854253 0.007833 0.252378
    32 -0.032909 -1.495829 0.016659 -0.948515 0.019918 -0.014439
    33 -0.027022 -1.080826 -0.024116 -0.191942 0.005381 -0.001210
    34 -0.249534 -2.846964 -0.174213 -0.655860 0.041929 0.076311
    35 0.043235 -1.660503 0.084293 -0.936792 -0.015358 0.000852
    36 0.031729 -1.153017 0.058838 -0.444961 -0.003900 0.005867
    37 -0.963866 -2.785145 -0.085350 -0.710521 0.178583 -0.282454
    38 0.028479 -1.403067 -0.009354 -0.577666 -0.011313 -0.023825
    39 0.021413 -0.953875 0.020046 -0.252060 -0.003284 -0.011062
    40 1.164475 -2.543940 -0.170330 -0.953115 -0.183439 0.410106
    41 0.024032 -1.132948 0.002182 -0.738275 0.003164 0.039502
    42 0.014898 -0.903521 -0.015942 -1.007684 0.008941 0.050491
    43 -0.586770 -1.264477 0.200161 0.043111 -0.358024 -2.590196
    44 1.550180 0.039149 0.016848 -0.010934 -0.004102 0.597022
    45 1.114041 0.044518 -0.005766 -0.028287 -0.034438 1.020160
    46 -0.139399 -0.111698 0.014397 0.285382 -0.030687 1.580508
    47 -7.999140 2.702271 -0.450377 1.571899 -0.032911 -0.408254
  time 15
    0 5.246254 -10.566729 -3.468856 -0.303935 -1.435573 -4.533830
    1 1.582369 0.000001 1.434247 0.000000 0.000000 0.000000
    2 -0.135354 -0.000002 -4.511380 0.000000 0.000000 0.000000
    3 0.349163 0.565490 -3.526729 1.570796 0.000000 1.570796
    4 -1.667495 -0.000001 -2.703008 -0.000001 -1.570796 0.000000
    5 1.615030 0.000001 1.325000 0.000000 0.000000 0.000000
    6 -1.517956 0.000000 1.203503 0.000000 0.000000 0.000000
    7 1.517956 0.000000 -0.122468 -1.256600 1.570796 0.000000
    8 2.374435 0.000000 -0.000001 0.000000 0.000000 0.000000
    9 2.497324 4.323086 -0.003287 0.000000 0.000000 -0.087311
    10 4.895906 -0.889323 -4.878037 0.636030 -1.687629 -0.622720
    11 7.370648 4.055410 -0.317781 1.565595 -3.124611 0.588081
    12 -0.091453 -8.444047 -0.131479 -0.047356 0.145144 -0.107017
    13 -0.488518 -2.755602 -0.228260 -0.838337 -0.026808 -0.380273
    14 0.039887 -1.530573 0.014229 -1.464353 -0.012296 0.032503
    15 0.028786 -1.185109 -0.128581 -1.199346 -0.015089 0.026306
    16 0.250027 -2.820665 -0.238396 -0.583480 -0.076183 -0.246158
    17 -0.049759 -1.598510 0.045790 -1.374184 0.003679 -0.037598
    18 -0.034142 -1.183469 0.041812 -1.431036 0.002984 -0.037596
    19 0.957766 -2.746780 -0.090302 -0.076245 -0.194408 0.069950
    20 -0.033420 -1.393223 -0.019070 -0.577639 0.008401 -0.028225
    21 -0.022360 -0.957436 0.003159 -0.595274 0.008006 -0.028715
    22 -1.180681 -2.507217 -0.193859 -0.788679 0.202195 -0.407338
    23 -0.024967 -1.127840 0.017597 -1.128959 0.001306 -0.048105
    24 -0.020057 -0.902687 0.025715 -0.808900 0.007490 -0.032490
    25 0.622574 -1.201183 0.189285 0.038749 -0.307715 0.477492
    26 1.524208 -0.126477 0.044073 0.008026 -0.135989 -0.443993
    27 1.049988 -0.147821 0.040104 0.057942 -0.213292 -0.881941
    28 0.120153 -0.050270 -0.054489 0.287569 3.110905 1.561085
    29 -3.743531 -4.328889 -8.114812 -2.235021 -4.878967 -1.465542
    30 -0.106187 -8.469950 0.053137 0.152379 -1.150680 -0.078580
    31 0.447953 -2.798986 -0.200443 -0.854253 0.007833 0.252378
    32 -0.032909 -1.495829 0.016659 -0.948515 0.019918 -0.014439
    33 -0.027022 -1.080826 -0.024116 -0.191942 0.005381 -0.001210
    34 -0.249534 -2.846964 -0.174213 -0.655860 0.041929 0.076311
    35 0.043235 -1.660503 0.084293 -0.936792 -0.015358 0.000852
    36 0.031729 -1.153017 0.058838 -0.444961 -0.003900 0.005867
    37 -0.963866 -2.785145 -0.085350 -0.710521 0.178583 -0.282454
    38 0.028479 -1.403067 -0.009354 -0.577666 -0.011313 -0.023825
    39 0.021413 -0.953875 0.020046 -0.252060 -0.003284 -0.011062
    40 1.164475 -2.543940 -0.170330 -0.953115 -0.183439 0.410106
    41 0.024032 -1.132948 0.002182 -0.738275 0.003164 0.039502
    42 0.014898 -0.903521 -0.015942 -1.007684 0.008941 0.050491
    43 -0.586770 -1.264477 0.200161 0.043111 -0.358024 -2.590196
    44 1.550180 0.039149 0.016848 -0.010934 -0.004102 0.597022
    45 1.114041 0.044518 -0.005766 -0.028287 -0.034438 1.020160
    46 -0.139399 -0.111698 0.014397 0.285382 -0.030687 1.580508
    47 -7.917107 3.010874 -0.446471 1.572702 -0.032233 -0.447247
  time 16
    0 5.269692 -10.746422 -3.265725 -0.230718 -1.363673 -4.605146
    1 1.582369 0.000001 1.434247 0.000000 0.000000 0.000000
    2 -0.135354 -0.000002 -4.511380 0.000000 0.000000 0.000000
    3 0.349163 0.565490 -3.526729 1.570796 0.000000 1.570796
    4 -1.667495 -0.000001 -2.679569 -0.000001 -1.570796 0.000000
    5 1.615030 0.000001 1.325000 0.000000 0.000000 0.000000
    6 -1.517956 0.000000 1.203503 0.000000 0.000000 0.000000
    7 1.517956 0.000000 -0.122468 -1.256600 1.570796 0.000000
    8 2.374435 0.000000 -0.000001 0.000000 0.000000 0.000000
    9 2.497324 4.323086 -0.003287 0.000000 0.000000 -0.087311
    10 4.899813 -1.029952 -4.815535 0.559769 -1.682115 -0.544761
    11 7.237831 4.332762 -0.309968 1.565403 -3.125377 0.625462
    12 -0.091453 -8.451860 -0.127572 -0.044093 0.160583 -0.059152
    13 -0.488518 -2.755602 -0.228260 -0.774539 -0.026365 -0.381927
    14 0.039887 -1.530573 0.014229 -1.429092 -0.012596 0.031604
    15 0.028786 -1.189016 -0.132487 -1.236007 -0.014993 0.027277
    16 0.250027 -2.820665 -0.238396 -0.555281 -0.076363 -0.245283
    17 -0.049759 -1.598510 0.049696 -1.333675 0.004338 -0.036603
    18 -0.034142 -1.183469 0.041812 -1.491618 0.001918 -0.039022
    19 0.957766 -2.746780 -0.090302 -0.049675 -0.195091 0.071149
    20 -0.033420 -1.393223 -0.019070 -0.493939 0.008257 -0.024006
    21 -0.022360 -0.957436 0.007065 -0.481168 0.007838 -0.022962
    22 -1.180681 -2.507217 -0.193859 -0.758103 0.202459 -0.405948
    23 -0.024967 -1.127840 0.017597 -1.073027 0.002529 -0.045864
    24 -0.020057 -0.902687 0.025715 -0.768510 0.007730 -0.030669
    25 0.626480 -1.201183 0.189285 0.041495 -0.347412 0.519180
    26 1.512489 -0.157728 0.051885 0.018512 -0.163194 -0.549332
    27 1.030456 -0.163447 0.044010 0.081312 -0.237142 -1.005097
    28 0.120153 -0.050270 -0.054489 0.287569 3.110905 1.561085
    29 -3.673216 -4.508582 -8.044497 -2.285469 -4.877491 -1.532218
    30 -0.102281 -8.462138 0.053137 0.077921 -1.144811 -0.054623
    31 0.447953 -2.798986 -0.200443 -0.854253 0.007833 0.252378
    32 -0.032909 -1.495829 0.016659 -0.948515 0.019918 -0.014439
    33 -0.027022 -1.080826 -0.024116 -0.191942 0.005381 -0.001210
    34 -0.249534 -2.846964 -0.174213 -0.655860 0.041929 0.076311
    35 0.043235 -1.660503 0.084293 -0.936792 -0.015358 0.000852
    36 0.031729 -1.153017 0.058838 -0.444961 -0.003900 0.005867
    37 -0.963866 -2.785145 -0.085350 -0.710521 0.178583 -0.282454
    38 0.028479 -1.403067 -0.009354 -0.577666 -0.011313 -0.023825
    39 0.021413 -0.953875 0.020046 -0.252060 -0.003284 -0.011062
    40 1.164475 -2.543940 -0.170330 -0.953115 -0.183439 0.410106
    41 0.024032 -1.132948 0.002182 -0.738275 0.003164 0.039502
    42 0.014898 -0.903521 -0.015942 -1.007684 0.008941 0.050491
    43 -0.586770 -1.264477 0.200161 0.043111 -0.358024 -2.590196
    44 1.550180 0.039149 0.016848 -0.010934 -0.004102 0.597022
    45 1.114041 0.044518 -0.005766 -0.028287 -0.034438 1.020160
    46 -0.139399 -0.111698 0.014397 0.285382 -0.030687 1.580508
    47 -7.815541 3.335103 -0.442564 1.573517 -0.031488 -0.488590
  time 17
    0 5.308756 -10.847987 -3.089938 -0.250721 -1.304303 -4.579396
    1 1.582369 0.000001 1.434247 0.000000 0.000000 0.000000
    2 -0.135354 -0.000002 -4.511380 0.000000 0.136336 0.000000
    3 0.349163 0.565490 -3.526729 1.570796 0.000000 1.570796
    4 -1.667495 -0.000001 -2.652225 -0.000001 -1.570796 0.000000
    5 1.615030 0.000001 0.864048 0.000000 0.000000 0.000000
    6 -1.517956 0.000000 1.203503 0.000000 0.000000 0.000000
    7 1.517956 0.000000 -0.122468 -1.060250 1.570796 0.000000
    8 2.374435 0.000000 -0.000001 0.000000 0.000000 0.000000
    9 2.497324 4.323086 -0.003287 0.000000 0.000000 -0.087311
    10 4.907625 -1.127612 -4.768658 0.489050 -1.677943 -0.472520
    11 7.132359 4.535893 -0.306061 1.565308 -3.125951 0.653839
    12 -0.091453 -8.459673 -0.123666 -0.038604 0.170024 -0.014967
    13 -0.488518 -2.755602 -0.228260 -0.727592 -0.025969 -0.383125
    14 0.039887 -1.526666 0.014229 -1.403193 -0.012800 0.030933
    15 0.028786 -1.192922 -0.132487 -1.262923 -0.014897 0.027996
    16 0.250027 -2.820665 -0.238396 -0.534547 -0.076506 -0.244624
    17 -0.049759 -1.602417 0.049696 -1.303846 0.004794 -0.035860
    18 -0.034142 -1.187376 0.041812 -1.536199 0.001067 -0.040017
    19 0.957766 -2.746780 -0.090302 -0.025646 -0.195726 0.072203
    20 -0.033420 -1.397129 -0.015163 -0.418202 0.007814 -0.020195
    21 -0.022360 -0.957436 0.010971 -0.377888 0.007119 -0.017797
    22 -1.180681 -2.507217 -0.193859 -0.735604 0.202627 -0.404929
    23 -0.024967 -1.127840 0.017597 -1.031896 0.003356 -0.044174
    24 -0.020057 -0.902687 0.021809 -0.738782 0.007850 -0.029314
    25 0.630386 -1.197277 0.189285 0.037886 -0.399298 0.553296
    26 1.500770 -0.185072 0.059698 0.029658 -0.185269 -0.639124
    27 1.014831 -0.179072 0.047917 0.101722 -0.253752 -1.102481
    28 0.120153 -0.050270 -0.054489 0.287569 3.110905 1.561085
    29 -3.602902 -4.664836 -7.974183 0.805420 -4.550698 1.545755
    30 -0.098374 -8.450418 0.049231 0.010101 -1.141668 -0.039840
    31 0.447953 -2.798986 -0.200443 -0.854253 0.007833 0.252378
    32 -0.032909 -1.495829 0.016659 -0.948515 0.019918 -0.014439
    33 -0.027022 -1.080826 -0.024116 -0.191942 0.005381 -0.001210
    34 -0.249534 -2.846964 -0.174213 -0.655860 0.041929 0.076311
    35 0.043235 -1.660503 0.084293 -0.936792 -0.015358 0.000852
    36 0.031729 -1.153017 0.058838 -0.444961 -0.003900 0.005867
    37 -0.963866 -2.785145 -0.085350 -0.710521 0.178583 -0.282454
    38 0.028479 -1.403067 -0.009354 -0.577666 -0.011313 -0.023825
    39 0.021413 -0.953875 0.020046 -0.252060 -0.003284 -0.011062
    40 1.164475 -2.543940 -0.170330 -0.953115 -0.183439 0.410106
    41 0.024032 -1.132948 0.002182 -0.738275 0.003164 0.039502
    42 0.014898 -0.903521 -0.015942 -1.007684 0.008941 0.050491
    43 -0.586770 -1.264477 0.200161 0.043111 -0.358024 -2.590196
    44 1.550180 0.039149 0.016848 -0.010934 -0.004102 0.597022
    45 1.114041 0.044518 -0.005766 -0.028287 -0.034438 1.020160
    46 -0.139399 -0.111698 0.014397 0.285382 -0.030687 1.580508
    47 -7.706163 3.643706 -0.438658 1.574260 -0.030742 -0.528099
  time 18
    0 5.343913 -10.847987 -2.964934 -0.324416 -1.271124 -4.493146
    1 1.582369 0.000001 1.434247 0.000000 0.000000 0.000000
    2 -0.135354 -0.000002 -4.511380 0.000000 0.436332 0.000000
    3 0.349163 0.565490 -3.526729 1.570796 0.000000 1.570796
    4 -1.667495 -0.000001 -2.628787 -0.000001 -1.570796 0.000000
    5 1.615030 0.000001 -0.155514 0.000000 0.000000 0.000000
    6 -1.517956 0.000000 1.203503 0.000000 0.000000 0.000000
    7 1.517956 0.000000 -0.122468 -0.628281 1.570460 0.000000
    8 2.374435 0.000000 -0.000001 0.000000 0.000000 0.000000
    9 2.497324 4.323086 -0.003287 0.000000 0.000000 -0.087311
    10 4.911532 -1.162769 -4.753033 0.443369 -1.675633 -0.426012
    11 7.085483 4.629646 -0.302155 1.565212 -3.126238 0.666460
    12 -0.091453 -8.467485 -0.123666 -0.031417 0.170024 0.020961
    13 -0.488518 -2.755602 -0.228260 -0.709303 -0.025802 -0.383581
    14 0.039887 -1.526666 0.014229 -1.393085 -0.012871 0.030682
    15 0.028786 -1.192922 -0.132487 -1.273462 -0.014861 0.028284
    16 0.250027 -2.820665 -0.238396 -0.526493 -0.076566 -0.244300
    17 -0.049759 -1.602417 0.053603 -1.292272 0.004962 -0.035560
    18 -0.034142 -1.187376 0.041812 -1.553516 0.000731 -0.040400
    19 0.957766 -2.746780 -0.090302 -0.006914 -0.196241 0.073030
    20 -0.033420 -1.397129 -0.015163 -0.359189 0.007275 -0.017271
    21 -0.022360 -0.957436 0.010971 -0.297418 0.006184 -0.013842
    22 -1.180681 -2.507217 -0.193859 -0.726842 0.202686 -0.404521
    23 -0.024967 -1.127840 0.017597 -1.015899 0.003655 -0.043515
    24 -0.020057 -0.902687 0.021809 -0.727207 0.007886 -0.028787
    25 0.634293 -1.197277 0.189285 0.024667 -0.453269 0.583111
    26 1.492957 -0.196792 0.063605 0.037053 -0.197578 -0.691446
    27 1.007018 -0.182979 0.051823 0.112256 -0.261099 -1.150085
    28 0.120153 -0.050270 -0.054489 0.287569 3.110905 1.561085
    29 -3.548213 -4.774215 -7.919494 0.755191 -4.556233 1.487689
    30 -0.094468 -8.450418 0.049231 -0.045270 -1.144025 -0.038124
    31 0.447953 -2.798986 -0.200443 -0.854253 0.007833 0.252378
    32 -0.032909 -1.495829 0.016659 -0.948515 0.019918 -0.014439
    33 -0.027022 -1.080826 -0.024116 -0.191942 0.005381 -0.001210
    34 -0.249534 -2.846964 -0.174213 -0.655860 0.041929 0.076311
    35 0.043235 -1.660503 0.084293 -0.936792 -0.015358 0.000852
    36 0.031729 -1.153017 0.058838 -0.444961 -0.003900 0.005867
    37 -0.963866 -2.785145 -0.085350 -0.710521 0.178583 -0.282454
    38 0.028479 -1.403067 -0.009354 -0.577666 -0.011313 -0.023825
    39 0.021413 -0.953875 0.020046 -0.252060 -0.003284 -0.011062
    40 1.164475 -2.543940 -0.170330 -0.953115 -0.183439 0.410106
    41 0.024032 -1.132948 0.002182 -0.738275 0.003164 0.039502
    42 0.014898 -0.903521 -0.015942 -1.007684 0.008941 0.050491
    43 -0.586770 -1.264477 0.200161 0.043111 -0.358024 -2.590196
    44 1.550180 0.039149 0.016848 -0.010934 -0.004102 0.597022
    45 1.114041 0.044518 -0.005766 -0.028287 -0.034438 1.020160
    46 -0.139399 -0.111698 0.014397 0.285382 -0.030687 1.580508
    47 -7.604597 3.897620 -0.434751 1.574872 -0.030092 -0.561415
  time 19
    0 5.382977 -10.664388 -2.953215 -0.449028 -1.251110 -4.352236
    1 1.582369 0.000001 1.434247 0.000000 0.000000 0.000000
    2 -0.135354 -0.000002 -4.511380 0.000000 0.736300 0.000000
    3 0.349163 0.565490 -3.526729 1.570796 0.000000 1.570796
    4 -1.667495 -0.000001 -2.601442 -0.000001 -1.570796 0.000000
    5 1.615030 0.000001 -1.175076 0.000000 0.000000 0.000000
    6 -1.517956 0.000000 1.203503 0.000000 0.000000 0.000000
    7 1.517956 0.000000 -0.122468 -0.196312 1.570796 0.000000
    8 2.374435 0.000000 -0.000001 0.000000 0.000000 0.000000
    9 2.497324 4.323086 -0.003287 0.000000 0.000000 -0.087311
    10 4.907625 -1.018233 -4.831160 0.466114 -1.676602 -0.449552
    11 7.206580 4.399170 -0.309968 1.565403 -3.125568 0.634867
    12 -0.099266 -8.471392 -0.127572 -0.018036 0.141414 0.040517
    13 -0.488518 -2.755602 -0.228260 -0.773417 -0.026353 -0.381951
    14 0.039887 -1.530573 0.014229 -1.428486 -0.012608 0.031592
    15 0.028786 -1.189016 -0.132487 -1.236631 -0.014993 0.027301
    16 0.250027 -2.820665 -0.238396 -0.554823 -0.076351 -0.244971
    17 -0.049759 -1.598510 0.049696 -1.332969 0.004350 -0.036591
    18 -0.034142 -1.183469 0.041812 -1.492671 0.001894 -0.039046
    19 0.957766 -2.746780 -0.090302 0.002134 -0.196493 0.073426
    20 -0.033420 -1.397129 -0.015163 -0.335687 0.007011 -0.016108
    21 -0.022360 -0.957436 0.014878 -0.265485 0.005741 -0.012284
    22 -1.180681 -2.507217 -0.193859 -0.757567 0.202459 -0.405924
    23 -0.024967 -1.127840 0.017597 -1.072070 0.002553 -0.045828
    24 -0.020057 -0.902687 0.025715 -0.767790 0.007730 -0.030633
    25 0.638199 -1.197277 0.193192 -0.016672 -0.544418 0.600120
    26 1.496863 -0.185072 0.059698 0.031384 -0.188278 -0.651723
    27 1.022644 -0.171260 0.047917 0.092961 -0.247017 -1.061566
    28 0.120153 -0.050270 -0.054489 0.287569 3.110905 1.561085
    29 -3.516962 -4.739057 -7.931213 0.736886 -4.563465 1.478792
    30 -0.090562 -8.450418 0.049231 -0.013442 -1.127018 -0.091846
    31 0.447953 -2.798986 -0.200443 -0.854253 0.007833 0.252378
    32 -0.032909 -1.495829 0.016659 -0.948515 0.019918 -0.014439
    33 -0.027022 -1.080826 -0.024116 -0.191942 0.005381 -0.001210
    34 -0.249534 -2.846964 -0.174213 -0.655860 0.041929 0.076311
    35 0.043235 -1.660503 0.084293 -0.936792 -0.015358 0.000852
    36 0.031729 -1.153017 0.058838 -0.444961 -0.003900 0.005867
    37 -0.963866 -2.785145 -0.085350 -0.710521 0.178583 -0.282454
    38 0.028479 -1.403067 -0.009354 -0.577666 -0.011313 -0.023825
    39 0.021413 -0.953875 0.020046 -0.252060 -0.003284 -0.011062
    40 1.164475 -2.543940 -0.170330 -0.953115 -0.183439 0.410106
    41 0.024032 -1.132948 0.002182 -0.738275 0.003164 0.039502
    42 0.014898 -0.903521 -0.015942 -1.007684 0.008941 0.050491
    43 -0.586770 -1.264477 0.200161 0.043111 -0.358024 -2.590196
    44 1.550180 0.039149 0.016848 -0.010934 -0.004102 0.597022
    45 1.114041 0.044518 -0.005766 -0.028287 -0.034438 1.020160
    46 -0.139399 -0.111698 0.014397 0.285382 -0.030687 1.580508
    47 -7.588972 3.936684 -0.430845 1.574967 -0.029997 -0.566346
  time 20
    0 5.422040 -10.324534 -3.035249 -0.546363 -1.251075 -4.260051
    1 1.582369 0.000001 1.434247 0.000000 0.000000 0.000000
    2 -0.135354 -0.000002 -4.511380 0.000000 0.872664 0.000000
    3 0.349163 0.565490 -3.526729 1.570796 0.000000 1.570796
    4 -1.667495 -0.000001 -2.578004 -0.000001 -1.570796 0.000000
    5 1.615030 0.000001 -1.639934 0.000000 0.000000 0.000000
    6 -1.517956 0.000000 1.203503 0.000000 0.000000 0.000000
    7 1.517956 0.000000 -0.122468 -0.000001 1.570796 0.000000
    8 2.374435 0.000000 -0.000001 0.000000 0.000000 0.000000
    9 2.497324 4.323086 -0.003287 0.000000 0.000000 -0.087311
    10 4.899813 -0.713537 -4.971790 0.538171 -1.680252 -0.523699
    11 7.437056 3.899155 -0.321687 1.565691 -3.124132 0.567100
    12 -0.107078 -8.475298 -0.135385 0.000460 0.089417 0.043537
    13 -0.488518 -2.755602 -0.228260 -0.904974 -0.027144 -0.378523
    14 0.039887 -1.530573 0.014229 -1.501198 -0.011949 0.033426
    15 0.028786 -1.177297 -0.128581 -1.161041 -0.015149 0.025276
    16 0.250027 -2.820665 -0.238396 -0.612988 -0.075979 -0.246457
    17 -0.049759 -1.598510 0.041883 -1.416481 0.002960 -0.038616
    18 -0.034142 -1.179563 0.045718 -1.367769 0.004015 -0.036038
    19 0.957766 -2.746780 -0.090302 0.001091 -0.196457 0.073378
    20 -0.033420 -1.397129 -0.015163 -0.344037 0.007107 -0.016528
    21 -0.022360 -0.957436 0.010971 -0.276981 0.005908 -0.012847
    22 -1.180681 -2.507217 -0.193859 -0.820596 0.201872 -0.408776
    23 -0.024967 -1.127840 0.017597 -1.187364 -0.000084 -0.050370
    24 -0.020057 -0.906594 0.025715 -0.851115 0.007167 -0.034396
    25 0.642106 -1.197277 0.197098 -0.080772 -0.684325 0.595017
    26 1.512489 -0.157728 0.051885 0.018261 -0.162619 -0.547081
    27 1.053895 -0.143915 0.036197 0.055365 -0.210272 -0.867332
    28 0.120153 -0.050270 -0.054489 0.287569 3.110905 1.561085
    29 -3.501336 -4.594522 -7.993715 0.709941 -4.577561 1.473053
    30 -0.086655 -8.454325 0.053137 0.037714 -1.126047 -0.174870
    31 0.447953 -2.798986 -0.200443 -0.854253 0.007833 0.252378
    32 -0.032909 -1.495829 0.016659 -0.948515 0.019918 -0.014439
    33 -0.027022 -1.080826 -0.024116 -0.191942 0.005381 -0.001210
    34 -0.249534 -2.846964 -0.174213 -0.655860 0.041929 0.076311
    35 0.043235 -1.660503 0.084293 -0.936792 -0.015358 0.000852
    36 0.031729 -1.153017 0.058838 -0.444961 -0.003900 0.005867
    37 -0.963866 -2.785145 -0.085350 -0.710521 0.178583 -0.282454
    38 0.028479 -1.403067 -0.009354 -0.577666 -0.011313 -0.023825
    39 0.021413 -0.953875 0.020046 -0.252060 -0.003284 -0.011062
    40 1.164475 -2.543940 -0.170330 -0.953115 -0.183439 0.410106
    41 0.024032 -1.132948 0.002182 -0.738275 0.003164 0.039502
    42 0.014898 -0.903521 -0.015942 -1.007684 0.008941 0.050491
    43 -0.586770 -1.264477 0.200161 0.043111 -0.358024 -2.590196
    44 1.550180 0.039149 0.016848 -0.010934 -0.004102 0.597022
    45 1.114041 0.044518 -0.005766 -0.028287 -0.034438 1.020160
    46 -0.139399 -0.111698 0.014397 0.285382 -0.030687 1.580508
    47 -7.612410 3.878088 -0.434751 1.574824 -0.030146 -0.558777
  time 21
    0 5.465011 -10.035462 -3.129002 -0.624174 -1.289125 -4.198977
    1 1.582369 0.000001 1.434247 0.000000 0.000000 0.000000
    2 -0.135354 -0.000002 -4.511380 0.000000 0.872664 0.000000
    3 0.349163 0.565490 -3.526729 1.570796 0.000000 1.570796
    4 -1.667495 -0.000001 -2.554566 -0.000001 -1.570796 0.000000
    5 1.615030 0.000001 -1.639934 0.000000 0.000000 0.000000
    6 -1.517956 0.000000 1.203503 0.000000 0.000000 0.000000
    7 1.517956 0.000000 -0.122468 -0.000001 1.570796 0.000000
    8 2.374435 0.000000 -0.000001 0.000000 0.000000 0.000000
    9 2.497324 4.323086 -0.003287 0.000000 0.000000 -0.087311
    10 4.892000 -0.455716 -5.073355 0.592261 -1.683456 -0.579452
    11 7.601124 3.477267 -0.329500 1.565979 -3.122983 0.511632
    12 -0.114891 -8.475298 -0.143198 0.015561 0.047320 0.038795
    13 -0.488518 -2.755602 -0.228260 -1.012917 -0.027455 -0.375635
    14 0.039887 -1.534479 0.014229 -1.560820 -0.011313 0.034888
    15 0.028786 -1.169484 -0.128581 -1.099051 -0.015172 0.023622
    16 0.250027 -2.820665 -0.238396 -0.660699 -0.075727 -0.247692
    17 -0.049759 -1.598510 0.037977 -1.484984 0.001702 -0.040186
    18 -0.034142 -1.175657 0.045718 -1.265289 0.005465 -0.033401
    19 0.957766 -2.746780 -0.090302 -0.006914 -0.196241 0.073030
    20 -0.033420 -1.397129 -0.015163 -0.359189 0.007275 -0.017271
    21 -0.022360 -0.957436 0.010971 -0.297418 0.006184 -0.013842
    22 -1.180681 -2.507217 -0.193859 -0.872301 0.201272 -0.411077
    23 -0.024967 -1.127840 0.017597 -1.281913 -0.002649 -0.053846
    24 -0.020057 -0.906594 0.029622 -0.919408 0.006484 -0.037428
    25 0.646012 -1.197277 0.201004 -0.125875 -0.828663 0.557665
    26 1.524208 -0.138196 0.044073 0.010962 -0.144534 -0.476569
    27 1.073426 -0.120477 0.028385 0.031168 -0.176296 -0.714423
    28 0.120153 -0.050270 -0.054489 0.287569 3.110905 1.561085
    29 -3.497430 -4.461705 -8.044497 0.703132 -4.588263 1.485297
    30 -0.086655 -8.458231 0.053137 0.085866 -1.123136 -0.237898
    31 0.447953 -2.798986 -0.200443 -0.854253 0.007833 0.252378
    32 -0.032909 -1.495829 0.016659 -0.948515 0.019918 -0.014439
    33 -0.027022 -1.080826 -0.024116 -0.191942 0.005381 -0.001210
    34 -0.249534 -2.846964 -0.174213 -0.655860 0.041929 0.076311
    35 0.043235 -1.660503 0.084293 -0.936792 -0.015358 0.000852
    36 0.031729 -1.153017 0.058838 -0.444961 -0.003900 0.005867
    37 -0.963866 -2.785145 -0.085350 -0.710521 0.178583 -0.282454
    38 0.028479 -1.403067 -0.009354 -0.577666 -0.011313 -0.023825
    39 0.021413 -0.953875 0.020046 -0.252060 -0.003284 -0.011062
    40 1.164475 -2.543940 -0.170330 -0.953115 -0.183439 0.410106
    41 0.024032 -1.132948 0.002182 -0.738275 0.003164 0.039502
    42 0.014898 -0.903521 -0.015942 -1.007684 0.008941 0.050491
    43 -0.586770 -1.264477 0.200161 0.043111 -0.358024 -2.590196
    44 1.550180 0.039149 0.016848 -0.010934 -0.004102 0.597022
    45 1.114041 0.044518 -0.005766 -0.028287 -0.034438 1.020160
    46 -0.139399 -0.111698 0.014397 0.285382 -0.030687 1.580508
    47 -7.647567 3.792148 -0.434751 1.574632 -0.030363 -0.547710
  time 22
    0 5.492355 -9.945616 -3.254006 -0.700836 -1.340094 -4.114163
    1 1.582369 0.000001 1.434247 0.000000 0.000000 0.000000
    2 -0.135354 -0.000002 -4.511380 0.000000 0.872664 0.000000
    3 0.349163 0.565490 -3.526729 1.570796 0.000000 1.570796
    4 -1.667495 -0.000001 -2.531127 -0.000001 -1.570796 0.000000
    5 1.615030 0.000001 -1.639934 0.000000 0.000000 0.000000
    6 -1.517956 0.000000 1.203503 0.000000 0.000000 0.000000
    7 1.517956 0.000000 -0.122468 -0.000001 1.570796 0.000000
    8 2.374435 0.000000 -0.000001 0.000000 0.000000 0.000000
    9 2.497324 4.323086 -0.003287 0.000000 0.000000 -0.087311
    10 4.892000 -0.385401 -5.100700 0.596848 -1.683531 -0.584408
    11 7.640187 3.371795 -0.329500 1.566074 -3.122791 0.497805
    12 -0.114891 -8.475298 -0.147104 0.021073 0.036731 0.022754
    13 -0.488518 -2.755602 -0.228260 -1.041541 -0.027491 -0.374868
    14 0.039887 -1.534479 0.014229 -1.576611 -0.011134 0.035272
    15 0.028786 -1.169484 -0.124675 -1.082618 -0.015161 0.023178
    16 0.250027 -2.820665 -0.238396 -0.673336 -0.075667 -0.248015
    17 -0.049759 -1.598510 0.037977 -1.503145 0.001342 -0.040594
    18 -0.034142 -1.175657 0.045718 -1.238130 0.005801 -0.032670
    19 0.957766 -2.746780 -0.090302 -0.028427 -0.195642 0.072084
    20 -0.033420 -1.397129 -0.015163 -0.380166 0.007490 -0.018301
    21 -0.022360 -0.957436 0.010971 -0.325123 0.006544 -0.015184
    22 -1.180681 -2.507217 -0.193859 -0.886039 0.201081 -0.411676
    23 -0.024967 -1.127840 0.017597 -1.307007 -0.003380 -0.054733
    24 -0.020057 -0.906594 0.029622 -0.937562 0.006268 -0.038231
    25 0.642106 -1.197277 0.201004 -0.097268 -0.969150 0.424233
    26 1.520302 -0.146009 0.047979 0.014186 -0.152995 -0.509261
    27 1.077333 -0.112664 0.028385 0.027801 -0.170507 -0.689965
    28 0.120153 -0.050270 -0.054489 0.287569 3.110905 1.561085
    29 -3.509149 -4.387484 -8.075748 0.720558 -4.591067 1.511508
    30 -0.086655 -8.462138 0.053137 0.120794 -1.115649 -0.247996
    31 0.447953 -2.798986 -0.200443 -0.854253 0.007833 0.252378
    32 -0.032909 -1.495829 0.016659 -0.948515 0.019918 -0.014439
    33 -0.027022 -1.080826 -0.024116 -0.191942 0.005381 -0.001210
    34 -0.249534 -2.846964 -0.174213 -0.655860 0.041929 0.076311
    35 0.043235 -1.660503 0.084293 -0.936792 -0.015358 0.000852
    36 0.031729 -1.153017 0.058838 -0.444961 -0.003900 0.005867
    37 -0.963866 -2.785145 -0.085350 -0.710521 0.178583 -0.282454
    38 0.028479 -1.403067 -0.009354 -0.577666 -0.011313 -0.023825
    39 0.021413 -0.953875 0.020046 -0.252060 -0.003284 -0.011062
    40 1.164475 -2.543940 -0.170330 -0.953115 -0.183439 0.410106
    41 0.024032 -1.132948 0.002182 -0.738275 0.003164 0.039502
    42 0.014898 -0.903521 -0.015942 -1.007684 0.008941 0.050491
    43 -0.586770 -1.264477 0.200161 0.043111 -0.358024 -2.590196
    44 1.550180 0.039149 0.016848 -0.010934 -0.004102 0.597022
    45 1.114041 0.044518 -0.005766 -0.028287 -0.034438 1.020160
    46 -0.139399 -0.111698 0.014397 0.285382 -0.030687 1.580508
    47 -7.682724 3.702302 -0.438658 1.574404 -0.030607 -0.535668
  time 23
    0 5.511887 -9.949522 -3.414167 -0.784102 -1.375321 -4.005035
    1 1.582369 0.000001 1.434247 0.000000 0.000000 0.000000
    2 -0.135354 -0.000002 -4.511380 0.000000 0.872664 0.000000
    3 0.349163 0.565490 -3.526729 1.570796 0.000000 1.570796
    4 -1.667495 -0.000001 -2.511595 -0.000001 -1.570796 0.000000
    5 1.615030 0.000001 -1.639934 0.000000 0.000000 0.000000
    6 -1.517956 0.000000 1.203503 0.000000 0.000000 0.000000
    7 1.517956 0.000000 -0.122468 -0.000001 1.570796 0.000000
    8 2.374435 0.000000 -0.000001 0.000000 0.000000 0.000000
    9 2.497324 4.323086 -0.003287 0.000000 0.000000 -0.087311
    10 4.888093 -0.389308 -5.100700 0.582800 -1.682413 -0.570398
    11 7.632375 3.395233 -0.329500 1.566074 -3.122791 0.500699
    12 -0.114891 -8.471392 -0.147104 0.022109 0.039859 -0.002370
    13 -0.488518 -2.755602 -0.228260 -1.038073 -0.027491 -0.374964
    14 0.039887 -1.534479 0.014229 -1.574701 -0.011146 0.035224
    15 0.028786 -1.169484 -0.124675 -1.084601 -0.015161 0.023226
    16 0.250027 -2.820665 -0.238396 -0.671808 -0.075679 -0.247979
    17 -0.049759 -1.598510 0.037977 -1.500933 0.001390 -0.040546
    18 -0.034142 -1.175657 0.045718 -1.241393 0.005765 -0.032766
    19 0.957766 -2.746780 -0.090302 -0.059119 -0.194839 0.070717
    20 -0.033420 -1.397129 -0.015163 -0.410110 0.007754 -0.019800
    21 -0.022360 -0.957436 0.010971 -0.364628 0.006987 -0.017138
    22 -1.180681 -2.507217 -0.193859 -0.884370 0.201105 -0.411604
    23 -0.024967 -1.127840 0.017597 -1.303975 -0.003284 -0.054625
    24 -0.020057 -0.906594 0.029622 -0.935353 0.006292 -0.038135
    25 0.638199 -1.201183 0.197098 0.081062 -1.090701 0.121617
    26 1.508582 -0.169447 0.055792 0.022767 -0.172230 -0.585574
    27 1.073426 -0.120477 0.028385 0.031504 -0.176859 -0.716804
    28 0.120153 -0.050270 -0.054489 0.287569 3.110905 1.561085
    29 -3.536494 -4.324982 -8.099187 0.748162 -4.590919 1.544224
    30 -0.086655 -8.466044 0.053137 0.151700 -1.108901 -0.233938
    31 0.447953 -2.798986 -0.200443 -0.854253 0.007833 0.252378
    32 -0.032909 -1.495829 0.016659 -0.948515 0.019918 -0.014439
    33 -0.027022 -1.080826 -0.024116 -0.191942 0.005381 -0.001210
    34 -0.249534 -2.846964 -0.174213 -0.655860 0.041929 0.076311
    35 0.043235 -1.660503 0.084293 -0.936792 -0.015358 0.000852
    36 0.031729 -1.153017 0.058838 -0.444961 -0.003900 0.005867
    37 -0.963866 -2.785145 -0.085350 -0.710521 0.178583 -0.282454
    38 0.028479 -1.403067 -0.009354 -0.577666 -0.011313 -0.023825
    39 0.021413 -0.953875 0.020046 -0.252060 -0.003284 -0.011062
    40 1.164475 -2.543940 -0.170330 -0.953115 -0.183439 0.410106
    41 0.024032 -1.132948 0.002182 -0.738275 0.003164 0.039502
    42 0.014898 -0.903521 -0.015942 -1.007684 0.008941 0.050491
    43 -0.586770 -1.264477 0.200161 0.043111 -0.358024 -2.590196
    44 1.550180 0.039149 0.016848 -0.010934 -0.004102 0.597022
    45 1.114041 0.044518 -0.005766 -0.028287 -0.034438 1.020160
    46 -0.139399 -0.111698 0.014397 0.285382 -0.030687 1.580508
    47 -7.725695 3.589017 -0.438658 1.574141 -0.030878 -0.521275
  time 24
    0 5.531419 -9.965148 -3.578234 -0.895507 -1.401688 -3.880398
    1 1.582369 0.000001 1.434247 0.000000 0.000000 0.000000
    2 -0.135354 -0.000002 -4.511380 0.000000 0.872664 0.000000
    3 0.349163 0.565490 -3.526729 1.570796 0.000000 1.570796
    4 -1.667495 -0.000001 -2.492064 -0.000001 -1.570796 0.000000
    5 1.615030 0.000001 -1.639934 0.000000 0.000000 0.000000
    6 -1.517956 0.000000 1.203503 0.000000 0.000000 0.000000
    7 1.517956 0.000000 -0.122468 -0.000001 1.570796 0.000000
    8 2.374435 0.000000 -0.000001 0.000000 0.000000 0.000000
    9 2.497324 4.323086 -0.003287 0.000000 0.000000 -0.087311
    10 4.888093 -0.401027 -5.096793 0.566267 -1.681221 -0.553815
    11 7.616749 3.430391 -0.329500 1.566074 -3.122887 0.505442
    12 -0.110985 -8.463579 -0.143198 0.022506 0.044508 -0.028532
    13 -0.488518 -2.755602 -0.228260 -1.030995 -0.027479 -0.375156
    14 0.039887 -1.534479 0.014229 -1.570789 -0.011194 0.035128
    15 0.028786 -1.169484 -0.128581 -1.088681 -0.015161 0.023334
    16 0.250027 -2.820665 -0.238396 -0.668687 -0.075691 -0.247895
    17 -0.049759 -1.598510 0.037977 -1.496464 0.001474 -0.040450
    18 -0.034142 -1.175657 0.045718 -1.248131 0.005681 -0.032934
    19 0.957766 -2.746780 -0.090302 -0.090818 -0.194048 0.069279
    20 -0.033420 -1.397129 -0.019070 -0.441034 0.007982 -0.021346
    21 -0.022360 -0.957436 0.010971 -0.405442 0.007359 -0.019163
    22 -1.180681 -2.507217 -0.193859 -0.880973 0.201152 -0.411460
    23 -0.024967 -1.127840 0.017597 -1.297751 -0.003104 -0.054409
    24 -0.020057 -0.906594 0.029622 -0.930886 0.006340 -0.037931
    25 0.630386 -1.197277 0.189285 0.495977 -1.114299 -0.431090
    26 1.496863 -0.192885 0.059698 0.033529 -0.191885 -0.667037
    27 1.069520 -0.124383 0.032291 0.036238 -0.184409 -0.749347
    28 0.120153 -0.050270 -0.054489 0.287569 3.110905 1.561085
    29 -3.559932 -4.266387 -8.122625 -2.363448 -4.834391 -1.562925
    30 -0.090562 -8.469950 0.053137 0.180524 -1.102292 -0.215393
    31 0.447953 -2.798986 -0.200443 -0.854253 0.007833 0.252378
    32 -0.032909 -1.495829 0.016659 -0.948515 0.019918 -0.014439
    33 -0.027022 -1.080826 -0.024116 -0.191942 0.005381 -0.001210
    34 -0.249534 -2.846964 -0.174213 -0.655860 0.041929 0.076311
    35 0.043235 -1.660503 0.084293 -0.936792 -0.015358 0.000852
    36 0.031729 -1.153017 0.058838 -0.444961 -0.003900 0.005867
    37 -0.963866 -2.785145 -0.085350 -0.710521 0.178583 -0.282454
    38 0.028479 -1.403067 -0.009354 -0.577666 -0.011313 -0.023825
    39 0.021413 -0.953875 0.020046 -0.252060 -0.003284 -0.011062
    40 1.164475 -2.543940 -0.170330 -0.953115 -0.183439 0.410106
    41 0.024032 -1.132948 0.002182 -0.738275 0.003164 0.039502
    42 0.014898 -0.903521 -0.015942 -1.007684 0.008941 0.050491
    43 -0.586770 -1.264477 0.200161 0.043111 -0.358024 -2.590196
    44 1.550180 0.039149 0.016848 -0.010934 -0.004102 0.597022
    45 1.114041 0.044518 -0.005766 -0.028287 -0.034438 1.020160
    46 -0.139399 -0.111698 0.014397 0.285382 -0.030687 1.580508
    47 -7.764758 3.479639 -0.438658 1.573865 -0.031149 -0.506940
  time 25
    0 5.547044 -10.012024 -3.734489 -1.026340 -1.424807 -3.746381
    1 1.582369 0.000001 1.434247 0.000000 0.000000 0.000000
    2 -0.135354 -0.000002 -4.511380 0.000000 0.872664 0.000000
    3 0.349163 0.565490 -3.526729 1.570796 0.000000 1.570796
    4 -1.667495 -0.000001 -2.476438 -0.000001 -1.570796 0.000000
    5 1.615030 0.000001 -1.639934 0.000000 0.000000 0.000000
    6 -1.517956 0.000000 1.203503 0.000000 0.000000 0.000000
    7 1.517956 0.000000 -0.122468 -0.000001 1.570796 0.000000
    8 2.374435 0.000000 -0.000001 0.000000 0.000000 0.000000
    9 2.497324 4.323086 -0.003287 0.000000 0.000000 -0.087311
    10 4.892000 -0.428372 -5.088981 0.546485 -1.679805 -0.533896
    11 7.597217 3.488986 -0.329500 1.565979 -3.123079 0.512758
    12 -0.110985 -8.459673 -0.143198 0.021337 0.052112 -0.055212
    13 -0.488518 -2.755602 -0.228260 -1.018978 -0.027467 -0.375479
    14 0.039887 -1.534479 0.014229 -1.564174 -0.011277 0.034972
    15 0.028786 -1.169484 -0.128581 -1.095594 -0.015172 0.023526
    16 0.250027 -2.820665 -0.238396 -0.663384 -0.075715 -0.247764
    17 -0.049759 -1.598510 0.037977 -1.488842 0.001618 -0.040270
    18 -0.034142 -1.175657 0.045718 -1.259552 0.005537 -0.033245
    19 0.957766 -2.746780 -0.090302 -0.122134 -0.193317 0.067841
    20 -0.033420 -1.397129 -0.019070 -0.471597 0.008162 -0.022880
    21 -0.022360 -0.957436 0.007065 -0.445768 0.007646 -0.021177
    22 -1.180681 -2.507217 -0.193859 -0.875221 0.201224 -0.411209
    23 -0.024967 -1.127840 0.017597 -1.287259 -0.002792 -0.054038
    24 -0.020057 -0.906594 0.029622 -0.923250 0.006436 -0.037596
    25 0.626480 -1.197277 0.185379 0.820553 -1.032445 -0.878010
    26 1.481238 -0.208511 0.067511 0.044759 -0.208987 -0.741725
    27 1.065614 -0.132196 0.032291 0.041619 -0.192379 -0.784517
    28 0.120153 -0.050270 -0.054489 0.287569 3.110905 1.561085
    29 -3.587276 -4.215604 -8.142157 -2.329034 -4.836089 -1.524661
    30 -0.090562 -8.477763 0.057043 0.207507 -1.094713 -0.191040
    31 0.447953 -2.798986 -0.200443 -0.854253 0.007833 0.252378
    32 -0.032909 -1.495829 0.016659 -0.948515 0.019918 -0.014439
    33 -0.027022 -1.080826 -0.024116 -0.191942 0.005381 -0.001210
    34 -0.249534 -2.846964 -0.174213 -0.655860 0.041929 0.076311
    35 0.043235 -1.660503 0.084293 -0.936792 -0.015358 0.000852
    36 0.031729 -1.153017 0.058838 -0.444961 -0.003900 0.005867
    37 -0.963866 -2.785145 -0.085350 -0.710521 0.178583 -0.282454
    38 0.028479 -1.403067 -0.009354 -0.577666 -0.011313 -0.023825
    39 0.021413 -0.953875 0.020046 -0.252060 -0.003284 -0.011062
    40 1.164475 -2.543940 -0.170330 -0.953115 -0.183439 0.410106
    41 0.024032 -1.132948 0.002182 -0.738275 0.003164 0.039502
    42 0.014898 -0.903521 -0.015942 -1.007684 0.008941 0.050491
    43 -0.586770 -1.264477 0.200161 0.043111 -0.358024 -2.590196
    44 1.550180 0.039149 0.016848 -0.010934 -0.004102 0.597022
    45 1.114041 0.044518 -0.005766 -0.028287 -0.034438 1.020160
    46 -0.139399 -0.111698 0.014397 0.285382 -0.030687 1.580508
    47 -7.807728 3.362448 -0.442564 1.573577 -0.031434 -0.491916
  time 26
    0 5.543138 -10.039369 -3.855586 -1.146262 -1.443585 -3.628828
    1 1.582369 0.000001 1.434247 0.000000 0.000000 0.000000
    2 -0.135354 -0.000002 -4.511380 0.000000 0.872664 0.000000
    3 0.349163 0.565490 -3.526729 1.570796 0.000000 1.570796
    4 -1.667495 -0.000001 -2.460813 -0.000001 -1.570796 0.000000
    5 1.615030 0.000001 -1.639934 0.000000 0.000000 0.000000
    6 -1.517956 0.000000 1.203503 0.000000 0.000000 0.000000
    7 1.517956 0.000000 -0.122468 -0.000001 1.570796 0.000000
    8 2.374435 0.000000 -0.000001 0.000000 0.000000 0.000000
    9 2.497324 4.323086 -0.003287 0.000000 0.000000 -0.087311
    10 4.892000 -0.440091 -5.085074 0.530334 -1.678762 -0.517695
    11 7.585498 3.520237 -0.329500 1.565979 -3.123174 0.517099
    12 -0.107078 -8.455766 -0.143198 0.017832 0.061238 -0.076184
    13 -0.488518 -2.755602 -0.228260 -1.012917 -0.027455 -0.375635
    14 0.039887 -1.534479 0.014229 -1.560820 -0.011313 0.034888
    15 0.028786 -1.169484 -0.128581 -1.099051 -0.015172 0.023622
    16 0.250027 -2.820665 -0.238396 -0.660699 -0.075727 -0.247692
    17 -0.049759 -1.598510 0.037977 -1.484984 0.001702 -0.040186
    18 -0.034142 -1.175657 0.045718 -1.265289 0.005465 -0.033401
    19 0.957766 -2.746780 -0.090302 -0.143287 -0.192850 0.066846
    20 -0.033420 -1.393223 -0.019070 -0.492238 0.008245 -0.023910
    21 -0.022360 -0.957436 0.007065 -0.473017 0.007802 -0.022555
    22 -1.180681 -2.507217 -0.193859 -0.872301 0.201272 -0.411077
    23 -0.024967 -1.127840 0.017597 -1.281913 -0.002649 -0.053846
    24 -0.020057 -0.906594 0.029622 -0.919408 0.006484 -0.037428
    25 0.626480 -1.197277 0.185379 0.820553 -1.032445 -0.878010
    26 1.481238 -0.208511 0.067511 0.044759 -0.208987 -0.741725
    27 1.065614 -0.132196 0.032291 0.041619 -0.192379 -0.784517
    28 0.120153 -0.050270 -0.054489 0.287569 3.110905 1.561085
    29 -3.626340 -4.168727 -8.165595 -2.322884 -4.836384 -1.516817
    30 -0.094468 -8.477763 0.057043 0.215403 -1.103540 -0.174408
    31 0.447953 -2.798986 -0.200443 -0.854253 0.007833 0.252378
    32 -0.032909 -1.495829 0.016659 -0.948515 0.019918 -0.014439
    33 -0.027022 -1.080826 -0.024116 -0.191942 0.005381 -0.001210
    34 -0.249534 -2.846964 -0.174213 -0.655860 0.041929 0.076311
    35 0.043235 -1.660503 0.084293 -0.936792 -0.015358 0.000852
    36 0.031729 -1.153017 0.058838 -0.444961 -0.003900 0.005867
    37 -0.963866 -2.785145 -0.085350 -0.710521 0.178583 -0.282454
    38 0.028479 -1.403067 -0.009354 -0.577666 -0.011313 -0.023825
    39 0.021413 -0.953875 0.020046 -0.252060 -0.003284 -0.011062
    40 1.164475 -2.543940 -0.170330 -0.953115 -0.183439 0.410106
    41 0.024032 -1.132948 0.002182 -0.738275 0.003164 0.039502
    42 0.014898 -0.903521 -0.015942 -1.007684 0.008941 0.050491
    43 -0.586770 -1.264477 0.200161 0.043111 -0.358024 -2.590196
    44 1.550180 0.039149 0.016848 -0.010934 -0.004102 0.597022
    45 1.114041 0.044518 -0.005766 -0.028287 -0.034438 1.020160
    46 -0.139399 -0.111698 0.014397 0.285382 -0.030687 1.580508
    47 -7.835073 3.272601 -0.442564 1.573362 -0.031637 -0.480448
  time 27
    0 5.515793 -10.039369 -3.921995 -1.198519 -1.462752 -3.584602
    1 1.582369 0.000001 1.434247 0.000000 0.000000 0.000000
    2 -0.135354 -0.000002 -4.511380 0.000000 0.872664 0.000000
    3 0.349163 0.565490 -3.526729 1.570796 0.000000 1.570796
    4 -1.667495 -0.000001 -2.449094 -0.000001 -1.570796 0.000000
    5 1.615030 0.000001 -1.639934 0.000000 0.000000 0.000000
    6 -1.517956 0.000000 1.203503 0.000000 0.000000 0.000000
    7 1.517956 0.000000 -0.122468 -0.000001 1.570796 0.000000
    8 2.374435 0.000000 -0.000001 0.000000 0.000000 0.000000
    9 2.497324 4.323086 -0.003287 0.000000 0.000000 -0.087311
    10 4.892000 -0.440091 -5.085074 0.518102 -1.677943 -0.505496
    11 7.581592 3.531956 -0.329500 1.565979 -3.123174 0.518706
    12 -0.103172 -8.451860 -0.139291 0.008705 0.076274 -0.087507
    13 -0.488518 -2.755602 -0.228260 -1.012252 -0.027455 -0.375659
    14 0.039887 -1.534479 0.014229 -1.560448 -0.011313 0.034876
    15 0.028786 -1.169484 -0.128581 -1.099447 -0.015172 0.023622
    16 0.250027 -2.820665 -0.238396 -0.660394 -0.075727 -0.247680
    17 -0.049759 -1.598510 0.037977 -1.484560 0.001702 -0.040174
    18 -0.034142 -1.175657 0.045718 -1.265974 0.005453 -0.033413
    19 0.957766 -2.746780 -0.090302 -0.145660 -0.192790 0.066738
    20 -0.033420 -1.393223 -0.019070 -0.494558 0.008257 -0.024030
    21 -0.022360 -0.957436 0.007065 -0.476089 0.007814 -0.022711
    22 -1.180681 -2.507217 -0.193859 -0.871973 0.201272 -0.411065
    23 -0.024967 -1.127840 0.017597 -1.281315 -0.002625 -0.053822
    24 -0.020057 -0.906594 0.029622 -0.918976 0.006484 -0.037416
    25 0.626480 -1.197277 0.185379 0.820553 -1.032445 -0.878010
    26 1.481238 -0.208511 0.067511 0.044759 -0.208987 -0.741725
    27 1.065614 -0.132196 0.032291 0.041619 -0.192379 -0.784517
    28 0.120153 -0.050270 -0.054489 0.287569 3.110905 1.561085
    29 -3.677123 -4.121851 -8.189033 -2.298941 -4.840000 -1.492519
    30 -0.094468 -8.477763 0.057043 0.227562 -1.100582 -0.159889
    31 0.447953 -2.798986 -0.200443 -0.854253 0.007833 0.252378
    32 -0.032909 -1.495829 0.016659 -0.948515 0.019918 -0.014439
    33 -0.027022 -1.080826 -0.024116 -0.191942 0.005381 -0.001210
    34 -0.249534 -2.846964 -0.174213 -0.655860 0.041929 0.076311
    35 0.043235 -1.660503 0.084293 -0.936792 -0.015358 0.000852
    36 0.031729 -1.153017 0.058838 -0.444961 -0.003900 0.005867
    37 -0.963866 -2.785145 -0.085350 -0.710521 0.178583 -0.282454
    38 0.028479 -1.403067 -0.009354 -0.577666 -0.011313 -0.023825
    39 0.021413 -0.953875 0.020046 -0.252060 -0.003284 -0.011062
    40 1.164475 -2.543940 -0.170330 -0.953115 -0.183439 0.410106
    41 0.024032 -1.132948 0.002182 -0.738275 0.003164 0.039502
    42 0.014898 -0.903521 -0.015942 -1.007684 0.008941 0.050491
    43 -0.586770 -1.264477 0.200161 0.043111 -0.358024 -2.590196
    44 1.550180 0.039149 0.016848 -0.010934 -0.004102 0.597022
    45 1.114041 0.044518 -0.005766 -0.028287 -0.034438 1.020160
    46 -0.139399 -0.111698 0.014397 0.285382 -0.030687 1.580508
    47 -7.881949 3.131972 -0.446471 1.573002 -0.031976 -0.462271
  time 28
    0 5.480636 -10.031556 -3.976684 -1.252977 -1.481953 -3.538845
    1 1.582369 0.000001 1.434247 0.000000 0.000000 0.000000
    2 -0.135354 -0.000002 -4.511380 0.000000 0.872664 0.000000
    3 0.349163 0.565490 -3.526729 1.570796 0.000000 1.570796
    4 -1.667495 -0.000001 -2.437374 -0.000001 -1.570796 0.000000
    5 1.615030 0.000001 -1.639934 0.000000 0.000000 0.000000
    6 -1.517956 0.000000 1.203503 0.000000 0.000000 0.000000
    7 1.517956 0.000000 -0.122468 -0.000001 1.570796 0.000000
    8 2.374435 0.000000 -0.000001 0.000000 0.000000 0.000000
    9 2.497324 4.323086 -0.003287 0.000000 0.000000 -0.087311
    10 4.888093 -0.440091 -5.088981 0.506252 -1.677123 -0.493678
    11 7.577685 3.543675 -0.329500 1.565979 -3.123174 0.519993
    12 -0.099266 -8.447954 -0.135385 -0.001369 0.092086 -0.097628
    13 -0.488518 -2.755602 -0.228260 -1.012322 -0.027455 -0.375659
    14 0.039887 -1.534479 0.014229 -1.560494 -0.011313 0.034888
    15 0.028786 -1.169484 -0.128581 -1.099447 -0.015172 0.023622
    16 0.250027 -2.820665 -0.238396 -0.660415 -0.075727 -0.247680
    17 -0.049759 -1.598510 0.037977 -1.484607 0.001702 -0.040174
    18 -0.034142 -1.175657 0.045718 -1.265868 0.005453 -0.033413
    19 0.957766 -2.746780 -0.090302 -0.145396 -0.192802 0.066750
    20 -0.033420 -1.393223 -0.019070 -0.494300 0.008257 -0.024018
    21 -0.022360 -0.957436 0.007065 -0.475754 0.007814 -0.022687
    22 -1.180681 -2.507217 -0.193859 -0.872032 0.201272 -0.411065
    23 -0.024967 -1.127840 0.017597 -1.281394 -0.002625 -0.053834
    24 -0.020057 -0.906594 0.029622 -0.919024 0.006484 -0.037416
    25 0.626480 -1.197277 0.185379 0.820553 -1.032445 -0.878010
    26 1.481238 -0.208511 0.067511 0.044759 -0.208987 -0.741725
    27 1.065614 -0.132196 0.032291 0.041619 -0.192379 -0.784517
    28 0.120153 -0.050270 -0.054489 0.287569 3.110905 1.561085
    29 -3.731812 -4.071068 -8.212471 -2.273900 -4.844133 -1.467264
    30 -0.094468 -8.481669 0.057043 0.240400 -1.096007 -0.145700
    31 0.447953 -2.798986 -0.200443 -0.854253 0.007833 0.252378
    32 -0.032909 -1.495829 0.016659 -0.948515 0.019918 -0.014439
    33 -0.027022 -1.080826 -0.024116 -0.191942 0.005381 -0.001210
    34 -0.249534 -2.846964 -0.174213 -0.655860 0.041929 0.076311
    35 0.043235 -1.660503 0.084293 -0.936792 -0.015358 0.000852
    36 0.031729 -1.153017 0.058838 -0.444961 -0.003900 0.005867
    37 -0.963866 -2.785145 -0.085350 -0.710521 0.178583 -0.282454
    38 0.028479 -1.403067 -0.009354 -0.577666 -0.011313 -0.023825
    39 0.021413 -0.953875 0.020046 -0.252060 -0.003284 -0.011062
    40 1.164475 -2.543940 -0.170330 -0.953115 -0.183439 0.410106
    41 0.024032 -1.132948 0.002182 -0.738275 0.003164 0.039502
    42 0.014898 -0.903521 -0.015942 -1.007684 0.008941 0.050491
    43 -0.586770 -1.264477 0.200161 0.043111 -0.358024 -2.590196
    44 1.550180 0.039149 0.016848 -0.010934 -0.004102 0.597022
    45 1.114041 0.044518 -0.005766 -0.028287 -0.034438 1.020160
    46 -0.139399 -0.111698 0.014397 0.285382 -0.030687 1.580508
    47 -7.924919 2.979623 -0.446471 1.572619 -0.032301 -0.443348
  time 29
    0 5.445479 -10.027650 -4.027467 -1.325332 -1.501049 -3.475474
    1 1.582369 0.000001 1.434247 0.000000 0.000000 0.000000
    2 -0.135354 -0.000002 -4.511380 0.000000 0.872664 0.000000
    3 0.349163 0.565490 -3.526729 1.570796 0.000000 1.570796
    4 -1.667495 -0.000001 -2.433468 -0.000001 -1.570796 0.000000
    5 1.615030 0.000001 -1.639934 0.000000 0.000000 0.000000
    6 -1.517956 0.000000 1.203503 0.000000 0.000000 0.000000
    7 1.517956 0.000000 -0.122468 -0.000001 1.570796 0.000000
    8 2.374435 0.000000 -0.000001 0.000000 0.000000 0.000000
    9 2.497324 4.323086 -0.003287 0.000000 0.000000 -0.087311
    10 4.888093 -0.440091 -5.088981 0.494497 -1.676378 -0.482051
    11 7.573779 3.551488 -0.325593 1.565883 -3.123174 0.521118
    12 -0.095359 -8.447954 -0.135385 -0.011907 0.108127 -0.107394
    13 -0.488518 -2.755602 -0.228260 -1.012707 -0.027455 -0.375647
    14 0.039887 -1.534479 0.014229 -1.560681 -0.011313 0.034888
    15 0.028786 -1.169484 -0.128581 -1.099221 -0.015172 0.023622
    16 0.250027 -2.820665 -0.238396 -0.660590 -0.075727 -0.247692
    17 -0.049759 -1.598510 0.037977 -1.484843 0.001702 -0.040186
    18 -0.034142 -1.175657 0.045718 -1.265500 0.005465 -0.033401
    19 0.957766 -2.746780 -0.090302 -0.144078 -0.192826 0.066810
    20 -0.033420 -1.393223 -0.019070 -0.493011 0.008257 -0.023958
    21 -0.022360 -0.957436 0.007065 -0.474051 0.007802 -0.022603
    22 -1.180681 -2.507217 -0.193859 -0.872211 0.201272 -0.411077
    23 -0.024967 -1.127840 0.017597 -1.281714 -0.002637 -0.053846
    24 -0.020057 -0.906594 0.029622 -0.919264 0.006484 -0.037428
    25 0.626480 -1.197277 0.185379 0.820553 -1.032445 -0.878010
    26 1.481238 -0.208511 0.067511 0.044759 -0.208987 -0.741725
    27 1.065614 -0.132196 0.032291 0.041619 -0.192379 -0.784517
    28 0.120153 -0.050270 -0.054489 0.287569 3.110905 1.561085
    29 -3.786501 -4.020285 -8.232003 -2.249445 -4.848561 -1.442488
    30 -0.094468 -8.485576 0.057043 0.253431 -1.090738 -0.131576
    31 0.447953 -2.798986 -0.200443 -0.854253 0.007833 0.252378
    32 -0.032909 -1.495829 0.016659 -0.948515 0.019918 -0.014439
    33 -0.027022 -1.080826 -0.024116 -0.191942 0.005381 -0.001210
    34 -0.249534 -2.846964 -0.174213 -0.655860 0.041929 0.076311
    35 0.043235 -1.660503 0.084293 -0.936792 -0.015358 0.000852
    36 0.031729 -1.153017 0.058838 -0.444961 -0.003900 0.005867
    37 -0.963866 -2.785145 -0.085350 -0.710521 0.178583 -0.282454
    38 0.028479 -1.403067 -0.009354 -0.577666 -0.011313 -0.023825
    39 0.021413 -0.953875 0.020046 -0.252060 -0.003284 -0.011062
    40 1.164475 -2.543940 -0.170330 -0.953115 -0.183439 0.410106
    41 0.024032 -1.132948 0.002182 -0.738275 0.003164 0.039502
    42 0.014898 -0.903521 -0.015942 -1.007684 0.008941 0.050491
    43 -0.586770 -1.264477 0.200161 0.043111 -0.358024 -2.590196
    44 1.550180 0.039149 0.016848 -0.010934 -0.004102 0.597022
    45 1.114041 0.044518 -0.005766 -0.028287 -0.034438 1.020160
    46 -0.139399 -0.111698 0.014397 0.285382 -0.030687 1.580508
    47 -7.967889 2.831181 -0.450377 1.572235 -0.032640 -0.424310
  time 30
    0 5.410321 -10.019837 -4.078249 -1.453868 -1.519474 -3.355815
    1 1.582369 0.000001 1.434247 0.000000 0.000000 0.000000
    2 -0.135354 -0.000002 -4.511380 0.000000 0.872664 0.000000
    3 0.349163 0.565490 -3.526729 1.570796 0.000000 1.570796
    4 -1.667495 -0.000001 -2.433468 -0.000001 -1.570796 0.000000
    5 1.615030 0.000001 -1.639934 0.000000 0.000000 0.000000
    6 -1.517956 0.000000 1.203503 0.000000 0.000000 0.000000
    7 1.517956 0.000000 -0.122468 -0.000001 1.570796 0.000000
    8 2.374435 0.000000 -0.000001 0.000000 0.000000 0.000000
    9 2.497324 4.323086 -0.003287 0.000000 0.000000 -0.087311
    10 4.888093 -0.436184 -5.088981 0.482456 -1.675633 -0.470042
    11 7.569873 3.559301 -0.325593 1.565883 -3.123270 0.522324
    12 -0.095359 -8.444047 -0.131479 -0.022467 0.123881 -0.117609
    13 -0.488518 -2.755602 -0.228260 -1.012917 -0.027455 -0.375635
    14 0.039887 -1.534479 0.014229 -1.560820 -0.011313 0.034888
    15 0.028786 -1.169484 -0.128581 -1.099051 -0.015172 0.023622
    16 0.250027 -2.820665 -0.238396 -0.660699 -0.075727 -0.247692
    17 -0.049759 -1.598510 0.037977 -1.484984 0.001702 -0.040186
    18 -0.034142 -1.175657 0.045718 -1.265289 0.005465 -0.033401
    19 0.957766 -2.746780 -0.090302 -0.143287 -0.192850 0.066846
    20 -0.033420 -1.393223 -0.019070 -0.492238 0.008245 -0.023910
    21 -0.022360 -0.957436 0.007065 -0.473017 0.007802 -0.022555
    22 -1.180681 -2.507217 -0.193859 -0.872301 0.201272 -0.411077
    23 -0.024967 -1.127840 0.017597 -1.281913 -0.002649 -0.053846
    24 -0.020057 -0.906594 0.029622 -0.919408 0.006484 -0.037428
    25 0.626480 -1.197277 0.185379 0.820553 -1.032445 -0.878010
    26 1.481238 -0.208511 0.067511 0.044759 -0.208987 -0.741725
    27 1.065614 -0.132196 0.032291 0.041619 -0.192379 -0.784517
    28 0.120153 -0.050270 -0.054489 0.287569 3.110905 1.561085
    29 -3.837284 -3.973409 -8.251535 -2.226673 -4.852915 -1.419338
    30 -0.090562 -8.485576 0.057043 0.266414 -1.085839 -0.117387
    31 0.447953 -2.798986 -0.200443 -0.854253 0.007833 0.252378
    32 -0.032909 -1.495829 0.016659 -0.948515 0.019918 -0.014439
    33 -0.027022 -1.080826 -0.024116 -0.191942 0.005381 -0.001210
    34 -0.249534 -2.846964 -0.174213 -0.655860 0.041929 0.076311
    35 0.043235 -1.660503 0.084293 -0.936792 -0.015358 0.000852
    36 0.031729 -1.153017 0.058838 -0.444961 -0.003900 0.005867
    37 -0.963866 -2.785145 -0.085350 -0.710521 0.178583 -0.282454
    38 0.028479 -1.403067 -0.009354 -0.577666 -0.011313 -0.023825
    39 0.021413 -0.953875 0.020046 -0.252060 -0.003284 -0.011062
    40 1.164475 -2.543940 -0.170330 -0.953115 -0.183439 0.410106
    41 0.024032 -1.132948 0.002182 -0.738275 0.003164 0.039502
    42 0.014898 -0.903521 -0.015942 -1.007684 0.008941 0.050491
    43 -0.586770 -1.264477 0.200161 0.043111 -0.358024 -2.590196
    44 1.550180 0.039149 0.016848 -0.010934 -0.004102 0.597022
    45 1.114041 0.044518 -0.005766 -0.028287 -0.034438 1.020160
    46 -0.139399 -0.111698 0.014397 0.285382 -0.030687 1.580508
    47 -8.003047 2.682739 -0.454283 1.571852 -0.032951 -0.405731
end
