// Created by Crowbar 0.34.0.0

$ModelName "weapons/tfa_cso/w_magnum_shooter.mdl"

$BodyGroup "studio"
{
	studio "ref_v03"
}

$collisionmodel "ref_v03.smd"
{
	$mass 9
}

$CDMaterials "models\weapons\tfa_cso\magnum_shooter\"

$attachment "0" "root" 15.00 -0.15 -0.20 rotate -0 0 0

$Sequence "idle" {
	"anims\idle.smd"
	fps 30
}