version 1
nodes
  0 "Bone01" -1
  1 "Bone_Lefthand" 0
  2 "bone_handle01" 1
  3 "bone_trogger01" 2
  4 "bone_load01" 2
  5 "bone_R_blow01" 2
  6 "bone_R_blow02" 5
  7 "bone_R_blow03" 6
  8 "bone_L_blow01" 2
  9 "bone_L_blow02" 8
  10 "bone_L_blow03" 9
  11 "bone_megazine01" 2
  12 "bone_megazine02" 11
  13 "bone_megazine03" 2
  14 "Bone04" -1
  15 "Bone_Righthand" 14
  16 "Bone39" 15
  17 "Bone40" 16
  18 "Bone41" 17
  19 "Bone35" 15
  20 "Bone36" 19
  21 "Bone37" 20
  22 "Bone31" 15
  23 "Bone32" 22
  24 "Bone33" 23
  25 "Bone43" 15
  26 "Bone44" 25
  27 "Bone45" 26
  28 "Bone27" 15
  29 "Bone28" 28
  30 "Bone29" 29
  31 "Bone_Se_Hand-R" 15
  32 "Bone13" 1
  33 "Bone14" 32
  34 "Bone15" 33
  35 "Bone17" 1
  36 "Bone18" 35
  37 "Bone19" 36
  38 "Bone21" 1
  39 "Bone22" 38
  40 "Bone23" 39
  41 "Bone09" 1
  42 "Bone10" 41
  43 "Bone11" 42
  44 "Bone05" 1
  45 "Bone06" 44
  46 "Bone07" 45
  47 "Bone_Se_Hand-L" 1
end
skeleton
  time 0
    0 10.549371 -2.829804 -11.308932 4.178586 -0.770311 -4.800855
    1 -0.071918 -8.498731 -0.104137 0.317460 0.470595 -0.640832
    2 1.665510 -2.904478 0.631343 -0.234326 0.084943 -3.486601
    3 0.037088 1.836796 0.000000 0.000000 0.000000 0.679463
    4 -1.699721 2.222293 0.000421 0.000000 0.000000 -1.282538
    5 -5.655031 16.263659 1.047437 0.005898 -1.121418 -1.279905
    6 7.696722 0.021893 -0.405259 -0.001707 0.561568 -0.000383
    7 6.499035 0.037860 -0.093995 -1.570617 1.505568 -3.138681
    8 -5.655030 16.263657 -1.043029 3.135696 1.121416 -1.279904
    9 7.721393 -0.021960 -0.393362 0.001706 0.561568 0.000382
    10 6.490693 -0.037835 -0.107306 1.570613 1.505565 3.138681
    11 -0.489117 10.226307 1.194557 0.000000 0.000000 -1.282132
    12 1.189389 -0.902887 -1.194556 -0.026445 0.000000 0.003685
    13 -2.647894 8.542626 -0.000005 0.000000 0.000000 -1.274576
    14 -0.726382 -15.457068 -14.470910 -1.156622 -5.590453 -0.110758
    15 0.096944 -8.450419 -0.009364 -0.005970 -0.540417 0.157854
    16 0.447952 -2.798982 -0.200442 -1.014489 0.150910 0.644051
    17 -0.032910 -1.480206 0.004936 -1.431586 0.000000 0.000002
    18 -0.027022 -1.076919 -0.020212 -0.473979 0.000000 0.000000
    19 -0.249534 -2.846962 -0.174215 -0.473080 0.210085 0.362128
    20 0.043235 -1.683939 0.096014 -1.793930 0.002823 -0.000167
    21 0.031729 -1.160831 0.058836 -0.335973 0.000642 0.008372
    22 -0.963866 -2.785142 -0.085346 -0.609796 0.267585 0.317863
    23 0.028479 -1.403068 0.006271 -1.150412 0.000000 0.000000
    24 0.021413 -0.957782 0.020047 -0.616019 0.000000 0.000000
    25 1.164474 -2.543938 -0.170328 -0.983966 0.070580 0.675853
    26 0.024032 -1.129043 0.017806 -1.337944 0.000000 0.000001
    27 0.014896 -0.883989 -0.019845 -0.672931 0.000000 0.000000
    28 -0.586770 -1.264475 0.200164 -0.186364 -1.053830 -3.148928
    29 1.522835 0.058681 0.016850 0.035029 0.111357 0.871431
    30 1.117948 0.048424 -0.005764 -0.015320 -0.019661 0.717991
    31 -0.057365 -0.119510 0.041742 0.574644 0.064105 1.500021
    32 -0.488517 -2.755600 -0.228261 -0.619222 -0.044186 -0.439117
    33 0.039888 -1.479789 0.029853 -2.158258 0.000000 0.000000
    34 0.028785 -1.075730 -0.023111 -0.647509 0.000000 0.000000
    35 0.250028 -2.820663 -0.238396 -0.535674 0.054413 -0.329163
    36 -0.049759 -1.680545 0.100480 -1.871489 0.000000 -0.000002
    37 -0.034141 -1.148312 0.084779 -1.387518 0.000000 0.000000
    38 0.934328 -2.789746 0.124549 0.136589 -0.026827 -0.329408
    39 -0.033419 -1.393223 -0.081570 -1.382432 -0.032275 -0.008534
    40 -0.022361 -0.957434 0.018783 -1.792794 0.000000 0.000000
    41 -1.180680 -2.507215 -0.193861 -0.379706 0.103261 -0.518998
    42 -0.024966 -1.123934 0.017594 -2.136747 0.000000 0.000001
    43 -0.020057 -0.890966 0.010091 -0.896554 0.000000 0.000000
    44 0.583510 -1.197274 0.185377 0.220453 -0.870283 -0.672925
    45 1.535926 0.010245 0.005008 -0.063786 0.310988 -1.032101
    46 1.100770 0.004526 -0.010676 -0.009999 0.012761 -0.488483
    47 0.006867 -0.065891 -0.085739 -2.852831 -0.015617 -1.424341
  time 1
    0 10.549371 -2.837617 -11.308932 4.178586 -0.770311 -4.800855
    1 -0.071918 -8.498731 -0.104137 0.314988 0.471851 -0.645578
    2 1.665510 -2.904478 0.631343 -0.234326 0.084943 -3.486601
    3 0.037088 1.836796 0.000000 0.000000 0.000000 0.251462
    4 -1.551279 1.718371 0.000421 0.000000 0.000000 -1.282538
    5 -5.655031 16.263659 1.047437 0.145399 -1.337891 -1.279905
    6 7.696722 0.021893 -0.405259 -0.001707 0.396926 -0.000383
    7 6.499035 0.037860 -0.093995 1.539815 1.261038 0.000227
    8 -5.655030 16.263657 -1.043029 3.275197 1.337882 -1.279904
    9 7.721393 -0.021960 -0.393362 0.001706 0.396927 0.000382
    10 6.490693 -0.037835 -0.107306 -1.538189 1.288024 0.001116
    11 -0.489117 10.226307 1.194557 0.000000 0.000000 -1.282132
    12 1.189389 -0.891167 -1.175024 -0.094091 0.000000 0.003685
    13 -2.647894 8.542626 -0.000005 0.000000 0.000000 -1.274576
    14 -0.726382 -15.464881 -14.470910 -1.156622 -5.590453 -0.110758
    15 0.096944 -8.450419 -0.009364 -0.005970 -0.540417 0.157854
    16 0.447952 -2.798982 -0.200442 -1.014489 0.150910 0.644051
    17 -0.032910 -1.480206 0.004936 -1.431586 0.000000 0.000002
    18 -0.027022 -1.076919 -0.020212 -0.473979 0.000000 0.000000
    19 -0.249534 -2.846962 -0.174215 -0.473080 0.210085 0.362128
    20 0.043235 -1.683939 0.096014 -1.793930 0.002823 -0.000167
    21 0.031729 -1.160831 0.058836 -0.335973 0.000642 0.008372
    22 -0.963866 -2.785142 -0.085346 -0.609796 0.267585 0.317863
    23 0.028479 -1.403068 0.006271 -1.150412 0.000000 0.000000
    24 0.021413 -0.957782 0.020047 -0.616019 0.000000 0.000000
    25 1.164474 -2.543938 -0.170328 -0.983966 0.070580 0.675853
    26 0.024032 -1.129043 0.017806 -1.337944 0.000000 0.000001
    27 0.014896 -0.883989 -0.019845 -0.672931 0.000000 0.000000
    28 -0.586770 -1.264475 0.200164 -0.186364 -1.053830 -3.148928
    29 1.522835 0.058681 0.016850 0.035029 0.111357 0.871431
    30 1.117948 0.048424 -0.005764 -0.015320 -0.019661 0.717991
    31 -0.057365 -0.119510 0.041742 0.574644 0.064105 1.500021
    32 -0.488517 -2.755600 -0.228261 -0.619222 -0.044186 -0.439117
    33 0.039888 -1.479789 0.029853 -2.158258 0.000000 0.000000
    34 0.028785 -1.075730 -0.023111 -0.647509 0.000000 0.000000
    35 0.250028 -2.820663 -0.238396 -0.535674 0.054413 -0.329163
    36 -0.049759 -1.680545 0.100480 -1.871489 0.000000 -0.000002
    37 -0.034141 -1.148312 0.084779 -1.387518 0.000000 0.000000
    38 0.934328 -2.789746 0.124549 0.136589 -0.026827 -0.329408
    39 -0.033419 -1.393223 -0.081570 -1.382432 -0.032275 -0.008534
    40 -0.022361 -0.957434 0.018783 -1.792794 0.000000 0.000000
    41 -1.180680 -2.507215 -0.193861 -0.379706 0.103261 -0.518998
    42 -0.024966 -1.123934 0.017594 -2.136747 0.000000 0.000001
    43 -0.020057 -0.890966 0.010091 -0.896554 0.000000 0.000000
    44 0.583510 -1.197274 0.185377 0.220453 -0.870283 -0.672925
    45 1.535926 0.010245 0.005008 -0.063786 0.310988 -1.032101
    46 1.100770 0.004526 -0.010676 -0.009999 0.012761 -0.488483
    47 0.006867 -0.065891 -0.085739 -2.852831 -0.015617 -1.424341
  time 2
    0 10.549371 -2.845430 -11.308932 4.178586 -0.770311 -4.800855
    1 -0.071918 -8.498731 -0.104137 0.312530 0.473749 -0.651697
    2 1.665510 -2.904478 0.631343 -0.234326 0.084943 -3.486601
    3 0.037088 1.836796 0.000000 0.000000 0.000000 -0.176539
    4 -2.156766 3.773121 0.000421 0.000000 0.000000 -1.282538
    5 -5.655031 16.263659 1.047437 0.284911 -1.554364 -1.279905
    6 7.696722 0.021893 -0.405259 -0.001707 0.232261 -0.000383
    7 6.499035 0.037860 -0.093995 -1.515394 0.973456 -3.027276
    8 -5.655030 16.263657 -1.043029 3.414697 1.554381 -1.279904
    9 7.721393 -0.021960 -0.393362 0.001706 0.232262 0.000382
    10 6.490693 -0.037835 -0.107306 1.515388 1.000658 3.025834
    11 -0.489117 10.226307 1.194557 0.000000 0.000000 -1.282132
    12 1.189389 -0.867729 -1.120335 -0.261959 0.000000 0.003685
    13 -2.647894 8.542626 -0.000005 0.000000 0.000000 -1.274576
    14 -0.726382 -15.476600 -14.470910 -1.156622 -5.590453 -0.110758
    15 0.096944 -8.450419 -0.009364 -0.005970 -0.540417 0.157854
    16 0.447952 -2.798982 -0.200442 -1.014489 0.150910 0.644051
    17 -0.032910 -1.480206 0.004936 -1.431586 0.000000 0.000002
    18 -0.027022 -1.076919 -0.020212 -0.473979 0.000000 0.000000
    19 -0.249534 -2.846962 -0.174215 -0.473080 0.210085 0.362128
    20 0.043235 -1.683939 0.096014 -1.793930 0.002823 -0.000167
    21 0.031729 -1.160831 0.058836 -0.335973 0.000642 0.008372
    22 -0.963866 -2.785142 -0.085346 -0.609796 0.267585 0.317863
    23 0.028479 -1.403068 0.006271 -1.150412 0.000000 0.000000
    24 0.021413 -0.957782 0.020047 -0.616019 0.000000 0.000000
    25 1.164474 -2.543938 -0.170328 -0.983966 0.070580 0.675853
    26 0.024032 -1.129043 0.017806 -1.337944 0.000000 0.000001
    27 0.014896 -0.883989 -0.019845 -0.672931 0.000000 0.000000
    28 -0.586770 -1.264475 0.200164 -0.186364 -1.053830 -3.148928
    29 1.522835 0.058681 0.016850 0.035029 0.111357 0.871431
    30 1.117948 0.048424 -0.005764 -0.015320 -0.019661 0.717991
    31 -0.057365 -0.119510 0.041742 0.574644 0.064105 1.500021
    32 -0.488517 -2.755600 -0.228261 -0.619222 -0.044186 -0.439117
    33 0.039888 -1.479789 0.029853 -2.158258 0.000000 0.000000
    34 0.028785 -1.075730 -0.023111 -0.647509 0.000000 0.000000
    35 0.250028 -2.820663 -0.238396 -0.535674 0.054413 -0.329163
    36 -0.049759 -1.680545 0.100480 -1.871489 0.000000 -0.000002
    37 -0.034141 -1.148312 0.084779 -1.387518 0.000000 0.000000
    38 0.934328 -2.789746 0.124549 0.136589 -0.026827 -0.329408
    39 -0.033419 -1.393223 -0.081570 -1.382432 -0.032275 -0.008534
    40 -0.022361 -0.957434 0.018783 -1.792794 0.000000 0.000000
    41 -1.180680 -2.507215 -0.193861 -0.379706 0.103261 -0.518998
    42 -0.024966 -1.123934 0.017594 -2.136747 0.000000 0.000001
    43 -0.020057 -0.890966 0.010091 -0.896554 0.000000 0.000000
    44 0.583510 -1.197274 0.185377 0.220453 -0.870283 -0.672925
    45 1.535926 0.010245 0.005008 -0.063786 0.310988 -1.032101
    46 1.100770 0.004526 -0.010676 -0.009999 0.012761 -0.488483
    47 0.006867 -0.065891 -0.085739 -2.852831 -0.015617 -1.424341
  time 3
    0 10.549371 -2.790741 -11.308932 4.178586 -0.770311 -4.800855
    1 -0.071918 -8.498731 -0.104137 0.312546 0.475300 -0.653601
    2 1.665510 -2.904478 0.631343 -0.234326 0.084943 -3.486601
    3 0.037088 1.836796 0.000000 0.000000 0.000000 0.045403
    4 -4.844348 12.831992 0.000421 0.000000 0.000000 -1.282538
    5 -5.655031 16.263659 1.047437 0.005898 -1.291261 -1.279905
    6 7.696722 0.021893 -0.405259 -0.001707 0.788339 -0.000383
    7 6.499035 0.037860 -0.093995 -1.544156 0.617965 -3.084896
    8 -5.655030 16.263657 -1.043029 3.135696 1.291254 -1.279904
    9 7.721393 -0.021960 -0.393362 0.001706 0.788338 0.000382
    10 6.490693 -0.037835 -0.107306 1.545589 0.539601 3.086716
    11 -0.489117 10.226307 1.194557 0.000000 0.000000 -1.282132
    12 1.189389 -0.836478 -1.050020 -0.477257 0.000000 0.003685
    13 -2.647894 8.542626 -0.000005 0.000000 0.000000 -1.274576
    14 -0.726382 -15.421911 -14.478723 -1.156622 -5.590453 -0.110758
    15 0.096944 -8.450419 -0.009364 -0.005970 -0.540417 0.157854
    16 0.447952 -2.798982 -0.200442 -1.014489 0.150910 0.644051
    17 -0.032910 -1.480206 0.004936 -1.431586 0.000000 0.000002
    18 -0.027022 -1.076919 -0.020212 -0.473979 0.000000 0.000000
    19 -0.249534 -2.846962 -0.174215 -0.473080 0.210085 0.362128
    20 0.043235 -1.683939 0.096014 -1.793930 0.002823 -0.000167
    21 0.031729 -1.160831 0.058836 -0.335973 0.000642 0.008372
    22 -0.963866 -2.785142 -0.085346 -0.609796 0.267585 0.317863
    23 0.028479 -1.403068 0.006271 -1.150412 0.000000 0.000000
    24 0.021413 -0.957782 0.020047 -0.616019 0.000000 0.000000
    25 1.164474 -2.543938 -0.170328 -0.983966 0.070580 0.675853
    26 0.024032 -1.129043 0.017806 -1.337944 0.000000 0.000001
    27 0.014896 -0.883989 -0.019845 -0.672931 0.000000 0.000000
    28 -0.586770 -1.264475 0.200164 -0.186364 -1.053830 -3.148928
    29 1.522835 0.058681 0.016850 0.035029 0.111357 0.871431
    30 1.117948 0.048424 -0.005764 -0.015320 -0.019661 0.717991
    31 -0.057365 -0.119510 0.041742 0.574644 0.064105 1.500021
    32 -0.488517 -2.755600 -0.228261 -0.619222 -0.044186 -0.439117
    33 0.039888 -1.479789 0.029853 -2.158258 0.000000 0.000000
    34 0.028785 -1.075730 -0.023111 -0.647509 0.000000 0.000000
    35 0.250028 -2.820663 -0.238396 -0.535674 0.054413 -0.329163
    36 -0.049759 -1.680545 0.100480 -1.871489 0.000000 -0.000002
    37 -0.034141 -1.148312 0.084779 -1.387518 0.000000 0.000000
    38 0.934328 -2.789746 0.124549 0.136589 -0.026827 -0.329408
    39 -0.033419 -1.393223 -0.081570 -1.382432 -0.032275 -0.008534
    40 -0.022361 -0.957434 0.018783 -1.792794 0.000000 0.000000
    41 -1.180680 -2.507215 -0.193861 -0.379706 0.103261 -0.518998
    42 -0.024966 -1.123934 0.017594 -2.136747 0.000000 0.000001
    43 -0.020057 -0.890966 0.010091 -0.896554 0.000000 0.000000
    44 0.583510 -1.197274 0.185377 0.220453 -0.870283 -0.672925
    45 1.535926 0.010245 0.005008 -0.063786 0.310988 -1.032101
    46 1.100770 0.004526 -0.010676 -0.009999 0.012761 -0.488483
    47 0.006867 -0.065891 -0.085739 -2.852831 -0.015617 -1.424341
  time 4
    0 10.549371 -2.693081 -11.308932 4.178586 -0.770311 -4.800855
    1 -0.071918 -8.498731 -0.104137 0.312670 0.476770 -0.654348
    2 1.665510 -2.904478 0.631343 -0.234326 0.084943 -3.486601
    3 0.037088 1.836796 0.000000 0.000000 0.000000 0.457547
    4 -4.602153 12.019467 0.000421 0.000000 0.000000 -1.282538
    5 -5.655031 16.263659 1.047437 0.005898 -1.186085 -1.279905
    6 7.696722 0.021893 -0.405259 -0.001707 0.752912 -0.000383
    7 6.499035 0.037860 -0.093995 -1.570617 0.766077 -3.138681
    8 -5.655030 16.263657 -1.043029 3.135696 1.186081 -1.279904
    9 7.721393 -0.021960 -0.393362 0.001706 0.752888 0.000382
    10 6.490693 -0.037835 -0.107306 1.570613 0.726746 3.138681
    11 -0.489117 10.226307 1.194557 0.000000 0.000000 -1.282132
    12 1.189389 -0.805227 -0.991425 -0.686997 0.000000 0.003685
    13 -2.647894 8.542626 -0.000005 0.000000 0.000000 -1.274576
    14 -0.726382 -15.320345 -14.498255 -1.156622 -5.590453 -0.110758
    15 0.096944 -8.450419 -0.009364 -0.005970 -0.540417 0.157854
    16 0.447952 -2.798982 -0.200442 -1.014489 0.150910 0.644051
    17 -0.032910 -1.480206 0.004936 -1.431586 0.000000 0.000002
    18 -0.027022 -1.076919 -0.020212 -0.473979 0.000000 0.000000
    19 -0.249534 -2.846962 -0.174215 -0.473080 0.210085 0.362128
    20 0.043235 -1.683939 0.096014 -1.793930 0.002823 -0.000167
    21 0.031729 -1.160831 0.058836 -0.335973 0.000642 0.008372
    22 -0.963866 -2.785142 -0.085346 -0.609796 0.267585 0.317863
    23 0.028479 -1.403068 0.006271 -1.150412 0.000000 0.000000
    24 0.021413 -0.957782 0.020047 -0.616019 0.000000 0.000000
    25 1.164474 -2.543938 -0.170328 -0.983966 0.070580 0.675853
    26 0.024032 -1.129043 0.017806 -1.337944 0.000000 0.000001
    27 0.014896 -0.883989 -0.019845 -0.672931 0.000000 0.000000
    28 -0.586770 -1.264475 0.200164 -0.186364 -1.053830 -3.148928
    29 1.522835 0.058681 0.016850 0.035029 0.111357 0.871431
    30 1.117948 0.048424 -0.005764 -0.015320 -0.019661 0.717991
    31 -0.057365 -0.119510 0.041742 0.574644 0.064105 1.500021
    32 -0.488517 -2.755600 -0.228261 -0.619222 -0.044186 -0.439117
    33 0.039888 -1.479789 0.029853 -2.158258 0.000000 0.000000
    34 0.028785 -1.075730 -0.023111 -0.647509 0.000000 0.000000
    35 0.250028 -2.820663 -0.238396 -0.535674 0.054413 -0.329163
    36 -0.049759 -1.680545 0.100480 -1.871489 0.000000 -0.000002
    37 -0.034141 -1.148312 0.084779 -1.387518 0.000000 0.000000
    38 0.934328 -2.789746 0.124549 0.136589 -0.026827 -0.329408
    39 -0.033419 -1.393223 -0.081570 -1.382432 -0.032275 -0.008534
    40 -0.022361 -0.957434 0.018783 -1.792794 0.000000 0.000000
    41 -1.180680 -2.507215 -0.193861 -0.379706 0.103261 -0.518998
    42 -0.024966 -1.123934 0.017594 -2.136747 0.000000 0.000001
    43 -0.020057 -0.890966 0.010091 -0.896554 0.000000 0.000000
    44 0.583510 -1.197274 0.185377 0.220453 -0.870283 -0.672925
    45 1.535926 0.010245 0.005008 -0.063786 0.310988 -1.032101
    46 1.100770 0.004526 -0.010676 -0.009999 0.012761 -0.488483
    47 0.006867 -0.065891 -0.085739 -2.852831 -0.015617 -1.424341
  time 5
    0 10.549371 -2.638392 -11.308932 4.178586 -0.770311 -4.800855
    1 -0.071918 -8.498731 -0.104137 0.312950 0.477412 -0.654468
    2 1.665510 -2.904478 0.631343 -0.234326 0.084943 -3.486601
    3 0.037088 1.836796 0.000000 0.000000 0.000000 0.679463
    4 -3.180235 7.214633 0.000421 0.000000 0.000000 -1.282538
    5 -5.655031 16.263659 1.047437 0.005898 -1.113387 -1.279905
    6 7.696722 0.021893 -0.405259 -0.001707 0.683656 -0.000383
    7 6.499035 0.037860 -0.093995 -1.570617 1.188676 -3.138681
    8 -5.655030 16.263657 -1.043029 3.135696 1.113386 -1.279904
    9 7.721393 -0.021960 -0.393362 0.001706 0.683656 0.000382
    10 6.490693 -0.037835 -0.107306 1.570613 1.206607 3.138681
    11 -0.489117 10.226307 1.194557 0.000000 0.000000 -1.282132
    12 1.189389 -0.781789 -0.960174 -0.838672 0.000000 0.003685
    13 -2.647894 8.542626 -0.000005 0.000000 0.000000 -1.274576
    14 -0.726382 -15.269562 -14.509974 -1.156622 -5.590453 -0.110758
    15 0.096944 -8.450419 -0.009364 -0.005970 -0.540417 0.157854
    16 0.447952 -2.798982 -0.200442 -1.014489 0.150910 0.644051
    17 -0.032910 -1.480206 0.004936 -1.431586 0.000000 0.000002
    18 -0.027022 -1.076919 -0.020212 -0.473979 0.000000 0.000000
    19 -0.249534 -2.846962 -0.174215 -0.473080 0.210085 0.362128
    20 0.043235 -1.683939 0.096014 -1.793930 0.002823 -0.000167
    21 0.031729 -1.160831 0.058836 -0.335973 0.000642 0.008372
    22 -0.963866 -2.785142 -0.085346 -0.609796 0.267585 0.317863
    23 0.028479 -1.403068 0.006271 -1.150412 0.000000 0.000000
    24 0.021413 -0.957782 0.020047 -0.616019 0.000000 0.000000
    25 1.164474 -2.543938 -0.170328 -0.983966 0.070580 0.675853
    26 0.024032 -1.129043 0.017806 -1.337944 0.000000 0.000001
    27 0.014896 -0.883989 -0.019845 -0.672931 0.000000 0.000000
    28 -0.586770 -1.264475 0.200164 -0.186364 -1.053830 -3.148928
    29 1.522835 0.058681 0.016850 0.035029 0.111357 0.871431
    30 1.117948 0.048424 -0.005764 -0.015320 -0.019661 0.717991
    31 -0.057365 -0.119510 0.041742 0.574644 0.064105 1.500021
    32 -0.488517 -2.755600 -0.228261 -0.619222 -0.044186 -0.439117
    33 0.039888 -1.479789 0.029853 -2.158258 0.000000 0.000000
    34 0.028785 -1.075730 -0.023111 -0.647509 0.000000 0.000000
    35 0.250028 -2.820663 -0.238396 -0.535674 0.054413 -0.329163
    36 -0.049759 -1.680545 0.100480 -1.871489 0.000000 -0.000002
    37 -0.034141 -1.148312 0.084779 -1.387518 0.000000 0.000000
    38 0.934328 -2.789746 0.124549 0.136589 -0.026827 -0.329408
    39 -0.033419 -1.393223 -0.081570 -1.382432 -0.032275 -0.008534
    40 -0.022361 -0.957434 0.018783 -1.792794 0.000000 0.000000
    41 -1.180680 -2.507215 -0.193861 -0.379706 0.103261 -0.518998
    42 -0.024966 -1.123934 0.017594 -2.136747 0.000000 0.000001
    43 -0.020057 -0.890966 0.010091 -0.896554 0.000000 0.000000
    44 0.583510 -1.197274 0.185377 0.220453 -0.870283 -0.672925
    45 1.535926 0.010245 0.005008 -0.063786 0.310988 -1.032101
    46 1.100770 0.004526 -0.010676 -0.009999 0.012761 -0.488483
    47 0.006867 -0.065891 -0.085739 -2.852831 -0.015617 -1.424341
  time 6
    0 10.549371 -2.654018 -11.308932 4.178586 -0.770311 -4.800855
    1 -0.071918 -8.498731 -0.104137 0.314350 0.476022 -0.651264
    2 1.665510 -2.904478 0.631343 -0.234326 0.084943 -3.486601
    3 0.037088 1.836796 0.000000 0.000000 0.000000 0.679463
    4 -1.449713 1.378517 0.000421 0.000000 0.000000 -1.282538
    5 -5.655031 16.263659 1.047437 0.005898 -1.086219 -1.279905
    6 7.696722 0.021893 -0.405259 -0.001707 0.583907 -0.000383
    7 6.499035 0.037860 -0.093995 -4.712208 1.474507 -6.280273
    8 -5.655030 16.263657 -1.043029 3.135696 1.086218 -1.279904
    9 7.721393 -0.021960 -0.393362 0.001706 0.583907 0.000382
    10 6.490693 -0.037835 -0.107306 -1.570883 1.445432 -0.002815
    11 -0.489117 10.226307 1.194557 0.000000 0.000000 -1.282132
    12 1.189389 -0.766164 -0.952361 -0.936883 0.000000 0.003685
    13 -2.647894 8.542626 -0.000005 0.000000 0.000000 -1.274576
    14 -0.726382 -15.289094 -14.459191 -1.156622 -5.590453 -0.110758
    15 0.096944 -8.450419 -0.009364 -0.005970 -0.540417 0.157854
    16 0.447952 -2.798982 -0.200442 -1.014489 0.150910 0.644051
    17 -0.032910 -1.480206 0.004936 -1.431586 0.000000 0.000002
    18 -0.027022 -1.076919 -0.020212 -0.473979 0.000000 0.000000
    19 -0.249534 -2.846962 -0.174215 -0.473080 0.210085 0.362128
    20 0.043235 -1.683939 0.096014 -1.793930 0.002823 -0.000167
    21 0.031729 -1.160831 0.058836 -0.335973 0.000642 0.008372
    22 -0.963866 -2.785142 -0.085346 -0.609796 0.267585 0.317863
    23 0.028479 -1.403068 0.006271 -1.150412 0.000000 0.000000
    24 0.021413 -0.957782 0.020047 -0.616019 0.000000 0.000000
    25 1.164474 -2.543938 -0.170328 -0.983966 0.070580 0.675853
    26 0.024032 -1.129043 0.017806 -1.337944 0.000000 0.000001
    27 0.014896 -0.883989 -0.019845 -0.672931 0.000000 0.000000
    28 -0.586770 -1.264475 0.200164 -0.186364 -1.053830 -3.148928
    29 1.522835 0.058681 0.016850 0.035029 0.111357 0.871431
    30 1.117948 0.048424 -0.005764 -0.015320 -0.019661 0.717991
    31 -0.057365 -0.119510 0.041742 0.574644 0.064105 1.500021
    32 -0.488517 -2.755600 -0.228261 -0.619222 -0.044186 -0.439117
    33 0.039888 -1.479789 0.029853 -2.158258 0.000000 0.000000
    34 0.028785 -1.075730 -0.023111 -0.647509 0.000000 0.000000
    35 0.250028 -2.820663 -0.238396 -0.535674 0.054413 -0.329163
    36 -0.049759 -1.680545 0.100480 -1.871489 0.000000 -0.000002
    37 -0.034141 -1.148312 0.084779 -1.387518 0.000000 0.000000
    38 0.934328 -2.789746 0.124549 0.136589 -0.026827 -0.329408
    39 -0.033419 -1.393223 -0.081570 -1.382432 -0.032275 -0.008534
    40 -0.022361 -0.957434 0.018783 -1.792794 0.000000 0.000000
    41 -1.180680 -2.507215 -0.193861 -0.379706 0.103261 -0.518998
    42 -0.024966 -1.123934 0.017594 -2.136747 0.000000 0.000001
    43 -0.020057 -0.890966 0.010091 -0.896554 0.000000 0.000000
    44 0.583510 -1.197274 0.185377 0.220453 -0.870283 -0.672925
    45 1.535926 0.010245 0.005008 -0.063786 0.310988 -1.032101
    46 1.100770 0.004526 -0.010676 -0.009999 0.012761 -0.488483
    47 0.006867 -0.065891 -0.085739 -2.852831 -0.015617 -1.424341
  time 7
    0 10.549371 -2.696988 -11.305026 4.178586 -0.770311 -4.800855
    1 -0.071918 -8.498731 -0.104137 0.316932 0.473001 -0.644253
    2 1.665510 -2.904478 0.631343 -0.234326 0.084943 -3.486601
    3 0.037088 1.836796 0.000000 0.000000 0.000000 0.679463
    4 -1.613781 1.925409 0.000421 0.000000 0.000000 -1.282538
    5 -5.655031 16.263659 1.047437 0.005898 -1.103835 -1.279905
    6 7.696722 0.021893 -0.405259 -0.001707 0.517964 -0.000383
    7 6.499035 0.037860 -0.093995 -1.570617 1.505568 -3.138681
    8 -5.655030 16.263657 -1.043029 3.135696 1.103833 -1.279904
    9 7.721393 -0.021960 -0.393362 0.001706 0.517964 0.000382
    10 6.490693 -0.037835 -0.107306 1.570613 1.505565 3.138681
    11 -0.489117 10.226307 1.194557 0.000000 0.000000 -1.282132
    12 1.189389 -0.750538 -0.944548 -1.020530 0.000000 0.003685
    13 -2.647894 8.542626 -0.000005 0.000000 0.000000 -1.274576
    14 -0.726382 -15.335970 -14.349813 -1.156622 -5.590453 -0.110758
    15 0.096944 -8.450419 -0.009364 -0.005970 -0.540417 0.157854
    16 0.447952 -2.798982 -0.200442 -1.014489 0.150910 0.644051
    17 -0.032910 -1.480206 0.004936 -1.431586 0.000000 0.000002
    18 -0.027022 -1.076919 -0.020212 -0.473979 0.000000 0.000000
    19 -0.249534 -2.846962 -0.174215 -0.473080 0.210085 0.362128
    20 0.043235 -1.683939 0.096014 -1.793930 0.002823 -0.000167
    21 0.031729 -1.160831 0.058836 -0.335973 0.000642 0.008372
    22 -0.963866 -2.785142 -0.085346 -0.609796 0.267585 0.317863
    23 0.028479 -1.403068 0.006271 -1.150412 0.000000 0.000000
    24 0.021413 -0.957782 0.020047 -0.616019 0.000000 0.000000
    25 1.164474 -2.543938 -0.170328 -0.983966 0.070580 0.675853
    26 0.024032 -1.129043 0.017806 -1.337944 0.000000 0.000001
    27 0.014896 -0.883989 -0.019845 -0.672931 0.000000 0.000000
    28 -0.586770 -1.264475 0.200164 -0.186364 -1.053830 -3.148928
    29 1.522835 0.058681 0.016850 0.035029 0.111357 0.871431
    30 1.117948 0.048424 -0.005764 -0.015320 -0.019661 0.717991
    31 -0.057365 -0.119510 0.041742 0.574644 0.064105 1.500021
    32 -0.488517 -2.755600 -0.228261 -0.619222 -0.044186 -0.439117
    33 0.039888 -1.479789 0.029853 -2.158258 0.000000 0.000000
    34 0.028785 -1.075730 -0.023111 -0.647509 0.000000 0.000000
    35 0.250028 -2.820663 -0.238396 -0.535674 0.054413 -0.329163
    36 -0.049759 -1.680545 0.100480 -1.871489 0.000000 -0.000002
    37 -0.034141 -1.148312 0.084779 -1.387518 0.000000 0.000000
    38 0.934328 -2.789746 0.124549 0.136589 -0.026827 -0.329408
    39 -0.033419 -1.393223 -0.081570 -1.382432 -0.032275 -0.008534
    40 -0.022361 -0.957434 0.018783 -1.792794 0.000000 0.000000
    41 -1.180680 -2.507215 -0.193861 -0.379706 0.103261 -0.518998
    42 -0.024966 -1.123934 0.017594 -2.136747 0.000000 0.000001
    43 -0.020057 -0.890966 0.010091 -0.896554 0.000000 0.000000
    44 0.583510 -1.197274 0.185377 0.220453 -0.870283 -0.672925
    45 1.535926 0.010245 0.005008 -0.063786 0.310988 -1.032101
    46 1.100770 0.004526 -0.010676 -0.009999 0.012761 -0.488483
    47 0.006867 -0.065891 -0.085739 -2.852831 -0.015617 -1.424341
  time 8
    0 10.549371 -2.755583 -11.301119 4.178586 -0.770311 -4.800855
    1 -0.071918 -8.498731 -0.104137 0.319420 0.469954 -0.637218
    2 1.665510 -2.904478 0.631343 -0.234326 0.084943 -3.486601
    3 0.037088 1.836796 0.000000 0.000000 0.000000 0.679463
    4 -1.770036 2.468394 0.000421 0.000000 0.000000 -1.282538
    5 -5.655031 16.263659 1.047437 0.005898 -1.121418 -1.279905
    6 7.696722 0.021893 -0.405259 -0.001707 0.539777 -0.000383
    7 6.499035 0.037860 -0.093995 -1.570617 1.505568 -3.138681
    8 -5.655030 16.263657 -1.043029 3.135696 1.121416 -1.279904
    9 7.721393 -0.021960 -0.393362 0.001706 0.539777 0.000382
    10 6.490693 -0.037835 -0.107306 1.570613 1.505565 3.138681
    11 -0.489117 10.226307 1.194557 0.000000 0.000000 -1.282132
    12 1.189389 -0.738819 -0.940642 -1.088272 0.000000 0.003685
    13 -2.647894 8.542626 -0.000005 0.000000 0.000000 -1.274576
    14 -0.726382 -15.398472 -14.240434 -1.156622 -5.590453 -0.110758
    15 0.096944 -8.450419 -0.009364 -0.005970 -0.540417 0.157854
    16 0.447952 -2.798982 -0.200442 -1.014489 0.150910 0.644051
    17 -0.032910 -1.480206 0.004936 -1.431586 0.000000 0.000002
    18 -0.027022 -1.076919 -0.020212 -0.473979 0.000000 0.000000
    19 -0.249534 -2.846962 -0.174215 -0.473080 0.210085 0.362128
    20 0.043235 -1.683939 0.096014 -1.793930 0.002823 -0.000167
    21 0.031729 -1.160831 0.058836 -0.335973 0.000642 0.008372
    22 -0.963866 -2.785142 -0.085346 -0.609796 0.267585 0.317863
    23 0.028479 -1.403068 0.006271 -1.150412 0.000000 0.000000
    24 0.021413 -0.957782 0.020047 -0.616019 0.000000 0.000000
    25 1.164474 -2.543938 -0.170328 -0.983966 0.070580 0.675853
    26 0.024032 -1.129043 0.017806 -1.337944 0.000000 0.000001
    27 0.014896 -0.883989 -0.019845 -0.672931 0.000000 0.000000
    28 -0.586770 -1.264475 0.200164 -0.186364 -1.053830 -3.148928
    29 1.522835 0.058681 0.016850 0.035029 0.111357 0.871431
    30 1.117948 0.048424 -0.005764 -0.015320 -0.019661 0.717991
    31 -0.057365 -0.119510 0.041742 0.574644 0.064105 1.500021
    32 -0.488517 -2.755600 -0.228261 -0.619222 -0.044186 -0.439117
    33 0.039888 -1.479789 0.029853 -2.158258 0.000000 0.000000
    34 0.028785 -1.075730 -0.023111 -0.647509 0.000000 0.000000
    35 0.250028 -2.820663 -0.238396 -0.535674 0.054413 -0.329163
    36 -0.049759 -1.680545 0.100480 -1.871489 0.000000 -0.000002
    37 -0.034141 -1.148312 0.084779 -1.387518 0.000000 0.000000
    38 0.934328 -2.789746 0.124549 0.136589 -0.026827 -0.329408
    39 -0.033419 -1.393223 -0.081570 -1.382432 -0.032275 -0.008534
    40 -0.022361 -0.957434 0.018783 -1.792794 0.000000 0.000000
    41 -1.180680 -2.507215 -0.193861 -0.379706 0.103261 -0.518998
    42 -0.024966 -1.123934 0.017594 -2.136747 0.000000 0.000001
    43 -0.020057 -0.890966 0.010091 -0.896554 0.000000 0.000000
    44 0.583510 -1.197274 0.185377 0.220453 -0.870283 -0.672925
    45 1.535926 0.010245 0.005008 -0.063786 0.310988 -1.032101
    46 1.100770 0.004526 -0.010676 -0.009999 0.012761 -0.488483
    47 0.006867 -0.065891 -0.085739 -2.852831 -0.015617 -1.424341
  time 9
    0 10.549371 -2.818085 -11.301119 4.178586 -0.770311 -4.800855
    1 -0.071918 -8.498731 -0.104137 0.320539 0.468590 -0.634013
    2 1.665510 -2.904478 0.631343 -0.234326 0.084943 -3.486601
    3 0.037088 1.836796 0.000000 0.000000 0.000000 0.679463
    4 -1.734878 2.343390 0.000421 0.000000 0.000000 -1.282538
    5 -5.655031 16.263659 1.047437 0.005898 -1.121418 -1.279905
    6 7.696722 0.021893 -0.405259 -0.001707 0.561568 -0.000383
    7 6.499035 0.037860 -0.093995 -1.570617 1.505568 -3.138681
    8 -5.655030 16.263657 -1.043029 3.135696 1.121416 -1.279904
    9 7.721393 -0.021960 -0.393362 0.001706 0.561568 0.000382
    10 6.490693 -0.037835 -0.107306 1.570613 1.505565 3.138681
    11 -0.489117 10.226307 1.194557 0.000000 0.000000 -1.282132
    12 1.189389 -0.727100 -0.936736 -1.138575 0.000000 0.003685
    13 -2.647894 8.542626 -0.000005 0.000000 0.000000 -1.274576
    14 -0.726382 -15.449255 -14.189651 -1.156622 -5.590453 -0.110758
    15 0.096944 -8.450419 -0.009364 -0.005970 -0.540417 0.157854
    16 0.447952 -2.798982 -0.200442 -1.014489 0.150910 0.644051
    17 -0.032910 -1.480206 0.004936 -1.431586 0.000000 0.000002
    18 -0.027022 -1.076919 -0.020212 -0.473979 0.000000 0.000000
    19 -0.249534 -2.846962 -0.174215 -0.473080 0.210085 0.362128
    20 0.043235 -1.683939 0.096014 -1.793930 0.002823 -0.000167
    21 0.031729 -1.160831 0.058836 -0.335973 0.000642 0.008372
    22 -0.963866 -2.785142 -0.085346 -0.609796 0.267585 0.317863
    23 0.028479 -1.403068 0.006271 -1.150412 0.000000 0.000000
    24 0.021413 -0.957782 0.020047 -0.616019 0.000000 0.000000
    25 1.164474 -2.543938 -0.170328 -0.983966 0.070580 0.675853
    26 0.024032 -1.129043 0.017806 -1.337944 0.000000 0.000001
    27 0.014896 -0.883989 -0.019845 -0.672931 0.000000 0.000000
    28 -0.586770 -1.264475 0.200164 -0.186364 -1.053830 -3.148928
    29 1.522835 0.058681 0.016850 0.035029 0.111357 0.871431
    30 1.117948 0.048424 -0.005764 -0.015320 -0.019661 0.717991
    31 -0.057365 -0.119510 0.041742 0.574644 0.064105 1.500021
    32 -0.488517 -2.755600 -0.228261 -0.619222 -0.044186 -0.439117
    33 0.039888 -1.479789 0.029853 -2.158258 0.000000 0.000000
    34 0.028785 -1.075730 -0.023111 -0.647509 0.000000 0.000000
    35 0.250028 -2.820663 -0.238396 -0.535674 0.054413 -0.329163
    36 -0.049759 -1.680545 0.100480 -1.871489 0.000000 -0.000002
    37 -0.034141 -1.148312 0.084779 -1.387518 0.000000 0.000000
    38 0.934328 -2.789746 0.124549 0.136589 -0.026827 -0.329408
    39 -0.033419 -1.393223 -0.081570 -1.382432 -0.032275 -0.008534
    40 -0.022361 -0.957434 0.018783 -1.792794 0.000000 0.000000
    41 -1.180680 -2.507215 -0.193861 -0.379706 0.103261 -0.518998
    42 -0.024966 -1.123934 0.017594 -2.136747 0.000000 0.000001
    43 -0.020057 -0.890966 0.010091 -0.896554 0.000000 0.000000
    44 0.583510 -1.197274 0.185377 0.220453 -0.870283 -0.672925
    45 1.535926 0.010245 0.005008 -0.063786 0.310988 -1.032101
    46 1.100770 0.004526 -0.010676 -0.009999 0.012761 -0.488483
    47 0.006867 -0.065891 -0.085739 -2.852831 -0.015617 -1.424341
  time 10
    0 10.549371 -2.876681 -11.297213 4.178586 -0.770311 -4.800855
    1 -0.071918 -8.498731 -0.104137 0.320120 0.468858 -0.634953
    2 1.665510 -2.904478 0.631343 -0.234326 0.084943 -3.486601
    3 0.037088 1.836796 0.000000 0.000000 0.000000 0.679463
    4 -1.699721 2.222293 0.000421 0.000000 0.000000 -1.282538
    5 -5.655031 16.263659 1.047437 0.005898 -1.121418 -1.279905
    6 7.696722 0.021893 -0.405259 -0.001707 0.561568 -0.000383
    7 6.499035 0.037860 -0.093995 -1.570617 1.505568 -3.138681
    8 -5.655030 16.263657 -1.043029 3.135696 1.121416 -1.279904
    9 7.721393 -0.021960 -0.393362 0.001706 0.561568 0.000382
    10 6.490693 -0.037835 -0.107306 1.570613 1.505565 3.138681
    11 -0.489117 10.226307 1.194557 0.000000 0.000000 -1.282132
    12 1.189389 -0.719287 -0.936736 -1.169811 0.000000 0.003685
    13 -2.647894 8.542626 -0.000005 0.000000 0.000000 -1.274576
    14 -0.726382 -15.492225 -14.201371 -1.156622 -5.590453 -0.110758
    15 0.096944 -8.450419 -0.009364 -0.005970 -0.540417 0.157854
    16 0.447952 -2.798982 -0.200442 -1.014489 0.150910 0.644051
    17 -0.032910 -1.480206 0.004936 -1.431586 0.000000 0.000002
    18 -0.027022 -1.076919 -0.020212 -0.473979 0.000000 0.000000
    19 -0.249534 -2.846962 -0.174215 -0.473080 0.210085 0.362128
    20 0.043235 -1.683939 0.096014 -1.793930 0.002823 -0.000167
    21 0.031729 -1.160831 0.058836 -0.335973 0.000642 0.008372
    22 -0.963866 -2.785142 -0.085346 -0.609796 0.267585 0.317863
    23 0.028479 -1.403068 0.006271 -1.150412 0.000000 0.000000
    24 0.021413 -0.957782 0.020047 -0.616019 0.000000 0.000000
    25 1.164474 -2.543938 -0.170328 -0.983966 0.070580 0.675853
    26 0.024032 -1.129043 0.017806 -1.337944 0.000000 0.000001
    27 0.014896 -0.883989 -0.019845 -0.672931 0.000000 0.000000
    28 -0.586770 -1.264475 0.200164 -0.186364 -1.053830 -3.148928
    29 1.522835 0.058681 0.016850 0.035029 0.111357 0.871431
    30 1.117948 0.048424 -0.005764 -0.015320 -0.019661 0.717991
    31 -0.057365 -0.119510 0.041742 0.574644 0.064105 1.500021
    32 -0.488517 -2.755600 -0.228261 -0.619222 -0.044186 -0.439117
    33 0.039888 -1.479789 0.029853 -2.158258 0.000000 0.000000
    34 0.028785 -1.075730 -0.023111 -0.647509 0.000000 0.000000
    35 0.250028 -2.820663 -0.238396 -0.535674 0.054413 -0.329163
    36 -0.049759 -1.680545 0.100480 -1.871489 0.000000 -0.000002
    37 -0.034141 -1.148312 0.084779 -1.387518 0.000000 0.000000
    38 0.934328 -2.789746 0.124549 0.136589 -0.026827 -0.329408
    39 -0.033419 -1.393223 -0.081570 -1.382432 -0.032275 -0.008534
    40 -0.022361 -0.957434 0.018783 -1.792794 0.000000 0.000000
    41 -1.180680 -2.507215 -0.193861 -0.379706 0.103261 -0.518998
    42 -0.024966 -1.123934 0.017594 -2.136747 0.000000 0.000001
    43 -0.020057 -0.890966 0.010091 -0.896554 0.000000 0.000000
    44 0.583510 -1.197274 0.185377 0.220453 -0.870283 -0.672925
    45 1.535926 0.010245 0.005008 -0.063786 0.310988 -1.032101
    46 1.100770 0.004526 -0.010676 -0.009999 0.012761 -0.488483
    47 0.006867 -0.065891 -0.085739 -2.852831 -0.015617 -1.424341
  time 11
    0 10.549371 -2.919651 -11.297213 4.178586 -0.770311 -4.800855
    1 -0.071918 -8.498731 -0.104137 0.319047 0.469553 -0.637290
    2 1.665510 -2.904478 0.631343 -0.234326 0.084943 -3.486601
    3 0.037088 1.836796 0.000000 0.000000 0.000000 0.679463
    4 -1.699721 2.222293 0.000421 0.000000 0.000000 -1.282538
    5 -5.655031 16.263659 1.047437 0.005898 -1.121418 -1.279905
    6 7.696722 0.021893 -0.405259 -0.001707 0.561568 -0.000383
    7 6.499035 0.037860 -0.093995 -1.570617 1.505568 -3.138681
    8 -5.655030 16.263657 -1.043029 3.135696 1.121416 -1.279904
    9 7.721393 -0.021960 -0.393362 0.001706 0.561568 0.000382
    10 6.490693 -0.037835 -0.107306 1.570613 1.505565 3.138681
    11 -0.489117 10.226307 1.194557 0.000000 0.000000 -1.282132
    12 1.189389 -0.715381 -0.936736 -1.180542 0.000000 0.003685
    13 -2.647894 8.542626 -0.000005 0.000000 0.000000 -1.274576
    14 -0.726382 -15.539102 -14.228715 -1.156622 -5.590453 -0.110758
    15 0.096944 -8.450419 -0.009364 -0.005970 -0.540417 0.157854
    16 0.447952 -2.798982 -0.200442 -1.014489 0.150910 0.644051
    17 -0.032910 -1.480206 0.004936 -1.431586 0.000000 0.000002
    18 -0.027022 -1.076919 -0.020212 -0.473979 0.000000 0.000000
    19 -0.249534 -2.846962 -0.174215 -0.473080 0.210085 0.362128
    20 0.043235 -1.683939 0.096014 -1.793930 0.002823 -0.000167
    21 0.031729 -1.160831 0.058836 -0.335973 0.000642 0.008372
    22 -0.963866 -2.785142 -0.085346 -0.609796 0.267585 0.317863
    23 0.028479 -1.403068 0.006271 -1.150412 0.000000 0.000000
    24 0.021413 -0.957782 0.020047 -0.616019 0.000000 0.000000
    25 1.164474 -2.543938 -0.170328 -0.983966 0.070580 0.675853
    26 0.024032 -1.129043 0.017806 -1.337944 0.000000 0.000001
    27 0.014896 -0.883989 -0.019845 -0.672931 0.000000 0.000000
    28 -0.586770 -1.264475 0.200164 -0.186364 -1.053830 -3.148928
    29 1.522835 0.058681 0.016850 0.035029 0.111357 0.871431
    30 1.117948 0.048424 -0.005764 -0.015320 -0.019661 0.717991
    31 -0.057365 -0.119510 0.041742 0.574644 0.064105 1.500021
    32 -0.488517 -2.755600 -0.228261 -0.619222 -0.044186 -0.439117
    33 0.039888 -1.479789 0.029853 -2.158258 0.000000 0.000000
    34 0.028785 -1.075730 -0.023111 -0.647509 0.000000 0.000000
    35 0.250028 -2.820663 -0.238396 -0.535674 0.054413 -0.329163
    36 -0.049759 -1.680545 0.100480 -1.871489 0.000000 -0.000002
    37 -0.034141 -1.148312 0.084779 -1.387518 0.000000 0.000000
    38 0.934328 -2.789746 0.124549 0.136589 -0.026827 -0.329408
    39 -0.033419 -1.393223 -0.081570 -1.382432 -0.032275 -0.008534
    40 -0.022361 -0.957434 0.018783 -1.792794 0.000000 0.000000
    41 -1.180680 -2.507215 -0.193861 -0.379706 0.103261 -0.518998
    42 -0.024966 -1.123934 0.017594 -2.136747 0.000000 0.000001
    43 -0.020057 -0.890966 0.010091 -0.896554 0.000000 0.000000
    44 0.583510 -1.197274 0.185377 0.220453 -0.870283 -0.672925
    45 1.535926 0.010245 0.005008 -0.063786 0.310988 -1.032101
    46 1.100770 0.004526 -0.010676 -0.009999 0.012761 -0.488483
    47 0.006867 -0.065891 -0.085739 -2.852831 -0.015617 -1.424341
  time 12
    0 10.549371 -2.935276 -11.293306 4.178586 -0.770311 -4.800855
    1 -0.071918 -8.498731 -0.104137 0.317678 0.470461 -0.640350
    2 1.665510 -2.904478 0.631343 -0.234326 0.084943 -3.486601
    3 0.037088 1.836796 0.000000 0.000000 0.000000 0.679463
    4 -1.699721 2.222293 0.000421 0.000000 0.000000 -1.282538
    5 -5.655031 16.263659 1.047437 0.005898 -1.121418 -1.279905
    6 7.696722 0.021893 -0.405259 -0.001707 0.561568 -0.000383
    7 6.499035 0.037860 -0.093995 -1.570617 1.505568 -3.138681
    8 -5.655030 16.263657 -1.043029 3.135696 1.121416 -1.279904
    9 7.721393 -0.021960 -0.393362 0.001706 0.561568 0.000382
    10 6.490693 -0.037835 -0.107306 1.570613 1.505565 3.138681
    11 -0.489117 10.226307 1.194557 0.000000 0.000000 -1.282132
    12 1.189389 -0.715381 -0.936736 -1.180542 0.000000 0.003685
    13 -2.647894 8.542626 -0.000005 0.000000 0.000000 -1.274576
    14 -0.726382 -15.589884 -14.267779 -1.156622 -5.590453 -0.110758
    15 0.096944 -8.450419 -0.009364 -0.005970 -0.540417 0.157854
    16 0.447952 -2.798982 -0.200442 -1.014489 0.150910 0.644051
    17 -0.032910 -1.480206 0.004936 -1.431586 0.000000 0.000002
    18 -0.027022 -1.076919 -0.020212 -0.473979 0.000000 0.000000
    19 -0.249534 -2.846962 -0.174215 -0.473080 0.210085 0.362128
    20 0.043235 -1.683939 0.096014 -1.793930 0.002823 -0.000167
    21 0.031729 -1.160831 0.058836 -0.335973 0.000642 0.008372
    22 -0.963866 -2.785142 -0.085346 -0.609796 0.267585 0.317863
    23 0.028479 -1.403068 0.006271 -1.150412 0.000000 0.000000
    24 0.021413 -0.957782 0.020047 -0.616019 0.000000 0.000000
    25 1.164474 -2.543938 -0.170328 -0.983966 0.070580 0.675853
    26 0.024032 -1.129043 0.017806 -1.337944 0.000000 0.000001
    27 0.014896 -0.883989 -0.019845 -0.672931 0.000000 0.000000
    28 -0.586770 -1.264475 0.200164 -0.186364 -1.053830 -3.148928
    29 1.522835 0.058681 0.016850 0.035029 0.111357 0.871431
    30 1.117948 0.048424 -0.005764 -0.015320 -0.019661 0.717991
    31 -0.057365 -0.119510 0.041742 0.574644 0.064105 1.500021
    32 -0.488517 -2.755600 -0.228261 -0.619222 -0.044186 -0.439117
    33 0.039888 -1.479789 0.029853 -2.158258 0.000000 0.000000
    34 0.028785 -1.075730 -0.023111 -0.647509 0.000000 0.000000
    35 0.250028 -2.820663 -0.238396 -0.535674 0.054413 -0.329163
    36 -0.049759 -1.680545 0.100480 -1.871489 0.000000 -0.000002
    37 -0.034141 -1.148312 0.084779 -1.387518 0.000000 0.000000
    38 0.934328 -2.789746 0.124549 0.136589 -0.026827 -0.329408
    39 -0.033419 -1.393223 -0.081570 -1.382432 -0.032275 -0.008534
    40 -0.022361 -0.957434 0.018783 -1.792794 0.000000 0.000000
    41 -1.180680 -2.507215 -0.193861 -0.379706 0.103261 -0.518998
    42 -0.024966 -1.123934 0.017594 -2.136747 0.000000 0.000001
    43 -0.020057 -0.890966 0.010091 -0.896554 0.000000 0.000000
    44 0.583510 -1.197274 0.185377 0.220453 -0.870283 -0.672925
    45 1.535926 0.010245 0.005008 -0.063786 0.310988 -1.032101
    46 1.100770 0.004526 -0.010676 -0.009999 0.012761 -0.488483
    47 0.006867 -0.065891 -0.085739 -2.852831 -0.015617 -1.424341
  time 13
    0 10.549371 -2.931370 -11.297213 4.178586 -0.770311 -4.800855
    1 -0.071918 -8.498731 -0.104137 0.316294 0.471344 -0.643410
    2 1.665510 -2.904478 0.631343 -0.234326 0.084943 -3.486601
    3 0.037088 1.836796 0.000000 0.000000 0.000000 0.679463
    4 -1.699721 2.222293 0.000421 0.000000 0.000000 -1.282538
    5 -5.655031 16.263659 1.047437 0.005898 -1.121418 -1.279905
    6 7.696722 0.021893 -0.405259 -0.001707 0.561568 -0.000383
    7 6.499035 0.037860 -0.093995 -1.570617 1.505568 -3.138681
    8 -5.655030 16.263657 -1.043029 3.135696 1.121416 -1.279904
    9 7.721393 -0.021960 -0.393362 0.001706 0.561568 0.000382
    10 6.490693 -0.037835 -0.107306 1.570613 1.505565 3.138681
    11 -0.489117 10.226307 1.194557 0.000000 0.000000 -1.282132
    12 1.189389 -0.715381 -0.936736 -1.180542 0.000000 0.003685
    13 -2.647894 8.542626 -0.000005 0.000000 0.000000 -1.274576
    14 -0.726382 -15.628948 -14.314655 -1.156622 -5.590453 -0.110758
    15 0.096944 -8.450419 -0.009364 -0.005970 -0.540417 0.157854
    16 0.447952 -2.798982 -0.200442 -1.014489 0.150910 0.644051
    17 -0.032910 -1.480206 0.004936 -1.431586 0.000000 0.000002
    18 -0.027022 -1.076919 -0.020212 -0.473979 0.000000 0.000000
    19 -0.249534 -2.846962 -0.174215 -0.473080 0.210085 0.362128
    20 0.043235 -1.683939 0.096014 -1.793930 0.002823 -0.000167
    21 0.031729 -1.160831 0.058836 -0.335973 0.000642 0.008372
    22 -0.963866 -2.785142 -0.085346 -0.609796 0.267585 0.317863
    23 0.028479 -1.403068 0.006271 -1.150412 0.000000 0.000000
    24 0.021413 -0.957782 0.020047 -0.616019 0.000000 0.000000
    25 1.164474 -2.543938 -0.170328 -0.983966 0.070580 0.675853
    26 0.024032 -1.129043 0.017806 -1.337944 0.000000 0.000001
    27 0.014896 -0.883989 -0.019845 -0.672931 0.000000 0.000000
    28 -0.586770 -1.264475 0.200164 -0.186364 -1.053830 -3.148928
    29 1.522835 0.058681 0.016850 0.035029 0.111357 0.871431
    30 1.117948 0.048424 -0.005764 -0.015320 -0.019661 0.717991
    31 -0.057365 -0.119510 0.041742 0.574644 0.064105 1.500021
    32 -0.488517 -2.755600 -0.228261 -0.619222 -0.044186 -0.439117
    33 0.039888 -1.479789 0.029853 -2.158258 0.000000 0.000000
    34 0.028785 -1.075730 -0.023111 -0.647509 0.000000 0.000000
    35 0.250028 -2.820663 -0.238396 -0.535674 0.054413 -0.329163
    36 -0.049759 -1.680545 0.100480 -1.871489 0.000000 -0.000002
    37 -0.034141 -1.148312 0.084779 -1.387518 0.000000 0.000000
    38 0.934328 -2.789746 0.124549 0.136589 -0.026827 -0.329408
    39 -0.033419 -1.393223 -0.081570 -1.382432 -0.032275 -0.008534
    40 -0.022361 -0.957434 0.018783 -1.792794 0.000000 0.000000
    41 -1.180680 -2.507215 -0.193861 -0.379706 0.103261 -0.518998
    42 -0.024966 -1.123934 0.017594 -2.136747 0.000000 0.000001
    43 -0.020057 -0.890966 0.010091 -0.896554 0.000000 0.000000
    44 0.583510 -1.197274 0.185377 0.220453 -0.870283 -0.672925
    45 1.535926 0.010245 0.005008 -0.063786 0.310988 -1.032101
    46 1.100770 0.004526 -0.010676 -0.009999 0.012761 -0.488483
    47 0.006867 -0.065891 -0.085739 -2.852831 -0.015617 -1.424341
  time 14
    0 10.549371 -2.923557 -11.297213 4.178586 -0.770311 -4.800855
    1 -0.071918 -8.498731 -0.104137 0.315221 0.472039 -0.645747
    2 1.665510 -2.904478 0.631343 -0.234326 0.084943 -3.486601
    3 0.037088 1.836796 0.000000 0.000000 0.000000 0.679463
    4 -1.699721 2.222293 0.000421 0.000000 0.000000 -1.282538
    5 -5.655031 16.263659 1.047437 0.005898 -1.121418 -1.279905
    6 7.696722 0.021893 -0.405259 -0.001707 0.561568 -0.000383
    7 6.499035 0.037860 -0.093995 -1.570617 1.505568 -3.138681
    8 -5.655030 16.263657 -1.043029 3.135696 1.121416 -1.279904
    9 7.721393 -0.021960 -0.393362 0.001706 0.561568 0.000382
    10 6.490693 -0.037835 -0.107306 1.570613 1.505565 3.138681
    11 -0.489117 10.226307 1.194557 0.000000 0.000000 -1.282132
    12 1.189389 -0.715381 -0.936736 -1.180542 0.000000 0.003685
    13 -2.647894 8.542626 -0.000005 0.000000 0.000000 -1.274576
    14 -0.726382 -15.660199 -14.357625 -1.156622 -5.590453 -0.110758
    15 0.096944 -8.450419 -0.009364 -0.005970 -0.540417 0.157854
    16 0.447952 -2.798982 -0.200442 -1.014489 0.150910 0.644051
    17 -0.032910 -1.480206 0.004936 -1.431586 0.000000 0.000002
    18 -0.027022 -1.076919 -0.020212 -0.473979 0.000000 0.000000
    19 -0.249534 -2.846962 -0.174215 -0.473080 0.210085 0.362128
    20 0.043235 -1.683939 0.096014 -1.793930 0.002823 -0.000167
    21 0.031729 -1.160831 0.058836 -0.335973 0.000642 0.008372
    22 -0.963866 -2.785142 -0.085346 -0.609796 0.267585 0.317863
    23 0.028479 -1.403068 0.006271 -1.150412 0.000000 0.000000
    24 0.021413 -0.957782 0.020047 -0.616019 0.000000 0.000000
    25 1.164474 -2.543938 -0.170328 -0.983966 0.070580 0.675853
    26 0.024032 -1.129043 0.017806 -1.337944 0.000000 0.000001
    27 0.014896 -0.883989 -0.019845 -0.672931 0.000000 0.000000
    28 -0.586770 -1.264475 0.200164 -0.186364 -1.053830 -3.148928
    29 1.522835 0.058681 0.016850 0.035029 0.111357 0.871431
    30 1.117948 0.048424 -0.005764 -0.015320 -0.019661 0.717991
    31 -0.057365 -0.119510 0.041742 0.574644 0.064105 1.500021
    32 -0.488517 -2.755600 -0.228261 -0.619222 -0.044186 -0.439117
    33 0.039888 -1.479789 0.029853 -2.158258 0.000000 0.000000
    34 0.028785 -1.075730 -0.023111 -0.647509 0.000000 0.000000
    35 0.250028 -2.820663 -0.238396 -0.535674 0.054413 -0.329163
    36 -0.049759 -1.680545 0.100480 -1.871489 0.000000 -0.000002
    37 -0.034141 -1.148312 0.084779 -1.387518 0.000000 0.000000
    38 0.934328 -2.789746 0.124549 0.136589 -0.026827 -0.329408
    39 -0.033419 -1.393223 -0.081570 -1.382432 -0.032275 -0.008534
    40 -0.022361 -0.957434 0.018783 -1.792794 0.000000 0.000000
    41 -1.180680 -2.507215 -0.193861 -0.379706 0.103261 -0.518998
    42 -0.024966 -1.123934 0.017594 -2.136747 0.000000 0.000001
    43 -0.020057 -0.890966 0.010091 -0.896554 0.000000 0.000000
    44 0.583510 -1.197274 0.185377 0.220453 -0.870283 -0.672925
    45 1.535926 0.010245 0.005008 -0.063786 0.310988 -1.032101
    46 1.100770 0.004526 -0.010676 -0.009999 0.012761 -0.488483
    47 0.006867 -0.065891 -0.085739 -2.852831 -0.015617 -1.424341
  time 15
    0 10.549371 -2.911838 -11.301119 4.178586 -0.770311 -4.800855
    1 -0.071918 -8.498731 -0.104137 0.314801 0.472306 -0.646686
    2 1.665510 -2.904478 0.631343 -0.234326 0.084943 -3.486601
    3 0.037088 1.836796 0.000000 0.000000 0.000000 0.679463
    4 -1.699721 2.222293 0.000421 0.000000 0.000000 -1.282538
    5 -5.655031 16.263659 1.047437 0.005898 -1.121418 -1.279905
    6 7.696722 0.021893 -0.405259 -0.001707 0.561568 -0.000383
    7 6.499035 0.037860 -0.093995 -1.570617 1.505568 -3.138681
    8 -5.655030 16.263657 -1.043029 3.135696 1.121416 -1.279904
    9 7.721393 -0.021960 -0.393362 0.001706 0.561568 0.000382
    10 6.490693 -0.037835 -0.107306 1.570613 1.505565 3.138681
    11 -0.489117 10.226307 1.194557 0.000000 0.000000 -1.282132
    12 1.189389 -0.715381 -0.936736 -1.180542 0.000000 0.003685
    13 -2.647894 8.542626 -0.000005 0.000000 0.000000 -1.274576
    14 -0.726382 -15.668012 -14.388876 -1.156622 -5.590453 -0.110758
    15 0.096944 -8.450419 -0.009364 -0.005970 -0.540417 0.157854
    16 0.447952 -2.798982 -0.200442 -1.014489 0.150910 0.644051
    17 -0.032910 -1.480206 0.004936 -1.431586 0.000000 0.000002
    18 -0.027022 -1.076919 -0.020212 -0.473979 0.000000 0.000000
    19 -0.249534 -2.846962 -0.174215 -0.473080 0.210085 0.362128
    20 0.043235 -1.683939 0.096014 -1.793930 0.002823 -0.000167
    21 0.031729 -1.160831 0.058836 -0.335973 0.000642 0.008372
    22 -0.963866 -2.785142 -0.085346 -0.609796 0.267585 0.317863
    23 0.028479 -1.403068 0.006271 -1.150412 0.000000 0.000000
    24 0.021413 -0.957782 0.020047 -0.616019 0.000000 0.000000
    25 1.164474 -2.543938 -0.170328 -0.983966 0.070580 0.675853
    26 0.024032 -1.129043 0.017806 -1.337944 0.000000 0.000001
    27 0.014896 -0.883989 -0.019845 -0.672931 0.000000 0.000000
    28 -0.586770 -1.264475 0.200164 -0.186364 -1.053830 -3.148928
    29 1.522835 0.058681 0.016850 0.035029 0.111357 0.871431
    30 1.117948 0.048424 -0.005764 -0.015320 -0.019661 0.717991
    31 -0.057365 -0.119510 0.041742 0.574644 0.064105 1.500021
    32 -0.488517 -2.755600 -0.228261 -0.619222 -0.044186 -0.439117
    33 0.039888 -1.479789 0.029853 -2.158258 0.000000 0.000000
    34 0.028785 -1.075730 -0.023111 -0.647509 0.000000 0.000000
    35 0.250028 -2.820663 -0.238396 -0.535674 0.054413 -0.329163
    36 -0.049759 -1.680545 0.100480 -1.871489 0.000000 -0.000002
    37 -0.034141 -1.148312 0.084779 -1.387518 0.000000 0.000000
    38 0.934328 -2.789746 0.124549 0.136589 -0.026827 -0.329408
    39 -0.033419 -1.393223 -0.081570 -1.382432 -0.032275 -0.008534
    40 -0.022361 -0.957434 0.018783 -1.792794 0.000000 0.000000
    41 -1.180680 -2.507215 -0.193861 -0.379706 0.103261 -0.518998
    42 -0.024966 -1.123934 0.017594 -2.136747 0.000000 0.000001
    43 -0.020057 -0.890966 0.010091 -0.896554 0.000000 0.000000
    44 0.583510 -1.197274 0.185377 0.220453 -0.870283 -0.672925
    45 1.535926 0.010245 0.005008 -0.063786 0.310988 -1.032101
    46 1.100770 0.004526 -0.010676 -0.009999 0.012761 -0.488483
    47 0.006867 -0.065891 -0.085739 -2.852831 -0.015617 -1.424341
  time 16
    0 10.549371 -2.896213 -11.308932 4.178586 -0.770311 -4.800855
    1 -0.071918 -8.498731 -0.104137 0.314832 0.472279 -0.646614
    2 1.665510 -2.904478 0.631343 -0.234326 0.084943 -3.486601
    3 0.037088 1.836796 0.000000 0.000000 0.000000 0.679463
    4 -1.699721 2.222293 0.000421 0.000000 0.000000 -1.282538
    5 -5.655031 16.263659 1.047437 0.005898 -1.121418 -1.279905
    6 7.696722 0.021893 -0.405259 -0.001707 0.561568 -0.000383
    7 6.499035 0.037860 -0.093995 -1.570617 1.505568 -3.138681
    8 -5.655030 16.263657 -1.043029 3.135696 1.121416 -1.279904
    9 7.721393 -0.021960 -0.393362 0.001706 0.561568 0.000382
    10 6.490693 -0.037835 -0.107306 1.570613 1.505565 3.138681
    11 -0.489117 10.226307 1.194557 0.000000 0.000000 -1.282132
    12 1.189389 -0.715381 -0.936736 -1.180542 0.000000 0.003685
    13 -2.647894 8.542626 -0.000005 0.000000 0.000000 -1.274576
    14 -0.726382 -15.668012 -14.420127 -1.156622 -5.590453 -0.110758
    15 0.096944 -8.450419 -0.009364 -0.005970 -0.540417 0.157854
    16 0.447952 -2.798982 -0.200442 -1.014489 0.150910 0.644051
    17 -0.032910 -1.480206 0.004936 -1.431586 0.000000 0.000002
    18 -0.027022 -1.076919 -0.020212 -0.473979 0.000000 0.000000
    19 -0.249534 -2.846962 -0.174215 -0.473080 0.210085 0.362128
    20 0.043235 -1.683939 0.096014 -1.793930 0.002823 -0.000167
    21 0.031729 -1.160831 0.058836 -0.335973 0.000642 0.008372
    22 -0.963866 -2.785142 -0.085346 -0.609796 0.267585 0.317863
    23 0.028479 -1.403068 0.006271 -1.150412 0.000000 0.000000
    24 0.021413 -0.957782 0.020047 -0.616019 0.000000 0.000000
    25 1.164474 -2.543938 -0.170328 -0.983966 0.070580 0.675853
    26 0.024032 -1.129043 0.017806 -1.337944 0.000000 0.000001
    27 0.014896 -0.883989 -0.019845 -0.672931 0.000000 0.000000
    28 -0.586770 -1.264475 0.200164 -0.186364 -1.053830 -3.148928
    29 1.522835 0.058681 0.016850 0.035029 0.111357 0.871431
    30 1.117948 0.048424 -0.005764 -0.015320 -0.019661 0.717991
    31 -0.057365 -0.119510 0.041742 0.574644 0.064105 1.500021
    32 -0.488517 -2.755600 -0.228261 -0.619222 -0.044186 -0.439117
    33 0.039888 -1.479789 0.029853 -2.158258 0.000000 0.000000
    34 0.028785 -1.075730 -0.023111 -0.647509 0.000000 0.000000
    35 0.250028 -2.820663 -0.238396 -0.535674 0.054413 -0.329163
    36 -0.049759 -1.680545 0.100480 -1.871489 0.000000 -0.000002
    37 -0.034141 -1.148312 0.084779 -1.387518 0.000000 0.000000
    38 0.938234 -2.781933 0.093298 0.150419 -0.031753 -0.308199
    39 -0.033419 -1.393223 -0.069851 -0.976499 -0.032275 -0.008534
    40 -0.022361 -0.957434 0.018783 -1.584827 0.000000 0.000000
    41 -1.180680 -2.507215 -0.193861 -0.379706 0.103261 -0.518998
    42 -0.024966 -1.123934 0.017594 -2.136747 0.000000 0.000001
    43 -0.020057 -0.890966 0.010091 -0.896554 0.000000 0.000000
    44 0.583510 -1.197274 0.185377 0.220453 -0.870283 -0.672925
    45 1.535926 0.010245 0.005008 -0.063786 0.310988 -1.032101
    46 1.100770 0.004526 -0.010676 -0.009999 0.012761 -0.488483
    47 0.006867 -0.065891 -0.085739 -2.852831 -0.015617 -1.424341
  time 17
    0 10.549371 -2.880587 -11.312838 4.178586 -0.770311 -4.800855
    1 -0.071918 -8.498731 -0.104137 0.314925 0.472226 -0.646397
    2 1.665510 -2.904478 0.631343 -0.234326 0.084943 -3.486601
    3 0.037088 1.836796 0.000000 0.000000 0.000000 0.679463
    4 -1.699721 2.222293 0.000421 0.000000 0.000000 -1.282538
    5 -5.655031 16.263659 1.047437 0.005898 -1.121418 -1.279905
    6 7.696722 0.021893 -0.405259 -0.001707 0.561568 -0.000383
    7 6.499035 0.037860 -0.093995 -1.570617 1.505568 -3.138681
    8 -5.655030 16.263657 -1.043029 3.135696 1.121416 -1.279904
    9 7.721393 -0.021960 -0.393362 0.001706 0.561568 0.000382
    10 6.490693 -0.037835 -0.107306 1.570613 1.505565 3.138681
    11 -0.489117 10.226307 1.194557 0.000000 0.000000 -1.282132
    12 1.189389 -0.715381 -0.936736 -1.180542 0.000000 0.003685
    13 -2.647894 8.542626 -0.000005 0.000000 0.000000 -1.274576
    14 -0.726382 -15.656293 -14.447472 -1.156622 -5.590453 -0.110758
    15 0.096944 -8.450419 -0.009364 -0.005970 -0.540417 0.157854
    16 0.447952 -2.798982 -0.200442 -1.014489 0.150910 0.644051
    17 -0.032910 -1.480206 0.004936 -1.431586 0.000000 0.000002
    18 -0.027022 -1.076919 -0.020212 -0.473979 0.000000 0.000000
    19 -0.249534 -2.846962 -0.174215 -0.473080 0.210085 0.362128
    20 0.043235 -1.683939 0.096014 -1.793930 0.002823 -0.000167
    21 0.031729 -1.160831 0.058836 -0.335973 0.000642 0.008372
    22 -0.963866 -2.785142 -0.085346 -0.609796 0.267585 0.317863
    23 0.028479 -1.403068 0.006271 -1.150412 0.000000 0.000000
    24 0.021413 -0.957782 0.020047 -0.616019 0.000000 0.000000
    25 1.164474 -2.543938 -0.170328 -0.983966 0.070580 0.675853
    26 0.024032 -1.129043 0.017806 -1.337944 0.000000 0.000001
    27 0.014896 -0.883989 -0.019845 -0.672931 0.000000 0.000000
    28 -0.586770 -1.264475 0.200164 -0.186364 -1.053830 -3.148928
    29 1.522835 0.058681 0.016850 0.035029 0.111357 0.871431
    30 1.117948 0.048424 -0.005764 -0.015320 -0.019661 0.717991
    31 -0.057365 -0.119510 0.041742 0.574644 0.064105 1.500021
    32 -0.488517 -2.755600 -0.228261 -0.619222 -0.044186 -0.439117
    33 0.039888 -1.479789 0.029853 -2.158258 0.000000 0.000000
    34 0.028785 -1.075730 -0.023111 -0.647509 0.000000 0.000000
    35 0.250028 -2.820663 -0.238396 -0.535674 0.054413 -0.329163
    36 -0.049759 -1.680545 0.100480 -1.871489 0.000000 -0.000002
    37 -0.034141 -1.148312 0.084779 -1.387518 0.000000 0.000000
    38 0.946047 -2.766308 0.015171 0.180860 -0.042587 -0.261519
    39 -0.033419 -1.397129 -0.046412 -0.420816 -0.032275 -0.008534
    40 -0.022361 -0.957434 0.018783 -1.152281 0.000000 0.000000
    41 -1.180680 -2.507215 -0.193861 -0.379706 0.103261 -0.518998
    42 -0.024966 -1.123934 0.017594 -2.136747 0.000000 0.000001
    43 -0.020057 -0.890966 0.010091 -0.896554 0.000000 0.000000
    44 0.583510 -1.197274 0.185377 0.220453 -0.870283 -0.672925
    45 1.535926 0.010245 0.005008 -0.063786 0.310988 -1.032101
    46 1.100770 0.004526 -0.010676 -0.009999 0.012761 -0.488483
    47 0.006867 -0.065891 -0.085739 -2.852831 -0.015617 -1.424341
  time 18
    0 10.549371 -2.864962 -11.316745 4.178586 -0.770311 -4.800855
    1 -0.071918 -8.498731 -0.104137 0.315081 0.472146 -0.646084
    2 1.665510 -2.904478 0.631343 -0.234326 0.084943 -3.486601
    3 0.037088 1.836796 0.000000 0.000000 0.000000 0.679463
    4 -1.699721 2.222293 0.000421 0.000000 0.000000 -1.282538
    5 -5.655031 16.263659 1.047437 0.005898 -1.121418 -1.279905
    6 7.696722 0.021893 -0.405259 -0.001707 0.561568 -0.000383
    7 6.499035 0.037860 -0.093995 -1.570617 1.505568 -3.138681
    8 -5.655030 16.263657 -1.043029 3.135696 1.121416 -1.279904
    9 7.721393 -0.021960 -0.393362 0.001706 0.561568 0.000382
    10 6.490693 -0.037835 -0.107306 1.570613 1.505565 3.138681
    11 -0.489117 10.226307 1.194557 0.000000 0.000000 -1.282132
    12 1.189389 -0.715381 -0.936736 -1.180542 0.000000 0.003685
    13 -2.647894 8.542626 -0.000005 0.000000 0.000000 -1.274576
    14 -0.726382 -15.644574 -14.474816 -1.156622 -5.590453 -0.110758
    15 0.096944 -8.450419 -0.009364 -0.005970 -0.540417 0.157854
    16 0.447952 -2.798982 -0.200442 -1.014489 0.150910 0.644051
    17 -0.032910 -1.480206 0.004936 -1.431586 0.000000 0.000002
    18 -0.027022 -1.076919 -0.020212 -0.473979 0.000000 0.000000
    19 -0.249534 -2.846962 -0.174215 -0.473080 0.210085 0.362128
    20 0.043235 -1.683939 0.096014 -1.793930 0.002823 -0.000167
    21 0.031729 -1.160831 0.058836 -0.335973 0.000642 0.008372
    22 -0.963866 -2.785142 -0.085346 -0.609796 0.267585 0.317863
    23 0.028479 -1.403068 0.006271 -1.150412 0.000000 0.000000
    24 0.021413 -0.957782 0.020047 -0.616019 0.000000 0.000000
    25 1.164474 -2.543938 -0.170328 -0.983966 0.070580 0.675853
    26 0.024032 -1.129043 0.017806 -1.337944 0.000000 0.000001
    27 0.014896 -0.883989 -0.019845 -0.672931 0.000000 0.000000
    28 -0.586770 -1.264475 0.200164 -0.186364 -1.053830 -3.148928
    29 1.522835 0.058681 0.016850 0.035029 0.111357 0.871431
    30 1.117948 0.048424 -0.005764 -0.015320 -0.019661 0.717991
    31 -0.057365 -0.119510 0.041742 0.574644 0.064105 1.500021
    32 -0.488517 -2.755600 -0.228261 -0.619222 -0.044186 -0.439117
    33 0.039888 -1.479789 0.029853 -2.158258 0.000000 0.000000
    34 0.028785 -1.075730 -0.023111 -0.647509 0.000000 0.000000
    35 0.250028 -2.820663 -0.238396 -0.535674 0.054413 -0.329163
    36 -0.049759 -1.680545 0.100480 -1.871489 0.000000 -0.000002
    37 -0.034141 -1.148312 0.084779 -1.387518 0.000000 0.000000
    38 0.953860 -2.750682 -0.059050 0.211301 -0.053433 -0.214855
    39 -0.033419 -1.397129 -0.019068 -0.227517 -0.032275 -0.008534
    40 -0.022361 -0.957434 0.018783 -0.461928 0.000000 0.000000
    41 -1.180680 -2.507215 -0.193861 -0.379706 0.103261 -0.518998
    42 -0.024966 -1.123934 0.017594 -2.136747 0.000000 0.000001
    43 -0.020057 -0.890966 0.010091 -0.896554 0.000000 0.000000
    44 0.583510 -1.197274 0.185377 0.220453 -0.870283 -0.672925
    45 1.535926 0.010245 0.005008 -0.063786 0.310988 -1.032101
    46 1.100770 0.004526 -0.010676 -0.009999 0.012761 -0.488483
    47 0.006867 -0.065891 -0.085739 -2.852831 -0.015617 -1.424341
  time 19
    0 10.549371 -2.849336 -11.324557 4.178586 -0.770311 -4.800855
    1 -0.071918 -8.498731 -0.104137 0.315267 0.472012 -0.645650
    2 1.665510 -2.904478 0.631343 -0.234326 0.084943 -3.486601
    3 0.037088 1.836796 0.000000 0.000000 0.000000 0.679463
    4 -1.699721 2.222293 0.000421 0.000000 0.000000 -1.282538
    5 -5.655031 16.263659 1.047437 0.005898 -1.121418 -1.279905
    6 7.696722 0.021893 -0.405259 -0.001707 0.561568 -0.000383
    7 6.499035 0.037860 -0.093995 -1.570617 1.505568 -3.138681
    8 -5.655030 16.263657 -1.043029 3.135696 1.121416 -1.279904
    9 7.721393 -0.021960 -0.393362 0.001706 0.561568 0.000382
    10 6.490693 -0.037835 -0.107306 1.570613 1.505565 3.138681
    11 -0.489117 10.226307 1.194557 0.000000 0.000000 -1.282132
    12 1.189389 -0.715381 -0.936736 -1.180542 0.000000 0.003685
    13 -2.647894 8.542626 -0.000005 0.000000 0.000000 -1.274576
    14 -0.726382 -15.628948 -14.502161 -1.156622 -5.590453 -0.110758
    15 0.096944 -8.450419 -0.009364 -0.005970 -0.540417 0.157854
    16 0.447952 -2.798982 -0.200442 -1.014489 0.150910 0.644051
    17 -0.032910 -1.480206 0.004936 -1.431586 0.000000 0.000002
    18 -0.027022 -1.076919 -0.020212 -0.473979 0.000000 0.000000
    19 -0.249534 -2.846962 -0.174215 -0.473080 0.210085 0.362128
    20 0.043235 -1.683939 0.096014 -1.793930 0.002823 -0.000167
    21 0.031729 -1.160831 0.058836 -0.335973 0.000642 0.008372
    22 -0.963866 -2.785142 -0.085346 -0.609796 0.267585 0.317863
    23 0.028479 -1.403068 0.006271 -1.150412 0.000000 0.000000
    24 0.021413 -0.957782 0.020047 -0.616019 0.000000 0.000000
    25 1.164474 -2.543938 -0.170328 -0.983966 0.070580 0.675853
    26 0.024032 -1.129043 0.017806 -1.337944 0.000000 0.000001
    27 0.014896 -0.883989 -0.019845 -0.672931 0.000000 0.000000
    28 -0.586770 -1.264475 0.200164 -0.186364 -1.053830 -3.148928
    29 1.522835 0.058681 0.016850 0.035029 0.111357 0.871431
    30 1.117948 0.048424 -0.005764 -0.015320 -0.019661 0.717991
    31 -0.057365 -0.119510 0.041742 0.574644 0.064105 1.500021
    32 -0.488517 -2.755600 -0.228261 -0.619222 -0.044186 -0.439117
    33 0.039888 -1.479789 0.029853 -2.158258 0.000000 0.000000
    34 0.028785 -1.075730 -0.023111 -0.647509 0.000000 0.000000
    35 0.250028 -2.820663 -0.238396 -0.535674 0.054413 -0.329163
    36 -0.049759 -1.680545 0.100480 -1.871489 0.000000 -0.000002
    37 -0.034141 -1.148312 0.084779 -1.387518 0.000000 0.000000
    38 0.957766 -2.746776 -0.090301 0.225143 -0.058359 -0.193630
    39 -0.033419 -1.397129 -0.011255 -0.184014 -0.032275 -0.008534
    40 -0.022361 -0.957434 0.018783 0.003845 0.000000 0.000000
    41 -1.180680 -2.507215 -0.193861 -0.379706 0.103261 -0.518998
    42 -0.024966 -1.123934 0.017594 -2.136747 0.000000 0.000001
    43 -0.020057 -0.890966 0.010091 -0.896554 0.000000 0.000000
    44 0.583510 -1.197274 0.185377 0.220453 -0.870283 -0.672925
    45 1.535926 0.010245 0.005008 -0.063786 0.310988 -1.032101
    46 1.100770 0.004526 -0.010676 -0.009999 0.012761 -0.488483
    47 0.006867 -0.065891 -0.085739 -2.852831 -0.015617 -1.424341
  time 20
    0 10.549371 -2.837617 -11.328464 4.178586 -0.770311 -4.800855
    1 -0.071918 -8.498731 -0.104137 0.315485 0.471878 -0.645168
    2 1.665510 -2.904478 0.631343 -0.234326 0.084943 -3.486601
    3 0.037088 1.836796 0.000000 0.000000 0.000000 0.679463
    4 -1.699721 2.222293 0.000421 0.000000 0.000000 -1.282538
    5 -5.655031 16.263659 1.047437 0.005898 -1.121418 -1.279905
    6 7.696722 0.021893 -0.405259 -0.001707 0.561568 -0.000383
    7 6.499035 0.037860 -0.093995 -1.570617 1.505568 -3.138681
    8 -5.655030 16.263657 -1.043029 3.135696 1.121416 -1.279904
    9 7.721393 -0.021960 -0.393362 0.001706 0.561568 0.000382
    10 6.490693 -0.037835 -0.107306 1.570613 1.505565 3.138681
    11 -0.489117 10.226307 1.194557 0.000000 0.000000 -1.282132
    12 1.189389 -0.715381 -0.936736 -1.180542 0.000000 0.003685
    13 -2.647894 8.542626 -0.000005 0.000000 0.000000 -1.274576
    14 -0.726382 -15.613323 -14.521693 -1.156622 -5.590453 -0.110758
    15 0.096944 -8.450419 -0.009364 -0.005970 -0.540417 0.157854
    16 0.447952 -2.798982 -0.200442 -1.014489 0.150910 0.644051
    17 -0.032910 -1.480206 0.004936 -1.431586 0.000000 0.000002
    18 -0.027022 -1.076919 -0.020212 -0.473979 0.000000 0.000000
    19 -0.249534 -2.846962 -0.174215 -0.473080 0.210085 0.362128
    20 0.043235 -1.683939 0.096014 -1.793930 0.002823 -0.000167
    21 0.031729 -1.160831 0.058836 -0.335973 0.000642 0.008372
    22 -0.963866 -2.785142 -0.085346 -0.609796 0.267585 0.317863
    23 0.028479 -1.403068 0.006271 -1.150412 0.000000 0.000000
    24 0.021413 -0.957782 0.020047 -0.616019 0.000000 0.000000
    25 1.164474 -2.543938 -0.170328 -0.983966 0.070580 0.675853
    26 0.024032 -1.129043 0.017806 -1.337944 0.000000 0.000001
    27 0.014896 -0.883989 -0.019845 -0.672931 0.000000 0.000000
    28 -0.586770 -1.264475 0.200164 -0.186364 -1.053830 -3.148928
    29 1.522835 0.058681 0.016850 0.035029 0.111357 0.871431
    30 1.117948 0.048424 -0.005764 -0.015320 -0.019661 0.717991
    31 -0.057365 -0.119510 0.041742 0.574644 0.064105 1.500021
    32 -0.488517 -2.755600 -0.228261 -0.619222 -0.044186 -0.439117
    33 0.039888 -1.479789 0.029853 -2.158258 0.000000 0.000000
    34 0.028785 -1.075730 -0.023111 -0.647509 0.000000 0.000000
    35 0.250028 -2.820663 -0.238396 -0.535674 0.054413 -0.329163
    36 -0.049759 -1.680545 0.100480 -1.871489 0.000000 -0.000002
    37 -0.034141 -1.148312 0.084779 -1.387518 0.000000 0.000000
    38 0.957766 -2.746776 -0.090301 0.225143 -0.058359 -0.193630
    39 -0.033419 -1.397129 -0.011255 -0.184014 -0.032275 -0.008534
    40 -0.022361 -0.957434 0.018783 0.003845 0.000000 0.000000
    41 -1.180680 -2.507215 -0.193861 -0.379706 0.103261 -0.518998
    42 -0.024966 -1.123934 0.017594 -2.136747 0.000000 0.000001
    43 -0.020057 -0.890966 0.010091 -0.896554 0.000000 0.000000
    44 0.583510 -1.197274 0.185377 0.220453 -0.870283 -0.672925
    45 1.535926 0.010245 0.005008 -0.063786 0.310988 -1.032101
    46 1.100770 0.004526 -0.010676 -0.009999 0.012761 -0.488483
    47 0.006867 -0.065891 -0.085739 -2.852831 -0.015617 -1.424341
  time 21
    0 10.549371 -2.829804 -11.328464 4.178586 -0.770311 -4.800855
    1 -0.071918 -8.498731 -0.104137 0.315734 0.471718 -0.644614
    2 1.665510 -2.904478 0.631343 -0.234326 0.084943 -3.486601
    3 0.037088 1.836796 0.000000 0.000000 0.000000 0.679463
    4 -1.699721 2.222293 0.000421 0.000000 0.000000 -1.282538
    5 -5.655031 16.263659 1.047437 0.005898 -1.121418 -1.279905
    6 7.696722 0.021893 -0.405259 -0.001707 0.561568 -0.000383
    7 6.499035 0.037860 -0.093995 -1.570617 1.505568 -3.138681
    8 -5.655030 16.263657 -1.043029 3.135696 1.121416 -1.279904
    9 7.721393 -0.021960 -0.393362 0.001706 0.561568 0.000382
    10 6.490693 -0.037835 -0.107306 1.570613 1.505565 3.138681
    11 -0.489117 10.226307 1.194557 0.000000 0.000000 -1.282132
    12 1.189389 -0.715381 -0.936736 -1.180542 0.000000 0.003685
    13 -2.647894 8.542626 -0.000005 0.000000 0.000000 -1.274576
    14 -0.726382 -15.593791 -14.537318 -1.156622 -5.590453 -0.110758
    15 0.096944 -8.450419 -0.009364 -0.005970 -0.540417 0.157854
    16 0.447952 -2.798982 -0.200442 -1.014489 0.150910 0.644051
    17 -0.032910 -1.480206 0.004936 -1.431586 0.000000 0.000002
    18 -0.027022 -1.076919 -0.020212 -0.473979 0.000000 0.000000
    19 -0.249534 -2.846962 -0.174215 -0.473080 0.210085 0.362128
    20 0.043235 -1.683939 0.096014 -1.793930 0.002823 -0.000167
    21 0.031729 -1.160831 0.058836 -0.335973 0.000642 0.008372
    22 -0.963866 -2.785142 -0.085346 -0.609796 0.267585 0.317863
    23 0.028479 -1.403068 0.006271 -1.150412 0.000000 0.000000
    24 0.021413 -0.957782 0.020047 -0.616019 0.000000 0.000000
    25 1.164474 -2.543938 -0.170328 -0.983966 0.070580 0.675853
    26 0.024032 -1.129043 0.017806 -1.337944 0.000000 0.000001
    27 0.014896 -0.883989 -0.019845 -0.672931 0.000000 0.000000
    28 -0.586770 -1.264475 0.200164 -0.186364 -1.053830 -3.148928
    29 1.522835 0.058681 0.016850 0.035029 0.111357 0.871431
    30 1.117948 0.048424 -0.005764 -0.015320 -0.019661 0.717991
    31 -0.057365 -0.119510 0.041742 0.574644 0.064105 1.500021
    32 -0.488517 -2.755600 -0.228261 -0.619222 -0.044186 -0.439117
    33 0.039888 -1.479789 0.029853 -2.158258 0.000000 0.000000
    34 0.028785 -1.075730 -0.023111 -0.647509 0.000000 0.000000
    35 0.250028 -2.820663 -0.238396 -0.535674 0.054413 -0.329163
    36 -0.049759 -1.680545 0.100480 -1.871489 0.000000 -0.000002
    37 -0.034141 -1.148312 0.084779 -1.387518 0.000000 0.000000
    38 0.957766 -2.746776 -0.090301 0.225143 -0.058359 -0.193630
    39 -0.033419 -1.397129 -0.011255 -0.184014 -0.032275 -0.008534
    40 -0.022361 -0.957434 0.018783 0.003845 0.000000 0.000000
    41 -1.180680 -2.507215 -0.193861 -0.379706 0.103261 -0.518998
    42 -0.024966 -1.123934 0.017594 -2.136747 0.000000 0.000001
    43 -0.020057 -0.890966 0.010091 -0.896554 0.000000 0.000000
    44 0.583510 -1.197274 0.185377 0.220453 -0.870283 -0.672925
    45 1.535926 0.010245 0.005008 -0.063786 0.310988 -1.032101
    46 1.100770 0.004526 -0.010676 -0.009999 0.012761 -0.488483
    47 0.006867 -0.065891 -0.085739 -2.852831 -0.015617 -1.424341
  time 22
    0 10.549371 -2.825898 -11.332370 4.178586 -0.770311 -4.800855
    1 -0.071918 -8.498731 -0.104137 0.315998 0.471531 -0.644036
    2 1.665510 -2.904478 0.631343 -0.234326 0.084943 -3.486601
    3 0.037088 1.836796 0.000000 0.000000 0.000000 0.679463
    4 -1.699721 2.222293 0.000421 0.000000 0.000000 -1.282538
    5 -5.655031 16.263659 1.047437 0.005898 -1.121418 -1.279905
    6 7.696722 0.021893 -0.405259 -0.001707 0.561568 -0.000383
    7 6.499035 0.037860 -0.093995 -1.570617 1.505568 -3.138681
    8 -5.655030 16.263657 -1.043029 3.135696 1.121416 -1.279904
    9 7.721393 -0.021960 -0.393362 0.001706 0.561568 0.000382
    10 6.490693 -0.037835 -0.107306 1.570613 1.505565 3.138681
    11 -0.489117 10.226307 1.194557 0.000000 0.000000 -1.282132
    12 1.189389 -0.715381 -0.936736 -1.180542 0.000000 0.003685
    13 -2.647894 8.542626 -0.000005 0.000000 0.000000 -1.274576
    14 -0.726382 -15.582072 -14.541225 -1.156622 -5.590453 -0.110758
    15 0.096944 -8.450419 -0.009364 -0.005970 -0.540417 0.157854
    16 0.447952 -2.798982 -0.200442 -1.014489 0.150910 0.644051
    17 -0.032910 -1.480206 0.004936 -1.431586 0.000000 0.000002
    18 -0.027022 -1.076919 -0.020212 -0.473979 0.000000 0.000000
    19 -0.249534 -2.846962 -0.174215 -0.473080 0.210085 0.362128
    20 0.043235 -1.683939 0.096014 -1.793930 0.002823 -0.000167
    21 0.031729 -1.160831 0.058836 -0.335973 0.000642 0.008372
    22 -0.963866 -2.785142 -0.085346 -0.609796 0.267585 0.317863
    23 0.028479 -1.403068 0.006271 -1.150412 0.000000 0.000000
    24 0.021413 -0.957782 0.020047 -0.616019 0.000000 0.000000
    25 1.164474 -2.543938 -0.170328 -0.983966 0.070580 0.675853
    26 0.024032 -1.129043 0.017806 -1.337944 0.000000 0.000001
    27 0.014896 -0.883989 -0.019845 -0.672931 0.000000 0.000000
    28 -0.586770 -1.264475 0.200164 -0.186364 -1.053830 -3.148928
    29 1.522835 0.058681 0.016850 0.035029 0.111357 0.871431
    30 1.117948 0.048424 -0.005764 -0.015320 -0.019661 0.717991
    31 -0.057365 -0.119510 0.041742 0.574644 0.064105 1.500021
    32 -0.488517 -2.755600 -0.228261 -0.619222 -0.044186 -0.439117
    33 0.039888 -1.479789 0.029853 -2.158258 0.000000 0.000000
    34 0.028785 -1.075730 -0.023111 -0.647509 0.000000 0.000000
    35 0.250028 -2.820663 -0.238396 -0.535674 0.054413 -0.329163
    36 -0.049759 -1.680545 0.100480 -1.871489 0.000000 -0.000002
    37 -0.034141 -1.148312 0.084779 -1.387518 0.000000 0.000000
    38 0.957766 -2.746776 -0.090301 0.225143 -0.058359 -0.193630
    39 -0.033419 -1.397129 -0.011255 -0.184014 -0.032275 -0.008534
    40 -0.022361 -0.957434 0.018783 0.003845 0.000000 0.000000
    41 -1.180680 -2.507215 -0.193861 -0.379706 0.103261 -0.518998
    42 -0.024966 -1.123934 0.017594 -2.136747 0.000000 0.000001
    43 -0.020057 -0.890966 0.010091 -0.896554 0.000000 0.000000
    44 0.583510 -1.197274 0.185377 0.220453 -0.870283 -0.672925
    45 1.535926 0.010245 0.005008 -0.063786 0.310988 -1.032101
    46 1.100770 0.004526 -0.010676 -0.009999 0.012761 -0.488483
    47 0.006867 -0.065891 -0.085739 -2.852831 -0.015617 -1.424341
  time 23
    0 10.549371 -2.825898 -11.328464 4.178586 -0.770311 -4.800855
    1 -0.071918 -8.498731 -0.104137 0.316263 0.471370 -0.643458
    2 1.665510 -2.904478 0.631343 -0.234326 0.084943 -3.486601
    3 0.037088 1.836796 0.000000 0.000000 0.000000 0.679463
    4 -1.699721 2.222293 0.000421 0.000000 0.000000 -1.282538
    5 -5.655031 16.263659 1.047437 0.005898 -1.121418 -1.279905
    6 7.696722 0.021893 -0.405259 -0.001707 0.561568 -0.000383
    7 6.499035 0.037860 -0.093995 -1.570617 1.505568 -3.138681
    8 -5.655030 16.263657 -1.043029 3.135696 1.121416 -1.279904
    9 7.721393 -0.021960 -0.393362 0.001706 0.561568 0.000382
    10 6.490693 -0.037835 -0.107306 1.570613 1.505565 3.138681
    11 -0.489117 10.226307 1.194557 0.000000 0.000000 -1.282132
    12 1.189389 -0.715381 -0.936736 -1.180542 0.000000 0.003685
    13 -2.647894 8.542626 -0.000005 0.000000 0.000000 -1.274576
    14 -0.726382 -15.566446 -14.537318 -1.156622 -5.590453 -0.110758
    15 0.096944 -8.450419 -0.009364 -0.005970 -0.540417 0.157854
    16 0.447952 -2.798982 -0.200442 -1.014489 0.150910 0.644051
    17 -0.032910 -1.480206 0.004936 -1.431586 0.000000 0.000002
    18 -0.027022 -1.076919 -0.020212 -0.473979 0.000000 0.000000
    19 -0.249534 -2.846962 -0.174215 -0.473080 0.210085 0.362128
    20 0.043235 -1.683939 0.096014 -1.793930 0.002823 -0.000167
    21 0.031729 -1.160831 0.058836 -0.335973 0.000642 0.008372
    22 -0.963866 -2.785142 -0.085346 -0.609796 0.267585 0.317863
    23 0.028479 -1.403068 0.006271 -1.150412 0.000000 0.000000
    24 0.021413 -0.957782 0.020047 -0.616019 0.000000 0.000000
    25 1.164474 -2.543938 -0.170328 -0.983966 0.070580 0.675853
    26 0.024032 -1.129043 0.017806 -1.337944 0.000000 0.000001
    27 0.014896 -0.883989 -0.019845 -0.672931 0.000000 0.000000
    28 -0.586770 -1.264475 0.200164 -0.186364 -1.053830 -3.148928
    29 1.522835 0.058681 0.016850 0.035029 0.111357 0.871431
    30 1.117948 0.048424 -0.005764 -0.015320 -0.019661 0.717991
    31 -0.057365 -0.119510 0.041742 0.574644 0.064105 1.500021
    32 -0.488517 -2.755600 -0.228261 -0.619222 -0.044186 -0.439117
    33 0.039888 -1.479789 0.029853 -2.158258 0.000000 0.000000
    34 0.028785 -1.075730 -0.023111 -0.647509 0.000000 0.000000
    35 0.250028 -2.820663 -0.238396 -0.535674 0.054413 -0.329163
    36 -0.049759 -1.680545 0.100480 -1.871489 0.000000 -0.000002
    37 -0.034141 -1.148312 0.084779 -1.387518 0.000000 0.000000
    38 0.957766 -2.746776 -0.090301 0.225143 -0.058359 -0.193630
    39 -0.033419 -1.397129 -0.011255 -0.184014 -0.032275 -0.008534
    40 -0.022361 -0.957434 0.018783 0.003845 0.000000 0.000000
    41 -1.180680 -2.507215 -0.193861 -0.379706 0.103261 -0.518998
    42 -0.024966 -1.123934 0.017594 -2.136747 0.000000 0.000001
    43 -0.020057 -0.890966 0.010091 -0.896554 0.000000 0.000000
    44 0.583510 -1.197274 0.185377 0.220453 -0.870283 -0.672925
    45 1.535926 0.010245 0.005008 -0.063786 0.310988 -1.032101
    46 1.100770 0.004526 -0.010676 -0.009999 0.012761 -0.488483
    47 0.006867 -0.065891 -0.085739 -2.852831 -0.015617 -1.424341
  time 24
    0 10.549371 -2.825898 -11.328464 4.178586 -0.770311 -4.800855
    1 -0.071918 -8.498731 -0.104137 0.316527 0.471210 -0.642880
    2 1.665510 -2.904478 0.631343 -0.234326 0.084943 -3.486601
    3 0.037088 1.836796 0.000000 0.000000 0.000000 0.679463
    4 -1.699721 2.222293 0.000421 0.000000 0.000000 -1.282538
    5 -5.655031 16.263659 1.047437 0.005898 -1.121418 -1.279905
    6 7.696722 0.021893 -0.405259 -0.001707 0.561568 -0.000383
    7 6.499035 0.037860 -0.093995 -1.570617 1.505568 -3.138681
    8 -5.655030 16.263657 -1.043029 3.135696 1.121416 -1.279904
    9 7.721393 -0.021960 -0.393362 0.001706 0.561568 0.000382
    10 6.490693 -0.037835 -0.107306 1.570613 1.505565 3.138681
    11 -0.489117 10.226307 1.194557 0.000000 0.000000 -1.282132
    12 1.189389 -0.715381 -0.936736 -1.180542 0.000000 0.003685
    13 -2.647894 8.542626 -0.000005 0.000000 0.000000 -1.274576
    14 -0.726382 -15.546914 -14.529506 -1.156622 -5.590453 -0.110758
    15 0.096944 -8.450419 -0.009364 -0.005970 -0.540417 0.157854
    16 0.447952 -2.798982 -0.200442 -1.014489 0.150910 0.644051
    17 -0.032910 -1.480206 0.004936 -1.431586 0.000000 0.000002
    18 -0.027022 -1.076919 -0.020212 -0.473979 0.000000 0.000000
    19 -0.249534 -2.846962 -0.174215 -0.473080 0.210085 0.362128
    20 0.043235 -1.683939 0.096014 -1.793930 0.002823 -0.000167
    21 0.031729 -1.160831 0.058836 -0.335973 0.000642 0.008372
    22 -0.963866 -2.785142 -0.085346 -0.609796 0.267585 0.317863
    23 0.028479 -1.403068 0.006271 -1.150412 0.000000 0.000000
    24 0.021413 -0.957782 0.020047 -0.616019 0.000000 0.000000
    25 1.164474 -2.543938 -0.170328 -0.983966 0.070580 0.675853
    26 0.024032 -1.129043 0.017806 -1.337944 0.000000 0.000001
    27 0.014896 -0.883989 -0.019845 -0.672931 0.000000 0.000000
    28 -0.586770 -1.264475 0.200164 -0.186364 -1.053830 -3.148928
    29 1.522835 0.058681 0.016850 0.035029 0.111357 0.871431
    30 1.117948 0.048424 -0.005764 -0.015320 -0.019661 0.717991
    31 -0.057365 -0.119510 0.041742 0.574644 0.064105 1.500021
    32 -0.488517 -2.755600 -0.228261 -0.619222 -0.044186 -0.439117
    33 0.039888 -1.479789 0.029853 -2.158258 0.000000 0.000000
    34 0.028785 -1.075730 -0.023111 -0.647509 0.000000 0.000000
    35 0.250028 -2.820663 -0.238396 -0.535674 0.054413 -0.329163
    36 -0.049759 -1.680545 0.100480 -1.871489 0.000000 -0.000002
    37 -0.034141 -1.148312 0.084779 -1.387518 0.000000 0.000000
    38 0.957766 -2.746776 -0.090301 0.225143 -0.058359 -0.193630
    39 -0.033419 -1.397129 -0.011255 -0.184014 -0.032275 -0.008534
    40 -0.022361 -0.957434 0.018783 0.003845 0.000000 0.000000
    41 -1.180680 -2.507215 -0.193861 -0.379706 0.103261 -0.518998
    42 -0.024966 -1.123934 0.017594 -2.136747 0.000000 0.000001
    43 -0.020057 -0.890966 0.010091 -0.896554 0.000000 0.000000
    44 0.583510 -1.197274 0.185377 0.220453 -0.870283 -0.672925
    45 1.535926 0.010245 0.005008 -0.063786 0.310988 -1.032101
    46 1.100770 0.004526 -0.010676 -0.009999 0.012761 -0.488483
    47 0.006867 -0.065891 -0.085739 -2.852831 -0.015617 -1.424341
  time 25
    0 10.549371 -2.825898 -11.324557 4.178586 -0.770311 -4.800855
    1 -0.071918 -8.498731 -0.104137 0.316776 0.471050 -0.642350
    2 1.665510 -2.904478 0.631343 -0.234326 0.084943 -3.486601
    3 0.037088 1.836796 0.000000 0.000000 0.000000 0.679463
    4 -1.699721 2.222293 0.000421 0.000000 0.000000 -1.282538
    5 -5.655031 16.263659 1.047437 0.005898 -1.121418 -1.279905
    6 7.696722 0.021893 -0.405259 -0.001707 0.561568 -0.000383
    7 6.499035 0.037860 -0.093995 -1.570617 1.505568 -3.138681
    8 -5.655030 16.263657 -1.043029 3.135696 1.121416 -1.279904
    9 7.721393 -0.021960 -0.393362 0.001706 0.561568 0.000382
    10 6.490693 -0.037835 -0.107306 1.570613 1.505565 3.138681
    11 -0.489117 10.226307 1.194557 0.000000 0.000000 -1.282132
    12 1.189389 -0.715381 -0.936736 -1.180542 0.000000 0.003685
    13 -2.647894 8.542626 -0.000005 0.000000 0.000000 -1.274576
    14 -0.726382 -15.527382 -14.517786 -1.156622 -5.590453 -0.110758
    15 0.096944 -8.450419 -0.009364 -0.005970 -0.540417 0.157854
    16 0.447952 -2.798982 -0.200442 -1.014489 0.150910 0.644051
    17 -0.032910 -1.480206 0.004936 -1.431586 0.000000 0.000002
    18 -0.027022 -1.076919 -0.020212 -0.473979 0.000000 0.000000
    19 -0.249534 -2.846962 -0.174215 -0.473080 0.210085 0.362128
    20 0.043235 -1.683939 0.096014 -1.793930 0.002823 -0.000167
    21 0.031729 -1.160831 0.058836 -0.335973 0.000642 0.008372
    22 -0.963866 -2.785142 -0.085346 -0.609796 0.267585 0.317863
    23 0.028479 -1.403068 0.006271 -1.150412 0.000000 0.000000
    24 0.021413 -0.957782 0.020047 -0.616019 0.000000 0.000000
    25 1.164474 -2.543938 -0.170328 -0.983966 0.070580 0.675853
    26 0.024032 -1.129043 0.017806 -1.337944 0.000000 0.000001
    27 0.014896 -0.883989 -0.019845 -0.672931 0.000000 0.000000
    28 -0.586770 -1.264475 0.200164 -0.186364 -1.053830 -3.148928
    29 1.522835 0.058681 0.016850 0.035029 0.111357 0.871431
    30 1.117948 0.048424 -0.005764 -0.015320 -0.019661 0.717991
    31 -0.057365 -0.119510 0.041742 0.574644 0.064105 1.500021
    32 -0.488517 -2.755600 -0.228261 -0.619222 -0.044186 -0.439117
    33 0.039888 -1.479789 0.029853 -2.158258 0.000000 0.000000
    34 0.028785 -1.075730 -0.023111 -0.647509 0.000000 0.000000
    35 0.250028 -2.820663 -0.238396 -0.535674 0.054413 -0.329163
    36 -0.049759 -1.680545 0.100480 -1.871489 0.000000 -0.000002
    37 -0.034141 -1.148312 0.084779 -1.387518 0.000000 0.000000
    38 0.957766 -2.746776 -0.090301 0.225143 -0.058359 -0.193630
    39 -0.033419 -1.397129 -0.011255 -0.184014 -0.032275 -0.008534
    40 -0.022361 -0.957434 0.018783 0.003845 0.000000 0.000000
    41 -1.180680 -2.507215 -0.193861 -0.379706 0.103261 -0.518998
    42 -0.024966 -1.123934 0.017594 -2.136747 0.000000 0.000001
    43 -0.020057 -0.890966 0.010091 -0.896554 0.000000 0.000000
    44 0.583510 -1.197274 0.185377 0.220453 -0.870283 -0.672925
    45 1.535926 0.010245 0.005008 -0.063786 0.310988 -1.032101
    46 1.100770 0.004526 -0.010676 -0.009999 0.012761 -0.488483
    47 0.006867 -0.065891 -0.085739 -2.852831 -0.015617 -1.424341
  time 26
    0 10.549371 -2.825898 -11.320651 4.178586 -0.770311 -4.800855
    1 -0.071918 -8.498731 -0.104137 0.316994 0.470916 -0.641844
    2 1.665510 -2.904478 0.631343 -0.234326 0.084943 -3.486601
    3 0.037088 1.836796 0.000000 0.000000 0.000000 0.679463
    4 -1.699721 2.222293 0.000421 0.000000 0.000000 -1.282538
    5 -5.655031 16.263659 1.047437 0.005898 -1.121418 -1.279905
    6 7.696722 0.021893 -0.405259 -0.001707 0.561568 -0.000383
    7 6.499035 0.037860 -0.093995 -1.570617 1.505568 -3.138681
    8 -5.655030 16.263657 -1.043029 3.135696 1.121416 -1.279904
    9 7.721393 -0.021960 -0.393362 0.001706 0.561568 0.000382
    10 6.490693 -0.037835 -0.107306 1.570613 1.505565 3.138681
    11 -0.489117 10.226307 1.194557 0.000000 0.000000 -1.282132
    12 1.189389 -0.715381 -0.936736 -1.180542 0.000000 0.003685
    13 -2.647894 8.542626 -0.000005 0.000000 0.000000 -1.274576
    14 -0.726382 -15.503944 -14.506067 -1.156622 -5.590453 -0.110758
    15 0.096944 -8.450419 -0.009364 -0.005970 -0.540417 0.157854
    16 0.447952 -2.798982 -0.200442 -1.014489 0.150910 0.644051
    17 -0.032910 -1.480206 0.004936 -1.431586 0.000000 0.000002
    18 -0.027022 -1.076919 -0.020212 -0.473979 0.000000 0.000000
    19 -0.249534 -2.846962 -0.174215 -0.473080 0.210085 0.362128
    20 0.043235 -1.683939 0.096014 -1.793930 0.002823 -0.000167
    21 0.031729 -1.160831 0.058836 -0.335973 0.000642 0.008372
    22 -0.963866 -2.785142 -0.085346 -0.609796 0.267585 0.317863
    23 0.028479 -1.403068 0.006271 -1.150412 0.000000 0.000000
    24 0.021413 -0.957782 0.020047 -0.616019 0.000000 0.000000
    25 1.164474 -2.543938 -0.170328 -0.983966 0.070580 0.675853
    26 0.024032 -1.129043 0.017806 -1.337944 0.000000 0.000001
    27 0.014896 -0.883989 -0.019845 -0.672931 0.000000 0.000000
    28 -0.586770 -1.264475 0.200164 -0.186364 -1.053830 -3.148928
    29 1.522835 0.058681 0.016850 0.035029 0.111357 0.871431
    30 1.117948 0.048424 -0.005764 -0.015320 -0.019661 0.717991
    31 -0.057365 -0.119510 0.041742 0.574644 0.064105 1.500021
    32 -0.488517 -2.755600 -0.228261 -0.619222 -0.044186 -0.439117
    33 0.039888 -1.479789 0.029853 -2.158258 0.000000 0.000000
    34 0.028785 -1.075730 -0.023111 -0.647509 0.000000 0.000000
    35 0.250028 -2.820663 -0.238396 -0.535674 0.054413 -0.329163
    36 -0.049759 -1.680545 0.100480 -1.871489 0.000000 -0.000002
    37 -0.034141 -1.148312 0.084779 -1.387518 0.000000 0.000000
    38 0.957766 -2.746776 -0.090301 0.225143 -0.058359 -0.193630
    39 -0.033419 -1.397129 -0.011255 -0.184014 -0.032275 -0.008534
    40 -0.022361 -0.957434 0.018783 0.003845 0.000000 0.000000
    41 -1.180680 -2.507215 -0.193861 -0.379706 0.103261 -0.518998
    42 -0.024966 -1.123934 0.017594 -2.136747 0.000000 0.000001
    43 -0.020057 -0.890966 0.010091 -0.896554 0.000000 0.000000
    44 0.583510 -1.197274 0.185377 0.220453 -0.870283 -0.672925
    45 1.535926 0.010245 0.005008 -0.063786 0.310988 -1.032101
    46 1.100770 0.004526 -0.010676 -0.009999 0.012761 -0.488483
    47 0.006867 -0.065891 -0.085739 -2.852831 -0.015617 -1.424341
  time 27
    0 10.549371 -2.825898 -11.316745 4.178586 -0.770311 -4.800855
    1 -0.071918 -8.498731 -0.104137 0.317196 0.470782 -0.641434
    2 1.665510 -2.904478 0.631343 -0.234326 0.084943 -3.486601
    3 0.037088 1.836796 0.000000 0.000000 0.000000 0.679463
    4 -1.699721 2.222293 0.000421 0.000000 0.000000 -1.282538
    5 -5.655031 16.263659 1.047437 0.005898 -1.121418 -1.279905
    6 7.696722 0.021893 -0.405259 -0.001707 0.561568 -0.000383
    7 6.499035 0.037860 -0.093995 -1.570617 1.505568 -3.138681
    8 -5.655030 16.263657 -1.043029 3.135696 1.121416 -1.279904
    9 7.721393 -0.021960 -0.393362 0.001706 0.561568 0.000382
    10 6.490693 -0.037835 -0.107306 1.570613 1.505565 3.138681
    11 -0.489117 10.226307 1.194557 0.000000 0.000000 -1.282132
    12 1.189389 -0.715381 -0.936736 -1.180542 0.000000 0.003685
    13 -2.647894 8.542626 -0.000005 0.000000 0.000000 -1.274576
    14 -0.726382 -15.488319 -14.490442 -1.156622 -5.590453 -0.110758
    15 0.096944 -8.450419 -0.009364 -0.005970 -0.540417 0.157854
    16 0.447952 -2.798982 -0.200442 -1.014489 0.150910 0.644051
    17 -0.032910 -1.480206 0.004936 -1.431586 0.000000 0.000002
    18 -0.027022 -1.076919 -0.020212 -0.473979 0.000000 0.000000
    19 -0.249534 -2.846962 -0.174215 -0.473080 0.210085 0.362128
    20 0.043235 -1.683939 0.096014 -1.793930 0.002823 -0.000167
    21 0.031729 -1.160831 0.058836 -0.335973 0.000642 0.008372
    22 -0.963866 -2.785142 -0.085346 -0.609796 0.267585 0.317863
    23 0.028479 -1.403068 0.006271 -1.150412 0.000000 0.000000
    24 0.021413 -0.957782 0.020047 -0.616019 0.000000 0.000000
    25 1.164474 -2.543938 -0.170328 -0.983966 0.070580 0.675853
    26 0.024032 -1.129043 0.017806 -1.337944 0.000000 0.000001
    27 0.014896 -0.883989 -0.019845 -0.672931 0.000000 0.000000
    28 -0.586770 -1.264475 0.200164 -0.186364 -1.053830 -3.148928
    29 1.522835 0.058681 0.016850 0.035029 0.111357 0.871431
    30 1.117948 0.048424 -0.005764 -0.015320 -0.019661 0.717991
    31 -0.057365 -0.119510 0.041742 0.574644 0.064105 1.500021
    32 -0.488517 -2.755600 -0.228261 -0.619222 -0.044186 -0.439117
    33 0.039888 -1.479789 0.029853 -2.158258 0.000000 0.000000
    34 0.028785 -1.075730 -0.023111 -0.647509 0.000000 0.000000
    35 0.250028 -2.820663 -0.238396 -0.535674 0.054413 -0.329163
    36 -0.049759 -1.680545 0.100480 -1.871489 0.000000 -0.000002
    37 -0.034141 -1.148312 0.084779 -1.387518 0.000000 0.000000
    38 0.957766 -2.746776 -0.090301 0.225143 -0.058359 -0.193630
    39 -0.033419 -1.397129 -0.011255 -0.184014 -0.032275 -0.008534
    40 -0.022361 -0.957434 0.018783 0.003845 0.000000 0.000000
    41 -1.180680 -2.507215 -0.193861 -0.379706 0.103261 -0.518998
    42 -0.024966 -1.123934 0.017594 -2.136747 0.000000 0.000001
    43 -0.020057 -0.890966 0.010091 -0.896554 0.000000 0.000000
    44 0.583510 -1.197274 0.185377 0.220453 -0.870283 -0.672925
    45 1.535926 0.010245 0.005008 -0.063786 0.310988 -1.032101
    46 1.100770 0.004526 -0.010676 -0.009999 0.012761 -0.488483
    47 0.006867 -0.065891 -0.085739 -2.852831 -0.015617 -1.424341
  time 28
    0 10.549371 -2.829804 -11.312838 4.178586 -0.770311 -4.800855
    1 -0.071918 -8.498731 -0.104137 0.317336 0.470675 -0.641097
    2 1.665510 -2.904478 0.631343 -0.234326 0.084943 -3.486601
    3 0.037088 1.836796 0.000000 0.000000 0.000000 0.679463
    4 -1.699721 2.222293 0.000421 0.000000 0.000000 -1.282538
    5 -5.655031 16.263659 1.047437 0.005898 -1.121418 -1.279905
    6 7.696722 0.021893 -0.405259 -0.001707 0.561568 -0.000383
    7 6.499035 0.037860 -0.093995 -1.570617 1.505568 -3.138681
    8 -5.655030 16.263657 -1.043029 3.135696 1.121416 -1.279904
    9 7.721393 -0.021960 -0.393362 0.001706 0.561568 0.000382
    10 6.490693 -0.037835 -0.107306 1.570613 1.505565 3.138681
    11 -0.489117 10.226307 1.194557 0.000000 0.000000 -1.282132
    12 1.189389 -0.715381 -0.936736 -1.180542 0.000000 0.003685
    13 -2.647894 8.542626 -0.000005 0.000000 0.000000 -1.274576
    14 -0.726382 -15.472693 -14.482629 -1.156622 -5.590453 -0.110758
    15 0.096944 -8.450419 -0.009364 -0.005970 -0.540417 0.157854
    16 0.447952 -2.798982 -0.200442 -1.014489 0.150910 0.644051
    17 -0.032910 -1.480206 0.004936 -1.431586 0.000000 0.000002
    18 -0.027022 -1.076919 -0.020212 -0.473979 0.000000 0.000000
    19 -0.249534 -2.846962 -0.174215 -0.473080 0.210085 0.362128
    20 0.043235 -1.683939 0.096014 -1.793930 0.002823 -0.000167
    21 0.031729 -1.160831 0.058836 -0.335973 0.000642 0.008372
    22 -0.963866 -2.785142 -0.085346 -0.609796 0.267585 0.317863
    23 0.028479 -1.403068 0.006271 -1.150412 0.000000 0.000000
    24 0.021413 -0.957782 0.020047 -0.616019 0.000000 0.000000
    25 1.164474 -2.543938 -0.170328 -0.983966 0.070580 0.675853
    26 0.024032 -1.129043 0.017806 -1.337944 0.000000 0.000001
    27 0.014896 -0.883989 -0.019845 -0.672931 0.000000 0.000000
    28 -0.586770 -1.264475 0.200164 -0.186364 -1.053830 -3.148928
    29 1.522835 0.058681 0.016850 0.035029 0.111357 0.871431
    30 1.117948 0.048424 -0.005764 -0.015320 -0.019661 0.717991
    31 -0.057365 -0.119510 0.041742 0.574644 0.064105 1.500021
    32 -0.488517 -2.755600 -0.228261 -0.619222 -0.044186 -0.439117
    33 0.039888 -1.479789 0.029853 -2.158258 0.000000 0.000000
    34 0.028785 -1.075730 -0.023111 -0.647509 0.000000 0.000000
    35 0.250028 -2.820663 -0.238396 -0.535674 0.054413 -0.329163
    36 -0.049759 -1.680545 0.100480 -1.871489 0.000000 -0.000002
    37 -0.034141 -1.148312 0.084779 -1.387518 0.000000 0.000000
    38 0.957766 -2.746776 -0.090301 0.225143 -0.058359 -0.193630
    39 -0.033419 -1.397129 -0.011255 -0.184014 -0.032275 -0.008534
    40 -0.022361 -0.957434 0.018783 0.003845 0.000000 0.000000
    41 -1.180680 -2.507215 -0.193861 -0.379706 0.103261 -0.518998
    42 -0.024966 -1.123934 0.017594 -2.136747 0.000000 0.000001
    43 -0.020057 -0.890966 0.010091 -0.896554 0.000000 0.000000
    44 0.583510 -1.197274 0.185377 0.220453 -0.870283 -0.672925
    45 1.535926 0.010245 0.005008 -0.063786 0.310988 -1.032101
    46 1.100770 0.004526 -0.010676 -0.009999 0.012761 -0.488483
    47 0.006867 -0.065891 -0.085739 -2.852831 -0.015617 -1.424341
  time 29
    0 10.549371 -2.829804 -11.308932 4.178586 -0.770311 -4.800855
    1 -0.071918 -8.498731 -0.104137 0.317429 0.470622 -0.640904
    2 1.665510 -2.904478 0.631343 -0.234326 0.084943 -3.486601
    3 0.037088 1.836796 0.000000 0.000000 0.000000 0.679463
    4 -1.699721 2.222293 0.000421 0.000000 0.000000 -1.282538
    5 -5.655031 16.263659 1.047437 0.005898 -1.121418 -1.279905
    6 7.696722 0.021893 -0.405259 -0.001707 0.561568 -0.000383
    7 6.499035 0.037860 -0.093995 -1.570617 1.505568 -3.138681
    8 -5.655030 16.263657 -1.043029 3.135696 1.121416 -1.279904
    9 7.721393 -0.021960 -0.393362 0.001706 0.561568 0.000382
    10 6.490693 -0.037835 -0.107306 1.570613 1.505565 3.138681
    11 -0.489117 10.226307 1.194557 0.000000 0.000000 -1.282132
    12 1.189389 -0.715381 -0.936736 -1.180542 0.000000 0.003685
    13 -2.647894 8.542626 -0.000005 0.000000 0.000000 -1.274576
    14 -0.726382 -15.460974 -14.470910 -1.156622 -5.590453 -0.110758
    15 0.096944 -8.450419 -0.009364 -0.005970 -0.540417 0.157854
    16 0.447952 -2.798982 -0.200442 -1.014489 0.150910 0.644051
    17 -0.032910 -1.480206 0.004936 -1.431586 0.000000 0.000002
    18 -0.027022 -1.076919 -0.020212 -0.473979 0.000000 0.000000
    19 -0.249534 -2.846962 -0.174215 -0.473080 0.210085 0.362128
    20 0.043235 -1.683939 0.096014 -1.793930 0.002823 -0.000167
    21 0.031729 -1.160831 0.058836 -0.335973 0.000642 0.008372
    22 -0.963866 -2.785142 -0.085346 -0.609796 0.267585 0.317863
    23 0.028479 -1.403068 0.006271 -1.150412 0.000000 0.000000
    24 0.021413 -0.957782 0.020047 -0.616019 0.000000 0.000000
    25 1.164474 -2.543938 -0.170328 -0.983966 0.070580 0.675853
    26 0.024032 -1.129043 0.017806 -1.337944 0.000000 0.000001
    27 0.014896 -0.883989 -0.019845 -0.672931 0.000000 0.000000
    28 -0.586770 -1.264475 0.200164 -0.186364 -1.053830 -3.148928
    29 1.522835 0.058681 0.016850 0.035029 0.111357 0.871431
    30 1.117948 0.048424 -0.005764 -0.015320 -0.019661 0.717991
    31 -0.057365 -0.119510 0.041742 0.574644 0.064105 1.500021
    32 -0.488517 -2.755600 -0.228261 -0.619222 -0.044186 -0.439117
    33 0.039888 -1.479789 0.029853 -2.158258 0.000000 0.000000
    34 0.028785 -1.075730 -0.023111 -0.647509 0.000000 0.000000
    35 0.250028 -2.820663 -0.238396 -0.535674 0.054413 -0.329163
    36 -0.049759 -1.680545 0.100480 -1.871489 0.000000 -0.000002
    37 -0.034141 -1.148312 0.084779 -1.387518 0.000000 0.000000
    38 0.957766 -2.746776 -0.090301 0.225143 -0.058359 -0.193630
    39 -0.033419 -1.397129 -0.011255 -0.184014 -0.032275 -0.008534
    40 -0.022361 -0.957434 0.018783 0.003845 0.000000 0.000000
    41 -1.180680 -2.507215 -0.193861 -0.379706 0.103261 -0.518998
    42 -0.024966 -1.123934 0.017594 -2.136747 0.000000 0.000001
    43 -0.020057 -0.890966 0.010091 -0.896554 0.000000 0.000000
    44 0.583510 -1.197274 0.185377 0.220453 -0.870283 -0.672925
    45 1.535926 0.010245 0.005008 -0.063786 0.310988 -1.032101
    46 1.100770 0.004526 -0.010676 -0.009999 0.012761 -0.488483
    47 0.006867 -0.065891 -0.085739 -2.852831 -0.015617 -1.424341
  time 30
    0 10.549371 -2.829804 -11.308932 4.178586 -0.770311 -4.800855
    1 -0.071918 -8.498731 -0.104137 0.317460 0.470595 -0.640832
    2 1.665510 -2.904478 0.631343 -0.234326 0.084943 -3.486601
    3 0.037088 1.836796 0.000000 0.000000 0.000000 0.679463
    4 -1.699721 2.222293 0.000421 0.000000 0.000000 -1.282538
    5 -5.655031 16.263659 1.047437 0.005898 -1.121418 -1.279905
    6 7.696722 0.021893 -0.405259 -0.001707 0.561568 -0.000383
    7 6.499035 0.037860 -0.093995 -1.570617 1.505568 -3.138681
    8 -5.655030 16.263657 -1.043029 3.135696 1.121416 -1.279904
    9 7.721393 -0.021960 -0.393362 0.001706 0.561568 0.000382
    10 6.490693 -0.037835 -0.107306 1.570613 1.505565 3.138681
    11 -0.489117 10.226307 1.194557 0.000000 0.000000 -1.282132
    12 1.189389 -0.715381 -0.936736 -1.180542 0.000000 0.003685
    13 -2.647894 8.542626 -0.000005 0.000000 0.000000 -1.274576
    14 -0.726382 -15.457068 -14.470910 -1.156622 -5.590453 -0.110758
    15 0.096944 -8.450419 -0.009364 -0.005970 -0.540417 0.157854
    16 0.447952 -2.798982 -0.200442 -1.014489 0.150910 0.644051
    17 -0.032910 -1.480206 0.004936 -1.431586 0.000000 0.000002
    18 -0.027022 -1.076919 -0.020212 -0.473979 0.000000 0.000000
    19 -0.249534 -2.846962 -0.174215 -0.473080 0.210085 0.362128
    20 0.043235 -1.683939 0.096014 -1.793930 0.002823 -0.000167
    21 0.031729 -1.160831 0.058836 -0.335973 0.000642 0.008372
    22 -0.963866 -2.785142 -0.085346 -0.609796 0.267585 0.317863
    23 0.028479 -1.403068 0.006271 -1.150412 0.000000 0.000000
    24 0.021413 -0.957782 0.020047 -0.616019 0.000000 0.000000
    25 1.164474 -2.543938 -0.170328 -0.983966 0.070580 0.675853
    26 0.024032 -1.129043 0.017806 -1.337944 0.000000 0.000001
    27 0.014896 -0.883989 -0.019845 -0.672931 0.000000 0.000000
    28 -0.586770 -1.264475 0.200164 -0.186364 -1.053830 -3.148928
    29 1.522835 0.058681 0.016850 0.035029 0.111357 0.871431
    30 1.117948 0.048424 -0.005764 -0.015320 -0.019661 0.717991
    31 -0.057365 -0.119510 0.041742 0.574644 0.064105 1.500021
    32 -0.488517 -2.755600 -0.228261 -0.619222 -0.044186 -0.439117
    33 0.039888 -1.479789 0.029853 -2.158258 0.000000 0.000000
    34 0.028785 -1.075730 -0.023111 -0.647509 0.000000 0.000000
    35 0.250028 -2.820663 -0.238396 -0.535674 0.054413 -0.329163
    36 -0.049759 -1.680545 0.100480 -1.871489 0.000000 -0.000002
    37 -0.034141 -1.148312 0.084779 -1.387518 0.000000 0.000000
    38 0.957766 -2.746776 -0.090301 0.225143 -0.058359 -0.193630
    39 -0.033419 -1.397129 -0.011255 -0.184014 -0.032275 -0.008534
    40 -0.022361 -0.957434 0.018783 0.003845 0.000000 0.000000
    41 -1.180680 -2.507215 -0.193861 -0.379706 0.103261 -0.518998
    42 -0.024966 -1.123934 0.017594 -2.136747 0.000000 0.000001
    43 -0.020057 -0.890966 0.010091 -0.896554 0.000000 0.000000
    44 0.583510 -1.197274 0.185377 0.220453 -0.870283 -0.672925
    45 1.535926 0.010245 0.005008 -0.063786 0.310988 -1.032101
    46 1.100770 0.004526 -0.010676 -0.009999 0.012761 -0.488483
    47 0.006867 -0.065891 -0.085739 -2.852831 -0.015617 -1.424341
end
