// Created by Crowbar 0.34.0.0

$ModelName "weapons/tfa_cso/w_laserfist_r.mdl"

$BodyGroup "studio"
{
	studio "v_laserfist_R"
}

$collisionmodel "v_laserfist_R.smd"
{
	$mass 9
}

$CDMaterials "models\weapons\tfa_cso\laserfist"

$attachment "0" "root" 0.00 -10.00 0.00 rotate -0 0 0
$attachment "1" "root" 16.00 -3.00 3.50 rotate -0 0 0
$attachment "2" "root" 16.00 -3.00 3.50 rotate -0 0 0
$attachment "3" "root" 16.00 -3.00 3.50 rotate -0 0 0
$attachment "4" "root" 16.00 -3.00 3.50 rotate -0 0 0
$attachment "5" "root" 16.00 -3.00 3.50 rotate -0 0 0

$Sequence "idle" {
	"anims\idle.smd"
	fps 30
}