// Created by Crowbar 0.68

$modelname "v_blockchange.mdl"
$cd "."
$cdtexture "."
$cliptotextures
$scale 1.0

$bodygroup "weapon"
{
	studio "v_blockchange"
}
$bodygroup "hands"
{
	studio "CSO_Hand_Male_L_2009"
	studio "CSO_Hand_Female_L_2009"
}

$flags 0


$cbox 0 0 0 0 0 0

$bbox 0 0 0 0 0 0

$hbox 0 "root" -10.846783 -23.386871 -28.920816 11.139982 0 0
$hbox 0 "Dummy33" -1.23 -0.69 -0.65 1.23 0.69 0.65
$hbox 0 "Dummy52" -0.96 -0.96 -0.75 0.96 0.96 0.75
$hbox 0 "Dummy15" -19.6 -7.69 -4.59 1.23 0.4 9.12
$hbox 0 "Dummy60" -1.23 -0.94 -0.57 1.23 0.94 0.57
$hbox 0 "Bone01" -1.36 -8.498736 -1.73 1.62 8.762585 1.24
$hbox 0 "Bone_L_Upper" 0 -1.69 -2.69 8.98 1.68 1.69
$hbox 0 "Bone_Lefthand" -1.6 -3.09 -0.83 1.38 0 0.92
$hbox 0 "Bone05" 0 -0.83 -0.75 1.535927 0.87 0.73
$hbox 0 "Bone06" 0 -0.66 -0.61 1.2 0.54 0.49
$hbox 0 "Bone04" -1.72 -8.450418 -1.67 1.31 8.839177 1.3
$hbox 0 "Bone_Righthand" -1.4 -3.14 -0.81 1.58 0 0.94
$hbox 0 "Bone27" 0 -0.87 -0.75 1.522835 0.85 0.73
$hbox 0 "Bone28" 0 -0.56 -0.61 1.23 0.63 0.48
$hbox 0 "Bone_R_Upper" 0 -1.63 -2.69 9.07 1.74 1.69

$sequence "change" {
	"v_blockchange_anims\change"
	{ event 5004 8 "weapons/block_change.wav" }
	fps 30
}
