version 1
nodes
  0 "root" -1
  1 "Bone01" 0
  2 "Bone_Lefthand" 1
  3 "sfpistol_root" 2
  4 "sfpistol_magazine02" 3
  5 "sfpistol_bettery" 4
  6 "sfpistol_sub_A_Bone02" 5
  7 "sfpistol_sub_A_Bone52" 6
  8 "sfpistol_sub_A_Bone50" 6
  9 "sfpistol_sub_A_Bone46" 6
  10 "sfpistol_sub_A_Bone48" 6
  11 "sfpistol_sub_B_Bone53" 5
  12 "sfpistol_sub_B_Bone56" 11
  13 "sfpistol_sub_B_Bone57" 11
  14 "sfpistol_sub_B_Bone54" 11
  15 "sfpistol_sub_B_Bone55" 11
  16 "sfpistol_magazine01" 3
  17 "sfpistol_magazine_pin01" 16
  18 "sfpistol_magazine_pin03" 16
  19 "sfpistol_magazine_pin04" 16
  20 "sfpistol_magazine_pin02" 16
  21 "sfpistol_sub_B_Bone58" 16
  22 "sfpistol_sub_B_Bone60" 16
  23 "sfpistol_sub_B_Bone61" 16
  24 "sfpistol_sub_A_Bone64" 16
  25 "sfpistol_sub_A_Bone65" 16
  26 "sfpistol_sub_A_Bone66" 16
  27 "sfpistol_sub_A_Bone67" 16
  28 "sfpistol_sub_B_Bone20" 16
  29 "sfpistol_sub_A_Bone68" 16
  30 "sfpistol_sub_A_Bone69" 29
  31 "sfpistol_sub_B_Bone03" 16
  32 "sfpistol_sub_B_Bone12(mirrored)" 31
  33 "sfpistol_sub_B_Bone12" 31
  34 "sfpistol_trigger" 3
  35 "sfpistol_device_top" 3
  36 "sfpistol_device_side" 3
  37 "sfpistol_front_root" 3
  38 "sfpistol_front_device01" 37
  39 "sfpistol_front_device04" 38
  40 "sfpistol_front_device07" 39
  41 "sfpistol_front_device02" 37
  42 "sfpistol_front_device05" 41
  43 "sfpistol_front_device08" 42
  44 "sfpistol_front_device03" 37
  45 "sfpistol_front_device06" 44
  46 "sfpistol_front_device09" 45
  47 "ef_sfpistol_root" 3
  48 "ef_sfpistol_03" 47
  49 "ef_sfpistol_04" 47
  50 "ef_sfpistol_01" 47
  51 "ef_sfpistol_02" 47
  52 "Bone_L_Upper" 1
  53 "Bone13" 2
  54 "Bone14" 53
  55 "Bone15" 54
  56 "Bone17" 2
  57 "Bone18" 56
  58 "Bone19" 57
  59 "Bone21" 2
  60 "Bone22" 59
  61 "Bone23" 60
  62 "Bone09" 2
  63 "Bone10" 62
  64 "Bone11" 63
  65 "Bone05" 2
  66 "Bone06" 65
  67 "Bone07" 66
  68 "Bone_Se_Hand-L" 2
  69 "Bone04" 0
  70 "Bone_Righthand" 69
  71 "Bone39" 70
  72 "Bone40" 71
  73 "Bone41" 72
  74 "Bone35" 70
  75 "Bone36" 74
  76 "Bone37" 75
  77 "Bone31" 70
  78 "Bone32" 77
  79 "Bone33" 78
  80 "Bone43" 70
  81 "Bone44" 80
  82 "Bone45" 81
  83 "Bone27" 70
  84 "Bone28" 83
  85 "Bone29" 84
  86 "Bone_Se_Hand-R" 70
  87 "Bone_R_Upper" 69
end
skeleton
  time 0
    0 -3.885590 2.605077 -9.150031 0.000000 0.000000 0.000000
    1 12.559731 -5.144504 0.078804 4.023530 -1.160845 1.473101
    2 -0.071918 -8.498732 -0.104136 0.338867 0.177513 -0.231731
    3 1.514942 -3.186424 0.666113 -0.419348 -0.107262 -3.451130
    4 -1.487204 -0.072218 0.000000 0.000000 0.000000 -1.275647
    5 1.379861 0.013026 0.000000 0.000000 0.000000 0.000000
    6 1.091372 -0.009931 0.000000 0.000000 0.000000 0.000000
    7 -0.000004 -0.012830 -0.746234 0.000000 1.570796 0.000000
    8 -0.000002 -0.012831 0.743942 0.000000 -1.570796 0.000000
    9 0.000000 -0.758639 0.000000 0.000001 0.000124 -1.570921
    10 0.000000 0.740977 0.000000 0.000001 -0.000118 1.570678
    11 0.618701 -0.009931 0.000000 -0.785398 0.000000 0.000000
    12 -0.000003 -0.045880 -0.434408 0.000000 1.570796 0.000000
    13 0.000000 -0.407593 -0.045883 0.000000 0.000000 -1.570973
    14 -0.000002 -0.045882 0.340349 0.000000 -1.570796 0.000000
    15 0.000000 0.427942 -0.045883 0.000001 0.000000 1.570629
    16 -1.572389 0.220680 0.000000 0.000000 0.000000 -1.282047
    17 1.033914 -0.654510 0.906782 1.570797 -0.982795 -1.564396
    18 1.033878 -0.648745 -0.899195 1.570797 0.982794 -1.564396
    19 1.026259 0.541615 -0.895047 -1.570796 0.982794 1.577196
    20 1.026212 0.549078 0.904648 -1.570796 -0.982794 1.577100
    21 2.874126 -0.034192 1.057670 1.570796 0.789324 0.006400
    22 2.881649 0.715909 -0.754650 2.067742 -0.631794 -0.736436
    23 2.879878 0.715898 0.752527 1.067860 0.637028 -0.739986
    24 2.983432 -0.034143 -0.952297 1.570796 -0.782206 0.006400
    25 2.983687 -0.034141 0.952198 1.570796 0.789324 0.006400
    26 2.975584 0.637833 -0.668710 2.067742 -0.631794 -0.736436
    27 2.973814 0.637822 0.666587 1.067860 0.637028 -0.739986
    28 2.869965 -0.034194 -1.053863 1.570796 -0.782206 0.006400
    29 3.169655 0.883133 0.000000 0.000000 0.000000 0.006400
    30 0.005513 0.071422 0.607692 1.570797 -1.570796 0.000000
    31 2.728229 0.989643 0.000000 0.000000 0.000000 0.006400
    32 0.036764 -0.010612 -0.413052 1.309136 1.533943 0.222722
    33 0.005513 -0.018424 0.416280 -1.326226 -1.533943 -2.918781
    34 -0.203741 0.515950 0.000000 0.000000 0.000000 0.295150
    35 -3.179013 1.492042 -0.000001 0.000001 0.000000 -2.846443
    36 -1.913326 1.338252 0.551623 0.295134 -1.570317 0.000000
    37 -2.138676 2.346085 -0.000001 0.000000 0.000000 1.865946
    38 1.818063 -0.014348 0.003944 1.570797 0.000001 1.570796
    39 0.338629 0.000001 1.260262 0.000000 0.000000 0.000000
    40 0.891296 0.000000 0.321762 0.000000 0.032802 0.000000
    41 1.818064 -0.277635 0.147155 -1.570795 -0.961963 -1.570797
    42 0.338630 0.000000 1.260262 0.000000 0.000000 0.000000
    43 0.891296 0.000000 0.321763 0.000000 0.032790 0.000000
    44 1.818063 -0.264801 -0.160265 -1.570796 0.955859 -1.570796
    45 0.338629 0.000000 1.260263 0.000000 0.000000 0.000000
    46 0.891297 0.000001 0.321763 0.000000 0.032802 0.000000
    47 -0.691148 -3.020236 0.046878 0.000000 0.000000 1.865945
    48 -0.002248 -0.869789 0.841686 -1.570796 -0.874057 -1.570796
    49 -0.002249 -0.869789 -0.845820 1.570796 2.267536 1.570796
    50 -0.002249 0.786466 -0.845820 -1.570796 2.267536 -1.570796
    51 -0.002248 0.786466 0.841685 1.570796 -0.874056 1.570796
    52 1.261086 8.762585 -0.153713 -1.570562 0.002683 -1.575292
    53 -0.347889 -2.560283 0.029560 -0.746140 0.229962 -0.362943
    54 0.039887 -1.479790 0.029854 -1.759312 0.000000 0.000001
    55 0.028786 -1.075731 -0.023109 -0.810791 0.000000 0.000000
    56 0.304716 -2.726912 -0.160269 -0.642944 0.204341 -0.294863
    57 -0.049759 -1.680544 0.100479 -1.781109 0.000000 -0.000002
    58 -0.034142 -1.148312 0.084782 -0.983688 0.000000 0.000000
    59 0.875732 -3.125698 -0.211399 -0.618397 0.049575 -0.055073
    60 -0.033420 -1.397129 -0.011257 -1.773707 0.000000 -0.000001
    61 -0.022360 -0.957436 0.018784 -0.747703 0.102384 -0.052996
    62 -0.993175 -2.593157 0.396003 -0.185516 0.194141 -0.191771
    63 -0.024967 -1.123934 0.017597 -1.928490 0.013147 -0.288660
    64 -0.020057 -0.890968 0.010090 -0.755224 0.000000 0.000000
    65 0.997585 -1.123056 0.138503 0.726976 -0.934910 -0.966623
    66 1.535927 0.010246 0.005009 0.045274 0.012536 -0.936292
    67 1.100771 0.004527 -0.010679 -0.197534 0.176471 -0.178292
    68 -0.043915 -0.132304 -0.316216 -2.812193 5.925454 -1.395057
    69 -3.024759 -5.028129 -1.290385 -0.796620 -5.240276 0.069381
    70 0.096944 -8.450418 -0.009365 0.308081 -1.204013 0.335124
    71 0.447953 -2.798986 -0.200443 -0.405051 -0.173207 0.312319
    72 -0.032909 -1.480204 0.004940 -1.309596 0.000000 0.000002
    73 -0.027022 -1.076920 -0.020210 0.168442 0.000000 0.000000
    74 -0.249534 -2.846964 -0.174213 -0.171002 -0.089770 0.289110
    75 0.043235 -1.683941 0.096012 -1.549351 0.002823 -0.000167
    76 0.031729 -1.160830 0.058838 0.068761 0.000642 0.008372
    77 -0.963866 -2.785145 -0.085350 0.035043 0.089944 0.201956
    78 0.028479 -1.403067 0.006271 -1.285362 0.000000 0.000000
    79 0.021413 -0.957781 0.020046 -0.048312 0.000000 0.000000
    80 1.164475 -2.543940 -0.170330 -0.363571 -0.311871 0.210107
    81 0.024032 -1.129042 0.017807 -0.793235 0.000000 0.000001
    82 0.014898 -0.883989 -0.019848 -0.202298 0.000000 0.000000
    83 -0.586770 -1.264477 0.200161 -0.210673 -0.355487 -2.365980
    84 1.522835 0.058681 0.016848 0.025655 0.288010 0.598498
    85 1.117947 0.048424 -0.005766 0.027789 -0.079884 -0.363462
    86 -0.041740 -0.150762 -0.059824 0.806163 0.452927 1.371618
    87 -1.393470 8.839177 -0.239433 1.580804 -0.005023 -1.566847
  time 1
    0 -3.885590 2.648047 -9.247690 0.000000 0.000000 0.000000
    1 12.559731 -5.144504 0.078804 4.023530 -1.160845 1.473101
    2 -0.071918 -8.498732 -0.104136 0.338867 0.177513 -0.231731
    3 1.514942 -3.186424 0.666113 -0.419348 -0.107262 -3.451130
    4 -1.487204 -0.072218 0.000000 -0.523583 0.000000 -1.275647
    5 1.379861 0.013026 0.000000 0.000000 0.000000 0.000000
    6 1.091372 -0.009931 0.000000 1.047165 0.000000 0.000000
    7 -0.000004 -0.012830 -0.746234 0.000000 1.570796 0.000000
    8 -0.000002 -0.012831 0.743942 0.000000 -1.570796 0.000000
    9 0.000000 -0.758639 0.000000 0.000001 0.000124 -1.570921
    10 0.000000 0.740977 0.000000 0.000001 -0.000118 1.570678
    11 0.618701 -0.009931 0.000000 -0.785398 0.000000 0.000000
    12 -0.000003 -0.045880 -0.434408 0.000000 1.570796 0.000000
    13 0.000000 -0.407593 -0.045883 0.000000 0.000000 -1.570973
    14 -0.000002 -0.045882 0.340349 0.000000 -1.570796 0.000000
    15 0.000000 0.427942 -0.045883 0.000001 0.000000 1.570629
    16 -1.572389 0.220680 0.000000 0.000000 0.000000 -1.282047
    17 1.033914 -0.654510 0.906782 1.570797 -0.982795 -1.564396
    18 1.033878 -0.648745 -0.899195 1.570797 0.982794 -1.564396
    19 1.026259 0.541615 -0.895047 -1.570796 0.982794 1.577196
    20 1.026212 0.549078 0.904648 -1.570796 -0.982794 1.577100
    21 2.874126 -0.034192 1.057670 1.570796 0.789324 0.006400
    22 2.881649 0.715909 -0.754650 2.067742 -0.631794 -0.736436
    23 2.879878 0.715898 0.752527 1.067860 0.637028 -0.739986
    24 2.983432 -0.034143 -0.952297 1.570796 -0.782206 0.006400
    25 2.983687 -0.034141 0.952198 1.570796 0.789324 0.006400
    26 2.975584 0.637833 -0.668710 2.067742 -0.631794 -0.736436
    27 2.973814 0.637822 0.666587 1.067860 0.637028 -0.739986
    28 2.869965 -0.034194 -1.053863 1.570796 -0.782206 0.006400
    29 3.169655 0.883133 0.000000 0.000000 0.000000 0.006400
    30 0.005513 0.071422 0.607692 1.570797 -1.570796 0.000000
    31 2.728229 0.989643 0.000000 0.000000 0.000000 0.006400
    32 0.036764 -0.010612 -0.413052 1.309136 1.533943 0.222722
    33 0.005513 -0.018424 0.416280 -1.326226 -1.533943 -2.918781
    34 -0.203741 0.515950 0.000000 0.000000 0.000000 0.295150
    35 -3.179013 1.492042 -0.000001 0.000001 0.000000 -2.846443
    36 -1.913326 1.338252 0.551623 0.295134 -1.570317 0.000000
    37 -2.138676 2.346085 -0.000001 0.000000 0.000000 1.865946
    38 1.818063 -0.014348 0.003944 1.570797 0.000001 1.570796
    39 0.338629 0.000001 1.459487 0.000000 0.000000 0.000000
    40 0.891296 0.000000 0.321762 0.000000 0.032802 0.000000
    41 1.818064 -0.277635 0.147155 -1.570795 -0.961963 -1.570797
    42 0.338630 0.000000 1.459487 0.000000 0.000000 0.000000
    43 0.891296 0.000000 0.321763 0.000000 0.032790 0.000000
    44 1.818063 -0.264801 -0.160265 -1.570796 0.955859 -1.570796
    45 0.338629 0.000000 1.459488 0.000000 0.000000 0.000000
    46 0.891297 0.000001 0.321763 0.000000 0.032802 0.000000
    47 -0.691148 -3.020236 0.046878 0.000000 0.000000 1.865945
    48 -0.002248 -0.869789 0.841686 -1.570796 -0.874057 -1.570796
    49 -0.002249 -0.869789 -0.845820 1.570796 2.267536 1.570796
    50 -0.002249 0.786466 -0.845820 -1.570796 2.267536 -1.570796
    51 -0.002248 0.786466 0.841685 1.570796 -0.874056 1.570796
    52 1.261086 8.762585 -0.153713 -1.570562 0.002683 -1.575292
    53 -0.347889 -2.560283 0.029560 -0.746140 0.229962 -0.362943
    54 0.039887 -1.479790 0.029854 -1.759312 0.000000 0.000001
    55 0.028786 -1.075731 -0.023109 -0.810791 0.000000 0.000000
    56 0.304716 -2.726912 -0.160269 -0.642944 0.204341 -0.294863
    57 -0.049759 -1.680544 0.100479 -1.781109 0.000000 -0.000002
    58 -0.034142 -1.148312 0.084782 -0.983688 0.000000 0.000000
    59 0.875732 -3.125698 -0.211399 -0.618397 0.049575 -0.055073
    60 -0.033420 -1.397129 -0.011257 -1.773707 0.000000 -0.000001
    61 -0.022360 -0.957436 0.018784 -0.747703 0.102384 -0.052996
    62 -0.993175 -2.593157 0.396003 -0.185516 0.194141 -0.191771
    63 -0.024967 -1.123934 0.017597 -1.928490 0.013147 -0.288660
    64 -0.020057 -0.890968 0.010090 -0.755224 0.000000 0.000000
    65 0.997585 -1.123056 0.138503 0.726976 -0.934910 -0.966623
    66 1.535927 0.010246 0.005009 0.045274 0.012536 -0.936292
    67 1.100771 0.004527 -0.010679 -0.197534 0.176471 -0.178292
    68 -0.043915 -0.132304 -0.316216 -2.812193 5.925454 -1.395057
    69 -3.024759 -5.028129 -1.290385 -0.796620 -5.240276 0.069381
    70 0.096944 -8.450418 -0.009365 0.308081 -1.204013 0.335124
    71 0.447953 -2.798986 -0.200443 -0.405051 -0.173207 0.312319
    72 -0.032909 -1.480204 0.004940 -1.309596 0.000000 0.000002
    73 -0.027022 -1.076920 -0.020210 0.168442 0.000000 0.000000
    74 -0.249534 -2.846964 -0.174213 -0.171002 -0.089770 0.289110
    75 0.043235 -1.683941 0.096012 -1.549351 0.002823 -0.000167
    76 0.031729 -1.160830 0.058838 0.068761 0.000642 0.008372
    77 -0.963866 -2.785145 -0.085350 0.035043 0.089944 0.201956
    78 0.028479 -1.403067 0.006271 -1.285362 0.000000 0.000000
    79 0.021413 -0.957781 0.020046 -0.048312 0.000000 0.000000
    80 1.164475 -2.543940 -0.170330 -0.363571 -0.311871 0.210107
    81 0.024032 -1.129042 0.017807 -0.793235 0.000000 0.000001
    82 0.014898 -0.883989 -0.019848 -0.202298 0.000000 0.000000
    83 -0.586770 -1.264477 0.200161 -0.210673 -0.355487 -2.365980
    84 1.522835 0.058681 0.016848 0.025655 0.288010 0.598498
    85 1.117947 0.048424 -0.005766 0.027789 -0.079884 -0.363462
    86 -0.041740 -0.150762 -0.059824 0.806163 0.452927 1.371618
    87 -1.393470 8.839177 -0.239433 1.580804 -0.005023 -1.566847
  time 2
    0 -3.885590 2.624609 -9.193001 0.000000 0.000000 0.000000
    1 12.559731 -5.144504 0.078804 4.023530 -1.160845 1.473101
    2 -0.071918 -8.498732 -0.104136 0.338867 0.177513 -0.231731
    3 1.514942 -3.186424 0.666113 -0.419348 -0.107262 -3.451130
    4 -1.487204 -0.072218 0.000000 -1.047165 0.000000 -1.275647
    5 1.379861 0.013026 0.000000 0.000000 0.000000 0.000000
    6 1.091372 -0.009931 0.000000 2.094331 0.000000 0.000000
    7 -0.000004 -0.012830 -0.746234 0.000000 1.570796 0.000000
    8 -0.000002 -0.012831 0.743942 0.000000 -1.570796 0.000000
    9 0.000000 -0.758639 0.000000 0.000001 0.000124 -1.570921
    10 0.000000 0.740977 0.000000 0.000001 -0.000118 1.570678
    11 0.618701 -0.009931 0.000000 -0.785398 0.000000 0.000000
    12 -0.000003 -0.045880 -0.434408 0.000000 1.570796 0.000000
    13 0.000000 -0.407593 -0.045883 0.000000 0.000000 -1.570973
    14 -0.000002 -0.045882 0.340349 0.000000 -1.570796 0.000000
    15 0.000000 0.427942 -0.045883 0.000001 0.000000 1.570629
    16 -1.572389 0.220680 0.000000 0.000000 0.000000 -1.282047
    17 1.033914 -0.654510 0.906782 1.570797 -0.982795 -1.564396
    18 1.033878 -0.648745 -0.899195 1.570797 0.982794 -1.564396
    19 1.026259 0.541615 -0.895047 -1.570796 0.982794 1.577196
    20 1.026212 0.549078 0.904648 -1.570796 -0.982794 1.577100
    21 2.874126 -0.034192 1.057670 1.570796 0.789324 0.006400
    22 2.881649 0.715909 -0.754650 2.067742 -0.631794 -0.736436
    23 2.879878 0.715898 0.752527 1.067860 0.637028 -0.739986
    24 2.983432 -0.034143 -0.952297 1.570796 -0.782206 0.006400
    25 2.983687 -0.034141 0.952198 1.570796 0.789324 0.006400
    26 2.975584 0.637833 -0.668710 2.067742 -0.631794 -0.736436
    27 2.973814 0.637822 0.666587 1.067860 0.637028 -0.739986
    28 2.869965 -0.034194 -1.053863 1.570796 -0.782206 0.006400
    29 3.169655 0.883133 0.000000 0.000000 0.000000 0.006400
    30 0.005513 0.071422 0.607692 1.570797 -1.570796 0.000000
    31 2.728229 0.989643 0.000000 0.000000 0.000000 0.006400
    32 0.036764 -0.010612 -0.413052 1.309136 1.533943 0.222722
    33 0.005513 -0.018424 0.416280 -1.326226 -1.533943 -2.918781
    34 -0.203741 0.515950 0.000000 0.000000 0.000000 0.295150
    35 -3.179013 1.492042 -0.000001 0.000001 0.000000 -2.846443
    36 -1.913326 1.338252 0.551623 0.295134 -1.570317 0.000000
    37 -2.138676 2.346085 -0.000001 0.000000 0.000000 1.865946
    38 1.818063 -0.014348 0.003944 1.570797 0.000001 1.570796
    39 0.338629 0.000001 1.385266 0.000000 0.000000 0.000000
    40 0.891296 0.000000 0.321762 0.000000 0.032802 0.000000
    41 1.818064 -0.277635 0.147155 -1.570795 -0.961963 -1.570797
    42 0.338630 0.000000 1.385266 0.000000 0.000000 0.000000
    43 0.891296 0.000000 0.321763 0.000000 0.032790 0.000000
    44 1.818063 -0.264801 -0.160265 -1.570796 0.955859 -1.570796
    45 0.338629 0.000000 1.385267 0.000000 0.000000 0.000000
    46 0.891297 0.000001 0.321763 0.000000 0.032802 0.000000
    47 -0.691148 -3.020236 0.046878 0.000000 0.000000 1.865945
    48 -0.002248 -0.869789 0.841686 -1.570796 -0.874057 -1.570796
    49 -0.002249 -0.869789 -0.845820 1.570796 2.267536 1.570796
    50 -0.002249 0.786466 -0.845820 -1.570796 2.267536 -1.570796
    51 -0.002248 0.786466 0.841685 1.570796 -0.874056 1.570796
    52 1.261086 8.762585 -0.153713 -1.570562 0.002683 -1.575292
    53 -0.347889 -2.560283 0.029560 -0.746140 0.229962 -0.362943
    54 0.039887 -1.479790 0.029854 -1.759312 0.000000 0.000001
    55 0.028786 -1.075731 -0.023109 -0.810791 0.000000 0.000000
    56 0.304716 -2.726912 -0.160269 -0.642944 0.204341 -0.294863
    57 -0.049759 -1.680544 0.100479 -1.781109 0.000000 -0.000002
    58 -0.034142 -1.148312 0.084782 -0.983688 0.000000 0.000000
    59 0.875732 -3.125698 -0.211399 -0.618397 0.049575 -0.055073
    60 -0.033420 -1.397129 -0.011257 -1.773707 0.000000 -0.000001
    61 -0.022360 -0.957436 0.018784 -0.747703 0.102384 -0.052996
    62 -0.993175 -2.593157 0.396003 -0.185516 0.194141 -0.191771
    63 -0.024967 -1.123934 0.017597 -1.928490 0.013147 -0.288660
    64 -0.020057 -0.890968 0.010090 -0.755224 0.000000 0.000000
    65 0.997585 -1.123056 0.138503 0.726976 -0.934910 -0.966623
    66 1.535927 0.010246 0.005009 0.045274 0.012536 -0.936292
    67 1.100771 0.004527 -0.010679 -0.197534 0.176471 -0.178292
    68 -0.043915 -0.132304 -0.316216 -2.812193 5.925454 -1.395057
    69 -3.024759 -5.028129 -1.290385 -0.796620 -5.240276 0.069381
    70 0.096944 -8.450418 -0.009365 0.308081 -1.204013 0.335124
    71 0.447953 -2.798986 -0.200443 -0.405051 -0.173207 0.312319
    72 -0.032909 -1.480204 0.004940 -1.309596 0.000000 0.000002
    73 -0.027022 -1.076920 -0.020210 0.168442 0.000000 0.000000
    74 -0.249534 -2.846964 -0.174213 -0.171002 -0.089770 0.289110
    75 0.043235 -1.683941 0.096012 -1.549351 0.002823 -0.000167
    76 0.031729 -1.160830 0.058838 0.068761 0.000642 0.008372
    77 -0.963866 -2.785145 -0.085350 0.035043 0.089944 0.201956
    78 0.028479 -1.403067 0.006271 -1.285362 0.000000 0.000000
    79 0.021413 -0.957781 0.020046 -0.048312 0.000000 0.000000
    80 1.164475 -2.543940 -0.170330 -0.363571 -0.311871 0.210107
    81 0.024032 -1.129042 0.017807 -0.793235 0.000000 0.000001
    82 0.014898 -0.883989 -0.019848 -0.202298 0.000000 0.000000
    83 -0.586770 -1.264477 0.200161 -0.210673 -0.355487 -2.365980
    84 1.522835 0.058681 0.016848 0.025655 0.288010 0.598498
    85 1.117947 0.048424 -0.005766 0.027789 -0.079884 -0.363462
    86 -0.041740 -0.150762 -0.059824 0.806163 0.452927 1.371618
    87 -1.393470 8.839177 -0.239433 1.580804 -0.005023 -1.566847
  time 3
    0 -3.885590 2.605077 -9.138312 0.000000 0.000000 0.000000
    1 12.559731 -5.144504 0.078804 4.023530 -1.160845 1.473101
    2 -0.071918 -8.498732 -0.104136 0.338867 0.177513 -0.231731
    3 1.514942 -3.186424 0.666113 -0.419348 -0.107262 -3.451130
    4 -1.487204 -0.072218 0.000000 -1.570748 0.000000 -1.275647
    5 1.379861 0.013026 0.000000 0.000000 0.000000 0.000000
    6 1.091372 -0.009931 0.000000 3.141496 0.000000 0.000000
    7 -0.000004 -0.012830 -0.746234 0.000000 1.570796 0.000000
    8 -0.000002 -0.012831 0.743942 0.000000 -1.570796 0.000000
    9 0.000000 -0.758639 0.000000 0.000001 0.000124 -1.570921
    10 0.000000 0.740977 0.000000 0.000001 -0.000118 1.570678
    11 0.618701 -0.009931 0.000000 -0.785398 0.000000 0.000000
    12 -0.000003 -0.045880 -0.434408 0.000000 1.570796 0.000000
    13 0.000000 -0.407593 -0.045883 0.000000 0.000000 -1.570973
    14 -0.000002 -0.045882 0.340349 0.000000 -1.570796 0.000000
    15 0.000000 0.427942 -0.045883 0.000001 0.000000 1.570629
    16 -1.572389 0.220680 0.000000 0.000000 0.000000 -1.282047
    17 1.033914 -0.654510 0.906782 1.570797 -0.982795 -1.564396
    18 1.033878 -0.648745 -0.899195 1.570797 0.982794 -1.564396
    19 1.026259 0.541615 -0.895047 -1.570796 0.982794 1.577196
    20 1.026212 0.549078 0.904648 -1.570796 -0.982794 1.577100
    21 2.874126 -0.034192 1.057670 1.570796 0.789324 0.006400
    22 2.881649 0.715909 -0.754650 2.067742 -0.631794 -0.736436
    23 2.879878 0.715898 0.752527 1.067860 0.637028 -0.739986
    24 2.983432 -0.034143 -0.952297 1.570796 -0.782206 0.006400
    25 2.983687 -0.034141 0.952198 1.570796 0.789324 0.006400
    26 2.975584 0.637833 -0.668710 2.067742 -0.631794 -0.736436
    27 2.973814 0.637822 0.666587 1.067860 0.637028 -0.739986
    28 2.869965 -0.034194 -1.053863 1.570796 -0.782206 0.006400
    29 3.169655 0.883133 0.000000 0.000000 0.000000 0.006400
    30 0.005513 0.071422 0.607692 1.570797 -1.570796 0.000000
    31 2.728229 0.989643 0.000000 0.000000 0.000000 0.006400
    32 0.036764 -0.010612 -0.413052 1.309136 1.533943 0.222722
    33 0.005513 -0.018424 0.416280 -1.326226 -1.533943 -2.918781
    34 -0.203741 0.515950 0.000000 0.000000 0.000000 0.295150
    35 -3.179013 1.492042 -0.000001 0.000001 0.000000 -2.846443
    36 -1.913326 1.338252 0.551623 0.295134 -1.570317 0.000000
    37 -2.138676 2.346085 -0.000001 0.000000 0.000000 1.865946
    38 1.818063 -0.014348 0.003944 1.570797 0.000001 1.570796
    39 0.338629 0.000001 1.311045 0.000000 0.000000 0.000000
    40 0.891296 0.000000 0.321762 0.000000 0.032802 0.000000
    41 1.818064 -0.277635 0.147155 -1.570795 -0.961963 -1.570797
    42 0.338630 0.000000 1.311045 0.000000 0.000000 0.000000
    43 0.891296 0.000000 0.321763 0.000000 0.032790 0.000000
    44 1.818063 -0.264801 -0.160265 -1.570796 0.955859 -1.570796
    45 0.338629 0.000000 1.311046 0.000000 0.000000 0.000000
    46 0.891297 0.000001 0.321763 0.000000 0.032802 0.000000
    47 -0.691148 -3.020236 0.046878 0.000000 0.000000 1.865945
    48 -0.002248 -0.869789 0.841686 -1.570796 -0.874057 -1.570796
    49 -0.002249 -0.869789 -0.845820 1.570796 2.267536 1.570796
    50 -0.002249 0.786466 -0.845820 -1.570796 2.267536 -1.570796
    51 -0.002248 0.786466 0.841685 1.570796 -0.874056 1.570796
    52 1.261086 8.762585 -0.153713 -1.570562 0.002683 -1.575292
    53 -0.347889 -2.560283 0.029560 -0.746140 0.229962 -0.362943
    54 0.039887 -1.479790 0.029854 -1.759312 0.000000 0.000001
    55 0.028786 -1.075731 -0.023109 -0.810791 0.000000 0.000000
    56 0.304716 -2.726912 -0.160269 -0.642944 0.204341 -0.294863
    57 -0.049759 -1.680544 0.100479 -1.781109 0.000000 -0.000002
    58 -0.034142 -1.148312 0.084782 -0.983688 0.000000 0.000000
    59 0.875732 -3.125698 -0.211399 -0.618397 0.049575 -0.055073
    60 -0.033420 -1.397129 -0.011257 -1.773707 0.000000 -0.000001
    61 -0.022360 -0.957436 0.018784 -0.747703 0.102384 -0.052996
    62 -0.993175 -2.593157 0.396003 -0.185516 0.194141 -0.191771
    63 -0.024967 -1.123934 0.017597 -1.928490 0.013147 -0.288660
    64 -0.020057 -0.890968 0.010090 -0.755224 0.000000 0.000000
    65 0.997585 -1.123056 0.138503 0.726976 -0.934910 -0.966623
    66 1.535927 0.010246 0.005009 0.045274 0.012536 -0.936292
    67 1.100771 0.004527 -0.010679 -0.197534 0.176471 -0.178292
    68 -0.043915 -0.132304 -0.316216 -2.812193 5.925454 -1.395057
    69 -3.024759 -5.028129 -1.290385 -0.796620 -5.240276 0.069381
    70 0.096944 -8.450418 -0.009365 0.308081 -1.204013 0.335124
    71 0.447953 -2.798986 -0.200443 -0.405051 -0.173207 0.312319
    72 -0.032909 -1.480204 0.004940 -1.309596 0.000000 0.000002
    73 -0.027022 -1.076920 -0.020210 0.168442 0.000000 0.000000
    74 -0.249534 -2.846964 -0.174213 -0.171002 -0.089770 0.289110
    75 0.043235 -1.683941 0.096012 -1.549351 0.002823 -0.000167
    76 0.031729 -1.160830 0.058838 0.068761 0.000642 0.008372
    77 -0.963866 -2.785145 -0.085350 0.035043 0.089944 0.201956
    78 0.028479 -1.403067 0.006271 -1.285362 0.000000 0.000000
    79 0.021413 -0.957781 0.020046 -0.048312 0.000000 0.000000
    80 1.164475 -2.543940 -0.170330 -0.363571 -0.311871 0.210107
    81 0.024032 -1.129042 0.017807 -0.793235 0.000000 0.000001
    82 0.014898 -0.883989 -0.019848 -0.202298 0.000000 0.000000
    83 -0.586770 -1.264477 0.200161 -0.210673 -0.355487 -2.365980
    84 1.522835 0.058681 0.016848 0.025655 0.288010 0.598498
    85 1.117947 0.048424 -0.005766 0.027789 -0.079884 -0.363462
    86 -0.041740 -0.150762 -0.059824 0.806163 0.452927 1.371618
    87 -1.393470 8.839177 -0.239433 1.580804 -0.005023 -1.566847
  time 4
    0 -3.885590 2.651954 -9.255503 0.000000 0.000000 0.000000
    1 12.559731 -5.144504 0.078804 4.023530 -1.160845 1.473101
    2 -0.071918 -8.498732 -0.104136 0.338867 0.177513 -0.231731
    3 1.514942 -3.186424 0.666113 -0.419348 -0.107262 -3.451130
    4 -1.487204 -0.072218 0.000000 -2.094331 0.000000 -1.275647
    5 1.379861 0.013026 0.000000 0.000000 0.000000 0.000000
    6 1.091372 -0.009931 0.000000 -2.094331 0.000000 0.000000
    7 -0.000004 -0.012830 -0.746234 0.000000 1.570796 0.000000
    8 -0.000002 -0.012831 0.743942 0.000000 -1.570796 0.000000
    9 0.000000 -0.758639 0.000000 0.000001 0.000124 -1.570921
    10 0.000000 0.740977 0.000000 0.000001 -0.000118 1.570678
    11 0.618701 -0.009931 0.000000 -0.785398 0.000000 0.000000
    12 -0.000003 -0.045880 -0.434408 0.000000 1.570796 0.000000
    13 0.000000 -0.407593 -0.045883 0.000000 0.000000 -1.570973
    14 -0.000002 -0.045882 0.340349 0.000000 -1.570796 0.000000
    15 0.000000 0.427942 -0.045883 0.000001 0.000000 1.570629
    16 -1.572389 0.220680 0.000000 0.000000 0.000000 -1.282047
    17 1.033914 -0.654510 0.906782 1.570797 -0.982795 -1.564396
    18 1.033878 -0.648745 -0.899195 1.570797 0.982794 -1.564396
    19 1.026259 0.541615 -0.895047 -1.570796 0.982794 1.577196
    20 1.026212 0.549078 0.904648 -1.570796 -0.982794 1.577100
    21 2.874126 -0.034192 1.057670 1.570796 0.789324 0.006400
    22 2.881649 0.715909 -0.754650 2.067742 -0.631794 -0.736436
    23 2.879878 0.715898 0.752527 1.067860 0.637028 -0.739986
    24 2.983432 -0.034143 -0.952297 1.570796 -0.782206 0.006400
    25 2.983687 -0.034141 0.952198 1.570796 0.789324 0.006400
    26 2.975584 0.637833 -0.668710 2.067742 -0.631794 -0.736436
    27 2.973814 0.637822 0.666587 1.067860 0.637028 -0.739986
    28 2.869965 -0.034194 -1.053863 1.570796 -0.782206 0.006400
    29 3.169655 0.883133 0.000000 0.000000 0.000000 0.006400
    30 0.005513 0.071422 0.607692 1.570797 -1.570796 0.000000
    31 2.728229 0.989643 0.000000 0.000000 0.000000 0.006400
    32 0.036764 -0.010612 -0.413052 1.309136 1.533943 0.222722
    33 0.005513 -0.018424 0.416280 -1.326226 -1.533943 -2.918781
    34 -0.203741 0.515950 0.000000 0.000000 0.000000 0.295150
    35 -3.179013 1.492042 -0.000001 0.000001 0.000000 -2.846443
    36 -1.913326 1.338252 0.551623 0.295134 -1.570317 0.000000
    37 -2.138676 2.346085 -0.000001 0.000000 0.000000 1.865946
    38 1.818063 -0.014348 0.003944 1.570797 0.000001 1.570796
    39 0.338629 0.000001 1.494644 0.000000 0.000000 0.000000
    40 0.891296 0.000000 0.321762 0.000000 0.032802 0.000000
    41 1.818064 -0.277635 0.147155 -1.570795 -0.961963 -1.570797
    42 0.338630 0.000000 1.494644 0.000000 0.000000 0.000000
    43 0.891296 0.000000 0.321763 0.000000 0.032790 0.000000
    44 1.818063 -0.264801 -0.160265 -1.570796 0.955859 -1.570796
    45 0.338629 0.000000 1.494645 0.000000 0.000000 0.000000
    46 0.891297 0.000001 0.321763 0.000000 0.032802 0.000000
    47 -0.691148 -3.020236 0.046878 0.000000 0.000000 1.865945
    48 -0.002248 -0.869789 0.841686 -1.570796 -0.874057 -1.570796
    49 -0.002249 -0.869789 -0.845820 1.570796 2.267536 1.570796
    50 -0.002249 0.786466 -0.845820 -1.570796 2.267536 -1.570796
    51 -0.002248 0.786466 0.841685 1.570796 -0.874056 1.570796
    52 1.261086 8.762585 -0.153713 -1.570562 0.002683 -1.575292
    53 -0.347889 -2.560283 0.029560 -0.746140 0.229962 -0.362943
    54 0.039887 -1.479790 0.029854 -1.759312 0.000000 0.000001
    55 0.028786 -1.075731 -0.023109 -0.810791 0.000000 0.000000
    56 0.304716 -2.726912 -0.160269 -0.642944 0.204341 -0.294863
    57 -0.049759 -1.680544 0.100479 -1.781109 0.000000 -0.000002
    58 -0.034142 -1.148312 0.084782 -0.983688 0.000000 0.000000
    59 0.875732 -3.125698 -0.211399 -0.618397 0.049575 -0.055073
    60 -0.033420 -1.397129 -0.011257 -1.773707 0.000000 -0.000001
    61 -0.022360 -0.957436 0.018784 -0.747703 0.102384 -0.052996
    62 -0.993175 -2.593157 0.396003 -0.185516 0.194141 -0.191771
    63 -0.024967 -1.123934 0.017597 -1.928490 0.013147 -0.288660
    64 -0.020057 -0.890968 0.010090 -0.755224 0.000000 0.000000
    65 0.997585 -1.123056 0.138503 0.726976 -0.934910 -0.966623
    66 1.535927 0.010246 0.005009 0.045274 0.012536 -0.936292
    67 1.100771 0.004527 -0.010679 -0.197534 0.176471 -0.178292
    68 -0.043915 -0.132304 -0.316216 -2.812193 5.925454 -1.395057
    69 -3.024759 -5.028129 -1.290385 -0.796620 -5.240276 0.069381
    70 0.096944 -8.450418 -0.009365 0.308081 -1.204013 0.335124
    71 0.447953 -2.798986 -0.200443 -0.405051 -0.173207 0.312319
    72 -0.032909 -1.480204 0.004940 -1.309596 0.000000 0.000002
    73 -0.027022 -1.076920 -0.020210 0.168442 0.000000 0.000000
    74 -0.249534 -2.846964 -0.174213 -0.171002 -0.089770 0.289110
    75 0.043235 -1.683941 0.096012 -1.549351 0.002823 -0.000167
    76 0.031729 -1.160830 0.058838 0.068761 0.000642 0.008372
    77 -0.963866 -2.785145 -0.085350 0.035043 0.089944 0.201956
    78 0.028479 -1.403067 0.006271 -1.285362 0.000000 0.000000
    79 0.021413 -0.957781 0.020046 -0.048312 0.000000 0.000000
    80 1.164475 -2.543940 -0.170330 -0.363571 -0.311871 0.210107
    81 0.024032 -1.129042 0.017807 -0.793235 0.000000 0.000001
    82 0.014898 -0.883989 -0.019848 -0.202298 0.000000 0.000000
    83 -0.586770 -1.264477 0.200161 -0.210673 -0.355487 -2.365980
    84 1.522835 0.058681 0.016848 0.025655 0.288010 0.598498
    85 1.117947 0.048424 -0.005766 0.027789 -0.079884 -0.363462
    86 -0.041740 -0.150762 -0.059824 0.806163 0.452927 1.371618
    87 -1.393470 8.839177 -0.239433 1.580804 -0.005023 -1.566847
  time 5
    0 -3.885590 2.628516 -9.126593 0.000000 0.000000 0.000000
    1 12.559731 -5.144504 0.078804 4.023530 -1.160845 1.473101
    2 -0.071918 -8.498732 -0.104136 0.338867 0.177513 -0.231731
    3 1.514942 -3.186424 0.666113 -0.419348 -0.107262 -3.451130
    4 -1.487204 -0.072218 0.000000 -2.617914 0.000000 -1.275647
    5 1.379861 0.013026 0.000000 0.000000 0.000000 0.000000
    6 1.091372 -0.009931 0.000000 -1.047165 0.000000 0.000000
    7 -0.000004 -0.012830 -0.746234 0.000000 1.570796 0.000000
    8 -0.000002 -0.012831 0.743942 0.000000 -1.570796 0.000000
    9 0.000000 -0.758639 0.000000 0.000001 0.000124 -1.570921
    10 0.000000 0.740977 0.000000 0.000001 -0.000118 1.570678
    11 0.618701 -0.009931 0.000000 -0.785398 0.000000 0.000000
    12 -0.000003 -0.045880 -0.434408 0.000000 1.570796 0.000000
    13 0.000000 -0.407593 -0.045883 0.000000 0.000000 -1.570973
    14 -0.000002 -0.045882 0.340349 0.000000 -1.570796 0.000000
    15 0.000000 0.427942 -0.045883 0.000001 0.000000 1.570629
    16 -1.572389 0.220680 0.000000 0.000000 0.000000 -1.282047
    17 1.033914 -0.654510 0.906782 1.570797 -0.982795 -1.564396
    18 1.033878 -0.648745 -0.899195 1.570797 0.982794 -1.564396
    19 1.026259 0.541615 -0.895047 -1.570796 0.982794 1.577196
    20 1.026212 0.549078 0.904648 -1.570796 -0.982794 1.577100
    21 2.874126 -0.034192 1.057670 1.570796 0.789324 0.006400
    22 2.881649 0.715909 -0.754650 2.067742 -0.631794 -0.736436
    23 2.879878 0.715898 0.752527 1.067860 0.637028 -0.739986
    24 2.983432 -0.034143 -0.952297 1.570796 -0.782206 0.006400
    25 2.983687 -0.034141 0.952198 1.570796 0.789324 0.006400
    26 2.975584 0.637833 -0.668710 2.067742 -0.631794 -0.736436
    27 2.973814 0.637822 0.666587 1.067860 0.637028 -0.739986
    28 2.869965 -0.034194 -1.053863 1.570796 -0.782206 0.006400
    29 3.169655 0.883133 0.000000 0.000000 0.000000 0.006400
    30 0.005513 0.071422 0.607692 1.570797 -1.570796 0.000000
    31 2.728229 0.989643 0.000000 0.000000 0.000000 0.006400
    32 0.036764 -0.010612 -0.413052 1.309136 1.533943 0.222722
    33 0.005513 -0.018424 0.416280 -1.326226 -1.533943 -2.918781
    34 -0.203741 0.515950 0.000000 0.000000 0.000000 0.295150
    35 -3.179013 1.492042 -0.000001 0.000001 0.000000 -2.846443
    36 -1.913326 1.338252 0.551623 0.295134 -1.570317 0.000000
    37 -2.138676 2.346085 -0.000001 0.000000 0.000000 1.865946
    38 1.818063 -0.014348 0.003944 1.570797 0.000001 1.570796
    39 0.338629 0.000001 1.260262 0.000000 0.000000 0.000000
    40 0.891296 0.000000 0.321762 0.000000 0.032802 0.000000
    41 1.818064 -0.277635 0.147155 -1.570795 -0.961963 -1.570797
    42 0.338630 0.000000 1.260262 0.000000 0.000000 0.000000
    43 0.891296 0.000000 0.321763 0.000000 0.032790 0.000000
    44 1.818063 -0.264801 -0.160265 -1.570796 0.955859 -1.570796
    45 0.338629 0.000000 1.260263 0.000000 0.000000 0.000000
    46 0.891297 0.000001 0.321763 0.000000 0.032802 0.000000
    47 -0.691148 -3.020236 0.046878 0.000000 0.000000 1.865945
    48 -0.002248 -0.869789 0.841686 -1.570796 -0.874057 -1.570796
    49 -0.002249 -0.869789 -0.845820 1.570796 2.267536 1.570796
    50 -0.002249 0.786466 -0.845820 -1.570796 2.267536 -1.570796
    51 -0.002248 0.786466 0.841685 1.570796 -0.874056 1.570796
    52 1.261086 8.762585 -0.153713 -1.570562 0.002683 -1.575292
    53 -0.347889 -2.560283 0.029560 -0.746140 0.229962 -0.362943
    54 0.039887 -1.479790 0.029854 -1.759312 0.000000 0.000001
    55 0.028786 -1.075731 -0.023109 -0.810791 0.000000 0.000000
    56 0.304716 -2.726912 -0.160269 -0.642944 0.204341 -0.294863
    57 -0.049759 -1.680544 0.100479 -1.781109 0.000000 -0.000002
    58 -0.034142 -1.148312 0.084782 -0.983688 0.000000 0.000000
    59 0.875732 -3.125698 -0.211399 -0.618397 0.049575 -0.055073
    60 -0.033420 -1.397129 -0.011257 -1.773707 0.000000 -0.000001
    61 -0.022360 -0.957436 0.018784 -0.747703 0.102384 -0.052996
    62 -0.993175 -2.593157 0.396003 -0.185516 0.194141 -0.191771
    63 -0.024967 -1.123934 0.017597 -1.928490 0.013147 -0.288660
    64 -0.020057 -0.890968 0.010090 -0.755224 0.000000 0.000000
    65 0.997585 -1.123056 0.138503 0.726976 -0.934910 -0.966623
    66 1.535927 0.010246 0.005009 0.045274 0.012536 -0.936292
    67 1.100771 0.004527 -0.010679 -0.197534 0.176471 -0.178292
    68 -0.043915 -0.132304 -0.316216 -2.812193 5.925454 -1.395057
    69 -3.024759 -5.028129 -1.290385 -0.796620 -5.240276 0.069381
    70 0.096944 -8.450418 -0.009365 0.308081 -1.204013 0.335124
    71 0.447953 -2.798986 -0.200443 -0.405051 -0.173207 0.312319
    72 -0.032909 -1.480204 0.004940 -1.309596 0.000000 0.000002
    73 -0.027022 -1.076920 -0.020210 0.168442 0.000000 0.000000
    74 -0.249534 -2.846964 -0.174213 -0.171002 -0.089770 0.289110
    75 0.043235 -1.683941 0.096012 -1.549351 0.002823 -0.000167
    76 0.031729 -1.160830 0.058838 0.068761 0.000642 0.008372
    77 -0.963866 -2.785145 -0.085350 0.035043 0.089944 0.201956
    78 0.028479 -1.403067 0.006271 -1.285362 0.000000 0.000000
    79 0.021413 -0.957781 0.020046 -0.048312 0.000000 0.000000
    80 1.164475 -2.543940 -0.170330 -0.363571 -0.311871 0.210107
    81 0.024032 -1.129042 0.017807 -0.793235 0.000000 0.000001
    82 0.014898 -0.883989 -0.019848 -0.202298 0.000000 0.000000
    83 -0.586770 -1.264477 0.200161 -0.210673 -0.355487 -2.365980
    84 1.522835 0.058681 0.016848 0.025655 0.288010 0.598498
    85 1.117947 0.048424 -0.005766 0.027789 -0.079884 -0.363462
    86 -0.041740 -0.150762 -0.059824 0.806163 0.452927 1.371618
    87 -1.393470 8.839177 -0.239433 1.580804 -0.005023 -1.566847
  time 6
    0 -3.885590 2.605077 -9.150031 0.000000 0.000000 0.000000
    1 12.559731 -5.144504 0.078804 4.023530 -1.160845 1.473101
    2 -0.071918 -8.498732 -0.104136 0.338867 0.177513 -0.231731
    3 1.514942 -3.186424 0.666113 -0.419348 -0.107262 -3.451130
    4 -1.487204 -0.072218 0.000000 3.141592 0.000000 -1.275647
    5 1.379861 0.013026 0.000000 0.000000 0.000000 0.000000
    6 1.091372 -0.009931 0.000000 0.000000 0.000000 0.000000
    7 -0.000004 -0.012830 -0.746234 0.000000 1.570796 0.000000
    8 -0.000002 -0.012831 0.743942 0.000000 -1.570796 0.000000
    9 0.000000 -0.758639 0.000000 0.000001 0.000124 -1.570921
    10 0.000000 0.740977 0.000000 0.000001 -0.000118 1.570678
    11 0.618701 -0.009931 0.000000 -0.785398 0.000000 0.000000
    12 -0.000003 -0.045880 -0.434408 0.000000 1.570796 0.000000
    13 0.000000 -0.407593 -0.045883 0.000000 0.000000 -1.570973
    14 -0.000002 -0.045882 0.340349 0.000000 -1.570796 0.000000
    15 0.000000 0.427942 -0.045883 0.000001 0.000000 1.570629
    16 -1.572389 0.220680 0.000000 0.000000 0.000000 -1.282047
    17 1.033914 -0.654510 0.906782 1.570797 -0.982795 -1.564396
    18 1.033878 -0.648745 -0.899195 1.570797 0.982794 -1.564396
    19 1.026259 0.541615 -0.895047 -1.570796 0.982794 1.577196
    20 1.026212 0.549078 0.904648 -1.570796 -0.982794 1.577100
    21 2.874126 -0.034192 1.057670 1.570796 0.789324 0.006400
    22 2.881649 0.715909 -0.754650 2.067742 -0.631794 -0.736436
    23 2.879878 0.715898 0.752527 1.067860 0.637028 -0.739986
    24 2.983432 -0.034143 -0.952297 1.570796 -0.782206 0.006400
    25 2.983687 -0.034141 0.952198 1.570796 0.789324 0.006400
    26 2.975584 0.637833 -0.668710 2.067742 -0.631794 -0.736436
    27 2.973814 0.637822 0.666587 1.067860 0.637028 -0.739986
    28 2.869965 -0.034194 -1.053863 1.570796 -0.782206 0.006400
    29 3.169655 0.883133 0.000000 0.000000 0.000000 0.006400
    30 0.005513 0.071422 0.607692 1.570797 -1.570796 0.000000
    31 2.728229 0.989643 0.000000 0.000000 0.000000 0.006400
    32 0.036764 -0.010612 -0.413052 1.309136 1.533943 0.222722
    33 0.005513 -0.018424 0.416280 -1.326226 -1.533943 -2.918781
    34 -0.203741 0.515950 0.000000 0.000000 0.000000 0.295150
    35 -3.179013 1.492042 -0.000001 0.000001 0.000000 -2.846443
    36 -1.913326 1.338252 0.551623 0.295134 -1.570317 0.000000
    37 -2.138676 2.346085 -0.000001 0.000000 0.000000 1.865946
    38 1.818063 -0.014348 0.003944 1.570797 0.000001 1.570796
    39 0.338629 0.000001 1.459487 0.000000 0.000000 0.000000
    40 0.891296 0.000000 0.321762 0.000000 0.032802 0.000000
    41 1.818064 -0.277635 0.147155 -1.570795 -0.961963 -1.570797
    42 0.338630 0.000000 1.459487 0.000000 0.000000 0.000000
    43 0.891296 0.000000 0.321763 0.000000 0.032790 0.000000
    44 1.818063 -0.264801 -0.160265 -1.570796 0.955859 -1.570796
    45 0.338629 0.000000 1.459488 0.000000 0.000000 0.000000
    46 0.891297 0.000001 0.321763 0.000000 0.032802 0.000000
    47 -0.691148 -3.020236 0.046878 0.000000 0.000000 1.865945
    48 -0.002248 -0.869789 0.841686 -1.570796 -0.874057 -1.570796
    49 -0.002249 -0.869789 -0.845820 1.570796 2.267536 1.570796
    50 -0.002249 0.786466 -0.845820 -1.570796 2.267536 -1.570796
    51 -0.002248 0.786466 0.841685 1.570796 -0.874056 1.570796
    52 1.261086 8.762585 -0.153713 -1.570562 0.002683 -1.575292
    53 -0.347889 -2.560283 0.029560 -0.746140 0.229962 -0.362943
    54 0.039887 -1.479790 0.029854 -1.759312 0.000000 0.000001
    55 0.028786 -1.075731 -0.023109 -0.810791 0.000000 0.000000
    56 0.304716 -2.726912 -0.160269 -0.642944 0.204341 -0.294863
    57 -0.049759 -1.680544 0.100479 -1.781109 0.000000 -0.000002
    58 -0.034142 -1.148312 0.084782 -0.983688 0.000000 0.000000
    59 0.875732 -3.125698 -0.211399 -0.618397 0.049575 -0.055073
    60 -0.033420 -1.397129 -0.011257 -1.773707 0.000000 -0.000001
    61 -0.022360 -0.957436 0.018784 -0.747703 0.102384 -0.052996
    62 -0.993175 -2.593157 0.396003 -0.185516 0.194141 -0.191771
    63 -0.024967 -1.123934 0.017597 -1.928490 0.013147 -0.288660
    64 -0.020057 -0.890968 0.010090 -0.755224 0.000000 0.000000
    65 0.997585 -1.123056 0.138503 0.726976 -0.934910 -0.966623
    66 1.535927 0.010246 0.005009 0.045274 0.012536 -0.936292
    67 1.100771 0.004527 -0.010679 -0.197534 0.176471 -0.178292
    68 -0.043915 -0.132304 -0.316216 -2.812193 5.925454 -1.395057
    69 -3.024759 -5.028129 -1.290385 -0.796620 -5.240276 0.069381
    70 0.096944 -8.450418 -0.009365 0.308081 -1.204013 0.335124
    71 0.447953 -2.798986 -0.200443 -0.405051 -0.173207 0.312319
    72 -0.032909 -1.480204 0.004940 -1.309596 0.000000 0.000002
    73 -0.027022 -1.076920 -0.020210 0.168442 0.000000 0.000000
    74 -0.249534 -2.846964 -0.174213 -0.171002 -0.089770 0.289110
    75 0.043235 -1.683941 0.096012 -1.549351 0.002823 -0.000167
    76 0.031729 -1.160830 0.058838 0.068761 0.000642 0.008372
    77 -0.963866 -2.785145 -0.085350 0.035043 0.089944 0.201956
    78 0.028479 -1.403067 0.006271 -1.285362 0.000000 0.000000
    79 0.021413 -0.957781 0.020046 -0.048312 0.000000 0.000000
    80 1.164475 -2.543940 -0.170330 -0.363571 -0.311871 0.210107
    81 0.024032 -1.129042 0.017807 -0.793235 0.000000 0.000001
    82 0.014898 -0.883989 -0.019848 -0.202298 0.000000 0.000000
    83 -0.586770 -1.264477 0.200161 -0.210673 -0.355487 -2.365980
    84 1.522835 0.058681 0.016848 0.025655 0.288010 0.598498
    85 1.117947 0.048424 -0.005766 0.027789 -0.079884 -0.363462
    86 -0.041740 -0.150762 -0.059824 0.806163 0.452927 1.371618
    87 -1.393470 8.839177 -0.239433 1.580804 -0.005023 -1.566847
  time 7
    0 -3.885590 2.648047 -9.247690 0.000000 0.000000 0.000000
    1 12.559731 -5.144504 0.078804 4.023530 -1.160845 1.473101
    2 -0.071918 -8.498732 -0.104136 0.338867 0.177513 -0.231731
    3 1.514942 -3.186424 0.666113 -0.419348 -0.107262 -3.451130
    4 -1.487204 -0.072218 0.000000 2.617914 0.000000 -1.275647
    5 1.379861 0.013026 0.000000 0.000000 0.000000 0.000000
    6 1.091372 -0.009931 0.000000 1.047165 0.000000 0.000000
    7 -0.000004 -0.012830 -0.746234 0.000000 1.570796 0.000000
    8 -0.000002 -0.012831 0.743942 0.000000 -1.570796 0.000000
    9 0.000000 -0.758639 0.000000 0.000001 0.000124 -1.570921
    10 0.000000 0.740977 0.000000 0.000001 -0.000118 1.570678
    11 0.618701 -0.009931 0.000000 -0.785398 0.000000 0.000000
    12 -0.000003 -0.045880 -0.434408 0.000000 1.570796 0.000000
    13 0.000000 -0.407593 -0.045883 0.000000 0.000000 -1.570973
    14 -0.000002 -0.045882 0.340349 0.000000 -1.570796 0.000000
    15 0.000000 0.427942 -0.045883 0.000001 0.000000 1.570629
    16 -1.572389 0.220680 0.000000 0.000000 0.000000 -1.282047
    17 1.033914 -0.654510 0.906782 1.570797 -0.982795 -1.564396
    18 1.033878 -0.648745 -0.899195 1.570797 0.982794 -1.564396
    19 1.026259 0.541615 -0.895047 -1.570796 0.982794 1.577196
    20 1.026212 0.549078 0.904648 -1.570796 -0.982794 1.577100
    21 2.874126 -0.034192 1.057670 1.570796 0.789324 0.006400
    22 2.881649 0.715909 -0.754650 2.067742 -0.631794 -0.736436
    23 2.879878 0.715898 0.752527 1.067860 0.637028 -0.739986
    24 2.983432 -0.034143 -0.952297 1.570796 -0.782206 0.006400
    25 2.983687 -0.034141 0.952198 1.570796 0.789324 0.006400
    26 2.975584 0.637833 -0.668710 2.067742 -0.631794 -0.736436
    27 2.973814 0.637822 0.666587 1.067860 0.637028 -0.739986
    28 2.869965 -0.034194 -1.053863 1.570796 -0.782206 0.006400
    29 3.169655 0.883133 0.000000 0.000000 0.000000 0.006400
    30 0.005513 0.071422 0.607692 1.570797 -1.570796 0.000000
    31 2.728229 0.989643 0.000000 0.000000 0.000000 0.006400
    32 0.036764 -0.010612 -0.413052 1.309136 1.533943 0.222722
    33 0.005513 -0.018424 0.416280 -1.326226 -1.533943 -2.918781
    34 -0.203741 0.515950 0.000000 0.000000 0.000000 0.295150
    35 -3.179013 1.492042 -0.000001 0.000001 0.000000 -2.846443
    36 -1.913326 1.338252 0.551623 0.295134 -1.570317 0.000000
    37 -2.138676 2.346085 -0.000001 0.000000 0.000000 1.865946
    38 1.818063 -0.014348 0.003944 1.570797 0.000001 1.570796
    39 0.338629 0.000001 1.248543 0.000000 0.000000 0.000000
    40 0.891296 0.000000 0.321762 0.000000 0.032802 0.000000
    41 1.818064 -0.277635 0.147155 -1.570795 -0.961963 -1.570797
    42 0.338630 0.000000 1.248543 0.000000 0.000000 0.000000
    43 0.891296 0.000000 0.321763 0.000000 0.032790 0.000000
    44 1.818063 -0.264801 -0.160265 -1.570796 0.955859 -1.570796
    45 0.338629 0.000000 1.248544 0.000000 0.000000 0.000000
    46 0.891297 0.000001 0.321763 0.000000 0.032802 0.000000
    47 -0.691148 -3.020236 0.046878 0.000000 0.000000 1.865945
    48 -0.002248 -0.869789 0.841686 -1.570796 -0.874057 -1.570796
    49 -0.002249 -0.869789 -0.845820 1.570796 2.267536 1.570796
    50 -0.002249 0.786466 -0.845820 -1.570796 2.267536 -1.570796
    51 -0.002248 0.786466 0.841685 1.570796 -0.874056 1.570796
    52 1.261086 8.762585 -0.153713 -1.570562 0.002683 -1.575292
    53 -0.347889 -2.560283 0.029560 -0.746140 0.229962 -0.362943
    54 0.039887 -1.479790 0.029854 -1.759312 0.000000 0.000001
    55 0.028786 -1.075731 -0.023109 -0.810791 0.000000 0.000000
    56 0.304716 -2.726912 -0.160269 -0.642944 0.204341 -0.294863
    57 -0.049759 -1.680544 0.100479 -1.781109 0.000000 -0.000002
    58 -0.034142 -1.148312 0.084782 -0.983688 0.000000 0.000000
    59 0.875732 -3.125698 -0.211399 -0.618397 0.049575 -0.055073
    60 -0.033420 -1.397129 -0.011257 -1.773707 0.000000 -0.000001
    61 -0.022360 -0.957436 0.018784 -0.747703 0.102384 -0.052996
    62 -0.993175 -2.593157 0.396003 -0.185516 0.194141 -0.191771
    63 -0.024967 -1.123934 0.017597 -1.928490 0.013147 -0.288660
    64 -0.020057 -0.890968 0.010090 -0.755224 0.000000 0.000000
    65 0.997585 -1.123056 0.138503 0.726976 -0.934910 -0.966623
    66 1.535927 0.010246 0.005009 0.045274 0.012536 -0.936292
    67 1.100771 0.004527 -0.010679 -0.197534 0.176471 -0.178292
    68 -0.043915 -0.132304 -0.316216 -2.812193 5.925454 -1.395057
    69 -3.024759 -5.028129 -1.290385 -0.796620 -5.240276 0.069381
    70 0.096944 -8.450418 -0.009365 0.308081 -1.204013 0.335124
    71 0.447953 -2.798986 -0.200443 -0.405051 -0.173207 0.312319
    72 -0.032909 -1.480204 0.004940 -1.309596 0.000000 0.000002
    73 -0.027022 -1.076920 -0.020210 0.168442 0.000000 0.000000
    74 -0.249534 -2.846964 -0.174213 -0.171002 -0.089770 0.289110
    75 0.043235 -1.683941 0.096012 -1.549351 0.002823 -0.000167
    76 0.031729 -1.160830 0.058838 0.068761 0.000642 0.008372
    77 -0.963866 -2.785145 -0.085350 0.035043 0.089944 0.201956
    78 0.028479 -1.403067 0.006271 -1.285362 0.000000 0.000000
    79 0.021413 -0.957781 0.020046 -0.048312 0.000000 0.000000
    80 1.164475 -2.543940 -0.170330 -0.363571 -0.311871 0.210107
    81 0.024032 -1.129042 0.017807 -0.793235 0.000000 0.000001
    82 0.014898 -0.883989 -0.019848 -0.202298 0.000000 0.000000
    83 -0.586770 -1.264477 0.200161 -0.210673 -0.355487 -2.365980
    84 1.522835 0.058681 0.016848 0.025655 0.288010 0.598498
    85 1.117947 0.048424 -0.005766 0.027789 -0.079884 -0.363462
    86 -0.041740 -0.150762 -0.059824 0.806163 0.452927 1.371618
    87 -1.393470 8.839177 -0.239433 1.580804 -0.005023 -1.566847
  time 8
    0 -3.885590 2.605077 -9.138312 0.000000 0.000000 0.000000
    1 12.559731 -5.144504 0.078804 4.023530 -1.160845 1.473101
    2 -0.071918 -8.498732 -0.104136 0.338867 0.177513 -0.231731
    3 1.514942 -3.186424 0.666113 -0.419348 -0.107262 -3.451130
    4 -1.487204 -0.072218 0.000000 2.094331 0.000000 -1.275647
    5 1.379861 0.013026 0.000000 0.000000 0.000000 0.000000
    6 1.091372 -0.009931 0.000000 2.094331 0.000000 0.000000
    7 -0.000004 -0.012830 -0.746234 0.000000 1.570796 0.000000
    8 -0.000002 -0.012831 0.743942 0.000000 -1.570796 0.000000
    9 0.000000 -0.758639 0.000000 0.000001 0.000124 -1.570921
    10 0.000000 0.740977 0.000000 0.000001 -0.000118 1.570678
    11 0.618701 -0.009931 0.000000 -0.785398 0.000000 0.000000
    12 -0.000003 -0.045880 -0.434408 0.000000 1.570796 0.000000
    13 0.000000 -0.407593 -0.045883 0.000000 0.000000 -1.570973
    14 -0.000002 -0.045882 0.340349 0.000000 -1.570796 0.000000
    15 0.000000 0.427942 -0.045883 0.000001 0.000000 1.570629
    16 -1.572389 0.220680 0.000000 0.000000 0.000000 -1.282047
    17 1.033914 -0.654510 0.906782 1.570797 -0.982795 -1.564396
    18 1.033878 -0.648745 -0.899195 1.570797 0.982794 -1.564396
    19 1.026259 0.541615 -0.895047 -1.570796 0.982794 1.577196
    20 1.026212 0.549078 0.904648 -1.570796 -0.982794 1.577100
    21 2.874126 -0.034192 1.057670 1.570796 0.789324 0.006400
    22 2.881649 0.715909 -0.754650 2.067742 -0.631794 -0.736436
    23 2.879878 0.715898 0.752527 1.067860 0.637028 -0.739986
    24 2.983432 -0.034143 -0.952297 1.570796 -0.782206 0.006400
    25 2.983687 -0.034141 0.952198 1.570796 0.789324 0.006400
    26 2.975584 0.637833 -0.668710 2.067742 -0.631794 -0.736436
    27 2.973814 0.637822 0.666587 1.067860 0.637028 -0.739986
    28 2.869965 -0.034194 -1.053863 1.570796 -0.782206 0.006400
    29 3.169655 0.883133 0.000000 0.000000 0.000000 0.006400
    30 0.005513 0.071422 0.607692 1.570797 -1.570796 0.000000
    31 2.728229 0.989643 0.000000 0.000000 0.000000 0.006400
    32 0.036764 -0.010612 -0.413052 1.309136 1.533943 0.222722
    33 0.005513 -0.018424 0.416280 -1.326226 -1.533943 -2.918781
    34 -0.203741 0.515950 0.000000 0.000000 0.000000 0.295150
    35 -3.179013 1.492042 -0.000001 0.000001 0.000000 -2.846443
    36 -1.913326 1.338252 0.551623 0.295134 -1.570317 0.000000
    37 -2.138676 2.346085 -0.000001 0.000000 0.000000 1.865946
    38 1.818063 -0.014348 0.003944 1.570797 0.000001 1.570796
    39 0.338629 0.000001 1.416517 0.000000 0.000000 0.000000
    40 0.891296 0.000000 0.321762 0.000000 0.032802 0.000000
    41 1.818064 -0.277635 0.147155 -1.570795 -0.961963 -1.570797
    42 0.338630 0.000000 1.416517 0.000000 0.000000 0.000000
    43 0.891296 0.000000 0.321763 0.000000 0.032790 0.000000
    44 1.818063 -0.264801 -0.160265 -1.570796 0.955859 -1.570796
    45 0.338629 0.000000 1.416518 0.000000 0.000000 0.000000
    46 0.891297 0.000001 0.321763 0.000000 0.032802 0.000000
    47 -0.691148 -3.020236 0.046878 0.000000 0.000000 1.865945
    48 -0.002248 -0.869789 0.841686 -1.570796 -0.874057 -1.570796
    49 -0.002249 -0.869789 -0.845820 1.570796 2.267536 1.570796
    50 -0.002249 0.786466 -0.845820 -1.570796 2.267536 -1.570796
    51 -0.002248 0.786466 0.841685 1.570796 -0.874056 1.570796
    52 1.261086 8.762585 -0.153713 -1.570562 0.002683 -1.575292
    53 -0.347889 -2.560283 0.029560 -0.746140 0.229962 -0.362943
    54 0.039887 -1.479790 0.029854 -1.759312 0.000000 0.000001
    55 0.028786 -1.075731 -0.023109 -0.810791 0.000000 0.000000
    56 0.304716 -2.726912 -0.160269 -0.642944 0.204341 -0.294863
    57 -0.049759 -1.680544 0.100479 -1.781109 0.000000 -0.000002
    58 -0.034142 -1.148312 0.084782 -0.983688 0.000000 0.000000
    59 0.875732 -3.125698 -0.211399 -0.618397 0.049575 -0.055073
    60 -0.033420 -1.397129 -0.011257 -1.773707 0.000000 -0.000001
    61 -0.022360 -0.957436 0.018784 -0.747703 0.102384 -0.052996
    62 -0.993175 -2.593157 0.396003 -0.185516 0.194141 -0.191771
    63 -0.024967 -1.123934 0.017597 -1.928490 0.013147 -0.288660
    64 -0.020057 -0.890968 0.010090 -0.755224 0.000000 0.000000
    65 0.997585 -1.123056 0.138503 0.726976 -0.934910 -0.966623
    66 1.535927 0.010246 0.005009 0.045274 0.012536 -0.936292
    67 1.100771 0.004527 -0.010679 -0.197534 0.176471 -0.178292
    68 -0.043915 -0.132304 -0.316216 -2.812193 5.925454 -1.395057
    69 -3.024759 -5.028129 -1.290385 -0.796620 -5.240276 0.069381
    70 0.096944 -8.450418 -0.009365 0.308081 -1.204013 0.335124
    71 0.447953 -2.798986 -0.200443 -0.405051 -0.173207 0.312319
    72 -0.032909 -1.480204 0.004940 -1.309596 0.000000 0.000002
    73 -0.027022 -1.076920 -0.020210 0.168442 0.000000 0.000000
    74 -0.249534 -2.846964 -0.174213 -0.171002 -0.089770 0.289110
    75 0.043235 -1.683941 0.096012 -1.549351 0.002823 -0.000167
    76 0.031729 -1.160830 0.058838 0.068761 0.000642 0.008372
    77 -0.963866 -2.785145 -0.085350 0.035043 0.089944 0.201956
    78 0.028479 -1.403067 0.006271 -1.285362 0.000000 0.000000
    79 0.021413 -0.957781 0.020046 -0.048312 0.000000 0.000000
    80 1.164475 -2.543940 -0.170330 -0.363571 -0.311871 0.210107
    81 0.024032 -1.129042 0.017807 -0.793235 0.000000 0.000001
    82 0.014898 -0.883989 -0.019848 -0.202298 0.000000 0.000000
    83 -0.586770 -1.264477 0.200161 -0.210673 -0.355487 -2.365980
    84 1.522835 0.058681 0.016848 0.025655 0.288010 0.598498
    85 1.117947 0.048424 -0.005766 0.027789 -0.079884 -0.363462
    86 -0.041740 -0.150762 -0.059824 0.806163 0.452927 1.371618
    87 -1.393470 8.839177 -0.239433 1.580804 -0.005023 -1.566847
  time 9
    0 -3.885590 2.651954 -9.255503 0.000000 0.000000 0.000000
    1 12.559731 -5.144504 0.078804 4.023530 -1.160845 1.473101
    2 -0.071918 -8.498732 -0.104136 0.338867 0.177513 -0.231731
    3 1.514942 -3.186424 0.666113 -0.419348 -0.107262 -3.451130
    4 -1.487204 -0.072218 0.000000 1.570748 0.000000 -1.275647
    5 1.379861 0.013026 0.000000 0.000000 0.000000 0.000000
    6 1.091372 -0.009931 0.000000 -3.141592 0.000000 0.000000
    7 -0.000004 -0.012830 -0.746234 0.000000 1.570796 0.000000
    8 -0.000002 -0.012831 0.743942 0.000000 -1.570796 0.000000
    9 0.000000 -0.758639 0.000000 0.000001 0.000124 -1.570921
    10 0.000000 0.740977 0.000000 0.000001 -0.000118 1.570678
    11 0.618701 -0.009931 0.000000 -0.785398 0.000000 0.000000
    12 -0.000003 -0.045880 -0.434408 0.000000 1.570796 0.000000
    13 0.000000 -0.407593 -0.045883 0.000000 0.000000 -1.570973
    14 -0.000002 -0.045882 0.340349 0.000000 -1.570796 0.000000
    15 0.000000 0.427942 -0.045883 0.000001 0.000000 1.570629
    16 -1.572389 0.220680 0.000000 0.000000 0.000000 -1.282047
    17 1.033914 -0.654510 0.906782 1.570797 -0.982795 -1.564396
    18 1.033878 -0.648745 -0.899195 1.570797 0.982794 -1.564396
    19 1.026259 0.541615 -0.895047 -1.570796 0.982794 1.577196
    20 1.026212 0.549078 0.904648 -1.570796 -0.982794 1.577100
    21 2.874126 -0.034192 1.057670 1.570796 0.789324 0.006400
    22 2.881649 0.715909 -0.754650 2.067742 -0.631794 -0.736436
    23 2.879878 0.715898 0.752527 1.067860 0.637028 -0.739986
    24 2.983432 -0.034143 -0.952297 1.570796 -0.782206 0.006400
    25 2.983687 -0.034141 0.952198 1.570796 0.789324 0.006400
    26 2.975584 0.637833 -0.668710 2.067742 -0.631794 -0.736436
    27 2.973814 0.637822 0.666587 1.067860 0.637028 -0.739986
    28 2.869965 -0.034194 -1.053863 1.570796 -0.782206 0.006400
    29 3.169655 0.883133 0.000000 0.000000 0.000000 0.006400
    30 0.005513 0.071422 0.607692 1.570797 -1.570796 0.000000
    31 2.728229 0.989643 0.000000 0.000000 0.000000 0.006400
    32 0.036764 -0.010612 -0.413052 1.309136 1.533943 0.222722
    33 0.005513 -0.018424 0.416280 -1.326226 -1.533943 -2.918781
    34 -0.203741 0.515950 0.000000 0.000000 0.000000 0.295150
    35 -3.179013 1.492042 -0.000001 0.000001 0.000000 -2.846443
    36 -1.913326 1.338252 0.551623 0.295134 -1.570317 0.000000
    37 -2.138676 2.346085 -0.000001 0.000000 0.000000 1.865946
    38 1.818063 -0.014348 0.003944 1.570797 0.000001 1.570796
    39 0.338629 0.000001 1.303232 0.000000 0.000000 0.000000
    40 0.891296 0.000000 0.321762 0.000000 0.032802 0.000000
    41 1.818064 -0.277635 0.147155 -1.570795 -0.961963 -1.570797
    42 0.338630 0.000000 1.303232 0.000000 0.000000 0.000000
    43 0.891296 0.000000 0.321763 0.000000 0.032790 0.000000
    44 1.818063 -0.264801 -0.160265 -1.570796 0.955859 -1.570796
    45 0.338629 0.000000 1.303233 0.000000 0.000000 0.000000
    46 0.891297 0.000001 0.321763 0.000000 0.032802 0.000000
    47 -0.691148 -3.020236 0.046878 0.000000 0.000000 1.865945
    48 -0.002248 -0.869789 0.841686 -1.570796 -0.874057 -1.570796
    49 -0.002249 -0.869789 -0.845820 1.570796 2.267536 1.570796
    50 -0.002249 0.786466 -0.845820 -1.570796 2.267536 -1.570796
    51 -0.002248 0.786466 0.841685 1.570796 -0.874056 1.570796
    52 1.261086 8.762585 -0.153713 -1.570562 0.002683 -1.575292
    53 -0.347889 -2.560283 0.029560 -0.746140 0.229962 -0.362943
    54 0.039887 -1.479790 0.029854 -1.759312 0.000000 0.000001
    55 0.028786 -1.075731 -0.023109 -0.810791 0.000000 0.000000
    56 0.304716 -2.726912 -0.160269 -0.642944 0.204341 -0.294863
    57 -0.049759 -1.680544 0.100479 -1.781109 0.000000 -0.000002
    58 -0.034142 -1.148312 0.084782 -0.983688 0.000000 0.000000
    59 0.875732 -3.125698 -0.211399 -0.618397 0.049575 -0.055073
    60 -0.033420 -1.397129 -0.011257 -1.773707 0.000000 -0.000001
    61 -0.022360 -0.957436 0.018784 -0.747703 0.102384 -0.052996
    62 -0.993175 -2.593157 0.396003 -0.185516 0.194141 -0.191771
    63 -0.024967 -1.123934 0.017597 -1.928490 0.013147 -0.288660
    64 -0.020057 -0.890968 0.010090 -0.755224 0.000000 0.000000
    65 0.997585 -1.123056 0.138503 0.726976 -0.934910 -0.966623
    66 1.535927 0.010246 0.005009 0.045274 0.012536 -0.936292
    67 1.100771 0.004527 -0.010679 -0.197534 0.176471 -0.178292
    68 -0.043915 -0.132304 -0.316216 -2.812193 5.925454 -1.395057
    69 -3.024759 -5.028129 -1.290385 -0.796620 -5.240276 0.069381
    70 0.096944 -8.450418 -0.009365 0.308081 -1.204013 0.335124
    71 0.447953 -2.798986 -0.200443 -0.405051 -0.173207 0.312319
    72 -0.032909 -1.480204 0.004940 -1.309596 0.000000 0.000002
    73 -0.027022 -1.076920 -0.020210 0.168442 0.000000 0.000000
    74 -0.249534 -2.846964 -0.174213 -0.171002 -0.089770 0.289110
    75 0.043235 -1.683941 0.096012 -1.549351 0.002823 -0.000167
    76 0.031729 -1.160830 0.058838 0.068761 0.000642 0.008372
    77 -0.963866 -2.785145 -0.085350 0.035043 0.089944 0.201956
    78 0.028479 -1.403067 0.006271 -1.285362 0.000000 0.000000
    79 0.021413 -0.957781 0.020046 -0.048312 0.000000 0.000000
    80 1.164475 -2.543940 -0.170330 -0.363571 -0.311871 0.210107
    81 0.024032 -1.129042 0.017807 -0.793235 0.000000 0.000001
    82 0.014898 -0.883989 -0.019848 -0.202298 0.000000 0.000000
    83 -0.586770 -1.264477 0.200161 -0.210673 -0.355487 -2.365980
    84 1.522835 0.058681 0.016848 0.025655 0.288010 0.598498
    85 1.117947 0.048424 -0.005766 0.027789 -0.079884 -0.363462
    86 -0.041740 -0.150762 -0.059824 0.806163 0.452927 1.371618
    87 -1.393470 8.839177 -0.239433 1.580804 -0.005023 -1.566847
  time 10
    0 -3.885590 2.644141 -9.189095 0.000000 0.000000 0.000000
    1 12.559731 -5.144504 0.078804 4.023530 -1.160845 1.473101
    2 -0.071918 -8.498732 -0.104136 0.338867 0.177513 -0.231731
    3 1.514942 -3.186424 0.666113 -0.419348 -0.107262 -3.451130
    4 -1.487204 -0.072218 0.000000 1.047165 0.000000 -1.275647
    5 1.379861 0.013026 0.000000 0.000000 0.000000 0.000000
    6 1.091372 -0.009931 0.000000 -2.094331 0.000000 0.000000
    7 -0.000004 -0.012830 -0.746234 0.000000 1.570796 0.000000
    8 -0.000002 -0.012831 0.743942 0.000000 -1.570796 0.000000
    9 0.000000 -0.758639 0.000000 0.000001 0.000124 -1.570921
    10 0.000000 0.740977 0.000000 0.000001 -0.000118 1.570678
    11 0.618701 -0.009931 0.000000 -0.785398 0.000000 0.000000
    12 -0.000003 -0.045880 -0.434408 0.000000 1.570796 0.000000
    13 0.000000 -0.407593 -0.045883 0.000000 0.000000 -1.570973
    14 -0.000002 -0.045882 0.340349 0.000000 -1.570796 0.000000
    15 0.000000 0.427942 -0.045883 0.000001 0.000000 1.570629
    16 -1.572389 0.220680 0.000000 0.000000 0.000000 -1.282047
    17 1.033914 -0.654510 0.906782 1.570797 -0.982795 -1.564396
    18 1.033878 -0.648745 -0.899195 1.570797 0.982794 -1.564396
    19 1.026259 0.541615 -0.895047 -1.570796 0.982794 1.577196
    20 1.026212 0.549078 0.904648 -1.570796 -0.982794 1.577100
    21 2.874126 -0.034192 1.057670 1.570796 0.789324 0.006400
    22 2.881649 0.715909 -0.754650 2.067742 -0.631794 -0.736436
    23 2.879878 0.715898 0.752527 1.067860 0.637028 -0.739986
    24 2.983432 -0.034143 -0.952297 1.570796 -0.782206 0.006400
    25 2.983687 -0.034141 0.952198 1.570796 0.789324 0.006400
    26 2.975584 0.637833 -0.668710 2.067742 -0.631794 -0.736436
    27 2.973814 0.637822 0.666587 1.067860 0.637028 -0.739986
    28 2.869965 -0.034194 -1.053863 1.570796 -0.782206 0.006400
    29 3.169655 0.883133 0.000000 0.000000 0.000000 0.006400
    30 0.005513 0.071422 0.607692 1.570797 -1.570796 0.000000
    31 2.728229 0.989643 0.000000 0.000000 0.000000 0.006400
    32 0.036764 -0.010612 -0.413052 1.309136 1.533943 0.222722
    33 0.005513 -0.018424 0.416280 -1.326226 -1.533943 -2.918781
    34 -0.203741 0.515950 0.000000 0.000000 0.000000 0.295150
    35 -3.179013 1.492042 -0.000001 0.000001 0.000000 -2.846443
    36 -1.913326 1.338252 0.551623 0.295134 -1.570317 0.000000
    37 -2.138676 2.346085 -0.000001 0.000000 0.000000 1.865946
    38 1.818063 -0.014348 0.003944 1.570797 0.000001 1.570796
    39 0.338629 0.000001 1.365734 0.000000 0.000000 0.000000
    40 0.891296 0.000000 0.321762 0.000000 0.032802 0.000000
    41 1.818064 -0.277635 0.147155 -1.570795 -0.961963 -1.570797
    42 0.338630 0.000000 1.365734 0.000000 0.000000 0.000000
    43 0.891296 0.000000 0.321763 0.000000 0.032790 0.000000
    44 1.818063 -0.264801 -0.160265 -1.570796 0.955859 -1.570796
    45 0.338629 0.000000 1.365735 0.000000 0.000000 0.000000
    46 0.891297 0.000001 0.321763 0.000000 0.032802 0.000000
    47 -0.691148 -3.020236 0.046878 0.000000 0.000000 1.865945
    48 -0.002248 -0.869789 0.841686 -1.570796 -0.874057 -1.570796
    49 -0.002249 -0.869789 -0.845820 1.570796 2.267536 1.570796
    50 -0.002249 0.786466 -0.845820 -1.570796 2.267536 -1.570796
    51 -0.002248 0.786466 0.841685 1.570796 -0.874056 1.570796
    52 1.261086 8.762585 -0.153713 -1.570562 0.002683 -1.575292
    53 -0.347889 -2.560283 0.029560 -0.746140 0.229962 -0.362943
    54 0.039887 -1.479790 0.029854 -1.759312 0.000000 0.000001
    55 0.028786 -1.075731 -0.023109 -0.810791 0.000000 0.000000
    56 0.304716 -2.726912 -0.160269 -0.642944 0.204341 -0.294863
    57 -0.049759 -1.680544 0.100479 -1.781109 0.000000 -0.000002
    58 -0.034142 -1.148312 0.084782 -0.983688 0.000000 0.000000
    59 0.875732 -3.125698 -0.211399 -0.618397 0.049575 -0.055073
    60 -0.033420 -1.397129 -0.011257 -1.773707 0.000000 -0.000001
    61 -0.022360 -0.957436 0.018784 -0.747703 0.102384 -0.052996
    62 -0.993175 -2.593157 0.396003 -0.185516 0.194141 -0.191771
    63 -0.024967 -1.123934 0.017597 -1.928490 0.013147 -0.288660
    64 -0.020057 -0.890968 0.010090 -0.755224 0.000000 0.000000
    65 0.997585 -1.123056 0.138503 0.726976 -0.934910 -0.966623
    66 1.535927 0.010246 0.005009 0.045274 0.012536 -0.936292
    67 1.100771 0.004527 -0.010679 -0.197534 0.176471 -0.178292
    68 -0.043915 -0.132304 -0.316216 -2.812193 5.925454 -1.395057
    69 -3.024759 -5.028129 -1.290385 -0.796620 -5.240276 0.069381
    70 0.096944 -8.450418 -0.009365 0.308081 -1.204013 0.335124
    71 0.447953 -2.798986 -0.200443 -0.405051 -0.173207 0.312319
    72 -0.032909 -1.480204 0.004940 -1.309596 0.000000 0.000002
    73 -0.027022 -1.076920 -0.020210 0.168442 0.000000 0.000000
    74 -0.249534 -2.846964 -0.174213 -0.171002 -0.089770 0.289110
    75 0.043235 -1.683941 0.096012 -1.549351 0.002823 -0.000167
    76 0.031729 -1.160830 0.058838 0.068761 0.000642 0.008372
    77 -0.963866 -2.785145 -0.085350 0.035043 0.089944 0.201956
    78 0.028479 -1.403067 0.006271 -1.285362 0.000000 0.000000
    79 0.021413 -0.957781 0.020046 -0.048312 0.000000 0.000000
    80 1.164475 -2.543940 -0.170330 -0.363571 -0.311871 0.210107
    81 0.024032 -1.129042 0.017807 -0.793235 0.000000 0.000001
    82 0.014898 -0.883989 -0.019848 -0.202298 0.000000 0.000000
    83 -0.586770 -1.264477 0.200161 -0.210673 -0.355487 -2.365980
    84 1.522835 0.058681 0.016848 0.025655 0.288010 0.598498
    85 1.117947 0.048424 -0.005766 0.027789 -0.079884 -0.363462
    86 -0.041740 -0.150762 -0.059824 0.806163 0.452927 1.371618
    87 -1.393470 8.839177 -0.239433 1.580804 -0.005023 -1.566847
  time 11
    0 -3.885590 2.628516 -9.126593 0.000000 0.000000 0.000000
    1 12.559731 -5.144504 0.078804 4.023530 -1.160845 1.473101
    2 -0.071918 -8.498732 -0.104136 0.338867 0.177513 -0.231731
    3 1.514942 -3.186424 0.666113 -0.419348 -0.107262 -3.451130
    4 -1.487204 -0.072218 0.000000 0.523583 0.000000 -1.275647
    5 1.379861 0.013026 0.000000 0.000000 0.000000 0.000000
    6 1.091372 -0.009931 0.000000 -1.047165 0.000000 0.000000
    7 -0.000004 -0.012830 -0.746234 0.000000 1.570796 0.000000
    8 -0.000002 -0.012831 0.743942 0.000000 -1.570796 0.000000
    9 0.000000 -0.758639 0.000000 0.000001 0.000124 -1.570921
    10 0.000000 0.740977 0.000000 0.000001 -0.000118 1.570678
    11 0.618701 -0.009931 0.000000 -0.785398 0.000000 0.000000
    12 -0.000003 -0.045880 -0.434408 0.000000 1.570796 0.000000
    13 0.000000 -0.407593 -0.045883 0.000000 0.000000 -1.570973
    14 -0.000002 -0.045882 0.340349 0.000000 -1.570796 0.000000
    15 0.000000 0.427942 -0.045883 0.000001 0.000000 1.570629
    16 -1.572389 0.220680 0.000000 0.000000 0.000000 -1.282047
    17 1.033914 -0.654510 0.906782 1.570797 -0.982795 -1.564396
    18 1.033878 -0.648745 -0.899195 1.570797 0.982794 -1.564396
    19 1.026259 0.541615 -0.895047 -1.570796 0.982794 1.577196
    20 1.026212 0.549078 0.904648 -1.570796 -0.982794 1.577100
    21 2.874126 -0.034192 1.057670 1.570796 0.789324 0.006400
    22 2.881649 0.715909 -0.754650 2.067742 -0.631794 -0.736436
    23 2.879878 0.715898 0.752527 1.067860 0.637028 -0.739986
    24 2.983432 -0.034143 -0.952297 1.570796 -0.782206 0.006400
    25 2.983687 -0.034141 0.952198 1.570796 0.789324 0.006400
    26 2.975584 0.637833 -0.668710 2.067742 -0.631794 -0.736436
    27 2.973814 0.637822 0.666587 1.067860 0.637028 -0.739986
    28 2.869965 -0.034194 -1.053863 1.570796 -0.782206 0.006400
    29 3.169655 0.883133 0.000000 0.000000 0.000000 0.006400
    30 0.005513 0.071422 0.607692 1.570797 -1.570796 0.000000
    31 2.728229 0.989643 0.000000 0.000000 0.000000 0.006400
    32 0.036764 -0.010612 -0.413052 1.309136 1.533943 0.222722
    33 0.005513 -0.018424 0.416280 -1.326226 -1.533943 -2.918781
    34 -0.203741 0.515950 0.000000 0.000000 0.000000 0.295150
    35 -3.179013 1.492042 -0.000001 0.000001 0.000000 -2.846443
    36 -1.913326 1.338252 0.551623 0.295134 -1.570317 0.000000
    37 -2.138676 2.346085 -0.000001 0.000000 0.000000 1.865946
    38 1.818063 -0.014348 0.003944 1.570797 0.000001 1.570796
    39 0.338629 0.000001 1.432142 0.000000 0.000000 0.000000
    40 0.891296 0.000000 0.321762 0.000000 0.032802 0.000000
    41 1.818064 -0.277635 0.147155 -1.570795 -0.961963 -1.570797
    42 0.338630 0.000000 1.432142 0.000000 0.000000 0.000000
    43 0.891296 0.000000 0.321763 0.000000 0.032790 0.000000
    44 1.818063 -0.264801 -0.160265 -1.570796 0.955859 -1.570796
    45 0.338629 0.000000 1.432143 0.000000 0.000000 0.000000
    46 0.891297 0.000001 0.321763 0.000000 0.032802 0.000000
    47 -0.691148 -3.020236 0.046878 0.000000 0.000000 1.865945
    48 -0.002248 -0.869789 0.841686 -1.570796 -0.874057 -1.570796
    49 -0.002249 -0.869789 -0.845820 1.570796 2.267536 1.570796
    50 -0.002249 0.786466 -0.845820 -1.570796 2.267536 -1.570796
    51 -0.002248 0.786466 0.841685 1.570796 -0.874056 1.570796
    52 1.261086 8.762585 -0.153713 -1.570562 0.002683 -1.575292
    53 -0.347889 -2.560283 0.029560 -0.746140 0.229962 -0.362943
    54 0.039887 -1.479790 0.029854 -1.759312 0.000000 0.000001
    55 0.028786 -1.075731 -0.023109 -0.810791 0.000000 0.000000
    56 0.304716 -2.726912 -0.160269 -0.642944 0.204341 -0.294863
    57 -0.049759 -1.680544 0.100479 -1.781109 0.000000 -0.000002
    58 -0.034142 -1.148312 0.084782 -0.983688 0.000000 0.000000
    59 0.875732 -3.125698 -0.211399 -0.618397 0.049575 -0.055073
    60 -0.033420 -1.397129 -0.011257 -1.773707 0.000000 -0.000001
    61 -0.022360 -0.957436 0.018784 -0.747703 0.102384 -0.052996
    62 -0.993175 -2.593157 0.396003 -0.185516 0.194141 -0.191771
    63 -0.024967 -1.123934 0.017597 -1.928490 0.013147 -0.288660
    64 -0.020057 -0.890968 0.010090 -0.755224 0.000000 0.000000
    65 0.997585 -1.123056 0.138503 0.726976 -0.934910 -0.966623
    66 1.535927 0.010246 0.005009 0.045274 0.012536 -0.936292
    67 1.100771 0.004527 -0.010679 -0.197534 0.176471 -0.178292
    68 -0.043915 -0.132304 -0.316216 -2.812193 5.925454 -1.395057
    69 -3.024759 -5.028129 -1.290385 -0.796620 -5.240276 0.069381
    70 0.096944 -8.450418 -0.009365 0.308081 -1.204013 0.335124
    71 0.447953 -2.798986 -0.200443 -0.405051 -0.173207 0.312319
    72 -0.032909 -1.480204 0.004940 -1.309596 0.000000 0.000002
    73 -0.027022 -1.076920 -0.020210 0.168442 0.000000 0.000000
    74 -0.249534 -2.846964 -0.174213 -0.171002 -0.089770 0.289110
    75 0.043235 -1.683941 0.096012 -1.549351 0.002823 -0.000167
    76 0.031729 -1.160830 0.058838 0.068761 0.000642 0.008372
    77 -0.963866 -2.785145 -0.085350 0.035043 0.089944 0.201956
    78 0.028479 -1.403067 0.006271 -1.285362 0.000000 0.000000
    79 0.021413 -0.957781 0.020046 -0.048312 0.000000 0.000000
    80 1.164475 -2.543940 -0.170330 -0.363571 -0.311871 0.210107
    81 0.024032 -1.129042 0.017807 -0.793235 0.000000 0.000001
    82 0.014898 -0.883989 -0.019848 -0.202298 0.000000 0.000000
    83 -0.586770 -1.264477 0.200161 -0.210673 -0.355487 -2.365980
    84 1.522835 0.058681 0.016848 0.025655 0.288010 0.598498
    85 1.117947 0.048424 -0.005766 0.027789 -0.079884 -0.363462
    86 -0.041740 -0.150762 -0.059824 0.806163 0.452927 1.371618
    87 -1.393470 8.839177 -0.239433 1.580804 -0.005023 -1.566847
  time 12
    0 -3.885590 2.605077 -9.150031 0.000000 0.000000 0.000000
    1 12.559731 -5.144504 0.078804 4.023530 -1.160845 1.473101
    2 -0.071918 -8.498732 -0.104136 0.338867 0.177513 -0.231731
    3 1.514942 -3.186424 0.666113 -0.419348 -0.107262 -3.451130
    4 -1.487204 -0.072218 0.000000 0.000000 0.000000 -1.275647
    5 1.379861 0.013026 0.000000 0.000000 0.000000 0.000000
    6 1.091372 -0.009931 0.000000 0.000000 0.000000 0.000000
    7 -0.000004 -0.012830 -0.746234 0.000000 1.570796 0.000000
    8 -0.000002 -0.012831 0.743942 0.000000 -1.570796 0.000000
    9 0.000000 -0.758639 0.000000 0.000001 0.000124 -1.570921
    10 0.000000 0.740977 0.000000 0.000001 -0.000118 1.570678
    11 0.618701 -0.009931 0.000000 -0.785398 0.000000 0.000000
    12 -0.000003 -0.045880 -0.434408 0.000000 1.570796 0.000000
    13 0.000000 -0.407593 -0.045883 0.000000 0.000000 -1.570973
    14 -0.000002 -0.045882 0.340349 0.000000 -1.570796 0.000000
    15 0.000000 0.427942 -0.045883 0.000001 0.000000 1.570629
    16 -1.572389 0.220680 0.000000 0.000000 0.000000 -1.282047
    17 1.033914 -0.654510 0.906782 1.570797 -0.982795 -1.564396
    18 1.033878 -0.648745 -0.899195 1.570797 0.982794 -1.564396
    19 1.026259 0.541615 -0.895047 -1.570796 0.982794 1.577196
    20 1.026212 0.549078 0.904648 -1.570796 -0.982794 1.577100
    21 2.874126 -0.034192 1.057670 1.570796 0.789324 0.006400
    22 2.881649 0.715909 -0.754650 2.067742 -0.631794 -0.736436
    23 2.879878 0.715898 0.752527 1.067860 0.637028 -0.739986
    24 2.983432 -0.034143 -0.952297 1.570796 -0.782206 0.006400
    25 2.983687 -0.034141 0.952198 1.570796 0.789324 0.006400
    26 2.975584 0.637833 -0.668710 2.067742 -0.631794 -0.736436
    27 2.973814 0.637822 0.666587 1.067860 0.637028 -0.739986
    28 2.869965 -0.034194 -1.053863 1.570796 -0.782206 0.006400
    29 3.169655 0.883133 0.000000 0.000000 0.000000 0.006400
    30 0.005513 0.071422 0.607692 1.570797 -1.570796 0.000000
    31 2.728229 0.989643 0.000000 0.000000 0.000000 0.006400
    32 0.036764 -0.010612 -0.413052 1.309136 1.533943 0.222722
    33 0.005513 -0.018424 0.416280 -1.326226 -1.533943 -2.918781
    34 -0.203741 0.515950 0.000000 0.000000 0.000000 0.295150
    35 -3.179013 1.492042 -0.000001 0.000001 0.000000 -2.846443
    36 -1.913326 1.338252 0.551623 0.295134 -1.570317 0.000000
    37 -2.138676 2.346085 -0.000001 0.000000 0.000000 1.865946
    38 1.818063 -0.014348 0.003944 1.570797 0.000001 1.570796
    39 0.338629 0.000001 1.260262 0.000000 0.000000 0.000000
    40 0.891296 0.000000 0.321762 0.000000 0.032802 0.000000
    41 1.818064 -0.277635 0.147155 -1.570795 -0.961963 -1.570797
    42 0.338630 0.000000 1.260262 0.000000 0.000000 0.000000
    43 0.891296 0.000000 0.321763 0.000000 0.032790 0.000000
    44 1.818063 -0.264801 -0.160265 -1.570796 0.955859 -1.570796
    45 0.338629 0.000000 1.260263 0.000000 0.000000 0.000000
    46 0.891297 0.000001 0.321763 0.000000 0.032802 0.000000
    47 -0.691148 -3.020236 0.046878 0.000000 0.000000 1.865945
    48 -0.002248 -0.869789 0.841686 -1.570796 -0.874057 -1.570796
    49 -0.002249 -0.869789 -0.845820 1.570796 2.267536 1.570796
    50 -0.002249 0.786466 -0.845820 -1.570796 2.267536 -1.570796
    51 -0.002248 0.786466 0.841685 1.570796 -0.874056 1.570796
    52 1.261086 8.762585 -0.153713 -1.570562 0.002683 -1.575292
    53 -0.347889 -2.560283 0.029560 -0.746140 0.229962 -0.362943
    54 0.039887 -1.479790 0.029854 -1.759312 0.000000 0.000001
    55 0.028786 -1.075731 -0.023109 -0.810791 0.000000 0.000000
    56 0.304716 -2.726912 -0.160269 -0.642944 0.204341 -0.294863
    57 -0.049759 -1.680544 0.100479 -1.781109 0.000000 -0.000002
    58 -0.034142 -1.148312 0.084782 -0.983688 0.000000 0.000000
    59 0.875732 -3.125698 -0.211399 -0.618397 0.049575 -0.055073
    60 -0.033420 -1.397129 -0.011257 -1.773707 0.000000 -0.000001
    61 -0.022360 -0.957436 0.018784 -0.747703 0.102384 -0.052996
    62 -0.993175 -2.593157 0.396003 -0.185516 0.194141 -0.191771
    63 -0.024967 -1.123934 0.017597 -1.928490 0.013147 -0.288660
    64 -0.020057 -0.890968 0.010090 -0.755224 0.000000 0.000000
    65 0.997585 -1.123056 0.138503 0.726976 -0.934910 -0.966623
    66 1.535927 0.010246 0.005009 0.045274 0.012536 -0.936292
    67 1.100771 0.004527 -0.010679 -0.197534 0.176471 -0.178292
    68 -0.043915 -0.132304 -0.316216 -2.812193 5.925454 -1.395057
    69 -3.024759 -5.028129 -1.290385 -0.796620 -5.240276 0.069381
    70 0.096944 -8.450418 -0.009365 0.308081 -1.204013 0.335124
    71 0.447953 -2.798986 -0.200443 -0.405051 -0.173207 0.312319
    72 -0.032909 -1.480204 0.004940 -1.309596 0.000000 0.000002
    73 -0.027022 -1.076920 -0.020210 0.168442 0.000000 0.000000
    74 -0.249534 -2.846964 -0.174213 -0.171002 -0.089770 0.289110
    75 0.043235 -1.683941 0.096012 -1.549351 0.002823 -0.000167
    76 0.031729 -1.160830 0.058838 0.068761 0.000642 0.008372
    77 -0.963866 -2.785145 -0.085350 0.035043 0.089944 0.201956
    78 0.028479 -1.403067 0.006271 -1.285362 0.000000 0.000000
    79 0.021413 -0.957781 0.020046 -0.048312 0.000000 0.000000
    80 1.164475 -2.543940 -0.170330 -0.363571 -0.311871 0.210107
    81 0.024032 -1.129042 0.017807 -0.793235 0.000000 0.000001
    82 0.014898 -0.883989 -0.019848 -0.202298 0.000000 0.000000
    83 -0.586770 -1.264477 0.200161 -0.210673 -0.355487 -2.365980
    84 1.522835 0.058681 0.016848 0.025655 0.288010 0.598498
    85 1.117947 0.048424 -0.005766 0.027789 -0.079884 -0.363462
    86 -0.041740 -0.150762 -0.059824 0.806163 0.452927 1.371618
    87 -1.393470 8.839177 -0.239433 1.580804 -0.005023 -1.566847
end
