// Created by Crowbar 0.34.0.0

$ModelName "weapons/tfa_cso/w_fire_vulcan.mdl"

$BodyGroup "studio"
{
	studio "v_gatlingm_v_ref"
}

$collisionmodel "v_gatlingm_v_ref.smd"
{
	$mass 9
}

$CDMaterials "models\weapons\tfa_cso\fire_vulcan"

$attachment "0" "root" 0.00 -16.80 -0.00 rotate -0 0 0

$Sequence "idle" {
	"anims\idle.smd"
	fps 30
}