// Created by Crowbar 0.68

$modelname "weapons/tfa_cso/c_thunder_force.mdl"

$include "csonline_gmod.qci"

$bodygroup "weapon"
{
	studio "v_ref1"
}
$bodygroup "weapon"
{
	studio "v_ref2"
}
$bodygroup "weapon"
{
	studio "v_ref3"
}

$cdmaterials "models/weapons/tfa_cso/thunder_force"

$attachment 0 "Bone_epic_root" 30 0 0

$definebone "Bip01 L Clavicle" "" 1.320482 1.529178 -0.495831 21.326521 4.682211 0.000000 0.000000 0.000000 0.000000 -0.000000 0.000000 -0.000000
$definebone "Bip01 L UpperArm" "Bip01 L Clavicle" 4.065896 0.000000 0.000000 5.134102 57.354568 33.321217 0.000000 0.000000 0.000000 -0.000002 0.000002 -0.000003
$definebone "Bip01 L Forearm" "Bip01 L UpperArm" 5.727313 -0.000000 0.000000 -0.000001 -139.397766 0.000003 0.000000 0.000000 0.000000 -0.000001 0.000000 0.000003
$definebone "Bip01 L Hand" "Bip01 L Forearm" 9.229774 0.000001 -0.000000 3.366871 -18.165627 -118.783371 0.000000 0.000000 0.000000 -0.000001 -0.000001 0.000004
$definebone "Bone_epic_root" "Bip01 L Hand" -4.028509 2.385202 -0.139540 1.883255 -13.950150 -98.108986 0.000000 0.000000 0.000000 0.000003 0.000001 -0.000005
$definebone "Bone_magazine_01" "Bone_epic_root" 19.850605 -2.919322 1.053877 0.000033 -180.000000 90.000023 0.000000 0.000000 0.000000 0.000001 0.000003 -0.000005
$definebone "Bone_magazine_02" "Bone_magazine_01" 1.136250 -0.000008 0.000001 0.000001 0.000003 -0.000005 0.000000 0.000000 0.000001 0.000001 0.000003 -0.000005
$definebone "Bone_magazine_03" "Bone_magazine_02" 0.163969 -1.053874 0.889052 0.000001 -0.000055 -0.000005 0.000000 0.000000 0.000001 0.000001 0.000003 -0.000005
$definebone "Bone_magazine_04" "Bone_magazine_03" 5.025908 0.000002 0.000002 -0.000001 179.999969 0.000005 0.000000 -0.000000 0.000000 -0.000001 0.000003 0.000005
$definebone "Bone_trigger" "Bone_epic_root" 9.203297 0.828617 -0.000001 -0.000005 -84.207146 -0.000003 0.000000 0.000000 0.000000 -0.000005 -0.000002 -0.000003
$definebone "Point_led" "Bone_epic_root" 12.265703 7.447967 -0.000002 89.980217 89.999985 0.000000 -0.000000 0.000000 0.000000 -0.000005 -0.000003 -0.000001
$definebone "crossbowex21_led" "Point_led" -0.000009 0.000090 0.000003 -0.000005 -0.000003 -0.000001 0.000000 0.000000 0.000000 -0.000005 -0.000003 -0.000001
$definebone "Bone_epick_right" "Bone_epic_root" 11.236525 1.770459 3.999999 0.000003 0.000001 -89.999992 0.000000 0.000000 0.000000 -0.000001 0.000003 0.000005
$definebone "Bone_epick_left" "Bone_epic_root" 11.236524 1.770458 -4.000000 0.000003 0.000001 -89.999992 0.000000 0.000000 0.000000 -0.000001 0.000003 0.000005
$definebone "Bone_bowline" "Bone_epic_root" 20.099426 0.000001 0.099095 0.000003 0.000001 -89.999992 0.000000 -0.000000 0.000000 -0.000001 0.000003 0.000005
$definebone "Point_line" "" 6.008379 77.318169 -53.358147 0.000000 0.000000 0.000000 0.000000 0.000000 0.000000 -0.000000 0.000000 0.000000
$definebone "bow_line2" "Point_line" 0.000004 -0.661568 0.189796 -0.000000 0.000000 0.000000 0.000000 0.000000 0.000000 -0.000000 0.000000 0.000000

$sequence "idle1" {
	"v_crossbowex21_anims\idle1"
	fps 30
	activity "ACT_VM_IDLE" 1
	snap
	loop
}
$sequence "shoot" {
	"v_crossbowex21_anims\shoot"
	{ event 5001 0 "#I172 S0.08 R2 F0 P30 T999 A1 L0 O0 X0" }
	fps 30
	activity "ACT_VM_PRIMARYATTACK" 1
	snap
}
$sequence "shoot2" {
	"v_crossbowex21_anims\shoot2"
	{ event 5001 0 "#I172 S0.08 R2 F0 P30 T999 A1 L0 O0 X0" }
	fps 30
	activity "ACT_VM_PRIMARYATTACK" 1
	snap
}
$sequence "reload" {
	"v_crossbowex21_anims\reload"
	{ event 5004 10 "ThunderForce.ClipOut1" }
	{ event 5004 33 "ThunderForce.ClipOut2" }
	{ event 5004 59 "ThunderForce.ClipIn1" }
	{ event 5004 82 "ThunderForce.ClipIn2" }
	fps 30
	activity "ACT_VM_RELOAD" 1
	snap
}
$sequence "draw" {
	"v_crossbowex21_anims\draw"
	{ event 5004 3 "ThunderForce.Draw" }
	fps 30
	activity "ACT_VM_DRAW" 1
	snap
}
$sequence "idle_led" {
	"v_crossbowex21_anims\idle_led"
	fps 30
	loop
}
$sequence "shoot_led" {
	"v_crossbowex21_anims\shoot_led"
	{ event 5001 0 "#I172 S0.08 R2 F0 P30 T999 A1 L0 O0 X0" }
	fps 30
}
$sequence "shoot2_led" {
	"v_crossbowex21_anims\shoot2_led"
	{ event 5001 0 "#I172 S0.08 R2 F0 P30 T999 A1 L0 O0 X0" }
	fps 30
}
$sequence "reload_led" {
	"v_crossbowex21_anims\reload_led"
	{ event 5004 10 "ThunderForce.ClipOut1" }
	{ event 5004 33 "ThunderForce.ClipOut2" }
	{ event 5004 59 "ThunderForce.ClipIn1" }
	{ event 5004 82 "ThunderForce.ClipIn2" }
	fps 30
}
$sequence "draw_led" {
	"v_crossbowex21_anims\draw_led"
	{ event 5004 3 "ThunderForce.Draw" }
	fps 30
}
$sequence "zoom_in" {
	"v_crossbowex21_anims\zoom_in"
	{ event 5004 2 "ThunderForce.ZoomIn" }
	activity "ACT_VM_DEPLOY" 1
	fps 30
	snap
}
$sequence "zoom_idle" {
	"v_crossbowex21_anims\zoom_idle"
	fps 30
	activity "ACT_VM_IDLE_DEPLOYED" 1
	loop
}
$sequence "zoom_shoot" {
	"v_crossbowex21_anims\zoom_shoot"
	{ event 5001 0 "#I173 S0.15 R2 F0 P30 T999 A1 L0 O0 X0" }
	fps 30
	activity "ACT_VM_HITLEFT" 1
	snap
}
$sequence "zoom_out" {
	"v_crossbowex21_anims\zoom_out"
	{ event 5004 2 "ThunderForce.ZoomOut" }
	fps 30
	activity "ACT_VM_UNDEPLOY" 1
	snap
}
$sequence "zoom_out_led" {
	"v_crossbowex21_anims\zoom_out_led"
	{ event 5004 2 "ThunderForce.ZoomOut" }
	fps 30
}
