version 1
nodes
  0 "kronos12_root001" -1
  1 "lever001" 0
  2 "trigger001" 0
  3 "TRANS_L" 0
  4 "TRANS_R" 0
  5 "magazine001" 0
  6 "magazine_003" 5
  7 "bullet004" 6
  8 "bullet005" 7
  9 "bullet006" 8
  10 "effect001" 0
  11 "root" -1
  12 "Bone01" 11
  13 "Bone_L_Upper" 12
  14 "Bone_Lefthand" 12
  15 "Bone13" 14
  16 "Bone14" 15
  17 "Bone15" 16
  18 "Bone17" 14
  19 "Bone18" 18
  20 "Bone19" 19
  21 "Bone21" 14
  22 "Bone22" 21
  23 "Bone23" 22
  24 "Bone09" 14
  25 "Bone10" 24
  26 "Bone11" 25
  27 "Bone05" 14
  28 "Bone06" 27
  29 "Bone07" 28
  30 "Bone_Se_Hand-L" 14
  31 "Bone04" 11
  32 "Bone_Righthand" 31
  33 "Bone39" 32
  34 "Bone40" 33
  35 "Bone41" 34
  36 "Bone35" 32
  37 "Bone36" 36
  38 "Bone37" 37
  39 "Bone31" 32
  40 "Bone32" 39
  41 "Bone33" 40
  42 "Bone43" 32
  43 "Bone44" 42
  44 "Bone45" 43
  45 "Bone27" 32
  46 "Bone28" 45
  47 "Bone29" 46
  48 "Bone_Se_Hand-R" 32
  49 "Bone_R_Upper" 31
end
skeleton
  time 0
    0 0.103387 -3.649279 -3.009975 1.582119 -0.073632 -1.550881
    1 4.116302 0.309474 0.579363 1.570821 -1.565877 -1.569548
    2 0.776872 -0.777959 0.000000 0.000001 0.000000 -1.828850
    3 1.657125 1.617842 -0.396090 1.570803 1.552836 -1.569519
    4 1.657129 1.623131 0.386865 1.570790 -1.588547 -1.569507
    5 4.124314 -3.447140 -0.020971 -1.570796 0.000000 0.377722
    6 -0.001059 -0.000005 0.029470 -0.000001 0.000000 -1.570797
    7 0.161901 -0.042629 2.167028 1.570796 0.008569 1.570797
    8 0.000000 0.439464 -0.149598 0.000000 0.000000 0.000000
    9 0.000001 0.360867 0.000000 0.000000 0.000000 0.000000
    10 0.998229 -17.369486 -0.003569 0.000000 0.000000 0.001279
    11 -0.002752 -0.001265 -0.003287 0.000000 0.000000 0.000000
    12 7.048316 5.911666 -5.475711 6.056199 -1.927033 -0.565335
    13 7.901914 2.422547 -0.349031 1.567075 -3.120330 0.376612
    14 -0.025045 -8.623740 -0.108040 0.818581 0.400711 0.322553
    15 -0.488518 -2.755602 -0.228260 -0.855329 -0.005500 -0.245375
    16 0.039887 -1.546198 0.022041 -1.891765 -0.006292 0.042163
    17 0.028786 -1.153858 -0.120768 -0.959901 -0.014837 0.019894
    18 0.250027 -2.820665 -0.238396 -0.560831 -0.117709 -0.086571
    19 -0.045853 -1.598510 0.037977 -1.526314 0.140987 -0.053597
    20 -0.034142 -1.179563 0.045718 -1.334442 0.004518 -0.035199
    21 0.957766 -2.746780 -0.090302 -0.014872 -0.242718 0.317947
    22 -0.033420 -1.397129 -0.030789 -1.023289 0.072830 -0.009792
    23 -0.022360 -0.961342 -0.008561 -1.033442 0.072663 -0.010774
    24 -1.180681 -2.507217 -0.193859 -0.519852 0.255646 -0.222176
    25 -0.024967 -1.127840 0.017597 -1.700810 -0.017402 -0.065794
    26 -0.020057 -0.906594 0.033528 -1.037463 0.004806 -0.042545
    27 0.642106 -1.189464 0.185379 1.395565 -1.086678 -1.368343
    28 1.496863 -0.192885 0.036260 0.030976 -0.114716 -0.664694
    29 1.081239 -0.100945 0.016666 0.006756 -0.123276 -0.502104
    30 0.120153 -0.050270 -0.054489 0.287569 3.110905 1.561085
    31 -1.907538 -5.453923 -11.169593 -1.497268 -5.244477 -1.350274
    32 -0.114000 -8.333227 0.314864 -0.756278 -1.020993 0.790449
    33 0.682335 -2.556791 -0.262945 -1.403371 -0.057052 0.428144
    34 -0.032909 -1.499736 0.020565 -1.155787 0.022171 -0.019892
    35 -0.027022 -1.104265 -0.028023 -0.656005 0.016539 -0.008078
    36 0.008286 -2.733679 -0.287498 -1.224291 -0.096313 0.189198
    37 0.043235 -1.656596 0.072574 -1.332477 -0.021134 0.006053
    38 0.031729 -1.149111 0.058838 -0.700097 -0.007148 0.005304
    39 -0.709952 -2.804677 -0.253324 -1.005405 0.062193 -0.033347
    40 0.028479 -1.403067 -0.021074 -0.985528 -0.026150 -0.034588
    41 0.021413 -0.942156 0.012233 -0.995616 -0.026630 -0.034228
    42 1.332449 -2.168929 -0.178143 -1.451654 -0.251939 0.569780
    43 0.024032 -1.136855 -0.001725 -0.837936 0.005801 0.044440
    44 0.014898 -0.899614 -0.015942 -0.880686 0.004998 0.044535
    45 -0.645366 -1.248852 0.059532 -0.141697 -1.003780 -2.153974
    46 1.550180 0.039149 0.016848 -0.011845 -0.004570 0.632985
    47 1.114041 0.044518 -0.005766 -0.019502 -0.034630 0.745810
    48 -0.139399 -0.111698 0.014397 0.285382 -0.030687 1.580508
    49 -8.233523 0.409232 -0.473815 1.565500 -0.036770 -0.127486
  time 1
    0 0.103387 -3.590683 -2.990443 1.583353 -0.076793 -1.546390
    1 4.116302 0.309474 0.579363 1.570821 -1.565877 -1.569548
    2 0.776872 -0.777959 0.000000 0.000001 0.000000 -1.828850
    3 1.657125 1.617842 -0.396090 1.570803 1.552836 -1.569519
    4 1.657129 1.623131 0.386865 1.570790 -1.588547 -1.569507
    5 4.124314 -3.447140 -0.020971 -1.570796 0.000000 0.377722
    6 -0.001059 -0.000005 0.029470 -0.000001 0.000000 -1.570797
    7 0.161901 -0.042629 2.167028 1.570796 0.008569 1.570797
    8 0.000000 0.439464 -0.149598 0.000000 0.000000 0.000000
    9 0.000001 0.360867 0.000000 0.000000 0.000000 0.000000
    10 0.998229 -17.369486 -0.003569 0.000000 0.000000 0.001279
    11 -0.002752 -0.001265 -0.003287 0.000000 0.000000 0.000000
    12 7.075660 5.927291 -5.475711 6.060607 -1.929151 -0.576109
    13 7.917539 2.352233 -0.349031 1.567075 -3.120139 0.367973
    14 -0.025045 -8.623740 -0.108040 0.829606 0.397565 0.323269
    15 -0.488518 -2.755602 -0.228260 -0.855329 -0.005500 -0.245375
    16 0.039887 -1.546198 0.022041 -1.891765 -0.006292 0.042163
    17 0.028786 -1.153858 -0.120768 -0.959872 -0.014837 0.019894
    18 0.250027 -2.820665 -0.238396 -0.560831 -0.117709 -0.086571
    19 -0.045853 -1.598510 0.037977 -1.526314 0.140987 -0.053597
    20 -0.034142 -1.179563 0.045718 -1.334442 0.004518 -0.035199
    21 0.957766 -2.746780 -0.090302 -0.014872 -0.242718 0.317947
    22 -0.033420 -1.397129 -0.030789 -1.023289 0.072830 -0.009792
    23 -0.022360 -0.961342 -0.008561 -1.033442 0.072663 -0.010774
    24 -1.180681 -2.507217 -0.193859 -0.519852 0.255646 -0.222176
    25 -0.024967 -1.127840 0.017597 -1.700810 -0.017402 -0.065794
    26 -0.020057 -0.906594 0.033528 -1.037463 0.004806 -0.042545
    27 0.642106 -1.189464 0.185379 1.395565 -1.086678 -1.368343
    28 1.496863 -0.192885 0.036260 0.030976 -0.114716 -0.664694
    29 1.081239 -0.100945 0.016666 0.006756 -0.123276 -0.502104
    30 0.120153 -0.050270 -0.054489 0.287569 3.110905 1.561085
    31 -1.891912 -5.442204 -11.169593 -1.497565 -5.250572 -1.345756
    32 -0.114000 -8.333227 0.314864 -0.755880 -1.021588 0.793022
    33 0.682335 -2.556791 -0.262945 -1.403371 -0.057052 0.428144
    34 -0.032909 -1.499736 0.020565 -1.155787 0.022171 -0.019892
    35 -0.027022 -1.104265 -0.028023 -0.656005 0.016539 -0.008078
    36 0.008286 -2.733679 -0.287498 -1.224291 -0.096313 0.189198
    37 0.043235 -1.656596 0.072574 -1.332477 -0.021134 0.006053
    38 0.031729 -1.149111 0.058838 -0.700097 -0.007148 0.005304
    39 -0.709952 -2.804677 -0.253324 -1.005405 0.062193 -0.033347
    40 0.028479 -1.403067 -0.021074 -0.985528 -0.026150 -0.034588
    41 0.021413 -0.942156 0.012233 -0.995616 -0.026630 -0.034228
    42 1.332449 -2.168929 -0.178143 -1.451654 -0.251939 0.569780
    43 0.024032 -1.136855 -0.001725 -0.837936 0.005801 0.044440
    44 0.014898 -0.899614 -0.015942 -0.880686 0.004998 0.044535
    45 -0.645366 -1.248852 0.059532 -0.141697 -1.003780 -2.153974
    46 1.550180 0.039149 0.016848 -0.011845 -0.004570 0.632985
    47 1.114041 0.044518 -0.005766 -0.019502 -0.034630 0.745810
    48 -0.139399 -0.111698 0.014397 0.285382 -0.030687 1.580508
    49 -8.233523 0.350637 -0.473815 1.565320 -0.036842 -0.120364
  time 2
    0 0.103387 -3.528181 -2.970911 1.584492 -0.079666 -1.541628
    1 4.116302 0.309474 0.579363 1.570821 -1.565877 -1.569548
    2 0.776872 -0.777959 0.000000 0.000001 0.000000 -1.828850
    3 1.657125 1.617842 -0.396090 1.570803 1.552836 -1.569519
    4 1.657129 1.623131 0.386865 1.570790 -1.588547 -1.569507
    5 4.124314 -3.447140 -0.020971 -1.570796 0.000000 0.377722
    6 -0.001059 -0.000005 0.029470 -0.000001 0.000000 -1.570797
    7 0.161901 -0.042629 2.167028 1.570796 0.008569 1.570797
    8 0.000000 0.439464 -0.149598 0.000000 0.000000 0.000000
    9 0.000001 0.360867 0.000000 0.000000 0.000000 0.000000
    10 0.998229 -17.369486 -0.003569 0.000000 0.000000 0.001279
    11 -0.002752 -0.001265 -0.003287 0.000000 0.000000 0.000000
    12 7.103005 5.946823 -5.471805 6.065208 -1.931450 -0.587304
    13 7.929259 2.281918 -0.352938 1.567171 -3.119947 0.358914
    14 -0.025045 -8.623740 -0.111947 0.841220 0.394646 0.323643
    15 -0.488518 -2.755602 -0.228260 -0.855329 -0.005500 -0.245375
    16 0.039887 -1.546198 0.022041 -1.891765 -0.006292 0.042163
    17 0.028786 -1.153858 -0.120768 -0.959901 -0.014837 0.019894
    18 0.250027 -2.820665 -0.238396 -0.560831 -0.117709 -0.086571
    19 -0.045853 -1.598510 0.037977 -1.526314 0.140987 -0.053597
    20 -0.034142 -1.179563 0.045718 -1.334442 0.004518 -0.035199
    21 0.957766 -2.746780 -0.090302 -0.014872 -0.242718 0.317947
    22 -0.033420 -1.397129 -0.030789 -1.023289 0.072830 -0.009792
    23 -0.022360 -0.961342 -0.008561 -1.033442 0.072663 -0.010774
    24 -1.180681 -2.507217 -0.193859 -0.519852 0.255646 -0.222176
    25 -0.024967 -1.127840 0.017597 -1.700810 -0.017402 -0.065794
    26 -0.020057 -0.906594 0.033528 -1.037463 0.004806 -0.042545
    27 0.642106 -1.189464 0.185379 1.395565 -1.086678 -1.368343
    28 1.496863 -0.192885 0.036260 0.030976 -0.114716 -0.664694
    29 1.081239 -0.100945 0.016666 0.006756 -0.123276 -0.502104
    30 0.120153 -0.050270 -0.054489 0.287569 3.110905 1.561085
    31 -1.876287 -5.426578 -11.169593 -1.497922 -5.256529 -1.340777
    32 -0.114000 -8.333227 0.314864 -0.755323 -1.022273 0.795507
    33 0.682335 -2.556791 -0.262945 -1.403371 -0.057052 0.428144
    34 -0.032909 -1.499736 0.020565 -1.155787 0.022171 -0.019892
    35 -0.027022 -1.104265 -0.028023 -0.656005 0.016539 -0.008078
    36 0.008286 -2.733679 -0.287498 -1.224291 -0.096313 0.189198
    37 0.043235 -1.656596 0.072574 -1.332477 -0.021134 0.006053
    38 0.031729 -1.149111 0.058838 -0.700097 -0.007148 0.005304
    39 -0.709952 -2.804677 -0.253324 -1.005405 0.062193 -0.033347
    40 0.028479 -1.403067 -0.021074 -0.985528 -0.026150 -0.034588
    41 0.021413 -0.942156 0.012233 -0.995616 -0.026630 -0.034228
    42 1.332449 -2.168929 -0.178143 -1.451654 -0.251939 0.569780
    43 0.024032 -1.136855 -0.001725 -0.837936 0.005801 0.044440
    44 0.014898 -0.899614 -0.015942 -0.880686 0.004998 0.044535
    45 -0.645366 -1.248852 0.059532 -0.141697 -1.003780 -2.153974
    46 1.550180 0.039149 0.016848 -0.011845 -0.004570 0.632985
    47 1.114041 0.044518 -0.005766 -0.019502 -0.034630 0.745810
    48 -0.139399 -0.111698 0.014397 0.285382 -0.030687 1.580508
    49 -8.229616 0.292041 -0.473815 1.565140 -0.036914 -0.113166
  time 3
    0 0.103387 -3.469586 -2.951379 1.585726 -0.082444 -1.536812
    1 4.116302 0.309474 0.579363 1.570821 -1.565877 -1.569560
    2 0.776872 -0.777959 0.000000 0.000001 0.000000 -1.828850
    3 1.657125 1.617842 -0.396090 1.570803 1.552836 -1.569519
    4 1.657129 1.623131 0.386865 1.570790 -1.588547 -1.569507
    5 4.124314 -3.447140 -0.020971 -1.570796 0.000000 0.377722
    6 -0.001059 -0.000005 0.029470 -0.000001 0.000000 -1.570797
    7 0.161901 -0.042629 2.167028 1.570796 0.008569 1.570797
    8 0.000000 0.439464 -0.149598 0.000000 0.000000 0.000000
    9 0.000001 0.360867 0.000000 0.000000 0.000000 0.000000
    10 0.998229 -17.369486 -0.003569 0.000000 0.000000 0.001279
    11 -0.002752 -0.001265 -0.003287 0.000000 0.000000 0.000000
    12 7.134256 5.962448 -5.471805 6.069617 -1.933750 -0.598415
    13 7.944884 2.207697 -0.352938 1.567266 -3.119851 0.350022
    14 -0.025045 -8.627647 -0.111947 0.852777 0.391659 0.323955
    15 -0.488518 -2.755602 -0.228260 -0.855329 -0.005500 -0.245375
    16 0.039887 -1.546198 0.022041 -1.891765 -0.006292 0.042163
    17 0.028786 -1.153858 -0.120768 -0.959872 -0.014837 0.019894
    18 0.250027 -2.820665 -0.238396 -0.560831 -0.117709 -0.086571
    19 -0.045853 -1.598510 0.037977 -1.526314 0.140987 -0.053597
    20 -0.034142 -1.179563 0.045718 -1.334442 0.004518 -0.035199
    21 0.957766 -2.746780 -0.090302 -0.014872 -0.242718 0.317947
    22 -0.033420 -1.397129 -0.030789 -1.023289 0.072830 -0.009792
    23 -0.022360 -0.961342 -0.008561 -1.033442 0.072663 -0.010774
    24 -1.180681 -2.507217 -0.193859 -0.519852 0.255646 -0.222176
    25 -0.024967 -1.127840 0.017597 -1.700810 -0.017402 -0.065794
    26 -0.020057 -0.906594 0.033528 -1.037463 0.004806 -0.042545
    27 0.642106 -1.189464 0.185379 1.395565 -1.086678 -1.368343
    28 1.496863 -0.192885 0.036260 0.030976 -0.114716 -0.664694
    29 1.081239 -0.100945 0.016666 0.006756 -0.123276 -0.502104
    30 0.120153 -0.050270 -0.054489 0.287569 3.110905 1.561085
    31 -1.860661 -5.414859 -11.169593 -1.498338 -5.262487 -1.335799
    32 -0.117906 -8.333227 0.314864 -0.754686 -1.022988 0.797902
    33 0.682335 -2.556791 -0.262945 -1.403371 -0.057052 0.428144
    34 -0.032909 -1.499736 0.020565 -1.155787 0.022171 -0.019892
    35 -0.027022 -1.104265 -0.028023 -0.656005 0.016539 -0.008078
    36 0.008286 -2.733679 -0.287498 -1.224291 -0.096313 0.189198
    37 0.043235 -1.656596 0.072574 -1.332477 -0.021134 0.006053
    38 0.031729 -1.149111 0.058838 -0.700097 -0.007148 0.005304
    39 -0.709952 -2.804677 -0.253324 -1.005405 0.062193 -0.033347
    40 0.028479 -1.403067 -0.021074 -0.985528 -0.026150 -0.034588
    41 0.021413 -0.942156 0.012233 -0.995616 -0.026630 -0.034228
    42 1.332449 -2.168929 -0.178143 -1.451654 -0.251939 0.569780
    43 0.024032 -1.136855 -0.001725 -0.837936 0.005801 0.044440
    44 0.014898 -0.899614 -0.015942 -0.880686 0.004998 0.044535
    45 -0.645366 -1.248852 0.059532 -0.141697 -1.003780 -2.153974
    46 1.550180 0.039149 0.016848 -0.011845 -0.004570 0.632985
    47 1.114041 0.044518 -0.005766 -0.019502 -0.034630 0.745810
    48 -0.139399 -0.111698 0.014397 0.285382 -0.030687 1.580508
    49 -8.225710 0.233446 -0.477722 1.564960 -0.036986 -0.106121
  time 4
    0 0.099480 -3.410990 -2.931848 1.586865 -0.085605 -1.532321
    1 4.116302 0.309474 0.579363 1.570821 -1.565877 -1.569548
    2 0.776872 -0.777959 0.000000 0.000001 0.000000 -1.828850
    3 1.657125 1.617842 -0.396090 1.570803 1.552836 -1.569519
    4 1.657129 1.623131 0.386865 1.570790 -1.588547 -1.569507
    5 4.124314 -3.447140 -0.020971 -1.570796 0.000000 0.377722
    6 -0.001059 -0.000005 0.029470 -0.000001 0.000000 -1.570797
    7 0.161901 -0.042629 2.167028 1.570796 0.008569 1.570797
    8 0.000000 0.439464 -0.149598 0.000000 0.000000 0.000000
    9 0.000001 0.360867 0.000000 0.000000 0.000000 0.000000
    10 0.998229 -17.369486 -0.003569 0.000000 0.000000 0.001279
    11 -0.002752 -0.001265 -0.003287 0.000000 0.000000 0.000000
    12 7.161600 5.981980 -5.467898 6.073450 -1.935807 -0.608684
    13 7.956603 2.141289 -0.352938 1.567362 -3.119660 0.341634
    14 -0.025045 -8.627647 -0.111947 0.863718 0.388310 0.324453
    15 -0.488518 -2.755602 -0.228260 -0.855329 -0.005500 -0.245375
    16 0.039887 -1.546198 0.022041 -1.891765 -0.006292 0.042163
    17 0.028786 -1.153858 -0.120768 -0.959872 -0.014837 0.019894
    18 0.250027 -2.820665 -0.238396 -0.560831 -0.117709 -0.086571
    19 -0.045853 -1.598510 0.037977 -1.526314 0.140987 -0.053597
    20 -0.034142 -1.179563 0.045718 -1.334442 0.004518 -0.035199
    21 0.957766 -2.746780 -0.090302 -0.014872 -0.242718 0.317947
    22 -0.033420 -1.397129 -0.030789 -1.023289 0.072830 -0.009792
    23 -0.022360 -0.961342 -0.008561 -1.033442 0.072663 -0.010774
    24 -1.180681 -2.507217 -0.193859 -0.519852 0.255646 -0.222176
    25 -0.024967 -1.127840 0.017597 -1.700810 -0.017402 -0.065794
    26 -0.020057 -0.906594 0.033528 -1.037463 0.004806 -0.042545
    27 0.642106 -1.189464 0.185379 1.395565 -1.086678 -1.368343
    28 1.496863 -0.192885 0.036260 0.030976 -0.114716 -0.664694
    29 1.081239 -0.100945 0.016666 0.006756 -0.123276 -0.502104
    30 0.120153 -0.050270 -0.054489 0.287569 3.110905 1.561085
    31 -1.845036 -5.403140 -11.165686 -1.498814 -5.268651 -1.331373
    32 -0.117906 -8.337134 0.314864 -0.754089 -1.023673 0.800298
    33 0.682335 -2.556791 -0.262945 -1.403371 -0.057052 0.428144
    34 -0.032909 -1.499736 0.020565 -1.155787 0.022171 -0.019892
    35 -0.027022 -1.104265 -0.028023 -0.656005 0.016539 -0.008078
    36 0.008286 -2.733679 -0.287498 -1.224291 -0.096313 0.189198
    37 0.043235 -1.656596 0.072574 -1.332477 -0.021134 0.006053
    38 0.031729 -1.149111 0.058838 -0.700097 -0.007148 0.005304
    39 -0.709952 -2.804677 -0.253324 -1.005405 0.062193 -0.033347
    40 0.028479 -1.403067 -0.021074 -0.985528 -0.026150 -0.034588
    41 0.021413 -0.942156 0.012233 -0.995616 -0.026630 -0.034228
    42 1.332449 -2.168929 -0.178143 -1.451654 -0.251939 0.569780
    43 0.024032 -1.136855 -0.001725 -0.837936 0.005801 0.044440
    44 0.014898 -0.899614 -0.015942 -0.880686 0.004998 0.044535
    45 -0.645366 -1.248852 0.059532 -0.141697 -1.003780 -2.153974
    46 1.550180 0.039149 0.016848 -0.011845 -0.004570 0.632985
    47 1.114041 0.044518 -0.005766 -0.019502 -0.034630 0.745810
    48 -0.139399 -0.111698 0.014397 0.285382 -0.030687 1.580508
    49 -8.221803 0.174850 -0.477722 1.564793 -0.037058 -0.099152
  time 5
    0 0.099480 -3.352395 -2.912316 1.587909 -0.089245 -1.528479
    1 4.116302 0.309474 0.579363 1.570821 -1.565877 -1.569560
    2 0.776872 -0.777959 0.000000 0.000001 0.000000 -1.828850
    3 1.657125 1.617842 -0.396090 1.570803 1.552836 -1.569519
    4 1.657129 1.623131 0.386865 1.570790 -1.588547 -1.569507
    5 4.124314 -3.447140 -0.020971 -1.570796 0.000000 0.377722
    6 -0.001059 -0.000005 0.029470 -0.000001 0.000000 -1.570797
    7 0.161901 -0.042629 2.167028 1.570796 0.008569 1.570797
    8 0.000000 0.439464 -0.149598 0.000000 0.000000 0.000000
    9 0.000001 0.360867 0.000000 0.000000 0.000000 0.000000
    10 0.998229 -17.369486 -0.003569 0.000000 0.000000 0.001279
    11 -0.002752 -0.001265 -0.003287 0.000000 0.000000 0.000000
    12 7.185039 5.997606 -5.467898 6.076422 -1.937441 -0.617522
    13 7.968322 2.078787 -0.356844 1.567458 -3.119468 0.334001
    14 -0.025045 -8.631553 -0.115853 0.873424 0.384328 0.325450
    15 -0.488518 -2.755602 -0.228260 -0.855329 -0.005500 -0.245375
    16 0.039887 -1.546198 0.022041 -1.891765 -0.006292 0.042163
    17 0.028786 -1.153858 -0.120768 -0.959872 -0.014837 0.019894
    18 0.250027 -2.820665 -0.238396 -0.560831 -0.117709 -0.086571
    19 -0.045853 -1.598510 0.037977 -1.526314 0.140987 -0.053597
    20 -0.034142 -1.179563 0.045718 -1.334442 0.004518 -0.035199
    21 0.957766 -2.746780 -0.090302 -0.014872 -0.242718 0.317947
    22 -0.033420 -1.397129 -0.030789 -1.023289 0.072830 -0.009792
    23 -0.022360 -0.961342 -0.008561 -1.033442 0.072663 -0.010774
    24 -1.180681 -2.507217 -0.193859 -0.519852 0.255646 -0.222176
    25 -0.024967 -1.127840 0.017597 -1.700810 -0.017402 -0.065794
    26 -0.020057 -0.906594 0.033528 -1.037463 0.004806 -0.042545
    27 0.642106 -1.189464 0.185379 1.395565 -1.086678 -1.368343
    28 1.496863 -0.192885 0.036260 0.030976 -0.114716 -0.664694
    29 1.081239 -0.100945 0.016666 0.006756 -0.123276 -0.502104
    30 0.120153 -0.050270 -0.054489 0.287569 3.110905 1.561085
    31 -1.833317 -5.395327 -11.161780 -1.499527 -5.275225 -1.327777
    32 -0.117906 -8.337134 0.314864 -0.753651 -1.024208 0.802694
    33 0.682335 -2.556791 -0.262945 -1.403371 -0.057052 0.428144
    34 -0.032909 -1.499736 0.020565 -1.155787 0.022171 -0.019892
    35 -0.027022 -1.104265 -0.028023 -0.656005 0.016539 -0.008078
    36 0.008286 -2.733679 -0.287498 -1.224291 -0.096313 0.189198
    37 0.043235 -1.656596 0.072574 -1.332477 -0.021134 0.006053
    38 0.031729 -1.149111 0.058838 -0.700097 -0.007148 0.005304
    39 -0.709952 -2.804677 -0.253324 -1.005405 0.062193 -0.033347
    40 0.028479 -1.403067 -0.021074 -0.985528 -0.026150 -0.034588
    41 0.021413 -0.942156 0.012233 -0.995616 -0.026630 -0.034228
    42 1.332449 -2.168929 -0.178143 -1.451654 -0.251939 0.569780
    43 0.024032 -1.136855 -0.001725 -0.837936 0.005801 0.044440
    44 0.014898 -0.899614 -0.015942 -0.880686 0.004998 0.044535
    45 -0.645366 -1.248852 0.059532 -0.141697 -1.003780 -2.153974
    46 1.550180 0.039149 0.016848 -0.011845 -0.004570 0.632985
    47 1.114041 0.044518 -0.005766 -0.019502 -0.034630 0.745810
    48 -0.139399 -0.111698 0.014397 0.285382 -0.030687 1.580508
    49 -8.217897 0.120161 -0.477722 1.564625 -0.037118 -0.092260
  time 6
    0 0.091668 -3.293799 -2.892784 1.588764 -0.093746 -1.525611
    1 4.116302 0.309474 0.579363 1.570821 -1.565877 -1.569548
    2 0.776872 -0.777959 0.000000 0.000001 0.000000 -1.828850
    3 1.657125 1.617842 -0.349214 1.570803 1.552836 -1.569519
    4 1.657129 1.623131 0.339989 1.570790 -1.588547 -1.569507
    5 4.124314 -3.447140 -0.020971 -1.570796 0.000000 0.377722
    6 -0.001059 -0.000005 0.029470 -0.000001 0.000000 -1.570797
    7 0.161901 -0.042629 2.167028 1.570796 0.008569 1.570797
    8 0.000000 0.439464 -0.149598 0.000000 0.000000 0.000000
    9 0.000001 0.360867 0.000000 0.000000 0.000000 0.000000
    10 0.998229 -17.369486 -0.003569 0.000000 0.000000 0.001279
    11 -0.002752 -0.001265 -0.003287 0.000000 0.000000 0.000000
    12 7.204570 6.013231 -5.467898 6.078147 -1.938349 -0.624424
    13 7.976135 2.028004 -0.356844 1.567458 -3.119372 0.327626
    14 -0.025045 -8.631553 -0.115853 0.881279 0.379395 0.327131
    15 -0.488518 -2.755602 -0.228260 -0.855329 -0.005500 -0.245375
    16 0.039887 -1.546198 0.022041 -1.891765 -0.006292 0.042163
    17 0.028786 -1.153858 -0.120768 -0.959872 -0.014837 0.019894
    18 0.250027 -2.820665 -0.238396 -0.560831 -0.117709 -0.086571
    19 -0.045853 -1.598510 0.037977 -1.526314 0.140987 -0.053597
    20 -0.034142 -1.179563 0.045718 -1.334442 0.004518 -0.035199
    21 0.957766 -2.746780 -0.090302 -0.014872 -0.242718 0.317947
    22 -0.033420 -1.397129 -0.030789 -1.023289 0.072830 -0.009792
    23 -0.022360 -0.961342 -0.008561 -1.033442 0.072663 -0.010774
    24 -1.180681 -2.507217 -0.193859 -0.519852 0.255646 -0.222176
    25 -0.024967 -1.127840 0.017597 -1.700810 -0.017402 -0.065794
    26 -0.020057 -0.906594 0.033528 -1.037463 0.004806 -0.042545
    27 0.642106 -1.189464 0.185379 1.395565 -1.086678 -1.368343
    28 1.496863 -0.192885 0.036260 0.030976 -0.114716 -0.664694
    29 1.081239 -0.100945 0.016666 0.006756 -0.123276 -0.502104
    30 0.120153 -0.050270 -0.054489 0.287569 3.110905 1.561085
    31 -1.821597 -5.391421 -11.157874 -1.500420 -5.282415 -1.325472
    32 -0.117906 -8.337134 0.314864 -0.753452 -1.024506 0.805178
    33 0.682335 -2.556791 -0.262945 -1.403371 -0.057052 0.428144
    34 -0.032909 -1.499736 0.020565 -1.155787 0.022171 -0.019892
    35 -0.027022 -1.104265 -0.028023 -0.656005 0.016539 -0.008078
    36 0.008286 -2.733679 -0.287498 -1.224291 -0.096313 0.189198
    37 0.043235 -1.656596 0.072574 -1.332477 -0.021134 0.006053
    38 0.031729 -1.149111 0.058838 -0.700097 -0.007148 0.005304
    39 -0.709952 -2.804677 -0.253324 -1.005405 0.062193 -0.033347
    40 0.028479 -1.403067 -0.021074 -0.985528 -0.026150 -0.034588
    41 0.021413 -0.942156 0.012233 -0.995616 -0.026630 -0.034228
    42 1.332449 -2.168929 -0.178143 -1.451654 -0.251939 0.569780
    43 0.024032 -1.136855 -0.001725 -0.837936 0.005801 0.044440
    44 0.014898 -0.899614 -0.015942 -0.880686 0.004998 0.044535
    45 -0.645366 -1.248852 0.059532 -0.141697 -1.003780 -2.153974
    46 1.550180 0.039149 0.016848 -0.011845 -0.004570 0.632985
    47 1.114041 0.044518 -0.005766 -0.019502 -0.034630 0.745810
    48 -0.139399 -0.111698 0.014397 0.285382 -0.030687 1.580508
    49 -8.213991 0.065472 -0.477722 1.564457 -0.037190 -0.085674
  time 7
    0 0.048698 -3.215672 -2.877158 1.589143 -0.103899 -1.525232
    1 4.116302 0.309474 0.579363 1.570821 -1.565877 -1.569560
    2 0.776872 -0.777959 0.000000 0.000001 0.000000 -1.828850
    3 1.657125 1.621748 -0.247648 1.570803 1.552836 -1.569519
    4 1.657129 1.619225 0.238423 1.570790 -1.588547 -1.569507
    5 4.124314 -3.447140 -0.020971 -1.570796 0.000000 0.377722
    6 -0.001059 -0.000005 0.029470 -0.000001 0.000000 -1.570797
    7 0.161901 -0.042629 2.167028 1.570796 0.008569 1.570797
    8 0.000000 0.439464 -0.149598 0.000000 0.000000 0.000000
    9 0.000001 0.360867 0.000000 0.000000 0.000000 0.000000
    10 0.998229 -17.369486 -0.003569 0.000000 0.000000 0.001279
    11 -0.002752 -0.001265 -0.003287 0.000000 0.000000 0.000000
    12 7.204570 6.017138 -5.467898 6.073546 -1.939802 -0.627791
    13 7.976135 2.020191 -0.356844 1.567554 -3.119372 0.326620
    14 -0.028951 -8.635459 -0.115853 0.890200 0.369936 0.335042
    15 -0.488518 -2.755602 -0.228260 -0.855329 -0.005500 -0.245375
    16 0.039887 -1.546198 0.022041 -1.891765 -0.006292 0.042163
    17 0.028786 -1.153858 -0.120768 -0.959872 -0.014837 0.019894
    18 0.250027 -2.820665 -0.238396 -0.560831 -0.117709 -0.086571
    19 -0.045853 -1.598510 0.037977 -1.526314 0.140987 -0.053597
    20 -0.034142 -1.179563 0.045718 -1.334442 0.004518 -0.035199
    21 0.957766 -2.746780 -0.090302 -0.014872 -0.242718 0.317947
    22 -0.033420 -1.397129 -0.030789 -1.023289 0.072830 -0.009792
    23 -0.022360 -0.961342 -0.008561 -1.033442 0.072663 -0.010774
    24 -1.180681 -2.507217 -0.193859 -0.519852 0.255646 -0.222176
    25 -0.024967 -1.127840 0.017597 -1.700810 -0.017402 -0.065794
    26 -0.020057 -0.906594 0.033528 -1.037463 0.004806 -0.042545
    27 0.642106 -1.189464 0.185379 1.395565 -1.086678 -1.368343
    28 1.496863 -0.192885 0.036260 0.030976 -0.114716 -0.664694
    29 1.081239 -0.100945 0.016666 0.006756 -0.123276 -0.502104
    30 0.120153 -0.050270 -0.054489 0.287569 3.110905 1.561085
    31 -1.829410 -5.407046 -11.142248 -1.502204 -5.295358 -1.329990
    32 -0.117906 -8.333227 0.314864 -0.759303 -1.022958 0.813208
    33 0.682335 -2.556791 -0.262945 -1.403371 -0.057052 0.428144
    34 -0.032909 -1.499736 0.020565 -1.155787 0.022171 -0.019892
    35 -0.027022 -1.104265 -0.028023 -0.656005 0.016539 -0.008078
    36 0.008286 -2.733679 -0.287498 -1.224291 -0.096313 0.189198
    37 0.043235 -1.656596 0.072574 -1.332477 -0.021134 0.006053
    38 0.031729 -1.149111 0.058838 -0.700097 -0.007148 0.005304
    39 -0.709952 -2.804677 -0.253324 -1.005405 0.062193 -0.033347
    40 0.028479 -1.403067 -0.021074 -0.985528 -0.026150 -0.034588
    41 0.021413 -0.942156 0.012233 -0.995616 -0.026630 -0.034228
    42 1.332449 -2.168929 -0.178143 -1.451654 -0.251939 0.569780
    43 0.024032 -1.136855 -0.001725 -0.837936 0.005801 0.044440
    44 0.014898 -0.899614 -0.015942 -0.880686 0.004998 0.044535
    45 -0.645366 -1.248852 0.059532 -0.141697 -1.003780 -2.153974
    46 1.550180 0.039149 0.016848 -0.011845 -0.004570 0.632985
    47 1.114041 0.044518 -0.005766 -0.019502 -0.034630 0.745810
    48 -0.139399 -0.111698 0.014397 0.285382 -0.030687 1.580508
    49 -8.206178 -0.012655 -0.477722 1.564217 -0.037274 -0.075949
  time 8
    0 -0.005992 -3.137544 -2.865439 1.589143 -0.116255 -1.527342
    1 4.116302 0.309474 0.579363 1.570821 -1.565877 -1.569548
    2 0.776872 -0.777959 0.000000 0.000001 0.000000 -1.828850
    3 1.657125 1.621748 -0.142176 1.570803 1.552836 -1.569519
    4 1.657129 1.619225 0.132951 1.570790 -1.588547 -1.569507
    5 4.124314 -3.447140 -0.020971 -1.570796 0.000000 0.377722
    6 -0.001059 -0.000005 0.029470 -0.000001 0.000000 -1.570797
    7 0.161901 -0.042629 2.167028 1.570796 0.008569 1.570797
    8 0.000000 0.439464 -0.149598 0.000000 0.000000 0.000000
    9 0.000001 0.360867 0.000000 0.000000 0.000000 0.000000
    10 0.998229 -17.369486 -0.003569 0.000000 0.000000 0.001279
    11 -0.002752 -0.001265 -0.003287 0.000000 0.000000 0.000000
    12 7.192851 6.021044 -5.471805 6.065975 -1.939559 -0.626023
    13 7.972229 2.039723 -0.356844 1.567458 -3.119372 0.328801
    14 -0.028951 -8.635459 -0.119759 0.894127 0.358079 0.344884
    15 -0.488518 -2.755602 -0.228260 -0.855329 -0.005500 -0.245375
    16 0.039887 -1.546198 0.022041 -1.891765 -0.006292 0.042163
    17 0.028786 -1.153858 -0.120768 -0.959872 -0.014837 0.019894
    18 0.250027 -2.820665 -0.238396 -0.560831 -0.117709 -0.086571
    19 -0.045853 -1.598510 0.037977 -1.526314 0.140987 -0.053597
    20 -0.034142 -1.179563 0.045718 -1.334442 0.004518 -0.035199
    21 0.957766 -2.746780 -0.090302 -0.014872 -0.242718 0.317947
    22 -0.033420 -1.397129 -0.030789 -1.023289 0.072830 -0.009792
    23 -0.022360 -0.961342 -0.008561 -1.033442 0.072663 -0.010774
    24 -1.180681 -2.507217 -0.193859 -0.519852 0.255646 -0.222176
    25 -0.024967 -1.127840 0.017597 -1.700810 -0.017402 -0.065794
    26 -0.020057 -0.906594 0.033528 -1.037463 0.004806 -0.042545
    27 0.642106 -1.189464 0.185379 1.395565 -1.086678 -1.368343
    28 1.496863 -0.192885 0.036260 0.030976 -0.114716 -0.664694
    29 1.081239 -0.100945 0.016666 0.006756 -0.123276 -0.502104
    30 0.120153 -0.050270 -0.054489 0.287569 3.110905 1.561085
    31 -1.845036 -5.434391 -11.118810 -1.503988 -5.310082 -1.337643
    32 -0.121813 -8.333227 0.310957 -0.766149 -1.020636 0.821682
    33 0.682335 -2.556791 -0.262945 -1.403371 -0.057052 0.428144
    34 -0.032909 -1.499736 0.020565 -1.155787 0.022171 -0.019892
    35 -0.027022 -1.104265 -0.028023 -0.656005 0.016539 -0.008078
    36 0.008286 -2.733679 -0.287498 -1.224291 -0.096313 0.189198
    37 0.043235 -1.656596 0.072574 -1.332477 -0.021134 0.006053
    38 0.031729 -1.149111 0.058838 -0.700097 -0.007148 0.005304
    39 -0.709952 -2.804677 -0.253324 -1.005405 0.062193 -0.033347
    40 0.028479 -1.403067 -0.021074 -0.985528 -0.026150 -0.034588
    41 0.021413 -0.942156 0.012233 -0.995616 -0.026630 -0.034228
    42 1.332449 -2.168929 -0.178143 -1.451654 -0.251939 0.569780
    43 0.024032 -1.136855 -0.001725 -0.837936 0.005801 0.044440
    44 0.014898 -0.899614 -0.015942 -0.880686 0.004998 0.044547
    45 -0.645366 -1.248852 0.059532 -0.141697 -1.003780 -2.153974
    46 1.550180 0.039149 0.016848 -0.011845 -0.004570 0.632985
    47 1.114041 0.044518 -0.005766 -0.019502 -0.034630 0.745810
    48 -0.139399 -0.111698 0.014397 0.285382 -0.030687 1.580508
    49 -8.202272 -0.090783 -0.477722 1.563978 -0.037357 -0.066836
  time 9
    0 0.036978 -3.137544 -2.853720 1.589523 -0.118553 -1.530373
    1 4.116302 0.309474 0.579363 1.570821 -1.565877 -1.569548
    2 0.776872 -0.777959 0.000000 0.000001 0.000000 -1.828850
    3 1.657125 1.621748 -0.099206 1.570803 1.552836 -1.569519
    4 1.657129 1.619225 0.089981 1.570790 -1.588547 -1.569507
    5 4.124314 -3.447140 -0.020971 -1.570796 0.000000 0.377722
    6 -0.001059 -0.000005 0.029470 -0.000001 0.000000 -1.570797
    7 0.161901 -0.042629 2.167028 1.570796 0.008569 1.570797
    8 0.000000 0.439464 -0.149598 0.000000 0.000000 0.000000
    9 0.000001 0.360867 0.000000 0.000000 0.000000 0.000000
    10 0.998229 -17.369486 -0.003569 0.000000 0.000000 0.001279
    11 -0.002752 -0.001265 -0.003287 0.000000 0.000000 0.000000
    12 7.192851 6.064014 -5.483524 6.067796 -1.932116 -0.618700
    13 7.980041 2.000660 -0.356844 1.567554 -3.119276 0.324019
    14 -0.028951 -8.635459 -0.119759 0.879624 0.352240 0.342922
    15 -0.488518 -2.755602 -0.228260 -0.855329 -0.005500 -0.245375
    16 0.039887 -1.546198 0.022041 -1.891765 -0.006292 0.042163
    17 0.028786 -1.153858 -0.120768 -0.959872 -0.014837 0.019894
    18 0.250027 -2.820665 -0.238396 -0.560831 -0.117709 -0.086571
    19 -0.045853 -1.598510 0.037977 -1.526314 0.140987 -0.053597
    20 -0.034142 -1.179563 0.045718 -1.334442 0.004518 -0.035199
    21 0.957766 -2.746780 -0.090302 -0.014872 -0.242718 0.317947
    22 -0.033420 -1.397129 -0.030789 -1.023289 0.072830 -0.009792
    23 -0.022360 -0.961342 -0.008561 -1.033442 0.072663 -0.010774
    24 -1.180681 -2.507217 -0.193859 -0.519852 0.255646 -0.222176
    25 -0.024967 -1.127840 0.017597 -1.700810 -0.017402 -0.065794
    26 -0.020057 -0.906594 0.033528 -1.037463 0.004806 -0.042545
    27 0.642106 -1.189464 0.185379 1.395565 -1.086678 -1.368343
    28 1.496863 -0.192885 0.036260 0.030976 -0.114716 -0.664694
    29 1.081239 -0.100945 0.016666 0.006756 -0.123276 -0.502104
    30 0.120153 -0.050270 -0.054489 0.287569 3.110905 1.561085
    31 -1.837223 -5.453923 -11.103185 -1.504404 -5.312889 -1.336444
    32 -0.117906 -8.333227 0.314864 -0.757671 -1.021767 0.814761
    33 0.682335 -2.556791 -0.262945 -1.403371 -0.057052 0.428144
    34 -0.032909 -1.499736 0.020565 -1.155787 0.022171 -0.019892
    35 -0.027022 -1.104265 -0.028023 -0.656005 0.016539 -0.008078
    36 0.008286 -2.733679 -0.287498 -1.224291 -0.096313 0.189198
    37 0.043235 -1.656596 0.072574 -1.332477 -0.021134 0.006053
    38 0.031729 -1.149111 0.058838 -0.700097 -0.007148 0.005304
    39 -0.709952 -2.804677 -0.253324 -1.005405 0.062193 -0.033347
    40 0.028479 -1.403067 -0.021074 -0.985528 -0.026150 -0.034588
    41 0.021413 -0.942156 0.012233 -0.995616 -0.026630 -0.034228
    42 1.332449 -2.168929 -0.178143 -1.451654 -0.251939 0.569780
    43 0.024032 -1.136855 -0.001725 -0.837936 0.005801 0.044440
    44 0.014898 -0.899614 -0.015942 -0.880686 0.004998 0.044535
    45 -0.645366 -1.248852 0.059532 -0.141697 -1.003780 -2.153974
    46 1.550180 0.039149 0.016848 -0.011845 -0.004570 0.632985
    47 1.114041 0.044518 -0.005766 -0.019502 -0.034630 0.745810
    48 -0.139399 -0.111698 0.014397 0.285382 -0.030687 1.580508
    49 -8.202272 -0.079064 -0.477722 1.564026 -0.037345 -0.068291
  time 10
    0 0.294799 -3.317237 -2.842001 1.591801 -0.094034 -1.533998
    1 4.116302 0.309474 0.579363 1.570821 -1.565877 -1.569560
    2 0.776872 -0.777959 0.000000 0.000001 0.000000 -1.828850
    3 1.657125 1.621748 -0.138270 1.570803 1.552836 -1.569519
    4 1.657129 1.619225 0.129045 1.570790 -1.588547 -1.569507
    5 4.124314 -3.447140 -0.020971 -1.570796 0.000000 0.377722
    6 -0.001059 -0.000005 0.029470 -0.000001 0.000000 -1.570797
    7 0.161901 -0.042629 2.167028 1.570796 0.008569 1.570797
    8 0.000000 0.439464 -0.149598 0.000000 0.000000 0.000000
    9 0.000001 0.360867 0.000000 0.000000 0.000000 0.000000
    10 0.998229 -17.369486 -0.003569 0.000000 0.000000 0.001279
    11 -0.002752 -0.001265 -0.003287 0.000000 0.000000 0.000000
    12 7.220196 6.200737 -5.510869 6.098370 -1.906579 -0.605317
    13 8.007386 1.817060 -0.360751 1.567746 -3.118893 0.301540
    14 -0.032857 -8.623740 -0.111947 0.822312 0.360341 0.306887
    15 -0.488518 -2.755602 -0.228260 -0.855329 -0.005500 -0.245375
    16 0.039887 -1.546198 0.022041 -1.891765 -0.006292 0.042163
    17 0.028786 -1.153858 -0.120768 -0.959872 -0.014837 0.019894
    18 0.250027 -2.820665 -0.238396 -0.560831 -0.117709 -0.086571
    19 -0.045853 -1.598510 0.037977 -1.526314 0.140987 -0.053597
    20 -0.034142 -1.179563 0.045718 -1.334442 0.004518 -0.035199
    21 0.957766 -2.746780 -0.090302 -0.014872 -0.242718 0.317947
    22 -0.033420 -1.397129 -0.030789 -1.023289 0.072830 -0.009792
    23 -0.022360 -0.961342 -0.008561 -1.033442 0.072663 -0.010774
    24 -1.180681 -2.507217 -0.193859 -0.519852 0.255646 -0.222176
    25 -0.024967 -1.127840 0.017597 -1.700810 -0.017402 -0.065794
    26 -0.020057 -0.906594 0.033528 -1.037463 0.004806 -0.042545
    27 0.642106 -1.189464 0.185379 1.395565 -1.086678 -1.368343
    28 1.496863 -0.192885 0.036260 0.030976 -0.114716 -0.664694
    29 1.081239 -0.100945 0.016666 0.006756 -0.123276 -0.502104
    30 0.120153 -0.050270 -0.054489 0.287569 3.110905 1.561085
    31 -1.774721 -5.430485 -11.126623 -1.500717 -5.285428 -1.312565
    32 -0.114000 -8.344947 0.318770 -0.714325 -1.032009 0.773102
    33 0.682335 -2.556791 -0.262945 -1.403371 -0.057052 0.428144
    34 -0.032909 -1.499736 0.020565 -1.155787 0.022171 -0.019892
    35 -0.027022 -1.104265 -0.028023 -0.656005 0.016539 -0.008078
    36 0.008286 -2.733679 -0.287498 -1.224291 -0.096313 0.189198
    37 0.043235 -1.656596 0.072574 -1.332477 -0.021134 0.006053
    38 0.031729 -1.149111 0.058838 -0.700097 -0.007148 0.005304
    39 -0.709952 -2.804677 -0.253324 -1.005405 0.062193 -0.033347
    40 0.028479 -1.403067 -0.021074 -0.985528 -0.026150 -0.034588
    41 0.021413 -0.942156 0.012233 -0.995616 -0.026630 -0.034228
    42 1.332449 -2.168929 -0.178143 -1.451654 -0.251939 0.569780
    43 0.024032 -1.136855 -0.001725 -0.837936 0.005801 0.044440
    44 0.014898 -0.899614 -0.015942 -0.880686 0.004998 0.044535
    45 -0.645366 -1.248852 0.059532 -0.141697 -1.003780 -2.153974
    46 1.550180 0.039149 0.016848 -0.011845 -0.004570 0.632985
    47 1.114041 0.044518 -0.005766 -0.019502 -0.034630 0.745810
    48 -0.139399 -0.111698 0.014397 0.285382 -0.030687 1.580508
    49 -8.217897 0.131880 -0.477722 1.564661 -0.037106 -0.093868
  time 11
    0 0.708874 -3.598496 -2.842001 1.592086 -0.059936 -1.539950
    1 4.116302 0.309474 0.579363 1.570821 -1.565877 -1.569548
    2 0.776872 -0.777959 0.000000 0.000001 0.000000 -1.828850
    3 1.657125 1.621748 -0.177333 1.570803 1.552836 -1.569519
    4 1.657129 1.619225 0.168108 1.570790 -1.588547 -1.569507
    5 4.124314 -3.447140 -0.020971 -1.570796 0.000000 0.377722
    6 -0.001059 -0.000005 0.029470 -0.000001 0.000000 -1.570797
    7 0.161901 -0.042629 2.167028 1.570796 0.008569 1.570797
    8 0.000000 0.439464 -0.149598 0.000000 0.000000 0.000000
    9 0.000001 0.360867 0.000000 0.000000 0.000000 0.000000
    10 0.998229 -17.369486 -0.003569 0.000000 0.000000 0.001279
    11 -0.002752 -0.001265 -0.003287 0.000000 0.000000 0.000000
    12 7.251447 6.368711 -5.542120 6.140253 -1.876200 -0.580739
    13 8.030824 1.617835 -0.364657 1.568033 -3.118414 0.276543
    14 -0.036764 -8.604208 -0.104134 0.738154 0.375073 0.258331
    15 -0.488518 -2.755602 -0.228260 -0.855329 -0.005500 -0.245375
    16 0.039887 -1.546198 0.022041 -1.891765 -0.006292 0.042163
    17 0.028786 -1.153858 -0.120768 -0.959872 -0.014837 0.019894
    18 0.250027 -2.820665 -0.238396 -0.560831 -0.117709 -0.086571
    19 -0.045853 -1.598510 0.037977 -1.526314 0.140987 -0.053597
    20 -0.034142 -1.179563 0.045718 -1.334442 0.004518 -0.035199
    21 0.957766 -2.746780 -0.090302 -0.014872 -0.242718 0.317947
    22 -0.033420 -1.397129 -0.030789 -1.023289 0.072830 -0.009792
    23 -0.022360 -0.961342 -0.008561 -1.033442 0.072663 -0.010774
    24 -1.180681 -2.507217 -0.193859 -0.519852 0.255646 -0.222176
    25 -0.024967 -1.127840 0.017597 -1.700810 -0.017402 -0.065794
    26 -0.020057 -0.906594 0.033528 -1.037463 0.004806 -0.042545
    27 0.642106 -1.189464 0.185379 1.395565 -1.086678 -1.368343
    28 1.496863 -0.192885 0.036260 0.030976 -0.114716 -0.664694
    29 1.081239 -0.100945 0.016666 0.006756 -0.123276 -0.502104
    30 0.120153 -0.050270 -0.054489 0.287569 3.110905 1.561085
    31 -1.665343 -5.434391 -11.138342 -1.491737 -5.244614 -1.273657
    32 -0.102281 -8.364478 0.322676 -0.644788 -1.043085 0.704203
    33 0.682335 -2.556791 -0.262945 -1.403371 -0.057052 0.428144
    34 -0.032909 -1.499736 0.020565 -1.155787 0.022171 -0.019892
    35 -0.027022 -1.104265 -0.028023 -0.656005 0.016539 -0.008078
    36 0.008286 -2.733679 -0.287498 -1.224291 -0.096313 0.189198
    37 0.043235 -1.656596 0.072574 -1.332477 -0.021134 0.006053
    38 0.031729 -1.149111 0.058838 -0.700097 -0.007148 0.005304
    39 -0.709952 -2.804677 -0.253324 -1.005405 0.062193 -0.033347
    40 0.028479 -1.403067 -0.021074 -0.985528 -0.026150 -0.034588
    41 0.021413 -0.942156 0.012233 -0.995616 -0.026630 -0.034228
    42 1.332449 -2.168929 -0.178143 -1.451654 -0.251939 0.569780
    43 0.024032 -1.136855 -0.001725 -0.837936 0.005801 0.044440
    44 0.014898 -0.899614 -0.015942 -0.880686 0.004998 0.044535
    45 -0.645366 -1.248852 0.059532 -0.141697 -1.003780 -2.153974
    46 1.550180 0.039149 0.016848 -0.011845 -0.004570 0.632985
    47 1.114041 0.044518 -0.005766 -0.019502 -0.034630 0.745810
    48 -0.139399 -0.111698 0.014397 0.285382 -0.030687 1.580508
    49 -8.237429 0.506892 -0.473815 1.565787 -0.036638 -0.139509
  time 12
    0 1.224515 -3.938350 -2.865439 1.584207 -0.034171 -1.548500
    1 4.116302 0.309474 0.579363 1.570821 -1.565877 -1.569548
    2 0.776872 -0.777959 0.000000 0.000001 0.000000 -1.828850
    3 1.657125 1.621748 -0.099206 1.570803 1.552836 -1.569519
    4 1.657129 1.619225 0.089981 1.570790 -1.588547 -1.569507
    5 4.124314 -3.447140 -0.020971 -1.570796 0.000000 0.377722
    6 -0.001059 -0.000005 0.029470 -0.000001 0.000000 -1.570797
    7 0.161901 -0.042629 2.167028 1.570796 0.008569 1.570797
    8 0.000000 0.439464 -0.149598 0.000000 0.000000 0.000000
    9 0.000001 0.360867 0.000000 0.000000 0.000000 0.000000
    10 0.998229 -17.369486 -0.003569 0.000000 0.000000 0.001279
    11 -0.002752 -0.001265 -0.003287 0.000000 0.000000 0.000000
    12 7.278791 6.470276 -5.561651 6.163543 -1.856230 -0.530068
    13 8.038637 1.555333 -0.364657 1.568129 -3.118318 0.268742
    14 -0.036764 -8.588583 -0.100228 0.648891 0.396253 0.225659
    15 -0.488518 -2.755602 -0.228260 -0.855329 -0.005500 -0.245375
    16 0.039887 -1.546198 0.022041 -1.891765 -0.006292 0.042163
    17 0.028786 -1.153858 -0.120768 -0.959901 -0.014837 0.019894
    18 0.250027 -2.820665 -0.238396 -0.560831 -0.117709 -0.086571
    19 -0.045853 -1.598510 0.037977 -1.526314 0.140987 -0.053597
    20 -0.034142 -1.179563 0.045718 -1.334442 0.004518 -0.035199
    21 0.957766 -2.746780 -0.090302 -0.014872 -0.242718 0.317947
    22 -0.033420 -1.397129 -0.030789 -1.023289 0.072830 -0.009792
    23 -0.022360 -0.961342 -0.008561 -1.033442 0.072663 -0.010774
    24 -1.180681 -2.507217 -0.193859 -0.519852 0.255646 -0.222176
    25 -0.024967 -1.127840 0.017597 -1.700810 -0.017402 -0.065794
    26 -0.020057 -0.906594 0.033528 -1.037463 0.004806 -0.042545
    27 0.642106 -1.189464 0.185379 1.395565 -1.086678 -1.368343
    28 1.496863 -0.192885 0.036260 0.030976 -0.114716 -0.664694
    29 1.081239 -0.100945 0.016666 0.006756 -0.123276 -0.502104
    30 0.120153 -0.050270 -0.054489 0.287569 3.110905 1.561085
    31 -1.528620 -5.539863 -11.091465 -1.479248 -5.205511 -1.230693
    32 -0.090562 -8.380104 0.330489 -0.563628 -1.043919 0.619865
    33 0.682335 -2.556791 -0.262945 -1.403371 -0.057052 0.428144
    34 -0.032909 -1.499736 0.020565 -1.155787 0.022171 -0.019892
    35 -0.027022 -1.104265 -0.028023 -0.656005 0.016539 -0.008078
    36 0.008286 -2.733679 -0.287498 -1.224291 -0.096313 0.189198
    37 0.043235 -1.656596 0.072574 -1.332477 -0.021134 0.006053
    38 0.031729 -1.149111 0.058838 -0.700097 -0.007148 0.005304
    39 -0.709952 -2.804677 -0.253324 -1.005405 0.062193 -0.033347
    40 0.028479 -1.403067 -0.021074 -0.985528 -0.026150 -0.034588
    41 0.021413 -0.942156 0.012233 -0.995616 -0.026630 -0.034228
    42 1.332449 -2.168929 -0.178143 -1.451654 -0.251939 0.569780
    43 0.024032 -1.136855 -0.001725 -0.837936 0.005801 0.044440
    44 0.014898 -0.899614 -0.015942 -0.880686 0.004998 0.044535
    45 -0.645366 -1.248852 0.059532 -0.141697 -1.003780 -2.153974
    46 1.550180 0.039149 0.016848 -0.011845 -0.004570 0.632985
    47 1.114041 0.044518 -0.005766 -0.019502 -0.034630 0.745810
    48 -0.139399 -0.111698 0.014397 0.285382 -0.030687 1.580508
    49 -8.233523 1.057690 -0.469909 1.567393 -0.035871 -0.206285
  time 13
    0 1.794845 -4.231328 -2.892784 1.577373 -0.015110 -1.561324
    1 4.116302 0.309474 0.579363 1.570821 -1.565877 -1.569548
    2 0.776872 -0.777959 0.000000 0.000001 0.000000 -1.828850
    3 1.657125 1.621748 -0.099206 1.570803 1.552836 -1.569519
    4 1.657129 1.619225 0.089981 1.570790 -1.588547 -1.569507
    5 4.124314 -3.447140 -0.020971 -1.570796 0.000000 0.377722
    6 -0.001059 -0.000005 0.029470 -0.000001 0.000000 -1.570797
    7 0.161901 -0.042629 2.167028 1.570796 0.008569 1.570797
    8 0.000000 0.439464 -0.149598 0.000000 0.000000 0.000000
    9 0.000001 0.360867 0.000000 0.000000 0.000000 0.000000
    10 0.998229 -17.369486 -0.003569 0.000000 0.000000 0.001279
    11 -0.002752 -0.001265 -0.003287 0.000000 0.000000 0.000000
    12 7.321761 6.571842 -5.577277 6.179166 -1.838741 -0.467444
    13 8.042543 1.492832 -0.364657 1.568225 -3.118127 0.261109
    14 -0.036764 -8.569051 -0.096321 0.550454 0.412455 0.194576
    15 -0.488518 -2.755602 -0.228260 -0.855329 -0.005500 -0.245375
    16 0.039887 -1.546198 0.022041 -1.891765 -0.006292 0.042163
    17 0.028786 -1.153858 -0.120768 -0.959901 -0.014837 0.019894
    18 0.250027 -2.820665 -0.238396 -0.560831 -0.117709 -0.086571
    19 -0.045853 -1.598510 0.037977 -1.526314 0.140987 -0.053597
    20 -0.034142 -1.179563 0.045718 -1.334442 0.004518 -0.035199
    21 0.957766 -2.746780 -0.090302 -0.014872 -0.242718 0.317947
    22 -0.033420 -1.397129 -0.030789 -1.023289 0.072830 -0.009792
    23 -0.022360 -0.961342 -0.008561 -1.033442 0.072663 -0.010774
    24 -1.180681 -2.507217 -0.193859 -0.519852 0.255646 -0.222176
    25 -0.024967 -1.127840 0.017597 -1.700810 -0.017402 -0.065794
    26 -0.020057 -0.906594 0.033528 -1.037463 0.004806 -0.042545
    27 0.642106 -1.189464 0.185379 1.395565 -1.086678 -1.368343
    28 1.496863 -0.192885 0.036260 0.030976 -0.114716 -0.664694
    29 1.081239 -0.100945 0.016666 0.006756 -0.123276 -0.502104
    30 0.120153 -0.050270 -0.054489 0.287569 3.110905 1.561085
    31 -1.368459 -5.660960 -11.021151 -1.464320 -5.172092 -1.184133
    32 -0.074936 -8.399636 0.334395 -0.472438 -1.042847 0.525190
    33 0.682335 -2.556791 -0.262945 -1.403371 -0.057052 0.428144
    34 -0.032909 -1.499736 0.020565 -1.155787 0.022171 -0.019892
    35 -0.027022 -1.104265 -0.028023 -0.656005 0.016539 -0.008078
    36 0.008286 -2.733679 -0.287498 -1.224291 -0.096313 0.189198
    37 0.043235 -1.656596 0.072574 -1.332477 -0.021134 0.006053
    38 0.031729 -1.149111 0.058838 -0.700097 -0.007148 0.005304
    39 -0.709952 -2.804677 -0.253324 -1.005405 0.062193 -0.033347
    40 0.028479 -1.403067 -0.021074 -0.985528 -0.026150 -0.034588
    41 0.021413 -0.942156 0.012233 -0.995616 -0.026630 -0.034228
    42 1.332449 -2.168929 -0.178143 -1.451654 -0.251939 0.569780
    43 0.024032 -1.136855 -0.001725 -0.837936 0.005801 0.044440
    44 0.014898 -0.899614 -0.015942 -0.880686 0.004998 0.044547
    45 -0.645366 -1.248852 0.059532 -0.141697 -1.003780 -2.153974
    46 1.550180 0.039149 0.016848 -0.011845 -0.004570 0.632985
    47 1.114041 0.044518 -0.005766 -0.019502 -0.034630 0.745810
    48 -0.139399 -0.111698 0.014397 0.285382 -0.030687 1.580508
    49 -8.194459 1.600675 -0.466002 1.568939 -0.034996 -0.272601
  time 14
    0 2.388613 -4.395395 -2.912316 -1.562996 3.145263 -4.721774
    1 4.116302 0.309474 0.579363 1.570821 -1.565877 -1.569548
    2 0.776872 -0.777959 0.000000 0.000001 0.000000 -1.828850
    3 1.657125 1.621748 -0.099206 1.570803 1.552836 -1.569519
    4 1.657129 1.619225 0.089981 1.570790 -1.588547 -1.569507
    5 4.124314 -3.447140 -0.020971 -1.570796 0.000000 0.377722
    6 -0.001059 -0.000005 0.029470 -0.000001 0.000000 -1.570797
    7 0.161901 -0.042629 2.167028 1.570796 0.008569 1.570797
    8 0.000000 0.439464 -0.149598 0.000000 0.000000 0.000000
    9 0.000001 0.360867 0.000000 0.000000 0.000000 0.000000
    10 0.998229 -17.369486 -0.003569 0.000000 0.000000 0.001279
    11 -0.002752 -0.001265 -0.003287 0.000000 0.000000 0.000000
    12 7.388170 6.735910 -5.596809 6.193638 -1.821010 -0.401285
    13 8.058169 1.340483 -0.368563 1.568417 -3.117839 0.242404
    14 -0.040670 -8.549519 -0.092415 0.440516 0.415306 0.160285
    15 -0.488518 -2.755602 -0.228260 -0.855329 -0.005500 -0.245375
    16 0.039887 -1.546198 0.022041 -1.891765 -0.006292 0.042163
    17 0.028786 -1.153858 -0.120768 -0.959901 -0.014837 0.019894
    18 0.250027 -2.820665 -0.238396 -0.560831 -0.117709 -0.086571
    19 -0.045853 -1.598510 0.037977 -1.526314 0.140987 -0.053597
    20 -0.034142 -1.179563 0.045718 -1.334442 0.004518 -0.035199
    21 0.957766 -2.746780 -0.090302 -0.014872 -0.242718 0.317947
    22 -0.033420 -1.397129 -0.030789 -1.023289 0.072830 -0.009792
    23 -0.022360 -0.961342 -0.008561 -1.033410 0.072663 -0.010774
    24 -1.180681 -2.507217 -0.193859 -0.519852 0.255646 -0.222176
    25 -0.024967 -1.127840 0.017597 -1.700810 -0.017402 -0.065794
    26 -0.020057 -0.906594 0.033528 -1.037463 0.004806 -0.042545
    27 0.642106 -1.189464 0.185379 1.395565 -1.086678 -1.368343
    28 1.496863 -0.192885 0.036260 0.030976 -0.114716 -0.664694
    29 1.081239 -0.100945 0.016666 0.006756 -0.123276 -0.502104
    30 0.120153 -0.050270 -0.054489 0.287569 3.110905 1.561085
    31 -1.204391 -5.731275 -10.958649 -1.449036 -5.148946 -1.135637
    32 -0.059311 -8.426980 0.338302 -0.367237 -1.044514 0.418492
    33 0.682335 -2.556791 -0.262945 -1.403371 -0.057052 0.428144
    34 -0.032909 -1.499736 0.020565 -1.155787 0.022171 -0.019892
    35 -0.027022 -1.104265 -0.028023 -0.656005 0.016539 -0.008078
    36 0.008286 -2.733679 -0.287498 -1.224291 -0.096313 0.189198
    37 0.043235 -1.656596 0.072574 -1.332477 -0.021134 0.006053
    38 0.031729 -1.149111 0.058838 -0.700097 -0.007148 0.005304
    39 -0.709952 -2.804677 -0.253324 -1.005405 0.062193 -0.033347
    40 0.028479 -1.403067 -0.021074 -0.985528 -0.026150 -0.034588
    41 0.021413 -0.942156 0.012233 -0.995616 -0.026630 -0.034228
    42 1.332449 -2.168929 -0.178143 -1.451654 -0.251939 0.569780
    43 0.024032 -1.136855 -0.001725 -0.837936 0.005801 0.044440
    44 0.014898 -0.899614 -0.015942 -0.880686 0.004998 0.044535
    45 -0.645366 -1.248852 0.059532 -0.141697 -1.003780 -2.153974
    46 1.550180 0.039149 0.016848 -0.011845 -0.004570 0.632985
    47 1.114041 0.044518 -0.005766 -0.019502 -0.034630 0.745810
    48 -0.139399 -0.111698 0.014397 0.285382 -0.030687 1.580508
    49 -8.139770 2.006937 -0.462096 1.570054 -0.034289 -0.322147
  time 15
    0 3.029257 -4.543837 -2.931848 -1.559674 3.135493 -4.744122
    1 4.116302 0.309474 0.579363 1.570821 -1.565877 -1.569548
    2 0.776872 -0.777959 0.000000 0.000001 0.000000 -1.828850
    3 1.657125 1.621748 -0.099206 1.570803 1.552836 -1.569519
    4 1.657129 1.619225 0.089981 1.570790 -1.588547 -1.569507
    5 4.124314 -3.447140 -0.020971 -1.570796 0.000000 0.377722
    6 -0.001059 -0.000005 0.029470 -0.000001 0.000000 -1.570797
    7 0.161901 -0.042629 2.167028 1.570796 0.008569 1.570797
    8 0.000000 0.439464 -0.149598 0.000000 0.000000 0.000000
    9 0.000001 0.360867 0.000000 0.000000 0.000000 0.000000
    10 0.998229 -17.369486 -0.003569 0.000000 0.000000 0.001279
    11 -0.002752 -0.001265 -0.003287 0.000000 0.000000 0.000000
    12 7.427233 6.884352 -5.612434 6.207248 -1.803945 -0.326962
    13 8.065982 1.227198 -0.368563 1.568608 -3.117552 0.228480
    14 -0.044576 -8.526081 -0.088509 0.318851 0.413043 0.122911
    15 -0.488518 -2.755602 -0.228260 -0.855329 -0.005500 -0.245375
    16 0.039887 -1.546198 0.022041 -1.891765 -0.006292 0.042163
    17 0.028786 -1.153858 -0.120768 -0.959901 -0.014837 0.019894
    18 0.250027 -2.820665 -0.238396 -0.560831 -0.117709 -0.086571
    19 -0.045853 -1.598510 0.037977 -1.526314 0.140987 -0.053597
    20 -0.034142 -1.179563 0.045718 -1.334442 0.004518 -0.035199
    21 0.957766 -2.746780 -0.090302 -0.014872 -0.242718 0.317947
    22 -0.033420 -1.397129 -0.030789 -1.023289 0.072830 -0.009792
    23 -0.022360 -0.961342 -0.008561 -1.033410 0.072663 -0.010774
    24 -1.180681 -2.507217 -0.193859 -0.519852 0.255646 -0.222176
    25 -0.024967 -1.127840 0.017597 -1.700810 -0.017402 -0.065794
    26 -0.020057 -0.906594 0.033528 -1.037463 0.004806 -0.042545
    27 0.642106 -1.189464 0.185379 1.395565 -1.086678 -1.368343
    28 1.496863 -0.192885 0.036260 0.030976 -0.114716 -0.664694
    29 1.081239 -0.100945 0.016666 0.006756 -0.123276 -0.502104
    30 0.120153 -0.050270 -0.054489 0.287569 3.110905 1.561085
    31 -1.024698 -5.797683 -10.884428 -1.430540 -5.126347 -1.082623
    32 -0.047592 -8.450418 0.342208 -0.252562 -1.042698 0.300835
    33 0.682335 -2.556791 -0.262945 -1.403371 -0.057052 0.428144
    34 -0.032909 -1.499736 0.020565 -1.155787 0.022171 -0.019892
    35 -0.027022 -1.104265 -0.028023 -0.656005 0.016539 -0.008078
    36 0.008286 -2.733679 -0.287498 -1.224291 -0.096313 0.189198
    37 0.043235 -1.656596 0.072574 -1.332477 -0.021134 0.006053
    38 0.031729 -1.149111 0.058838 -0.700097 -0.007148 0.005304
    39 -0.709952 -2.804677 -0.253324 -1.005405 0.062193 -0.033347
    40 0.028479 -1.403067 -0.021074 -0.985528 -0.026150 -0.034588
    41 0.021413 -0.942156 0.012233 -0.995616 -0.026630 -0.034228
    42 1.332449 -2.168929 -0.178143 -1.451654 -0.251939 0.569780
    43 0.024032 -1.136855 -0.001725 -0.837936 0.005801 0.044440
    44 0.014898 -0.899614 -0.015942 -0.880686 0.004998 0.044535
    45 -0.645366 -1.248852 0.059532 -0.141697 -1.003780 -2.153974
    46 1.550180 0.039149 0.016848 -0.011845 -0.004570 0.632985
    47 1.114041 0.044518 -0.005766 -0.019502 -0.034630 0.745810
    48 -0.139399 -0.111698 0.014397 0.285382 -0.030687 1.580508
    49 -8.061642 2.421013 -0.454283 1.571168 -0.033486 -0.373378
  time 16
    0 3.646464 -4.668841 -2.951379 -1.556067 3.127160 -4.765929
    1 4.116302 0.309474 0.579363 1.570821 -1.565877 -1.569548
    2 0.776872 -0.777959 0.000000 0.000001 0.000000 -1.828850
    3 1.657125 1.621748 -0.099206 1.570803 1.552836 -1.569519
    4 1.657129 1.619225 0.089981 1.570790 -1.588547 -1.569507
    5 4.124314 -3.447140 -0.020971 -1.570796 0.000000 0.377722
    6 -0.001059 -0.000005 0.029470 -0.000001 0.000000 -1.570797
    7 0.161901 -0.042629 2.167028 1.570796 0.008569 1.570797
    8 0.000000 0.439464 -0.149598 0.000000 0.000000 0.000000
    9 0.000001 0.360867 0.000000 0.000000 0.000000 0.000000
    10 0.998229 -17.369486 -0.003569 0.000000 0.000000 0.001279
    11 -0.002752 -0.001265 -0.003287 0.000000 0.000000 0.000000
    12 7.442859 6.982011 -5.628060 6.220187 -1.788332 -0.254069
    13 8.065982 1.180322 -0.368563 1.568608 -3.117456 0.222692
    14 -0.048483 -8.502643 -0.088509 0.200441 0.406503 0.086969
    15 -0.488518 -2.755602 -0.228260 -0.855329 -0.005500 -0.245375
    16 0.039887 -1.546198 0.022041 -1.891765 -0.006292 0.042163
    17 0.028786 -1.153858 -0.120768 -0.959872 -0.014837 0.019894
    18 0.250027 -2.820665 -0.238396 -0.560831 -0.117709 -0.086571
    19 -0.045853 -1.598510 0.037977 -1.526314 0.140987 -0.053597
    20 -0.034142 -1.179563 0.045718 -1.334442 0.004518 -0.035199
    21 0.957766 -2.746780 -0.090302 -0.014872 -0.242718 0.317947
    22 -0.033420 -1.397129 -0.030789 -1.023289 0.072830 -0.009792
    23 -0.022360 -0.961342 -0.008561 -1.033410 0.072663 -0.010774
    24 -1.180681 -2.507217 -0.193859 -0.519852 0.255646 -0.222176
    25 -0.024967 -1.127840 0.017597 -1.700810 -0.017402 -0.065794
    26 -0.020057 -0.906594 0.033528 -1.037463 0.004806 -0.042545
    27 0.642106 -1.189464 0.185379 1.395565 -1.086699 -1.368343
    28 1.496863 -0.192885 0.036260 0.030976 -0.114716 -0.664694
    29 1.081239 -0.100945 0.016666 0.006756 -0.123276 -0.502104
    30 0.120153 -0.050270 -0.054489 0.287569 3.110905 1.561085
    31 -0.848912 -5.860185 -10.806301 -1.410201 -5.105323 -1.029240
    32 -0.035873 -8.481669 0.346115 -0.143898 -1.035731 0.188059
    33 0.682335 -2.556791 -0.262945 -1.403371 -0.057052 0.428144
    34 -0.032909 -1.499736 0.020565 -1.155787 0.022171 -0.019892
    35 -0.027022 -1.104265 -0.028023 -0.656005 0.016539 -0.008078
    36 0.008286 -2.733679 -0.287498 -1.224291 -0.096313 0.189198
    37 0.043235 -1.656596 0.072574 -1.332477 -0.021134 0.006053
    38 0.031729 -1.149111 0.058838 -0.700097 -0.007148 0.005304
    39 -0.709952 -2.804677 -0.253324 -1.005405 0.062193 -0.033347
    40 0.028479 -1.403067 -0.021074 -0.985528 -0.026150 -0.034588
    41 0.021413 -0.942156 0.012233 -0.995616 -0.026630 -0.034228
    42 1.332449 -2.168929 -0.178143 -1.451654 -0.251939 0.569780
    43 0.024032 -1.136855 -0.001725 -0.837936 0.005801 0.044440
    44 0.014898 -0.899614 -0.015942 -0.880686 0.004998 0.044535
    45 -0.645366 -1.248852 0.059532 -0.141697 -1.003780 -2.153974
    46 1.550180 0.039149 0.016848 -0.011845 -0.004570 0.632985
    47 1.114041 0.044518 -0.005766 -0.019502 -0.034630 0.745810
    48 -0.139399 -0.111698 0.014397 0.285382 -0.030687 1.580508
    49 -7.967889 2.823369 -0.450377 1.572223 -0.032647 -0.423537
  time 17
    0 4.177730 -4.762594 -2.963099 -1.554263 3.120360 -4.783407
    1 4.116302 0.309474 0.579363 1.570821 -1.565877 -1.569560
    2 0.776872 -0.777959 0.000000 0.000001 0.000000 -1.828850
    3 1.657125 1.621748 -0.099206 1.570803 1.552836 -1.569519
    4 1.657129 1.619225 0.089981 1.570790 -1.588547 -1.569507
    5 4.124314 -3.447140 -0.020971 -1.570796 0.000000 0.377722
    6 -0.001059 -0.000005 0.029470 -0.000001 0.000000 -1.570797
    7 0.161901 -0.042629 2.167028 1.570796 0.008569 1.570797
    8 0.000000 0.439464 -0.149598 0.000000 0.000000 0.000000
    9 0.000001 0.360867 0.000000 0.000000 0.000000 0.000000
    10 0.998229 -17.369486 -0.003569 0.000000 0.000000 0.001279
    11 -0.002752 -0.001265 -0.003287 0.000000 0.000000 0.000000
    12 7.435046 7.028887 -5.635872 6.232647 -1.774534 -0.192708
    13 8.065982 1.188135 -0.368563 1.568608 -3.117456 0.223615
    14 -0.048483 -8.490924 -0.092415 0.100630 0.398040 0.056633
    15 -0.488518 -2.755602 -0.228260 -0.855329 -0.005500 -0.245375
    16 0.039887 -1.546198 0.022041 -1.891765 -0.006292 0.042163
    17 0.028786 -1.153858 -0.120768 -0.959872 -0.014837 0.019894
    18 0.250027 -2.820665 -0.238396 -0.560831 -0.117709 -0.086571
    19 -0.045853 -1.598510 0.037977 -1.526314 0.140987 -0.053585
    20 -0.034142 -1.179563 0.045718 -1.334442 0.004518 -0.035199
    21 0.957766 -2.746780 -0.090302 -0.014872 -0.242718 0.317947
    22 -0.033420 -1.397129 -0.030789 -1.023289 0.072830 -0.009792
    23 -0.022360 -0.961342 -0.008561 -1.033410 0.072663 -0.010774
    24 -1.180681 -2.507217 -0.193859 -0.519852 0.255646 -0.222176
    25 -0.024967 -1.127840 0.017597 -1.700810 -0.017402 -0.065794
    26 -0.020057 -0.906594 0.033528 -1.037463 0.004806 -0.042545
    27 0.642106 -1.189464 0.185379 1.395565 -1.086699 -1.368343
    28 1.496863 -0.192885 0.036260 0.030976 -0.114716 -0.664694
    29 1.081239 -0.100945 0.016666 0.006756 -0.123276 -0.502104
    30 0.120153 -0.050270 -0.054489 0.287569 3.110905 1.561085
    31 -0.684844 -5.910968 -10.732080 -1.390159 -5.087381 -0.980652
    32 -0.024153 -8.505108 0.346115 -0.055892 -1.024923 0.095957
    33 0.682335 -2.556791 -0.262945 -1.403371 -0.057052 0.428144
    34 -0.032909 -1.499736 0.020565 -1.155787 0.022171 -0.019892
    35 -0.027022 -1.104265 -0.028023 -0.656005 0.016539 -0.008078
    36 0.008286 -2.733679 -0.287498 -1.224291 -0.096313 0.189198
    37 0.043235 -1.656596 0.072574 -1.332477 -0.021134 0.006053
    38 0.031729 -1.149111 0.058838 -0.700097 -0.007148 0.005304
    39 -0.709952 -2.804677 -0.253324 -1.005405 0.062193 -0.033347
    40 0.028479 -1.403067 -0.021074 -0.985528 -0.026150 -0.034588
    41 0.021413 -0.942156 0.012233 -0.995616 -0.026630 -0.034228
    42 1.332449 -2.168929 -0.178143 -1.451654 -0.251939 0.569780
    43 0.024032 -1.136855 -0.001725 -0.837936 0.005801 0.044440
    44 0.014898 -0.899614 -0.015942 -0.880686 0.004998 0.044547
    45 -0.645366 -1.248852 0.059532 -0.141697 -1.003780 -2.153974
    46 1.550180 0.039149 0.016848 -0.011845 -0.004570 0.632985
    47 1.114041 0.044518 -0.005766 -0.019502 -0.034630 0.745810
    48 -0.139399 -0.111698 0.014397 0.285382 -0.030687 1.580508
    49 -7.866324 3.182755 -0.446471 1.573134 -0.031845 -0.469024
  time 18
    0 4.564460 -4.829002 -2.963099 -1.556257 3.115092 -4.792714
    1 4.116302 0.309474 0.579363 1.570821 -1.565877 -1.569560
    2 0.776872 -0.777959 0.000000 0.000001 0.000000 -1.828850
    3 1.657125 1.621748 -0.099206 1.570803 1.552836 -1.569519
    4 1.657129 1.619225 0.089981 1.570790 -1.588547 -1.569507
    5 4.124314 -3.447140 -0.020971 -1.570796 0.000000 0.377722
    6 -0.001059 -0.000005 0.029470 -0.000001 0.000000 -1.570797
    7 0.161901 -0.042629 2.167028 1.570796 0.008569 1.570797
    8 0.000000 0.439464 -0.149598 0.000000 0.000000 0.000000
    9 0.000001 0.360867 0.000000 0.000000 0.000000 0.000000
    10 0.998229 -17.369486 -0.003569 0.000000 0.000000 0.001279
    11 -0.002752 -0.001265 -0.003287 0.000000 0.000000 0.000000
    12 7.415514 7.044513 -5.643685 6.244723 -1.762915 -0.152811
    13 8.065982 1.211573 -0.368563 1.568608 -3.117552 0.226718
    14 -0.052389 -8.475298 -0.096321 0.033865 0.391569 0.035205
    15 -0.488518 -2.755602 -0.228260 -0.855329 -0.005500 -0.245375
    16 0.039887 -1.546198 0.022041 -1.891821 -0.006292 0.042163
    17 0.028786 -1.153858 -0.120768 -0.959872 -0.014837 0.019894
    18 0.250027 -2.820665 -0.238396 -0.560831 -0.117709 -0.086571
    19 -0.045853 -1.598510 0.037977 -1.526314 0.140987 -0.053585
    20 -0.034142 -1.179563 0.045718 -1.334442 0.004518 -0.035199
    21 0.957766 -2.746780 -0.090302 -0.014872 -0.242718 0.317947
    22 -0.033420 -1.397129 -0.030789 -1.023289 0.072830 -0.009792
    23 -0.022360 -0.961342 -0.008561 -1.033410 0.072663 -0.010774
    24 -1.180681 -2.507217 -0.193859 -0.519852 0.255646 -0.222176
    25 -0.024967 -1.127840 0.017597 -1.700810 -0.017402 -0.065794
    26 -0.020057 -0.906594 0.033528 -1.037463 0.004806 -0.042545
    27 0.642106 -1.189464 0.185379 1.395565 -1.086699 -1.368374
    28 1.496863 -0.192885 0.036260 0.030976 -0.114716 -0.664694
    29 1.081239 -0.100945 0.016666 0.006756 -0.123276 -0.502104
    30 0.120153 -0.050270 -0.054489 0.287569 3.110905 1.561085
    31 -0.559840 -5.953938 -10.661765 -1.373924 -5.074096 -0.943127
    32 -0.016341 -8.520733 0.346115 -0.000724 -1.013430 0.038327
    33 0.682335 -2.556791 -0.262945 -1.403371 -0.057052 0.428144
    34 -0.032909 -1.499736 0.020565 -1.155787 0.022171 -0.019892
    35 -0.027022 -1.104265 -0.028023 -0.656005 0.016539 -0.008078
    36 0.008286 -2.733679 -0.287498 -1.224291 -0.096313 0.189198
    37 0.043235 -1.656596 0.072574 -1.332477 -0.021134 0.006053
    38 0.031729 -1.149111 0.058838 -0.700097 -0.007148 0.005304
    39 -0.709952 -2.804677 -0.253324 -1.005405 0.062193 -0.033347
    40 0.028479 -1.403067 -0.021074 -0.985528 -0.026150 -0.034588
    41 0.021413 -0.942156 0.012233 -0.995616 -0.026630 -0.034228
    42 1.332449 -2.168929 -0.178143 -1.451654 -0.251939 0.569780
    43 0.024032 -1.136855 -0.001725 -0.837936 0.005801 0.044440
    44 0.014898 -0.899614 -0.015942 -0.880686 0.004998 0.044547
    45 -0.645366 -1.248852 0.059532 -0.141697 -1.003780 -2.153974
    46 1.550180 0.039149 0.016848 -0.011845 -0.004570 0.632985
    47 1.114041 0.044518 -0.005766 -0.019502 -0.034630 0.745810
    48 -0.139399 -0.111698 0.014397 0.285382 -0.030687 1.580508
    49 -7.772571 3.464013 -0.442564 1.573829 -0.031185 -0.505016
  time 19
    0 4.708996 -4.836815 -2.951379 -1.564990 3.112314 -4.787898
    1 4.116302 0.309474 0.579363 1.570821 -1.565877 -1.569548
    2 0.776872 -0.777959 0.000000 0.000001 0.000000 -1.828850
    3 1.657125 1.621748 -0.099206 1.570803 1.552836 -1.569519
    4 1.657129 1.619225 0.089981 1.570790 -1.588547 -1.569507
    5 4.124314 -3.447140 -0.020971 -1.570796 0.000000 0.377722
    6 -0.001059 -0.000005 0.029470 -0.000001 0.000000 -1.570797
    7 0.161901 -0.042629 2.167028 1.570796 0.008569 1.570797
    8 0.000000 0.439464 -0.149598 0.000000 0.000000 0.000000
    9 0.000001 0.360867 0.000000 0.000000 0.000000 0.000000
    10 0.998229 -17.369486 -0.003569 0.000000 0.000000 0.001279
    11 -0.002752 -0.001265 -0.003287 0.000000 0.000000 0.000000
    12 7.384263 7.071857 -5.651498 6.254787 -1.754322 -0.146498
    13 8.065982 1.184228 -0.368563 1.568608 -3.117456 0.223028
    14 -0.052389 -8.475298 -0.096321 0.021297 0.392315 0.028571
    15 -0.488518 -2.755602 -0.228260 -0.855329 -0.005500 -0.245375
    16 0.039887 -1.546198 0.022041 -1.891765 -0.006292 0.042163
    17 0.028786 -1.153858 -0.120768 -0.959872 -0.014837 0.019894
    18 0.250027 -2.820665 -0.238396 -0.560831 -0.117709 -0.086571
    19 -0.045853 -1.598510 0.037977 -1.526314 0.140987 -0.053585
    20 -0.034142 -1.179563 0.045718 -1.334442 0.004518 -0.035199
    21 0.957766 -2.746780 -0.090302 -0.014872 -0.242718 0.317947
    22 -0.033420 -1.397129 -0.030789 -1.023289 0.072830 -0.009792
    23 -0.022360 -0.961342 -0.008561 -1.033410 0.072663 -0.010774
    24 -1.180681 -2.507217 -0.193859 -0.519852 0.255646 -0.222176
    25 -0.024967 -1.127840 0.017597 -1.700810 -0.017402 -0.065794
    26 -0.020057 -0.906594 0.033528 -1.037463 0.004806 -0.042545
    27 0.642106 -1.189464 0.185379 1.395565 -1.086699 -1.368343
    28 1.496863 -0.192885 0.036260 0.030976 -0.114716 -0.664694
    29 1.081239 -0.100945 0.016666 0.006756 -0.123276 -0.502104
    30 0.120153 -0.050270 -0.054489 0.287569 3.110905 1.561085
    31 -0.497338 -5.977376 -10.622701 -1.367917 -5.069576 -0.926255
    32 -0.012434 -8.520733 0.342208 0.006122 -1.004409 0.034023
    33 0.682335 -2.556791 -0.262945 -1.403371 -0.057052 0.428144
    34 -0.032909 -1.499736 0.020565 -1.155787 0.022171 -0.019892
    35 -0.027022 -1.104265 -0.028023 -0.656005 0.016539 -0.008078
    36 0.008286 -2.733679 -0.287498 -1.224291 -0.096313 0.189198
    37 0.043235 -1.656596 0.072574 -1.332477 -0.021134 0.006053
    38 0.031729 -1.149111 0.058838 -0.700097 -0.007148 0.005304
    39 -0.709952 -2.804677 -0.253324 -1.005405 0.062193 -0.033347
    40 0.028479 -1.403067 -0.021074 -0.985528 -0.026150 -0.034588
    41 0.021413 -0.942156 0.012233 -0.995616 -0.026630 -0.034228
    42 1.332449 -2.168929 -0.178143 -1.451654 -0.251939 0.569780
    43 0.024032 -1.136855 -0.001725 -0.837936 0.005801 0.044440
    44 0.014898 -0.899614 -0.015942 -0.880686 0.004998 0.044535
    45 -0.645366 -1.248852 0.059532 -0.141697 -1.003780 -2.153974
    46 1.550180 0.039149 0.016848 -0.011845 -0.004570 0.632985
    47 1.114041 0.044518 -0.005766 -0.019502 -0.034630 0.745810
    48 -0.139399 -0.111698 0.014397 0.285382 -0.030687 1.580508
    49 -7.725695 3.592923 -0.438658 1.574141 -0.030874 -0.521710
  time 20
    0 4.650401 -4.789939 -2.927941 1.562565 0.029236 -1.629884
    1 4.116302 0.309474 0.579363 1.570821 -1.565877 -1.569548
    2 0.776872 -0.777959 0.000000 0.000001 0.000000 -1.828850
    3 1.657125 1.621748 -0.099206 1.570803 1.552836 -1.569519
    4 1.657129 1.619225 0.089981 1.570790 -1.588547 -1.569507
    5 4.124314 -3.447140 -0.020971 -1.570796 0.000000 0.377722
    6 -0.001059 -0.000005 0.029470 -0.000001 0.000000 -1.570797
    7 0.161901 -0.042629 2.167028 1.570796 0.008569 1.570797
    8 0.000000 0.439464 -0.149598 0.000000 0.000000 0.000000
    9 0.000001 0.360867 0.000000 0.000000 0.000000 0.000000
    10 0.998229 -17.369486 -0.003569 0.000000 0.000000 0.001279
    11 -0.002752 -0.001265 -0.003287 0.000000 0.000000 0.000000
    12 7.349106 7.130453 -5.655404 6.262646 -1.748210 -0.168467
    13 8.073794 1.082663 -0.372470 1.568800 -3.117264 0.211033
    14 -0.048483 -8.479205 -0.092415 0.054652 0.399285 0.035797
    15 -0.488518 -2.755602 -0.228260 -0.855329 -0.005500 -0.245375
    16 0.039887 -1.546198 0.022041 -1.891765 -0.006292 0.042163
    17 0.028786 -1.153858 -0.120768 -0.959872 -0.014837 0.019894
    18 0.250027 -2.820665 -0.238396 -0.560831 -0.117709 -0.086571
    19 -0.045853 -1.598510 0.037977 -1.526314 0.140987 -0.053585
    20 -0.034142 -1.179563 0.045718 -1.334442 0.004518 -0.035199
    21 0.957766 -2.746780 -0.090302 -0.014872 -0.242718 0.317947
    22 -0.033420 -1.397129 -0.030789 -1.023289 0.072830 -0.009792
    23 -0.022360 -0.961342 -0.008561 -1.033410 0.072663 -0.010774
    24 -1.180681 -2.507217 -0.193859 -0.519852 0.255646 -0.222176
    25 -0.024967 -1.127840 0.017597 -1.700810 -0.017402 -0.065794
    26 -0.020057 -0.906594 0.033528 -1.037463 0.004806 -0.042545
    27 0.642106 -1.189464 0.185379 1.395565 -1.086699 -1.368374
    28 1.496863 -0.192885 0.036260 0.030976 -0.114716 -0.664694
    29 1.081239 -0.100945 0.016666 0.006756 -0.123276 -0.502104
    30 0.120153 -0.050270 -0.054489 0.287569 3.110905 1.561085
    31 -0.489526 -5.981283 -10.614888 -1.372318 -5.073754 -0.928283
    32 -0.008528 -8.512920 0.342208 -0.024925 -0.997710 0.072665
    33 0.682335 -2.556791 -0.262945 -1.403371 -0.057052 0.428144
    34 -0.032909 -1.499736 0.020565 -1.155787 0.022171 -0.019892
    35 -0.027022 -1.104265 -0.028023 -0.656005 0.016539 -0.008078
    36 0.008286 -2.733679 -0.287498 -1.224291 -0.096313 0.189198
    37 0.043235 -1.656596 0.072574 -1.332477 -0.021134 0.006053
    38 0.031729 -1.149111 0.058838 -0.700097 -0.007148 0.005304
    39 -0.709952 -2.804677 -0.253324 -1.005405 0.062193 -0.033347
    40 0.028479 -1.403067 -0.021074 -0.985528 -0.026150 -0.034588
    41 0.021413 -0.942156 0.012233 -0.995616 -0.026630 -0.034228
    42 1.332449 -2.168929 -0.178143 -1.451654 -0.251939 0.569780
    43 0.024032 -1.136855 -0.001725 -0.837936 0.005801 0.044440
    44 0.014898 -0.899614 -0.015942 -0.880686 0.004998 0.044535
    45 -0.645366 -1.248852 0.059532 -0.141697 -1.003780 -2.153974
    46 1.550180 0.039149 0.016848 -0.011845 -0.004570 0.632985
    47 1.114041 0.044518 -0.005766 -0.019502 -0.034630 0.745810
    48 -0.139399 -0.111698 0.014397 0.285382 -0.030687 1.580508
    49 -7.733507 3.569485 -0.438658 1.574093 -0.030922 -0.518723
  time 21
    0 4.509771 -4.719624 -2.900597 1.548231 0.028087 -1.610404
    1 4.116302 0.309474 0.579363 1.570821 -1.565877 -1.569548
    2 0.776872 -0.777959 0.000000 0.000001 0.000000 -1.828850
    3 1.657125 1.621748 -0.099206 1.570803 1.552836 -1.569519
    4 1.657129 1.619225 0.089981 1.570790 -1.588547 -1.569507
    5 4.124314 -3.447140 -0.020971 -1.570796 0.000000 0.377722
    6 -0.001059 -0.000005 0.029470 -0.000001 0.000000 -1.570797
    7 0.161901 -0.042629 2.167028 1.570796 0.008569 1.570797
    8 0.000000 0.439464 -0.149598 0.000000 0.000000 0.000000
    9 0.000001 0.360867 0.000000 0.000000 0.000000 0.000000
    10 0.998229 -17.369486 -0.003569 0.000000 0.000000 0.001279
    11 -0.002752 -0.001265 -0.003287 0.000000 0.000000 0.000000
    12 7.313949 7.189048 -5.655404 6.270601 -1.743308 -0.201799
    13 8.077701 0.973284 -0.372470 1.568992 -3.116977 0.197109
    14 -0.048483 -8.487017 -0.092415 0.103884 0.406594 0.049033
    15 -0.488518 -2.755602 -0.228260 -0.855329 -0.005500 -0.245375
    16 0.039887 -1.546198 0.022041 -1.891765 -0.006292 0.042163
    17 0.028786 -1.153858 -0.120768 -0.959872 -0.014837 0.019894
    18 0.250027 -2.820665 -0.238396 -0.560831 -0.117709 -0.086571
    19 -0.045853 -1.598510 0.037977 -1.526314 0.140987 -0.053585
    20 -0.034142 -1.179563 0.045718 -1.334442 0.004518 -0.035199
    21 0.957766 -2.746780 -0.090302 -0.014872 -0.242718 0.317947
    22 -0.033420 -1.397129 -0.030789 -1.023289 0.072830 -0.009792
    23 -0.022360 -0.961342 -0.008561 -1.033442 0.072663 -0.010774
    24 -1.180681 -2.507217 -0.193859 -0.519852 0.255646 -0.222176
    25 -0.024967 -1.127840 0.017597 -1.700810 -0.017402 -0.065794
    26 -0.020057 -0.906594 0.033528 -1.037463 0.004806 -0.042545
    27 0.642106 -1.189464 0.185379 1.395565 -1.086678 -1.368343
    28 1.496863 -0.192885 0.036260 0.030976 -0.114716 -0.664694
    29 1.081239 -0.100945 0.016666 0.006756 -0.123276 -0.502104
    30 0.120153 -0.050270 -0.054489 0.287569 3.110905 1.561085
    31 -0.509057 -5.969564 -10.622701 -1.380882 -5.081971 -0.938241
    32 -0.008528 -8.497295 0.342208 -0.067037 -0.991904 0.123996
    33 0.682335 -2.556791 -0.262945 -1.403371 -0.057052 0.428144
    34 -0.032909 -1.499736 0.020565 -1.155787 0.022171 -0.019892
    35 -0.027022 -1.104265 -0.028023 -0.656005 0.016539 -0.008078
    36 0.008286 -2.733679 -0.287498 -1.224291 -0.096313 0.189198
    37 0.043235 -1.656596 0.072574 -1.332477 -0.021134 0.006053
    38 0.031729 -1.149111 0.058838 -0.700097 -0.007148 0.005304
    39 -0.709952 -2.804677 -0.253324 -1.005405 0.062193 -0.033347
    40 0.028479 -1.403067 -0.021074 -0.985528 -0.026150 -0.034588
    41 0.021413 -0.942156 0.012233 -0.995616 -0.026630 -0.034228
    42 1.332449 -2.168929 -0.178143 -1.451654 -0.251939 0.569780
    43 0.024032 -1.136855 -0.001725 -0.837936 0.005801 0.044440
    44 0.014898 -0.899614 -0.015942 -0.880686 0.004998 0.044535
    45 -0.645366 -1.248852 0.059532 -0.141697 -1.003780 -2.153974
    46 1.550180 0.039149 0.016848 -0.011845 -0.004570 0.632985
    47 1.114041 0.044518 -0.005766 -0.019502 -0.034630 0.745810
    48 -0.139399 -0.111698 0.014397 0.285382 -0.030687 1.580508
    49 -7.768665 3.475732 -0.438658 1.573865 -0.031161 -0.506471
  time 22
    0 4.412112 -4.657122 -2.869346 1.538549 0.026650 -1.596822
    1 4.116302 0.309474 0.579363 1.570821 -1.565877 -1.569548
    2 0.776872 -0.777959 0.000000 0.000001 0.000000 -1.828850
    3 1.657125 1.621748 -0.099206 1.570803 1.552836 -1.569519
    4 1.657129 1.619225 0.089981 1.570790 -1.588547 -1.569507
    5 4.124314 -3.447140 -0.020971 -1.570796 0.000000 0.377722
    6 -0.001059 -0.000005 0.029470 -0.000001 0.000000 -1.570797
    7 0.161901 -0.042629 2.167028 1.570796 0.008569 1.570797
    8 0.000000 0.439464 -0.149598 0.000000 0.000000 0.000000
    9 0.000001 0.360867 0.000000 0.000000 0.000000 0.000000
    10 0.998229 -17.369486 -0.003569 0.000000 0.000000 0.001279
    11 -0.002752 -0.001265 -0.003287 0.000000 0.000000 0.000000
    12 7.286604 7.239831 -5.659311 -0.001600 -1.738830 -0.229996
    13 8.077701 0.879532 -0.376376 1.569088 -3.116785 0.185953
    14 -0.048483 -8.494830 -0.088509 0.138080 0.409807 0.058657
    15 -0.488518 -2.755602 -0.228260 -0.855329 -0.005500 -0.245375
    16 0.039887 -1.546198 0.022041 -1.891765 -0.006292 0.042163
    17 0.028786 -1.153858 -0.120768 -0.959872 -0.014837 0.019894
    18 0.250027 -2.820665 -0.238396 -0.560831 -0.117709 -0.086571
    19 -0.045853 -1.598510 0.037977 -1.526314 0.140987 -0.053585
    20 -0.034142 -1.179563 0.045718 -1.334442 0.004518 -0.035199
    21 0.957766 -2.746780 -0.090302 -0.014872 -0.242718 0.317947
    22 -0.033420 -1.397129 -0.030789 -1.023289 0.072830 -0.009792
    23 -0.022360 -0.961342 -0.008561 -1.033442 0.072663 -0.010774
    24 -1.180681 -2.507217 -0.193859 -0.519870 0.255646 -0.222176
    25 -0.024967 -1.127840 0.017597 -1.700810 -0.017402 -0.065794
    26 -0.020057 -0.906594 0.033528 -1.037463 0.004806 -0.042545
    27 0.642106 -1.189464 0.185379 1.395565 -1.086678 -1.368343
    28 1.496863 -0.192885 0.036260 0.030976 -0.114716 -0.664694
    29 1.081239 -0.100945 0.016666 0.006756 -0.123276 -0.502104
    30 0.120153 -0.050270 -0.054489 0.287569 3.110905 1.561085
    31 -0.516870 -5.957844 -10.630514 -1.388137 -5.089367 -0.945801
    32 -0.004622 -8.489482 0.342208 -0.094979 -0.987259 0.159444
    33 0.682335 -2.556791 -0.262945 -1.403371 -0.057052 0.428144
    34 -0.032909 -1.499736 0.020565 -1.155787 0.022171 -0.019892
    35 -0.027022 -1.104265 -0.028023 -0.656005 0.016539 -0.008078
    36 0.008286 -2.733679 -0.287498 -1.224291 -0.096313 0.189198
    37 0.043235 -1.656596 0.072574 -1.332477 -0.021134 0.006053
    38 0.031729 -1.149111 0.058838 -0.700097 -0.007148 0.005304
    39 -0.709952 -2.804677 -0.253324 -1.005405 0.062193 -0.033347
    40 0.028479 -1.403067 -0.021074 -0.985528 -0.026150 -0.034588
    41 0.021413 -0.942156 0.012233 -0.995616 -0.026630 -0.034228
    42 1.332449 -2.168929 -0.178143 -1.451654 -0.251939 0.569780
    43 0.024032 -1.136855 -0.001725 -0.837936 0.005801 0.044440
    44 0.014898 -0.899614 -0.015942 -0.880686 0.004998 0.044535
    45 -0.645366 -1.248852 0.059532 -0.141697 -1.003780 -2.153974
    46 1.550180 0.039149 0.016848 -0.011845 -0.004570 0.632985
    47 1.114041 0.044518 -0.005766 -0.019502 -0.034630 0.745810
    48 -0.139399 -0.111698 0.014397 0.285382 -0.030687 1.580508
    49 -7.796009 3.393698 -0.442564 1.573661 -0.031353 -0.495980
  time 23
    0 4.376955 -4.610246 -2.838095 1.537125 0.024160 -1.593304
    1 4.116302 0.309474 0.579363 1.570821 -1.565877 -1.569548
    2 0.776872 -0.777959 0.000000 0.000001 0.000000 -1.828850
    3 1.657125 1.621748 -0.099206 1.570803 1.552836 -1.569519
    4 1.657129 1.619225 0.089981 1.570790 -1.588547 -1.569507
    5 4.124314 -3.447140 -0.020971 -1.570796 0.000000 0.377722
    6 -0.001059 -0.000005 0.029470 -0.000001 0.000000 -1.570797
    7 0.161901 -0.042629 2.167028 1.570796 0.008569 1.570797
    8 0.000000 0.439464 -0.149598 0.000000 0.000000 0.000000
    9 0.000001 0.360867 0.000000 0.000000 0.000000 0.000000
    10 0.998229 -17.369486 -0.003569 0.000000 0.000000 0.001279
    11 -0.002752 -0.001265 -0.003287 0.000000 0.000000 0.000000
    12 7.274885 7.274989 -5.655404 0.013735 -1.735865 -0.249693
    13 8.077701 0.809217 -0.376376 1.569184 -3.116689 0.177397
    14 -0.048483 -8.498736 -0.088509 0.146692 0.407228 0.060993
    15 -0.488518 -2.755602 -0.228260 -0.855329 -0.005500 -0.245375
    16 0.039887 -1.546198 0.022041 -1.891765 -0.006292 0.042163
    17 0.028786 -1.153858 -0.120768 -0.959872 -0.014837 0.019894
    18 0.250027 -2.820665 -0.238396 -0.560831 -0.117709 -0.086571
    19 -0.045853 -1.598510 0.037977 -1.526314 0.140987 -0.053585
    20 -0.034142 -1.179563 0.045718 -1.334442 0.004518 -0.035199
    21 0.957766 -2.746780 -0.090302 -0.014872 -0.242718 0.317947
    22 -0.033420 -1.397129 -0.030789 -1.023289 0.072830 -0.009792
    23 -0.022360 -0.961342 -0.008561 -1.033442 0.072663 -0.010774
    24 -1.180681 -2.507217 -0.193859 -0.519870 0.255646 -0.222176
    25 -0.024967 -1.127840 0.017597 -1.700810 -0.017402 -0.065794
    26 -0.020057 -0.906594 0.033528 -1.037463 0.004806 -0.042545
    27 0.642106 -1.189464 0.185379 1.395565 -1.086678 -1.368343
    28 1.496863 -0.192885 0.036260 0.030976 -0.114716 -0.664694
    29 1.081239 -0.100945 0.016666 0.006756 -0.123276 -0.502104
    30 0.120153 -0.050270 -0.054489 0.287569 3.110905 1.561085
    31 -0.524683 -5.953938 -10.630514 -1.394560 -5.096147 -0.951609
    32 -0.004622 -8.485576 0.342208 -0.100791 -0.986694 0.169914
    33 0.682335 -2.556791 -0.262945 -1.403371 -0.057052 0.428144
    34 -0.032909 -1.499736 0.020565 -1.155787 0.022171 -0.019892
    35 -0.027022 -1.104265 -0.028023 -0.656005 0.016539 -0.008078
    36 0.008286 -2.733679 -0.287498 -1.224291 -0.096313 0.189198
    37 0.043235 -1.656596 0.072574 -1.332477 -0.021134 0.006053
    38 0.031729 -1.149111 0.058838 -0.700097 -0.007148 0.005304
    39 -0.709952 -2.804677 -0.253324 -1.005405 0.062193 -0.033347
    40 0.028479 -1.403067 -0.021074 -0.985528 -0.026150 -0.034588
    41 0.021413 -0.942156 0.012233 -0.995616 -0.026630 -0.034228
    42 1.332449 -2.168929 -0.178143 -1.451654 -0.251939 0.569780
    43 0.024032 -1.136855 -0.001725 -0.837936 0.005801 0.044440
    44 0.014898 -0.899614 -0.015942 -0.880686 0.004998 0.044547
    45 -0.645366 -1.248852 0.059532 -0.141697 -1.003780 -2.153974
    46 1.550180 0.039149 0.016848 -0.011845 -0.004570 0.632985
    47 1.114041 0.044518 -0.005766 -0.019502 -0.034630 0.745810
    48 -0.139399 -0.111698 0.014397 0.285382 -0.030687 1.580508
    49 -7.815541 3.331197 -0.442564 1.573493 -0.031509 -0.487709
  time 24
    0 4.345704 -4.563369 -2.802937 1.540922 0.020137 -1.594928
    1 4.116302 0.309474 0.579363 1.570821 -1.565877 -1.569548
    2 0.776872 -0.777959 0.000000 0.000001 0.000000 -1.828850
    3 1.657125 1.621748 -0.099206 1.570803 1.552836 -1.569519
    4 1.657129 1.619225 0.089981 1.570790 -1.588547 -1.569507
    5 4.124314 -3.447140 -0.020971 -1.570796 0.000000 0.377722
    6 -0.001059 -0.000005 0.029470 -0.000001 0.000000 -1.570797
    7 0.161901 -0.042629 2.167028 1.570796 0.008569 1.570797
    8 0.000000 0.439464 -0.149598 0.000000 0.000000 0.000000
    9 0.000001 0.360867 0.000000 0.000000 0.000000 0.000000
    10 0.998229 -17.369486 -0.003569 0.000000 0.000000 0.001279
    11 -0.002752 -0.001265 -0.003287 0.000000 0.000000 0.000000
    12 7.270979 7.306239 -5.655404 0.031562 -1.734654 -0.268968
    13 8.081607 0.742809 -0.376376 1.569279 -3.116498 0.169177
    14 -0.048483 -8.498736 -0.092415 0.146243 0.401412 0.061087
    15 -0.488518 -2.755602 -0.228260 -0.855329 -0.005500 -0.245375
    16 0.039887 -1.546198 0.022041 -1.891765 -0.006292 0.042163
    17 0.028786 -1.153858 -0.120768 -0.959901 -0.014837 0.019894
    18 0.250027 -2.820665 -0.238396 -0.560831 -0.117709 -0.086571
    19 -0.045853 -1.598510 0.037977 -1.526314 0.140987 -0.053597
    20 -0.034142 -1.179563 0.045718 -1.334442 0.004518 -0.035199
    21 0.957766 -2.746780 -0.090302 -0.014872 -0.242718 0.317947
    22 -0.033420 -1.397129 -0.030789 -1.023289 0.072830 -0.009792
    23 -0.022360 -0.961342 -0.008561 -1.033442 0.072663 -0.010774
    24 -1.180681 -2.507217 -0.193859 -0.519870 0.255646 -0.222176
    25 -0.024967 -1.127840 0.017597 -1.700810 -0.017402 -0.065794
    26 -0.020057 -0.906594 0.033528 -1.037463 0.004806 -0.042545
    27 0.642106 -1.189464 0.185379 1.395565 -1.086699 -1.368343
    28 1.496863 -0.192885 0.036260 0.030976 -0.114716 -0.664694
    29 1.081239 -0.100945 0.016666 0.006756 -0.123276 -0.502104
    30 0.120153 -0.050270 -0.054489 0.287569 3.110905 1.561085
    31 -0.536402 -5.946125 -10.630514 -1.402351 -5.104433 -0.959999
    32 -0.008528 -8.485576 0.342208 -0.098283 -0.989522 0.171112
    33 0.682335 -2.556791 -0.262945 -1.403371 -0.057052 0.428144
    34 -0.032909 -1.499736 0.020565 -1.155787 0.022171 -0.019892
    35 -0.027022 -1.104265 -0.028023 -0.656005 0.016539 -0.008078
    36 0.008286 -2.733679 -0.287498 -1.224291 -0.096313 0.189198
    37 0.043235 -1.656596 0.072574 -1.332477 -0.021134 0.006053
    38 0.031729 -1.149111 0.058838 -0.700097 -0.007148 0.005304
    39 -0.709952 -2.804677 -0.253324 -1.005405 0.062193 -0.033347
    40 0.028479 -1.403067 -0.021074 -0.985528 -0.026150 -0.034588
    41 0.021413 -0.942156 0.012233 -0.995616 -0.026630 -0.034228
    42 1.332449 -2.168929 -0.178143 -1.451654 -0.251939 0.569780
    43 0.024032 -1.136855 -0.001725 -0.837936 0.005801 0.044440
    44 0.014898 -0.899614 -0.015942 -0.880686 0.004998 0.044535
    45 -0.645366 -1.248852 0.059532 -0.141697 -1.003780 -2.153974
    46 1.550180 0.039149 0.016848 -0.011845 -0.004570 0.632985
    47 1.114041 0.044518 -0.005766 -0.019502 -0.034630 0.745810
    48 -0.139399 -0.111698 0.014397 0.285382 -0.030687 1.580508
    49 -7.846792 3.245256 -0.442564 1.573290 -0.031713 -0.476682
  time 25
    0 4.314453 -4.516493 -2.767780 1.544624 0.016114 -1.596605
    1 4.116302 0.309474 0.579363 1.570821 -1.565877 -1.569548
    2 0.776872 -0.777959 0.000000 0.000001 0.000000 -1.828850
    3 1.657125 1.621748 -0.099206 1.570803 1.552836 -1.569519
    4 1.657129 1.619225 0.089981 1.570790 -1.588547 -1.569507
    5 4.124314 -3.447140 -0.020971 -1.570796 0.000000 0.377722
    6 -0.001059 -0.000005 0.029470 -0.000001 0.000000 -1.570797
    7 0.161901 -0.042629 2.167028 1.570796 0.008569 1.570797
    8 0.000000 0.439464 -0.149598 0.000000 0.000000 0.000000
    9 0.000001 0.360867 0.000000 0.000000 0.000000 0.000000
    10 0.998229 -17.369486 -0.003569 0.000000 0.000000 0.001279
    11 -0.002752 -0.001265 -0.003287 0.000000 0.000000 0.000000
    12 7.270979 7.337490 -5.651498 0.049676 -1.733505 -0.288496
    13 8.081607 0.676400 -0.376376 1.569375 -3.116402 0.161040
    14 -0.048483 -8.498736 -0.092415 0.145767 0.395597 0.061149
    15 -0.488518 -2.755602 -0.228260 -0.855329 -0.005500 -0.245375
    16 0.039887 -1.546198 0.022041 -1.891765 -0.006292 0.042163
    17 0.028786 -1.153858 -0.120768 -0.959872 -0.014837 0.019894
    18 0.250027 -2.820665 -0.238396 -0.560831 -0.117709 -0.086571
    19 -0.045853 -1.598510 0.037977 -1.526314 0.140987 -0.053597
    20 -0.034142 -1.179563 0.045718 -1.334442 0.004518 -0.035199
    21 0.957766 -2.746780 -0.090302 -0.014872 -0.242718 0.317947
    22 -0.033420 -1.397129 -0.030789 -1.023289 0.072830 -0.009792
    23 -0.022360 -0.961342 -0.008561 -1.033442 0.072663 -0.010774
    24 -1.180681 -2.507217 -0.193859 -0.519870 0.255646 -0.222176
    25 -0.024967 -1.127840 0.017597 -1.700810 -0.017402 -0.065794
    26 -0.020057 -0.906594 0.033528 -1.037463 0.004806 -0.042545
    27 0.642106 -1.189464 0.185379 1.395565 -1.086699 -1.368343
    28 1.496863 -0.192885 0.036260 0.030976 -0.114716 -0.664694
    29 1.081239 -0.100945 0.016666 0.006756 -0.123276 -0.502104
    30 0.120153 -0.050270 -0.054489 0.287569 3.110905 1.561085
    31 -0.548121 -5.938313 -10.634420 -1.409785 -5.112719 -0.968021
    32 -0.008528 -8.489482 0.342208 -0.095735 -0.992380 0.172265
    33 0.682335 -2.556791 -0.262945 -1.403371 -0.057052 0.428144
    34 -0.032909 -1.499736 0.020565 -1.155787 0.022171 -0.019892
    35 -0.027022 -1.104265 -0.028023 -0.656005 0.016539 -0.008078
    36 0.008286 -2.733679 -0.287498 -1.224291 -0.096313 0.189198
    37 0.043235 -1.656596 0.072574 -1.332477 -0.021134 0.006053
    38 0.031729 -1.149111 0.058838 -0.700097 -0.007148 0.005304
    39 -0.709952 -2.804677 -0.253324 -1.005405 0.062193 -0.033347
    40 0.028479 -1.403067 -0.021074 -0.985528 -0.026150 -0.034588
    41 0.021413 -0.942156 0.012233 -0.995616 -0.026630 -0.034228
    42 1.332449 -2.168929 -0.178143 -1.451654 -0.251939 0.569780
    43 0.024032 -1.136855 -0.001725 -0.837936 0.005801 0.044440
    44 0.014898 -0.899614 -0.015942 -0.880686 0.004998 0.044535
    45 -0.645366 -1.248852 0.059532 -0.141697 -1.003780 -2.153974
    46 1.550180 0.039149 0.016848 -0.011845 -0.004570 0.632985
    47 1.114041 0.044518 -0.005766 -0.019502 -0.034630 0.745810
    48 -0.139399 -0.111698 0.014397 0.285382 -0.030687 1.580508
    49 -7.874137 3.159316 -0.446471 1.573074 -0.031904 -0.465731
end
