version 1
nodes
  0 "root" -1
  1 "Bone01" 0
  2 "Bone_L_Upper" 1
  3 "Bone_Lefthand" 1
  4 "Bone13" 3
  5 "Bone14" 4
  6 "Bone15" 5
  7 "Bone17" 3
  8 "Bone18" 7
  9 "Bone19" 8
  10 "Bone21" 3
  11 "Bone22" 10
  12 "Bone23" 11
  13 "Bone09" 3
  14 "Bone10" 13
  15 "Bone11" 14
  16 "Bone05" 3
  17 "Bone06" 16
  18 "Bone07" 17
  19 "Bone_Se_Hand-L" 3
  20 "Bone04" 0
  21 "Bone_Righthand" 20
  22 "Bone39" 21
  23 "Bone40" 22
  24 "Bone41" 23
  25 "Bone35" 21
  26 "Bone36" 25
  27 "Bone37" 26
  28 "Bone31" 21
  29 "Bone32" 28
  30 "Bone33" 29
  31 "Bone43" 21
  32 "Bone44" 31
  33 "Bone45" 32
  34 "Bone27" 21
  35 "Bone28" 34
  36 "Bone29" 35
  37 "Bone_Se_Hand-R" 21
  38 "Bone_R_Upper" 20
  39 "grenade_root" -1
  40 "on_off" 39
  41 "Plane002" 39
  42 "Plane001" 39
  43 "Plane003" 39
  44 "effect_point" 39
  45 "spin017" 44
  46 "spin005" 44
  47 "spin011" 44
  48 "spin001" 44
  49 "spin002" 44
  50 "spin003" 44
  51 "spin004" 44
  52 "spin012" 44
  53 "spin006" 44
  54 "spin007" 44
  55 "spin008" 44
  56 "spin009" 44
  57 "spin010" 44
  58 "spin013" 44
  59 "spin014" 44
  60 "spin015" 44
  61 "spin016" 44
  62 "white_ef001" 39
  63 "effect_point001" 39
  64 "spin018" 63
  65 "spin019" 63
  66 "spin020" 63
  67 "spin021" 63
  68 "spin022" 63
  69 "spin023" 63
  70 "spin024" 63
  71 "spin025" 63
  72 "spin026" 63
  73 "spin027" 63
  74 "spin028" 63
  75 "spin029" 63
  76 "spin030" 63
  77 "spin031" 63
  78 "spin032" 63
  79 "spin033" 63
  80 "spin034" 63
  81 "effect_point002" 39
  82 "spin035" 81
  83 "spin036" 81
  84 "spin037" 81
  85 "spin038" 81
  86 "spin039" 81
  87 "spin040" 81
  88 "spin041" 81
  89 "spin042" 81
  90 "spin043" 81
  91 "spin044" 81
  92 "spin045" 81
  93 "spin046" 81
  94 "spin047" 81
  95 "spin048" 81
  96 "spin049" 81
  97 "spin050" 81
  98 "spin051" 81
end
skeleton
  time 0
    0 -0.002752 -0.001265 -0.003287 0.000000 0.000000 0.000000
    1 5.817809 -2.744848 -8.784406 1.387566 -2.508659 -1.147900
    2 7.132359 -3.019025 -0.817796 -1.547192 -0.084903 -3.453545
    3 -0.040670 -8.479205 -0.084602 0.068371 0.521720 0.010996
    4 -0.488518 -2.755602 -0.228260 -0.764902 0.211985 -0.485186
    5 0.039887 -1.487603 0.022041 -0.405219 -0.007263 0.005861
    6 0.028786 -1.138233 -0.112955 -0.854577 -0.014238 0.017138
    7 0.250027 -2.820665 -0.238396 -0.461772 0.070784 -0.234724
    8 -0.049759 -1.641480 0.096573 -0.504449 0.007742 -0.013137
    9 -0.034142 -1.175657 0.045718 -1.245702 0.005705 -0.032874
    10 0.957766 -2.746780 -0.090302 -0.317632 -0.068965 0.125199
    11 -0.033420 -1.393223 -0.022976 -0.662317 0.008197 -0.032491
    12 -0.022360 -0.957436 -0.004654 -0.852171 0.005992 -0.041503
    13 -1.180681 -2.507217 -0.193859 -0.717175 0.141421 -0.649630
    14 -0.024967 -1.123934 0.017597 -0.785798 0.006747 -0.033508
    15 -0.020057 -0.906594 0.029622 -0.916990 0.006508 -0.037320
    16 0.591323 -1.220715 0.228349 -0.586160 -0.537679 0.139527
    17 1.508582 -0.157728 -0.041867 -0.529424 0.083101 -0.507942
    18 1.030456 -0.163447 0.036197 0.058733 -0.214215 -0.886425
    19 0.120153 -0.050270 -0.054489 0.287569 3.110905 1.561085
    20 -6.786593 1.069714 -10.907866 1.833052 -6.070803 1.446177
    21 0.089131 -8.411355 -0.017178 -0.188034 -0.310059 0.127731
    22 0.447953 -2.798986 -0.200443 -0.470951 0.004765 0.259329
    23 -0.032909 -1.499736 0.036191 -1.696577 0.022459 -0.035113
    24 -0.027022 -1.115984 -0.028023 -0.968920 0.021776 -0.015256
    25 -0.249534 -2.846964 -0.174213 -0.535645 -0.010731 -0.008815
    26 0.043235 -1.656596 0.060855 -1.621351 -0.023843 0.011063
    27 0.031729 -1.145205 0.058838 -1.011245 -0.011127 0.005747
    28 -0.963866 -2.785145 -0.085350 -0.597967 0.150963 -0.214962
    29 0.028479 -1.418692 -0.032793 -1.625200 -0.054446 -0.037548
    30 0.021413 -0.942156 0.012233 -0.966033 -0.025407 -0.033677
    31 1.164475 -2.543940 -0.170330 -0.494244 -0.015667 0.509806
    32 0.024032 -1.160293 -0.009538 -1.656197 0.042186 0.070530
    33 0.014898 -0.903521 -0.015942 -1.030433 0.009720 0.051498
    34 -0.586770 -1.264477 0.200161 -0.164712 -0.837998 -2.053137
    35 1.604869 0.046962 0.016848 -0.038115 -0.003958 1.593801
    36 1.114041 0.040611 -0.005766 -0.028826 -0.034354 1.037033
    37 -0.139399 -0.111698 0.014397 0.285382 -0.030687 1.580508
    38 -1.393470 8.839177 -0.239433 1.580804 -0.005023 -1.566847
    39 4.548531 -8.834083 0.757720 -0.868223 2.797620 0.374816
    40 0.000000 1.335178 1.093263 1.570796 -2.464094 -1.570796
    41 0.046081 1.962502 0.099858 -1.271115 0.016162 0.017475
    42 0.017985 1.955458 1.597920 -0.845657 -0.127387 -0.003041
    43 0.024373 -0.077284 1.882302 -0.077197 0.005999 0.018585
    44 0.000000 0.000002 0.000000 0.000000 0.000000 0.000000
    45 -0.736999 1.320998 -1.736997 -2.276472 -0.864677 -1.070424
    46 0.787998 2.163996 -0.007000 -1.564710 0.015165 1.199428
    47 -1.735997 1.320998 0.736998 -0.227880 0.322725 -0.649708
    48 0.899998 0.000000 2.119996 -0.006888 -1.156452 -0.009217
    49 -0.862998 0.000000 2.134996 3.134705 1.156453 -0.009218
    50 -0.706999 -1.320998 1.748997 -2.228472 0.848629 1.031323
    51 0.736999 -1.320998 1.735997 0.915953 -0.848629 -1.031324
    52 1.748997 1.320997 0.706999 -0.227910 -0.323112 0.649802
    53 -0.787999 2.159997 0.006999 1.570214 -0.032553 -1.210021
    54 -1.735997 -1.320998 0.737000 -2.898748 0.324278 0.642881
    55 1.748997 -1.320999 0.706968 0.242845 -0.324277 -0.642882
    56 -2.119996 0.000000 0.899999 3.128335 0.397588 0.012113
    57 2.134996 0.000000 0.862998 -0.013257 -0.397588 -0.012113
    58 -1.748996 1.321061 -0.706999 0.353152 -0.368967 -0.657260
    59 -2.134996 0.000000 -0.862998 3.128335 -0.386198 0.012113
    60 1.735997 1.320997 -0.736999 0.235539 0.327481 0.661602
    61 0.706999 1.320997 -1.749998 0.865120 0.864677 1.070424
    62 -3.218778 2.976733 18.321862 -1.505339 -1.990385 0.729104
    63 0.000002 -0.000041 19.775605 0.000000 0.000000 0.000000
    64 0.707000 1.321000 -1.750000 -2.040807 0.864677 1.070424
    65 -0.737000 1.320999 -1.737000 0.629462 -0.864677 -1.070425
    66 0.788000 2.164001 -0.007000 -4.470637 0.015165 1.199428
    67 -1.736000 1.321000 0.736999 2.678054 0.322725 -0.649708
    68 0.900001 0.000000 2.120000 -2.912815 -1.156452 -0.009217
    69 -0.863000 0.000001 2.134999 6.040639 1.156452 -0.009218
    70 -0.707000 -1.321000 1.749000 0.677463 0.848629 1.031323
    71 0.737000 -1.321000 1.736000 -1.989974 -0.848629 -1.031324
    72 1.749001 1.321000 0.707000 -3.133844 -0.323112 0.649802
    73 -0.788000 2.160001 0.006999 4.476141 -0.032553 -1.210021
    74 -1.735999 -1.321000 0.737000 0.007179 0.324278 0.642881
    75 1.749001 -1.321000 0.706970 -2.663082 -0.324277 -0.642882
    76 -2.120000 0.000000 0.900000 6.034269 0.397588 0.012113
    77 2.135000 0.000000 0.863000 -2.919184 -0.397588 -0.012113
    78 -1.749000 1.321063 -0.707000 3.259079 -0.368967 -0.657260
    79 -2.135000 0.000000 -0.863000 6.034269 -0.386198 0.012113
    80 1.736000 1.321000 -0.737000 -2.670388 0.327481 0.661602
    81 15.957518 2.546955 26.489089 0.000000 0.000000 0.000000
    82 2.135000 0.000000 0.863000 -2.919191 -0.397588 -0.012113
    83 0.707000 1.321000 -1.749999 -2.040807 0.864677 1.070424
    84 -0.737000 1.321000 -1.737000 0.629462 -0.864677 -1.070425
    85 0.788000 2.164000 -0.007000 -4.470637 0.015165 1.199428
    86 -1.736000 1.321000 0.736999 2.678054 0.322725 -0.649708
    87 0.900000 0.000000 2.120000 -2.912815 -1.156452 -0.009217
    88 -0.863000 0.000000 2.135000 6.040632 1.156453 -0.009218
    89 -0.707000 -1.321000 1.749000 0.677463 0.848629 1.031323
    90 0.737000 -1.321001 1.736000 -1.989974 -0.848629 -1.031324
    91 1.749000 1.321000 0.707000 -3.133844 -0.323112 0.649802
    92 -0.788000 2.160000 0.007000 4.476141 -0.032553 -1.210021
    93 -1.736000 -1.321000 0.737001 0.007179 0.324278 0.642881
    94 1.749001 -1.321000 0.706971 -2.663082 -0.324277 -0.642882
    95 -2.119999 0.000000 0.900000 6.034269 0.397588 0.012113
    96 -1.749000 1.321064 -0.707000 3.259079 -0.368967 -0.657260
    97 -2.135000 0.000000 -0.863000 6.034262 -0.386198 0.012113
    98 1.736000 1.320999 -0.737000 -2.670388 0.327481 0.661602
  time 1
    0 -0.002752 -0.001265 -0.003287 0.000000 0.000000 0.000000
    1 5.802184 -2.787819 -8.764874 1.390053 -2.510864 -1.155603
    2 7.151891 -2.983868 -0.821702 -1.547575 -0.084903 -3.448402
    3 -0.040670 -8.479205 -0.084602 0.068371 0.521720 0.010996
    4 -0.488518 -2.755602 -0.228260 -0.764902 0.211985 -0.485186
    5 0.039887 -1.487603 0.022041 -0.405219 -0.007263 0.005861
    6 0.028786 -1.138233 -0.112955 -0.854577 -0.014238 0.017138
    7 0.250027 -2.820665 -0.238396 -0.461772 0.070784 -0.234724
    8 -0.049759 -1.641480 0.096573 -0.504449 0.007742 -0.013137
    9 -0.034142 -1.175657 0.045718 -1.245702 0.005705 -0.032874
    10 0.957766 -2.746780 -0.090302 -0.557900 -0.067179 0.113143
    11 -0.033420 -1.397129 -0.015163 -0.335596 0.007011 -0.016108
    12 -0.022360 -0.957436 -0.004654 -0.852171 0.005992 -0.041503
    13 -1.180681 -2.507217 -0.193859 -0.717175 0.141421 -0.649630
    14 -0.024967 -1.123934 0.017597 -0.785798 0.006747 -0.033508
    15 -0.020057 -0.906594 0.029622 -0.916990 0.006508 -0.037320
    16 0.599135 -1.220715 0.232255 -0.645361 -0.458111 0.236924
    17 1.524208 -0.142102 0.032354 -0.401737 -0.150131 -0.447893
    18 1.030456 -0.163447 0.036197 0.058733 -0.214215 -0.886425
    19 0.120153 -0.050270 -0.054489 0.287569 3.110905 1.561085
    20 -6.786593 1.069714 -10.907866 1.833052 -6.070803 1.446177
    21 0.089131 -8.411355 -0.017178 -0.188034 -0.310059 0.127731
    22 0.447953 -2.798986 -0.200443 -0.470951 0.004765 0.259329
    23 -0.032909 -1.499736 0.036191 -1.696577 0.022459 -0.035113
    24 -0.027022 -1.115984 -0.028023 -0.968920 0.021776 -0.015256
    25 -0.249534 -2.846964 -0.174213 -0.535645 -0.010731 -0.008815
    26 0.043235 -1.656596 0.060855 -1.621351 -0.023843 0.011063
    27 0.031729 -1.145205 0.058838 -1.011245 -0.011127 0.005747
    28 -0.963866 -2.785145 -0.085350 -0.597967 0.150963 -0.214962
    29 0.028479 -1.418692 -0.032793 -1.625200 -0.054446 -0.037548
    30 0.021413 -0.942156 0.012233 -0.966033 -0.025407 -0.033677
    31 1.164475 -2.543940 -0.170330 -0.494244 -0.015667 0.509806
    32 0.024032 -1.160293 -0.009538 -1.656197 0.042186 0.070530
    33 0.014898 -0.903521 -0.015942 -1.030433 0.009720 0.051498
    34 -0.586770 -1.264477 0.200161 -0.164712 -0.837998 -2.053137
    35 1.604869 0.046962 0.016848 -0.038115 -0.003958 1.593801
    36 1.114041 0.040611 -0.005766 -0.028826 -0.034354 1.037033
    37 -0.139399 -0.111698 0.014397 0.285382 -0.030687 1.580508
    38 -1.393470 8.839177 -0.239433 1.580804 -0.005023 -1.566847
    39 4.505561 -8.834083 0.847567 -0.758360 2.777910 0.349364
    40 0.000000 1.335178 1.093263 1.570796 -2.464094 -1.570796
    41 0.046081 1.962502 0.099858 -1.271115 0.016162 0.017475
    42 0.017985 1.955458 1.597920 -0.845657 -0.127387 -0.003041
    43 0.024373 -0.077284 1.882302 -0.077197 0.005999 0.018585
    44 0.000000 0.000002 0.000000 0.000000 0.000000 0.000000
    45 -0.736999 1.320998 -1.736997 -2.197951 -0.864677 -1.070424
    46 0.787998 2.163996 -0.007000 -1.643233 0.015165 1.199428
    47 -1.735997 1.320998 0.736998 -0.149359 0.322725 -0.649708
    48 0.899998 0.000000 2.119996 -0.085409 -1.156452 -0.009217
    49 -0.862998 0.000000 2.134996 3.213226 1.156453 -0.009218
    50 -0.706999 -1.320998 1.748997 -2.149951 0.848629 1.031323
    51 0.736999 -1.320998 1.735997 0.837430 -0.848629 -1.031324
    52 1.748997 1.320997 0.706999 -0.306431 -0.323112 0.649802
    53 -0.787999 2.159997 0.006999 1.648737 -0.032553 -1.210021
    54 -1.735997 -1.320998 0.737000 -2.820227 0.324278 0.642881
    55 1.748997 -1.320999 0.706968 0.164322 -0.324277 -0.642882
    56 -2.119996 0.000000 0.899999 3.206856 0.397588 0.012113
    57 2.134996 0.000000 0.862998 -0.091780 -0.397588 -0.012113
    58 -1.748996 1.321061 -0.706999 0.431675 -0.368967 -0.657260
    59 -2.134996 0.000000 -0.862998 3.206856 -0.386198 0.012113
    60 1.735997 1.320997 -0.736999 0.157016 0.327481 0.661602
    61 0.706999 1.320997 -1.749998 0.786597 0.864677 1.070424
    62 -3.218778 2.976733 18.321862 -1.505339 -1.916195 0.729104
    63 0.000002 -0.000041 19.775605 0.000000 0.000000 0.000000
    64 0.707000 1.321000 -1.750000 -2.040807 0.864677 1.070424
    65 -0.737000 1.320999 -1.737000 0.629462 -0.864677 -1.070425
    66 0.788000 2.164001 -0.007000 -4.470637 0.015165 1.199428
    67 -1.736000 1.321000 0.736999 2.678054 0.322725 -0.649708
    68 0.900001 0.000000 2.120000 -2.912815 -1.156452 -0.009217
    69 -0.863000 0.000001 2.134999 6.040639 1.156452 -0.009218
    70 -0.707000 -1.321000 1.749000 0.677463 0.848629 1.031323
    71 0.737000 -1.321000 1.736000 -1.989974 -0.848629 -1.031324
    72 1.749001 1.321000 0.707000 -3.133844 -0.323112 0.649802
    73 -0.788000 2.160001 0.006999 4.476141 -0.032553 -1.210021
    74 -1.735999 -1.321000 0.737000 0.007179 0.324278 0.642881
    75 1.749001 -1.321000 0.706970 -2.663082 -0.324277 -0.642882
    76 -2.120000 0.000000 0.900000 6.034269 0.397588 0.012113
    77 2.135000 0.000000 0.863000 -2.919184 -0.397588 -0.012113
    78 -1.749000 1.321063 -0.707000 3.259079 -0.368967 -0.657260
    79 -2.135000 0.000000 -0.863000 6.034269 -0.386198 0.012113
    80 1.736000 1.321000 -0.737000 -2.670388 0.327481 0.661602
    81 15.957518 2.546955 26.489089 0.000000 0.000000 0.000000
    82 2.135000 0.000000 0.863000 -2.919191 -0.397588 -0.012113
    83 0.707000 1.321000 -1.749999 -2.040807 0.864677 1.070424
    84 -0.737000 1.321000 -1.737000 0.629462 -0.864677 -1.070425
    85 0.788000 2.164000 -0.007000 -4.470637 0.015165 1.199428
    86 -1.736000 1.321000 0.736999 2.678054 0.322725 -0.649708
    87 0.900000 0.000000 2.120000 -2.912815 -1.156452 -0.009217
    88 -0.863000 0.000000 2.135000 6.040632 1.156453 -0.009218
    89 -0.707000 -1.321000 1.749000 0.677463 0.848629 1.031323
    90 0.737000 -1.321001 1.736000 -1.989974 -0.848629 -1.031324
    91 1.749000 1.321000 0.707000 -3.133844 -0.323112 0.649802
    92 -0.788000 2.160000 0.007000 4.476141 -0.032553 -1.210021
    93 -1.736000 -1.321000 0.737001 0.007179 0.324278 0.642881
    94 1.749001 -1.321000 0.706971 -2.663082 -0.324277 -0.642882
    95 -2.119999 0.000000 0.900000 6.034269 0.397588 0.012113
    96 -1.749000 1.321064 -0.707000 3.259079 -0.368967 -0.657260
    97 -2.135000 0.000000 -0.863000 6.034262 -0.386198 0.012113
    98 1.736000 1.320999 -0.737000 -2.670388 0.327481 0.661602
  time 2
    0 -0.002752 -0.001265 -0.003287 0.000000 0.000000 0.000000
    1 5.544363 -2.846414 -8.757061 1.440373 -2.536167 -1.220638
    2 7.038606 -3.194811 -0.813889 -1.545373 -0.084617 -3.477777
    3 -0.048483 -8.483111 -0.084602 0.156723 0.470270 -0.083930
    4 -0.488518 -2.755602 -0.228260 -0.764992 0.211985 -0.485186
    5 0.039887 -1.487603 0.022041 -0.405304 -0.007263 0.005861
    6 0.028786 -1.138233 -0.112955 -0.854686 -0.014238 0.017138
    7 0.250027 -2.820665 -0.238396 -0.461866 0.070784 -0.234724
    8 -0.049759 -1.641480 0.096573 -0.504556 0.007742 -0.013137
    9 -0.034142 -1.175657 0.045718 -1.245781 0.005705 -0.032874
    10 0.957766 -2.746780 -0.090302 -0.576647 -0.097177 0.212783
    11 -0.033420 -1.397129 -0.015163 -0.308479 0.006675 -0.014778
    12 -0.022360 -0.957436 0.003159 -0.551527 0.008018 -0.026510
    13 -1.180681 -2.507217 -0.193859 -0.717257 0.141421 -0.649630
    14 -0.024967 -1.123934 0.017597 -0.785866 0.006747 -0.033508
    15 -0.020057 -0.906594 0.029622 -0.917075 0.006508 -0.037320
    16 0.603042 -1.220715 0.243975 -0.720672 -0.188781 0.345393
    17 1.512489 -0.165541 0.012822 -0.455726 -0.103043 -0.521198
    18 1.049988 -0.147821 0.032291 0.040936 -0.191396 -0.780134
    19 0.120153 -0.050270 -0.054489 0.287569 3.110905 1.561085
    20 -6.786593 1.069714 -10.907866 1.833052 -6.070803 1.446177
    21 0.089131 -8.411355 -0.017178 -0.188034 -0.310059 0.127731
    22 0.447953 -2.798986 -0.200443 -0.470951 0.004765 0.259329
    23 -0.032909 -1.499736 0.036191 -1.696577 0.022459 -0.035113
    24 -0.027022 -1.115984 -0.028023 -0.968920 0.021776 -0.015256
    25 -0.249534 -2.846964 -0.174213 -0.535645 -0.010731 -0.008815
    26 0.043235 -1.656596 0.060855 -1.621351 -0.023843 0.011063
    27 0.031729 -1.145205 0.058838 -1.011245 -0.011127 0.005747
    28 -0.963866 -2.785145 -0.085350 -0.597967 0.150963 -0.214962
    29 0.028479 -1.418692 -0.032793 -1.625200 -0.054446 -0.037548
    30 0.021413 -0.942156 0.012233 -0.966033 -0.025407 -0.033677
    31 1.164475 -2.543940 -0.170330 -0.494244 -0.015667 0.509806
    32 0.024032 -1.160293 -0.009538 -1.656197 0.042186 0.070530
    33 0.014898 -0.903521 -0.015942 -1.030433 0.009720 0.051498
    34 -0.586770 -1.264477 0.200161 -0.164712 -0.837998 -2.053137
    35 1.604869 0.046962 0.016848 -0.038115 -0.003958 1.593801
    36 1.114041 0.040611 -0.005766 -0.028826 -0.034354 1.037033
    37 -0.139399 -0.111698 0.014397 0.285382 -0.030687 1.580508
    38 -1.393470 8.839177 -0.239433 1.580804 -0.005023 -1.566847
    39 4.634471 -8.982525 1.230391 -0.665278 2.798498 0.326812
    40 0.000000 1.335178 1.093263 1.570796 -2.464094 -1.570796
    41 0.046081 1.962502 0.099858 -1.271115 0.016162 0.017475
    42 0.017985 1.955458 1.597920 -0.845657 -0.127387 -0.003041
    43 0.024373 -0.077284 1.882302 -0.077197 0.005999 0.018585
    44 0.000000 0.000002 0.000000 0.000000 0.000000 0.000000
    45 -0.736999 1.320998 -1.736997 -2.119431 -0.864677 -1.070424
    46 0.787998 2.163996 -0.007000 -1.721756 0.015165 1.199428
    47 -1.735997 1.320998 0.736998 -0.070839 0.322725 -0.649708
    48 0.899998 0.000000 2.119996 -0.163929 -1.156452 -0.009217
    49 -0.862998 0.000000 2.134996 3.291746 1.156453 -0.009218
    50 -0.706999 -1.320998 1.748997 -2.071431 0.848629 1.031323
    51 0.736999 -1.320998 1.735997 0.758907 -0.848629 -1.031324
    52 1.748997 1.320997 0.706999 -0.384951 -0.323112 0.649802
    53 -0.787999 2.159997 0.006999 1.727260 -0.032553 -1.210021
    54 -1.735997 -1.320998 0.737000 -2.741707 0.324278 0.642881
    55 1.748997 -1.320999 0.706968 0.085799 -0.324277 -0.642882
    56 -2.119996 0.000000 0.899999 3.285376 0.397588 0.012113
    57 2.134996 0.000000 0.862998 -0.170303 -0.397588 -0.012113
    58 -1.748996 1.321061 -0.706999 0.510198 -0.368967 -0.657260
    59 -2.134996 0.000000 -0.862998 3.285376 -0.386198 0.012113
    60 1.735997 1.320997 -0.736999 0.078493 0.327481 0.661602
    61 0.706999 1.320997 -1.749998 0.708074 0.864677 1.070424
    62 -3.218778 2.976733 18.321862 -1.505339 -1.842100 0.729104
    63 0.000002 -0.000041 19.775605 0.000000 0.000000 0.000000
    64 0.707000 1.321000 -1.750000 -2.040807 0.864677 1.070424
    65 -0.737000 1.320999 -1.737000 0.629462 -0.864677 -1.070425
    66 0.788000 2.164001 -0.007000 -4.470637 0.015165 1.199428
    67 -1.736000 1.321000 0.736999 2.678054 0.322725 -0.649708
    68 0.900001 0.000000 2.120000 -2.912815 -1.156452 -0.009217
    69 -0.863000 0.000001 2.134999 6.040639 1.156452 -0.009218
    70 -0.707000 -1.321000 1.749000 0.677463 0.848629 1.031323
    71 0.737000 -1.321000 1.736000 -1.989974 -0.848629 -1.031324
    72 1.749001 1.321000 0.707000 -3.133844 -0.323112 0.649802
    73 -0.788000 2.160001 0.006999 4.476141 -0.032553 -1.210021
    74 -1.735999 -1.321000 0.737000 0.007179 0.324278 0.642881
    75 1.749001 -1.321000 0.706970 -2.663082 -0.324277 -0.642882
    76 -2.120000 0.000000 0.900000 6.034269 0.397588 0.012113
    77 2.135000 0.000000 0.863000 -2.919184 -0.397588 -0.012113
    78 -1.749000 1.321063 -0.707000 3.259079 -0.368967 -0.657260
    79 -2.135000 0.000000 -0.863000 6.034269 -0.386198 0.012113
    80 1.736000 1.321000 -0.737000 -2.670388 0.327481 0.661602
    81 15.957518 2.546955 26.489089 0.000000 0.000000 0.000000
    82 2.135000 0.000000 0.863000 -2.919191 -0.397588 -0.012113
    83 0.707000 1.321000 -1.749999 -2.040807 0.864677 1.070424
    84 -0.737000 1.321000 -1.737000 0.629462 -0.864677 -1.070425
    85 0.788000 2.164000 -0.007000 -4.470637 0.015165 1.199428
    86 -1.736000 1.321000 0.736999 2.678054 0.322725 -0.649708
    87 0.900000 0.000000 2.120000 -2.912815 -1.156452 -0.009217
    88 -0.863000 0.000000 2.135000 6.040632 1.156453 -0.009218
    89 -0.707000 -1.321000 1.749000 0.677463 0.848629 1.031323
    90 0.737000 -1.321001 1.736000 -1.989974 -0.848629 -1.031324
    91 1.749000 1.321000 0.707000 -3.133844 -0.323112 0.649802
    92 -0.788000 2.160000 0.007000 4.476141 -0.032553 -1.210021
    93 -1.736000 -1.321000 0.737001 0.007179 0.324278 0.642881
    94 1.749001 -1.321000 0.706971 -2.663082 -0.324277 -0.642882
    95 -2.119999 0.000000 0.900000 6.034269 0.397588 0.012113
    96 -1.749000 1.321064 -0.707000 3.259079 -0.368967 -0.657260
    97 -2.135000 0.000000 -0.863000 6.034262 -0.386198 0.012113
    98 1.736000 1.320999 -0.737000 -2.670388 0.327481 0.661602
  time 3
    0 -0.002752 -0.001265 -0.003287 0.000000 0.000000 0.000000
    1 5.313888 -2.862040 -8.757061 1.481605 -2.556582 -1.276674
    2 6.929228 -3.390130 -0.809983 -1.543457 -0.084331 -3.505322
    3 -0.056296 -8.487017 -0.088509 0.239940 0.432630 -0.169462
    4 -0.488518 -2.755602 -0.228260 -0.764902 0.211985 -0.485186
    5 0.039887 -1.487603 0.022041 -0.405219 -0.007263 0.005861
    6 0.028786 -1.138233 -0.112955 -0.854577 -0.014238 0.017138
    7 0.250027 -2.820665 -0.238396 -0.461772 0.070784 -0.234724
    8 -0.049759 -1.641480 0.096573 -0.504449 0.007742 -0.013137
    9 -0.034142 -1.175657 0.045718 -1.245702 0.005705 -0.032874
    10 0.957766 -2.746780 -0.090302 -0.546242 -0.129295 0.289820
    11 -0.033420 -1.397129 -0.015163 -0.335596 0.007011 -0.016108
    12 -0.022360 -0.957436 0.010971 -0.291627 0.006112 -0.013555
    13 -1.180681 -2.507217 -0.193859 -0.717175 0.141421 -0.649630
    14 -0.024967 -1.123934 0.017597 -0.785798 0.006747 -0.033508
    15 -0.020057 -0.906594 0.029622 -0.916990 0.006508 -0.037320
    16 0.610855 -1.220715 0.251787 -0.755677 0.038156 0.420324
    17 1.496863 -0.192885 -0.006710 -0.539950 -0.029889 -0.616854
    18 1.065614 -0.128290 0.024478 0.023570 -0.162753 -0.657802
    19 0.120153 -0.050270 -0.054489 0.287569 3.110905 1.561085
    20 -6.786593 1.069714 -10.907866 1.833052 -6.070803 1.446177
    21 0.089131 -8.411355 -0.017178 -0.188034 -0.310059 0.127731
    22 0.447953 -2.798986 -0.200443 -0.470951 0.004765 0.259329
    23 -0.032909 -1.499736 0.036191 -1.696577 0.022459 -0.035113
    24 -0.027022 -1.115984 -0.028023 -0.968920 0.021776 -0.015256
    25 -0.249534 -2.846964 -0.174213 -0.535645 -0.010731 -0.008815
    26 0.043235 -1.656596 0.060855 -1.621351 -0.023843 0.011063
    27 0.031729 -1.145205 0.058838 -1.011245 -0.011127 0.005747
    28 -0.963866 -2.785145 -0.085350 -0.597967 0.150963 -0.214962
    29 0.028479 -1.418692 -0.032793 -1.625200 -0.054446 -0.037548
    30 0.021413 -0.942156 0.012233 -0.966033 -0.025407 -0.033677
    31 1.164475 -2.543940 -0.170330 -0.494244 -0.015667 0.509806
    32 0.024032 -1.160293 -0.009538 -1.656197 0.042186 0.070530
    33 0.014898 -0.903521 -0.015942 -1.030433 0.009720 0.051498
    34 -0.586770 -1.264477 0.200161 -0.164712 -0.837998 -2.053137
    35 1.604869 0.046962 0.016848 -0.038115 -0.003958 1.593801
    36 1.114041 0.040611 -0.005766 -0.028826 -0.034354 1.037033
    37 -0.139399 -0.111698 0.014397 0.285382 -0.030687 1.580508
    38 -1.393470 8.839177 -0.239433 1.580804 -0.005023 -1.566847
    39 4.794632 -9.115341 1.488212 -0.657985 2.827943 0.270387
    40 0.000000 1.335178 1.093263 1.570796 -2.464094 -1.570796
    41 0.046081 1.962502 0.099858 -1.271115 0.016162 0.017475
    42 0.017985 1.955458 1.597920 -0.845657 -0.127387 -0.003041
    43 0.024373 -0.077284 1.882302 -0.077197 0.005999 0.018585
    44 0.000000 0.000002 0.000000 0.000000 0.000000 0.000000
    45 -0.736999 1.320998 -1.736997 -2.040910 -0.864677 -1.070424
    46 0.787998 2.163996 -0.007000 -1.800279 0.015165 1.199428
    47 -1.735997 1.320998 0.736998 0.007682 0.322725 -0.649708
    48 0.899998 0.000000 2.119996 -0.242450 -1.156452 -0.009217
    49 -0.862998 0.000000 2.134996 3.370267 1.156453 -0.009218
    50 -0.706999 -1.320998 1.748997 -1.992910 0.848629 1.031323
    51 0.736999 -1.320998 1.735997 0.680384 -0.848629 -1.031324
    52 1.748997 1.320997 0.706999 -0.463472 -0.323112 0.649802
    53 -0.787999 2.159997 0.006999 1.805783 -0.032553 -1.210021
    54 -1.735997 -1.320998 0.737000 -2.663186 0.324278 0.642881
    55 1.748997 -1.320999 0.706968 0.007276 -0.324277 -0.642882
    56 -2.119996 0.000000 0.899999 3.363897 0.397588 0.012113
    57 2.134996 0.000000 0.862998 -0.248826 -0.397588 -0.012113
    58 -1.748996 1.321061 -0.706999 0.588721 -0.368967 -0.657260
    59 -2.134996 0.000000 -0.862998 3.363897 -0.386198 0.012113
    60 1.735997 1.320997 -0.736999 -0.000030 0.327481 0.661602
    61 0.706999 1.320997 -1.749998 0.629551 0.864677 1.070424
    62 -3.218778 2.976733 18.321862 -1.505339 -1.767910 0.729104
    63 0.000002 -0.000041 19.775605 0.000000 0.000000 0.000000
    64 0.707000 1.321000 -1.750000 -2.040807 0.864677 1.070424
    65 -0.737000 1.320999 -1.737000 0.629462 -0.864677 -1.070425
    66 0.788000 2.164001 -0.007000 -4.470637 0.015165 1.199428
    67 -1.736000 1.321000 0.736999 2.678054 0.322725 -0.649708
    68 0.900001 0.000000 2.120000 -2.912815 -1.156452 -0.009217
    69 -0.863000 0.000001 2.134999 6.040639 1.156452 -0.009218
    70 -0.707000 -1.321000 1.749000 0.677463 0.848629 1.031323
    71 0.737000 -1.321000 1.736000 -1.989974 -0.848629 -1.031324
    72 1.749001 1.321000 0.707000 -3.133844 -0.323112 0.649802
    73 -0.788000 2.160001 0.006999 4.476141 -0.032553 -1.210021
    74 -1.735999 -1.321000 0.737000 0.007179 0.324278 0.642881
    75 1.749001 -1.321000 0.706970 -2.663082 -0.324277 -0.642882
    76 -2.120000 0.000000 0.900000 6.034269 0.397588 0.012113
    77 2.135000 0.000000 0.863000 -2.919184 -0.397588 -0.012113
    78 -1.749000 1.321063 -0.707000 3.259079 -0.368967 -0.657260
    79 -2.135000 0.000000 -0.863000 6.034269 -0.386198 0.012113
    80 1.736000 1.321000 -0.737000 -2.670388 0.327481 0.661602
    81 15.957518 2.546955 26.489089 0.000000 0.000000 0.000000
    82 2.135000 0.000000 0.863000 -2.919191 -0.397588 -0.012113
    83 0.707000 1.321000 -1.749999 -2.040807 0.864677 1.070424
    84 -0.737000 1.321000 -1.737000 0.629462 -0.864677 -1.070425
    85 0.788000 2.164000 -0.007000 -4.470637 0.015165 1.199428
    86 -1.736000 1.321000 0.736999 2.678054 0.322725 -0.649708
    87 0.900000 0.000000 2.120000 -2.912815 -1.156452 -0.009217
    88 -0.863000 0.000000 2.135000 6.040632 1.156453 -0.009218
    89 -0.707000 -1.321000 1.749000 0.677463 0.848629 1.031323
    90 0.737000 -1.321001 1.736000 -1.989974 -0.848629 -1.031324
    91 1.749000 1.321000 0.707000 -3.133844 -0.323112 0.649802
    92 -0.788000 2.160000 0.007000 4.476141 -0.032553 -1.210021
    93 -1.736000 -1.321000 0.737001 0.007179 0.324278 0.642881
    94 1.749001 -1.321000 0.706971 -2.663082 -0.324277 -0.642882
    95 -2.119999 0.000000 0.900000 6.034269 0.397588 0.012113
    96 -1.749000 1.321064 -0.707000 3.259079 -0.368967 -0.657260
    97 -2.135000 0.000000 -0.863000 6.034262 -0.386198 0.012113
    98 1.736000 1.320999 -0.737000 -2.670388 0.327481 0.661602
  time 4
    0 -0.002752 -0.001265 -0.003287 0.000000 0.000000 0.000000
    1 5.442798 -2.709691 -8.835189 1.437503 -2.515656 -1.246952
    2 6.991730 -3.276845 -0.813889 -1.544606 -0.084521 -3.489371
    3 -0.048483 -8.487017 -0.084602 0.192801 0.471124 -0.098703
    4 -0.488518 -2.755602 -0.228260 -0.763886 0.211997 -0.485222
    5 0.039887 -1.487603 0.022041 -0.404197 -0.007239 0.005837
    6 0.028786 -1.138233 -0.112955 -0.853592 -0.014238 0.017114
    7 0.250027 -2.820665 -0.238396 -0.460755 0.070772 -0.234700
    8 -0.049759 -1.641480 0.096573 -0.503438 0.007730 -0.013113
    9 -0.034142 -1.175657 0.045718 -1.244712 0.005729 -0.032850
    10 0.957766 -2.746780 -0.090302 -0.473515 -0.123782 0.144195
    11 -0.033420 -1.397129 -0.015163 -0.334596 0.006999 -0.016060
    12 -0.022360 -0.957436 0.007065 -0.535838 0.007994 -0.025719
    13 -1.180681 -2.507217 -0.193859 -0.716159 0.141433 -0.649582
    14 -0.024967 -1.123934 0.017597 -0.784777 0.006759 -0.033460
    15 -0.020057 -0.906594 0.029622 -0.915970 0.006520 -0.037272
    16 0.610855 -1.220715 0.247881 -0.740562 -0.159684 0.409607
    17 1.485144 -0.208511 0.005009 -0.560168 -0.072914 -0.672638
    18 1.077333 -0.108758 0.020572 0.011921 -0.137394 -0.556447
    19 0.120153 -0.050270 -0.054489 0.287569 3.110905 1.561085
    20 -6.786593 1.069714 -10.907866 1.833052 -6.070803 1.446177
    21 0.089131 -8.411355 -0.017178 -0.188034 -0.310059 0.127731
    22 0.447953 -2.798986 -0.200443 -0.470951 0.004765 0.259329
    23 -0.032909 -1.499736 0.036191 -1.696577 0.022459 -0.035113
    24 -0.027022 -1.115984 -0.028023 -0.968920 0.021776 -0.015256
    25 -0.249534 -2.846964 -0.174213 -0.535645 -0.010731 -0.008815
    26 0.043235 -1.656596 0.060855 -1.621351 -0.023843 0.011063
    27 0.031729 -1.145205 0.058838 -1.011245 -0.011127 0.005747
    28 -0.963866 -2.785145 -0.085350 -0.597967 0.150963 -0.214962
    29 0.028479 -1.418692 -0.032793 -1.625200 -0.054446 -0.037548
    30 0.021413 -0.942156 0.012233 -0.966033 -0.025407 -0.033677
    31 1.164475 -2.543940 -0.170330 -0.494244 -0.015667 0.509806
    32 0.024032 -1.160293 -0.009538 -1.656197 0.042186 0.070530
    33 0.014898 -0.903521 -0.015942 -1.030433 0.009720 0.051498
    34 -0.586770 -1.264477 0.200161 -0.164712 -0.837998 -2.053137
    35 1.604869 0.046962 0.016848 -0.038115 -0.003958 1.593801
    36 1.114041 0.040611 -0.005766 -0.028826 -0.034354 1.037033
    37 -0.139399 -0.111698 0.014397 0.285382 -0.030687 1.580508
    38 -1.393470 8.839177 -0.239433 1.580804 -0.005023 -1.566847
    39 4.544625 -9.111435 1.218672 -0.844855 2.807515 0.043190
    40 0.000000 1.264863 1.034667 1.570796 -2.464094 -1.570796
    41 0.046081 1.962502 0.099858 -1.271115 0.016162 0.017475
    42 0.017985 1.955458 1.597920 -0.845657 -0.127387 -0.003041
    43 0.024373 -0.077284 1.882302 -0.077197 0.005999 0.018585
    44 0.000000 0.000002 0.000000 0.000000 0.000000 0.000000
    45 -0.736999 1.320998 -1.736997 -1.962390 -0.864677 -1.070424
    46 0.787998 2.163996 -0.007000 -1.878802 0.015165 1.199428
    47 -1.735997 1.320998 0.736998 0.086203 0.322725 -0.649708
    48 0.899998 0.000000 2.119996 -0.320971 -1.156452 -0.009217
    49 -0.862998 0.000000 2.134996 3.448788 1.156453 -0.009218
    50 -0.706999 -1.320998 1.748997 -1.914389 0.848629 1.031323
    51 0.736999 -1.320998 1.735997 0.601861 -0.848629 -1.031324
    52 1.748997 1.320997 0.706999 -0.541993 -0.323112 0.649802
    53 -0.787999 2.159997 0.006999 1.884306 -0.032553 -1.210021
    54 -1.735997 -1.320998 0.737000 -2.584665 0.324278 0.642881
    55 1.748997 -1.320999 0.706968 -0.071247 -0.324277 -0.642882
    56 -2.119996 0.000000 0.899999 3.442418 0.397588 0.012113
    57 2.134996 0.000000 0.862998 -0.327349 -0.397588 -0.012113
    58 -1.748996 1.321061 -0.706999 0.667244 -0.368967 -0.657260
    59 -2.134996 0.000000 -0.862998 3.442418 -0.386198 0.012113
    60 1.735997 1.320997 -0.736999 -0.078553 0.327481 0.661602
    61 0.706999 1.320997 -1.749998 0.551028 0.864677 1.070424
    62 -3.218778 2.976733 18.321862 -1.505339 -1.693720 0.729104
    63 0.000002 -0.000041 19.775605 0.000000 0.000000 0.000000
    64 0.707000 1.321000 -1.750000 -2.040807 0.864677 1.070424
    65 -0.737000 1.320999 -1.737000 0.629462 -0.864677 -1.070425
    66 0.788000 2.164001 -0.007000 -4.470637 0.015165 1.199428
    67 -1.736000 1.321000 0.736999 2.678054 0.322725 -0.649708
    68 0.900001 0.000000 2.120000 -2.912815 -1.156452 -0.009217
    69 -0.863000 0.000001 2.134999 6.040639 1.156452 -0.009218
    70 -0.707000 -1.321000 1.749000 0.677463 0.848629 1.031323
    71 0.737000 -1.321000 1.736000 -1.989974 -0.848629 -1.031324
    72 1.749001 1.321000 0.707000 -3.133844 -0.323112 0.649802
    73 -0.788000 2.160001 0.006999 4.476141 -0.032553 -1.210021
    74 -1.735999 -1.321000 0.737000 0.007179 0.324278 0.642881
    75 1.749001 -1.321000 0.706970 -2.663082 -0.324277 -0.642882
    76 -2.120000 0.000000 0.900000 6.034269 0.397588 0.012113
    77 2.135000 0.000000 0.863000 -2.919184 -0.397588 -0.012113
    78 -1.749000 1.321063 -0.707000 3.259079 -0.368967 -0.657260
    79 -2.135000 0.000000 -0.863000 6.034269 -0.386198 0.012113
    80 1.736000 1.321000 -0.737000 -2.670388 0.327481 0.661602
    81 15.957518 2.546955 26.489089 0.000000 0.000000 0.000000
    82 2.135000 0.000000 0.863000 -2.919191 -0.397588 -0.012113
    83 0.707000 1.321000 -1.749999 -2.040807 0.864677 1.070424
    84 -0.737000 1.321000 -1.737000 0.629462 -0.864677 -1.070425
    85 0.788000 2.164000 -0.007000 -4.470637 0.015165 1.199428
    86 -1.736000 1.321000 0.736999 2.678054 0.322725 -0.649708
    87 0.900000 0.000000 2.120000 -2.912815 -1.156452 -0.009217
    88 -0.863000 0.000000 2.135000 6.040632 1.156453 -0.009218
    89 -0.707000 -1.321000 1.749000 0.677463 0.848629 1.031323
    90 0.737000 -1.321001 1.736000 -1.989974 -0.848629 -1.031324
    91 1.749000 1.321000 0.707000 -3.133844 -0.323112 0.649802
    92 -0.788000 2.160000 0.007000 4.476141 -0.032553 -1.210021
    93 -1.736000 -1.321000 0.737001 0.007179 0.324278 0.642881
    94 1.749001 -1.321000 0.706971 -2.663082 -0.324277 -0.642882
    95 -2.119999 0.000000 0.900000 6.034269 0.397588 0.012113
    96 -1.749000 1.321064 -0.707000 3.259079 -0.368967 -0.657260
    97 -2.135000 0.000000 -0.863000 6.034262 -0.386198 0.012113
    98 1.736000 1.320999 -0.737000 -2.670388 0.327481 0.661602
  time 5
    0 -0.002752 -0.001265 -0.003287 0.000000 0.000000 0.000000
    1 5.696712 -2.526092 -8.913316 1.366711 -2.464475 -1.177009
    2 7.108921 -3.069808 -0.817796 -1.546713 -0.084808 -3.460082
    3 -0.040670 -8.483111 -0.084602 0.106138 0.520011 -0.007148
    4 -0.488518 -2.755602 -0.228260 -0.764902 0.211985 -0.485186
    5 0.039887 -1.487603 0.022041 -0.405219 -0.007263 0.005861
    6 0.028786 -1.138233 -0.112955 -0.854577 -0.014238 0.017138
    7 0.250027 -2.820665 -0.238396 -0.461772 0.070784 -0.234724
    8 -0.049759 -1.641480 0.096573 -0.504449 0.007742 -0.013137
    9 -0.034142 -1.175657 0.045718 -1.245702 0.005705 -0.032874
    10 0.957766 -2.746780 -0.090302 -0.422208 -0.099574 -0.030337
    11 -0.033420 -1.397129 -0.015163 -0.335596 0.007011 -0.016108
    12 -0.022360 -0.957436 -0.004654 -0.852171 0.005992 -0.041503
    13 -1.180681 -2.507217 -0.193859 -0.717175 0.141421 -0.649630
    14 -0.024967 -1.123934 0.017597 -0.785798 0.006747 -0.033508
    15 -0.020057 -0.906594 0.029622 -0.916990 0.006508 -0.037320
    16 0.606948 -1.220715 0.236162 -0.710303 -0.439938 0.363403
    17 1.485144 -0.212417 0.012822 -0.540290 -0.100371 -0.684242
    18 1.081239 -0.104851 0.020572 0.008637 -0.128705 -0.522850
    19 0.120153 -0.050270 -0.054489 0.287569 3.110905 1.561085
    20 -6.786593 1.069714 -10.907866 1.833052 -6.070803 1.446177
    21 0.089131 -8.411355 -0.017178 -0.188034 -0.310059 0.127731
    22 0.447953 -2.798986 -0.200443 -0.470951 0.004765 0.259329
    23 -0.032909 -1.499736 0.036191 -1.696577 0.022459 -0.035113
    24 -0.027022 -1.115984 -0.028023 -0.968920 0.021776 -0.015256
    25 -0.249534 -2.846964 -0.174213 -0.535645 -0.010731 -0.008815
    26 0.043235 -1.656596 0.060855 -1.621351 -0.023843 0.011063
    27 0.031729 -1.145205 0.058838 -1.011245 -0.011127 0.005747
    28 -0.963866 -2.785145 -0.085350 -0.597967 0.150963 -0.214962
    29 0.028479 -1.418692 -0.032793 -1.625200 -0.054446 -0.037548
    30 0.021413 -0.942156 0.012233 -0.966033 -0.025407 -0.033677
    31 1.164475 -2.543940 -0.170330 -0.494244 -0.015667 0.509806
    32 0.024032 -1.160293 -0.009538 -1.656197 0.042186 0.070530
    33 0.014898 -0.903521 -0.015942 -1.030433 0.009720 0.051498
    34 -0.586770 -1.264477 0.200161 -0.164712 -0.837998 -2.053137
    35 1.604869 0.046962 0.016848 -0.038115 -0.003958 1.593801
    36 1.114041 0.040611 -0.005766 -0.028826 -0.034354 1.037033
    37 -0.139399 -0.111698 0.014397 0.285382 -0.030687 1.580508
    38 -1.393470 8.839177 -0.239433 1.580804 -0.005023 -1.566847
    39 4.290711 -9.091903 0.699125 -0.806038 2.724605 -0.128798
    40 0.000000 1.155485 0.948727 1.570796 -2.464094 -1.570796
    41 0.046081 1.962502 0.099858 -1.271115 0.016162 0.017475
    42 0.017985 1.955458 1.597920 -0.845657 -0.127387 -0.003041
    43 0.024373 -0.077284 1.882302 -0.077197 0.005999 0.018585
    44 0.000000 0.000002 0.000000 0.000000 0.000000 0.000000
    45 -0.736999 1.320998 -1.736997 -1.883773 -0.864677 -1.070424
    46 0.787998 2.163996 -0.007000 -1.957325 0.015165 1.199428
    47 -1.735997 1.320998 0.736998 0.164723 0.322725 -0.649708
    48 0.899998 0.000000 2.119996 -0.399587 -1.156452 -0.009217
    49 -0.862998 0.000000 2.134996 3.527404 1.156453 -0.009218
    50 -0.706999 -1.320998 1.748997 -1.835773 0.848629 1.031323
    51 0.736999 -1.320998 1.735997 0.523338 -0.848629 -1.031324
    52 1.748997 1.320997 0.706999 -0.620513 -0.323112 0.649802
    53 -0.787999 2.159997 0.006999 1.962829 -0.032553 -1.210021
    54 -1.735997 -1.320998 0.737000 -2.506145 0.324278 0.642881
    55 1.748997 -1.320999 0.706968 -0.149770 -0.324277 -0.642882
    56 -2.119996 0.000000 0.899999 3.521034 0.397588 0.012113
    57 2.134996 0.000000 0.862998 -0.405872 -0.397588 -0.012113
    58 -1.748996 1.321061 -0.706999 0.745767 -0.368967 -0.657260
    59 -2.134996 0.000000 -0.862998 3.521034 -0.386198 0.012113
    60 1.735997 1.320997 -0.736999 -0.157076 0.327481 0.661602
    61 0.706999 1.320997 -1.749998 0.472505 0.864677 1.070424
    62 -3.218778 2.976733 18.321862 -1.505339 -1.619530 0.729104
    63 0.000002 -0.000041 19.775605 0.000000 0.000000 0.000000
    64 0.707000 1.321000 -1.750000 -2.040807 0.864677 1.070424
    65 -0.737000 1.320999 -1.737000 0.629462 -0.864677 -1.070425
    66 0.788000 2.164001 -0.007000 -4.470637 0.015165 1.199428
    67 -1.736000 1.321000 0.736999 2.678054 0.322725 -0.649708
    68 0.900001 0.000000 2.120000 -2.912815 -1.156452 -0.009217
    69 -0.863000 0.000001 2.134999 6.040639 1.156452 -0.009218
    70 -0.707000 -1.321000 1.749000 0.677463 0.848629 1.031323
    71 0.737000 -1.321000 1.736000 -1.989974 -0.848629 -1.031324
    72 1.749001 1.321000 0.707000 -3.133844 -0.323112 0.649802
    73 -0.788000 2.160001 0.006999 4.476141 -0.032553 -1.210021
    74 -1.735999 -1.321000 0.737000 0.007179 0.324278 0.642881
    75 1.749001 -1.321000 0.706970 -2.663082 -0.324277 -0.642882
    76 -2.120000 0.000000 0.900000 6.034269 0.397588 0.012113
    77 2.135000 0.000000 0.863000 -2.919184 -0.397588 -0.012113
    78 -1.749000 1.321063 -0.707000 3.259079 -0.368967 -0.657260
    79 -2.135000 0.000000 -0.863000 6.034269 -0.386198 0.012113
    80 1.736000 1.321000 -0.737000 -2.670388 0.327481 0.661602
    81 15.957518 2.546955 26.489089 0.000000 0.000000 0.000000
    82 2.135000 0.000000 0.863000 -2.919191 -0.397588 -0.012113
    83 0.707000 1.321000 -1.749999 -2.040807 0.864677 1.070424
    84 -0.737000 1.321000 -1.737000 0.629462 -0.864677 -1.070425
    85 0.788000 2.164000 -0.007000 -4.470637 0.015165 1.199428
    86 -1.736000 1.321000 0.736999 2.678054 0.322725 -0.649708
    87 0.900000 0.000000 2.120000 -2.912815 -1.156452 -0.009217
    88 -0.863000 0.000000 2.135000 6.040632 1.156453 -0.009218
    89 -0.707000 -1.321000 1.749000 0.677463 0.848629 1.031323
    90 0.737000 -1.321001 1.736000 -1.989974 -0.848629 -1.031324
    91 1.749000 1.321000 0.707000 -3.133844 -0.323112 0.649802
    92 -0.788000 2.160000 0.007000 4.476141 -0.032553 -1.210021
    93 -1.736000 -1.321000 0.737001 0.007179 0.324278 0.642881
    94 1.749001 -1.321000 0.706971 -2.663082 -0.324277 -0.642882
    95 -2.119999 0.000000 0.900000 6.034269 0.397588 0.012113
    96 -1.749000 1.321064 -0.707000 3.259079 -0.368967 -0.657260
    97 -2.135000 0.000000 -0.863000 6.034262 -0.386198 0.012113
    98 1.736000 1.320999 -0.737000 -2.670388 0.327481 0.661602
  time 6
    0 -0.002752 -0.001265 -0.003287 0.000000 0.000000 0.000000
    1 5.962345 -2.334680 -8.956286 1.291518 -2.436776 -1.104748
    2 7.155797 -2.976055 -0.821702 -1.547671 -0.084903 -3.447269
    3 -0.044576 -8.479205 -0.084602 0.047179 0.510872 0.035050
    4 -0.488518 -2.755602 -0.228260 -0.774255 0.211913 -0.484947
    5 0.039887 -1.487603 0.022041 -0.414628 -0.007430 0.006053
    6 0.028786 -1.142139 -0.112955 -0.864018 -0.014310 0.017378
    7 0.250027 -2.820665 -0.238396 -0.471203 0.070868 -0.234988
    8 -0.049759 -1.641480 0.096573 -0.513870 0.007814 -0.013401
    9 -0.034142 -1.175657 0.045718 -1.255124 0.005597 -0.033125
    10 0.957766 -2.746780 -0.090302 -0.492650 -0.103121 -0.081439
    11 -0.033420 -1.397129 -0.015163 -0.344437 0.007107 -0.016540
    12 -0.022360 -0.961342 -0.004654 -0.887255 0.005465 -0.043204
    13 -1.180681 -2.507217 -0.193859 -0.726644 0.141361 -0.650062
    14 -0.024967 -1.123934 0.017597 -0.795192 0.006663 -0.033927
    15 -0.020057 -0.906594 0.029622 -0.926398 0.006400 -0.037739
    16 0.603042 -1.220715 0.232255 -0.694250 -0.544149 0.316283
    17 1.500770 -0.181166 -0.018429 -0.446493 0.016659 -0.583819
    18 1.061707 -0.132196 0.028385 0.027633 -0.170220 -0.688755
    19 0.120153 -0.050270 -0.054489 0.287569 3.110905 1.561085
    20 -6.786593 1.069714 -10.907866 1.833052 -6.070803 1.446177
    21 0.089131 -8.411355 -0.017178 -0.188034 -0.310059 0.127731
    22 0.447953 -2.798986 -0.200443 -0.470951 0.004765 0.259329
    23 -0.032909 -1.499736 0.036191 -1.696577 0.022459 -0.035113
    24 -0.027022 -1.115984 -0.028023 -0.968920 0.021776 -0.015256
    25 -0.249534 -2.846964 -0.174213 -0.535645 -0.010731 -0.008815
    26 0.043235 -1.656596 0.060855 -1.621351 -0.023843 0.011063
    27 0.031729 -1.145205 0.058838 -1.011245 -0.011127 0.005747
    28 -0.963866 -2.785145 -0.085350 -0.597967 0.150963 -0.214962
    29 0.028479 -1.418692 -0.032793 -1.625200 -0.054446 -0.037548
    30 0.021413 -0.942156 0.012233 -0.966033 -0.025407 -0.033677
    31 1.164475 -2.543940 -0.170330 -0.494244 -0.015667 0.509806
    32 0.024032 -1.160293 -0.009538 -1.656197 0.042186 0.070530
    33 0.014898 -0.903521 -0.015942 -1.030433 0.009720 0.051498
    34 -0.586770 -1.264477 0.200161 -0.164712 -0.837998 -2.053137
    35 1.604869 0.046962 0.016848 -0.038115 -0.003958 1.593801
    36 1.114041 0.040611 -0.005766 -0.028826 -0.034354 1.037033
    37 -0.139399 -0.111698 0.014397 0.285382 -0.030687 1.580508
    38 -1.393470 8.839177 -0.239433 1.580804 -0.005023 -1.566847
    39 4.064141 -9.170031 0.156140 -0.818977 2.628210 -0.206090
    40 0.000000 1.085170 0.894038 1.570796 -2.464094 -1.570796
    41 0.046081 1.962502 0.099858 -1.271115 0.016162 0.017475
    42 0.017985 1.955458 1.597920 -0.845657 -0.127387 -0.003041
    43 0.024373 -0.077284 1.882302 -0.077197 0.005999 0.018585
    44 0.000000 0.000002 0.000000 0.000000 0.000000 0.000000
    45 -0.736999 1.320998 -1.736997 -1.805252 -0.864677 -1.070424
    46 0.787998 2.163996 -0.007000 -2.035944 0.015165 1.199428
    47 -1.735997 1.320998 0.736998 0.243340 0.322725 -0.649708
    48 0.899998 0.000000 2.119996 -0.478108 -1.156452 -0.009217
    49 -0.862998 0.000000 2.134996 3.605925 1.156453 -0.009218
    50 -0.706999 -1.320998 1.748997 -1.757252 0.848629 1.031323
    51 0.736999 -1.320998 1.735997 0.444719 -0.848629 -1.031324
    52 1.748997 1.320997 0.706999 -0.699130 -0.323112 0.649802
    53 -0.787999 2.159997 0.006999 2.041448 -0.032553 -1.210021
    54 -1.735997 -1.320998 0.737000 -2.427528 0.324278 0.642881
    55 1.748997 -1.320999 0.706968 -0.228389 -0.324277 -0.642882
    56 -2.119996 0.000000 0.899999 3.599555 0.397588 0.012113
    57 2.134996 0.000000 0.862998 -0.484491 -0.397588 -0.012113
    58 -1.748996 1.321061 -0.706999 0.824386 -0.368967 -0.657260
    59 -2.134996 0.000000 -0.862998 3.599555 -0.386198 0.012113
    60 1.735997 1.320997 -0.736999 -0.235695 0.327481 0.661602
    61 0.706999 1.320997 -1.749998 0.393886 0.864677 1.070424
    62 -3.218778 2.976733 18.321862 -1.505339 -1.545340 0.729104
    63 0.000002 -0.000041 19.775605 0.000000 0.000000 0.000000
    64 0.707000 1.321000 -1.750000 -2.040807 0.864677 1.070424
    65 -0.737000 1.320999 -1.737000 0.629462 -0.864677 -1.070425
    66 0.788000 2.164001 -0.007000 -4.470637 0.015165 1.199428
    67 -1.736000 1.321000 0.736999 2.678054 0.322725 -0.649708
    68 0.900001 0.000000 2.120000 -2.912815 -1.156452 -0.009217
    69 -0.863000 0.000001 2.134999 6.040639 1.156452 -0.009218
    70 -0.707000 -1.321000 1.749000 0.677463 0.848629 1.031323
    71 0.737000 -1.321000 1.736000 -1.989974 -0.848629 -1.031324
    72 1.749001 1.321000 0.707000 -3.133844 -0.323112 0.649802
    73 -0.788000 2.160001 0.006999 4.476141 -0.032553 -1.210021
    74 -1.735999 -1.321000 0.737000 0.007179 0.324278 0.642881
    75 1.749001 -1.321000 0.706970 -2.663082 -0.324277 -0.642882
    76 -2.120000 0.000000 0.900000 6.034269 0.397588 0.012113
    77 2.135000 0.000000 0.863000 -2.919184 -0.397588 -0.012113
    78 -1.749000 1.321063 -0.707000 3.259079 -0.368967 -0.657260
    79 -2.135000 0.000000 -0.863000 6.034269 -0.386198 0.012113
    80 1.736000 1.321000 -0.737000 -2.670388 0.327481 0.661602
    81 15.957518 2.546955 26.489089 0.000000 0.000000 0.000000
    82 2.135000 0.000000 0.863000 -2.919191 -0.397588 -0.012113
    83 0.707000 1.321000 -1.749999 -2.040807 0.864677 1.070424
    84 -0.737000 1.321000 -1.737000 0.629462 -0.864677 -1.070425
    85 0.788000 2.164000 -0.007000 -4.470637 0.015165 1.199428
    86 -1.736000 1.321000 0.736999 2.678054 0.322725 -0.649708
    87 0.900000 0.000000 2.120000 -2.912815 -1.156452 -0.009217
    88 -0.863000 0.000000 2.135000 6.040632 1.156453 -0.009218
    89 -0.707000 -1.321000 1.749000 0.677463 0.848629 1.031323
    90 0.737000 -1.321001 1.736000 -1.989974 -0.848629 -1.031324
    91 1.749000 1.321000 0.707000 -3.133844 -0.323112 0.649802
    92 -0.788000 2.160000 0.007000 4.476141 -0.032553 -1.210021
    93 -1.736000 -1.321000 0.737001 0.007179 0.324278 0.642881
    94 1.749001 -1.321000 0.706971 -2.663082 -0.324277 -0.642882
    95 -2.119999 0.000000 0.900000 6.034269 0.397588 0.012113
    96 -1.749000 1.321064 -0.707000 3.259079 -0.368967 -0.657260
    97 -2.135000 0.000000 -0.863000 6.034262 -0.386198 0.012113
    98 1.736000 1.320999 -0.737000 -2.670388 0.327481 0.661602
end
