// Created by Crowbar 0.49.0.0

$modelname "v_snakegun.mdl"
$cd "."
$cdtexture "."
$cliptotextures
$scale 1.0

$bodygroup "weapon"
{
	studio "v_snakegun"
}
$bodygroup "hands"
{
	studio "v_snakegun_CSO_Hand_Male_L_2009"
	studio "v_snakegun_CSO_Hand_Female_L_2009"
}

$flags 0

$texturegroup "skinfamilies"
{
	{ "snakegun_v.bmp" "#512512CSO_HighQ_Hand__Long_512.BMP" "#512512CSO_Girl_Hand_long.bmp" }
}


$attachment 0 "Bone02" 14 0 0
$attachment 1 "Bone02" 6 0 -0.5

$cbox 0 0 0 0 0 0

$bbox 0 0 0 0 0 0

$hbox 0 "root" -9.310107 -5.23126 -12.513384 9.213061 3.757194 0
$hbox 0 "Bone01" -1.36 -8.49873 -1.73 1.62 8.762585 1.24
$hbox 0 "Bone_Lefthand" -1.6 -3.09 -0.83 2.902373 0 1.363887
$hbox 0 "Bone02" -8.43 -2.15 -0.96 14 4.84 1.17
$hbox 0 "Bone_L_Upper" 0 -1.69 -2.69 8.98 1.68 1.69
$hbox 0 "Bone05" 0 -0.83 -0.75 1.535927 0.87 0.73
$hbox 0 "Bone06" 0 -0.66 -0.61 1.2 0.54 0.49
$hbox 0 "Bone04" -1.72 -8.450418 -1.67 1.31 8.839177 1.3
$hbox 0 "Bone_Righthand" -1.4 -3.14 -0.81 1.58 0 0.94
$hbox 0 "Bone27" 0 -0.87 -0.75 1.522835 0.85 0.73
$hbox 0 "Bone28" 0 -0.56 -0.61 1.23 0.63 0.48
$hbox 0 "Bone_R_Upper" 0 -1.63 -2.69 9.07 1.74 1.69

$sequence "idle1" {
	"v_snakegun_anims\idle1"
	fps 30
	loop
}
$sequence "reload" {
	"v_snakegun_anims\reload"
	{ event 5004 16 "weapons/snakegun_clipout1.wav" }
	{ event 5004 46 "weapons/snakegun_clipout2.wav" }
	{ event 5004 62 "weapons/snakegun_clipin.wav" }
	{ event 5004 81 "weapons/snakegun_boltpull.wav" }
	fps 30
}
$sequence "draw" {
	"v_snakegun_anims\draw"
	{ event 5004 5 "weapons/snakegun_draw.wav" }
	fps 30
}
$sequence "shoot1" {
	"v_snakegun_anims\shoot1"
	{ event 5001 0 "11" }
	{ event 5001 0 "11" }
	fps 30
}
$sequence "shoot2" {
	"v_snakegun_anims\shoot2"
	{ event 5001 0 "11" }
	{ event 5001 0 "11" }
	fps 30
}
$sequence "shoot3" {
	"v_snakegun_anims\shoot3"
	{ event 5001 0 "11" }
	{ event 5001 0 "11" }
	fps 30
}
